version 1
nodes
  0 "static_prop" -1
end
skeleton
time 0
0 0.000000 0.000000 0.000000 0.000000 0.000000 0.000000
end
triangles
barrelbottom08a
0 15.194000 0.000001 -0.042600 0.000000 0.000000 -1.000000 0.500000 -0.999500 1 0 1.000000 
0 10.743800 10.743800 -0.042600 0.000000 0.000000 -1.000000 0.853200 -0.853200 1 0 1.000000 
0 14.037400 5.814500 -0.042600 0.000000 0.000000 -1.000000 0.691200 -0.961500 1 0 1.000000 
barrelbottom08a
0 15.194000 0.000001 -0.042600 0.000000 0.000000 -1.000000 0.500000 -0.999500 1 0 1.000000 
0 5.814499 14.037400 -0.042600 0.000000 0.000000 -1.000000 0.961500 -0.691200 1 0 1.000000 
0 10.743800 10.743800 -0.042600 0.000000 0.000000 -1.000000 0.853200 -0.853200 1 0 1.000000 
barrelbottom08a
0 15.194000 0.000001 -0.042600 0.000000 0.000000 -1.000000 0.500000 -0.999500 1 0 1.000000 
0 -0.000001 15.194000 -0.042600 0.000000 0.000000 -1.000000 0.999500 -0.500000 1 0 1.000000 
0 5.814499 14.037400 -0.042600 0.000000 0.000000 -1.000000 0.961500 -0.691200 1 0 1.000000 
barrelbottom08a
0 15.194000 0.000001 -0.042600 0.000000 0.000000 -1.000000 0.500000 -0.999500 1 0 1.000000 
0 -5.814500 14.037400 -0.042600 0.000000 0.000000 -1.000000 0.961500 -0.308800 1 0 1.000000 
0 -0.000001 15.194000 -0.042600 0.000000 0.000000 -1.000000 0.999500 -0.500000 1 0 1.000000 
barrelbottom08a
0 15.194000 0.000001 -0.042600 0.000000 0.000000 -1.000000 0.500000 -0.999500 1 0 1.000000 
0 -10.743800 10.743800 -0.042600 0.000000 0.000000 -1.000000 0.853200 -0.146800 1 0 1.000000 
0 -5.814500 14.037400 -0.042600 0.000000 0.000000 -1.000000 0.961500 -0.308800 1 0 1.000000 
barrelbottom08a
0 15.194000 0.000001 -0.042600 0.000000 0.000000 -1.000000 0.500000 -0.999500 1 0 1.000000 
0 -14.037400 5.814499 -0.042600 0.000000 0.000000 -1.000000 0.691200 -0.038500 1 0 1.000000 
0 -10.743800 10.743800 -0.042600 0.000000 0.000000 -1.000000 0.853200 -0.146800 1 0 1.000000 
barrelbottom08a
0 15.194000 0.000001 -0.042600 0.000000 0.000000 -1.000000 0.500000 -0.999500 1 0 1.000000 
0 -15.194000 -0.000001 -0.042600 0.000000 0.000000 -1.000000 0.500000 -0.000500 1 0 1.000000 
0 -14.037400 5.814499 -0.042600 0.000000 0.000000 -1.000000 0.691200 -0.038500 1 0 1.000000 
barrelbottom08a
0 15.194000 0.000001 -0.042600 0.000000 0.000000 -1.000000 0.500000 -0.999500 1 0 1.000000 
0 -14.037400 -5.814500 -0.042600 0.000000 0.000000 -1.000000 0.308800 -0.038500 1 0 1.000000 
0 -15.194000 -0.000001 -0.042600 0.000000 0.000000 -1.000000 0.500000 -0.000500 1 0 1.000000 
barrelbottom08a
0 15.194000 0.000001 -0.042600 0.000000 0.000000 -1.000000 0.500000 -0.999500 1 0 1.000000 
0 -10.743800 -10.743800 -0.042600 0.000000 0.000000 -1.000000 0.146800 -0.146800 1 0 1.000000 
0 -14.037400 -5.814500 -0.042600 0.000000 0.000000 -1.000000 0.308800 -0.038500 1 0 1.000000 
barrelbottom08a
0 15.194000 0.000001 -0.042600 0.000000 0.000000 -1.000000 0.500000 -0.999500 1 0 1.000000 
0 -5.814499 -14.037400 -0.042600 0.000000 0.000000 -1.000000 0.038500 -0.308800 1 0 1.000000 
0 -10.743800 -10.743800 -0.042600 0.000000 0.000000 -1.000000 0.146800 -0.146800 1 0 1.000000 
barrelbottom08a
0 15.194000 0.000001 -0.042600 0.000000 0.000000 -1.000000 0.500000 -0.999500 1 0 1.000000 
0 0.000001 -15.194000 -0.042600 0.000000 0.000000 -1.000000 0.000500 -0.500000 1 0 1.000000 
0 -5.814499 -14.037400 -0.042600 0.000000 0.000000 -1.000000 0.038500 -0.308800 1 0 1.000000 
barrelbottom08a
0 15.194000 0.000001 -0.042600 0.000000 0.000000 -1.000000 0.500000 -0.999500 1 0 1.000000 
0 5.814500 -14.037400 -0.042600 0.000000 0.000000 -1.000000 0.038500 -0.691200 1 0 1.000000 
0 0.000001 -15.194000 -0.042600 0.000000 0.000000 -1.000000 0.000500 -0.500000 1 0 1.000000 
barrelbottom08a
0 15.194000 0.000001 -0.042600 0.000000 0.000000 -1.000000 0.500000 -0.999500 1 0 1.000000 
0 10.743800 -10.743800 -0.042600 0.000000 0.000000 -1.000000 0.146800 -0.853200 1 0 1.000000 
0 5.814500 -14.037400 -0.042600 0.000000 0.000000 -1.000000 0.038500 -0.691200 1 0 1.000000 
barrelbottom08a
0 15.194000 0.000001 -0.042600 0.000000 0.000000 -1.000000 0.500000 -0.999500 1 0 1.000000 
0 13.826300 -5.814499 -0.042600 0.000000 0.000000 -1.000000 0.308800 -0.954500 1 0 1.000000 
0 10.743800 -10.743800 -0.042600 0.000000 0.000000 -1.000000 0.146800 -0.853200 1 0 1.000000 
barrelside08a
0 14.037400 5.814500 14.472700 0.410485 0.911766 0.013599 0.751400 -0.698200 1 0 1.000000 
0 3.605000 10.404500 21.637600 0.417502 0.908304 0.026000 0.885800 -0.549500 1 0 1.000000 
0 14.371300 5.459301 28.195801 0.410485 0.911766 0.013599 0.746700 -0.413400 1 0 1.000000 
barrelside08a
0 14.037400 5.814500 14.472700 0.767675 0.464885 0.441086 0.751400 -0.698200 1 0 1.000000 
0 -0.000001 12.251000 15.034500 0.417502 0.908304 0.026000 0.938900 -0.686600 1 0 1.000000 
0 3.605000 10.404500 21.637600 0.417502 0.908304 0.026000 0.885800 -0.549500 1 0 1.000000 
barrelside08a
0 3.605000 10.404500 21.637600 0.417502 0.908304 0.026000 0.885800 -0.549500 1 0 1.000000 
0 -0.000001 12.251000 15.034500 0.417502 0.908304 0.026000 0.938900 -0.686600 1 0 1.000000 
0 -2.229501 13.294100 20.204599 0.441905 0.897010 0.009600 0.965300 -0.579300 1 0 1.000000 
barrelside08a
0 3.605000 10.404500 21.637600 0.417502 0.908304 0.026000 0.885800 -0.549500 1 0 1.000000 
0 -2.229501 13.294100 20.204599 0.441905 0.897010 0.009600 0.965300 -0.579300 1 0 1.000000 
0 -1.451101 12.839500 28.195801 0.442193 0.896885 0.007900 0.956800 -0.413400 1 0 1.000000 
barrelside08a
0 12.358000 -5.814499 14.472700 0.791008 -0.319903 0.521505 0.618900 -0.698200 1 0 1.000000 
0 15.986700 0.000001 13.351800 0.816337 -0.017001 0.577326 0.688900 -0.721500 1 0 1.000000 
0 15.194000 0.000001 14.472700 0.811597 -0.108800 0.573998 0.688900 -0.698200 1 0 1.000000 
barrelside08a
0 15.986700 0.000001 13.351800 0.816337 -0.017001 0.577326 0.688900 -0.721500 1 0 1.000000 
0 14.037400 5.814500 14.472700 0.767675 0.464885 0.441086 0.751400 -0.698200 1 0 1.000000 
0 15.194000 0.000001 14.472700 0.811597 -0.108800 0.573998 0.688900 -0.698200 1 0 1.000000 
barrelside08a
0 15.986700 0.000001 13.351800 0.816337 -0.017001 0.577326 0.688900 -0.721500 1 0 1.000000 
0 14.769800 6.117900 13.351800 0.805871 0.160294 0.569980 0.751400 -0.721500 1 0 1.000000 
0 14.037400 5.814500 14.472700 0.767675 0.464885 0.441086 0.751400 -0.698200 1 0 1.000000 
barrelside08a
0 -5.814499 -14.037400 14.472700 -0.320102 -0.772805 0.548003 0.376400 -0.698200 1 0 1.000000 
0 0.000001 -15.986700 13.262500 0.118805 -0.898535 0.422516 0.438900 -0.723400 1 0 1.000000 
0 0.000001 -15.194000 14.472700 0.021900 -0.836316 0.547810 0.438900 -0.698200 1 0 1.000000 
barrelside08a
0 0.000001 -15.986700 13.262500 0.118805 -0.898535 0.422516 0.438900 -0.723400 1 0 1.000000 
0 5.814500 -14.037400 13.990600 0.356499 -0.886998 0.293499 0.501400 -0.708200 1 0 1.000000 
0 0.000001 -15.194000 14.472700 0.021900 -0.836316 0.547810 0.438900 -0.698200 1 0 1.000000 
barrelside08a
0 0.000001 -15.986700 13.262500 0.118805 -0.898535 0.422516 0.438900 -0.723400 1 0 1.000000 
0 6.117900 -14.154400 12.556000 0.404991 -0.867880 0.287693 0.503800 -0.738000 1 0 1.000000 
0 5.814500 -14.037400 13.990600 0.356499 -0.886998 0.293499 0.501400 -0.708200 1 0 1.000000 
barrelside08a
0 6.117900 -14.154400 12.556000 0.404991 -0.867880 0.287693 0.503800 -0.738000 1 0 1.000000 
0 10.743800 -10.743800 14.472700 0.609079 -0.666177 0.430385 0.563900 -0.698200 1 0 1.000000 
0 5.814500 -14.037400 13.990600 0.356499 -0.886998 0.293499 0.501400 -0.708200 1 0 1.000000 
barrelside08a
0 6.117900 -14.154400 12.556000 0.404991 -0.867880 0.287693 0.503800 -0.738000 1 0 1.000000 
0 11.304301 -11.304299 13.262500 0.625776 -0.555779 0.547279 0.563900 -0.723400 1 0 1.000000 
0 10.743800 -10.743800 14.472700 0.609079 -0.666177 0.430385 0.563900 -0.698200 1 0 1.000000 
barrelside08a
0 11.304301 -11.304299 13.262500 0.625776 -0.555779 0.547279 0.563900 -0.723400 1 0 1.000000 
0 12.358000 -5.814499 14.472700 0.791008 -0.319903 0.521505 0.618900 -0.698200 1 0 1.000000 
0 10.743800 -10.743800 14.472700 0.609079 -0.666177 0.430385 0.563900 -0.698200 1 0 1.000000 
barrelside08a
0 -6.117900 14.769800 13.712100 -0.388497 0.581496 0.714795 0.001400 -0.714000 1 0 1.000000 
0 -10.743800 10.743800 14.472700 -0.456600 0.521500 0.720800 0.063900 -0.698200 1 0 1.000000 
0 -5.814500 14.037400 14.472700 -0.388497 0.581496 0.714795 0.001400 -0.698200 1 0 1.000000 
barrelside08a
0 -6.117900 14.769800 13.712100 -0.388497 0.581496 0.714795 0.001400 -0.714000 1 0 1.000000 
0 -11.304301 11.304299 13.712100 -0.521500 0.456600 0.720800 0.063900 -0.714000 1 0 1.000000 
0 -10.743800 10.743800 14.472700 -0.456600 0.521500 0.720800 0.063900 -0.698200 1 0 1.000000 
barrelside08a
0 -11.304301 11.304299 13.712100 -0.521500 0.456600 0.720800 0.063900 -0.714000 1 0 1.000000 
0 -14.037400 5.814499 14.472700 -0.643504 0.255602 0.721505 0.126400 -0.698200 1 0 1.000000 
0 -10.743800 10.743800 14.472700 -0.456600 0.521500 0.720800 0.063900 -0.698200 1 0 1.000000 
barrelside08a
0 -11.304301 11.304299 13.712100 -0.521500 0.456600 0.720800 0.063900 -0.714000 1 0 1.000000 
0 -14.769800 6.117899 13.712100 -0.680680 0.116996 0.723178 0.126400 -0.714000 1 0 1.000000 
0 -14.037400 5.814499 14.472700 -0.643504 0.255602 0.721505 0.126400 -0.698200 1 0 1.000000 
barrelside08a
0 -14.769800 6.117899 13.712100 -0.680680 0.116996 0.723178 0.126400 -0.714000 1 0 1.000000 
0 -13.820300 -0.000001 14.472700 -0.703634 -0.006300 0.710534 0.188900 -0.698200 1 0 1.000000 
0 -14.037400 5.814499 14.472700 -0.643504 0.255602 0.721505 0.126400 -0.698200 1 0 1.000000 
barrelside08a
0 -14.769800 6.117899 13.712100 -0.680680 0.116996 0.723178 0.126400 -0.714000 1 0 1.000000 
0 -14.613000 -0.000001 13.712100 -0.703017 0.008900 0.711117 0.188900 -0.714000 1 0 1.000000 
0 -13.820300 -0.000001 14.472700 -0.703634 -0.006300 0.710534 0.188900 -0.698200 1 0 1.000000 
barrelside08a
0 -14.613000 -0.000001 13.712100 -0.703017 0.008900 0.711117 0.188900 -0.714000 1 0 1.000000 
0 -14.037400 -5.814500 14.472700 -0.680095 -0.117199 0.723695 0.251400 -0.698200 1 0 1.000000 
0 -13.820300 -0.000001 14.472700 -0.703634 -0.006300 0.710534 0.188900 -0.698200 1 0 1.000000 
barrelside08a
0 -14.613000 -0.000001 13.712100 -0.703017 0.008900 0.711117 0.188900 -0.714000 1 0 1.000000 
0 -14.769800 -6.117900 13.712100 -0.680491 -0.298296 0.669291 0.251400 -0.714000 1 0 1.000000 
0 -14.037400 -5.814500 14.472700 -0.680095 -0.117199 0.723695 0.251400 -0.698200 1 0 1.000000 
barrelside08a
0 -14.769800 -6.117900 13.712100 -0.680491 -0.298296 0.669291 0.251400 -0.714000 1 0 1.000000 
0 -10.743800 -10.743800 14.472700 -0.583713 -0.537012 0.609013 0.313900 -0.698200 1 0 1.000000 
0 -14.037400 -5.814500 14.472700 -0.680095 -0.117199 0.723695 0.251400 -0.698200 1 0 1.000000 
barrelside08a
0 -14.769800 -6.117900 13.712100 -0.680491 -0.298296 0.669291 0.251400 -0.714000 1 0 1.000000 
0 -11.304299 -11.304301 13.262500 -0.577408 -0.605308 0.547907 0.313900 -0.723400 1 0 1.000000 
0 -10.743800 -10.743800 14.472700 -0.583713 -0.537012 0.609013 0.313900 -0.698200 1 0 1.000000 
barrelside08a
0 -11.304299 -11.304301 13.262500 -0.577408 -0.605308 0.547907 0.313900 -0.723400 1 0 1.000000 
0 -5.814499 -14.037400 14.472700 -0.320102 -0.772805 0.548003 0.376400 -0.698200 1 0 1.000000 
0 -10.743800 -10.743800 14.472700 -0.583713 -0.537012 0.609013 0.313900 -0.698200 1 0 1.000000 
barrelside08a
0 -0.000001 15.986700 34.341301 0.022099 0.853278 0.520987 -0.061100 -0.285900 1 0 1.000000 
0 -5.814500 14.037400 35.639702 -0.273893 0.808879 0.520286 0.001400 -0.258900 1 0 1.000000 
0 -0.000001 15.194000 35.639702 0.215694 0.848076 0.483986 -0.061100 -0.258900 1 0 1.000000 
barrelside08a
0 -0.000001 15.986700 34.341301 0.022099 0.853278 0.520987 -0.061100 -0.285900 1 0 1.000000 
0 -6.117900 14.769800 34.341301 -0.347586 0.745970 0.568077 0.001400 -0.285900 1 0 1.000000 
0 -5.814500 14.037400 35.639702 -0.273893 0.808879 0.520286 0.001400 -0.258900 1 0 1.000000 
barrelside08a
0 -6.117900 14.769800 34.341301 -0.347586 0.745970 0.568077 0.001400 -0.285900 1 0 1.000000 
0 -10.743800 10.743800 35.639702 -0.503468 0.603961 0.617860 0.063900 -0.258900 1 0 1.000000 
0 -5.814500 14.037400 35.639702 -0.273893 0.808879 0.520286 0.001400 -0.258900 1 0 1.000000 
barrelside08a
0 -6.117900 14.769800 34.341301 -0.347586 0.745970 0.568077 0.001400 -0.285900 1 0 1.000000 
0 -11.304301 11.304299 34.750099 -0.512507 0.543108 0.665109 0.063900 -0.277400 1 0 1.000000 
0 -10.743800 10.743800 35.639702 -0.503468 0.603961 0.617860 0.063900 -0.258900 1 0 1.000000 
barrelside08a
0 -11.304301 11.304299 34.750099 -0.512507 0.543108 0.665109 0.063900 -0.277400 1 0 1.000000 
0 -14.037400 5.814499 35.639702 -0.782072 0.306189 0.542781 0.126400 -0.258900 1 0 1.000000 
0 -10.743800 10.743800 35.639702 -0.503468 0.603961 0.617860 0.063900 -0.258900 1 0 1.000000 
barrelside08a
0 -14.037400 5.814499 35.639702 -0.782072 0.306189 0.542781 0.126400 -0.258900 1 0 1.000000 
0 -15.986700 -0.000001 33.859299 -0.911874 -0.060498 0.405988 0.188900 -0.295900 1 0 1.000000 
0 -15.194000 -0.000001 35.639702 -0.913514 -0.000000 0.406806 0.188900 -0.258900 1 0 1.000000 
barrelside08a
0 -15.986700 -0.000001 33.859299 -0.911874 -0.060498 0.405988 0.188900 -0.295900 1 0 1.000000 
0 -14.037400 -5.814500 35.639702 -0.849804 -0.335301 0.406702 0.251400 -0.258900 1 0 1.000000 
0 -15.194000 -0.000001 35.639702 -0.913514 -0.000000 0.406806 0.188900 -0.258900 1 0 1.000000 
barrelside08a
0 -15.986700 -0.000001 33.859299 -0.911874 -0.060498 0.405988 0.188900 -0.295900 1 0 1.000000 
0 -14.769800 -6.117900 33.859299 -0.774501 -0.482901 0.408601 0.251400 -0.295900 1 0 1.000000 
0 -14.037400 -5.814500 35.639702 -0.849804 -0.335301 0.406702 0.251400 -0.258900 1 0 1.000000 
barrelside08a
0 -14.769800 -6.117900 33.859299 -0.774501 -0.482901 0.408601 0.251400 -0.295900 1 0 1.000000 
0 -9.907500 -10.352500 35.639702 -0.658563 -0.637364 0.400077 0.317400 -0.258900 1 0 1.000000 
0 -14.037400 -5.814500 35.639702 -0.849804 -0.335301 0.406702 0.251400 -0.258900 1 0 1.000000 
barrelside08a
0 -14.769800 -6.117900 33.859299 -0.774501 -0.482901 0.408601 0.251400 -0.295900 1 0 1.000000 
0 -10.468099 -10.913000 33.859299 -0.635112 -0.660413 0.400608 0.317200 -0.295900 1 0 1.000000 
0 -9.907500 -10.352500 35.639702 -0.658563 -0.637364 0.400077 0.317400 -0.258900 1 0 1.000000 
barrelside08a
0 -10.468099 -10.913000 33.859299 -0.635112 -0.660413 0.400608 0.317200 -0.295900 1 0 1.000000 
0 -5.814499 -14.037400 35.639702 -0.479788 -0.776281 0.408890 0.376400 -0.258900 1 0 1.000000 
0 -9.907500 -10.352500 35.639702 -0.658563 -0.637364 0.400077 0.317400 -0.258900 1 0 1.000000 
barrelside08a
0 -10.468099 -10.913000 33.859299 -0.635112 -0.660413 0.400608 0.317200 -0.295900 1 0 1.000000 
0 -6.117899 -14.769800 33.859299 -0.331587 -0.851268 0.406685 0.376400 -0.295900 1 0 1.000000 
0 -5.814499 -14.037400 35.639702 -0.479788 -0.776281 0.408890 0.376400 -0.258900 1 0 1.000000 
barrelside08a
0 -6.117899 -14.769800 33.859299 -0.331587 -0.851268 0.406685 0.376400 -0.295900 1 0 1.000000 
0 0.000001 -15.194000 35.639702 -0.060498 -0.911874 0.405988 0.438900 -0.258900 1 0 1.000000 
0 -5.814499 -14.037400 35.639702 -0.479788 -0.776281 0.408890 0.376400 -0.258900 1 0 1.000000 
barrelside08a
0 -6.117899 -14.769800 33.859299 -0.331587 -0.851268 0.406685 0.376400 -0.295900 1 0 1.000000 
0 0.000001 -15.986700 33.859299 0.060498 -0.911874 0.405988 0.438900 -0.295900 1 0 1.000000 
0 0.000001 -15.194000 35.639702 -0.060498 -0.911874 0.405988 0.438900 -0.258900 1 0 1.000000 
barrelside08a
0 0.000001 -15.986700 33.859299 0.060498 -0.911874 0.405988 0.438900 -0.295900 1 0 1.000000 
0 5.814500 -14.037400 35.639702 0.293099 -0.865597 0.405999 0.501400 -0.258900 1 0 1.000000 
0 0.000001 -15.194000 35.639702 -0.060498 -0.911874 0.405988 0.438900 -0.258900 1 0 1.000000 
barrelside08a
0 0.000001 -15.986700 33.859299 0.060498 -0.911874 0.405988 0.438900 -0.295900 1 0 1.000000 
0 6.117900 -14.769800 33.859299 0.361499 -0.801297 0.476698 0.501400 -0.295900 1 0 1.000000 
0 5.814500 -14.037400 35.639702 0.293099 -0.865597 0.405999 0.501400 -0.258900 1 0 1.000000 
barrelside08a
0 6.117900 -14.769800 33.859299 0.361499 -0.801297 0.476698 0.501400 -0.295900 1 0 1.000000 
0 10.743800 -10.743800 35.639702 0.525615 -0.647819 0.551416 0.563900 -0.258900 1 0 1.000000 
0 5.814500 -14.037400 35.639702 0.293099 -0.865597 0.405999 0.501400 -0.258900 1 0 1.000000 
barrelside08a
0 6.117900 -14.769800 33.859299 0.361499 -0.801297 0.476698 0.501400 -0.295900 1 0 1.000000 
0 11.304301 -11.304299 34.639599 0.605571 -0.544474 0.580372 0.563900 -0.279700 1 0 1.000000 
0 10.743800 -10.743800 35.639702 0.525615 -0.647819 0.551416 0.563900 -0.258900 1 0 1.000000 
barrelside08a
0 11.304301 -11.304299 34.639599 0.605571 -0.544474 0.580372 0.563900 -0.279700 1 0 1.000000 
0 14.037400 -5.814499 35.639702 0.763769 -0.361185 0.534978 0.626400 -0.258900 1 0 1.000000 
0 10.743800 -10.743800 35.639702 0.525615 -0.647819 0.551416 0.563900 -0.258900 1 0 1.000000 
barrelside08a
0 11.304301 -11.304299 34.639599 0.605571 -0.544474 0.580372 0.563900 -0.279700 1 0 1.000000 
0 14.769800 -6.117899 34.230900 0.829417 -0.269705 0.489210 0.626400 -0.288200 1 0 1.000000 
0 14.037400 -5.814499 35.639702 0.763769 -0.361185 0.534978 0.626400 -0.258900 1 0 1.000000 
barrelside08a
0 14.769800 -6.117899 34.230900 0.829417 -0.269705 0.489210 0.626400 -0.288200 1 0 1.000000 
0 15.194000 0.000001 35.639702 0.870051 -0.057697 0.489573 0.688900 -0.258900 1 0 1.000000 
0 14.037400 -5.814499 35.639702 0.763769 -0.361185 0.534978 0.626400 -0.258900 1 0 1.000000 
barrelside08a
0 14.769800 -6.117899 34.230900 0.829417 -0.269705 0.489210 0.626400 -0.288200 1 0 1.000000 
0 15.986700 0.000001 34.230900 0.870051 0.057697 0.489573 0.688900 -0.288200 1 0 1.000000 
0 15.194000 0.000001 35.639702 0.870051 -0.057697 0.489573 0.688900 -0.258900 1 0 1.000000 
barrelside08a
0 15.986700 0.000001 34.230900 0.870051 0.057697 0.489573 0.688900 -0.288200 1 0 1.000000 
0 14.037400 5.814500 35.639702 0.782892 0.383896 0.489595 0.751400 -0.258900 1 0 1.000000 
0 15.194000 0.000001 35.639702 0.870051 -0.057697 0.489573 0.688900 -0.258900 1 0 1.000000 
barrelside08a
0 15.986700 0.000001 34.230900 0.870051 0.057697 0.489573 0.688900 -0.288200 1 0 1.000000 
0 14.769800 6.117900 34.230900 0.657289 0.573291 0.489192 0.751400 -0.288200 1 0 1.000000 
0 14.037400 5.814500 35.639702 0.782892 0.383896 0.489595 0.751400 -0.258900 1 0 1.000000 
barrelside08a
0 14.769800 6.117900 34.230900 0.657289 0.573291 0.489192 0.751400 -0.288200 1 0 1.000000 
0 9.831400 8.663800 35.639702 0.537997 0.701097 0.467998 0.803900 -0.258900 1 0 1.000000 
0 14.037400 5.814500 35.639702 0.782892 0.383896 0.489595 0.751400 -0.258900 1 0 1.000000 
barrelside08a
0 14.769800 6.117900 34.230900 0.657289 0.573291 0.489192 0.751400 -0.288200 1 0 1.000000 
0 10.392000 9.224400 34.230900 0.571077 0.682673 0.455882 0.804400 -0.288200 1 0 1.000000 
0 9.831400 8.663800 35.639702 0.537997 0.701097 0.467998 0.803900 -0.258900 1 0 1.000000 
barrelside08a
0 10.392000 9.224400 34.230900 0.571077 0.682673 0.455882 0.804400 -0.288200 1 0 1.000000 
0 5.814499 12.433900 35.639702 0.536376 0.724868 0.432281 0.869300 -0.258900 1 0 1.000000 
0 9.831400 8.663800 35.639702 0.537997 0.701097 0.467998 0.803900 -0.258900 1 0 1.000000 
barrelside08a
0 10.392000 9.224400 34.230900 0.571077 0.682673 0.455882 0.804400 -0.288200 1 0 1.000000 
0 6.117899 13.166300 33.859299 0.468884 0.772974 0.427386 0.869700 -0.295900 1 0 1.000000 
0 5.814499 12.433900 35.639702 0.536376 0.724868 0.432281 0.869300 -0.258900 1 0 1.000000 
barrelside08a
0 6.117899 13.166300 33.859299 0.468884 0.772974 0.427386 0.869700 -0.295900 1 0 1.000000 
0 -0.000001 15.194000 35.639702 0.215694 0.848076 0.483986 0.938900 -0.258900 1 0 1.000000 
0 5.814499 12.433900 35.639702 0.536376 0.724868 0.432281 0.869300 -0.258900 1 0 1.000000 
barrelside08a
0 6.117899 13.166300 33.859299 0.468884 0.772974 0.427386 0.869700 -0.295900 1 0 1.000000 
0 -0.000001 15.986700 34.341301 0.022099 0.853278 0.520987 0.938900 -0.285900 1 0 1.000000 
0 -0.000001 15.194000 35.639702 0.215694 0.848076 0.483986 0.938900 -0.258900 1 0 1.000000 
barrelside08a
0 10.743800 -10.743800 33.105202 0.643487 -0.580889 -0.498490 0.563900 -0.311500 1 0 1.000000 
0 14.769800 -6.117899 34.230900 0.749673 -0.384886 -0.538380 0.626400 -0.288200 1 0 1.000000 
0 11.304301 -11.304299 34.639599 0.572010 -0.610410 -0.547909 0.563900 -0.279700 1 0 1.000000 
barrelside08a
0 10.743800 -10.743800 33.105202 0.643487 -0.580889 -0.498490 0.563900 -0.311500 1 0 1.000000 
0 14.037400 -5.814499 33.105202 0.775004 -0.262401 -0.574903 0.626400 -0.311500 1 0 1.000000 
0 14.769800 -6.117899 34.230900 0.749673 -0.384886 -0.538380 0.626400 -0.288200 1 0 1.000000 
barrelside08a
0 14.037400 -5.814499 33.105202 0.775004 -0.262401 -0.574903 0.626400 -0.311500 1 0 1.000000 
0 15.986700 0.000001 34.230900 0.816422 -0.054101 -0.574916 0.688900 -0.288200 1 0 1.000000 
0 14.769800 -6.117899 34.230900 0.749673 -0.384886 -0.538380 0.626400 -0.288200 1 0 1.000000 
barrelside08a
0 14.037400 -5.814499 33.105202 0.775004 -0.262401 -0.574903 0.626400 -0.311500 1 0 1.000000 
0 15.194000 0.000001 33.105202 0.906567 0.028699 -0.421085 0.688900 -0.311500 1 0 1.000000 
0 15.986700 0.000001 34.230900 0.816422 -0.054101 -0.574916 0.688900 -0.288200 1 0 1.000000 
barrelside08a
0 15.194000 0.000001 33.105202 0.906567 0.028699 -0.421085 0.688900 -0.311500 1 0 1.000000 
0 14.769800 6.117900 34.230900 0.934226 0.126204 -0.333609 0.751400 -0.288200 1 0 1.000000 
0 15.986700 0.000001 34.230900 0.816422 -0.054101 -0.574916 0.688900 -0.288200 1 0 1.000000 
barrelside08a
0 15.194000 0.000001 33.105202 0.906567 0.028699 -0.421085 0.688900 -0.311500 1 0 1.000000 
0 14.371300 5.459301 28.195801 0.993787 0.082599 -0.074599 0.746700 -0.413400 1 0 1.000000 
0 14.769800 6.117900 34.230900 0.934226 0.126204 -0.333609 0.751400 -0.288200 1 0 1.000000 
barrelside08a
0 -5.814500 14.037400 33.105202 -0.501979 0.720069 -0.479080 0.001400 -0.311500 1 0 1.000000 
0 -11.304301 11.304299 34.750099 -0.633798 0.615398 -0.468599 0.063900 -0.277400 1 0 1.000000 
0 -6.117900 14.769800 34.341301 -0.499884 0.685778 -0.528983 0.001400 -0.285900 1 0 1.000000 
barrelside08a
0 -5.814500 14.037400 33.105202 -0.501979 0.720069 -0.479080 0.001400 -0.311500 1 0 1.000000 
0 -10.743800 10.743800 33.105202 -0.760383 0.580287 -0.291693 0.063900 -0.311500 1 0 1.000000 
0 -11.304301 11.304299 34.750099 -0.633798 0.615398 -0.468599 0.063900 -0.277400 1 0 1.000000 
barrelside08a
0 -10.743800 10.743800 33.105202 -0.760383 0.580287 -0.291693 0.063900 -0.311500 1 0 1.000000 
0 -14.037400 5.814499 35.639702 -0.896895 0.419698 -0.139399 0.126400 -0.258900 1 0 1.000000 
0 -11.304301 11.304299 34.750099 -0.633798 0.615398 -0.468599 0.063900 -0.277400 1 0 1.000000 
barrelside08a
0 -10.743800 10.743800 33.105202 -0.760383 0.580287 -0.291693 0.063900 -0.311500 1 0 1.000000 
0 -14.037400 5.814499 33.105202 -0.893367 0.366186 -0.260390 0.126400 -0.311500 1 0 1.000000 
0 -14.037400 5.814499 35.639702 -0.896895 0.419698 -0.139399 0.126400 -0.258900 1 0 1.000000 
barrelside08a
0 -14.037400 5.814499 33.105202 -0.893367 0.366186 -0.260390 0.126400 -0.311500 1 0 1.000000 
0 -15.986700 -0.000001 33.859299 -0.843987 0.115898 -0.523692 0.188900 -0.295900 1 0 1.000000 
0 -14.037400 5.814499 35.639702 -0.896895 0.419698 -0.139399 0.126400 -0.258900 1 0 1.000000 
barrelside08a
0 -14.037400 5.814499 33.105202 -0.893367 0.366186 -0.260390 0.126400 -0.311500 1 0 1.000000 
0 -15.194000 -0.000001 33.105202 -0.688497 -0.045700 -0.723797 0.188900 -0.311500 1 0 1.000000 
0 -15.986700 -0.000001 33.859299 -0.843987 0.115898 -0.523692 0.188900 -0.295900 1 0 1.000000 
barrelside08a
0 -15.194000 -0.000001 33.105202 -0.688497 -0.045700 -0.723797 0.188900 -0.311500 1 0 1.000000 
0 -14.769800 -6.117900 33.859299 -0.641325 -0.252510 -0.724528 0.251400 -0.295900 1 0 1.000000 
0 -15.986700 -0.000001 33.859299 -0.843987 0.115898 -0.523692 0.188900 -0.295900 1 0 1.000000 
barrelside08a
0 -15.194000 -0.000001 33.105202 -0.688497 -0.045700 -0.723797 0.188900 -0.311500 1 0 1.000000 
0 -14.037400 -5.814500 33.105202 -0.582792 -0.363695 -0.726690 0.251400 -0.311500 1 0 1.000000 
0 -14.769800 -6.117900 33.859299 -0.641325 -0.252510 -0.724528 0.251400 -0.295900 1 0 1.000000 
barrelside08a
0 -14.037400 -5.814500 33.105202 -0.582792 -0.363695 -0.726690 0.251400 -0.311500 1 0 1.000000 
0 -10.468099 -10.913000 33.859299 -0.499089 -0.485189 -0.717984 0.317200 -0.295900 1 0 1.000000 
0 -14.769800 -6.117900 33.859299 -0.641325 -0.252510 -0.724528 0.251400 -0.295900 1 0 1.000000 
barrelside08a
0 -14.037400 -5.814500 33.105202 -0.582792 -0.363695 -0.726690 0.251400 -0.311500 1 0 1.000000 
0 -9.907500 -10.352500 33.105202 -0.481301 -0.503101 -0.717801 0.317400 -0.311500 1 0 1.000000 
0 -10.468099 -10.913000 33.859299 -0.499089 -0.485189 -0.717984 0.317200 -0.295900 1 0 1.000000 
barrelside08a
0 -9.907500 -10.352500 33.105202 -0.481301 -0.503101 -0.717801 0.317400 -0.311500 1 0 1.000000 
0 -6.117899 -14.769800 33.859299 -0.361704 -0.584506 -0.726308 0.376400 -0.295900 1 0 1.000000 
0 -10.468099 -10.913000 33.859299 -0.499089 -0.485189 -0.717984 0.317200 -0.295900 1 0 1.000000 
barrelside08a
0 -9.907500 -10.352500 33.105202 -0.481301 -0.503101 -0.717801 0.317400 -0.311500 1 0 1.000000 
0 -5.814499 -14.037400 33.105202 -0.252900 -0.641201 -0.724501 0.376400 -0.311500 1 0 1.000000 
0 -6.117899 -14.769800 33.859299 -0.361704 -0.584506 -0.726308 0.376400 -0.295900 1 0 1.000000 
barrelside08a
0 -5.814499 -14.037400 33.105202 -0.252900 -0.641201 -0.724501 0.376400 -0.311500 1 0 1.000000 
0 0.000001 -15.986700 33.859299 -0.045700 -0.688497 -0.723797 0.438900 -0.295900 1 0 1.000000 
0 -6.117899 -14.769800 33.859299 -0.361704 -0.584506 -0.726308 0.376400 -0.295900 1 0 1.000000 
barrelside08a
0 -5.814499 -14.037400 33.105202 -0.252900 -0.641201 -0.724501 0.376400 -0.311500 1 0 1.000000 
0 0.000001 -15.194000 33.105202 0.045600 -0.688501 -0.723801 0.438900 -0.311500 1 0 1.000000 
0 0.000001 -15.986700 33.859299 -0.045700 -0.688497 -0.723797 0.438900 -0.295900 1 0 1.000000 
barrelside08a
0 0.000001 -15.194000 33.105202 0.045600 -0.688501 -0.723801 0.438900 -0.311500 1 0 1.000000 
0 6.117900 -14.769800 33.859299 0.248691 -0.642877 -0.724474 0.501400 -0.295900 1 0 1.000000 
0 0.000001 -15.986700 33.859299 -0.045700 -0.688497 -0.723797 0.438900 -0.295900 1 0 1.000000 
barrelside08a
0 0.000001 -15.194000 33.105202 0.045600 -0.688501 -0.723801 0.438900 -0.311500 1 0 1.000000 
0 5.814500 -14.037400 33.105202 0.374300 -0.669800 -0.641300 0.501400 -0.311500 1 0 1.000000 
0 6.117900 -14.769800 33.859299 0.248691 -0.642877 -0.724474 0.501400 -0.295900 1 0 1.000000 
barrelside08a
0 5.814500 -14.037400 33.105202 0.374300 -0.669800 -0.641300 0.501400 -0.311500 1 0 1.000000 
0 11.304301 -11.304299 34.639599 0.572010 -0.610410 -0.547909 0.563900 -0.279700 1 0 1.000000 
0 6.117900 -14.769800 33.859299 0.248691 -0.642877 -0.724474 0.501400 -0.295900 1 0 1.000000 
barrelside08a
0 5.814500 -14.037400 33.105202 0.374300 -0.669800 -0.641300 0.501400 -0.311500 1 0 1.000000 
0 10.743800 -10.743800 33.105202 0.643487 -0.580889 -0.498490 0.563900 -0.311500 1 0 1.000000 
0 11.304301 -11.304299 34.639599 0.572010 -0.610410 -0.547909 0.563900 -0.279700 1 0 1.000000 
barrelside08a
0 10.743800 -10.743800 14.472700 0.808395 -0.587896 -0.029600 0.563900 -0.698200 1 0 1.000000 
0 14.037400 -5.814499 33.105202 0.931723 -0.358409 -0.058601 0.626400 -0.311500 1 0 1.000000 
0 10.743800 -10.743800 33.105202 0.658809 -0.752310 0.000000 0.563900 -0.311500 1 0 1.000000 
barrelside08a
0 10.743800 -10.743800 14.472700 0.808395 -0.587896 -0.029600 0.563900 -0.698200 1 0 1.000000 
0 12.358000 -5.814499 14.472700 0.946875 -0.316292 -0.058198 0.618900 -0.698200 1 0 1.000000 
0 14.037400 -5.814499 33.105202 0.931723 -0.358409 -0.058601 0.626400 -0.311500 1 0 1.000000 
barrelside08a
0 12.358000 -5.814499 14.472700 0.946875 -0.316292 -0.058198 0.618900 -0.698200 1 0 1.000000 
0 15.194000 0.000001 33.105202 0.985593 -0.166399 -0.030300 0.688900 -0.311500 1 0 1.000000 
0 14.037400 -5.814499 33.105202 0.931723 -0.358409 -0.058601 0.626400 -0.311500 1 0 1.000000 
barrelside08a
0 12.358000 -5.814499 14.472700 0.946875 -0.316292 -0.058198 0.618900 -0.698200 1 0 1.000000 
0 15.194000 0.000001 14.472700 0.999437 -0.032901 -0.006600 0.688900 -0.698200 1 0 1.000000 
0 15.194000 0.000001 33.105202 0.985593 -0.166399 -0.030300 0.688900 -0.311500 1 0 1.000000 
barrelside08a
0 15.194000 0.000001 14.472700 0.999437 -0.032901 -0.006600 0.688900 -0.698200 1 0 1.000000 
0 14.371300 5.459301 28.195801 0.985033 0.172106 -0.009400 0.746700 -0.413400 1 0 1.000000 
0 15.194000 0.000001 33.105202 0.985593 -0.166399 -0.030300 0.688900 -0.311500 1 0 1.000000 
barrelside08a
0 15.194000 0.000001 14.472700 0.999437 -0.032901 -0.006600 0.688900 -0.698200 1 0 1.000000 
0 14.037400 5.814500 14.472700 0.980603 0.195101 -0.018800 0.751400 -0.698200 1 0 1.000000 
0 14.371300 5.459301 28.195801 0.985033 0.172106 -0.009400 0.746700 -0.413400 1 0 1.000000 
barrelside08a
0 -5.814500 14.037400 14.472700 -0.555577 0.831465 0.000000 0.001400 -0.698200 1 0 1.000000 
0 -10.743800 10.743800 33.105202 -0.658809 0.752310 0.000000 0.063900 -0.311500 1 0 1.000000 
0 -5.814500 14.037400 33.105202 -0.555577 0.831465 0.000000 0.001400 -0.311500 1 0 1.000000 
barrelside08a
0 -5.814500 14.037400 14.472700 -0.555577 0.831465 0.000000 0.001400 -0.698200 1 0 1.000000 
0 -10.743800 10.743800 14.472700 -0.752310 0.658809 0.000000 0.063900 -0.698200 1 0 1.000000 
0 -10.743800 10.743800 33.105202 -0.658809 0.752310 0.000000 0.063900 -0.311500 1 0 1.000000 
barrelside08a
0 -10.743800 10.743800 14.472700 -0.752310 0.658809 0.000000 0.063900 -0.698200 1 0 1.000000 
0 -14.037400 5.814499 33.105202 -0.896517 0.443009 0.000000 0.126400 -0.311500 1 0 1.000000 
0 -10.743800 10.743800 33.105202 -0.658809 0.752310 0.000000 0.063900 -0.311500 1 0 1.000000 
barrelside08a
0 -10.743800 10.743800 14.472700 -0.752310 0.658809 0.000000 0.063900 -0.698200 1 0 1.000000 
0 -14.037400 5.814499 14.472700 -0.968913 0.246103 -0.025300 0.126400 -0.698200 1 0 1.000000 
0 -14.037400 5.814499 33.105202 -0.896517 0.443009 0.000000 0.126400 -0.311500 1 0 1.000000 
barrelside08a
0 -14.037400 5.814499 14.472700 -0.968913 0.246103 -0.025300 0.126400 -0.698200 1 0 1.000000 
0 -15.194000 -0.000001 33.105202 -0.998712 -0.012400 -0.049201 0.188900 -0.311500 1 0 1.000000 
0 -14.037400 5.814499 33.105202 -0.896517 0.443009 0.000000 0.126400 -0.311500 1 0 1.000000 
barrelside08a
0 -14.037400 5.814499 14.472700 -0.968913 0.246103 -0.025300 0.126400 -0.698200 1 0 1.000000 
0 -13.820300 -0.000001 14.472700 -0.996678 -0.065199 -0.048799 0.188900 -0.698200 1 0 1.000000 
0 -15.194000 -0.000001 33.105202 -0.998712 -0.012400 -0.049201 0.188900 -0.311500 1 0 1.000000 
barrelside08a
0 -13.820300 -0.000001 14.472700 -0.996678 -0.065199 -0.048799 0.188900 -0.698200 1 0 1.000000 
0 -14.037400 -5.814500 33.105202 -0.956018 -0.292206 -0.025400 0.251400 -0.311500 1 0 1.000000 
0 -15.194000 -0.000001 33.105202 -0.998712 -0.012400 -0.049201 0.188900 -0.311500 1 0 1.000000 
barrelside08a
0 -13.820300 -0.000001 14.472700 -0.996678 -0.065199 -0.048799 0.188900 -0.698200 1 0 1.000000 
0 -14.037400 -5.814500 14.472700 -0.907178 -0.420390 0.017300 0.251400 -0.698200 1 0 1.000000 
0 -14.037400 -5.814500 33.105202 -0.956018 -0.292206 -0.025400 0.251400 -0.311500 1 0 1.000000 
barrelside08a
0 -14.037400 -5.814500 14.472700 -0.907178 -0.420390 0.017300 0.251400 -0.698200 1 0 1.000000 
0 -9.907500 -10.352500 33.105202 -0.750225 -0.660422 0.031701 0.317400 -0.311500 1 0 1.000000 
0 -14.037400 -5.814500 33.105202 -0.956018 -0.292206 -0.025400 0.251400 -0.311500 1 0 1.000000 
barrelside08a
0 -14.037400 -5.814500 14.472700 -0.907178 -0.420390 0.017300 0.251400 -0.698200 1 0 1.000000 
0 -10.743800 -10.743800 14.472700 -0.694086 -0.719185 0.031899 0.313900 -0.698200 1 0 1.000000 
0 -9.907500 -10.352500 33.105202 -0.750225 -0.660422 0.031701 0.317400 -0.311500 1 0 1.000000 
barrelside08a
0 -10.743800 -10.743800 14.472700 -0.694086 -0.719185 0.031899 0.313900 -0.698200 1 0 1.000000 
0 -5.814499 -14.037400 33.105202 -0.485499 -0.874098 0.015600 0.376400 -0.311500 1 0 1.000000 
0 -9.907500 -10.352500 33.105202 -0.750225 -0.660422 0.031701 0.317400 -0.311500 1 0 1.000000 
barrelside08a
0 -10.743800 -10.743800 14.472700 -0.694086 -0.719185 0.031899 0.313900 -0.698200 1 0 1.000000 
0 -5.814499 -14.037400 14.472700 -0.320694 -0.947183 0.000000 0.376400 -0.698200 1 0 1.000000 
0 -5.814499 -14.037400 33.105202 -0.485499 -0.874098 0.015600 0.376400 -0.311500 1 0 1.000000 
barrelside08a
0 -5.814499 -14.037400 14.472700 -0.320694 -0.947183 0.000000 0.376400 -0.698200 1 0 1.000000 
0 0.000001 -15.194000 33.105202 -0.066200 -0.997806 0.000000 0.438900 -0.311500 1 0 1.000000 
0 -5.814499 -14.037400 33.105202 -0.485499 -0.874098 0.015600 0.376400 -0.311500 1 0 1.000000 
barrelside08a
0 -5.814499 -14.037400 14.472700 -0.320694 -0.947183 0.000000 0.376400 -0.698200 1 0 1.000000 
0 0.000001 -15.194000 14.472700 0.066200 -0.997806 0.000000 0.438900 -0.698200 1 0 1.000000 
0 0.000001 -15.194000 33.105202 -0.066200 -0.997806 0.000000 0.438900 -0.311500 1 0 1.000000 
barrelside08a
0 0.000001 -15.194000 14.472700 0.066200 -0.997806 0.000000 0.438900 -0.698200 1 0 1.000000 
0 5.814500 -14.037400 33.105202 0.320694 -0.947183 0.000000 0.501400 -0.311500 1 0 1.000000 
0 0.000001 -15.194000 33.105202 -0.066200 -0.997806 0.000000 0.438900 -0.311500 1 0 1.000000 
barrelside08a
0 0.000001 -15.194000 14.472700 0.066200 -0.997806 0.000000 0.438900 -0.698200 1 0 1.000000 
0 5.814500 -14.037400 13.990600 0.443009 -0.896517 0.000000 0.501400 -0.708200 1 0 1.000000 
0 5.814500 -14.037400 33.105202 0.320694 -0.947183 0.000000 0.501400 -0.311500 1 0 1.000000 
barrelside08a
0 5.814500 -14.037400 13.990600 0.443009 -0.896517 0.000000 0.501400 -0.708200 1 0 1.000000 
0 10.743800 -10.743800 33.105202 0.658809 -0.752310 0.000000 0.563900 -0.311500 1 0 1.000000 
0 5.814500 -14.037400 33.105202 0.320694 -0.947183 0.000000 0.501400 -0.311500 1 0 1.000000 
barrelside08a
0 5.814500 -14.037400 13.990600 0.443009 -0.896517 0.000000 0.501400 -0.708200 1 0 1.000000 
0 10.743800 -10.743800 14.472700 0.808395 -0.587896 -0.029600 0.563900 -0.698200 1 0 1.000000 
0 10.743800 -10.743800 33.105202 0.658809 -0.752310 0.000000 0.563900 -0.311500 1 0 1.000000 
barrelside08a
0 5.814500 -14.037400 -0.042600 0.425196 -0.905091 -0.004200 0.501400 -0.999500 1 0 1.000000 
0 11.134400 -10.793799 11.920500 0.708017 -0.706016 -0.015900 0.566400 -0.751200 1 0 1.000000 
0 5.515400 -14.094200 11.467100 0.310191 -0.950674 -0.000800 0.498300 -0.760600 1 0 1.000000 
barrelside08a
0 5.814500 -14.037400 -0.042600 0.425196 -0.905091 -0.004200 0.501400 -0.999500 1 0 1.000000 
0 10.743800 -10.743800 -0.042600 0.814928 -0.579520 0.006900 0.563900 -0.999500 1 0 1.000000 
0 11.134400 -10.793799 11.920500 0.708017 -0.706016 -0.015900 0.566400 -0.751200 1 0 1.000000 
barrelside08a
0 10.743800 -10.743800 -0.042600 0.814928 -0.579520 0.006900 0.563900 -0.999500 1 0 1.000000 
0 12.755400 -5.854300 11.920500 0.902727 -0.428313 0.040401 0.620400 -0.751200 1 0 1.000000 
0 11.134400 -10.793799 11.920500 0.708017 -0.706016 -0.015900 0.566400 -0.751200 1 0 1.000000 
barrelside08a
0 10.743800 -10.743800 -0.042600 0.814928 -0.579520 0.006900 0.563900 -0.999500 1 0 1.000000 
0 13.826300 -5.814499 -0.042600 0.914617 -0.402307 0.040301 0.625500 -0.999500 1 0 1.000000 
0 12.755400 -5.854300 11.920500 0.902727 -0.428313 0.040401 0.620400 -0.751200 1 0 1.000000 
barrelside08a
0 13.826300 -5.814499 -0.042600 0.914617 -0.402307 0.040301 0.625500 -0.999500 1 0 1.000000 
0 15.593900 -0.027699 11.920500 0.986631 -0.162905 0.004600 0.688600 -0.751200 1 0 1.000000 
0 12.755400 -5.854300 11.920500 0.902727 -0.428313 0.040401 0.620400 -0.751200 1 0 1.000000 
barrelside08a
0 13.826300 -5.814499 -0.042600 0.914617 -0.402307 0.040301 0.625500 -0.999500 1 0 1.000000 
0 15.194000 0.000001 -0.042600 0.997945 0.054803 -0.033201 0.688900 -0.999500 1 0 1.000000 
0 15.593900 -0.027699 11.920500 0.986631 -0.162905 0.004600 0.688600 -0.751200 1 0 1.000000 
barrelside08a
0 15.194000 0.000001 -0.042600 0.997945 0.054803 -0.033201 0.688900 -0.999500 1 0 1.000000 
0 14.434900 5.798800 11.920500 0.932687 0.359395 -0.030500 0.749700 -0.751200 1 0 1.000000 
0 15.593900 -0.027699 11.920500 0.986631 -0.162905 0.004600 0.688600 -0.751200 1 0 1.000000 
barrelside08a
0 15.194000 0.000001 -0.042600 0.997945 0.054803 -0.033201 0.688900 -0.999500 1 0 1.000000 
0 14.037400 5.814500 -0.042600 0.876872 0.480685 -0.006100 0.751400 -0.999500 1 0 1.000000 
0 14.434900 5.798800 11.920500 0.932687 0.359395 -0.030500 0.749700 -0.751200 1 0 1.000000 
barrelside08a
0 14.037400 5.814500 -0.042600 0.876872 0.480685 -0.006100 0.751400 -0.999500 1 0 1.000000 
0 11.134400 9.500001 9.394500 0.723198 0.689798 0.034100 0.801300 -0.803600 1 0 1.000000 
0 14.434900 5.798800 11.920500 0.932687 0.359395 -0.030500 0.749700 -0.751200 1 0 1.000000 
barrelside08a
0 14.037400 5.814500 -0.042600 0.876872 0.480685 -0.006100 0.751400 -0.999500 1 0 1.000000 
0 10.743800 10.743800 -0.042600 0.705866 0.705466 0.063797 0.813900 -0.999500 1 0 1.000000 
0 11.134400 9.500001 9.394500 0.723198 0.689798 0.034100 0.801300 -0.803600 1 0 1.000000 
barrelside08a
0 10.743800 10.743800 -0.042600 0.705866 0.705466 0.063797 0.813900 -0.999500 1 0 1.000000 
0 5.814499 14.037400 -0.042600 0.380610 0.917124 0.118403 0.876400 -0.999500 1 0 1.000000 
0 11.134400 9.500001 9.394500 0.723198 0.689798 0.034100 0.801300 -0.803600 1 0 1.000000 
barrelside08a
0 5.814499 14.037400 -0.042600 0.380610 0.917124 0.118403 0.876400 -0.999500 1 0 1.000000 
0 -0.000001 15.194000 -0.042600 0.043799 0.994073 0.099497 0.938900 -0.999500 1 0 1.000000 
0 -0.000001 13.936300 8.318000 0.162196 0.975778 0.146797 0.938900 -0.826000 1 0 1.000000 
barrelside08a
0 -0.000001 15.194000 -0.042600 0.043799 0.994073 0.099497 -0.061100 -0.999500 1 0 1.000000 
0 -5.814500 14.037400 12.818300 -0.268905 0.961718 0.052801 0.001400 -0.732600 1 0 1.000000 
0 -0.000001 13.936300 8.318000 0.162196 0.975778 0.146797 -0.061100 -0.826000 1 0 1.000000 
barrelside08a
0 -0.000001 15.194000 -0.042600 0.043799 0.994073 0.099497 -0.061100 -0.999500 1 0 1.000000 
0 -5.814500 14.037400 -0.042600 -0.492685 0.869773 0.027499 0.001400 -0.999500 1 0 1.000000 
0 -5.814500 14.037400 12.818300 -0.268905 0.961718 0.052801 0.001400 -0.732600 1 0 1.000000 
barrelside08a
0 -5.814500 14.037400 -0.042600 -0.492685 0.869773 0.027499 0.001400 -0.999500 1 0 1.000000 
0 -9.863800 10.204400 11.624100 -0.655895 0.752794 0.055700 0.061200 -0.757400 1 0 1.000000 
0 -5.814500 14.037400 12.818300 -0.268905 0.961718 0.052801 0.001400 -0.732600 1 0 1.000000 
barrelside08a
0 -5.814500 14.037400 -0.042600 -0.492685 0.869773 0.027499 0.001400 -0.999500 1 0 1.000000 
0 -10.743800 10.743800 -0.042600 -0.710280 0.701680 0.056098 0.063900 -0.999500 1 0 1.000000 
0 -9.863800 10.204400 11.624100 -0.655895 0.752794 0.055700 0.061200 -0.757400 1 0 1.000000 
barrelside08a
0 -10.743800 10.743800 -0.042600 -0.710280 0.701680 0.056098 0.063900 -0.999500 1 0 1.000000 
0 -14.037400 5.814499 12.164200 -0.902830 0.428914 0.030501 0.126400 -0.746100 1 0 1.000000 
0 -9.863800 10.204400 11.624100 -0.655895 0.752794 0.055700 0.061200 -0.757400 1 0 1.000000 
barrelside08a
0 -10.743800 10.743800 -0.042600 -0.710280 0.701680 0.056098 0.063900 -0.999500 1 0 1.000000 
0 -14.037400 5.814499 -0.042600 -0.968557 0.245889 0.037898 0.126400 -0.999500 1 0 1.000000 
0 -14.037400 5.814499 12.164200 -0.902830 0.428914 0.030501 0.126400 -0.746100 1 0 1.000000 
barrelside08a
0 -14.037400 5.814499 -0.042600 -0.968557 0.245889 0.037898 0.126400 -0.999500 1 0 1.000000 
0 -13.820300 -0.000001 12.164200 -0.995115 0.065001 0.074301 0.188900 -0.746100 1 0 1.000000 
0 -14.037400 5.814499 12.164200 -0.902830 0.428914 0.030501 0.126400 -0.746100 1 0 1.000000 
barrelside08a
0 -14.037400 5.814499 -0.042600 -0.968557 0.245889 0.037898 0.126400 -0.999500 1 0 1.000000 
0 -15.194000 -0.000001 -0.042600 -0.997117 0.012100 0.074901 0.188900 -0.999500 1 0 1.000000 
0 -13.820300 -0.000001 12.164200 -0.995115 0.065001 0.074301 0.188900 -0.746100 1 0 1.000000 
barrelside08a
0 -15.194000 -0.000001 -0.042600 -0.997117 0.012100 0.074901 0.188900 -0.999500 1 0 1.000000 
0 -14.037400 -5.814500 12.164200 -0.968423 -0.246306 0.038601 0.251400 -0.746100 1 0 1.000000 
0 -13.820300 -0.000001 12.164200 -0.995115 0.065001 0.074301 0.188900 -0.746100 1 0 1.000000 
barrelside08a
0 -15.194000 -0.000001 -0.042600 -0.997117 0.012100 0.074901 0.188900 -0.999500 1 0 1.000000 
0 -14.037400 -5.814500 -0.042600 -0.896517 -0.443009 0.000000 0.251400 -0.999500 1 0 1.000000 
0 -14.037400 -5.814500 12.164200 -0.968423 -0.246306 0.038601 0.251400 -0.746100 1 0 1.000000 
barrelside08a
0 -14.037400 -5.814500 -0.042600 -0.896517 -0.443009 0.000000 0.251400 -0.999500 1 0 1.000000 
0 -10.743800 -10.743800 12.164200 -0.752310 -0.658809 0.000000 0.313900 -0.746100 1 0 1.000000 
0 -14.037400 -5.814500 12.164200 -0.968423 -0.246306 0.038601 0.251400 -0.746100 1 0 1.000000 
barrelside08a
0 -14.037400 -5.814500 -0.042600 -0.896517 -0.443009 0.000000 0.251400 -0.999500 1 0 1.000000 
0 -10.743800 -10.743800 -0.042600 -0.658809 -0.752310 0.000000 0.313900 -0.999500 1 0 1.000000 
0 -10.743800 -10.743800 12.164200 -0.752310 -0.658809 0.000000 0.313900 -0.746100 1 0 1.000000 
barrelside08a
0 -10.743800 -10.743800 -0.042600 -0.658809 -0.752310 0.000000 0.313900 -0.999500 1 0 1.000000 
0 -5.814499 -14.037400 12.164200 -0.442287 -0.896873 0.000000 0.376400 -0.746100 1 0 1.000000 
0 -10.743800 -10.743800 12.164200 -0.752310 -0.658809 0.000000 0.313900 -0.746100 1 0 1.000000 
barrelside08a
0 -10.743800 -10.743800 -0.042600 -0.658809 -0.752310 0.000000 0.313900 -0.999500 1 0 1.000000 
0 -5.814499 -14.037400 -0.042600 -0.320005 -0.947416 0.000400 0.376400 -0.999500 1 0 1.000000 
0 -5.814499 -14.037400 12.164200 -0.442287 -0.896873 0.000000 0.376400 -0.746100 1 0 1.000000 
barrelside08a
0 -5.814499 -14.037400 -0.042600 -0.320005 -0.947416 0.000400 0.376400 -0.999500 1 0 1.000000 
0 0.368401 -15.253200 11.920500 -0.057502 -0.998339 -0.003500 0.442700 -0.751200 1 0 1.000000 
0 -5.814499 -14.037400 12.164200 -0.442287 -0.896873 0.000000 0.376400 -0.746100 1 0 1.000000 
barrelside08a
0 -5.814499 -14.037400 -0.042600 -0.320005 -0.947416 0.000400 0.376400 -0.999500 1 0 1.000000 
0 0.000001 -15.194000 -0.042600 0.074203 -0.997237 -0.003500 0.438900 -0.999500 1 0 1.000000 
0 0.368401 -15.253200 11.920500 -0.057502 -0.998339 -0.003500 0.442700 -0.751200 1 0 1.000000 
barrelside08a
0 0.000001 -15.194000 -0.042600 0.074203 -0.997237 -0.003500 0.438900 -0.999500 1 0 1.000000 
0 5.515400 -14.094200 11.467100 0.310191 -0.950674 -0.000800 0.498300 -0.760600 1 0 1.000000 
0 0.368401 -15.253200 11.920500 -0.057502 -0.998339 -0.003500 0.442700 -0.751200 1 0 1.000000 
barrelside08a
0 0.000001 -15.194000 -0.042600 0.074203 -0.997237 -0.003500 0.438900 -0.999500 1 0 1.000000 
0 5.814500 -14.037400 -0.042600 0.425196 -0.905091 -0.004200 0.501400 -0.999500 1 0 1.000000 
0 5.515400 -14.094200 11.467100 0.310191 -0.950674 -0.000800 0.498300 -0.760600 1 0 1.000000 
barrelside08a
0 -0.000001 15.194000 35.639702 0.013500 0.999909 0.000000 -0.061100 -0.258900 1 0 1.000000 
0 -5.814500 14.037400 48.090599 -0.320694 0.947183 0.000000 0.001400 -0.000500 1 0 1.000000 
0 -0.000001 15.194000 48.090599 0.215493 0.976468 -0.008500 -0.061100 -0.000500 1 0 1.000000 
barrelside08a
0 -0.000001 15.194000 35.639702 0.013500 0.999909 0.000000 -0.061100 -0.258900 1 0 1.000000 
0 -5.814500 14.037400 35.639702 -0.443009 0.896517 0.000000 0.001400 -0.258900 1 0 1.000000 
0 -5.814500 14.037400 48.090599 -0.320694 0.947183 0.000000 0.001400 -0.000500 1 0 1.000000 
barrelside08a
0 -5.814500 14.037400 35.639702 -0.443009 0.896517 0.000000 0.001400 -0.258900 1 0 1.000000 
0 -10.743800 10.743800 48.090599 -0.658809 0.752310 0.000000 0.063900 -0.000500 1 0 1.000000 
0 -5.814500 14.037400 48.090599 -0.320694 0.947183 0.000000 0.001400 -0.000500 1 0 1.000000 
barrelside08a
0 -5.814500 14.037400 35.639702 -0.443009 0.896517 0.000000 0.001400 -0.258900 1 0 1.000000 
0 -10.743800 10.743800 35.639702 -0.752310 0.658809 0.000000 0.063900 -0.258900 1 0 1.000000 
0 -10.743800 10.743800 48.090599 -0.658809 0.752310 0.000000 0.063900 -0.000500 1 0 1.000000 
barrelside08a
0 -10.743800 10.743800 35.639702 -0.752310 0.658809 0.000000 0.063900 -0.258900 1 0 1.000000 
0 -14.037400 5.814499 48.090599 -0.896517 0.443009 0.000000 0.126400 -0.000500 1 0 1.000000 
0 -10.743800 10.743800 48.090599 -0.658809 0.752310 0.000000 0.063900 -0.000500 1 0 1.000000 
barrelside08a
0 -10.743800 10.743800 35.639702 -0.752310 0.658809 0.000000 0.063900 -0.258900 1 0 1.000000 
0 -14.037400 5.814499 35.639702 -0.947183 0.320694 0.000000 0.126400 -0.258900 1 0 1.000000 
0 -14.037400 5.814499 48.090599 -0.896517 0.443009 0.000000 0.126400 -0.000500 1 0 1.000000 
barrelside08a
0 -14.037400 5.814499 35.639702 -0.947183 0.320694 0.000000 0.126400 -0.258900 1 0 1.000000 
0 -15.194000 -0.000001 48.090599 -0.997806 0.066200 0.000000 0.188900 -0.000500 1 0 1.000000 
0 -14.037400 5.814499 48.090599 -0.896517 0.443009 0.000000 0.126400 -0.000500 1 0 1.000000 
barrelside08a
0 -14.037400 5.814499 35.639702 -0.947183 0.320694 0.000000 0.126400 -0.258900 1 0 1.000000 
0 -15.194000 -0.000001 35.639702 -0.997806 -0.066200 0.000000 0.188900 -0.258900 1 0 1.000000 
0 -15.194000 -0.000001 48.090599 -0.997806 0.066200 0.000000 0.188900 -0.000500 1 0 1.000000 
barrelside08a
0 -15.194000 -0.000001 35.639702 -0.997806 -0.066200 0.000000 0.188900 -0.258900 1 0 1.000000 
0 -14.037400 -5.814500 48.090599 -0.887425 -0.460913 0.006000 0.251400 -0.000500 1 0 1.000000 
0 -15.194000 -0.000001 48.090599 -0.997806 0.066200 0.000000 0.188900 -0.000500 1 0 1.000000 
barrelside08a
0 -15.194000 -0.000001 35.639702 -0.997806 -0.066200 0.000000 0.188900 -0.258900 1 0 1.000000 
0 -14.037400 -5.814500 35.639702 -0.892781 -0.450491 0.000000 0.251400 -0.258900 1 0 1.000000 
0 -14.037400 -5.814500 48.090599 -0.887425 -0.460913 0.006000 0.251400 -0.000500 1 0 1.000000 
barrelside08a
0 -14.037400 -5.814500 35.639702 -0.892781 -0.450491 0.000000 0.251400 -0.258900 1 0 1.000000 
0 -9.907500 -10.352500 35.639702 -0.705784 -0.708385 0.007700 0.317400 -0.258900 1 0 1.000000 
0 -14.037400 -5.814500 48.090599 -0.887425 -0.460913 0.006000 0.251400 -0.000500 1 0 1.000000 
barrelside08a
0 -9.907500 -10.352500 35.639702 -0.705784 -0.708385 0.007700 0.317400 -0.258900 1 0 1.000000 
0 -5.814499 -14.037400 48.090599 -0.542811 -0.839817 0.008000 0.376400 -0.000500 1 0 1.000000 
0 -14.037400 -5.814500 48.090599 -0.887425 -0.460913 0.006000 0.251400 -0.000500 1 0 1.000000 
barrelside08a
0 -9.907500 -10.352500 35.639702 -0.705784 -0.708385 0.007700 0.317400 -0.258900 1 0 1.000000 
0 -5.814499 -14.037400 35.639702 -0.364708 -0.931122 0.000000 0.376400 -0.258900 1 0 1.000000 
0 -5.814499 -14.037400 48.090599 -0.542811 -0.839817 0.008000 0.376400 -0.000500 1 0 1.000000 
barrelside08a
0 -5.814499 -14.037400 35.639702 -0.364708 -0.931122 0.000000 0.376400 -0.258900 1 0 1.000000 
0 0.000001 -15.194000 48.090599 -0.066200 -0.997806 0.000000 0.438900 -0.000500 1 0 1.000000 
0 -5.814499 -14.037400 48.090599 -0.542811 -0.839817 0.008000 0.376400 -0.000500 1 0 1.000000 
barrelside08a
0 -5.814499 -14.037400 35.639702 -0.364708 -0.931122 0.000000 0.376400 -0.258900 1 0 1.000000 
0 0.000001 -15.194000 35.639702 0.066200 -0.997806 0.000000 0.438900 -0.258900 1 0 1.000000 
0 0.000001 -15.194000 48.090599 -0.066200 -0.997806 0.000000 0.438900 -0.000500 1 0 1.000000 
barrelside08a
0 0.000001 -15.194000 35.639702 0.066200 -0.997806 0.000000 0.438900 -0.258900 1 0 1.000000 
0 5.814500 -14.037400 48.090599 0.320694 -0.947183 0.000000 0.501400 -0.000500 1 0 1.000000 
0 0.000001 -15.194000 48.090599 -0.066200 -0.997806 0.000000 0.438900 -0.000500 1 0 1.000000 
barrelside08a
0 0.000001 -15.194000 35.639702 0.066200 -0.997806 0.000000 0.438900 -0.258900 1 0 1.000000 
0 5.814500 -14.037400 35.639702 0.443009 -0.896517 0.000000 0.501400 -0.258900 1 0 1.000000 
0 5.814500 -14.037400 48.090599 0.320694 -0.947183 0.000000 0.501400 -0.000500 1 0 1.000000 
barrelside08a
0 5.814500 -14.037400 35.639702 0.443009 -0.896517 0.000000 0.501400 -0.258900 1 0 1.000000 
0 10.743800 -10.743800 48.090599 0.658809 -0.752310 0.000000 0.563900 -0.000500 1 0 1.000000 
0 5.814500 -14.037400 48.090599 0.320694 -0.947183 0.000000 0.501400 -0.000500 1 0 1.000000 
barrelside08a
0 5.814500 -14.037400 35.639702 0.443009 -0.896517 0.000000 0.501400 -0.258900 1 0 1.000000 
0 10.743800 -10.743800 35.639702 0.752310 -0.658809 0.000000 0.563900 -0.258900 1 0 1.000000 
0 10.743800 -10.743800 48.090599 0.658809 -0.752310 0.000000 0.563900 -0.000500 1 0 1.000000 
barrelside08a
0 10.743800 -10.743800 35.639702 0.752310 -0.658809 0.000000 0.563900 -0.258900 1 0 1.000000 
0 14.037400 -5.814499 48.090599 0.896517 -0.443009 0.000000 0.626400 -0.000500 1 0 1.000000 
0 10.743800 -10.743800 48.090599 0.658809 -0.752310 0.000000 0.563900 -0.000500 1 0 1.000000 
barrelside08a
0 10.743800 -10.743800 35.639702 0.752310 -0.658809 0.000000 0.563900 -0.258900 1 0 1.000000 
0 14.037400 -5.814499 35.639702 0.947183 -0.320694 0.000000 0.626400 -0.258900 1 0 1.000000 
0 14.037400 -5.814499 48.090599 0.896517 -0.443009 0.000000 0.626400 -0.000500 1 0 1.000000 
barrelside08a
0 14.037400 -5.814499 35.639702 0.947183 -0.320694 0.000000 0.626400 -0.258900 1 0 1.000000 
0 15.194000 0.000001 48.090599 0.997806 -0.066200 0.000000 0.688900 -0.000500 1 0 1.000000 
0 14.037400 -5.814499 48.090599 0.896517 -0.443009 0.000000 0.626400 -0.000500 1 0 1.000000 
barrelside08a
0 14.037400 -5.814499 35.639702 0.947183 -0.320694 0.000000 0.626400 -0.258900 1 0 1.000000 
0 15.194000 0.000001 35.639702 0.997806 0.066200 0.000000 0.688900 -0.258900 1 0 1.000000 
0 15.194000 0.000001 48.090599 0.997806 -0.066200 0.000000 0.688900 -0.000500 1 0 1.000000 
barrelside08a
0 15.194000 0.000001 35.639702 0.997806 0.066200 0.000000 0.688900 -0.258900 1 0 1.000000 
0 14.037400 5.814500 48.090599 0.947183 0.320694 0.000000 0.751400 -0.000500 1 0 1.000000 
0 15.194000 0.000001 48.090599 0.997806 -0.066200 0.000000 0.688900 -0.000500 1 0 1.000000 
barrelside08a
0 15.194000 0.000001 35.639702 0.997806 0.066200 0.000000 0.688900 -0.258900 1 0 1.000000 
0 14.037400 5.814500 35.639702 0.832189 0.550993 -0.062199 0.751400 -0.258900 1 0 1.000000 
0 14.037400 5.814500 48.090599 0.947183 0.320694 0.000000 0.751400 -0.000500 1 0 1.000000 
barrelside08a
0 14.037400 5.814500 35.639702 0.832189 0.550993 -0.062199 0.751400 -0.258900 1 0 1.000000 
0 10.743800 10.743800 48.090599 0.605799 0.786099 -0.122700 0.813900 -0.000500 1 0 1.000000 
0 14.037400 5.814500 48.090599 0.947183 0.320694 0.000000 0.751400 -0.000500 1 0 1.000000 
barrelside08a
0 14.037400 5.814500 35.639702 0.832189 0.550993 -0.062199 0.751400 -0.258900 1 0 1.000000 
0 9.831400 8.663800 35.639702 0.544720 0.830231 -0.118304 0.803900 -0.258900 1 0 1.000000 
0 10.743800 10.743800 48.090599 0.605799 0.786099 -0.122700 0.813900 -0.000500 1 0 1.000000 
barrelside08a
0 9.831400 8.663800 35.639702 0.544720 0.830231 -0.118304 0.803900 -0.258900 1 0 1.000000 
0 4.978300 13.112200 48.090599 0.489900 0.869200 -0.067000 0.881100 -0.000500 1 0 1.000000 
0 10.743800 10.743800 48.090599 0.605799 0.786099 -0.122700 0.813900 -0.000500 1 0 1.000000 
barrelside08a
0 9.831400 8.663800 35.639702 0.544720 0.830231 -0.118304 0.803900 -0.258900 1 0 1.000000 
0 5.814499 12.433900 35.639702 0.506005 0.862509 -0.006100 0.869300 -0.258900 1 0 1.000000 
0 4.978300 13.112200 48.090599 0.489900 0.869200 -0.067000 0.881100 -0.000500 1 0 1.000000 
barrelside08a
0 5.814499 12.433900 35.639702 0.506005 0.862509 -0.006100 0.869300 -0.258900 1 0 1.000000 
0 -0.000001 15.194000 48.090599 0.215493 0.976468 -0.008500 0.938900 -0.000500 1 0 1.000000 
0 4.978300 13.112200 48.090599 0.489900 0.869200 -0.067000 0.881100 -0.000500 1 0 1.000000 
barrelside08a
0 5.814499 12.433900 35.639702 0.506005 0.862509 -0.006100 0.869300 -0.258900 1 0 1.000000 
0 -0.000001 15.194000 35.639702 0.013500 0.999909 0.000000 0.938900 -0.258900 1 0 1.000000 
0 -0.000001 15.194000 48.090599 0.215493 0.976468 -0.008500 0.938900 -0.000500 1 0 1.000000 
barrelside08a
0 14.434900 5.798800 11.920500 0.889504 0.355302 -0.287301 0.749700 -0.751200 1 0 1.000000 
0 11.134400 9.500001 9.394500 0.804587 0.511192 -0.302195 0.801300 -0.803600 1 0 1.000000 
0 14.769800 6.117900 13.351800 0.911797 0.300099 -0.280299 0.751400 -0.721500 1 0 1.000000 
barrelside08a
0 15.593900 -0.027699 11.920500 0.964286 -0.017300 -0.264296 0.688600 -0.751200 1 0 1.000000 
0 14.434900 5.798800 11.920500 0.889504 0.355302 -0.287301 0.749700 -0.751200 1 0 1.000000 
0 14.769800 6.117900 13.351800 0.911797 0.300099 -0.280299 0.751400 -0.721500 1 0 1.000000 
barrelside08a
0 15.593900 -0.027699 11.920500 0.964286 -0.017300 -0.264296 0.688600 -0.751200 1 0 1.000000 
0 14.769800 6.117900 13.351800 0.911797 0.300099 -0.280299 0.751400 -0.721500 1 0 1.000000 
0 15.986700 0.000001 13.351800 0.955733 -0.265509 -0.126804 0.688900 -0.721500 1 0 1.000000 
barrelside08a
0 12.755400 -5.854300 11.920500 0.902727 -0.428313 0.040401 0.620400 -0.751200 1 0 1.000000 
0 15.593900 -0.027699 11.920500 0.964286 -0.017300 -0.264296 0.688600 -0.751200 1 0 1.000000 
0 15.986700 0.000001 13.351800 0.955733 -0.265509 -0.126804 0.688900 -0.721500 1 0 1.000000 
barrelside08a
0 12.755400 -5.854300 11.920500 0.902727 -0.428313 0.040401 0.620400 -0.751200 1 0 1.000000 
0 15.986700 0.000001 13.351800 0.955733 -0.265509 -0.126804 0.688900 -0.721500 1 0 1.000000 
0 12.358000 -5.814499 14.472700 0.943928 -0.327910 0.038401 0.618900 -0.698200 1 0 1.000000 
barrelside08a
0 11.134400 -10.793799 11.920500 0.878899 -0.455100 -0.142900 0.566400 -0.751200 1 0 1.000000 
0 12.755400 -5.854300 11.920500 0.902727 -0.428313 0.040401 0.620400 -0.751200 1 0 1.000000 
0 12.358000 -5.814499 14.472700 0.943928 -0.327910 0.038401 0.618900 -0.698200 1 0 1.000000 
barrelside08a
0 11.134400 -10.793799 11.920500 0.878899 -0.455100 -0.142900 0.566400 -0.751200 1 0 1.000000 
0 12.358000 -5.814499 14.472700 0.943928 -0.327910 0.038401 0.618900 -0.698200 1 0 1.000000 
0 11.304301 -11.304299 13.262500 0.708326 -0.633823 -0.310712 0.563900 -0.723400 1 0 1.000000 
barrelside08a
0 5.515400 -14.094200 11.467100 0.401723 -0.869950 -0.286016 0.498300 -0.760600 1 0 1.000000 
0 11.134400 -10.793799 11.920500 0.878899 -0.455100 -0.142900 0.566400 -0.751200 1 0 1.000000 
0 11.304301 -11.304299 13.262500 0.708326 -0.633823 -0.310712 0.563900 -0.723400 1 0 1.000000 
barrelside08a
0 5.515400 -14.094200 11.467100 0.401723 -0.869950 -0.286016 0.498300 -0.760600 1 0 1.000000 
0 11.304301 -11.304299 13.262500 0.708326 -0.633823 -0.310712 0.563900 -0.723400 1 0 1.000000 
0 6.117900 -14.154400 12.556000 0.307510 -0.900929 -0.306210 0.503800 -0.738000 1 0 1.000000 
barrelside08a
0 0.368401 -15.253200 11.920500 0.079901 -0.922717 -0.377107 0.442700 -0.751200 1 0 1.000000 
0 5.515400 -14.094200 11.467100 0.401723 -0.869950 -0.286016 0.498300 -0.760600 1 0 1.000000 
0 6.117900 -14.154400 12.556000 0.307510 -0.900929 -0.306210 0.503800 -0.738000 1 0 1.000000 
barrelside08a
0 0.368401 -15.253200 11.920500 0.079901 -0.922717 -0.377107 0.442700 -0.751200 1 0 1.000000 
0 6.117900 -14.154400 12.556000 0.307510 -0.900929 -0.306210 0.503800 -0.738000 1 0 1.000000 
0 0.000001 -15.986700 13.262500 -0.101399 -0.939187 -0.328095 0.438900 -0.723400 1 0 1.000000 
barrelside08a
0 -5.814499 -14.037400 12.164200 -0.368708 -0.912420 -0.177604 0.376400 -0.746100 1 0 1.000000 
0 0.368401 -15.253200 11.920500 0.079901 -0.922717 -0.377107 0.442700 -0.751200 1 0 1.000000 
0 0.000001 -15.986700 13.262500 -0.101399 -0.939187 -0.328095 0.438900 -0.723400 1 0 1.000000 
barrelside08a
0 -5.814499 -14.037400 12.164200 -0.368708 -0.912420 -0.177604 0.376400 -0.746100 1 0 1.000000 
0 0.000001 -15.986700 13.262500 -0.101399 -0.939187 -0.328095 0.438900 -0.723400 1 0 1.000000 
0 -5.814499 -14.037400 14.472700 -0.400101 -0.896602 -0.189800 0.376400 -0.698200 1 0 1.000000 
barrelside08a
0 -10.743800 -10.743800 12.164200 -0.538414 -0.741419 -0.400510 0.313900 -0.746100 1 0 1.000000 
0 -5.814499 -14.037400 12.164200 -0.368708 -0.912420 -0.177604 0.376400 -0.746100 1 0 1.000000 
0 -5.814499 -14.037400 14.472700 -0.400101 -0.896602 -0.189800 0.376400 -0.698200 1 0 1.000000 
barrelside08a
0 -10.743800 -10.743800 12.164200 -0.538414 -0.741419 -0.400510 0.313900 -0.746100 1 0 1.000000 
0 -5.814499 -14.037400 14.472700 -0.400101 -0.896602 -0.189800 0.376400 -0.698200 1 0 1.000000 
0 -11.304299 -11.304301 13.262500 -0.592798 -0.593298 -0.544598 0.313900 -0.723400 1 0 1.000000 
barrelside08a
0 -14.037400 -5.814500 12.164200 -0.809312 -0.306604 -0.501007 0.251400 -0.746100 1 0 1.000000 
0 -10.743800 -10.743800 12.164200 -0.538414 -0.741419 -0.400510 0.313900 -0.746100 1 0 1.000000 
0 -11.304299 -11.304301 13.262500 -0.592798 -0.593298 -0.544598 0.313900 -0.723400 1 0 1.000000 
barrelside08a
0 -14.037400 -5.814500 12.164200 -0.809312 -0.306604 -0.501007 0.251400 -0.746100 1 0 1.000000 
0 -11.304299 -11.304301 13.262500 -0.592798 -0.593298 -0.544598 0.313900 -0.723400 1 0 1.000000 
0 -14.769800 -6.117900 13.712100 -0.878256 -0.141493 -0.456777 0.251400 -0.714000 1 0 1.000000 
barrelside08a
0 -13.820300 -0.000001 12.164200 -0.895636 0.007800 -0.444718 0.188900 -0.746100 1 0 1.000000 
0 -14.037400 -5.814500 12.164200 -0.809312 -0.306604 -0.501007 0.251400 -0.746100 1 0 1.000000 
0 -14.769800 -6.117900 13.712100 -0.878256 -0.141493 -0.456777 0.251400 -0.714000 1 0 1.000000 
barrelside08a
0 -13.820300 -0.000001 12.164200 -0.895636 0.007800 -0.444718 0.188900 -0.746100 1 0 1.000000 
0 -14.769800 -6.117900 13.712100 -0.878256 -0.141493 -0.456777 0.251400 -0.714000 1 0 1.000000 
0 -14.613000 -0.000001 13.712100 -0.895309 -0.011200 -0.445305 0.188900 -0.714000 1 0 1.000000 
barrelside08a
0 -14.037400 5.814499 12.164200 -0.867116 0.187403 -0.461508 0.126400 -0.746100 1 0 1.000000 
0 -13.820300 -0.000001 12.164200 -0.895636 0.007800 -0.444718 0.188900 -0.746100 1 0 1.000000 
0 -14.613000 -0.000001 13.712100 -0.895309 -0.011200 -0.445305 0.188900 -0.714000 1 0 1.000000 
barrelside08a
0 -14.037400 5.814499 12.164200 -0.867116 0.187403 -0.461508 0.126400 -0.746100 1 0 1.000000 
0 -14.613000 -0.000001 13.712100 -0.895309 -0.011200 -0.445305 0.188900 -0.714000 1 0 1.000000 
0 -14.769800 6.117899 13.712100 -0.774116 0.345707 -0.530311 0.126400 -0.714000 1 0 1.000000 
barrelside08a
0 -9.863800 10.204400 11.624100 -0.586305 0.561205 -0.584205 0.061200 -0.757400 1 0 1.000000 
0 -14.037400 5.814499 12.164200 -0.867116 0.187403 -0.461508 0.126400 -0.746100 1 0 1.000000 
0 -14.769800 6.117899 13.712100 -0.774116 0.345707 -0.530311 0.126400 -0.714000 1 0 1.000000 
barrelside08a
0 -9.863800 10.204400 11.624100 -0.586305 0.561205 -0.584205 0.061200 -0.757400 1 0 1.000000 
0 -14.769800 6.117899 13.712100 -0.774116 0.345707 -0.530311 0.126400 -0.714000 1 0 1.000000 
0 -11.304301 11.304299 13.712100 -0.495887 0.570285 -0.654883 0.063900 -0.714000 1 0 1.000000 
barrelside08a
0 -5.814500 14.037400 12.818300 -0.066098 0.887477 -0.456088 0.001400 -0.732600 1 0 1.000000 
0 -9.863800 10.204400 11.624100 -0.586305 0.561205 -0.584205 0.061200 -0.757400 1 0 1.000000 
0 -11.304301 11.304299 13.712100 -0.495887 0.570285 -0.654883 0.063900 -0.714000 1 0 1.000000 
barrelside08a
0 -5.814500 14.037400 12.818300 -0.066098 0.887477 -0.456088 0.001400 -0.732600 1 0 1.000000 
0 -11.304301 11.304299 13.712100 -0.495887 0.570285 -0.654883 0.063900 -0.714000 1 0 1.000000 
0 -6.117900 14.769800 13.712100 0.000700 0.773587 -0.633689 0.001400 -0.714000 1 0 1.000000 
barrelside08a
0 -0.000001 12.251000 15.034500 0.337388 0.931766 -0.134095 -0.061100 -0.686600 1 0 1.000000 
0 -5.814500 14.037400 12.818300 -0.066098 0.887477 -0.456088 0.001400 -0.732600 1 0 1.000000 
0 -6.117900 14.769800 13.712100 0.000700 0.773587 -0.633689 0.001400 -0.714000 1 0 1.000000 
barrelside08a
0 -0.000001 13.936300 8.318000 0.201007 0.950135 0.238409 -0.061100 -0.826000 1 0 1.000000 
0 -5.814500 14.037400 12.818300 -0.066098 0.887477 -0.456088 0.001400 -0.732600 1 0 1.000000 
0 -0.000001 12.251000 15.034500 0.337388 0.931766 -0.134095 -0.061100 -0.686600 1 0 1.000000 
barrelside08a
0 11.134400 9.500001 9.394500 0.346082 0.906753 0.240887 0.801300 -0.803600 1 0 1.000000 
0 5.814499 14.037400 -0.042600 0.316010 0.920228 0.230907 0.876400 -0.999500 1 0 1.000000 
0 -0.000001 12.251000 15.034500 0.316010 0.920228 0.230907 0.938900 -0.686600 1 0 1.000000 
barrelside08a
0 5.814499 14.037400 -0.042600 0.316010 0.920228 0.230907 0.876400 -0.999500 1 0 1.000000 
0 -0.000001 13.936300 8.318000 0.316010 0.920228 0.230907 0.938900 -0.826000 1 0 1.000000 
0 -0.000001 12.251000 15.034500 0.316010 0.920228 0.230907 0.938900 -0.686600 1 0 1.000000 
barrelside08a
0 -0.000001 12.251000 15.034500 0.298713 0.952241 -0.063303 -0.061100 -0.686600 1 0 1.000000 
0 -5.814500 14.037400 14.472700 0.298713 0.952241 -0.063303 0.001400 -0.698200 1 0 1.000000 
0 -2.229501 13.294100 20.204599 0.298713 0.952241 -0.063303 -0.034700 -0.579300 1 0 1.000000 
barrelside08a
0 3.020400 10.951700 29.531099 0.459129 0.742048 -0.488431 0.896100 -0.385700 1 0 1.000000 
0 -1.451101 12.839500 28.195801 0.459129 0.742048 -0.488431 0.956800 -0.413400 1 0 1.000000 
0 -0.000001 15.986700 34.341301 0.459129 0.742048 -0.488431 0.938900 -0.285900 1 0 1.000000 
barrelside08a
0 -0.000001 12.251000 15.034500 0.165399 0.742595 0.648996 -0.061100 -0.686600 1 0 1.000000 
0 -6.117900 14.769800 13.712100 0.165399 0.742595 0.648996 0.001400 -0.714000 1 0 1.000000 
0 -5.814500 14.037400 14.472700 0.165399 0.742595 0.648996 0.001400 -0.698200 1 0 1.000000 
barrelside08a
0 3.020400 10.951700 29.531099 0.297413 0.746732 -0.594926 0.896100 -0.385700 1 0 1.000000 
0 -0.000001 15.986700 34.341301 0.297413 0.746732 -0.594926 0.938900 -0.285900 1 0 1.000000 
0 6.117899 13.166300 33.859299 0.297413 0.746732 -0.594926 0.869700 -0.295900 1 0 1.000000 
barrelside08a
0 14.769800 6.117900 13.351800 0.313800 0.844701 0.433601 0.751400 -0.721500 1 0 1.000000 
0 11.134400 9.500001 9.394500 0.313800 0.844701 0.433601 0.801300 -0.803600 1 0 1.000000 
0 14.037400 5.814500 14.472700 0.313800 0.844701 0.433601 0.751400 -0.698200 1 0 1.000000 
barrelside08a
0 9.628300 9.430000 30.311501 0.247506 0.779218 -0.575813 0.812200 -0.369500 1 0 1.000000 
0 3.020400 10.951700 29.531099 0.247506 0.779218 -0.575813 0.896100 -0.385700 1 0 1.000000 
0 6.117899 13.166300 33.859299 0.247506 0.779218 -0.575813 0.869700 -0.295900 1 0 1.000000 
barrelside08a
0 -2.229501 13.294100 20.204599 0.291688 0.956160 0.025999 -0.034700 -0.579300 1 0 1.000000 
0 -5.814500 14.037400 33.105202 0.291688 0.956160 0.025999 0.001400 -0.311500 1 0 1.000000 
0 -1.451101 12.839500 28.195801 0.291688 0.956160 0.025999 -0.043200 -0.413400 1 0 1.000000 
barrelside08a
0 9.628300 9.430000 30.311501 0.679398 0.727698 -0.094200 0.812200 -0.369500 1 0 1.000000 
0 6.117899 13.166300 33.859299 0.679398 0.727698 -0.094200 0.869700 -0.295900 1 0 1.000000 
0 10.392000 9.224400 34.230900 0.679398 0.727698 -0.094200 0.804400 -0.288200 1 0 1.000000 
barrelside08a
0 -2.229501 13.294100 20.204599 0.202996 0.979180 0.000000 -0.034700 -0.579300 1 0 1.000000 
0 -5.814500 14.037400 14.472700 0.202996 0.979180 0.000000 0.001400 -0.698200 1 0 1.000000 
0 -5.814500 14.037400 33.105202 0.202996 0.979180 0.000000 0.001400 -0.311500 1 0 1.000000 
barrelside08a
0 14.769800 6.117900 34.230900 0.577273 0.813562 -0.069797 0.751400 -0.288200 1 0 1.000000 
0 9.628300 9.430000 30.311501 0.577273 0.813562 -0.069797 0.812200 -0.369500 1 0 1.000000 
0 10.392000 9.224400 34.230900 0.577273 0.813562 -0.069797 0.804400 -0.288200 1 0 1.000000 
barrelside08a
0 14.037400 5.814500 14.472700 0.398193 0.835484 0.378693 0.751400 -0.698200 1 0 1.000000 
0 11.134400 9.500001 9.394500 0.398193 0.835484 0.378693 0.801300 -0.803600 1 0 1.000000 
0 -0.000001 12.251000 15.034500 0.398193 0.835484 0.378693 0.938900 -0.686600 1 0 1.000000 
barrelside08a
0 14.371300 5.459301 28.195801 0.603203 0.787604 -0.125801 0.746700 -0.413400 1 0 1.000000 
0 9.628300 9.430000 30.311501 0.603203 0.787604 -0.125801 0.812200 -0.369500 1 0 1.000000 
0 14.769800 6.117900 34.230900 0.603203 0.787604 -0.125801 0.751400 -0.288200 1 0 1.000000 
barrelside08a
0 14.371300 5.459301 28.195801 0.537697 0.793796 -0.284199 0.746700 -0.413400 1 0 1.000000 
0 3.605000 10.404500 21.637600 0.537697 0.793796 -0.284199 0.885800 -0.549500 1 0 1.000000 
0 9.628300 9.430000 30.311501 0.537697 0.793796 -0.284199 0.812200 -0.369500 1 0 1.000000 
barrelside08a
0 -1.451101 12.839500 28.195801 -0.401593 0.741286 -0.537790 -0.043200 -0.413400 1 0 1.000000 
0 -5.814500 14.037400 33.105202 -0.401593 0.741286 -0.537790 0.001400 -0.311500 1 0 1.000000 
0 -6.117900 14.769800 34.341301 -0.401593 0.741286 -0.537790 0.001400 -0.285900 1 0 1.000000 
barrelside08a
0 9.628300 9.430000 30.311501 0.229807 0.971930 -0.050402 0.812200 -0.369500 1 0 1.000000 
0 3.605000 10.404500 21.637600 0.229807 0.971930 -0.050402 0.885800 -0.549500 1 0 1.000000 
0 3.020400 10.951700 29.531099 0.229807 0.971930 -0.050402 0.896100 -0.385700 1 0 1.000000 
barrelside08a
0 -1.451101 12.839500 28.195801 -0.177499 0.892294 -0.415097 -0.043200 -0.413400 1 0 1.000000 
0 -6.117900 14.769800 34.341301 -0.177499 0.892294 -0.415097 0.001400 -0.285900 1 0 1.000000 
0 -0.000001 15.986700 34.341301 -0.177499 0.892294 -0.415097 -0.061100 -0.285900 1 0 1.000000 
barrelside08a
0 3.605000 10.404500 21.637600 0.397404 0.917010 -0.034100 0.885800 -0.549500 1 0 1.000000 
0 -1.451101 12.839500 28.195801 0.397404 0.917010 -0.034100 0.956800 -0.413400 1 0 1.000000 
0 3.020400 10.951700 29.531099 0.397404 0.917010 -0.034100 0.896100 -0.385700 1 0 1.000000 
barreltop08a
0 -15.194000 -0.000001 48.090599 0.000000 0.000000 1.000000 0.500000 -0.000500 1 0 1.000000 
0 -10.743800 10.743800 48.090599 0.000000 0.000000 1.000000 0.853200 -0.146800 1 0 1.000000 
0 -14.037400 5.814499 48.090599 0.000000 0.000000 1.000000 0.691200 -0.038500 1 0 1.000000 
barreltop08a
0 -15.194000 -0.000001 48.090599 0.000000 0.000000 1.000000 0.500000 -0.000500 1 0 1.000000 
0 -5.814500 14.037400 48.090599 0.000000 0.000000 1.000000 0.961500 -0.308800 1 0 1.000000 
0 -10.743800 10.743800 48.090599 0.000000 0.000000 1.000000 0.853200 -0.146800 1 0 1.000000 
barreltop08a
0 -15.194000 -0.000001 48.090599 0.000000 0.000000 1.000000 0.500000 -0.000500 1 0 1.000000 
0 -0.000001 15.194000 48.090599 0.000000 0.000000 1.000000 0.999500 -0.500000 1 0 1.000000 
0 -5.814500 14.037400 48.090599 0.000000 0.000000 1.000000 0.961500 -0.308800 1 0 1.000000 
barreltop08a
0 -15.194000 -0.000001 48.090599 0.000000 0.000000 1.000000 0.500000 -0.000500 1 0 1.000000 
0 4.978300 13.112200 48.090599 0.000000 0.000000 1.000000 0.931100 -0.663700 1 0 1.000000 
0 -0.000001 15.194000 48.090599 0.000000 0.000000 1.000000 0.999500 -0.500000 1 0 1.000000 
barreltop08a
0 -15.194000 -0.000001 48.090599 0.000000 0.000000 1.000000 0.500000 -0.000500 1 0 1.000000 
0 10.743800 10.743800 48.090599 0.000000 0.000000 1.000000 0.853200 -0.853200 1 0 1.000000 
0 4.978300 13.112200 48.090599 0.000000 0.000000 1.000000 0.931100 -0.663700 1 0 1.000000 
barreltop08a
0 -15.194000 -0.000001 48.090599 0.000000 0.000000 1.000000 0.500000 -0.000500 1 0 1.000000 
0 14.037400 5.814500 48.090599 0.000000 0.000000 1.000000 0.691200 -0.961500 1 0 1.000000 
0 10.743800 10.743800 48.090599 0.000000 0.000000 1.000000 0.853200 -0.853200 1 0 1.000000 
barreltop08a
0 -15.194000 -0.000001 48.090599 0.000000 0.000000 1.000000 0.500000 -0.000500 1 0 1.000000 
0 15.194000 0.000001 48.090599 0.000000 0.000000 1.000000 0.500000 -0.999500 1 0 1.000000 
0 14.037400 5.814500 48.090599 0.000000 0.000000 1.000000 0.691200 -0.961500 1 0 1.000000 
barreltop08a
0 -15.194000 -0.000001 48.090599 0.000000 0.000000 1.000000 0.500000 -0.000500 1 0 1.000000 
0 14.037400 -5.814499 48.090599 0.000000 0.000000 1.000000 0.308800 -0.961500 1 0 1.000000 
0 15.194000 0.000001 48.090599 0.000000 0.000000 1.000000 0.500000 -0.999500 1 0 1.000000 
barreltop08a
0 -15.194000 -0.000001 48.090599 0.000000 0.000000 1.000000 0.500000 -0.000500 1 0 1.000000 
0 10.743800 -10.743800 48.090599 0.000000 0.000000 1.000000 0.146800 -0.853200 1 0 1.000000 
0 14.037400 -5.814499 48.090599 0.000000 0.000000 1.000000 0.308800 -0.961500 1 0 1.000000 
barreltop08a
0 -15.194000 -0.000001 48.090599 0.000000 0.000000 1.000000 0.500000 -0.000500 1 0 1.000000 
0 5.814500 -14.037400 48.090599 0.000000 0.000000 1.000000 0.038500 -0.691200 1 0 1.000000 
0 10.743800 -10.743800 48.090599 0.000000 0.000000 1.000000 0.146800 -0.853200 1 0 1.000000 
barreltop08a
0 -15.194000 -0.000001 48.090599 0.000000 0.000000 1.000000 0.500000 -0.000500 1 0 1.000000 
0 0.000001 -15.194000 48.090599 0.000000 0.000000 1.000000 0.000500 -0.500000 1 0 1.000000 
0 5.814500 -14.037400 48.090599 0.000000 0.000000 1.000000 0.038500 -0.691200 1 0 1.000000 
barreltop08a
0 -15.194000 -0.000001 48.090599 0.000000 0.000000 1.000000 0.500000 -0.000500 1 0 1.000000 
0 -5.814499 -14.037400 48.090599 0.000000 0.000000 1.000000 0.038500 -0.308800 1 0 1.000000 
0 0.000001 -15.194000 48.090599 0.000000 0.000000 1.000000 0.000500 -0.500000 1 0 1.000000 
barreltop08a
0 -15.194000 -0.000001 48.090599 0.000000 0.000000 1.000000 0.500000 -0.000500 1 0 1.000000 
0 -14.037400 -5.814500 48.090599 0.000000 0.000000 1.000000 0.308800 -0.038500 1 0 1.000000 
0 -5.814499 -14.037400 48.090599 0.000000 0.000000 1.000000 0.038500 -0.308800 1 0 1.000000 
end
