version 1
nodes
  0 "static_prop" -1
end
skeleton
time 0
0 0.000000 0.000000 0.000000 0.000000 0.000000 0.000000
end
triangles
borealis_vent001
0 -3.490998 -40.000000 -2.000000 -1.000000 -0.000000 0.000000 0.219100 -0.530800 1 0 1.000000 
0 -3.491002 40.000000 2.000000 -1.000000 -0.000000 0.000000 0.997500 -0.480800 1 0 1.000000 
0 -3.491002 40.000000 -2.000000 -1.000000 -0.000000 0.000000 0.997500 -0.530800 1 0 1.000000 
borealis_vent001
0 -3.490998 -40.000000 -2.000000 -1.000000 -0.000000 0.000000 0.219100 -0.530800 1 0 1.000000 
0 -3.490998 -40.000000 2.000000 -1.000000 -0.000000 0.000000 0.219100 -0.480800 1 0 1.000000 
0 -3.491002 40.000000 2.000000 -1.000000 -0.000000 0.000000 0.997500 -0.480800 1 0 1.000000 
borealis_vent001
0 -3.490998 -40.000000 -2.000000 0.000000 0.000000 -1.000000 0.997000 -0.557000 1 0 1.000000 
0 3.508998 40.000000 -2.000000 0.000000 0.000000 -1.000000 0.218800 -0.469500 1 0 1.000000 
0 3.509002 -40.000000 -2.000000 0.000000 0.000000 -1.000000 0.997000 -0.469500 1 0 1.000000 
borealis_vent001
0 -3.490998 -40.000000 -2.000000 0.000000 0.000000 -1.000000 0.997000 -0.557000 1 0 1.000000 
0 -3.491002 40.000000 -2.000000 0.000000 0.000000 -1.000000 0.218800 -0.557000 1 0 1.000000 
0 3.508998 40.000000 -2.000000 0.000000 0.000000 -1.000000 0.218800 -0.469500 1 0 1.000000 
borealis_vent001
0 -3.490998 -40.000000 2.000000 0.000000 0.000000 1.000000 0.997200 -0.557000 1 0 1.000000 
0 3.508998 40.000000 2.000000 0.000000 0.000000 1.000000 0.218900 -0.469500 1 0 1.000000 
0 -3.491002 40.000000 2.000000 0.000000 0.000000 1.000000 0.218900 -0.557000 1 0 1.000000 
borealis_vent001
0 -3.490998 -40.000000 2.000000 0.000000 0.000000 1.000000 0.997200 -0.557000 1 0 1.000000 
0 3.509002 -40.000000 2.000000 0.000000 0.000000 1.000000 0.997200 -0.469500 1 0 1.000000 
0 3.508998 40.000000 2.000000 0.000000 0.000000 1.000000 0.218900 -0.469500 1 0 1.000000 
borealis_vent001
0 3.509002 -40.000000 -2.000000 1.000000 0.000000 0.000000 0.219100 -0.530800 1 0 1.000000 
0 3.508998 40.000000 2.000000 1.000000 0.000000 0.000000 0.997500 -0.480800 1 0 1.000000 
0 3.509002 -40.000000 2.000000 1.000000 0.000000 0.000000 0.219100 -0.480800 1 0 1.000000 
borealis_vent001
0 3.509002 -40.000000 -2.000000 1.000000 0.000000 0.000000 0.219100 -0.530800 1 0 1.000000 
0 3.508998 40.000000 -2.000000 1.000000 0.000000 0.000000 0.997500 -0.530800 1 0 1.000000 
0 3.508998 40.000000 2.000000 1.000000 0.000000 0.000000 0.997500 -0.480800 1 0 1.000000 
borealis_vent001
0 -3.836398 -40.000000 -2.372900 -1.000000 -0.000000 0.000000 0.219100 -0.535500 1 0 1.000000 
0 -3.836398 -39.698200 2.372900 -1.000000 -0.000000 0.000000 0.222000 -0.476100 1 0 1.000000 
0 -3.836398 -39.698200 -2.372900 -1.000000 -0.000000 0.000000 0.222000 -0.535500 1 0 1.000000 
borealis_vent001
0 -3.836398 -40.000000 -2.372900 -1.000000 -0.000000 0.000000 0.219100 -0.535500 1 0 1.000000 
0 -3.836398 -40.000000 2.372900 -1.000000 -0.000000 0.000000 0.219100 -0.476100 1 0 1.000000 
0 -3.836398 -39.698200 2.372900 -1.000000 -0.000000 0.000000 0.222000 -0.476100 1 0 1.000000 
borealis_vent001
0 -3.836398 -40.000000 -2.372900 0.000000 0.000000 -1.000000 0.997000 -0.561300 1 0 1.000000 
0 3.836402 -39.698200 -2.372900 0.000000 0.000000 -1.000000 0.994100 -0.465500 1 0 1.000000 
0 3.836402 -40.000000 -2.372900 0.000000 0.000000 -1.000000 0.997000 -0.465500 1 0 1.000000 
borealis_vent001
0 -3.836398 -40.000000 -2.372900 0.000000 0.000000 -1.000000 0.997000 -0.561300 1 0 1.000000 
0 -3.836398 -39.698200 -2.372900 0.000000 0.000000 -1.000000 0.994100 -0.561300 1 0 1.000000 
0 3.836402 -39.698200 -2.372900 0.000000 0.000000 -1.000000 0.994100 -0.465500 1 0 1.000000 
borealis_vent001
0 -3.836398 -40.000000 -2.372900 0.000000 -1.000000 0.000000 0.056800 -0.946800 1 0 1.000000 
0 3.836402 -40.000000 2.372900 0.000000 -1.000000 0.000000 0.175500 -0.755000 1 0 1.000000 
0 -3.836398 -40.000000 2.372900 0.000000 -1.000000 0.000000 0.175500 -0.946800 1 0 1.000000 
borealis_vent001
0 -3.836398 -40.000000 -2.372900 0.000000 -1.000000 0.000000 0.056800 -0.946800 1 0 1.000000 
0 3.836402 -40.000000 -2.372900 0.000000 -1.000000 0.000000 0.056800 -0.755000 1 0 1.000000 
0 3.836402 -40.000000 2.372900 0.000000 -1.000000 0.000000 0.175500 -0.755000 1 0 1.000000 
borealis_vent001
0 -3.836398 -39.698200 -2.372900 -0.000000 1.000000 0.000000 0.056800 -0.946800 1 0 1.000000 
0 3.836402 -39.698200 2.372900 -0.000000 1.000000 0.000000 0.175500 -0.755000 1 0 1.000000 
0 3.836402 -39.698200 -2.372900 -0.000000 1.000000 0.000000 0.056800 -0.755000 1 0 1.000000 
borealis_vent001
0 -3.836398 -39.698200 -2.372900 -0.000000 1.000000 0.000000 0.056800 -0.946800 1 0 1.000000 
0 -3.836398 -39.698200 2.372900 -0.000000 1.000000 0.000000 0.175500 -0.946800 1 0 1.000000 
0 3.836402 -39.698200 2.372900 -0.000000 1.000000 0.000000 0.175500 -0.755000 1 0 1.000000 
borealis_vent001
0 -3.836398 -40.000000 2.372900 0.000000 0.000000 1.000000 0.997200 -0.561300 1 0 1.000000 
0 3.836402 -39.698200 2.372900 0.000000 0.000000 1.000000 0.994300 -0.465500 1 0 1.000000 
0 -3.836398 -39.698200 2.372900 0.000000 0.000000 1.000000 0.994300 -0.561300 1 0 1.000000 
borealis_vent001
0 -3.836398 -40.000000 2.372900 0.000000 0.000000 1.000000 0.997200 -0.561300 1 0 1.000000 
0 3.836402 -40.000000 2.372900 0.000000 0.000000 1.000000 0.997200 -0.465500 1 0 1.000000 
0 3.836402 -39.698200 2.372900 0.000000 0.000000 1.000000 0.994300 -0.465500 1 0 1.000000 
borealis_vent001
0 3.836402 -40.000000 -2.372900 1.000000 0.000000 0.000000 0.219100 -0.535500 1 0 1.000000 
0 3.836402 -39.698200 2.372900 1.000000 0.000000 0.000000 0.222000 -0.476100 1 0 1.000000 
0 3.836402 -40.000000 2.372900 1.000000 0.000000 0.000000 0.219100 -0.476100 1 0 1.000000 
borealis_vent001
0 3.836402 -40.000000 -2.372900 1.000000 0.000000 0.000000 0.219100 -0.535500 1 0 1.000000 
0 3.836402 -39.698200 -2.372900 1.000000 0.000000 0.000000 0.222000 -0.535500 1 0 1.000000 
0 3.836402 -39.698200 2.372900 1.000000 0.000000 0.000000 0.222000 -0.476100 1 0 1.000000 
borealis_vent001
0 -3.836402 39.695702 -2.372900 -1.000000 -0.000000 0.000000 0.994600 -0.535500 1 0 1.000000 
0 -3.836402 40.000000 2.372900 -1.000000 -0.000000 0.000000 0.997500 -0.476100 1 0 1.000000 
0 -3.836402 40.000000 -2.372900 -1.000000 -0.000000 0.000000 0.997500 -0.535500 1 0 1.000000 
borealis_vent001
0 -3.836402 39.695702 -2.372900 -1.000000 -0.000000 0.000000 0.994600 -0.535500 1 0 1.000000 
0 -3.836402 39.695702 2.372900 -1.000000 -0.000000 0.000000 0.994600 -0.476100 1 0 1.000000 
0 -3.836402 40.000000 2.372900 -1.000000 -0.000000 0.000000 0.997500 -0.476100 1 0 1.000000 
borealis_vent001
0 -3.836402 39.695702 -2.372900 0.000000 0.000000 -1.000000 0.221700 -0.561300 1 0 1.000000 
0 3.836398 40.000000 -2.372900 0.000000 0.000000 -1.000000 0.218700 -0.465500 1 0 1.000000 
0 3.836398 39.695702 -2.372900 0.000000 0.000000 -1.000000 0.221700 -0.465500 1 0 1.000000 
borealis_vent001
0 -3.836402 39.695702 -2.372900 0.000000 0.000000 -1.000000 0.221700 -0.561300 1 0 1.000000 
0 -3.836402 40.000000 -2.372900 0.000000 0.000000 -1.000000 0.218700 -0.561300 1 0 1.000000 
0 3.836398 40.000000 -2.372900 0.000000 0.000000 -1.000000 0.218700 -0.465500 1 0 1.000000 
borealis_vent001
0 -3.836402 39.695702 -2.372900 0.000000 -1.000000 0.000000 0.056800 -0.946800 1 0 1.000000 
0 3.836398 39.695702 2.372900 0.000000 -1.000000 0.000000 0.175500 -0.755000 1 0 1.000000 
0 -3.836402 39.695702 2.372900 0.000000 -1.000000 0.000000 0.175500 -0.946800 1 0 1.000000 
borealis_vent001
0 -3.836402 39.695702 -2.372900 0.000000 -1.000000 0.000000 0.056800 -0.946800 1 0 1.000000 
0 3.836398 39.695702 -2.372900 0.000000 -1.000000 0.000000 0.056800 -0.755000 1 0 1.000000 
0 3.836398 39.695702 2.372900 0.000000 -1.000000 0.000000 0.175500 -0.755000 1 0 1.000000 
borealis_vent001
0 -3.836402 40.000000 -2.372900 -0.000000 1.000000 0.000000 0.056800 -0.946800 1 0 1.000000 
0 3.836398 40.000000 2.372900 -0.000000 1.000000 0.000000 0.175500 -0.755000 1 0 1.000000 
0 3.836398 40.000000 -2.372900 -0.000000 1.000000 0.000000 0.056800 -0.755000 1 0 1.000000 
borealis_vent001
0 -3.836402 40.000000 -2.372900 -0.000000 1.000000 0.000000 0.056800 -0.946800 1 0 1.000000 
0 -3.836402 40.000000 2.372900 -0.000000 1.000000 0.000000 0.175500 -0.946800 1 0 1.000000 
0 3.836398 40.000000 2.372900 -0.000000 1.000000 0.000000 0.175500 -0.755000 1 0 1.000000 
borealis_vent001
0 -3.836402 39.695702 2.372900 0.000000 0.000000 1.000000 0.221900 -0.561300 1 0 1.000000 
0 3.836398 40.000000 2.372900 0.000000 0.000000 1.000000 0.219000 -0.465500 1 0 1.000000 
0 -3.836402 40.000000 2.372900 0.000000 0.000000 1.000000 0.219000 -0.561300 1 0 1.000000 
borealis_vent001
0 -3.836402 39.695702 2.372900 0.000000 0.000000 1.000000 0.221900 -0.561300 1 0 1.000000 
0 3.836398 39.695702 2.372900 0.000000 0.000000 1.000000 0.221900 -0.465500 1 0 1.000000 
0 3.836398 40.000000 2.372900 0.000000 0.000000 1.000000 0.219000 -0.465500 1 0 1.000000 
borealis_vent001
0 3.836398 39.695702 -2.372900 1.000000 0.000000 0.000000 0.994600 -0.535500 1 0 1.000000 
0 3.836398 40.000000 2.372900 1.000000 0.000000 0.000000 0.997500 -0.476100 1 0 1.000000 
0 3.836398 39.695702 2.372900 1.000000 0.000000 0.000000 0.994600 -0.476100 1 0 1.000000 
borealis_vent001
0 3.836398 39.695702 -2.372900 1.000000 0.000000 0.000000 0.994600 -0.535500 1 0 1.000000 
0 3.836398 40.000000 -2.372900 1.000000 0.000000 0.000000 0.997500 -0.535500 1 0 1.000000 
0 3.836398 40.000000 2.372900 1.000000 0.000000 0.000000 0.997500 -0.476100 1 0 1.000000 
end
