version 1
nodes
  0 "static_prop" -1
end
skeleton
time 0
0 0.000000 0.000000 0.000000 0.000000 0.000000 0.000000
end
triangles
rockcliff02a
0 -21.647398 -31.155199 37.666000 0.085899 -0.973094 -0.213799 0.072000 -0.247700 1 0 1.000000 
0 -11.420300 -5.783101 -79.808998 0.166096 -0.966779 -0.194296 0.111900 -0.706600 1 0 1.000000 
0 4.518900 -3.167100 -79.196602 0.166096 -0.966779 -0.194296 0.174200 -0.704200 1 0 1.000000 
rockcliff02a
0 -21.647398 -31.155199 37.666000 0.085899 -0.973094 -0.213799 0.072000 -0.247700 1 0 1.000000 
0 4.518900 -3.167100 -79.196602 0.005000 -0.972748 -0.231811 0.174200 -0.704200 1 0 1.000000 
0 24.748503 -28.476398 27.433599 0.005000 -0.972748 -0.231811 0.253200 -0.287600 1 0 1.000000 
rockcliff02a
0 17.713303 -25.299299 55.808201 0.656294 -0.708293 0.259998 0.218200 -0.158900 1 0 1.000000 
0 21.825401 -26.880198 41.122002 0.656294 -0.708293 0.259998 0.212100 -0.216300 1 0 1.000000 
0 28.885201 -18.964598 44.867199 0.656294 -0.708293 0.259998 0.243000 -0.201600 1 0 1.000000 
rockcliff02a
0 -18.725599 19.990101 60.529202 -0.184998 0.439694 0.878888 0.460800 -0.201800 1 0 1.000000 
0 24.531000 -13.336199 86.304901 -0.184998 0.439694 0.878888 0.311200 -0.007600 1 0 1.000000 
0 24.130600 12.545201 68.028099 -0.042800 0.575899 0.816399 0.427400 -0.009400 1 0 1.000000 
rockcliff02a
0 -18.725599 19.990101 60.529202 -0.184998 0.439694 0.878888 0.460800 -0.201800 1 0 1.000000 
0 -22.527300 -21.738302 72.330101 -0.319293 0.284694 0.903881 0.273500 -0.218900 1 0 1.000000 
0 24.531000 -13.336199 86.304901 -0.184998 0.439694 0.878888 0.311200 -0.007600 1 0 1.000000 
rockcliff02a
0 -11.420300 -5.783101 -79.808998 0.048301 -0.510008 -0.858813 0.268000 -0.222700 1 0 1.000000 
0 3.367100 5.218300 -85.510498 0.048301 -0.510008 -0.858813 0.311000 -0.164900 1 0 1.000000 
0 4.518900 -3.167100 -79.196602 0.126799 -0.585497 -0.800696 0.278200 -0.160400 1 0 1.000000 
rockcliff02a
0 3.367100 5.218300 -85.510498 0.048301 -0.510008 -0.858813 0.311000 -0.164900 1 0 1.000000 
0 -11.420300 -5.783101 -79.808998 0.048301 -0.510008 -0.858813 0.268000 -0.222700 1 0 1.000000 
0 -21.219299 3.548699 -83.878799 -0.031002 -0.426724 -0.903850 0.304500 -0.261000 1 0 1.000000 
rockcliff02a
0 -22.042398 -30.888802 61.530102 -0.055002 -0.763027 0.644022 0.070400 -0.154500 1 0 1.000000 
0 16.495300 -20.135401 77.782204 -0.071097 -0.745970 0.662173 0.221000 -0.091000 1 0 1.000000 
0 24.531000 -13.336199 86.304901 -0.055002 -0.763027 0.644022 0.252300 -0.057700 1 0 1.000000 
rockcliff02a
0 24.531000 -13.336199 86.304901 -0.055002 -0.763027 0.644022 0.252300 -0.057700 1 0 1.000000 
0 -22.527300 -21.738302 72.330101 -0.055002 -0.763027 0.644022 0.068500 -0.112300 1 0 1.000000 
0 -22.042398 -30.888802 61.530102 -0.055002 -0.763027 0.644022 0.070400 -0.154500 1 0 1.000000 
rockcliff02a
0 -23.188103 33.019100 24.127199 0.184292 0.947559 0.261089 0.563700 -0.232400 1 0 1.000000 
0 28.055799 19.754402 36.101101 0.184292 0.947559 0.261089 0.363500 -0.185600 1 0 1.000000 
0 26.160997 22.441702 24.650999 0.203700 0.960102 0.191600 0.370900 -0.230300 1 0 1.000000 
rockcliff02a
0 -23.188103 33.019100 24.127199 0.184292 0.947559 0.261089 0.563700 -0.232400 1 0 1.000000 
0 -23.153603 28.846199 35.899601 0.163791 0.929952 0.329183 0.563600 -0.186400 1 0 1.000000 
0 28.055799 19.754402 36.101101 0.184292 0.947559 0.261089 0.363500 -0.185600 1 0 1.000000 
rockcliff02a
0 28.055799 19.754402 36.101101 0.165194 0.937168 0.307289 0.363500 -0.185600 1 0 1.000000 
0 -23.153603 28.846199 35.899601 0.163791 0.929952 0.329183 0.563600 -0.186400 1 0 1.000000 
0 -18.725599 19.990101 60.529202 0.165194 0.937168 0.307289 0.546300 -0.090200 1 0 1.000000 
rockcliff02a
0 4.518900 -3.167100 -79.196602 0.810433 -0.516521 -0.276411 0.304700 -0.686200 1 0 1.000000 
0 10.356700 1.329800 -70.482002 0.810433 -0.516521 -0.276411 0.322300 -0.652200 1 0 1.000000 
0 24.748503 -28.476398 27.433599 0.810433 -0.516521 -0.276411 0.205800 -0.269700 1 0 1.000000 
rockcliff02a
0 -22.846903 32.588100 -12.443000 0.233294 0.971477 -0.042499 0.562400 -0.375200 1 0 1.000000 
0 26.160997 22.441702 24.650999 0.233294 0.971477 -0.042499 0.370900 -0.230300 1 0 1.000000 
0 16.719498 22.138500 -11.328100 0.256591 0.963567 -0.075497 0.407800 -0.370900 1 0 1.000000 
rockcliff02a
0 -22.846903 32.588100 -12.443000 0.233294 0.971477 -0.042499 0.562400 -0.375200 1 0 1.000000 
0 -23.188103 33.019100 24.127199 0.209704 0.977718 -0.009600 0.563700 -0.232400 1 0 1.000000 
0 26.160997 22.441702 24.650999 0.233294 0.971477 -0.042499 0.370900 -0.230300 1 0 1.000000 
rockcliff02a
0 3.041399 15.157500 -86.304901 0.168894 0.978067 -0.121896 0.461200 -0.663800 1 0 1.000000 
0 16.719498 22.138500 -11.328100 0.198290 0.971350 -0.130993 0.407800 -0.370900 1 0 1.000000 
0 9.380599 15.740600 -74.758499 0.114697 0.986976 -0.112797 0.436500 -0.618600 1 0 1.000000 
rockcliff02a
0 -21.795601 21.404600 -82.402702 0.239498 0.960794 -0.139699 0.558300 -0.648500 1 0 1.000000 
0 16.719498 22.138500 -11.328100 0.198290 0.971350 -0.130993 0.407800 -0.370900 1 0 1.000000 
0 3.041399 15.157500 -86.304901 0.168894 0.978067 -0.121896 0.461200 -0.663800 1 0 1.000000 
rockcliff02a
0 -21.795601 21.404600 -82.402702 0.239498 0.960794 -0.139699 0.558300 -0.648500 1 0 1.000000 
0 -22.846903 32.588100 -12.443000 0.256412 0.955044 -0.148807 0.562400 -0.375200 1 0 1.000000 
0 16.719498 22.138500 -11.328100 0.198290 0.971350 -0.130993 0.407800 -0.370900 1 0 1.000000 
rockcliff02a
0 -21.219299 3.548699 -83.878799 -0.098503 -0.002100 -0.995134 0.304500 -0.261000 1 0 1.000000 
0 3.041399 15.157500 -86.304901 -0.098503 -0.002100 -0.995134 0.349800 -0.166200 1 0 1.000000 
0 3.367100 5.218300 -85.510498 -0.060502 -0.081503 -0.994835 0.311000 -0.164900 1 0 1.000000 
rockcliff02a
0 -21.219299 3.548699 -83.878799 -0.098503 -0.002100 -0.995134 0.304500 -0.261000 1 0 1.000000 
0 -21.795601 21.404600 -82.402702 -0.135704 0.077302 -0.987729 0.374200 -0.263200 1 0 1.000000 
0 3.041399 15.157500 -86.304901 -0.098503 -0.002100 -0.995134 0.349800 -0.166200 1 0 1.000000 
rockcliff02a
0 -22.638798 -33.034302 48.316200 0.135998 -0.990686 -0.006700 0.068100 -0.206100 1 0 1.000000 
0 21.825401 -26.880198 41.122002 0.135998 -0.990686 -0.006700 0.241800 -0.234200 1 0 1.000000 
0 17.713303 -25.299299 55.808201 0.159305 -0.975828 0.149604 0.225700 -0.176800 1 0 1.000000 
rockcliff02a
0 -22.638798 -33.034302 48.316200 0.135998 -0.990686 -0.006700 0.068100 -0.206100 1 0 1.000000 
0 -21.647398 -31.155199 37.666000 0.109397 -0.980576 -0.162796 0.072000 -0.247700 1 0 1.000000 
0 21.825401 -26.880198 41.122002 0.135998 -0.990686 -0.006700 0.241800 -0.234200 1 0 1.000000 
rockcliff02a
0 -23.153603 28.846199 35.899601 -0.998679 0.044599 -0.025499 0.640500 -0.275700 1 0 1.000000 
0 -21.219299 3.548699 -83.878799 -0.999829 0.005900 -0.017501 0.541600 -0.743600 1 0 1.000000 
0 -30.166199 -26.608301 39.560902 -0.991572 0.122596 -0.041899 0.423800 -0.261400 1 0 1.000000 
rockcliff02a
0 -23.188103 33.019100 24.127199 -0.999385 -0.033900 -0.009000 0.656800 -0.321700 1 0 1.000000 
0 -21.219299 3.548699 -83.878799 -0.999829 0.005900 -0.017501 0.541600 -0.743600 1 0 1.000000 
0 -23.153603 28.846199 35.899601 -0.998679 0.044599 -0.025499 0.640500 -0.275700 1 0 1.000000 
rockcliff02a
0 -22.846903 32.588100 -12.443000 -0.999420 -0.032701 -0.009500 0.655100 -0.464500 1 0 1.000000 
0 -21.219299 3.548699 -83.878799 -0.999829 0.005900 -0.017501 0.541600 -0.743600 1 0 1.000000 
0 -23.188103 33.019100 24.127199 -0.999385 -0.033900 -0.009000 0.656800 -0.321700 1 0 1.000000 
rockcliff02a
0 -21.795601 21.404600 -82.402702 -0.999457 -0.031399 -0.010000 0.611400 -0.737800 1 0 1.000000 
0 -21.219299 3.548699 -83.878799 -0.999829 0.005900 -0.017501 0.541600 -0.743600 1 0 1.000000 
0 -22.846903 32.588100 -12.443000 -0.999420 -0.032701 -0.009500 0.655100 -0.464500 1 0 1.000000 
rockcliff02a
0 28.885201 -18.964598 44.867199 0.978972 -0.103997 -0.175495 0.243000 -0.201600 1 0 1.000000 
0 24.748503 -28.476398 27.433599 0.978972 -0.103997 -0.175495 0.205800 -0.269700 1 0 1.000000 
0 10.356700 1.329800 -70.482002 0.978972 -0.103997 -0.175495 0.322300 -0.652200 1 0 1.000000 
rockcliff02a
0 9.663000 6.135400 -74.191803 0.987069 0.019599 -0.159095 0.341000 -0.666700 1 0 1.000000 
0 9.380599 15.740600 -74.758499 0.990009 0.025900 -0.138601 0.378500 -0.668900 1 0 1.000000 
0 10.356700 1.329800 -70.482002 0.981506 0.088201 -0.169901 0.322300 -0.652200 1 0 1.000000 
rockcliff02a
0 9.380599 15.740600 -74.758499 0.990009 0.025900 -0.138601 0.378500 -0.668900 1 0 1.000000 
0 16.719498 22.138500 -11.328100 0.958570 0.220293 -0.180594 0.403500 -0.421100 1 0 1.000000 
0 10.356700 1.329800 -70.482002 0.981506 0.088201 -0.169901 0.322300 -0.652200 1 0 1.000000 
rockcliff02a
0 16.719498 22.138500 -11.328100 0.958570 0.220293 -0.180594 0.403500 -0.421100 1 0 1.000000 
0 26.160997 22.441702 24.650999 0.957501 0.203600 -0.204300 0.404700 -0.280600 1 0 1.000000 
0 10.356700 1.329800 -70.482002 0.981506 0.088201 -0.169901 0.322300 -0.652200 1 0 1.000000 
rockcliff02a
0 26.160997 22.441702 24.650999 0.957501 0.203600 -0.204300 0.404700 -0.280600 1 0 1.000000 
0 28.055799 19.754402 36.101101 0.999605 0.027600 0.005200 0.394200 -0.235900 1 0 1.000000 
0 10.356700 1.329800 -70.482002 0.981506 0.088201 -0.169901 0.322300 -0.652200 1 0 1.000000 
rockcliff02a
0 28.055799 19.754402 36.101101 0.999605 0.027600 0.005200 0.394200 -0.235900 1 0 1.000000 
0 28.885201 -18.964598 44.867199 0.994827 0.042201 0.092403 0.243000 -0.201600 1 0 1.000000 
0 10.356700 1.329800 -70.482002 0.981506 0.088201 -0.169901 0.322300 -0.652200 1 0 1.000000 
rockcliff02a
0 28.055799 19.754402 36.101101 0.999605 0.027600 0.005200 0.394200 -0.235900 1 0 1.000000 
0 25.327900 -14.119099 53.276901 0.935484 0.096998 0.339794 0.261900 -0.168800 1 0 1.000000 
0 28.885201 -18.964598 44.867199 0.994827 0.042201 0.092403 0.243000 -0.201600 1 0 1.000000 
rockcliff02a
0 -22.527300 -21.738302 72.330101 -0.969104 0.136101 0.205701 0.442900 -0.133400 1 0 1.000000 
0 -18.725599 19.990101 60.529202 -0.961817 0.152003 0.227604 0.605900 -0.179500 1 0 1.000000 
0 -23.153603 28.846199 35.899601 -0.969104 0.136101 0.205701 0.640500 -0.275700 1 0 1.000000 
rockcliff02a
0 -23.153603 28.846199 35.899601 -0.969104 0.136101 0.205701 0.640500 -0.275700 1 0 1.000000 
0 -28.860899 -31.029202 48.637199 -0.969104 0.136101 0.205701 0.406600 -0.225900 1 0 1.000000 
0 -22.527300 -21.738302 72.330101 -0.969104 0.136101 0.205701 0.442900 -0.133400 1 0 1.000000 
rockcliff02a
0 -23.153603 28.846199 35.899601 -0.969104 0.136101 0.205701 0.640500 -0.275700 1 0 1.000000 
0 -30.166199 -26.608301 39.560902 -0.969104 0.136101 0.205701 0.423800 -0.261400 1 0 1.000000 
0 -28.860899 -31.029202 48.637199 -0.969104 0.136101 0.205701 0.406600 -0.225900 1 0 1.000000 
rockcliff02a
0 3.041399 15.157500 -86.304901 0.876717 -0.009700 -0.480909 0.376300 -0.714000 1 0 1.000000 
0 9.380599 15.740600 -74.758499 0.874007 -0.003000 -0.485904 0.378500 -0.668900 1 0 1.000000 
0 3.367100 5.218300 -85.510498 0.874007 -0.003000 -0.485904 0.337400 -0.710900 1 0 1.000000 
rockcliff02a
0 9.663000 6.135400 -74.191803 0.874007 -0.003000 -0.485904 0.341000 -0.666700 1 0 1.000000 
0 3.367100 5.218300 -85.510498 0.874007 -0.003000 -0.485904 0.337400 -0.710900 1 0 1.000000 
0 9.380599 15.740600 -74.758499 0.874007 -0.003000 -0.485904 0.378500 -0.668900 1 0 1.000000 
rockcliff02a
0 -21.647398 -31.155199 37.666000 0.085899 -0.973094 -0.213799 0.028900 -0.282000 1 0 1.000000 
0 4.518900 -3.167100 -79.196602 0.166096 -0.966779 -0.194296 0.452200 -0.958400 1 0 1.000000 
0 4.518900 -3.167100 -79.196602 0.005000 -0.972748 -0.231811 0.440700 -0.884400 1 0 1.000000 
rockcliff02a
0 -21.647398 -31.155199 37.666000 0.086496 -0.987254 0.133594 0.072000 -0.247700 1 0 1.000000 
0 24.748503 -28.476398 27.433599 0.086496 -0.987254 0.133594 0.253200 -0.287600 1 0 1.000000 
0 21.825401 -26.880198 41.122002 0.086496 -0.987254 0.133594 0.241800 -0.234200 1 0 1.000000 
rockcliff02a
0 4.518900 -3.167100 -79.196602 0.000000 0.000000 0.000000 0.440700 -0.884400 1 0 1.000000 
0 4.518900 -3.167100 -79.196602 0.000000 0.000000 0.000000 0.452200 -0.958400 1 0 1.000000 
0 9.663000 6.135400 -74.191803 0.000000 0.000000 0.000000 0.592900 -0.929400 1 0 1.000000 
rockcliff02a
0 10.356700 1.329800 -70.482002 0.859258 -0.229089 -0.457378 0.525400 -0.893600 1 0 1.000000 
0 4.518900 -3.167100 -79.196602 0.859258 -0.229089 -0.457378 0.500400 -0.941900 1 0 1.000000 
0 9.663000 6.135400 -74.191803 0.859258 -0.229089 -0.457378 0.552000 -0.914200 1 0 1.000000 
rockcliff02a
0 3.367100 5.218300 -85.510498 0.858647 -0.227786 -0.459172 0.337400 -0.710900 1 0 1.000000 
0 9.663000 6.135400 -74.191803 0.858647 -0.227786 -0.459172 0.341000 -0.666700 1 0 1.000000 
0 4.518900 -3.167100 -79.196602 0.858647 -0.227786 -0.459172 0.304700 -0.686200 1 0 1.000000 
rockcliff02a
0 28.885201 -18.964598 44.867199 0.671600 -0.705700 0.225700 0.243000 -0.201600 1 0 1.000000 
0 21.825401 -26.880198 41.122002 0.671600 -0.705700 0.225700 0.212100 -0.216300 1 0 1.000000 
0 24.748503 -28.476398 27.433599 0.671600 -0.705700 0.225700 0.205800 -0.269700 1 0 1.000000 
rockcliff02a
0 28.885201 -18.964598 44.867199 0.747770 -0.387184 0.539378 0.243000 -0.201600 1 0 1.000000 
0 25.327900 -14.119099 53.276901 0.747770 -0.387184 0.539378 0.261900 -0.168800 1 0 1.000000 
0 17.713303 -25.299299 55.808201 0.747770 -0.387184 0.539378 0.218200 -0.158900 1 0 1.000000 
rockcliff02a
0 -22.042398 -30.888802 61.530102 -0.294684 -0.941050 0.166091 0.070400 -0.154500 1 0 1.000000 
0 -28.860899 -31.029202 48.637199 -0.294684 -0.941050 0.166091 0.043800 -0.204800 1 0 1.000000 
0 -22.638798 -33.034302 48.316200 -0.294684 -0.941050 0.166091 0.068100 -0.206100 1 0 1.000000 
rockcliff02a
0 25.327900 -14.119099 53.276901 0.992864 -0.020399 0.117496 0.261900 -0.168800 1 0 1.000000 
0 28.055799 19.754402 36.101101 0.992864 -0.020399 0.117496 0.394200 -0.235900 1 0 1.000000 
0 24.130600 12.545201 68.028099 0.992864 -0.020399 0.117496 0.366100 -0.111100 1 0 1.000000 
rockcliff02a
0 -21.219299 3.548699 -83.878799 -0.620024 -0.750629 -0.228309 0.073600 -0.722500 1 0 1.000000 
0 -11.420300 -5.783101 -79.808998 -0.620024 -0.750629 -0.228309 0.111900 -0.706600 1 0 1.000000 
0 -30.166199 -26.608301 39.560902 -0.620024 -0.750629 -0.228309 0.038700 -0.240300 1 0 1.000000 
rockcliff02a
0 24.130600 12.545201 68.028099 0.999214 0.032000 0.023400 0.366100 -0.111100 1 0 1.000000 
0 24.531000 -13.336199 86.304901 0.999214 0.032000 0.023400 0.265000 -0.039800 1 0 1.000000 
0 25.327900 -14.119099 53.276901 0.999214 0.032000 0.023400 0.261900 -0.168800 1 0 1.000000 
rockcliff02a
0 -21.647398 -31.155199 37.666000 -0.497217 -0.838129 -0.224308 0.072000 -0.247700 1 0 1.000000 
0 -30.166199 -26.608301 39.560902 -0.497217 -0.838129 -0.224308 0.038700 -0.240300 1 0 1.000000 
0 -11.420300 -5.783101 -79.808998 -0.497217 -0.838129 -0.224308 0.111900 -0.706600 1 0 1.000000 
rockcliff02a
0 -18.725599 19.990101 60.529202 0.126702 0.964114 0.233303 0.546300 -0.090200 1 0 1.000000 
0 24.130600 12.545201 68.028099 0.126702 0.964114 0.233303 0.378900 -0.060900 1 0 1.000000 
0 28.055799 19.754402 36.101101 0.126702 0.964114 0.233303 0.363500 -0.185600 1 0 1.000000 
rockcliff02a
0 -21.647398 -31.155199 37.666000 -0.500486 -0.804477 -0.319891 0.072000 -0.247700 1 0 1.000000 
0 -28.860899 -31.029202 48.637199 -0.500486 -0.804477 -0.319891 0.043800 -0.204800 1 0 1.000000 
0 -30.166199 -26.608301 39.560902 -0.500486 -0.804477 -0.319891 0.038700 -0.240300 1 0 1.000000 
rockcliff02a
0 -22.638798 -33.034302 48.316200 0.140998 -0.961983 0.233896 0.068100 -0.206100 1 0 1.000000 
0 17.713303 -25.299299 55.808201 0.140998 -0.961983 0.233896 0.225700 -0.176800 1 0 1.000000 
0 16.495300 -20.135401 77.782204 0.140998 -0.961983 0.233896 0.221000 -0.091000 1 0 1.000000 
rockcliff02a
0 -21.647398 -31.155199 37.666000 -0.309915 -0.930946 -0.193110 0.072000 -0.247700 1 0 1.000000 
0 -22.638798 -33.034302 48.316200 -0.309915 -0.930946 -0.193110 0.068100 -0.206100 1 0 1.000000 
0 -28.860899 -31.029202 48.637199 -0.309915 -0.930946 -0.193110 0.043800 -0.204800 1 0 1.000000 
rockcliff02a
0 16.495300 -20.135401 77.782204 0.207603 -0.967013 0.147602 0.221000 -0.091000 1 0 1.000000 
0 -22.042398 -30.888802 61.530102 0.207603 -0.967013 0.147602 0.070400 -0.154500 1 0 1.000000 
0 -22.638798 -33.034302 48.316200 0.207603 -0.967013 0.147602 0.068100 -0.206100 1 0 1.000000 
rockcliff02a
0 24.531000 -13.336199 86.304901 0.478395 -0.848592 0.225898 0.265000 -0.039800 1 0 1.000000 
0 16.495300 -20.135401 77.782204 0.478395 -0.848592 0.225898 0.238400 -0.073000 1 0 1.000000 
0 17.713303 -25.299299 55.808201 0.478395 -0.848592 0.225898 0.218200 -0.158900 1 0 1.000000 
rockcliff02a
0 -22.042398 -30.888802 61.530102 -0.754147 -0.517364 0.404472 0.070400 -0.154500 1 0 1.000000 
0 -22.527300 -21.738302 72.330101 -0.754147 -0.517364 0.404472 0.068500 -0.112300 1 0 1.000000 
0 -28.860899 -31.029202 48.637199 -0.754147 -0.517364 0.404472 0.043800 -0.204800 1 0 1.000000 
rockcliff02a
0 17.713303 -25.299299 55.808201 0.829509 -0.557506 0.033200 0.218200 -0.158900 1 0 1.000000 
0 25.327900 -14.119099 53.276901 0.829509 -0.557506 0.033200 0.261900 -0.168800 1 0 1.000000 
0 24.531000 -13.336199 86.304901 0.829509 -0.557506 0.033200 0.265000 -0.039800 1 0 1.000000 
end
