version 1
nodes
  0 "static_prop" -1
end
skeleton
time 0
0 0.000000 0.000000 0.000000 0.000000 0.000000 0.000000
end
triangles
grass_04
0 -0.291533 0.829180 -70.769897 0.000000 -0.999984 -0.005570 0.501190 -2.497580 1 0 1.000000 
0 24.887463 0.244331 34.187641 0.000000 -0.999984 -0.005570 -0.033240 -0.269820 1 0 1.000000 
0 -25.391298 0.244329 34.187641 0.000000 -0.999984 -0.005570 1.033940 -0.269820 1 0 1.000000 
grass_04
0 49.329784 59.729195 -66.885048 0.017450 -0.999832 -0.005570 0.501190 -2.497580 1 0 1.000000 
0 73.132629 59.591843 32.310936 0.017450 -0.999832 -0.005570 -0.033240 -0.269820 1 0 1.000000 
0 25.621109 58.762531 32.310940 0.017450 -0.999832 -0.005570 1.033940 -0.269820 1 0 1.000000 
grass_04
0 13.391955 13.049341 -93.621513 -0.529912 -0.848034 -0.005570 0.501190 -2.497580 1 0 1.000000 
0 41.229855 -5.258018 45.226841 -0.529912 -0.848034 -0.005570 -0.033240 -0.269820 1 0 1.000000 
0 -15.177039 29.988899 45.226841 -0.529912 -0.848034 -0.005570 1.033940 -0.269820 1 0 1.000000 
grass_04
0 -20.972584 29.357040 -59.823872 0.913531 -0.406730 -0.005570 0.501190 -2.497580 1 0 1.000000 
0 -11.863731 48.600349 28.899811 0.913531 -0.406730 -0.005570 -0.033240 -0.269820 1 0 1.000000 
0 -29.150900 9.772729 28.899813 0.913531 -0.406730 -0.005570 1.033940 -0.269820 1 0 1.000000 
grass_04
0 27.628859 -5.278618 -62.264252 -0.484803 -0.874605 -0.005570 0.501190 -2.497580 1 0 1.000000 
0 46.754673 -16.468548 30.078709 -0.484803 -0.874605 -0.005570 -0.033240 -0.269820 1 0 1.000000 
0 8.065091 4.977420 30.078711 -0.484803 -0.874605 -0.005570 1.033940 -0.269820 1 0 1.000000 
grass_04
0 74.352325 61.338005 -65.494278 0.309011 -0.951042 -0.005570 0.501190 -2.497580 1 0 1.000000 
0 96.681099 68.023956 31.639076 0.309011 -0.951042 -0.005570 -0.033240 -0.269820 1 0 1.000000 
0 52.427792 53.645184 31.639078 0.309011 -0.951042 -0.005570 1.033940 -0.269820 1 0 1.000000 
grass_04
0 -5.877491 -17.590719 -45.092411 0.121860 -0.992532 -0.005570 0.501190 -2.497580 1 0 1.000000 
0 10.091612 -16.005409 21.783310 0.121860 -0.992532 -0.005570 -0.033240 -0.269820 1 0 1.000000 
0 -21.705679 -19.909630 21.783310 0.121860 -0.992532 -0.005570 1.033940 -0.269820 1 0 1.000000 
grass_04
0 70.667465 80.852524 -42.684223 0.325562 -0.945504 -0.005570 0.501190 -2.497580 1 0 1.000000 
0 85.141411 85.463219 20.619957 0.325562 -0.945504 -0.005570 -0.033240 -0.269820 1 0 1.000000 
0 56.468388 75.590309 20.619959 0.325562 -0.945504 -0.005570 1.033940 -0.269820 1 0 1.000000 
grass_04
0 50.265579 -34.912388 -60.219795 0.642774 -0.766035 -0.005570 0.501190 -2.497580 1 0 1.000000 
0 66.998283 -21.521637 29.091066 0.642774 -0.766035 -0.005570 -0.033240 -0.269820 1 0 1.000000 
0 34.224304 -49.022282 29.091068 0.642774 -0.766035 -0.005570 1.033940 -0.269820 1 0 1.000000 
grass_04
0 88.157219 -90.005226 -61.526264 -0.087151 -0.996179 -0.005570 0.501190 -2.497580 1 0 1.000000 
0 109.919846 -92.419601 29.722195 -0.087151 -0.996179 -0.005570 -0.033240 -0.269820 1 0 1.000000 
0 66.374596 -88.609901 29.722197 -0.087151 -0.996179 -0.005570 1.033940 -0.269820 1 0 1.000000 
grass_04
0 80.500320 -79.432892 -67.984322 -0.587774 -0.809006 -0.005570 0.501190 -2.497580 1 0 1.000000 
0 99.738525 -94.104713 32.841965 -0.587774 -0.809006 -0.005570 -0.033240 -0.269820 1 0 1.000000 
0 60.663223 -65.714851 32.841965 -0.587774 -0.809006 -0.005570 1.033940 -0.269820 1 0 1.000000 
grass_04
0 -13.508091 -31.871559 -62.246330 -0.241911 -0.970282 -0.005570 0.501190 -2.497580 1 0 1.000000 
0 7.856023 -37.728390 30.070061 -0.241911 -0.970282 -0.005570 -0.033240 -0.269820 1 0 1.000000 
0 -35.053505 -27.029842 30.070063 -0.241911 -0.970282 -0.005570 1.033940 -0.269820 1 0 1.000000 
grass_04
0 -70.618294 28.352446 -38.586445 0.838656 -0.544634 -0.005570 0.501190 -2.497580 1 0 1.000000 
0 -62.873749 39.692505 18.640402 0.838656 -0.544634 -0.005570 -0.033240 -0.269820 1 0 1.000000 
0 -77.804428 16.701265 18.640404 0.838656 -0.544634 -0.005570 1.033940 -0.269820 1 0 1.000000 
grass_04
0 -96.144348 -98.331848 -50.908455 0.469463 -0.882935 -0.005570 0.501190 -2.497580 1 0 1.000000 
0 -79.954391 -90.199982 24.592943 0.469463 -0.882935 -0.005570 -0.033240 -0.269820 1 0 1.000000 
0 -111.888954 -107.179901 24.592945 0.469463 -0.882935 -0.005570 1.033940 -0.269820 1 0 1.000000 
grass_04
0 68.912857 -13.743057 -56.738026 0.990253 -0.139170 -0.005570 0.501190 -2.497580 1 0 1.000000 
0 72.186630 6.181853 27.409086 0.990253 -0.139170 -0.005570 -0.033240 -0.269820 1 0 1.000000 
0 66.576591 -33.735596 27.409086 0.990253 -0.139170 -0.005570 1.033940 -0.269820 1 0 1.000000 
grass_04
0 -74.966614 7.967777 -54.585026 -0.292363 -0.956291 -0.005570 0.501190 -2.497580 1 0 1.000000 
0 -56.526459 1.858358 26.369022 -0.292363 -0.956291 -0.005570 -0.033240 -0.269820 1 0 1.000000 
0 -93.612106 13.196576 26.369024 -0.292363 -0.956291 -0.005570 1.033940 -0.269820 1 0 1.000000 
grass_04
0 44.135647 30.215952 -36.120502 -0.939679 -0.342013 -0.005570 0.501190 -2.497580 1 0 1.000000 
0 48.250511 18.037682 17.449148 -0.939679 -0.342013 -0.005570 -0.033240 -0.269820 1 0 1.000000 
0 39.473610 42.152039 17.449148 -0.939679 -0.342013 -0.005570 1.033940 -0.269820 1 0 1.000000 
grass_04
0 -95.723312 -66.242241 -38.958218 0.997549 -0.069751 -0.005570 0.501190 -2.497580 1 0 1.000000 
0 -94.435249 -52.437634 18.820004 0.997549 -0.069751 -0.005570 -0.033240 -0.269820 1 0 1.000000 
0 -96.365974 -80.048241 18.820004 0.997549 -0.069751 -0.005570 1.033940 -0.269820 1 0 1.000000 
grass_04
0 -15.999895 55.606731 -60.724091 0.999832 -0.017450 -0.005570 0.501190 -2.497580 1 0 1.000000 
0 -15.121082 77.199509 29.334690 0.999832 -0.017450 -0.005570 -0.033240 -0.269820 1 0 1.000000 
0 -15.874010 34.064400 29.334690 0.999832 -0.017450 -0.005570 1.033940 -0.269820 1 0 1.000000 
grass_04
0 -57.767849 -37.409824 -59.905914 -0.515032 -0.857153 -0.005570 0.501190 -2.497580 1 0 1.000000 
0 -39.753395 -48.811562 28.939451 -0.515032 -0.857153 -0.005570 -0.033240 -0.269820 1 0 1.000000 
0 -76.234787 -26.891335 28.939453 -0.515032 -0.857153 -0.005570 1.033940 -0.269820 1 0 1.000000 
grass_04
0 96.463951 97.559738 -48.351204 -0.207901 -0.978134 -0.005570 0.501190 -2.497580 1 0 1.000000 
0 113.207687 93.592239 23.357574 -0.207901 -0.978134 -0.005570 -0.033240 -0.269820 1 0 1.000000 
0 79.607033 100.734283 23.357576 -0.207901 -0.978134 -0.005570 1.033940 -0.269820 1 0 1.000000 
grass_04
0 20.801386 41.697708 -53.997150 -0.292363 -0.956291 -0.005570 0.501190 -2.497580 1 0 1.000000 
0 39.042938 35.654079 26.085028 -0.292363 -0.956291 -0.005570 -0.033240 -0.269820 1 0 1.000000 
0 2.356699 46.870190 26.085030 -0.292363 -0.956291 -0.005570 1.033940 -0.269820 1 0 1.000000 
grass_04
0 67.552711 63.789745 -42.539326 0.173641 -0.984793 -0.005570 0.501190 -2.497580 1 0 1.000000 
0 82.518761 66.071693 20.549955 0.173641 -0.984793 -0.005570 -0.033240 -0.269820 1 0 1.000000 
0 52.755669 60.823654 20.549957 0.173641 -0.984793 -0.005570 1.033940 -0.269820 1 0 1.000000 
grass_04
0 -45.292229 97.488731 -51.217415 0.241911 -0.970282 -0.005570 0.501190 -2.497580 1 0 1.000000 
0 -27.508635 101.486450 24.742203 0.241911 -0.970282 -0.005570 -0.033240 -0.269820 1 0 1.000000 
0 -62.815395 92.683487 24.742203 0.241911 -0.970282 -0.005570 1.033940 -0.269820 1 0 1.000000 
grass_04
0 52.874989 -50.526054 -60.851135 -0.848034 -0.529913 -0.005570 0.501190 -2.497580 1 0 1.000000 
0 63.921303 -69.152809 29.396059 -0.848034 -0.529913 -0.005570 -0.033240 -0.269820 1 0 1.000000 
0 41.011852 -32.490040 29.396059 -0.848034 -0.529913 -0.005570 1.033940 -0.269820 1 0 1.000000 
grass_04
0 36.554089 -13.404288 -49.895409 0.777133 -0.629312 -0.005570 0.501190 -2.497580 1 0 1.000000 
0 48.046310 0.132202 24.103548 0.777133 -0.629312 -0.005570 -0.033240 -0.269820 1 0 1.000000 
0 25.737911 -27.416368 24.103548 0.777133 -0.629312 -0.005570 1.033940 -0.269820 1 0 1.000000 
grass_04
0 11.909042 -98.082207 -62.817520 -0.874605 -0.484803 -0.005570 0.501190 -2.497580 1 0 1.000000 
0 22.290325 -117.881332 30.345987 -0.874605 -0.484803 -0.005570 -0.033240 -0.269820 1 0 1.000000 
0 0.653775 -78.847954 30.345989 -0.874605 -0.484803 -0.005570 1.033940 -0.269820 1 0 1.000000 
grass_04
0 37.461681 -61.516769 -62.112041 0.997549 -0.069751 -0.005570 0.501190 -2.497580 1 0 1.000000 
0 39.515263 -39.507759 30.005178 0.997549 -0.069751 -0.005570 -0.033240 -0.269820 1 0 1.000000 
0 36.437065 -83.528023 30.005178 0.997549 -0.069751 -0.005570 1.033940 -0.269820 1 0 1.000000 
grass_04
0 50.029186 35.792965 -54.961132 -0.309011 -0.951042 -0.005570 0.501190 -2.497580 1 0 1.000000 
0 68.486214 29.318335 26.550707 -0.309011 -0.951042 -0.005570 -0.033240 -0.269820 1 0 1.000000 
0 31.349960 41.384628 26.550709 -0.309011 -0.951042 -0.005570 1.033940 -0.269820 1 0 1.000000 
grass_04
0 77.430733 -20.266476 -36.910244 0.798625 -0.601803 -0.005570 0.501190 -2.497580 1 0 1.000000 
0 85.577477 -9.962226 17.830656 0.798625 -0.601803 -0.005570 -0.033240 -0.269820 1 0 1.000000 
0 69.796059 -30.904865 17.830656 0.798625 -0.601803 -0.005570 1.033940 -0.269820 1 0 1.000000 
grass_04
0 -26.785915 70.282539 -46.689381 0.906294 -0.422612 -0.005570 0.501190 -2.497580 1 0 1.000000 
0 -19.415913 85.174568 22.554779 0.906294 -0.422612 -0.005570 -0.033240 -0.269820 1 0 1.000000 
0 -33.434441 55.111740 22.554781 0.906294 -0.422612 -0.005570 1.033940 -0.269820 1 0 1.000000 
grass_04
0 -15.982838 -85.894958 -48.634892 -0.544634 -0.838656 -0.005570 0.501190 -2.497580 1 0 1.000000 
0 -1.689675 -95.656281 23.494619 -0.544634 -0.838656 -0.005570 -0.033240 -0.269820 1 0 1.000000 
0 -30.668146 -76.837440 23.494621 -0.544634 -0.838656 -0.005570 1.033940 -0.269820 1 0 1.000000 
grass_04
0 -12.864241 -36.679230 -49.406219 -0.017450 -0.999832 -0.005570 0.501190 -2.497580 1 0 1.000000 
0 4.704023 -37.394249 23.867241 -0.017450 -0.999832 -0.005570 -0.033240 -0.269820 1 0 1.000000 
0 -30.391468 -36.781658 23.867243 -0.017450 -0.999832 -0.005570 1.033940 -0.269820 1 0 1.000000 
grass_04
0 7.991873 94.182602 -58.030472 0.890993 -0.453982 -0.005570 0.501190 -2.497580 1 0 1.000000 
0 17.792477 112.361023 28.033461 0.890993 -0.453982 -0.005570 -0.033240 -0.269820 1 0 1.000000 
0 -0.924622 75.626610 28.033461 0.890993 -0.453982 -0.005570 1.033940 -0.269820 1 0 1.000000 
grass_04
0 -75.565666 38.689865 -61.388176 0.469463 -0.882935 -0.005570 0.501190 -2.497580 1 0 1.000000 
0 -56.042938 48.495705 29.655502 0.469463 -0.882935 -0.005570 -0.033240 -0.269820 1 0 1.000000 
0 -94.551361 28.020416 29.655504 0.469463 -0.882935 -0.005570 1.033940 -0.269820 1 0 1.000000 
grass_04
0 33.825138 8.587212 -57.843391 -0.866012 -0.499991 -0.005570 0.501190 -2.497580 1 0 1.000000 
0 43.701118 -9.474518 27.943079 -0.866012 -0.499991 -0.005570 -0.033240 -0.269820 1 0 1.000000 
0 23.153580 26.114851 27.943079 -0.866012 -0.499991 -0.005570 1.033940 -0.269820 1 0 1.000000 
grass_04
0 49.397827 78.914398 -40.059032 -0.719328 -0.694648 -0.005570 0.501190 -2.497580 1 0 1.000000 
0 59.060295 68.432060 19.351778 -0.719328 -0.694648 -0.005570 -0.033240 -0.269820 1 0 1.000000 
0 39.290237 88.904541 19.351778 -0.719328 -0.694648 -0.005570 1.033940 -0.269820 1 0 1.000000 
grass_04
0 13.323247 37.544552 -36.095661 0.838656 -0.544634 -0.005570 0.501190 -2.497580 1 0 1.000000 
0 20.567879 48.152599 17.437149 0.838656 -0.544634 -0.005570 -0.033240 -0.269820 1 0 1.000000 
0 6.600979 26.645470 17.437149 0.838656 -0.544634 -0.005570 1.033940 -0.269820 1 0 1.000000 
grass_04
0 -87.903259 48.157116 -38.595676 -0.017450 -0.999832 -0.005570 0.501190 -2.497580 1 0 1.000000 
0 -74.179077 47.598545 18.644863 -0.017450 -0.999832 -0.005570 -0.033240 -0.269820 1 0 1.000000 
0 -101.595367 48.077106 18.644863 -0.017450 -0.999832 -0.005570 1.033940 -0.269820 1 0 1.000000 
grass_04
0 35.706112 -88.117722 -37.778610 0.994507 -0.104521 -0.005570 0.501190 -2.497580 1 0 1.000000 
0 37.421593 -74.782860 18.250149 0.994507 -0.104521 -0.005570 -0.033240 -0.269820 1 0 1.000000 
0 34.616055 -101.475800 18.250149 0.994507 -0.104521 -0.005570 1.033940 -0.269820 1 0 1.000000 
grass_04
0 -46.767979 -69.695213 -62.925808 -0.601803 -0.798625 -0.005570 0.501190 -2.497580 1 0 1.000000 
0 -29.200945 -83.584061 30.398302 -0.601803 -0.798625 -0.005570 -0.033240 -0.269820 1 0 1.000000 
0 -64.904671 -56.679375 30.398302 -0.601803 -0.798625 -0.005570 1.033940 -0.269820 1 0 1.000000 
grass_04
0 33.764069 -47.951721 -54.935020 -0.933566 -0.358362 -0.005570 0.501190 -2.497580 1 0 1.000000 
0 40.344593 -66.361389 26.538097 -0.933566 -0.358362 -0.005570 -0.033240 -0.269820 1 0 1.000000 
0 26.357912 -29.924849 26.538097 -0.933566 -0.358362 -0.005570 1.033940 -0.269820 1 0 1.000000 
grass_04
0 -68.812134 -62.022034 -55.602547 0.173641 -0.984793 -0.005570 0.501190 -2.497580 1 0 1.000000 
0 -49.250225 -59.039333 26.860573 0.173641 -0.984793 -0.005570 -0.033240 -0.269820 1 0 1.000000 
0 -88.153145 -65.898979 26.860575 0.173641 -0.984793 -0.005570 1.033940 -0.269820 1 0 1.000000 
grass_04
0 -14.092471 -20.939171 -36.080029 0.529913 -0.848034 -0.005570 0.501190 -2.497580 1 0 1.000000 
0 -3.048249 -14.389570 17.429600 0.529913 -0.848034 -0.005570 -0.033240 -0.269820 1 0 1.000000 
0 -24.786438 -27.973103 17.429602 0.529913 -0.848034 -0.005570 1.033940 -0.269820 1 0 1.000000 
grass_04
0 13.763180 -38.067909 -47.718250 -0.190801 -0.981613 -0.005570 0.501190 -2.497580 1 0 1.000000 
0 30.353533 -41.694469 23.051807 -0.190801 -0.981613 -0.005570 -0.033240 -0.269820 1 0 1.000000 
0 -2.925217 -35.225739 23.051809 -0.190801 -0.981613 -0.005570 1.033940 -0.269820 1 0 1.000000 
grass_04
0 97.381653 72.052826 -46.621895 0.529913 -0.848034 -0.005570 0.501190 -2.497580 1 0 1.000000 
0 111.652779 80.516098 22.522175 0.529913 -0.848034 -0.005570 -0.033240 -0.269820 1 0 1.000000 
0 83.563133 62.963722 22.522177 0.529913 -0.848034 -0.005570 1.033940 -0.269820 1 0 1.000000 
grass_04
0 -84.006721 -74.499870 -46.038937 0.559183 -0.829025 -0.005570 0.501190 -2.497580 1 0 1.000000 
0 -70.214279 -65.655693 22.240564 0.559183 -0.829025 -0.005570 -0.033240 -0.269820 1 0 1.000000 
0 -97.330902 -83.946091 22.240564 0.559183 -0.829025 -0.005570 1.033940 -0.269820 1 0 1.000000 
grass_04
0 -6.026833 -53.400089 -109.585152 -0.408024 -0.910029 0.073231 0.501190 -2.497580 1 0 1.000000 
0 32.734814 -57.700371 52.938568 -0.408024 -0.910029 0.073231 -0.033240 -0.269820 1 0 1.000000 
0 -42.467834 -23.982271 52.938568 -0.408024 -0.910029 0.073231 1.033940 -0.269820 1 0 1.000000 
grass_04
0 86.519913 17.164333 -50.961983 0.992532 -0.121860 -0.005570 0.501190 -2.497580 1 0 1.000000 
0 89.147614 35.109455 24.618795 0.992532 -0.121860 -0.005570 -0.033240 -0.269820 1 0 1.000000 
0 84.735191 -0.826806 24.618795 0.992532 -0.121860 -0.005570 1.033940 -0.269820 1 0 1.000000 
grass_04
0 -53.516384 13.638268 -53.735466 -0.743132 -0.669122 -0.005570 0.501190 -2.497580 1 0 1.000000 
0 -41.053711 -0.866582 25.958622 -0.743132 -0.669122 -0.005570 -0.033240 -0.269820 1 0 1.000000 
0 -66.598831 27.504137 25.958624 -0.743132 -0.669122 -0.005570 1.033940 -0.269820 1 0 1.000000 
grass_04
0 -14.314053 -20.106001 -92.933372 -0.258810 -0.965912 -0.005570 0.501190 -2.497580 1 0 1.000000 
0 17.424984 -29.405550 44.894402 -0.258810 -0.965912 -0.005570 -0.033240 -0.269820 1 0 1.000000 
0 -46.350155 -12.317062 44.894405 -0.258810 -0.965912 -0.005570 1.033940 -0.269820 1 0 1.000000 
grass_04
0 -94.513939 66.925514 -54.580467 -0.974356 -0.224941 -0.005570 0.501190 -2.497580 1 0 1.000000 
0 -90.585091 47.902756 26.366835 -0.974356 -0.224941 -0.005570 -0.033240 -0.269820 1 0 1.000000 
0 -99.307999 85.685822 26.366835 -0.974356 -0.224941 -0.005570 1.033940 -0.269820 1 0 1.000000 
grass_04
0 -61.045689 88.449821 -53.459686 0.390721 -0.920492 -0.005570 0.501190 -2.497580 1 0 1.000000 
0 -43.364834 95.474953 25.825392 0.390721 -0.920492 -0.005570 -0.033240 -0.269820 1 0 1.000000 
0 -78.326210 80.634727 25.825394 0.390721 -0.920492 -0.005570 1.033940 -0.269820 1 0 1.000000 
grass_04
0 -13.443455 77.725349 -40.242149 -0.999832 -0.017450 -0.005570 0.501190 -2.497580 1 0 1.000000 
0 -13.526092 63.404099 19.440241 -0.999832 -0.017450 -0.005570 -0.033240 -0.269820 1 0 1.000000 
0 -14.025063 91.989952 19.440241 -0.999832 -0.017450 -0.005570 1.033940 -0.269820 1 0 1.000000 
grass_04
0 -17.633770 -64.473534 -46.314060 0.052330 -0.998614 -0.005570 0.501190 -2.497580 1 0 1.000000 
0 -1.158386 -63.993359 22.373470 0.052330 -0.998614 -0.005570 -0.033240 -0.269820 1 0 1.000000 
0 -34.017307 -65.715424 22.373472 0.052330 -0.998614 -0.005570 1.033940 -0.269820 1 0 1.000000 
grass_04
0 -36.498581 -96.525902 -63.666039 0.406731 -0.913531 -0.005570 0.501190 -2.497580 1 0 1.000000 
0 -15.591365 -87.793350 30.755890 0.406731 -0.913531 -0.005570 -0.033240 -0.269820 1 0 1.000000 
0 -56.912674 -106.190773 30.755892 0.406731 -0.913531 -0.005570 1.033940 -0.269820 1 0 1.000000 
grass_04
0 -63.981880 -44.276535 -53.624107 -0.559183 -0.829025 -0.005570 0.501190 -2.497580 1 0 1.000000 
0 -48.412685 -55.312622 25.904821 -0.559183 -0.829025 -0.005570 -0.033240 -0.269820 1 0 1.000000 
0 -79.996918 -34.008785 25.904823 -0.559183 -0.829025 -0.005570 1.033940 -0.269820 1 0 1.000000 
grass_04
0 -75.079948 11.036667 -45.778645 -0.945504 -0.325562 -0.005570 0.501190 -2.497580 1 0 1.000000 
0 -70.134979 -4.486573 22.114834 -0.945504 -0.325562 -0.005570 -0.033240 -0.269820 1 0 1.000000 
0 -80.723640 26.265125 22.114834 -0.945504 -0.325562 -0.005570 1.033940 -0.269820 1 0 1.000000 
grass_04
0 -57.904888 -23.062462 -40.366756 0.945504 -0.325561 -0.005570 0.501190 -2.497580 1 0 1.000000 
0 -52.913670 -9.591572 19.500443 0.945504 -0.325561 -0.005570 -0.033240 -0.269820 1 0 1.000000 
0 -62.250557 -36.707844 19.500443 0.945504 -0.325561 -0.005570 1.033940 -0.269820 1 0 1.000000 
grass_04
0 -45.090073 -6.381092 -67.206299 -0.309011 -0.951042 -0.005570 0.501190 -2.497580 1 0 1.000000 
0 -22.520868 -14.298251 32.466129 -0.309011 -0.951042 -0.005570 -0.033240 -0.269820 1 0 1.000000 
0 -67.930962 0.456367 32.466133 -0.309011 -0.951042 -0.005570 1.033940 -0.269820 1 0 1.000000 
grass_04
0 16.640795 73.060608 -65.239723 -0.292363 -0.956291 -0.005570 0.501190 -2.497580 1 0 1.000000 
0 38.680370 65.758659 31.516108 -0.292363 -0.956291 -0.005570 -0.033240 -0.269820 1 0 1.000000 
0 -5.644182 79.310043 31.516109 -0.292363 -0.956291 -0.005570 1.033940 -0.269820 1 0 1.000000 
grass_04
0 -53.402603 52.820736 -63.430397 0.707096 -0.707096 -0.005570 0.501190 -2.497580 1 0 1.000000 
0 -37.074162 68.407837 30.642061 0.707096 -0.707096 -0.005570 -0.033240 -0.269820 1 0 1.000000 
0 -68.939491 36.542507 30.642063 0.707096 -0.707096 -0.005570 1.033940 -0.269820 1 0 1.000000 
grass_04
0 -53.812840 -39.123154 -54.769947 0.669122 -0.743132 -0.005570 0.501190 -2.497580 1 0 1.000000 
0 -39.028736 -26.420563 26.458363 0.669122 -0.743132 -0.005570 -0.033240 -0.269820 1 0 1.000000 
0 -67.945648 -52.457474 26.458364 0.669122 -0.743132 -0.005570 1.033940 -0.269820 1 0 1.000000 
grass_04
0 62.836700 -14.093067 -39.633312 0.342013 -0.939679 -0.005570 0.501190 -2.497580 1 0 1.000000 
0 76.199341 -9.578017 19.146116 0.342013 -0.939679 -0.005570 -0.033240 -0.269820 1 0 1.000000 
0 49.739799 -19.208508 19.146118 0.342013 -0.939679 -0.005570 1.033940 -0.269820 1 0 1.000000 
grass_04
0 24.681265 53.287498 -69.809669 0.052330 -0.998614 -0.005570 0.501190 -2.497580 1 0 1.000000 
0 49.514771 54.011265 33.723766 0.052330 -0.998614 -0.005570 -0.033240 -0.269820 1 0 1.000000 
0 -0.013811 51.415569 33.723770 0.052330 -0.998614 -0.005570 1.033940 -0.269820 1 0 1.000000 
grass_04
0 54.385479 -27.651558 -51.362225 -0.601803 -0.798625 -0.005570 0.501190 -2.497580 1 0 1.000000 
0 68.724297 -38.988106 24.812136 -0.601803 -0.798625 -0.005570 -0.033240 -0.269820 1 0 1.000000 
0 39.581680 -17.027578 24.812138 -0.601803 -0.798625 -0.005570 1.033940 -0.269820 1 0 1.000000 
grass_04
0 81.363335 58.624443 -64.387718 0.190801 -0.981613 -0.005570 0.501190 -2.497580 1 0 1.000000 
0 103.952271 62.473225 31.104527 0.190801 -0.981613 -0.005570 -0.033240 -0.269820 1 0 1.000000 
0 59.048210 53.744755 31.104528 0.190801 -0.981613 -0.005570 1.033940 -0.269820 1 0 1.000000 
grass_04
0 65.395760 -35.930336 -45.363495 -0.681985 -0.731345 -0.005570 0.501190 -2.497580 1 0 1.000000 
0 76.943939 -47.211784 21.914267 -0.681985 -0.731345 -0.005570 -0.033240 -0.269820 1 0 1.000000 
0 53.373375 -25.231878 21.914268 -0.681985 -0.731345 -0.005570 1.033940 -0.269820 1 0 1.000000 
grass_04
0 94.326454 90.501846 -39.357933 -0.829025 -0.559183 -0.005570 0.501190 -2.497580 1 0 1.000000 
0 101.887207 78.710930 19.013086 -0.829025 -0.559183 -0.005570 -0.033240 -0.269820 1 0 1.000000 
0 86.251060 101.892471 19.013086 -0.829025 -0.559183 -0.005570 1.033940 -0.269820 1 0 1.000000 
grass_04
0 -88.424088 -68.443428 -42.320274 0.829025 -0.559183 -0.005570 0.501190 -2.497580 1 0 1.000000 
0 -79.714378 -56.156185 20.444155 0.829025 -0.559183 -0.005570 -0.033240 -0.269820 1 0 1.000000 
0 -96.527412 -81.082535 20.444155 0.829025 -0.559183 -0.005570 1.033940 -0.269820 1 0 1.000000 
grass_04
0 -67.260880 58.674427 -43.830956 0.990253 -0.139170 -0.005570 0.501190 -2.497580 1 0 1.000000 
0 -64.731842 74.066727 21.173931 0.990253 -0.139170 -0.005570 -0.033240 -0.269820 1 0 1.000000 
0 -69.065681 43.229897 21.173933 0.990253 -0.139170 -0.005570 1.033940 -0.269820 1 0 1.000000 
grass_04
0 -3.748881 -9.959750 -43.288361 0.890993 -0.453982 -0.005570 0.501190 -2.497580 1 0 1.000000 
0 3.561961 3.600600 20.911810 0.890993 -0.453982 -0.005570 -0.033240 -0.269820 1 0 1.000000 
0 -10.400229 -23.801760 20.911810 0.890993 -0.453982 -0.005570 1.033940 -0.269820 1 0 1.000000 
grass_04
0 56.258869 -28.936909 -70.606560 0.719328 -0.694648 -0.005570 0.501190 -2.497580 1 0 1.000000 
0 74.129044 -11.271797 34.108727 0.719328 -0.694648 -0.005570 -0.033240 -0.269820 1 0 1.000000 
0 39.283092 -47.355839 34.108730 0.719328 -0.694648 -0.005570 1.033940 -0.269820 1 0 1.000000 
grass_04
0 -96.747780 1.664026 -67.702789 -0.961247 -0.275632 -0.005570 0.501190 -2.497580 1 0 1.000000 
0 -90.646118 -21.644823 32.705982 -0.961247 -0.275632 -0.005570 -0.033240 -0.269820 1 0 1.000000 
0 -103.904190 24.591597 32.705982 -0.961247 -0.275632 -0.005570 1.033940 -0.269820 1 0 1.000000 
grass_04
0 -99.406967 9.130105 -58.385147 -0.719328 -0.694648 -0.005570 0.501190 -2.497580 1 0 1.000000 
0 -85.324150 -6.147664 28.204794 -0.719328 -0.694648 -0.005570 -0.033240 -0.269820 1 0 1.000000 
0 -114.138557 23.690514 28.204796 -0.719328 -0.694648 -0.005570 1.033940 -0.269820 1 0 1.000000 
grass_04
0 -47.358006 60.714428 -46.877327 -0.544634 -0.838656 -0.005570 0.501190 -2.497580 1 0 1.000000 
0 -33.581371 51.305859 22.645573 -0.544634 -0.838656 -0.005570 -0.033240 -0.269820 1 0 1.000000 
0 -61.512615 69.444618 22.645573 -0.544634 -0.838656 -0.005570 1.033940 -0.269820 1 0 1.000000 
grass_04
0 -2.124609 -84.692039 -59.689232 0.422612 -0.906294 -0.005570 0.501190 -2.497580 1 0 1.000000 
0 17.330784 -76.164108 28.834770 0.422612 -0.906294 -0.005570 -0.033240 -0.269820 1 0 1.000000 
0 -21.102505 -94.085854 28.834770 0.422612 -0.906294 -0.005570 1.033940 -0.269820 1 0 1.000000 
grass_04
0 -97.594917 17.202147 -56.118076 -0.499991 -0.866012 -0.005570 0.501190 -2.497580 1 0 1.000000 
0 -80.535667 6.817487 27.109623 -0.499991 -0.866012 -0.005570 -0.033240 -0.269820 1 0 1.000000 
0 -115.063522 26.752144 27.109625 -0.499991 -0.866012 -0.005570 1.033940 -0.269820 1 0 1.000000 
grass_04
0 53.875206 47.545322 -49.094692 0.017450 -0.999832 -0.005570 0.501190 -2.497580 1 0 1.000000 
0 71.346878 47.444504 23.716736 0.017450 -0.999832 -0.005570 -0.033240 -0.269820 1 0 1.000000 
0 36.472660 46.835770 23.716738 0.017450 -0.999832 -0.005570 1.033940 -0.269820 1 0 1.000000 
grass_04
0 -79.932709 87.009354 -48.373367 0.951042 -0.309011 -0.005570 0.501190 -2.497580 1 0 1.000000 
0 -74.234131 103.254082 23.368294 0.951042 -0.309011 -0.005570 -0.033240 -0.269820 1 0 1.000000 
0 -84.854141 70.569061 23.368294 0.951042 -0.309011 -0.005570 1.033940 -0.269820 1 0 1.000000 
grass_04
0 31.095379 -11.203650 -68.466843 -0.939679 -0.342013 -0.005570 0.501190 -2.497580 1 0 1.000000 
0 38.895164 -34.287701 33.075069 -0.939679 -0.342013 -0.005570 -0.033240 -0.269820 1 0 1.000000 
0 22.258430 11.421331 33.075069 -0.939679 -0.342013 -0.005570 1.033940 -0.269820 1 0 1.000000 
grass_04
0 -84.516930 -7.891244 -54.256805 0.629312 -0.777133 -0.005570 0.501190 -2.497580 1 0 1.000000 
0 -69.232826 3.908597 26.210474 0.629312 -0.777133 -0.005570 -0.033240 -0.269820 1 0 1.000000 
0 -99.189461 -20.349794 26.210474 0.629312 -0.777133 -0.005570 1.033940 -0.269820 1 0 1.000000 
grass_04
0 14.915244 88.092102 -47.433319 0.939679 -0.342013 -0.005570 0.501190 -2.497580 1 0 1.000000 
0 21.055576 103.816422 22.914160 0.939679 -0.342013 -0.005570 -0.033240 -0.269820 1 0 1.000000 
0 9.529778 72.149529 22.914160 0.939679 -0.342013 -0.005570 1.033940 -0.269820 1 0 1.000000 
grass_04
0 -4.563932 6.791950 -44.649448 -0.358362 -0.933566 -0.005570 0.501190 -2.497580 1 0 1.000000 
0 10.134391 0.754550 21.569330 -0.358362 -0.933566 -0.005570 -0.033240 -0.269820 1 0 1.000000 
0 -19.480070 12.122479 21.569330 -0.358362 -0.933566 -0.005570 1.033940 -0.269820 1 0 1.000000 
grass_04
0 40.617043 93.138458 -64.262993 0.766035 -0.642774 -0.005570 0.501190 -2.497580 1 0 1.000000 
0 55.720528 110.311867 31.044268 0.766035 -0.642774 -0.005570 -0.033240 -0.269820 1 0 1.000000 
0 26.373478 75.337418 31.044268 0.766035 -0.642774 -0.005570 1.033940 -0.269820 1 0 1.000000 
grass_04
0 -84.017212 14.398136 -66.181183 0.996179 -0.087151 -0.005570 0.501190 -2.497580 1 0 1.000000 
0 -81.420151 37.807255 31.970913 0.996179 -0.087151 -0.005570 -0.033240 -0.269820 1 0 1.000000 
0 -85.518112 -9.032514 31.970913 0.996179 -0.087151 -0.005570 1.033940 -0.269820 1 0 1.000000 
grass_04
0 -75.383247 76.244781 -52.063637 0.829025 -0.559183 -0.005570 0.501190 -2.497580 1 0 1.000000 
0 -64.668289 91.360909 25.150991 0.829025 -0.559183 -0.005570 -0.033240 -0.269820 1 0 1.000000 
0 -85.352180 60.695778 25.150993 0.829025 -0.559183 -0.005570 1.033940 -0.269820 1 0 1.000000 
grass_04
0 61.709167 51.746655 -59.417374 -0.529912 -0.848034 -0.005570 0.501190 -2.497580 1 0 1.000000 
0 79.376633 40.127792 28.703436 -0.529912 -0.848034 -0.005570 -0.033240 -0.269820 1 0 1.000000 
0 43.577709 62.497440 28.703438 -0.529912 -0.848034 -0.005570 1.033940 -0.269820 1 0 1.000000 
grass_04
0 -59.080814 32.300014 -97.531952 0.052330 -0.998614 -0.005570 0.501190 -2.497580 1 0 1.000000 
0 -24.385599 33.311199 47.115891 0.052330 -0.998614 -0.005570 -0.033240 -0.269820 1 0 1.000000 
0 -93.582611 29.684727 47.115894 0.052330 -0.998614 -0.005570 1.033940 -0.269820 1 0 1.000000 
grass_04
0 93.788589 63.701385 -65.221214 0.121860 -0.992532 -0.005570 0.501190 -2.497580 1 0 1.000000 
0 116.886162 65.994370 31.507164 0.121860 -0.992532 -0.005570 -0.033240 -0.269820 1 0 1.000000 
0 70.894882 60.347332 31.507166 0.121860 -0.992532 -0.005570 1.033940 -0.269820 1 0 1.000000 
grass_04
0 -60.353893 46.920395 -68.175812 0.087151 -0.996179 -0.005570 0.501190 -2.497580 1 0 1.000000 
0 -36.141041 48.473179 32.934479 0.087151 -0.996179 -0.005570 -0.033240 -0.269820 1 0 1.000000 
0 -84.392509 44.251728 32.934483 0.087151 -0.996179 -0.005570 1.033940 -0.269820 1 0 1.000000 
grass_04
0 -18.855215 85.326187 -52.863129 -0.087151 -0.996179 -0.005570 0.501190 -2.497580 1 0 1.000000 
0 -0.156853 83.251770 25.537210 -0.087151 -0.996179 -0.005570 -0.033240 -0.269820 1 0 1.000000 
0 -37.570774 86.525063 25.537212 -0.087151 -0.996179 -0.005570 1.033940 -0.269820 1 0 1.000000 
grass_04
0 -31.931534 58.869862 -38.981491 -0.978134 -0.207901 -0.005570 0.501190 -2.497580 1 0 1.000000 
0 -29.363092 45.236851 18.831242 -0.978134 -0.207901 -0.005570 -0.033240 -0.269820 1 0 1.000000 
0 -35.121113 72.326218 18.831242 -0.978134 -0.207901 -0.005570 1.033940 -0.269820 1 0 1.000000 
grass_04
0 -54.850498 79.703400 -66.773987 0.809006 -0.587774 -0.005570 0.501190 -2.497580 1 0 1.000000 
0 -40.439865 98.599098 32.257290 0.809006 -0.587774 -0.005570 -0.033240 -0.269820 1 0 1.000000 
0 -68.324310 60.219448 32.257294 0.809006 -0.587774 -0.005570 1.033940 -0.269820 1 0 1.000000 
grass_04
0 24.929188 -26.108988 -60.450119 0.241911 -0.970282 -0.005570 0.501190 -2.497580 1 0 1.000000 
0 45.918533 -21.390617 29.202337 0.241911 -0.970282 -0.005570 -0.033240 -0.269820 1 0 1.000000 
0 4.247213 -31.780451 29.202339 0.241911 -0.970282 -0.005570 1.033940 -0.269820 1 0 1.000000 
grass_04
0 -41.162983 40.929070 -52.513470 -0.978134 -0.207901 -0.005570 0.501190 -2.497580 1 0 1.000000 
0 -37.702942 22.563519 25.368292 -0.978134 -0.207901 -0.005570 -0.033240 -0.269820 1 0 1.000000 
0 -45.459801 59.056644 25.368292 -0.978134 -0.207901 -0.005570 1.033940 -0.269820 1 0 1.000000 
grass_04
0 55.378502 83.638817 -65.213051 0.422612 -0.906294 -0.005570 0.501190 -2.497580 1 0 1.000000 
0 76.634369 92.955940 31.503216 0.422612 -0.906294 -0.005570 -0.033240 -0.269820 1 0 1.000000 
0 34.644329 73.375671 31.503218 0.422612 -0.906294 -0.005570 1.033940 -0.269820 1 0 1.000000 
grass_04
0 75.380829 -80.989540 -48.186752 -0.275632 -0.961247 -0.005570 0.501190 -2.497580 1 0 1.000000 
0 91.751144 -86.097923 23.278126 -0.275632 -0.961247 -0.005570 -0.033240 -0.269820 1 0 1.000000 
0 58.842854 -76.661621 23.278128 -0.275632 -0.961247 -0.005570 1.033940 -0.269820 1 0 1.000000 
grass_04
0 -2.942259 -87.481018 -69.654739 -0.848034 -0.529913 -0.005570 0.501190 -2.497580 1 0 1.000000 
0 9.702157 -108.802589 33.648918 -0.848034 -0.529913 -0.005570 -0.033240 -0.269820 1 0 1.000000 
0 -16.521687 -66.835648 33.648918 -0.848034 -0.529913 -0.005570 1.033940 -0.269820 1 0 1.000000 
grass_04
0 74.354042 -68.620041 -70.366951 0.754699 -0.656048 -0.005570 0.501190 -2.497580 1 0 1.000000 
0 91.217773 -50.106915 33.992977 0.754699 -0.656048 -0.005570 -0.033240 -0.269820 1 0 1.000000 
0 58.419754 -87.836731 33.992977 0.754699 -0.656048 -0.005570 1.033940 -0.269820 1 0 1.000000 
grass_04
0 41.274223 -88.904297 -40.087780 0.139170 -0.990253 -0.005570 0.501190 -2.497580 1 0 1.000000 
0 55.444233 -87.247383 19.365667 0.139170 -0.990253 -0.005570 -0.033240 -0.269820 1 0 1.000000 
0 27.240875 -91.211098 19.365667 0.139170 -0.990253 -0.005570 1.033940 -0.269820 1 0 1.000000 
grass_04
0 42.700241 -69.230209 -70.000572 -0.707096 -0.707096 -0.005570 0.501190 -2.497580 1 0 1.000000 
0 59.901875 -87.249962 33.815987 -0.707096 -0.707096 -0.005570 -0.033240 -0.269820 1 0 1.000000 
0 24.735905 -52.083988 33.815990 -0.707096 -0.707096 -0.005570 1.033940 -0.269820 1 0 1.000000 
grass_04
0 26.688255 21.653122 -64.348991 -0.559183 -0.829025 -0.005570 0.501190 -2.497580 1 0 1.000000 
0 45.371311 8.409801 31.085817 -0.559183 -0.829025 -0.005570 -0.033240 -0.269820 1 0 1.000000 
0 7.470190 33.974430 31.085819 -0.559183 -0.829025 -0.005570 1.033940 -0.269820 1 0 1.000000 
grass_04
0 -95.390259 -52.128784 -70.658951 0.374603 -0.927168 -0.005570 0.501190 -2.497580 1 0 1.000000 
0 -71.862549 -43.252766 34.134045 0.374603 -0.927168 -0.005570 -0.033240 -0.269820 1 0 1.000000 
0 -118.407120 -62.057995 34.134045 0.374603 -0.927168 -0.005570 1.033940 -0.269820 1 0 1.000000 
grass_04
0 -48.545616 83.387978 -61.839817 0.087151 -0.996179 -0.005570 0.501190 -2.497580 1 0 1.000000 
0 -26.583002 84.796463 29.873682 0.087151 -0.996179 -0.005570 -0.033240 -0.269820 1 0 1.000000 
0 -70.350166 80.967323 29.873684 0.087151 -0.996179 -0.005570 1.033940 -0.269820 1 0 1.000000 
grass_04
0 -51.785152 52.807785 -64.597572 -0.573567 -0.819140 -0.005570 0.501190 -2.497580 1 0 1.000000 
0 -33.264809 39.188011 31.205902 -0.573567 -0.819140 -0.005570 -0.033240 -0.269820 1 0 1.000000 
0 -70.858650 65.511497 31.205904 -0.573567 -0.819140 -0.005570 1.033940 -0.269820 1 0 1.000000 
grass_04
0 62.553730 -58.225838 -41.478035 0.857153 -0.515032 -0.005570 0.501190 -2.497580 1 0 1.000000 
0 70.448143 -45.752876 20.037266 0.857153 -0.515032 -0.005570 -0.033240 -0.269820 1 0 1.000000 
0 55.270874 -71.012093 20.037268 0.857153 -0.515032 -0.005570 1.033940 -0.269820 1 0 1.000000 
grass_04
0 -23.294653 45.227051 -35.423328 0.857153 -0.515032 -0.005570 0.501190 -2.497580 1 0 1.000000 
0 -16.552622 55.879292 17.112360 0.857153 -0.515032 -0.005570 -0.033240 -0.269820 1 0 1.000000 
0 -29.514400 34.307259 17.112362 0.857153 -0.515032 -0.005570 1.033940 -0.269820 1 0 1.000000 
grass_04
0 3.376401 -68.214844 -47.642929 -0.241911 -0.970282 -0.005570 0.501190 -2.497580 1 0 1.000000 
0 19.728363 -72.697617 23.015421 -0.241911 -0.970282 -0.005570 -0.033240 -0.269820 1 0 1.000000 
0 -13.114306 -64.509018 23.015421 -0.241911 -0.970282 -0.005570 1.033940 -0.269820 1 0 1.000000 
grass_04
0 35.122601 -94.409813 -61.229591 0.945504 -0.325561 -0.005570 0.501190 -2.497580 1 0 1.000000 
0 42.693436 -73.976738 29.578888 0.945504 -0.325561 -0.005570 -0.033240 -0.269820 1 0 1.000000 
0 28.530956 -115.107567 29.578888 0.945504 -0.325561 -0.005570 1.033940 -0.269820 1 0 1.000000 
grass_04
0 61.142799 -43.492855 -67.917450 0.104521 -0.994507 -0.005570 0.501190 -2.497580 1 0 1.000000 
0 85.233231 -41.525215 32.809666 0.104521 -0.994507 -0.005570 -0.033240 -0.269820 1 0 1.000000 
0 37.245323 -46.568951 32.809669 0.104521 -0.994507 -0.005570 1.033940 -0.269820 1 0 1.000000 
grass_04
0 73.405090 0.175433 -61.785294 0.358362 -0.933566 -0.005570 0.501190 -2.497580 1 0 1.000000 
0 94.110397 7.576534 29.847336 0.358362 -0.933566 -0.005570 -0.033240 -0.269820 1 0 1.000000 
0 53.130310 -8.154238 29.847338 0.358362 -0.933566 -0.005570 1.033940 -0.269820 1 0 1.000000 
grass_04
0 48.516567 28.509663 -48.548893 0.469463 -0.882935 -0.005570 0.501190 -2.497580 1 0 1.000000 
0 63.956131 36.264626 23.453077 0.469463 -0.882935 -0.005570 -0.033240 -0.269820 1 0 1.000000 
0 33.501709 20.071712 23.453077 0.469463 -0.882935 -0.005570 1.033940 -0.269820 1 0 1.000000 
grass_04
0 -14.583977 86.502060 -70.189987 -0.981613 -0.190801 -0.005570 0.501190 -2.497580 1 0 1.000000 
0 -10.388371 61.877529 33.907501 -0.981613 -0.190801 -0.005570 -0.033240 -0.269820 1 0 1.000000 
0 -19.903395 110.828102 33.907501 -0.981613 -0.190801 -0.005570 1.033940 -0.269820 1 0 1.000000 
grass_04
0 35.954124 75.799751 -52.890179 0.766035 -0.642774 -0.005570 0.501190 -2.497580 1 0 1.000000 
0 48.384697 89.933929 25.550278 0.766035 -0.642774 -0.005570 -0.033240 -0.269820 1 0 1.000000 
0 24.231277 61.148998 25.550278 0.766035 -0.642774 -0.005570 1.033940 -0.269820 1 0 1.000000 
grass_04
0 -0.577044 40.984322 -44.422409 0.469463 -0.882935 -0.005570 0.501190 -2.497580 1 0 1.000000 
0 13.550200 48.080139 21.459650 0.469463 -0.882935 -0.005570 -0.033240 -0.269820 1 0 1.000000 
0 -14.315691 33.263580 21.459650 0.469463 -0.882935 -0.005570 1.033940 -0.269820 1 0 1.000000 
grass_04
0 88.225723 -68.980713 -44.007572 -0.121860 -0.992532 -0.005570 0.501190 -2.497580 1 0 1.000000 
0 103.722015 -71.249832 21.259247 -0.121860 -0.992532 -0.005570 -0.033240 -0.269820 1 0 1.000000 
0 72.689690 -67.439552 21.259247 -0.121860 -0.992532 -0.005570 1.033940 -0.269820 1 0 1.000000 
grass_04
0 -90.601189 30.421806 -37.509487 -0.438361 -0.898782 -0.005570 0.501190 -2.497580 1 0 1.000000 
0 -78.742317 24.292955 18.120144 -0.438361 -0.898782 -0.005570 -0.033240 -0.269820 1 0 1.000000 
0 -102.694077 35.975018 18.120144 -0.438361 -0.898782 -0.005570 1.033940 -0.269820 1 0 1.000000 
grass_04
0 14.813857 -12.576369 -69.531952 0.961247 -0.275632 -0.005570 0.501190 -2.497580 1 0 1.000000 
0 22.185081 11.045451 33.589611 0.961247 -0.275632 -0.005570 -0.033240 -0.269820 1 0 1.000000 
0 8.568803 -36.440151 33.589611 0.961247 -0.275632 -0.005570 1.033940 -0.269820 1 0 1.000000 
grass_04
0 -84.127579 30.394716 -65.288559 -0.787996 -0.615655 -0.005570 0.501190 -2.497580 1 0 1.000000 
0 -70.251663 11.757977 31.539703 -0.787996 -0.615655 -0.005570 -0.033240 -0.269820 1 0 1.000000 
0 -98.808830 48.309486 31.539703 -0.787996 -0.615655 -0.005570 1.033940 -0.269820 1 0 1.000000 
grass_04
0 -36.333725 7.899229 -46.476768 0.069751 -0.997549 -0.005570 0.501190 -2.497580 1 0 1.000000 
0 -19.811380 8.669559 22.452070 0.069751 -0.997549 -0.005570 -0.033240 -0.269820 1 0 1.000000 
0 -52.750568 6.366228 22.452072 0.069751 -0.997549 -0.005570 1.033940 -0.269820 1 0 1.000000 
grass_04
0 -34.148903 47.223011 -48.686169 0.719328 -0.694648 -0.005570 0.501190 -2.497580 1 0 1.000000 
0 -21.826672 59.403839 23.519392 0.719328 -0.694648 -0.005570 -0.033240 -0.269820 1 0 1.000000 
0 -45.854420 34.522396 23.519392 0.719328 -0.694648 -0.005570 1.033940 -0.269820 1 0 1.000000 
grass_04
0 -52.965622 6.520148 -54.033398 0.992532 -0.121860 -0.005570 0.501190 -2.497580 1 0 1.000000 
0 -50.179550 25.546799 26.102541 0.992532 -0.121860 -0.005570 -0.033240 -0.269820 1 0 1.000000 
0 -54.857910 -12.555303 26.102541 0.992532 -0.121860 -0.005570 1.033940 -0.269820 1 0 1.000000 
grass_04
0 79.453362 -59.193016 -56.747963 -0.829025 -0.559183 -0.005570 0.501190 -2.497580 1 0 1.000000 
0 90.354774 -76.193672 27.413897 -0.829025 -0.559183 -0.005570 -0.033240 -0.269820 1 0 1.000000 
0 67.809891 -42.769505 27.413897 -0.829025 -0.559183 -0.005570 1.033940 -0.269820 1 0 1.000000 
grass_04
0 -13.903212 -15.301481 -57.877960 -0.866012 -0.499991 -0.005570 0.501190 -2.497580 1 0 1.000000 
0 -4.021327 -33.374020 27.959780 -0.866012 -0.499991 -0.005570 -0.033240 -0.269820 1 0 1.000000 
0 -24.581148 2.236619 27.959782 -0.866012 -0.499991 -0.005570 1.033940 -0.269820 1 0 1.000000 
grass_04
0 71.835136 -85.759712 -39.392265 -0.927168 -0.374603 -0.005570 0.501190 -2.497580 1 0 1.000000 
0 76.783516 -98.876373 19.029676 -0.927168 -0.374603 -0.005570 -0.033240 -0.269820 1 0 1.000000 
0 66.299614 -72.927834 19.029676 -0.927168 -0.374603 -0.005570 1.033940 -0.269820 1 0 1.000000 
grass_04
0 25.898001 -75.917580 -57.145821 0.984793 -0.173641 -0.005570 0.501190 -2.497580 1 0 1.000000 
0 29.893654 -55.976742 27.606098 0.984793 -0.173641 -0.005570 -0.033240 -0.269820 1 0 1.000000 
0 22.843626 -95.959427 27.606098 0.984793 -0.173641 -0.005570 1.033940 -0.269820 1 0 1.000000 
grass_04
0 -90.850731 31.583807 -45.965855 -0.559183 -0.829025 -0.005570 0.501190 -2.497580 1 0 1.000000 
0 -77.505043 22.123806 22.205263 -0.559183 -0.829025 -0.005570 -0.033240 -0.269820 1 0 1.000000 
0 -104.578621 40.385166 22.205263 -0.559183 -0.829025 -0.005570 1.033940 -0.269820 1 0 1.000000 
grass_04
0 -77.183357 85.780533 -43.704086 0.017450 -0.999832 -0.005570 0.501190 -2.497580 1 0 1.000000 
0 -61.630074 85.690781 21.112642 0.017450 -0.999832 -0.005570 -0.033240 -0.269820 1 0 1.000000 
0 -92.675102 85.148880 21.112644 0.017450 -0.999832 -0.005570 1.033940 -0.269820 1 0 1.000000 
grass_04
0 -48.587173 -3.556142 -57.365887 0.999832 -0.017450 -0.005570 0.501190 -2.497580 1 0 1.000000 
0 -47.756962 16.842487 27.712412 0.999832 -0.017450 -0.005570 -0.033240 -0.269820 1 0 1.000000 
0 -48.468246 -23.907131 27.712412 0.999832 -0.017450 -0.005570 1.033940 -0.269820 1 0 1.000000 
grass_04
0 56.223061 87.427368 -48.027344 0.104521 -0.994507 -0.005570 0.501190 -2.497580 1 0 1.000000 
0 73.258438 88.818764 23.201117 0.104521 -0.994507 -0.005570 -0.033240 -0.269820 1 0 1.000000 
0 39.324135 85.252121 23.201118 0.104521 -0.994507 -0.005570 1.033940 -0.269820 1 0 1.000000 
grass_04
0 86.271133 56.446533 -37.994213 -0.173641 -0.984793 -0.005570 0.501190 -2.497580 1 0 1.000000 
0 99.529091 53.789974 18.354296 -0.173641 -0.984793 -0.005570 -0.033240 -0.269820 1 0 1.000000 
0 72.946037 58.477272 18.354296 -0.173641 -0.984793 -0.005570 1.033940 -0.269820 1 0 1.000000 
grass_04
0 -14.715283 10.853379 -70.643257 0.358362 -0.933566 -0.005570 0.501190 -2.497580 1 0 1.000000 
0 8.958481 19.315550 34.126461 0.358362 -0.933566 -0.005570 -0.033240 -0.269820 1 0 1.000000 
0 -37.896790 1.329498 34.126461 0.358362 -0.933566 -0.005570 1.033940 -0.269820 1 0 1.000000 
grass_04
0 -74.802940 49.287495 -57.224506 0.882935 -0.469462 -0.005570 0.501190 -2.497580 1 0 1.000000 
0 -64.827072 67.042038 27.644112 0.882935 -0.469462 -0.005570 -0.033240 -0.269820 1 0 1.000000 
0 -83.913620 31.145466 27.644114 0.882935 -0.469462 -0.005570 1.033940 -0.269820 1 0 1.000000 
grass_04
0 95.632767 -6.066076 -66.650101 0.173641 -0.984793 -0.005570 0.501190 -2.497580 1 0 1.000000 
0 119.081390 -2.490745 32.197426 0.173641 -0.984793 -0.005570 -0.033240 -0.269820 1 0 1.000000 
0 72.448929 -10.713307 32.197426 0.173641 -0.984793 -0.005570 1.033940 -0.269820 1 0 1.000000 
grass_04
0 -61.816593 43.668835 -56.685467 0.866012 -0.499991 -0.005570 0.501190 -2.497580 1 0 1.000000 
0 -51.326920 60.900555 27.383713 0.866012 -0.499991 -0.005570 -0.033240 -0.269820 1 0 1.000000 
0 -71.463127 26.023617 27.383715 0.866012 -0.499991 -0.005570 1.033940 -0.269820 1 0 1.000000 
grass_04
0 -80.119461 5.928077 -39.175846 -0.669122 -0.743132 -0.005570 0.501190 -2.497580 1 0 1.000000 
0 -69.977951 -3.639023 18.925144 -0.669122 -0.743132 -0.005570 -0.033240 -0.269820 1 0 1.000000 
0 -90.661636 14.984646 18.925144 -0.669122 -0.743132 -0.005570 1.033940 -0.269820 1 0 1.000000 
grass_04
0 -30.671076 50.515541 -70.222443 0.469463 -0.882935 -0.005570 0.501190 -2.497580 1 0 1.000000 
0 -8.338871 61.732521 33.923168 0.469463 -0.882935 -0.005570 -0.033240 -0.269820 1 0 1.000000 
0 -52.388969 38.310665 33.923172 0.469463 -0.882935 -0.005570 1.033940 -0.269820 1 0 1.000000 
grass_04
0 20.337170 -70.279297 -56.980370 -0.987673 -0.156431 -0.005570 0.501190 -2.497580 1 0 1.000000 
0 23.043455 -90.376228 27.526169 -0.987673 -0.156431 -0.005570 -0.033240 -0.269820 1 0 1.000000 
0 16.710684 -50.392700 27.526171 -0.987673 -0.156431 -0.005570 1.033940 -0.269820 1 0 1.000000 
grass_04
0 21.093367 45.923931 -45.614342 -0.309011 -0.951042 -0.005570 0.501190 -2.497580 1 0 1.000000 
0 36.411560 40.550388 22.035448 -0.309011 -0.951042 -0.005570 -0.033240 -0.269820 1 0 1.000000 
0 5.590768 50.564671 22.035450 -0.309011 -0.951042 -0.005570 1.033940 -0.269820 1 0 1.000000 
grass_04
0 -75.235893 -64.355583 -67.071968 -0.956291 -0.292363 -0.005570 0.501190 -2.497580 1 0 1.000000 
0 -68.788994 -87.338242 32.401245 -0.956291 -0.292363 -0.005570 -0.033240 -0.269820 1 0 1.000000 
0 -82.720970 -41.768833 32.401245 -0.956291 -0.292363 -0.005570 1.033940 -0.269820 1 0 1.000000 
grass_04
0 -60.884254 62.844315 -48.530605 0.819140 -0.573567 -0.005570 0.501190 -2.497580 1 0 1.000000 
0 -50.652035 76.758209 23.444242 0.819140 -0.573567 -0.005570 -0.033240 -0.269820 1 0 1.000000 
0 -70.428253 48.514854 23.444244 0.819140 -0.573567 -0.005570 1.033940 -0.269820 1 0 1.000000 
grass_04
0 -62.124382 -1.422513 -53.684326 -0.559183 -0.829025 -0.005570 0.501190 -2.497580 1 0 1.000000 
0 -46.537701 -12.471002 25.933912 -0.559183 -0.829025 -0.005570 -0.033240 -0.269820 1 0 1.000000 
0 -78.157402 8.856746 25.933914 -0.559183 -0.829025 -0.005570 1.033940 -0.269820 1 0 1.000000 
grass_04
0 -90.581734 -74.042618 -58.776985 0.406731 -0.913531 -0.005570 0.501190 -2.497580 1 0 1.000000 
0 -71.280022 -65.980652 28.394083 0.406731 -0.913531 -0.005570 -0.033240 -0.269820 1 0 1.000000 
0 -109.428169 -82.965317 28.394085 0.406731 -0.913531 -0.005570 1.033940 -0.269820 1 0 1.000000 
grass_04
0 50.780392 -18.566809 -40.887733 -0.974356 -0.224941 -0.005570 0.501190 -2.497580 1 0 1.000000 
0 53.723583 -32.817276 19.752108 -0.974356 -0.224941 -0.005570 -0.033240 -0.269820 1 0 1.000000 
0 47.189011 -4.512948 19.752108 -0.974356 -0.224941 -0.005570 1.033940 -0.269820 1 0 1.000000 
grass_04
0 34.196606 -2.193539 -48.770229 0.743132 -0.669122 -0.005570 0.501190 -2.497580 1 0 1.000000 
0 46.106750 10.431662 23.559998 0.743132 -0.669122 -0.005570 -0.033240 -0.269820 1 0 1.000000 
0 22.922031 -15.317559 23.559998 0.743132 -0.669122 -0.005570 1.033940 -0.269820 1 0 1.000000 
grass_04
0 98.483459 -77.045654 -66.010445 -0.358362 -0.933566 -0.005570 0.501190 -2.497580 1 0 1.000000 
0 120.213715 -85.971443 31.888424 -0.358362 -0.933566 -0.005570 -0.033240 -0.269820 1 0 1.000000 
0 76.431229 -69.164932 31.888426 -0.358362 -0.933566 -0.005570 1.033940 -0.269820 1 0 1.000000 
grass_04
0 -18.837912 -24.874580 -46.742420 -0.374603 -0.927168 -0.005570 0.501190 -2.497580 1 0 1.000000 
0 -3.563238 -31.462570 22.580410 -0.374603 -0.927168 -0.005570 -0.033240 -0.269820 1 0 1.000000 
0 -34.353481 -19.022501 22.580412 -0.374603 -0.927168 -0.005570 1.033940 -0.269820 1 0 1.000000 
grass_04
0 -41.574032 -69.933296 -65.500221 0.999376 -0.034890 -0.005570 0.501190 -2.497580 1 0 1.000000 
0 -40.219757 -46.662270 31.641953 0.999376 -0.034890 -0.005570 -0.033240 -0.269820 1 0 1.000000 
0 -41.843796 -93.168831 31.641953 0.999376 -0.034890 -0.005570 1.033940 -0.269820 1 0 1.000000 
grass_04
0 -6.293380 -66.092003 -64.332840 -0.999832 -0.017450 -0.005570 0.501190 -2.497580 1 0 1.000000 
0 -6.425485 -88.986572 31.078011 -0.999832 -0.017450 -0.005570 -0.033240 -0.269820 1 0 1.000000 
0 -7.223156 -43.287991 31.078011 -0.999832 -0.017450 -0.005570 1.033940 -0.269820 1 0 1.000000 
grass_04
0 51.706245 65.331039 -36.294632 0.139170 -0.990253 -0.005570 0.501190 -2.497580 1 0 1.000000 
0 64.535477 66.831177 17.533268 0.139170 -0.990253 -0.005570 -0.033240 -0.269820 1 0 1.000000 
0 39.000736 63.242500 17.533268 0.139170 -0.990253 -0.005570 1.033940 -0.269820 1 0 1.000000 
grass_04
0 23.071085 71.985268 -55.125542 0.956291 -0.292363 -0.005570 0.501190 -2.497580 1 0 1.000000 
0 29.241018 90.608017 26.630138 0.956291 -0.292363 -0.005570 -0.033240 -0.269820 1 0 1.000000 
0 17.790518 53.155151 26.630140 0.956291 -0.292363 -0.005570 1.033940 -0.269820 1 0 1.000000 
grass_04
0 46.988281 1.226012 -39.074894 0.731345 -0.681985 -0.005570 0.501190 -2.497580 1 0 1.000000 
0 56.705811 11.173303 18.876358 0.731345 -0.681985 -0.005570 -0.033240 -0.269820 1 0 1.000000 
0 37.772911 -9.129748 18.876358 0.731345 -0.681985 -0.005570 1.033940 -0.269820 1 0 1.000000 
grass_04
0 58.552814 -8.088527 -68.406403 -0.694648 -0.719328 -0.005570 0.501190 -2.497580 1 0 1.000000 
0 75.667480 -25.401836 33.045876 -0.694648 -0.719328 -0.005570 -0.033240 -0.269820 1 0 1.000000 
0 40.707840 8.358272 33.045879 -0.694648 -0.719328 -0.005570 1.033940 -0.269820 1 0 1.000000 
grass_04
0 -77.486870 13.674147 -64.369041 -0.866012 -0.499991 -0.005570 0.501190 -2.497580 1 0 1.000000 
0 -66.496719 -6.425233 31.095505 -0.866012 -0.499991 -0.005570 -0.033240 -0.269820 1 0 1.000000 
0 -89.362350 33.179176 31.095505 -0.866012 -0.499991 -0.005570 1.033940 -0.269820 1 0 1.000000 
grass_04
0 35.327648 -47.663021 -63.810501 -0.499991 -0.866012 -0.005570 0.501190 -2.497580 1 0 1.000000 
0 54.725315 -59.471165 30.825678 -0.499991 -0.866012 -0.005570 -0.033240 -0.269820 1 0 1.000000 
0 15.464533 -36.803959 30.825680 -0.499991 -0.866012 -0.005570 1.033940 -0.269820 1 0 1.000000 
grass_04
0 -33.171211 -17.381632 -52.636261 0.453982 -0.890993 -0.005570 0.501190 -2.497580 1 0 1.000000 
0 -16.287588 -9.267201 25.427610 0.453982 -0.890993 -0.005570 -0.033240 -0.269820 1 0 1.000000 
0 -49.607357 -26.244461 25.427612 0.453982 -0.890993 -0.005570 1.033940 -0.269820 1 0 1.000000 
grass_04
0 -69.909607 -34.186802 -70.326599 -0.939679 -0.342013 -0.005570 0.501190 -2.497580 1 0 1.000000 
0 -61.897957 -57.897892 33.973495 -0.939679 -0.342013 -0.005570 -0.033240 -0.269820 1 0 1.000000 
0 -78.986603 -10.947254 33.973495 -0.939679 -0.342013 -0.005570 1.033940 -0.269820 1 0 1.000000 
grass_04
0 1.215682 -80.072769 -44.816051 -0.629312 -0.777133 -0.005570 0.501190 -2.497580 1 0 1.000000 
0 13.374165 -90.395081 21.649811 -0.629312 -0.777133 -0.005570 -0.033240 -0.269820 1 0 1.000000 
0 -11.369956 -70.357681 21.649811 -0.629312 -0.777133 -0.005570 1.033940 -0.269820 1 0 1.000000 
grass_04
0 50.326096 41.079712 -46.537415 0.719328 -0.694648 -0.005570 0.501190 -2.497580 1 0 1.000000 
0 62.104488 52.722942 22.481369 0.719328 -0.694648 -0.005570 -0.033240 -0.269820 1 0 1.000000 
0 39.137199 28.939632 22.481369 0.719328 -0.694648 -0.005570 1.033940 -0.269820 1 0 1.000000 
grass_04
0 -29.396791 -21.862001 -59.093842 0.438361 -0.898782 -0.005570 0.501190 -2.497580 1 0 1.000000 
0 -10.285738 -13.084260 28.547150 0.438361 -0.898782 -0.005570 -0.033240 -0.269820 1 0 1.000000 
0 -48.020218 -31.488602 28.547152 0.438361 -0.898782 -0.005570 1.033940 -0.269820 1 0 1.000000 
grass_04
0 37.244205 55.800850 -36.020611 0.241911 -0.970282 -0.005570 0.501190 -2.497580 1 0 1.000000 
0 49.751202 58.612404 17.400898 0.241911 -0.970282 -0.005570 -0.033240 -0.269820 1 0 1.000000 
0 24.920368 52.421371 17.400898 0.241911 -0.970282 -0.005570 1.033940 -0.269820 1 0 1.000000 
grass_04
0 -60.316586 77.384567 -35.796947 -0.499991 -0.866012 -0.005570 0.501190 -2.497580 1 0 1.000000 
0 -49.434723 70.760323 17.292852 -0.499991 -0.866012 -0.005570 -0.033240 -0.269820 1 0 1.000000 
0 -71.459557 83.476372 17.292854 -0.499991 -0.866012 -0.005570 1.033940 -0.269820 1 0 1.000000 
grass_04
0 9.386447 18.061319 -51.856831 0.933566 -0.358362 -0.005570 0.501190 -2.497580 1 0 1.000000 
0 16.398420 35.132278 25.051081 0.933566 -0.358362 -0.005570 -0.033240 -0.269820 1 0 1.000000 
0 3.195461 0.737400 25.051081 0.933566 -0.358362 -0.005570 1.033940 -0.269820 1 0 1.000000 
grass_04
0 56.930119 -3.849968 -42.422592 0.882935 -0.469462 -0.005570 0.501190 -2.497580 1 0 1.000000 
0 64.325592 9.312113 20.493578 0.882935 -0.469462 -0.005570 -0.033240 -0.269820 1 0 1.000000 
0 50.176041 -17.299318 20.493578 0.882935 -0.469462 -0.005570 1.033940 -0.269820 1 0 1.000000 
grass_04
0 32.303215 73.150757 -46.574051 0.754699 -0.656048 -0.005570 0.501190 -2.497580 1 0 1.000000 
0 43.464878 85.404114 22.499067 0.754699 -0.656048 -0.005570 -0.033240 -0.269820 1 0 1.000000 
0 21.756727 60.431728 22.499069 0.754699 -0.656048 -0.005570 1.033940 -0.269820 1 0 1.000000 
grass_04
0 -1.352455 56.646622 -58.789101 0.999832 -0.017450 -0.005570 0.501190 -2.497580 1 0 1.000000 
0 -0.501642 77.551338 28.399940 0.999832 -0.017450 -0.005570 -0.033240 -0.269820 1 0 1.000000 
0 -1.230580 35.790741 28.399940 0.999832 -0.017450 -0.005570 1.033940 -0.269820 1 0 1.000000 
grass_04
0 74.283546 -25.223557 -68.622002 -0.981613 -0.190801 -0.005570 0.501190 -2.497580 1 0 1.000000 
0 78.385437 -49.297997 33.150024 -0.981613 -0.190801 -0.005570 -0.033240 -0.269820 1 0 1.000000 
0 69.082970 -1.440947 33.150024 -0.981613 -0.190801 -0.005570 1.033940 -0.269820 1 0 1.000000 
grass_04
0 -82.497177 12.035566 -39.333027 0.719328 -0.694648 -0.005570 0.501190 -2.497580 1 0 1.000000 
0 -72.542191 21.876337 19.001064 0.719328 -0.694648 -0.005570 -0.033240 -0.269820 1 0 1.000000 
0 -91.953949 1.774876 19.001064 0.719328 -0.694648 -0.005570 1.033940 -0.269820 1 0 1.000000 
grass_04
0 -68.449890 11.111608 -42.507168 0.766035 -0.642774 -0.005570 0.501190 -2.497580 1 0 1.000000 
0 -58.459591 22.471079 20.534431 0.766035 -0.642774 -0.005570 -0.033240 -0.269820 1 0 1.000000 
0 -77.871399 -0.662993 20.534433 0.766035 -0.642774 -0.005570 1.033940 -0.269820 1 0 1.000000 
grass_04
0 69.926666 -74.977402 -55.099884 0.906294 -0.422612 -0.005570 0.501190 -2.497580 1 0 1.000000 
0 78.624290 -57.402756 26.617737 0.906294 -0.422612 -0.005570 -0.033240 -0.269820 1 0 1.000000 
0 62.080505 -92.881020 26.617739 0.906294 -0.422612 -0.005570 1.033940 -0.269820 1 0 1.000000 
grass_04
0 -44.145725 43.918358 -47.381317 0.642774 -0.766035 -0.005570 0.501190 -2.497580 1 0 1.000000 
0 -30.980322 54.454288 22.889051 0.642774 -0.766035 -0.005570 -0.033240 -0.269820 1 0 1.000000 
0 -56.767109 32.816616 22.889051 0.642774 -0.766035 -0.005570 1.033940 -0.269820 1 0 1.000000 
grass_04
0 2.638031 -64.872688 -49.256889 -0.309011 -0.951042 -0.005570 0.501190 -2.497580 1 0 1.000000 
0 19.179453 -70.675339 23.795099 -0.309011 -0.951042 -0.005570 -0.033240 -0.269820 1 0 1.000000 
0 -14.102526 -59.861370 23.795099 -0.309011 -0.951042 -0.005570 1.033940 -0.269820 1 0 1.000000 
grass_04
0 96.436882 49.800785 -59.258923 0.998614 -0.052330 -0.005570 0.501190 -2.497580 1 0 1.000000 
0 98.029373 70.829796 28.626896 0.998614 -0.052330 -0.005570 -0.033240 -0.269820 1 0 1.000000 
0 95.825981 28.786755 28.626896 0.998614 -0.052330 -0.005570 1.033940 -0.269820 1 0 1.000000 
grass_04
0 90.019913 36.381714 -56.766094 -0.374603 -0.927168 -0.005570 0.501190 -2.497580 1 0 1.000000 
0 108.570168 28.380964 27.422657 -0.374603 -0.927168 -0.005570 -0.033240 -0.269820 1 0 1.000000 
0 71.177116 43.488743 27.422657 -0.374603 -0.927168 -0.005570 1.033940 -0.269820 1 0 1.000000 
grass_04
0 16.400318 -19.062111 -64.653572 0.906294 -0.422612 -0.005570 0.501190 -2.497580 1 0 1.000000 
0 26.606003 1.559771 31.232958 0.906294 -0.422612 -0.005570 -0.033240 -0.269820 1 0 1.000000 
0 7.193713 -40.070019 31.232960 0.906294 -0.422612 -0.005570 1.033940 -0.269820 1 0 1.000000 
grass_04
0 -45.041222 -8.658512 -45.548775 0.694648 -0.719328 -0.005570 0.501190 -2.497580 1 0 1.000000 
0 -33.122372 2.328089 22.003782 0.694648 -0.719328 -0.005570 -0.033240 -0.269820 1 0 1.000000 
0 -56.400429 -20.151262 22.003782 0.694648 -0.719328 -0.005570 1.033940 -0.269820 1 0 1.000000 
grass_04
0 22.690828 -8.756759 -51.601089 0.309011 -0.951042 -0.005570 0.501190 -2.497580 1 0 1.000000 
0 40.283039 -3.489088 24.927538 0.309011 -0.951042 -0.005570 -0.033240 -0.269820 1 0 1.000000 
0 5.417112 -14.817710 24.927540 0.309011 -0.951042 -0.005570 1.033940 -0.269820 1 0 1.000000 
grass_04
0 47.210308 0.067692 -50.922512 0.422612 -0.906294 -0.005570 0.501190 -2.497580 1 0 1.000000 
0 63.808250 7.343103 24.599728 0.422612 -0.906294 -0.005570 -0.033240 -0.269820 1 0 1.000000 
0 31.019741 -7.946419 24.599728 0.422612 -0.906294 -0.005570 1.033940 -0.269820 1 0 1.000000 
grass_04
0 -59.019871 -17.696302 -58.587017 0.207901 -0.978134 -0.005570 0.501190 -2.497580 1 0 1.000000 
0 -38.530220 -13.836082 28.302313 0.207901 -0.978134 -0.005570 -0.033240 -0.269820 1 0 1.000000 
0 -79.244034 -22.490074 28.302315 0.207901 -0.978134 -0.005570 1.033940 -0.269820 1 0 1.000000 
grass_04
0 -80.043839 -44.981533 -35.747456 -0.939679 -0.342013 -0.005570 0.501190 -2.497580 1 0 1.000000 
0 -75.971458 -57.034035 17.268944 -0.939679 -0.342013 -0.005570 -0.033240 -0.269820 1 0 1.000000 
0 -84.657730 -33.168724 17.268944 -0.939679 -0.342013 -0.005570 1.033940 -0.269820 1 0 1.000000 
grass_04
0 -74.806862 30.584766 -55.726856 0.994507 -0.104521 -0.005570 0.501190 -2.497580 1 0 1.000000 
0 -72.276382 50.254898 26.920624 0.994507 -0.104521 -0.005570 -0.033240 -0.269820 1 0 1.000000 
0 -76.414810 10.880396 26.920624 0.994507 -0.104521 -0.005570 1.033940 -0.269820 1 0 1.000000 
grass_04
0 94.060783 -59.797085 -55.580605 0.898780 -0.438365 -0.005570 0.501190 -2.497580 1 0 1.000000 
0 103.142342 -42.224937 26.849966 0.898780 -0.438365 -0.005570 -0.033240 -0.269820 1 0 1.000000 
0 85.832176 -77.716042 26.849966 0.898780 -0.438365 -0.005570 1.033940 -0.269820 1 0 1.000000 
grass_04
0 -89.141197 59.033997 -60.308956 0.787996 -0.615655 -0.005570 0.501190 -2.497580 1 0 1.000000 
0 -75.538109 75.635597 29.134153 0.787996 -0.615655 -0.005570 -0.033240 -0.269820 1 0 1.000000 
0 -101.917213 41.871895 29.134153 0.787996 -0.615655 -0.005570 1.033940 -0.269820 1 0 1.000000 
grass_04
0 -42.696880 -76.513702 -35.599670 0.848034 -0.529912 -0.005570 0.501190 -2.497580 1 0 1.000000 
0 -35.735477 -65.928307 17.197552 0.848034 -0.529912 -0.005570 -0.033240 -0.269820 1 0 1.000000 
0 -49.138165 -87.377090 17.197552 0.848034 -0.529912 -0.005570 1.033940 -0.269820 1 0 1.000000 
grass_04
0 80.318314 -86.034592 -59.840565 -0.390721 -0.920492 -0.005570 0.501190 -2.497580 1 0 1.000000 
0 99.723076 -94.808640 28.907877 -0.390721 -0.920492 -0.005570 -0.033240 -0.269820 1 0 1.000000 
0 60.588753 -78.197121 28.907879 -0.390721 -0.920492 -0.005570 1.033940 -0.269820 1 0 1.000000 
grass_04
0 -22.511299 -73.866997 -58.922272 0.629312 -0.777133 -0.005570 0.501190 -2.497580 1 0 1.000000 
0 -5.912946 -61.052502 28.464270 0.629312 -0.777133 -0.005570 -0.033240 -0.269820 1 0 1.000000 
0 -38.445496 -87.396843 28.464272 0.629312 -0.777133 -0.005570 1.033940 -0.269820 1 0 1.000000 
grass_04
0 32.232468 -9.486379 -92.018600 0.601804 -0.798625 -0.005570 0.501190 -2.497580 1 0 1.000000 
0 58.836651 9.609113 44.452496 0.601804 -0.798625 -0.005570 -0.033240 -0.269820 1 0 1.000000 
0 6.625864 -29.734529 44.452499 0.601804 -0.798625 -0.005570 1.033940 -0.269820 1 0 1.000000 
grass_04
0 9.383740 -53.906719 -45.688160 0.275632 -0.961247 -0.005570 0.501190 -2.497580 1 0 1.000000 
0 25.113363 -49.789108 22.071108 0.275632 -0.961247 -0.005570 -0.033240 -0.269820 1 0 1.000000 
0 -6.088557 -58.736118 22.071110 0.275632 -0.961247 -0.005570 1.033940 -0.269820 1 0 1.000000 
grass_04
0 41.480289 -57.018570 -58.693790 0.587774 -0.809006 -0.005570 0.501190 -2.497580 1 0 1.000000 
0 58.659676 -45.136566 28.353888 0.587774 -0.809006 -0.005570 -0.033240 -0.269820 1 0 1.000000 
0 24.924274 -69.646767 28.353888 0.587774 -0.809006 -0.005570 1.033940 -0.269820 1 0 1.000000 
grass_04
0 45.353691 -90.478470 -50.434315 0.992532 -0.121860 -0.005570 0.501190 -2.497580 1 0 1.000000 
0 47.954185 -72.719162 24.363888 0.992532 -0.121860 -0.005570 -0.033240 -0.269820 1 0 1.000000 
0 43.587456 -108.283340 24.363888 0.992532 -0.121860 -0.005570 1.033940 -0.269820 1 0 1.000000 
grass_04
0 -34.946980 -87.291634 -58.456181 -0.207901 -0.978134 -0.005570 0.501190 -2.497580 1 0 1.000000 
0 -14.703964 -92.088287 28.239111 -0.207901 -0.978134 -0.005570 -0.033240 -0.269820 1 0 1.000000 
0 -55.326855 -83.453629 28.239113 -0.207901 -0.978134 -0.005570 1.033940 -0.269820 1 0 1.000000 
grass_04
0 66.065903 28.659204 -40.874184 -0.961247 -0.275632 -0.005570 0.501190 -2.497580 1 0 1.000000 
0 69.749649 14.586953 19.745565 -0.961247 -0.275632 -0.005570 -0.033240 -0.269820 1 0 1.000000 
0 61.745350 42.501255 19.745567 -0.961247 -0.275632 -0.005570 1.033940 -0.269820 1 0 1.000000 
grass_04
0 14.104719 -38.505409 -65.051064 0.587774 -0.809006 -0.005570 0.501190 -2.497580 1 0 1.000000 
0 33.144855 -25.336449 31.424969 0.587774 -0.809006 -0.005570 -0.033240 -0.269820 1 0 1.000000 
0 -4.244506 -52.501411 31.424971 0.587774 -0.809006 -0.005570 1.033940 -0.269820 1 0 1.000000 
grass_04
0 8.705297 11.501730 -69.783409 0.999376 -0.034890 -0.005570 0.501190 -2.497580 1 0 1.000000 
0 10.148130 36.294491 33.711079 0.999376 -0.034890 -0.005570 -0.033240 -0.269820 1 0 1.000000 
0 8.417882 -13.253210 33.711079 0.999376 -0.034890 -0.005570 1.033940 -0.269820 1 0 1.000000 
grass_04
0 70.787849 -46.877556 -67.661751 -0.207901 -0.978134 -0.005570 0.501190 -2.497580 1 0 1.000000 
0 94.218697 -52.429596 32.686146 -0.207901 -0.978134 -0.005570 -0.033240 -0.269820 1 0 1.000000 
0 47.198586 -42.435158 32.686146 -0.207901 -0.978134 -0.005570 1.033940 -0.269820 1 0 1.000000 
grass_04
0 -90.910248 -43.557972 -49.089626 0.999376 -0.034890 -0.005570 0.501190 -2.497580 1 0 1.000000 
0 -89.895279 -26.117334 23.714304 0.999376 -0.034890 -0.005570 -0.033240 -0.269820 1 0 1.000000 
0 -91.112427 -60.972023 23.714304 0.999376 -0.034890 -0.005570 1.033940 -0.269820 1 0 1.000000 
grass_04
0 -20.290861 -38.392200 -61.741470 0.990253 -0.139170 -0.005570 0.501190 -2.497580 1 0 1.000000 
0 -16.728397 -16.710190 29.826170 0.990253 -0.139170 -0.005570 -0.033240 -0.269820 1 0 1.000000 
0 -22.833157 -60.147789 29.826172 0.990253 -0.139170 -0.005570 1.033940 -0.269820 1 0 1.000000 
grass_04
0 -28.007158 -94.883949 -56.176159 0.000000 -0.999984 -0.005570 0.501190 -2.497580 1 0 1.000000 
0 -8.020414 -95.348190 27.137671 0.000000 -0.999984 -0.005570 -0.033240 -0.269820 1 0 1.000000 
0 -47.931007 -95.348190 27.137672 0.000000 -0.999984 -0.005570 1.033940 -0.269820 1 0 1.000000 
grass_04
0 27.907211 -94.625809 -46.161720 -0.998614 -0.052330 -0.005570 0.501190 -2.497580 1 0 1.000000 
0 28.385805 -111.046997 22.299877 -0.998614 -0.052330 -0.005570 -0.033240 -0.269820 1 0 1.000000 
0 26.669403 -78.296150 22.299877 -0.998614 -0.052330 -0.005570 1.033940 -0.269820 1 0 1.000000 
grass_04
0 58.879501 49.667095 -93.783630 0.052330 -0.998614 -0.005570 0.501190 -2.497580 1 0 1.000000 
0 92.241318 50.639404 45.305145 0.052330 -0.998614 -0.005570 -0.033240 -0.269820 1 0 1.000000 
0 25.703671 47.152309 45.305149 0.052330 -0.998614 -0.005570 1.033940 -0.269820 1 0 1.000000 
grass_04
0 98.104721 62.494324 -67.715950 -0.629312 -0.777133 -0.005570 0.501190 -2.497580 1 0 1.000000 
0 116.475891 46.897575 32.712315 -0.629312 -0.777133 -0.005570 -0.033240 -0.269820 1 0 1.000000 
0 79.088120 77.173576 32.712315 -0.629312 -0.777133 -0.005570 1.033940 -0.269820 1 0 1.000000 
grass_04
0 59.944118 -50.978867 -40.565823 0.374603 -0.927168 -0.005570 0.501190 -2.497580 1 0 1.000000 
0 73.451553 -45.883076 19.596596 0.374603 -0.927168 -0.005570 -0.033240 -0.269820 1 0 1.000000 
0 46.729965 -56.679306 19.596598 0.374603 -0.927168 -0.005570 1.033940 -0.269820 1 0 1.000000 
grass_04
0 59.251884 64.778229 -48.638863 0.961247 -0.275632 -0.005570 0.501190 -2.497580 1 0 1.000000 
0 64.408203 81.302132 23.496538 0.961247 -0.275632 -0.005570 -0.033240 -0.269820 1 0 1.000000 
0 54.883369 48.085083 23.496538 0.961247 -0.275632 -0.005570 1.033940 -0.269820 1 0 1.000000 
grass_04
0 -3.515541 -32.363338 -54.407688 -0.965912 -0.258811 -0.005570 0.501190 -2.497580 1 0 1.000000 
0 1.060243 -51.177670 26.283360 -0.965912 -0.258811 -0.005570 -0.033240 -0.269820 1 0 1.000000 
0 -8.944178 -13.840600 26.283360 -0.965912 -0.258811 -0.005570 1.033940 -0.269820 1 0 1.000000 
grass_04
0 2.904987 20.914801 -55.015419 0.990253 -0.139170 -0.005570 0.501190 -2.497580 1 0 1.000000 
0 6.079360 40.234791 26.576941 0.990253 -0.139170 -0.005570 -0.033240 -0.269820 1 0 1.000000 
0 0.639651 1.529240 26.576941 0.990253 -0.139170 -0.005570 1.033940 -0.269820 1 0 1.000000 
grass_04
0 -39.926529 3.450148 -38.604759 0.787996 -0.615655 -0.005570 0.501190 -2.497580 1 0 1.000000 
0 -31.218981 14.077109 18.649252 0.787996 -0.615655 -0.005570 -0.033240 -0.269820 1 0 1.000000 
0 -48.104671 -7.535582 18.649252 0.787996 -0.615655 -0.005570 1.033940 -0.269820 1 0 1.000000 
grass_04
0 46.365189 -87.021301 -63.678265 0.829025 -0.559183 -0.005570 0.501190 -2.497580 1 0 1.000000 
0 59.470486 -68.532997 30.761787 0.829025 -0.559183 -0.005570 -0.033240 -0.269820 1 0 1.000000 
0 34.172329 -106.039047 30.761787 0.829025 -0.559183 -0.005570 1.033940 -0.269820 1 0 1.000000 
grass_04
0 43.986698 -53.354565 -66.020142 0.034890 -0.999376 -0.005570 0.501190 -2.497580 1 0 1.000000 
0 67.480530 -53.080074 31.893116 0.034890 -0.999376 -0.005570 -0.033240 -0.269820 1 0 1.000000 
0 20.604824 -54.717010 31.893120 0.034890 -0.999376 -0.005570 1.033940 -0.269820 1 0 1.000000 
grass_04
0 78.590111 -39.070396 -66.274727 0.787996 -0.615655 -0.005570 0.501190 -2.497580 1 0 1.000000 
0 93.538803 -20.826567 32.016106 0.787996 -0.615655 -0.005570 -0.033240 -0.269820 1 0 1.000000 
0 64.550285 -57.930164 32.016106 0.787996 -0.615655 -0.005570 1.033940 -0.269820 1 0 1.000000 
grass_04
0 95.558067 5.060854 -41.348183 0.573567 -0.819140 -0.005570 0.501190 -2.497580 1 0 1.000000 
0 107.804733 13.218904 19.974546 0.573567 -0.819140 -0.005570 -0.033240 -0.269820 1 0 1.000000 
0 83.741318 -3.630456 19.974546 0.573567 -0.819140 -0.005570 1.033940 -0.269820 1 0 1.000000 
grass_04
0 81.615219 52.445354 -40.641212 -0.601803 -0.798625 -0.005570 0.501190 -2.497580 1 0 1.000000 
0 92.961060 43.475113 19.633017 -0.601803 -0.798625 -0.005570 -0.033240 -0.269820 1 0 1.000000 
0 69.901482 60.851753 19.633017 -0.601803 -0.798625 -0.005570 1.033940 -0.269820 1 0 1.000000 
grass_04
0 -21.891983 44.133801 -46.477638 0.990253 -0.139170 -0.005570 0.501190 -2.497580 1 0 1.000000 
0 -19.210232 60.455540 22.452490 0.990253 -0.139170 -0.005570 -0.033240 -0.269820 1 0 1.000000 
0 -23.805759 27.756659 22.452492 0.990253 -0.139170 -0.005570 1.033940 -0.269820 1 0 1.000000 
grass_04
0 82.576424 4.262964 -60.207573 0.984793 -0.173641 -0.005570 0.501190 -2.497580 1 0 1.000000 
0 86.786148 25.272184 29.085167 0.984793 -0.173641 -0.005570 -0.033240 -0.269820 1 0 1.000000 
0 79.358398 -16.852686 29.085167 0.984793 -0.173641 -0.005570 1.033940 -0.269820 1 0 1.000000 
grass_04
0 80.244682 -16.001286 -44.680405 -0.559183 -0.829025 -0.005570 0.501190 -2.497580 1 0 1.000000 
0 93.217163 -25.196716 21.584276 -0.559183 -0.829025 -0.005570 -0.033240 -0.269820 1 0 1.000000 
0 66.900711 -7.446057 21.584276 -0.559183 -0.829025 -0.005570 1.033940 -0.269820 1 0 1.000000 
grass_04
0 -98.214691 -97.208366 -57.706806 0.970282 -0.241911 -0.005570 0.501190 -2.497580 1 0 1.000000 
0 -92.784973 -77.402290 27.877104 0.970282 -0.241911 -0.005570 -0.033240 -0.269820 1 0 1.000000 
0 -102.703300 -117.182510 27.877104 0.970282 -0.241911 -0.005570 1.033940 -0.269820 1 0 1.000000 
grass_04
0 -81.931129 41.835766 -61.311096 -0.681985 -0.731345 -0.005570 0.501190 -2.497580 1 0 1.000000 
0 -66.323158 26.588316 29.618275 -0.681985 -0.731345 -0.005570 -0.033240 -0.269820 1 0 1.000000 
0 -98.179993 56.295288 29.618275 -0.681985 -0.731345 -0.005570 1.033940 -0.269820 1 0 1.000000 
grass_04
0 -97.604683 22.954475 -47.492596 -0.374603 -0.927168 -0.005570 0.501190 -2.497580 1 0 1.000000 
0 -82.084862 16.260756 22.942804 -0.374603 -0.927168 -0.005570 -0.033240 -0.269820 1 0 1.000000 
0 -113.369247 28.900475 22.942806 -0.374603 -0.927168 -0.005570 1.033940 -0.269820 1 0 1.000000 
grass_04
0 -78.054771 -84.723938 -59.735558 0.939679 -0.342013 -0.005570 0.501190 -2.497580 1 0 1.000000 
0 -70.321869 -64.921379 28.857153 0.939679 -0.342013 -0.005570 -0.033240 -0.269820 1 0 1.000000 
0 -84.837006 -104.801353 28.857153 0.939679 -0.342013 -0.005570 1.033940 -0.269820 1 0 1.000000 
grass_04
0 70.229332 -95.250282 -44.726322 -0.544634 -0.838656 -0.005570 0.501190 -2.497580 1 0 1.000000 
0 83.373817 -104.227119 21.606457 -0.544634 -0.838656 -0.005570 -0.033240 -0.269820 1 0 1.000000 
0 56.724213 -86.920677 21.606459 -0.544634 -0.838656 -0.005570 1.033940 -0.269820 1 0 1.000000 
grass_04
0 30.724890 -27.063349 -40.008598 0.961247 -0.275632 -0.005570 0.501190 -2.497580 1 0 1.000000 
0 34.966290 -13.471378 19.327417 0.961247 -0.275632 -0.005570 -0.033240 -0.269820 1 0 1.000000 
0 27.131493 -40.794552 19.327417 0.961247 -0.275632 -0.005570 1.033940 -0.269820 1 0 1.000000 
end
