version 1
nodes
  0 "static_prop" -1
end
skeleton
time 0
0 0.000000 0.000000 0.000000 0.000000 0.000000 0.000000
end
triangles
concretedebris_chunk01
0 12.605299 18.006001 6.422900 -0.382313 0.924033 0.000000 0.835700 -0.997100 1 0 1.000000 
0 -0.692901 12.504300 3.700000 -0.382313 0.924033 0.000000 0.808800 -0.526200 1 0 1.000000 
0 -0.692901 12.504300 8.300000 -0.382313 0.924033 0.000000 0.923400 -0.528600 1 0 1.000000 
concretedebris_chunk01
0 10.267400 5.713201 -2.569200 0.336001 0.513602 -0.789503 0.165300 -0.392500 1 0 1.000000 
0 12.605299 18.006001 6.422900 0.336001 0.513602 -0.789503 0.935600 -0.549200 1 0 1.000000 
0 16.865700 15.790601 6.422900 0.276890 0.532481 -0.799872 0.896100 -0.999500 1 0 1.000000 
concretedebris_chunk01
0 10.267400 5.713201 -2.569200 0.336001 0.513602 -0.789503 0.165300 -0.392500 1 0 1.000000 
0 6.006899 7.928600 -3.325000 0.393883 0.492679 -0.775966 0.103900 -0.000500 1 0 1.000000 
0 12.605299 18.006001 6.422900 0.336001 0.513602 -0.789503 0.935600 -0.549200 1 0 1.000000 
concretedebris_chunk01
0 12.304901 -10.989799 8.300000 0.574706 -0.622607 0.531106 0.798200 -0.902600 1 0 1.000000 
0 10.089501 -13.034800 8.300000 0.574706 -0.622607 0.531106 0.798200 -0.824300 1 0 1.000000 
0 11.400901 -15.747699 3.700000 0.574706 -0.622607 0.531106 0.521400 -0.870700 1 0 1.000000 
concretedebris_chunk01
0 11.400901 -15.747699 3.700000 0.574706 -0.622607 0.531106 0.521400 -0.870700 1 0 1.000000 
0 13.616301 -13.702699 3.700000 0.574706 -0.622607 0.531106 0.521400 -0.949000 1 0 1.000000 
0 12.304901 -10.989799 8.300000 0.574706 -0.622607 0.531106 0.798200 -0.902600 1 0 1.000000 
concretedebris_chunk01
0 12.490199 17.729799 7.712800 0.449511 0.864420 0.225205 0.894800 -0.012600 1 0 1.000000 
0 16.750601 15.514400 7.712800 0.449511 0.864420 0.225205 0.894800 -0.985300 1 0 1.000000 
0 16.865700 15.790601 6.422900 0.449511 0.864420 0.225205 0.829500 -0.985000 1 0 1.000000 
concretedebris_chunk01
0 16.865700 15.790601 6.422900 0.449511 0.864420 0.225205 0.829500 -0.985000 1 0 1.000000 
0 12.605299 18.006001 6.422900 0.449511 0.864420 0.225205 0.829500 -0.012300 1 0 1.000000 
0 12.490199 17.729799 7.712800 0.449511 0.864420 0.225205 0.894800 -0.012600 1 0 1.000000 
concretedebris_chunk01
0 15.043900 -13.331499 -8.300000 0.903496 0.146999 -0.402598 0.050800 -0.759400 1 0 1.000000 
0 16.865700 15.790601 6.422900 0.903496 0.146999 -0.402598 0.802900 -0.292000 1 0 1.000000 
0 13.616301 -13.702699 3.700000 0.986337 -0.119204 0.113704 0.039200 -0.384400 1 0 1.000000 
concretedebris_chunk01
0 15.043900 -13.331499 -8.300000 0.903496 0.146999 -0.402598 0.050800 -0.759400 1 0 1.000000 
0 10.267400 5.713201 -2.569200 0.509590 0.362593 -0.780285 0.492000 -0.594800 1 0 1.000000 
0 16.865700 15.790601 6.422900 0.903496 0.146999 -0.402598 0.802900 -0.292000 1 0 1.000000 
concretedebris_chunk01
0 12.460701 -17.521799 -8.300000 0.766194 -0.629995 0.126699 0.000500 -0.908100 1 0 1.000000 
0 13.616301 -13.702699 3.700000 0.766194 -0.629995 0.126699 0.521400 -0.949000 1 0 1.000000 
0 11.400901 -15.747699 3.700000 0.668813 -0.724614 0.166203 0.521400 -0.870700 1 0 1.000000 
concretedebris_chunk01
0 12.460701 -17.521799 -8.300000 0.766194 -0.629995 0.126699 0.000500 -0.908100 1 0 1.000000 
0 15.043900 -13.331499 -8.300000 0.848182 -0.522889 0.084698 0.000500 -0.999500 1 0 1.000000 
0 13.616301 -13.702699 3.700000 0.766194 -0.629995 0.126699 0.521400 -0.949000 1 0 1.000000 
concretedebris_chunk01
0 0.716601 -18.006001 -8.300000 0.124495 -0.989359 0.075297 0.000500 -0.492800 1 0 1.000000 
0 11.400901 -15.747699 3.700000 0.124495 -0.989359 0.075297 0.521400 -0.870700 1 0 1.000000 
0 0.716601 -18.006001 3.700000 0.206797 -0.978384 0.000000 0.521400 -0.492800 1 0 1.000000 
concretedebris_chunk01
0 0.716601 -18.006001 -8.300000 0.124495 -0.989359 0.075297 0.000500 -0.492800 1 0 1.000000 
0 12.460701 -17.521799 -8.300000 0.040700 -0.987908 0.149601 0.000500 -0.908100 1 0 1.000000 
0 11.400901 -15.747699 3.700000 0.124495 -0.989359 0.075297 0.521400 -0.870700 1 0 1.000000 
concretedebris_chunk01
0 -9.292999 -13.181200 -8.300000 -0.412580 -0.910656 -0.021999 0.000500 -0.138700 1 0 1.000000 
0 0.716601 -18.006001 3.700000 -0.412580 -0.910656 -0.021999 0.521400 -0.492800 1 0 1.000000 
0 -12.115399 -12.557301 3.700000 -0.390482 -0.919558 -0.043998 0.521400 -0.000500 1 0 1.000000 
concretedebris_chunk01
0 -9.292999 -13.181200 -8.300000 -0.412580 -0.910656 -0.021999 0.000500 -0.138700 1 0 1.000000 
0 0.716601 -18.006001 -8.300000 -0.434206 -0.900813 0.000000 0.000500 -0.492800 1 0 1.000000 
0 0.716601 -18.006001 3.700000 -0.412580 -0.910656 -0.021999 0.521400 -0.492800 1 0 1.000000 
concretedebris_chunk01
0 -13.823300 -3.058301 -8.300000 -0.842299 -0.474499 -0.255700 0.415200 -0.126500 1 0 1.000000 
0 -12.115399 -12.557301 3.700000 -0.842299 -0.474499 -0.255700 0.089400 -0.144200 1 0 1.000000 
0 -16.865700 -5.739101 3.700000 -0.777822 -0.541915 -0.318309 0.341700 -0.000500 1 0 1.000000 
concretedebris_chunk01
0 -13.823300 -3.058301 -8.300000 -0.842299 -0.474499 -0.255700 0.415200 -0.126500 1 0 1.000000 
0 -9.292999 -13.181200 -8.300000 -0.896127 -0.401112 -0.189906 0.134300 -0.255400 1 0 1.000000 
0 -12.115399 -12.557301 3.700000 -0.842299 -0.474499 -0.255700 0.089400 -0.144200 1 0 1.000000 
concretedebris_chunk01
0 -13.809900 9.081499 -5.428800 -0.971777 0.059799 -0.228195 0.751900 -0.126900 1 0 1.000000 
0 -16.865700 -5.739101 3.700000 -0.971777 0.059799 -0.228195 0.341700 -0.000500 1 0 1.000000 
0 -15.753701 11.334699 3.700000 -0.972800 0.063400 -0.222800 0.814400 -0.071600 1 0 1.000000 
concretedebris_chunk01
0 -13.809900 9.081499 -5.428800 -0.971777 0.059799 -0.228195 0.751900 -0.126900 1 0 1.000000 
0 -13.823300 -3.058301 -8.300000 -0.970724 0.056301 -0.233506 0.415200 -0.126500 1 0 1.000000 
0 -16.865700 -5.739101 3.700000 -0.971777 0.059799 -0.228195 0.341700 -0.000500 1 0 1.000000 
concretedebris_chunk01
0 -5.268900 14.820000 -5.109800 -0.406706 0.904814 -0.126102 0.266100 -0.696000 1 0 1.000000 
0 -15.753701 11.334699 3.700000 -0.406706 0.904814 -0.126102 0.780400 0.009200 1 0 1.000000 
0 -5.929600 14.061300 3.700000 -0.266894 0.961678 0.062799 0.780400 -0.642500 1 0 1.000000 
concretedebris_chunk01
0 -5.268900 14.820000 -5.109800 -0.406706 0.904814 -0.126102 0.266100 -0.696000 1 0 1.000000 
0 -13.809900 9.081499 -5.428800 -0.522712 0.795118 -0.307507 0.239500 -0.129400 1 0 1.000000 
0 -15.753701 11.334699 3.700000 -0.406706 0.904814 -0.126102 0.780400 0.009200 1 0 1.000000 
concretedebris_chunk01
0 -1.158000 11.505100 -8.300000 0.495124 0.868742 0.011801 0.000500 -0.968700 1 0 1.000000 
0 -5.929600 14.061300 3.700000 0.495124 0.868742 0.011801 0.780400 -0.642500 1 0 1.000000 
0 -0.692901 12.504300 3.700000 0.283801 0.954603 -0.090500 0.780400 -0.989800 1 0 1.000000 
concretedebris_chunk01
0 -1.158000 11.505100 -8.300000 0.495124 0.868742 0.011801 0.000500 -0.968700 1 0 1.000000 
0 -5.268900 14.820000 -5.109800 0.675494 0.728593 0.113399 0.266100 -0.696000 1 0 1.000000 
0 -5.929600 14.061300 3.700000 0.495124 0.868742 0.011801 0.780400 -0.642500 1 0 1.000000 
concretedebris_chunk01
0 6.006899 7.928600 -3.325000 0.178607 0.893638 -0.411717 0.423900 -0.755800 1 0 1.000000 
0 -0.692901 12.504300 3.700000 0.178607 0.893638 -0.411717 0.799500 -0.461400 1 0 1.000000 
0 12.605299 18.006001 6.422900 -0.173801 0.741104 -0.648504 0.902800 -0.774400 1 0 1.000000 
concretedebris_chunk01
0 6.006899 7.928600 -3.325000 0.178607 0.893638 -0.411717 0.423900 -0.755800 1 0 1.000000 
0 -1.158000 11.505100 -8.300000 0.494690 0.864282 -0.091098 0.487600 -0.105200 1 0 1.000000 
0 -0.692901 12.504300 3.700000 0.178607 0.893638 -0.411717 0.799500 -0.461400 1 0 1.000000 
concretedebris_chunk01
0 -10.530901 11.334700 8.300000 0.000000 0.000000 1.000000 0.814400 -0.220200 1 0 1.000000 
0 -0.692901 12.504300 8.300000 0.005200 0.002900 0.999982 0.846900 -0.500000 1 0 1.000000 
0 -5.365400 12.215900 8.300000 0.000000 0.000000 1.000000 0.838900 -0.367100 1 0 1.000000 
concretedebris_chunk01
0 -10.530901 11.334700 8.300000 0.000000 0.000000 1.000000 0.814400 -0.220200 1 0 1.000000 
0 -14.109600 -5.706901 8.300000 0.000000 0.000000 1.000000 0.341700 -0.118400 1 0 1.000000 
0 -0.692901 12.504300 8.300000 0.005200 0.002900 0.999982 0.846900 -0.500000 1 0 1.000000 
concretedebris_chunk01
0 -14.109600 -5.706901 8.300000 0.000000 0.000000 1.000000 0.341700 -0.118400 1 0 1.000000 
0 -10.360399 -11.501100 8.300000 0.000000 0.000000 1.000000 0.181000 -0.225000 1 0 1.000000 
0 -0.692901 12.504300 8.300000 0.005200 0.002900 0.999982 0.846900 -0.500000 1 0 1.000000 
concretedebris_chunk01
0 -10.360399 -11.501100 8.300000 0.000000 0.000000 1.000000 0.181000 -0.225000 1 0 1.000000 
0 0.716601 -14.057300 8.300000 0.000000 0.000000 1.000000 0.110000 -0.540100 1 0 1.000000 
0 -0.692901 12.504300 8.300000 0.005200 0.002900 0.999982 0.846900 -0.500000 1 0 1.000000 
concretedebris_chunk01
0 0.716601 -14.057300 8.300000 0.000000 0.000000 1.000000 0.110000 -0.540100 1 0 1.000000 
0 10.089501 -13.034800 8.300000 0.000000 0.000000 1.000000 0.138400 -0.806800 1 0 1.000000 
0 -0.692901 12.504300 8.300000 0.005200 0.002900 0.999982 0.846900 -0.500000 1 0 1.000000 
concretedebris_chunk01
0 10.089501 -13.034800 8.300000 0.000000 0.000000 1.000000 0.138400 -0.806800 1 0 1.000000 
0 12.304901 -10.989799 8.300000 0.015700 0.013500 0.999785 0.195100 -0.869800 1 0 1.000000 
0 -0.692901 12.504300 8.300000 0.005200 0.002900 0.999982 0.846900 -0.500000 1 0 1.000000 
concretedebris_chunk01
0 12.304901 -10.989799 8.300000 0.015700 0.013500 0.999785 0.195100 -0.869800 1 0 1.000000 
0 12.490199 17.729799 7.712800 0.023500 0.020300 0.999518 0.922800 -0.870200 1 0 1.000000 
0 -0.692901 12.504300 8.300000 0.005200 0.002900 0.999982 0.846900 -0.500000 1 0 1.000000 
concretedebris_chunk01
0 12.304901 -10.989799 8.300000 0.015700 0.013500 0.999785 0.195100 -0.869800 1 0 1.000000 
0 16.750601 15.514400 7.712800 0.010600 0.020401 0.999736 0.861300 -0.991400 1 0 1.000000 
0 12.490199 17.729799 7.712800 0.023500 0.020300 0.999518 0.922800 -0.870200 1 0 1.000000 
concretedebris_chunk01
0 15.043900 -13.331499 -8.300000 0.351902 0.275402 -0.894605 0.130200 -0.947700 1 0 1.000000 
0 6.006899 7.928600 -3.325000 0.503304 0.393903 -0.769106 0.719900 -0.690600 1 0 1.000000 
0 10.267400 5.713201 -2.569200 0.336098 0.347698 -0.875296 0.658500 -0.811800 1 0 1.000000 
concretedebris_chunk01
0 15.043900 -13.331499 -8.300000 0.351902 0.275402 -0.894605 0.130200 -0.947700 1 0 1.000000 
0 -1.158000 11.505100 -8.300000 0.020601 0.200707 -0.979435 0.819200 -0.486800 1 0 1.000000 
0 6.006899 7.928600 -3.325000 0.503304 0.393903 -0.769106 0.719900 -0.690600 1 0 1.000000 
concretedebris_chunk01
0 12.460701 -17.521799 -8.300000 0.000000 0.000000 -1.000000 0.013900 -0.874200 1 0 1.000000 
0 -1.158000 11.505100 -8.300000 0.020601 0.200707 -0.979435 0.819200 -0.486800 1 0 1.000000 
0 15.043900 -13.331499 -8.300000 0.351902 0.275402 -0.894605 0.130200 -0.947700 1 0 1.000000 
concretedebris_chunk01
0 0.716601 -18.006001 -8.300000 0.000000 0.000000 -1.000000 0.000500 -0.540100 1 0 1.000000 
0 -1.158000 11.505100 -8.300000 0.020601 0.200707 -0.979435 0.819200 -0.486800 1 0 1.000000 
0 12.460701 -17.521799 -8.300000 0.000000 0.000000 -1.000000 0.013900 -0.874200 1 0 1.000000 
concretedebris_chunk01
0 -13.823300 -3.058301 -8.300000 -0.086501 0.075201 -0.993409 0.415200 -0.126500 1 0 1.000000 
0 -1.158000 11.505100 -8.300000 0.020601 0.200707 -0.979435 0.819200 -0.486800 1 0 1.000000 
0 0.716601 -18.006001 -8.300000 0.000000 0.000000 -1.000000 0.000500 -0.540100 1 0 1.000000 
concretedebris_chunk01
0 -13.809900 9.081499 -5.428800 -0.270191 0.345788 -0.898569 0.751900 -0.126900 1 0 1.000000 
0 -1.158000 11.505100 -8.300000 0.020601 0.200707 -0.979435 0.819200 -0.486800 1 0 1.000000 
0 -13.823300 -3.058301 -8.300000 -0.086501 0.075201 -0.993409 0.415200 -0.126500 1 0 1.000000 
concretedebris_chunk01
0 -13.809900 9.081499 -5.428800 -0.270191 0.345788 -0.898569 0.751900 -0.126900 1 0 1.000000 
0 -5.268900 14.820000 -5.109800 -0.279590 0.462884 -0.841170 0.911100 -0.369900 1 0 1.000000 
0 -1.158000 11.505100 -8.300000 0.020601 0.200707 -0.979435 0.819200 -0.486800 1 0 1.000000 
concretedebris_chunk01
0 -9.292999 -13.181200 -8.300000 0.000000 0.000000 -1.000000 0.134300 -0.255400 1 0 1.000000 
0 -13.823300 -3.058301 -8.300000 -0.086501 0.075201 -0.993409 0.415200 -0.126500 1 0 1.000000 
0 0.716601 -18.006001 -8.300000 0.000000 0.000000 -1.000000 0.000500 -0.540100 1 0 1.000000 
concretedebris_chunk01
0 16.750601 15.514400 7.712800 0.924860 -0.147394 0.350585 0.794300 -0.251700 1 0 1.000000 
0 12.304901 -10.989799 8.300000 0.924860 -0.147394 0.350585 0.123900 -0.240600 1 0 1.000000 
0 13.616301 -13.702699 3.700000 0.924860 -0.147394 0.350585 0.039200 -0.384400 1 0 1.000000 
concretedebris_chunk01
0 -0.692901 12.504300 8.300000 -0.357093 0.919381 0.164997 0.923400 -0.528600 1 0 1.000000 
0 12.490199 17.729799 7.712800 -0.357093 0.919381 0.164997 0.892700 -0.995400 1 0 1.000000 
0 12.605299 18.006001 6.422900 -0.357093 0.919381 0.164997 0.835700 -0.997100 1 0 1.000000 
concretedebris_chunk01
0 13.616301 -13.702699 3.700000 0.991303 -0.115100 0.063800 0.039200 -0.384400 1 0 1.000000 
0 16.865700 15.790601 6.422900 0.991303 -0.115100 0.063800 0.802900 -0.292000 1 0 1.000000 
0 16.750601 15.514400 7.712800 0.991303 -0.115100 0.063800 0.794300 -0.251700 1 0 1.000000 
concretedebris_chunk01
0 -0.692901 12.504300 3.700000 0.269010 0.904834 0.330013 0.808800 -0.526200 1 0 1.000000 
0 -5.929600 14.061300 3.700000 0.269010 0.904834 0.330013 0.808800 -0.341700 1 0 1.000000 
0 -5.365400 12.215900 8.300000 0.269010 0.904834 0.330013 0.923400 -0.364000 1 0 1.000000 
concretedebris_chunk01
0 10.089501 -13.034800 8.300000 0.082501 -0.756209 0.649108 0.798200 -0.824300 1 0 1.000000 
0 0.716601 -14.057300 8.300000 0.082501 -0.756209 0.649108 0.798200 -0.492800 1 0 1.000000 
0 0.716601 -18.006001 3.700000 0.082501 -0.756209 0.649108 0.521400 -0.492800 1 0 1.000000 
concretedebris_chunk01
0 -5.365400 12.215900 8.300000 -0.061600 0.998101 0.000000 0.923400 -0.364000 1 0 1.000000 
0 -0.692901 12.504300 8.300000 -0.061600 0.998101 0.000000 0.923400 -0.528600 1 0 1.000000 
0 -0.692901 12.504300 3.700000 -0.061600 0.998101 0.000000 0.808800 -0.526200 1 0 1.000000 
concretedebris_chunk01
0 0.716601 -18.006001 3.700000 0.174500 -0.825598 0.536599 0.521400 -0.492800 1 0 1.000000 
0 11.400901 -15.747699 3.700000 0.174500 -0.825598 0.536599 0.521400 -0.870700 1 0 1.000000 
0 10.089501 -13.034800 8.300000 0.174500 -0.825598 0.536599 0.798200 -0.824300 1 0 1.000000 
concretedebris_chunk01
0 -5.929600 14.061300 3.700000 -0.255905 0.922019 0.290506 0.808800 -0.341700 1 0 1.000000 
0 -15.753701 11.334699 3.700000 -0.255905 0.922019 0.290506 0.808800 0.004300 1 0 1.000000 
0 -10.530901 11.334700 8.300000 -0.255905 0.922019 0.290506 0.923400 -0.182100 1 0 1.000000 
concretedebris_chunk01
0 0.716601 -18.006001 3.700000 -0.367705 -0.865911 0.339104 0.521400 -0.492800 1 0 1.000000 
0 -10.360399 -11.501100 8.300000 -0.367705 -0.865911 0.339104 0.798200 -0.101000 1 0 1.000000 
0 -12.115399 -12.557301 3.700000 -0.367705 -0.865911 0.339104 0.521400 -0.000500 1 0 1.000000 
concretedebris_chunk01
0 -10.530901 11.334700 8.300000 -0.155299 0.910095 0.384198 0.923400 -0.182100 1 0 1.000000 
0 -5.365400 12.215900 8.300000 -0.155299 0.910095 0.384198 0.923400 -0.364000 1 0 1.000000 
0 -5.929600 14.061300 3.700000 -0.155299 0.910095 0.384198 0.808800 -0.341700 1 0 1.000000 
concretedebris_chunk01
0 -10.360399 -11.501100 8.300000 -0.172499 -0.747395 0.641596 0.798200 -0.101000 1 0 1.000000 
0 0.716601 -18.006001 3.700000 -0.172499 -0.747395 0.641596 0.521400 -0.492800 1 0 1.000000 
0 0.716601 -14.057300 8.300000 -0.172499 -0.747395 0.641596 0.798200 -0.492800 1 0 1.000000 
concretedebris_chunk01
0 -10.530901 11.334700 8.300000 -0.654689 0.137498 0.743288 0.814400 -0.220200 1 0 1.000000 
0 -15.753701 11.334699 3.700000 -0.654689 0.137498 0.743288 0.814400 -0.071600 1 0 1.000000 
0 -14.109600 -5.706901 8.300000 -0.654689 0.137498 0.743288 0.341700 -0.118400 1 0 1.000000 
concretedebris_chunk01
0 -10.360399 -11.501100 8.300000 -0.748869 -0.484580 0.452081 0.181000 -0.225000 1 0 1.000000 
0 -14.109600 -5.706901 8.300000 -0.748869 -0.484580 0.452081 0.341700 -0.118400 1 0 1.000000 
0 -16.865700 -5.739101 3.700000 -0.748869 -0.484580 0.452081 0.341700 -0.000500 1 0 1.000000 
concretedebris_chunk01
0 -16.865700 -5.739101 3.700000 -0.856651 0.055797 0.512870 0.341700 -0.000500 1 0 1.000000 
0 -14.109600 -5.706901 8.300000 -0.856651 0.055797 0.512870 0.341700 -0.118400 1 0 1.000000 
0 -15.753701 11.334699 3.700000 -0.856651 0.055797 0.512870 0.814400 -0.071600 1 0 1.000000 
concretedebris_chunk01
0 -16.865700 -5.739101 3.700000 -0.749823 -0.522416 0.406013 0.341700 -0.000500 1 0 1.000000 
0 -12.115399 -12.557301 3.700000 -0.749823 -0.522416 0.406013 0.089400 -0.144200 1 0 1.000000 
0 -10.360399 -11.501100 8.300000 -0.749823 -0.522416 0.406013 0.181000 -0.225000 1 0 1.000000 
end
