// Created by Crowbar 0.42.0.0
version 1
nodes
  0 "static_prop" -1
end
skeleton
  time 0
    0 0.000000 0.000000 0.000000 0.000000 0.000000 0.000000
end
triangles
  phy
    0 4.454704 -95.993102 13.932000 0.066527 0.512085 0.856355 0 0
    0 4.454696 95.936097 13.932000 0.078320 -0.570525 0.817537 0 0
    0 -7.709696 -95.993102 17.078399 0.000000 0.222624 -0.974904 0 0
  phy
    0 4.454696 95.936097 13.932000 0.078320 -0.570525 0.817537 0 0
    0 -7.709704 95.936097 17.078399 -0.035304 0.222486 -0.974297 0 0
    0 -7.709696 -95.993102 17.078399 0.000000 0.222624 -0.974904 0 0
  phy
    0 -7.709704 95.936097 17.078399 -0.035304 0.222486 -0.974297 0 0
    0 4.454696 95.936097 13.932000 0.078320 -0.570525 0.817537 0 0
    0 -11.891903 95.936097 4.937200 -0.035304 0.222486 -0.974297 0 0
  phy
    0 -11.891903 95.936097 4.937200 -0.035304 0.222486 -0.974297 0 0
    0 4.454696 95.936097 13.932000 0.078320 -0.570525 0.817537 0 0
    0 12.484396 95.936097 2.425800 0.066527 0.512085 0.856355 0 0
  phy
    0 4.454704 -95.993102 13.932000 0.066527 0.512085 0.856355 0 0
    0 12.484396 95.936097 2.425800 0.066527 0.512085 0.856355 0 0
    0 4.454696 95.936097 13.932000 0.078320 -0.570525 0.817537 0 0
  phy
    0 -7.709696 -95.993102 17.078399 0.000000 0.222624 -0.974904 0 0
    0 -11.891896 -95.993102 4.937200 -0.035304 0.222486 -0.974297 0 0
    0 4.454704 -95.993102 13.932000 0.066527 0.512085 0.856355 0 0
  phy
    0 -11.891896 -95.993102 4.937200 -0.035304 0.222486 -0.974297 0 0
    0 12.484404 -95.993102 2.425800 0.066527 0.512085 0.856355 0 0
    0 4.454704 -95.993102 13.932000 0.066527 0.512085 0.856355 0 0
  phy
    0 -11.891896 -95.993102 4.937200 -0.035304 0.222486 -0.974297 0 0
    0 -7.709696 -95.993102 17.078399 0.000000 0.222624 -0.974904 0 0
    0 -7.709704 95.936097 17.078399 -0.035304 0.222486 -0.974297 0 0
  phy
    0 -11.891896 -95.993102 4.937200 -0.035304 0.222486 -0.974297 0 0
    0 -11.891903 95.936097 4.937200 -0.035304 0.222486 -0.974297 0 0
    0 12.484396 95.936097 2.425800 0.066527 0.512085 0.856355 0 0
  phy
    0 -11.891896 -95.993102 4.937200 -0.035304 0.222486 -0.974297 0 0
    0 12.484396 95.936097 2.425800 0.066527 0.512085 0.856355 0 0
    0 12.484404 -95.993102 2.425800 0.066527 0.512085 0.856355 0 0
  phy
    0 -11.891903 95.936097 4.937200 -0.035304 0.222486 -0.974297 0 0
    0 -11.891896 -95.993102 4.937200 -0.035304 0.222486 -0.974297 0 0
    0 -7.709704 95.936097 17.078399 -0.035304 0.222486 -0.974297 0 0
  phy
    0 12.484404 -95.993102 2.425800 0.066527 0.512085 0.856355 0 0
    0 12.484396 95.936097 2.425800 0.066527 0.512085 0.856355 0 0
    0 4.454704 -95.993102 13.932000 0.066527 0.512085 0.856355 0 0
  phy
    0 -11.888504 95.936097 4.943400 0.005135 -0.989865 0.141920 0 0
    0 -12.456603 95.936097 -12.958900 0.044722 0.940181 -0.337728 0 0
    0 -11.888496 -95.993102 4.943400 1.000000 0.000000 0.000000 0 0
  phy
    0 -11.888496 -95.993102 4.943400 1.000000 0.000000 0.000000 0 0
    0 -12.456603 95.936097 -12.958900 0.044722 0.940181 -0.337728 0 0
    0 -12.456596 -95.993102 -12.958900 0.013182 0.989790 -0.141921 0 0
  phy
    0 -0.613604 95.936097 -17.213100 0.089935 -0.233111 0.968282 0 0
    0 -12.456603 95.936097 -12.958900 0.044722 0.940181 -0.337728 0 0
    0 -11.888504 95.936097 4.943400 0.005135 -0.989865 0.141920 0 0
  phy
    0 -0.613604 95.936097 -17.213100 0.089935 -0.233111 0.968282 0 0
    0 -11.888504 95.936097 4.943400 0.005135 -0.989865 0.141920 0 0
    0 12.480396 95.936097 2.445300 0.000000 -0.234059 0.972222 0 0
  phy
    0 -12.456596 -95.993102 -12.958900 0.013182 0.989790 -0.141921 0 0
    0 -12.456603 95.936097 -12.958900 0.044722 0.940181 -0.337728 0 0
    0 -0.613604 95.936097 -17.213100 0.089935 -0.233111 0.968282 0 0
  phy
    0 -11.888504 95.936097 4.943400 0.005135 -0.989865 0.141920 0 0
    0 -11.888496 -95.993102 4.943400 1.000000 0.000000 0.000000 0 0
    0 12.480396 95.936097 2.445300 0.000000 -0.234059 0.972222 0 0
  phy
    0 -11.888496 -95.993102 4.943400 1.000000 0.000000 0.000000 0 0
    0 12.480404 -95.993102 2.445300 0.000000 -0.234059 0.972222 0 0
    0 12.480396 95.936097 2.445300 0.000000 -0.234059 0.972222 0 0
  phy
    0 -11.888496 -95.993102 4.943400 1.000000 0.000000 0.000000 0 0
    0 -0.613496 -95.993102 -17.213100 0.000000 -0.234059 0.972222 0 0
    0 12.480404 -95.993102 2.445300 0.000000 -0.234059 0.972222 0 0
  phy
    0 -11.888496 -95.993102 4.943400 1.000000 0.000000 0.000000 0 0
    0 -12.456596 -95.993102 -12.958900 0.013182 0.989790 -0.141921 0 0
    0 -0.613496 -95.993102 -17.213100 0.000000 -0.234059 0.972222 0 0
  phy
    0 -0.613496 -95.993102 -17.213100 0.000000 -0.234059 0.972222 0 0
    0 -12.456596 -95.993102 -12.958900 0.013182 0.989790 -0.141921 0 0
    0 -0.613604 95.936097 -17.213100 0.089935 -0.233111 0.968282 0 0
  phy
    0 -0.613604 95.936097 -17.213100 0.089935 -0.233111 0.968282 0 0
    0 12.480396 95.936097 2.445300 0.000000 -0.234059 0.972222 0 0
    0 -0.613496 -95.993102 -17.213100 0.000000 -0.234059 0.972222 0 0
  phy
    0 -0.613496 -95.993102 -17.213100 0.000000 -0.234059 0.972222 0 0
    0 12.480396 95.936097 2.445300 0.000000 -0.234059 0.972222 0 0
    0 12.480404 -95.993102 2.445300 0.000000 -0.234059 0.972222 0 0
end
