version 1
nodes
  0 "Dummy01" -1
  1 "Dummy07" 0
  2 "Dummy05" 0
  3 "hor_1" 2
  4 "hor_2" 3
  5 "verticle" 4
  6 "Dummy06" 5
  7 "Muzzle_back" 6
  8 "Dummy04" 5
  9 "Muzzle" 8
end
skeleton
time 0
0 -0.018280 -7.632905 13.103640 1.570796 -0.000000 1.570752
1 17.096664 -2.899001 -0.000000 -0.000000 0.000000 -0.000000
2 -0.828985 1.759263 -0.000000 -0.000000 0.000000 -0.000000
3 12.145591 6.959348 -0.000000 -0.000000 0.000000 -0.000000
4 0.016275 4.251184 0.146113 -0.000000 -0.000000 -0.000000
5 -1.054259 6.513182 -0.146113 -0.000000 0.000000 -0.000000
6 20.769485 -1.339334 -0.147712 -0.000000 -0.000000 -0.000000
7 2.072233 0.015831 -0.032509 -0.000000 -0.000000 -0.000000
8 -39.635696 -1.332722 -0.150054 -0.000000 -0.000000 -0.000000
9 -1.584118 0.008789 -0.032200 -0.000000 -0.000000 -0.000000
time 1
0 -0.018280 -7.632905 13.103640 1.570796 -0.000000 1.570752
1 17.096664 -2.899001 -0.000000 -0.000000 0.000000 0.117386
2 -0.828985 1.759263 -0.000000 -0.000000 -0.000000 -0.135516
3 12.145591 6.959348 -0.000000 -0.000000 -0.000000 0.081094
4 0.016275 4.251184 0.146113 -0.000000 -0.000000 -0.000000
5 -1.054259 6.513182 -0.146113 -0.000000 0.000000 0.023406
6 20.769485 -1.339334 -0.147712 -0.000000 -0.000000 -0.000000
7 2.072233 0.015831 -0.032509 -0.000000 -0.000000 -0.000000
8 -39.635696 -1.332722 -0.150054 -0.000000 -0.000000 -0.000000
9 -1.584118 0.008789 -0.032200 -0.000000 -0.000000 -0.000000
time 2
0 -0.018280 -7.632905 13.103640 1.570796 -0.000000 1.570752
1 17.096664 -2.899001 -0.000000 -0.000000 -0.000000 0.244031
2 -0.828985 1.759263 -0.000000 -0.000000 0.000000 -0.278908
3 12.145591 6.959348 -0.000000 -0.000000 -0.000000 0.167351
4 0.016275 4.251184 0.146113 -0.000000 -0.000000 -0.000000
5 -1.054259 6.513182 -0.146113 -0.000000 -0.000000 0.048574
6 20.769485 -1.339334 -0.147712 -0.000000 -0.000000 -0.000000
7 2.072233 0.015831 -0.032509 -0.000000 -0.000000 -0.000000
8 -39.635696 -1.332722 -0.150054 -0.000000 -0.000000 -0.000000
9 -1.584118 0.008789 -0.032200 -0.000000 -0.000000 -0.000000
time 3
0 -0.018280 -7.632905 13.103640 1.570796 -0.000000 1.570752
1 17.096664 -2.899001 -0.000000 -0.000000 0.000000 0.352159
2 -0.828985 1.759263 -0.000000 -0.000000 -0.000000 -0.406587
3 12.145591 6.959348 -0.000000 -0.000000 -0.000000 0.255645
4 0.016275 4.251184 0.146113 -0.000000 -0.000000 -0.000000
5 -1.054259 6.513182 -0.146113 -0.000000 0.000000 0.074460
6 20.769485 -1.339334 -0.147712 -0.000000 -0.000000 -0.000000
7 2.072233 0.015831 -0.032509 -0.000000 -0.000000 -0.000000
8 -39.635696 -1.332722 -0.150054 -0.000000 -0.000000 -0.000000
9 -1.584118 0.008789 -0.032200 -0.000000 -0.000000 -0.000000
time 4
0 -0.018280 -7.632905 13.103640 1.570796 -0.000000 1.570752
1 17.096664 -2.899001 -0.000000 -0.000000 -0.000000 0.413982
2 -0.828985 1.759263 -0.000000 -0.000000 0.000000 -0.494968
3 12.145591 6.959348 -0.000000 -0.000000 0.000000 0.342931
4 0.016275 4.251184 0.146113 -0.000000 -0.000000 -0.000000
5 -1.054259 6.513182 -0.146113 -0.000000 -0.000000 0.099999
6 20.769485 -1.339334 -0.147712 -0.000000 -0.000000 -0.000000
7 2.072233 0.015831 -0.032509 -0.000000 -0.000000 -0.000000
8 -39.635696 -1.332722 -0.150054 -0.000000 -0.000000 -0.000000
9 -1.584118 0.008789 -0.032200 -0.000000 -0.000000 -0.000000
time 5
0 -0.018280 -7.632905 13.103640 1.570796 -0.000000 1.570752
1 17.096664 -2.899001 -0.000000 -0.000000 -0.000000 0.437769
2 -0.828985 1.759263 -0.000000 -0.000000 -0.000000 -0.499608
3 12.145591 6.959348 -0.000000 -0.000000 -0.000000 0.426102
4 0.016275 4.251184 0.146113 -0.000000 -0.000000 -0.000000
5 -1.054259 6.513182 -0.146113 -0.000000 -0.000000 0.124112
6 20.769485 -1.339334 -0.147712 -0.000000 -0.000000 -0.000000
7 2.072233 0.015831 -0.032509 -0.000000 -0.000000 -0.000000
8 -39.635696 -1.332722 -0.150054 -0.000000 -0.000000 -0.000000
9 -1.584118 0.008789 -0.032200 -0.000000 -0.000000 -0.000000
time 6
0 -0.018280 -7.632905 13.103640 1.570796 -0.000000 1.570752
1 17.096664 -2.899001 -0.000000 -0.000000 0.000000 0.451461
2 -0.828985 1.759263 -0.000000 -0.000000 0.000000 -0.448371
3 12.145591 6.959348 -0.000000 -0.000000 -0.000000 0.502074
4 0.016275 4.251184 0.146113 -0.000000 -0.000000 -0.000000
5 -1.054259 6.513182 -0.146113 -0.000000 0.000000 0.145745
6 20.769485 -1.339334 -0.147712 -0.000000 -0.000000 -0.000000
7 2.072233 0.015831 -0.032509 -0.000000 -0.000000 -0.000000
8 -39.635696 -1.332722 -0.150054 -0.000000 -0.000000 -0.000000
9 -1.584118 0.008789 -0.032200 -0.000000 -0.000000 -0.000000
time 7
0 -0.018280 -7.632905 13.103640 1.570796 -0.000000 1.570752
1 17.096664 -2.899001 -0.000000 -0.000000 0.000000 0.456857
2 -0.828985 1.759263 -0.000000 -0.000000 0.000000 -0.426073
3 12.145591 6.959348 -0.000000 -0.000000 0.000000 0.567760
4 0.016275 4.251184 0.146113 -0.000000 -0.000000 -0.000000
5 -1.054259 6.513182 -0.146113 -0.000000 0.000000 0.163841
6 20.769485 -1.339334 -0.147712 -0.000000 -0.000000 -0.000000
7 2.072233 0.015831 -0.032509 -0.000000 -0.000000 -0.000000
8 -39.635696 -1.332722 -0.150054 -0.000000 -0.000000 -0.000000
9 -1.584118 0.008789 -0.032200 -0.000000 -0.000000 -0.000000
time 8
0 -0.018280 -7.632905 13.103640 1.570796 -0.000000 1.570752
1 17.096664 -2.899001 -0.000000 -0.000000 0.000000 0.455742
2 -0.828985 1.759263 -0.000000 -0.000000 -0.000000 -0.479121
3 12.145591 6.959348 -0.000000 -0.000000 0.000000 0.620095
4 0.016275 4.251184 0.146113 -0.000000 -0.000000 -0.000000
5 -1.054259 6.513182 -0.146113 -0.000000 -0.000000 0.177324
6 20.769485 -1.339334 -0.147712 -0.000000 -0.000000 -0.000000
7 2.072233 0.015831 -0.032509 -0.000000 -0.000000 -0.000000
8 -39.635696 -1.332722 -0.150054 -0.000000 -0.000000 -0.000000
9 -1.584118 0.008789 -0.032200 -0.000000 -0.000000 -0.000000
time 9
0 -0.018280 -7.632905 13.103640 1.570796 -0.000000 1.570752
1 17.096664 -2.899001 -0.000000 -0.000000 0.000000 0.449872
2 -0.828985 1.759263 -0.000000 -0.000000 0.000000 -0.561147
3 12.145591 6.959348 -0.000000 -0.000000 -0.000000 0.651395
4 0.016275 4.251184 0.146113 -0.000000 -0.000000 -0.000000
5 -1.054259 6.513182 -0.146113 -0.000000 0.000000 0.167389
6 20.769485 -1.339334 -0.147712 -0.000000 -0.000000 -0.000000
7 2.072233 0.015831 -0.032509 -0.000000 -0.000000 -0.000000
8 -39.635696 -1.332722 -0.150054 -0.000000 -0.000000 -0.000000
9 -1.584118 0.008789 -0.032200 -0.000000 -0.000000 -0.000000
time 10
0 -0.018280 -7.632905 13.103640 1.570796 -0.000000 1.570752
1 17.096664 -2.899001 -0.000000 -0.000000 0.000000 0.441060
2 -0.828985 1.759263 -0.000000 -0.000000 0.000000 -0.617795
3 12.145591 6.959348 -0.000000 -0.000000 -0.000000 0.660834
4 0.016275 4.251184 0.146113 -0.000000 -0.000000 -0.000000
5 -1.054259 6.513182 -0.146113 -0.000000 0.000000 0.137307
6 20.769485 -1.339334 -0.147712 -0.000000 -0.000000 -0.000000
7 2.072233 0.015831 -0.032509 -0.000000 -0.000000 -0.000000
8 -39.635696 -1.332722 -0.150054 -0.000000 -0.000000 -0.000000
9 -1.584118 0.008789 -0.032200 -0.000000 -0.000000 -0.000000
time 11
0 -0.018280 -7.632905 13.103640 1.570796 -0.000000 1.570752
1 17.096664 -2.899001 -0.000000 -0.000000 -0.000000 0.431076
2 -0.828985 1.759263 -0.000000 -0.000000 -0.000000 -0.630946
3 12.145591 6.959348 -0.000000 -0.000000 -0.000000 0.655631
4 0.016275 4.251184 0.146113 -0.000000 -0.000000 -0.000000
5 -1.054259 6.513182 -0.146113 -0.000000 -0.000000 0.119079
6 20.769485 -1.339334 -0.147712 -0.000000 -0.000000 -0.000000
7 2.072233 0.015831 -0.032509 -0.000000 -0.000000 -0.000000
8 -39.635696 -1.332722 -0.150054 -0.000000 -0.000000 -0.000000
9 -1.584118 0.008789 -0.032200 -0.000000 -0.000000 -0.000000
time 12
0 -0.018280 -7.632905 13.103640 1.570796 -0.000000 1.570752
1 17.096664 -2.899001 -0.000000 -0.000000 0.000000 0.421693
2 -0.828985 1.759263 -0.000000 -0.000000 0.000000 -0.626055
3 12.145591 6.959348 -0.000000 -0.000000 0.000000 0.643086
4 0.016275 4.251184 0.146113 -0.000000 -0.000000 -0.000000
5 -1.054259 6.513182 -0.146113 -0.000000 0.000000 0.129721
6 20.769485 -1.339334 -0.147712 -0.000000 -0.000000 -0.000000
7 2.072233 0.015831 -0.032509 -0.000000 -0.000000 -0.000000
8 -39.635696 -1.332722 -0.150054 -0.000000 -0.000000 -0.000000
9 -1.584118 0.008789 -0.032200 -0.000000 -0.000000 -0.000000
time 13
0 -0.018280 -7.632905 13.103640 1.570796 -0.000000 1.570752
1 17.096664 -2.899001 -0.000000 -0.000000 0.000000 0.414707
2 -0.828985 1.759263 -0.000000 -0.000000 -0.000000 -0.614444
3 12.145591 6.959348 -0.000000 -0.000000 0.000000 0.630401
4 0.016275 4.251184 0.146113 -0.000000 -0.000000 -0.000000
5 -1.054259 6.513182 -0.146113 -0.000000 0.000000 0.152228
6 20.769485 -1.339334 -0.147712 -0.000000 -0.000000 -0.000000
7 2.072233 0.015831 -0.032509 -0.000000 -0.000000 -0.000000
8 -39.635696 -1.332722 -0.150054 -0.000000 -0.000000 -0.000000
9 -1.584118 0.008789 -0.032200 -0.000000 -0.000000 -0.000000
time 14
0 -0.018280 -7.632905 13.103640 1.570796 -0.000000 1.570752
1 17.096664 -2.899001 -0.000000 -0.000000 -0.000000 0.411891
2 -0.828985 1.759263 -0.000000 -0.000000 0.000000 -0.607359
3 12.145591 6.959348 -0.000000 -0.000000 -0.000000 0.624815
4 0.016275 4.251184 0.146113 -0.000000 -0.000000 -0.000000
5 -1.054259 6.513182 -0.146113 -0.000000 0.000000 0.167545
6 20.769485 -1.339334 -0.147712 -0.000000 -0.000000 -0.000000
7 2.072233 0.015831 -0.032509 -0.000000 -0.000000 -0.000000
8 -39.635696 -1.332722 -0.150054 -0.000000 -0.000000 -0.000000
9 -1.584118 0.008789 -0.032200 -0.000000 -0.000000 -0.000000
time 15
0 -0.018280 -7.632905 13.103640 1.570796 -0.000000 1.570752
1 17.096664 -2.899001 -0.000000 -0.000000 0.000000 0.411793
2 -0.828985 1.759263 -0.000000 -0.000000 0.000000 -0.606646
3 12.145591 6.959348 -0.000000 -0.000000 0.000000 0.625097
4 0.016275 4.251184 0.146113 -0.000000 -0.000000 -0.000000
5 -1.054259 6.513182 -0.146113 -0.000000 0.000000 0.171284
6 20.769485 -1.339334 -0.147712 -0.000000 -0.000000 -0.000000
7 2.072233 0.015831 -0.032509 -0.000000 -0.000000 -0.000000
8 -39.635696 -1.332722 -0.150054 -0.000000 -0.000000 -0.000000
9 -1.584118 0.008789 -0.032200 -0.000000 -0.000000 -0.000000
time 16
0 -0.018280 -7.632905 13.103640 1.570796 -0.000000 1.570752
1 17.096664 -2.899001 -0.000000 -0.000000 0.000000 0.411779
2 -0.828985 1.759263 -0.000000 -0.000000 0.000000 -0.606434
3 12.145591 6.959348 -0.000000 -0.000000 0.000000 0.625157
4 0.016275 4.251184 0.146113 -0.000000 -0.000000 -0.000000
5 -1.054259 6.513182 -0.146113 -0.000000 0.000000 0.172338
6 20.769485 -1.339334 -0.147712 -0.000000 -0.000000 -0.000000
7 2.072233 0.015831 -0.032509 -0.000000 -0.000000 -0.000000
8 -39.635696 -1.332722 -0.150054 -0.000000 -0.000000 -0.000000
9 -1.584118 0.008789 -0.032200 -0.000000 -0.000000 -0.000000
time 17
0 -0.018280 -7.632905 13.103640 1.570796 -0.000000 1.570752
1 17.096664 -2.899001 -0.000000 -0.000000 0.000000 0.411793
2 -0.828985 1.759263 -0.000000 -0.000000 0.000000 -0.606588
3 12.145591 6.959348 -0.000000 -0.000000 -0.000000 0.625117
4 0.016275 4.251184 0.146113 -0.000000 -0.000000 -0.000000
5 -1.054259 6.513182 -0.146113 -0.000000 -0.000000 0.171583
6 20.769485 -1.339334 -0.147712 -0.000000 -0.000000 -0.000000
7 2.072233 0.015831 -0.032509 -0.000000 -0.000000 -0.000000
8 -39.635696 -1.332722 -0.150054 -0.000000 -0.000000 -0.000000
9 -1.584118 0.008789 -0.032200 -0.000000 -0.000000 -0.000000
time 18
0 -0.018280 -7.632905 13.103640 1.570796 -0.000000 1.570752
1 17.096664 -2.899001 -0.000000 -0.000000 -0.000000 0.411835
2 -0.828985 1.759263 -0.000000 -0.000000 0.000000 -0.606897
3 12.145591 6.959348 -0.000000 -0.000000 -0.000000 0.624996
4 0.016275 4.251184 0.146113 -0.000000 -0.000000 -0.000000
5 -1.054259 6.513182 -0.146113 -0.000000 -0.000000 0.169942
6 20.769485 -1.339334 -0.147712 -0.000000 -0.000000 -0.000000
7 2.072233 0.015831 -0.032509 -0.000000 -0.000000 -0.000000
8 -39.635696 -1.332722 -0.150054 -0.000000 -0.000000 -0.000000
9 -1.584118 0.008789 -0.032200 -0.000000 -0.000000 -0.000000
time 19
0 -0.018280 -7.632905 13.103640 1.570796 -0.000000 1.570752
1 17.096664 -2.899001 -0.000000 -0.000000 -0.000000 0.411877
2 -0.828985 1.759263 -0.000000 -0.000000 0.000000 -0.607224
3 12.145591 6.959348 -0.000000 -0.000000 -0.000000 0.624875
4 0.016275 4.251184 0.146113 -0.000000 -0.000000 -0.000000
5 -1.054259 6.513182 -0.146113 -0.000000 -0.000000 0.168300
6 20.769485 -1.339334 -0.147712 -0.000000 -0.000000 -0.000000
7 2.072233 0.015831 -0.032509 -0.000000 -0.000000 -0.000000
8 -39.635696 -1.332722 -0.150054 -0.000000 -0.000000 -0.000000
9 -1.584118 0.008789 -0.032200 -0.000000 -0.000000 -0.000000
end
