version 1
nodes
  0 "Dummy01" -1
  1 "Dummy07" 0
  2 "Dummy05" 0
  3 "hor_1" 2
  4 "hor_2" 3
  5 "verticle" 4
  6 "Dummy06" 5
  7 "Muzzle_back" 6
  8 "Dummy04" 5
  9 "Muzzle" 8
end
skeleton
time 0
0 -0.018280 -7.632905 13.103640 1.570796 -0.000000 1.570752
1 17.096664 -2.899001 -0.000000 -0.000000 -0.000000 0.411891
2 -0.828985 1.759263 -0.000000 -0.000000 0.000000 -0.607359
3 12.145591 6.959349 0.000000 -0.000000 -0.000000 0.624814
4 0.016275 4.251184 0.146113 -0.000000 -0.000000 -0.000000
5 -1.054260 6.513186 -0.146113 -0.000000 0.000000 0.167545
6 20.769487 -1.339334 -0.147712 -0.000000 -0.000000 -0.000000
7 2.072232 0.015830 -0.032509 -0.000000 -0.000000 -0.000000
8 -39.635696 -1.332720 -0.150054 -0.000000 -0.000000 -0.000000
9 -1.584117 0.008790 -0.032200 -0.000000 -0.000000 -0.000000
time 1
0 -0.018280 -7.632905 13.103640 1.570796 -0.000000 1.570752
1 17.096664 -2.899001 -0.000000 -0.000000 -0.000000 0.411891
2 -0.828985 1.759263 -0.000000 -0.000000 0.000000 -0.607359
3 12.145591 6.959349 0.000000 -0.000000 -0.000000 0.624814
4 0.016275 4.251184 0.146113 -0.000000 -0.000000 -0.000000
5 -1.054260 6.513186 -0.146113 -0.000000 0.000000 0.167545
6 20.769487 -1.339334 -0.147712 -0.000000 -0.000000 -0.000000
7 2.072232 0.015830 -0.032509 -0.000000 -0.000000 -0.000000
8 -39.635696 -1.332720 -0.150054 -0.000000 -0.000000 -0.000000
9 -1.584117 0.008790 -0.032200 -0.000000 -0.000000 -0.000000
time 2
0 -0.018280 -7.632905 13.103640 1.570796 -0.000000 1.570752
1 17.096664 -2.899001 -0.000000 -0.000000 -0.000000 0.411891
2 -0.828985 1.759263 -0.000000 -0.000000 0.000000 -0.607359
3 12.145591 6.959349 0.000000 -0.000000 -0.000000 0.624814
4 0.016275 4.251184 0.146113 -0.000000 -0.000000 -0.000000
5 -1.054260 6.513186 -0.146113 -0.000000 0.000000 0.167545
6 20.769487 -1.339334 -0.147712 -0.000000 -0.000000 -0.000000
7 2.072232 0.015830 -0.032509 -0.000000 -0.000000 -0.000000
8 -39.635696 -1.332720 -0.150054 -0.000000 -0.000000 -0.000000
9 -1.584117 0.008790 -0.032200 -0.000000 -0.000000 -0.000000
time 3
0 -0.018280 -7.632905 13.103640 1.570796 -0.000000 1.570752
1 17.096664 -2.899001 -0.000000 -0.000000 -0.000000 0.411891
2 -0.828985 1.759263 -0.000000 -0.000000 0.000000 -0.607359
3 12.145591 6.959349 0.000000 -0.000000 -0.000000 0.624814
4 0.016275 4.251184 0.146113 -0.000000 -0.000000 -0.000000
5 -1.054260 6.513186 -0.146113 -0.000000 0.000000 0.167545
6 20.769487 -1.339334 -0.147712 -0.000000 -0.000000 -0.000000
7 2.072232 0.015830 -0.032509 -0.000000 -0.000000 -0.000000
8 -39.635696 -1.332720 -0.150054 -0.000000 -0.000000 -0.000000
9 -1.584117 0.008790 -0.032200 -0.000000 -0.000000 -0.000000
time 4
0 -0.018280 -7.632905 13.103640 1.570796 -0.000000 1.570752
1 17.096664 -2.899001 -0.000000 -0.000000 -0.000000 0.411891
2 -0.828985 1.759263 -0.000000 -0.000000 0.000000 -0.607359
3 12.145591 6.959349 0.000000 -0.000000 -0.000000 0.624814
4 0.016275 4.251184 0.146113 -0.000000 -0.000000 -0.000000
5 -1.054260 6.513186 -0.146113 -0.000000 0.000000 0.167545
6 20.769487 -1.339334 -0.147712 -0.000000 -0.000000 -0.000000
7 2.072232 0.015830 -0.032509 -0.000000 -0.000000 -0.000000
8 -39.635696 -1.332720 -0.150054 -0.000000 -0.000000 -0.000000
9 -1.584117 0.008790 -0.032200 -0.000000 -0.000000 -0.000000
time 5
0 -0.018280 -7.632905 13.103640 1.570796 -0.000000 1.570752
1 17.096664 -2.899001 -0.000000 -0.000000 -0.000000 0.411891
2 -0.828985 1.759263 -0.000000 -0.000000 0.000000 -0.607359
3 12.145591 6.959349 0.000000 -0.000000 -0.000000 0.624814
4 0.016275 4.251184 0.146113 -0.000000 -0.000000 -0.000000
5 -1.054260 6.513186 -0.146113 -0.000000 0.000000 0.167545
6 20.769487 -1.339334 -0.147712 -0.000000 -0.000000 -0.000000
7 2.072232 0.015830 -0.032509 -0.000000 -0.000000 -0.000000
8 -39.635696 -1.332720 -0.150054 -0.000000 -0.000000 -0.000000
9 -1.584117 0.008790 -0.032200 -0.000000 -0.000000 -0.000000
time 6
0 -0.018280 -7.632905 13.103640 1.570796 -0.000000 1.570752
1 17.096664 -2.899001 -0.000000 -0.000000 -0.000000 0.411891
2 -0.828985 1.759263 -0.000000 -0.000000 0.000000 -0.607359
3 12.145591 6.959349 0.000000 -0.000000 -0.000000 0.624814
4 0.016275 4.251184 0.146113 -0.000000 -0.000000 -0.000000
5 -1.054260 6.513186 -0.146113 -0.000000 0.000000 0.167545
6 20.769487 -1.339334 -0.147712 -0.000000 -0.000000 -0.000000
7 2.072232 0.015830 -0.032509 -0.000000 -0.000000 -0.000000
8 -39.635696 -1.332720 -0.150054 -0.000000 -0.000000 -0.000000
9 -1.584117 0.008790 -0.032200 -0.000000 -0.000000 -0.000000
time 7
0 -0.018280 -7.632905 13.103640 1.570796 -0.000000 1.570752
1 17.096664 -2.899001 -0.000000 -0.000000 -0.000000 0.411891
2 -0.828985 1.759263 -0.000000 -0.000000 0.000000 -0.607359
3 12.145591 6.959349 0.000000 -0.000000 -0.000000 0.624814
4 0.016275 4.251184 0.146113 -0.000000 -0.000000 -0.000000
5 -1.054260 6.513186 -0.146113 -0.000000 0.000000 0.167545
6 20.769487 -1.339334 -0.147712 -0.000000 -0.000000 -0.000000
7 2.072232 0.015830 -0.032509 -0.000000 -0.000000 -0.000000
8 -39.635696 -1.332720 -0.150054 -0.000000 -0.000000 -0.000000
9 -1.584117 0.008790 -0.032200 -0.000000 -0.000000 -0.000000
time 8
0 -0.018280 -7.632905 13.103640 1.570796 -0.000000 1.570752
1 17.096664 -2.899001 -0.000000 -0.000000 -0.000000 0.411891
2 -0.828985 1.759263 -0.000000 -0.000000 0.000000 -0.607359
3 12.145591 6.959349 0.000000 -0.000000 -0.000000 0.624814
4 0.016275 4.251184 0.146113 -0.000000 -0.000000 -0.000000
5 -1.054260 6.513186 -0.146113 -0.000000 0.000000 0.167545
6 20.769487 -1.339334 -0.147712 -0.000000 -0.000000 -0.000000
7 2.072232 0.015830 -0.032509 -0.000000 -0.000000 -0.000000
8 -39.635696 -1.332720 -0.150054 -0.000000 -0.000000 -0.000000
9 -1.584117 0.008790 -0.032200 -0.000000 -0.000000 -0.000000
time 9
0 -0.018280 -7.632905 13.103640 1.570796 -0.000000 1.570752
1 17.096664 -2.899001 -0.000000 -0.000000 -0.000000 0.411891
2 -0.828985 1.759263 -0.000000 -0.000000 0.000000 -0.607359
3 12.145591 6.959349 0.000000 -0.000000 -0.000000 0.624814
4 0.016275 4.251184 0.146113 -0.000000 -0.000000 -0.000000
5 -1.054260 6.513186 -0.146113 -0.000000 0.000000 0.167545
6 20.769487 -1.339334 -0.147712 -0.000000 -0.000000 -0.000000
7 2.072232 0.015830 -0.032509 -0.000000 -0.000000 -0.000000
8 -39.635696 -1.332720 -0.150054 -0.000000 -0.000000 -0.000000
9 -1.584117 0.008790 -0.032200 -0.000000 -0.000000 -0.000000
time 10
0 -0.018280 -7.632905 13.103640 1.570796 -0.000000 1.570752
1 17.096664 -2.899001 -0.000000 -0.000000 -0.000000 0.411891
2 -0.828985 1.759263 -0.000000 -0.000000 0.000000 -0.607359
3 12.145591 6.959349 0.000000 -0.000000 -0.000000 0.624814
4 0.016275 4.251184 0.146113 -0.000000 -0.000000 -0.000000
5 -1.054260 6.513186 -0.146113 -0.000000 0.000000 0.167545
6 20.769487 -1.339334 -0.147712 -0.000000 -0.000000 -0.000000
7 2.072232 0.015830 -0.032509 -0.000000 -0.000000 -0.000000
8 -39.635696 -1.332720 -0.150054 -0.000000 -0.000000 -0.000000
9 -1.584117 0.008790 -0.032200 -0.000000 -0.000000 -0.000000
time 11
0 -0.018280 -7.632905 13.103640 1.570796 -0.000000 1.570752
1 17.096664 -2.899001 -0.000000 -0.000000 -0.000000 0.411891
2 -0.828985 1.759263 -0.000000 -0.000000 0.000000 -0.607359
3 12.145591 6.959349 0.000000 -0.000000 -0.000000 0.624814
4 0.016275 4.251184 0.146113 -0.000000 -0.000000 -0.000000
5 -1.054260 6.513186 -0.146113 -0.000000 0.000000 0.167545
6 20.769487 -1.339334 -0.147712 -0.000000 -0.000000 -0.000000
7 2.072232 0.015830 -0.032509 -0.000000 -0.000000 -0.000000
8 -39.635696 -1.332720 -0.150054 -0.000000 -0.000000 -0.000000
9 -1.584117 0.008790 -0.032200 -0.000000 -0.000000 -0.000000
time 12
0 -0.018280 -7.632905 13.103640 1.570796 -0.000000 1.570752
1 17.096664 -2.899001 -0.000000 -0.000000 -0.000000 0.411891
2 -0.828985 1.759263 -0.000000 -0.000000 0.000000 -0.607359
3 12.145591 6.959349 0.000000 -0.000000 -0.000000 0.624814
4 0.016275 4.251184 0.146113 -0.000000 -0.000000 -0.000000
5 -1.054260 6.513186 -0.146113 -0.000000 0.000000 0.167545
6 20.769487 -1.339334 -0.147712 -0.000000 -0.000000 -0.000000
7 2.072232 0.015830 -0.032509 -0.000000 -0.000000 -0.000000
8 -39.635696 -1.332720 -0.150054 -0.000000 -0.000000 -0.000000
9 -1.584117 0.008790 -0.032200 -0.000000 -0.000000 -0.000000
time 13
0 -0.018280 -7.632905 13.103640 1.570796 -0.000000 1.570752
1 17.096664 -2.899001 -0.000000 -0.000000 -0.000000 0.411891
2 -0.828985 1.759263 -0.000000 -0.000000 0.000000 -0.607359
3 12.145591 6.959349 0.000000 -0.000000 -0.000000 0.624814
4 0.016275 4.251184 0.146113 -0.000000 -0.000000 -0.000000
5 -1.054260 6.513186 -0.146113 -0.000000 0.000000 0.167545
6 20.769487 -1.339334 -0.147712 -0.000000 -0.000000 -0.000000
7 2.072232 0.015830 -0.032509 -0.000000 -0.000000 -0.000000
8 -39.635696 -1.332720 -0.150054 -0.000000 -0.000000 -0.000000
9 -1.584117 0.008790 -0.032200 -0.000000 -0.000000 -0.000000
time 14
0 -0.018280 -7.632905 13.103640 1.570796 -0.000000 1.570752
1 17.096664 -2.899001 -0.000000 -0.000000 -0.000000 0.411891
2 -0.828985 1.759263 -0.000000 -0.000000 0.000000 -0.607359
3 12.145591 6.959349 0.000000 -0.000000 -0.000000 0.624814
4 0.016275 4.251184 0.146113 -0.000000 -0.000000 -0.000000
5 -1.054260 6.513186 -0.146113 -0.000000 0.000000 0.167545
6 20.769487 -1.339334 -0.147712 -0.000000 -0.000000 -0.000000
7 2.072232 0.015830 -0.032509 -0.000000 -0.000000 -0.000000
8 -39.635696 -1.332720 -0.150054 -0.000000 -0.000000 -0.000000
9 -1.584117 0.008790 -0.032200 -0.000000 -0.000000 -0.000000
time 15
0 -0.018280 -7.632905 13.103640 1.570796 -0.000000 1.570752
1 17.096664 -2.899001 -0.000000 -0.000000 -0.000000 0.411891
2 -0.828985 1.759263 -0.000000 -0.000000 0.000000 -0.607359
3 12.145591 6.959349 0.000000 -0.000000 -0.000000 0.624814
4 0.016275 4.251184 0.146113 -0.000000 -0.000000 -0.000000
5 -1.054260 6.513186 -0.146113 -0.000000 0.000000 0.167545
6 20.769487 -1.339334 -0.147712 -0.000000 -0.000000 -0.000000
7 2.072232 0.015830 -0.032509 -0.000000 -0.000000 -0.000000
8 -39.635696 -1.332720 -0.150054 -0.000000 -0.000000 -0.000000
9 -1.584117 0.008790 -0.032200 -0.000000 -0.000000 -0.000000
time 16
0 -0.018280 -7.632905 13.103640 1.570796 -0.000000 1.570752
1 17.096664 -2.899001 -0.000000 -0.000000 -0.000000 0.411891
2 -0.828985 1.759263 -0.000000 -0.000000 0.000000 -0.607359
3 12.145591 6.959349 0.000000 -0.000000 -0.000000 0.624814
4 0.016275 4.251184 0.146113 -0.000000 -0.000000 -0.000000
5 -1.054260 6.513186 -0.146113 -0.000000 0.000000 0.167545
6 20.769487 -1.339334 -0.147712 -0.000000 -0.000000 -0.000000
7 2.072232 0.015830 -0.032509 -0.000000 -0.000000 -0.000000
8 -39.635696 -1.332720 -0.150054 -0.000000 -0.000000 -0.000000
9 -1.584117 0.008790 -0.032200 -0.000000 -0.000000 -0.000000
time 17
0 -0.018280 -7.632905 13.103640 1.570796 -0.000000 1.570752
1 17.096664 -2.899001 -0.000000 -0.000000 -0.000000 0.411891
2 -0.828985 1.759263 -0.000000 -0.000000 0.000000 -0.607359
3 12.145591 6.959349 0.000000 -0.000000 -0.000000 0.624814
4 0.016275 4.251184 0.146113 -0.000000 -0.000000 -0.000000
5 -1.054260 6.513186 -0.146113 -0.000000 0.000000 0.167545
6 20.769487 -1.339334 -0.147712 -0.000000 -0.000000 -0.000000
7 2.072232 0.015830 -0.032509 -0.000000 -0.000000 -0.000000
8 -39.635696 -1.332720 -0.150054 -0.000000 -0.000000 -0.000000
9 -1.584117 0.008790 -0.032200 -0.000000 -0.000000 -0.000000
time 18
0 -0.018280 -7.632905 13.103640 1.570796 -0.000000 1.570752
1 17.096664 -2.899001 -0.000000 -0.000000 -0.000000 0.411891
2 -0.828985 1.759263 -0.000000 -0.000000 0.000000 -0.607359
3 12.145591 6.959349 0.000000 -0.000000 -0.000000 0.624814
4 0.016275 4.251184 0.146113 -0.000000 -0.000000 -0.000000
5 -1.054260 6.513186 -0.146113 -0.000000 0.000000 0.167545
6 20.769487 -1.339334 -0.147712 -0.000000 -0.000000 -0.000000
7 2.072232 0.015830 -0.032509 -0.000000 -0.000000 -0.000000
8 -39.635696 -1.332720 -0.150054 -0.000000 -0.000000 -0.000000
9 -1.584117 0.008790 -0.032200 -0.000000 -0.000000 -0.000000
time 19
0 -0.018280 -7.632905 13.103640 1.570796 -0.000000 1.570752
1 17.096664 -2.899001 -0.000000 -0.000000 -0.000000 0.411891
2 -0.828985 1.759263 -0.000000 -0.000000 0.000000 -0.607359
3 12.145591 6.959349 0.000000 -0.000000 -0.000000 0.624814
4 0.016275 4.251184 0.146113 -0.000000 -0.000000 -0.000000
5 -1.054260 6.513186 -0.146113 -0.000000 0.000000 0.167545
6 20.769487 -1.339334 -0.147712 -0.000000 -0.000000 -0.000000
7 2.072232 0.015830 -0.032509 -0.000000 -0.000000 -0.000000
8 -39.635696 -1.332720 -0.150054 -0.000000 -0.000000 -0.000000
9 -1.584117 0.008790 -0.032200 -0.000000 -0.000000 -0.000000
time 20
0 -0.018280 -7.632905 13.103640 1.570796 -0.000000 1.570752
1 17.096664 -2.899001 -0.000000 -0.000000 -0.000000 0.411891
2 -0.828985 1.759263 -0.000000 -0.000000 0.000000 -0.607359
3 12.145591 6.959349 0.000000 -0.000000 -0.000000 0.624814
4 0.016275 4.251184 0.146113 -0.000000 -0.000000 -0.000000
5 -1.054260 6.513186 -0.146113 -0.000000 0.000000 0.167545
6 20.769487 -1.339334 -0.147712 -0.000000 -0.000000 -0.000000
7 2.072232 0.015830 -0.032509 -0.000000 -0.000000 -0.000000
8 -39.635696 -1.332720 -0.150054 -0.000000 -0.000000 -0.000000
9 -1.584117 0.008790 -0.032200 -0.000000 -0.000000 -0.000000
time 21
0 -0.018280 -7.632905 13.103640 1.570796 -0.000000 1.570752
1 17.096664 -2.899001 -0.000000 -0.000000 -0.000000 0.411891
2 -0.828985 1.759263 -0.000000 -0.000000 0.000000 -0.607359
3 12.145591 6.959349 0.000000 -0.000000 -0.000000 0.624814
4 0.016275 4.251184 0.146113 -0.000000 -0.000000 -0.000000
5 -1.054260 6.513186 -0.146113 -0.000000 0.000000 0.167545
6 20.769487 -1.339334 -0.147712 -0.000000 -0.000000 -0.000000
7 2.072232 0.015830 -0.032509 -0.000000 -0.000000 -0.000000
8 -39.635696 -1.332720 -0.150054 -0.000000 -0.000000 -0.000000
9 -1.584117 0.008790 -0.032200 -0.000000 -0.000000 -0.000000
time 22
0 -0.018280 -7.632905 13.103640 1.570796 -0.000000 1.570752
1 17.096664 -2.899001 -0.000000 -0.000000 -0.000000 0.411891
2 -0.828985 1.759263 -0.000000 -0.000000 0.000000 -0.607359
3 12.145591 6.959349 0.000000 -0.000000 -0.000000 0.624814
4 0.016275 4.251184 0.146113 -0.000000 -0.000000 -0.000000
5 -1.054260 6.513186 -0.146113 -0.000000 0.000000 0.167545
6 20.769487 -1.339334 -0.147712 -0.000000 -0.000000 -0.000000
7 2.072232 0.015830 -0.032509 -0.000000 -0.000000 -0.000000
8 -39.635696 -1.332720 -0.150054 -0.000000 -0.000000 -0.000000
9 -1.584117 0.008790 -0.032200 -0.000000 -0.000000 -0.000000
time 23
0 -0.018280 -7.632905 13.103640 1.570796 -0.000000 1.570752
1 17.096664 -2.899001 -0.000000 -0.000000 -0.000000 0.411891
2 -0.828985 1.759263 -0.000000 -0.000000 0.000000 -0.607359
3 12.145591 6.959349 0.000000 -0.000000 -0.000000 0.624814
4 0.016275 4.251184 0.146113 -0.000000 -0.000000 -0.000000
5 -1.054260 6.513186 -0.146113 -0.000000 0.000000 0.167545
6 20.769487 -1.339334 -0.147712 -0.000000 -0.000000 -0.000000
7 2.072232 0.015830 -0.032509 -0.000000 -0.000000 -0.000000
8 -39.635696 -1.332720 -0.150054 -0.000000 -0.000000 -0.000000
9 -1.584117 0.008790 -0.032200 -0.000000 -0.000000 -0.000000
time 24
0 -0.018280 -7.632905 13.103640 1.570796 -0.000000 1.570752
1 17.096664 -2.899001 -0.000000 -0.000000 -0.000000 0.411891
2 -0.828985 1.759263 -0.000000 -0.000000 0.000000 -0.607359
3 12.145591 6.959349 0.000000 -0.000000 -0.000000 0.624814
4 0.016275 4.251184 0.146113 -0.000000 -0.000000 -0.000000
5 -1.054260 6.513186 -0.146113 -0.000000 0.000000 0.167545
6 20.769487 -1.339334 -0.147712 -0.000000 -0.000000 -0.000000
7 2.072232 0.015830 -0.032509 -0.000000 -0.000000 -0.000000
8 -39.635696 -1.332720 -0.150054 -0.000000 -0.000000 -0.000000
9 -1.584117 0.008790 -0.032200 -0.000000 -0.000000 -0.000000
time 25
0 -0.018280 -7.632905 13.103640 1.570796 -0.000000 1.570752
1 17.096664 -2.899001 -0.000000 -0.000000 -0.000000 0.411891
2 -0.828985 1.759263 -0.000000 -0.000000 0.000000 -0.607359
3 12.145591 6.959349 0.000000 -0.000000 -0.000000 0.624814
4 0.016275 4.251184 0.146113 -0.000000 -0.000000 -0.000000
5 -1.054260 6.513186 -0.146113 -0.000000 0.000000 0.167545
6 20.769487 -1.339334 -0.147712 -0.000000 -0.000000 -0.000000
7 2.072232 0.015830 -0.032509 -0.000000 -0.000000 -0.000000
8 -39.635696 -1.332720 -0.150054 -0.000000 -0.000000 -0.000000
9 -1.584117 0.008790 -0.032200 -0.000000 -0.000000 -0.000000
time 26
0 -0.018280 -7.632905 13.103640 1.570796 -0.000000 1.570752
1 17.096664 -2.899001 -0.000000 -0.000000 -0.000000 0.411891
2 -0.828985 1.759263 -0.000000 -0.000000 0.000000 -0.607359
3 12.145591 6.959349 0.000000 -0.000000 -0.000000 0.624814
4 0.016275 4.251184 0.146113 -0.000000 -0.000000 -0.000000
5 -1.054260 6.513186 -0.146113 -0.000000 0.000000 0.167545
6 20.769487 -1.339334 -0.147712 -0.000000 -0.000000 -0.000000
7 2.072232 0.015830 -0.032509 -0.000000 -0.000000 -0.000000
8 -39.635696 -1.332720 -0.150054 -0.000000 -0.000000 -0.000000
9 -1.584117 0.008790 -0.032200 -0.000000 -0.000000 -0.000000
time 27
0 -0.018280 -7.632905 13.103640 1.570796 -0.000000 1.570752
1 17.096664 -2.899001 -0.000000 -0.000000 -0.000000 0.411891
2 -0.828985 1.759263 -0.000000 -0.000000 0.000000 -0.607359
3 12.145591 6.959349 0.000000 -0.000000 -0.000000 0.624814
4 0.016275 4.251184 0.146113 -0.000000 -0.000000 -0.000000
5 -1.054260 6.513186 -0.146113 -0.000000 0.000000 0.167545
6 20.769487 -1.339334 -0.147712 -0.000000 -0.000000 -0.000000
7 2.072232 0.015830 -0.032509 -0.000000 -0.000000 -0.000000
8 -39.635696 -1.332720 -0.150054 -0.000000 -0.000000 -0.000000
9 -1.584117 0.008790 -0.032200 -0.000000 -0.000000 -0.000000
time 28
0 -0.018280 -7.632905 13.103640 1.570796 -0.000000 1.570752
1 17.096664 -2.899001 -0.000000 -0.000000 -0.000000 0.411891
2 -0.828985 1.759263 -0.000000 -0.000000 0.000000 -0.607359
3 12.145591 6.959349 0.000000 -0.000000 -0.000000 0.624814
4 0.016275 4.251184 0.146113 -0.000000 -0.000000 -0.000000
5 -1.054260 6.513186 -0.146113 -0.000000 0.000000 0.167545
6 20.769487 -1.339334 -0.147712 -0.000000 -0.000000 -0.000000
7 2.072232 0.015830 -0.032509 -0.000000 -0.000000 -0.000000
8 -39.635696 -1.332720 -0.150054 -0.000000 -0.000000 -0.000000
9 -1.584117 0.008790 -0.032200 -0.000000 -0.000000 -0.000000
time 29
0 -0.018280 -7.632905 13.103640 1.570796 -0.000000 1.570752
1 17.096664 -2.899001 -0.000000 -0.000000 -0.000000 0.411891
2 -0.828985 1.759263 -0.000000 -0.000000 0.000000 -0.607359
3 12.145591 6.959349 0.000000 -0.000000 -0.000000 0.624814
4 0.016275 4.251184 0.146113 -0.000000 -0.000000 -0.000000
5 -1.054260 6.513186 -0.146113 -0.000000 0.000000 0.167545
6 20.769487 -1.339334 -0.147712 -0.000000 -0.000000 -0.000000
7 2.072232 0.015830 -0.032509 -0.000000 -0.000000 -0.000000
8 -39.635696 -1.332720 -0.150054 -0.000000 -0.000000 -0.000000
9 -1.584117 0.008790 -0.032200 -0.000000 -0.000000 -0.000000
time 30
0 -0.018280 -7.632905 13.103640 1.570796 -0.000000 1.570752
1 17.096664 -2.899001 -0.000000 -0.000000 -0.000000 0.411891
2 -0.828985 1.759263 -0.000000 -0.000000 0.000000 -0.607359
3 12.145591 6.959349 0.000000 -0.000000 -0.000000 0.624814
4 0.016275 4.251184 0.146113 -0.000000 -0.000000 -0.000000
5 -1.054260 6.513186 -0.146113 -0.000000 0.000000 0.167545
6 20.769487 -1.339334 -0.147712 -0.000000 -0.000000 -0.000000
7 2.072232 0.015830 -0.032509 -0.000000 -0.000000 -0.000000
8 -39.635696 -1.332720 -0.150054 -0.000000 -0.000000 -0.000000
9 -1.584117 0.008790 -0.032200 -0.000000 -0.000000 -0.000000
time 31
0 -0.018280 -7.632905 13.103640 1.570796 -0.000000 1.570752
1 17.096664 -2.899001 -0.000000 -0.000000 -0.000000 0.411891
2 -0.828985 1.759263 -0.000000 -0.000000 0.000000 -0.607359
3 12.145591 6.959349 0.000000 -0.000000 -0.000000 0.624814
4 0.016275 4.251184 0.146113 -0.000000 -0.000000 -0.000000
5 -1.054260 6.513186 -0.146113 -0.000000 0.000000 0.167545
6 20.769487 -1.339334 -0.147712 -0.000000 -0.000000 -0.000000
7 2.072232 0.015830 -0.032509 -0.000000 -0.000000 -0.000000
8 -39.635696 -1.332720 -0.150054 -0.000000 -0.000000 -0.000000
9 -1.584117 0.008790 -0.032200 -0.000000 -0.000000 -0.000000
time 32
0 -0.018280 -7.632905 13.103640 1.570796 -0.000000 1.570752
1 17.096664 -2.899001 -0.000000 -0.000000 -0.000000 0.411891
2 -0.828985 1.759263 -0.000000 -0.000000 0.000000 -0.607359
3 12.145591 6.959349 0.000000 -0.000000 -0.000000 0.624814
4 0.016275 4.251184 0.146113 -0.000000 -0.000000 -0.000000
5 -1.054260 6.513186 -0.146113 -0.000000 0.000000 0.167545
6 20.769487 -1.339334 -0.147712 -0.000000 -0.000000 -0.000000
7 2.072232 0.015830 -0.032509 -0.000000 -0.000000 -0.000000
8 -39.635696 -1.332720 -0.150054 -0.000000 -0.000000 -0.000000
9 -1.584117 0.008790 -0.032200 -0.000000 -0.000000 -0.000000
time 33
0 -0.018280 -7.632905 13.103640 1.570796 -0.000000 1.570752
1 17.096664 -2.899001 -0.000000 -0.000000 -0.000000 0.411891
2 -0.828985 1.759263 -0.000000 -0.000000 0.000000 -0.607359
3 12.145591 6.959349 0.000000 -0.000000 -0.000000 0.624814
4 0.016275 4.251184 0.146113 -0.000000 -0.000000 -0.000000
5 -1.054260 6.513186 -0.146113 -0.000000 0.000000 0.167545
6 20.769487 -1.339334 -0.147712 -0.000000 -0.000000 -0.000000
7 2.072232 0.015830 -0.032509 -0.000000 -0.000000 -0.000000
8 -39.635696 -1.332720 -0.150054 -0.000000 -0.000000 -0.000000
9 -1.584117 0.008790 -0.032200 -0.000000 -0.000000 -0.000000
time 34
0 -0.018280 -7.632905 13.103640 1.570796 -0.000000 1.570752
1 17.096664 -2.899001 -0.000000 -0.000000 -0.000000 0.411891
2 -0.828985 1.759263 -0.000000 -0.000000 0.000000 -0.607359
3 12.145591 6.959349 0.000000 -0.000000 -0.000000 0.624814
4 0.016275 4.251184 0.146113 -0.000000 -0.000000 -0.000000
5 -1.054260 6.513186 -0.146113 -0.000000 0.000000 0.167545
6 20.769487 -1.339334 -0.147712 -0.000000 -0.000000 -0.000000
7 2.072232 0.015830 -0.032509 -0.000000 -0.000000 -0.000000
8 -39.635696 -1.332720 -0.150054 -0.000000 -0.000000 -0.000000
9 -1.584117 0.008790 -0.032200 -0.000000 -0.000000 -0.000000
time 35
0 -0.018280 -7.632905 13.103640 1.570796 -0.000000 1.570752
1 17.096664 -2.899001 -0.000000 -0.000000 -0.000000 0.411891
2 -0.828985 1.759263 -0.000000 -0.000000 0.000000 -0.607359
3 12.145591 6.959349 0.000000 -0.000000 -0.000000 0.624814
4 0.016275 4.251184 0.146113 -0.000000 -0.000000 -0.000000
5 -1.054260 6.513186 -0.146113 -0.000000 0.000000 0.167545
6 20.769487 -1.339334 -0.147712 -0.000000 -0.000000 -0.000000
7 2.072232 0.015830 -0.032509 -0.000000 -0.000000 -0.000000
8 -39.635696 -1.332720 -0.150054 -0.000000 -0.000000 -0.000000
9 -1.584117 0.008790 -0.032200 -0.000000 -0.000000 -0.000000
time 36
0 -0.018280 -7.632905 13.103640 1.570796 -0.000000 1.570752
1 17.096664 -2.899001 -0.000000 -0.000000 -0.000000 0.411891
2 -0.828985 1.759263 -0.000000 -0.000000 0.000000 -0.607359
3 12.145591 6.959349 0.000000 -0.000000 -0.000000 0.624814
4 0.016275 4.251184 0.146113 -0.000000 -0.000000 -0.000000
5 -1.054260 6.513186 -0.146113 -0.000000 0.000000 0.167545
6 20.769487 -1.339334 -0.147712 -0.000000 -0.000000 -0.000000
7 2.072232 0.015830 -0.032509 -0.000000 -0.000000 -0.000000
8 -39.635696 -1.332720 -0.150054 -0.000000 -0.000000 -0.000000
9 -1.584117 0.008790 -0.032200 -0.000000 -0.000000 -0.000000
time 37
0 -0.018280 -7.632905 13.103640 1.570796 -0.000000 1.570752
1 17.096664 -2.899001 -0.000000 -0.000000 -0.000000 0.411891
2 -0.828985 1.759263 -0.000000 -0.000000 0.000000 -0.607359
3 12.145591 6.959349 0.000000 -0.000000 -0.000000 0.624814
4 0.016275 4.251184 0.146113 -0.000000 -0.000000 -0.000000
5 -1.054260 6.513186 -0.146113 -0.000000 0.000000 0.167545
6 20.769487 -1.339334 -0.147712 -0.000000 -0.000000 -0.000000
7 2.072232 0.015830 -0.032509 -0.000000 -0.000000 -0.000000
8 -39.635696 -1.332720 -0.150054 -0.000000 -0.000000 -0.000000
9 -1.584117 0.008790 -0.032200 -0.000000 -0.000000 -0.000000
time 38
0 -0.018280 -7.632905 13.103640 1.570796 -0.000000 1.570752
1 17.096664 -2.899001 -0.000000 -0.000000 -0.000000 0.411891
2 -0.828985 1.759263 -0.000000 -0.000000 0.000000 -0.607359
3 12.145591 6.959349 0.000000 -0.000000 -0.000000 0.624814
4 0.016275 4.251184 0.146113 -0.000000 -0.000000 -0.000000
5 -1.054260 6.513186 -0.146113 -0.000000 0.000000 0.167545
6 20.769487 -1.339334 -0.147712 -0.000000 -0.000000 -0.000000
7 2.072232 0.015830 -0.032509 -0.000000 -0.000000 -0.000000
8 -39.635696 -1.332720 -0.150054 -0.000000 -0.000000 -0.000000
9 -1.584117 0.008790 -0.032200 -0.000000 -0.000000 -0.000000
time 39
0 -0.018280 -7.632905 13.103640 1.570796 -0.000000 1.570752
1 17.096664 -2.899001 -0.000000 -0.000000 -0.000000 0.411891
2 -0.828985 1.759263 -0.000000 -0.000000 0.000000 -0.607359
3 12.145591 6.959349 0.000000 -0.000000 -0.000000 0.624814
4 0.016275 4.251184 0.146113 -0.000000 -0.000000 -0.000000
5 -1.054260 6.513186 -0.146113 -0.000000 0.000000 0.167545
6 20.769487 -1.339334 -0.147712 -0.000000 -0.000000 -0.000000
7 2.072232 0.015830 -0.032509 -0.000000 -0.000000 -0.000000
8 -39.635696 -1.332720 -0.150054 -0.000000 -0.000000 -0.000000
9 -1.584117 0.008790 -0.032200 -0.000000 -0.000000 -0.000000
time 40
0 -0.018280 -7.632905 13.103640 1.570796 -0.000000 1.570752
1 17.096664 -2.899001 -0.000000 -0.000000 -0.000000 0.411891
2 -0.828985 1.759263 -0.000000 -0.000000 0.000000 -0.607359
3 12.145591 6.959349 0.000000 -0.000000 -0.000000 0.624814
4 0.016275 4.251184 0.146113 -0.000000 -0.000000 -0.000000
5 -1.054260 6.513186 -0.146113 -0.000000 0.000000 0.167545
6 20.769487 -1.339334 -0.147712 -0.000000 -0.000000 -0.000000
7 2.072232 0.015830 -0.032509 -0.000000 -0.000000 -0.000000
8 -39.635696 -1.332720 -0.150054 -0.000000 -0.000000 -0.000000
9 -1.584117 0.008790 -0.032200 -0.000000 -0.000000 -0.000000
time 41
0 -0.018280 -7.632905 13.103640 1.570796 -0.000000 1.570752
1 17.096664 -2.899001 -0.000000 -0.000000 -0.000000 0.411891
2 -0.828985 1.759263 -0.000000 -0.000000 0.000000 -0.607359
3 12.145591 6.959349 0.000000 -0.000000 -0.000000 0.624814
4 0.016275 4.251184 0.146113 -0.000000 -0.000000 -0.000000
5 -1.054260 6.513186 -0.146113 -0.000000 0.000000 0.167545
6 20.769487 -1.339334 -0.147712 -0.000000 -0.000000 -0.000000
7 2.072232 0.015830 -0.032509 -0.000000 -0.000000 -0.000000
8 -39.635696 -1.332720 -0.150054 -0.000000 -0.000000 -0.000000
9 -1.584117 0.008790 -0.032200 -0.000000 -0.000000 -0.000000
time 42
0 -0.018280 -7.632905 13.103640 1.570796 -0.000000 1.570752
1 17.096664 -2.899001 -0.000000 -0.000000 -0.000000 0.411891
2 -0.828985 1.759263 -0.000000 -0.000000 0.000000 -0.607359
3 12.145591 6.959349 0.000000 -0.000000 -0.000000 0.624814
4 0.016275 4.251184 0.146113 -0.000000 -0.000000 -0.000000
5 -1.054260 6.513186 -0.146113 -0.000000 0.000000 0.167545
6 20.769487 -1.339334 -0.147712 -0.000000 -0.000000 -0.000000
7 2.072232 0.015830 -0.032509 -0.000000 -0.000000 -0.000000
8 -39.635696 -1.332720 -0.150054 -0.000000 -0.000000 -0.000000
9 -1.584117 0.008790 -0.032200 -0.000000 -0.000000 -0.000000
time 43
0 -0.018280 -7.632905 13.103640 1.570796 -0.000000 1.570752
1 17.096664 -2.899001 -0.000000 -0.000000 -0.000000 0.411891
2 -0.828985 1.759263 -0.000000 -0.000000 0.000000 -0.607359
3 12.145591 6.959349 0.000000 -0.000000 -0.000000 0.624814
4 0.016275 4.251184 0.146113 -0.000000 -0.000000 -0.000000
5 -1.054260 6.513186 -0.146113 -0.000000 0.000000 0.167545
6 20.769487 -1.339334 -0.147712 -0.000000 -0.000000 -0.000000
7 2.072232 0.015830 -0.032509 -0.000000 -0.000000 -0.000000
8 -39.635696 -1.332720 -0.150054 -0.000000 -0.000000 -0.000000
9 -1.584117 0.008790 -0.032200 -0.000000 -0.000000 -0.000000
time 44
0 -0.018280 -7.632905 13.103640 1.570796 -0.000000 1.570752
1 17.096664 -2.899001 -0.000000 -0.000000 -0.000000 0.411891
2 -0.828985 1.759263 -0.000000 -0.000000 0.000000 -0.607359
3 12.145591 6.959349 0.000000 -0.000000 -0.000000 0.624814
4 0.016275 4.251184 0.146113 -0.000000 -0.000000 -0.000000
5 -1.054260 6.513186 -0.146113 -0.000000 0.000000 0.167545
6 20.769487 -1.339334 -0.147712 -0.000000 -0.000000 -0.000000
7 2.072232 0.015830 -0.032509 -0.000000 -0.000000 -0.000000
8 -39.635696 -1.332720 -0.150054 -0.000000 -0.000000 -0.000000
9 -1.584117 0.008790 -0.032200 -0.000000 -0.000000 -0.000000
time 45
0 -0.018280 -7.632905 13.103640 1.570796 -0.000000 1.570752
1 17.096664 -2.899001 -0.000000 -0.000000 -0.000000 0.411891
2 -0.828985 1.759263 -0.000000 -0.000000 0.000000 -0.607359
3 12.145591 6.959349 0.000000 -0.000000 -0.000000 0.624814
4 0.016275 4.251184 0.146113 -0.000000 -0.000000 -0.000000
5 -1.054260 6.513186 -0.146113 -0.000000 0.000000 0.167545
6 20.769487 -1.339334 -0.147712 -0.000000 -0.000000 -0.000000
7 2.072232 0.015830 -0.032509 -0.000000 -0.000000 -0.000000
8 -39.635696 -1.332720 -0.150054 -0.000000 -0.000000 -0.000000
9 -1.584117 0.008790 -0.032200 -0.000000 -0.000000 -0.000000
time 46
0 -0.018280 -7.632905 13.103640 1.570796 -0.000000 1.570752
1 17.096664 -2.899001 -0.000000 -0.000000 -0.000000 0.411891
2 -0.828985 1.759263 -0.000000 -0.000000 0.000000 -0.607359
3 12.145591 6.959349 0.000000 -0.000000 -0.000000 0.624814
4 0.016275 4.251184 0.146113 -0.000000 -0.000000 -0.000000
5 -1.054260 6.513186 -0.146113 -0.000000 0.000000 0.167545
6 20.769487 -1.339334 -0.147712 -0.000000 -0.000000 -0.000000
7 2.072232 0.015830 -0.032509 -0.000000 -0.000000 -0.000000
8 -39.635696 -1.332720 -0.150054 -0.000000 -0.000000 -0.000000
9 -1.584117 0.008790 -0.032200 -0.000000 -0.000000 -0.000000
time 47
0 -0.018280 -7.632905 13.103640 1.570796 -0.000000 1.570752
1 17.096664 -2.899001 -0.000000 -0.000000 -0.000000 0.411891
2 -0.828985 1.759263 -0.000000 -0.000000 0.000000 -0.607359
3 12.145591 6.959349 0.000000 -0.000000 -0.000000 0.624814
4 0.016275 4.251184 0.146113 -0.000000 -0.000000 -0.000000
5 -1.054260 6.513186 -0.146113 -0.000000 0.000000 0.167545
6 20.769487 -1.339334 -0.147712 -0.000000 -0.000000 -0.000000
7 2.072232 0.015830 -0.032509 -0.000000 -0.000000 -0.000000
8 -39.635696 -1.332720 -0.150054 -0.000000 -0.000000 -0.000000
9 -1.584117 0.008790 -0.032200 -0.000000 -0.000000 -0.000000
time 48
0 -0.018280 -7.632905 13.103640 1.570796 -0.000000 1.570752
1 17.096664 -2.899001 -0.000000 -0.000000 -0.000000 0.411891
2 -0.828985 1.759263 -0.000000 -0.000000 0.000000 -0.607359
3 12.145591 6.959349 0.000000 -0.000000 -0.000000 0.624814
4 0.016275 4.251184 0.146113 -0.000000 -0.000000 -0.000000
5 -1.054260 6.513186 -0.146113 -0.000000 0.000000 0.167545
6 20.769487 -1.339334 -0.147712 -0.000000 -0.000000 -0.000000
7 2.072232 0.015830 -0.032509 -0.000000 -0.000000 -0.000000
8 -39.635696 -1.332720 -0.150054 -0.000000 -0.000000 -0.000000
9 -1.584117 0.008790 -0.032200 -0.000000 -0.000000 -0.000000
time 49
0 -0.018280 -7.632905 13.103640 1.570796 -0.000000 1.570752
1 17.096664 -2.899001 -0.000000 -0.000000 -0.000000 0.411891
2 -0.828985 1.759263 -0.000000 -0.000000 0.000000 -0.607359
3 12.145591 6.959349 0.000000 -0.000000 -0.000000 0.624814
4 0.016275 4.251184 0.146113 -0.000000 -0.000000 -0.000000
5 -1.054260 6.513186 -0.146113 -0.000000 0.000000 0.167545
6 20.769487 -1.339334 -0.147712 -0.000000 -0.000000 -0.000000
7 2.072232 0.015830 -0.032509 -0.000000 -0.000000 -0.000000
8 -39.635696 -1.332720 -0.150054 -0.000000 -0.000000 -0.000000
9 -1.584117 0.008790 -0.032200 -0.000000 -0.000000 -0.000000
time 50
0 -0.018280 -7.632905 13.103640 1.570796 -0.000000 1.570752
1 17.096664 -2.899001 -0.000000 -0.000000 -0.000000 0.411891
2 -0.828985 1.759263 -0.000000 -0.000000 0.000000 -0.607359
3 12.145591 6.959349 0.000000 -0.000000 -0.000000 0.624814
4 0.016275 4.251184 0.146113 -0.000000 -0.000000 -0.000000
5 -1.054260 6.513186 -0.146113 -0.000000 0.000000 0.167545
6 20.769487 -1.339334 -0.147712 -0.000000 -0.000000 -0.000000
7 2.072232 0.015830 -0.032509 -0.000000 -0.000000 -0.000000
8 -39.635696 -1.332720 -0.150054 -0.000000 -0.000000 -0.000000
9 -1.584117 0.008790 -0.032200 -0.000000 -0.000000 -0.000000
time 51
0 -0.018280 -7.632905 13.103640 1.570796 -0.000000 1.570752
1 17.096664 -2.899001 -0.000000 -0.000000 -0.000000 0.411891
2 -0.828985 1.759263 -0.000000 -0.000000 0.000000 -0.607359
3 12.145591 6.959349 0.000000 -0.000000 -0.000000 0.624814
4 0.016275 4.251184 0.146113 -0.000000 -0.000000 -0.000000
5 -1.054260 6.513186 -0.146113 -0.000000 0.000000 0.167545
6 20.769487 -1.339334 -0.147712 -0.000000 -0.000000 -0.000000
7 2.072232 0.015830 -0.032509 -0.000000 -0.000000 -0.000000
8 -39.635696 -1.332720 -0.150054 -0.000000 -0.000000 -0.000000
9 -1.584117 0.008790 -0.032200 -0.000000 -0.000000 -0.000000
time 52
0 -0.018280 -7.632905 13.103640 1.570796 -0.000000 1.570752
1 17.096664 -2.899001 -0.000000 -0.000000 -0.000000 0.411891
2 -0.828985 1.759263 -0.000000 -0.000000 0.000000 -0.607359
3 12.145591 6.959349 0.000000 -0.000000 -0.000000 0.624814
4 0.016275 4.251184 0.146113 -0.000000 -0.000000 -0.000000
5 -1.054260 6.513186 -0.146113 -0.000000 0.000000 0.167545
6 20.769487 -1.339334 -0.147712 -0.000000 -0.000000 -0.000000
7 2.072232 0.015830 -0.032509 -0.000000 -0.000000 -0.000000
8 -39.635696 -1.332720 -0.150054 -0.000000 -0.000000 -0.000000
9 -1.584117 0.008790 -0.032200 -0.000000 -0.000000 -0.000000
time 53
0 -0.018280 -7.632905 13.103640 1.570796 -0.000000 1.570752
1 17.096664 -2.899001 -0.000000 -0.000000 -0.000000 0.411891
2 -0.828985 1.759263 -0.000000 -0.000000 0.000000 -0.607359
3 12.145591 6.959349 0.000000 -0.000000 -0.000000 0.624814
4 0.016275 4.251184 0.146113 -0.000000 -0.000000 -0.000000
5 -1.054260 6.513186 -0.146113 -0.000000 0.000000 0.167545
6 20.769487 -1.339334 -0.147712 -0.000000 -0.000000 -0.000000
7 2.072232 0.015830 -0.032509 -0.000000 -0.000000 -0.000000
8 -39.635696 -1.332720 -0.150054 -0.000000 -0.000000 -0.000000
9 -1.584117 0.008790 -0.032200 -0.000000 -0.000000 -0.000000
time 54
0 -0.018280 -7.632905 13.103640 1.570796 -0.000000 1.570752
1 17.096664 -2.899001 -0.000000 -0.000000 -0.000000 0.411891
2 -0.828985 1.759263 -0.000000 -0.000000 0.000000 -0.607359
3 12.145591 6.959349 0.000000 -0.000000 -0.000000 0.624814
4 0.016275 4.251184 0.146113 -0.000000 -0.000000 -0.000000
5 -1.054260 6.513186 -0.146113 -0.000000 0.000000 0.167545
6 20.769487 -1.339334 -0.147712 -0.000000 -0.000000 -0.000000
7 2.072232 0.015830 -0.032509 -0.000000 -0.000000 -0.000000
8 -39.635696 -1.332720 -0.150054 -0.000000 -0.000000 -0.000000
9 -1.584117 0.008790 -0.032200 -0.000000 -0.000000 -0.000000
time 55
0 -0.018280 -7.632905 13.103640 1.570796 -0.000000 1.570752
1 17.096664 -2.899001 -0.000000 -0.000000 -0.000000 0.411891
2 -0.828985 1.759263 -0.000000 -0.000000 0.000000 -0.607359
3 12.145591 6.959349 0.000000 -0.000000 -0.000000 0.624814
4 0.016275 4.251184 0.146113 -0.000000 -0.000000 -0.000000
5 -1.054260 6.513186 -0.146113 -0.000000 0.000000 0.167545
6 20.769487 -1.339334 -0.147712 -0.000000 -0.000000 -0.000000
7 2.072232 0.015830 -0.032509 -0.000000 -0.000000 -0.000000
8 -39.635696 -1.332720 -0.150054 -0.000000 -0.000000 -0.000000
9 -1.584117 0.008790 -0.032200 -0.000000 -0.000000 -0.000000
time 56
0 -0.018280 -7.632905 13.103640 1.570796 -0.000000 1.570752
1 17.096664 -2.899001 -0.000000 -0.000000 -0.000000 0.411891
2 -0.828985 1.759263 -0.000000 -0.000000 0.000000 -0.607359
3 12.145591 6.959349 0.000000 -0.000000 -0.000000 0.624814
4 0.016275 4.251184 0.146113 -0.000000 -0.000000 -0.000000
5 -1.054260 6.513186 -0.146113 -0.000000 0.000000 0.167545
6 20.769487 -1.339334 -0.147712 -0.000000 -0.000000 -0.000000
7 2.072232 0.015830 -0.032509 -0.000000 -0.000000 -0.000000
8 -39.635696 -1.332720 -0.150054 -0.000000 -0.000000 -0.000000
9 -1.584117 0.008790 -0.032200 -0.000000 -0.000000 -0.000000
time 57
0 -0.018280 -7.632905 13.103640 1.570796 -0.000000 1.570752
1 17.096664 -2.899001 -0.000000 -0.000000 -0.000000 0.411891
2 -0.828985 1.759263 -0.000000 -0.000000 0.000000 -0.607359
3 12.145591 6.959349 0.000000 -0.000000 -0.000000 0.624814
4 0.016275 4.251184 0.146113 -0.000000 -0.000000 -0.000000
5 -1.054260 6.513186 -0.146113 -0.000000 0.000000 0.167545
6 20.769487 -1.339334 -0.147712 -0.000000 -0.000000 -0.000000
7 2.072232 0.015830 -0.032509 -0.000000 -0.000000 -0.000000
8 -39.635696 -1.332720 -0.150054 -0.000000 -0.000000 -0.000000
9 -1.584117 0.008790 -0.032200 -0.000000 -0.000000 -0.000000
time 58
0 -0.018280 -7.632905 13.103640 1.570796 -0.000000 1.570752
1 17.096664 -2.899001 -0.000000 -0.000000 -0.000000 0.411891
2 -0.828985 1.759263 -0.000000 -0.000000 0.000000 -0.607359
3 12.145591 6.959349 0.000000 -0.000000 -0.000000 0.624814
4 0.016275 4.251184 0.146113 -0.000000 -0.000000 -0.000000
5 -1.054260 6.513186 -0.146113 -0.000000 0.000000 0.167545
6 20.769487 -1.339334 -0.147712 -0.000000 -0.000000 -0.000000
7 2.072232 0.015830 -0.032509 -0.000000 -0.000000 -0.000000
8 -39.635696 -1.332720 -0.150054 -0.000000 -0.000000 -0.000000
9 -1.584117 0.008790 -0.032200 -0.000000 -0.000000 -0.000000
time 59
0 -0.018280 -7.632905 13.103640 1.570796 -0.000000 1.570752
1 17.096664 -2.899001 -0.000000 -0.000000 -0.000000 0.411891
2 -0.828985 1.759263 -0.000000 -0.000000 0.000000 -0.607359
3 12.145591 6.959349 0.000000 -0.000000 -0.000000 0.624814
4 0.016275 4.251184 0.146113 -0.000000 -0.000000 -0.000000
5 -1.054260 6.513186 -0.146113 -0.000000 0.000000 0.167545
6 20.769487 -1.339334 -0.147712 -0.000000 -0.000000 -0.000000
7 2.072232 0.015830 -0.032509 -0.000000 -0.000000 -0.000000
8 -39.635696 -1.332720 -0.150054 -0.000000 -0.000000 -0.000000
9 -1.584117 0.008790 -0.032200 -0.000000 -0.000000 -0.000000
time 60
0 -0.018280 -7.632905 13.103640 1.570796 -0.000000 1.570752
1 17.096664 -2.899001 -0.000000 -0.000000 -0.000000 0.411891
2 -0.828985 1.759263 -0.000000 -0.000000 0.000000 -0.607359
3 12.145591 6.959349 0.000000 -0.000000 -0.000000 0.624814
4 0.016275 4.251184 0.146113 -0.000000 -0.000000 -0.000000
5 -1.054260 6.513186 -0.146113 -0.000000 0.000000 0.167545
6 20.769487 -1.339334 -0.147712 -0.000000 -0.000000 -0.000000
7 2.072232 0.015830 -0.032509 -0.000000 -0.000000 -0.000000
8 -39.635696 -1.332720 -0.150054 -0.000000 -0.000000 -0.000000
9 -1.584117 0.008790 -0.032200 -0.000000 -0.000000 -0.000000
time 61
0 -0.018280 -7.632905 13.103640 1.570796 -0.000000 1.570752
1 17.096664 -2.899001 -0.000000 -0.000000 -0.000000 0.411891
2 -0.828985 1.759263 -0.000000 -0.000000 0.000000 -0.607359
3 12.145591 6.959349 0.000000 -0.000000 -0.000000 0.624814
4 0.016275 4.251184 0.146113 -0.000000 -0.000000 -0.000000
5 -1.054260 6.513186 -0.146113 -0.000000 0.000000 0.167545
6 20.769487 -1.339334 -0.147712 -0.000000 -0.000000 -0.000000
7 2.072232 0.015830 -0.032509 -0.000000 -0.000000 -0.000000
8 -39.635696 -1.332720 -0.150054 -0.000000 -0.000000 -0.000000
9 -1.584117 0.008790 -0.032200 -0.000000 -0.000000 -0.000000
time 62
0 -0.018280 -7.632905 13.103640 1.570796 -0.000000 1.570752
1 17.096664 -2.899001 -0.000000 -0.000000 -0.000000 0.411891
2 -0.828985 1.759263 -0.000000 -0.000000 0.000000 -0.607359
3 12.145591 6.959349 0.000000 -0.000000 -0.000000 0.624814
4 0.016275 4.251184 0.146113 -0.000000 -0.000000 -0.000000
5 -1.054260 6.513186 -0.146113 -0.000000 0.000000 0.167545
6 20.769487 -1.339334 -0.147712 -0.000000 -0.000000 -0.000000
7 2.072232 0.015830 -0.032509 -0.000000 -0.000000 -0.000000
8 -39.635696 -1.332720 -0.150054 -0.000000 -0.000000 -0.000000
9 -1.584117 0.008790 -0.032200 -0.000000 -0.000000 -0.000000
time 63
0 -0.018280 -7.632905 13.103640 1.570796 -0.000000 1.570752
1 17.096664 -2.899001 -0.000000 -0.000000 -0.000000 0.411891
2 -0.828985 1.759263 -0.000000 -0.000000 0.000000 -0.607359
3 12.145591 6.959349 0.000000 -0.000000 -0.000000 0.624814
4 0.016275 4.251184 0.146113 -0.000000 -0.000000 -0.000000
5 -1.054260 6.513186 -0.146113 -0.000000 0.000000 0.167545
6 20.769487 -1.339334 -0.147712 -0.000000 -0.000000 -0.000000
7 2.072232 0.015830 -0.032509 -0.000000 -0.000000 -0.000000
8 -39.635696 -1.332720 -0.150054 -0.000000 -0.000000 -0.000000
9 -1.584117 0.008790 -0.032200 -0.000000 -0.000000 -0.000000
time 64
0 -0.018280 -7.632905 13.103640 1.570796 -0.000000 1.570752
1 17.096664 -2.899001 -0.000000 -0.000000 -0.000000 0.411891
2 -0.828985 1.759263 -0.000000 -0.000000 0.000000 -0.607359
3 12.145591 6.959349 0.000000 -0.000000 -0.000000 0.624814
4 0.016275 4.251184 0.146113 -0.000000 -0.000000 -0.000000
5 -1.054260 6.513186 -0.146113 -0.000000 0.000000 0.167545
6 20.769487 -1.339334 -0.147712 -0.000000 -0.000000 -0.000000
7 2.072232 0.015830 -0.032509 -0.000000 -0.000000 -0.000000
8 -39.635696 -1.332720 -0.150054 -0.000000 -0.000000 -0.000000
9 -1.584117 0.008790 -0.032200 -0.000000 -0.000000 -0.000000
time 65
0 -0.018280 -7.632905 13.103640 1.570796 -0.000000 1.570752
1 17.096664 -2.899001 -0.000000 -0.000000 -0.000000 0.411891
2 -0.828985 1.759263 -0.000000 -0.000000 0.000000 -0.607359
3 12.145591 6.959349 0.000000 -0.000000 -0.000000 0.624814
4 0.016275 4.251184 0.146113 -0.000000 -0.000000 -0.000000
5 -1.054260 6.513186 -0.146113 -0.000000 0.000000 0.167545
6 20.769487 -1.339334 -0.147712 -0.000000 -0.000000 -0.000000
7 2.072232 0.015830 -0.032509 -0.000000 -0.000000 -0.000000
8 -39.635696 -1.332720 -0.150054 -0.000000 -0.000000 -0.000000
9 -1.584117 0.008790 -0.032200 -0.000000 -0.000000 -0.000000
time 66
0 -0.018280 -7.632905 13.103640 1.570796 -0.000000 1.570752
1 17.096664 -2.899001 -0.000000 -0.000000 -0.000000 0.411891
2 -0.828985 1.759263 -0.000000 -0.000000 0.000000 -0.607359
3 12.145591 6.959349 0.000000 -0.000000 -0.000000 0.624814
4 0.016275 4.251184 0.146113 -0.000000 -0.000000 -0.000000
5 -1.054260 6.513186 -0.146113 -0.000000 0.000000 0.167545
6 20.769487 -1.339334 -0.147712 -0.000000 -0.000000 -0.000000
7 2.072232 0.015830 -0.032509 -0.000000 -0.000000 -0.000000
8 -39.635696 -1.332720 -0.150054 -0.000000 -0.000000 -0.000000
9 -1.584117 0.008790 -0.032200 -0.000000 -0.000000 -0.000000
time 67
0 -0.018280 -7.632905 13.103640 1.570796 -0.000000 1.570752
1 17.096664 -2.899001 -0.000000 -0.000000 -0.000000 0.411891
2 -0.828985 1.759263 -0.000000 -0.000000 0.000000 -0.607359
3 12.145591 6.959349 0.000000 -0.000000 -0.000000 0.624814
4 0.016275 4.251184 0.146113 -0.000000 -0.000000 -0.000000
5 -1.054260 6.513186 -0.146113 -0.000000 0.000000 0.167545
6 20.769487 -1.339334 -0.147712 -0.000000 -0.000000 -0.000000
7 2.072232 0.015830 -0.032509 -0.000000 -0.000000 -0.000000
8 -39.635696 -1.332720 -0.150054 -0.000000 -0.000000 -0.000000
9 -1.584117 0.008790 -0.032200 -0.000000 -0.000000 -0.000000
time 68
0 -0.018280 -7.632905 13.103640 1.570796 -0.000000 1.570752
1 17.096664 -2.899001 -0.000000 -0.000000 -0.000000 0.411891
2 -0.828985 1.759263 -0.000000 -0.000000 0.000000 -0.607359
3 12.145591 6.959349 0.000000 -0.000000 -0.000000 0.624814
4 0.016275 4.251184 0.146113 -0.000000 -0.000000 -0.000000
5 -1.054260 6.513186 -0.146113 -0.000000 0.000000 0.167545
6 20.769487 -1.339334 -0.147712 -0.000000 -0.000000 -0.000000
7 2.072232 0.015830 -0.032509 -0.000000 -0.000000 -0.000000
8 -39.635696 -1.332720 -0.150054 -0.000000 -0.000000 -0.000000
9 -1.584117 0.008790 -0.032200 -0.000000 -0.000000 -0.000000
time 69
0 -0.018280 -7.632905 13.103640 1.570796 -0.000000 1.570752
1 17.096664 -2.899001 -0.000000 -0.000000 -0.000000 0.411891
2 -0.828985 1.759263 -0.000000 -0.000000 0.000000 -0.607359
3 12.145591 6.959349 0.000000 -0.000000 -0.000000 0.624814
4 0.016275 4.251184 0.146113 -0.000000 -0.000000 -0.000000
5 -1.054260 6.513186 -0.146113 -0.000000 0.000000 0.167545
6 20.769487 -1.339334 -0.147712 -0.000000 -0.000000 -0.000000
7 2.072232 0.015830 -0.032509 -0.000000 -0.000000 -0.000000
8 -39.635696 -1.332720 -0.150054 -0.000000 -0.000000 -0.000000
9 -1.584117 0.008790 -0.032200 -0.000000 -0.000000 -0.000000
time 70
0 -0.018280 -7.632905 13.103640 1.570796 -0.000000 1.570752
1 17.096664 -2.899001 -0.000000 -0.000000 -0.000000 0.411891
2 -0.828985 1.759263 -0.000000 -0.000000 0.000000 -0.607359
3 12.145591 6.959349 0.000000 -0.000000 -0.000000 0.624814
4 0.016275 4.251184 0.146113 -0.000000 -0.000000 -0.000000
5 -1.054260 6.513186 -0.146113 -0.000000 0.000000 0.167545
6 20.769487 -1.339334 -0.147712 -0.000000 -0.000000 -0.000000
7 2.072232 0.015830 -0.032509 -0.000000 -0.000000 -0.000000
8 -39.635696 -1.332720 -0.150054 -0.000000 -0.000000 -0.000000
9 -1.584117 0.008790 -0.032200 -0.000000 -0.000000 -0.000000
time 71
0 -0.018280 -7.632905 13.103640 1.570796 -0.000000 1.570752
1 17.096664 -2.899001 -0.000000 -0.000000 -0.000000 0.411891
2 -0.828985 1.759263 -0.000000 -0.000000 0.000000 -0.607359
3 12.145591 6.959349 0.000000 -0.000000 -0.000000 0.624814
4 0.016275 4.251184 0.146113 -0.000000 -0.000000 -0.000000
5 -1.054260 6.513186 -0.146113 -0.000000 0.000000 0.167545
6 20.769487 -1.339334 -0.147712 -0.000000 -0.000000 -0.000000
7 2.072232 0.015830 -0.032509 -0.000000 -0.000000 -0.000000
8 -39.635696 -1.332720 -0.150054 -0.000000 -0.000000 -0.000000
9 -1.584117 0.008790 -0.032200 -0.000000 -0.000000 -0.000000
time 72
0 -0.018280 -7.632905 13.103640 1.570796 -0.000000 1.570752
1 17.096664 -2.899001 -0.000000 -0.000000 -0.000000 0.411891
2 -0.828985 1.759263 -0.000000 -0.000000 0.000000 -0.607359
3 12.145591 6.959349 0.000000 -0.000000 -0.000000 0.624814
4 0.016275 4.251184 0.146113 -0.000000 -0.000000 -0.000000
5 -1.054260 6.513186 -0.146113 -0.000000 0.000000 0.167545
6 20.769487 -1.339334 -0.147712 -0.000000 -0.000000 -0.000000
7 2.072232 0.015830 -0.032509 -0.000000 -0.000000 -0.000000
8 -39.635696 -1.332720 -0.150054 -0.000000 -0.000000 -0.000000
9 -1.584117 0.008790 -0.032200 -0.000000 -0.000000 -0.000000
time 73
0 -0.018280 -7.632905 13.103640 1.570796 -0.000000 1.570752
1 17.096664 -2.899001 -0.000000 -0.000000 -0.000000 0.411891
2 -0.828985 1.759263 -0.000000 -0.000000 0.000000 -0.607359
3 12.145591 6.959349 0.000000 -0.000000 -0.000000 0.624814
4 0.016275 4.251184 0.146113 -0.000000 -0.000000 -0.000000
5 -1.054260 6.513186 -0.146113 -0.000000 0.000000 0.167545
6 20.769487 -1.339334 -0.147712 -0.000000 -0.000000 -0.000000
7 2.072232 0.015830 -0.032509 -0.000000 -0.000000 -0.000000
8 -39.635696 -1.332720 -0.150054 -0.000000 -0.000000 -0.000000
9 -1.584117 0.008790 -0.032200 -0.000000 -0.000000 -0.000000
time 74
0 -0.018280 -7.632905 13.103640 1.570796 -0.000000 1.570752
1 17.096664 -2.899001 -0.000000 -0.000000 -0.000000 0.411891
2 -0.828985 1.759263 -0.000000 -0.000000 0.000000 -0.607359
3 12.145591 6.959349 0.000000 -0.000000 -0.000000 0.624814
4 0.016275 4.251184 0.146113 -0.000000 -0.000000 -0.000000
5 -1.054260 6.513186 -0.146113 -0.000000 0.000000 0.167545
6 20.769487 -1.339334 -0.147712 -0.000000 -0.000000 -0.000000
7 2.072232 0.015830 -0.032509 -0.000000 -0.000000 -0.000000
8 -39.635696 -1.332720 -0.150054 -0.000000 -0.000000 -0.000000
9 -1.584117 0.008790 -0.032200 -0.000000 -0.000000 -0.000000
time 75
0 -0.018280 -7.632905 13.103640 1.570796 -0.000000 1.570752
1 17.096664 -2.899001 -0.000000 -0.000000 -0.000000 0.411891
2 -0.828985 1.759263 -0.000000 -0.000000 0.000000 -0.607359
3 12.145591 6.959349 0.000000 -0.000000 -0.000000 0.624814
4 0.016275 4.251184 0.146113 -0.000000 -0.000000 -0.000000
5 -1.054260 6.513186 -0.146113 -0.000000 0.000000 0.167545
6 20.769487 -1.339334 -0.147712 -0.000000 -0.000000 -0.000000
7 2.072232 0.015830 -0.032509 -0.000000 -0.000000 -0.000000
8 -39.635696 -1.332720 -0.150054 -0.000000 -0.000000 -0.000000
9 -1.584117 0.008790 -0.032200 -0.000000 -0.000000 -0.000000
time 76
0 -0.018280 -7.632905 13.103640 1.570796 -0.000000 1.570752
1 17.096664 -2.899001 -0.000000 -0.000000 -0.000000 0.411891
2 -0.828985 1.759263 -0.000000 -0.000000 0.000000 -0.607359
3 12.145591 6.959349 0.000000 -0.000000 -0.000000 0.624814
4 0.016275 4.251184 0.146113 -0.000000 -0.000000 -0.000000
5 -1.054260 6.513186 -0.146113 -0.000000 0.000000 0.167545
6 20.769487 -1.339334 -0.147712 -0.000000 -0.000000 -0.000000
7 2.072232 0.015830 -0.032509 -0.000000 -0.000000 -0.000000
8 -39.635696 -1.332720 -0.150054 -0.000000 -0.000000 -0.000000
9 -1.584117 0.008790 -0.032200 -0.000000 -0.000000 -0.000000
time 77
0 -0.018280 -7.632905 13.103640 1.570796 -0.000000 1.570752
1 17.096664 -2.899001 -0.000000 -0.000000 -0.000000 0.411891
2 -0.828985 1.759263 -0.000000 -0.000000 0.000000 -0.607359
3 12.145591 6.959349 0.000000 -0.000000 -0.000000 0.624814
4 0.016275 4.251184 0.146113 -0.000000 -0.000000 -0.000000
5 -1.054260 6.513186 -0.146113 -0.000000 0.000000 0.167545
6 20.769487 -1.339334 -0.147712 -0.000000 -0.000000 -0.000000
7 2.072232 0.015830 -0.032509 -0.000000 -0.000000 -0.000000
8 -39.635696 -1.332720 -0.150054 -0.000000 -0.000000 -0.000000
9 -1.584117 0.008790 -0.032200 -0.000000 -0.000000 -0.000000
time 78
0 -0.018280 -7.632905 13.103640 1.570796 -0.000000 1.570752
1 17.096664 -2.899001 -0.000000 -0.000000 -0.000000 0.411891
2 -0.828985 1.759263 -0.000000 -0.000000 0.000000 -0.607359
3 12.145591 6.959349 0.000000 -0.000000 -0.000000 0.624814
4 0.016275 4.251184 0.146113 -0.000000 -0.000000 -0.000000
5 -1.054260 6.513186 -0.146113 -0.000000 0.000000 0.167545
6 20.769487 -1.339334 -0.147712 -0.000000 -0.000000 -0.000000
7 2.072232 0.015830 -0.032509 -0.000000 -0.000000 -0.000000
8 -39.635696 -1.332720 -0.150054 -0.000000 -0.000000 -0.000000
9 -1.584117 0.008790 -0.032200 -0.000000 -0.000000 -0.000000
time 79
0 -0.018280 -7.632905 13.103640 1.570796 -0.000000 1.570752
1 17.096664 -2.899001 -0.000000 -0.000000 -0.000000 0.411891
2 -0.828985 1.759263 -0.000000 -0.000000 0.000000 -0.607359
3 12.145591 6.959349 0.000000 -0.000000 -0.000000 0.624814
4 0.016275 4.251184 0.146113 -0.000000 -0.000000 -0.000000
5 -1.054260 6.513186 -0.146113 -0.000000 0.000000 0.167545
6 20.769487 -1.339334 -0.147712 -0.000000 -0.000000 -0.000000
7 2.072232 0.015830 -0.032509 -0.000000 -0.000000 -0.000000
8 -39.635696 -1.332720 -0.150054 -0.000000 -0.000000 -0.000000
9 -1.584117 0.008790 -0.032200 -0.000000 -0.000000 -0.000000
time 80
0 -0.018280 -7.632905 13.103640 1.570796 -0.000000 1.570752
1 17.096664 -2.899001 -0.000000 -0.000000 -0.000000 0.411891
2 -0.828985 1.759263 -0.000000 -0.000000 0.000000 -0.607359
3 12.145591 6.959349 0.000000 -0.000000 -0.000000 0.624814
4 0.016275 4.251184 0.146113 -0.000000 -0.000000 -0.000000
5 -1.054260 6.513186 -0.146113 -0.000000 0.000000 0.167545
6 20.769487 -1.339334 -0.147712 -0.000000 -0.000000 -0.000000
7 2.072232 0.015830 -0.032509 -0.000000 -0.000000 -0.000000
8 -39.635696 -1.332720 -0.150054 -0.000000 -0.000000 -0.000000
9 -1.584117 0.008790 -0.032200 -0.000000 -0.000000 -0.000000
time 81
0 -0.018280 -7.632905 13.103640 1.570796 -0.000000 1.570752
1 17.096664 -2.899001 -0.000000 -0.000000 -0.000000 0.411891
2 -0.828985 1.759263 -0.000000 -0.000000 0.000000 -0.607359
3 12.145591 6.959349 0.000000 -0.000000 -0.000000 0.624814
4 0.016275 4.251184 0.146113 -0.000000 -0.000000 -0.000000
5 -1.054260 6.513186 -0.146113 -0.000000 0.000000 0.167545
6 20.769487 -1.339334 -0.147712 -0.000000 -0.000000 -0.000000
7 2.072232 0.015830 -0.032509 -0.000000 -0.000000 -0.000000
8 -39.635696 -1.332720 -0.150054 -0.000000 -0.000000 -0.000000
9 -1.584117 0.008790 -0.032200 -0.000000 -0.000000 -0.000000
time 82
0 -0.018280 -7.632905 13.103640 1.570796 -0.000000 1.570752
1 17.096664 -2.899001 -0.000000 -0.000000 -0.000000 0.411891
2 -0.828985 1.759263 -0.000000 -0.000000 0.000000 -0.607359
3 12.145591 6.959349 0.000000 -0.000000 -0.000000 0.624814
4 0.016275 4.251184 0.146113 -0.000000 -0.000000 -0.000000
5 -1.054260 6.513186 -0.146113 -0.000000 0.000000 0.167545
6 20.769487 -1.339334 -0.147712 -0.000000 -0.000000 -0.000000
7 2.072232 0.015830 -0.032509 -0.000000 -0.000000 -0.000000
8 -39.635696 -1.332720 -0.150054 -0.000000 -0.000000 -0.000000
9 -1.584117 0.008790 -0.032200 -0.000000 -0.000000 -0.000000
time 83
0 -0.018280 -7.632905 13.103640 1.570796 -0.000000 1.570752
1 17.096664 -2.899001 -0.000000 -0.000000 -0.000000 0.411891
2 -0.828985 1.759263 -0.000000 -0.000000 0.000000 -0.607359
3 12.145591 6.959349 0.000000 -0.000000 -0.000000 0.624814
4 0.016275 4.251184 0.146113 -0.000000 -0.000000 -0.000000
5 -1.054260 6.513186 -0.146113 -0.000000 0.000000 0.167545
6 20.769487 -1.339334 -0.147712 -0.000000 -0.000000 -0.000000
7 2.072232 0.015830 -0.032509 -0.000000 -0.000000 -0.000000
8 -39.635696 -1.332720 -0.150054 -0.000000 -0.000000 -0.000000
9 -1.584117 0.008790 -0.032200 -0.000000 -0.000000 -0.000000
time 84
0 -0.018280 -7.632905 13.103640 1.570796 -0.000000 1.570752
1 17.096664 -2.899001 -0.000000 -0.000000 -0.000000 0.411891
2 -0.828985 1.759263 -0.000000 -0.000000 0.000000 -0.607359
3 12.145591 6.959349 0.000000 -0.000000 -0.000000 0.624814
4 0.016275 4.251184 0.146113 -0.000000 -0.000000 -0.000000
5 -1.054260 6.513186 -0.146113 -0.000000 0.000000 0.167545
6 20.769487 -1.339334 -0.147712 -0.000000 -0.000000 -0.000000
7 2.072232 0.015830 -0.032509 -0.000000 -0.000000 -0.000000
8 -39.635696 -1.332720 -0.150054 -0.000000 -0.000000 -0.000000
9 -1.584117 0.008790 -0.032200 -0.000000 -0.000000 -0.000000
time 85
0 -0.018280 -7.632905 13.103640 1.570796 -0.000000 1.570752
1 17.096664 -2.899001 -0.000000 -0.000000 -0.000000 0.411891
2 -0.828985 1.759263 -0.000000 -0.000000 0.000000 -0.607359
3 12.145591 6.959349 0.000000 -0.000000 -0.000000 0.624814
4 0.016275 4.251184 0.146113 -0.000000 -0.000000 -0.000000
5 -1.054260 6.513186 -0.146113 -0.000000 0.000000 0.167545
6 20.769487 -1.339334 -0.147712 -0.000000 -0.000000 -0.000000
7 2.072232 0.015830 -0.032509 -0.000000 -0.000000 -0.000000
8 -39.635696 -1.332720 -0.150054 -0.000000 -0.000000 -0.000000
9 -1.584117 0.008790 -0.032200 -0.000000 -0.000000 -0.000000
time 86
0 -0.018280 -7.632905 13.103640 1.570796 -0.000000 1.570752
1 17.096664 -2.899001 -0.000000 -0.000000 -0.000000 0.411891
2 -0.828985 1.759263 -0.000000 -0.000000 0.000000 -0.607359
3 12.145591 6.959349 0.000000 -0.000000 -0.000000 0.624814
4 0.016275 4.251184 0.146113 -0.000000 -0.000000 -0.000000
5 -1.054260 6.513186 -0.146113 -0.000000 0.000000 0.167545
6 20.769487 -1.339334 -0.147712 -0.000000 -0.000000 -0.000000
7 2.072232 0.015830 -0.032509 -0.000000 -0.000000 -0.000000
8 -39.635696 -1.332720 -0.150054 -0.000000 -0.000000 -0.000000
9 -1.584117 0.008790 -0.032200 -0.000000 -0.000000 -0.000000
time 87
0 -0.018280 -7.632905 13.103640 1.570796 -0.000000 1.570752
1 17.096664 -2.899001 -0.000000 -0.000000 -0.000000 0.411891
2 -0.828985 1.759263 -0.000000 -0.000000 0.000000 -0.607359
3 12.145591 6.959349 0.000000 -0.000000 -0.000000 0.624814
4 0.016275 4.251184 0.146113 -0.000000 -0.000000 -0.000000
5 -1.054260 6.513186 -0.146113 -0.000000 0.000000 0.167545
6 20.769487 -1.339334 -0.147712 -0.000000 -0.000000 -0.000000
7 2.072232 0.015830 -0.032509 -0.000000 -0.000000 -0.000000
8 -39.635696 -1.332720 -0.150054 -0.000000 -0.000000 -0.000000
9 -1.584117 0.008790 -0.032200 -0.000000 -0.000000 -0.000000
time 88
0 -0.018280 -7.632905 13.103640 1.570796 -0.000000 1.570752
1 17.096664 -2.899001 -0.000000 -0.000000 -0.000000 0.411891
2 -0.828985 1.759263 -0.000000 -0.000000 0.000000 -0.607359
3 12.145591 6.959349 0.000000 -0.000000 -0.000000 0.624814
4 0.016275 4.251184 0.146113 -0.000000 -0.000000 -0.000000
5 -1.054260 6.513186 -0.146113 -0.000000 0.000000 0.167545
6 20.769487 -1.339334 -0.147712 -0.000000 -0.000000 -0.000000
7 2.072232 0.015830 -0.032509 -0.000000 -0.000000 -0.000000
8 -39.635696 -1.332720 -0.150054 -0.000000 -0.000000 -0.000000
9 -1.584117 0.008790 -0.032200 -0.000000 -0.000000 -0.000000
time 89
0 -0.018280 -7.632905 13.103640 1.570796 -0.000000 1.570752
1 17.096664 -2.899001 -0.000000 -0.000000 -0.000000 0.411891
2 -0.828985 1.759263 -0.000000 -0.000000 0.000000 -0.607359
3 12.145591 6.959349 0.000000 -0.000000 -0.000000 0.624814
4 0.016275 4.251184 0.146113 -0.000000 -0.000000 -0.000000
5 -1.054260 6.513186 -0.146113 -0.000000 0.000000 0.167545
6 20.769487 -1.339334 -0.147712 -0.000000 -0.000000 -0.000000
7 2.072232 0.015830 -0.032509 -0.000000 -0.000000 -0.000000
8 -39.635696 -1.332720 -0.150054 -0.000000 -0.000000 -0.000000
9 -1.584117 0.008790 -0.032200 -0.000000 -0.000000 -0.000000
time 90
0 -0.018280 -7.632905 13.103640 1.570796 -0.000000 1.570752
1 17.096664 -2.899001 -0.000000 -0.000000 -0.000000 0.411891
2 -0.828985 1.759263 -0.000000 -0.000000 0.000000 -0.607359
3 12.145591 6.959349 0.000000 -0.000000 -0.000000 0.624814
4 0.016275 4.251184 0.146113 -0.000000 -0.000000 -0.000000
5 -1.054260 6.513186 -0.146113 -0.000000 0.000000 0.167545
6 20.769487 -1.339334 -0.147712 -0.000000 -0.000000 -0.000000
7 2.072232 0.015830 -0.032509 -0.000000 -0.000000 -0.000000
8 -39.635696 -1.332720 -0.150054 -0.000000 -0.000000 -0.000000
9 -1.584117 0.008790 -0.032200 -0.000000 -0.000000 -0.000000
time 91
0 -0.018280 -7.632905 13.103640 1.570796 -0.000000 1.570752
1 17.096664 -2.899001 -0.000000 -0.000000 -0.000000 0.411891
2 -0.828985 1.759263 -0.000000 -0.000000 0.000000 -0.607359
3 12.145591 6.959349 0.000000 -0.000000 -0.000000 0.624814
4 0.016275 4.251184 0.146113 -0.000000 -0.000000 -0.000000
5 -1.054260 6.513186 -0.146113 -0.000000 0.000000 0.167545
6 20.769487 -1.339334 -0.147712 -0.000000 -0.000000 -0.000000
7 2.072232 0.015830 -0.032509 -0.000000 -0.000000 -0.000000
8 -39.635696 -1.332720 -0.150054 -0.000000 -0.000000 -0.000000
9 -1.584117 0.008790 -0.032200 -0.000000 -0.000000 -0.000000
time 92
0 -0.018280 -7.632905 13.103640 1.570796 -0.000000 1.570752
1 17.096664 -2.899001 -0.000000 -0.000000 -0.000000 0.411891
2 -0.828985 1.759263 -0.000000 -0.000000 0.000000 -0.607359
3 12.145591 6.959349 0.000000 -0.000000 -0.000000 0.624814
4 0.016275 4.251184 0.146113 -0.000000 -0.000000 -0.000000
5 -1.054260 6.513186 -0.146113 -0.000000 0.000000 0.167545
6 20.769487 -1.339334 -0.147712 -0.000000 -0.000000 -0.000000
7 2.072232 0.015830 -0.032509 -0.000000 -0.000000 -0.000000
8 -39.635696 -1.332720 -0.150054 -0.000000 -0.000000 -0.000000
9 -1.584117 0.008790 -0.032200 -0.000000 -0.000000 -0.000000
time 93
0 -0.018280 -7.632905 13.103640 1.570796 -0.000000 1.570752
1 17.096664 -2.899001 -0.000000 -0.000000 -0.000000 0.411891
2 -0.828985 1.759263 -0.000000 -0.000000 0.000000 -0.607359
3 12.145591 6.959349 0.000000 -0.000000 -0.000000 0.624814
4 0.016275 4.251184 0.146113 -0.000000 -0.000000 -0.000000
5 -1.054260 6.513186 -0.146113 -0.000000 0.000000 0.167545
6 20.769487 -1.339334 -0.147712 -0.000000 -0.000000 -0.000000
7 2.072232 0.015830 -0.032509 -0.000000 -0.000000 -0.000000
8 -39.635696 -1.332720 -0.150054 -0.000000 -0.000000 -0.000000
9 -1.584117 0.008790 -0.032200 -0.000000 -0.000000 -0.000000
time 94
0 -0.018280 -7.632905 13.103640 1.570796 -0.000000 1.570752
1 17.096664 -2.899001 -0.000000 -0.000000 -0.000000 0.411891
2 -0.828985 1.759263 -0.000000 -0.000000 0.000000 -0.607359
3 12.145591 6.959349 0.000000 -0.000000 -0.000000 0.624814
4 0.016275 4.251184 0.146113 -0.000000 -0.000000 -0.000000
5 -1.054260 6.513186 -0.146113 -0.000000 0.000000 0.167545
6 20.769487 -1.339334 -0.147712 -0.000000 -0.000000 -0.000000
7 2.072232 0.015830 -0.032509 -0.000000 -0.000000 -0.000000
8 -39.635696 -1.332720 -0.150054 -0.000000 -0.000000 -0.000000
9 -1.584117 0.008790 -0.032200 -0.000000 -0.000000 -0.000000
time 95
0 -0.018280 -7.632905 13.103640 1.570796 -0.000000 1.570752
1 17.096664 -2.899001 -0.000000 -0.000000 -0.000000 0.411891
2 -0.828985 1.759263 -0.000000 -0.000000 0.000000 -0.607359
3 12.145591 6.959349 0.000000 -0.000000 -0.000000 0.624814
4 0.016275 4.251184 0.146113 -0.000000 -0.000000 -0.000000
5 -1.054260 6.513186 -0.146113 -0.000000 0.000000 0.167545
6 20.769487 -1.339334 -0.147712 -0.000000 -0.000000 -0.000000
7 2.072232 0.015830 -0.032509 -0.000000 -0.000000 -0.000000
8 -39.635696 -1.332720 -0.150054 -0.000000 -0.000000 -0.000000
9 -1.584117 0.008790 -0.032200 -0.000000 -0.000000 -0.000000
time 96
0 -0.018280 -7.632905 13.103640 1.570796 -0.000000 1.570752
1 17.096664 -2.899001 -0.000000 -0.000000 -0.000000 0.411891
2 -0.828985 1.759263 -0.000000 -0.000000 0.000000 -0.607359
3 12.145591 6.959349 0.000000 -0.000000 -0.000000 0.624814
4 0.016275 4.251184 0.146113 -0.000000 -0.000000 -0.000000
5 -1.054260 6.513186 -0.146113 -0.000000 0.000000 0.167545
6 20.769487 -1.339334 -0.147712 -0.000000 -0.000000 -0.000000
7 2.072232 0.015830 -0.032509 -0.000000 -0.000000 -0.000000
8 -39.635696 -1.332720 -0.150054 -0.000000 -0.000000 -0.000000
9 -1.584117 0.008790 -0.032200 -0.000000 -0.000000 -0.000000
time 97
0 -0.018280 -7.632905 13.103640 1.570796 -0.000000 1.570752
1 17.096664 -2.899001 -0.000000 -0.000000 -0.000000 0.411891
2 -0.828985 1.759263 -0.000000 -0.000000 0.000000 -0.607359
3 12.145591 6.959349 0.000000 -0.000000 -0.000000 0.624814
4 0.016275 4.251184 0.146113 -0.000000 -0.000000 -0.000000
5 -1.054260 6.513186 -0.146113 -0.000000 0.000000 0.167545
6 20.769487 -1.339334 -0.147712 -0.000000 -0.000000 -0.000000
7 2.072232 0.015830 -0.032509 -0.000000 -0.000000 -0.000000
8 -39.635696 -1.332720 -0.150054 -0.000000 -0.000000 -0.000000
9 -1.584117 0.008790 -0.032200 -0.000000 -0.000000 -0.000000
time 98
0 -0.018280 -7.632905 13.103640 1.570796 -0.000000 1.570752
1 17.096664 -2.899001 -0.000000 -0.000000 -0.000000 0.411891
2 -0.828985 1.759263 -0.000000 -0.000000 0.000000 -0.607359
3 12.145591 6.959349 0.000000 -0.000000 -0.000000 0.624814
4 0.016275 4.251184 0.146113 -0.000000 -0.000000 -0.000000
5 -1.054260 6.513186 -0.146113 -0.000000 0.000000 0.167545
6 20.769487 -1.339334 -0.147712 -0.000000 -0.000000 -0.000000
7 2.072232 0.015830 -0.032509 -0.000000 -0.000000 -0.000000
8 -39.635696 -1.332720 -0.150054 -0.000000 -0.000000 -0.000000
9 -1.584117 0.008790 -0.032200 -0.000000 -0.000000 -0.000000
time 99
0 -0.018280 -7.632905 13.103640 1.570796 -0.000000 1.570752
1 17.096664 -2.899001 -0.000000 -0.000000 -0.000000 0.411891
2 -0.828985 1.759263 -0.000000 -0.000000 0.000000 -0.607359
3 12.145591 6.959349 0.000000 -0.000000 -0.000000 0.624814
4 0.016275 4.251184 0.146113 -0.000000 -0.000000 -0.000000
5 -1.054260 6.513186 -0.146113 -0.000000 0.000000 0.167545
6 20.769487 -1.339334 -0.147712 -0.000000 -0.000000 -0.000000
7 2.072232 0.015830 -0.032509 -0.000000 -0.000000 -0.000000
8 -39.635696 -1.332720 -0.150054 -0.000000 -0.000000 -0.000000
9 -1.584117 0.008790 -0.032200 -0.000000 -0.000000 -0.000000
end
