version 1
nodes
  0 "Dummy01" -1
  1 "Dummy07" 0
  2 "Dummy05" 0
  3 "hor_1" 2
  4 "hor_2" 3
  5 "verticle" 4
  6 "Dummy06" 5
  7 "Muzzle_back" 6
  8 "Dummy04" 5
  9 "Muzzle" 8
end
skeleton
time 0
0 -0.018280 -7.632905 13.103640 1.570796 -0.000000 1.570752
1 17.096664 -2.899001 -0.000000 -0.000000 -0.000000 -0.000000
2 -0.828985 1.759263 -0.000000 -0.000000 -0.000000 -0.000000
3 12.145591 6.959348 -0.000000 -0.000000 0.000000 -0.005244
4 0.016275 4.251185 0.146113 -0.000000 -0.000000 -0.000000
5 -1.054260 6.513183 -0.146113 -0.000000 -0.000000 -0.000000
6 20.769485 -1.339334 -0.147712 -0.000000 -0.000000 -0.000000
7 2.072234 0.015830 -0.032509 -0.000000 -0.000000 -0.000000
8 -39.635696 -1.332721 -0.150054 -0.000000 -0.000000 -0.000000
9 -1.584118 0.008788 -0.032200 -0.000000 -0.000000 -0.000000
time 1
0 -0.018280 -7.632905 13.103640 1.570796 -0.000000 1.570752
1 17.096664 -2.899001 -0.000000 -0.000000 -0.000000 -0.000000
2 -0.828985 1.759263 -0.000000 -0.000000 -0.000000 -0.000000
3 12.145591 6.959348 -0.000000 -0.000000 0.000000 -0.005244
4 0.016275 4.251185 0.146113 -0.000000 -0.000000 -0.000000
5 -1.054260 6.513183 -0.146113 -0.000000 -0.000000 -0.000000
6 20.769485 -1.339334 -0.147712 -0.000000 -0.000000 -0.000000
7 2.072234 0.015830 -0.032509 -0.000000 -0.000000 -0.000000
8 -39.635696 -1.332721 -0.150054 -0.000000 -0.000000 -0.000000
9 -1.584118 0.008788 -0.032200 -0.000000 -0.000000 -0.000000
time 2
0 -0.018280 -7.632905 13.103640 1.570796 -0.000000 1.570752
1 17.096664 -2.899001 -0.000000 -0.000000 -0.000000 -0.000000
2 -0.828985 1.759263 -0.000000 -0.000000 -0.000000 -0.000000
3 12.145591 6.959348 -0.000000 -0.000000 0.000000 -0.005244
4 0.016275 4.251185 0.146113 -0.000000 -0.000000 -0.000000
5 -1.054260 6.513183 -0.146113 -0.000000 -0.000000 -0.000000
6 20.769485 -1.339334 -0.147712 -0.000000 -0.000000 -0.000000
7 2.072234 0.015830 -0.032509 -0.000000 -0.000000 -0.000000
8 -39.635696 -1.332721 -0.150054 -0.000000 -0.000000 -0.000000
9 -1.584118 0.008788 -0.032200 -0.000000 -0.000000 -0.000000
time 3
0 -0.018280 -7.632905 13.103640 1.570796 -0.000000 1.570752
1 17.096664 -2.899001 -0.000000 -0.000000 -0.000000 -0.000000
2 -0.828985 1.759263 -0.000000 -0.000000 -0.000000 -0.000000
3 12.145591 6.959348 -0.000000 -0.000000 0.000000 -0.005244
4 0.016275 4.251185 0.146113 -0.000000 -0.000000 -0.000000
5 -1.054260 6.513183 -0.146113 -0.000000 -0.000000 -0.000000
6 20.769485 -1.339334 -0.147712 -0.000000 -0.000000 -0.000000
7 2.072234 0.015830 -0.032509 -0.000000 -0.000000 -0.000000
8 -39.635696 -1.332721 -0.150054 -0.000000 -0.000000 -0.000000
9 -1.584118 0.008788 -0.032200 -0.000000 -0.000000 -0.000000
time 4
0 -0.018280 -7.632905 13.103640 1.570796 -0.000000 1.570752
1 17.096664 -2.899001 -0.000000 -0.000000 -0.000000 -0.000000
2 -0.828985 1.759263 -0.000000 -0.000000 -0.000000 -0.000000
3 12.145591 6.959348 -0.000000 -0.000000 0.000000 -0.005244
4 0.016275 4.251185 0.146113 -0.000000 -0.000000 -0.000000
5 -1.054260 6.513183 -0.146113 -0.000000 -0.000000 -0.000000
6 20.769485 -1.339334 -0.147712 -0.000000 -0.000000 -0.000000
7 2.072234 0.015830 -0.032509 -0.000000 -0.000000 -0.000000
8 -39.635696 -1.332721 -0.150054 -0.000000 -0.000000 -0.000000
9 -1.584118 0.008788 -0.032200 -0.000000 -0.000000 -0.000000
time 5
0 -0.018280 -7.632905 13.103640 1.570796 -0.000000 1.570752
1 17.096664 -2.899001 -0.000000 -0.000000 -0.000000 -0.000000
2 -0.828985 1.759263 -0.000000 -0.000000 -0.000000 -0.000000
3 12.145591 6.959348 -0.000000 -0.000000 0.000000 -0.005244
4 0.016275 4.251185 0.146113 -0.000000 -0.000000 -0.000000
5 -1.054260 6.513183 -0.146113 -0.000000 -0.000000 -0.000000
6 20.769485 -1.339334 -0.147712 -0.000000 -0.000000 -0.000000
7 2.072234 0.015830 -0.032509 -0.000000 -0.000000 -0.000000
8 -39.635696 -1.332721 -0.150054 -0.000000 -0.000000 -0.000000
9 -1.584118 0.008788 -0.032200 -0.000000 -0.000000 -0.000000
time 6
0 -0.018280 -7.632905 13.103640 1.570796 -0.000000 1.570752
1 17.096664 -2.899001 -0.000000 -0.000000 -0.000000 -0.000000
2 -0.828985 1.759263 -0.000000 -0.000000 -0.000000 -0.000000
3 12.145591 6.959348 -0.000000 -0.000000 0.000000 -0.005244
4 0.016275 4.251185 0.146113 -0.000000 -0.000000 -0.000000
5 -1.054260 6.513183 -0.146113 -0.000000 -0.000000 -0.000000
6 20.769485 -1.339334 -0.147712 -0.000000 -0.000000 -0.000000
7 2.072234 0.015830 -0.032509 -0.000000 -0.000000 -0.000000
8 -39.635696 -1.332721 -0.150054 -0.000000 -0.000000 -0.000000
9 -1.584118 0.008788 -0.032200 -0.000000 -0.000000 -0.000000
time 7
0 -0.018280 -7.632905 13.103640 1.570796 -0.000000 1.570752
1 17.096664 -2.899001 -0.000000 -0.000000 -0.000000 -0.000000
2 -0.828985 1.759263 -0.000000 -0.000000 -0.000000 -0.000000
3 12.145591 6.959348 -0.000000 -0.000000 0.000000 -0.005244
4 0.016275 4.251185 0.146113 -0.000000 -0.000000 -0.000000
5 -1.054260 6.513183 -0.146113 -0.000000 -0.000000 -0.000000
6 20.769485 -1.339334 -0.147712 -0.000000 -0.000000 -0.000000
7 2.072234 0.015830 -0.032509 -0.000000 -0.000000 -0.000000
8 -39.635696 -1.332721 -0.150054 -0.000000 -0.000000 -0.000000
9 -1.584118 0.008788 -0.032200 -0.000000 -0.000000 -0.000000
time 8
0 -0.018280 -7.632905 13.103640 1.570796 -0.000000 1.570752
1 17.096664 -2.899001 -0.000000 -0.000000 -0.000000 -0.000000
2 -0.828985 1.759263 -0.000000 -0.000000 -0.000000 -0.000000
3 12.145591 6.959348 -0.000000 -0.000000 0.000000 -0.005244
4 0.016275 4.251185 0.146113 -0.000000 -0.000000 -0.000000
5 -1.054260 6.513183 -0.146113 -0.000000 -0.000000 -0.000000
6 20.769485 -1.339334 -0.147712 -0.000000 -0.000000 -0.000000
7 2.072234 0.015830 -0.032509 -0.000000 -0.000000 -0.000000
8 -39.635696 -1.332721 -0.150054 -0.000000 -0.000000 -0.000000
9 -1.584118 0.008788 -0.032200 -0.000000 -0.000000 -0.000000
time 9
0 -0.018280 -7.632905 13.103640 1.570796 -0.000000 1.570752
1 17.096664 -2.899001 -0.000000 -0.000000 -0.000000 -0.000000
2 -0.828985 1.759263 -0.000000 -0.000000 -0.000000 -0.000000
3 12.145591 6.959348 -0.000000 -0.000000 0.000000 -0.005244
4 0.016275 4.251185 0.146113 -0.000000 -0.000000 -0.000000
5 -1.054260 6.513183 -0.146113 -0.000000 -0.000000 -0.000000
6 20.769485 -1.339334 -0.147712 -0.000000 -0.000000 -0.000000
7 2.072234 0.015830 -0.032509 -0.000000 -0.000000 -0.000000
8 -39.635696 -1.332721 -0.150054 -0.000000 -0.000000 -0.000000
9 -1.584118 0.008788 -0.032200 -0.000000 -0.000000 -0.000000
time 10
0 -0.018280 -7.632905 13.103640 1.570796 -0.000000 1.570752
1 17.096664 -2.899001 -0.000000 -0.000000 -0.000000 -0.000000
2 -0.828985 1.759263 -0.000000 -0.000000 -0.000000 -0.000000
3 12.145591 6.959348 -0.000000 -0.000000 0.000000 -0.005244
4 0.016275 4.251185 0.146113 -0.000000 -0.000000 -0.000000
5 -1.054260 6.513183 -0.146113 -0.000000 -0.000000 -0.000000
6 20.769485 -1.339334 -0.147712 -0.000000 -0.000000 -0.000000
7 2.072234 0.015830 -0.032509 -0.000000 -0.000000 -0.000000
8 -39.635696 -1.332721 -0.150054 -0.000000 -0.000000 -0.000000
9 -1.584118 0.008788 -0.032200 -0.000000 -0.000000 -0.000000
time 11
0 -0.018280 -7.632905 13.103640 1.570796 -0.000000 1.570752
1 17.096664 -2.899001 -0.000000 -0.000000 -0.000000 -0.000000
2 -0.828985 1.759263 -0.000000 -0.000000 -0.000000 -0.000000
3 12.145591 6.959348 -0.000000 -0.000000 0.000000 -0.005244
4 0.016275 4.251185 0.146113 -0.000000 -0.000000 -0.000000
5 -1.054260 6.513183 -0.146113 -0.000000 -0.000000 -0.000000
6 20.769485 -1.339334 -0.147712 -0.000000 -0.000000 -0.000000
7 2.072234 0.015830 -0.032509 -0.000000 -0.000000 -0.000000
8 -39.635696 -1.332721 -0.150054 -0.000000 -0.000000 -0.000000
9 -1.584118 0.008788 -0.032200 -0.000000 -0.000000 -0.000000
time 12
0 -0.018280 -7.632905 13.103640 1.570796 -0.000000 1.570752
1 17.096664 -2.899001 -0.000000 -0.000000 -0.000000 -0.000000
2 -0.828985 1.759263 -0.000000 -0.000000 -0.000000 -0.000000
3 12.145591 6.959348 -0.000000 -0.000000 0.000000 -0.005244
4 0.016275 4.251185 0.146113 -0.000000 -0.000000 -0.000000
5 -1.054260 6.513183 -0.146113 -0.000000 -0.000000 -0.000000
6 20.769485 -1.339334 -0.147712 -0.000000 -0.000000 -0.000000
7 2.072234 0.015830 -0.032509 -0.000000 -0.000000 -0.000000
8 -39.635696 -1.332721 -0.150054 -0.000000 -0.000000 -0.000000
9 -1.584118 0.008788 -0.032200 -0.000000 -0.000000 -0.000000
time 13
0 -0.018280 -7.632905 13.103640 1.570796 -0.000000 1.570752
1 17.096664 -2.899001 -0.000000 -0.000000 -0.000000 -0.000000
2 -0.828985 1.759263 -0.000000 -0.000000 -0.000000 -0.000000
3 12.145591 6.959348 -0.000000 -0.000000 0.000000 -0.005244
4 0.016275 4.251185 0.146113 -0.000000 -0.000000 -0.000000
5 -1.054260 6.513183 -0.146113 -0.000000 -0.000000 -0.000000
6 20.769485 -1.339334 -0.147712 -0.000000 -0.000000 -0.000000
7 2.072234 0.015830 -0.032509 -0.000000 -0.000000 -0.000000
8 -39.635696 -1.332721 -0.150054 -0.000000 -0.000000 -0.000000
9 -1.584118 0.008788 -0.032200 -0.000000 -0.000000 -0.000000
time 14
0 -0.018280 -7.632905 13.103640 1.570796 -0.000000 1.570752
1 17.096664 -2.899001 -0.000000 -0.000000 -0.000000 -0.000000
2 -0.828985 1.759263 -0.000000 -0.000000 -0.000000 -0.000000
3 12.145591 6.959348 -0.000000 -0.000000 0.000000 -0.005244
4 0.016275 4.251185 0.146113 -0.000000 -0.000000 -0.000000
5 -1.054260 6.513183 -0.146113 -0.000000 -0.000000 -0.000000
6 20.769485 -1.339334 -0.147712 -0.000000 -0.000000 -0.000000
7 2.072234 0.015830 -0.032509 -0.000000 -0.000000 -0.000000
8 -39.635696 -1.332721 -0.150054 -0.000000 -0.000000 -0.000000
9 -1.584118 0.008788 -0.032200 -0.000000 -0.000000 -0.000000
time 15
0 -0.018280 -7.632905 13.103640 1.570796 -0.000000 1.570752
1 17.096664 -2.899001 -0.000000 -0.000000 -0.000000 -0.000000
2 -0.828985 1.759263 -0.000000 -0.000000 -0.000000 -0.000000
3 12.145591 6.959348 -0.000000 -0.000000 0.000000 -0.005244
4 0.016275 4.251185 0.146113 -0.000000 -0.000000 -0.000000
5 -1.054260 6.513183 -0.146113 -0.000000 -0.000000 -0.000000
6 20.769485 -1.339334 -0.147712 -0.000000 -0.000000 -0.000000
7 2.072234 0.015830 -0.032509 -0.000000 -0.000000 -0.000000
8 -39.635696 -1.332721 -0.150054 -0.000000 -0.000000 -0.000000
9 -1.584118 0.008788 -0.032200 -0.000000 -0.000000 -0.000000
time 16
0 -0.018280 -7.632905 13.103640 1.570796 -0.000000 1.570752
1 17.096664 -2.899001 -0.000000 -0.000000 -0.000000 -0.000000
2 -0.828985 1.759263 -0.000000 -0.000000 -0.000000 -0.000000
3 12.145591 6.959348 -0.000000 -0.000000 0.000000 -0.005244
4 0.016275 4.251185 0.146113 -0.000000 -0.000000 -0.000000
5 -1.054260 6.513183 -0.146113 -0.000000 -0.000000 -0.000000
6 20.769485 -1.339334 -0.147712 -0.000000 -0.000000 -0.000000
7 2.072234 0.015830 -0.032509 -0.000000 -0.000000 -0.000000
8 -39.635696 -1.332721 -0.150054 -0.000000 -0.000000 -0.000000
9 -1.584118 0.008788 -0.032200 -0.000000 -0.000000 -0.000000
time 17
0 -0.018280 -7.632905 13.103640 1.570796 -0.000000 1.570752
1 17.096664 -2.899001 -0.000000 -0.000000 -0.000000 -0.000000
2 -0.828985 1.759263 -0.000000 -0.000000 -0.000000 -0.000000
3 12.145591 6.959348 -0.000000 -0.000000 0.000000 -0.005244
4 0.016275 4.251185 0.146113 -0.000000 -0.000000 -0.000000
5 -1.054260 6.513183 -0.146113 -0.000000 -0.000000 -0.000000
6 20.769485 -1.339334 -0.147712 -0.000000 -0.000000 -0.000000
7 2.072234 0.015830 -0.032509 -0.000000 -0.000000 -0.000000
8 -39.635696 -1.332721 -0.150054 -0.000000 -0.000000 -0.000000
9 -1.584118 0.008788 -0.032200 -0.000000 -0.000000 -0.000000
time 18
0 -0.018280 -7.632905 13.103640 1.570796 -0.000000 1.570752
1 17.096664 -2.899001 -0.000000 -0.000000 -0.000000 -0.000000
2 -0.828985 1.759263 -0.000000 -0.000000 -0.000000 -0.000000
3 12.145591 6.959348 -0.000000 -0.000000 0.000000 -0.005244
4 0.016275 4.251185 0.146113 -0.000000 -0.000000 -0.000000
5 -1.054260 6.513183 -0.146113 -0.000000 -0.000000 -0.000000
6 20.769485 -1.339334 -0.147712 -0.000000 -0.000000 -0.000000
7 2.072234 0.015830 -0.032509 -0.000000 -0.000000 -0.000000
8 -39.635696 -1.332721 -0.150054 -0.000000 -0.000000 -0.000000
9 -1.584118 0.008788 -0.032200 -0.000000 -0.000000 -0.000000
time 19
0 -0.018280 -7.632905 13.103640 1.570796 -0.000000 1.570752
1 17.096664 -2.899001 -0.000000 -0.000000 -0.000000 -0.000000
2 -0.828985 1.759263 -0.000000 -0.000000 -0.000000 -0.000000
3 12.145591 6.959348 -0.000000 -0.000000 0.000000 -0.005244
4 0.016275 4.251185 0.146113 -0.000000 -0.000000 -0.000000
5 -1.054260 6.513183 -0.146113 -0.000000 -0.000000 -0.000000
6 20.769485 -1.339334 -0.147712 -0.000000 -0.000000 -0.000000
7 2.072234 0.015830 -0.032509 -0.000000 -0.000000 -0.000000
8 -39.635696 -1.332721 -0.150054 -0.000000 -0.000000 -0.000000
9 -1.584118 0.008788 -0.032200 -0.000000 -0.000000 -0.000000
end
