version 1
nodes
  0 "static_prop" -1
end
skeleton
time 0
0 0.000000 0.000000 0.000000 0.000000 0.000000 0.000000
end
triangles
light_decklight
0 1.430200 5.715900 2.663700 -0.336594 0.941483 0.017700 0.402500 -0.008700 1 0 1.000000 
0 2.039200 6.027800 -2.339600 -0.336594 0.941483 0.017700 0.341700 -0.263200 1 0 1.000000 
0 -1.022200 4.919000 -1.588100 -0.336594 0.941483 0.017700 0.647100 -0.225000 1 0 1.000000 
light_decklight
0 -1.022200 4.578600 1.923900 -0.328590 -0.000000 0.944472 0.099500 -0.160500 1 0 1.000000 
0 -1.597100 -3.963400 1.668200 -0.268809 -0.010700 0.963134 0.846700 -0.182600 1 0 1.000000 
0 2.039200 -5.715900 2.663700 -0.282394 -0.015000 0.959181 1.000000 -0.042900 1 0 1.000000 
light_decklight
0 2.039200 -5.715900 2.663700 -0.282394 -0.015000 0.959181 1.000000 -0.042900 1 0 1.000000 
0 1.430200 5.715900 2.663700 -0.282394 -0.015000 0.959181 0.000000 -0.066300 1 0 1.000000 
0 -1.022200 4.578600 1.923900 -0.328590 -0.000000 0.944472 0.099500 -0.160500 1 0 1.000000 
light_decklight
0 -1.022200 4.578600 1.923900 -0.853908 0.518205 0.048000 0.647100 -0.046400 1 0 1.000000 
0 -1.022200 4.919000 -1.588100 -0.857424 0.512214 0.049601 0.647100 -0.225000 1 0 1.000000 
0 -1.597100 3.963400 -1.659000 -0.853908 0.518205 0.048000 0.704500 -0.228600 1 0 1.000000 
light_decklight
0 -1.597100 3.963400 -1.659000 -0.853908 0.518205 0.048000 0.704500 -0.228600 1 0 1.000000 
0 -2.023700 2.980800 1.357600 -0.853908 0.518205 0.048000 0.747000 -0.075200 1 0 1.000000 
0 -1.022200 4.578600 1.923900 -0.853908 0.518205 0.048000 0.647100 -0.046400 1 0 1.000000 
light_decklight
0 -1.022200 -4.578600 -1.914700 -0.853908 -0.518205 -0.048000 0.647100 -0.241600 1 0 1.000000 
0 -1.022200 -4.919000 1.597200 -0.857424 -0.512214 -0.049601 0.647100 -0.063000 1 0 1.000000 
0 -1.597100 -3.963400 1.668200 -0.853908 -0.518205 -0.048000 0.704500 -0.059400 1 0 1.000000 
light_decklight
0 -1.597100 -3.963400 1.668200 -0.853908 -0.518205 -0.048000 0.704500 -0.059400 1 0 1.000000 
0 -2.023700 -2.980700 -1.348400 -0.853908 -0.518205 -0.048000 0.747000 -0.212800 1 0 1.000000 
0 -1.022200 -4.578600 -1.914700 -0.853908 -0.518205 -0.048000 0.647100 -0.241600 1 0 1.000000 
light_decklight
0 -1.022200 -4.578600 -1.914700 -0.328590 -0.000000 -0.944472 0.900500 -0.161200 1 0 1.000000 
0 -1.597100 3.963400 -1.659000 -0.268809 0.010700 -0.963134 0.153300 -0.183200 1 0 1.000000 
0 2.039200 5.715900 -2.654600 -0.282394 0.015000 -0.959181 0.000000 -0.043800 1 0 1.000000 
light_decklight
0 2.039200 5.715900 -2.654600 -0.282394 0.015000 -0.959181 0.000000 -0.043800 1 0 1.000000 
0 1.430200 -5.715900 -2.654600 -0.282394 0.015000 -0.959181 1.000000 -0.067200 1 0 1.000000 
0 -1.022200 -4.578600 -1.914700 -0.328590 -0.000000 -0.944472 0.900500 -0.161200 1 0 1.000000 
light_decklight
0 1.808200 5.836100 2.208100 1.000000 0.000000 0.000000 0.995600 -0.508700 1 0 1.000000 
0 2.039200 -5.715900 2.663700 0.998688 0.018100 -0.047899 0.517700 -0.502600 1 0 1.000000 
0 1.808200 -5.836100 -2.198900 1.000000 0.000000 0.000000 0.505000 -0.600100 1 0 1.000000 
light_decklight
0 1.808200 -5.836100 -2.198900 1.000000 0.000000 0.000000 0.505000 -0.600100 1 0 1.000000 
0 2.039200 5.715900 -2.654600 0.998688 -0.018100 0.047899 0.982900 -0.606200 1 0 1.000000 
0 1.808200 5.836100 2.208100 1.000000 0.000000 0.000000 0.995600 -0.508700 1 0 1.000000 
light_decklight
0 -0.511700 6.850700 0.000600 -0.000000 1.000000 0.000000 0.659900 -0.138700 1 0 1.000000 
0 0.391100 6.850700 -0.292700 -0.000000 1.000000 0.000000 0.370700 -0.187300 1 0 1.000000 
0 -0.166900 6.850700 -0.474000 -0.000000 1.000000 0.000000 0.549400 -0.217300 1 0 1.000000 
light_decklight
0 -0.511700 6.850700 0.000600 -0.000000 1.000000 0.000000 0.659900 -0.138700 1 0 1.000000 
0 0.391100 6.850700 0.294000 -0.000000 1.000000 0.000000 0.370700 -0.090100 1 0 1.000000 
0 0.391100 6.850700 -0.292700 -0.000000 1.000000 0.000000 0.370700 -0.187300 1 0 1.000000 
light_decklight
0 -0.511700 6.850700 0.000600 -0.000000 1.000000 0.000000 0.659900 -0.138700 1 0 1.000000 
0 -0.166900 6.850700 0.475300 -0.000000 1.000000 0.000000 0.549400 -0.060100 1 0 1.000000 
0 0.391100 6.850700 0.294000 -0.000000 1.000000 0.000000 0.370700 -0.090100 1 0 1.000000 
light_decklight
0 2.039200 -5.715900 2.663700 0.620040 0.783051 -0.048803 1.000000 -0.127300 1 0 1.000000 
0 2.039200 -6.027800 -2.339600 0.620040 0.783051 -0.048803 0.000000 -0.127300 1 0 1.000000 
0 1.808200 -5.836100 -2.198900 0.620040 0.783051 -0.048803 0.000000 -0.179700 1 0 1.000000 
light_decklight
0 -0.357900 6.450300 0.251500 0.255693 -0.561784 0.786778 0.193900 -0.265200 1 0 1.000000 
0 0.414100 6.450300 0.000600 0.255693 -0.561784 0.786778 0.500000 -0.265200 1 0 1.000000 
0 -0.166900 6.850700 0.475300 0.255693 -0.561784 0.786778 0.270400 -0.145400 1 0 1.000000 
light_decklight
0 0.391100 6.850700 0.294000 0.255693 -0.561784 0.786778 0.423500 -0.145400 1 0 1.000000 
0 -0.166900 6.850700 0.475300 0.255693 -0.561784 0.786778 0.270400 -0.145400 1 0 1.000000 
0 0.414100 6.450300 0.000600 0.255693 -0.561784 0.786778 0.500000 -0.265200 1 0 1.000000 
light_decklight
0 1.430200 -5.715900 -2.654600 -0.336594 -0.941483 -0.017700 0.402500 -0.279200 1 0 1.000000 
0 2.039200 -6.027800 2.348700 -0.336594 -0.941483 -0.017700 0.341700 -0.024800 1 0 1.000000 
0 -1.022200 -4.919000 1.597200 -0.336594 -0.941483 -0.017700 0.647100 -0.063000 1 0 1.000000 
light_decklight
0 2.039200 5.715900 -2.654600 0.533615 0.022701 0.845423 0.000000 -0.143600 1 0 1.000000 
0 1.808200 -5.836100 -2.198900 0.533615 0.022701 0.845423 0.998400 -0.163400 1 0 1.000000 
0 2.039200 -6.027800 -2.339600 0.533615 0.022701 0.845423 0.998400 -0.143600 1 0 1.000000 
light_decklight
0 -1.022200 4.919000 -1.588100 -0.440487 0.893573 0.086597 0.647100 -0.225000 1 0 1.000000 
0 -1.022200 4.578600 1.923900 -0.440487 0.893573 0.086597 0.647100 -0.046400 1 0 1.000000 
0 1.430200 5.715900 2.663700 -0.440487 0.893573 0.086597 0.402500 -0.008700 1 0 1.000000 
light_decklight
0 2.039200 5.715900 -2.654600 0.620040 -0.783051 0.048803 0.000000 -0.127300 1 0 1.000000 
0 2.039200 6.027800 2.348700 0.620040 -0.783051 0.048803 1.000000 -0.127300 1 0 1.000000 
0 1.808200 5.836100 2.208100 0.620040 -0.783051 0.048803 1.000000 -0.179700 1 0 1.000000 
light_decklight
0 -2.023700 2.980800 1.357600 -0.990971 0.055398 -0.122096 0.081300 -0.261200 1 0 1.000000 
0 -1.597100 3.963400 -1.659000 -0.990971 0.055398 -0.122096 0.000000 -0.460100 1 0 1.000000 
0 -2.023700 -2.980700 -1.348400 -0.990971 0.055398 -0.122096 0.918700 -0.488000 1 0 1.000000 
light_decklight
0 2.039200 -5.715900 2.663700 0.533615 -0.022701 -0.845423 1.000000 -0.143600 1 0 1.000000 
0 1.808200 5.836100 2.208100 0.533615 -0.022701 -0.845423 0.001600 -0.163400 1 0 1.000000 
0 2.039200 6.027800 2.348700 0.533615 -0.022701 -0.845423 0.001600 -0.143600 1 0 1.000000 
light_decklight
0 -1.022200 -4.919000 1.597200 -0.440487 -0.893573 -0.086597 0.647100 -0.063000 1 0 1.000000 
0 -1.022200 -4.578600 -1.914700 -0.440487 -0.893573 -0.086597 0.647100 -0.241600 1 0 1.000000 
0 1.430200 -5.715900 -2.654600 -0.440487 -0.893573 -0.086597 0.402500 -0.279200 1 0 1.000000 
light_decklight
0 -0.166900 6.850700 0.475300 -0.807697 0.057400 0.586797 0.270400 -0.145400 1 0 1.000000 
0 -0.511700 6.850700 0.000600 -0.807697 0.057400 0.586797 0.117300 -0.145400 1 0 1.000000 
0 -0.357900 6.450300 0.251500 -0.807697 0.057400 0.586797 0.193900 -0.265200 1 0 1.000000 
light_decklight
0 -2.023700 -2.980700 -1.348400 -0.990971 -0.055398 0.122096 0.918700 -0.488000 1 0 1.000000 
0 -1.597100 -3.963400 1.668200 -0.990971 -0.055398 0.122096 1.000000 -0.289100 1 0 1.000000 
0 -2.023700 2.980800 1.357600 -0.990971 -0.055398 0.122096 0.081300 -0.261200 1 0 1.000000 
light_decklight
0 0.141500 -6.878600 0.475300 0.776623 -0.280208 0.564216 0.346900 -0.243600 1 0 1.000000 
0 0.486400 -6.878600 0.000600 0.776623 -0.280208 0.564216 0.500000 -0.243600 1 0 1.000000 
0 0.563400 -6.665000 0.000600 0.776623 -0.280208 0.564216 0.500000 -0.179700 1 0 1.000000 
light_decklight
0 -0.357900 6.450300 0.251500 -0.849032 0.004800 0.528320 0.000000 -0.183100 1 0 1.000000 
0 -0.511700 6.850700 0.000600 -0.849032 0.004800 0.528320 0.000000 -0.197700 1 0 1.000000 
0 -0.588800 -6.665000 0.000600 -0.849032 0.004800 0.528320 1.000000 -0.183100 1 0 1.000000 
light_decklight
0 0.119200 -6.478200 -0.405200 0.606383 -0.218794 -0.764479 0.653100 -0.123900 1 0 1.000000 
0 0.563400 -6.665000 0.000600 0.606383 -0.218794 -0.764479 0.500000 -0.179700 1 0 1.000000 
0 0.486400 -6.878600 0.000600 0.606383 -0.218794 -0.764479 0.500000 -0.243600 1 0 1.000000 
light_decklight
0 -0.166900 6.850700 -0.474000 0.636616 0.009700 -0.771120 0.000000 -0.095100 1 0 1.000000 
0 0.414100 6.450300 0.000600 0.636616 0.009700 -0.771120 0.000000 -0.124400 1 0 1.000000 
0 0.119200 -6.478200 -0.405200 0.587803 0.000000 -0.809004 1.000000 -0.095100 1 0 1.000000 
light_decklight
0 2.039200 6.027800 2.348700 1.000000 0.000000 0.000000 0.782500 -0.084100 1 0 1.000000 
0 2.039200 5.715900 -2.654600 1.000000 0.000000 0.000000 0.767900 -0.175600 1 0 1.000000 
0 2.039200 6.027800 -2.339600 1.000000 0.000000 0.000000 0.782500 -0.169800 1 0 1.000000 
light_decklight
0 -0.357900 6.450300 0.251500 -0.495800 -0.007900 0.868401 0.000000 -0.183100 1 0 1.000000 
0 -0.588800 -6.665000 0.000600 -0.495800 -0.007900 0.868401 1.000000 -0.183100 1 0 1.000000 
0 0.119200 -6.478200 0.406500 -0.495800 -0.007900 0.868401 1.000000 -0.153800 1 0 1.000000 
light_decklight
0 2.039200 6.027800 -2.339600 -0.395109 0.652814 -0.646314 0.341700 -0.263200 1 0 1.000000 
0 2.039200 5.715900 -2.654600 -0.395109 0.652814 -0.646314 0.341700 -0.279200 1 0 1.000000 
0 -1.022200 4.919000 -1.588100 -0.395109 0.652814 -0.646314 0.647100 -0.225000 1 0 1.000000 
light_decklight
0 -0.166900 6.850700 -0.474000 -0.198895 -0.009300 -0.979977 0.000000 -0.095100 1 0 1.000000 
0 0.119200 -6.478200 -0.405200 -0.198895 -0.009300 -0.979977 1.000000 -0.095100 1 0 1.000000 
0 -0.416400 -6.878600 -0.292700 -0.198895 -0.009300 -0.979977 1.000000 -0.065800 1 0 1.000000 
light_decklight
0 2.039200 -6.027800 -2.339600 1.000000 0.000000 0.000000 0.217500 -0.169800 1 0 1.000000 
0 2.039200 -5.715900 2.663700 1.000000 0.000000 0.000000 0.232100 -0.078300 1 0 1.000000 
0 2.039200 -6.027800 2.348700 1.000000 0.000000 0.000000 0.217500 -0.084100 1 0 1.000000 
light_decklight
0 0.414100 6.450300 0.000600 1.000000 0.000000 0.000000 0.000000 -0.124400 1 0 1.000000 
0 0.119200 -6.478200 0.406500 0.999740 -0.022801 0.000000 1.000000 -0.153800 1 0 1.000000 
0 0.119200 -6.478200 -0.405200 0.999740 -0.022801 0.000000 1.000000 -0.095100 1 0 1.000000 
light_decklight
0 2.039200 -6.027800 2.348700 -0.395109 -0.652814 0.646314 0.341700 -0.024800 1 0 1.000000 
0 2.039200 -5.715900 2.663700 -0.395109 -0.652814 0.646314 0.341700 -0.008700 1 0 1.000000 
0 -1.022200 -4.919000 1.597200 -0.395109 -0.652814 0.646314 0.647100 -0.063000 1 0 1.000000 
light_decklight
0 0.486400 -6.878600 0.000600 -0.192891 -0.971153 -0.140193 0.340100 -0.138700 1 0 1.000000 
0 0.141500 -6.878600 0.475300 -0.192891 -0.971153 -0.140193 0.450600 -0.060100 1 0 1.000000 
0 -0.588800 -6.665000 0.000600 -0.192891 -0.971153 -0.140193 0.629300 -0.090100 1 0 1.000000 
light_decklight
0 2.039200 -6.027800 2.348700 -0.455793 -0.890086 0.000000 0.341700 -0.024800 1 0 1.000000 
0 1.430200 -5.715900 -2.654600 -0.455793 -0.890086 0.000000 0.402500 -0.279200 1 0 1.000000 
0 2.039200 -6.027800 -2.339600 -0.455793 -0.890086 0.000000 0.341700 -0.263200 1 0 1.000000 
light_decklight
0 0.414100 6.450300 0.000600 0.308906 0.022800 0.950819 0.000000 -0.124400 1 0 1.000000 
0 -0.357900 6.450300 0.251500 0.308906 0.022800 0.950819 0.000000 -0.183100 1 0 1.000000 
0 0.119200 -6.478200 0.406500 0.308989 0.000000 0.951066 1.000000 -0.153800 1 0 1.000000 
light_decklight
0 2.039200 5.715900 -2.654600 0.449603 -0.024000 -0.892906 0.000000 -0.043800 1 0 1.000000 
0 2.039200 -6.027800 -2.339600 0.449603 -0.024000 -0.892906 1.000000 -0.043800 1 0 1.000000 
0 1.430200 -5.715900 -2.654600 0.449603 -0.024000 -0.892906 1.000000 -0.067200 1 0 1.000000 
light_decklight
0 -1.597100 3.963400 -1.659000 -0.530421 -0.000000 -0.847734 0.153300 -0.183200 1 0 1.000000 
0 -1.022200 -4.578600 -1.914700 -0.501628 -0.007900 -0.865047 0.900500 -0.161200 1 0 1.000000 
0 -2.023700 -2.980700 -1.348400 -0.501628 -0.007900 -0.865047 0.760700 -0.199500 1 0 1.000000 
light_decklight
0 2.039200 6.027800 -2.339600 -0.455793 0.890086 0.000000 0.341700 -0.263200 1 0 1.000000 
0 1.430200 5.715900 2.663700 -0.455793 0.890086 0.000000 0.402500 -0.008700 1 0 1.000000 
0 2.039200 6.027800 2.348700 -0.455793 0.890086 0.000000 0.341700 -0.024800 1 0 1.000000 
light_decklight
0 -1.597100 -3.963400 1.668200 -0.530421 -0.000000 0.847734 0.846700 -0.182600 1 0 1.000000 
0 -1.022200 4.578600 1.923900 -0.501628 0.007900 0.865047 0.099500 -0.160500 1 0 1.000000 
0 -2.023700 2.980800 1.357600 -0.501628 0.007900 0.865047 0.239300 -0.199100 1 0 1.000000 
light_decklight
0 2.039200 -5.715900 2.663700 0.449603 0.024000 0.892906 1.000000 -0.042900 1 0 1.000000 
0 2.039200 6.027800 2.348700 0.449603 0.024000 0.892906 0.000000 -0.042900 1 0 1.000000 
0 1.430200 5.715900 2.663700 0.449603 0.024000 0.892906 0.000000 -0.066300 1 0 1.000000 
light_decklight
0 -0.511700 6.850700 0.000600 -0.808985 0.006900 -0.587789 0.000000 -0.065800 1 0 1.000000 
0 -0.166900 6.850700 -0.474000 -0.808985 0.006900 -0.587789 0.000000 -0.095100 1 0 1.000000 
0 -0.416400 -6.878600 -0.292700 -0.808985 0.006900 -0.587789 1.000000 -0.065800 1 0 1.000000 
light_decklight
0 0.486400 -6.878600 0.000600 -0.167096 -0.841181 0.514289 0.340100 -0.138700 1 0 1.000000 
0 -0.588800 -6.665000 0.000600 -0.167096 -0.841181 0.514289 0.629300 -0.090100 1 0 1.000000 
0 -0.416400 -6.878600 -0.292700 -0.167096 -0.841181 0.514289 0.629300 -0.187300 1 0 1.000000 
light_decklight
0 0.119200 -6.478200 -0.405200 0.387610 0.921823 0.000000 0.653100 -0.123900 1 0 1.000000 
0 0.119200 -6.478200 0.406500 0.387610 0.921823 0.000000 0.346900 -0.123900 1 0 1.000000 
0 0.563400 -6.665000 0.000600 0.387610 0.921823 0.000000 0.500000 -0.179700 1 0 1.000000 
light_decklight
0 -0.511700 6.850700 0.000600 -0.860581 0.004900 -0.509289 0.000000 -0.065800 1 0 1.000000 
0 -0.416400 -6.878600 -0.292700 -0.860581 0.004900 -0.509289 1.000000 -0.065800 1 0 1.000000 
0 -0.588800 -6.665000 0.000600 -0.860581 0.004900 -0.509289 1.000000 -0.051100 1 0 1.000000 
light_decklight
0 0.486400 -6.878600 0.000600 0.255497 -0.562694 -0.786191 0.500000 -0.243600 1 0 1.000000 
0 -0.416400 -6.878600 -0.292700 0.255497 -0.562694 -0.786191 0.806100 -0.243600 1 0 1.000000 
0 0.119200 -6.478200 -0.405200 0.255497 -0.562694 -0.786191 0.653100 -0.123900 1 0 1.000000 
light_decklight
0 -0.588800 -6.665000 0.000600 -0.516991 0.116798 0.847985 0.117300 -0.179700 1 0 1.000000 
0 0.141500 -6.878600 0.475300 -0.516991 0.116798 0.847985 0.346900 -0.243600 1 0 1.000000 
0 0.119200 -6.478200 0.406500 -0.516991 0.116798 0.847985 0.346900 -0.123900 1 0 1.000000 
light_decklight
0 0.414100 6.450300 0.000600 0.255693 -0.561784 -0.786778 0.500000 -0.265200 1 0 1.000000 
0 -0.166900 6.850700 -0.474000 0.255693 -0.561784 -0.786778 0.729600 -0.145400 1 0 1.000000 
0 0.391100 6.850700 -0.292700 0.255693 -0.561784 -0.786778 0.576500 -0.145400 1 0 1.000000 
light_decklight
0 0.141500 -6.878600 0.475300 0.701461 0.158491 0.694862 0.346900 -0.243600 1 0 1.000000 
0 0.563400 -6.665000 0.000600 0.701461 0.158491 0.694862 0.500000 -0.179700 1 0 1.000000 
0 0.119200 -6.478200 0.406500 0.701461 0.158491 0.694862 0.346900 -0.123900 1 0 1.000000 
light_decklight
0 -1.597100 3.963400 -1.659000 -0.381908 0.294807 -0.875919 0.704500 -0.228600 1 0 1.000000 
0 -1.022200 4.919000 -1.588100 -0.381908 0.294807 -0.875919 0.647100 -0.225000 1 0 1.000000 
0 2.039200 5.715900 -2.654600 -0.381908 0.294807 -0.875919 0.341700 -0.279200 1 0 1.000000 
light_decklight
0 0.391100 6.850700 -0.292700 0.998351 0.057397 0.000000 0.576500 -0.145400 1 0 1.000000 
0 0.391100 6.850700 0.294000 0.998351 0.057397 0.000000 0.423500 -0.145400 1 0 1.000000 
0 0.414100 6.450300 0.000600 0.998351 0.057397 0.000000 0.500000 -0.265200 1 0 1.000000 
light_decklight
0 -1.597100 -3.963400 1.668200 -0.381908 -0.294807 0.875919 0.704500 -0.059400 1 0 1.000000 
0 -1.022200 -4.919000 1.597200 -0.381908 -0.294807 0.875919 0.647100 -0.063000 1 0 1.000000 
0 2.039200 -5.715900 2.663700 -0.381908 -0.294807 0.875919 0.341700 -0.008700 1 0 1.000000 
end
