version 1
nodes
  0 "static_prop" -1
end
skeleton
time 0
0 0.000000 0.000000 0.000000 0.000000 0.000000 0.000000
end
triangles
light_fluorescent003a
0 2.525000 6.000000 -0.003000 -0.000000 0.042400 0.999101 0.038000 -0.019700 1 0 1.000000 
0 -2.375000 5.929300 0.000000 -0.000000 0.021199 0.999775 0.185100 -0.019500 1 0 1.000000 
0 2.525000 5.929300 0.000000 -0.000000 0.021199 0.999775 0.038000 -0.019500 1 0 1.000000 
light_fluorescent003a
0 2.525000 6.000000 -0.003000 -0.000000 0.042400 0.999101 0.038000 -0.019700 1 0 1.000000 
0 -2.375000 6.000000 -0.003000 -0.000000 0.042400 0.999101 0.185100 -0.019700 1 0 1.000000 
0 -2.375000 5.929300 0.000000 -0.000000 0.021199 0.999775 0.185100 -0.019500 1 0 1.000000 
light_fluorescent003a
0 -2.448800 -6.000000 -2.391400 0.000000 -1.000000 0.000000 0.187300 -0.175500 1 0 1.000000 
0 -2.375000 -6.000000 -0.003000 0.000000 -1.000000 0.000000 0.185100 -0.019700 1 0 1.000000 
0 -2.472000 -6.000000 -0.100000 0.000000 -1.000000 0.000000 0.188000 -0.026000 1 0 1.000000 
light_fluorescent003a
0 -2.448800 -6.000000 -2.391400 0.000000 -1.000000 0.000000 0.187300 -0.175500 1 0 1.000000 
0 2.525000 -6.000000 -0.003000 0.000000 -1.000000 0.000000 0.038000 -0.019700 1 0 1.000000 
0 -2.375000 -6.000000 -0.003000 0.000000 -1.000000 0.000000 0.185100 -0.019700 1 0 1.000000 
light_fluorescent003a
0 -2.448800 -6.000000 -2.391400 0.000000 -1.000000 0.000000 0.187300 -0.175500 1 0 1.000000 
0 2.525000 -6.000000 -5.997000 0.000000 -1.000000 0.000000 0.038000 -0.410800 1 0 1.000000 
0 2.525000 -6.000000 -0.003000 0.000000 -1.000000 0.000000 0.038000 -0.019700 1 0 1.000000 
light_fluorescent003a
0 -2.448800 -6.000000 -2.391400 0.000000 -1.000000 0.000000 0.187300 -0.175500 1 0 1.000000 
0 1.133600 -6.000000 -5.973800 0.000000 -1.000000 0.000000 0.079800 -0.409300 1 0 1.000000 
0 2.525000 -6.000000 -5.997000 0.000000 -1.000000 0.000000 0.038000 -0.410800 1 0 1.000000 
light_fluorescent003a
0 -2.448800 -6.000000 -2.391400 0.000000 -1.000000 0.000000 0.187300 -0.175500 1 0 1.000000 
0 0.365900 -6.000000 -5.821100 0.000000 -1.000000 0.000000 0.102800 -0.399300 1 0 1.000000 
0 1.133600 -6.000000 -5.973800 0.000000 -1.000000 0.000000 0.079800 -0.409300 1 0 1.000000 
light_fluorescent003a
0 -2.448800 -6.000000 -2.391400 0.000000 -1.000000 0.000000 0.187300 -0.175500 1 0 1.000000 
0 -0.693400 -6.000000 -5.320100 0.000000 -1.000000 0.000000 0.134600 -0.366600 1 0 1.000000 
0 0.365900 -6.000000 -5.821100 0.000000 -1.000000 0.000000 0.102800 -0.399300 1 0 1.000000 
light_fluorescent003a
0 -2.448800 -6.000000 -2.391400 0.000000 -1.000000 0.000000 0.187300 -0.175500 1 0 1.000000 
0 -1.008200 -6.000000 -5.086700 0.000000 -1.000000 0.000000 0.144100 -0.351400 1 0 1.000000 
0 -0.693400 -6.000000 -5.320100 0.000000 -1.000000 0.000000 0.134600 -0.366600 1 0 1.000000 
light_fluorescent003a
0 -2.448800 -6.000000 -2.391400 0.000000 -1.000000 0.000000 0.187300 -0.175500 1 0 1.000000 
0 -1.561700 -6.000000 -4.533200 0.000000 -1.000000 0.000000 0.160700 -0.315300 1 0 1.000000 
0 -1.008200 -6.000000 -5.086700 0.000000 -1.000000 0.000000 0.144100 -0.351400 1 0 1.000000 
light_fluorescent003a
0 -2.448800 -6.000000 -2.391400 0.000000 -1.000000 0.000000 0.187300 -0.175500 1 0 1.000000 
0 -2.164100 -6.000000 -3.528100 0.000000 -1.000000 0.000000 0.178800 -0.249700 1 0 1.000000 
0 -1.561700 -6.000000 -4.533200 0.000000 -1.000000 0.000000 0.160700 -0.315300 1 0 1.000000 
light_fluorescent003a
0 -2.448800 -6.000000 -2.391400 0.000000 -1.000000 0.000000 0.187300 -0.175500 1 0 1.000000 
0 -2.391300 -6.000000 -2.779000 0.000000 -1.000000 0.000000 0.185600 -0.200800 1 0 1.000000 
0 -2.164100 -6.000000 -3.528100 0.000000 -1.000000 0.000000 0.178800 -0.249700 1 0 1.000000 
light_fluorescent003a
0 1.525000 -5.000000 -6.000000 -1.000000 -0.000000 0.000000 0.478000 -0.413200 1 0 1.000000 
0 1.525000 5.000000 -2.000000 -1.000000 -0.000000 0.000000 0.017800 -0.013200 1 0 1.000000 
0 1.525000 5.000000 -6.000000 -1.000000 -0.000000 0.000000 0.017800 -0.413200 1 0 1.000000 
light_fluorescent003a
0 1.525000 -5.000000 -6.000000 -1.000000 -0.000000 0.000000 0.478000 -0.413200 1 0 1.000000 
0 1.525000 -5.000000 -2.000000 -1.000000 -0.000000 0.000000 0.478000 -0.013200 1 0 1.000000 
0 1.525000 5.000000 -2.000000 -1.000000 -0.000000 0.000000 0.017800 -0.013200 1 0 1.000000 
light_fluorescent003a
0 -2.475000 5.000000 -2.000000 0.000000 0.000000 -1.000000 0.478000 -0.410000 1 0 1.000000 
0 1.525000 -5.000000 -2.000000 0.000000 0.000000 -1.000000 0.017800 -0.010000 1 0 1.000000 
0 -2.475000 -5.000000 -2.000000 -0.999646 0.000900 -0.026601 0.017800 -0.410000 1 0 1.000000 
light_fluorescent003a
0 -2.475000 5.000000 -2.000000 0.000000 0.000000 -1.000000 0.478000 -0.410000 1 0 1.000000 
0 1.525000 5.000000 -2.000000 0.000000 0.000000 -1.000000 0.478000 -0.010000 1 0 1.000000 
0 1.525000 -5.000000 -2.000000 0.000000 0.000000 -1.000000 0.017800 -0.010000 1 0 1.000000 
light_fluorescent003a
0 -2.375000 5.929300 0.000000 -0.000000 0.021199 0.999775 0.478000 -0.005000 1 0 1.000000 
0 2.525000 -5.929300 0.000000 0.000000 -0.021199 0.999775 0.017800 -0.418200 1 0 1.000000 
0 2.525000 5.929300 0.000000 -0.000000 0.021199 0.999775 0.478000 -0.418200 1 0 1.000000 
light_fluorescent003a
0 -2.375000 5.929300 0.000000 -0.000000 0.021199 0.999775 0.478000 -0.005000 1 0 1.000000 
0 -2.375000 -5.929300 0.000000 0.000000 -0.021199 0.999775 0.017800 -0.005000 1 0 1.000000 
0 2.525000 -5.929300 0.000000 0.000000 -0.021199 0.999775 0.017800 -0.418200 1 0 1.000000 
light_fluorescent003a
0 -2.472000 -6.000000 -0.100000 -0.706788 -0.030000 0.706788 0.188000 -0.026000 1 0 1.000000 
0 -2.375000 -5.929300 0.000000 -0.707027 -0.015001 0.707027 0.185100 -0.019500 1 0 1.000000 
0 -2.475000 -5.929300 -0.100000 -0.707027 -0.015001 0.707027 0.188100 -0.026000 1 0 1.000000 
light_fluorescent003a
0 -2.472000 -6.000000 -0.100000 -0.706788 -0.030000 0.706788 0.188000 -0.026000 1 0 1.000000 
0 -2.375000 -6.000000 -0.003000 -0.706788 -0.030000 0.706788 0.185100 -0.019700 1 0 1.000000 
0 -2.375000 -5.929300 0.000000 -0.707027 -0.015001 0.707027 0.185100 -0.019500 1 0 1.000000 
light_fluorescent003a
0 -2.375000 -6.000000 -0.003000 0.000000 -0.042400 0.999101 0.185100 -0.019700 1 0 1.000000 
0 2.525000 -5.929300 0.000000 0.000000 -0.021199 0.999775 0.038000 -0.019500 1 0 1.000000 
0 -2.375000 -5.929300 0.000000 0.000000 -0.021199 0.999775 0.185100 -0.019500 1 0 1.000000 
light_fluorescent003a
0 -2.375000 -6.000000 -0.003000 0.000000 -0.042400 0.999101 0.185100 -0.019700 1 0 1.000000 
0 2.525000 -6.000000 -0.003000 0.000000 -0.042400 0.999101 0.038000 -0.019700 1 0 1.000000 
0 2.525000 -5.929300 0.000000 0.000000 -0.021199 0.999775 0.038000 -0.019500 1 0 1.000000 
light_fluorescent003a
0 -2.375000 6.000000 -0.003000 -0.706788 0.029999 0.706788 0.185100 -0.019700 1 0 1.000000 
0 -2.475000 5.929300 -0.100000 -0.707027 0.015001 0.707027 0.188100 -0.026000 1 0 1.000000 
0 -2.375000 5.929300 0.000000 -0.707027 0.015001 0.707027 0.185100 -0.019500 1 0 1.000000 
light_fluorescent003a
0 -2.375000 6.000000 -0.003000 -0.706788 0.029999 0.706788 0.185100 -0.019700 1 0 1.000000 
0 -2.472000 6.000000 -0.100000 -0.706788 0.029999 0.706788 0.188000 -0.026000 1 0 1.000000 
0 -2.475000 5.929300 -0.100000 -0.707027 0.015001 0.707027 0.188100 -0.026000 1 0 1.000000 
light_fluorescent003a
0 -2.475000 5.929300 -0.100000 -0.707027 0.015001 0.707027 0.017800 -0.116200 1 0 1.000000 
0 -2.375000 -5.929300 0.000000 -0.707027 -0.015001 0.707027 0.478000 -0.105600 1 0 1.000000 
0 -2.375000 5.929300 0.000000 -0.707027 0.015001 0.707027 0.017800 -0.105600 1 0 1.000000 
light_fluorescent003a
0 -2.475000 5.929300 -0.100000 -0.707027 0.015001 0.707027 0.017800 -0.116200 1 0 1.000000 
0 -2.475000 -5.929300 -0.100000 -0.707027 -0.015001 0.707027 0.478000 -0.116200 1 0 1.000000 
0 -2.375000 -5.929300 0.000000 -0.707027 -0.015001 0.707027 0.478000 -0.105600 1 0 1.000000 
light_fluorescent003a
0 2.525000 -5.929300 -6.000000 0.000000 -0.010600 -0.999944 0.017800 -0.105700 1 0 1.000000 
0 1.132900 -5.929300 -5.980700 -0.067601 -0.042301 -0.996815 0.017800 -0.190100 1 0 1.000000 
0 1.525000 -5.000000 -6.000000 -0.024500 -0.000000 -0.999700 0.053900 -0.190100 1 0 1.000000 
light_fluorescent003a
0 2.525000 -5.929300 -6.000000 0.000000 -0.010600 -0.999944 0.017800 -0.105700 1 0 1.000000 
0 1.525000 -5.000000 -6.000000 -0.024500 -0.000000 -0.999700 0.053900 -0.190100 1 0 1.000000 
0 1.525000 5.000000 -6.000000 -0.012300 -0.000000 -0.999924 0.441900 -0.190100 1 0 1.000000 
light_fluorescent003a
0 1.525000 5.000000 -6.000000 -0.012300 -0.000000 -0.999924 0.441900 -0.190100 1 0 1.000000 
0 2.525000 5.929300 -6.000000 -0.000100 0.022901 -0.999738 0.478000 -0.105700 1 0 1.000000 
0 2.525000 -5.929300 -6.000000 0.000000 -0.010600 -0.999944 0.017800 -0.105700 1 0 1.000000 
light_fluorescent003a
0 1.525000 5.000000 -6.000000 -0.012300 -0.000000 -0.999924 0.441900 -0.190100 1 0 1.000000 
0 1.132900 5.929300 -5.980700 -0.103405 0.042102 -0.993748 0.478000 -0.190100 1 0 1.000000 
0 2.525000 5.929300 -6.000000 -0.000100 0.022901 -0.999738 0.478000 -0.105700 1 0 1.000000 
light_fluorescent003a
0 -2.475000 -5.000000 -2.000000 -0.999924 -0.000000 -0.012300 0.441900 -0.268800 1 0 1.000000 
0 -2.455700 -5.929300 -2.392100 -0.994893 -0.042600 -0.091499 0.478000 -0.268800 1 0 1.000000 
0 -2.475000 -5.929300 -0.100000 -0.999738 -0.022901 -0.000100 0.478000 -0.116200 1 0 1.000000 
light_fluorescent003a
0 -2.475000 -5.000000 -2.000000 -0.999924 -0.000000 -0.012300 0.441900 -0.268800 1 0 1.000000 
0 -2.475000 -5.929300 -0.100000 -0.999738 -0.022901 -0.000100 0.478000 -0.116200 1 0 1.000000 
0 -2.475000 5.929300 -0.100000 -0.999944 0.010600 0.000000 0.017800 -0.116200 1 0 1.000000 
light_fluorescent003a
0 -2.475000 5.929300 -0.100000 -0.999944 0.010600 0.000000 0.017800 -0.116200 1 0 1.000000 
0 -2.475000 5.000000 -2.000000 -0.999700 -0.000000 -0.024500 0.053900 -0.268800 1 0 1.000000 
0 -2.475000 -5.000000 -2.000000 -0.999924 -0.000000 -0.012300 0.441900 -0.268800 1 0 1.000000 
light_fluorescent003a
0 -2.475000 5.929300 -0.100000 -0.999944 0.010600 0.000000 0.017800 -0.116200 1 0 1.000000 
0 -2.455700 5.929300 -2.392100 -0.996794 0.039100 -0.069800 0.017800 -0.268800 1 0 1.000000 
0 -2.475000 5.000000 -2.000000 -0.999700 -0.000000 -0.024500 0.053900 -0.268800 1 0 1.000000 
light_fluorescent003a
0 -2.455700 5.929300 -2.392100 -0.995705 0.040800 -0.083100 0.187600 -0.175600 1 0 1.000000 
0 -2.475000 5.929300 -0.100000 -0.999944 0.010600 0.000000 0.188100 -0.026000 1 0 1.000000 
0 -2.472000 6.000000 -0.100000 -0.998955 0.045698 -0.000100 0.188000 -0.026000 1 0 1.000000 
light_fluorescent003a
0 -2.455700 5.929300 -2.392100 -0.995705 0.040800 -0.083100 0.187600 -0.175600 1 0 1.000000 
0 -2.472000 6.000000 -0.100000 -0.998955 0.045698 -0.000100 0.188000 -0.026000 1 0 1.000000 
0 -2.448800 6.000000 -2.391400 -0.988351 0.097695 -0.116694 0.187300 -0.175500 1 0 1.000000 
light_fluorescent003a
0 -2.448800 6.000000 -2.391400 -0.988351 0.097695 -0.116694 0.187300 -0.175500 1 0 1.000000 
0 -2.398100 5.929300 -2.780400 -0.982670 0.048898 -0.178795 0.185800 -0.200900 1 0 1.000000 
0 -2.455700 5.929300 -2.392100 -0.995705 0.040800 -0.083100 0.187600 -0.175600 1 0 1.000000 
light_fluorescent003a
0 -2.448800 6.000000 -2.391400 -0.988351 0.097695 -0.116694 0.187300 -0.175500 1 0 1.000000 
0 -2.296100 6.000000 -3.159100 -0.947490 0.097699 -0.304497 0.182800 -0.225600 1 0 1.000000 
0 -2.398100 5.929300 -2.780400 -0.982670 0.048898 -0.178795 0.185800 -0.200900 1 0 1.000000 
light_fluorescent003a
0 -2.296100 6.000000 -3.159100 -0.947490 0.097699 -0.304497 0.182800 -0.225600 1 0 1.000000 
0 -2.170500 5.929300 -3.530700 -0.928896 0.048900 -0.367098 0.179000 -0.249900 1 0 1.000000 
0 -2.398100 5.929300 -2.780400 -0.982670 0.048898 -0.178795 0.185800 -0.200900 1 0 1.000000 
light_fluorescent003a
0 -2.296100 6.000000 -3.159100 -0.947490 0.097699 -0.304497 0.182800 -0.225600 1 0 1.000000 
0 -1.996600 6.000000 -3.882300 -0.873879 0.182496 -0.450589 0.173800 -0.272800 1 0 1.000000 
0 -2.170500 5.929300 -3.530700 -0.928896 0.048900 -0.367098 0.179000 -0.249900 1 0 1.000000 
light_fluorescent003a
0 -1.996600 6.000000 -3.882300 -0.873879 0.182496 -0.450589 0.173800 -0.272800 1 0 1.000000 
0 -2.002700 5.929300 -3.885600 -0.888485 0.048899 -0.456292 0.173900 -0.273000 1 0 1.000000 
0 -2.170500 5.929300 -3.530700 -0.928896 0.048900 -0.367098 0.179000 -0.249900 1 0 1.000000 
light_fluorescent003a
0 -1.996600 6.000000 -3.882300 -0.873879 0.182496 -0.450589 0.173800 -0.272800 1 0 1.000000 
0 -1.561700 6.000000 -4.533200 -0.750925 0.213507 -0.624921 0.160700 -0.315300 1 0 1.000000 
0 -2.002700 5.929300 -3.885600 -0.888485 0.048899 -0.456292 0.173900 -0.273000 1 0 1.000000 
light_fluorescent003a
0 -1.561700 6.000000 -4.533200 -0.750925 0.213507 -0.624921 0.160700 -0.315300 1 0 1.000000 
0 -1.567000 5.929300 -4.537600 -0.782377 0.048899 -0.620882 0.160900 -0.315600 1 0 1.000000 
0 -2.002700 5.929300 -3.885600 -0.888485 0.048899 -0.456292 0.173900 -0.273000 1 0 1.000000 
light_fluorescent003a
0 -1.561700 6.000000 -4.533200 -0.750925 0.213507 -0.624921 0.160700 -0.315300 1 0 1.000000 
0 -1.012600 5.929300 -5.092000 -0.646200 0.048900 -0.761600 0.144200 -0.351800 1 0 1.000000 
0 -1.567000 5.929300 -4.537600 -0.782377 0.048899 -0.620882 0.160900 -0.315600 1 0 1.000000 
light_fluorescent003a
0 -1.561700 6.000000 -4.533200 -0.750925 0.213507 -0.624921 0.160700 -0.315300 1 0 1.000000 
0 -0.693400 6.000000 -5.320100 -0.525608 0.324005 -0.786611 0.134600 -0.366600 1 0 1.000000 
0 -1.012600 5.929300 -5.092000 -0.646200 0.048900 -0.761600 0.144200 -0.351800 1 0 1.000000 
light_fluorescent003a
0 -0.693400 6.000000 -5.320100 -0.525608 0.324005 -0.786611 0.134600 -0.366600 1 0 1.000000 
0 -0.360600 5.929300 -5.527700 -0.485215 0.048901 -0.873026 0.124600 -0.380200 1 0 1.000000 
0 -1.012600 5.929300 -5.092000 -0.646200 0.048900 -0.761600 0.144200 -0.351800 1 0 1.000000 
light_fluorescent003a
0 -0.693400 6.000000 -5.320100 -0.525608 0.324005 -0.786611 0.134600 -0.366600 1 0 1.000000 
0 0.365900 6.000000 -5.821100 -0.321203 0.252203 -0.912810 0.102800 -0.399300 1 0 1.000000 
0 -0.360600 5.929300 -5.527700 -0.485215 0.048901 -0.873026 0.124600 -0.380200 1 0 1.000000 
light_fluorescent003a
0 0.365900 6.000000 -5.821100 -0.321203 0.252203 -0.912810 0.102800 -0.399300 1 0 1.000000 
0 0.363900 5.929300 -5.827800 -0.305510 0.048902 -0.950932 0.102900 -0.399800 1 0 1.000000 
0 -0.360600 5.929300 -5.527700 -0.485215 0.048901 -0.873026 0.124600 -0.380200 1 0 1.000000 
light_fluorescent003a
0 0.365900 6.000000 -5.821100 -0.321203 0.252203 -0.912810 0.102800 -0.399300 1 0 1.000000 
0 1.133600 6.000000 -5.973800 -0.084300 0.081500 -0.993102 0.079800 -0.409300 1 0 1.000000 
0 0.363900 5.929300 -5.827800 -0.305510 0.048902 -0.950932 0.102900 -0.399800 1 0 1.000000 
light_fluorescent003a
0 1.132900 5.929300 -5.980700 -0.114195 0.048898 -0.992254 0.079800 -0.409700 1 0 1.000000 
0 0.363900 5.929300 -5.827800 -0.305510 0.048902 -0.950932 0.102900 -0.399800 1 0 1.000000 
0 1.133600 6.000000 -5.973800 -0.084300 0.081500 -0.993102 0.079800 -0.409300 1 0 1.000000 
light_fluorescent003a
0 1.133600 6.000000 -5.973800 -0.084300 0.081500 -0.993102 0.079800 -0.409300 1 0 1.000000 
0 2.525000 5.929300 -6.000000 -0.000100 0.022901 -0.999738 0.038000 -0.411000 1 0 1.000000 
0 1.132900 5.929300 -5.980700 -0.114195 0.048898 -0.992254 0.079800 -0.409700 1 0 1.000000 
light_fluorescent003a
0 1.133600 6.000000 -5.973800 -0.084300 0.081500 -0.993102 0.079800 -0.409300 1 0 1.000000 
0 2.525000 6.000000 -5.997000 -0.000500 0.042400 -0.999100 0.038000 -0.410800 1 0 1.000000 
0 2.525000 5.929300 -6.000000 -0.000100 0.022901 -0.999738 0.038000 -0.411000 1 0 1.000000 
light_fluorescent003a
0 -2.448800 -6.000000 -2.391400 -0.993102 -0.081500 -0.084300 0.187300 -0.175500 1 0 1.000000 
0 -2.472000 -6.000000 -0.100000 -0.999101 -0.042400 -0.000200 0.188000 -0.026000 1 0 1.000000 
0 -2.475000 -5.929300 -0.100000 -0.999738 -0.022901 -0.000100 0.188100 -0.026000 1 0 1.000000 
light_fluorescent003a
0 -2.448800 -6.000000 -2.391400 -0.993102 -0.081500 -0.084300 0.187300 -0.175500 1 0 1.000000 
0 -2.475000 -5.929300 -0.100000 -0.999738 -0.022901 -0.000100 0.188100 -0.026000 1 0 1.000000 
0 -2.455700 -5.929300 -2.392100 -0.992254 -0.048898 -0.114195 0.187600 -0.175600 1 0 1.000000 
light_fluorescent003a
0 -2.455700 -5.929300 -2.392100 -0.992254 -0.048898 -0.114195 0.187600 -0.175600 1 0 1.000000 
0 -2.391300 -6.000000 -2.779000 -0.979131 -0.097703 -0.178206 0.185600 -0.200800 1 0 1.000000 
0 -2.448800 -6.000000 -2.391400 -0.993102 -0.081500 -0.084300 0.187300 -0.175500 1 0 1.000000 
light_fluorescent003a
0 -2.455700 -5.929300 -2.392100 -0.992254 -0.048898 -0.114195 0.187600 -0.175600 1 0 1.000000 
0 -2.302800 -5.929300 -3.161100 -0.950932 -0.048902 -0.305510 0.183000 -0.225800 1 0 1.000000 
0 -2.391300 -6.000000 -2.779000 -0.979131 -0.097703 -0.178206 0.185600 -0.200800 1 0 1.000000 
light_fluorescent003a
0 -2.302800 -5.929300 -3.161100 -0.950932 -0.048902 -0.305510 0.183000 -0.225800 1 0 1.000000 
0 -2.164100 -6.000000 -3.528100 -0.889864 -0.251590 -0.380585 0.178800 -0.249700 1 0 1.000000 
0 -2.391300 -6.000000 -2.779000 -0.979131 -0.097703 -0.178206 0.185600 -0.200800 1 0 1.000000 
light_fluorescent003a
0 -2.302800 -5.929300 -3.161100 -0.950932 -0.048902 -0.305510 0.183000 -0.225800 1 0 1.000000 
0 -2.002700 -5.929300 -3.885600 -0.873026 -0.048902 -0.485215 0.173900 -0.273000 1 0 1.000000 
0 -2.164100 -6.000000 -3.528100 -0.889864 -0.251590 -0.380585 0.178800 -0.249700 1 0 1.000000 
light_fluorescent003a
0 -2.002700 -5.929300 -3.885600 -0.873026 -0.048902 -0.485215 0.173900 -0.273000 1 0 1.000000 
0 -1.561700 -6.000000 -4.533200 -0.759398 -0.213500 -0.614599 0.160700 -0.315300 1 0 1.000000 
0 -2.164100 -6.000000 -3.528100 -0.889864 -0.251590 -0.380585 0.178800 -0.249700 1 0 1.000000 
light_fluorescent003a
0 -2.002700 -5.929300 -3.885600 -0.873026 -0.048902 -0.485215 0.173900 -0.273000 1 0 1.000000 
0 -1.567000 -5.929300 -4.537600 -0.761600 -0.048900 -0.646200 0.160900 -0.315600 1 0 1.000000 
0 -1.561700 -6.000000 -4.533200 -0.759398 -0.213500 -0.614599 0.160700 -0.315300 1 0 1.000000 
light_fluorescent003a
0 -1.567000 -5.929300 -4.537600 -0.761600 -0.048900 -0.646200 0.160900 -0.315600 1 0 1.000000 
0 -1.012600 -5.929300 -5.092000 -0.620882 -0.048899 -0.782377 0.144200 -0.351800 1 0 1.000000 
0 -1.561700 -6.000000 -4.533200 -0.759398 -0.213500 -0.614599 0.160700 -0.315300 1 0 1.000000 
light_fluorescent003a
0 -1.012600 -5.929300 -5.092000 -0.620882 -0.048899 -0.782377 0.144200 -0.351800 1 0 1.000000 
0 -1.008200 -6.000000 -5.086700 -0.643874 -0.097696 -0.758869 0.144100 -0.351400 1 0 1.000000 
0 -1.561700 -6.000000 -4.533200 -0.759398 -0.213500 -0.614599 0.160700 -0.315300 1 0 1.000000 
light_fluorescent003a
0 -1.012600 -5.929300 -5.092000 -0.620882 -0.048899 -0.782377 0.144200 -0.351800 1 0 1.000000 
0 -0.693400 -6.000000 -5.320100 -0.566409 -0.097702 -0.818313 0.134600 -0.366600 1 0 1.000000 
0 -1.008200 -6.000000 -5.086700 -0.643874 -0.097696 -0.758869 0.144100 -0.351400 1 0 1.000000 
light_fluorescent003a
0 -1.012600 -5.929300 -5.092000 -0.620882 -0.048899 -0.782377 0.144200 -0.351800 1 0 1.000000 
0 -0.360600 -5.929300 -5.527700 -0.482298 -0.162000 -0.860897 0.124600 -0.380200 1 0 1.000000 
0 -0.693400 -6.000000 -5.320100 -0.566409 -0.097702 -0.818313 0.134600 -0.366600 1 0 1.000000 
light_fluorescent003a
0 -0.360600 -5.929300 -5.527700 -0.482298 -0.162000 -0.860897 0.124600 -0.380200 1 0 1.000000 
0 0.365900 -6.000000 -5.821100 -0.312793 -0.330193 -0.890580 0.102800 -0.399300 1 0 1.000000 
0 -0.693400 -6.000000 -5.320100 -0.566409 -0.097702 -0.818313 0.134600 -0.366600 1 0 1.000000 
light_fluorescent003a
0 -0.360600 -5.929300 -5.527700 -0.482298 -0.162000 -0.860897 0.124600 -0.380200 1 0 1.000000 
0 -0.005700 -5.929300 -5.695500 -0.367098 -0.048900 -0.928896 0.114000 -0.391100 1 0 1.000000 
0 0.365900 -6.000000 -5.821100 -0.312793 -0.330193 -0.890580 0.102800 -0.399300 1 0 1.000000 
light_fluorescent003a
0 -0.005700 -5.929300 -5.695500 -0.367098 -0.048900 -0.928896 0.114000 -0.391100 1 0 1.000000 
0 0.744600 -5.929300 -5.923100 -0.178795 -0.048899 -0.982670 0.091400 -0.406000 1 0 1.000000 
0 0.365900 -6.000000 -5.821100 -0.312793 -0.330193 -0.890580 0.102800 -0.399300 1 0 1.000000 
light_fluorescent003a
0 0.744600 -5.929300 -5.923100 -0.178795 -0.048899 -0.982670 0.091400 -0.406000 1 0 1.000000 
0 1.133600 -6.000000 -5.973800 -0.116694 -0.097695 -0.988351 0.079800 -0.409300 1 0 1.000000 
0 0.365900 -6.000000 -5.821100 -0.312793 -0.330193 -0.890580 0.102800 -0.399300 1 0 1.000000 
light_fluorescent003a
0 0.744600 -5.929300 -5.923100 -0.178795 -0.048899 -0.982670 0.091400 -0.406000 1 0 1.000000 
0 1.132900 -5.929300 -5.980700 -0.083100 -0.040800 -0.995705 0.079800 -0.409700 1 0 1.000000 
0 1.133600 -6.000000 -5.973800 -0.116694 -0.097695 -0.988351 0.079800 -0.409300 1 0 1.000000 
light_fluorescent003a
0 2.525000 -6.000000 -5.997000 -0.000200 -0.045698 -0.998955 0.038000 -0.410800 1 0 1.000000 
0 1.133600 -6.000000 -5.973800 -0.116694 -0.097695 -0.988351 0.079800 -0.409300 1 0 1.000000 
0 1.132900 -5.929300 -5.980700 -0.083100 -0.040800 -0.995705 0.079800 -0.409700 1 0 1.000000 
light_fluorescent003a
0 2.525000 -6.000000 -5.997000 -0.000200 -0.045698 -0.998955 0.038000 -0.410800 1 0 1.000000 
0 1.132900 -5.929300 -5.980700 -0.083100 -0.040800 -0.995705 0.079800 -0.409700 1 0 1.000000 
0 2.525000 -5.929300 -6.000000 0.000000 -0.010600 -0.999944 0.038000 -0.411000 1 0 1.000000 
light_fluorescent003a
0 1.525000 -5.000000 -5.976500 -0.049100 -0.000000 -0.998794 0.991900 -0.992700 1 0 1.000000 
0 0.749200 -5.000000 -5.900100 -0.211093 -0.000000 -0.977466 0.991900 -0.923600 1 0 1.000000 
0 1.525000 5.000000 -5.976500 -0.049100 -0.000000 -0.998794 0.509000 -0.992700 1 0 1.000000 
light_fluorescent003a
0 0.749200 -5.000000 -5.900100 -0.211093 -0.000000 -0.977466 0.991900 -0.923600 1 0 1.000000 
0 0.749200 5.000000 -5.900100 -0.179009 -0.000000 -0.983847 0.509000 -0.923600 1 0 1.000000 
0 1.525000 5.000000 -5.976500 -0.049100 -0.000000 -0.998794 0.509000 -0.992700 1 0 1.000000 
light_fluorescent003a
0 0.749200 -5.000000 -5.900100 -0.211093 -0.000000 -0.977466 0.991900 -0.923600 1 0 1.000000 
0 0.003300 -5.000000 -5.673800 -0.397790 -0.000000 -0.917476 0.991900 -0.854600 1 0 1.000000 
0 0.749200 5.000000 -5.900100 -0.179009 -0.000000 -0.983847 0.509000 -0.923600 1 0 1.000000 
light_fluorescent003a
0 0.003300 -5.000000 -5.673800 -0.397790 -0.000000 -0.917476 0.991900 -0.854600 1 0 1.000000 
0 0.003300 5.000000 -5.673800 -0.367508 -0.000000 -0.930020 0.509000 -0.854600 1 0 1.000000 
0 0.749200 5.000000 -5.900100 -0.179009 -0.000000 -0.983847 0.509000 -0.923600 1 0 1.000000 
light_fluorescent003a
0 0.003300 -5.000000 -5.673800 -0.397790 -0.000000 -0.917476 0.991900 -0.854600 1 0 1.000000 
0 -0.349500 5.000000 -5.507000 -0.456907 -0.000000 -0.889514 0.509000 -0.820000 1 0 1.000000 
0 0.003300 5.000000 -5.673800 -0.367508 -0.000000 -0.930020 0.509000 -0.854600 1 0 1.000000 
light_fluorescent003a
0 0.003300 -5.000000 -5.673800 -0.397790 -0.000000 -0.917476 0.991900 -0.854600 1 0 1.000000 
0 -0.684200 -5.000000 -5.306400 -0.569085 -0.000000 -0.822278 0.991900 -0.785500 1 0 1.000000 
0 -0.349500 5.000000 -5.507000 -0.456907 -0.000000 -0.889514 0.509000 -0.820000 1 0 1.000000 
light_fluorescent003a
0 -0.684200 -5.000000 -5.306400 -0.569085 -0.000000 -0.822278 0.991900 -0.785500 1 0 1.000000 
0 -0.997700 5.000000 -5.073900 -0.621678 -0.000000 -0.783273 0.509000 -0.750900 1 0 1.000000 
0 -0.349500 5.000000 -5.507000 -0.456907 -0.000000 -0.889514 0.509000 -0.820000 1 0 1.000000 
light_fluorescent003a
0 -0.684200 -5.000000 -5.306400 -0.569085 -0.000000 -0.822278 0.991900 -0.785500 1 0 1.000000 
0 -1.286800 -5.000000 -4.811800 -0.718612 -0.000000 -0.695411 0.991900 -0.716400 1 0 1.000000 
0 -0.997700 5.000000 -5.073900 -0.621678 -0.000000 -0.783273 0.509000 -0.750900 1 0 1.000000 
light_fluorescent003a
0 -1.286800 -5.000000 -4.811800 -0.718612 -0.000000 -0.695411 0.991900 -0.716400 1 0 1.000000 
0 -1.548900 5.000000 -4.522700 -0.762494 -0.000000 -0.646995 0.509000 -0.681900 1 0 1.000000 
0 -0.997700 5.000000 -5.073900 -0.621678 -0.000000 -0.783273 0.509000 -0.750900 1 0 1.000000 
light_fluorescent003a
0 -1.286800 -5.000000 -4.811800 -0.718612 -0.000000 -0.695411 0.991900 -0.716400 1 0 1.000000 
0 -1.781400 -5.000000 -4.209200 -0.840460 -0.000000 -0.541874 0.991900 -0.647300 1 0 1.000000 
0 -1.548900 5.000000 -4.522700 -0.762494 -0.000000 -0.646995 0.509000 -0.681900 1 0 1.000000 
light_fluorescent003a
0 -1.781400 -5.000000 -4.209200 -0.840460 -0.000000 -0.541874 0.991900 -0.647300 1 0 1.000000 
0 -1.781400 5.000000 -4.209200 -0.822278 -0.000000 -0.569085 0.509000 -0.647300 1 0 1.000000 
0 -1.548900 5.000000 -4.522700 -0.762494 -0.000000 -0.646995 0.509000 -0.681900 1 0 1.000000 
light_fluorescent003a
0 -1.781400 -5.000000 -4.209200 -0.840460 -0.000000 -0.541874 0.991900 -0.647300 1 0 1.000000 
0 -1.982000 -5.000000 -3.874500 -0.889514 -0.000000 -0.456907 0.991900 -0.612800 1 0 1.000000 
0 -1.781400 5.000000 -4.209200 -0.822278 -0.000000 -0.569085 0.509000 -0.647300 1 0 1.000000 
light_fluorescent003a
0 -1.982000 -5.000000 -3.874500 -0.889514 -0.000000 -0.456907 0.991900 -0.612800 1 0 1.000000 
0 -2.148800 5.000000 -3.521700 -0.917476 -0.000000 -0.397790 0.509000 -0.578300 1 0 1.000000 
0 -1.781400 5.000000 -4.209200 -0.822278 -0.000000 -0.569085 0.509000 -0.647300 1 0 1.000000 
light_fluorescent003a
0 -1.982000 -5.000000 -3.874500 -0.889514 -0.000000 -0.456907 0.991900 -0.612800 1 0 1.000000 
0 -2.280300 -5.000000 -3.154300 -0.961562 -0.000000 -0.274589 0.991900 -0.543700 1 0 1.000000 
0 -2.148800 5.000000 -3.521700 -0.917476 -0.000000 -0.397790 0.509000 -0.578300 1 0 1.000000 
light_fluorescent003a
0 -2.280300 -5.000000 -3.154300 -0.961562 -0.000000 -0.274589 0.991900 -0.543700 1 0 1.000000 
0 -2.375100 5.000000 -2.775800 -0.977466 -0.000000 -0.211093 0.509000 -0.509200 1 0 1.000000 
0 -2.148800 5.000000 -3.521700 -0.917476 -0.000000 -0.397790 0.509000 -0.578300 1 0 1.000000 
light_fluorescent003a
0 -2.280300 -5.000000 -3.154300 -0.961562 -0.000000 -0.274589 0.991900 -0.543700 1 0 1.000000 
0 -2.432400 -5.000000 -2.389800 -0.996657 -0.000000 -0.081696 0.991900 -0.474700 1 0 1.000000 
0 -2.375100 5.000000 -2.775800 -0.977466 -0.000000 -0.211093 0.509000 -0.509200 1 0 1.000000 
light_fluorescent003a
0 -2.432400 -5.000000 -2.389800 -0.996657 -0.000000 -0.081696 0.991900 -0.474700 1 0 1.000000 
0 -2.451500 5.000000 -2.000000 -0.998794 -0.000000 -0.049100 0.509000 -0.440100 1 0 1.000000 
0 -2.375100 5.000000 -2.775800 -0.977466 -0.000000 -0.211093 0.509000 -0.509200 1 0 1.000000 
light_fluorescent003a
0 -2.432400 -5.000000 -2.389800 -0.996657 -0.000000 -0.081696 0.991900 -0.474700 1 0 1.000000 
0 -2.451500 -5.000000 -2.000000 -0.998794 -0.000000 -0.049100 0.991900 -0.440100 1 0 1.000000 
0 -2.451500 5.000000 -2.000000 -0.998794 -0.000000 -0.049100 0.509000 -0.440100 1 0 1.000000 
light_fluorescent003a
0 -1.567000 -5.000000 -4.537600 -0.000000 1.000000 0.000000 0.315900 -0.262400 1 0 1.000000 
0 -0.697300 -5.000000 -5.325900 -0.000000 1.000000 0.000000 0.285500 -0.322300 1 0 1.000000 
0 -1.303400 -5.000000 -4.828400 -0.000000 1.000000 0.000000 0.306700 -0.284500 1 0 1.000000 
light_fluorescent003a
0 -1.567000 -5.000000 -4.537600 -0.000000 1.000000 0.000000 0.315900 -0.262400 1 0 1.000000 
0 -0.360600 -5.000000 -5.527700 -0.000000 1.000000 0.000000 0.273800 -0.337600 1 0 1.000000 
0 -0.697300 -5.000000 -5.325900 -0.000000 1.000000 0.000000 0.285500 -0.322300 1 0 1.000000 
light_fluorescent003a
0 -1.567000 -5.000000 -4.537600 -0.000000 1.000000 0.000000 0.315900 -0.262400 1 0 1.000000 
0 0.363900 -5.000000 -5.827800 -0.000000 1.000000 0.000000 0.248500 -0.360400 1 0 1.000000 
0 -0.360600 -5.000000 -5.527700 -0.000000 1.000000 0.000000 0.273800 -0.337600 1 0 1.000000 
light_fluorescent003a
0 -1.567000 -5.000000 -4.537600 -0.000000 1.000000 0.000000 0.315900 -0.262400 1 0 1.000000 
0 1.525000 -5.000000 -6.000000 -0.000000 1.000000 0.000000 0.207900 -0.373500 1 0 1.000000 
0 0.363900 -5.000000 -5.827800 -0.000000 1.000000 0.000000 0.248500 -0.360400 1 0 1.000000 
light_fluorescent003a
0 -1.567000 -5.000000 -4.537600 -0.000000 1.000000 0.000000 0.315900 -0.262400 1 0 1.000000 
0 1.525000 -5.000000 -2.000000 -0.000000 1.000000 0.000000 0.207900 -0.069800 1 0 1.000000 
0 1.525000 -5.000000 -6.000000 -0.000000 1.000000 0.000000 0.207900 -0.373500 1 0 1.000000 
light_fluorescent003a
0 -1.567000 -5.000000 -4.537600 -0.000000 1.000000 0.000000 0.315900 -0.262400 1 0 1.000000 
0 -2.475000 -5.000000 -2.000000 -0.000000 1.000000 0.000000 0.347600 -0.069800 1 0 1.000000 
0 1.525000 -5.000000 -2.000000 -0.000000 1.000000 0.000000 0.207900 -0.069800 1 0 1.000000 
light_fluorescent003a
0 -1.567000 -5.000000 -4.537600 -0.000000 1.000000 0.000000 0.315900 -0.262400 1 0 1.000000 
0 -2.398100 -5.000000 -2.780400 -0.000000 1.000000 0.000000 0.344900 -0.129100 1 0 1.000000 
0 -2.475000 -5.000000 -2.000000 -0.000000 1.000000 0.000000 0.347600 -0.069800 1 0 1.000000 
light_fluorescent003a
0 -1.567000 -5.000000 -4.537600 -0.000000 1.000000 0.000000 0.315900 -0.262400 1 0 1.000000 
0 -2.302800 -5.000000 -3.161100 -0.000000 1.000000 0.000000 0.341600 -0.158000 1 0 1.000000 
0 -2.398100 -5.000000 -2.780400 -0.000000 1.000000 0.000000 0.344900 -0.129100 1 0 1.000000 
light_fluorescent003a
0 -1.567000 -5.000000 -4.537600 -0.000000 1.000000 0.000000 0.315900 -0.262400 1 0 1.000000 
0 -2.002700 -5.000000 -3.885600 -0.000000 1.000000 0.000000 0.331100 -0.213000 1 0 1.000000 
0 -2.302800 -5.000000 -3.161100 -0.000000 1.000000 0.000000 0.341600 -0.158000 1 0 1.000000 
light_fluorescent003a
0 0.744600 5.000000 -5.923100 -0.179009 -0.000000 -0.983847 0.053900 -0.073000 1 0 1.000000 
0 1.132900 5.929300 -5.980700 -0.114195 0.048898 -0.992254 0.017800 -0.039900 1 0 1.000000 
0 1.525000 5.000000 -6.000000 -0.012300 -0.000000 -0.999924 0.053900 -0.073000 1 0 1.000000 
light_fluorescent003a
0 0.744600 5.000000 -5.923100 -0.179009 -0.000000 -0.983847 0.053900 -0.073000 1 0 1.000000 
0 0.363900 5.929300 -5.827800 -0.305510 0.048902 -0.950932 0.017800 -0.039900 1 0 1.000000 
0 1.132900 5.929300 -5.980700 -0.114195 0.048898 -0.992254 0.017800 -0.039900 1 0 1.000000 
light_fluorescent003a
0 0.363900 5.000000 -5.827800 -0.274589 -0.000000 -0.961562 0.053900 -0.039900 1 0 1.000000 
0 0.363900 5.929300 -5.827800 -0.305510 0.048902 -0.950932 0.017800 -0.039900 1 0 1.000000 
0 0.744600 5.000000 -5.923100 -0.179009 -0.000000 -0.983847 0.053900 -0.073000 1 0 1.000000 
light_fluorescent003a
0 0.363900 5.000000 -5.827800 -0.274589 -0.000000 -0.961562 0.053900 -0.039900 1 0 1.000000 
0 -0.360600 5.929300 -5.527700 -0.485215 0.048901 -0.873026 0.017800 -0.073000 1 0 1.000000 
0 0.363900 5.929300 -5.827800 -0.305510 0.048902 -0.950932 0.017800 -0.039900 1 0 1.000000 
light_fluorescent003a
0 -0.360600 5.000000 -5.527700 -0.456907 -0.000000 -0.889514 0.053900 -0.073000 1 0 1.000000 
0 -0.360600 5.929300 -5.527700 -0.485215 0.048901 -0.873026 0.017800 -0.073000 1 0 1.000000 
0 0.363900 5.000000 -5.827800 -0.274589 -0.000000 -0.961562 0.053900 -0.039900 1 0 1.000000 
light_fluorescent003a
0 -0.360600 5.000000 -5.527700 -0.456907 -0.000000 -0.889514 0.053900 -0.073000 1 0 1.000000 
0 -1.012600 5.929300 -5.092000 -0.646200 0.048900 -0.761600 0.017800 -0.039900 1 0 1.000000 
0 -0.360600 5.929300 -5.527700 -0.485215 0.048901 -0.873026 0.017800 -0.073000 1 0 1.000000 
light_fluorescent003a
0 -1.012600 5.000000 -5.092000 -0.621678 -0.000000 -0.783273 0.053900 -0.039900 1 0 1.000000 
0 -1.012600 5.929300 -5.092000 -0.646200 0.048900 -0.761600 0.017800 -0.039900 1 0 1.000000 
0 -0.360600 5.000000 -5.527700 -0.456907 -0.000000 -0.889514 0.053900 -0.073000 1 0 1.000000 
light_fluorescent003a
0 -1.303400 5.000000 -4.828400 -0.695411 -0.000000 -0.718612 0.053900 -0.039900 1 0 1.000000 
0 -1.012600 5.929300 -5.092000 -0.646200 0.048900 -0.761600 0.017800 -0.039900 1 0 1.000000 
0 -1.012600 5.000000 -5.092000 -0.621678 -0.000000 -0.783273 0.053900 -0.039900 1 0 1.000000 
light_fluorescent003a
0 -1.303400 5.000000 -4.828400 -0.695411 -0.000000 -0.718612 0.053900 -0.039900 1 0 1.000000 
0 -1.567000 5.929300 -4.537600 -0.782377 0.048899 -0.620882 0.017800 -0.073000 1 0 1.000000 
0 -1.012600 5.929300 -5.092000 -0.646200 0.048900 -0.761600 0.017800 -0.039900 1 0 1.000000 
light_fluorescent003a
0 -1.800900 5.000000 -4.222300 -0.822278 -0.000000 -0.569085 0.053900 -0.073000 1 0 1.000000 
0 -1.567000 5.929300 -4.537600 -0.782377 0.048899 -0.620882 0.017800 -0.073000 1 0 1.000000 
0 -1.303400 5.000000 -4.828400 -0.695411 -0.000000 -0.718612 0.053900 -0.039900 1 0 1.000000 
light_fluorescent003a
0 -1.800900 5.000000 -4.222300 -0.822278 -0.000000 -0.569085 0.053900 -0.073000 1 0 1.000000 
0 -2.002700 5.929300 -3.885600 -0.888485 0.048899 -0.456292 0.017800 -0.039900 1 0 1.000000 
0 -1.567000 5.929300 -4.537600 -0.782377 0.048899 -0.620882 0.017800 -0.073000 1 0 1.000000 
light_fluorescent003a
0 -2.170500 5.000000 -3.530700 -0.917476 -0.000000 -0.397790 0.053900 -0.039900 1 0 1.000000 
0 -2.002700 5.929300 -3.885600 -0.888485 0.048899 -0.456292 0.017800 -0.039900 1 0 1.000000 
0 -1.800900 5.000000 -4.222300 -0.822278 -0.000000 -0.569085 0.053900 -0.073000 1 0 1.000000 
light_fluorescent003a
0 -2.170500 5.000000 -3.530700 -0.917476 -0.000000 -0.397790 0.053900 -0.039900 1 0 1.000000 
0 -2.170500 5.929300 -3.530700 -0.928896 0.048900 -0.367098 0.017800 -0.039900 1 0 1.000000 
0 -2.002700 5.929300 -3.885600 -0.888485 0.048899 -0.456292 0.017800 -0.039900 1 0 1.000000 
light_fluorescent003a
0 -2.170500 5.000000 -3.530700 -0.917476 -0.000000 -0.397790 0.053900 -0.039900 1 0 1.000000 
0 -2.398100 5.929300 -2.780400 -0.982670 0.048898 -0.178795 0.017800 -0.039900 1 0 1.000000 
0 -2.170500 5.929300 -3.530700 -0.928896 0.048900 -0.367098 0.017800 -0.039900 1 0 1.000000 
light_fluorescent003a
0 -2.398100 5.000000 -2.780400 -0.977466 -0.000000 -0.211093 0.053900 -0.039900 1 0 1.000000 
0 -2.398100 5.929300 -2.780400 -0.982670 0.048898 -0.178795 0.017800 -0.039900 1 0 1.000000 
0 -2.170500 5.000000 -3.530700 -0.917476 -0.000000 -0.397790 0.053900 -0.039900 1 0 1.000000 
light_fluorescent003a
0 -2.398100 5.000000 -2.780400 -0.977466 -0.000000 -0.211093 0.053900 -0.039900 1 0 1.000000 
0 -2.455700 5.929300 -2.392100 -0.995705 0.040800 -0.083100 0.017800 -0.073000 1 0 1.000000 
0 -2.398100 5.929300 -2.780400 -0.982670 0.048898 -0.178795 0.017800 -0.039900 1 0 1.000000 
light_fluorescent003a
0 -2.475000 5.000000 -2.000000 -0.999700 -0.000000 -0.024500 0.053900 -0.039900 1 0 1.000000 
0 -2.455700 5.929300 -2.392100 -0.995705 0.040800 -0.083100 0.017800 -0.073000 1 0 1.000000 
0 -2.398100 5.000000 -2.780400 -0.977466 -0.000000 -0.211093 0.053900 -0.039900 1 0 1.000000 
light_fluorescent003a
0 -1.303400 5.000000 -4.828400 0.000000 -1.000000 0.000000 0.306700 -0.284500 1 0 1.000000 
0 -2.170500 5.000000 -3.530700 0.000000 -1.000000 0.000000 0.337000 -0.186000 1 0 1.000000 
0 -1.800900 5.000000 -4.222300 0.000000 -1.000000 0.000000 0.324100 -0.238500 1 0 1.000000 
light_fluorescent003a
0 -1.303400 5.000000 -4.828400 0.000000 -1.000000 0.000000 0.306700 -0.284500 1 0 1.000000 
0 -2.398100 5.000000 -2.780400 0.000000 -1.000000 0.000000 0.344900 -0.129100 1 0 1.000000 
0 -2.170500 5.000000 -3.530700 0.000000 -1.000000 0.000000 0.337000 -0.186000 1 0 1.000000 
light_fluorescent003a
0 -1.303400 5.000000 -4.828400 0.000000 -1.000000 0.000000 0.306700 -0.284500 1 0 1.000000 
0 -2.475000 5.000000 -2.000000 0.000000 -1.000000 0.000000 0.347600 -0.069800 1 0 1.000000 
0 -2.398100 5.000000 -2.780400 0.000000 -1.000000 0.000000 0.344900 -0.129100 1 0 1.000000 
light_fluorescent003a
0 -1.303400 5.000000 -4.828400 0.000000 -1.000000 0.000000 0.306700 -0.284500 1 0 1.000000 
0 1.525000 5.000000 -2.000000 0.000000 -1.000000 0.000000 0.207900 -0.069800 1 0 1.000000 
0 -2.475000 5.000000 -2.000000 0.000000 -1.000000 0.000000 0.347600 -0.069800 1 0 1.000000 
light_fluorescent003a
0 -1.303400 5.000000 -4.828400 0.000000 -1.000000 0.000000 0.306700 -0.284500 1 0 1.000000 
0 1.525000 5.000000 -6.000000 0.000000 -1.000000 0.000000 0.207900 -0.373500 1 0 1.000000 
0 1.525000 5.000000 -2.000000 0.000000 -1.000000 0.000000 0.207900 -0.069800 1 0 1.000000 
light_fluorescent003a
0 -1.303400 5.000000 -4.828400 0.000000 -1.000000 0.000000 0.306700 -0.284500 1 0 1.000000 
0 0.744600 5.000000 -5.923100 0.000000 -1.000000 0.000000 0.235200 -0.367600 1 0 1.000000 
0 1.525000 5.000000 -6.000000 0.000000 -1.000000 0.000000 0.207900 -0.373500 1 0 1.000000 
light_fluorescent003a
0 -1.303400 5.000000 -4.828400 0.000000 -1.000000 0.000000 0.306700 -0.284500 1 0 1.000000 
0 0.363900 5.000000 -5.827800 0.000000 -1.000000 0.000000 0.248500 -0.360400 1 0 1.000000 
0 0.744600 5.000000 -5.923100 0.000000 -1.000000 0.000000 0.235200 -0.367600 1 0 1.000000 
light_fluorescent003a
0 -1.303400 5.000000 -4.828400 0.000000 -1.000000 0.000000 0.306700 -0.284500 1 0 1.000000 
0 -0.360600 5.000000 -5.527700 0.000000 -1.000000 0.000000 0.273800 -0.337600 1 0 1.000000 
0 0.363900 5.000000 -5.827800 0.000000 -1.000000 0.000000 0.248500 -0.360400 1 0 1.000000 
light_fluorescent003a
0 -1.303400 5.000000 -4.828400 0.000000 -1.000000 0.000000 0.306700 -0.284500 1 0 1.000000 
0 -1.012600 5.000000 -5.092000 0.000000 -1.000000 0.000000 0.296500 -0.304500 1 0 1.000000 
0 -0.360600 5.000000 -5.527700 0.000000 -1.000000 0.000000 0.273800 -0.337600 1 0 1.000000 
light_fluorescent003a
0 -2.398100 -5.000000 -2.780400 -0.983847 -0.000000 -0.179009 0.441900 -0.039900 1 0 1.000000 
0 -2.455700 -5.929300 -2.392100 -0.992254 -0.048898 -0.114195 0.478000 -0.073000 1 0 1.000000 
0 -2.475000 -5.000000 -2.000000 -0.999924 -0.000000 -0.012300 0.441900 -0.039900 1 0 1.000000 
light_fluorescent003a
0 -2.398100 -5.000000 -2.780400 -0.983847 -0.000000 -0.179009 0.441900 -0.039900 1 0 1.000000 
0 -2.302800 -5.929300 -3.161100 -0.950932 -0.048902 -0.305510 0.478000 -0.073000 1 0 1.000000 
0 -2.455700 -5.929300 -2.392100 -0.992254 -0.048898 -0.114195 0.478000 -0.073000 1 0 1.000000 
light_fluorescent003a
0 -2.302800 -5.000000 -3.161100 -0.961562 -0.000000 -0.274589 0.441900 -0.073000 1 0 1.000000 
0 -2.302800 -5.929300 -3.161100 -0.950932 -0.048902 -0.305510 0.478000 -0.073000 1 0 1.000000 
0 -2.398100 -5.000000 -2.780400 -0.983847 -0.000000 -0.179009 0.441900 -0.039900 1 0 1.000000 
light_fluorescent003a
0 -2.302800 -5.000000 -3.161100 -0.961562 -0.000000 -0.274589 0.441900 -0.073000 1 0 1.000000 
0 -2.002700 -5.929300 -3.885600 -0.873026 -0.048902 -0.485215 0.478000 -0.039900 1 0 1.000000 
0 -2.302800 -5.929300 -3.161100 -0.950932 -0.048902 -0.305510 0.478000 -0.073000 1 0 1.000000 
light_fluorescent003a
0 -2.002700 -5.000000 -3.885600 -0.889514 -0.000000 -0.456907 0.441900 -0.039900 1 0 1.000000 
0 -2.002700 -5.929300 -3.885600 -0.873026 -0.048902 -0.485215 0.478000 -0.039900 1 0 1.000000 
0 -2.302800 -5.000000 -3.161100 -0.961562 -0.000000 -0.274589 0.441900 -0.073000 1 0 1.000000 
light_fluorescent003a
0 -2.002700 -5.000000 -3.885600 -0.889514 -0.000000 -0.456907 0.441900 -0.039900 1 0 1.000000 
0 -1.567000 -5.929300 -4.537600 -0.761600 -0.048900 -0.646200 0.478000 -0.073000 1 0 1.000000 
0 -2.002700 -5.929300 -3.885600 -0.873026 -0.048902 -0.485215 0.478000 -0.039900 1 0 1.000000 
light_fluorescent003a
0 -1.567000 -5.000000 -4.537600 -0.783273 -0.000000 -0.621678 0.441900 -0.073000 1 0 1.000000 
0 -1.567000 -5.929300 -4.537600 -0.761600 -0.048900 -0.646200 0.478000 -0.073000 1 0 1.000000 
0 -2.002700 -5.000000 -3.885600 -0.889514 -0.000000 -0.456907 0.441900 -0.039900 1 0 1.000000 
light_fluorescent003a
0 -1.303400 -5.000000 -4.828400 -0.718612 -0.000000 -0.695411 0.441900 -0.039900 1 0 1.000000 
0 -1.567000 -5.929300 -4.537600 -0.761600 -0.048900 -0.646200 0.478000 -0.073000 1 0 1.000000 
0 -1.567000 -5.000000 -4.537600 -0.783273 -0.000000 -0.621678 0.441900 -0.073000 1 0 1.000000 
light_fluorescent003a
0 -1.303400 -5.000000 -4.828400 -0.718612 -0.000000 -0.695411 0.441900 -0.039900 1 0 1.000000 
0 -1.012600 -5.929300 -5.092000 -0.620882 -0.048899 -0.782377 0.478000 -0.039900 1 0 1.000000 
0 -1.567000 -5.929300 -4.537600 -0.761600 -0.048900 -0.646200 0.478000 -0.073000 1 0 1.000000 
light_fluorescent003a
0 -0.697300 -5.000000 -5.325900 -0.569085 -0.000000 -0.822278 0.441900 -0.073000 1 0 1.000000 
0 -1.012600 -5.929300 -5.092000 -0.620882 -0.048899 -0.782377 0.478000 -0.039900 1 0 1.000000 
0 -1.303400 -5.000000 -4.828400 -0.718612 -0.000000 -0.695411 0.441900 -0.039900 1 0 1.000000 
light_fluorescent003a
0 -0.697300 -5.000000 -5.325900 -0.569085 -0.000000 -0.822278 0.441900 -0.073000 1 0 1.000000 
0 -0.360600 -5.929300 -5.527700 -0.482298 -0.162000 -0.860897 0.478000 -0.039900 1 0 1.000000 
0 -1.012600 -5.929300 -5.092000 -0.620882 -0.048899 -0.782377 0.478000 -0.039900 1 0 1.000000 
light_fluorescent003a
0 -0.360600 -5.000000 -5.527700 -0.485787 -0.000000 -0.874077 0.441900 -0.073000 1 0 1.000000 
0 -0.360600 -5.929300 -5.527700 -0.482298 -0.162000 -0.860897 0.478000 -0.039900 1 0 1.000000 
0 -0.697300 -5.000000 -5.325900 -0.569085 -0.000000 -0.822278 0.441900 -0.073000 1 0 1.000000 
light_fluorescent003a
0 -0.360600 -5.000000 -5.527700 -0.485787 -0.000000 -0.874077 0.441900 -0.073000 1 0 1.000000 
0 -0.005700 -5.929300 -5.695500 -0.367098 -0.048900 -0.928896 0.478000 -0.039900 1 0 1.000000 
0 -0.360600 -5.929300 -5.527700 -0.482298 -0.162000 -0.860897 0.478000 -0.039900 1 0 1.000000 
light_fluorescent003a
0 0.363900 -5.000000 -5.827800 -0.305889 -0.000000 -0.952067 0.441900 -0.039900 1 0 1.000000 
0 -0.005700 -5.929300 -5.695500 -0.367098 -0.048900 -0.928896 0.478000 -0.039900 1 0 1.000000 
0 -0.360600 -5.000000 -5.527700 -0.485787 -0.000000 -0.874077 0.441900 -0.073000 1 0 1.000000 
light_fluorescent003a
0 0.363900 -5.000000 -5.827800 -0.305889 -0.000000 -0.952067 0.441900 -0.039900 1 0 1.000000 
0 0.744600 -5.929300 -5.923100 -0.178795 -0.048899 -0.982670 0.478000 -0.039900 1 0 1.000000 
0 -0.005700 -5.929300 -5.695500 -0.367098 -0.048900 -0.928896 0.478000 -0.039900 1 0 1.000000 
light_fluorescent003a
0 1.525000 -5.000000 -6.000000 -0.024500 -0.000000 -0.999700 0.441900 -0.073000 1 0 1.000000 
0 0.744600 -5.929300 -5.923100 -0.178795 -0.048899 -0.982670 0.478000 -0.039900 1 0 1.000000 
0 0.363900 -5.000000 -5.827800 -0.305889 -0.000000 -0.952067 0.441900 -0.039900 1 0 1.000000 
light_fluorescent003a
0 1.525000 -5.000000 -6.000000 -0.024500 -0.000000 -0.999700 0.441900 -0.073000 1 0 1.000000 
0 1.132900 -5.929300 -5.980700 -0.083100 -0.040800 -0.995705 0.478000 -0.073000 1 0 1.000000 
0 0.744600 -5.929300 -5.923100 -0.178795 -0.048899 -0.982670 0.478000 -0.039900 1 0 1.000000 
light_fluorescent003a
0 1.133600 6.000000 -5.973800 -0.000000 1.000000 0.000000 0.079800 -0.409300 1 0 1.000000 
0 2.525000 6.000000 -0.003000 -0.000000 1.000000 0.000000 0.038000 -0.019700 1 0 1.000000 
0 2.525000 6.000000 -5.997000 -0.000000 1.000000 0.000000 0.038000 -0.410800 1 0 1.000000 
light_fluorescent003a
0 1.133600 6.000000 -5.973800 -0.000000 1.000000 0.000000 0.079800 -0.409300 1 0 1.000000 
0 -2.375000 6.000000 -0.003000 -0.000000 1.000000 0.000000 0.185100 -0.019700 1 0 1.000000 
0 2.525000 6.000000 -0.003000 -0.000000 1.000000 0.000000 0.038000 -0.019700 1 0 1.000000 
light_fluorescent003a
0 1.133600 6.000000 -5.973800 -0.000000 1.000000 0.000000 0.079800 -0.409300 1 0 1.000000 
0 -2.472000 6.000000 -0.100000 -0.000000 1.000000 0.000000 0.188000 -0.026000 1 0 1.000000 
0 -2.375000 6.000000 -0.003000 -0.000000 1.000000 0.000000 0.185100 -0.019700 1 0 1.000000 
light_fluorescent003a
0 1.133600 6.000000 -5.973800 -0.000000 1.000000 0.000000 0.079800 -0.409300 1 0 1.000000 
0 -2.448800 6.000000 -2.391400 -0.000000 1.000000 0.000000 0.187300 -0.175500 1 0 1.000000 
0 -2.472000 6.000000 -0.100000 -0.000000 1.000000 0.000000 0.188000 -0.026000 1 0 1.000000 
light_fluorescent003a
0 1.133600 6.000000 -5.973800 -0.000000 1.000000 0.000000 0.079800 -0.409300 1 0 1.000000 
0 -2.296100 6.000000 -3.159100 -0.000000 1.000000 0.000000 0.182800 -0.225600 1 0 1.000000 
0 -2.448800 6.000000 -2.391400 -0.000000 1.000000 0.000000 0.187300 -0.175500 1 0 1.000000 
light_fluorescent003a
0 1.133600 6.000000 -5.973800 -0.000000 1.000000 0.000000 0.079800 -0.409300 1 0 1.000000 
0 -1.996600 6.000000 -3.882300 -0.000000 1.000000 0.000000 0.173800 -0.272800 1 0 1.000000 
0 -2.296100 6.000000 -3.159100 -0.000000 1.000000 0.000000 0.182800 -0.225600 1 0 1.000000 
light_fluorescent003a
0 1.133600 6.000000 -5.973800 -0.000000 1.000000 0.000000 0.079800 -0.409300 1 0 1.000000 
0 -1.561700 6.000000 -4.533200 -0.000000 1.000000 0.000000 0.160700 -0.315300 1 0 1.000000 
0 -1.996600 6.000000 -3.882300 -0.000000 1.000000 0.000000 0.173800 -0.272800 1 0 1.000000 
light_fluorescent003a
0 1.133600 6.000000 -5.973800 -0.000000 1.000000 0.000000 0.079800 -0.409300 1 0 1.000000 
0 -0.693400 6.000000 -5.320100 -0.000000 1.000000 0.000000 0.134600 -0.366600 1 0 1.000000 
0 -1.561700 6.000000 -4.533200 -0.000000 1.000000 0.000000 0.160700 -0.315300 1 0 1.000000 
light_fluorescent003a
0 1.133600 6.000000 -5.973800 -0.000000 1.000000 0.000000 0.079800 -0.409300 1 0 1.000000 
0 0.365900 6.000000 -5.821100 -0.000000 1.000000 0.000000 0.102800 -0.399300 1 0 1.000000 
0 -0.693400 6.000000 -5.320100 -0.000000 1.000000 0.000000 0.134600 -0.366600 1 0 1.000000 
end
