version 1
nodes
  0 "static_prop" -1
end
skeleton
time 0
0 0.000000 0.000000 0.000000 0.000000 0.000000 0.000000
end
triangles
handrail01_exterior_system
0 0.799001 -31.538700 17.808201 0.000000 0.000000 1.000000 0.557700 -0.525000 1 0 1.000000 
0 0.000001 -31.077400 17.808201 0.000000 0.000000 1.000000 0.615300 -0.500000 1 0 1.000000 
0 -0.922599 -32.000000 17.808201 0.000000 0.000000 1.000000 0.500000 -0.471200 1 0 1.000000 
handrail01_exterior_system
0 -0.922599 -32.000000 17.808201 0.000000 0.000000 1.000000 0.500000 -0.471200 1 0 1.000000 
0 -0.461299 -32.799000 17.808201 0.000000 0.000000 1.000000 0.400100 -0.485600 1 0 1.000000 
0 0.799001 -31.538700 17.808201 0.000000 0.000000 1.000000 0.557700 -0.525000 1 0 1.000000 
handrail01_exterior_system
0 -0.461299 -32.799000 17.808201 0.000000 0.000000 1.000000 0.400100 -0.485600 1 0 1.000000 
0 0.799001 -32.461300 17.808201 0.000000 0.000000 1.000000 0.442300 -0.525000 1 0 1.000000 
0 0.799001 -31.538700 17.808201 0.000000 0.000000 1.000000 0.557700 -0.525000 1 0 1.000000 
handrail01_exterior_system
0 -0.461299 -32.799000 17.808201 -0.420985 -0.907068 0.000000 0.833300 -1.300000 1 0 1.000000 
0 -0.798999 -32.461300 -16.000799 -0.866018 -0.500011 0.001200 0.916700 -0.775700 1 0 1.000000 
0 -0.461299 -32.799000 -16.000799 -0.339887 -0.940465 -0.001300 0.833300 -0.775700 1 0 1.000000 
handrail01_exterior_system
0 -0.461299 -32.799000 17.808201 -0.420985 -0.907068 0.000000 0.833300 -1.300000 1 0 1.000000 
0 -0.461299 -32.799000 -16.000799 -0.339887 -0.940465 -0.001300 0.833300 -0.775700 1 0 1.000000 
0 0.461301 -32.799000 -16.000799 0.420985 -0.907067 0.000000 0.666700 -0.775700 1 0 1.000000 
handrail01_exterior_system
0 0.461301 -32.799000 -16.000799 0.420985 -0.907067 0.000000 0.666700 -0.775700 1 0 1.000000 
0 0.799001 -32.461300 17.808201 0.866018 -0.500010 0.001300 0.583300 -1.300000 1 0 1.000000 
0 -0.461299 -32.799000 17.808201 -0.420985 -0.907068 0.000000 0.833300 -1.300000 1 0 1.000000 
handrail01_exterior_system
0 0.799001 -32.461300 17.808201 0.866018 -0.500010 0.001300 0.583300 -1.300000 1 0 1.000000 
0 0.461301 -32.799000 -16.000799 0.420985 -0.907067 0.000000 0.666700 -0.775700 1 0 1.000000 
0 0.922601 -32.000000 -16.000799 0.999999 0.000000 -0.001300 0.500000 -0.775700 1 0 1.000000 
handrail01_exterior_system
0 0.922601 -32.000000 -16.000799 0.999999 0.000000 -0.001300 0.500000 -0.775700 1 0 1.000000 
0 0.799001 -31.538700 17.808201 0.866018 0.500011 0.001300 0.416700 -1.300000 1 0 1.000000 
0 0.799001 -32.461300 17.808201 0.866018 -0.500010 0.001300 0.583300 -1.300000 1 0 1.000000 
handrail01_exterior_system
0 0.799001 -31.538700 17.808201 0.866018 0.500011 0.001300 0.416700 -1.300000 1 0 1.000000 
0 0.922601 -32.000000 -16.000799 0.999999 0.000000 -0.001300 0.500000 -0.775700 1 0 1.000000 
0 0.461301 -31.201099 -16.000799 0.500010 0.866018 -0.001300 0.333300 -0.775700 1 0 1.000000 
handrail01_exterior_system
0 0.461301 -31.201099 -16.000799 0.500010 0.866018 -0.001300 0.333300 -0.775700 1 0 1.000000 
0 0.000001 -31.077400 17.808201 -0.089003 0.996031 0.000000 0.250000 -1.300000 1 0 1.000000 
0 0.799001 -31.538700 17.808201 0.866018 0.500011 0.001300 0.416700 -1.300000 1 0 1.000000 
handrail01_exterior_system
0 0.000001 -31.077400 17.808201 -0.089003 0.996031 0.000000 0.250000 -1.300000 1 0 1.000000 
0 0.461301 -31.201099 -16.000799 0.500010 0.866018 -0.001300 0.333300 -0.775700 1 0 1.000000 
0 -0.461299 -31.201099 -16.000799 -0.580414 0.814320 0.001300 0.166700 -0.775700 1 0 1.000000 
handrail01_exterior_system
0 -0.461299 -31.201099 -16.000799 -0.580414 0.814320 0.001300 0.166700 -0.775700 1 0 1.000000 
0 -0.922599 -32.000000 17.808201 -0.991443 0.130506 0.003100 0.000000 -1.300000 1 0 1.000000 
0 0.000001 -31.077400 17.808201 -0.089003 0.996031 0.000000 0.250000 -1.300000 1 0 1.000000 
handrail01_exterior_system
0 -0.922599 -32.000000 17.808201 -0.991443 0.130506 0.003100 0.000000 -1.300000 1 0 1.000000 
0 -0.461299 -31.201099 -16.000799 -0.580414 0.814320 0.001300 0.166700 -0.775700 1 0 1.000000 
0 -0.922599 -32.000000 -16.000799 -0.996031 0.089003 0.000000 0.000000 -0.775700 1 0 1.000000 
handrail01_exterior_system
0 -0.922599 -32.000000 17.808201 -0.991443 0.130506 0.003100 0.000000 -1.300000 1 0 1.000000 
0 -0.922599 -32.000000 -16.000799 -0.996031 0.089003 0.000000 0.000000 -0.775700 1 0 1.000000 
0 -0.798999 -32.461300 -16.000799 -0.866018 -0.500011 0.001200 -0.083300 -0.775700 1 0 1.000000 
handrail01_exterior_system
0 -0.798999 -32.461300 -16.000799 -0.866018 -0.500011 0.001200 -0.083300 -0.775700 1 0 1.000000 
0 -0.461299 -32.799000 17.808201 -0.382688 -0.923872 0.003100 -0.083300 -1.300000 1 0 1.000000 
0 -0.922599 -32.000000 17.808201 -0.991443 0.130506 0.003100 0.000000 -1.300000 1 0 1.000000 
handrail01_exterior_system
0 0.136701 -32.000000 16.024200 0.090698 -0.000800 -0.995878 -0.022900 -0.608500 1 0 1.000000 
0 -0.468701 32.000000 16.139000 -0.500011 -0.001000 -0.866019 0.087800 0.390500 1 0 1.000000 
0 0.137099 32.000000 16.032200 0.173700 0.000100 -0.984799 -0.023200 0.390500 1 0 1.000000 
handrail01_exterior_system
0 -0.468701 32.000000 16.139000 -0.500011 -0.001000 -0.866019 0.087800 0.390500 1 0 1.000000 
0 0.136701 -32.000000 16.024200 0.090698 -0.000800 -0.995878 -0.022900 -0.608500 1 0 1.000000 
0 -0.864299 -32.000000 16.602200 -0.939698 -0.001900 -0.341999 0.195400 -0.608500 1 0 1.000000 
handrail01_exterior_system
0 -0.864299 -32.000000 16.602200 -0.939698 -0.001900 -0.341999 0.195400 -0.608500 1 0 1.000000 
0 -0.864001 32.000000 16.610300 -0.939700 -0.000000 -0.342000 0.196700 0.390500 1 0 1.000000 
0 -0.468701 32.000000 16.139000 -0.500011 -0.001000 -0.866019 0.087800 0.390500 1 0 1.000000 
handrail01_exterior_system
0 -0.864299 -32.000000 16.602200 -0.939698 -0.001900 -0.341999 0.195400 -0.608500 1 0 1.000000 
0 -0.864001 32.000000 17.225401 -0.939699 -0.001200 0.342000 0.304600 0.390500 1 0 1.000000 
0 -0.864001 32.000000 16.610300 -0.939700 -0.000000 -0.342000 0.196700 0.390500 1 0 1.000000 
handrail01_exterior_system
0 -0.864001 32.000000 17.225401 -0.939699 -0.001200 0.342000 0.304600 0.390500 1 0 1.000000 
0 -0.864299 -32.000000 16.602200 -0.939698 -0.001900 -0.341999 0.195400 -0.608500 1 0 1.000000 
0 -0.468999 -32.000000 17.688400 -0.690363 -0.001300 0.723462 0.412200 -0.608500 1 0 1.000000 
handrail01_exterior_system
0 -0.468999 -32.000000 17.688400 -0.690363 -0.001300 0.723462 0.412200 -0.608500 1 0 1.000000 
0 -0.468701 32.000000 17.696699 -0.392108 -0.000100 0.919919 0.413000 0.390500 1 0 1.000000 
0 -0.864001 32.000000 17.225401 -0.939699 -0.001200 0.342000 0.304600 0.390500 1 0 1.000000 
handrail01_exterior_system
0 -0.468701 32.000000 17.696699 -0.392108 -0.000100 0.919919 0.413000 0.390500 1 0 1.000000 
0 -0.468999 -32.000000 17.688400 -0.690363 -0.001300 0.723462 0.412200 -0.608500 1 0 1.000000 
0 0.136701 -32.000000 17.795200 0.053797 -0.000100 0.998552 0.523100 -0.608500 1 0 1.000000 
handrail01_exterior_system
0 0.136701 -32.000000 17.795200 0.053797 -0.000100 0.998552 0.523100 -0.608500 1 0 1.000000 
0 0.137099 32.000000 17.803499 0.291006 -0.000100 0.956721 0.522900 0.390500 1 0 1.000000 
0 -0.468701 32.000000 17.696699 -0.392108 -0.000100 0.919919 0.413000 0.390500 1 0 1.000000 
handrail01_exterior_system
0 0.137099 32.000000 17.803499 0.291006 -0.000100 0.956721 0.522900 0.390500 1 0 1.000000 
0 0.136701 -32.000000 17.795200 0.053797 -0.000100 0.998552 0.523100 -0.608500 1 0 1.000000 
0 0.669301 -32.000000 17.487700 0.866019 -0.000100 0.500011 0.636300 -0.608500 1 0 1.000000 
handrail01_exterior_system
0 0.669301 -32.000000 17.487700 0.866019 -0.000100 0.500011 0.636300 -0.608500 1 0 1.000000 
0 0.669799 32.000000 17.495899 0.837911 -0.000100 0.545807 0.635200 0.390500 1 0 1.000000 
0 0.137099 32.000000 17.803499 0.291006 -0.000100 0.956721 0.522900 0.390500 1 0 1.000000 
handrail01_exterior_system
0 0.669301 -32.000000 17.487700 0.866019 -0.000100 0.500011 0.636300 -0.608500 1 0 1.000000 
0 0.669799 32.000000 16.339800 0.866019 0.000100 -0.500011 0.863700 0.390500 1 0 1.000000 
0 0.669799 32.000000 17.495899 0.837911 -0.000100 0.545807 0.635200 0.390500 1 0 1.000000 
handrail01_exterior_system
0 0.669799 32.000000 16.339800 0.866019 0.000100 -0.500011 0.863700 0.390500 1 0 1.000000 
0 0.669301 -32.000000 17.487700 0.866019 -0.000100 0.500011 0.636300 -0.608500 1 0 1.000000 
0 0.669301 -32.000000 16.331699 0.837911 0.000100 -0.545807 0.864900 -0.608500 1 0 1.000000 
handrail01_exterior_system
0 0.669799 32.000000 16.339800 0.866019 0.000100 -0.500011 0.863700 0.390500 1 0 1.000000 
0 0.669301 -32.000000 16.331699 0.837911 0.000100 -0.545807 0.864900 -0.608500 1 0 1.000000 
0 0.136701 -32.000000 16.024200 0.090698 -0.000800 -0.995878 0.977100 -0.608500 1 0 1.000000 
handrail01_exterior_system
0 0.136701 -32.000000 16.024200 0.090698 -0.000800 -0.995878 0.977100 -0.608500 1 0 1.000000 
0 0.137099 32.000000 16.032200 0.173700 0.000100 -0.984799 0.976800 0.390500 1 0 1.000000 
0 0.669799 32.000000 16.339800 0.866019 0.000100 -0.500011 0.863700 0.390500 1 0 1.000000 
handrail01_exterior_system
0 0.136701 -32.000000 0.787000 0.401280 -0.001100 -0.915955 0.977100 -0.999500 1 0 1.000000 
0 0.136999 32.000000 0.795400 -0.063798 0.001300 -0.997962 0.976900 -0.000500 1 0 1.000000 
0 0.669699 32.000000 1.103000 0.766061 -0.001100 -0.642767 0.863700 -0.000500 1 0 1.000000 
handrail01_exterior_system
0 0.669699 32.000000 1.103000 0.766061 -0.001100 -0.642767 0.863700 -0.000500 1 0 1.000000 
0 0.879601 -32.000000 1.672500 0.971726 -0.001200 -0.236106 0.750800 -0.999500 1 0 1.000000 
0 0.136701 -32.000000 0.787000 0.401280 -0.001100 -0.915955 0.977100 -0.999500 1 0 1.000000 
handrail01_exterior_system
0 0.879601 -32.000000 1.672500 0.971726 -0.001200 -0.236106 0.750800 -0.999500 1 0 1.000000 
0 0.669699 32.000000 1.103000 0.766061 -0.001100 -0.642767 0.863700 -0.000500 1 0 1.000000 
0 0.880099 32.000000 1.681100 0.971726 0.001200 0.236106 0.749200 -0.000500 1 0 1.000000 
handrail01_exterior_system
0 0.880099 32.000000 1.681100 0.971726 0.001200 0.236106 0.749200 -0.000500 1 0 1.000000 
0 0.669301 -32.000000 2.250500 0.766061 0.001000 0.642767 0.636300 -0.999500 1 0 1.000000 
0 0.879601 -32.000000 1.672500 0.971726 -0.001200 -0.236106 0.750800 -0.999500 1 0 1.000000 
handrail01_exterior_system
0 0.669301 -32.000000 2.250500 0.766061 0.001000 0.642767 0.636300 -0.999500 1 0 1.000000 
0 0.880099 32.000000 1.681100 0.971726 0.001200 0.236106 0.749200 -0.000500 1 0 1.000000 
0 0.136999 32.000000 2.566900 0.173699 0.001800 0.984797 0.522900 -0.000500 1 0 1.000000 
handrail01_exterior_system
0 0.136999 32.000000 2.566900 0.173699 0.001800 0.984797 0.522900 -0.000500 1 0 1.000000 
0 0.136701 -32.000000 2.558000 0.173700 -0.000100 0.984799 0.523100 -0.999500 1 0 1.000000 
0 0.669301 -32.000000 2.250500 0.766061 0.001000 0.642767 0.636300 -0.999500 1 0 1.000000 
handrail01_exterior_system
0 0.136999 32.000000 2.566900 0.173699 0.001800 0.984797 0.522900 -0.000500 1 0 1.000000 
0 -0.468999 -32.000000 2.451200 -0.500011 0.001000 0.866019 0.412100 -0.999500 1 0 1.000000 
0 0.136701 -32.000000 2.558000 0.173700 -0.000100 0.984799 0.523100 -0.999500 1 0 1.000000 
handrail01_exterior_system
0 -0.468999 -32.000000 2.451200 -0.500011 0.001000 0.866019 0.412100 -0.999500 1 0 1.000000 
0 0.136999 32.000000 2.566900 0.173699 0.001800 0.984797 0.522900 -0.000500 1 0 1.000000 
0 -0.864301 32.000000 1.988700 -0.832388 0.001100 0.554192 0.304600 -0.000500 1 0 1.000000 
handrail01_exterior_system
0 -0.864301 32.000000 1.988700 -0.832388 0.001100 0.554192 0.304600 -0.000500 1 0 1.000000 
0 -0.864299 -32.000000 1.980000 -0.974055 -0.000000 0.226313 0.303200 -0.999500 1 0 1.000000 
0 -0.468999 -32.000000 2.451200 -0.500011 0.001000 0.866019 0.412100 -0.999500 1 0 1.000000 
handrail01_exterior_system
0 -0.864299 -32.000000 1.980000 -0.974055 -0.000000 0.226313 0.303200 -0.999500 1 0 1.000000 
0 -0.864301 32.000000 1.988700 -0.832388 0.001100 0.554192 0.304600 -0.000500 1 0 1.000000 
0 -0.864301 32.000000 1.373500 -0.907801 0.001000 -0.419400 0.196700 -0.000500 1 0 1.000000 
handrail01_exterior_system
0 -0.864301 32.000000 1.373500 -0.907801 0.001000 -0.419400 0.196700 -0.000500 1 0 1.000000 
0 -0.864299 -32.000000 1.365000 -0.939700 -0.000000 -0.342000 0.195300 -0.999500 1 0 1.000000 
0 -0.864299 -32.000000 1.980000 -0.974055 -0.000000 0.226313 0.303200 -0.999500 1 0 1.000000 
handrail01_exterior_system
0 -0.864301 32.000000 1.373500 -0.907801 0.001000 -0.419400 0.196700 -0.000500 1 0 1.000000 
0 -0.468999 -32.000000 0.893800 -0.500010 0.001300 -0.866018 0.087100 -0.999500 1 0 1.000000 
0 -0.864299 -32.000000 1.365000 -0.939700 -0.000000 -0.342000 0.195300 -0.999500 1 0 1.000000 
handrail01_exterior_system
0 -0.468999 -32.000000 0.893800 -0.500010 0.001300 -0.866018 0.087100 -0.999500 1 0 1.000000 
0 -0.864301 32.000000 1.373500 -0.907801 0.001000 -0.419400 0.196700 -0.000500 1 0 1.000000 
0 0.136999 32.000000 0.795400 -0.063798 0.001300 -0.997962 -0.023100 -0.000500 1 0 1.000000 
handrail01_exterior_system
0 0.136999 32.000000 0.795400 -0.063798 0.001300 -0.997962 -0.023100 -0.000500 1 0 1.000000 
0 0.136701 -32.000000 0.787000 0.401280 -0.001100 -0.915955 -0.022900 -0.999500 1 0 1.000000 
0 -0.468999 -32.000000 0.893800 -0.500010 0.001300 -0.866018 0.087100 -0.999500 1 0 1.000000 
end
