version 1
nodes
  0 "static_prop" -1
end
skeleton
time 0
0 0.000000 0.000000 0.000000 0.000000 0.000000 0.000000
end
triangles
lamppost03a
0 -10.433505 98.692596 319.429596 0.503588 -0.781181 -0.368991 0.640000 -0.174800 1 0 1.000000 
0 -15.293004 93.138397 324.555389 0.503588 -0.781181 -0.368991 0.678200 -0.221300 1 0 1.000000 
0 -17.817804 93.532700 320.275208 0.503588 -0.781181 -0.368991 0.704600 -0.221300 1 0 1.000000 
lamppost03a
0 -5.250000 -5.073200 22.000000 -0.898284 -0.431292 0.084099 0.056700 -0.506300 1 0 1.000000 
0 -6.073201 6.250000 6.000000 -0.887496 0.460098 0.025700 0.372700 -0.859400 1 0 1.000000 
0 -6.250000 -6.073201 6.000000 -0.460098 -0.887496 0.025700 0.028400 -0.859400 1 0 1.000000 
lamppost03a
0 -5.250000 -5.073200 22.000000 -0.898284 -0.431292 0.084099 0.056700 -0.506300 1 0 1.000000 
0 -5.073200 5.250000 22.000000 -0.431292 0.898284 0.084099 0.344400 -0.506300 1 0 1.000000 
0 -6.073201 6.250000 6.000000 -0.887496 0.460098 0.025700 0.372700 -0.859400 1 0 1.000000 
lamppost03a
0 -5.073200 5.250000 22.000000 -0.431292 0.898284 0.084099 0.344400 -0.506300 1 0 1.000000 
0 6.250000 6.073201 6.000000 0.460098 0.887496 0.025700 0.028400 -0.859400 1 0 1.000000 
0 -6.073201 6.250000 6.000000 -0.887496 0.460098 0.025700 0.372700 -0.859400 1 0 1.000000 
lamppost03a
0 -5.073200 5.250000 22.000000 -0.431292 0.898284 0.084099 0.344400 -0.506300 1 0 1.000000 
0 5.250000 5.073200 22.000000 0.898284 0.431292 0.084099 0.056700 -0.506300 1 0 1.000000 
0 6.250000 6.073201 6.000000 0.460098 0.887496 0.025700 0.028400 -0.859400 1 0 1.000000 
lamppost03a
0 -11.399805 102.099403 315.459686 -0.722503 0.560902 -0.404201 0.551000 -0.512100 1 0 1.000000 
0 -11.897204 103.101601 317.739410 -0.461371 0.649059 -0.604862 0.551000 -0.512100 1 0 1.000000 
0 -10.937005 110.075996 314.405701 -0.974146 0.026901 -0.224311 0.551000 -0.512100 1 0 1.000000 
lamppost03a
0 -17.996204 100.364098 314.906006 0.275405 0.865014 -0.419407 0.551000 -0.512100 1 0 1.000000 
0 -11.897204 103.101601 317.739410 -0.461371 0.649059 -0.604862 0.551000 -0.512100 1 0 1.000000 
0 -11.399805 102.099403 315.459686 -0.722503 0.560902 -0.404201 0.551000 -0.512100 1 0 1.000000 
lamppost03a
0 -17.996204 100.364098 314.906006 0.275405 0.865014 -0.419407 0.551000 -0.512100 1 0 1.000000 
0 -20.372303 102.936203 316.740997 0.538608 0.758811 -0.366205 0.551000 -0.512100 1 0 1.000000 
0 -11.897204 103.101601 317.739410 -0.461371 0.649059 -0.604862 0.551000 -0.512100 1 0 1.000000 
lamppost03a
0 -21.513004 105.394897 313.782288 0.784692 0.590594 0.188298 0.551000 -0.512100 1 0 1.000000 
0 -20.372303 102.936203 316.740997 0.538608 0.758811 -0.366205 0.551000 -0.512100 1 0 1.000000 
0 -17.996204 100.364098 314.906006 0.275405 0.865014 -0.419407 0.551000 -0.512100 1 0 1.000000 
lamppost03a
0 -15.883305 114.836403 313.147308 0.118498 -0.136798 -0.983486 0.618300 -0.445900 1 0 1.000000 
0 -15.837005 99.833397 315.240112 0.118498 -0.136798 -0.983486 0.511700 -0.445900 1 0 1.000000 
0 -20.799505 109.883499 313.243805 0.118498 -0.136798 -0.983486 0.583800 -0.413200 1 0 1.000000 
lamppost03a
0 -15.883305 114.836403 313.147308 0.118498 -0.136798 -0.983486 0.618300 -0.445900 1 0 1.000000 
0 -11.606705 102.303596 315.406311 0.118498 -0.136798 -0.983486 0.528600 -0.474000 1 0 1.000000 
0 -15.837005 99.833397 315.240112 0.118498 -0.136798 -0.983486 0.511700 -0.445900 1 0 1.000000 
lamppost03a
0 -17.914003 88.783897 324.015686 0.104300 0.326000 -0.939599 0.688100 -0.536500 1 0 1.000000 
0 -12.971002 46.071800 310.506714 0.105200 0.310901 -0.944602 0.648400 -0.745000 1 0 1.000000 
0 -15.453402 46.023399 310.214203 -0.994434 -0.020701 -0.103304 0.687100 -0.745000 1 0 1.000000 
lamppost03a
0 -17.914003 88.783897 324.015686 0.104300 0.326000 -0.939599 0.688100 -0.536500 1 0 1.000000 
0 -15.431603 88.832397 324.308197 -0.053799 0.952675 0.299192 0.647400 -0.536500 1 0 1.000000 
0 -12.971002 46.071800 310.506714 0.105200 0.310901 -0.944602 0.648400 -0.745000 1 0 1.000000 
lamppost03a
0 -15.431603 88.832397 324.308197 -0.053799 0.952675 0.299192 0.647400 -0.536500 1 0 1.000000 
0 -17.914003 88.783897 324.015686 0.104300 0.326000 -0.939599 0.608700 -0.536500 1 0 1.000000 
0 -15.453402 46.023399 310.214203 -0.993680 -0.082698 -0.075898 0.607700 -0.745000 1 0 1.000000 
lamppost03a
0 -16.619001 35.242199 309.499786 0.116999 -0.321396 -0.939689 0.677700 -0.531200 1 0 1.000000 
0 -16.806402 40.632900 307.632690 0.116999 -0.321396 -0.939689 0.681600 -0.617200 1 0 1.000000 
0 -11.140802 41.027401 308.203094 0.116999 -0.321396 -0.939689 0.597700 -0.621100 1 0 1.000000 
lamppost03a
0 -21.529306 114.248901 312.727814 0.003600 0.998131 0.061002 0.581400 -0.221100 1 0 1.000000 
0 -10.782605 113.860603 318.455109 0.003600 0.998131 0.061002 0.533100 -0.202100 1 0 1.000000 
0 -12.967705 113.898399 313.629211 0.042098 0.999051 -0.011199 0.546600 -0.223300 1 0 1.000000 
lamppost03a
0 -21.529306 114.248901 312.727814 0.003600 0.998131 0.061002 0.581400 -0.221100 1 0 1.000000 
0 -22.036005 113.640900 317.129395 -0.035001 0.990524 0.132803 0.581400 -0.202100 1 0 1.000000 
0 -10.782605 113.860603 318.455109 0.003600 0.998131 0.061002 0.533100 -0.202100 1 0 1.000000 
lamppost03a
0 -16.619001 35.242199 309.499786 -0.193091 -0.973454 0.122894 0.593800 -0.750000 1 0 1.000000 
0 -12.719402 39.364300 321.877594 0.690429 -0.698730 0.187308 0.500000 -0.531200 1 0 1.000000 
0 -18.373302 39.537899 321.114410 -0.982303 -0.148301 0.114400 0.593800 -0.531200 1 0 1.000000 
lamppost03a
0 -16.619001 35.242199 309.499786 -0.193091 -0.973454 0.122894 0.593800 -0.750000 1 0 1.000000 
0 -11.140802 41.027401 308.203094 0.984749 0.132293 -0.112994 0.500000 -0.750000 1 0 1.000000 
0 -12.719402 39.364300 321.877594 0.690429 -0.698730 0.187308 0.500000 -0.531200 1 0 1.000000 
lamppost03a
0 -11.140802 41.027401 308.203094 0.984749 0.132293 -0.112994 0.593800 -0.750000 1 0 1.000000 
0 -12.311002 44.766602 320.080688 0.177204 0.976620 -0.121703 0.593800 -0.531200 1 0 1.000000 
0 -12.719402 39.364300 321.877594 0.690429 -0.698730 0.187308 0.500000 -0.531200 1 0 1.000000 
lamppost03a
0 -18.373302 39.537899 321.114410 -0.982303 -0.148301 0.114400 0.500000 -0.531200 1 0 1.000000 
0 -16.806402 40.632900 307.632690 -0.705020 0.684820 -0.184305 0.593800 -0.750000 1 0 1.000000 
0 -16.619001 35.242199 309.499786 -0.193091 -0.973454 0.122894 0.500000 -0.750000 1 0 1.000000 
lamppost03a
0 -18.373302 39.537899 321.114410 -0.982303 -0.148301 0.114400 0.500000 -0.531200 1 0 1.000000 
0 -12.311002 44.766602 320.080688 0.177204 0.976620 -0.121703 0.500000 -0.531200 1 0 1.000000 
0 -16.806402 40.632900 307.632690 -0.705020 0.684820 -0.184305 0.593800 -0.750000 1 0 1.000000 
lamppost03a
0 -12.311002 44.766602 320.080688 0.177204 0.976620 -0.121703 0.500000 -0.531200 1 0 1.000000 
0 -11.140802 41.027401 308.203094 0.984749 0.132293 -0.112994 0.500000 -0.750000 1 0 1.000000 
0 -16.806402 40.632900 307.632690 -0.705020 0.684820 -0.184305 0.593800 -0.750000 1 0 1.000000 
lamppost03a
0 -5.250000 -5.073200 22.000000 0.000000 0.000000 1.000000 0.570000 -0.796000 1 0 1.000000 
0 5.250000 5.073200 22.000000 0.000000 0.000000 1.000000 0.684700 -0.933400 1 0 1.000000 
0 -5.073200 5.250000 22.000000 0.000000 0.000000 1.000000 0.686700 -0.798300 1 0 1.000000 
lamppost03a
0 -5.250000 -5.073200 22.000000 0.000000 0.000000 1.000000 0.570000 -0.796000 1 0 1.000000 
0 5.073200 -5.250000 22.000000 0.000000 0.000000 1.000000 0.568000 -0.931100 1 0 1.000000 
0 5.250000 5.073200 22.000000 0.000000 0.000000 1.000000 0.684700 -0.933400 1 0 1.000000 
lamppost03a
0 -22.017803 98.466499 318.064911 -0.963521 -0.248206 0.100102 0.577000 -0.274100 1 0 1.000000 
0 -17.817804 93.532700 320.275208 -0.714773 -0.680574 -0.160994 0.521700 -0.274100 1 0 1.000000 
0 -18.271904 93.080299 324.204407 -0.900393 -0.375297 0.220098 0.509600 -0.250000 1 0 1.000000 
lamppost03a
0 -18.271904 93.080299 324.204407 -0.900393 -0.375297 0.220098 0.509600 -0.250000 1 0 1.000000 
0 -22.036005 113.640900 317.129395 -0.974019 0.012800 0.226104 0.665600 -0.250000 1 0 1.000000 
0 -22.017803 98.466499 318.064911 -0.963521 -0.248206 0.100102 0.577000 -0.274100 1 0 1.000000 
lamppost03a
0 -21.529306 114.248901 312.727814 -0.993273 -0.008300 -0.115497 0.677700 -0.274100 1 0 1.000000 
0 -22.017803 98.466499 318.064911 -0.963521 -0.248206 0.100102 0.577000 -0.274100 1 0 1.000000 
0 -22.036005 113.640900 317.129395 -0.974019 0.012800 0.226104 0.665600 -0.250000 1 0 1.000000 
lamppost03a
0 -18.373302 39.537899 321.114410 -0.116999 0.321396 0.939689 0.681600 -0.535200 1 0 1.000000 
0 -12.719402 39.364300 321.877594 -0.116999 0.321396 0.939689 0.597700 -0.531200 1 0 1.000000 
0 -12.311002 44.766602 320.080688 -0.116999 0.321396 0.939689 0.593800 -0.617200 1 0 1.000000 
lamppost03a
0 -6.250000 -6.073201 6.000000 -0.882126 -0.435713 0.178905 0.028400 -0.859400 1 0 1.000000 
0 -7.000000 6.823200 0.000000 -0.883984 0.441392 0.154097 0.394000 -0.991900 1 0 1.000000 
0 -6.823200 -7.000000 0.000000 -0.441392 -0.883984 0.154097 0.007100 -0.991900 1 0 1.000000 
lamppost03a
0 -6.250000 -6.073201 6.000000 -0.882126 -0.435713 0.178905 0.028400 -0.859400 1 0 1.000000 
0 -6.073201 6.250000 6.000000 -0.435713 0.882126 0.178905 0.372700 -0.859400 1 0 1.000000 
0 -7.000000 6.823200 0.000000 -0.883984 0.441392 0.154097 0.394000 -0.991900 1 0 1.000000 
lamppost03a
0 -6.073201 6.250000 6.000000 -0.435713 0.882126 0.178905 0.372700 -0.859400 1 0 1.000000 
0 6.823200 7.000000 0.000000 0.441392 0.883984 0.154097 0.007100 -0.991900 1 0 1.000000 
0 -7.000000 6.823200 0.000000 -0.883984 0.441392 0.154097 0.394000 -0.991900 1 0 1.000000 
lamppost03a
0 -6.073201 6.250000 6.000000 -0.435713 0.882126 0.178905 0.372700 -0.859400 1 0 1.000000 
0 6.250000 6.073201 6.000000 0.882126 0.435713 0.178905 0.028400 -0.859400 1 0 1.000000 
0 6.823200 7.000000 0.000000 0.441392 0.883984 0.154097 0.007100 -0.991900 1 0 1.000000 
lamppost03a
0 5.250000 5.073200 22.000000 0.898284 0.431292 0.084099 0.344400 -0.506300 1 0 1.000000 
0 6.073201 -6.250000 6.000000 0.887496 -0.460098 0.025700 0.028400 -0.859400 1 0 1.000000 
0 6.250000 6.073201 6.000000 0.460098 0.887496 0.025700 0.372700 -0.859400 1 0 1.000000 
lamppost03a
0 5.250000 5.073200 22.000000 0.898284 0.431292 0.084099 0.344400 -0.506300 1 0 1.000000 
0 5.073200 -5.250000 22.000000 0.431292 -0.898284 0.084099 0.056700 -0.506300 1 0 1.000000 
0 6.073201 -6.250000 6.000000 0.887496 -0.460098 0.025700 0.028400 -0.859400 1 0 1.000000 
lamppost03a
0 5.073200 -5.250000 22.000000 0.431292 -0.898284 0.084099 0.056700 -0.506300 1 0 1.000000 
0 -6.250000 -6.073201 6.000000 -0.460098 -0.887496 0.025700 0.372700 -0.859400 1 0 1.000000 
0 6.073201 -6.250000 6.000000 0.887496 -0.460098 0.025700 0.028400 -0.859400 1 0 1.000000 
lamppost03a
0 5.073200 -5.250000 22.000000 0.431292 -0.898284 0.084099 0.056700 -0.506300 1 0 1.000000 
0 -5.250000 -5.073200 22.000000 -0.898284 -0.431292 0.084099 0.344400 -0.506300 1 0 1.000000 
0 -6.250000 -6.073201 6.000000 -0.460098 -0.887496 0.025700 0.372700 -0.859400 1 0 1.000000 
lamppost03a
0 -6.823200 -7.000000 0.000000 -0.441392 -0.883984 0.154097 0.394000 -0.991900 1 0 1.000000 
0 6.073201 -6.250000 6.000000 0.435713 -0.882126 0.178905 0.028400 -0.859400 1 0 1.000000 
0 -6.250000 -6.073201 6.000000 -0.882126 -0.435713 0.178905 0.372700 -0.859400 1 0 1.000000 
lamppost03a
0 -6.823200 -7.000000 0.000000 -0.441392 -0.883984 0.154097 0.394000 -0.991900 1 0 1.000000 
0 7.000000 -6.823200 0.000000 0.883984 -0.441392 0.154097 0.007100 -0.991900 1 0 1.000000 
0 6.073201 -6.250000 6.000000 0.435713 -0.882126 0.178905 0.028400 -0.859400 1 0 1.000000 
lamppost03a
0 6.250000 6.073201 6.000000 0.882126 0.435713 0.178905 0.372700 -0.859400 1 0 1.000000 
0 6.073201 -6.250000 6.000000 0.435713 -0.882126 0.178905 0.028400 -0.859400 1 0 1.000000 
0 7.000000 -6.823200 0.000000 0.883984 -0.441392 0.154097 0.007100 -0.991900 1 0 1.000000 
lamppost03a
0 6.250000 6.073201 6.000000 0.882126 0.435713 0.178905 0.372700 -0.859400 1 0 1.000000 
0 7.000000 -6.823200 0.000000 0.883984 -0.441392 0.154097 0.007100 -0.991900 1 0 1.000000 
0 6.823200 7.000000 0.000000 0.441392 0.883984 0.154097 0.394000 -0.991900 1 0 1.000000 
lamppost03a
0 -20.287504 101.925903 314.412598 -0.439003 -0.539203 -0.718704 0.730800 -0.137700 1 0 1.000000 
0 -22.017803 98.466499 318.064911 -0.304913 -0.517622 -0.799434 0.742800 -0.174800 1 0 1.000000 
0 -21.529306 114.248901 312.727814 -0.826550 -0.157191 -0.540468 0.741300 -0.028700 1 0 1.000000 
lamppost03a
0 -11.399805 102.099403 315.459686 0.430029 -0.537536 -0.725348 0.652000 -0.137700 1 0 1.000000 
0 -22.017803 98.466499 318.064911 -0.304913 -0.517622 -0.799434 0.742800 -0.174800 1 0 1.000000 
0 -20.287504 101.925903 314.412598 -0.439003 -0.539203 -0.718704 0.730800 -0.137700 1 0 1.000000 
lamppost03a
0 -11.399805 102.099403 315.459686 0.430029 -0.537536 -0.725348 0.652000 -0.137700 1 0 1.000000 
0 -17.817804 93.532700 320.275208 0.130103 -0.778815 -0.613612 0.704600 -0.221300 1 0 1.000000 
0 -22.017803 98.466499 318.064911 -0.304913 -0.517622 -0.799434 0.742800 -0.174800 1 0 1.000000 
lamppost03a
0 -11.399805 102.099403 315.459686 0.430029 -0.537536 -0.725348 0.652000 -0.137700 1 0 1.000000 
0 -10.433505 98.692596 319.429596 0.972757 -0.228790 -0.037398 0.640000 -0.189000 1 0 1.000000 
0 -17.817804 93.532700 320.275208 0.130103 -0.778815 -0.613612 0.704600 -0.221300 1 0 1.000000 
lamppost03a
0 -12.967705 113.898399 313.629211 0.983265 0.107896 -0.146795 0.665600 -0.032900 1 0 1.000000 
0 -10.433505 98.692596 319.429596 0.972757 -0.228790 -0.037398 0.640000 -0.189000 1 0 1.000000 
0 -11.399805 102.099403 315.459686 0.430029 -0.537536 -0.725348 0.652000 -0.137700 1 0 1.000000 
lamppost03a
0 -15.293004 93.138397 324.555389 0.189803 -0.125902 0.973716 0.678200 -0.233200 1 0 1.000000 
0 -22.036005 113.640900 317.129395 -0.116999 0.321396 0.939689 0.741300 -0.042900 1 0 1.000000 
0 -18.271904 93.080299 324.204407 -0.075403 -0.658228 0.749032 0.704600 -0.233200 1 0 1.000000 
lamppost03a
0 -15.293004 93.138397 324.555389 0.189803 -0.125902 0.973716 0.678200 -0.233200 1 0 1.000000 
0 -10.782605 113.860603 318.455109 0.318004 0.203403 0.926013 0.641500 -0.042900 1 0 1.000000 
0 -22.036005 113.640900 317.129395 -0.116999 0.321396 0.939689 0.741300 -0.042900 1 0 1.000000 
lamppost03a
0 -15.293004 93.138397 324.555389 0.189803 -0.125902 0.973716 0.678200 -0.233200 1 0 1.000000 
0 -10.433505 98.692596 319.429596 0.972757 -0.228790 -0.037398 0.640000 -0.189000 1 0 1.000000 
0 -10.782605 113.860603 318.455109 0.318004 0.203403 0.926013 0.641500 -0.042900 1 0 1.000000 
lamppost03a
0 -15.453402 46.023399 310.214203 0.116999 -0.321396 -0.939689 0.553400 -0.531200 1 0 1.000000 
0 -12.971002 46.071800 310.506714 0.116999 -0.321396 -0.939689 0.527400 -0.531200 1 0 1.000000 
0 -15.530902 42.236401 311.499786 0.116999 -0.321396 -0.939689 0.501000 -0.750000 1 0 1.000000 
lamppost03a
0 -5.000000 -0.000000 22.000000 -0.975406 -0.217201 0.037500 0.002600 -0.467600 1 0 1.000000 
0 -1.722100 -4.157500 35.000000 -0.618396 -0.784995 0.037000 0.095500 -0.159000 1 0 1.000000 
0 -4.500000 -0.000000 35.000000 -0.975406 0.217201 0.037500 0.002600 -0.159000 1 0 1.000000 
lamppost03a
0 -5.000000 -0.000000 22.000000 -0.975406 -0.217201 0.037500 0.002600 -0.467600 1 0 1.000000 
0 -1.913400 -4.619400 22.000000 -0.320694 -0.947183 0.000000 0.095500 -0.493300 1 0 1.000000 
0 -1.722100 -4.157500 35.000000 -0.618396 -0.784995 0.037000 0.095500 -0.159000 1 0 1.000000 
lamppost03a
0 -1.913400 -4.619400 22.000000 -0.320694 -0.947183 0.000000 0.095500 -0.493300 1 0 1.000000 
0 1.722100 -4.157500 35.000000 0.445310 -0.895319 0.010100 0.157500 -0.159000 1 0 1.000000 
0 -1.722100 -4.157500 35.000000 -0.618396 -0.784995 0.037000 0.095500 -0.159000 1 0 1.000000 
lamppost03a
0 -1.913400 -4.619400 22.000000 -0.320694 -0.947183 0.000000 0.095500 -0.493300 1 0 1.000000 
0 3.535500 -3.535500 22.000000 0.840476 -0.541585 0.016900 0.219400 -0.467600 1 0 1.000000 
0 1.722100 -4.157500 35.000000 0.445310 -0.895319 0.010100 0.157500 -0.159000 1 0 1.000000 
lamppost03a
0 3.535500 -3.535500 22.000000 0.840476 -0.541585 0.016900 0.219400 -0.467600 1 0 1.000000 
0 4.157500 1.722100 35.000000 0.991263 0.122895 0.047898 0.281400 -0.159000 1 0 1.000000 
0 1.722100 -4.157500 35.000000 0.445310 -0.895319 0.010100 0.157500 -0.159000 1 0 1.000000 
lamppost03a
0 3.535500 -3.535500 22.000000 0.840476 -0.541585 0.016900 0.219400 -0.467600 1 0 1.000000 
0 3.535500 3.535500 22.000000 0.577609 0.816313 0.000300 0.312300 -0.467600 1 0 1.000000 
0 4.157500 1.722100 35.000000 0.991263 0.122895 0.047898 0.281400 -0.159000 1 0 1.000000 
lamppost03a
0 3.535500 3.535500 22.000000 0.577609 0.816313 0.000300 0.312300 -0.467600 1 0 1.000000 
0 1.722100 4.157500 35.000000 0.443009 0.896517 0.000000 0.343300 -0.159000 1 0 1.000000 
0 4.157500 1.722100 35.000000 0.991263 0.122895 0.047898 0.281400 -0.159000 1 0 1.000000 
lamppost03a
0 3.535500 3.535500 22.000000 0.577609 0.816313 0.000300 0.312300 -0.467600 1 0 1.000000 
0 -1.722100 4.157500 35.000000 -0.320694 0.947183 0.000000 0.405300 -0.159000 1 0 1.000000 
0 1.722100 4.157500 35.000000 0.443009 0.896517 0.000000 0.343300 -0.159000 1 0 1.000000 
lamppost03a
0 3.535500 3.535500 22.000000 0.577609 0.816313 0.000300 0.312300 -0.467600 1 0 1.000000 
0 -1.913400 4.619400 22.000000 -0.640194 0.767793 0.025400 0.436200 -0.467600 1 0 1.000000 
0 -1.722100 4.157500 35.000000 -0.320694 0.947183 0.000000 0.405300 -0.159000 1 0 1.000000 
lamppost03a
0 -1.913400 4.619400 22.000000 -0.640194 0.767793 0.025400 0.436200 -0.467600 1 0 1.000000 
0 -4.500000 -0.000000 35.000000 -0.975406 0.217201 0.037500 0.498200 -0.159000 1 0 1.000000 
0 -1.722100 4.157500 35.000000 -0.320694 0.947183 0.000000 0.405300 -0.159000 1 0 1.000000 
lamppost03a
0 -1.913400 4.619400 22.000000 -0.640194 0.767793 0.025400 0.436200 -0.467600 1 0 1.000000 
0 -5.000000 -0.000000 22.000000 -0.975406 -0.217201 0.037500 0.498200 -0.467600 1 0 1.000000 
0 -4.500000 -0.000000 35.000000 -0.975406 0.217201 0.037500 0.498200 -0.159000 1 0 1.000000 
lamppost03a
0 -1.145700 -2.765900 197.000000 0.176900 -0.971301 0.159000 0.000000 -1.000000 1 0 1.000000 
0 -1.722100 -4.157500 35.000000 -0.562297 -0.826896 0.008100 0.000000 -1.000000 1 0 1.000000 
0 1.722100 -4.157500 35.000000 0.555404 -0.831406 0.017000 0.000000 -1.000000 1 0 1.000000 
lamppost03a
0 -2.765900 -1.145700 197.000000 -0.995633 -0.090603 -0.022501 0.000000 -1.000000 1 0 1.000000 
0 -1.722100 -4.157500 35.000000 -0.562297 -0.826896 0.008100 0.000000 -1.000000 1 0 1.000000 
0 -1.145700 -2.765900 197.000000 0.176900 -0.971301 0.159000 0.000000 -1.000000 1 0 1.000000 
lamppost03a
0 -2.765900 -1.145700 197.000000 -0.995633 -0.090603 -0.022501 0.000000 -1.000000 1 0 1.000000 
0 -4.500000 -0.000000 35.000000 -0.999943 -0.000000 0.010700 0.000000 -1.000000 1 0 1.000000 
0 -1.722100 -4.157500 35.000000 -0.562297 -0.826896 0.008100 0.000000 -1.000000 1 0 1.000000 
lamppost03a
0 -2.765900 -1.145700 197.000000 -0.995633 -0.090603 -0.022501 0.000000 -1.000000 1 0 1.000000 
0 -1.722100 4.157500 35.000000 -0.618716 0.785520 0.012200 0.000000 -1.000000 1 0 1.000000 
0 -4.500000 -0.000000 35.000000 -0.999943 -0.000000 0.010700 0.000000 -1.000000 1 0 1.000000 
lamppost03a
0 -0.000000 2.993800 197.000000 0.253293 0.959175 -0.125797 0.000000 -1.000000 1 0 1.000000 
0 -1.722100 4.157500 35.000000 -0.618716 0.785520 0.012200 0.000000 -1.000000 1 0 1.000000 
0 -2.765900 -1.145700 197.000000 -0.995633 -0.090603 -0.022501 0.000000 -1.000000 1 0 1.000000 
lamppost03a
0 -0.000000 2.993800 197.000000 0.253293 0.959175 -0.125797 0.000000 -1.000000 1 0 1.000000 
0 1.722100 4.157500 35.000000 0.382704 0.923809 0.010700 0.000000 -1.000000 1 0 1.000000 
0 -1.722100 4.157500 35.000000 -0.618716 0.785520 0.012200 0.000000 -1.000000 1 0 1.000000 
lamppost03a
0 -0.000000 2.993800 197.000000 0.253293 0.959175 -0.125797 0.000000 -1.000000 1 0 1.000000 
0 4.157500 1.722100 35.000000 0.997521 0.069001 0.013800 0.000000 -1.000000 1 0 1.000000 
0 1.722100 4.157500 35.000000 0.382704 0.923809 0.010700 0.000000 -1.000000 1 0 1.000000 
lamppost03a
0 2.993700 0.000000 197.000000 0.993380 -0.083498 0.078898 0.000000 -1.000000 1 0 1.000000 
0 4.157500 1.722100 35.000000 0.997521 0.069001 0.013800 0.000000 -1.000000 1 0 1.000000 
0 -0.000000 2.993800 197.000000 0.253293 0.959175 -0.125797 0.000000 -1.000000 1 0 1.000000 
lamppost03a
0 -1.145700 -2.765900 197.000000 0.176900 -0.971301 0.159000 0.000000 -1.000000 1 0 1.000000 
0 4.157500 1.722100 35.000000 0.997521 0.069001 0.013800 0.000000 -1.000000 1 0 1.000000 
0 2.993700 0.000000 197.000000 0.993380 -0.083498 0.078898 0.000000 -1.000000 1 0 1.000000 
lamppost03a
0 2.993700 0.000000 197.000000 0.993380 -0.083498 0.078898 0.000000 -1.000000 1 0 1.000000 
0 -11.832602 37.359901 309.371307 0.972311 -0.147202 0.181502 0.000000 -1.000000 1 0 1.000000 
0 -1.145700 -2.765900 197.000000 0.176900 -0.971301 0.159000 0.000000 -1.000000 1 0 1.000000 
lamppost03a
0 -1.145700 -2.765900 197.000000 0.176900 -0.971301 0.159000 0.000000 -1.000000 1 0 1.000000 
0 -11.832602 37.359901 309.371307 0.972311 -0.147202 0.181502 0.000000 -1.000000 1 0 1.000000 
0 -14.775202 36.150101 309.418793 -0.585130 -0.784440 0.205611 0.000000 -1.000000 1 0 1.000000 
lamppost03a
0 -1.145700 -2.765900 197.000000 0.176900 -0.971301 0.159000 0.000000 -1.000000 1 0 1.000000 
0 -14.775202 36.150101 309.418793 -0.585130 -0.784440 0.205611 0.000000 -1.000000 1 0 1.000000 
0 -2.765900 -1.145700 197.000000 -0.995633 -0.090603 -0.022501 0.000000 -1.000000 1 0 1.000000 
lamppost03a
0 -2.765900 -1.145700 197.000000 -0.995633 -0.090603 -0.022501 0.000000 -1.000000 1 0 1.000000 
0 -14.775202 36.150101 309.418793 -0.585130 -0.784440 0.205611 0.000000 -1.000000 1 0 1.000000 
0 -15.428902 39.610199 308.153992 -0.728586 0.617888 -0.295594 0.000000 -1.000000 1 0 1.000000 
lamppost03a
0 -2.765900 -1.145700 197.000000 -0.995633 -0.090603 -0.022501 0.000000 -1.000000 1 0 1.000000 
0 -15.428902 39.610199 308.153992 -0.728586 0.617888 -0.295594 0.000000 -1.000000 1 0 1.000000 
0 -0.000000 2.993800 197.000000 0.253293 0.959175 -0.125797 0.000000 -1.000000 1 0 1.000000 
lamppost03a
0 -0.000000 2.993800 197.000000 0.253293 0.959175 -0.125797 0.000000 -1.000000 1 0 1.000000 
0 -15.428902 39.610199 308.153992 -0.728586 0.617888 -0.295594 0.000000 -1.000000 1 0 1.000000 
0 -11.832602 37.359901 309.371307 0.972311 -0.147202 0.181502 0.000000 -1.000000 1 0 1.000000 
lamppost03a
0 -0.000000 2.993800 197.000000 0.253293 0.959175 -0.125797 0.000000 -1.000000 1 0 1.000000 
0 -11.832602 37.359901 309.371307 0.972311 -0.147202 0.181502 0.000000 -1.000000 1 0 1.000000 
0 2.993700 0.000000 197.000000 0.993380 -0.083498 0.078898 0.000000 -1.000000 1 0 1.000000 
lamppost03a
0 -1.145700 -2.765900 197.000000 0.176900 -0.971301 0.159000 0.000000 -1.000000 1 0 1.000000 
0 1.722100 -4.157500 35.000000 0.555404 -0.831406 0.017000 0.000000 -1.000000 1 0 1.000000 
0 4.157500 1.722100 35.000000 0.997521 0.069001 0.013800 0.000000 -1.000000 1 0 1.000000 
lamppost03a
0 -17.576302 42.108601 320.334412 -0.961372 -0.271792 -0.043499 0.010200 -0.490100 1 0 1.000000 
0 -13.294802 41.377300 321.117493 0.749197 -0.661897 0.024400 0.222500 -0.490300 1 0 1.000000 
0 -19.070602 44.668900 327.786102 -0.960142 -0.134706 -0.244911 0.011300 -0.164400 1 0 1.000000 
lamppost03a
0 -13.294802 41.377300 321.117493 0.749197 -0.661897 0.024400 0.222500 -0.490300 1 0 1.000000 
0 -16.391003 42.221298 329.488892 0.051000 -0.991607 0.118801 0.131400 -0.144500 1 0 1.000000 
0 -19.070602 44.668900 327.786102 -0.960142 -0.134706 -0.244911 0.011300 -0.164400 1 0 1.000000 
lamppost03a
0 -13.294802 41.377300 321.117493 0.749197 -0.661897 0.024400 0.222500 -0.490300 1 0 1.000000 
0 -13.543802 44.938599 328.913910 0.991878 -0.100698 0.077698 0.251400 -0.144000 1 0 1.000000 
0 -16.391003 42.221298 329.488892 0.051000 -0.991607 0.118801 0.131400 -0.144500 1 0 1.000000 
lamppost03a
0 -13.294802 41.377300 321.117493 0.749197 -0.661897 0.024400 0.222500 -0.490300 1 0 1.000000 
0 -15.217402 47.365002 327.875702 0.514313 0.798520 -0.312808 0.341800 -0.143500 1 0 1.000000 
0 -13.543802 44.938599 328.913910 0.991878 -0.100698 0.077698 0.251400 -0.144000 1 0 1.000000 
lamppost03a
0 -13.294802 41.377300 321.117493 0.749197 -0.661897 0.024400 0.222500 -0.490300 1 0 1.000000 
0 -15.298602 44.282398 319.874390 -0.177908 0.899341 -0.399418 0.371900 -0.489700 1 0 1.000000 
0 -15.217402 47.365002 327.875702 0.514313 0.798520 -0.312808 0.341800 -0.143500 1 0 1.000000 
lamppost03a
0 -15.298602 44.282398 319.874390 -0.177908 0.899341 -0.399418 0.371900 -0.489700 1 0 1.000000 
0 -19.070602 44.668900 327.786102 -0.960142 -0.134706 -0.244911 0.492400 -0.164400 1 0 1.000000 
0 -15.217402 47.365002 327.875702 0.514313 0.798520 -0.312808 0.341800 -0.143500 1 0 1.000000 
lamppost03a
0 -15.298602 44.282398 319.874390 -0.177908 0.899341 -0.399418 0.371900 -0.489700 1 0 1.000000 
0 -17.576302 42.108601 320.334412 -0.961372 -0.271792 -0.043499 0.491300 -0.490100 1 0 1.000000 
0 -19.070602 44.668900 327.786102 -0.960142 -0.134706 -0.244911 0.492400 -0.164400 1 0 1.000000 
lamppost03a
0 -15.884504 115.242302 313.090698 0.217508 -0.415015 -0.883432 0.621700 -0.341800 1 0 1.000000 
0 -20.372303 102.936203 316.740997 0.415198 -0.394598 -0.819696 0.524100 -0.377000 1 0 1.000000 
0 -21.513004 105.394897 313.782288 0.668288 -0.424793 -0.610689 0.584600 -0.382800 1 0 1.000000 
lamppost03a
0 -15.884504 115.242302 313.090698 0.217508 -0.415015 -0.883432 0.621700 -0.341800 1 0 1.000000 
0 -11.897204 103.101601 317.739410 -0.033399 -0.366886 -0.929666 0.524100 -0.308600 1 0 1.000000 
0 -20.372303 102.936203 316.740997 0.415198 -0.394598 -0.819696 0.524100 -0.377000 1 0 1.000000 
lamppost03a
0 -15.884504 115.242302 313.090698 0.217508 -0.415015 -0.883432 0.621700 -0.341800 1 0 1.000000 
0 -10.937005 110.075996 314.405701 -0.182893 -0.403385 -0.896566 0.584600 -0.302700 1 0 1.000000 
0 -11.897204 103.101601 317.739410 -0.033399 -0.366886 -0.929666 0.524100 -0.308600 1 0 1.000000 
lamppost03a
0 -15.431603 88.832397 324.308197 -0.105200 -0.310901 0.944602 0.647400 -0.536500 1 0 1.000000 
0 -15.453402 46.023399 310.214203 -0.105200 -0.310901 0.944602 0.607700 -0.745000 1 0 1.000000 
0 -12.971002 46.071800 310.506714 -0.105200 -0.310901 0.944602 0.648400 -0.745000 1 0 1.000000 
lamppost03a
0 -17.797705 94.464401 322.087402 -0.000000 1.000000 0.000000 0.605500 -0.531200 1 0 1.000000 
0 -15.431603 88.832397 324.308197 -0.000000 1.000000 0.000000 0.584200 -0.750100 1 0 1.000000 
0 -17.914003 88.783897 324.015686 -0.000000 1.000000 0.000000 0.605500 -0.750100 1 0 1.000000 
lamppost03a
0 -17.797705 94.464401 322.087402 -0.000000 1.000000 0.000000 0.605500 -0.531200 1 0 1.000000 
0 -17.914003 88.783897 324.015686 -0.000000 1.000000 0.000000 0.605500 -0.750100 1 0 1.000000 
0 -15.431603 88.832397 324.308197 -0.000000 1.000000 0.000000 0.584200 -0.750100 1 0 1.000000 
lamppost03a
0 -15.217402 47.365002 327.875702 -0.205205 0.261907 0.943025 0.925500 -0.798400 1 0 1.000000 
0 -19.070602 44.668900 327.786102 -0.204411 0.318417 0.925649 0.871600 -0.723800 1 0 1.000000 
0 -13.543802 44.938599 328.913910 -0.204093 0.332188 0.920867 0.871600 -0.831700 1 0 1.000000 
lamppost03a
0 -19.070602 44.668900 327.786102 -0.204411 0.318417 0.925649 0.871600 -0.723800 1 0 1.000000 
0 -16.391003 42.221298 329.488892 -0.201898 0.400695 0.893689 0.813300 -0.777700 1 0 1.000000 
0 -13.543802 44.938599 328.913910 -0.204093 0.332188 0.920867 0.871600 -0.831700 1 0 1.000000 
lamppost03a
0 -10.782605 113.860603 318.455109 0.910934 -0.005500 -0.412515 0.665600 -0.250000 1 0 1.000000 
0 -10.433505 98.692596 319.429596 0.910934 -0.005500 -0.412515 0.577000 -0.274100 1 0 1.000000 
0 -12.967705 113.898399 313.629211 0.910934 -0.005500 -0.412515 0.677700 -0.274100 1 0 1.000000 
lamppost03a
0 -12.971002 46.071800 310.506714 -0.116999 0.321396 0.939689 0.527400 -0.531200 1 0 1.000000 
0 -15.453402 46.023399 310.214203 -0.116999 0.321396 0.939689 0.501000 -0.531200 1 0 1.000000 
0 -15.530902 42.236401 311.499786 -0.116999 0.321396 0.939689 0.501000 -0.750000 1 0 1.000000 
lamppost03a
0 -17.817804 93.532700 320.275208 0.130103 -0.778815 -0.613612 0.533800 -0.157500 1 0 1.000000 
0 -15.293004 93.138397 324.555389 0.189803 -0.125902 0.973716 0.571000 -0.108100 1 0 1.000000 
0 -18.271904 93.080299 324.204407 -0.075403 -0.658228 0.749032 0.533800 -0.108100 1 0 1.000000 
end
