version 1
nodes
  0 "static_prop" -1
end
skeleton
time 0
0 0.000000 0.000000 0.000000 0.000000 0.000000 0.000000
end
triangles
coolingtank01
0 -52.605499 -21.227001 106.939201 0.000000 0.000000 -1.000000 0.458000 -0.276700 1 0 1.000000 
0 -38.212799 -22.486202 106.939201 0.000000 0.000000 -1.000000 0.457800 -0.303700 1 0 1.000000 
0 -34.962700 -36.563599 106.939201 0.000000 0.000000 -1.000000 0.456700 -0.373600 1 0 1.000000 
coolingtank01
0 -52.605499 -21.227001 106.939201 0.000000 0.000000 -1.000000 0.453900 -0.514200 1 0 1.000000 
0 -54.338600 -41.036804 106.939201 0.000000 0.000000 -1.000000 0.455400 -0.422500 1 0 1.000000 
0 -57.588600 -26.959402 106.939201 0.000000 0.000000 -1.000000 0.454200 -0.492300 1 0 1.000000 
coolingtank01
0 -52.605499 -21.227001 106.939201 0.000000 0.000000 -1.000000 0.453900 -0.514200 1 0 1.000000 
0 -39.945900 -42.296001 106.939201 0.000000 0.000000 -1.000000 0.456200 -0.395500 1 0 1.000000 
0 -54.338600 -41.036804 106.939201 0.000000 0.000000 -1.000000 0.455400 -0.422500 1 0 1.000000 
coolingtank01
0 -52.605499 -21.227001 106.939201 0.000000 0.000000 -1.000000 0.453900 -0.514200 1 0 1.000000 
0 -34.962700 -36.563599 106.939201 0.000000 0.000000 -1.000000 0.456700 -0.373600 1 0 1.000000 
0 -39.945900 -42.296001 106.939201 0.000000 0.000000 -1.000000 0.456200 -0.395500 1 0 1.000000 
coolingtank01
0 95.120499 0.141504 21.961300 0.095800 0.995400 0.000000 0.381500 -0.910700 1 0 1.000000 
0 95.120598 0.141504 -116.598801 0.095800 0.995400 0.000000 0.379100 -0.183200 1 0 1.000000 
0 89.666000 0.666704 -116.598801 0.095800 0.995400 0.000000 0.358500 -0.177200 1 0 1.000000 
coolingtank01
0 57.213596 68.642899 -5.842300 0.000000 0.000000 1.000000 0.525000 -0.757900 1 0 1.000000 
0 42.749096 56.069099 -5.842300 0.000000 0.000000 1.000000 0.525000 -0.692100 1 0 1.000000 
0 61.861198 34.083103 -5.842300 0.000000 0.000000 1.000000 0.525000 -0.797500 1 0 1.000000 
coolingtank01
0 61.861198 34.083103 -5.842300 0.000000 0.000000 1.000000 0.525000 -0.797500 1 0 1.000000 
0 76.325699 46.656803 -5.842300 0.000000 0.000000 1.000000 0.525000 -0.863300 1 0 1.000000 
0 57.213596 68.642899 -5.842300 0.000000 0.000000 1.000000 0.525000 -0.757900 1 0 1.000000 
coolingtank01
0 42.749096 56.069099 -5.842300 -0.656087 0.754685 0.000000 0.525000 -0.692100 1 0 1.000000 
0 57.213596 68.642899 -5.842300 -0.656087 0.754685 0.000000 0.525000 -0.757900 1 0 1.000000 
0 57.213596 68.642899 -24.241301 -0.656087 0.754685 0.000000 0.603800 -0.757900 1 0 1.000000 
coolingtank01
0 57.213596 68.642899 -24.241301 -0.656087 0.754685 0.000000 0.603800 -0.757900 1 0 1.000000 
0 42.749096 56.069099 -24.241301 -0.656087 0.754685 0.000000 0.603800 -0.692100 1 0 1.000000 
0 42.749096 56.069099 -5.842300 -0.656087 0.754685 0.000000 0.525000 -0.692100 1 0 1.000000 
coolingtank01
0 61.861198 34.083103 -24.241301 0.000000 0.000000 -1.000000 0.603800 -0.797500 1 0 1.000000 
0 42.749096 56.069099 -24.241301 0.000000 0.000000 -1.000000 0.603800 -0.692100 1 0 1.000000 
0 57.213596 68.642899 -24.241301 0.000000 0.000000 -1.000000 0.603800 -0.757900 1 0 1.000000 
coolingtank01
0 57.213596 68.642899 -24.241301 0.000000 0.000000 -1.000000 0.603800 -0.757900 1 0 1.000000 
0 76.325699 46.656803 -24.241301 0.000000 0.000000 -1.000000 0.603800 -0.863300 1 0 1.000000 
0 61.861198 34.083103 -24.241301 0.000000 0.000000 -1.000000 0.603800 -0.797500 1 0 1.000000 
coolingtank01
0 76.325699 46.656803 -5.842300 0.656087 -0.754685 0.000000 0.525000 -0.863300 1 0 1.000000 
0 61.861198 34.083103 -5.842300 0.656087 -0.754685 0.000000 0.525000 -0.797500 1 0 1.000000 
0 61.861198 34.083103 -24.241301 0.656087 -0.754685 0.000000 0.603800 -0.797500 1 0 1.000000 
coolingtank01
0 61.861198 34.083103 -24.241301 0.656087 -0.754685 0.000000 0.603800 -0.797500 1 0 1.000000 
0 76.325699 46.656803 -24.241301 0.656087 -0.754685 0.000000 0.603800 -0.863300 1 0 1.000000 
0 76.325699 46.656803 -5.842300 0.656087 -0.754685 0.000000 0.525000 -0.863300 1 0 1.000000 
coolingtank01
0 -12.292500 -5.675001 -116.696800 -0.812271 -0.583279 0.000000 0.337600 -0.408700 1 0 1.000000 
0 -5.771200 -11.650500 -100.434196 -0.321413 -0.946939 0.000000 0.385600 -0.440300 1 0 1.000000 
0 -12.292500 -5.675001 -100.434196 -0.995511 -0.082201 0.046901 0.385600 -0.402700 1 0 1.000000 
coolingtank01
0 -12.292500 -5.675001 -116.696800 -0.812271 -0.583279 0.000000 0.337600 -0.408700 1 0 1.000000 
0 3.016901 -12.651800 -116.696800 0.199197 -0.979283 -0.036399 0.337600 -0.492800 1 0 1.000000 
0 -5.771200 -11.650500 -100.434196 -0.321413 -0.946939 0.000000 0.385600 -0.440300 1 0 1.000000 
coolingtank01
0 3.016901 -12.651800 -116.696800 0.199197 -0.979283 -0.036399 0.337600 -0.492800 1 0 1.000000 
0 10.715200 -8.296300 -100.434196 0.737111 -0.675410 -0.022100 0.385500 -0.517500 1 0 1.000000 
0 -5.771200 -11.650500 -100.434196 -0.321413 -0.946939 0.000000 0.385600 -0.440300 1 0 1.000000 
coolingtank01
0 3.016901 -12.651800 -116.696800 0.199197 -0.979283 -0.036399 0.337600 -0.492800 1 0 1.000000 
0 14.383100 -0.247699 -116.696800 0.982014 -0.188003 -0.017400 0.337600 -0.565700 1 0 1.000000 
0 10.715200 -8.296300 -100.434196 0.737111 -0.675410 -0.022100 0.385500 -0.517500 1 0 1.000000 
coolingtank01
0 14.383100 -0.247699 -116.696800 0.982014 -0.188003 -0.017400 0.337600 -0.565700 1 0 1.000000 
0 12.619700 8.419701 -100.434196 0.870085 0.492292 0.024500 0.385500 -0.600300 1 0 1.000000 
0 10.715200 -8.296300 -100.434196 0.737111 -0.675410 -0.022100 0.385500 -0.517500 1 0 1.000000 
coolingtank01
0 14.383100 -0.247699 -116.696800 0.982014 -0.188003 -0.017400 0.337600 -0.565700 1 0 1.000000 
0 6.098499 14.395300 -116.696800 0.414590 0.909678 -0.024499 0.337500 -0.635400 1 0 1.000000 
0 12.619700 8.419701 -100.434196 0.870085 0.492292 0.024500 0.385500 -0.600300 1 0 1.000000 
coolingtank01
0 6.098499 14.395300 -116.696800 0.414590 0.909678 -0.024499 0.337500 -0.635400 1 0 1.000000 
0 -2.689601 15.396500 -100.434196 -0.286606 0.956722 0.050401 0.385400 -0.679900 1 0 1.000000 
0 12.619700 8.419701 -100.434196 0.870085 0.492292 0.024500 0.385500 -0.600300 1 0 1.000000 
coolingtank01
0 6.098499 14.395300 -116.696800 0.414590 0.909678 -0.024499 0.337500 -0.635400 1 0 1.000000 
0 -10.387901 11.041100 -116.696800 -0.805711 0.592308 0.000000 0.337500 -0.710400 1 0 1.000000 
0 -2.689601 15.396500 -100.434196 -0.286606 0.956722 0.050401 0.385400 -0.679900 1 0 1.000000 
coolingtank01
0 -10.387901 11.041100 -116.696800 -0.805711 0.592308 0.000000 0.337500 -0.710400 1 0 1.000000 
0 -12.292500 -5.675001 -100.434196 -0.995511 -0.082201 0.046901 0.385400 -0.793400 1 0 1.000000 
0 -2.689601 15.396500 -100.434196 -0.286606 0.956722 0.050401 0.385400 -0.679900 1 0 1.000000 
coolingtank01
0 -10.387901 11.041100 -116.696800 -0.805711 0.592308 0.000000 0.337500 -0.710400 1 0 1.000000 
0 -12.292500 -5.675001 -116.696800 -0.812271 -0.583279 0.000000 0.337400 -0.799400 1 0 1.000000 
0 -12.292500 -5.675001 -100.434196 -0.995511 -0.082201 0.046901 0.385400 -0.793400 1 0 1.000000 
coolingtank01
0 0.663804 -88.508698 -116.598602 0.995400 -0.095800 0.000000 0.431900 -0.661300 1 0 1.000000 
0 0.663804 -88.508598 21.961300 0.995400 -0.095800 0.000000 0.986200 -0.649900 1 0 1.000000 
0 0.138604 -93.963203 21.961300 0.995400 -0.095800 0.000000 0.990200 -0.608400 1 0 1.000000 
coolingtank01
0 0.138604 -93.963203 21.961300 0.995400 -0.095800 0.000000 0.990200 -0.608400 1 0 1.000000 
0 0.138604 -93.963203 -116.598602 0.995400 -0.095800 0.000000 0.435900 -0.619800 1 0 1.000000 
0 0.663804 -88.508698 -116.598602 0.995400 -0.095800 0.000000 0.431900 -0.661300 1 0 1.000000 
coolingtank01
0 89.666000 0.666704 -116.598801 -0.967178 0.253994 0.007300 0.383800 -0.468200 1 0 1.000000 
0 88.090401 -15.696897 -116.598801 -0.995400 0.095800 0.000000 0.341000 -0.468200 1 0 1.000000 
0 88.090401 -15.696897 21.961300 -0.967178 0.253994 0.007300 0.341000 -0.910300 1 0 1.000000 
coolingtank01
0 88.090401 -15.696897 21.961300 -0.967178 0.253994 0.007300 0.341000 -0.910300 1 0 1.000000 
0 95.120499 0.141504 21.961300 -0.913895 0.405698 0.014300 0.376700 -0.910300 1 0 1.000000 
0 89.666000 0.666704 -116.598801 -0.967178 0.253994 0.007300 0.383800 -0.468200 1 0 1.000000 
coolingtank01
0 93.544899 -16.222197 21.961300 0.967178 -0.253994 -0.007300 0.341000 -0.910300 1 0 1.000000 
0 88.090401 -15.696897 -116.598801 0.913895 -0.405698 -0.014300 0.341000 -0.468200 1 0 1.000000 
0 95.120598 0.141504 -116.598801 0.967178 -0.253994 -0.007300 0.383800 -0.468200 1 0 1.000000 
coolingtank01
0 95.120598 0.141504 -116.598801 0.967178 -0.253994 -0.007300 0.383800 -0.468200 1 0 1.000000 
0 95.120499 0.141504 21.961300 0.995400 -0.095800 0.000000 0.376700 -0.910300 1 0 1.000000 
0 93.544899 -16.222197 21.961300 0.967178 -0.253994 -0.007300 0.341000 -0.910300 1 0 1.000000 
coolingtank01
0 -15.697796 -86.934097 21.961300 0.253994 0.967178 0.007300 0.341000 -0.910300 1 0 1.000000 
0 0.140604 -93.964302 21.961300 0.405698 0.913895 0.014300 0.376700 -0.910300 1 0 1.000000 
0 0.665804 -88.509804 -116.598701 0.253994 0.967178 0.007300 0.383800 -0.468200 1 0 1.000000 
coolingtank01
0 0.665804 -88.509804 -116.598701 0.253994 0.967178 0.007300 0.383800 -0.468200 1 0 1.000000 
0 -15.697796 -86.934097 -116.598701 0.095800 0.995400 0.000000 0.341000 -0.468200 1 0 1.000000 
0 -15.697796 -86.934097 21.961300 0.253994 0.967178 0.007300 0.341000 -0.910300 1 0 1.000000 
coolingtank01
0 0.140604 -93.964302 -116.598701 -0.253994 -0.967178 -0.007300 0.383800 -0.468200 1 0 1.000000 
0 0.140604 -93.964302 21.961300 -0.095800 -0.995400 0.000000 0.376700 -0.910300 1 0 1.000000 
0 -16.222996 -92.388702 21.961300 -0.253994 -0.967178 -0.007300 0.341000 -0.910300 1 0 1.000000 
coolingtank01
0 -16.222996 -92.388702 21.961300 -0.253994 -0.967178 -0.007300 0.341000 -0.910300 1 0 1.000000 
0 -15.697796 -86.934097 -116.598701 -0.405698 -0.913895 -0.014300 0.341000 -0.468200 1 0 1.000000 
0 0.140604 -93.964302 -116.598701 -0.253994 -0.967178 -0.007300 0.383800 -0.468200 1 0 1.000000 
coolingtank01
0 16.390997 86.567497 21.961300 -0.253994 -0.967178 0.007300 0.341000 -0.910300 1 0 1.000000 
0 0.552596 93.597702 21.961300 -0.405698 -0.913895 0.014300 0.376700 -0.910300 1 0 1.000000 
0 0.027396 88.143204 -116.598701 -0.253994 -0.967178 0.007300 0.383800 -0.468200 1 0 1.000000 
coolingtank01
0 0.027396 88.143204 -116.598701 -0.253994 -0.967178 0.007300 0.383800 -0.468200 1 0 1.000000 
0 16.390997 86.567497 -116.598701 -0.095800 -0.995400 0.000000 0.341000 -0.468200 1 0 1.000000 
0 16.390997 86.567497 21.961300 -0.253994 -0.967178 0.007300 0.341000 -0.910300 1 0 1.000000 
coolingtank01
0 0.552596 93.597702 -116.598701 0.253994 0.967178 -0.007300 0.383800 -0.468200 1 0 1.000000 
0 0.552596 93.597702 21.961300 0.095800 0.995400 0.000000 0.376700 -0.910300 1 0 1.000000 
0 16.916296 92.022102 21.961300 0.253994 0.967178 -0.007300 0.341000 -0.910300 1 0 1.000000 
coolingtank01
0 16.916296 92.022102 21.961300 0.253994 0.967178 -0.007300 0.341000 -0.910300 1 0 1.000000 
0 16.390997 86.567497 -116.598701 0.405698 0.913895 -0.014300 0.341000 -0.468200 1 0 1.000000 
0 0.552596 93.597702 -116.598701 0.253994 0.967178 -0.007300 0.383800 -0.468200 1 0 1.000000 
coolingtank01
0 -85.944801 17.367496 21.961300 0.995400 -0.095800 0.000000 0.341000 -0.910300 1 0 1.000000 
0 -92.974998 1.529096 21.961300 0.913895 -0.405698 0.014300 0.376700 -0.910300 1 0 1.000000 
0 -87.520401 1.003796 -116.598801 0.995400 -0.095800 0.000000 0.383800 -0.468200 1 0 1.000000 
coolingtank01
0 -87.520401 1.003796 -116.598801 0.995400 -0.095800 0.000000 0.383800 -0.468200 1 0 1.000000 
0 -91.399300 17.892696 -116.598801 0.974529 0.223807 -0.014300 0.341000 -0.468200 1 0 1.000000 
0 -85.944801 17.367496 21.961300 0.995400 -0.095800 0.000000 0.341000 -0.910300 1 0 1.000000 
coolingtank01
0 -92.974998 1.529096 -116.598801 -0.995400 0.095800 0.000000 0.383800 -0.468200 1 0 1.000000 
0 -92.974998 1.529096 21.961300 -0.995400 0.095800 0.000000 0.376700 -0.910300 1 0 1.000000 
0 -91.399300 17.892696 21.961300 -0.995400 0.095800 0.000000 0.341000 -0.910300 1 0 1.000000 
coolingtank01
0 -91.399300 17.892696 21.961300 -0.995400 0.095800 0.000000 0.341000 -0.910300 1 0 1.000000 
0 -91.399300 17.892696 -116.598801 -0.995400 0.095800 0.000000 0.341000 -0.468200 1 0 1.000000 
0 -92.974998 1.529096 -116.598801 -0.995400 0.095800 0.000000 0.383800 -0.468200 1 0 1.000000 
coolingtank01
0 -87.924202 -2.838104 -1.044800 0.995400 -0.095800 -0.000600 0.504500 -0.442600 1 0 1.000000 
0 -85.654404 20.733995 -1.044800 0.995400 -0.095800 -0.000600 0.504500 -0.560700 1 0 1.000000 
0 -85.629402 20.731497 16.121099 0.995400 -0.095800 -0.000600 0.431000 -0.560700 1 0 1.000000 
coolingtank01
0 -85.629402 20.731497 16.121099 0.995400 -0.095800 -0.000600 0.431000 -0.560700 1 0 1.000000 
0 -87.899101 -2.840504 16.121099 0.995400 -0.095800 -0.000600 0.431000 -0.442600 1 0 1.000000 
0 -87.924202 -2.838104 -1.044800 0.995400 -0.095800 -0.000600 0.504500 -0.442600 1 0 1.000000 
coolingtank01
0 57.213596 68.642899 -5.842300 0.754685 0.656087 0.000000 0.525000 -0.757900 1 0 1.000000 
0 76.325699 46.656803 -5.842300 0.754685 0.656087 0.000000 0.525000 -0.863300 1 0 1.000000 
0 76.325699 46.656803 -24.241301 0.754685 0.656087 0.000000 0.603800 -0.863300 1 0 1.000000 
coolingtank01
0 76.325699 46.656803 -24.241301 0.754685 0.656087 0.000000 0.603800 -0.863300 1 0 1.000000 
0 57.213596 68.642899 -24.241301 0.754685 0.656087 0.000000 0.603800 -0.757900 1 0 1.000000 
0 57.213596 68.642899 -5.842300 0.754685 0.656087 0.000000 0.525000 -0.757900 1 0 1.000000 
coolingtank01
0 61.861198 34.083103 -5.842300 -0.754685 -0.656087 0.000000 0.525000 -0.797500 1 0 1.000000 
0 42.749096 56.069099 -5.842300 -0.754685 -0.656087 0.000000 0.525000 -0.692100 1 0 1.000000 
0 42.749096 56.069099 -24.241301 -0.754685 -0.656087 0.000000 0.603800 -0.692100 1 0 1.000000 
coolingtank01
0 42.749096 56.069099 -24.241301 -0.754685 -0.656087 0.000000 0.603800 -0.692100 1 0 1.000000 
0 61.861198 34.083103 -24.241301 -0.754685 -0.656087 0.000000 0.603800 -0.797500 1 0 1.000000 
0 61.861198 34.083103 -5.842300 -0.754685 -0.656087 0.000000 0.525000 -0.797500 1 0 1.000000 
coolingtank01
0 52.664997 55.486202 -14.172900 -0.557673 -0.830060 0.000700 0.142800 -0.131000 1 0 1.000000 
0 52.570698 60.847603 -14.073600 -0.097503 0.995234 -0.001500 -0.096300 -0.130300 1 0 1.000000 
0 52.481598 60.822002 -108.342697 -0.733008 0.679908 -0.020600 -0.093000 -0.809700 1 0 1.000000 
coolingtank01
0 52.481598 60.822002 -108.342697 -0.733008 0.679908 -0.020600 -0.093000 -0.809700 1 0 1.000000 
0 52.491497 55.547005 -105.741798 -0.553126 -0.793237 0.254612 0.136600 -0.791000 1 0 1.000000 
0 52.664997 55.486202 -14.172900 -0.557673 -0.830060 0.000700 0.142800 -0.131000 1 0 1.000000 
coolingtank01
0 9.123996 97.823502 75.092499 0.136597 0.984080 0.113698 0.574500 -0.165400 1 0 1.000000 
0 -22.072803 87.732300 91.526299 -0.258002 0.844505 0.469303 0.490500 -0.037900 1 0 1.000000 
0 1.127596 85.498299 94.353302 0.048398 0.792475 0.607981 0.475500 -0.133700 1 0 1.000000 
coolingtank01
0 9.123996 97.823502 75.092499 0.136597 0.984080 0.113698 0.574500 -0.165400 1 0 1.000000 
0 -39.192204 89.317902 75.257500 -0.409891 0.901280 0.140297 0.574400 0.022200 1 0 1.000000 
0 -22.072803 87.732300 91.526299 -0.258002 0.844505 0.469303 0.490500 -0.037900 1 0 1.000000 
coolingtank01
0 85.873901 41.186104 86.657097 0.869281 0.426091 0.250594 0.513700 -0.542000 1 0 1.000000 
0 93.826599 -8.964396 87.655296 0.933491 -0.093499 0.346197 0.508400 -0.735900 1 0 1.000000 
0 97.483803 -9.365497 75.092499 0.993783 -0.096398 0.055699 0.573000 -0.736000 1 0 1.000000 
coolingtank01
0 85.873901 41.186104 86.657097 0.869281 0.426091 0.250594 0.513700 -0.542000 1 0 1.000000 
0 97.483803 -9.365497 75.092499 0.993783 -0.096398 0.055699 0.573000 -0.736000 1 0 1.000000 
0 89.091797 40.783005 75.092499 0.929084 0.367994 0.037199 0.573100 -0.548800 1 0 1.000000 
coolingtank01
0 56.153496 80.137100 75.053902 0.638302 0.767702 0.056600 0.573900 -0.356800 1 0 1.000000 
0 85.873901 41.186104 86.657097 0.869281 0.426091 0.250594 0.513700 -0.542000 1 0 1.000000 
0 89.091797 40.783005 75.092499 0.929084 0.367994 0.037199 0.573100 -0.548800 1 0 1.000000 
coolingtank01
0 45.947197 81.182701 88.891998 0.509004 0.795407 0.329003 0.502900 -0.320400 1 0 1.000000 
0 85.873901 41.186104 86.657097 0.869281 0.426091 0.250594 0.513700 -0.542000 1 0 1.000000 
0 56.153496 80.137100 75.053902 0.638302 0.767702 0.056600 0.573900 -0.356800 1 0 1.000000 
coolingtank01
0 9.123996 97.823502 75.092499 0.136597 0.984080 0.113698 0.574500 -0.165400 1 0 1.000000 
0 45.947197 81.182701 88.891998 0.509004 0.795407 0.329003 0.502900 -0.320400 1 0 1.000000 
0 56.153496 80.137100 75.053902 0.638302 0.767702 0.056600 0.573900 -0.356800 1 0 1.000000 
coolingtank01
0 9.123996 97.823502 75.092499 0.136597 0.984080 0.113698 0.574500 -0.165400 1 0 1.000000 
0 26.024595 83.100998 93.389000 0.293799 0.777598 0.555899 0.480100 -0.241600 1 0 1.000000 
0 45.947197 81.182701 88.891998 0.509004 0.795407 0.329003 0.502900 -0.320400 1 0 1.000000 
coolingtank01
0 9.123996 97.823502 75.092499 0.136597 0.984080 0.113698 0.574500 -0.165400 1 0 1.000000 
0 1.127596 85.498299 94.353302 0.048398 0.792475 0.607981 0.475500 -0.133700 1 0 1.000000 
0 26.024595 83.100998 93.389000 0.293799 0.777598 0.555899 0.480100 -0.241600 1 0 1.000000 
coolingtank01
0 1.127596 85.498299 94.353302 0.048398 0.792475 0.607981 0.475500 -0.133700 1 0 1.000000 
0 36.165997 45.972401 103.040802 0.326307 0.392509 0.859919 0.430300 -0.373400 1 0 1.000000 
0 26.024595 83.100998 93.389000 0.293799 0.777598 0.555899 0.480100 -0.241600 1 0 1.000000 
coolingtank01
0 1.127596 85.498299 94.353302 0.048398 0.792475 0.607981 0.475500 -0.133700 1 0 1.000000 
0 -6.957002 50.124699 104.710899 -0.047001 0.421706 0.905513 0.422400 -0.056200 1 0 1.000000 
0 36.165997 45.972401 103.040802 0.326307 0.392509 0.859919 0.430300 -0.373400 1 0 1.000000 
coolingtank01
0 -22.072803 87.732300 91.526299 -0.258002 0.844505 0.469303 0.490500 -0.037900 1 0 1.000000 
0 -6.957002 50.124699 104.710899 -0.047001 0.421706 0.905513 0.422400 -0.056200 1 0 1.000000 
0 1.127596 85.498299 94.353302 0.048398 0.792475 0.607981 0.475500 -0.133700 1 0 1.000000 
coolingtank01
0 -22.072803 87.732300 91.526299 -0.258002 0.844505 0.469303 0.490500 -0.037900 1 0 1.000000 
0 -47.141205 53.993996 99.814499 -0.436605 0.524406 0.731009 0.414400 0.124000 1 0 1.000000 
0 -6.957002 50.124699 104.710899 -0.047001 0.421706 0.905513 0.422400 -0.056200 1 0 1.000000 
coolingtank01
0 -39.192204 89.317902 75.257500 -0.409891 0.901280 0.140297 0.574400 0.022200 1 0 1.000000 
0 -47.141205 53.993996 99.814499 -0.436605 0.524406 0.731009 0.414400 0.124000 1 0 1.000000 
0 -22.072803 87.732300 91.526299 -0.258002 0.844505 0.469303 0.490500 -0.037900 1 0 1.000000 
coolingtank01
0 -39.192204 89.317902 75.257500 -0.409891 0.901280 0.140297 0.574400 0.022200 1 0 1.000000 
0 -73.619301 56.543495 89.663597 -0.699335 0.552328 0.453723 0.500900 0.205900 1 0 1.000000 
0 -47.141205 53.993996 99.814499 -0.436605 0.524406 0.731009 0.414400 0.124000 1 0 1.000000 
coolingtank01
0 -39.192204 89.317902 75.257500 -0.409891 0.901280 0.140297 0.574400 0.022200 1 0 1.000000 
0 -80.258400 57.089596 75.092499 -0.807193 0.584895 0.079599 0.576000 0.218300 1 0 1.000000 
0 -73.619301 56.543495 89.663597 -0.699335 0.552328 0.453723 0.500900 0.205900 1 0 1.000000 
coolingtank01
0 -80.258400 57.089596 75.092499 -0.807193 0.584895 0.079599 0.576000 0.218300 1 0 1.000000 
0 -90.340202 8.768796 91.126900 -0.880783 0.090498 0.464791 0.493700 0.404200 1 0 1.000000 
0 -73.619301 56.543495 89.663597 -0.699335 0.552328 0.453723 0.500900 0.205900 1 0 1.000000 
coolingtank01
0 -80.258400 57.089596 75.092499 -0.807193 0.584895 0.079599 0.576000 0.218300 1 0 1.000000 
0 -98.065002 9.463696 75.092499 -0.991347 0.097305 0.088104 0.576300 0.404200 1 0 1.000000 
0 -90.340202 8.768796 91.126900 -0.880783 0.090498 0.464791 0.493700 0.404200 1 0 1.000000 
coolingtank01
0 -98.065002 9.463696 75.092499 -0.991347 0.097305 0.088104 0.576300 0.404200 1 0 1.000000 
0 -83.042297 -41.318604 89.663597 -0.844828 -0.418214 0.333711 0.501100 0.601600 1 0 1.000000 
0 -90.340202 8.768796 91.126900 -0.880783 0.090498 0.464791 0.493700 0.404200 1 0 1.000000 
coolingtank01
0 -98.065002 9.463696 75.092499 -0.991347 0.097305 0.088104 0.576300 0.404200 1 0 1.000000 
0 -89.672997 -40.684803 75.092499 -0.928288 -0.367295 0.058099 0.576200 0.589400 1 0 1.000000 
0 -83.042297 -41.318604 89.663597 -0.844828 -0.418214 0.333711 0.501100 0.601600 1 0 1.000000 
coolingtank01
0 -97.567001 9.366796 11.079400 -0.990088 0.094499 -0.103899 0.905500 0.403900 1 0 1.000000 
0 -89.672997 -40.684803 75.092499 -0.928288 -0.367295 0.058099 0.576200 0.589400 1 0 1.000000 
0 -98.065002 9.463696 75.092499 -0.991347 0.097305 0.088104 0.576300 0.404200 1 0 1.000000 
coolingtank01
0 -97.567001 9.366796 11.079400 -0.990088 0.094499 -0.103899 0.905500 0.403900 1 0 1.000000 
0 -89.182503 -40.736805 11.079400 -0.904304 -0.414202 -0.103300 0.905400 0.592600 1 0 1.000000 
0 -89.672997 -40.684803 75.092499 -0.928288 -0.367295 0.058099 0.576200 0.589400 1 0 1.000000 
coolingtank01
0 -79.776398 56.949898 11.079400 -0.810242 0.576830 -0.103805 0.905200 0.214500 1 0 1.000000 
0 -97.567001 9.366796 11.079400 -0.990088 0.094499 -0.103899 0.905500 0.403900 1 0 1.000000 
0 -98.065002 9.463696 75.092499 -0.991347 0.097305 0.088104 0.576300 0.404200 1 0 1.000000 
coolingtank01
0 -73.619301 56.543495 89.663597 -0.699335 0.552328 0.453723 0.500900 0.205900 1 0 1.000000 
0 -59.765900 5.824898 102.848198 -0.516304 0.053900 0.854707 0.432900 0.398500 1 0 1.000000 
0 -47.141205 53.993996 99.814499 -0.436605 0.524406 0.731009 0.414400 0.124000 1 0 1.000000 
coolingtank01
0 -73.619301 56.543495 89.663597 -0.699335 0.552328 0.453723 0.500900 0.205900 1 0 1.000000 
0 -90.340202 8.768796 91.126900 -0.880783 0.090498 0.464791 0.493700 0.404200 1 0 1.000000 
0 -59.765900 5.824898 102.848198 -0.516304 0.053900 0.854707 0.432900 0.398500 1 0 1.000000 
coolingtank01
0 -90.340202 8.768796 91.126900 -0.880783 0.090498 0.464791 0.493700 0.404200 1 0 1.000000 
0 -56.564198 -43.868103 99.814499 -0.537603 -0.389002 0.748104 0.448400 0.671300 1 0 1.000000 
0 -59.765900 5.824898 102.848198 -0.516304 0.053900 0.854707 0.432900 0.398500 1 0 1.000000 
coolingtank01
0 -90.340202 8.768796 91.126900 -0.880783 0.090498 0.464791 0.493700 0.404200 1 0 1.000000 
0 -83.042297 -41.318604 89.663597 -0.844828 -0.418214 0.333711 0.501100 0.601600 1 0 1.000000 
0 -56.564198 -43.868103 99.814499 -0.537603 -0.389002 0.748104 0.448400 0.671300 1 0 1.000000 
coolingtank01
0 -79.776398 56.949898 11.079400 -0.810242 0.576830 -0.103805 0.905200 0.214500 1 0 1.000000 
0 -98.065002 9.463696 75.092499 -0.991347 0.097305 0.088104 0.576300 0.404200 1 0 1.000000 
0 -80.258400 57.089596 75.092499 -0.807193 0.584895 0.079599 0.576000 0.218300 1 0 1.000000 
coolingtank01
0 -40.577602 89.262901 11.079400 -0.409712 0.906527 -0.101703 0.904500 0.022000 1 0 1.000000 
0 -79.776398 56.949898 11.079400 -0.810242 0.576830 -0.103805 0.905200 0.214500 1 0 1.000000 
0 -80.258400 57.089596 75.092499 -0.807193 0.584895 0.079599 0.576000 0.218300 1 0 1.000000 
coolingtank01
0 -40.577602 89.262901 11.079400 -0.409712 0.906527 -0.101703 0.904500 0.022000 1 0 1.000000 
0 -80.258400 57.089596 75.092499 -0.807193 0.584895 0.079599 0.576000 0.218300 1 0 1.000000 
0 -39.192204 89.317902 75.257500 -0.409891 0.901280 0.140297 0.574400 0.022200 1 0 1.000000 
coolingtank01
0 9.525896 97.647301 11.079400 0.093097 0.990367 -0.102497 0.903700 -0.172500 1 0 1.000000 
0 -40.577602 89.262901 11.079400 -0.409712 0.906527 -0.101703 0.904500 0.022000 1 0 1.000000 
0 -39.192204 89.317902 75.257500 -0.409891 0.901280 0.140297 0.574400 0.022200 1 0 1.000000 
coolingtank01
0 9.525896 97.647301 11.079400 0.093097 0.990367 -0.102497 0.903700 -0.172500 1 0 1.000000 
0 -39.192204 89.317902 75.257500 -0.409891 0.901280 0.140297 0.574400 0.022200 1 0 1.000000 
0 9.123996 97.823502 75.092499 0.136597 0.984080 0.113698 0.574500 -0.165400 1 0 1.000000 
coolingtank01
0 57.108997 79.856697 11.079400 0.577215 0.810221 -0.101803 0.902900 -0.364700 1 0 1.000000 
0 9.525896 97.647301 11.079400 0.093097 0.990367 -0.102497 0.903700 -0.172500 1 0 1.000000 
0 9.123996 97.823502 75.092499 0.136597 0.984080 0.113698 0.574500 -0.165400 1 0 1.000000 
coolingtank01
0 57.108997 79.856697 11.079400 0.577215 0.810221 -0.101803 0.902900 -0.364700 1 0 1.000000 
0 9.123996 97.823502 75.092499 0.136597 0.984080 0.113698 0.574500 -0.165400 1 0 1.000000 
0 56.153496 80.137100 75.053902 0.638302 0.767702 0.056600 0.573900 -0.356800 1 0 1.000000 
coolingtank01
0 89.421997 40.658005 11.079400 0.904386 0.414493 -0.101398 0.902300 -0.551900 1 0 1.000000 
0 57.108997 79.856697 11.079400 0.577215 0.810221 -0.101803 0.902900 -0.364700 1 0 1.000000 
0 56.153496 80.137100 75.053902 0.638302 0.767702 0.056600 0.573900 -0.356800 1 0 1.000000 
coolingtank01
0 89.421997 40.658005 11.079400 0.904386 0.414493 -0.101398 0.902300 -0.551900 1 0 1.000000 
0 56.153496 80.137100 75.053902 0.638302 0.767702 0.056600 0.573900 -0.356800 1 0 1.000000 
0 89.091797 40.783005 75.092499 0.929084 0.367994 0.037199 0.573100 -0.548800 1 0 1.000000 
coolingtank01
0 97.806396 -9.445497 11.079400 0.990346 -0.094504 -0.101405 0.902200 -0.735700 1 0 1.000000 
0 89.421997 40.658005 11.079400 0.904386 0.414493 -0.101398 0.902300 -0.551900 1 0 1.000000 
0 89.091797 40.783005 75.092499 0.929084 0.367994 0.037199 0.573100 -0.548800 1 0 1.000000 
coolingtank01
0 97.806396 -9.445497 11.079400 0.990346 -0.094504 -0.101405 0.902200 -0.735700 1 0 1.000000 
0 89.091797 40.783005 75.092499 0.929084 0.367994 0.037199 0.573100 -0.548800 1 0 1.000000 
0 97.483803 -9.365497 75.092499 0.993783 -0.096398 0.055699 0.573000 -0.736000 1 0 1.000000 
coolingtank01
0 80.015800 -57.028698 11.079400 0.810408 -0.577006 -0.101501 0.902500 -0.920200 1 0 1.000000 
0 97.806396 -9.445497 11.079400 0.990346 -0.094504 -0.101405 0.902200 -0.735700 1 0 1.000000 
0 97.483803 -9.365497 75.092499 0.993783 -0.096398 0.055699 0.573000 -0.736000 1 0 1.000000 
coolingtank01
0 80.015800 -57.028698 11.079400 0.810408 -0.577006 -0.101501 0.902500 -0.920200 1 0 1.000000 
0 97.483803 -9.365497 75.092499 0.993783 -0.096398 0.055699 0.573000 -0.736000 1 0 1.000000 
0 79.677200 -56.991398 75.092499 0.813203 -0.579802 0.050300 0.573300 -0.923900 1 0 1.000000 
coolingtank01
0 40.817104 -89.341599 11.079400 0.413295 -0.904889 -0.101799 0.903200 -1.109100 1 0 1.000000 
0 80.015800 -57.028698 11.079400 0.810408 -0.577006 -0.101501 0.902500 -0.920200 1 0 1.000000 
0 79.677200 -56.991398 75.092499 0.813203 -0.579802 0.050300 0.573300 -0.923900 1 0 1.000000 
coolingtank01
0 40.817104 -89.341599 11.079400 0.413295 -0.904889 -0.101799 0.903200 -1.109100 1 0 1.000000 
0 79.677200 -56.991398 75.092499 0.813203 -0.579802 0.050300 0.573300 -0.923900 1 0 1.000000 
0 40.443302 -89.333298 75.092499 0.410619 -0.910942 0.039702 0.573900 -1.115400 1 0 1.000000 
coolingtank01
0 -9.286396 -97.726097 11.079400 -0.094504 -0.990243 -0.102404 0.904000 -1.302400 1 0 1.000000 
0 40.817104 -89.341599 11.079400 0.413295 -0.904889 -0.101799 0.903200 -1.109100 1 0 1.000000 
0 40.443302 -89.333298 75.092499 0.410619 -0.910942 0.039702 0.573900 -1.115400 1 0 1.000000 
coolingtank01
0 -9.286396 -97.726097 11.079400 -0.094504 -0.990243 -0.102404 0.904000 -1.302400 1 0 1.000000 
0 40.443302 -89.333298 75.092499 0.410619 -0.910942 0.039702 0.573900 -1.115400 1 0 1.000000 
0 -9.705196 -97.725304 75.092499 -0.113697 -0.986977 0.113797 0.574800 -1.309500 1 0 1.000000 
coolingtank01
0 -56.869595 -79.935501 11.079400 -0.577215 -0.810121 -0.102603 0.904800 -1.496300 1 0 1.000000 
0 -9.286396 -97.726097 11.079400 -0.094504 -0.990243 -0.102404 0.904000 -1.302400 1 0 1.000000 
0 -9.705196 -97.725304 75.092499 -0.113697 -0.986977 0.113797 0.574800 -1.309500 1 0 1.000000 
coolingtank01
0 -9.705196 -97.725304 75.092499 -0.113697 -0.986977 0.113797 0.574800 -1.309500 1 0 1.000000 
0 -47.348995 -80.907600 88.891998 -0.498198 -0.792797 0.351099 0.504500 -1.469300 1 0 1.000000 
0 -56.914295 -79.958801 74.874001 -0.641626 -0.764531 0.061703 0.576700 -1.500800 1 0 1.000000 
coolingtank01
0 -9.705196 -97.725304 75.092499 -0.113697 -0.986977 0.113797 0.574800 -1.309500 1 0 1.000000 
0 -27.426395 -82.825897 93.389000 -0.258308 -0.783024 0.565818 0.481000 -1.392900 1 0 1.000000 
0 -47.348995 -80.907600 88.891998 -0.498198 -0.792797 0.351099 0.504500 -1.469300 1 0 1.000000 
coolingtank01
0 -9.705196 -97.725304 75.092499 -0.113697 -0.986977 0.113797 0.574800 -1.309500 1 0 1.000000 
0 -2.529396 -85.223198 94.353203 -0.015500 -0.800599 0.598999 0.475600 -1.285800 1 0 1.000000 
0 -27.426395 -82.825897 93.389000 -0.258308 -0.783024 0.565818 0.481000 -1.392900 1 0 1.000000 
coolingtank01
0 -9.705196 -97.725304 75.092499 -0.113697 -0.986977 0.113797 0.574800 -1.309500 1 0 1.000000 
0 20.671003 -87.457199 91.526299 0.218402 -0.838806 0.498703 0.489700 -1.188300 1 0 1.000000 
0 -2.529396 -85.223198 94.353203 -0.015500 -0.800599 0.598999 0.475600 -1.285800 1 0 1.000000 
coolingtank01
0 -9.705196 -97.725304 75.092499 -0.113697 -0.986977 0.113797 0.574800 -1.309500 1 0 1.000000 
0 35.958103 -88.929100 85.665703 0.391206 -0.881113 0.265704 0.519600 -1.131300 1 0 1.000000 
0 20.671003 -87.457199 91.526299 0.218402 -0.838806 0.498703 0.489700 -1.188300 1 0 1.000000 
coolingtank01
0 -9.705196 -97.725304 75.092499 -0.113697 -0.986977 0.113797 0.574800 -1.309500 1 0 1.000000 
0 40.443302 -89.333298 75.092499 0.410619 -0.910942 0.039702 0.573900 -1.115400 1 0 1.000000 
0 35.958103 -88.929100 85.665703 0.391206 -0.881113 0.265704 0.519600 -1.131300 1 0 1.000000 
coolingtank01
0 -56.869595 -79.935501 11.079400 -0.577215 -0.810121 -0.102603 0.904800 -1.496300 1 0 1.000000 
0 -9.705196 -97.725304 75.092499 -0.113697 -0.986977 0.113797 0.574800 -1.309500 1 0 1.000000 
0 -56.914295 -79.958801 74.874001 -0.641626 -0.764531 0.061703 0.576700 -1.500800 1 0 1.000000 
coolingtank01
0 -89.182503 -40.736805 11.079400 -0.904304 -0.414202 -0.103300 0.905400 -1.687400 1 0 1.000000 
0 -56.869595 -79.935501 11.079400 -0.577215 -0.810121 -0.102603 0.904800 -1.496300 1 0 1.000000 
0 -56.914295 -79.958801 74.874001 -0.641626 -0.764531 0.061703 0.576700 -1.500800 1 0 1.000000 
coolingtank01
0 -89.182503 -40.736805 11.079400 -0.904304 -0.414202 -0.103300 0.905400 -1.687400 1 0 1.000000 
0 -56.914295 -79.958801 74.874001 -0.641626 -0.764531 0.061703 0.576700 -1.500800 1 0 1.000000 
0 -89.672997 -40.684803 75.092499 -0.928288 -0.367295 0.058099 0.576200 -1.690600 1 0 1.000000 
coolingtank01
0 -89.672997 -40.684803 75.092499 -0.928288 -0.367295 0.058099 0.576200 -1.690600 1 0 1.000000 
0 -56.914295 -79.958801 74.874001 -0.641626 -0.764531 0.061703 0.576700 -1.500800 1 0 1.000000 
0 -83.042297 -41.318604 89.663597 -0.844828 -0.418214 0.333711 0.501100 -1.678400 1 0 1.000000 
coolingtank01
0 -83.042297 -41.318604 89.663597 -0.844828 -0.418214 0.333711 0.501100 -1.678400 1 0 1.000000 
0 -56.914295 -79.958801 74.874001 -0.641626 -0.764531 0.061703 0.576700 -1.500800 1 0 1.000000 
0 -47.348995 -80.907600 88.891998 -0.498198 -0.792797 0.351099 0.504500 -1.469300 1 0 1.000000 
coolingtank01
0 -83.042297 -41.318604 89.663597 -0.844828 -0.418214 0.333711 0.501100 -1.678400 1 0 1.000000 
0 -47.348995 -80.907600 88.891998 -0.498198 -0.792797 0.351099 0.504500 -1.469300 1 0 1.000000 
0 -56.564198 -43.868103 99.814499 -0.537603 -0.389002 0.748104 0.448400 -1.608700 1 0 1.000000 
coolingtank01
0 -56.564198 -43.868103 99.814499 -0.537603 -0.389002 0.748104 0.448400 -1.608700 1 0 1.000000 
0 -47.348995 -80.907600 88.891998 -0.498198 -0.792797 0.351099 0.504500 -1.469300 1 0 1.000000 
0 -27.426395 -82.825897 93.389000 -0.258308 -0.783024 0.565818 0.481000 -1.392900 1 0 1.000000 
coolingtank01
0 -56.564198 -43.868103 99.814499 -0.537603 -0.389002 0.748104 0.448400 -1.608700 1 0 1.000000 
0 -27.426395 -82.825897 93.389000 -0.258308 -0.783024 0.565818 0.481000 -1.392900 1 0 1.000000 
0 -16.379997 -47.737400 104.710899 -0.166509 -0.397321 0.902447 0.422600 -1.394600 1 0 1.000000 
coolingtank01
0 -16.379997 -47.737400 104.710899 -0.166509 -0.397321 0.902447 0.422600 -1.394600 1 0 1.000000 
0 -27.426395 -82.825897 93.389000 -0.258308 -0.783024 0.565818 0.481000 -1.392900 1 0 1.000000 
0 -2.529396 -85.223198 94.353203 -0.015500 -0.800599 0.598999 0.475600 -1.285800 1 0 1.000000 
coolingtank01
0 -16.379997 -47.737400 104.710899 -0.166509 -0.397321 0.902447 0.422600 -1.394600 1 0 1.000000 
0 -2.529396 -85.223198 94.353203 -0.015500 -0.800599 0.598999 0.475600 -1.285800 1 0 1.000000 
0 26.742903 -51.889702 103.040802 0.204300 -0.440299 0.874299 0.430400 -1.100900 1 0 1.000000 
coolingtank01
0 26.742903 -51.889702 103.040802 0.204300 -0.440299 0.874299 0.430400 -1.100900 1 0 1.000000 
0 -2.529396 -85.223198 94.353203 -0.015500 -0.800599 0.598999 0.475600 -1.285800 1 0 1.000000 
0 20.671003 -87.457199 91.526299 0.218402 -0.838806 0.498703 0.489700 -1.188300 1 0 1.000000 
coolingtank01
0 26.742903 -51.889702 103.040802 0.204300 -0.440299 0.874299 0.430400 -1.100900 1 0 1.000000 
0 20.671003 -87.457199 91.526299 0.218402 -0.838806 0.498703 0.489700 -1.188300 1 0 1.000000 
0 61.249905 -55.212296 95.251801 0.536291 -0.508992 0.673289 0.469900 -0.966200 1 0 1.000000 
coolingtank01
0 61.249905 -55.212296 95.251801 0.536291 -0.508992 0.673289 0.469900 -0.966200 1 0 1.000000 
0 20.671003 -87.457199 91.526299 0.218402 -0.838806 0.498703 0.489700 -1.188300 1 0 1.000000 
0 35.958103 -88.929100 85.665703 0.391206 -0.881113 0.265704 0.519600 -1.131300 1 0 1.000000 
coolingtank01
0 61.249905 -55.212296 95.251801 0.536291 -0.508992 0.673289 0.469900 -0.966200 1 0 1.000000 
0 35.958103 -88.929100 85.665703 0.391206 -0.881113 0.265704 0.519600 -1.131300 1 0 1.000000 
0 76.450798 -56.675995 86.657097 0.756121 -0.572416 0.317209 0.513800 -0.930700 1 0 1.000000 
coolingtank01
0 76.450798 -56.675995 86.657097 0.756121 -0.572416 0.317209 0.513800 -0.930700 1 0 1.000000 
0 35.958103 -88.929100 85.665703 0.391206 -0.881113 0.265704 0.519600 -1.131300 1 0 1.000000 
0 40.443302 -89.333298 75.092499 0.410619 -0.910942 0.039702 0.573900 -1.115400 1 0 1.000000 
coolingtank01
0 76.450798 -56.675995 86.657097 0.756121 -0.572416 0.317209 0.513800 -0.930700 1 0 1.000000 
0 40.443302 -89.333298 75.092499 0.410619 -0.910942 0.039702 0.573900 -1.115400 1 0 1.000000 
0 79.677200 -56.991398 75.092499 0.813203 -0.579802 0.050300 0.573300 -0.923900 1 0 1.000000 
coolingtank01
0 93.826599 -8.964396 87.655296 0.933491 -0.093499 0.346197 0.508400 -0.735900 1 0 1.000000 
0 76.450798 -56.675995 86.657097 0.756121 -0.572416 0.317209 0.513800 -0.930700 1 0 1.000000 
0 79.677200 -56.991398 75.092499 0.813203 -0.579802 0.050300 0.573300 -0.923900 1 0 1.000000 
coolingtank01
0 93.826599 -8.964396 87.655296 0.933491 -0.093499 0.346197 0.508400 -0.735900 1 0 1.000000 
0 79.677200 -56.991398 75.092499 0.813203 -0.579802 0.050300 0.573300 -0.923900 1 0 1.000000 
0 97.483803 -9.365497 75.092499 0.993783 -0.096398 0.055699 0.573000 -0.736000 1 0 1.000000 
coolingtank01
0 36.428902 -3.437598 106.573601 0.309003 -0.032400 0.950509 0.412100 -0.736400 1 0 1.000000 
0 26.742903 -51.889702 103.040802 0.204300 -0.440299 0.874299 0.430400 -1.100900 1 0 1.000000 
0 61.249905 -55.212296 95.251801 0.536291 -0.508992 0.673289 0.469900 -0.966200 1 0 1.000000 
coolingtank01
0 36.428902 -3.437598 106.573601 0.309003 -0.032400 0.950509 0.412100 -0.736400 1 0 1.000000 
0 61.249905 -55.212296 95.251801 0.536291 -0.508992 0.673289 0.469900 -0.966200 1 0 1.000000 
0 76.274101 -7.274297 97.579597 0.679909 -0.070401 0.729909 0.457700 -0.736100 1 0 1.000000 
coolingtank01
0 36.165997 45.972401 103.040802 0.326307 0.392509 0.859919 0.430300 -0.373400 1 0 1.000000 
0 36.428902 -3.437598 106.573601 0.309003 -0.032400 0.950509 0.412100 -0.736400 1 0 1.000000 
0 76.274101 -7.274297 97.579597 0.679909 -0.070401 0.729909 0.457700 -0.736100 1 0 1.000000 
coolingtank01
0 36.165997 45.972401 103.040802 0.326307 0.392509 0.859919 0.430300 -0.373400 1 0 1.000000 
0 76.274101 -7.274297 97.579597 0.679909 -0.070401 0.729909 0.457700 -0.736100 1 0 1.000000 
0 70.672997 42.649803 95.251801 0.653888 0.394193 0.645788 0.469700 -0.506900 1 0 1.000000 
coolingtank01
0 26.024595 83.100998 93.389000 0.293799 0.777598 0.555899 0.480100 -0.241600 1 0 1.000000 
0 36.165997 45.972401 103.040802 0.326307 0.392509 0.859919 0.430300 -0.373400 1 0 1.000000 
0 70.672997 42.649803 95.251801 0.653888 0.394193 0.645788 0.469700 -0.506900 1 0 1.000000 
coolingtank01
0 26.024595 83.100998 93.389000 0.293799 0.777598 0.555899 0.480100 -0.241600 1 0 1.000000 
0 70.672997 42.649803 95.251801 0.653888 0.394193 0.645788 0.469700 -0.506900 1 0 1.000000 
0 45.947197 81.182701 88.891998 0.509004 0.795407 0.329003 0.502900 -0.320400 1 0 1.000000 
coolingtank01
0 45.947197 81.182701 88.891998 0.509004 0.795407 0.329003 0.502900 -0.320400 1 0 1.000000 
0 70.672997 42.649803 95.251801 0.653888 0.394193 0.645788 0.469700 -0.506900 1 0 1.000000 
0 85.873901 41.186104 86.657097 0.869281 0.426091 0.250594 0.513700 -0.542000 1 0 1.000000 
coolingtank01
0 70.672997 42.649803 95.251801 0.653888 0.394193 0.645788 0.469700 -0.506900 1 0 1.000000 
0 93.826599 -8.964396 87.655296 0.933491 -0.093499 0.346197 0.508400 -0.735900 1 0 1.000000 
0 85.873901 41.186104 86.657097 0.869281 0.426091 0.250594 0.513700 -0.542000 1 0 1.000000 
coolingtank01
0 70.672997 42.649803 95.251801 0.653888 0.394193 0.645788 0.469700 -0.506900 1 0 1.000000 
0 76.274101 -7.274297 97.579597 0.679909 -0.070401 0.729909 0.457700 -0.736100 1 0 1.000000 
0 93.826599 -8.964396 87.655296 0.933491 -0.093499 0.346197 0.508400 -0.735900 1 0 1.000000 
coolingtank01
0 76.274101 -7.274297 97.579597 0.679909 -0.070401 0.729909 0.457700 -0.736100 1 0 1.000000 
0 76.450798 -56.675995 86.657097 0.756121 -0.572416 0.317209 0.513800 -0.930700 1 0 1.000000 
0 93.826599 -8.964396 87.655296 0.933491 -0.093499 0.346197 0.508400 -0.735900 1 0 1.000000 
coolingtank01
0 76.274101 -7.274297 97.579597 0.679909 -0.070401 0.729909 0.457700 -0.736100 1 0 1.000000 
0 61.249905 -55.212296 95.251801 0.536291 -0.508992 0.673289 0.469900 -0.966200 1 0 1.000000 
0 76.450798 -56.675995 86.657097 0.756121 -0.572416 0.317209 0.513800 -0.930700 1 0 1.000000 
coolingtank01
0 88.090401 -15.696897 -116.598801 -0.095800 -0.995400 0.000000 0.377600 -0.871000 1 0 1.000000 
0 93.544899 -16.222197 21.961300 -0.095800 -0.995400 0.000000 0.343400 -0.184400 1 0 1.000000 
0 88.090401 -15.696897 21.961300 -0.095800 -0.995400 0.000000 0.375800 -0.189400 1 0 1.000000 
coolingtank01
0 47.556103 -87.328400 40.595299 0.622510 -0.782612 0.000000 0.200700 -0.090000 1 0 1.000000 
0 57.019005 -79.801201 57.237900 0.622510 -0.782612 0.000000 0.143400 -0.009100 1 0 1.000000 
0 50.171604 -85.247902 50.881001 0.622510 -0.782612 0.000000 0.185100 -0.040200 1 0 1.000000 
coolingtank01
0 57.019005 -79.801201 23.952801 0.622510 -0.782612 0.000000 0.142000 -0.169800 1 0 1.000000 
0 57.019005 -79.801201 57.237900 0.622510 -0.782612 0.000000 0.143400 -0.009100 1 0 1.000000 
0 47.556103 -87.328400 40.595299 0.622510 -0.782612 0.000000 0.200700 -0.090000 1 0 1.000000 
coolingtank01
0 57.019005 -79.801201 23.952801 0.622510 -0.782612 0.000000 0.142000 -0.169800 1 0 1.000000 
0 72.330399 -67.622002 50.881001 0.622510 -0.782612 0.000000 0.049300 -0.039000 1 0 1.000000 
0 57.019005 -79.801201 57.237900 0.622510 -0.782612 0.000000 0.143400 -0.009100 1 0 1.000000 
coolingtank01
0 57.019005 -79.801201 23.952801 0.622510 -0.782612 0.000000 0.142000 -0.169800 1 0 1.000000 
0 72.330399 -67.622002 30.309601 0.622510 -0.782612 0.000000 0.048400 -0.138300 1 0 1.000000 
0 72.330399 -67.622002 50.881001 0.622510 -0.782612 0.000000 0.049300 -0.039000 1 0 1.000000 
coolingtank01
0 72.330399 -67.622002 50.881001 0.622510 -0.782612 0.000000 0.049300 -0.039000 1 0 1.000000 
0 72.330399 -67.622002 30.309601 0.622510 -0.782612 0.000000 0.048400 -0.138300 1 0 1.000000 
0 74.945900 -65.541603 40.595299 0.622510 -0.782612 0.000000 0.032800 -0.088500 1 0 1.000000 
coolingtank01
0 57.019005 -79.801201 23.952801 0.622510 -0.782612 0.000000 0.142000 -0.169800 1 0 1.000000 
0 65.482903 -73.068703 23.952700 0.622510 -0.782612 0.000000 0.090100 -0.169400 1 0 1.000000 
0 72.330399 -67.622002 30.309601 0.622510 -0.782612 0.000000 0.048400 -0.138300 1 0 1.000000 
coolingtank01
0 57.019005 -79.801201 23.952801 0.622510 -0.782612 0.000000 0.142000 -0.169800 1 0 1.000000 
0 47.556103 -87.328400 40.595299 0.622510 -0.782612 0.000000 0.200700 -0.090000 1 0 1.000000 
0 50.171604 -85.247902 30.309601 0.622510 -0.782612 0.000000 0.184200 -0.139500 1 0 1.000000 
coolingtank01
0 57.019005 -79.801201 57.237900 0.622510 -0.782612 0.000000 0.143400 -0.009100 1 0 1.000000 
0 72.330399 -67.622002 50.881001 0.622510 -0.782612 0.000000 0.049300 -0.039000 1 0 1.000000 
0 65.482903 -73.068703 57.237900 0.622510 -0.782612 0.000000 0.091500 -0.008700 1 0 1.000000 
coolingtank01
0 18.933399 -0.766199 -104.792099 0.000000 0.000000 1.000000 0.523400 -0.566200 1 0 1.000000 
0 -16.278400 -7.930100 -104.792099 0.000000 0.000000 1.000000 0.532200 -0.409800 1 0 1.000000 
0 -7.670400 -15.817900 -104.792099 0.000000 0.000000 1.000000 0.529600 -0.449000 1 0 1.000000 
coolingtank01
0 18.933399 -0.766199 -104.792099 0.000000 0.000000 1.000000 0.523400 -0.566200 1 0 1.000000 
0 -7.670400 -15.817900 -104.792099 0.000000 0.000000 1.000000 0.529600 -0.449000 1 0 1.000000 
0 14.091701 -11.390299 -104.792099 0.000000 0.000000 1.000000 0.525900 -0.526600 1 0 1.000000 
coolingtank01
0 18.933399 -0.766199 -104.792099 0.000000 0.000000 1.000000 0.523400 -0.566200 1 0 1.000000 
0 -18.606100 3.510899 -104.792099 0.000000 0.000000 1.000000 0.501600 -0.760900 1 0 1.000000 
0 -16.278400 -7.930100 -104.792099 0.000000 0.000000 1.000000 0.498000 -0.800500 1 0 1.000000 
coolingtank01
0 18.933399 -0.766199 -104.792099 0.000000 0.000000 1.000000 0.523400 -0.566200 1 0 1.000000 
0 -3.602701 19.884300 -104.792099 0.000000 0.000000 1.000000 0.511000 -0.683100 1 0 1.000000 
0 -18.606100 3.510899 -104.792099 0.000000 0.000000 1.000000 0.501600 -0.760900 1 0 1.000000 
coolingtank01
0 18.933399 -0.766199 -104.792099 0.000000 0.000000 1.000000 0.523400 -0.566200 1 0 1.000000 
0 7.997699 18.562599 -104.792099 0.000000 0.000000 1.000000 0.515800 -0.644800 1 0 1.000000 
0 -3.602701 19.884300 -104.792099 0.000000 0.000000 1.000000 0.511000 -0.683100 1 0 1.000000 
coolingtank01
0 -15.697796 -86.934097 -116.598701 -0.995400 0.095800 0.000000 0.377600 -0.871000 1 0 1.000000 
0 -16.222996 -92.388702 21.961300 -0.995400 0.095800 0.000000 0.343400 -0.184400 1 0 1.000000 
0 -15.697796 -86.934097 21.961300 -0.995400 0.095800 0.000000 0.375800 -0.189400 1 0 1.000000 
coolingtank01
0 58.496395 57.731403 -110.179001 0.934248 -0.355980 0.021399 0.692100 -0.736000 1 0 1.000000 
0 48.462196 51.099403 -108.432503 -0.452201 0.042500 0.890903 0.705300 -0.658500 1 0 1.000000 
0 7.831700 5.308500 -109.543297 0.695514 -0.691714 0.194404 0.694600 -0.657200 1 0 1.000000 
coolingtank01
0 58.496395 57.731403 -110.179001 0.934248 -0.355980 0.021399 0.692100 -0.736000 1 0 1.000000 
0 52.491497 55.547005 -105.741798 -0.553126 -0.793237 0.254612 0.709500 -0.698700 1 0 1.000000 
0 48.462196 51.099403 -108.432503 -0.452201 0.042500 0.890903 0.705300 -0.658500 1 0 1.000000 
coolingtank01
0 52.491497 55.547005 -105.741798 -0.553126 -0.793237 0.254612 0.709500 -0.698700 1 0 1.000000 
0 52.481598 60.822002 -108.342697 -0.733008 0.679908 -0.020600 0.723800 -0.725600 1 0 1.000000 
0 48.462196 51.099403 -108.432503 -0.452201 0.042500 0.890903 0.705300 -0.658500 1 0 1.000000 
coolingtank01
0 45.757397 53.757404 -112.224800 -0.684419 0.708919 -0.170305 0.648700 -0.660200 1 0 1.000000 
0 54.401295 57.437004 -114.659500 0.016200 0.887880 -0.459790 0.672800 -0.716700 1 0 1.000000 
0 48.462196 51.099403 -116.016998 0.556578 -0.335886 -0.759869 0.669800 -0.658500 1 0 1.000000 
coolingtank01
0 58.496395 57.731403 -110.179001 0.934248 -0.355980 0.021399 0.692100 -0.736000 1 0 1.000000 
0 48.462196 51.099403 -116.016998 0.556578 -0.335886 -0.759869 0.669800 -0.658500 1 0 1.000000 
0 54.401295 57.437004 -114.659500 0.016200 0.887880 -0.459790 0.672800 -0.716700 1 0 1.000000 
coolingtank01
0 52.481598 60.822002 -108.342697 -0.733008 0.679908 -0.020600 0.723800 -0.725600 1 0 1.000000 
0 58.496395 57.731403 -110.179001 0.934248 -0.355980 0.021399 0.692100 -0.736000 1 0 1.000000 
0 54.401295 57.437004 -114.659500 0.016200 0.887880 -0.459790 0.672800 -0.716700 1 0 1.000000 
coolingtank01
0 54.401295 57.437004 -114.659500 0.016200 0.887880 -0.459790 0.672800 -0.716700 1 0 1.000000 
0 45.757397 53.757404 -112.224800 -0.684419 0.708919 -0.170305 0.725600 -0.652200 1 0 1.000000 
0 52.481598 60.822002 -108.342697 -0.733008 0.679908 -0.020600 0.723800 -0.725600 1 0 1.000000 
coolingtank01
0 45.757397 53.757404 -112.224800 -0.684419 0.708919 -0.170305 0.725600 -0.652200 1 0 1.000000 
0 48.462196 51.099403 -108.432503 -0.452201 0.042500 0.890903 0.705300 -0.658500 1 0 1.000000 
0 52.481598 60.822002 -108.342697 -0.733008 0.679908 -0.020600 0.723800 -0.725600 1 0 1.000000 
coolingtank01
0 3.214299 9.846000 -112.224800 -0.717190 0.694890 0.052599 0.718200 -0.244700 1 0 1.000000 
0 48.462196 51.099403 -108.432503 -0.452201 0.042500 0.890903 0.705300 -0.658500 1 0 1.000000 
0 45.757397 53.757404 -112.224800 -0.684419 0.708919 -0.170305 0.725600 -0.652200 1 0 1.000000 
coolingtank01
0 3.214299 9.846000 -112.224800 -0.717190 0.694890 0.052599 0.718200 -0.244700 1 0 1.000000 
0 5.919099 7.188001 -108.432503 -0.135602 0.131401 0.982011 0.700600 -0.242900 1 0 1.000000 
0 48.462196 51.099403 -108.432503 -0.452201 0.042500 0.890903 0.705300 -0.658500 1 0 1.000000 
coolingtank01
0 5.919099 7.188001 -108.432503 -0.135602 0.131401 0.982011 0.700600 -0.242900 1 0 1.000000 
0 7.831700 5.308500 -109.543297 0.695514 -0.691714 0.194404 0.689500 -0.245700 1 0 1.000000 
0 48.462196 51.099403 -108.432503 -0.452201 0.042500 0.890903 0.705300 -0.658500 1 0 1.000000 
coolingtank01
0 7.831700 5.308500 -109.543297 0.695514 -0.691714 0.194404 0.689500 -0.245700 1 0 1.000000 
0 48.462196 51.099403 -116.016998 0.556578 -0.335886 -0.759869 0.669800 -0.658500 1 0 1.000000 
0 58.496395 57.731403 -110.179001 0.934248 -0.355980 0.021399 0.686000 -0.656700 1 0 1.000000 
coolingtank01
0 7.831700 5.308500 -109.543297 0.695514 -0.691714 0.194404 0.689500 -0.245700 1 0 1.000000 
0 5.919099 7.188001 -116.016998 -0.511076 0.495177 -0.702567 0.660400 -0.247000 1 0 1.000000 
0 48.462196 51.099403 -116.016998 0.556578 -0.335886 -0.759869 0.669800 -0.658500 1 0 1.000000 
coolingtank01
0 5.919099 7.188001 -116.016998 -0.511076 0.495177 -0.702567 0.660400 -0.247000 1 0 1.000000 
0 45.757397 53.757404 -112.224800 -0.684419 0.708919 -0.170305 0.648700 -0.660200 1 0 1.000000 
0 48.462196 51.099403 -116.016998 0.556578 -0.335886 -0.759869 0.669800 -0.658500 1 0 1.000000 
coolingtank01
0 5.919099 7.188001 -116.016998 -0.511076 0.495177 -0.702567 0.660400 -0.247000 1 0 1.000000 
0 3.214299 9.846000 -112.224800 -0.717190 0.694890 0.052599 0.644900 -0.248700 1 0 1.000000 
0 45.757397 53.757404 -112.224800 -0.684419 0.708919 -0.170305 0.648700 -0.660200 1 0 1.000000 
coolingtank01
0 -16.278400 -7.930100 -108.012398 -0.847820 -0.479711 -0.226005 0.514100 -0.408700 1 0 1.000000 
0 -7.670400 -15.817900 -104.792099 -0.332799 -0.942998 0.000000 0.529600 -0.449000 1 0 1.000000 
0 -16.278400 -7.930100 -104.792099 -0.870376 -0.492387 0.000000 0.532200 -0.409800 1 0 1.000000 
coolingtank01
0 -16.278400 -7.930100 -108.012398 -0.847820 -0.479711 -0.226005 0.514100 -0.408700 1 0 1.000000 
0 3.929901 -17.139601 -108.012398 0.196800 -0.967101 -0.161200 0.509500 -0.487800 1 0 1.000000 
0 -7.670400 -15.817900 -104.792099 -0.332799 -0.942998 0.000000 0.529600 -0.449000 1 0 1.000000 
coolingtank01
0 3.929901 -17.139601 -108.012398 0.196800 -0.967101 -0.161200 0.509500 -0.487800 1 0 1.000000 
0 14.091701 -11.390299 -104.792099 0.660245 -0.751051 0.000000 0.525900 -0.526600 1 0 1.000000 
0 -7.670400 -15.817900 -104.792099 -0.332799 -0.942998 0.000000 0.529600 -0.449000 1 0 1.000000 
coolingtank01
0 3.929901 -17.139601 -108.012398 0.196800 -0.967101 -0.161200 0.509500 -0.487800 1 0 1.000000 
0 18.933399 -0.766199 -108.012398 0.964723 -0.213305 -0.154304 0.505300 -0.565300 1 0 1.000000 
0 14.091701 -11.390299 -104.792099 0.660245 -0.751051 0.000000 0.525900 -0.526600 1 0 1.000000 
coolingtank01
0 18.933399 -0.766199 -108.012398 0.964723 -0.213305 -0.154304 0.505300 -0.565300 1 0 1.000000 
0 18.933399 -0.766199 -104.792099 0.977635 0.210308 0.000000 0.523400 -0.566200 1 0 1.000000 
0 14.091701 -11.390299 -104.792099 0.660245 -0.751051 0.000000 0.525900 -0.526600 1 0 1.000000 
coolingtank01
0 18.933399 -0.766199 -108.012398 0.964723 -0.213305 -0.154304 0.505300 -0.565300 1 0 1.000000 
0 7.997699 18.562599 -108.012398 0.498389 0.858981 -0.117297 0.497900 -0.641900 1 0 1.000000 
0 18.933399 -0.766199 -104.792099 0.977635 0.210308 0.000000 0.523400 -0.566200 1 0 1.000000 
coolingtank01
0 7.997699 18.562599 -108.012398 0.498389 0.858981 -0.117297 0.497900 -0.641900 1 0 1.000000 
0 7.997699 18.562599 -104.792099 0.510298 0.859997 0.000000 0.515800 -0.644800 1 0 1.000000 
0 18.933399 -0.766199 -104.792099 0.977635 0.210308 0.000000 0.523400 -0.566200 1 0 1.000000 
coolingtank01
0 7.997699 18.562599 -108.012398 0.498389 0.858981 -0.117297 0.497900 -0.641900 1 0 1.000000 
0 -3.602701 19.884300 -104.792099 -0.285008 0.958525 0.000000 0.511000 -0.683100 1 0 1.000000 
0 7.997699 18.562599 -104.792099 0.510298 0.859997 0.000000 0.515800 -0.644800 1 0 1.000000 
coolingtank01
0 7.997699 18.562599 -108.012398 0.498389 0.858981 -0.117297 0.497900 -0.641900 1 0 1.000000 
0 -13.764400 14.134999 -108.012398 -0.727596 0.666797 -0.161199 0.488200 -0.718500 1 0 1.000000 
0 -3.602701 19.884300 -104.792099 -0.285008 0.958525 0.000000 0.511000 -0.683100 1 0 1.000000 
coolingtank01
0 -13.764400 14.134999 -108.012398 -0.727596 0.666797 -0.161199 0.488200 -0.718500 1 0 1.000000 
0 -18.606100 3.510899 -104.792099 -0.975612 0.219503 0.000000 0.501600 -0.760900 1 0 1.000000 
0 -3.602701 19.884300 -104.792099 -0.285008 0.958525 0.000000 0.511000 -0.683100 1 0 1.000000 
coolingtank01
0 -13.764400 14.134999 -108.012398 -0.727596 0.666797 -0.161199 0.488200 -0.718500 1 0 1.000000 
0 -16.278400 -7.930100 -108.012398 -0.847820 -0.479711 -0.226005 0.480000 -0.799300 1 0 1.000000 
0 -18.606100 3.510899 -104.792099 -0.975612 0.219503 0.000000 0.501600 -0.760900 1 0 1.000000 
coolingtank01
0 -16.278400 -7.930100 -108.012398 -0.847820 -0.479711 -0.226005 0.480000 -0.799300 1 0 1.000000 
0 -16.278400 -7.930100 -104.792099 -0.870376 -0.492387 0.000000 0.498000 -0.800500 1 0 1.000000 
0 -18.606100 3.510899 -104.792099 -0.975612 0.219503 0.000000 0.501600 -0.760900 1 0 1.000000 
coolingtank01
0 -91.399300 17.892696 -116.598801 0.095800 0.995400 0.000000 0.345200 -0.866100 1 0 1.000000 
0 -91.399300 17.892696 21.961300 0.095800 0.995400 0.000000 0.343400 -0.184400 1 0 1.000000 
0 -85.944801 17.367496 21.961300 0.095800 0.995400 0.000000 0.375800 -0.189400 1 0 1.000000 
coolingtank01
0 -18.809700 -9.554701 -103.042999 -0.812271 -0.583279 0.000000 0.457400 -0.130700 1 0 1.000000 
0 -8.598399 -18.911699 -86.554901 -0.510298 -0.859997 0.000000 0.366000 -0.172900 1 0 1.000000 
0 -18.809700 -9.554701 -86.554901 -0.918331 -0.395813 0.000000 0.366100 -0.137200 1 0 1.000000 
coolingtank01
0 -18.809700 -9.554701 -103.042999 -0.812271 -0.583279 0.000000 0.457400 -0.130700 1 0 1.000000 
0 -8.598399 -18.911699 -103.042999 -0.314307 -0.949321 0.000000 0.457400 -0.170200 1 0 1.000000 
0 -8.598399 -18.911699 -86.554901 -0.510298 -0.859997 0.000000 0.366000 -0.172900 1 0 1.000000 
coolingtank01
0 -8.598399 -18.911699 -103.042999 -0.314307 -0.949321 0.000000 0.457400 -0.170200 1 0 1.000000 
0 5.162601 -20.479601 -86.554901 0.092699 -0.995694 0.000000 0.366000 -0.209700 1 0 1.000000 
0 -8.598399 -18.911699 -86.554901 -0.510298 -0.859997 0.000000 0.366000 -0.172900 1 0 1.000000 
coolingtank01
0 -8.598399 -18.911699 -103.042999 -0.314307 -0.949321 0.000000 0.457400 -0.170200 1 0 1.000000 
0 5.162601 -20.479601 -103.042999 0.303691 -0.952771 0.000000 0.457400 -0.209000 1 0 1.000000 
0 5.162601 -20.479601 -86.554901 0.092699 -0.995694 0.000000 0.366000 -0.209700 1 0 1.000000 
coolingtank01
0 5.162601 -20.479601 -103.042999 0.303691 -0.952771 0.000000 0.457400 -0.209000 1 0 1.000000 
0 17.217100 -13.659499 -86.554901 0.660245 -0.751051 0.000000 0.366000 -0.249100 1 0 1.000000 
0 5.162601 -20.479601 -86.554901 0.092699 -0.995694 0.000000 0.366000 -0.209700 1 0 1.000000 
coolingtank01
0 5.162601 -20.479601 -103.042999 0.303691 -0.952771 0.000000 0.457400 -0.209000 1 0 1.000000 
0 17.217100 -13.659499 -103.042999 0.805711 -0.592308 0.000000 0.457400 -0.247800 1 0 1.000000 
0 17.217100 -13.659499 -86.554901 0.660245 -0.751051 0.000000 0.366000 -0.249100 1 0 1.000000 
coolingtank01
0 17.217100 -13.659499 -103.042999 0.805711 -0.592308 0.000000 0.457400 -0.247800 1 0 1.000000 
0 22.960699 -1.056399 -86.554901 0.975612 -0.219503 0.000000 0.366100 -0.291900 1 0 1.000000 
0 17.217100 -13.659499 -86.554901 0.660245 -0.751051 0.000000 0.366000 -0.249100 1 0 1.000000 
coolingtank01
0 17.217100 -13.659499 -103.042999 0.805711 -0.592308 0.000000 0.457400 -0.247800 1 0 1.000000 
0 22.960699 -1.056399 -103.042999 0.999984 -0.005600 0.000000 0.457400 -0.287000 1 0 1.000000 
0 22.960699 -1.056399 -86.554901 0.975612 -0.219503 0.000000 0.366100 -0.291900 1 0 1.000000 
coolingtank01
0 22.960699 -1.056399 -103.042999 0.999984 -0.005600 0.000000 0.457400 -0.287000 1 0 1.000000 
0 20.199400 12.515601 -86.554901 0.918331 0.395813 0.000000 0.366100 -0.336400 1 0 1.000000 
0 22.960699 -1.056399 -86.554901 0.975612 -0.219503 0.000000 0.366100 -0.291900 1 0 1.000000 
coolingtank01
0 22.960699 -1.056399 -103.042999 0.999984 -0.005600 0.000000 0.457400 -0.287000 1 0 1.000000 
0 20.199400 12.515601 -103.042999 0.812271 0.583279 0.000000 0.457400 -0.326300 1 0 1.000000 
0 20.199400 12.515601 -86.554901 0.918331 0.395813 0.000000 0.366100 -0.336400 1 0 1.000000 
coolingtank01
0 20.199400 12.515601 -103.042999 0.812271 0.583279 0.000000 0.457400 -0.326300 1 0 1.000000 
0 9.988099 21.872499 -86.554901 0.510298 0.859997 0.000000 0.366100 -0.379100 1 0 1.000000 
0 20.199400 12.515601 -86.554901 0.918331 0.395813 0.000000 0.366100 -0.336400 1 0 1.000000 
coolingtank01
0 20.199400 12.515601 -103.042999 0.812271 0.583279 0.000000 0.457400 -0.326300 1 0 1.000000 
0 9.988099 21.872499 -103.042999 0.314307 0.949321 0.000000 0.457400 -0.364900 1 0 1.000000 
0 9.988099 21.872499 -86.554901 0.510298 0.859997 0.000000 0.366100 -0.379100 1 0 1.000000 
coolingtank01
0 9.988099 21.872499 -103.042999 0.314307 0.949321 0.000000 0.457400 -0.364900 1 0 1.000000 
0 -3.773001 23.440399 -86.554901 -0.092699 0.995694 0.000000 0.366100 -0.418700 1 0 1.000000 
0 9.988099 21.872499 -86.554901 0.510298 0.859997 0.000000 0.366100 -0.379100 1 0 1.000000 
coolingtank01
0 9.988099 21.872499 -103.042999 0.314307 0.949321 0.000000 0.457400 -0.364900 1 0 1.000000 
0 -3.773001 23.440399 -103.042999 -0.303691 0.952771 0.000000 0.457400 -0.403100 1 0 1.000000 
0 -3.773001 23.440399 -86.554901 -0.092699 0.995694 0.000000 0.366100 -0.418700 1 0 1.000000 
coolingtank01
0 -3.773001 23.440399 -103.042999 -0.303691 0.952771 0.000000 0.457400 -0.403100 1 0 1.000000 
0 -15.827501 16.620300 -86.554901 -0.660245 0.751051 0.000000 0.366100 -0.456000 1 0 1.000000 
0 -3.773001 23.440399 -86.554901 -0.092699 0.995694 0.000000 0.366100 -0.418700 1 0 1.000000 
coolingtank01
0 -3.773001 23.440399 -103.042999 -0.303691 0.952771 0.000000 0.457400 -0.403100 1 0 1.000000 
0 -15.827501 16.620300 -103.042999 -0.805711 0.592308 0.000000 0.457400 -0.441800 1 0 1.000000 
0 -15.827501 16.620300 -86.554901 -0.660245 0.751051 0.000000 0.366100 -0.456000 1 0 1.000000 
coolingtank01
0 -15.827501 16.620300 -103.042999 -0.805711 0.592308 0.000000 0.457400 -0.441800 1 0 1.000000 
0 -21.570999 4.017299 -86.554901 -0.975612 0.219503 0.000000 0.366100 -0.492200 1 0 1.000000 
0 -15.827501 16.620300 -86.554901 -0.660245 0.751051 0.000000 0.366100 -0.456000 1 0 1.000000 
coolingtank01
0 -15.827501 16.620300 -103.042999 -0.805711 0.592308 0.000000 0.457400 -0.441800 1 0 1.000000 
0 -21.570999 4.017299 -103.042999 -0.999984 0.005600 0.000000 0.457400 -0.481400 1 0 1.000000 
0 -21.570999 4.017299 -86.554901 -0.975612 0.219503 0.000000 0.366100 -0.492200 1 0 1.000000 
coolingtank01
0 -21.570999 4.017299 -103.042999 -0.999984 0.005600 0.000000 0.457400 -0.481400 1 0 1.000000 
0 -18.809700 -9.554701 -86.554901 -0.918331 -0.395813 0.000000 0.366000 -0.527800 1 0 1.000000 
0 -21.570999 4.017299 -86.554901 -0.975612 0.219503 0.000000 0.366100 -0.492200 1 0 1.000000 
coolingtank01
0 -21.570999 4.017299 -103.042999 -0.999984 0.005600 0.000000 0.457400 -0.481400 1 0 1.000000 
0 -18.809700 -9.554701 -103.042999 -0.812271 -0.583279 0.000000 0.453400 -0.521400 1 0 1.000000 
0 -18.809700 -9.554701 -86.554901 -0.918331 -0.395813 0.000000 0.366000 -0.527800 1 0 1.000000 
coolingtank01
0 16.390997 86.567497 -116.598701 0.995400 -0.095800 0.000000 0.377600 -0.871000 1 0 1.000000 
0 16.916296 92.022102 21.961300 0.995400 -0.095800 0.000000 0.343400 -0.184400 1 0 1.000000 
0 16.390997 86.567497 21.961300 0.995400 -0.095800 0.000000 0.375800 -0.189400 1 0 1.000000 
coolingtank01
0 -89.182503 -40.736805 11.079400 -0.904304 -0.414202 -0.103300 0.434500 -1.015200 1 0 1.000000 
0 -97.567001 9.366796 11.079400 -0.990088 0.094499 -0.103899 0.434500 -1.192700 1 0 1.000000 
0 -27.009701 4.250299 -93.262199 -0.505712 0.048801 -0.861321 0.975800 -1.034700 1 0 1.000000 
coolingtank01
0 -27.009701 4.250299 -93.262199 -0.505712 0.048801 -0.861321 0.975800 -1.034700 1 0 1.000000 
0 -15.732599 -20.495100 -93.262199 -0.508699 -0.702298 -0.497999 0.975800 -0.923700 1 0 1.000000 
0 -89.182503 -40.736805 11.079400 -0.904304 -0.414202 -0.103300 0.434500 -1.015200 1 0 1.000000 
coolingtank01
0 -56.869595 -79.935501 11.079400 -0.577215 -0.810121 -0.102603 0.434500 -0.849900 1 0 1.000000 
0 -89.182503 -40.736805 11.079400 -0.904304 -0.414202 -0.103300 0.434500 -1.015200 1 0 1.000000 
0 -15.732599 -20.495100 -93.262199 -0.508699 -0.702298 -0.497999 0.975800 -0.923700 1 0 1.000000 
coolingtank01
0 -8.840696 -93.097099 2.541300 -0.092596 -0.968157 -0.232590 0.484100 -0.685500 1 0 1.000000 
0 -56.869595 -79.935501 11.079400 -0.577215 -0.810121 -0.102603 0.434500 -0.849900 1 0 1.000000 
0 -15.732599 -20.495100 -93.262199 -0.508699 -0.702298 -0.497999 0.975800 -0.923700 1 0 1.000000 
coolingtank01
0 -56.869595 -79.935501 11.079400 -0.577215 -0.810121 -0.102603 0.434500 -0.849900 1 0 1.000000 
0 -8.840696 -93.097099 2.541300 -0.092596 -0.968157 -0.232590 0.484100 -0.685500 1 0 1.000000 
0 -9.286396 -97.726097 11.079400 -0.094504 -0.990243 -0.102404 0.434500 -0.686000 1 0 1.000000 
coolingtank01
0 40.817104 -89.341599 11.079400 0.413295 -0.904889 -0.101799 0.434500 -0.521100 1 0 1.000000 
0 -9.286396 -97.726097 11.079400 -0.094504 -0.990243 -0.102404 0.434500 -0.686000 1 0 1.000000 
0 -8.840696 -93.097099 2.541300 -0.092596 -0.968157 -0.232590 0.484100 -0.685500 1 0 1.000000 
coolingtank01
0 40.817104 -89.341599 11.079400 0.413295 -0.904889 -0.101799 0.434500 -0.521100 1 0 1.000000 
0 -8.840696 -93.097099 2.541300 -0.092596 -0.968157 -0.232590 0.484100 -0.685500 1 0 1.000000 
0 11.336101 -23.101500 -93.262199 0.279601 -0.718102 -0.637302 0.975800 -0.459600 1 0 1.000000 
coolingtank01
0 80.015800 -57.028698 11.079400 0.810408 -0.577006 -0.101501 0.434500 -0.353200 1 0 1.000000 
0 40.817104 -89.341599 11.079400 0.413295 -0.904889 -0.101799 0.434500 -0.521100 1 0 1.000000 
0 11.336101 -23.101500 -93.262199 0.279601 -0.718102 -0.637302 0.975800 -0.459600 1 0 1.000000 
coolingtank01
0 11.336101 -23.101500 -93.262199 0.279601 -0.718102 -0.637302 0.975800 -0.459600 1 0 1.000000 
0 22.198000 -14.147699 -93.262199 0.617067 -0.361881 -0.698763 0.975800 -0.365000 1 0 1.000000 
0 80.015800 -57.028698 11.079400 0.810408 -0.577006 -0.101501 0.434500 -0.353200 1 0 1.000000 
coolingtank01
0 93.177399 -8.999896 2.541300 0.968695 -0.092699 -0.230299 0.484100 -0.182300 1 0 1.000000 
0 80.015800 -57.028698 11.079400 0.810408 -0.577006 -0.101501 0.434500 -0.353200 1 0 1.000000 
0 22.198000 -14.147699 -93.262199 0.617067 -0.361881 -0.698763 0.975800 -0.365000 1 0 1.000000 
coolingtank01
0 80.015800 -57.028698 11.079400 0.810408 -0.577006 -0.101501 0.434500 -0.353200 1 0 1.000000 
0 93.177399 -8.999896 2.541300 0.968695 -0.092699 -0.230299 0.484100 -0.182300 1 0 1.000000 
0 97.806396 -9.445497 11.079400 0.990346 -0.094504 -0.101405 0.434500 -0.182300 1 0 1.000000 
coolingtank01
0 89.421997 40.658005 11.079400 0.904386 0.414493 -0.101398 0.434500 -0.011400 1 0 1.000000 
0 97.806396 -9.445497 11.079400 0.990346 -0.094504 -0.101405 0.434500 -0.182300 1 0 1.000000 
0 93.177399 -8.999896 2.541300 0.968695 -0.092699 -0.230299 0.484100 -0.182300 1 0 1.000000 
coolingtank01
0 89.421997 40.658005 11.079400 0.904386 0.414493 -0.101398 0.434500 -0.011400 1 0 1.000000 
0 93.177399 -8.999896 2.541300 0.968695 -0.092699 -0.230299 0.484100 -0.182300 1 0 1.000000 
0 24.804399 12.921000 -93.262199 0.721474 0.280290 -0.633177 0.956100 0.024500 1 0 1.000000 
coolingtank01
0 57.108997 79.856697 11.079400 0.577215 0.810221 -0.101803 0.434500 0.140400 1 0 1.000000 
0 89.421997 40.658005 11.079400 0.904386 0.414493 -0.101398 0.434500 -0.011400 1 0 1.000000 
0 24.804399 12.921000 -93.262199 0.721474 0.280290 -0.633177 0.956100 0.024500 1 0 1.000000 
coolingtank01
0 24.804399 12.921000 -93.262199 0.721474 0.280290 -0.633177 0.956100 0.024500 1 0 1.000000 
0 15.850599 23.782900 -93.262199 0.363888 0.620379 -0.694777 0.956100 0.093000 1 0 1.000000 
0 57.108997 79.856697 11.079400 0.577215 0.810221 -0.101803 0.434500 0.140400 1 0 1.000000 
coolingtank01
0 9.080196 93.018303 2.541300 0.092904 0.969544 -0.226610 0.484100 0.304900 1 0 1.000000 
0 57.108997 79.856697 11.079400 0.577215 0.810221 -0.101803 0.434500 0.140400 1 0 1.000000 
0 15.850599 23.782900 -93.262199 0.363888 0.620379 -0.694777 0.956100 0.093000 1 0 1.000000 
coolingtank01
0 57.108997 79.856697 11.079400 0.577215 0.810221 -0.101803 0.434500 0.140400 1 0 1.000000 
0 9.080196 93.018303 2.541300 0.092904 0.969544 -0.226610 0.484100 0.304900 1 0 1.000000 
0 9.525896 97.647301 11.079400 0.093097 0.990367 -0.102497 0.434500 0.305300 1 0 1.000000 
coolingtank01
0 -40.577602 89.262901 11.079400 -0.409712 0.906527 -0.101703 0.434500 0.469200 1 0 1.000000 
0 9.525896 97.647301 11.079400 0.093097 0.990367 -0.102497 0.434500 0.305300 1 0 1.000000 
0 9.080196 93.018303 2.541300 0.092904 0.969544 -0.226610 0.484100 0.304900 1 0 1.000000 
coolingtank01
0 15.850599 23.782900 -93.262199 0.363888 0.620379 -0.694777 0.956100 0.093000 1 0 1.000000 
0 -11.218101 26.389299 -93.262199 -0.365699 0.790997 -0.490498 0.956100 0.186500 1 0 1.000000 
0 9.080196 93.018303 2.541300 0.092904 0.969544 -0.226610 0.484100 0.304900 1 0 1.000000 
coolingtank01
0 22.198000 -14.147699 -93.262199 0.617067 -0.361881 -0.698763 0.975800 -0.365000 1 0 1.000000 
0 24.804399 12.921000 -93.262199 0.721474 0.280290 -0.633177 0.975800 -0.272600 1 0 1.000000 
0 93.177399 -8.999896 2.541300 0.968695 -0.092699 -0.230299 0.484100 -0.182300 1 0 1.000000 
coolingtank01
0 -15.732599 -20.495100 -93.262199 -0.508699 -0.702298 -0.497999 0.975800 -0.923700 1 0 1.000000 
0 11.336101 -23.101500 -93.262199 0.279601 -0.718102 -0.637302 0.975800 -0.865300 1 0 1.000000 
0 -8.840696 -93.097099 2.541300 -0.092596 -0.968157 -0.232590 0.484100 -0.685500 1 0 1.000000 
coolingtank01
0 -40.577602 89.262901 11.079400 -0.409712 0.906527 -0.101703 0.434500 0.469200 1 0 1.000000 
0 9.080196 93.018303 2.541300 0.092904 0.969544 -0.226610 0.484100 0.304900 1 0 1.000000 
0 -11.218101 26.389299 -93.262199 -0.421397 0.741794 -0.521696 0.808100 0.490900 1 0 1.000000 
coolingtank01
0 -11.218101 26.389299 -93.262199 -0.421397 0.741794 -0.521696 0.808100 0.490900 1 0 1.000000 
0 -79.776398 56.949898 11.079400 -0.810242 0.576830 -0.103805 0.434500 0.634500 1 0 1.000000 
0 -40.577602 89.262901 11.079400 -0.409712 0.906527 -0.101703 0.434500 0.469200 1 0 1.000000 
coolingtank01
0 -11.218101 26.389299 -93.262199 -0.421397 0.741794 -0.521696 0.808100 0.490900 1 0 1.000000 
0 -27.009701 4.250299 -93.262199 -0.505712 0.048801 -0.861321 0.808100 0.627200 1 0 1.000000 
0 -79.776398 56.949898 11.079400 -0.810242 0.576830 -0.103805 0.434500 0.634500 1 0 1.000000 
coolingtank01
0 -27.009701 4.250299 -93.262199 -0.505712 0.048801 -0.861321 0.808100 0.627200 1 0 1.000000 
0 -97.567001 9.366796 11.079400 -0.990088 0.094499 -0.103899 0.434500 0.796400 1 0 1.000000 
0 -79.776398 56.949898 11.079400 -0.810242 0.576830 -0.103805 0.434500 0.634500 1 0 1.000000 
coolingtank01
0 -57.588600 -26.959402 106.939201 -0.957235 0.289311 0.000000 0.454200 -0.492300 1 0 1.000000 
0 -54.338600 -41.036804 106.939201 -0.815271 -0.579079 0.000000 0.455400 -0.422500 1 0 1.000000 
0 -57.588600 -26.959402 116.696800 -0.949432 0.312810 0.027001 0.399200 -0.491600 1 0 1.000000 
coolingtank01
0 -54.338600 -41.036804 106.939201 -0.815271 -0.579079 0.000000 0.455400 -0.422500 1 0 1.000000 
0 -54.338600 -41.036804 116.696800 -0.460008 -0.887915 0.000000 0.397500 -0.421100 1 0 1.000000 
0 -57.588600 -26.959402 116.696800 -0.949432 0.312810 0.027001 0.399200 -0.491600 1 0 1.000000 
coolingtank01
0 -54.338600 -41.036804 106.939201 -0.815271 -0.579079 0.000000 0.455400 -0.422500 1 0 1.000000 
0 -39.945900 -42.296001 106.939201 0.214102 -0.976811 0.000000 0.456200 -0.395500 1 0 1.000000 
0 -54.338600 -41.036804 116.696800 -0.460008 -0.887915 0.000000 0.397500 -0.421100 1 0 1.000000 
coolingtank01
0 -39.945900 -42.296001 106.939201 0.214102 -0.976811 0.000000 0.456200 -0.395500 1 0 1.000000 
0 -39.945900 -42.296001 116.696800 0.612711 -0.789514 0.035401 0.398300 -0.394100 1 0 1.000000 
0 -54.338600 -41.036804 116.696800 -0.460008 -0.887915 0.000000 0.397500 -0.421100 1 0 1.000000 
coolingtank01
0 -39.945900 -42.296001 106.939201 0.214102 -0.976811 0.000000 0.456200 -0.395500 1 0 1.000000 
0 -34.962700 -36.563599 106.939201 0.957235 -0.289311 0.000000 0.456700 -0.373600 1 0 1.000000 
0 -39.945900 -42.296001 116.696800 0.612711 -0.789514 0.035401 0.398300 -0.394100 1 0 1.000000 
coolingtank01
0 -34.962700 -36.563599 106.939201 0.957235 -0.289311 0.000000 0.456700 -0.373600 1 0 1.000000 
0 -34.300701 -28.996902 116.696800 0.973774 0.224794 0.035099 0.399500 -0.330500 1 0 1.000000 
0 -39.945900 -42.296001 116.696800 0.612711 -0.789514 0.035401 0.398300 -0.394100 1 0 1.000000 
coolingtank01
0 -34.962700 -36.563599 106.939201 0.957235 -0.289311 0.000000 0.456700 -0.373600 1 0 1.000000 
0 -38.212799 -22.486202 106.939201 0.655702 0.754203 -0.035100 0.457800 -0.303700 1 0 1.000000 
0 -34.300701 -28.996902 116.696800 0.973774 0.224794 0.035099 0.399500 -0.330500 1 0 1.000000 
coolingtank01
0 -38.212799 -22.486202 106.939201 0.655702 0.754203 -0.035100 0.457800 -0.303700 1 0 1.000000 
0 -45.204601 -19.518301 116.696800 0.087098 0.995581 0.035099 0.400000 -0.288900 1 0 1.000000 
0 -34.300701 -28.996902 116.696800 0.973774 0.224794 0.035099 0.399500 -0.330500 1 0 1.000000 
coolingtank01
0 -38.212799 -22.486202 106.939201 0.655702 0.754203 -0.035100 0.457800 -0.303700 1 0 1.000000 
0 -52.605499 -21.227001 106.939201 -0.426818 0.904338 0.000000 0.458000 -0.276700 1 0 1.000000 
0 -45.204601 -19.518301 116.696800 0.087098 0.995581 0.035099 0.400000 -0.288900 1 0 1.000000 
coolingtank01
0 -52.605499 -21.227001 106.939201 -0.426818 0.904338 0.000000 0.458000 -0.276700 1 0 1.000000 
0 -57.588600 -26.959402 116.696800 -0.949432 0.312810 0.027001 0.400400 -0.254100 1 0 1.000000 
0 -45.204601 -19.518301 116.696800 0.087098 0.995581 0.035099 0.400000 -0.288900 1 0 1.000000 
coolingtank01
0 -52.605499 -21.227001 106.939201 -0.426818 0.904338 0.000000 0.458000 -0.276700 1 0 1.000000 
0 -57.588600 -26.959402 106.939201 -0.957235 0.289311 0.000000 0.458300 -0.254800 1 0 1.000000 
0 -57.588600 -26.959402 116.696800 -0.949432 0.312810 0.027001 0.400400 -0.254100 1 0 1.000000 
coolingtank01
0 0.552596 93.597702 21.961300 -0.995400 0.095800 0.000000 0.381500 -0.910700 1 0 1.000000 
0 0.552596 93.597702 -116.598701 -0.995400 0.095800 0.000000 0.379100 -0.183200 1 0 1.000000 
0 0.027396 88.143204 -116.598701 -0.995400 0.095800 0.000000 0.358500 -0.177200 1 0 1.000000 
coolingtank01
0 -47.141205 53.993996 99.814499 -0.436605 0.524406 0.731009 0.400500 -0.810800 1 0 1.000000 
0 -13.365200 1.356999 108.502098 -0.102596 0.010800 0.994664 0.623400 -0.693900 1 0 1.000000 
0 -6.957002 50.124699 104.710899 -0.047001 0.421706 0.905513 0.431800 -0.667800 1 0 1.000000 
coolingtank01
0 -6.957002 50.124699 104.710899 -0.047001 0.421706 0.905513 0.431800 -0.667800 1 0 1.000000 
0 -13.365200 1.356999 108.502098 -0.102596 0.010800 0.994664 0.623400 -0.693900 1 0 1.000000 
0 36.428902 -3.437598 106.573601 0.309003 -0.032400 0.950509 0.627000 -0.508700 1 0 1.000000 
coolingtank01
0 -13.365200 1.356999 108.502098 -0.102596 0.010800 0.994664 0.623400 -0.693900 1 0 1.000000 
0 26.742903 -51.889702 103.040802 0.204300 -0.440299 0.874299 0.785600 -0.539600 1 0 1.000000 
0 36.428902 -3.437598 106.573601 0.309003 -0.032400 0.950509 0.627000 -0.508700 1 0 1.000000 
coolingtank01
0 -13.365200 1.356999 108.502098 -0.102596 0.010800 0.994664 0.623400 -0.693900 1 0 1.000000 
0 -16.379997 -47.737400 104.710899 -0.166509 -0.397321 0.902447 0.782500 -0.699900 1 0 1.000000 
0 26.742903 -51.889702 103.040802 0.204300 -0.440299 0.874299 0.785600 -0.539600 1 0 1.000000 
coolingtank01
0 -59.765900 5.824898 102.848198 -0.516304 0.053900 0.854707 0.587400 -0.859000 1 0 1.000000 
0 -16.379997 -47.737400 104.710899 -0.166509 -0.397321 0.902447 0.782500 -0.699900 1 0 1.000000 
0 -13.365200 1.356999 108.502098 -0.102596 0.010800 0.994664 0.623400 -0.693900 1 0 1.000000 
coolingtank01
0 -59.765900 5.824898 102.848198 -0.516304 0.053900 0.854707 0.587400 -0.859000 1 0 1.000000 
0 -56.564198 -43.868103 99.814499 -0.537603 -0.389002 0.748104 0.751300 -0.843000 1 0 1.000000 
0 -16.379997 -47.737400 104.710899 -0.166509 -0.397321 0.902447 0.782500 -0.699900 1 0 1.000000 
coolingtank01
0 -47.141205 53.993996 99.814499 -0.436605 0.524406 0.731009 0.400500 -0.810800 1 0 1.000000 
0 -59.765900 5.824898 102.848198 -0.516304 0.053900 0.854707 0.587400 -0.859000 1 0 1.000000 
0 -13.365200 1.356999 108.502098 -0.102596 0.010800 0.994664 0.623400 -0.693900 1 0 1.000000 
coolingtank01
0 -6.957002 50.124699 104.710899 -0.047001 0.421706 0.905513 0.431800 -0.667800 1 0 1.000000 
0 36.428902 -3.437598 106.573601 0.309003 -0.032400 0.950509 0.627000 -0.508700 1 0 1.000000 
0 36.165997 45.972401 103.040802 0.326307 0.392509 0.859919 0.434800 -0.507400 1 0 1.000000 
coolingtank01
0 58.240196 45.776505 -116.696800 -0.836165 -0.548477 0.000000 0.353600 -0.209500 1 0 1.000000 
0 62.872299 43.416306 -116.696800 0.488603 -0.872506 0.000000 0.368400 -0.208800 1 0 1.000000 
0 62.872299 43.416306 -14.738500 0.539306 -0.842110 0.000000 0.368300 -0.755900 1 0 1.000000 
coolingtank01
0 62.872299 43.416306 -116.696800 0.488603 -0.872506 0.000000 0.368400 -0.208800 1 0 1.000000 
0 63.184498 47.383003 -116.696800 0.664438 0.747343 0.000000 0.355300 -0.208700 1 0 1.000000 
0 62.872299 43.416306 -14.738500 0.539306 -0.842110 0.000000 0.368300 -0.755900 1 0 1.000000 
coolingtank01
0 63.184498 47.383003 -116.696800 0.664438 0.747343 0.000000 0.355300 -0.208700 1 0 1.000000 
0 63.184498 47.383003 -14.738500 0.619106 0.785307 0.000000 0.355100 -0.755900 1 0 1.000000 
0 62.872299 43.416306 -14.738500 0.539306 -0.842110 0.000000 0.368300 -0.755900 1 0 1.000000 
coolingtank01
0 63.184498 47.383003 -116.696800 0.664438 0.747343 0.000000 0.355300 -0.208700 1 0 1.000000 
0 58.240196 45.776505 -14.738500 -0.727504 0.686103 0.000000 0.353700 -0.756700 1 0 1.000000 
0 63.184498 47.383003 -14.738500 0.619106 0.785307 0.000000 0.355100 -0.755900 1 0 1.000000 
coolingtank01
0 63.184498 47.383003 -116.696800 0.664438 0.747343 0.000000 0.355300 -0.208700 1 0 1.000000 
0 58.240196 45.776505 -116.696800 -0.836165 -0.548477 0.000000 0.353600 -0.209500 1 0 1.000000 
0 58.240196 45.776505 -14.738500 -0.727504 0.686103 0.000000 0.353700 -0.756700 1 0 1.000000 
coolingtank01
0 58.240196 45.776505 -116.696800 -0.836165 -0.548477 0.000000 0.353600 -0.209500 1 0 1.000000 
0 62.872299 43.416306 -14.738500 0.539306 -0.842110 0.000000 0.368300 -0.755900 1 0 1.000000 
0 58.240196 45.776505 -14.738500 -0.727504 0.686103 0.000000 0.353700 -0.756700 1 0 1.000000 
coolingtank01
0 -27.009701 4.250299 -93.262199 -0.505712 0.048801 -0.861321 0.786500 -0.302200 1 0 1.000000 
0 11.336101 -23.101500 -93.262199 0.279601 -0.718102 -0.637302 0.907200 -0.514600 1 0 1.000000 
0 -15.732599 -20.495100 -93.262199 -0.508699 -0.702298 -0.497999 0.895700 -0.364700 1 0 1.000000 
coolingtank01
0 -27.009701 4.250299 -93.262199 -0.505712 0.048801 -0.861321 0.786500 -0.302200 1 0 1.000000 
0 22.198000 -14.147699 -93.262199 0.617067 -0.361881 -0.698763 0.867700 -0.574800 1 0 1.000000 
0 11.336101 -23.101500 -93.262199 0.279601 -0.718102 -0.637302 0.907200 -0.514600 1 0 1.000000 
coolingtank01
0 -27.009701 4.250299 -93.262199 -0.505712 0.048801 -0.861321 0.786500 -0.302200 1 0 1.000000 
0 24.804399 12.921000 -93.262199 0.721474 0.280290 -0.633177 0.748200 -0.589200 1 0 1.000000 
0 22.198000 -14.147699 -93.262199 0.617067 -0.361881 -0.698763 0.867700 -0.574800 1 0 1.000000 
coolingtank01
0 -27.009701 4.250299 -93.262199 -0.505712 0.048801 -0.861321 0.786500 -0.302200 1 0 1.000000 
0 15.850599 23.782900 -93.262199 0.363888 0.620379 -0.694777 0.700200 -0.539600 1 0 1.000000 
0 24.804399 12.921000 -93.262199 0.721474 0.280290 -0.633177 0.748200 -0.589200 1 0 1.000000 
coolingtank01
0 -27.009701 4.250299 -93.262199 -0.505712 0.048801 -0.861321 0.786500 -0.302200 1 0 1.000000 
0 -11.218101 26.389299 -93.262199 -0.421397 0.741794 -0.521696 0.688700 -0.389700 1 0 1.000000 
0 15.850599 23.782900 -93.262199 0.363888 0.620379 -0.694777 0.700200 -0.539600 1 0 1.000000 
coolingtank01
0 0.140604 -93.964302 21.961300 0.995400 -0.095800 0.000000 0.381500 -0.910700 1 0 1.000000 
0 0.140604 -93.964302 -116.598701 0.995400 -0.095800 0.000000 0.379100 -0.183200 1 0 1.000000 
0 0.665804 -88.509804 -116.598701 0.995400 -0.095800 0.000000 0.358500 -0.177200 1 0 1.000000 
coolingtank01
0 66.596497 -60.413597 30.309601 0.687530 0.697230 -0.202909 0.390700 -0.281300 1 0 1.000000 
0 66.596497 -60.413597 50.881001 0.694870 0.665471 0.272588 0.390700 -0.453000 1 0 1.000000 
0 74.945900 -65.541603 40.595299 0.705204 0.709004 0.000000 0.421900 -0.372700 1 0 1.000000 
coolingtank01
0 66.596497 -60.413597 50.881001 0.694870 0.665471 0.272588 0.390700 -0.453000 1 0 1.000000 
0 72.330399 -67.622002 50.881001 0.759623 0.604219 0.240607 0.421900 -0.454400 1 0 1.000000 
0 74.945900 -65.541603 40.595299 0.705204 0.709004 0.000000 0.421900 -0.372700 1 0 1.000000 
coolingtank01
0 66.596497 -60.413597 50.881001 0.694870 0.665471 0.272588 0.390700 -0.453000 1 0 1.000000 
0 65.482903 -73.068703 57.237900 0.528978 0.420783 0.736969 0.421900 -0.531800 1 0 1.000000 
0 72.330399 -67.622002 50.881001 0.759623 0.604219 0.240607 0.421900 -0.454400 1 0 1.000000 
coolingtank01
0 66.596497 -60.413597 50.881001 0.694870 0.665471 0.272588 0.390700 -0.453000 1 0 1.000000 
0 59.749104 -65.860298 57.237900 0.264489 0.210391 0.941159 0.390600 -0.530400 1 0 1.000000 
0 65.482903 -73.068703 57.237900 0.528978 0.420783 0.736969 0.421900 -0.531800 1 0 1.000000 
coolingtank01
0 59.749104 -65.860298 57.237900 0.264489 0.210391 0.941159 0.390600 -0.530400 1 0 1.000000 
0 57.019005 -79.801201 57.237900 -0.264489 -0.210391 0.941159 0.421900 -0.454600 1 0 1.000000 
0 65.482903 -73.068703 57.237900 0.528978 0.420783 0.736969 0.421900 -0.531800 1 0 1.000000 
coolingtank01
0 59.749104 -65.860298 57.237900 0.264489 0.210391 0.941159 0.390600 -0.530400 1 0 1.000000 
0 51.285103 -72.592796 57.237900 -0.528978 -0.420783 0.736969 0.390700 -0.453200 1 0 1.000000 
0 57.019005 -79.801201 57.237900 -0.264489 -0.210391 0.941159 0.421900 -0.454600 1 0 1.000000 
coolingtank01
0 51.285103 -72.592796 57.237900 -0.528978 -0.420783 0.736969 0.390700 -0.453200 1 0 1.000000 
0 50.171604 -85.247902 50.881001 -0.731254 -0.581664 0.356278 0.421900 -0.372800 1 0 1.000000 
0 57.019005 -79.801201 57.237900 -0.264489 -0.210391 0.941159 0.421900 -0.454600 1 0 1.000000 
coolingtank01
0 51.285103 -72.592796 57.237900 -0.528978 -0.420783 0.736969 0.390700 -0.453200 1 0 1.000000 
0 44.437702 -78.039497 50.881001 -0.759623 -0.604219 0.240607 0.390700 -0.371400 1 0 1.000000 
0 50.171604 -85.247902 50.881001 -0.731254 -0.581664 0.356278 0.421900 -0.372800 1 0 1.000000 
coolingtank01
0 44.437702 -78.039497 50.881001 -0.759623 -0.604219 0.240607 0.390700 -0.371400 1 0 1.000000 
0 47.556103 -87.328400 40.595299 -0.781917 -0.622013 0.041301 0.421900 -0.283100 1 0 1.000000 
0 50.171604 -85.247902 50.881001 -0.731254 -0.581664 0.356278 0.421900 -0.372800 1 0 1.000000 
coolingtank01
0 44.437702 -78.039497 50.881001 -0.759623 -0.604219 0.240607 0.390700 -0.371400 1 0 1.000000 
0 41.822205 -80.119904 40.595299 -0.857436 -0.507621 -0.084404 0.390700 -0.281700 1 0 1.000000 
0 47.556103 -87.328400 40.595299 -0.781917 -0.622013 0.041301 0.421900 -0.283100 1 0 1.000000 
coolingtank01
0 41.822205 -80.119904 40.595299 -0.857436 -0.507621 -0.084404 0.390700 -0.281700 1 0 1.000000 
0 50.171604 -85.247902 30.309601 -0.827040 -0.483824 -0.286214 0.421900 -0.215000 1 0 1.000000 
0 47.556103 -87.328400 40.595299 -0.781917 -0.622013 0.041301 0.421900 -0.283100 1 0 1.000000 
coolingtank01
0 41.822205 -80.119904 40.595299 -0.857436 -0.507621 -0.084404 0.390700 -0.281700 1 0 1.000000 
0 51.285103 -72.592796 23.952700 -0.500404 -0.242602 -0.831107 0.390700 -0.134100 1 0 1.000000 
0 50.171604 -85.247902 30.309601 -0.827040 -0.483824 -0.286214 0.421900 -0.215000 1 0 1.000000 
coolingtank01
0 51.285103 -72.592796 23.952700 -0.500404 -0.242602 -0.831107 0.390700 -0.134100 1 0 1.000000 
0 57.019005 -79.801201 23.952801 -0.404707 -0.321905 -0.855914 0.421900 -0.135500 1 0 1.000000 
0 50.171604 -85.247902 30.309601 -0.827040 -0.483824 -0.286214 0.421900 -0.215000 1 0 1.000000 
coolingtank01
0 51.285103 -72.592796 23.952700 -0.500404 -0.242602 -0.831107 0.390700 -0.134100 1 0 1.000000 
0 65.482903 -73.068703 23.952700 0.264489 0.210391 -0.941159 0.421900 -0.215700 1 0 1.000000 
0 57.019005 -79.801201 23.952801 -0.404707 -0.321905 -0.855914 0.421900 -0.135500 1 0 1.000000 
coolingtank01
0 51.285103 -72.592796 23.952700 -0.500404 -0.242602 -0.831107 0.390700 -0.134100 1 0 1.000000 
0 59.749104 -65.860298 23.952700 0.528978 0.420783 -0.736969 0.390700 -0.214300 1 0 1.000000 
0 65.482903 -73.068703 23.952700 0.264489 0.210391 -0.941159 0.421900 -0.215700 1 0 1.000000 
coolingtank01
0 59.749104 -65.860298 23.952700 0.528978 0.420783 -0.736969 0.390700 -0.214300 1 0 1.000000 
0 72.330399 -67.622002 30.309601 0.731254 0.581664 -0.356278 0.421900 -0.282700 1 0 1.000000 
0 65.482903 -73.068703 23.952700 0.264489 0.210391 -0.941159 0.421900 -0.215700 1 0 1.000000 
coolingtank01
0 59.749104 -65.860298 23.952700 0.528978 0.420783 -0.736969 0.390700 -0.214300 1 0 1.000000 
0 66.596497 -60.413597 30.309601 0.687530 0.697230 -0.202909 0.390700 -0.281300 1 0 1.000000 
0 72.330399 -67.622002 30.309601 0.731254 0.581664 -0.356278 0.421900 -0.282700 1 0 1.000000 
coolingtank01
0 66.596497 -60.413597 30.309601 0.687530 0.697230 -0.202909 0.390700 -0.281300 1 0 1.000000 
0 74.945900 -65.541603 40.595299 0.705204 0.709004 0.000000 0.421900 -0.372700 1 0 1.000000 
0 72.330399 -67.622002 30.309601 0.731254 0.581664 -0.356278 0.421900 -0.282700 1 0 1.000000 
coolingtank01
0 -16.278400 -7.930100 -108.012398 0.000000 0.000000 -1.000000 0.840200 -0.341000 1 0 1.000000 
0 18.933399 -0.766199 -108.012398 0.000000 0.000000 -1.000000 0.808600 -0.536100 1 0 1.000000 
0 3.929901 -17.139601 -108.012398 0.000000 0.000000 -1.000000 0.880900 -0.453000 1 0 1.000000 
coolingtank01
0 -16.278400 -7.930100 -108.012398 0.000000 0.000000 -1.000000 0.840200 -0.341000 1 0 1.000000 
0 7.997699 18.562599 -108.012398 0.000000 0.000000 -1.000000 0.723300 -0.475500 1 0 1.000000 
0 18.933399 -0.766199 -108.012398 0.000000 0.000000 -1.000000 0.808600 -0.536100 1 0 1.000000 
coolingtank01
0 -16.278400 -7.930100 -108.012398 0.000000 0.000000 -1.000000 0.840200 -0.341000 1 0 1.000000 
0 -13.764400 14.134999 -108.012398 0.000000 0.000000 -1.000000 0.742800 -0.355000 1 0 1.000000 
0 7.997699 18.562599 -108.012398 0.000000 0.000000 -1.000000 0.723300 -0.475500 1 0 1.000000 
coolingtank01
0 -92.974998 1.529096 21.961300 -0.095800 -0.995400 0.000000 0.381500 -0.910700 1 0 1.000000 
0 -92.974998 1.529096 -116.598801 -0.095800 -0.995400 0.000000 0.379100 -0.183200 1 0 1.000000 
0 -87.520401 1.003796 -116.598801 -0.095800 -0.995400 0.000000 0.358500 -0.177200 1 0 1.000000 
coolingtank01
0 52.491497 55.547005 -105.741798 -0.553126 -0.793237 0.254612 0.941800 -0.874400 1 0 1.000000 
0 58.496395 57.731403 -110.179001 0.934248 -0.355980 0.021399 0.941800 -0.838000 1 0 1.000000 
0 52.664997 55.486202 -14.172900 -0.557673 -0.830060 0.000700 0.433100 -0.873800 1 0 1.000000 
coolingtank01
0 59.090496 58.280003 -14.083300 0.997280 0.073699 -0.000100 0.432900 -0.838100 1 0 1.000000 
0 52.664997 55.486202 -14.172900 -0.557673 -0.830060 0.000700 0.433100 -0.873800 1 0 1.000000 
0 58.496395 57.731403 -110.179001 0.934248 -0.355980 0.021399 0.941800 -0.838000 1 0 1.000000 
coolingtank01
0 52.570698 60.847603 -14.073600 -0.097503 0.995234 -0.001500 0.433000 -0.813300 1 0 1.000000 
0 59.090496 58.280003 -14.083300 0.997280 0.073699 -0.000100 0.432900 -0.838100 1 0 1.000000 
0 58.496395 57.731403 -110.179001 0.934248 -0.355980 0.021399 0.941800 -0.838000 1 0 1.000000 
coolingtank01
0 58.496395 57.731403 -110.179001 0.934248 -0.355980 0.021399 0.941800 -0.838000 1 0 1.000000 
0 52.481598 60.822002 -108.342697 -0.733008 0.679908 -0.020600 0.907000 -0.809700 1 0 1.000000 
0 52.570698 60.847603 -14.073600 -0.097503 0.995234 -0.001500 0.433000 -0.813300 1 0 1.000000 
coolingtank01
0 -52.984299 -28.749601 99.134300 -0.729828 0.682226 -0.043802 0.380400 -0.533600 1 0 1.000000 
0 -51.055698 -37.103405 99.134300 -0.570976 -0.820966 0.000000 0.381300 -0.484800 1 0 1.000000 
0 -52.984299 -28.749601 108.911598 -0.986609 0.163101 0.000000 0.339600 -0.533300 1 0 1.000000 
coolingtank01
0 -51.055698 -37.103405 99.134300 -0.570976 -0.820966 0.000000 0.381300 -0.484800 1 0 1.000000 
0 -51.055698 -37.103405 108.911598 -0.561321 -0.827331 0.021001 0.340400 -0.483600 1 0 1.000000 
0 -52.984299 -28.749601 108.911598 -0.986609 0.163101 0.000000 0.339600 -0.533300 1 0 1.000000 
coolingtank01
0 -51.055698 -37.103405 99.134300 -0.570976 -0.820966 0.000000 0.381300 -0.484800 1 0 1.000000 
0 -39.557701 -34.448799 108.911598 0.873075 -0.487586 0.000000 0.341200 -0.448100 1 0 1.000000 
0 -51.055698 -37.103405 108.911598 -0.561321 -0.827331 0.021001 0.340400 -0.483600 1 0 1.000000 
coolingtank01
0 -51.055698 -37.103405 99.134300 -0.570976 -0.820966 0.000000 0.381300 -0.484800 1 0 1.000000 
0 -39.557701 -34.448898 99.134300 0.867207 -0.497504 -0.021000 0.382100 -0.449300 1 0 1.000000 
0 -39.557701 -34.448799 108.911598 0.873075 -0.487586 0.000000 0.341200 -0.448100 1 0 1.000000 
coolingtank01
0 -39.557701 -34.448898 99.134300 0.867207 -0.497504 -0.021000 0.382100 -0.449300 1 0 1.000000 
0 -41.486401 -26.095102 99.134300 0.684712 0.728813 0.000000 0.382900 -0.399800 1 0 1.000000 
0 -39.557701 -34.448799 108.911598 0.873075 -0.487586 0.000000 0.341200 -0.448100 1 0 1.000000 
coolingtank01
0 -41.486401 -26.095102 99.134300 0.684712 0.728813 0.000000 0.382900 -0.399800 1 0 1.000000 
0 -45.635399 -24.334002 108.911598 0.048601 0.998818 0.000000 0.342200 -0.389800 1 0 1.000000 
0 -39.557701 -34.448799 108.911598 0.873075 -0.487586 0.000000 0.341200 -0.448100 1 0 1.000000 
coolingtank01
0 -41.486401 -26.095102 99.134300 0.684712 0.728813 0.000000 0.382900 -0.399800 1 0 1.000000 
0 -52.984299 -28.749601 99.134300 -0.729828 0.682226 -0.043802 0.383300 -0.366400 1 0 1.000000 
0 -45.635399 -24.334002 108.911598 0.048601 0.998818 0.000000 0.342200 -0.389800 1 0 1.000000 
coolingtank01
0 -52.984299 -28.749601 99.134300 -0.729828 0.682226 -0.043802 0.383300 -0.366400 1 0 1.000000 
0 -52.984299 -28.749601 108.911598 -0.986609 0.163101 0.000000 0.342500 -0.366100 1 0 1.000000 
0 -45.635399 -24.334002 108.911598 0.048601 0.998818 0.000000 0.342200 -0.389800 1 0 1.000000 
coolingtank01
0 -39.945900 -42.296001 116.696800 0.000000 0.000000 1.000000 0.132300 -0.399200 1 0 1.000000 
0 -57.588600 -26.959402 116.696800 0.000000 0.000000 1.000000 0.173800 -0.341000 1 0 1.000000 
0 -54.338600 -41.036804 116.696800 0.000000 0.000000 1.000000 0.131900 -0.355000 1 0 1.000000 
coolingtank01
0 -39.945900 -42.296001 116.696800 0.000000 0.000000 1.000000 0.132300 -0.399200 1 0 1.000000 
0 -45.204601 -19.518301 116.696800 0.000000 0.000000 1.000000 0.200100 -0.376500 1 0 1.000000 
0 -57.588600 -26.959402 116.696800 0.000000 0.000000 1.000000 0.173800 -0.341000 1 0 1.000000 
coolingtank01
0 -39.945900 -42.296001 116.696800 0.000000 0.000000 1.000000 0.132300 -0.399200 1 0 1.000000 
0 -34.300701 -28.996902 116.696800 0.000000 0.000000 1.000000 0.174500 -0.412500 1 0 1.000000 
0 -45.204601 -19.518301 116.696800 0.000000 0.000000 1.000000 0.200100 -0.376500 1 0 1.000000 
coolingtank01
0 -21.570999 4.017299 -103.042999 0.000000 0.000000 -1.000000 0.787500 -0.318700 1 0 1.000000 
0 -8.598399 -18.911699 -103.042999 0.000000 0.000000 -1.000000 0.888700 -0.390500 1 0 1.000000 
0 -18.809700 -9.554701 -103.042999 0.000000 0.000000 -1.000000 0.847400 -0.334000 1 0 1.000000 
coolingtank01
0 -21.570999 4.017299 -103.042999 0.000000 0.000000 -1.000000 0.787500 -0.318700 1 0 1.000000 
0 5.162601 -20.479601 -103.042999 0.000000 0.000000 -1.000000 0.895700 -0.466700 1 0 1.000000 
0 -8.598399 -18.911699 -103.042999 0.000000 0.000000 -1.000000 0.888700 -0.390500 1 0 1.000000 
coolingtank01
0 -21.570999 4.017299 -103.042999 0.000000 0.000000 -1.000000 0.787500 -0.318700 1 0 1.000000 
0 17.217100 -13.659499 -103.042999 0.000000 0.000000 -1.000000 0.865500 -0.533500 1 0 1.000000 
0 5.162601 -20.479601 -103.042999 0.000000 0.000000 -1.000000 0.895700 -0.466700 1 0 1.000000 
coolingtank01
0 -21.570999 4.017299 -103.042999 0.000000 0.000000 -1.000000 0.787500 -0.318700 1 0 1.000000 
0 22.960699 -1.056399 -103.042999 0.000000 0.000000 -1.000000 0.809900 -0.565300 1 0 1.000000 
0 17.217100 -13.659499 -103.042999 0.000000 0.000000 -1.000000 0.865500 -0.533500 1 0 1.000000 
coolingtank01
0 -21.570999 4.017299 -103.042999 0.000000 0.000000 -1.000000 0.787500 -0.318700 1 0 1.000000 
0 20.199400 12.515601 -103.042999 0.000000 0.000000 -1.000000 0.750000 -0.550000 1 0 1.000000 
0 22.960699 -1.056399 -103.042999 0.000000 0.000000 -1.000000 0.809900 -0.565300 1 0 1.000000 
coolingtank01
0 -21.570999 4.017299 -103.042999 0.000000 0.000000 -1.000000 0.787500 -0.318700 1 0 1.000000 
0 9.988099 21.872499 -103.042999 0.000000 0.000000 -1.000000 0.708600 -0.493500 1 0 1.000000 
0 20.199400 12.515601 -103.042999 0.000000 0.000000 -1.000000 0.750000 -0.550000 1 0 1.000000 
coolingtank01
0 -21.570999 4.017299 -103.042999 0.000000 0.000000 -1.000000 0.787500 -0.318700 1 0 1.000000 
0 -3.773001 23.440399 -103.042999 0.000000 0.000000 -1.000000 0.701700 -0.417200 1 0 1.000000 
0 9.988099 21.872499 -103.042999 0.000000 0.000000 -1.000000 0.708600 -0.493500 1 0 1.000000 
coolingtank01
0 -21.570999 4.017299 -103.042999 0.000000 0.000000 -1.000000 0.787500 -0.318700 1 0 1.000000 
0 -15.827501 16.620300 -103.042999 0.000000 0.000000 -1.000000 0.731800 -0.350500 1 0 1.000000 
0 -3.773001 23.440399 -103.042999 0.000000 0.000000 -1.000000 0.701700 -0.417200 1 0 1.000000 
end
