version 1
nodes
  0 "static_prop" -1
end
skeleton
time 0
0 0.000000 0.000000 0.000000 0.000000 0.000000 0.000000
end
triangles
light_spotlight02
0 0.347300 4.651700 -0.343600 0.923500 0.029000 0.382500 0.632100 -0.056200 1 0 1.000000 
0 -0.003500 4.651700 0.503400 0.194703 0.026100 0.980515 0.598300 -0.056200 1 0 1.000000 
0 0.492600 -4.588700 0.007200 0.923877 0.000000 0.382690 0.620900 -0.434800 1 0 1.000000 
light_spotlight02
0 -0.003500 4.651700 0.503400 0.194703 0.026100 0.980515 0.598300 -0.056200 1 0 1.000000 
0 -0.499700 4.651700 0.007200 -0.707107 -0.000000 0.707107 0.575700 -0.056200 1 0 1.000000 
0 -0.003500 -4.588700 0.503400 -0.707107 -0.000000 0.707107 0.598300 -0.434800 1 0 1.000000 
light_spotlight02
0 3.591400 -2.460700 4.337100 -0.119207 -0.497128 0.859449 0.176100 -0.085800 1 0 1.000000 
0 5.089400 -3.788600 3.222800 0.050703 -0.791139 0.609530 0.221500 -0.030600 1 0 1.000000 
0 5.089400 -2.460700 4.337100 0.000000 -0.448293 0.893886 0.176100 -0.030600 1 0 1.000000 
light_spotlight02
0 3.591400 -0.831700 4.930000 -0.119205 -0.173208 0.977645 0.130700 -0.085800 1 0 1.000000 
0 5.089400 -2.460700 4.337100 0.000000 -0.448293 0.893886 0.176100 -0.030600 1 0 1.000000 
0 5.089400 -0.831700 4.930000 0.000000 -0.115600 0.993296 0.130700 -0.030600 1 0 1.000000 
light_spotlight02
0 3.591400 -0.831700 4.930000 -0.119205 -0.173208 0.977645 0.130700 -0.085800 1 0 1.000000 
0 3.591400 -2.460700 4.337100 -0.119207 -0.497128 0.859449 0.176100 -0.085800 1 0 1.000000 
0 5.089400 -2.460700 4.337100 0.000000 -0.448293 0.893886 0.176100 -0.030600 1 0 1.000000 
light_spotlight02
0 0.597100 -0.645100 3.871600 -0.553383 -0.149095 0.819474 0.130700 -0.196100 1 0 1.000000 
0 3.591400 -2.460700 4.337100 -0.119207 -0.497128 0.859449 0.176100 -0.085800 1 0 1.000000 
0 3.591400 -0.831700 4.930000 -0.119205 -0.173208 0.977645 0.130700 -0.085800 1 0 1.000000 
light_spotlight02
0 0.597100 -0.645100 3.871600 -0.553383 -0.149095 0.819474 0.130700 -0.196100 1 0 1.000000 
0 0.597100 -1.923300 3.406400 -0.553398 -0.420298 0.719097 0.176100 -0.196100 1 0 1.000000 
0 3.591400 -2.460700 4.337100 -0.119207 -0.497128 0.859449 0.176100 -0.085800 1 0 1.000000 
light_spotlight02
0 0.597100 -1.923300 3.406400 -0.553398 -0.420298 0.719097 0.176100 -0.196100 1 0 1.000000 
0 3.591400 -3.788600 3.222800 -0.211200 -0.737999 0.640899 0.221500 -0.085800 1 0 1.000000 
0 3.591400 -2.460700 4.337100 -0.119207 -0.497128 0.859449 0.176100 -0.085800 1 0 1.000000 
light_spotlight02
0 3.591400 -2.460700 4.337100 -0.119207 -0.497128 0.859449 0.176100 -0.085800 1 0 1.000000 
0 3.591400 -3.788600 3.222800 -0.211200 -0.737999 0.640899 0.221500 -0.085800 1 0 1.000000 
0 5.089400 -3.788600 3.222800 0.050703 -0.791139 0.609530 0.221500 -0.030600 1 0 1.000000 
light_spotlight02
0 3.591400 -3.788600 3.222800 -0.211200 -0.737999 0.640899 0.221500 -0.085800 1 0 1.000000 
0 3.591400 -4.655300 1.721600 -0.119197 -0.933280 0.338793 0.266900 -0.085800 1 0 1.000000 
0 5.089400 -3.788600 3.222800 0.050703 -0.791139 0.609530 0.221500 -0.030600 1 0 1.000000 
light_spotlight02
0 3.591400 -4.655300 1.721600 -0.119197 -0.933280 0.338793 0.266900 -0.085800 1 0 1.000000 
0 5.089400 -4.956400 0.014400 0.067498 -0.991070 0.114997 0.312300 -0.030600 1 0 1.000000 
0 5.089400 -3.788600 3.222800 0.050703 -0.791139 0.609530 0.221500 -0.030600 1 0 1.000000 
light_spotlight02
0 3.591400 0.901700 4.930000 -0.119203 0.171605 0.977927 0.085300 -0.085800 1 0 1.000000 
0 5.089400 -0.831700 4.930000 0.000000 -0.115600 0.993296 0.130700 -0.030600 1 0 1.000000 
0 5.089400 0.901700 4.930000 -0.000000 0.231107 0.972928 0.085300 -0.030600 1 0 1.000000 
light_spotlight02
0 3.591400 0.901700 4.930000 -0.119203 0.171605 0.977927 0.085300 -0.085800 1 0 1.000000 
0 3.591400 -0.831700 4.930000 -0.119205 -0.173208 0.977645 0.130700 -0.085800 1 0 1.000000 
0 5.089400 -0.831700 4.930000 0.000000 -0.115600 0.993296 0.130700 -0.030600 1 0 1.000000 
light_spotlight02
0 0.597100 0.715100 3.871600 -0.553414 0.140204 0.821021 0.085300 -0.196100 1 0 1.000000 
0 3.591400 -0.831700 4.930000 -0.119205 -0.173208 0.977645 0.130700 -0.085800 1 0 1.000000 
0 3.591400 0.901700 4.930000 -0.119203 0.171605 0.977927 0.085300 -0.085800 1 0 1.000000 
light_spotlight02
0 0.597100 0.715100 3.871600 -0.553414 0.140204 0.821021 0.085300 -0.196100 1 0 1.000000 
0 0.597100 -0.645100 3.871600 -0.553383 -0.149095 0.819474 0.130700 -0.196100 1 0 1.000000 
0 3.591400 -0.831700 4.930000 -0.119205 -0.173208 0.977645 0.130700 -0.085800 1 0 1.000000 
light_spotlight02
0 -0.661600 0.520800 2.769500 -0.447209 0.162103 0.879617 0.085300 -0.242500 1 0 1.000000 
0 0.597100 -0.645100 3.871600 -0.553383 -0.149095 0.819474 0.130700 -0.196100 1 0 1.000000 
0 0.597100 0.715100 3.871600 -0.553414 0.140204 0.821021 0.085300 -0.196100 1 0 1.000000 
light_spotlight02
0 -0.661600 0.520800 2.769500 -0.447209 0.162103 0.879617 0.085300 -0.242500 1 0 1.000000 
0 -0.661600 -0.450800 2.769500 -0.505580 -0.286088 0.813967 0.130700 -0.242500 1 0 1.000000 
0 0.597100 -0.645100 3.871600 -0.553383 -0.149095 0.819474 0.130700 -0.196100 1 0 1.000000 
light_spotlight02
0 -0.661600 -0.450800 2.769500 -0.505580 -0.286088 0.813967 0.130700 -0.242500 1 0 1.000000 
0 0.597100 -1.923300 3.406400 -0.553398 -0.420298 0.719097 0.176100 -0.196100 1 0 1.000000 
0 0.597100 -0.645100 3.871600 -0.553383 -0.149095 0.819474 0.130700 -0.196100 1 0 1.000000 
light_spotlight02
0 -0.661600 -0.450800 2.769500 -0.505580 -0.286088 0.813967 0.130700 -0.242500 1 0 1.000000 
0 0.597100 -2.965300 2.532000 -0.553421 -0.640925 0.531921 0.221500 -0.196100 1 0 1.000000 
0 0.597100 -1.923300 3.406400 -0.553398 -0.420298 0.719097 0.176100 -0.196100 1 0 1.000000 
light_spotlight02
0 0.597100 -1.923300 3.406400 -0.553398 -0.420298 0.719097 0.176100 -0.196100 1 0 1.000000 
0 0.597100 -2.965300 2.532000 -0.553421 -0.640925 0.531921 0.221500 -0.196100 1 0 1.000000 
0 3.591400 -3.788600 3.222800 -0.211200 -0.737999 0.640899 0.221500 -0.085800 1 0 1.000000 
light_spotlight02
0 0.597100 -2.965300 2.532000 -0.553421 -0.640925 0.531921 0.221500 -0.196100 1 0 1.000000 
0 2.072900 -4.307900 1.595100 -0.315900 -0.881001 0.352200 0.266900 -0.141700 1 0 1.000000 
0 3.591400 -3.788600 3.222800 -0.211200 -0.737999 0.640899 0.221500 -0.085800 1 0 1.000000 
light_spotlight02
0 3.591400 -3.788600 3.222800 -0.211200 -0.737999 0.640899 0.221500 -0.085800 1 0 1.000000 
0 2.072900 -4.307900 1.595100 -0.315900 -0.881001 0.352200 0.266900 -0.141700 1 0 1.000000 
0 3.591400 -4.655300 1.721600 -0.119197 -0.933280 0.338793 0.266900 -0.085800 1 0 1.000000 
light_spotlight02
0 2.072900 -4.307900 1.595100 -0.315900 -0.881001 0.352200 0.266900 -0.141700 1 0 1.000000 
0 3.591400 -4.956400 0.014400 -0.119196 -0.992870 -0.000800 0.312300 -0.085800 1 0 1.000000 
0 3.591400 -4.655300 1.721600 -0.119197 -0.933280 0.338793 0.266900 -0.085800 1 0 1.000000 
light_spotlight02
0 3.591400 -4.655300 1.721600 -0.119197 -0.933280 0.338793 0.266900 -0.085800 1 0 1.000000 
0 3.591400 -4.956400 0.014400 -0.119196 -0.992870 -0.000800 0.312300 -0.085800 1 0 1.000000 
0 5.089400 -4.956400 0.014400 0.067498 -0.991070 0.114997 0.312300 -0.030600 1 0 1.000000 
light_spotlight02
0 3.591400 -4.956400 0.014400 -0.119196 -0.992870 -0.000800 0.312300 -0.085800 1 0 1.000000 
0 5.089400 -4.655300 -1.692700 0.050702 -0.923427 -0.380411 0.357700 -0.030600 1 0 1.000000 
0 5.089400 -4.956400 0.014400 0.067498 -0.991070 0.114997 0.312300 -0.030600 1 0 1.000000 
light_spotlight02
0 3.591400 -4.956400 0.014400 -0.119196 -0.992870 -0.000800 0.312300 -0.085800 1 0 1.000000 
0 3.591400 -4.655300 -1.692700 -0.119203 -0.932727 -0.340310 0.357700 -0.085800 1 0 1.000000 
0 5.089400 -4.655300 -1.692700 0.050702 -0.923427 -0.380411 0.357700 -0.030600 1 0 1.000000 
light_spotlight02
0 3.591400 -4.655300 -1.692700 -0.119203 -0.932727 -0.340310 0.357700 -0.085800 1 0 1.000000 
0 3.591400 -3.788600 -3.193900 -0.119198 -0.760090 -0.638792 0.403100 -0.085800 1 0 1.000000 
0 5.089400 -4.655300 -1.692700 0.050702 -0.923427 -0.380411 0.357700 -0.030600 1 0 1.000000 
light_spotlight02
0 2.072900 -4.307900 -1.566200 -0.329208 -0.886121 -0.326208 0.357700 -0.141700 1 0 1.000000 
0 3.591400 -3.788600 -3.193900 -0.119198 -0.760090 -0.638792 0.403100 -0.085800 1 0 1.000000 
0 3.591400 -4.655300 -1.692700 -0.119203 -0.932727 -0.340310 0.357700 -0.085800 1 0 1.000000 
light_spotlight02
0 0.597100 -3.645400 -1.325100 -0.562385 -0.774580 -0.289393 0.357700 -0.196100 1 0 1.000000 
0 3.591400 -3.788600 -3.193900 -0.119198 -0.760090 -0.638792 0.403100 -0.085800 1 0 1.000000 
0 2.072900 -4.307900 -1.566200 -0.329208 -0.886121 -0.326208 0.357700 -0.141700 1 0 1.000000 
light_spotlight02
0 2.072900 -4.307900 1.595100 -0.315900 -0.881001 0.352200 0.266900 -0.141700 1 0 1.000000 
0 2.072900 -4.307900 -1.566200 -0.329208 -0.886121 -0.326208 0.357700 -0.141700 1 0 1.000000 
0 3.591400 -4.956400 0.014400 -0.119196 -0.992870 -0.000800 0.312300 -0.085800 1 0 1.000000 
light_spotlight02
0 2.072900 -4.307900 -1.566200 -0.329208 -0.886121 -0.326208 0.357700 -0.141700 1 0 1.000000 
0 3.591400 -4.655300 -1.692700 -0.119203 -0.932727 -0.340310 0.357700 -0.085800 1 0 1.000000 
0 3.591400 -4.956400 0.014400 -0.119196 -0.992870 -0.000800 0.312300 -0.085800 1 0 1.000000 
light_spotlight02
0 3.591400 -3.788600 -3.193900 -0.119198 -0.760090 -0.638792 0.403100 -0.085800 1 0 1.000000 
0 5.089400 -2.460700 -4.308200 0.102801 -0.497404 -0.861407 0.448400 -0.030600 1 0 1.000000 
0 5.089400 -4.655300 -1.692700 0.050702 -0.923427 -0.380411 0.357700 -0.030600 1 0 1.000000 
light_spotlight02
0 -4.901400 0.372400 1.927700 -0.197295 0.113297 0.973775 0.085300 -0.398700 1 0 1.000000 
0 -0.661600 -0.450800 2.769500 -0.505580 -0.286088 0.813967 0.130700 -0.242500 1 0 1.000000 
0 -0.661600 0.520800 2.769500 -0.447209 0.162103 0.879617 0.085300 -0.242500 1 0 1.000000 
light_spotlight02
0 -4.901400 0.372400 1.927700 -0.197295 0.113297 0.973775 0.085300 -0.398700 1 0 1.000000 
0 -4.901400 -1.453200 1.263200 -0.197295 -0.786681 0.584986 0.221500 -0.398700 1 0 1.000000 
0 -0.661600 -0.450800 2.769500 -0.505580 -0.286088 0.813967 0.130700 -0.242500 1 0 1.000000 
light_spotlight02
0 -4.901400 -1.453200 1.263200 -0.197295 -0.786681 0.584986 0.221500 -0.398700 1 0 1.000000 
0 -0.661600 -2.108100 1.812700 -0.447206 -0.680709 0.580208 0.221500 -0.242500 1 0 1.000000 
0 -0.661600 -0.450800 2.769500 -0.505580 -0.286088 0.813967 0.130700 -0.242500 1 0 1.000000 
light_spotlight02
0 -0.661600 -0.450800 2.769500 -0.505580 -0.286088 0.813967 0.130700 -0.242500 1 0 1.000000 
0 -0.661600 -2.108100 1.812700 -0.447206 -0.680709 0.580208 0.221500 -0.242500 1 0 1.000000 
0 0.597100 -2.965300 2.532000 -0.553421 -0.640925 0.531921 0.221500 -0.196100 1 0 1.000000 
light_spotlight02
0 -0.661600 -2.108100 1.812700 -0.447206 -0.680709 0.580208 0.221500 -0.242500 1 0 1.000000 
0 0.597100 -3.645400 1.354000 -0.608291 -0.745289 0.272996 0.266900 -0.196100 1 0 1.000000 
0 0.597100 -2.965300 2.532000 -0.553421 -0.640925 0.531921 0.221500 -0.196100 1 0 1.000000 
light_spotlight02
0 0.597100 -2.965300 2.532000 -0.553421 -0.640925 0.531921 0.221500 -0.196100 1 0 1.000000 
0 0.597100 -3.645400 1.354000 -0.608291 -0.745289 0.272996 0.266900 -0.196100 1 0 1.000000 
0 2.072900 -4.307900 1.595100 -0.315900 -0.881001 0.352200 0.266900 -0.141700 1 0 1.000000 
light_spotlight02
0 -4.901400 -1.453200 1.263200 -0.197295 -0.786681 0.584986 0.221500 -0.398700 1 0 1.000000 
0 -4.901400 -1.790600 -0.650000 -0.245306 -0.954724 0.168304 0.357700 -0.398700 1 0 1.000000 
0 -0.661600 -2.762600 0.014400 -0.498893 -0.860688 0.101599 0.312300 -0.242500 1 0 1.000000 
light_spotlight02
0 -4.901400 -1.453200 1.263200 -0.197295 -0.786681 0.584986 0.221500 -0.398700 1 0 1.000000 
0 -0.661600 -2.762600 0.014400 -0.498893 -0.860688 0.101599 0.312300 -0.242500 1 0 1.000000 
0 -0.661600 -2.108100 1.812700 -0.447206 -0.680709 0.580208 0.221500 -0.242500 1 0 1.000000 
light_spotlight02
0 -0.661600 -2.108100 1.812700 -0.447206 -0.680709 0.580208 0.221500 -0.242500 1 0 1.000000 
0 -0.661600 -2.762600 0.014400 -0.498893 -0.860688 0.101599 0.312300 -0.242500 1 0 1.000000 
0 0.597100 -3.645400 1.354000 -0.608291 -0.745289 0.272996 0.266900 -0.196100 1 0 1.000000 
light_spotlight02
0 -0.661600 -2.762600 0.014400 -0.498893 -0.860688 0.101599 0.312300 -0.242500 1 0 1.000000 
0 0.597100 -3.645400 -1.325100 -0.562385 -0.774580 -0.289393 0.357700 -0.196100 1 0 1.000000 
0 0.597100 -3.645400 1.354000 -0.608291 -0.745289 0.272996 0.266900 -0.196100 1 0 1.000000 
light_spotlight02
0 0.597100 -3.645400 -1.325100 -0.562385 -0.774580 -0.289393 0.357700 -0.196100 1 0 1.000000 
0 0.597100 -2.965300 -2.503100 -0.553425 -0.635129 -0.538824 0.403100 -0.196100 1 0 1.000000 
0 3.591400 -3.788600 -3.193900 -0.119198 -0.760090 -0.638792 0.403100 -0.085800 1 0 1.000000 
light_spotlight02
0 -0.661600 -2.762600 0.014400 -0.498893 -0.860688 0.101599 0.312300 -0.242500 1 0 1.000000 
0 0.597100 -2.965300 -2.503100 -0.553425 -0.635129 -0.538824 0.403100 -0.196100 1 0 1.000000 
0 0.597100 -3.645400 -1.325100 -0.562385 -0.774580 -0.289393 0.357700 -0.196100 1 0 1.000000 
light_spotlight02
0 -0.661600 -2.762600 0.014400 -0.498893 -0.860688 0.101599 0.312300 -0.242500 1 0 1.000000 
0 -0.661600 -2.108100 -1.783800 -0.447204 -0.689607 -0.569606 0.403100 -0.242500 1 0 1.000000 
0 0.597100 -2.965300 -2.503100 -0.553425 -0.635129 -0.538824 0.403100 -0.196100 1 0 1.000000 
light_spotlight02
0 -4.901400 -1.790600 -0.650000 -0.194506 -0.850025 -0.489514 0.357700 -0.398700 1 0 1.000000 
0 -0.661600 -2.108100 -1.783800 -0.447204 -0.689607 -0.569606 0.403100 -0.242500 1 0 1.000000 
0 -0.661600 -2.762600 0.014400 -0.498893 -0.860688 0.101599 0.312300 -0.242500 1 0 1.000000 
light_spotlight02
0 -4.901400 -1.790600 -0.650000 -0.194506 -0.850025 -0.489514 0.357700 -0.398700 1 0 1.000000 
0 -4.901400 -0.936400 -1.668000 -0.210293 -0.538483 -0.815974 0.448400 -0.398700 1 0 1.000000 
0 -0.661600 -2.108100 -1.783800 -0.447204 -0.689607 -0.569606 0.403100 -0.242500 1 0 1.000000 
light_spotlight02
0 -4.901400 -0.936400 -1.668000 -0.210293 -0.538483 -0.815974 0.448400 -0.398700 1 0 1.000000 
0 -0.661600 -1.363800 -2.408300 -0.498916 -0.281009 -0.819827 0.448400 -0.242500 1 0 1.000000 
0 -0.661600 -2.108100 -1.783800 -0.447204 -0.689607 -0.569606 0.403100 -0.242500 1 0 1.000000 
light_spotlight02
0 -4.901400 -0.936400 -1.668000 -0.210293 -0.538483 -0.815974 0.448400 -0.398700 1 0 1.000000 
0 -4.901400 0.372400 -1.898800 -0.186101 -0.170601 -0.967606 0.539200 -0.398700 1 0 1.000000 
0 -0.661600 -1.363800 -2.408300 -0.498916 -0.281009 -0.819827 0.448400 -0.242500 1 0 1.000000 
light_spotlight02
0 -4.901400 0.372400 -1.898800 -0.186101 -0.170601 -0.967606 0.539200 -0.398700 1 0 1.000000 
0 -0.661600 0.520800 -2.740600 -0.585126 0.080504 -0.806936 0.539200 -0.242500 1 0 1.000000 
0 -0.661600 -1.363800 -2.408300 -0.498916 -0.281009 -0.819827 0.448400 -0.242500 1 0 1.000000 
light_spotlight02
0 -0.661600 -1.363800 -2.408300 -0.498916 -0.281009 -0.819827 0.448400 -0.242500 1 0 1.000000 
0 -0.661600 0.520800 -2.740600 -0.585126 0.080504 -0.806936 0.539200 -0.242500 1 0 1.000000 
0 0.597100 0.715100 -3.842700 -0.553383 0.149095 -0.819474 0.539200 -0.196100 1 0 1.000000 
light_spotlight02
0 -0.661600 0.520800 -2.740600 -0.585126 0.080504 -0.806936 0.539200 -0.242500 1 0 1.000000 
0 0.597100 1.993300 -3.377500 -0.553398 0.420298 -0.719097 0.584600 -0.196100 1 0 1.000000 
0 0.597100 0.715100 -3.842700 -0.553383 0.149095 -0.819474 0.539200 -0.196100 1 0 1.000000 
light_spotlight02
0 0.597100 0.715100 -3.842700 -0.553383 0.149095 -0.819474 0.539200 -0.196100 1 0 1.000000 
0 0.597100 1.993300 -3.377500 -0.553398 0.420298 -0.719097 0.584600 -0.196100 1 0 1.000000 
0 3.591400 2.530700 -4.308200 -0.205589 0.459876 -0.863856 0.584600 -0.085800 1 0 1.000000 
light_spotlight02
0 0.597100 1.993300 -3.377500 -0.553398 0.420298 -0.719097 0.584600 -0.196100 1 0 1.000000 
0 3.591400 3.858600 -3.193900 -0.119199 0.761094 -0.637595 0.630000 -0.085800 1 0 1.000000 
0 3.591400 2.530700 -4.308200 -0.205589 0.459876 -0.863856 0.584600 -0.085800 1 0 1.000000 
light_spotlight02
0 3.591400 2.530700 -4.308200 -0.205589 0.459876 -0.863856 0.584600 -0.085800 1 0 1.000000 
0 3.591400 3.858600 -3.193900 -0.119199 0.761094 -0.637595 0.630000 -0.085800 1 0 1.000000 
0 5.089400 2.530700 -4.308200 0.050701 0.535013 -0.843321 0.584600 -0.030600 1 0 1.000000 
light_spotlight02
0 3.591400 3.858600 -3.193900 -0.119199 0.761094 -0.637595 0.630000 -0.085800 1 0 1.000000 
0 5.089400 4.725400 -1.692700 0.067499 0.891987 -0.446993 0.675400 -0.030600 1 0 1.000000 
0 5.089400 2.530700 -4.308200 0.050701 0.535013 -0.843321 0.584600 -0.030600 1 0 1.000000 
light_spotlight02
0 3.591400 3.858600 -3.193900 -0.119199 0.761094 -0.637595 0.630000 -0.085800 1 0 1.000000 
0 3.591400 4.725400 -1.692700 -0.119197 0.933280 -0.338793 0.675400 -0.085800 1 0 1.000000 
0 5.089400 4.725400 -1.692700 0.067499 0.891987 -0.446993 0.675400 -0.030600 1 0 1.000000 
light_spotlight02
0 3.591400 4.725400 -1.692700 -0.119197 0.933280 -0.338793 0.675400 -0.085800 1 0 1.000000 
0 5.089400 5.026400 0.014500 -0.000000 0.998276 -0.058699 0.720800 -0.030600 1 0 1.000000 
0 5.089400 4.725400 -1.692700 0.067499 0.891987 -0.446993 0.675400 -0.030600 1 0 1.000000 
light_spotlight02
0 3.591400 4.725400 -1.692700 -0.119197 0.933280 -0.338793 0.675400 -0.085800 1 0 1.000000 
0 3.591400 5.026400 0.014500 -0.119196 0.992870 0.000800 0.720800 -0.085800 1 0 1.000000 
0 5.089400 5.026400 0.014500 -0.000000 0.998276 -0.058699 0.720800 -0.030600 1 0 1.000000 
light_spotlight02
0 3.591400 5.026400 0.014500 -0.119196 0.992870 0.000800 0.720800 -0.085800 1 0 1.000000 
0 5.089400 4.725400 1.721600 -0.000000 0.958137 0.286311 0.766200 -0.030600 1 0 1.000000 
0 5.089400 5.026400 0.014500 -0.000000 0.998276 -0.058699 0.720800 -0.030600 1 0 1.000000 
light_spotlight02
0 0.597100 1.993300 -3.377500 -0.553398 0.420298 -0.719097 0.584600 -0.196100 1 0 1.000000 
0 0.597100 3.035300 -2.503100 -0.553421 0.640925 -0.531921 0.630000 -0.196100 1 0 1.000000 
0 3.591400 3.858600 -3.193900 -0.119199 0.761094 -0.637595 0.630000 -0.085800 1 0 1.000000 
light_spotlight02
0 -0.661600 2.178100 -1.783800 -0.561101 0.681301 -0.470101 0.630000 -0.242500 1 0 1.000000 
0 0.597100 3.035300 -2.503100 -0.553421 0.640925 -0.531921 0.630000 -0.196100 1 0 1.000000 
0 0.597100 1.993300 -3.377500 -0.553398 0.420298 -0.719097 0.584600 -0.196100 1 0 1.000000 
light_spotlight02
0 -0.661600 0.520800 -2.740600 -0.585126 0.080504 -0.806936 0.539200 -0.242500 1 0 1.000000 
0 -0.661600 2.178100 -1.783800 -0.561101 0.681301 -0.470101 0.630000 -0.242500 1 0 1.000000 
0 0.597100 1.993300 -3.377500 -0.553398 0.420298 -0.719097 0.584600 -0.196100 1 0 1.000000 
light_spotlight02
0 -0.661600 -1.363800 -2.408300 -0.498916 -0.281009 -0.819827 0.448400 -0.242500 1 0 1.000000 
0 0.597100 0.715100 -3.842700 -0.553383 0.149095 -0.819474 0.539200 -0.196100 1 0 1.000000 
0 0.597100 -0.645100 -3.842700 -0.553414 -0.140204 -0.821021 0.493800 -0.196100 1 0 1.000000 
light_spotlight02
0 0.597100 -0.645100 -3.842700 -0.553414 -0.140204 -0.821021 0.493800 -0.196100 1 0 1.000000 
0 0.597100 0.715100 -3.842700 -0.553383 0.149095 -0.819474 0.539200 -0.196100 1 0 1.000000 
0 3.591400 0.901800 -4.901100 -0.119205 0.173208 -0.977645 0.539200 -0.085800 1 0 1.000000 
light_spotlight02
0 0.597100 0.715100 -3.842700 -0.553383 0.149095 -0.819474 0.539200 -0.196100 1 0 1.000000 
0 3.591400 2.530700 -4.308200 -0.205589 0.459876 -0.863856 0.584600 -0.085800 1 0 1.000000 
0 3.591400 0.901800 -4.901100 -0.119205 0.173208 -0.977645 0.539200 -0.085800 1 0 1.000000 
light_spotlight02
0 3.591400 0.901800 -4.901100 -0.119205 0.173208 -0.977645 0.539200 -0.085800 1 0 1.000000 
0 3.591400 2.530700 -4.308200 -0.205589 0.459876 -0.863856 0.584600 -0.085800 1 0 1.000000 
0 5.089400 2.530700 -4.308200 0.050701 0.535013 -0.843321 0.584600 -0.030600 1 0 1.000000 
light_spotlight02
0 3.591400 0.901800 -4.901100 -0.119205 0.173208 -0.977645 0.539200 -0.085800 1 0 1.000000 
0 5.089400 2.530700 -4.308200 0.050701 0.535013 -0.843321 0.584600 -0.030600 1 0 1.000000 
0 5.089400 0.901800 -4.901100 0.067499 0.058899 -0.995979 0.539200 -0.030600 1 0 1.000000 
light_spotlight02
0 3.591400 -0.831700 -4.901100 -0.119203 -0.171605 -0.977927 0.493800 -0.085800 1 0 1.000000 
0 3.591400 0.901800 -4.901100 -0.119205 0.173208 -0.977645 0.539200 -0.085800 1 0 1.000000 
0 5.089400 0.901800 -4.901100 0.067499 0.058899 -0.995979 0.539200 -0.030600 1 0 1.000000 
light_spotlight02
0 3.591400 -0.831700 -4.901100 -0.119203 -0.171605 -0.977927 0.493800 -0.085800 1 0 1.000000 
0 5.089400 0.901800 -4.901100 0.067499 0.058899 -0.995979 0.539200 -0.030600 1 0 1.000000 
0 5.089400 -2.460700 -4.308200 0.102801 -0.497404 -0.861407 0.448400 -0.030600 1 0 1.000000 
light_spotlight02
0 3.591400 -2.460700 -4.308200 -0.205596 -0.518191 -0.830186 0.448400 -0.085800 1 0 1.000000 
0 3.591400 -0.831700 -4.901100 -0.119203 -0.171605 -0.977927 0.493800 -0.085800 1 0 1.000000 
0 5.089400 -2.460700 -4.308200 0.102801 -0.497404 -0.861407 0.448400 -0.030600 1 0 1.000000 
light_spotlight02
0 3.591400 -3.788600 -3.193900 -0.119198 -0.760090 -0.638792 0.403100 -0.085800 1 0 1.000000 
0 3.591400 -2.460700 -4.308200 -0.205596 -0.518191 -0.830186 0.448400 -0.085800 1 0 1.000000 
0 5.089400 -2.460700 -4.308200 0.102801 -0.497404 -0.861407 0.448400 -0.030600 1 0 1.000000 
light_spotlight02
0 0.597100 -2.965300 -2.503100 -0.553425 -0.635129 -0.538824 0.403100 -0.196100 1 0 1.000000 
0 3.591400 -2.460700 -4.308200 -0.205596 -0.518191 -0.830186 0.448400 -0.085800 1 0 1.000000 
0 3.591400 -3.788600 -3.193900 -0.119198 -0.760090 -0.638792 0.403100 -0.085800 1 0 1.000000 
light_spotlight02
0 0.597100 -2.965300 -2.503100 -0.553425 -0.635129 -0.538824 0.403100 -0.196100 1 0 1.000000 
0 0.597100 -1.923300 -3.377500 -0.553399 -0.412499 -0.723598 0.448400 -0.196100 1 0 1.000000 
0 3.591400 -2.460700 -4.308200 -0.205596 -0.518191 -0.830186 0.448400 -0.085800 1 0 1.000000 
light_spotlight02
0 -0.661600 -2.108100 -1.783800 -0.447204 -0.689607 -0.569606 0.403100 -0.242500 1 0 1.000000 
0 0.597100 -1.923300 -3.377500 -0.553399 -0.412499 -0.723598 0.448400 -0.196100 1 0 1.000000 
0 0.597100 -2.965300 -2.503100 -0.553425 -0.635129 -0.538824 0.403100 -0.196100 1 0 1.000000 
light_spotlight02
0 -0.661600 -2.108100 -1.783800 -0.447204 -0.689607 -0.569606 0.403100 -0.242500 1 0 1.000000 
0 -0.661600 -1.363800 -2.408300 -0.498916 -0.281009 -0.819827 0.448400 -0.242500 1 0 1.000000 
0 0.597100 -1.923300 -3.377500 -0.553399 -0.412499 -0.723598 0.448400 -0.196100 1 0 1.000000 
light_spotlight02
0 -0.661600 -1.363800 -2.408300 -0.498916 -0.281009 -0.819827 0.448400 -0.242500 1 0 1.000000 
0 0.597100 -0.645100 -3.842700 -0.553414 -0.140204 -0.821021 0.493800 -0.196100 1 0 1.000000 
0 0.597100 -1.923300 -3.377500 -0.553399 -0.412499 -0.723598 0.448400 -0.196100 1 0 1.000000 
light_spotlight02
0 0.597100 -1.923300 -3.377500 -0.553399 -0.412499 -0.723598 0.448400 -0.196100 1 0 1.000000 
0 0.597100 -0.645100 -3.842700 -0.553414 -0.140204 -0.821021 0.493800 -0.196100 1 0 1.000000 
0 3.591400 -0.831700 -4.901100 -0.119203 -0.171605 -0.977927 0.493800 -0.085800 1 0 1.000000 
light_spotlight02
0 0.597100 -0.645100 -3.842700 -0.553414 -0.140204 -0.821021 0.493800 -0.196100 1 0 1.000000 
0 3.591400 0.901800 -4.901100 -0.119205 0.173208 -0.977645 0.539200 -0.085800 1 0 1.000000 
0 3.591400 -0.831700 -4.901100 -0.119203 -0.171605 -0.977927 0.493800 -0.085800 1 0 1.000000 
light_spotlight02
0 0.597100 -1.923300 -3.377500 -0.553399 -0.412499 -0.723598 0.448400 -0.196100 1 0 1.000000 
0 3.591400 -0.831700 -4.901100 -0.119203 -0.171605 -0.977927 0.493800 -0.085800 1 0 1.000000 
0 3.591400 -2.460700 -4.308200 -0.205596 -0.518191 -0.830186 0.448400 -0.085800 1 0 1.000000 
light_spotlight02
0 -0.661600 2.178100 -1.783800 -0.561101 0.681301 -0.470101 0.630000 -0.242500 1 0 1.000000 
0 -0.661600 2.663900 -0.942400 -0.444083 0.870667 -0.211492 0.675400 -0.242500 1 0 1.000000 
0 0.597100 3.715400 -1.325100 -0.609897 0.730096 -0.308198 0.675400 -0.196100 1 0 1.000000 
light_spotlight02
0 -0.661600 2.178100 -1.783800 -0.561101 0.681301 -0.470101 0.630000 -0.242500 1 0 1.000000 
0 0.597100 3.715400 -1.325100 -0.609897 0.730096 -0.308198 0.675400 -0.196100 1 0 1.000000 
0 0.597100 3.035300 -2.503100 -0.553421 0.640925 -0.531921 0.630000 -0.196100 1 0 1.000000 
light_spotlight02
0 0.597100 3.035300 -2.503100 -0.553421 0.640925 -0.531921 0.630000 -0.196100 1 0 1.000000 
0 0.597100 3.715400 -1.325100 -0.609897 0.730096 -0.308198 0.675400 -0.196100 1 0 1.000000 
0 2.072900 4.377900 -1.566200 -0.315900 0.881000 -0.352200 0.675400 -0.141700 1 0 1.000000 
light_spotlight02
0 0.597100 3.035300 -2.503100 -0.553421 0.640925 -0.531921 0.630000 -0.196100 1 0 1.000000 
0 2.072900 4.377900 -1.566200 -0.315900 0.881000 -0.352200 0.675400 -0.141700 1 0 1.000000 
0 3.591400 3.858600 -3.193900 -0.119199 0.761094 -0.637595 0.630000 -0.085800 1 0 1.000000 
light_spotlight02
0 3.591400 3.858600 -3.193900 -0.119199 0.761094 -0.637595 0.630000 -0.085800 1 0 1.000000 
0 2.072900 4.377900 -1.566200 -0.315900 0.881000 -0.352200 0.675400 -0.141700 1 0 1.000000 
0 3.591400 4.725400 -1.692700 -0.119197 0.933280 -0.338793 0.675400 -0.085800 1 0 1.000000 
light_spotlight02
0 2.072900 4.377900 -1.566200 -0.315900 0.881000 -0.352200 0.675400 -0.141700 1 0 1.000000 
0 3.591400 5.026400 0.014500 -0.119196 0.992870 0.000800 0.720800 -0.085800 1 0 1.000000 
0 3.591400 4.725400 -1.692700 -0.119197 0.933280 -0.338793 0.675400 -0.085800 1 0 1.000000 
light_spotlight02
0 2.072900 4.377900 -1.566200 -0.315900 0.881000 -0.352200 0.675400 -0.141700 1 0 1.000000 
0 2.072900 4.377900 1.595100 -0.329208 0.886121 0.326208 0.766200 -0.141700 1 0 1.000000 
0 3.591400 5.026400 0.014500 -0.119196 0.992870 0.000800 0.720800 -0.085800 1 0 1.000000 
light_spotlight02
0 2.072900 4.377900 1.595100 -0.329208 0.886121 0.326208 0.766200 -0.141700 1 0 1.000000 
0 3.591400 4.725400 1.721600 -0.119203 0.932727 0.340310 0.766200 -0.085800 1 0 1.000000 
0 3.591400 5.026400 0.014500 -0.119196 0.992870 0.000800 0.720800 -0.085800 1 0 1.000000 
light_spotlight02
0 2.072900 4.377900 1.595100 -0.329208 0.886121 0.326208 0.766200 -0.141700 1 0 1.000000 
0 3.591400 3.858600 3.222800 -0.119198 0.760090 0.638792 0.811600 -0.085800 1 0 1.000000 
0 3.591400 4.725400 1.721600 -0.119203 0.932727 0.340310 0.766200 -0.085800 1 0 1.000000 
light_spotlight02
0 0.597100 3.715400 1.354000 -0.560211 0.771216 0.302306 0.766200 -0.196100 1 0 1.000000 
0 3.591400 3.858600 3.222800 -0.119198 0.760090 0.638792 0.811600 -0.085800 1 0 1.000000 
0 2.072900 4.377900 1.595100 -0.329208 0.886121 0.326208 0.766200 -0.141700 1 0 1.000000 
light_spotlight02
0 0.597100 3.715400 1.354000 -0.560211 0.771216 0.302306 0.766200 -0.196100 1 0 1.000000 
0 0.597100 3.035300 2.532000 -0.553425 0.635129 0.538824 0.811600 -0.196100 1 0 1.000000 
0 3.591400 3.858600 3.222800 -0.119198 0.760090 0.638792 0.811600 -0.085800 1 0 1.000000 
light_spotlight02
0 -0.661600 2.663900 0.971300 -0.447213 0.842825 0.299409 0.766200 -0.242500 1 0 1.000000 
0 0.597100 3.035300 2.532000 -0.553425 0.635129 0.538824 0.811600 -0.196100 1 0 1.000000 
0 0.597100 3.715400 1.354000 -0.560211 0.771216 0.302306 0.766200 -0.196100 1 0 1.000000 
light_spotlight02
0 -0.661600 2.663900 0.971300 -0.447213 0.842825 0.299409 0.766200 -0.242500 1 0 1.000000 
0 -0.661600 2.178100 1.812700 -0.498884 0.544483 0.674279 0.811600 -0.242500 1 0 1.000000 
0 0.597100 3.035300 2.532000 -0.553425 0.635129 0.538824 0.811600 -0.196100 1 0 1.000000 
light_spotlight02
0 -0.661600 2.178100 1.812700 -0.498884 0.544483 0.674279 0.811600 -0.242500 1 0 1.000000 
0 0.597100 1.993300 3.406400 -0.553399 0.412499 0.723598 0.856900 -0.196100 1 0 1.000000 
0 0.597100 3.035300 2.532000 -0.553425 0.635129 0.538824 0.811600 -0.196100 1 0 1.000000 
light_spotlight02
0 0.597100 3.035300 2.532000 -0.553425 0.635129 0.538824 0.811600 -0.196100 1 0 1.000000 
0 0.597100 1.993300 3.406400 -0.553399 0.412499 0.723598 0.856900 -0.196100 1 0 1.000000 
0 3.591400 2.530700 4.337100 -0.119197 0.495689 0.860281 0.856900 -0.085800 1 0 1.000000 
light_spotlight02
0 0.597100 3.035300 2.532000 -0.553425 0.635129 0.538824 0.811600 -0.196100 1 0 1.000000 
0 3.591400 2.530700 4.337100 -0.119197 0.495689 0.860281 0.856900 -0.085800 1 0 1.000000 
0 3.591400 3.858600 3.222800 -0.119198 0.760090 0.638792 0.811600 -0.085800 1 0 1.000000 
light_spotlight02
0 -0.661600 2.663900 -0.942400 -0.444083 0.870667 -0.211492 0.675400 -0.242500 1 0 1.000000 
0 0.597100 3.715400 1.354000 -0.560211 0.771216 0.302306 0.766200 -0.196100 1 0 1.000000 
0 0.597100 3.715400 -1.325100 -0.609897 0.730096 -0.308198 0.675400 -0.196100 1 0 1.000000 
light_spotlight02
0 -0.661600 2.663900 -0.942400 -0.444083 0.870667 -0.211492 0.675400 -0.242500 1 0 1.000000 
0 -0.661600 2.663900 0.971300 -0.447213 0.842825 0.299409 0.766200 -0.242500 1 0 1.000000 
0 0.597100 3.715400 1.354000 -0.560211 0.771216 0.302306 0.766200 -0.196100 1 0 1.000000 
light_spotlight02
0 3.591400 5.026400 0.014500 -0.119196 0.992870 0.000800 0.720800 -0.085800 1 0 1.000000 
0 3.591400 4.725400 1.721600 -0.119203 0.932727 0.340310 0.766200 -0.085800 1 0 1.000000 
0 5.089400 4.725400 1.721600 -0.000000 0.958137 0.286311 0.766200 -0.030600 1 0 1.000000 
light_spotlight02
0 3.591400 4.725400 1.721600 -0.119203 0.932727 0.340310 0.766200 -0.085800 1 0 1.000000 
0 5.089400 3.858600 3.222800 -0.000000 0.802441 0.596731 0.811600 -0.030600 1 0 1.000000 
0 5.089400 4.725400 1.721600 -0.000000 0.958137 0.286311 0.766200 -0.030600 1 0 1.000000 
light_spotlight02
0 3.591400 4.725400 1.721600 -0.119203 0.932727 0.340310 0.766200 -0.085800 1 0 1.000000 
0 3.591400 3.858600 3.222800 -0.119198 0.760090 0.638792 0.811600 -0.085800 1 0 1.000000 
0 5.089400 3.858600 3.222800 -0.000000 0.802441 0.596731 0.811600 -0.030600 1 0 1.000000 
light_spotlight02
0 3.591400 3.858600 3.222800 -0.119198 0.760090 0.638792 0.811600 -0.085800 1 0 1.000000 
0 5.089400 2.530700 4.337100 -0.000000 0.549984 0.835175 0.856900 -0.030600 1 0 1.000000 
0 5.089400 3.858600 3.222800 -0.000000 0.802441 0.596731 0.811600 -0.030600 1 0 1.000000 
light_spotlight02
0 3.591400 3.858600 3.222800 -0.119198 0.760090 0.638792 0.811600 -0.085800 1 0 1.000000 
0 3.591400 2.530700 4.337100 -0.119197 0.495689 0.860281 0.856900 -0.085800 1 0 1.000000 
0 5.089400 2.530700 4.337100 -0.000000 0.549984 0.835175 0.856900 -0.030600 1 0 1.000000 
light_spotlight02
0 3.591400 2.530700 4.337100 -0.119197 0.495689 0.860281 0.856900 -0.085800 1 0 1.000000 
0 5.089400 0.901700 4.930000 -0.000000 0.231107 0.972928 0.902300 -0.030600 1 0 1.000000 
0 5.089400 2.530700 4.337100 -0.000000 0.549984 0.835175 0.856900 -0.030600 1 0 1.000000 
light_spotlight02
0 3.591400 2.530700 4.337100 -0.119197 0.495689 0.860281 0.856900 -0.085800 1 0 1.000000 
0 3.591400 0.901700 4.930000 -0.119203 0.171605 0.977927 0.902300 -0.085800 1 0 1.000000 
0 5.089400 0.901700 4.930000 -0.000000 0.231107 0.972928 0.902300 -0.030600 1 0 1.000000 
light_spotlight02
0 0.597100 1.993300 3.406400 -0.553399 0.412499 0.723598 0.856900 -0.196100 1 0 1.000000 
0 3.591400 0.901700 4.930000 -0.119203 0.171605 0.977927 0.902300 -0.085800 1 0 1.000000 
0 3.591400 2.530700 4.337100 -0.119197 0.495689 0.860281 0.856900 -0.085800 1 0 1.000000 
light_spotlight02
0 0.597100 1.993300 3.406400 -0.553399 0.412499 0.723598 0.856900 -0.196100 1 0 1.000000 
0 0.597100 0.715100 3.871600 -0.553414 0.140204 0.821021 0.902300 -0.196100 1 0 1.000000 
0 3.591400 0.901700 4.930000 -0.119203 0.171605 0.977927 0.902300 -0.085800 1 0 1.000000 
light_spotlight02
0 -0.661600 2.178100 1.812700 -0.498884 0.544483 0.674279 0.811600 -0.242500 1 0 1.000000 
0 0.597100 0.715100 3.871600 -0.553414 0.140204 0.821021 0.902300 -0.196100 1 0 1.000000 
0 0.597100 1.993300 3.406400 -0.553399 0.412499 0.723598 0.856900 -0.196100 1 0 1.000000 
light_spotlight02
0 -0.661600 2.178100 1.812700 -0.498884 0.544483 0.674279 0.811600 -0.242500 1 0 1.000000 
0 -0.661600 0.520800 2.769500 -0.447209 0.162103 0.879617 0.902300 -0.242500 1 0 1.000000 
0 0.597100 0.715100 3.871600 -0.553414 0.140204 0.821021 0.902300 -0.196100 1 0 1.000000 
light_spotlight02
0 -4.901400 0.372400 1.927700 -0.197295 0.113297 0.973775 0.902300 -0.398700 1 0 1.000000 
0 -0.661600 0.520800 2.769500 -0.447209 0.162103 0.879617 0.902300 -0.242500 1 0 1.000000 
0 -0.661600 2.178100 1.812700 -0.498884 0.544483 0.674279 0.811600 -0.242500 1 0 1.000000 
light_spotlight02
0 -4.901400 1.523300 1.263200 -0.210297 0.785088 0.582591 0.811600 -0.398700 1 0 1.000000 
0 -4.901400 0.372400 1.927700 -0.197295 0.113297 0.973775 0.902300 -0.398700 1 0 1.000000 
0 -0.661600 2.178100 1.812700 -0.498884 0.544483 0.674279 0.811600 -0.242500 1 0 1.000000 
light_spotlight02
0 -4.901400 1.523300 1.263200 -0.210297 0.785088 0.582591 0.811600 -0.398700 1 0 1.000000 
0 -0.661600 2.178100 1.812700 -0.498884 0.544483 0.674279 0.811600 -0.242500 1 0 1.000000 
0 -0.661600 2.663900 0.971300 -0.447213 0.842825 0.299409 0.766200 -0.242500 1 0 1.000000 
light_spotlight02
0 -4.901400 1.977800 0.014400 -0.197291 0.978657 0.057497 0.720800 -0.398700 1 0 1.000000 
0 -4.901400 1.523300 1.263200 -0.210297 0.785088 0.582591 0.811600 -0.398700 1 0 1.000000 
0 -0.661600 2.663900 0.971300 -0.447213 0.842825 0.299409 0.766200 -0.242500 1 0 1.000000 
light_spotlight02
0 -4.901400 1.977800 0.014400 -0.197291 0.978657 0.057497 0.720800 -0.398700 1 0 1.000000 
0 -0.661600 2.663900 0.971300 -0.447213 0.842825 0.299409 0.766200 -0.242500 1 0 1.000000 
0 -0.661600 2.663900 -0.942400 -0.444083 0.870667 -0.211492 0.675400 -0.242500 1 0 1.000000 
light_spotlight02
0 -4.901400 1.523300 -1.234300 -0.194808 0.849434 -0.490420 0.630000 -0.398700 1 0 1.000000 
0 -4.901400 1.977800 0.014400 -0.197291 0.978657 0.057497 0.720800 -0.398700 1 0 1.000000 
0 -0.661600 2.663900 -0.942400 -0.444083 0.870667 -0.211492 0.675400 -0.242500 1 0 1.000000 
light_spotlight02
0 -4.901400 1.523300 -1.234300 -0.194808 0.849434 -0.490420 0.630000 -0.398700 1 0 1.000000 
0 -0.661600 2.663900 -0.942400 -0.444083 0.870667 -0.211492 0.675400 -0.242500 1 0 1.000000 
0 -0.661600 2.178100 -1.783800 -0.561101 0.681301 -0.470101 0.630000 -0.242500 1 0 1.000000 
light_spotlight02
0 0.597100 -3.645400 1.354000 0.161203 0.000000 -0.986921 0.373600 -0.613500 1 0 1.000000 
0 2.072900 -3.649300 1.595100 0.161203 0.000000 -0.986921 0.437700 -0.650700 1 0 1.000000 
0 2.072900 -4.307900 1.595100 0.161203 0.000000 -0.986921 0.421200 -0.679400 1 0 1.000000 
light_spotlight02
0 -0.499700 4.651700 0.007200 -0.923877 -0.000000 -0.382690 0.666000 -0.056200 1 0 1.000000 
0 -0.003500 -4.588700 -0.488900 -0.161493 0.005600 -0.986858 0.643400 -0.434800 1 0 1.000000 
0 -0.499700 -4.588700 0.007200 -1.000000 -0.000000 0.000000 0.666000 -0.434800 1 0 1.000000 
light_spotlight02
0 -0.499700 4.651700 0.007200 -0.923877 -0.000000 -0.382690 0.666000 -0.056200 1 0 1.000000 
0 0.347300 4.651700 -0.343600 0.195206 0.008000 -0.980730 0.632100 -0.056200 1 0 1.000000 
0 -0.003500 -4.588700 -0.488900 -0.161493 0.005600 -0.986858 0.643400 -0.434800 1 0 1.000000 
light_spotlight02
0 0.347300 4.651700 -0.343600 0.195206 0.008000 -0.980730 0.632100 -0.056200 1 0 1.000000 
0 0.492600 -4.588700 0.007200 0.999938 -0.011100 0.000100 0.620900 -0.434800 1 0 1.000000 
0 -0.003500 -4.588700 -0.488900 -0.161493 0.005600 -0.986858 0.643400 -0.434800 1 0 1.000000 
light_spotlight02
0 -0.003500 4.651700 0.503400 0.707107 0.000000 0.707107 0.598300 -0.056200 1 0 1.000000 
0 -0.003500 -4.588700 0.503400 0.000000 0.000000 1.000000 0.598300 -0.434800 1 0 1.000000 
0 0.492600 -4.588700 0.007200 0.999938 -0.011100 0.000100 0.620900 -0.434800 1 0 1.000000 
light_spotlight02
0 -0.499700 4.651700 0.007200 -0.889299 0.014400 -0.457099 0.575700 -0.056200 1 0 1.000000 
0 -0.499700 -4.588700 0.007200 -1.000000 -0.000000 0.000000 0.575700 -0.434800 1 0 1.000000 
0 -0.003500 -4.588700 0.503400 0.000000 0.000000 1.000000 0.598300 -0.434800 1 0 1.000000 
light_spotlight02
0 0.597100 3.715400 -1.325100 0.167301 -0.013900 0.985808 0.558600 -0.294300 1 0 1.000000 
0 2.072000 3.717100 -1.575400 0.167301 -0.013900 0.985808 0.622800 -0.331400 1 0 1.000000 
0 2.072900 4.377900 -1.566200 0.167301 -0.013900 0.985808 0.639500 -0.302600 1 0 1.000000 
light_spotlight02
0 0.597100 3.715400 -1.325100 -0.001100 0.999999 0.000000 0.561200 -0.609900 1 0 1.000000 
0 0.597100 3.715400 1.354000 -0.001100 0.999999 0.000000 0.561200 -0.388200 1 0 1.000000 
0 2.072000 3.717100 1.586000 -0.001100 0.999999 0.000000 0.439200 -0.369000 1 0 1.000000 
light_spotlight02
0 2.072000 3.717100 1.586000 -0.001100 0.999999 0.000000 0.439200 -0.369000 1 0 1.000000 
0 2.072000 3.717100 -1.575400 -0.001100 0.999999 0.000000 0.439200 -0.630600 1 0 1.000000 
0 0.597100 3.715400 -1.325100 -0.001100 0.999999 0.000000 0.561200 -0.609900 1 0 1.000000 
light_spotlight02
0 0.597100 -3.645400 1.354000 -0.002600 -0.999996 0.000000 0.561200 -0.388200 1 0 1.000000 
0 0.597100 -3.645400 -1.325100 -0.002600 -0.999996 0.000000 0.561200 -0.609900 1 0 1.000000 
0 2.072900 -3.649300 -1.566200 -0.002600 -0.999996 0.000000 0.439100 -0.629900 1 0 1.000000 
light_spotlight02
0 2.072900 -3.649300 -1.566200 -0.002600 -0.999996 0.000000 0.439100 -0.629900 1 0 1.000000 
0 2.072900 -3.649300 1.595100 -0.002600 -0.999996 0.000000 0.439100 -0.368300 1 0 1.000000 
0 0.597100 -3.645400 1.354000 -0.002600 -0.999996 0.000000 0.561200 -0.388200 1 0 1.000000 
light_spotlight02
0 -4.727800 0.122500 2.158100 -0.200804 0.912419 0.356607 0.649600 -0.369600 1 0 1.000000 
0 0.095900 -0.115500 3.391100 -0.087402 -0.825015 0.558310 0.355900 -0.294600 1 0 1.000000 
0 -0.633900 0.213700 2.452700 0.119799 0.801191 -0.586294 0.400300 -0.351700 1 0 1.000000 
light_spotlight02
0 0.095900 -0.115500 3.391100 -0.087402 -0.825015 0.558310 0.355900 -0.294600 1 0 1.000000 
0 -4.727800 0.122500 2.158100 -0.200804 0.912419 0.356607 0.649600 -0.369600 1 0 1.000000 
0 -4.812200 -0.163400 1.737900 -0.011000 -0.898612 -0.438606 0.654700 -0.395300 1 0 1.000000 
light_spotlight02
0 -4.812200 -0.163400 1.737900 -0.011000 -0.898612 -0.438606 0.654700 -0.395300 1 0 1.000000 
0 -0.633900 0.213700 2.452700 0.119799 0.801191 -0.586294 0.400300 -0.351700 1 0 1.000000 
0 0.095900 -0.115500 3.391100 -0.087402 -0.825015 0.558310 0.355900 -0.294600 1 0 1.000000 
light_spotlight02
0 -0.633900 0.213700 2.452700 0.119799 0.801191 -0.586294 0.400300 -0.351700 1 0 1.000000 
0 -4.812200 -0.163400 1.737900 -0.011000 -0.898612 -0.438606 0.654700 -0.395300 1 0 1.000000 
0 -4.727800 0.122500 2.158100 -0.200804 0.912419 0.356607 0.649600 -0.369600 1 0 1.000000 
light_spotlight02
0 5.775600 0.035000 0.014500 1.000000 0.000000 0.000000 0.125000 -0.875000 1 0 1.000000 
0 5.523200 0.770200 -4.155000 0.998228 0.010300 -0.058602 0.144600 -0.986100 1 0 1.000000 
0 5.523200 3.278300 -2.707000 0.998225 0.045601 -0.038301 0.211400 -0.947500 1 0 1.000000 
light_spotlight02
0 5.775600 0.035000 0.014500 1.000000 0.000000 0.000000 0.125000 -0.875000 1 0 1.000000 
0 5.523200 -2.081900 -3.652100 0.998228 -0.029801 -0.051501 0.068600 -0.972700 1 0 1.000000 
0 5.523200 0.770200 -4.155000 0.998228 0.010300 -0.058602 0.144600 -0.986100 1 0 1.000000 
light_spotlight02
0 5.775600 0.035000 0.014500 1.000000 0.000000 0.000000 0.125000 -0.875000 1 0 1.000000 
0 5.523200 -3.943400 -1.433600 0.998228 -0.055902 -0.020401 0.019000 -0.913600 1 0 1.000000 
0 5.523200 -2.081900 -3.652100 0.998228 -0.029801 -0.051501 0.068600 -0.972700 1 0 1.000000 
light_spotlight02
0 5.775600 0.035000 0.014500 1.000000 0.000000 0.000000 0.125000 -0.875000 1 0 1.000000 
0 5.523200 -3.943400 1.462500 0.998228 -0.055902 0.020401 0.019000 -0.836400 1 0 1.000000 
0 5.523200 -3.943400 -1.433600 0.998228 -0.055902 -0.020401 0.019000 -0.913600 1 0 1.000000 
light_spotlight02
0 5.775600 0.035000 0.014500 1.000000 0.000000 0.000000 0.125000 -0.875000 1 0 1.000000 
0 5.523200 -2.081900 3.681000 0.998228 -0.029801 0.051501 0.068600 -0.777300 1 0 1.000000 
0 5.523200 -3.943400 1.462500 0.998228 -0.055902 0.020401 0.019000 -0.836400 1 0 1.000000 
light_spotlight02
0 5.775600 0.035000 0.014500 1.000000 0.000000 0.000000 0.125000 -0.875000 1 0 1.000000 
0 5.523200 0.770200 4.183900 0.998228 0.010300 0.058602 0.144600 -0.763900 1 0 1.000000 
0 5.523200 -2.081900 3.681000 0.998228 -0.029801 0.051501 0.068600 -0.777300 1 0 1.000000 
light_spotlight02
0 5.775600 0.035000 0.014500 1.000000 0.000000 0.000000 0.125000 -0.875000 1 0 1.000000 
0 5.523200 3.278300 2.735900 0.998225 0.045601 0.038301 0.211400 -0.802500 1 0 1.000000 
0 5.523200 0.770200 4.183900 0.998228 0.010300 0.058602 0.144600 -0.763900 1 0 1.000000 
light_spotlight02
0 5.775600 0.035000 0.014500 1.000000 0.000000 0.000000 0.125000 -0.875000 1 0 1.000000 
0 5.523200 4.268800 0.014500 0.998228 0.059502 0.000000 0.237800 -0.875000 1 0 1.000000 
0 5.523200 3.278300 2.735900 0.998225 0.045601 0.038301 0.211400 -0.802500 1 0 1.000000 
light_spotlight02
0 5.775600 0.035000 0.014500 1.000000 0.000000 0.000000 0.125000 -0.875000 1 0 1.000000 
0 5.523200 3.278300 -2.707000 0.998225 0.045601 -0.038301 0.211400 -0.947500 1 0 1.000000 
0 5.523200 4.268800 0.014500 0.998228 0.059502 0.000000 0.237800 -0.875000 1 0 1.000000 
light_spotlight02
0 4.852700 3.542900 2.957900 0.457398 0.646497 0.610597 0.218500 -0.796600 1 0 1.000000 
0 4.852700 2.324600 3.980200 0.532271 0.423277 0.733160 0.186000 -0.769300 1 0 1.000000 
0 5.523200 3.278300 2.735900 0.578787 0.624686 0.524188 0.211400 -0.802500 1 0 1.000000 
light_spotlight02
0 4.852700 2.324600 3.980200 0.532271 0.423277 0.733160 0.186000 -0.769300 1 0 1.000000 
0 5.523200 0.770200 4.183900 0.578791 0.141598 0.803088 0.144600 -0.763900 1 0 1.000000 
0 5.523200 3.278300 2.735900 0.578787 0.624686 0.524188 0.211400 -0.802500 1 0 1.000000 
light_spotlight02
0 4.852700 2.324600 3.980200 0.532271 0.423277 0.733160 0.186000 -0.769300 1 0 1.000000 
0 4.852700 0.830200 4.524100 0.457400 0.102800 0.883299 0.146200 -0.754800 1 0 1.000000 
0 5.523200 0.770200 4.183900 0.578791 0.141598 0.803088 0.144600 -0.763900 1 0 1.000000 
light_spotlight02
0 4.852700 0.830200 4.524100 0.457400 0.102800 0.883299 0.146200 -0.754800 1 0 1.000000 
0 4.852700 -0.760200 4.524100 0.532298 -0.146999 0.833697 0.103800 -0.754800 1 0 1.000000 
0 5.523200 0.770200 4.183900 0.578791 0.141598 0.803088 0.144600 -0.763900 1 0 1.000000 
light_spotlight02
0 4.852700 -0.760200 4.524100 0.532298 -0.146999 0.833697 0.103800 -0.754800 1 0 1.000000 
0 5.523200 -2.081900 3.681000 0.578815 -0.407711 0.706219 0.068600 -0.777300 1 0 1.000000 
0 5.523200 0.770200 4.183900 0.578791 0.141598 0.803088 0.144600 -0.763900 1 0 1.000000 
light_spotlight02
0 4.852700 -0.760200 4.524100 0.532298 -0.146999 0.833697 0.103800 -0.754800 1 0 1.000000 
0 4.852700 -2.254600 3.980200 0.457414 -0.489015 0.742723 0.064000 -0.769300 1 0 1.000000 
0 5.523200 -2.081900 3.681000 0.578815 -0.407711 0.706219 0.068600 -0.777300 1 0 1.000000 
light_spotlight02
0 4.852700 -2.254600 3.980200 0.457414 -0.489015 0.742723 0.064000 -0.769300 1 0 1.000000 
0 4.852700 -3.472900 2.957900 0.532287 -0.648484 0.544187 0.031500 -0.796600 1 0 1.000000 
0 5.523200 -2.081900 3.681000 0.578815 -0.407711 0.706219 0.068600 -0.777300 1 0 1.000000 
light_spotlight02
0 4.852700 -3.472900 2.957900 0.532287 -0.648484 0.544187 0.031500 -0.796600 1 0 1.000000 
0 5.523200 -3.943400 1.462500 0.578797 -0.766296 0.278899 0.019000 -0.836400 1 0 1.000000 
0 5.523200 -2.081900 3.681000 0.578815 -0.407711 0.706219 0.068600 -0.777300 1 0 1.000000 
light_spotlight02
0 4.852700 -3.472900 2.957900 0.532287 -0.648484 0.544187 0.031500 -0.796600 1 0 1.000000 
0 4.852700 -4.268100 1.580600 0.457414 -0.852026 0.254608 0.010300 -0.833300 1 0 1.000000 
0 5.523200 -3.943400 1.462500 0.578797 -0.766296 0.278899 0.019000 -0.836400 1 0 1.000000 
light_spotlight02
0 4.852700 -4.268100 1.580600 0.457414 -0.852026 0.254608 0.010300 -0.833300 1 0 1.000000 
0 4.852700 -4.544200 0.014400 0.532280 -0.846568 0.000000 0.003000 -0.875000 1 0 1.000000 
0 5.523200 -3.943400 1.462500 0.578797 -0.766296 0.278899 0.019000 -0.836400 1 0 1.000000 
light_spotlight02
0 4.852700 -4.544200 0.014400 0.532280 -0.846568 0.000000 0.003000 -0.875000 1 0 1.000000 
0 5.523200 -3.943400 -1.433600 0.578797 -0.766296 -0.278899 0.019000 -0.913600 1 0 1.000000 
0 5.523200 -3.943400 1.462500 0.578797 -0.766296 0.278899 0.019000 -0.836400 1 0 1.000000 
light_spotlight02
0 4.852700 -4.544200 0.014400 0.532280 -0.846568 0.000000 0.003000 -0.875000 1 0 1.000000 
0 4.852700 -4.268100 -1.551700 0.457426 -0.816346 -0.352620 0.010300 -0.916700 1 0 1.000000 
0 5.523200 -3.943400 -1.433600 0.578797 -0.766296 -0.278899 0.019000 -0.913600 1 0 1.000000 
light_spotlight02
0 4.852700 -4.268100 -1.551700 0.457426 -0.816346 -0.352620 0.010300 -0.916700 1 0 1.000000 
0 4.852700 -3.472900 -2.929000 0.532287 -0.648484 -0.544187 0.031500 -0.953400 1 0 1.000000 
0 5.523200 -3.943400 -1.433600 0.578797 -0.766296 -0.278899 0.019000 -0.913600 1 0 1.000000 
light_spotlight02
0 4.852700 -3.472900 -2.929000 0.532287 -0.648484 -0.544187 0.031500 -0.953400 1 0 1.000000 
0 5.523200 -2.081900 -3.652100 0.578815 -0.407711 -0.706219 0.068600 -0.972700 1 0 1.000000 
0 5.523200 -3.943400 -1.433600 0.578797 -0.766296 -0.278899 0.019000 -0.913600 1 0 1.000000 
light_spotlight02
0 4.852700 -3.472900 -2.929000 0.532287 -0.648484 -0.544187 0.031500 -0.953400 1 0 1.000000 
0 4.852700 -2.254600 -3.951300 0.457390 -0.398691 -0.794883 0.064000 -0.980700 1 0 1.000000 
0 5.523200 -2.081900 -3.652100 0.578815 -0.407711 -0.706219 0.068600 -0.972700 1 0 1.000000 
light_spotlight02
0 4.852700 -2.254600 -3.951300 0.457390 -0.398691 -0.794883 0.064000 -0.980700 1 0 1.000000 
0 4.852700 -0.760200 -4.495200 0.532298 -0.146999 -0.833697 0.103800 -0.995200 1 0 1.000000 
0 5.523200 -2.081900 -3.652100 0.578815 -0.407711 -0.706219 0.068600 -0.972700 1 0 1.000000 
light_spotlight02
0 4.852700 -0.760200 -4.495200 0.532298 -0.146999 -0.833697 0.103800 -0.995200 1 0 1.000000 
0 5.523200 0.770200 -4.155000 0.578791 0.141598 -0.803088 0.144600 -0.986100 1 0 1.000000 
0 5.523200 -2.081900 -3.652100 0.578815 -0.407711 -0.706219 0.068600 -0.972700 1 0 1.000000 
light_spotlight02
0 4.852700 -0.760200 -4.495200 0.532298 -0.146999 -0.833697 0.103800 -0.995200 1 0 1.000000 
0 4.852700 0.830200 -4.495200 0.457396 0.205498 -0.865193 0.146200 -0.995200 1 0 1.000000 
0 5.523200 0.770200 -4.155000 0.578791 0.141598 -0.803088 0.144600 -0.986100 1 0 1.000000 
light_spotlight02
0 4.852700 0.830200 -4.495200 0.457396 0.205498 -0.865193 0.146200 -0.995200 1 0 1.000000 
0 4.852700 2.324600 -3.951300 0.532271 0.423277 -0.733160 0.186000 -0.980700 1 0 1.000000 
0 5.523200 0.770200 -4.155000 0.578791 0.141598 -0.803088 0.144600 -0.986100 1 0 1.000000 
light_spotlight02
0 4.852700 2.324600 -3.951300 0.532271 0.423277 -0.733160 0.186000 -0.980700 1 0 1.000000 
0 5.523200 3.278300 -2.707000 0.578787 0.624686 -0.524188 0.211400 -0.947500 1 0 1.000000 
0 5.523200 0.770200 -4.155000 0.578791 0.141598 -0.803088 0.144600 -0.986100 1 0 1.000000 
light_spotlight02
0 4.852700 2.324600 -3.951300 0.532271 0.423277 -0.733160 0.186000 -0.980700 1 0 1.000000 
0 4.852700 3.542900 -2.929000 0.457405 0.713608 -0.530606 0.218500 -0.953400 1 0 1.000000 
0 5.523200 3.278300 -2.707000 0.578787 0.624686 -0.524188 0.211400 -0.947500 1 0 1.000000 
light_spotlight02
0 4.852700 3.542900 -2.929000 0.457405 0.713608 -0.530606 0.218500 -0.953400 1 0 1.000000 
0 4.852700 4.338100 -1.551700 0.532307 0.795510 -0.289504 0.239700 -0.916700 1 0 1.000000 
0 5.523200 3.278300 -2.707000 0.578787 0.624686 -0.524188 0.211400 -0.947500 1 0 1.000000 
light_spotlight02
0 4.852700 4.338100 -1.551700 0.532307 0.795510 -0.289504 0.239700 -0.916700 1 0 1.000000 
0 5.523200 4.268800 0.014500 0.578786 0.815480 0.000000 0.237800 -0.875000 1 0 1.000000 
0 5.523200 3.278300 -2.707000 0.578787 0.624686 -0.524188 0.211400 -0.947500 1 0 1.000000 
light_spotlight02
0 4.852700 4.338100 -1.551700 0.532307 0.795510 -0.289504 0.239700 -0.916700 1 0 1.000000 
0 4.852700 4.614200 0.014500 0.457411 0.887722 0.052201 0.247000 -0.875000 1 0 1.000000 
0 5.523200 4.268800 0.014500 0.578786 0.815480 0.000000 0.237800 -0.875000 1 0 1.000000 
light_spotlight02
0 4.852700 4.614200 0.014500 0.457411 0.887722 0.052201 0.247000 -0.875000 1 0 1.000000 
0 4.852700 4.338100 1.580600 0.532307 0.795510 0.289504 0.239700 -0.833300 1 0 1.000000 
0 5.523200 4.268800 0.014500 0.578786 0.815480 0.000000 0.237800 -0.875000 1 0 1.000000 
light_spotlight02
0 4.852700 4.338100 1.580600 0.532307 0.795510 0.289504 0.239700 -0.833300 1 0 1.000000 
0 5.523200 3.278300 2.735900 0.578787 0.624686 0.524188 0.211400 -0.802500 1 0 1.000000 
0 5.523200 4.268800 0.014500 0.578786 0.815480 0.000000 0.237800 -0.875000 1 0 1.000000 
light_spotlight02
0 4.852700 4.338100 1.580600 0.532307 0.795510 0.289504 0.239700 -0.833300 1 0 1.000000 
0 4.852700 3.542900 2.957900 0.457398 0.646497 0.610597 0.218500 -0.796600 1 0 1.000000 
0 5.523200 3.278300 2.735900 0.578787 0.624686 0.524188 0.211400 -0.802500 1 0 1.000000 
light_spotlight02
0 5.089400 -4.956400 0.014400 1.000000 0.000000 0.000000 0.480700 -0.264900 1 0 1.000000 
0 5.089400 -2.460700 4.337100 1.000000 0.000000 0.000000 0.600000 -0.058400 1 0 1.000000 
0 5.089400 -3.788600 3.222800 1.000000 0.000000 0.000000 0.536500 -0.111600 1 0 1.000000 
light_spotlight02
0 5.089400 -4.956400 0.014400 1.000000 0.000000 0.000000 0.480700 -0.264900 1 0 1.000000 
0 5.089400 -0.831700 4.930000 1.000000 0.000000 0.000000 0.677800 -0.030100 1 0 1.000000 
0 5.089400 -2.460700 4.337100 1.000000 0.000000 0.000000 0.600000 -0.058400 1 0 1.000000 
light_spotlight02
0 5.089400 -4.956400 0.014400 1.000000 0.000000 0.000000 0.480700 -0.264900 1 0 1.000000 
0 5.089400 0.901700 4.930000 1.000000 0.000000 0.000000 0.760600 -0.030100 1 0 1.000000 
0 5.089400 -0.831700 4.930000 1.000000 0.000000 0.000000 0.677800 -0.030100 1 0 1.000000 
light_spotlight02
0 5.089400 -4.956400 0.014400 1.000000 0.000000 0.000000 0.480700 -0.264900 1 0 1.000000 
0 5.089400 2.530700 4.337100 1.000000 0.000000 0.000000 0.838400 -0.058400 1 0 1.000000 
0 5.089400 0.901700 4.930000 1.000000 0.000000 0.000000 0.760600 -0.030100 1 0 1.000000 
light_spotlight02
0 5.089400 -4.956400 0.014400 1.000000 0.000000 0.000000 0.480700 -0.264900 1 0 1.000000 
0 5.089400 3.858600 3.222800 1.000000 0.000000 0.000000 0.901800 -0.111600 1 0 1.000000 
0 5.089400 2.530700 4.337100 1.000000 0.000000 0.000000 0.838400 -0.058400 1 0 1.000000 
light_spotlight02
0 5.089400 -4.956400 0.014400 1.000000 0.000000 0.000000 0.480700 -0.264900 1 0 1.000000 
0 5.089400 4.725400 1.721600 1.000000 0.000000 0.000000 0.943200 -0.183300 1 0 1.000000 
0 5.089400 3.858600 3.222800 1.000000 0.000000 0.000000 0.901800 -0.111600 1 0 1.000000 
light_spotlight02
0 5.089400 -4.956400 0.014400 1.000000 0.000000 0.000000 0.480700 -0.264900 1 0 1.000000 
0 5.089400 5.026400 0.014500 1.000000 0.000000 0.000000 0.957600 -0.264900 1 0 1.000000 
0 5.089400 4.725400 1.721600 1.000000 0.000000 0.000000 0.943200 -0.183300 1 0 1.000000 
light_spotlight02
0 5.089400 -4.956400 0.014400 1.000000 0.000000 0.000000 0.480700 -0.264900 1 0 1.000000 
0 5.089400 4.725400 -1.692700 1.000000 0.000000 0.000000 0.943200 -0.346400 1 0 1.000000 
0 5.089400 5.026400 0.014500 1.000000 0.000000 0.000000 0.957600 -0.264900 1 0 1.000000 
light_spotlight02
0 5.089400 -4.956400 0.014400 1.000000 0.000000 0.000000 0.480700 -0.264900 1 0 1.000000 
0 5.089400 2.530700 -4.308200 1.000000 0.000000 0.000000 0.838400 -0.471400 1 0 1.000000 
0 5.089400 4.725400 -1.692700 1.000000 0.000000 0.000000 0.943200 -0.346400 1 0 1.000000 
light_spotlight02
0 5.089400 -4.956400 0.014400 1.000000 0.000000 0.000000 0.480700 -0.264900 1 0 1.000000 
0 5.089400 0.901800 -4.901100 1.000000 0.000000 0.000000 0.760600 -0.499700 1 0 1.000000 
0 5.089400 2.530700 -4.308200 1.000000 0.000000 0.000000 0.838400 -0.471400 1 0 1.000000 
light_spotlight02
0 5.089400 -4.956400 0.014400 1.000000 0.000000 0.000000 0.480700 -0.264900 1 0 1.000000 
0 5.089400 -2.460700 -4.308200 1.000000 0.000000 0.000000 0.600000 -0.471400 1 0 1.000000 
0 5.089400 0.901800 -4.901100 1.000000 0.000000 0.000000 0.760600 -0.499700 1 0 1.000000 
light_spotlight02
0 5.089400 -4.956400 0.014400 1.000000 0.000000 0.000000 0.480700 -0.264900 1 0 1.000000 
0 5.089400 -4.655300 -1.692700 1.000000 0.000000 0.000000 0.495100 -0.346400 1 0 1.000000 
0 5.089400 -2.460700 -4.308200 1.000000 0.000000 0.000000 0.600000 -0.471400 1 0 1.000000 
light_spotlight02
0 0.597100 -3.645400 -1.325100 0.161203 0.000000 0.986921 0.373600 -0.614700 1 0 1.000000 
0 2.072900 -4.307900 -1.566200 0.161203 0.000000 0.986921 0.421200 -0.680700 1 0 1.000000 
0 2.072900 -3.649300 -1.566200 0.161203 0.000000 0.986921 0.437700 -0.652100 1 0 1.000000 
light_spotlight02
0 -4.901400 1.977800 0.014400 -1.000000 -0.000000 0.000000 0.281200 -0.500000 1 0 1.000000 
0 -4.901400 0.372400 1.927700 -1.000000 -0.000000 0.000000 0.383500 -0.378100 1 0 1.000000 
0 -4.901400 1.523300 1.263200 -1.000000 -0.000000 0.000000 0.310200 -0.420400 1 0 1.000000 
light_spotlight02
0 -4.901400 1.977800 0.014400 -1.000000 -0.000000 0.000000 0.281200 -0.500000 1 0 1.000000 
0 -4.901400 -1.453200 1.263200 -1.000000 -0.000000 0.000000 0.499800 -0.420400 1 0 1.000000 
0 -4.901400 0.372400 1.927700 -1.000000 -0.000000 0.000000 0.383500 -0.378100 1 0 1.000000 
light_spotlight02
0 -4.901400 1.977800 0.014400 -1.000000 -0.000000 0.000000 0.281200 -0.500000 1 0 1.000000 
0 -4.901400 -1.790600 -0.650000 -1.000000 -0.000000 0.000000 0.521300 -0.542300 1 0 1.000000 
0 -4.901400 -1.453200 1.263200 -1.000000 -0.000000 0.000000 0.499800 -0.420400 1 0 1.000000 
light_spotlight02
0 -4.901400 1.977800 0.014400 -1.000000 -0.000000 0.000000 0.281200 -0.500000 1 0 1.000000 
0 -4.901400 -0.936400 -1.668000 -1.000000 -0.000000 0.000000 0.466900 -0.607200 1 0 1.000000 
0 -4.901400 -1.790600 -0.650000 -1.000000 -0.000000 0.000000 0.521300 -0.542300 1 0 1.000000 
light_spotlight02
0 -4.901400 1.977800 0.014400 -1.000000 -0.000000 0.000000 0.281200 -0.500000 1 0 1.000000 
0 -4.901400 0.372400 -1.898800 -1.000000 -0.000000 0.000000 0.383500 -0.621900 1 0 1.000000 
0 -4.901400 -0.936400 -1.668000 -1.000000 -0.000000 0.000000 0.466900 -0.607200 1 0 1.000000 
light_spotlight02
0 -4.901400 1.977800 0.014400 -1.000000 -0.000000 0.000000 0.281200 -0.500000 1 0 1.000000 
0 -4.901400 1.523300 -1.234300 -1.000000 -0.000000 0.000000 0.310200 -0.579600 1 0 1.000000 
0 -4.901400 0.372400 -1.898800 -1.000000 -0.000000 0.000000 0.383500 -0.621900 1 0 1.000000 
light_spotlight02
0 2.072900 -3.649300 -1.566200 -1.000000 -0.000000 0.000000 0.670500 -0.572300 1 0 1.000000 
0 2.072900 -4.307900 -1.566200 -1.000000 -0.000000 0.000000 0.701000 -0.572300 1 0 1.000000 
0 2.072900 -3.649300 1.595100 -1.000000 -0.000000 0.000000 0.670500 -0.425900 1 0 1.000000 
light_spotlight02
0 2.072900 -4.307900 -1.566200 -1.000000 -0.000000 0.000000 0.701000 -0.572300 1 0 1.000000 
0 2.072900 -4.307900 1.595100 -1.000000 -0.000000 0.000000 0.701000 -0.425900 1 0 1.000000 
0 2.072900 -3.649300 1.595100 -1.000000 -0.000000 0.000000 0.670500 -0.425900 1 0 1.000000 
light_spotlight02
0 0.597100 3.715400 1.354000 0.155296 0.013500 -0.987776 0.558600 -0.293100 1 0 1.000000 
0 2.072900 4.377900 1.595100 0.155296 0.013500 -0.987776 0.639500 -0.301300 1 0 1.000000 
0 2.072000 3.717100 1.586000 0.155296 0.013500 -0.987776 0.622800 -0.330000 1 0 1.000000 
light_spotlight02
0 5.187800 -4.451000 2.846200 0.538510 -0.200504 0.818416 0.791900 -0.563000 1 0 1.000000 
0 5.187800 -4.164800 2.062900 0.507207 0.084101 -0.857711 0.791900 -0.722000 1 0 1.000000 
0 4.489300 -3.872900 2.568500 -0.552307 0.761510 0.339204 0.965500 -0.722000 1 0 1.000000 
light_spotlight02
0 4.555300 -4.694300 2.424800 -0.499789 -0.828982 -0.250995 0.949100 -0.563000 1 0 1.000000 
0 4.489300 -3.872900 2.568500 -0.552307 0.761510 0.339204 0.965500 -0.722000 1 0 1.000000 
0 5.187800 -4.164800 2.062900 0.507207 0.084101 -0.857711 0.791900 -0.722000 1 0 1.000000 
light_spotlight02
0 5.187800 -4.164800 2.062900 0.507207 0.084101 -0.857711 0.791900 -0.722000 1 0 1.000000 
0 5.187800 -4.451000 2.846200 0.538510 -0.200504 0.818416 0.791900 -0.563000 1 0 1.000000 
0 4.555300 -4.694300 2.424800 -0.499789 -0.828982 -0.250995 0.949100 -0.563000 1 0 1.000000 
light_spotlight02
0 4.489300 -3.872900 2.568500 -0.552307 0.761510 0.339204 0.965500 -0.722000 1 0 1.000000 
0 4.555300 -4.694300 2.424800 -0.499789 -0.828982 -0.250995 0.949100 -0.563000 1 0 1.000000 
0 5.187800 -4.451000 2.846200 0.538510 -0.200504 0.818416 0.791900 -0.563000 1 0 1.000000 
light_spotlight02
0 5.187800 0.239300 5.277800 0.538493 0.608492 0.582892 0.791900 -0.563000 1 0 1.000000 
0 5.187800 -0.295900 4.638300 0.507181 -0.700773 -0.501681 0.791900 -0.722000 1 0 1.000000 
0 4.489300 0.288000 4.638300 -0.552303 0.674504 -0.489903 0.965500 -0.722000 1 0 1.000000 
light_spotlight02
0 4.555300 -0.247200 5.277800 -0.499791 -0.631889 0.592389 0.949100 -0.563000 1 0 1.000000 
0 4.489300 0.288000 4.638300 -0.552303 0.674504 -0.489903 0.965500 -0.722000 1 0 1.000000 
0 5.187800 -0.295900 4.638300 0.507181 -0.700773 -0.501681 0.791900 -0.722000 1 0 1.000000 
light_spotlight02
0 5.187800 -0.295900 4.638300 0.507181 -0.700773 -0.501681 0.791900 -0.722000 1 0 1.000000 
0 5.187800 0.239300 5.277800 0.538493 0.608492 0.582892 0.791900 -0.563000 1 0 1.000000 
0 4.555300 -0.247200 5.277800 -0.499791 -0.631889 0.592389 0.949100 -0.563000 1 0 1.000000 
light_spotlight02
0 4.489300 0.288000 4.638300 -0.552303 0.674504 -0.489903 0.965500 -0.722000 1 0 1.000000 
0 4.555300 -0.247200 5.277800 -0.499791 -0.631889 0.592389 0.949100 -0.563000 1 0 1.000000 
0 5.187800 0.239300 5.277800 0.538493 0.608492 0.582892 0.791900 -0.563000 1 0 1.000000 
light_spotlight02
0 5.187800 4.451000 -2.846200 0.538510 0.200504 -0.818416 0.791900 -0.722000 1 0 1.000000 
0 5.187800 4.164800 -2.062900 0.507207 -0.084101 0.857711 0.791900 -0.563000 1 0 1.000000 
0 4.489300 3.872900 -2.568500 -0.552307 -0.761510 -0.339204 0.965500 -0.563000 1 0 1.000000 
light_spotlight02
0 4.555300 4.694300 -2.424800 -0.499789 0.828982 0.250995 0.949100 -0.722000 1 0 1.000000 
0 4.489300 3.872900 -2.568500 -0.552307 -0.761510 -0.339204 0.965500 -0.563000 1 0 1.000000 
0 5.187800 4.164800 -2.062900 0.507207 -0.084101 0.857711 0.791900 -0.563000 1 0 1.000000 
light_spotlight02
0 5.187800 4.164800 -2.062900 0.507207 -0.084101 0.857711 0.791900 -0.563000 1 0 1.000000 
0 5.187800 4.451000 -2.846200 0.538510 0.200504 -0.818416 0.791900 -0.722000 1 0 1.000000 
0 4.555300 4.694300 -2.424800 -0.499789 0.828982 0.250995 0.949100 -0.722000 1 0 1.000000 
light_spotlight02
0 4.489300 3.872900 -2.568500 -0.552307 -0.761510 -0.339204 0.965500 -0.563000 1 0 1.000000 
0 4.555300 4.694300 -2.424800 -0.499789 0.828982 0.250995 0.949100 -0.722000 1 0 1.000000 
0 5.187800 4.451000 -2.846200 0.538510 0.200504 -0.818416 0.791900 -0.722000 1 0 1.000000 
light_spotlight02
0 -4.812200 1.801100 0.208100 -0.011000 -0.438606 0.898612 0.348200 -0.395500 1 0 1.000000 
0 -0.633900 2.516000 -0.169000 0.119799 -0.586294 -0.801191 0.603200 -0.351800 1 0 1.000000 
0 0.095900 3.454300 0.160300 -0.087402 0.558310 0.825015 0.647700 -0.294600 1 0 1.000000 
light_spotlight02
0 -4.727800 2.221300 -0.077700 -0.200804 0.356607 -0.912419 0.353400 -0.369800 1 0 1.000000 
0 0.095900 3.454300 0.160300 -0.087402 0.558310 0.825015 0.647700 -0.294600 1 0 1.000000 
0 -0.633900 2.516000 -0.169000 0.119799 -0.586294 -0.801191 0.603200 -0.351800 1 0 1.000000 
light_spotlight02
0 -0.633900 2.516000 -0.169000 0.119799 -0.586294 -0.801191 0.603200 -0.351800 1 0 1.000000 
0 -4.812200 1.801100 0.208100 -0.011000 -0.438606 0.898612 0.348200 -0.395500 1 0 1.000000 
0 -4.727800 2.221300 -0.077700 -0.200804 0.356607 -0.912419 0.353400 -0.369800 1 0 1.000000 
light_spotlight02
0 0.095900 3.454300 0.160300 -0.087402 0.558310 0.825015 0.647700 -0.294600 1 0 1.000000 
0 -4.727800 2.221300 -0.077700 -0.200804 0.356607 -0.912419 0.353400 -0.369800 1 0 1.000000 
0 -4.812200 1.801100 0.208100 -0.011000 -0.438606 0.898612 0.348200 -0.395500 1 0 1.000000 
light_spotlight02
0 -0.003500 -4.588700 -0.488900 0.000000 -1.000000 0.000000 0.589700 -0.936900 1 0 1.000000 
0 -0.354400 -4.588700 0.358100 0.000000 -1.000000 0.000000 0.638500 -0.819200 1 0 1.000000 
0 -0.354400 -4.588700 -0.343600 0.000000 -1.000000 0.000000 0.638500 -0.916700 1 0 1.000000 
light_spotlight02
0 -0.003500 -4.588700 -0.488900 0.000000 -1.000000 0.000000 0.589700 -0.936900 1 0 1.000000 
0 -0.003500 -4.588700 0.503400 0.000000 -1.000000 0.000000 0.589700 -0.799000 1 0 1.000000 
0 -0.354400 -4.588700 0.358100 0.000000 -1.000000 0.000000 0.638500 -0.819200 1 0 1.000000 
light_spotlight02
0 -0.003500 -4.588700 -0.488900 0.000000 -1.000000 0.000000 0.589700 -0.936900 1 0 1.000000 
0 0.492600 -4.588700 0.007200 0.000000 -1.000000 0.000000 0.520700 -0.868000 1 0 1.000000 
0 -0.003500 -4.588700 0.503400 0.000000 -1.000000 0.000000 0.589700 -0.799000 1 0 1.000000 
light_spotlight02
0 -4.812200 -1.626400 -0.172900 -0.011000 0.438606 -0.898612 0.348200 -0.604500 1 0 1.000000 
0 -0.633900 -2.341300 0.204200 0.119799 0.586294 0.801191 0.603200 -0.648200 1 0 1.000000 
0 0.095900 -3.279600 -0.125100 -0.087402 -0.558310 -0.825015 0.647700 -0.705400 1 0 1.000000 
light_spotlight02
0 -4.727800 -2.046600 0.112900 -0.200804 -0.356607 0.912419 0.353400 -0.630200 1 0 1.000000 
0 0.095900 -3.279600 -0.125100 -0.087402 -0.558310 -0.825015 0.647700 -0.705400 1 0 1.000000 
0 -0.633900 -2.341300 0.204200 0.119799 0.586294 0.801191 0.603200 -0.648200 1 0 1.000000 
light_spotlight02
0 -0.633900 -2.341300 0.204200 0.119799 0.586294 0.801191 0.603200 -0.648200 1 0 1.000000 
0 -4.812200 -1.626400 -0.172900 -0.011000 0.438606 -0.898612 0.348200 -0.604500 1 0 1.000000 
0 -4.727800 -2.046600 0.112900 -0.200804 -0.356607 0.912419 0.353400 -0.630200 1 0 1.000000 
light_spotlight02
0 0.095900 -3.279600 -0.125100 -0.087402 -0.558310 -0.825015 0.647700 -0.705400 1 0 1.000000 
0 -4.727800 -2.046600 0.112900 -0.200804 -0.356607 0.912419 0.353400 -0.630200 1 0 1.000000 
0 -4.812200 -1.626400 -0.172900 -0.011000 0.438606 -0.898612 0.348200 -0.604500 1 0 1.000000 
light_spotlight02
0 -4.812200 0.197300 -1.703400 -0.011000 0.898612 0.438606 0.654700 -0.604700 1 0 1.000000 
0 -0.633900 -0.179800 -2.418300 0.119799 -0.801191 0.586294 0.400300 -0.648300 1 0 1.000000 
0 0.095900 0.149500 -3.356600 -0.087402 0.825015 -0.558310 0.355900 -0.705400 1 0 1.000000 
light_spotlight02
0 -4.727800 -0.088500 -2.123700 -0.200804 -0.912419 -0.356607 0.649600 -0.630400 1 0 1.000000 
0 0.095900 0.149500 -3.356600 -0.087402 0.825015 -0.558310 0.355900 -0.705400 1 0 1.000000 
0 -0.633900 -0.179800 -2.418300 0.119799 -0.801191 0.586294 0.400300 -0.648300 1 0 1.000000 
light_spotlight02
0 -0.633900 -0.179800 -2.418300 0.119799 -0.801191 0.586294 0.400300 -0.648300 1 0 1.000000 
0 -4.812200 0.197300 -1.703400 -0.011000 0.898612 0.438606 0.654700 -0.604700 1 0 1.000000 
0 -4.727800 -0.088500 -2.123700 -0.200804 -0.912419 -0.356607 0.649600 -0.630400 1 0 1.000000 
light_spotlight02
0 0.095900 0.149500 -3.356600 -0.087402 0.825015 -0.558310 0.355900 -0.705400 1 0 1.000000 
0 -4.727800 -0.088500 -2.123700 -0.200804 -0.912419 -0.356607 0.649600 -0.630400 1 0 1.000000 
0 -4.812200 0.197300 -1.703400 -0.011000 0.898612 0.438606 0.654700 -0.604700 1 0 1.000000 
light_spotlight02
0 2.072000 3.717100 1.586000 -0.999999 0.001300 0.000100 0.329600 -0.426400 1 0 1.000000 
0 2.072900 4.377900 1.595100 -0.999999 0.001500 0.000300 0.299000 -0.425900 1 0 1.000000 
0 2.072000 3.717100 -1.575400 -0.999999 0.001300 -0.000100 0.329600 -0.572700 1 0 1.000000 
light_spotlight02
0 2.072900 4.377900 1.595100 -0.999999 0.001500 0.000300 0.299000 -0.425900 1 0 1.000000 
0 2.072900 4.377900 -1.566200 -0.999999 0.001500 -0.000300 0.299000 -0.572300 1 0 1.000000 
0 2.072000 3.717100 -1.575400 -0.999999 0.001300 -0.000100 0.329600 -0.572700 1 0 1.000000 
light_spotlight02
0 4.555300 4.447100 2.853000 -0.499807 0.197103 0.843412 0.808300 -0.563000 1 0 1.000000 
0 4.489300 4.160900 2.069700 -0.552297 -0.087000 -0.829095 0.791900 -0.722000 1 0 1.000000 
0 5.187800 3.868900 2.575400 0.507226 -0.784840 0.356018 0.965500 -0.722000 1 0 1.000000 
light_spotlight02
0 5.187800 4.690400 2.431600 0.538521 0.809031 -0.235509 0.965500 -0.563000 1 0 1.000000 
0 5.187800 3.868900 2.575400 0.507226 -0.784840 0.356018 0.965500 -0.722000 1 0 1.000000 
0 4.489300 4.160900 2.069700 -0.552297 -0.087000 -0.829095 0.791900 -0.722000 1 0 1.000000 
light_spotlight02
0 4.489300 4.160900 2.069700 -0.552297 -0.087000 -0.829095 0.791900 -0.722000 1 0 1.000000 
0 4.555300 4.447100 2.853000 -0.499807 0.197103 0.843412 0.808300 -0.563000 1 0 1.000000 
0 5.187800 4.690400 2.431600 0.538521 0.809031 -0.235509 0.965500 -0.563000 1 0 1.000000 
light_spotlight02
0 5.187800 3.868900 2.575400 0.507226 -0.784840 0.356018 0.965500 -0.722000 1 0 1.000000 
0 5.187800 4.690400 2.431600 0.538521 0.809031 -0.235509 0.965500 -0.563000 1 0 1.000000 
0 4.555300 4.447100 2.853000 -0.499807 0.197103 0.843412 0.808300 -0.563000 1 0 1.000000 
light_spotlight02
0 4.555300 0.247200 -5.277800 -0.499791 0.631889 -0.592389 0.949100 -0.722000 1 0 1.000000 
0 4.489300 -0.288000 -4.638300 -0.552303 -0.674504 0.489903 0.965500 -0.563000 1 0 1.000000 
0 5.187800 0.295900 -4.638300 0.507181 0.700774 0.501681 0.791900 -0.563000 1 0 1.000000 
light_spotlight02
0 5.187800 -0.239300 -5.277800 0.538493 -0.608492 -0.582892 0.791900 -0.722000 1 0 1.000000 
0 5.187800 0.295900 -4.638300 0.507181 0.700774 0.501681 0.791900 -0.563000 1 0 1.000000 
0 4.489300 -0.288000 -4.638300 -0.552303 -0.674504 0.489903 0.965500 -0.563000 1 0 1.000000 
light_spotlight02
0 4.489300 -0.288000 -4.638300 -0.552303 -0.674504 0.489903 0.965500 -0.563000 1 0 1.000000 
0 4.555300 0.247200 -5.277800 -0.499791 0.631889 -0.592389 0.949100 -0.722000 1 0 1.000000 
0 5.187800 -0.239300 -5.277800 0.538493 -0.608492 -0.582892 0.791900 -0.722000 1 0 1.000000 
light_spotlight02
0 5.187800 0.295900 -4.638300 0.507181 0.700774 0.501681 0.791900 -0.563000 1 0 1.000000 
0 5.187800 -0.239300 -5.277800 0.538493 -0.608492 -0.582892 0.791900 -0.722000 1 0 1.000000 
0 4.555300 0.247200 -5.277800 -0.499791 0.631889 -0.592389 0.949100 -0.722000 1 0 1.000000 
light_spotlight02
0 4.555300 -4.447100 -2.853000 -0.499807 -0.197103 -0.843412 0.808300 -0.722000 1 0 1.000000 
0 4.489300 -4.160900 -2.069700 -0.552297 0.086999 0.829095 0.791900 -0.563000 1 0 1.000000 
0 5.187800 -3.868900 -2.575400 0.507226 0.784840 -0.356018 0.965500 -0.563000 1 0 1.000000 
light_spotlight02
0 5.187800 -4.690400 -2.431600 0.538521 -0.809031 0.235509 0.965500 -0.722000 1 0 1.000000 
0 5.187800 -3.868900 -2.575400 0.507226 0.784840 -0.356018 0.965500 -0.563000 1 0 1.000000 
0 4.489300 -4.160900 -2.069700 -0.552297 0.086999 0.829095 0.791900 -0.563000 1 0 1.000000 
light_spotlight02
0 4.489300 -4.160900 -2.069700 -0.552297 0.086999 0.829095 0.791900 -0.563000 1 0 1.000000 
0 4.555300 -4.447100 -2.853000 -0.499807 -0.197103 -0.843412 0.808300 -0.722000 1 0 1.000000 
0 5.187800 -4.690400 -2.431600 0.538521 -0.809031 0.235509 0.965500 -0.722000 1 0 1.000000 
light_spotlight02
0 5.187800 -3.868900 -2.575400 0.507226 0.784840 -0.356018 0.965500 -0.563000 1 0 1.000000 
0 5.187800 -4.690400 -2.431600 0.538521 -0.809031 0.235509 0.965500 -0.722000 1 0 1.000000 
0 4.555300 -4.447100 -2.853000 -0.499807 -0.197103 -0.843412 0.808300 -0.722000 1 0 1.000000 
light_spotlight02
0 -1.389700 3.987200 1.054800 -1.000000 -0.000000 0.000000 0.770500 -0.112500 1 0 1.000000 
0 -1.389700 3.987200 -1.019500 -1.000000 -0.000000 0.000000 0.770500 -0.254300 1 0 1.000000 
0 -1.389700 -3.929000 1.054800 -1.000000 -0.000000 0.000000 0.229500 -0.112500 1 0 1.000000 
light_spotlight02
0 -1.389700 -3.929000 -1.019500 -1.000000 -0.000000 0.000000 0.229500 -0.254300 1 0 1.000000 
0 -1.389700 -3.929000 1.054800 -1.000000 -0.000000 0.000000 0.229500 -0.112500 1 0 1.000000 
0 -1.389700 3.987200 -1.019500 -1.000000 -0.000000 0.000000 0.770500 -0.254300 1 0 1.000000 
light_spotlight02
0 1.801500 3.987200 -1.019500 1.000000 0.000000 0.000000 0.770500 -0.254300 1 0 1.000000 
0 1.801500 3.987200 1.054800 1.000000 0.000000 0.000000 0.770500 -0.112500 1 0 1.000000 
0 1.801500 -3.929000 -1.019500 1.000000 0.000000 0.000000 0.229500 -0.254300 1 0 1.000000 
light_spotlight02
0 1.801500 -3.929000 1.054800 1.000000 0.000000 0.000000 0.229500 -0.112500 1 0 1.000000 
0 1.801500 -3.929000 -1.019500 1.000000 0.000000 0.000000 0.229500 -0.254300 1 0 1.000000 
0 1.801500 3.987200 1.054800 1.000000 0.000000 0.000000 0.770500 -0.112500 1 0 1.000000 
light_spotlight02
0 -4.901400 0.372400 -1.898800 -0.186096 0.491290 -0.850883 0.539200 -0.398700 1 0 1.000000 
0 -4.901400 1.523300 -1.234300 -0.186096 0.491290 -0.850883 0.630000 -0.398700 1 0 1.000000 
0 -0.661600 0.520800 -2.740600 -0.186096 0.491290 -0.850883 0.539200 -0.242500 1 0 1.000000 
light_spotlight02
0 -4.901400 1.523300 -1.234300 -0.186096 0.491290 -0.850883 0.630000 -0.398700 1 0 1.000000 
0 -0.661600 2.178100 -1.783800 -0.186096 0.491290 -0.850883 0.630000 -0.242500 1 0 1.000000 
0 -0.661600 0.520800 -2.740600 -0.186096 0.491290 -0.850883 0.539200 -0.242500 1 0 1.000000 
light_spotlight02
0 1.801500 -3.929000 -1.019500 0.000000 -1.000000 0.000000 0.349500 -0.315700 1 0 1.000000 
0 1.801500 -3.929000 1.054800 0.000000 -1.000000 0.000000 0.349500 -0.120000 1 0 1.000000 
0 -1.389700 -3.929000 -1.019500 0.000000 -1.000000 0.000000 0.650500 -0.315700 1 0 1.000000 
light_spotlight02
0 -1.389700 -3.929000 1.054800 0.000000 -1.000000 0.000000 0.650500 -0.120000 1 0 1.000000 
0 -1.389700 -3.929000 -1.019500 0.000000 -1.000000 0.000000 0.650500 -0.315700 1 0 1.000000 
0 1.801500 -3.929000 1.054800 0.000000 -1.000000 0.000000 0.349500 -0.120000 1 0 1.000000 
light_spotlight02
0 1.801500 3.987200 -1.019500 -0.000000 1.000000 0.000000 0.349500 -0.315700 1 0 1.000000 
0 -1.389700 3.987200 -1.019500 -0.000000 1.000000 0.000000 0.650500 -0.315700 1 0 1.000000 
0 1.801500 3.987200 1.054800 -0.000000 1.000000 0.000000 0.349500 -0.120000 1 0 1.000000 
light_spotlight02
0 -1.389700 3.987200 1.054800 -0.000000 1.000000 0.000000 0.650500 -0.120000 1 0 1.000000 
0 1.801500 3.987200 1.054800 -0.000000 1.000000 0.000000 0.349500 -0.120000 1 0 1.000000 
0 -1.389700 3.987200 -1.019500 -0.000000 1.000000 0.000000 0.650500 -0.315700 1 0 1.000000 
light_spotlight02
0 -1.389700 3.987200 -1.019500 0.000000 0.000000 -1.000000 0.669600 -0.102500 1 0 1.000000 
0 1.801500 3.987200 -1.019500 0.000000 0.000000 -1.000000 0.669600 -0.239100 1 0 1.000000 
0 -1.389700 -3.929000 -1.019500 0.000000 0.000000 -1.000000 0.330800 -0.102500 1 0 1.000000 
light_spotlight02
0 1.801500 -3.929000 -1.019500 0.000000 0.000000 -1.000000 0.330800 -0.239100 1 0 1.000000 
0 -1.389700 -3.929000 -1.019500 0.000000 0.000000 -1.000000 0.330800 -0.102500 1 0 1.000000 
0 1.801500 3.987200 -1.019500 0.000000 0.000000 -1.000000 0.669600 -0.239100 1 0 1.000000 
light_spotlight02
0 1.801500 3.987200 1.054800 0.000000 0.000000 1.000000 0.669200 -0.239100 1 0 1.000000 
0 -1.389700 3.987200 1.054800 0.000000 0.000000 1.000000 0.669200 -0.102500 1 0 1.000000 
0 1.801500 -3.929000 1.054800 0.000000 0.000000 1.000000 0.330400 -0.239100 1 0 1.000000 
light_spotlight02
0 -1.389700 -3.929000 1.054800 0.000000 0.000000 1.000000 0.330400 -0.102500 1 0 1.000000 
0 1.801500 -3.929000 1.054800 0.000000 0.000000 1.000000 0.330400 -0.239100 1 0 1.000000 
0 -1.389700 3.987200 1.054800 0.000000 0.000000 1.000000 0.669200 -0.102500 1 0 1.000000 
light_spotlight02
0 -0.354400 4.651700 -0.343600 -0.000000 1.000000 0.000000 0.638500 -0.916700 1 0 1.000000 
0 0.492600 4.651700 0.007200 -0.000000 1.000000 0.000000 0.520700 -0.868000 1 0 1.000000 
0 0.347300 4.651700 -0.343600 -0.000000 1.000000 0.000000 0.540900 -0.916700 1 0 1.000000 
light_spotlight02
0 -0.354400 4.651700 -0.343600 -0.000000 1.000000 0.000000 0.638500 -0.916700 1 0 1.000000 
0 -0.003500 4.651700 0.503400 -0.000000 1.000000 0.000000 0.589700 -0.799000 1 0 1.000000 
0 0.492600 4.651700 0.007200 -0.000000 1.000000 0.000000 0.520700 -0.868000 1 0 1.000000 
light_spotlight02
0 -0.354400 4.651700 -0.343600 -0.000000 1.000000 0.000000 0.638500 -0.916700 1 0 1.000000 
0 -0.499700 4.651700 0.007200 -0.000000 1.000000 0.000000 0.658700 -0.868000 1 0 1.000000 
0 -0.003500 4.651700 0.503400 -0.000000 1.000000 0.000000 0.589700 -0.799000 1 0 1.000000 
end
