version 1
nodes
  0 "static_prop" -1
end
skeleton
time 0
0 0.000000 0.000000 0.000000 0.000000 0.000000 0.000000
end
triangles
crank001
0 184.076004 3.000008 -86.875900 0.656087 0.000000 0.754685 0.453500 -0.748400 1 0 1.000000 
0 -20.477400 -3.000001 35.094398 0.512111 0.000000 0.858919 0.576000 -0.745300 1 0 1.000000 
0 184.076004 -2.999992 -86.875900 0.700021 0.000000 0.714122 0.453500 -0.745300 1 0 1.000000 
crank001
0 184.076004 3.000008 -86.875900 0.656087 0.000000 0.754685 0.453500 -0.748400 1 0 1.000000 
0 -20.477400 2.999999 35.094398 0.512111 0.000000 0.858919 0.576000 -0.748400 1 0 1.000000 
0 -20.477400 -3.000001 35.094398 0.512111 0.000000 0.858919 0.576000 -0.745300 1 0 1.000000 
crank001
0 -43.322399 2.999998 5.164900 0.063101 0.997723 0.023801 0.425300 -0.778500 1 0 1.000000 
0 -78.458099 2.999997 19.867800 0.040400 0.994503 0.096600 0.593700 -0.711400 1 0 1.000000 
0 -79.029099 2.999997 26.619600 -0.052401 0.998616 -0.004400 0.596900 -0.679400 1 0 1.000000 
crank001
0 -43.322399 2.999998 5.164900 0.063101 0.997723 0.023801 0.425300 -0.778500 1 0 1.000000 
0 -57.341400 4.999998 0.853400 0.126600 0.990801 0.047800 0.491600 -0.800100 1 0 1.000000 
0 -78.458099 2.999997 19.867800 0.040400 0.994503 0.096600 0.593700 -0.711400 1 0 1.000000 
crank001
0 -43.322399 2.999998 5.164900 0.063101 0.997723 0.023801 0.425300 -0.778500 1 0 1.000000 
0 -46.720600 2.999998 -0.747100 0.056902 0.997844 -0.032701 0.440900 -0.806900 1 0 1.000000 
0 -57.341400 4.999998 0.853400 0.126600 0.990801 0.047800 0.491600 -0.800100 1 0 1.000000 
crank001
0 -46.720600 2.999998 -0.747100 -0.275315 -0.000000 -0.961354 0.411500 -0.789700 1 0 1.000000 
0 -57.341400 -5.000002 0.853400 -0.149005 -0.000000 -0.988836 0.496000 -0.676200 1 0 1.000000 
0 -57.341400 4.999998 0.853400 -0.149005 -0.000000 -0.988836 0.390300 -0.676200 1 0 1.000000 
crank001
0 -46.720600 2.999998 -0.747100 -0.275315 -0.000000 -0.961354 0.411500 -0.789700 1 0 1.000000 
0 -46.720600 -3.000002 -0.747100 -0.399103 -0.000000 -0.916906 0.474900 -0.789700 1 0 1.000000 
0 -57.341400 -5.000002 0.853400 -0.149005 -0.000000 -0.988836 0.496000 -0.676200 1 0 1.000000 
crank001
0 -79.029099 2.999997 26.619600 -0.996440 -0.000000 -0.084303 0.392900 -0.676200 1 0 1.000000 
0 -78.458099 2.999997 19.867800 -0.996440 -0.000000 -0.084303 0.392900 -0.789700 1 0 1.000000 
0 -78.458099 -3.000003 19.867800 -0.996440 -0.000000 -0.084303 0.493400 -0.789700 1 0 1.000000 
crank001
0 -78.458099 -3.000003 19.867800 -0.996440 -0.000000 -0.084303 0.493400 -0.789700 1 0 1.000000 
0 -79.029099 -3.000003 26.619600 -0.996440 -0.000000 -0.084303 0.493400 -0.676200 1 0 1.000000 
0 -79.029099 2.999997 26.619600 -0.996440 -0.000000 -0.084303 0.392900 -0.676200 1 0 1.000000 
crank001
0 196.459000 0.000009 -102.274300 0.779276 0.000000 0.626681 0.463300 -0.746800 1 0 1.000000 
0 197.542297 3.000009 -103.621399 0.779276 0.000000 0.626681 0.453500 -0.763900 1 0 1.000000 
0 184.076004 3.000008 -86.875900 0.656087 0.000000 0.754685 0.576000 -0.763900 1 0 1.000000 
crank001
0 196.459000 0.000009 -102.274300 0.779276 0.000000 0.626681 0.463300 -0.746800 1 0 1.000000 
0 184.076004 3.000008 -86.875900 0.656087 0.000000 0.754685 0.576000 -0.763900 1 0 1.000000 
0 184.076004 -2.999992 -86.875900 0.700021 0.000000 0.714122 0.576000 -0.729700 1 0 1.000000 
crank001
0 184.076004 -2.999992 -86.875900 0.700021 0.000000 0.714122 0.576000 -0.729700 1 0 1.000000 
0 197.542297 -2.999991 -103.621399 0.779276 0.000000 0.626681 0.453500 -0.729700 1 0 1.000000 
0 196.459000 0.000009 -102.274300 0.779276 0.000000 0.626681 0.463300 -0.746800 1 0 1.000000 
crank001
0 -20.477400 2.999999 35.094398 0.934825 0.000000 0.355109 0.453500 -0.781000 1 0 1.000000 
0 -24.302299 -5.000001 45.162701 0.934825 0.000000 0.355109 0.576000 -0.689900 1 0 1.000000 
0 -20.477400 -3.000001 35.094398 0.934825 0.000000 0.355109 0.453500 -0.712700 1 0 1.000000 
crank001
0 -20.477400 2.999999 35.094398 0.934825 0.000000 0.355109 0.453500 -0.781000 1 0 1.000000 
0 -24.302299 4.999999 45.162701 0.934825 0.000000 0.355109 0.576000 -0.803700 1 0 1.000000 
0 -24.302299 -5.000001 45.162701 0.934825 0.000000 0.355109 0.576000 -0.689900 1 0 1.000000 
crank001
0 -43.322399 -3.000002 5.164900 0.056903 -0.997844 -0.032701 0.425300 -0.778500 1 0 1.000000 
0 -57.341400 -5.000002 0.853400 0.059202 -0.997629 -0.035101 0.491600 -0.800100 1 0 1.000000 
0 -46.720600 -3.000002 -0.747100 0.113794 -0.991350 -0.065397 0.440900 -0.806900 1 0 1.000000 
crank001
0 -79.029099 -3.000003 26.619600 -0.004600 -0.997285 0.073499 0.596900 -0.679400 1 0 1.000000 
0 -57.341400 -5.000002 0.853400 0.059202 -0.997629 -0.035101 0.491600 -0.800100 1 0 1.000000 
0 -43.322399 -3.000002 5.164900 0.056903 -0.997844 -0.032701 0.425300 -0.778500 1 0 1.000000 
crank001
0 -79.029099 -3.000003 26.619600 -0.004600 -0.997285 0.073499 0.596900 -0.679400 1 0 1.000000 
0 -78.458099 -3.000003 19.867800 -0.056199 -0.998276 0.016900 0.593700 -0.711400 1 0 1.000000 
0 -57.341400 -5.000002 0.853400 0.059202 -0.997629 -0.035101 0.491600 -0.800100 1 0 1.000000 
crank001
0 -24.302299 4.999999 45.162701 0.196193 0.000000 0.980565 0.453500 -0.762300 1 0 1.000000 
0 -63.149899 3.353597 52.936199 0.196193 0.000000 0.980565 0.576000 -0.757200 1 0 1.000000 
0 -61.207901 -0.000003 52.547600 0.196193 0.000000 0.980565 0.569900 -0.746800 1 0 1.000000 
crank001
0 -61.207901 -0.000003 52.547600 0.196193 0.000000 0.980565 0.569900 -0.746800 1 0 1.000000 
0 -24.302299 -5.000001 45.162701 0.196193 0.000000 0.980565 0.453500 -0.731400 1 0 1.000000 
0 -24.302299 4.999999 45.162701 0.196193 0.000000 0.980565 0.453500 -0.762300 1 0 1.000000 
crank001
0 -61.207901 -0.000003 52.547600 0.196193 0.000000 0.980565 0.569900 -0.746800 1 0 1.000000 
0 -63.149899 -3.353603 52.936199 0.196193 0.000000 0.980565 0.576000 -0.736500 1 0 1.000000 
0 -24.302299 -5.000001 45.162701 0.196193 0.000000 0.980565 0.453500 -0.731400 1 0 1.000000 
crank001
0 -43.322399 -3.000002 5.164900 0.056903 -0.997844 -0.032701 0.594600 -0.690900 1 0 1.000000 
0 169.531998 -2.999993 -130.353302 0.000000 -1.000000 0.000000 0.442800 -0.783900 1 0 1.000000 
0 194.176605 -2.999991 -137.539001 0.000000 -1.000000 0.000000 0.425300 -0.788700 1 0 1.000000 
crank001
0 -43.322399 -3.000002 5.164900 0.056903 -0.997844 -0.032701 0.594600 -0.690900 1 0 1.000000 
0 -46.720600 -3.000002 -0.747100 0.113794 -0.991350 -0.065397 0.596900 -0.695100 1 0 1.000000 
0 169.531998 -2.999993 -130.353302 0.000000 -1.000000 0.000000 0.442800 -0.783900 1 0 1.000000 
crank001
0 194.176605 3.000009 -137.539001 -0.000000 1.000000 0.000000 0.425300 -0.788700 1 0 1.000000 
0 -46.720600 2.999998 -0.747100 0.056902 0.997844 -0.032701 0.596900 -0.695100 1 0 1.000000 
0 -43.322399 2.999998 5.164900 0.063101 0.997723 0.023801 0.594600 -0.690900 1 0 1.000000 
crank001
0 194.176605 3.000009 -137.539001 -0.000000 1.000000 0.000000 0.425300 -0.788700 1 0 1.000000 
0 169.531998 3.000007 -130.353302 -0.000000 1.000000 0.000000 0.442800 -0.783900 1 0 1.000000 
0 -46.720600 2.999998 -0.747100 0.056902 0.997844 -0.032701 0.596900 -0.695100 1 0 1.000000 
crank001
0 -18.511200 2.999999 26.196699 0.071402 0.997322 0.015800 0.738700 -0.694200 1 0 1.000000 
0 184.076004 3.000008 -86.875900 -0.000000 1.000000 0.000000 0.611700 -0.762200 1 0 1.000000 
0 197.542297 3.000009 -103.621399 -0.000000 1.000000 0.000000 0.603200 -0.772400 1 0 1.000000 
crank001
0 -18.511200 2.999999 26.196699 0.071402 0.997322 0.015800 0.738700 -0.694200 1 0 1.000000 
0 -20.477400 2.999999 35.094398 0.197494 0.979869 -0.029199 0.740000 -0.688700 1 0 1.000000 
0 184.076004 3.000008 -86.875900 -0.000000 1.000000 0.000000 0.611700 -0.762200 1 0 1.000000 
crank001
0 -28.188801 -5.000001 31.547400 0.110695 -0.993352 -0.031598 0.632800 -0.758500 1 0 1.000000 
0 -24.302299 -5.000001 45.162701 0.114705 -0.992239 -0.048002 0.621800 -0.717000 1 0 1.000000 
0 -63.149899 -3.353603 52.936199 -0.051402 -0.997636 -0.045602 0.740000 -0.695500 1 0 1.000000 
crank001
0 -28.188801 -5.000001 31.547400 0.110695 -0.993352 -0.031598 0.632800 -0.758500 1 0 1.000000 
0 -20.477400 -3.000001 35.094398 0.125704 -0.992030 -0.008700 0.609600 -0.747400 1 0 1.000000 
0 -24.302299 -5.000001 45.162701 0.114705 -0.992239 -0.048002 0.621800 -0.717000 1 0 1.000000 
crank001
0 -18.511200 -3.000001 26.196699 0.107195 -0.993955 0.023699 0.603200 -0.774300 1 0 1.000000 
0 -20.477400 -3.000001 35.094398 0.125704 -0.992030 -0.008700 0.609600 -0.747400 1 0 1.000000 
0 -28.188801 -5.000001 31.547400 0.110695 -0.993352 -0.031598 0.632800 -0.758500 1 0 1.000000 
crank001
0 197.542297 -2.999991 -103.621399 0.000000 -1.000000 0.000000 0.603200 -0.772400 1 0 1.000000 
0 -20.477400 -3.000001 35.094398 0.125704 -0.992030 -0.008700 0.740000 -0.688700 1 0 1.000000 
0 -18.511200 -3.000001 26.196699 0.107195 -0.993955 0.023699 0.738700 -0.694200 1 0 1.000000 
crank001
0 197.542297 -2.999991 -103.621399 0.000000 -1.000000 0.000000 0.603200 -0.772400 1 0 1.000000 
0 184.076004 -2.999992 -86.875900 0.000000 -1.000000 0.000000 0.611700 -0.762200 1 0 1.000000 
0 -20.477400 -3.000001 35.094398 0.125704 -0.992030 -0.008700 0.740000 -0.688700 1 0 1.000000 
crank001
0 -57.341400 4.999998 0.853400 -0.669136 -0.000000 -0.743140 0.423200 -0.789700 1 0 1.000000 
0 -78.458099 -3.000003 19.867800 -0.669136 -0.000000 -0.743140 0.455200 -0.676200 1 0 1.000000 
0 -78.458099 2.999997 19.867800 -0.669136 -0.000000 -0.743140 0.431200 -0.676200 1 0 1.000000 
crank001
0 -57.341400 4.999998 0.853400 -0.669136 -0.000000 -0.743140 0.423200 -0.789700 1 0 1.000000 
0 -57.341400 -5.000002 0.853400 -0.669136 -0.000000 -0.743140 0.463100 -0.789700 1 0 1.000000 
0 -78.458099 -3.000003 19.867800 -0.669136 -0.000000 -0.743140 0.455200 -0.676200 1 0 1.000000 
crank001
0 169.531998 3.000007 -130.353302 -0.400294 -0.000000 -0.916387 0.441800 -0.789700 1 0 1.000000 
0 -46.720600 -3.000002 -0.747100 -0.399103 -0.000000 -0.916906 0.444500 -0.676200 1 0 1.000000 
0 -46.720600 2.999998 -0.747100 -0.275315 -0.000000 -0.961354 0.441800 -0.676200 1 0 1.000000 
crank001
0 169.531998 3.000007 -130.353302 -0.400294 -0.000000 -0.916387 0.441800 -0.789700 1 0 1.000000 
0 169.531998 -2.999993 -130.353302 -0.360607 -0.000000 -0.932718 0.444500 -0.789700 1 0 1.000000 
0 -46.720600 -3.000002 -0.747100 -0.399103 -0.000000 -0.916906 0.444500 -0.676200 1 0 1.000000 
crank001
0 191.925797 0.000008 -136.882706 -0.279908 -0.000000 -0.960027 0.443200 -0.779300 1 0 1.000000 
0 194.176605 -2.999991 -137.539001 -0.279908 -0.000000 -0.960027 0.456400 -0.789700 1 0 1.000000 
0 169.531998 -2.999993 -130.353302 -0.360607 -0.000000 -0.932718 0.456400 -0.676200 1 0 1.000000 
crank001
0 191.925797 0.000008 -136.882706 -0.279908 -0.000000 -0.960027 0.443200 -0.779300 1 0 1.000000 
0 169.531998 -2.999993 -130.353302 -0.360607 -0.000000 -0.932718 0.456400 -0.676200 1 0 1.000000 
0 169.531998 3.000007 -130.353302 -0.400294 -0.000000 -0.916387 0.429900 -0.676200 1 0 1.000000 
crank001
0 169.531998 3.000007 -130.353302 -0.400294 -0.000000 -0.916387 0.429900 -0.676200 1 0 1.000000 
0 194.176605 3.000009 -137.539001 -0.279908 -0.000000 -0.960027 0.429900 -0.789700 1 0 1.000000 
0 191.925797 0.000008 -136.882706 -0.279908 -0.000000 -0.960027 0.443200 -0.779300 1 0 1.000000 
crank001
0 -379.446411 -0.000017 243.764496 0.513896 0.066200 0.855294 0.940000 -0.722700 1 0 1.000000 
0 242.216904 -11.313689 -135.235504 0.387886 -0.656776 0.646676 0.122000 -0.712700 1 0 1.000000 
0 244.630493 0.000011 -131.218597 0.513896 -0.066200 0.855294 0.122000 -0.722700 1 0 1.000000 
crank001
0 -384.533386 -14.782117 235.298203 0.228110 -0.896538 0.379716 0.940000 -0.707700 1 0 1.000000 
0 242.216904 -11.313689 -135.235504 0.387886 -0.656776 0.646676 0.122000 -0.712700 1 0 1.000000 
0 -379.446411 -0.000017 243.764496 0.513896 0.066200 0.855294 0.940000 -0.722700 1 0 1.000000 
crank001
0 -384.533386 -14.782117 235.298203 0.228110 -0.896538 0.379716 0.940000 -0.707700 1 0 1.000000 
0 236.389893 -15.999990 -144.933304 -0.034100 -0.997809 -0.056700 0.122000 -0.702800 1 0 1.000000 
0 242.216904 -11.313689 -135.235504 0.387886 -0.656776 0.646676 0.122000 -0.712700 1 0 1.000000 
crank001
0 -390.840515 -14.782117 224.801498 -0.165196 -0.947177 -0.274893 0.940000 -0.697800 1 0 1.000000 
0 236.389893 -15.999990 -144.933304 -0.034100 -0.997809 -0.056700 0.122000 -0.702800 1 0 1.000000 
0 -384.533386 -14.782117 235.298203 0.228110 -0.896538 0.379716 0.940000 -0.707700 1 0 1.000000 
crank001
0 -390.840515 -14.782117 224.801498 -0.165196 -0.947177 -0.274893 0.940000 -0.697800 1 0 1.000000 
0 230.562897 -11.313689 -154.630997 -0.387486 -0.658777 -0.644877 0.122000 -0.692800 1 0 1.000000 
0 236.389893 -15.999990 -144.933304 -0.034100 -0.997809 -0.056700 0.122000 -0.702800 1 0 1.000000 
crank001
0 -395.300293 -6.122917 217.379196 -0.461777 -0.442978 -0.768461 0.940000 -0.687800 1 0 1.000000 
0 230.562897 -11.313689 -154.630997 -0.387486 -0.658777 -0.644877 0.122000 -0.692800 1 0 1.000000 
0 -390.840515 -14.782117 224.801498 -0.165196 -0.947177 -0.274893 0.940000 -0.697800 1 0 1.000000 
crank001
0 -395.300293 -6.122917 217.379196 -0.461777 -0.442978 -0.768461 0.940000 -0.687800 1 0 1.000000 
0 228.149307 0.000010 -158.647995 -0.513986 -0.064398 -0.855377 0.122000 -0.682800 1 0 1.000000 
0 230.562897 -11.313689 -154.630997 -0.387486 -0.658777 -0.644877 0.122000 -0.692800 1 0 1.000000 
crank001
0 -395.300293 6.122883 217.379196 -0.465811 0.428310 -0.774319 0.940000 -0.677800 1 0 1.000000 
0 228.149307 0.000010 -158.647995 -0.513986 -0.064398 -0.855377 0.122000 -0.682800 1 0 1.000000 
0 -395.300293 -6.122917 217.379196 -0.461777 -0.442978 -0.768461 0.940000 -0.687800 1 0 1.000000 
crank001
0 -395.300293 6.122883 217.379196 -0.465811 0.428310 -0.774319 0.940000 -0.677800 1 0 1.000000 
0 228.776596 6.122910 -157.604004 -0.461777 0.442978 -0.768461 0.122000 -0.677800 1 0 1.000000 
0 228.149307 0.000010 -158.647995 -0.513986 -0.064398 -0.855377 0.122000 -0.682800 1 0 1.000000 
crank001
0 -395.300293 6.122883 217.379196 -0.465811 0.428310 -0.774319 0.940000 -0.677800 1 0 1.000000 
0 233.236404 14.782110 -150.181702 -0.287297 0.829991 -0.478095 0.122000 -0.667800 1 0 1.000000 
0 228.776596 6.122910 -157.604004 -0.461777 0.442978 -0.768461 0.122000 -0.677800 1 0 1.000000 
crank001
0 -390.840515 14.782083 224.801498 -0.164401 0.948006 -0.272502 0.940000 -0.667800 1 0 1.000000 
0 233.236404 14.782110 -150.181702 -0.287297 0.829991 -0.478095 0.122000 -0.667800 1 0 1.000000 
0 -395.300293 6.122883 217.379196 -0.465811 0.428310 -0.774319 0.940000 -0.677800 1 0 1.000000 
crank001
0 -390.840515 14.782083 224.801498 -0.164401 0.948006 -0.272502 0.940000 -0.667800 1 0 1.000000 
0 236.389893 16.000010 -144.933304 0.034100 0.997809 0.056700 0.122000 -0.662800 1 0 1.000000 
0 233.236404 14.782110 -150.181702 -0.287297 0.829991 -0.478095 0.122000 -0.667800 1 0 1.000000 
crank001
0 -384.533386 14.782083 235.298203 0.225498 0.898093 0.377597 0.940000 -0.657800 1 0 1.000000 
0 236.389893 16.000010 -144.933304 0.034100 0.997809 0.056700 0.122000 -0.662800 1 0 1.000000 
0 -390.840515 14.782083 224.801498 -0.164401 0.948006 -0.272502 0.940000 -0.667800 1 0 1.000000 
crank001
0 -384.533386 14.782083 235.298203 0.225498 0.898093 0.377597 0.940000 -0.657800 1 0 1.000000 
0 242.216904 11.313710 -135.235504 0.387486 0.658777 0.644877 0.122000 -0.652800 1 0 1.000000 
0 236.389893 16.000010 -144.933304 0.034100 0.997809 0.056700 0.122000 -0.662800 1 0 1.000000 
crank001
0 -379.446411 -0.000017 243.764496 0.513896 0.066200 0.855294 0.940000 -0.642900 1 0 1.000000 
0 242.216904 11.313710 -135.235504 0.387486 0.658777 0.644877 0.122000 -0.652800 1 0 1.000000 
0 -384.533386 14.782083 235.298203 0.225498 0.898093 0.377597 0.940000 -0.657800 1 0 1.000000 
crank001
0 -379.446411 -0.000017 243.764496 0.513896 0.066200 0.855294 0.940000 -0.642900 1 0 1.000000 
0 244.630493 0.000011 -131.218597 0.513896 -0.066200 0.855294 0.122000 -0.642900 1 0 1.000000 
0 242.216904 11.313710 -135.235504 0.387486 0.658777 0.644877 0.122000 -0.652800 1 0 1.000000 
crank001
0 290.019714 0.000013 -154.700195 0.513896 -0.066200 0.855294 0.016600 -0.691500 1 0 1.000000 
0 248.978104 7.366511 -131.749405 0.461777 0.442978 0.768461 0.075800 -0.698200 1 0 1.000000 
0 249.732803 0.000011 -130.493393 0.513896 0.066200 0.855294 0.075800 -0.691500 1 0 1.000000 
crank001
0 287.115906 13.611512 -159.532898 0.387486 0.658777 0.644877 0.016600 -0.705000 1 0 1.000000 
0 248.978104 7.366511 -131.749405 0.461777 0.442978 0.768461 0.075800 -0.698200 1 0 1.000000 
0 290.019714 0.000013 -154.700195 0.513896 -0.066200 0.855294 0.016600 -0.691500 1 0 1.000000 
crank001
0 287.115906 13.611512 -159.532898 0.387486 0.658777 0.644877 0.016600 -0.705000 1 0 1.000000 
0 246.828995 13.611510 -135.326096 0.339306 0.752313 0.564710 0.075800 -0.705000 1 0 1.000000 
0 248.978104 7.366511 -131.749405 0.461777 0.442978 0.768461 0.075800 -0.698200 1 0 1.000000 
crank001
0 287.115906 13.611512 -159.532898 0.387486 0.658777 0.644877 0.016600 -0.705000 1 0 1.000000 
0 243.612595 17.784212 -140.679199 0.165196 0.947177 0.274893 0.075800 -0.711700 1 0 1.000000 
0 246.828995 13.611510 -135.326096 0.339306 0.752313 0.564710 0.075800 -0.705000 1 0 1.000000 
crank001
0 280.105408 19.249512 -171.200195 0.034100 0.997809 0.056700 0.016600 -0.718400 1 0 1.000000 
0 243.612595 17.784212 -140.679199 0.165196 0.947177 0.274893 0.075800 -0.711700 1 0 1.000000 
0 287.115906 13.611512 -159.532898 0.387486 0.658777 0.644877 0.016600 -0.705000 1 0 1.000000 
crank001
0 280.105408 19.249512 -171.200195 0.034100 0.997809 0.056700 0.016600 -0.718400 1 0 1.000000 
0 239.818604 19.249510 -146.993393 -0.034100 0.997809 -0.056700 0.075800 -0.718400 1 0 1.000000 
0 243.612595 17.784212 -140.679199 0.165196 0.947177 0.274893 0.075800 -0.711700 1 0 1.000000 
crank001
0 276.311401 17.784212 -177.514496 -0.213008 0.904236 -0.370115 0.016600 -0.725200 1 0 1.000000 
0 239.818604 19.249510 -146.993393 -0.034100 0.997809 -0.056700 0.075800 -0.718400 1 0 1.000000 
0 280.105408 19.249512 -171.200195 0.034100 0.997809 0.056700 0.016600 -0.718400 1 0 1.000000 
crank001
0 276.311401 17.784212 -177.514496 -0.213008 0.904236 -0.370115 0.016600 -0.725200 1 0 1.000000 
0 236.024597 17.784210 -153.307800 -0.228110 0.896538 -0.379716 0.075800 -0.725200 1 0 1.000000 
0 239.818604 19.249510 -146.993393 -0.034100 0.997809 -0.056700 0.075800 -0.718400 1 0 1.000000 
crank001
0 276.311401 17.784212 -177.514496 -0.213008 0.904236 -0.370115 0.016600 -0.725200 1 0 1.000000 
0 232.808197 13.611510 -158.660706 -0.387486 0.658777 -0.644877 0.075800 -0.731900 1 0 1.000000 
0 236.024597 17.784210 -153.307800 -0.228110 0.896538 -0.379716 0.075800 -0.725200 1 0 1.000000 
crank001
0 270.945892 7.366512 -186.444305 -0.461777 0.442978 -0.768461 0.016600 -0.738600 1 0 1.000000 
0 232.808197 13.611510 -158.660706 -0.387486 0.658777 -0.644877 0.075800 -0.731900 1 0 1.000000 
0 276.311401 17.784212 -177.514496 -0.213008 0.904236 -0.370115 0.016600 -0.725200 1 0 1.000000 
crank001
0 270.945892 7.366512 -186.444305 -0.461777 0.442978 -0.768461 0.016600 -0.738600 1 0 1.000000 
0 230.658997 7.366510 -162.237503 -0.487805 0.320703 -0.811908 0.075800 -0.738600 1 0 1.000000 
0 232.808197 13.611510 -158.660706 -0.387486 0.658777 -0.644877 0.075800 -0.731900 1 0 1.000000 
crank001
0 270.191193 0.000012 -187.700302 -0.507496 -0.048400 -0.860294 0.016600 -0.745400 1 0 1.000000 
0 230.658997 7.366510 -162.237503 -0.487805 0.320703 -0.811908 0.075800 -0.738600 1 0 1.000000 
0 270.945892 7.366512 -186.444305 -0.461777 0.442978 -0.768461 0.016600 -0.738600 1 0 1.000000 
crank001
0 270.191193 0.000012 -187.700302 -0.507496 -0.048400 -0.860294 0.016600 -0.745400 1 0 1.000000 
0 229.904404 0.000010 -163.493500 -0.513896 -0.066200 -0.855294 0.075800 -0.745400 1 0 1.000000 
0 230.658997 7.366510 -162.237503 -0.487805 0.320703 -0.811908 0.075800 -0.738600 1 0 1.000000 
crank001
0 270.191193 0.000012 -187.700302 -0.507496 -0.048400 -0.860294 0.016600 -0.745400 1 0 1.000000 
0 230.658997 -7.366490 -162.237503 -0.461777 -0.442978 -0.768461 0.075800 -0.752100 1 0 1.000000 
0 229.904404 0.000010 -163.493500 -0.513896 -0.066200 -0.855294 0.075800 -0.745400 1 0 1.000000 
crank001
0 273.095001 -13.611487 -182.867493 -0.387486 -0.658777 -0.644877 0.016600 -0.758800 1 0 1.000000 
0 230.658997 -7.366490 -162.237503 -0.461777 -0.442978 -0.768461 0.075800 -0.752100 1 0 1.000000 
0 270.191193 0.000012 -187.700302 -0.507496 -0.048400 -0.860294 0.016600 -0.745400 1 0 1.000000 
crank001
0 273.095001 -13.611487 -182.867493 -0.387486 -0.658777 -0.644877 0.016600 -0.758800 1 0 1.000000 
0 236.024597 -17.784191 -153.307800 -0.165196 -0.947177 -0.274893 0.075800 -0.765600 1 0 1.000000 
0 230.658997 -7.366490 -162.237503 -0.461777 -0.442978 -0.768461 0.075800 -0.752100 1 0 1.000000 
crank001
0 280.105408 -19.249489 -171.200195 -0.034100 -0.997809 -0.056700 0.016600 -0.772300 1 0 1.000000 
0 236.024597 -17.784191 -153.307800 -0.165196 -0.947177 -0.274893 0.075800 -0.765600 1 0 1.000000 
0 273.095001 -13.611487 -182.867493 -0.387486 -0.658777 -0.644877 0.016600 -0.758800 1 0 1.000000 
crank001
0 280.105408 -19.249489 -171.200195 -0.034100 -0.997809 -0.056700 0.016600 -0.772300 1 0 1.000000 
0 243.612595 -17.784189 -140.679199 0.166004 -0.946624 0.276307 0.075800 -0.779000 1 0 1.000000 
0 236.024597 -17.784191 -153.307800 -0.165196 -0.947177 -0.274893 0.075800 -0.765600 1 0 1.000000 
crank001
0 287.115906 -13.611487 -159.532898 0.339306 -0.752313 0.564710 0.016600 -0.785800 1 0 1.000000 
0 243.612595 -17.784189 -140.679199 0.166004 -0.946624 0.276307 0.075800 -0.779000 1 0 1.000000 
0 280.105408 -19.249489 -171.200195 -0.034100 -0.997809 -0.056700 0.016600 -0.772300 1 0 1.000000 
crank001
0 287.115906 -13.611487 -159.532898 0.339306 -0.752313 0.564710 0.016600 -0.785800 1 0 1.000000 
0 246.828995 -13.611489 -135.326096 0.387486 -0.658777 0.644877 0.075800 -0.785800 1 0 1.000000 
0 243.612595 -17.784189 -140.679199 0.166004 -0.946624 0.276307 0.075800 -0.779000 1 0 1.000000 
crank001
0 287.115906 -13.611487 -159.532898 0.339306 -0.752313 0.564710 0.016600 -0.785800 1 0 1.000000 
0 248.978104 -7.366489 -131.749405 0.487805 -0.320703 0.811908 0.075800 -0.792500 1 0 1.000000 
0 246.828995 -13.611489 -135.326096 0.387486 -0.658777 0.644877 0.075800 -0.785800 1 0 1.000000 
crank001
0 290.019714 0.000013 -154.700195 0.513896 -0.066200 0.855294 0.016600 -0.799200 1 0 1.000000 
0 248.978104 -7.366489 -131.749405 0.487805 -0.320703 0.811908 0.075800 -0.792500 1 0 1.000000 
0 287.115906 -13.611487 -159.532898 0.339306 -0.752313 0.564710 0.016600 -0.785800 1 0 1.000000 
crank001
0 290.019714 0.000013 -154.700195 0.513896 -0.066200 0.855294 0.016600 -0.799200 1 0 1.000000 
0 249.732803 0.000011 -130.493393 0.513896 0.066200 0.855294 0.075800 -0.799200 1 0 1.000000 
0 248.978104 -7.366489 -131.749405 0.487805 -0.320703 0.811908 0.075800 -0.792500 1 0 1.000000 
crank001
0 -28.188801 4.999999 31.547400 0.170202 0.984210 -0.048600 0.632800 -0.758500 1 0 1.000000 
0 -20.477400 2.999999 35.094398 0.197494 0.979869 -0.029199 0.609600 -0.747400 1 0 1.000000 
0 -18.511200 2.999999 26.196699 0.071402 0.997322 0.015800 0.603200 -0.774300 1 0 1.000000 
crank001
0 -28.188801 4.999999 31.547400 0.170202 0.984210 -0.048600 0.632800 -0.758500 1 0 1.000000 
0 -24.302299 4.999999 45.162701 0.056197 0.997756 -0.036398 0.621800 -0.717000 1 0 1.000000 
0 -20.477400 2.999999 35.094398 0.197494 0.979869 -0.029199 0.609600 -0.747400 1 0 1.000000 
crank001
0 -63.149899 3.353597 52.936199 -0.051402 0.997636 -0.045602 0.740000 -0.695500 1 0 1.000000 
0 -24.302299 4.999999 45.162701 0.056197 0.997756 -0.036398 0.621800 -0.717000 1 0 1.000000 
0 -28.188801 4.999999 31.547400 0.170202 0.984210 -0.048600 0.632800 -0.758500 1 0 1.000000 
crank001
0 263.025085 30.000011 -173.266998 -0.975591 0.214998 -0.044700 0.728100 -0.594600 1 0 1.000000 
0 261.802704 17.000011 -182.621902 -0.925417 0.111402 -0.362206 0.676700 -0.569400 1 0 1.000000 
0 260.185699 17.000011 -173.217407 -0.994031 0.106403 0.024101 0.677800 -0.595700 1 0 1.000000 
crank001
0 263.025085 30.000011 -173.266998 -0.975591 0.214998 -0.044700 0.728100 -0.594600 1 0 1.000000 
0 268.790985 30.000011 -187.904495 -0.687092 0.297897 -0.662693 0.726400 -0.544300 1 0 1.000000 
0 261.802704 17.000011 -182.621902 -0.925417 0.111402 -0.362206 0.676700 -0.569400 1 0 1.000000 
crank001
0 268.790985 30.000011 -187.904495 -0.687092 0.297897 -0.662693 0.726400 -0.544300 1 0 1.000000 
0 266.740814 17.000011 -190.299103 -0.713811 0.117502 -0.690411 0.675800 -0.544300 1 0 1.000000 
0 261.802704 17.000011 -182.621902 -0.925417 0.111402 -0.362206 0.676700 -0.569400 1 0 1.000000 
crank001
0 268.790985 30.000011 -187.904495 -0.687092 0.297897 -0.662693 0.726400 -0.544300 1 0 1.000000 
0 274.241089 17.000011 -195.502197 -0.394987 0.121096 -0.910670 0.675200 -0.519100 1 0 1.000000 
0 266.740814 17.000011 -190.299103 -0.713811 0.117502 -0.690411 0.675800 -0.544300 1 0 1.000000 
crank001
0 268.790985 30.000011 -187.904495 -0.687092 0.297897 -0.662693 0.726400 -0.544300 1 0 1.000000 
0 283.218414 30.000011 -194.177704 -0.060498 0.274191 -0.959770 0.725700 -0.494000 1 0 1.000000 
0 274.241089 17.000011 -195.502197 -0.394987 0.121096 -0.910670 0.675200 -0.519100 1 0 1.000000 
crank001
0 283.218414 30.000011 -194.177704 -0.060498 0.274191 -0.959770 0.725700 -0.494000 1 0 1.000000 
0 283.161499 17.000011 -197.438995 -0.016400 0.122701 -0.992308 0.675000 -0.494000 1 0 1.000000 
0 274.241089 17.000011 -195.502197 -0.394987 0.121096 -0.910670 0.675200 -0.519100 1 0 1.000000 
crank001
0 283.218414 30.000011 -194.177704 -0.060498 0.274191 -0.959770 0.725700 -0.494000 1 0 1.000000 
0 292.144104 17.000013 -195.814697 0.364704 0.121901 -0.923109 0.675200 -0.468800 1 0 1.000000 
0 283.161499 17.000011 -197.438995 -0.016400 0.122701 -0.992308 0.675000 -0.494000 1 0 1.000000 
crank001
0 283.218414 30.000011 -194.177704 -0.060498 0.274191 -0.959770 0.725700 -0.494000 1 0 1.000000 
0 291.110687 30.000013 -192.750595 0.414889 0.239894 -0.877677 0.725900 -0.468800 1 0 1.000000 
0 292.144104 17.000013 -195.814697 0.364704 0.121901 -0.923109 0.675200 -0.468800 1 0 1.000000 
crank001
0 291.110687 30.000013 -192.750595 0.414889 0.239894 -0.877677 0.725900 -0.468800 1 0 1.000000 
0 299.821289 17.000013 -190.876602 0.690444 0.118908 -0.713546 0.675800 -0.443700 1 0 1.000000 
0 292.144104 17.000013 -195.814697 0.364704 0.121901 -0.923109 0.675200 -0.468800 1 0 1.000000 
crank001
0 291.110687 30.000013 -192.750595 0.414889 0.239894 -0.877677 0.725900 -0.468800 1 0 1.000000 
0 302.427490 30.000013 -181.822006 0.879208 0.288703 -0.379003 0.727200 -0.418500 1 0 1.000000 
0 299.821289 17.000013 -190.876602 0.690444 0.118908 -0.713546 0.675800 -0.443700 1 0 1.000000 
crank001
0 302.427490 30.000013 -181.822006 0.879208 0.288703 -0.379003 0.727200 -0.418500 1 0 1.000000 
0 305.024414 17.000013 -183.376297 0.913141 0.114205 -0.391318 0.676700 -0.418600 1 0 1.000000 
0 299.821289 17.000013 -190.876602 0.690444 0.118908 -0.713546 0.675800 -0.443700 1 0 1.000000 
crank001
0 302.427490 30.000013 -181.822006 0.879208 0.288703 -0.379003 0.727200 -0.418500 1 0 1.000000 
0 306.968597 17.000013 -174.033997 0.994078 0.108298 -0.009000 0.677800 -0.392300 1 0 1.000000 
0 305.024414 17.000013 -183.376297 0.913141 0.114205 -0.391318 0.676700 -0.418600 1 0 1.000000 
crank001
0 302.427490 30.000013 -181.822006 0.879208 0.288703 -0.379003 0.727200 -0.418500 1 0 1.000000 
0 302.701996 30.000013 -166.092194 0.895584 0.266695 0.356094 0.729000 -0.368300 1 0 1.000000 
0 306.968597 17.000013 -174.033997 0.994078 0.108298 -0.009000 0.677800 -0.392300 1 0 1.000000 
crank001
0 302.701996 30.000013 -166.092194 0.895584 0.266695 0.356094 0.729000 -0.368300 1 0 1.000000 
0 305.336914 17.000013 -165.473297 0.923992 0.103299 0.368197 0.678800 -0.368300 1 0 1.000000 
0 306.968597 17.000013 -174.033997 0.994078 0.108298 -0.009000 0.677800 -0.392300 1 0 1.000000 
crank001
0 302.701996 30.000013 -166.092194 0.895584 0.266695 0.356094 0.729000 -0.368300 1 0 1.000000 
0 300.398712 17.000013 -157.796097 0.715466 0.097095 0.691867 0.679700 -0.343200 1 0 1.000000 
0 305.336914 17.000013 -165.473297 0.923992 0.103299 0.368197 0.678800 -0.368300 1 0 1.000000 
crank001
0 302.701996 30.000013 -166.092194 0.895584 0.266695 0.356094 0.729000 -0.368300 1 0 1.000000 
0 291.773499 30.000013 -154.775406 0.385709 0.251006 0.887820 0.730300 -0.318000 1 0 1.000000 
0 300.398712 17.000013 -157.796097 0.715466 0.097095 0.691867 0.679700 -0.343200 1 0 1.000000 
crank001
0 291.773499 30.000013 -154.775406 0.385709 0.251006 0.887820 0.730300 -0.318000 1 0 1.000000 
0 292.898499 17.000013 -152.593002 0.396490 0.093398 0.913276 0.680300 -0.318100 1 0 1.000000 
0 300.398712 17.000013 -157.796097 0.715466 0.097095 0.691867 0.679700 -0.343200 1 0 1.000000 
crank001
0 291.773499 30.000013 -154.775406 0.385709 0.251006 0.887820 0.730300 -0.318000 1 0 1.000000 
0 283.978088 17.000013 -150.656204 0.016801 0.091803 0.995635 0.680500 -0.292900 1 0 1.000000 
0 292.898499 17.000013 -152.593002 0.396490 0.093398 0.913276 0.680300 -0.318100 1 0 1.000000 
crank001
0 291.773499 30.000013 -154.775406 0.385709 0.251006 0.887820 0.730300 -0.318000 1 0 1.000000 
0 276.043701 30.000011 -154.500793 -0.354512 0.251009 0.900731 0.730300 -0.267800 1 0 1.000000 
0 283.978088 17.000013 -150.656204 0.016801 0.091803 0.995635 0.680500 -0.292900 1 0 1.000000 
crank001
0 276.043701 30.000011 -154.500793 -0.354512 0.251009 0.900731 0.730300 -0.267800 1 0 1.000000 
0 274.995514 17.000011 -152.280502 -0.365411 0.092603 0.926228 0.680300 -0.267800 1 0 1.000000 
0 283.978088 17.000013 -150.656204 0.016801 0.091803 0.995635 0.680500 -0.292900 1 0 1.000000 
crank001
0 276.043701 30.000011 -154.500793 -0.354512 0.251009 0.900731 0.730300 -0.267800 1 0 1.000000 
0 267.318298 17.000011 -157.218597 -0.691810 0.095701 0.715710 0.679700 -0.242600 1 0 1.000000 
0 274.995514 17.000011 -152.280502 -0.365411 0.092603 0.926228 0.680300 -0.267800 1 0 1.000000 
crank001
0 276.043701 30.000011 -154.500793 -0.354512 0.251009 0.900731 0.730300 -0.267800 1 0 1.000000 
0 264.726807 30.000011 -165.429306 -0.871668 0.233891 0.430684 0.729000 -0.217600 1 0 1.000000 
0 267.318298 17.000011 -157.218597 -0.691810 0.095701 0.715710 0.679700 -0.242600 1 0 1.000000 
crank001
0 264.726807 30.000011 -165.429306 -0.871668 0.233891 0.430684 0.729000 -0.217600 1 0 1.000000 
0 262.115204 17.000011 -164.718903 -0.910783 0.100398 0.400493 0.678800 -0.217500 1 0 1.000000 
0 267.318298 17.000011 -157.218597 -0.691810 0.095701 0.715710 0.679700 -0.242600 1 0 1.000000 
crank001
0 264.726807 30.000011 -165.429306 -0.871668 0.233891 0.430684 0.729000 -0.217600 1 0 1.000000 
0 260.185699 17.000011 -173.217407 -0.994031 0.106403 0.024101 0.677800 -0.193600 1 0 1.000000 
0 262.115204 17.000011 -164.718903 -0.910783 0.100398 0.400493 0.678800 -0.217500 1 0 1.000000 
crank001
0 264.726807 30.000011 -165.429306 -0.871668 0.233891 0.430684 0.729000 -0.217600 1 0 1.000000 
0 263.025085 30.000011 -173.266998 -0.975591 0.214998 -0.044700 0.728100 -0.192500 1 0 1.000000 
0 260.185699 17.000011 -173.217407 -0.994031 0.106403 0.024101 0.677800 -0.193600 1 0 1.000000 
crank001
0 283.978088 -16.999987 -150.656204 0.017900 -0.091802 0.995616 0.467300 -0.284300 1 0 1.000000 
0 276.043701 -29.999989 -154.500793 -0.354512 -0.251009 0.900731 0.417500 -0.259200 1 0 1.000000 
0 291.773499 -29.999987 -154.775406 0.385709 -0.251006 0.887820 0.417500 -0.309400 1 0 1.000000 
crank001
0 283.978088 -16.999987 -150.656204 0.017900 -0.091802 0.995616 0.467300 -0.284300 1 0 1.000000 
0 274.995514 -16.999989 -152.280502 -0.364295 -0.093399 0.926588 0.467500 -0.259100 1 0 1.000000 
0 276.043701 -29.999989 -154.500793 -0.354512 -0.251009 0.900731 0.417500 -0.259200 1 0 1.000000 
crank001
0 274.995514 -16.999989 -152.280502 -0.364295 -0.093399 0.926588 0.467500 -0.259100 1 0 1.000000 
0 267.318298 -16.999989 -157.218597 -0.690900 -0.097100 0.716400 0.468100 -0.234000 1 0 1.000000 
0 276.043701 -29.999989 -154.500793 -0.354512 -0.251009 0.900731 0.417500 -0.259200 1 0 1.000000 
crank001
0 267.318298 -16.999989 -157.218597 -0.690900 -0.097100 0.716400 0.468100 -0.234000 1 0 1.000000 
0 264.726807 -29.999989 -165.429306 -0.870713 -0.199503 0.449507 0.418800 -0.208900 1 0 1.000000 
0 276.043701 -29.999989 -154.500793 -0.354512 -0.251009 0.900731 0.417500 -0.259200 1 0 1.000000 
crank001
0 267.318298 -16.999989 -157.218597 -0.690900 -0.097100 0.716400 0.468100 -0.234000 1 0 1.000000 
0 262.115204 -16.999989 -164.718903 -0.910589 -0.103299 0.400195 0.469000 -0.208900 1 0 1.000000 
0 264.726807 -29.999989 -165.429306 -0.870713 -0.199503 0.449507 0.418800 -0.208900 1 0 1.000000 
crank001
0 262.115204 -16.999989 -164.718903 -0.910589 -0.103299 0.400195 0.469000 -0.208900 1 0 1.000000 
0 263.025085 -29.999989 -173.266998 -0.968930 -0.246308 -0.022501 0.419700 -0.183800 1 0 1.000000 
0 264.726807 -29.999989 -165.429306 -0.870713 -0.199503 0.449507 0.418800 -0.208900 1 0 1.000000 
crank001
0 262.115204 -16.999989 -164.718903 -0.910589 -0.103299 0.400195 0.469000 -0.208900 1 0 1.000000 
0 260.185699 -16.999989 -173.217407 -0.993786 -0.108299 0.025700 0.470000 -0.184900 1 0 1.000000 
0 263.025085 -29.999989 -173.266998 -0.968930 -0.246308 -0.022501 0.419700 -0.183800 1 0 1.000000 
crank001
0 260.185699 -16.999989 -173.217407 -0.993786 -0.108299 0.025700 0.470000 -0.587000 1 0 1.000000 
0 261.802704 -16.999989 -182.621902 -0.926240 -0.114205 -0.359216 0.471100 -0.560700 1 0 1.000000 
0 263.025085 -29.999989 -173.266998 -0.968930 -0.246308 -0.022501 0.419700 -0.585900 1 0 1.000000 
crank001
0 261.802704 -16.999989 -182.621902 -0.926240 -0.114205 -0.359216 0.471100 -0.560700 1 0 1.000000 
0 268.790985 -29.999989 -187.904495 -0.742861 -0.232788 -0.627667 0.421400 -0.535700 1 0 1.000000 
0 263.025085 -29.999989 -173.266998 -0.968930 -0.246308 -0.022501 0.419700 -0.585900 1 0 1.000000 
crank001
0 261.802704 -16.999989 -182.621902 -0.926240 -0.114205 -0.359216 0.471100 -0.560700 1 0 1.000000 
0 266.740814 -16.999989 -190.299103 -0.714921 -0.118904 -0.689021 0.472000 -0.535600 1 0 1.000000 
0 268.790985 -29.999989 -187.904495 -0.742861 -0.232788 -0.627667 0.421400 -0.535700 1 0 1.000000 
crank001
0 266.740814 -16.999989 -190.299103 -0.714921 -0.118904 -0.689021 0.472000 -0.535600 1 0 1.000000 
0 275.380798 -29.999989 -192.475998 -0.343308 -0.272506 -0.898821 0.422000 -0.510500 1 0 1.000000 
0 268.790985 -29.999989 -187.904495 -0.742861 -0.232788 -0.627667 0.421400 -0.535700 1 0 1.000000 
crank001
0 266.740814 -16.999989 -190.299103 -0.714921 -0.118904 -0.689021 0.472000 -0.535600 1 0 1.000000 
0 274.241089 -16.999989 -195.502197 -0.396707 -0.121902 -0.909815 0.472600 -0.510500 1 0 1.000000 
0 275.380798 -29.999989 -192.475998 -0.343308 -0.272506 -0.898821 0.422000 -0.510500 1 0 1.000000 
crank001
0 274.241089 -16.999989 -195.502197 -0.396707 -0.121902 -0.909815 0.472600 -0.510500 1 0 1.000000 
0 283.161499 -16.999989 -197.438995 -0.018300 -0.122697 -0.992275 0.472800 -0.485300 1 0 1.000000 
0 275.380798 -29.999989 -192.475998 -0.343308 -0.272506 -0.898821 0.422000 -0.510500 1 0 1.000000 
crank001
0 283.161499 -16.999989 -197.438995 -0.018300 -0.122697 -0.992275 0.472800 -0.485300 1 0 1.000000 
0 291.110687 -29.999987 -192.750595 0.349484 -0.303986 -0.886258 0.422000 -0.460200 1 0 1.000000 
0 275.380798 -29.999989 -192.475998 -0.343308 -0.272506 -0.898821 0.422000 -0.510500 1 0 1.000000 
crank001
0 283.161499 -16.999989 -197.438995 -0.018300 -0.122697 -0.992275 0.472800 -0.485300 1 0 1.000000 
0 292.144104 -16.999987 -195.814697 0.362995 -0.121098 -0.923888 0.472600 -0.460200 1 0 1.000000 
0 291.110687 -29.999987 -192.750595 0.349484 -0.303986 -0.886258 0.422000 -0.460200 1 0 1.000000 
crank001
0 292.144104 -16.999987 -195.814697 0.362995 -0.121098 -0.923888 0.472600 -0.460200 1 0 1.000000 
0 299.821289 -16.999987 -190.876602 0.689292 -0.117499 -0.714892 0.472000 -0.435000 1 0 1.000000 
0 291.110687 -29.999987 -192.750595 0.349484 -0.303986 -0.886258 0.422000 -0.460200 1 0 1.000000 
crank001
0 299.821289 -16.999987 -190.876602 0.689292 -0.117499 -0.714892 0.472000 -0.435000 1 0 1.000000 
0 302.427490 -29.999987 -181.822006 0.879208 -0.288703 -0.379003 0.420600 -0.409900 1 0 1.000000 
0 291.110687 -29.999987 -192.750595 0.349484 -0.303986 -0.886258 0.422000 -0.460200 1 0 1.000000 
crank001
0 299.821289 -16.999987 -190.876602 0.689292 -0.117499 -0.714892 0.472000 -0.435000 1 0 1.000000 
0 305.024414 -16.999987 -183.376297 0.912240 -0.111405 -0.394217 0.471100 -0.409900 1 0 1.000000 
0 302.427490 -29.999987 -181.822006 0.879208 -0.288703 -0.379003 0.420600 -0.409900 1 0 1.000000 
crank001
0 305.024414 -16.999987 -183.376297 0.912240 -0.111405 -0.394217 0.471100 -0.409900 1 0 1.000000 
0 306.968597 -16.999987 -174.033997 0.994267 -0.106396 -0.010600 0.470000 -0.383600 1 0 1.000000 
0 302.427490 -29.999987 -181.822006 0.879208 -0.288703 -0.379003 0.420600 -0.409900 1 0 1.000000 
crank001
0 306.968597 -16.999987 -174.033997 0.994267 -0.106396 -0.010600 0.470000 -0.383600 1 0 1.000000 
0 302.701996 -29.999987 -166.092194 0.895584 -0.266695 0.356094 0.418800 -0.359600 1 0 1.000000 
0 302.427490 -29.999987 -181.822006 0.879208 -0.288703 -0.379003 0.420600 -0.409900 1 0 1.000000 
crank001
0 306.968597 -16.999987 -174.033997 0.994267 -0.106396 -0.010600 0.470000 -0.383600 1 0 1.000000 
0 305.336914 -16.999987 -165.473297 0.924192 -0.100399 0.368497 0.469000 -0.359700 1 0 1.000000 
0 302.701996 -29.999987 -166.092194 0.895584 -0.266695 0.356094 0.418800 -0.359600 1 0 1.000000 
crank001
0 305.336914 -16.999987 -165.473297 0.924192 -0.100399 0.368497 0.469000 -0.359700 1 0 1.000000 
0 300.398712 -16.999987 -157.796097 0.716398 -0.095700 0.691098 0.468100 -0.334600 1 0 1.000000 
0 302.701996 -29.999987 -166.092194 0.895584 -0.266695 0.356094 0.418800 -0.359600 1 0 1.000000 
crank001
0 300.398712 -16.999987 -157.796097 0.716398 -0.095700 0.691098 0.468100 -0.334600 1 0 1.000000 
0 291.773499 -29.999987 -154.775406 0.385709 -0.251006 0.887820 0.417500 -0.309400 1 0 1.000000 
0 302.701996 -29.999987 -166.092194 0.895584 -0.266695 0.356094 0.418800 -0.359600 1 0 1.000000 
crank001
0 300.398712 -16.999987 -157.796097 0.716398 -0.095700 0.691098 0.468100 -0.334600 1 0 1.000000 
0 292.898499 -16.999987 -152.593002 0.397506 -0.092601 0.912915 0.467500 -0.309400 1 0 1.000000 
0 291.773499 -29.999987 -154.775406 0.385709 -0.251006 0.887820 0.417500 -0.309400 1 0 1.000000 
crank001
0 292.898499 -16.999987 -152.593002 0.397506 -0.092601 0.912915 0.467500 -0.309400 1 0 1.000000 
0 283.978088 -16.999987 -150.656204 0.017900 -0.091802 0.995616 0.467300 -0.284300 1 0 1.000000 
0 291.773499 -29.999987 -154.775406 0.385709 -0.251006 0.887820 0.417500 -0.309400 1 0 1.000000 
crank001
0 230.658997 7.366510 -162.237503 -0.917813 0.356705 -0.174302 0.098400 -0.862900 1 0 1.000000 
0 233.236404 14.782110 -150.181702 -0.804281 0.594186 -0.008700 0.084300 -0.840700 1 0 1.000000 
0 232.808197 13.611510 -158.660706 -0.867910 0.496106 -0.024700 0.086600 -0.855000 1 0 1.000000 
crank001
0 232.808197 13.611510 -158.660706 -0.867910 0.496106 -0.024700 0.086600 -0.855000 1 0 1.000000 
0 233.236404 14.782110 -150.181702 -0.804281 0.594186 -0.008700 0.084300 -0.840700 1 0 1.000000 
0 236.024597 17.784210 -153.307800 -0.668088 0.735787 0.110798 0.078600 -0.843100 1 0 1.000000 
crank001
0 236.024597 17.784210 -153.307800 -0.668088 0.735787 0.110798 0.078600 -0.843100 1 0 1.000000 
0 233.236404 14.782110 -150.181702 -0.804281 0.594186 -0.008700 0.084300 -0.840700 1 0 1.000000 
0 236.389893 16.000010 -144.933304 -0.566220 0.775127 0.280310 0.082000 -0.829100 1 0 1.000000 
crank001
0 236.024597 17.784210 -153.307800 -0.668088 0.735787 0.110798 0.078600 -0.843100 1 0 1.000000 
0 236.389893 16.000010 -144.933304 -0.566220 0.775127 0.280310 0.082000 -0.829100 1 0 1.000000 
0 239.818604 19.249510 -146.993393 -0.550313 0.711216 0.437410 0.075800 -0.829100 1 0 1.000000 
crank001
0 239.818604 19.249510 -146.993393 -0.550313 0.711216 0.437410 0.075800 -0.829100 1 0 1.000000 
0 236.389893 16.000010 -144.933304 -0.566220 0.775127 0.280310 0.082000 -0.829100 1 0 1.000000 
0 242.216904 11.313710 -135.235504 -0.376303 0.592705 0.712107 0.090900 -0.807600 1 0 1.000000 
crank001
0 239.818604 19.249510 -146.993393 -0.550313 0.711216 0.437410 0.075800 -0.829100 1 0 1.000000 
0 242.216904 11.313710 -135.235504 -0.376303 0.592705 0.712107 0.090900 -0.807600 1 0 1.000000 
0 243.612595 17.784212 -140.679199 -0.482999 0.622399 0.615899 0.078600 -0.815100 1 0 1.000000 
crank001
0 243.612595 17.784212 -140.679199 -0.482999 0.622399 0.615899 0.078600 -0.815100 1 0 1.000000 
0 242.216904 11.313710 -135.235504 -0.376303 0.592705 0.712107 0.090900 -0.807600 1 0 1.000000 
0 246.828995 13.611510 -135.326096 -0.305104 0.438205 0.845510 0.086600 -0.803300 1 0 1.000000 
crank001
0 246.828995 13.611510 -135.326096 -0.305104 0.438205 0.845510 0.086600 -0.803300 1 0 1.000000 
0 242.216904 11.313710 -135.235504 -0.376303 0.592705 0.712107 0.090900 -0.807600 1 0 1.000000 
0 244.630493 0.000011 -131.218597 -0.223290 0.124594 0.966756 0.112400 -0.798700 1 0 1.000000 
crank001
0 246.828995 13.611510 -135.326096 -0.305104 0.438205 0.845510 0.086600 -0.803300 1 0 1.000000 
0 244.630493 0.000011 -131.218597 -0.223290 0.124594 0.966756 0.112400 -0.798700 1 0 1.000000 
0 248.978104 7.366511 -131.749405 -0.298398 0.242599 0.923095 0.098400 -0.795300 1 0 1.000000 
crank001
0 248.978104 7.366511 -131.749405 -0.298398 0.242599 0.923095 0.098400 -0.795300 1 0 1.000000 
0 244.630493 0.000011 -131.218597 -0.223290 0.124594 0.966756 0.112400 -0.798700 1 0 1.000000 
0 249.732803 0.000011 -130.493393 -0.231104 -0.091502 0.968617 0.112400 -0.792500 1 0 1.000000 
crank001
0 249.732803 0.000011 -130.493393 -0.231104 -0.091502 0.968617 0.112400 -0.792500 1 0 1.000000 
0 244.630493 0.000011 -131.218597 -0.223290 0.124594 0.966756 0.112400 -0.798700 1 0 1.000000 
0 242.216904 -11.313689 -135.235504 -0.285591 -0.416587 0.863072 0.133900 -0.807600 1 0 1.000000 
crank001
0 249.732803 0.000011 -130.493393 -0.231104 -0.091502 0.968617 0.112400 -0.792500 1 0 1.000000 
0 242.216904 -11.313689 -135.235504 -0.285591 -0.416587 0.863072 0.133900 -0.807600 1 0 1.000000 
0 248.978104 -7.366489 -131.749405 -0.306201 -0.279201 0.910103 0.126400 -0.795300 1 0 1.000000 
crank001
0 248.978104 -7.366489 -131.749405 -0.306201 -0.279201 0.910103 0.126400 -0.795300 1 0 1.000000 
0 242.216904 -11.313689 -135.235504 -0.285591 -0.416587 0.863072 0.133900 -0.807600 1 0 1.000000 
0 246.828995 -13.611489 -135.326096 -0.371706 -0.567609 0.734612 0.138300 -0.803300 1 0 1.000000 
crank001
0 246.828995 -13.611489 -135.326096 -0.371706 -0.567609 0.734612 0.138300 -0.803300 1 0 1.000000 
0 242.216904 -11.313689 -135.235504 -0.285591 -0.416587 0.863072 0.133900 -0.807600 1 0 1.000000 
0 236.389893 -15.999990 -144.933304 -0.346588 -0.875970 0.335489 0.142800 -0.829100 1 0 1.000000 
crank001
0 246.828995 -13.611489 -135.326096 -0.371706 -0.567609 0.734612 0.138300 -0.803300 1 0 1.000000 
0 236.389893 -15.999990 -144.933304 -0.346588 -0.875970 0.335489 0.142800 -0.829100 1 0 1.000000 
0 243.612595 -17.784189 -140.679199 -0.514193 -0.808089 0.287396 0.146200 -0.815100 1 0 1.000000 
crank001
0 243.612595 -17.784189 -140.679199 -0.514193 -0.808089 0.287396 0.146200 -0.815100 1 0 1.000000 
0 236.389893 -15.999990 -144.933304 -0.346588 -0.875970 0.335489 0.142800 -0.829100 1 0 1.000000 
0 230.562897 -11.313689 -154.630997 -0.406787 -0.810373 -0.421686 0.133900 -0.850600 1 0 1.000000 
crank001
0 243.612595 -17.784189 -140.679199 -0.514193 -0.808089 0.287396 0.146200 -0.815100 1 0 1.000000 
0 230.562897 -11.313689 -154.630997 -0.406787 -0.810373 -0.421686 0.133900 -0.850600 1 0 1.000000 
0 236.024597 -17.784191 -153.307800 -0.818041 -0.554628 -0.152308 0.146200 -0.843100 1 0 1.000000 
crank001
0 236.024597 -17.784191 -153.307800 -0.818041 -0.554628 -0.152308 0.146200 -0.843100 1 0 1.000000 
0 230.562897 -11.313689 -154.630997 -0.406787 -0.810373 -0.421686 0.133900 -0.850600 1 0 1.000000 
0 228.149307 0.000010 -158.647995 -0.877725 -0.216606 -0.427412 0.112400 -0.859500 1 0 1.000000 
crank001
0 236.024597 -17.784191 -153.307800 -0.818041 -0.554628 -0.152308 0.146200 -0.843100 1 0 1.000000 
0 228.149307 0.000010 -158.647995 -0.877725 -0.216606 -0.427412 0.112400 -0.859500 1 0 1.000000 
0 230.658997 -7.366490 -162.237503 -0.956016 -0.271005 -0.112202 0.126400 -0.862900 1 0 1.000000 
crank001
0 230.658997 -7.366490 -162.237503 -0.956016 -0.271005 -0.112202 0.126400 -0.862900 1 0 1.000000 
0 228.149307 0.000010 -158.647995 -0.877725 -0.216606 -0.427412 0.112400 -0.859500 1 0 1.000000 
0 229.904404 0.000010 -163.493500 -0.938985 0.051399 -0.340095 0.112400 -0.865700 1 0 1.000000 
crank001
0 229.904404 0.000010 -163.493500 -0.938985 0.051399 -0.340095 0.112400 -0.865700 1 0 1.000000 
0 228.149307 0.000010 -158.647995 -0.877725 -0.216606 -0.427412 0.112400 -0.859500 1 0 1.000000 
0 228.776596 6.122910 -157.604004 -0.918727 0.249107 -0.306409 0.100800 -0.857200 1 0 1.000000 
crank001
0 229.904404 0.000010 -163.493500 -0.938985 0.051399 -0.340095 0.112400 -0.865700 1 0 1.000000 
0 228.776596 6.122910 -157.604004 -0.918727 0.249107 -0.306409 0.100800 -0.857200 1 0 1.000000 
0 230.658997 7.366510 -162.237503 -0.917813 0.356705 -0.174302 0.098400 -0.862900 1 0 1.000000 
crank001
0 230.658997 7.366510 -162.237503 -0.917813 0.356705 -0.174302 0.098400 -0.862900 1 0 1.000000 
0 228.776596 6.122910 -157.604004 -0.918727 0.249107 -0.306409 0.100800 -0.857200 1 0 1.000000 
0 233.236404 14.782110 -150.181702 -0.804281 0.594186 -0.008700 0.084300 -0.840700 1 0 1.000000 
crank001
0 261.802704 17.000011 -182.621902 -0.925417 0.111402 -0.362206 0.392700 -0.409800 1 0 1.000000 
0 266.740814 -16.999989 -190.299103 -0.714921 -0.118904 -0.689021 0.526400 -0.435700 1 0 1.000000 
0 261.802704 -16.999989 -182.621902 -0.926240 -0.114205 -0.359216 0.526500 -0.410000 1 0 1.000000 
crank001
0 261.802704 17.000011 -182.621902 -0.925417 0.111402 -0.362206 0.392700 -0.409800 1 0 1.000000 
0 266.740814 17.000011 -190.299103 -0.713811 0.117502 -0.690411 0.392600 -0.435400 1 0 1.000000 
0 266.740814 -16.999989 -190.299103 -0.714921 -0.118904 -0.689021 0.526400 -0.435700 1 0 1.000000 
crank001
0 266.740814 17.000011 -190.299103 -0.713811 0.117502 -0.690411 0.392600 -0.435400 1 0 1.000000 
0 274.241089 -16.999989 -195.502197 -0.396707 -0.121902 -0.909815 0.526300 -0.461400 1 0 1.000000 
0 266.740814 -16.999989 -190.299103 -0.714921 -0.118904 -0.689021 0.526400 -0.435700 1 0 1.000000 
crank001
0 266.740814 17.000011 -190.299103 -0.713811 0.117502 -0.690411 0.392600 -0.435400 1 0 1.000000 
0 274.241089 17.000011 -195.502197 -0.394987 0.121096 -0.910670 0.392500 -0.461000 1 0 1.000000 
0 274.241089 -16.999989 -195.502197 -0.396707 -0.121902 -0.909815 0.526300 -0.461400 1 0 1.000000 
crank001
0 274.241089 17.000011 -195.502197 -0.394987 0.121096 -0.910670 0.392500 -0.461000 1 0 1.000000 
0 283.161499 -16.999989 -197.438995 -0.018300 -0.122697 -0.992275 0.526200 -0.487100 1 0 1.000000 
0 274.241089 -16.999989 -195.502197 -0.396707 -0.121902 -0.909815 0.526300 -0.461400 1 0 1.000000 
crank001
0 274.241089 17.000011 -195.502197 -0.394987 0.121096 -0.910670 0.392500 -0.461000 1 0 1.000000 
0 283.161499 17.000011 -197.438995 -0.016400 0.122701 -0.992308 0.392300 -0.486700 1 0 1.000000 
0 283.161499 -16.999989 -197.438995 -0.018300 -0.122697 -0.992275 0.526200 -0.487100 1 0 1.000000 
crank001
0 283.161499 17.000011 -197.438995 -0.016400 0.122701 -0.992308 0.392300 -0.486700 1 0 1.000000 
0 292.144104 -16.999987 -195.814697 0.362995 -0.121098 -0.923888 0.526000 -0.512700 1 0 1.000000 
0 283.161499 -16.999989 -197.438995 -0.018300 -0.122697 -0.992275 0.526200 -0.487100 1 0 1.000000 
crank001
0 283.161499 17.000011 -197.438995 -0.016400 0.122701 -0.992308 0.392300 -0.486700 1 0 1.000000 
0 292.144104 17.000013 -195.814697 0.364704 0.121901 -0.923109 0.392200 -0.512300 1 0 1.000000 
0 292.144104 -16.999987 -195.814697 0.362995 -0.121098 -0.923888 0.526000 -0.512700 1 0 1.000000 
crank001
0 292.144104 17.000013 -195.814697 0.364704 0.121901 -0.923109 0.392200 -0.512300 1 0 1.000000 
0 299.821289 -16.999987 -190.876602 0.689292 -0.117499 -0.714892 0.525900 -0.538300 1 0 1.000000 
0 292.144104 -16.999987 -195.814697 0.362995 -0.121098 -0.923888 0.526000 -0.512700 1 0 1.000000 
crank001
0 292.144104 17.000013 -195.814697 0.364704 0.121901 -0.923109 0.392200 -0.512300 1 0 1.000000 
0 299.821289 17.000013 -190.876602 0.690444 0.118908 -0.713546 0.392000 -0.538000 1 0 1.000000 
0 299.821289 -16.999987 -190.876602 0.689292 -0.117499 -0.714892 0.525900 -0.538300 1 0 1.000000 
crank001
0 299.821289 17.000013 -190.876602 0.690444 0.118908 -0.713546 0.392000 -0.538000 1 0 1.000000 
0 305.024414 -16.999987 -183.376297 0.912240 -0.111405 -0.394217 0.525800 -0.563900 1 0 1.000000 
0 299.821289 -16.999987 -190.876602 0.689292 -0.117499 -0.714892 0.525900 -0.538300 1 0 1.000000 
crank001
0 299.821289 17.000013 -190.876602 0.690444 0.118908 -0.713546 0.392000 -0.538000 1 0 1.000000 
0 305.024414 17.000013 -183.376297 0.913141 0.114205 -0.391318 0.391900 -0.563800 1 0 1.000000 
0 305.024414 -16.999987 -183.376297 0.912240 -0.111405 -0.394217 0.525800 -0.563900 1 0 1.000000 
crank001
0 305.024414 17.000013 -183.376297 0.913141 0.114205 -0.391318 0.391900 -0.563800 1 0 1.000000 
0 306.968597 -16.999987 -174.033997 0.994267 -0.106396 -0.010600 0.525800 -0.590700 1 0 1.000000 
0 305.024414 -16.999987 -183.376297 0.912240 -0.111405 -0.394217 0.525800 -0.563900 1 0 1.000000 
crank001
0 305.024414 17.000013 -183.376297 0.913141 0.114205 -0.391318 0.391900 -0.563800 1 0 1.000000 
0 306.968597 17.000013 -174.033997 0.994078 0.108298 -0.009000 0.391900 -0.590700 1 0 1.000000 
0 306.968597 -16.999987 -174.033997 0.994267 -0.106396 -0.010600 0.525800 -0.590700 1 0 1.000000 
crank001
0 306.968597 17.000013 -174.033997 0.994078 0.108298 -0.009000 0.391900 -0.180100 1 0 1.000000 
0 305.336914 -16.999987 -165.473297 0.924192 -0.100399 0.368497 0.525800 -0.204500 1 0 1.000000 
0 306.968597 -16.999987 -174.033997 0.994267 -0.106396 -0.010600 0.525800 -0.180100 1 0 1.000000 
crank001
0 306.968597 17.000013 -174.033997 0.994078 0.108298 -0.009000 0.391900 -0.180100 1 0 1.000000 
0 305.336914 17.000013 -165.473297 0.923992 0.103299 0.368197 0.391900 -0.204700 1 0 1.000000 
0 305.336914 -16.999987 -165.473297 0.924192 -0.100399 0.368497 0.525800 -0.204500 1 0 1.000000 
crank001
0 305.336914 17.000013 -165.473297 0.923992 0.103299 0.368197 0.391900 -0.204700 1 0 1.000000 
0 300.398712 -16.999987 -157.796097 0.716398 -0.095700 0.691098 0.525900 -0.230100 1 0 1.000000 
0 305.336914 -16.999987 -165.473297 0.924192 -0.100399 0.368497 0.525800 -0.204500 1 0 1.000000 
crank001
0 305.336914 17.000013 -165.473297 0.923992 0.103299 0.368197 0.391900 -0.204700 1 0 1.000000 
0 300.398712 17.000013 -157.796097 0.715466 0.097095 0.691867 0.392000 -0.230400 1 0 1.000000 
0 300.398712 -16.999987 -157.796097 0.716398 -0.095700 0.691098 0.525900 -0.230100 1 0 1.000000 
crank001
0 300.398712 17.000013 -157.796097 0.715466 0.097095 0.691867 0.392000 -0.230400 1 0 1.000000 
0 292.898499 -16.999987 -152.593002 0.397506 -0.092601 0.912915 0.526000 -0.255700 1 0 1.000000 
0 300.398712 -16.999987 -157.796097 0.716398 -0.095700 0.691098 0.525900 -0.230100 1 0 1.000000 
crank001
0 300.398712 17.000013 -157.796097 0.715466 0.097095 0.691867 0.392000 -0.230400 1 0 1.000000 
0 292.898499 17.000013 -152.593002 0.396490 0.093398 0.913276 0.392200 -0.256100 1 0 1.000000 
0 292.898499 -16.999987 -152.593002 0.397506 -0.092601 0.912915 0.526000 -0.255700 1 0 1.000000 
crank001
0 292.898499 17.000013 -152.593002 0.396490 0.093398 0.913276 0.392200 -0.256100 1 0 1.000000 
0 283.978088 -16.999987 -150.656204 0.017900 -0.091802 0.995616 0.526200 -0.281400 1 0 1.000000 
0 292.898499 -16.999987 -152.593002 0.397506 -0.092601 0.912915 0.526000 -0.255700 1 0 1.000000 
crank001
0 292.898499 17.000013 -152.593002 0.396490 0.093398 0.913276 0.392200 -0.256100 1 0 1.000000 
0 283.978088 17.000013 -150.656204 0.016801 0.091803 0.995635 0.392300 -0.281800 1 0 1.000000 
0 283.978088 -16.999987 -150.656204 0.017900 -0.091802 0.995616 0.526200 -0.281400 1 0 1.000000 
crank001
0 283.978088 17.000013 -150.656204 0.016801 0.091803 0.995635 0.392300 -0.281800 1 0 1.000000 
0 274.995514 -16.999989 -152.280502 -0.364295 -0.093399 0.926588 0.526300 -0.307100 1 0 1.000000 
0 283.978088 -16.999987 -150.656204 0.017900 -0.091802 0.995616 0.526200 -0.281400 1 0 1.000000 
crank001
0 283.978088 17.000013 -150.656204 0.016801 0.091803 0.995635 0.392300 -0.281800 1 0 1.000000 
0 274.995514 17.000011 -152.280502 -0.365411 0.092603 0.926228 0.392500 -0.307400 1 0 1.000000 
0 274.995514 -16.999989 -152.280502 -0.364295 -0.093399 0.926588 0.526300 -0.307100 1 0 1.000000 
crank001
0 274.995514 17.000011 -152.280502 -0.365411 0.092603 0.926228 0.392500 -0.307400 1 0 1.000000 
0 267.318298 -16.999989 -157.218597 -0.690900 -0.097100 0.716400 0.526400 -0.332800 1 0 1.000000 
0 274.995514 -16.999989 -152.280502 -0.364295 -0.093399 0.926588 0.526300 -0.307100 1 0 1.000000 
crank001
0 274.995514 17.000011 -152.280502 -0.365411 0.092603 0.926228 0.392500 -0.307400 1 0 1.000000 
0 267.318298 17.000011 -157.218597 -0.691810 0.095701 0.715710 0.392600 -0.333100 1 0 1.000000 
0 267.318298 -16.999989 -157.218597 -0.690900 -0.097100 0.716400 0.526400 -0.332800 1 0 1.000000 
crank001
0 267.318298 17.000011 -157.218597 -0.691810 0.095701 0.715710 0.392600 -0.333100 1 0 1.000000 
0 262.115204 -16.999989 -164.718903 -0.910589 -0.103299 0.400195 0.526500 -0.358500 1 0 1.000000 
0 267.318298 -16.999989 -157.218597 -0.690900 -0.097100 0.716400 0.526400 -0.332800 1 0 1.000000 
crank001
0 267.318298 17.000011 -157.218597 -0.691810 0.095701 0.715710 0.392600 -0.333100 1 0 1.000000 
0 262.115204 17.000011 -164.718903 -0.910783 0.100398 0.400493 0.392700 -0.358600 1 0 1.000000 
0 262.115204 -16.999989 -164.718903 -0.910589 -0.103299 0.400195 0.526500 -0.358500 1 0 1.000000 
crank001
0 262.115204 17.000011 -164.718903 -0.910783 0.100398 0.400493 0.392700 -0.358600 1 0 1.000000 
0 260.185699 -16.999989 -173.217407 -0.993786 -0.108299 0.025700 0.526600 -0.383000 1 0 1.000000 
0 262.115204 -16.999989 -164.718903 -0.910589 -0.103299 0.400195 0.526500 -0.358500 1 0 1.000000 
crank001
0 262.115204 17.000011 -164.718903 -0.910783 0.100398 0.400493 0.392700 -0.358600 1 0 1.000000 
0 260.185699 17.000011 -173.217407 -0.994031 0.106403 0.024101 0.392700 -0.383100 1 0 1.000000 
0 260.185699 -16.999989 -173.217407 -0.993786 -0.108299 0.025700 0.526600 -0.383000 1 0 1.000000 
crank001
0 260.185699 17.000011 -173.217407 -0.994031 0.106403 0.024101 0.392700 -0.383100 1 0 1.000000 
0 261.802704 -16.999989 -182.621902 -0.926240 -0.114205 -0.359216 0.526500 -0.410000 1 0 1.000000 
0 260.185699 -16.999989 -173.217407 -0.993786 -0.108299 0.025700 0.526600 -0.383000 1 0 1.000000 
crank001
0 260.185699 17.000011 -173.217407 -0.994031 0.106403 0.024101 0.392700 -0.383100 1 0 1.000000 
0 261.802704 17.000011 -182.621902 -0.925417 0.111402 -0.362206 0.392700 -0.409800 1 0 1.000000 
0 261.802704 -16.999989 -182.621902 -0.926240 -0.114205 -0.359216 0.526500 -0.410000 1 0 1.000000 
end
