$cd ".\"
$modelname "props_caves/antlionegg01_chunk01a.mdl"
$model "Body" "antlionegg01_chunk01a_reference.smd"
$cdmaterials "models/props_caves/"
$attachment "placementOrigin" "static_prop" 3.13 0.02 -5.78 rotate -0 90 0 
$attachment "placementOrigin" "static_prop" 0.02 -1.28 -3.44 rotate -0 0 0 
$surfaceprop "flesh"
$eyeposition 0.000 0.000 0.000
$illumposition 0.000 0.000 0.000
$sequence idle "idle" ACT_IDLE 1 fps 30.000000
$collisionmodel "antlionegg01_chunk01a_reference.smd"
{
	$mass 30
	$inertia 1
	$damping 0
	$rotdamping 0
}

$collisiontext
{
break {"model" "props_caves/antlionegg01_chunk02a" "health" "10" "fadetime" "2"  }
break {"model" "props_caves/antlionegg01_chunk02a" "health" "10" "fadetime" "2"  }
break {"model" "props_caves/antlionegg01_chunk02a" "health" "10" "fadetime" "2"  }
break {"model" "props_caves/antlionegg01_chunk02a" "health" "10" "fadetime" "2"  }
break {"model" "props_caves/antlionegg01_chunk02b" "health" "10" "fadetime" "2"  }
break {"model" "props_caves/antlionegg01_chunk02c" "health" "10" "fadetime" "3"  }
break {"model" "props_caves/antlionegg01_chunk02c" "health" "10" "fadetime" "4"  }
}


$keyvalues
{
	prop_data 
	{
		"dmg.bullets" "1.0"
		"dmg.club" "1.0"
		"dmg.explosive" "1.0"
		"health" "50"
	}
	physgun_interactions 
	{
		"onfirstimpact" "break"
	}
	fire_interactions 
	{
		"flammable" "yes"
	}
}