$cd ".\"
$modelname "props_combine/Combine_Citadel001_old.mdl"
$model "Body" "Combine_Citadel001_reference.smd"
$cdmaterials "models/props_combine/old"
$surfaceprop "metal"
$eyeposition 0.000 0.000 0.000
$illumposition -0.000 0.000 0.000
$sequence idle "idle" ACT_IDLE 1 fps 30.000000
$staticprop
$origin 0 0 0 270

$texturegroup skinfamilies
{
	{ "Combine_Citadel001.vmt" }
	{ "Combine_Citadel001_alt.vmt" }
}