version 1
nodes
  0 "static_prop" -1
end
skeleton
time 0
0 0.000000 0.000000 0.000000 0.000000 0.000000 0.000000
end
triangles
dockpole01
0 -2.740800 -4.092800 61.759102 -0.311496 -0.887187 0.340395 0.302400 -0.814800 1 0 1.000000 
0 6.748600 3.204800 121.655403 -0.359116 -0.877839 0.316914 0.327800 -0.651600 1 0 1.000000 
0 -1.289600 5.328600 117.721199 -0.311496 -0.887187 0.340395 0.294000 -0.662700 1 0 1.000000 
dockpole01
0 -4.919400 2.760000 -143.076202 -0.976345 0.204909 -0.069003 0.193400 -0.981700 1 0 1.000000 
0 -2.740800 -4.092800 61.759102 -0.419216 -0.906834 -0.043702 0.233600 -0.333200 1 0 1.000000 
0 -6.047200 1.682300 80.697403 -0.978853 0.204390 -0.008500 0.199900 -0.273200 1 0 1.000000 
dockpole01
0 -4.919400 2.760000 -143.076202 -0.976345 0.204909 -0.069003 0.193400 -0.981700 1 0 1.000000 
0 6.560600 -0.316100 -143.076202 0.928977 -0.350991 -0.117497 0.317600 -0.981700 1 0 1.000000 
0 -2.740800 -4.092800 61.759102 -0.419216 -0.906834 -0.043702 0.233600 -0.333200 1 0 1.000000 
dockpole01
0 6.560600 -0.316100 -143.076202 0.928977 -0.350991 -0.117497 0.317600 -0.981700 1 0 1.000000 
0 3.733700 -4.115900 65.111900 0.544494 -0.838590 -0.017100 0.269200 -0.322600 1 0 1.000000 
0 -2.740800 -4.092800 61.759102 -0.419216 -0.906834 -0.043702 0.233600 -0.333200 1 0 1.000000 
dockpole01
0 6.560600 -0.316100 -143.076202 0.928977 -0.350991 -0.117497 0.317600 -0.981700 1 0 1.000000 
0 -4.919400 2.760000 -143.076202 -0.976345 0.204909 -0.069003 0.362400 -0.981700 1 0 1.000000 
0 -1.289600 5.328600 117.721199 -0.033701 0.999228 -0.020201 0.351800 -0.405100 1 0 1.000000 
dockpole01
0 -4.919400 2.760000 -143.076202 -0.976345 0.204909 -0.069003 0.362400 -0.981700 1 0 1.000000 
0 -6.047200 1.682300 80.697403 -0.978853 0.204390 -0.008500 0.363300 -0.421200 1 0 1.000000 
0 -1.289600 5.328600 117.721199 -0.033701 0.999228 -0.020201 0.351800 -0.405100 1 0 1.000000 
dockpole01
0 3.733700 -4.115900 65.111900 0.544494 -0.838590 -0.017100 0.269200 -0.322600 1 0 1.000000 
0 6.560600 -0.316100 -143.076202 0.928977 -0.350991 -0.117497 0.304000 -0.394900 1 0 1.000000 
0 6.748600 3.204800 121.655403 0.904522 0.426210 -0.013600 0.303600 -0.079600 1 0 1.000000 
dockpole01
0 6.560600 -0.316100 -143.076202 0.928977 -0.350991 -0.117497 0.304000 -0.394900 1 0 1.000000 
0 -1.289600 5.328600 117.721199 -0.033701 0.999228 -0.020201 0.340300 -0.092000 1 0 1.000000 
0 6.748600 3.204800 121.655403 0.904522 0.426210 -0.013600 0.303600 -0.079600 1 0 1.000000 
dockpole01
0 -2.740800 -4.092800 61.759102 -0.534207 -0.784310 0.315404 0.302400 -0.814800 1 0 1.000000 
0 -1.289600 5.328600 117.721199 -0.560111 -0.771915 0.300706 0.294000 -0.662700 1 0 1.000000 
0 -6.047200 1.682300 80.697403 -0.534207 -0.784310 0.315404 0.284500 -0.778500 1 0 1.000000 
dockpole01
0 -2.740800 -4.092800 61.759102 -0.069601 -0.958517 0.276405 0.302400 -0.814800 1 0 1.000000 
0 3.733700 -4.115900 65.111900 -0.069601 -0.958517 0.276405 0.329600 -0.805500 1 0 1.000000 
0 6.748600 3.204800 121.655403 -0.092196 -0.972055 0.215890 0.327800 -0.651600 1 0 1.000000 
end
