version 1
nodes
  0 "static_prop" -1
end
skeleton
time 0
0 0.000000 0.000000 0.000000 0.000000 0.000000 0.000000
end
triangles
tree_card_01
0 267.250580 0.000012 529.373718 -0.000000 1.000000 0.000000 0.000000 -0.000010 1 0 1.000000 
0 267.250549 0.000012 -0.269442 -0.000000 1.000000 0.000000 0.000000 -0.990920 1 0 1.000000 
0 -267.250519 -0.000012 529.373718 -0.000000 1.000000 0.000000 0.999990 -0.000010 1 0 1.000000 
tree_card_01
0 267.250549 0.000012 -0.269442 -0.000000 1.000000 0.000000 0.000000 -0.990920 1 0 1.000000 
0 -267.250549 -0.000012 -0.269418 -0.000000 1.000000 0.000000 0.999990 -0.990920 1 0 1.000000 
0 -267.250519 -0.000012 529.373718 -0.000000 1.000000 0.000000 0.999990 -0.000010 1 0 1.000000 
end
