version 1
nodes
  0 "static_prop" -1
end
skeleton
time 0
0 0.000000 0.000000 0.000000 0.000000 0.000000 0.000000
end
triangles
metalroof006a
0 3.981900 -4.021600 59.252399 0.999638 0.000000 0.026901 0.375000 -0.769000 1 0 1.000000 
0 3.981900 3.978400 59.252399 0.999638 0.000000 0.026901 0.625000 -0.769000 1 0 1.000000 
0 -0.018100 -0.021600 207.650604 0.999638 0.000000 0.026901 0.500000 -0.000500 1 0 1.000000 
metalroof006a
0 -4.018100 -4.021600 105.650497 0.000000 -1.000000 0.000000 0.125000 -0.490400 1 0 1.000000 
0 3.981900 -4.021600 101.650497 0.000000 -1.000000 0.000000 0.375000 -0.509600 1 0 1.000000 
0 3.981900 -4.021600 105.650497 0.000000 -1.000000 0.000000 0.375000 -0.490400 1 0 1.000000 
metalroof006a
0 -4.018100 -4.021600 101.650497 0.000000 -1.000000 0.000000 0.125000 -0.509600 1 0 1.000000 
0 3.981900 -4.021600 101.650497 0.000000 -1.000000 0.000000 0.375000 -0.509600 1 0 1.000000 
0 -4.018100 -4.021600 105.650497 0.000000 -1.000000 0.000000 0.125000 -0.490400 1 0 1.000000 
metalroof006a
0 3.981900 -4.021600 105.650497 1.000000 0.000000 0.000000 0.375000 -0.490400 1 0 1.000000 
0 3.981900 3.978400 101.650497 1.000000 0.000000 0.000000 0.625000 -0.509600 1 0 1.000000 
0 3.981900 3.978400 105.650497 1.000000 0.000000 0.000000 0.625000 -0.490400 1 0 1.000000 
metalroof006a
0 3.981900 -4.021600 101.650497 1.000000 0.000000 0.000000 0.375000 -0.509600 1 0 1.000000 
0 3.981900 3.978400 101.650497 1.000000 0.000000 0.000000 0.625000 -0.509600 1 0 1.000000 
0 3.981900 -4.021600 105.650497 1.000000 0.000000 0.000000 0.375000 -0.490400 1 0 1.000000 
metalroof006a
0 3.981900 3.978400 105.650497 -0.000000 1.000000 0.000000 0.625000 -0.490400 1 0 1.000000 
0 -4.018100 3.978400 101.650497 -0.000000 1.000000 0.000000 0.875000 -0.509600 1 0 1.000000 
0 -4.018100 3.978400 105.650497 -0.000000 1.000000 0.000000 0.875000 -0.490400 1 0 1.000000 
metalroof006a
0 3.981900 3.978400 101.650497 -0.000000 1.000000 0.000000 0.625000 -0.509600 1 0 1.000000 
0 -4.018100 3.978400 101.650497 -0.000000 1.000000 0.000000 0.875000 -0.509600 1 0 1.000000 
0 3.981900 3.978400 105.650497 -0.000000 1.000000 0.000000 0.625000 -0.490400 1 0 1.000000 
metalroof006a
0 -4.018100 -4.021600 115.650497 0.000000 -1.000000 0.000000 0.125000 -0.442400 1 0 1.000000 
0 3.981900 -4.021600 111.650497 0.000000 -1.000000 0.000000 0.375000 -0.461600 1 0 1.000000 
0 3.981900 -4.021600 115.650497 0.000000 -1.000000 0.000000 0.375000 -0.442400 1 0 1.000000 
metalroof006a
0 -4.018100 -4.021600 111.650497 0.000000 -1.000000 0.000000 0.125000 -0.461600 1 0 1.000000 
0 3.981900 -4.021600 111.650497 0.000000 -1.000000 0.000000 0.375000 -0.461600 1 0 1.000000 
0 -4.018100 -4.021600 115.650497 0.000000 -1.000000 0.000000 0.125000 -0.442400 1 0 1.000000 
metalroof006a
0 3.981900 -4.021600 115.650497 1.000000 0.000000 0.000000 0.375000 -0.442400 1 0 1.000000 
0 3.981900 3.978400 111.650497 1.000000 0.000000 0.000000 0.625000 -0.461600 1 0 1.000000 
0 3.981900 3.978400 115.650497 1.000000 0.000000 0.000000 0.625000 -0.442400 1 0 1.000000 
metalroof006a
0 3.981900 -4.021600 111.650497 1.000000 0.000000 0.000000 0.375000 -0.461600 1 0 1.000000 
0 3.981900 3.978400 111.650497 1.000000 0.000000 0.000000 0.625000 -0.461600 1 0 1.000000 
0 3.981900 -4.021600 115.650497 1.000000 0.000000 0.000000 0.375000 -0.442400 1 0 1.000000 
metalroof006a
0 3.981900 3.978400 115.650497 -0.000000 1.000000 0.000000 0.625000 -0.442400 1 0 1.000000 
0 -4.018100 3.978400 111.650497 -0.000000 1.000000 0.000000 0.875000 -0.461600 1 0 1.000000 
0 -4.018100 3.978400 115.650497 -0.000000 1.000000 0.000000 0.875000 -0.442400 1 0 1.000000 
metalroof006a
0 3.981900 3.978400 111.650497 -0.000000 1.000000 0.000000 0.625000 -0.461600 1 0 1.000000 
0 -4.018100 3.978400 111.650497 -0.000000 1.000000 0.000000 0.875000 -0.461600 1 0 1.000000 
0 3.981900 3.978400 115.650497 -0.000000 1.000000 0.000000 0.625000 -0.442400 1 0 1.000000 
metalroof006a
0 -4.018100 -4.021600 95.650497 0.000000 -1.000000 0.000000 0.125000 -0.538400 1 0 1.000000 
0 3.981900 -4.021600 91.650497 0.000000 -1.000000 0.000000 0.375000 -0.557600 1 0 1.000000 
0 3.981900 -4.021600 95.650497 0.000000 -1.000000 0.000000 0.375000 -0.538400 1 0 1.000000 
metalroof006a
0 -4.018100 -4.021600 91.650497 0.000000 -1.000000 0.000000 0.125000 -0.557600 1 0 1.000000 
0 3.981900 -4.021600 91.650497 0.000000 -1.000000 0.000000 0.375000 -0.557600 1 0 1.000000 
0 -4.018100 -4.021600 95.650497 0.000000 -1.000000 0.000000 0.125000 -0.538400 1 0 1.000000 
metalroof006a
0 3.981900 -4.021600 95.650497 1.000000 0.000000 0.000000 0.375000 -0.538400 1 0 1.000000 
0 3.981900 3.978400 91.650497 1.000000 0.000000 0.000000 0.625000 -0.557600 1 0 1.000000 
0 3.981900 3.978400 95.650497 1.000000 0.000000 0.000000 0.625000 -0.538400 1 0 1.000000 
metalroof006a
0 3.981900 -4.021600 91.650497 1.000000 0.000000 0.000000 0.375000 -0.557600 1 0 1.000000 
0 3.981900 3.978400 91.650497 1.000000 0.000000 0.000000 0.625000 -0.557600 1 0 1.000000 
0 3.981900 -4.021600 95.650497 1.000000 0.000000 0.000000 0.375000 -0.538400 1 0 1.000000 
metalroof006a
0 -4.018100 3.978400 115.650497 0.000000 0.000000 1.000000 -0.125000 -0.442400 1 0 1.000000 
0 3.981900 -4.021600 115.650497 0.000000 0.000000 1.000000 0.375000 -0.442400 1 0 1.000000 
0 3.981900 3.978400 115.650497 0.000000 0.000000 1.000000 0.625000 -0.442400 1 0 1.000000 
metalroof006a
0 -4.018100 -4.021600 115.650497 0.000000 0.000000 1.000000 0.125000 -0.442400 1 0 1.000000 
0 3.981900 -4.021600 115.650497 0.000000 0.000000 1.000000 0.375000 -0.442400 1 0 1.000000 
0 -4.018100 3.978400 115.650497 0.000000 0.000000 1.000000 -0.125000 -0.442400 1 0 1.000000 
metalroof006a
0 3.981900 3.978400 111.650497 0.000000 0.000000 -1.000000 0.625000 -0.461600 1 0 1.000000 
0 -4.018100 -4.021600 111.650497 0.000000 0.000000 -1.000000 0.125000 -0.461600 1 0 1.000000 
0 -4.018100 3.978400 111.650497 0.000000 0.000000 -1.000000 -0.125000 -0.461600 1 0 1.000000 
metalroof006a
0 3.981900 -4.021600 111.650497 0.000000 0.000000 -1.000000 0.375000 -0.461600 1 0 1.000000 
0 -4.018100 -4.021600 111.650497 0.000000 0.000000 -1.000000 0.125000 -0.461600 1 0 1.000000 
0 3.981900 3.978400 111.650497 0.000000 0.000000 -1.000000 0.625000 -0.461600 1 0 1.000000 
metalroof006a
0 -4.018100 3.978400 95.650497 0.000000 0.000000 1.000000 -0.125000 -0.538400 1 0 1.000000 
0 3.981900 -4.021600 95.650497 0.000000 0.000000 1.000000 0.375000 -0.538400 1 0 1.000000 
0 3.981900 3.978400 95.650497 0.000000 0.000000 1.000000 0.625000 -0.538400 1 0 1.000000 
metalroof006a
0 -4.018100 -4.021600 95.650497 0.000000 0.000000 1.000000 0.125000 -0.538400 1 0 1.000000 
0 3.981900 -4.021600 95.650497 0.000000 0.000000 1.000000 0.375000 -0.538400 1 0 1.000000 
0 -4.018100 3.978400 95.650497 0.000000 0.000000 1.000000 -0.125000 -0.538400 1 0 1.000000 
metalroof006a
0 3.981900 3.978400 91.650497 0.000000 0.000000 -1.000000 0.625000 -0.557600 1 0 1.000000 
0 -4.018100 -4.021600 91.650497 0.000000 0.000000 -1.000000 0.125000 -0.557600 1 0 1.000000 
0 -4.018100 3.978400 91.650497 0.000000 0.000000 -1.000000 -0.125000 -0.557600 1 0 1.000000 
metalroof006a
0 3.981900 -4.021600 91.650497 0.000000 0.000000 -1.000000 0.375000 -0.557600 1 0 1.000000 
0 -4.018100 -4.021600 91.650497 0.000000 0.000000 -1.000000 0.125000 -0.557600 1 0 1.000000 
0 3.981900 3.978400 91.650497 0.000000 0.000000 -1.000000 0.625000 -0.557600 1 0 1.000000 
metalroof006a
0 -4.018100 3.978400 105.650497 0.000000 0.000000 1.000000 -0.125000 -0.490400 1 0 1.000000 
0 3.981900 -4.021600 105.650497 0.000000 0.000000 1.000000 0.375000 -0.490400 1 0 1.000000 
0 3.981900 3.978400 105.650497 0.000000 0.000000 1.000000 0.625000 -0.490400 1 0 1.000000 
metalroof006a
0 -4.018100 -4.021600 105.650497 0.000000 0.000000 1.000000 0.125000 -0.490400 1 0 1.000000 
0 3.981900 -4.021600 105.650497 0.000000 0.000000 1.000000 0.375000 -0.490400 1 0 1.000000 
0 -4.018100 3.978400 105.650497 0.000000 0.000000 1.000000 -0.125000 -0.490400 1 0 1.000000 
metalroof006a
0 3.981900 3.978400 101.650497 0.000000 0.000000 -1.000000 0.625000 -0.509600 1 0 1.000000 
0 -4.018100 -4.021600 101.650497 0.000000 0.000000 -1.000000 0.125000 -0.509600 1 0 1.000000 
0 -4.018100 3.978400 101.650497 0.000000 0.000000 -1.000000 -0.125000 -0.509600 1 0 1.000000 
metalroof006a
0 3.981900 -4.021600 101.650497 0.000000 0.000000 -1.000000 0.375000 -0.509600 1 0 1.000000 
0 -4.018100 -4.021600 101.650497 0.000000 0.000000 -1.000000 0.125000 -0.509600 1 0 1.000000 
0 3.981900 3.978400 101.650497 0.000000 0.000000 -1.000000 0.625000 -0.509600 1 0 1.000000 
metalroof006a
0 11.181899 11.268401 55.650501 0.000000 0.000000 -1.000000 0.768700 -0.367900 1 0 1.000000 
0 -11.218201 11.268399 55.650501 0.000000 0.000000 -1.000000 0.768700 -0.274600 1 0 1.000000 
0 -0.018101 15.978400 55.650501 0.000000 0.000000 -1.000000 0.788400 -0.321300 1 0 1.000000 
metalroof006a
0 14.911900 6.098300 55.650501 0.000000 0.000000 -1.000000 0.747200 -0.383500 1 0 1.000000 
0 -11.218201 11.268399 55.650501 0.000000 0.000000 -1.000000 0.768700 -0.274600 1 0 1.000000 
0 11.181899 11.268401 55.650501 0.000000 0.000000 -1.000000 0.768700 -0.367900 1 0 1.000000 
metalroof006a
0 14.911900 -6.141399 55.650501 0.000000 0.000000 -1.000000 0.696200 -0.383500 1 0 1.000000 
0 -11.218201 11.268399 55.650501 0.000000 0.000000 -1.000000 0.768700 -0.274600 1 0 1.000000 
0 14.911900 6.098300 55.650501 0.000000 0.000000 -1.000000 0.747200 -0.383500 1 0 1.000000 
metalroof006a
0 -0.018099 -16.021601 55.650501 0.000000 0.000000 -1.000000 0.655000 -0.321300 1 0 1.000000 
0 -11.218201 11.268399 55.650501 0.000000 0.000000 -1.000000 0.768700 -0.274600 1 0 1.000000 
0 14.911900 -6.141399 55.650501 0.000000 0.000000 -1.000000 0.696200 -0.383500 1 0 1.000000 
metalroof006a
0 -11.218199 -11.311601 55.650501 0.000000 0.000000 -1.000000 0.674700 -0.274600 1 0 1.000000 
0 -11.218201 11.268399 55.650501 0.000000 0.000000 -1.000000 0.768700 -0.274600 1 0 1.000000 
0 -0.018099 -16.021601 55.650501 0.000000 0.000000 -1.000000 0.655000 -0.321300 1 0 1.000000 
metalroof006a
0 -14.948100 -6.141601 55.650501 0.000000 0.000000 -1.000000 0.696200 -0.259100 1 0 1.000000 
0 -11.218201 11.268399 55.650501 0.000000 0.000000 -1.000000 0.768700 -0.274600 1 0 1.000000 
0 -11.218199 -11.311601 55.650501 0.000000 0.000000 -1.000000 0.674700 -0.274600 1 0 1.000000 
metalroof006a
0 -14.948000 6.098700 55.650501 0.000000 0.000000 -1.000000 0.747200 -0.259100 1 0 1.000000 
0 -11.218201 11.268399 55.650501 0.000000 0.000000 -1.000000 0.768700 -0.274600 1 0 1.000000 
0 -14.948100 -6.141601 55.650501 0.000000 0.000000 -1.000000 0.696200 -0.259100 1 0 1.000000 
metalroof006a
0 -4.018100 3.978400 91.650497 -1.000000 -0.000000 0.000000 -0.125000 -0.557600 1 0 1.000000 
0 -4.018100 -4.021600 91.650497 -1.000000 -0.000000 0.000000 0.125000 -0.557600 1 0 1.000000 
0 -4.018100 3.978400 95.650497 -1.000000 -0.000000 0.000000 -0.125000 -0.538400 1 0 1.000000 
metalroof006a
0 -4.018100 3.978400 95.650497 -1.000000 -0.000000 0.000000 -0.125000 -0.538400 1 0 1.000000 
0 -4.018100 -4.021600 91.650497 -1.000000 -0.000000 0.000000 0.125000 -0.557600 1 0 1.000000 
0 -4.018100 -4.021600 95.650497 -1.000000 -0.000000 0.000000 0.125000 -0.538400 1 0 1.000000 
metalroof006a
0 -4.018100 3.978400 101.650497 -1.000000 -0.000000 0.000000 -0.125000 -0.509600 1 0 1.000000 
0 -4.018100 -4.021600 101.650497 -1.000000 -0.000000 0.000000 0.125000 -0.509600 1 0 1.000000 
0 -4.018100 3.978400 105.650497 -1.000000 -0.000000 0.000000 -0.125000 -0.490400 1 0 1.000000 
metalroof006a
0 -4.018100 3.978400 105.650497 -1.000000 -0.000000 0.000000 -0.125000 -0.490400 1 0 1.000000 
0 -4.018100 -4.021600 101.650497 -1.000000 -0.000000 0.000000 0.125000 -0.509600 1 0 1.000000 
0 -4.018100 -4.021600 105.650497 -1.000000 -0.000000 0.000000 0.125000 -0.490400 1 0 1.000000 
metalroof006a
0 -4.018100 3.978400 59.252399 -0.000000 0.999638 0.026901 0.875000 -0.769000 1 0 1.000000 
0 -0.018100 -0.021600 207.650604 -0.000000 0.999638 0.026901 0.500000 -0.000500 1 0 1.000000 
0 3.981900 3.978400 59.252399 -0.000000 0.999638 0.026901 0.625000 -0.769000 1 0 1.000000 
metalroof006a
0 11.181701 -11.311699 59.650501 0.000000 0.000000 1.000000 0.674700 -0.367900 1 0 1.000000 
0 -14.948100 -6.141601 59.650501 0.000000 0.000000 1.000000 0.696200 -0.259100 1 0 1.000000 
0 -0.018099 -16.021601 59.650501 0.000000 0.000000 1.000000 0.655000 -0.321300 1 0 1.000000 
metalroof006a
0 14.911900 -6.141399 59.650501 0.000000 0.000000 1.000000 0.696200 -0.383500 1 0 1.000000 
0 -14.948100 -6.141601 59.650501 0.000000 0.000000 1.000000 0.696200 -0.259100 1 0 1.000000 
0 11.181701 -11.311699 59.650501 0.000000 0.000000 1.000000 0.674700 -0.367900 1 0 1.000000 
metalroof006a
0 14.911900 6.098300 59.650501 0.000000 0.000000 1.000000 0.747200 -0.383500 1 0 1.000000 
0 -14.948100 -6.141601 59.650501 0.000000 0.000000 1.000000 0.696200 -0.259100 1 0 1.000000 
0 14.911900 -6.141399 59.650501 0.000000 0.000000 1.000000 0.696200 -0.383500 1 0 1.000000 
metalroof006a
0 -0.018101 15.978400 59.650501 0.000000 0.000000 1.000000 0.788400 -0.321300 1 0 1.000000 
0 -14.948100 -6.141601 59.650501 0.000000 0.000000 1.000000 0.696200 -0.259100 1 0 1.000000 
0 14.911900 6.098300 59.650501 0.000000 0.000000 1.000000 0.747200 -0.383500 1 0 1.000000 
metalroof006a
0 -11.218201 11.268399 59.650501 0.000000 0.000000 1.000000 0.768700 -0.274600 1 0 1.000000 
0 -14.948100 -6.141601 59.650501 0.000000 0.000000 1.000000 0.696200 -0.259100 1 0 1.000000 
0 -0.018101 15.978400 59.650501 0.000000 0.000000 1.000000 0.788400 -0.321300 1 0 1.000000 
metalroof006a
0 -14.948000 6.098700 59.650501 0.000000 0.000000 1.000000 0.747200 -0.259100 1 0 1.000000 
0 -14.948100 -6.141601 59.650501 0.000000 0.000000 1.000000 0.696200 -0.259100 1 0 1.000000 
0 -11.218201 11.268399 59.650501 0.000000 0.000000 1.000000 0.768700 -0.274600 1 0 1.000000 
metalroof006a
0 -4.018100 -4.021600 59.252399 0.000000 -0.999638 0.026901 0.125000 -0.769000 1 0 1.000000 
0 3.981900 -4.021600 59.252399 0.000000 -0.999638 0.026901 0.375000 -0.769000 1 0 1.000000 
0 -0.018100 -0.021600 207.650604 0.000000 -0.999638 0.026901 0.500000 -0.000500 1 0 1.000000 
metalroof006a
0 -0.018101 28.778400 23.650499 0.000000 0.000000 -1.000000 0.750000 -0.884200 1 0 1.000000 
0 -20.178200 20.308399 23.650499 0.000000 0.000000 -1.000000 0.874300 -0.884200 1 0 1.000000 
0 -10.578101 26.238501 23.650499 0.000000 0.000000 -1.000000 0.810900 -0.884200 1 0 1.000000 
metalroof006a
0 10.541799 26.238400 23.650499 0.000000 0.000000 -1.000000 0.689100 -0.884200 1 0 1.000000 
0 -20.178200 20.308399 23.650499 0.000000 0.000000 -1.000000 0.874300 -0.884200 1 0 1.000000 
0 -0.018101 28.778400 23.650499 0.000000 0.000000 -1.000000 0.750000 -0.884200 1 0 1.000000 
metalroof006a
0 20.141899 20.308300 23.650499 0.000000 0.000000 -1.000000 0.625700 -0.884200 1 0 1.000000 
0 -20.178200 20.308399 23.650499 0.000000 0.000000 -1.000000 0.874300 -0.884200 1 0 1.000000 
0 10.541799 26.238400 23.650499 0.000000 0.000000 -1.000000 0.689100 -0.884200 1 0 1.000000 
metalroof006a
0 26.862000 10.978401 23.650499 0.000000 0.000000 -1.000000 0.561800 -0.884200 1 0 1.000000 
0 -20.178200 20.308399 23.650499 0.000000 0.000000 -1.000000 0.874300 -0.884200 1 0 1.000000 
0 20.141899 20.308300 23.650499 0.000000 0.000000 -1.000000 0.625700 -0.884200 1 0 1.000000 
metalroof006a
0 28.781900 -0.021599 23.650499 0.000000 0.000000 -1.000000 0.500000 -0.884200 1 0 1.000000 
0 -20.178200 20.308399 23.650499 0.000000 0.000000 -1.000000 0.874300 -0.884200 1 0 1.000000 
0 26.862000 10.978401 23.650499 0.000000 0.000000 -1.000000 0.561800 -0.884200 1 0 1.000000 
metalroof006a
0 26.861900 -11.031699 23.650499 0.000000 0.000000 -1.000000 0.438100 -0.884200 1 0 1.000000 
0 -20.178200 20.308399 23.650499 0.000000 0.000000 -1.000000 0.874300 -0.884200 1 0 1.000000 
0 28.781900 -0.021599 23.650499 0.000000 0.000000 -1.000000 0.500000 -0.884200 1 0 1.000000 
metalroof006a
0 20.142099 -20.351400 23.650499 0.000000 0.000000 -1.000000 0.374300 -0.884200 1 0 1.000000 
0 -20.178200 20.308399 23.650499 0.000000 0.000000 -1.000000 0.874300 -0.884200 1 0 1.000000 
0 26.861900 -11.031699 23.650499 0.000000 0.000000 -1.000000 0.438100 -0.884200 1 0 1.000000 
metalroof006a
0 10.542001 -26.281500 23.650499 0.000000 0.000000 -1.000000 0.310900 -0.884200 1 0 1.000000 
0 -20.178200 20.308399 23.650499 0.000000 0.000000 -1.000000 -0.125700 -0.884200 1 0 1.000000 
0 20.142099 -20.351400 23.650499 0.000000 0.000000 -1.000000 0.374300 -0.884200 1 0 1.000000 
metalroof006a
0 -0.018099 -28.821600 23.650499 0.000000 0.000000 -1.000000 0.250000 -0.884200 1 0 1.000000 
0 -20.178200 20.308399 23.650499 0.000000 0.000000 -1.000000 -0.125700 -0.884200 1 0 1.000000 
0 10.542001 -26.281500 23.650499 0.000000 0.000000 -1.000000 0.310900 -0.884200 1 0 1.000000 
metalroof006a
0 -10.577999 -26.281601 23.650499 0.000000 0.000000 -1.000000 0.189100 -0.884200 1 0 1.000000 
0 -20.178200 20.308399 23.650499 0.000000 0.000000 -1.000000 -0.125700 -0.884200 1 0 1.000000 
0 -0.018099 -28.821600 23.650499 0.000000 0.000000 -1.000000 0.250000 -0.884200 1 0 1.000000 
metalroof006a
0 -20.177999 -20.351700 23.650499 0.000000 0.000000 -1.000000 0.125700 -0.884200 1 0 1.000000 
0 -20.178200 20.308399 23.650499 0.000000 0.000000 -1.000000 -0.125700 -0.884200 1 0 1.000000 
0 -10.577999 -26.281601 23.650499 0.000000 0.000000 -1.000000 0.189100 -0.884200 1 0 1.000000 
metalroof006a
0 -26.898100 -11.031501 23.650499 0.000000 0.000000 -1.000000 0.061900 -0.884200 1 0 1.000000 
0 -20.178200 20.308399 23.650499 0.000000 0.000000 -1.000000 -0.125700 -0.884200 1 0 1.000000 
0 -20.177999 -20.351700 23.650499 0.000000 0.000000 -1.000000 0.125700 -0.884200 1 0 1.000000 
metalroof006a
0 -28.818100 -0.021601 23.650499 0.000000 0.000000 -1.000000 0.000000 -0.884200 1 0 1.000000 
0 -20.178200 20.308399 23.650499 0.000000 0.000000 -1.000000 -0.125700 -0.884200 1 0 1.000000 
0 -26.898100 -11.031501 23.650499 0.000000 0.000000 -1.000000 0.061900 -0.884200 1 0 1.000000 
metalroof006a
0 -26.898100 10.988599 23.650499 0.000000 0.000000 -1.000000 -0.061900 -0.884200 1 0 1.000000 
0 -20.178200 20.308399 23.650499 0.000000 0.000000 -1.000000 -0.125700 -0.884200 1 0 1.000000 
0 -28.818100 -0.021601 23.650499 0.000000 0.000000 -1.000000 0.000000 -0.884200 1 0 1.000000 
metalroof006a
0 26.861900 10.988601 23.650499 0.662583 0.477688 0.576886 0.561900 -0.884200 1 0 1.000000 
0 20.141899 20.308300 23.650499 0.592101 0.557501 0.581901 0.625700 -0.884200 1 0 1.000000 
0 10.733400 4.376201 47.650501 0.720316 0.370808 0.586213 0.561800 -0.769000 1 0 1.000000 
metalroof006a
0 20.141899 20.308300 23.650499 0.592101 0.557501 0.581901 0.625700 -0.884200 1 0 1.000000 
0 10.541799 26.238400 23.650499 0.353891 0.736182 0.576886 0.689100 -0.884200 1 0 1.000000 
0 10.733400 4.376201 47.650501 0.720316 0.370808 0.586213 0.561800 -0.769000 1 0 1.000000 
metalroof006a
0 10.733400 4.376201 47.650501 0.720316 0.370808 0.586213 0.561800 -0.769000 1 0 1.000000 
0 10.541799 26.238400 23.650499 0.353891 0.736182 0.576886 0.689100 -0.884200 1 0 1.000000 
0 -0.028501 11.495900 47.650501 -0.064900 0.809802 0.583102 0.750100 -0.769000 1 0 1.000000 
metalroof006a
0 10.541799 26.238400 23.650499 0.353891 0.736182 0.576886 0.689100 -0.884200 1 0 1.000000 
0 -0.018101 28.778400 23.650499 0.064900 0.809802 0.583102 0.750000 -0.884200 1 0 1.000000 
0 -0.028501 11.495900 47.650501 -0.064900 0.809802 0.583102 0.750100 -0.769000 1 0 1.000000 
metalroof006a
0 -0.018101 28.778400 23.650499 0.064900 0.809802 0.583102 0.750000 -0.884200 1 0 1.000000 
0 -10.578101 26.238501 23.650499 -0.273400 0.769400 0.577300 0.810900 -0.884200 1 0 1.000000 
0 -0.028501 11.495900 47.650501 -0.064900 0.809802 0.583102 0.750100 -0.769000 1 0 1.000000 
metalroof006a
0 -10.578101 26.238501 23.650499 -0.273400 0.769400 0.577300 0.810900 -0.884200 1 0 1.000000 
0 -20.178200 20.308399 23.650499 -0.514182 0.631578 0.580280 0.874300 -0.884200 1 0 1.000000 
0 -0.028501 11.495900 47.650501 -0.064900 0.809802 0.583102 0.750100 -0.769000 1 0 1.000000 
metalroof006a
0 -0.028501 11.495900 47.650501 -0.064900 0.809802 0.583102 0.750100 -0.769000 1 0 1.000000 
0 -20.178200 20.308399 23.650499 -0.514182 0.631578 0.580280 0.874300 -0.884200 1 0 1.000000 
0 -10.768300 4.377600 47.650501 -0.768044 0.256615 0.586734 0.938200 -0.769000 1 0 1.000000 
metalroof006a
0 -20.178200 20.308399 23.650499 -0.514182 0.631578 0.580280 0.874300 -0.884200 1 0 1.000000 
0 -26.898300 10.978399 23.650499 -0.720391 0.370695 0.586193 0.938200 -0.884200 1 0 1.000000 
0 -10.768300 4.377600 47.650501 -0.768044 0.256615 0.586734 0.938200 -0.769000 1 0 1.000000 
metalroof006a
0 -26.898300 10.978399 23.650499 -0.720391 0.370695 0.586193 -0.061800 -0.884200 1 0 1.000000 
0 -28.818100 -0.021601 23.650499 -0.810598 0.047200 0.583698 0.000000 -0.884200 1 0 1.000000 
0 -10.768300 4.377600 47.650501 -0.768044 0.256615 0.586734 -0.061800 -0.769000 1 0 1.000000 
metalroof006a
0 -28.818100 -0.021601 23.650499 -0.810598 0.047200 0.583698 0.000000 -0.884200 1 0 1.000000 
0 -26.898100 -11.031501 23.650499 -0.767999 -0.256600 0.586799 0.061900 -0.884200 1 0 1.000000 
0 -10.768300 4.377600 47.650501 -0.768044 0.256615 0.586734 -0.061800 -0.769000 1 0 1.000000 
metalroof006a
0 -10.768300 4.377600 47.650501 -0.768044 0.256615 0.586734 -0.061800 -0.769000 1 0 1.000000 
0 -26.898100 -11.031501 23.650499 -0.767999 -0.256600 0.586799 0.061900 -0.884200 1 0 1.000000 
0 -8.089100 -8.144900 47.650600 -0.642401 -0.462601 0.611001 0.125500 -0.769000 1 0 1.000000 
metalroof006a
0 -26.898100 -11.031501 23.650499 -0.767999 -0.256600 0.586799 0.061900 -0.884200 1 0 1.000000 
0 -20.177999 -20.351700 23.650499 -0.514106 -0.631708 0.580207 0.125700 -0.884200 1 0 1.000000 
0 -8.089100 -8.144900 47.650600 -0.642401 -0.462601 0.611001 0.125500 -0.769000 1 0 1.000000 
metalroof006a
0 -8.089100 -8.144900 47.650600 -0.642401 -0.462601 0.611001 0.125500 -0.769000 1 0 1.000000 
0 -20.177999 -20.351700 23.650499 -0.514106 -0.631708 0.580207 0.125700 -0.884200 1 0 1.000000 
0 -4.243299 -10.520400 47.650501 -0.273498 -0.769294 0.577395 0.189100 -0.769000 1 0 1.000000 
metalroof006a
0 -20.177999 -20.351700 23.650499 -0.514106 -0.631708 0.580207 0.125700 -0.884200 1 0 1.000000 
0 -10.577999 -26.281601 23.650499 -0.353891 -0.736182 0.576886 0.189100 -0.884200 1 0 1.000000 
0 -4.243299 -10.520400 47.650501 -0.273498 -0.769294 0.577395 0.189100 -0.769000 1 0 1.000000 
metalroof006a
0 -10.577999 -26.281601 23.650499 -0.353891 -0.736182 0.576886 0.189100 -0.884200 1 0 1.000000 
0 -0.018099 -28.821600 23.650499 -0.065000 -0.809797 0.583098 0.250000 -0.884200 1 0 1.000000 
0 -4.243299 -10.520400 47.650501 -0.273498 -0.769294 0.577395 0.189100 -0.769000 1 0 1.000000 
metalroof006a
0 -4.243299 -10.520400 47.650501 -0.273498 -0.769294 0.577395 0.189100 -0.769000 1 0 1.000000 
0 -0.018099 -28.821600 23.650499 -0.065000 -0.809797 0.583098 0.250000 -0.884200 1 0 1.000000 
0 -0.011799 -11.540000 47.650501 0.221997 -0.759791 0.611093 0.250100 -0.769000 1 0 1.000000 
metalroof006a
0 -0.018099 -28.821600 23.650499 -0.065000 -0.809797 0.583098 0.250000 -0.884200 1 0 1.000000 
0 10.542001 -26.281500 23.650499 0.273493 -0.769379 0.577284 0.310900 -0.884200 1 0 1.000000 
0 -0.011799 -11.540000 47.650501 0.221997 -0.759791 0.611093 0.250100 -0.769000 1 0 1.000000 
metalroof006a
0 10.542001 -26.281500 23.650499 0.273493 -0.769379 0.577284 0.310900 -0.884200 1 0 1.000000 
0 20.142099 -20.351400 23.650499 0.514109 -0.631611 0.580310 0.374300 -0.884200 1 0 1.000000 
0 -0.011799 -11.540000 47.650501 0.221997 -0.759791 0.611093 0.250100 -0.769000 1 0 1.000000 
metalroof006a
0 -0.011799 -11.540000 47.650501 0.221997 -0.759791 0.611093 0.250100 -0.769000 1 0 1.000000 
0 20.142099 -20.351400 23.650499 0.514109 -0.631611 0.580310 0.374300 -0.884200 1 0 1.000000 
0 10.732100 -4.420899 47.650501 0.708811 -0.335305 0.620610 0.438200 -0.769000 1 0 1.000000 
metalroof006a
0 20.142099 -20.351400 23.650499 0.514109 -0.631611 0.580310 0.374300 -0.884200 1 0 1.000000 
0 26.861900 -11.031699 23.650499 0.720343 -0.370722 0.586235 0.438100 -0.884200 1 0 1.000000 
0 10.732100 -4.420899 47.650501 0.708811 -0.335305 0.620610 0.438200 -0.769000 1 0 1.000000 
metalroof006a
0 26.861900 -11.031699 23.650499 0.720343 -0.370722 0.586235 0.438100 -0.884200 1 0 1.000000 
0 28.781900 -0.021599 23.650499 0.810598 -0.047200 0.583698 0.500000 -0.884200 1 0 1.000000 
0 10.732100 -4.420899 47.650501 0.708811 -0.335305 0.620610 0.438200 -0.769000 1 0 1.000000 
metalroof006a
0 10.732100 -4.420899 47.650501 0.708811 -0.335305 0.620610 0.438200 -0.769000 1 0 1.000000 
0 28.781900 -0.021599 23.650499 0.810598 -0.047200 0.583698 0.500000 -0.884200 1 0 1.000000 
0 10.733400 4.376201 47.650501 0.720316 0.370808 0.586213 0.561800 -0.769000 1 0 1.000000 
metalroof006a
0 28.781900 -0.021599 23.650499 0.810598 -0.047200 0.583698 0.500000 -0.884200 1 0 1.000000 
0 26.862000 10.978401 23.650499 0.803517 0.140303 0.578512 0.561800 -0.884200 1 0 1.000000 
0 10.733400 4.376201 47.650501 0.720316 0.370808 0.586213 0.561800 -0.769000 1 0 1.000000 
metalroof006a
0 -12.558100 5.118299 55.650501 -0.806038 0.568426 -0.164908 -0.061900 -0.730500 1 0 1.000000 
0 -10.768300 4.377600 47.650501 -0.929248 0.192710 -0.315216 -0.061800 -0.769000 1 0 1.000000 
0 -12.558100 -5.161700 55.650501 -0.864594 -0.444397 -0.234498 0.061900 -0.730500 1 0 1.000000 
metalroof006a
0 -10.768300 4.377600 47.650501 -0.929248 0.192710 -0.315216 -0.061800 -0.769000 1 0 1.000000 
0 -8.089100 -8.144900 47.650600 -0.708572 -0.666274 -0.232391 0.125500 -0.769000 1 0 1.000000 
0 -12.558100 -5.161700 55.650501 -0.864594 -0.444397 -0.234498 0.061900 -0.730500 1 0 1.000000 
metalroof006a
0 -12.558100 -5.161700 55.650501 -0.864594 -0.444397 -0.234498 0.061900 -0.730500 1 0 1.000000 
0 -8.089100 -8.144900 47.650600 -0.708572 -0.666274 -0.232391 0.125500 -0.769000 1 0 1.000000 
0 -0.018099 -13.461600 55.650501 -0.048402 -0.982547 -0.179609 0.250000 -0.730500 1 0 1.000000 
metalroof006a
0 -8.089100 -8.144900 47.650600 -0.708572 -0.666274 -0.232391 0.125500 -0.769000 1 0 1.000000 
0 -0.011799 -11.540000 47.650501 -0.077900 -0.969400 -0.232800 0.250100 -0.769000 1 0 1.000000 
0 -0.018099 -13.461600 55.650501 -0.048402 -0.982547 -0.179609 0.250000 -0.730500 1 0 1.000000 
metalroof006a
0 -0.011799 -11.540000 47.650501 -0.077900 -0.969400 -0.232800 0.250100 -0.769000 1 0 1.000000 
0 8.036300 -8.159300 47.650501 0.613921 -0.754625 -0.231608 0.374200 -0.769000 1 0 1.000000 
0 -0.018099 -13.461600 55.650501 -0.048402 -0.982547 -0.179609 0.250000 -0.730500 1 0 1.000000 
metalroof006a
0 -0.018099 -13.461600 55.650501 -0.048402 -0.982547 -0.179609 0.250000 -0.730500 1 0 1.000000 
0 8.036300 -8.159300 47.650501 0.613921 -0.754625 -0.231608 0.374200 -0.769000 1 0 1.000000 
0 9.391800 -9.511600 55.650501 0.846094 -0.483497 -0.224399 0.374300 -0.730500 1 0 1.000000 
metalroof006a
0 8.036300 -8.159300 47.650501 0.613921 -0.754625 -0.231608 0.374200 -0.769000 1 0 1.000000 
0 10.733400 4.376201 47.650501 0.960145 0.158507 -0.230211 0.561800 -0.769000 1 0 1.000000 
0 9.391800 -9.511600 55.650501 0.846094 -0.483497 -0.224399 0.374300 -0.730500 1 0 1.000000 
metalroof006a
0 9.391800 -9.511600 55.650501 0.846094 -0.483497 -0.224399 0.374300 -0.730500 1 0 1.000000 
0 10.733400 4.376201 47.650501 0.960145 0.158507 -0.230211 0.561800 -0.769000 1 0 1.000000 
0 12.521900 5.118300 55.650501 0.797186 0.558290 -0.229796 0.561900 -0.730500 1 0 1.000000 
metalroof006a
0 10.733400 4.376201 47.650501 0.960145 0.158507 -0.230211 0.561800 -0.769000 1 0 1.000000 
0 -0.018101 11.497700 47.650501 0.306291 0.925572 -0.222493 0.750000 -0.769000 1 0 1.000000 
0 12.521900 5.118300 55.650501 0.797186 0.558290 -0.229796 0.561900 -0.730500 1 0 1.000000 
metalroof006a
0 12.521900 5.118300 55.650501 0.797186 0.558290 -0.229796 0.561900 -0.730500 1 0 1.000000 
0 -0.018101 11.497700 47.650501 0.306291 0.925572 -0.222493 0.750000 -0.769000 1 0 1.000000 
0 -0.018101 13.418400 55.650501 -0.077902 0.969422 -0.232705 0.750000 -0.730500 1 0 1.000000 
metalroof006a
0 -0.018101 11.497700 47.650501 0.306291 0.925572 -0.222493 0.750000 -0.769000 1 0 1.000000 
0 -4.234500 10.480600 47.650501 -0.495591 0.854285 -0.156797 0.810800 -0.769000 1 0 1.000000 
0 -0.018101 13.418400 55.650501 -0.077902 0.969422 -0.232705 0.750000 -0.730500 1 0 1.000000 
metalroof006a
0 -0.018101 13.418400 55.650501 -0.077902 0.969422 -0.232705 0.750000 -0.730500 1 0 1.000000 
0 -4.234500 10.480600 47.650501 -0.495591 0.854285 -0.156797 0.810800 -0.769000 1 0 1.000000 
0 -12.558100 5.118299 55.650501 -0.806038 0.568426 -0.164908 0.938100 -0.730500 1 0 1.000000 
metalroof006a
0 -4.234500 10.480600 47.650501 -0.495591 0.854285 -0.156797 0.810800 -0.769000 1 0 1.000000 
0 -10.768300 4.377600 47.650501 -0.929248 0.192710 -0.315216 0.938300 -0.769000 1 0 1.000000 
0 -12.558100 5.118299 55.650501 -0.806038 0.568426 -0.164908 0.938100 -0.730500 1 0 1.000000 
metalroof006a
0 -0.018102 39.978401 -0.349500 0.000000 0.000000 -1.000000 0.888400 -0.321300 1 0 1.000000 
0 -28.018103 28.218397 -0.349500 0.000000 0.000000 -1.000000 0.839400 -0.204600 1 0 1.000000 
0 -14.688202 36.448399 -0.349500 0.000000 0.000000 -1.000000 0.873700 -0.260100 1 0 1.000000 
metalroof006a
0 14.651999 36.448399 -0.349500 0.000000 0.000000 -1.000000 0.873700 -0.382400 1 0 1.000000 
0 -28.018103 28.218397 -0.349500 0.000000 0.000000 -1.000000 0.839400 -0.204600 1 0 1.000000 
0 -0.018102 39.978401 -0.349500 0.000000 0.000000 -1.000000 0.888400 -0.321300 1 0 1.000000 
metalroof006a
0 27.981897 28.218502 -0.349500 0.000000 0.000000 -1.000000 0.839400 -0.437900 1 0 1.000000 
0 -28.018103 28.218397 -0.349500 0.000000 0.000000 -1.000000 0.839400 -0.204600 1 0 1.000000 
0 14.651999 36.448399 -0.349500 0.000000 0.000000 -1.000000 0.873700 -0.382400 1 0 1.000000 
metalroof006a
0 37.311901 15.268402 -0.349500 0.000000 0.000000 -1.000000 0.785400 -0.476800 1 0 1.000000 
0 -28.018103 28.218397 -0.349500 0.000000 0.000000 -1.000000 0.839400 -0.204600 1 0 1.000000 
0 27.981897 28.218502 -0.349500 0.000000 0.000000 -1.000000 0.839400 -0.437900 1 0 1.000000 
metalroof006a
0 39.981899 -0.021598 -0.349500 0.000000 0.000000 -1.000000 0.721700 -0.487900 1 0 1.000000 
0 -28.018103 28.218397 -0.349500 0.000000 0.000000 -1.000000 0.839400 -0.204600 1 0 1.000000 
0 37.311901 15.268402 -0.349500 0.000000 0.000000 -1.000000 0.785400 -0.476800 1 0 1.000000 
metalroof006a
0 37.311901 -15.311598 -0.349500 0.000000 0.000000 -1.000000 0.658000 -0.476800 1 0 1.000000 
0 -28.018103 28.218397 -0.349500 0.000000 0.000000 -1.000000 0.839400 -0.204600 1 0 1.000000 
0 39.981899 -0.021598 -0.349500 0.000000 0.000000 -1.000000 0.721700 -0.487900 1 0 1.000000 
metalroof006a
0 27.982002 -28.261497 -0.349500 0.000000 0.000000 -1.000000 0.604000 -0.437900 1 0 1.000000 
0 -28.018103 28.218397 -0.349500 0.000000 0.000000 -1.000000 0.839400 -0.204600 1 0 1.000000 
0 37.311901 -15.311598 -0.349500 0.000000 0.000000 -1.000000 0.658000 -0.476800 1 0 1.000000 
metalroof006a
0 14.651802 -36.491600 -0.349500 0.000000 0.000000 -1.000000 0.569700 -0.382400 1 0 1.000000 
0 -28.018103 28.218397 -0.349500 0.000000 0.000000 -1.000000 0.839400 -0.204600 1 0 1.000000 
0 27.982002 -28.261497 -0.349500 0.000000 0.000000 -1.000000 0.604000 -0.437900 1 0 1.000000 
metalroof006a
0 -0.018098 -40.021599 -0.349500 0.000000 0.000000 -1.000000 0.555000 -0.321300 1 0 1.000000 
0 -28.018103 28.218397 -0.349500 0.000000 0.000000 -1.000000 0.839400 -0.204600 1 0 1.000000 
0 14.651802 -36.491600 -0.349500 0.000000 0.000000 -1.000000 0.569700 -0.382400 1 0 1.000000 
metalroof006a
0 -14.688198 -36.491600 -0.349500 0.000000 0.000000 -1.000000 0.569700 -0.260100 1 0 1.000000 
0 -28.018103 28.218397 -0.349500 0.000000 0.000000 -1.000000 0.839400 -0.204600 1 0 1.000000 
0 -0.018098 -40.021599 -0.349500 0.000000 0.000000 -1.000000 0.555000 -0.321300 1 0 1.000000 
metalroof006a
0 -28.017899 -28.261702 -0.349500 0.000000 0.000000 -1.000000 0.604000 -0.204600 1 0 1.000000 
0 -28.018103 28.218397 -0.349500 0.000000 0.000000 -1.000000 0.839400 -0.204600 1 0 1.000000 
0 -14.688198 -36.491600 -0.349500 0.000000 0.000000 -1.000000 0.569700 -0.260100 1 0 1.000000 
metalroof006a
0 -37.348202 -15.311402 -0.349500 0.000000 0.000000 -1.000000 0.658000 -0.165700 1 0 1.000000 
0 -28.018103 28.218397 -0.349500 0.000000 0.000000 -1.000000 0.839400 -0.204600 1 0 1.000000 
0 -28.017899 -28.261702 -0.349500 0.000000 0.000000 -1.000000 0.604000 -0.204600 1 0 1.000000 
metalroof006a
0 -40.018101 -0.021802 -0.349500 0.000000 0.000000 -1.000000 0.721700 -0.154600 1 0 1.000000 
0 -28.018103 28.218397 -0.349500 0.000000 0.000000 -1.000000 0.839400 -0.204600 1 0 1.000000 
0 -37.348202 -15.311402 -0.349500 0.000000 0.000000 -1.000000 0.658000 -0.165700 1 0 1.000000 
metalroof006a
0 -37.348099 15.268599 -0.349500 0.000000 0.000000 -1.000000 0.785400 -0.165700 1 0 1.000000 
0 -28.018103 28.218397 -0.349500 0.000000 0.000000 -1.000000 0.839400 -0.204600 1 0 1.000000 
0 -40.018101 -0.021802 -0.349500 0.000000 0.000000 -1.000000 0.721700 -0.154600 1 0 1.000000 
metalroof006a
0 -4.018100 3.978400 59.252399 -0.999638 -0.000000 0.026901 -0.125000 -0.769000 1 0 1.000000 
0 -4.018100 -4.021600 59.252399 -0.999638 -0.000000 0.026901 0.125000 -0.769000 1 0 1.000000 
0 -0.018100 -0.021600 207.650604 -0.999638 -0.000000 0.026901 0.500000 -0.000500 1 0 1.000000 
metalroof006a
0 -28.017899 -28.261702 7.650500 0.000000 0.000000 1.000000 0.604000 -0.204600 1 0 1.000000 
0 -40.018101 -0.021802 7.650500 0.000000 0.000000 1.000000 0.721700 -0.154600 1 0 1.000000 
0 -37.348202 -15.311402 7.650500 0.000000 0.000000 1.000000 0.658000 -0.165700 1 0 1.000000 
metalroof006a
0 -14.688198 -36.491600 7.650500 0.000000 0.000000 1.000000 0.569700 -0.260100 1 0 1.000000 
0 -40.018101 -0.021802 7.650500 0.000000 0.000000 1.000000 0.721700 -0.154600 1 0 1.000000 
0 -28.017899 -28.261702 7.650500 0.000000 0.000000 1.000000 0.604000 -0.204600 1 0 1.000000 
metalroof006a
0 -0.018098 -40.021599 7.650500 0.000000 0.000000 1.000000 0.555000 -0.321300 1 0 1.000000 
0 -40.018101 -0.021802 7.650500 0.000000 0.000000 1.000000 0.721700 -0.154600 1 0 1.000000 
0 -14.688198 -36.491600 7.650500 0.000000 0.000000 1.000000 0.569700 -0.260100 1 0 1.000000 
metalroof006a
0 14.651802 -36.491600 7.650500 0.000000 0.000000 1.000000 0.569700 -0.382400 1 0 1.000000 
0 -40.018101 -0.021802 7.650500 0.000000 0.000000 1.000000 0.721700 -0.154600 1 0 1.000000 
0 -0.018098 -40.021599 7.650500 0.000000 0.000000 1.000000 0.555000 -0.321300 1 0 1.000000 
metalroof006a
0 27.982002 -28.261497 7.650500 0.000000 0.000000 1.000000 0.604000 -0.437900 1 0 1.000000 
0 -40.018101 -0.021802 7.650500 0.000000 0.000000 1.000000 0.721700 -0.154600 1 0 1.000000 
0 14.651802 -36.491600 7.650500 0.000000 0.000000 1.000000 0.569700 -0.382400 1 0 1.000000 
metalroof006a
0 37.311901 -15.311598 7.650500 0.000000 0.000000 1.000000 0.658000 -0.476800 1 0 1.000000 
0 -40.018101 -0.021802 7.650500 0.000000 0.000000 1.000000 0.721700 -0.154600 1 0 1.000000 
0 27.982002 -28.261497 7.650500 0.000000 0.000000 1.000000 0.604000 -0.437900 1 0 1.000000 
metalroof006a
0 39.981899 -0.021598 7.650500 0.000000 0.000000 1.000000 0.721700 -0.487900 1 0 1.000000 
0 -40.018101 -0.021802 7.650500 0.000000 0.000000 1.000000 0.721700 -0.154600 1 0 1.000000 
0 37.311901 -15.311598 7.650500 0.000000 0.000000 1.000000 0.658000 -0.476800 1 0 1.000000 
metalroof006a
0 37.311901 15.268402 7.650500 0.000000 0.000000 1.000000 0.785400 -0.476800 1 0 1.000000 
0 -40.018101 -0.021802 7.650500 0.000000 0.000000 1.000000 0.721700 -0.154600 1 0 1.000000 
0 39.981899 -0.021598 7.650500 0.000000 0.000000 1.000000 0.721700 -0.487900 1 0 1.000000 
metalroof006a
0 27.981897 28.218502 7.650500 0.000000 0.000000 1.000000 0.839400 -0.437900 1 0 1.000000 
0 -40.018101 -0.021802 7.650500 0.000000 0.000000 1.000000 0.721700 -0.154600 1 0 1.000000 
0 37.311901 15.268402 7.650500 0.000000 0.000000 1.000000 0.785400 -0.476800 1 0 1.000000 
metalroof006a
0 14.651999 36.448399 7.650500 0.000000 0.000000 1.000000 0.873700 -0.382400 1 0 1.000000 
0 -40.018101 -0.021802 7.650500 0.000000 0.000000 1.000000 0.721700 -0.154600 1 0 1.000000 
0 27.981897 28.218502 7.650500 0.000000 0.000000 1.000000 0.839400 -0.437900 1 0 1.000000 
metalroof006a
0 -0.018102 39.978401 7.650500 0.000000 0.000000 1.000000 0.888400 -0.321300 1 0 1.000000 
0 -40.018101 -0.021802 7.650500 0.000000 0.000000 1.000000 0.721700 -0.154600 1 0 1.000000 
0 14.651999 36.448399 7.650500 0.000000 0.000000 1.000000 0.873700 -0.382400 1 0 1.000000 
metalroof006a
0 -14.688202 36.448399 7.650500 0.000000 0.000000 1.000000 0.873700 -0.260100 1 0 1.000000 
0 -40.018101 -0.021802 7.650500 0.000000 0.000000 1.000000 0.721700 -0.154600 1 0 1.000000 
0 -0.018102 39.978401 7.650500 0.000000 0.000000 1.000000 0.888400 -0.321300 1 0 1.000000 
metalroof006a
0 -28.018103 28.218397 7.650500 0.000000 0.000000 1.000000 0.839400 -0.204600 1 0 1.000000 
0 -40.018101 -0.021802 7.650500 0.000000 0.000000 1.000000 0.721700 -0.154600 1 0 1.000000 
0 -14.688202 36.448399 7.650500 0.000000 0.000000 1.000000 0.873700 -0.260100 1 0 1.000000 
metalroof006a
0 -37.348099 15.268599 7.650500 0.000000 0.000000 1.000000 0.785400 -0.165700 1 0 1.000000 
0 -40.018101 -0.021802 7.650500 0.000000 0.000000 1.000000 0.721700 -0.154600 1 0 1.000000 
0 -28.018103 28.218397 7.650500 0.000000 0.000000 1.000000 0.839400 -0.204600 1 0 1.000000 
metalroof006a
0 -4.018100 3.978400 111.650497 -1.000000 -0.000000 0.000000 -0.125000 -0.461600 1 0 1.000000 
0 -4.018100 -4.021600 111.650497 -1.000000 -0.000000 0.000000 0.125000 -0.461600 1 0 1.000000 
0 -4.018100 3.978400 115.650497 -1.000000 -0.000000 0.000000 -0.125000 -0.442400 1 0 1.000000 
metalroof006a
0 -4.018100 3.978400 115.650497 -1.000000 -0.000000 0.000000 -0.125000 -0.442400 1 0 1.000000 
0 -4.018100 -4.021600 111.650497 -1.000000 -0.000000 0.000000 0.125000 -0.461600 1 0 1.000000 
0 -4.018100 -4.021600 115.650497 -1.000000 -0.000000 0.000000 0.125000 -0.442400 1 0 1.000000 
metalroof006a
0 3.981900 3.978400 91.650497 -0.000000 1.000000 0.000000 0.625000 -0.557600 1 0 1.000000 
0 -4.018100 3.978400 91.650497 -0.000000 1.000000 0.000000 0.875000 -0.557600 1 0 1.000000 
0 3.981900 3.978400 95.650497 -0.000000 1.000000 0.000000 0.625000 -0.538400 1 0 1.000000 
metalroof006a
0 3.981900 3.978400 95.650497 -0.000000 1.000000 0.000000 0.625000 -0.538400 1 0 1.000000 
0 -4.018100 3.978400 91.650497 -0.000000 1.000000 0.000000 0.875000 -0.557600 1 0 1.000000 
0 -4.018100 3.978400 95.650497 -0.000000 1.000000 0.000000 0.875000 -0.538400 1 0 1.000000 
metalroof006a
0 -0.018099 -28.821600 23.650499 0.076698 -0.954977 -0.286593 0.250000 -0.884200 1 0 1.000000 
0 8.786501 -21.900400 7.650500 0.321299 -0.903797 -0.282699 0.310900 -0.961100 1 0 1.000000 
0 10.542001 -26.281500 23.650499 0.415528 -0.864658 -0.282319 0.310900 -0.884200 1 0 1.000000 
metalroof006a
0 -0.018099 -24.021601 7.650500 -0.076501 -0.955019 -0.286506 0.250000 -0.961100 1 0 1.000000 
0 8.786501 -21.900400 7.650500 0.321299 -0.903797 -0.282699 0.310900 -0.961100 1 0 1.000000 
0 -0.018099 -28.821600 23.650499 0.076698 -0.954977 -0.286593 0.250000 -0.884200 1 0 1.000000 
metalroof006a
0 -10.577999 -26.281601 23.650499 -0.321189 -0.903869 -0.282590 0.189100 -0.884200 1 0 1.000000 
0 -0.018099 -24.021601 7.650500 -0.076501 -0.955019 -0.286506 0.250000 -0.961100 1 0 1.000000 
0 -0.018099 -28.821600 23.650499 0.076698 -0.954977 -0.286593 0.250000 -0.884200 1 0 1.000000 
metalroof006a
0 -16.820200 -16.958599 7.650500 -0.622291 -0.719090 -0.309296 0.125600 -0.961100 1 0 1.000000 
0 -0.018099 -24.021601 7.650500 -0.076501 -0.955019 -0.286506 0.250000 -0.961100 1 0 1.000000 
0 -10.577999 -26.281601 23.650499 -0.321189 -0.903869 -0.282590 0.189100 -0.884200 1 0 1.000000 
metalroof006a
0 -20.177999 -20.351700 23.650499 -0.605319 -0.743323 -0.284709 0.125700 -0.884200 1 0 1.000000 
0 -16.820200 -16.958599 7.650500 -0.622291 -0.719090 -0.309296 0.125600 -0.961100 1 0 1.000000 
0 -10.577999 -26.281601 23.650499 -0.321189 -0.903869 -0.282590 0.189100 -0.884200 1 0 1.000000 
metalroof006a
0 -26.898100 -11.031501 23.650499 -0.851328 -0.438115 -0.288610 0.061900 -0.884200 1 0 1.000000 
0 -16.820200 -16.958599 7.650500 -0.622291 -0.719090 -0.309296 0.125600 -0.961100 1 0 1.000000 
0 -20.177999 -20.351700 23.650499 -0.605319 -0.743323 -0.284709 0.125700 -0.884200 1 0 1.000000 
metalroof006a
0 -22.419600 -9.193001 7.650500 -0.908083 -0.303094 -0.288995 0.061800 -0.961100 1 0 1.000000 
0 -16.820200 -16.958599 7.650500 -0.622291 -0.719090 -0.309296 0.125600 -0.961100 1 0 1.000000 
0 -26.898100 -11.031501 23.650499 -0.851328 -0.438115 -0.288610 0.061900 -0.884200 1 0 1.000000 
metalroof006a
0 -28.818100 -0.021601 23.650499 -0.956356 -0.055497 -0.286887 0.000000 -0.884200 1 0 1.000000 
0 -22.419600 -9.193001 7.650500 -0.908083 -0.303094 -0.288995 0.061800 -0.961100 1 0 1.000000 
0 -26.898100 -11.031501 23.650499 -0.851328 -0.438115 -0.288610 0.061900 -0.884200 1 0 1.000000 
metalroof006a
0 -22.417000 9.159899 7.650500 -0.888345 0.333417 -0.315716 -0.061900 -0.961100 1 0 1.000000 
0 -22.419600 -9.193001 7.650500 -0.908083 -0.303094 -0.288995 0.061800 -0.961100 1 0 1.000000 
0 -28.818100 -0.021601 23.650499 -0.956356 -0.055497 -0.286887 0.000000 -0.884200 1 0 1.000000 
metalroof006a
0 -26.898300 10.978399 23.650499 -0.944732 0.164805 -0.283410 -0.061800 -0.884200 1 0 1.000000 
0 -22.417000 9.159899 7.650500 -0.888345 0.333417 -0.315716 -0.061900 -0.961100 1 0 1.000000 
0 -28.818100 -0.021601 23.650499 -0.956356 -0.055497 -0.286887 0.000000 -0.884200 1 0 1.000000 
metalroof006a
0 -20.178200 20.308399 23.650499 -0.697991 0.656691 -0.285596 0.874300 -0.884200 1 0 1.000000 
0 -22.417000 9.159899 7.650500 -0.888345 0.333417 -0.315716 0.938100 -0.961100 1 0 1.000000 
0 -26.898100 10.988599 23.650499 -0.778196 0.561097 -0.282099 0.938100 -0.884200 1 0 1.000000 
metalroof006a
0 -16.826799 16.913099 7.650500 -0.605308 0.743410 -0.284504 0.874400 -0.961100 1 0 1.000000 
0 -22.417000 9.159899 7.650500 -0.888345 0.333417 -0.315716 0.938100 -0.961100 1 0 1.000000 
0 -20.178200 20.308399 23.650499 -0.697991 0.656691 -0.285596 0.874300 -0.884200 1 0 1.000000 
metalroof006a
0 -10.578101 26.238501 23.650499 -0.415528 0.864658 -0.282319 0.810900 -0.884200 1 0 1.000000 
0 -16.826799 16.913099 7.650500 -0.605308 0.743410 -0.284504 0.874400 -0.961100 1 0 1.000000 
0 -20.178200 20.308399 23.650499 -0.697991 0.656691 -0.285596 0.874300 -0.884200 1 0 1.000000 
metalroof006a
0 -0.011301 23.976801 7.650500 0.000100 0.941792 -0.336197 0.750000 -0.961100 1 0 1.000000 
0 -16.826799 16.913099 7.650500 -0.605308 0.743410 -0.284504 0.874400 -0.961100 1 0 1.000000 
0 -10.578101 26.238501 23.650499 -0.415528 0.864658 -0.282319 0.810900 -0.884200 1 0 1.000000 
metalroof006a
0 -0.018101 28.778400 23.650499 -0.076599 0.954985 -0.286595 0.750000 -0.884200 1 0 1.000000 
0 -0.011301 23.976801 7.650500 0.000100 0.941792 -0.336197 0.750000 -0.961100 1 0 1.000000 
0 -10.578101 26.238501 23.650499 -0.415528 0.864658 -0.282319 0.810900 -0.884200 1 0 1.000000 
metalroof006a
0 10.541799 26.238400 23.650499 0.321189 0.903869 -0.282590 0.689100 -0.884200 1 0 1.000000 
0 -0.011301 23.976801 7.650500 0.000100 0.941792 -0.336197 0.750000 -0.961100 1 0 1.000000 
0 -0.018101 28.778400 23.650499 -0.076599 0.954985 -0.286595 0.750000 -0.884200 1 0 1.000000 
metalroof006a
0 16.784100 16.915400 7.650500 0.622416 0.719019 -0.309208 0.625600 -0.961100 1 0 1.000000 
0 -0.011301 23.976801 7.650500 0.000100 0.941792 -0.336197 0.750000 -0.961100 1 0 1.000000 
0 10.541799 26.238400 23.650499 0.321189 0.903869 -0.282590 0.689100 -0.884200 1 0 1.000000 
metalroof006a
0 20.141899 20.308300 23.650499 0.605427 0.743234 -0.284713 0.625700 -0.884200 1 0 1.000000 
0 16.784100 16.915400 7.650500 0.622416 0.719019 -0.309208 0.625600 -0.961100 1 0 1.000000 
0 10.541799 26.238400 23.650499 0.321189 0.903869 -0.282590 0.689100 -0.884200 1 0 1.000000 
metalroof006a
0 26.862000 10.978401 23.650499 0.851418 0.438009 -0.288506 0.561800 -0.884200 1 0 1.000000 
0 16.784100 16.915400 7.650500 0.622416 0.719019 -0.309208 0.625600 -0.961100 1 0 1.000000 
0 20.141899 20.308300 23.650499 0.605427 0.743234 -0.284713 0.625700 -0.884200 1 0 1.000000 
metalroof006a
0 22.383499 9.149501 7.650500 0.908082 0.303194 -0.288894 0.561800 -0.961100 1 0 1.000000 
0 16.784100 16.915400 7.650500 0.622416 0.719019 -0.309208 0.625600 -0.961100 1 0 1.000000 
0 26.862000 10.978401 23.650499 0.851418 0.438009 -0.288506 0.561800 -0.884200 1 0 1.000000 
metalroof006a
0 28.781900 -0.021599 23.650499 0.956378 0.055599 -0.286793 0.500000 -0.884200 1 0 1.000000 
0 22.383499 9.149501 7.650500 0.908082 0.303194 -0.288894 0.561800 -0.961100 1 0 1.000000 
0 26.862000 10.978401 23.650499 0.851418 0.438009 -0.288506 0.561800 -0.884200 1 0 1.000000 
metalroof006a
0 23.982401 -0.021599 7.650500 0.956342 -0.055602 -0.286913 0.500000 -0.961100 1 0 1.000000 
0 22.383499 9.149501 7.650500 0.908082 0.303194 -0.288894 0.561800 -0.961100 1 0 1.000000 
0 28.781900 -0.021599 23.650499 0.956378 0.055599 -0.286793 0.500000 -0.884200 1 0 1.000000 
metalroof006a
0 26.861900 -11.031699 23.650499 0.908056 -0.303185 -0.288986 0.438100 -0.884200 1 0 1.000000 
0 23.982401 -0.021599 7.650500 0.956342 -0.055602 -0.286913 0.500000 -0.961100 1 0 1.000000 
0 28.781900 -0.021599 23.650499 0.956378 0.055599 -0.286793 0.500000 -0.884200 1 0 1.000000 
metalroof006a
0 22.380699 -9.203199 7.650500 0.851380 -0.438090 -0.288493 0.438100 -0.961100 1 0 1.000000 
0 23.982401 -0.021599 7.650500 0.956342 -0.055602 -0.286913 0.500000 -0.961100 1 0 1.000000 
0 26.861900 -11.031699 23.650499 0.908056 -0.303185 -0.288986 0.438100 -0.884200 1 0 1.000000 
metalroof006a
0 20.142099 -20.351400 23.650499 0.697991 -0.656691 -0.285596 0.374300 -0.884200 1 0 1.000000 
0 22.380699 -9.203199 7.650500 0.851380 -0.438090 -0.288493 0.438100 -0.961100 1 0 1.000000 
0 26.861900 -11.031699 23.650499 0.908056 -0.303185 -0.288986 0.438100 -0.884200 1 0 1.000000 
metalroof006a
0 16.790501 -16.956301 7.650500 0.605308 -0.743410 -0.284504 0.374400 -0.961100 1 0 1.000000 
0 22.380699 -9.203199 7.650500 0.851380 -0.438090 -0.288493 0.438100 -0.961100 1 0 1.000000 
0 20.142099 -20.351400 23.650499 0.697991 -0.656691 -0.285596 0.374300 -0.884200 1 0 1.000000 
metalroof006a
0 10.542001 -26.281500 23.650499 0.415528 -0.864658 -0.282319 0.310900 -0.884200 1 0 1.000000 
0 16.790501 -16.956301 7.650500 0.605308 -0.743410 -0.284504 0.374400 -0.961100 1 0 1.000000 
0 20.142099 -20.351400 23.650499 0.697991 -0.656691 -0.285596 0.374300 -0.884200 1 0 1.000000 
metalroof006a
0 8.786501 -21.900400 7.650500 0.321299 -0.903797 -0.282699 0.310900 -0.961100 1 0 1.000000 
0 16.790501 -16.956301 7.650500 0.605308 -0.743410 -0.284504 0.374400 -0.961100 1 0 1.000000 
0 10.542001 -26.281500 23.650499 0.415528 -0.864658 -0.282319 0.310900 -0.884200 1 0 1.000000 
metalroof006a
0 -20.177999 -20.351700 23.650499 0.000000 0.000000 1.000000 0.125700 -0.884200 1 0 1.000000 
0 -28.818100 -0.021601 23.650499 0.000000 0.000000 1.000000 0.000000 -0.884200 1 0 1.000000 
0 -26.898100 -11.031501 23.650499 0.000000 0.000000 1.000000 0.061900 -0.884200 1 0 1.000000 
metalroof006a
0 -10.577999 -26.281601 23.650499 0.000000 0.000000 1.000000 0.189100 -0.884200 1 0 1.000000 
0 -28.818100 -0.021601 23.650499 0.000000 0.000000 1.000000 0.000000 -0.884200 1 0 1.000000 
0 -20.177999 -20.351700 23.650499 0.000000 0.000000 1.000000 0.125700 -0.884200 1 0 1.000000 
metalroof006a
0 -0.018099 -28.821600 23.650499 0.000000 0.000000 1.000000 0.250000 -0.884200 1 0 1.000000 
0 -28.818100 -0.021601 23.650499 0.000000 0.000000 1.000000 0.000000 -0.884200 1 0 1.000000 
0 -10.577999 -26.281601 23.650499 0.000000 0.000000 1.000000 0.189100 -0.884200 1 0 1.000000 
metalroof006a
0 10.542001 -26.281500 23.650499 0.000000 0.000000 1.000000 0.310900 -0.884200 1 0 1.000000 
0 -28.818100 -0.021601 23.650499 0.000000 0.000000 1.000000 0.000000 -0.884200 1 0 1.000000 
0 -0.018099 -28.821600 23.650499 0.000000 0.000000 1.000000 0.250000 -0.884200 1 0 1.000000 
metalroof006a
0 20.142099 -20.351400 23.650499 0.000000 0.000000 1.000000 0.374300 -0.884200 1 0 1.000000 
0 -28.818100 -0.021601 23.650499 0.000000 0.000000 1.000000 0.000000 -0.884200 1 0 1.000000 
0 10.542001 -26.281500 23.650499 0.000000 0.000000 1.000000 0.310900 -0.884200 1 0 1.000000 
metalroof006a
0 26.861900 -11.031699 23.650499 0.000000 0.000000 1.000000 0.438100 -0.884200 1 0 1.000000 
0 -28.818100 -0.021601 23.650499 0.000000 0.000000 1.000000 0.000000 -0.884200 1 0 1.000000 
0 20.142099 -20.351400 23.650499 0.000000 0.000000 1.000000 0.374300 -0.884200 1 0 1.000000 
metalroof006a
0 28.781900 -0.021599 23.650499 0.000000 0.000000 1.000000 0.500000 -0.884200 1 0 1.000000 
0 -28.818100 -0.021601 23.650499 0.000000 0.000000 1.000000 0.000000 -0.884200 1 0 1.000000 
0 26.861900 -11.031699 23.650499 0.000000 0.000000 1.000000 0.438100 -0.884200 1 0 1.000000 
metalroof006a
0 26.861900 10.988601 23.650499 0.000000 0.000000 1.000000 -0.438100 -0.884200 1 0 1.000000 
0 -28.818100 -0.021601 23.650499 0.000000 0.000000 1.000000 0.000000 -0.884200 1 0 1.000000 
0 28.781900 -0.021599 23.650499 0.000000 0.000000 1.000000 0.500000 -0.884200 1 0 1.000000 
metalroof006a
0 20.141899 20.308300 23.650499 0.000000 0.000000 1.000000 -0.374300 -0.884200 1 0 1.000000 
0 -28.818100 -0.021601 23.650499 0.000000 0.000000 1.000000 0.000000 -0.884200 1 0 1.000000 
0 26.861900 10.988601 23.650499 0.000000 0.000000 1.000000 -0.438100 -0.884200 1 0 1.000000 
metalroof006a
0 10.541799 26.238400 23.650499 0.000000 0.000000 1.000000 -0.310900 -0.884200 1 0 1.000000 
0 -28.818100 -0.021601 23.650499 0.000000 0.000000 1.000000 0.000000 -0.884200 1 0 1.000000 
0 20.141899 20.308300 23.650499 0.000000 0.000000 1.000000 -0.374300 -0.884200 1 0 1.000000 
metalroof006a
0 -0.018101 28.778400 23.650499 0.000000 0.000000 1.000000 -0.250000 -0.884200 1 0 1.000000 
0 -28.818100 -0.021601 23.650499 0.000000 0.000000 1.000000 0.000000 -0.884200 1 0 1.000000 
0 10.541799 26.238400 23.650499 0.000000 0.000000 1.000000 -0.310900 -0.884200 1 0 1.000000 
metalroof006a
0 -10.578101 26.238501 23.650499 0.000000 0.000000 1.000000 -0.189100 -0.884200 1 0 1.000000 
0 -28.818100 -0.021601 23.650499 0.000000 0.000000 1.000000 0.000000 -0.884200 1 0 1.000000 
0 -0.018101 28.778400 23.650499 0.000000 0.000000 1.000000 -0.250000 -0.884200 1 0 1.000000 
metalroof006a
0 -20.178200 20.308399 23.650499 0.000000 0.000000 1.000000 -0.125700 -0.884200 1 0 1.000000 
0 -28.818100 -0.021601 23.650499 0.000000 0.000000 1.000000 0.000000 -0.884200 1 0 1.000000 
0 -10.578101 26.238501 23.650499 0.000000 0.000000 1.000000 -0.189100 -0.884200 1 0 1.000000 
metalroof006a
0 -26.898100 10.988599 23.650499 0.000000 0.000000 1.000000 -0.061900 -0.884200 1 0 1.000000 
0 -28.818100 -0.021601 23.650499 0.000000 0.000000 1.000000 0.000000 -0.884200 1 0 1.000000 
0 -20.178200 20.308399 23.650499 0.000000 0.000000 1.000000 -0.125700 -0.884200 1 0 1.000000 
metalroof006a
0 14.651802 -36.491600 7.650500 0.432998 -0.901395 0.000000 0.310900 -0.961100 1 0 1.000000 
0 27.982002 -28.261497 -0.349500 0.631488 -0.775385 0.000000 0.374300 -0.999500 1 0 1.000000 
0 27.982002 -28.261497 7.650500 0.728473 -0.685074 0.000000 0.374300 -0.961100 1 0 1.000000 
metalroof006a
0 14.651802 -36.491600 -0.349500 0.334797 -0.942290 0.000000 0.310900 -0.999500 1 0 1.000000 
0 27.982002 -28.261497 -0.349500 0.631488 -0.775385 0.000000 0.374300 -0.999500 1 0 1.000000 
0 14.651802 -36.491600 7.650500 0.432998 -0.901395 0.000000 0.310900 -0.961100 1 0 1.000000 
metalroof006a
0 -0.018098 -40.021599 7.650500 0.080000 -0.996795 0.000000 0.250000 -0.961100 1 0 1.000000 
0 14.651802 -36.491600 -0.349500 0.334797 -0.942290 0.000000 0.310900 -0.999500 1 0 1.000000 
0 14.651802 -36.491600 7.650500 0.432998 -0.901395 0.000000 0.310900 -0.961100 1 0 1.000000 
metalroof006a
0 -0.018098 -40.021599 -0.349500 -0.080000 -0.996795 0.000000 0.250000 -0.999500 1 0 1.000000 
0 14.651802 -36.491600 -0.349500 0.334797 -0.942290 0.000000 0.310900 -0.999500 1 0 1.000000 
0 -0.018098 -40.021599 7.650500 0.080000 -0.996795 0.000000 0.250000 -0.961100 1 0 1.000000 
metalroof006a
0 -14.688198 -36.491600 7.650500 -0.334797 -0.942290 0.000000 0.189100 -0.961100 1 0 1.000000 
0 -0.018098 -40.021599 -0.349500 -0.080000 -0.996795 0.000000 0.250000 -0.999500 1 0 1.000000 
0 -0.018098 -40.021599 7.650500 0.080000 -0.996795 0.000000 0.250000 -0.961100 1 0 1.000000 
metalroof006a
0 -14.688198 -36.491600 -0.349500 -0.432998 -0.901395 0.000000 0.189100 -0.999500 1 0 1.000000 
0 -0.018098 -40.021599 -0.349500 -0.080000 -0.996795 0.000000 0.250000 -0.999500 1 0 1.000000 
0 -14.688198 -36.491600 7.650500 -0.334797 -0.942290 0.000000 0.189100 -0.961100 1 0 1.000000 
metalroof006a
0 -28.017899 -28.261702 7.650500 -0.631488 -0.775385 0.000000 0.125700 -0.961100 1 0 1.000000 
0 -14.688198 -36.491600 -0.349500 -0.432998 -0.901395 0.000000 0.189100 -0.999500 1 0 1.000000 
0 -14.688198 -36.491600 7.650500 -0.334797 -0.942290 0.000000 0.189100 -0.961100 1 0 1.000000 
metalroof006a
0 -28.017899 -28.261702 -0.349500 -0.728473 -0.685075 0.000000 0.125700 -0.999500 1 0 1.000000 
0 -14.688198 -36.491600 -0.349500 -0.432998 -0.901395 0.000000 0.189100 -0.999500 1 0 1.000000 
0 -28.017899 -28.261702 7.650500 -0.631488 -0.775385 0.000000 0.125700 -0.961100 1 0 1.000000 
metalroof006a
0 -37.348202 -15.311402 7.650500 -0.889310 -0.457305 0.000000 0.061900 -0.961100 1 0 1.000000 
0 -28.017899 -28.261702 -0.349500 -0.728473 -0.685075 0.000000 0.125700 -0.999500 1 0 1.000000 
0 -28.017899 -28.261702 7.650500 -0.631488 -0.775385 0.000000 0.125700 -0.961100 1 0 1.000000 
metalroof006a
0 -37.348202 -15.311402 -0.349500 -0.948523 -0.316708 0.000000 0.061900 -0.999500 1 0 1.000000 
0 -28.017899 -28.261702 -0.349500 -0.728473 -0.685075 0.000000 0.125700 -0.999500 1 0 1.000000 
0 -37.348202 -15.311402 7.650500 -0.889310 -0.457305 0.000000 0.061900 -0.961100 1 0 1.000000 
metalroof006a
0 -40.018101 -0.021802 7.650500 -0.998311 -0.058101 0.000000 0.000000 -0.961100 1 0 1.000000 
0 -37.348202 -15.311402 -0.349500 -0.948523 -0.316708 0.000000 0.061900 -0.999500 1 0 1.000000 
0 -37.348202 -15.311402 7.650500 -0.889310 -0.457305 0.000000 0.061900 -0.961100 1 0 1.000000 
metalroof006a
0 -40.018101 -0.021802 -0.349500 -0.998311 0.058101 0.000000 0.000000 -0.999500 1 0 1.000000 
0 -37.348202 -15.311402 -0.349500 -0.948523 -0.316708 0.000000 0.061900 -0.999500 1 0 1.000000 
0 -40.018101 -0.021802 7.650500 -0.998311 -0.058101 0.000000 0.000000 -0.961100 1 0 1.000000 
metalroof006a
0 -37.348099 15.268599 7.650500 -0.948523 0.316708 0.000000 -0.061900 -0.961100 1 0 1.000000 
0 -40.018101 -0.021802 -0.349500 -0.998311 0.058101 0.000000 0.000000 -0.999500 1 0 1.000000 
0 -40.018101 -0.021802 7.650500 -0.998311 -0.058101 0.000000 0.000000 -0.961100 1 0 1.000000 
metalroof006a
0 -37.348099 15.268599 -0.349500 -0.889310 0.457305 0.000000 -0.061900 -0.999500 1 0 1.000000 
0 -40.018101 -0.021802 -0.349500 -0.998311 0.058101 0.000000 0.000000 -0.999500 1 0 1.000000 
0 -37.348099 15.268599 7.650500 -0.948523 0.316708 0.000000 -0.061900 -0.961100 1 0 1.000000 
metalroof006a
0 -28.018103 28.218397 7.650500 -0.728473 0.685074 0.000000 0.874300 -0.961100 1 0 1.000000 
0 -37.348099 15.268599 -0.349500 -0.889310 0.457305 0.000000 0.938100 -0.999500 1 0 1.000000 
0 -37.348099 15.268599 7.650500 -0.948523 0.316708 0.000000 0.938100 -0.961100 1 0 1.000000 
metalroof006a
0 -28.018103 28.218397 -0.349500 -0.631488 0.775385 0.000000 0.874300 -0.999500 1 0 1.000000 
0 -37.348099 15.268599 -0.349500 -0.889310 0.457305 0.000000 0.938100 -0.999500 1 0 1.000000 
0 -28.018103 28.218397 7.650500 -0.728473 0.685074 0.000000 0.874300 -0.961100 1 0 1.000000 
metalroof006a
0 -14.688202 36.448399 7.650500 -0.432998 0.901395 0.000000 0.810900 -0.961100 1 0 1.000000 
0 -28.018103 28.218397 -0.349500 -0.631488 0.775385 0.000000 0.874300 -0.999500 1 0 1.000000 
0 -28.018103 28.218397 7.650500 -0.728473 0.685074 0.000000 0.874300 -0.961100 1 0 1.000000 
metalroof006a
0 -14.688202 36.448399 -0.349500 -0.334797 0.942290 0.000000 0.810900 -0.999500 1 0 1.000000 
0 -28.018103 28.218397 -0.349500 -0.631488 0.775385 0.000000 0.874300 -0.999500 1 0 1.000000 
0 -14.688202 36.448399 7.650500 -0.432998 0.901395 0.000000 0.810900 -0.961100 1 0 1.000000 
metalroof006a
0 -0.018102 39.978401 7.650500 -0.080000 0.996795 0.000000 0.750000 -0.961100 1 0 1.000000 
0 -14.688202 36.448399 -0.349500 -0.334797 0.942290 0.000000 0.810900 -0.999500 1 0 1.000000 
0 -14.688202 36.448399 7.650500 -0.432998 0.901395 0.000000 0.810900 -0.961100 1 0 1.000000 
metalroof006a
0 -0.018102 39.978401 -0.349500 0.080000 0.996795 0.000000 0.750000 -0.999500 1 0 1.000000 
0 -14.688202 36.448399 -0.349500 -0.334797 0.942290 0.000000 0.810900 -0.999500 1 0 1.000000 
0 -0.018102 39.978401 7.650500 -0.080000 0.996795 0.000000 0.750000 -0.961100 1 0 1.000000 
metalroof006a
0 14.651999 36.448399 7.650500 0.334797 0.942290 0.000000 0.689100 -0.961100 1 0 1.000000 
0 -0.018102 39.978401 -0.349500 0.080000 0.996795 0.000000 0.750000 -0.999500 1 0 1.000000 
0 -0.018102 39.978401 7.650500 -0.080000 0.996795 0.000000 0.750000 -0.961100 1 0 1.000000 
metalroof006a
0 14.651999 36.448399 -0.349500 0.432998 0.901395 0.000000 0.689100 -0.999500 1 0 1.000000 
0 -0.018102 39.978401 -0.349500 0.080000 0.996795 0.000000 0.750000 -0.999500 1 0 1.000000 
0 14.651999 36.448399 7.650500 0.334797 0.942290 0.000000 0.689100 -0.961100 1 0 1.000000 
metalroof006a
0 27.981897 28.218502 7.650500 0.631488 0.775385 0.000000 0.625700 -0.961100 1 0 1.000000 
0 14.651999 36.448399 -0.349500 0.432998 0.901395 0.000000 0.689100 -0.999500 1 0 1.000000 
0 14.651999 36.448399 7.650500 0.334797 0.942290 0.000000 0.689100 -0.961100 1 0 1.000000 
metalroof006a
0 27.981897 28.218502 -0.349500 0.728473 0.685075 0.000000 0.625700 -0.999500 1 0 1.000000 
0 14.651999 36.448399 -0.349500 0.432998 0.901395 0.000000 0.689100 -0.999500 1 0 1.000000 
0 27.981897 28.218502 7.650500 0.631488 0.775385 0.000000 0.625700 -0.961100 1 0 1.000000 
metalroof006a
0 37.311901 15.268402 7.650500 0.889310 0.457305 0.000000 0.561900 -0.961100 1 0 1.000000 
0 27.981897 28.218502 -0.349500 0.728473 0.685075 0.000000 0.625700 -0.999500 1 0 1.000000 
0 27.981897 28.218502 7.650500 0.631488 0.775385 0.000000 0.625700 -0.961100 1 0 1.000000 
metalroof006a
0 37.311901 15.268402 -0.349500 0.948523 0.316708 0.000000 0.561900 -0.999500 1 0 1.000000 
0 27.981897 28.218502 -0.349500 0.728473 0.685075 0.000000 0.625700 -0.999500 1 0 1.000000 
0 37.311901 15.268402 7.650500 0.889310 0.457305 0.000000 0.561900 -0.961100 1 0 1.000000 
metalroof006a
0 39.981899 -0.021598 7.650500 0.998311 0.058101 0.000000 0.500000 -0.961100 1 0 1.000000 
0 37.311901 15.268402 -0.349500 0.948523 0.316708 0.000000 0.561900 -0.999500 1 0 1.000000 
0 37.311901 15.268402 7.650500 0.889310 0.457305 0.000000 0.561900 -0.961100 1 0 1.000000 
metalroof006a
0 39.981899 -0.021598 -0.349500 0.998311 -0.058101 0.000000 0.500000 -0.999500 1 0 1.000000 
0 37.311901 15.268402 -0.349500 0.948523 0.316708 0.000000 0.561900 -0.999500 1 0 1.000000 
0 39.981899 -0.021598 7.650500 0.998311 0.058101 0.000000 0.500000 -0.961100 1 0 1.000000 
metalroof006a
0 37.311901 -15.311598 7.650500 0.948523 -0.316708 0.000000 0.438100 -0.961100 1 0 1.000000 
0 39.981899 -0.021598 -0.349500 0.998311 -0.058101 0.000000 0.500000 -0.999500 1 0 1.000000 
0 39.981899 -0.021598 7.650500 0.998311 0.058101 0.000000 0.500000 -0.961100 1 0 1.000000 
metalroof006a
0 37.311901 -15.311598 -0.349500 0.889310 -0.457305 0.000000 0.438100 -0.999500 1 0 1.000000 
0 39.981899 -0.021598 -0.349500 0.998311 -0.058101 0.000000 0.500000 -0.999500 1 0 1.000000 
0 37.311901 -15.311598 7.650500 0.948523 -0.316708 0.000000 0.438100 -0.961100 1 0 1.000000 
metalroof006a
0 27.982002 -28.261497 7.650500 0.728473 -0.685074 0.000000 0.374300 -0.961100 1 0 1.000000 
0 37.311901 -15.311598 -0.349500 0.889310 -0.457305 0.000000 0.438100 -0.999500 1 0 1.000000 
0 37.311901 -15.311598 7.650500 0.948523 -0.316708 0.000000 0.438100 -0.961100 1 0 1.000000 
metalroof006a
0 27.982002 -28.261497 -0.349500 0.631488 -0.775385 0.000000 0.374300 -0.999500 1 0 1.000000 
0 37.311901 -15.311598 -0.349500 0.889310 -0.457305 0.000000 0.438100 -0.999500 1 0 1.000000 
0 27.982002 -28.261497 7.650500 0.728473 -0.685074 0.000000 0.374300 -0.961100 1 0 1.000000 
metalroof006a
0 -11.218201 11.268399 59.650501 -0.622510 0.782612 0.000000 0.874400 -0.711300 1 0 1.000000 
0 -14.948000 6.098700 55.650501 -0.951582 0.307394 0.000000 0.938100 -0.730500 1 0 1.000000 
0 -14.948000 6.098700 59.650501 -0.948423 0.317008 0.000000 0.938100 -0.711300 1 0 1.000000 
metalroof006a
0 -11.218201 11.268399 55.650501 -0.631985 0.774981 0.000000 0.874400 -0.730500 1 0 1.000000 
0 -14.948000 6.098700 55.650501 -0.951582 0.307394 0.000000 0.938100 -0.730500 1 0 1.000000 
0 -11.218201 11.268399 59.650501 -0.622510 0.782612 0.000000 0.874400 -0.711300 1 0 1.000000 
metalroof006a
0 -0.018101 15.978400 55.650501 -0.138803 0.990320 0.000000 0.750000 -0.730500 1 0 1.000000 
0 -11.218201 11.268399 55.650501 -0.631985 0.774981 0.000000 0.874400 -0.730500 1 0 1.000000 
0 -11.218201 11.268399 59.650501 -0.622510 0.782612 0.000000 0.874400 -0.711300 1 0 1.000000 
metalroof006a
0 -0.018101 15.978400 59.650501 0.180696 0.966080 0.184496 0.750000 -0.711300 1 0 1.000000 
0 -0.018101 15.978400 55.650501 -0.138803 0.990320 0.000000 0.750000 -0.730500 1 0 1.000000 
0 -11.218201 11.268399 59.650501 -0.622510 0.782612 0.000000 0.874400 -0.711300 1 0 1.000000 
metalroof006a
0 11.181899 11.268401 55.650501 0.591912 0.787216 0.173004 0.625600 -0.730500 1 0 1.000000 
0 -0.018101 15.978400 55.650501 -0.138803 0.990320 0.000000 0.750000 -0.730500 1 0 1.000000 
0 -0.018101 15.978400 59.650501 0.180696 0.966080 0.184496 0.750000 -0.711300 1 0 1.000000 
metalroof006a
0 14.911900 6.098300 59.650501 0.920172 0.366689 0.137196 0.561900 -0.711300 1 0 1.000000 
0 11.181899 11.268401 55.650501 0.591912 0.787216 0.173004 0.625600 -0.730500 1 0 1.000000 
0 -0.018101 15.978400 59.650501 0.180696 0.966080 0.184496 0.750000 -0.711300 1 0 1.000000 
metalroof006a
0 14.911900 6.098300 55.650501 0.948423 0.317008 0.000000 0.561900 -0.730500 1 0 1.000000 
0 11.181899 11.268401 55.650501 0.591912 0.787216 0.173004 0.625600 -0.730500 1 0 1.000000 
0 14.911900 6.098300 59.650501 0.920172 0.366689 0.137196 0.561900 -0.711300 1 0 1.000000 
metalroof006a
0 14.911900 -6.141399 55.650501 0.920172 -0.366689 -0.137196 0.438100 -0.730500 1 0 1.000000 
0 14.911900 6.098300 55.650501 0.948423 0.317008 0.000000 0.561900 -0.730500 1 0 1.000000 
0 14.911900 6.098300 59.650501 0.920172 0.366689 0.137196 0.561900 -0.711300 1 0 1.000000 
metalroof006a
0 14.911900 -6.141399 59.650501 0.948423 -0.317008 0.000000 0.438100 -0.711300 1 0 1.000000 
0 14.911900 -6.141399 55.650501 0.920172 -0.366689 -0.137196 0.438100 -0.730500 1 0 1.000000 
0 14.911900 6.098300 59.650501 0.920172 0.366689 0.137196 0.561900 -0.711300 1 0 1.000000 
metalroof006a
0 11.181701 -11.311699 59.650501 0.591912 -0.787216 -0.173004 0.374400 -0.711300 1 0 1.000000 
0 14.911900 -6.141399 55.650501 0.920172 -0.366689 -0.137196 0.438100 -0.730500 1 0 1.000000 
0 14.911900 -6.141399 59.650501 0.948423 -0.317008 0.000000 0.438100 -0.711300 1 0 1.000000 
metalroof006a
0 -0.018099 -16.021601 55.650501 0.180696 -0.966080 -0.184496 0.250000 -0.730500 1 0 1.000000 
0 14.911900 -6.141399 55.650501 0.920172 -0.366689 -0.137196 0.438100 -0.730500 1 0 1.000000 
0 11.181701 -11.311699 59.650501 0.591912 -0.787216 -0.173004 0.374400 -0.711300 1 0 1.000000 
metalroof006a
0 -0.018099 -16.021601 59.650501 -0.180696 -0.966080 0.184496 0.250000 -0.711300 1 0 1.000000 
0 -0.018099 -16.021601 55.650501 0.180696 -0.966080 -0.184496 0.250000 -0.730500 1 0 1.000000 
0 11.181701 -11.311699 59.650501 0.591912 -0.787216 -0.173004 0.374400 -0.711300 1 0 1.000000 
metalroof006a
0 -11.218199 -11.311601 55.650501 -0.591912 -0.787216 0.173004 0.125600 -0.730500 1 0 1.000000 
0 -0.018099 -16.021601 55.650501 0.180696 -0.966080 -0.184496 0.250000 -0.730500 1 0 1.000000 
0 -0.018099 -16.021601 59.650501 -0.180696 -0.966080 0.184496 0.250000 -0.711300 1 0 1.000000 
metalroof006a
0 -14.948100 -6.141601 59.650501 -0.920172 -0.366689 0.137196 0.061900 -0.711300 1 0 1.000000 
0 -11.218199 -11.311601 55.650501 -0.591912 -0.787216 0.173004 0.125600 -0.730500 1 0 1.000000 
0 -0.018099 -16.021601 59.650501 -0.180696 -0.966080 0.184496 0.250000 -0.711300 1 0 1.000000 
metalroof006a
0 -14.948100 -6.141601 55.650501 -0.948423 -0.317008 0.000000 0.061900 -0.730500 1 0 1.000000 
0 -11.218199 -11.311601 55.650501 -0.591912 -0.787216 0.173004 0.125600 -0.730500 1 0 1.000000 
0 -14.948100 -6.141601 59.650501 -0.920172 -0.366689 0.137196 0.061900 -0.711300 1 0 1.000000 
metalroof006a
0 -14.948000 6.098700 55.650501 -0.951582 0.307394 0.000000 -0.061900 -0.730500 1 0 1.000000 
0 -14.948100 -6.141601 55.650501 -0.948423 -0.317008 0.000000 0.061900 -0.730500 1 0 1.000000 
0 -14.948100 -6.141601 59.650501 -0.920172 -0.366689 0.137196 0.061900 -0.711300 1 0 1.000000 
metalroof006a
0 -14.948000 6.098700 59.650501 -0.948423 0.317008 0.000000 -0.061900 -0.711300 1 0 1.000000 
0 -14.948000 6.098700 55.650501 -0.951582 0.307394 0.000000 -0.061900 -0.730500 1 0 1.000000 
0 -14.948100 -6.141601 59.650501 -0.920172 -0.366689 0.137196 0.061900 -0.711300 1 0 1.000000 
end
