version 1
nodes
  0 "static_prop" -1
end
skeleton
time 0
0 0.000000 0.000000 0.000000 0.000000 0.000000 0.000000
end
triangles
Porthole_on001
0 0.000000 -6.666800 -9.977600 1.000000 0.000000 0.000000 0.321600 -0.767000 1 0 1.000000 
0 0.000000 -2.341100 -11.769400 0.471112 0.086502 -0.877822 0.437400 -0.814900 1 0 1.000000 
0 0.000000 -11.086600 -4.592200 1.000000 0.000000 0.000000 0.203300 -0.622900 1 0 1.000000 
Porthole_on001
0 1.100000 2.316700 -11.646800 0.267598 0.285398 -0.920293 0.562000 -0.811700 1 0 1.000000 
0 -0.000000 4.592200 -11.086600 0.267598 0.285398 -0.920293 0.622900 -0.796700 1 0 1.000000 
0 -0.000000 9.977600 -6.666800 0.896277 0.281393 -0.342791 0.767000 -0.678400 1 0 1.000000 
Porthole_on001
0 1.100000 2.316700 -11.646800 0.267598 0.285398 -0.920293 0.562000 -0.811700 1 0 1.000000 
0 0.000000 -2.341100 -11.769400 0.471112 0.086502 -0.877822 0.437400 -0.814900 1 0 1.000000 
0 -0.000000 4.592200 -11.086600 0.267598 0.285398 -0.920293 0.622900 -0.796700 1 0 1.000000 
Porthole_on001
0 0.000000 -4.592200 11.086600 1.000000 0.000000 0.000000 0.377100 -0.203300 1 0 1.000000 
0 0.000000 -8.485300 8.485300 1.000000 0.000000 0.000000 0.272900 -0.272900 1 0 1.000000 
0 -0.000000 4.592200 11.086600 0.999912 -0.005100 0.012200 0.622900 -0.203300 1 0 1.000000 
Porthole_on001
0 0.000000 -11.086600 4.592200 0.999942 -0.010800 -0.000200 0.203300 -0.377100 1 0 1.000000 
0 -0.000000 4.592200 11.086600 0.999912 -0.005100 0.012200 0.622900 -0.203300 1 0 1.000000 
0 0.000000 -8.485300 8.485300 1.000000 0.000000 0.000000 0.272900 -0.272900 1 0 1.000000 
Porthole_on001
0 0.000000 -11.086600 4.592200 0.999942 -0.010800 -0.000200 0.203300 -0.377100 1 0 1.000000 
0 -0.000000 8.485300 8.485300 1.000000 0.000000 0.000000 0.727100 -0.272900 1 0 1.000000 
0 -0.000000 4.592200 11.086600 0.999912 -0.005100 0.012200 0.622900 -0.203300 1 0 1.000000 
Porthole_on001
0 0.000000 -11.086600 4.592200 0.999942 -0.010800 -0.000200 0.203300 -0.377100 1 0 1.000000 
0 -0.000001 12.000000 0.000000 1.000000 0.000000 0.000000 0.821100 -0.500000 1 0 1.000000 
0 -0.000000 8.485300 8.485300 1.000000 0.000000 0.000000 0.727100 -0.272900 1 0 1.000000 
Porthole_on001
0 0.000000 -11.086600 4.592200 0.999942 -0.010800 -0.000200 0.203300 -0.377100 1 0 1.000000 
0 -0.000000 9.977600 -6.666800 0.999514 0.014700 0.027500 0.767000 -0.678400 1 0 1.000000 
0 -0.000001 12.000000 0.000000 1.000000 0.000000 0.000000 0.821100 -0.500000 1 0 1.000000 
Porthole_on001
0 0.000000 -11.086600 4.592200 0.999942 -0.010800 -0.000200 0.203300 -0.377100 1 0 1.000000 
0 1.100000 2.316700 -11.646800 1.000000 0.000000 0.000000 0.562000 -0.811700 1 0 1.000000 
0 -0.000000 9.977600 -6.666800 0.999514 0.014700 0.027500 0.767000 -0.678400 1 0 1.000000 
Porthole_on001
0 0.000000 -11.086600 4.592200 0.999942 -0.010800 -0.000200 0.203300 -0.377100 1 0 1.000000 
0 0.000000 -2.341100 -11.769400 0.998220 -0.052601 -0.028101 0.437400 -0.814900 1 0 1.000000 
0 1.100000 2.316700 -11.646800 1.000000 0.000000 0.000000 0.562000 -0.811700 1 0 1.000000 
Porthole_on001
0 0.000000 -11.086600 4.592200 0.999942 -0.010800 -0.000200 0.203300 -0.377100 1 0 1.000000 
0 0.000000 -11.086600 -4.592200 1.000000 0.000000 0.000000 0.203300 -0.622900 1 0 1.000000 
0 0.000000 -2.341100 -11.769400 0.998220 -0.052601 -0.028101 0.437400 -0.814900 1 0 1.000000 
end
