// Created by Crowbar 0.42.0.0
version 1
nodes
  0 "static_prop" -1
end
skeleton
  time 0
    0 0.000000 0.000000 0.000000 0.000000 0.000000 0.000000
end
triangles
Wood_PalletCrate001a
  0 -14.568099 -32.227600 3.730700 -1.000000 0.000000 0.000000 0.651000 0.338500 1 0 1.000000
  0 -14.568101 32.250099 3.534200 -1.000000 0.000000 0.000000 0.651000 0.979400 1 0 1.000000
  0 -14.568101 32.250099 2.737800 -1.000000 0.000000 0.000000 0.636300 0.979400 1 0 1.000000
Wood_PalletCrate001a
  0 -7.433599 -32.227600 3.661000 0.000000 -1.000000 0.000000 0.403700 0.255300 1 0 1.000000
  0 -14.568099 -32.227600 3.730700 0.000000 -1.000000 0.000000 0.456800 0.255300 1 0 1.000000
  0 -14.568099 -32.227600 2.737900 0.000000 -1.000000 0.000000 0.456800 0.246200 1 0 1.000000
Wood_PalletCrate001a
  0 -14.568099 -32.227600 2.737900 0.000000 -1.000000 0.000000 0.456800 0.246200 1 0 1.000000
  0 -7.434999 -32.227600 2.737900 0.000000 -1.000000 0.000000 0.403700 0.246200 1 0 1.000000
  0 -7.433599 -32.227600 3.661000 0.000000 -1.000000 0.000000 0.403700 0.255300 1 0 1.000000
Wood_PalletCrate001a
  0 -7.435001 32.250099 3.434500 0.011900 0.003300 0.999924 0.672600 0.317800 1 0 1.000000
  0 -14.568101 32.250099 3.534200 0.014000 0.003000 0.999897 0.614200 0.317800 1 0 1.000000
  0 -14.568099 -32.227600 3.730700 0.011900 0.003300 0.999924 0.614200 0.997500 1 0 1.000000
Wood_PalletCrate001a
  0 -14.568099 -32.227600 3.730700 0.011900 0.003300 0.999924 0.614200 0.997500 1 0 1.000000
  0 -7.433599 -32.227600 3.661000 0.009800 0.003500 0.999946 0.672600 0.997500 1 0 1.000000
  0 -7.435001 32.250099 3.434500 0.011900 0.003300 0.999924 0.672600 0.317800 1 0 1.000000
Wood_PalletCrate001a
  0 -7.435001 32.250099 2.737800 0.000000 0.000000 -1.000000 0.672600 0.317800 1 0 1.000000
  0 -7.434999 -32.227600 2.737900 0.000000 0.000000 -1.000000 0.672600 0.997500 1 0 1.000000
  0 -14.568099 -32.227600 2.737900 0.000000 0.000000 -1.000000 0.614200 0.997500 1 0 1.000000
Wood_PalletCrate001a
  0 -14.568099 -32.227600 2.737900 0.000000 0.000000 -1.000000 0.614200 0.997500 1 0 1.000000
  0 -14.568101 32.250099 2.737800 0.000000 0.000000 -1.000000 0.614200 0.317800 1 0 1.000000
  0 -7.435001 32.250099 2.737800 0.000000 0.000000 -1.000000 0.672600 0.317800 1 0 1.000000
Wood_PalletCrate001a
  0 -14.568101 32.250099 3.534200 0.000000 1.000000 0.000000 0.456800 0.255300 1 0 1.000000
  0 -7.435001 32.250099 3.434500 0.000000 1.000000 0.000000 0.403700 0.255300 1 0 1.000000
  0 -7.435001 32.250099 2.737800 0.000000 1.000000 0.000000 0.403700 0.246200 1 0 1.000000
Wood_PalletCrate001a
  0 -7.435001 32.250099 2.737800 0.000000 1.000000 0.000000 0.403700 0.246200 1 0 1.000000
  0 -14.568101 32.250099 2.737800 0.000000 1.000000 0.000000 0.456800 0.246200 1 0 1.000000
  0 -14.568101 32.250099 3.534200 0.000000 1.000000 0.000000 0.456800 0.255300 1 0 1.000000
Wood_PalletCrate001a
  0 -7.434999 -32.227600 2.737900 1.000000 0.000000 -0.000700 0.636300 0.338500 1 0 1.000000
  0 -7.435001 32.250099 2.737800 1.000000 0.000000 0.000000 0.636300 0.979400 1 0 1.000000
  0 -7.435001 32.250099 3.434500 1.000000 0.000000 -0.000700 0.651000 0.979400 1 0 1.000000
Wood_PalletCrate001a
  0 -7.435001 32.250099 3.434500 1.000000 0.000000 -0.000700 0.651000 0.979400 1 0 1.000000
  0 -7.433599 -32.227600 3.661000 0.999999 0.000000 -0.001500 0.651000 0.338500 1 0 1.000000
  0 -7.434999 -32.227600 2.737900 1.000000 0.000000 -0.000700 0.636300 0.338500 1 0 1.000000
end
