version 1
nodes
  0 "static_prop" -1
end
skeleton
time 0
0 0.000000 0.000000 0.000000 0.000000 0.000000 0.000000
end
triangles
metalwall035a
0 0.384200 -0.577800 -0.431800 0.786273 0.000000 -0.617879 0.446500 -0.524600 1 0 1.000000 
0 -0.533700 -2.478300 -1.599900 0.786273 0.000000 -0.617879 0.577400 -0.584800 1 0 1.000000 
0 0.384200 0.733000 -0.431800 0.786273 0.000000 -0.617879 0.360500 -0.533200 1 0 1.000000 
metalwall035a
0 0.214000 4.431300 0.918200 -0.374893 0.200696 0.905083 0.119000 -0.553000 1 0 1.000000 
0 0.837800 6.124100 0.801200 -0.374893 0.200696 0.905083 0.003800 -0.525200 1 0 1.000000 
0 0.413100 6.124100 0.625300 -0.374893 0.200696 0.905083 0.006600 -0.554700 1 0 1.000000 
metalwall035a
0 0.214000 4.431300 0.918200 -0.374893 0.200696 0.905083 0.119000 -0.553000 1 0 1.000000 
0 0.837800 4.431300 1.176500 -0.374893 0.200696 0.905083 0.114800 -0.509800 1 0 1.000000 
0 0.837800 6.124100 0.801200 -0.374893 0.200696 0.905083 0.003800 -0.525200 1 0 1.000000 
metalwall035a
0 -0.338400 4.431300 0.000400 -0.905083 0.200696 -0.374893 0.745800 -0.214600 1 0 1.000000 
0 0.271500 6.124100 -0.565900 -0.905083 0.200696 -0.374893 0.839800 -0.247400 1 0 1.000000 
0 0.006100 4.431300 -0.831200 -0.905083 0.200696 -0.374893 0.745800 -0.261500 1 0 1.000000 
metalwall035a
0 -0.338400 4.431300 0.000400 -0.905083 0.200696 -0.374893 0.745800 -0.214600 1 0 1.000000 
0 0.036900 6.124100 0.000400 -0.905083 0.200696 -0.374893 0.839800 -0.215500 1 0 1.000000 
0 0.271500 6.124100 -0.565900 -0.905083 0.200696 -0.374893 0.839800 -0.247400 1 0 1.000000 
metalwall035a
0 1.669400 4.431300 -0.831200 0.905083 0.200696 -0.374893 0.093400 -0.184100 1 0 1.000000 
0 1.638600 6.124100 0.000400 0.905083 0.200696 -0.374893 0.026700 -0.217500 1 0 1.000000 
0 2.013900 4.431300 0.000400 0.905083 0.200696 -0.374893 0.094100 -0.217500 1 0 1.000000 
metalwall035a
0 1.669400 4.431300 -0.831200 0.905083 0.200696 -0.374893 0.093400 -0.184100 1 0 1.000000 
0 1.404000 6.124100 -0.565900 0.905083 0.200696 -0.374893 0.026200 -0.187300 1 0 1.000000 
0 1.638600 6.124100 0.000400 0.905083 0.200696 -0.374893 0.026700 -0.217500 1 0 1.000000 
metalwall035a
0 0.348800 -0.936800 -0.488600 -0.382012 -0.058102 -0.922329 0.302000 -0.106700 1 0 1.000000 
0 0.837800 3.583900 -0.976000 -0.382012 -0.058102 -0.922329 0.125000 -0.148600 1 0 1.000000 
0 0.837800 -0.936800 -0.691100 -0.382012 -0.058102 -0.922329 0.303000 -0.134000 1 0 1.000000 
metalwall035a
0 0.348800 -0.936800 -0.488600 -0.382012 -0.058102 -0.922329 0.302000 -0.106700 1 0 1.000000 
0 0.147300 3.583900 -0.690000 -0.382012 -0.058102 -0.922329 0.123600 -0.114900 1 0 1.000000 
0 0.837800 3.583900 -0.976000 -0.382012 -0.058102 -0.922329 0.125000 -0.148600 1 0 1.000000 
metalwall035a
0 1.326700 -0.936800 0.489400 0.382012 -0.058102 0.922329 0.304000 -0.266500 1 0 1.000000 
0 0.837800 3.583900 0.976800 0.382012 -0.058102 0.922329 0.125000 -0.286400 1 0 1.000000 
0 0.837800 -0.936800 0.691900 0.382012 -0.058102 0.922329 0.303000 -0.300900 1 0 1.000000 
metalwall035a
0 1.326700 -0.936800 0.489400 0.382012 -0.058102 0.922329 0.304000 -0.266500 1 0 1.000000 
0 1.528200 3.583900 0.690800 0.382012 -0.058102 0.922329 0.126400 -0.252200 1 0 1.000000 
0 0.837800 3.583900 0.976800 0.382012 -0.058102 0.922329 0.125000 -0.286400 1 0 1.000000 
metalwall035a
0 1.595400 -6.934400 -0.757200 0.923877 0.000000 -0.382690 0.351000 -0.805300 1 0 1.000000 
0 1.909200 -6.225100 0.000400 0.923877 0.000000 -0.382690 0.332100 -0.821200 1 0 1.000000 
0 1.909200 -6.934400 0.000400 0.923877 0.000000 -0.382690 0.351000 -0.821200 1 0 1.000000 
metalwall035a
0 1.595400 -6.934400 -0.757200 0.923877 0.000000 -0.382690 0.351000 -0.805300 1 0 1.000000 
0 1.595400 -6.225100 -0.757200 0.923877 0.000000 -0.382690 0.332100 -0.805300 1 0 1.000000 
0 1.909200 -6.225100 0.000400 0.923877 0.000000 -0.382690 0.332100 -0.821200 1 0 1.000000 
metalwall035a
0 0.837800 -6.225100 0.276700 -0.382690 -0.000000 0.923877 0.332100 -0.853000 1 0 1.000000 
0 0.642400 -0.936800 0.195800 -0.382690 -0.000000 0.923877 0.190700 -0.868900 1 0 1.000000 
0 0.642400 -6.225100 0.195800 -0.382690 -0.000000 0.923877 0.332100 -0.868900 1 0 1.000000 
metalwall035a
0 0.837800 -6.225100 0.276700 -0.382690 -0.000000 0.923877 0.332100 -0.853000 1 0 1.000000 
0 0.837800 -0.936800 0.276700 -0.382690 -0.000000 0.923877 0.190700 -0.853000 1 0 1.000000 
0 0.642400 -0.936800 0.195800 -0.382690 -0.000000 0.923877 0.190700 -0.868900 1 0 1.000000 
metalwall035a
0 0.642400 -6.225100 0.195800 -0.923877 -0.000000 0.382690 0.332100 -0.868900 1 0 1.000000 
0 0.561500 -0.936800 0.000400 -0.923877 -0.000000 0.382690 0.190700 -0.884800 1 0 1.000000 
0 0.561500 -6.225100 0.000400 -0.923877 -0.000000 0.382690 0.332100 -0.884800 1 0 1.000000 
metalwall035a
0 0.642400 -6.225100 0.195800 -0.923877 -0.000000 0.382690 0.332100 -0.868900 1 0 1.000000 
0 0.642400 -0.936800 0.195800 -0.923877 -0.000000 0.382690 0.190700 -0.868900 1 0 1.000000 
0 0.561500 -0.936800 0.000400 -0.923877 -0.000000 0.382690 0.190700 -0.884800 1 0 1.000000 
metalwall035a
0 0.837800 -6.225100 -0.275900 0.382690 0.000000 -0.923877 0.332100 -0.789400 1 0 1.000000 
0 1.033100 -0.936800 -0.195000 0.690760 0.006000 -0.723059 0.190700 -0.805300 1 0 1.000000 
0 1.033100 -6.225100 -0.195000 0.382690 0.000000 -0.923877 0.332100 -0.805300 1 0 1.000000 
metalwall035a
0 0.837800 -6.225100 -0.275900 0.382690 0.000000 -0.923877 0.332100 -0.789400 1 0 1.000000 
0 0.837800 -0.936800 -0.275900 0.382690 0.000000 -0.923877 0.190700 -0.789400 1 0 1.000000 
0 1.033100 -0.936800 -0.195000 0.690760 0.006000 -0.723059 0.190700 -0.805300 1 0 1.000000 
metalwall035a
0 1.114000 -6.225100 0.000400 0.980754 0.007800 0.195091 0.332100 -0.821200 1 0 1.000000 
0 1.033100 -0.936800 0.195800 0.980754 0.007800 0.195091 0.190700 -0.837100 1 0 1.000000 
0 1.033100 -6.225100 0.195800 0.923877 0.000000 0.382690 0.332100 -0.837100 1 0 1.000000 
metalwall035a
0 1.114000 -6.225100 0.000400 0.980754 0.007800 0.195091 0.332100 -0.821200 1 0 1.000000 
0 1.033100 -0.936800 -0.195000 0.690760 0.006000 -0.723059 0.190700 -0.805300 1 0 1.000000 
0 1.033100 -0.936800 0.195800 0.980754 0.007800 0.195091 0.190700 -0.837100 1 0 1.000000 
metalwall035a
0 -0.080000 4.431300 0.624100 -0.726106 0.025600 -0.687106 0.745800 -0.180600 1 0 1.000000 
0 -2.246701 9.012700 3.084800 -0.726106 0.025600 -0.687106 1.000000 -0.039500 1 0 1.000000 
0 0.212900 6.124100 0.425100 -0.711260 0.040498 -0.701761 0.839800 -0.192300 1 0 1.000000 
metalwall035a
0 -0.080000 4.431300 0.624100 -0.726106 0.025600 -0.687106 0.745800 -0.180600 1 0 1.000000 
0 -2.369401 8.229900 3.207500 -0.740486 0.010700 -0.671987 0.956600 -0.032400 1 0 1.000000 
0 -2.246701 9.012700 3.084800 -0.726106 0.025600 -0.687106 1.000000 -0.039500 1 0 1.000000 
metalwall035a
0 0.384200 -0.577800 0.432600 -0.961431 -0.215107 -0.171405 0.467900 -0.192300 1 0 1.000000 
0 0.200900 -2.211200 3.510800 -0.974560 0.039098 0.220691 0.377300 -0.015700 1 0 1.000000 
0 0.384200 0.733000 0.432600 -0.998234 -0.000000 -0.059402 0.540700 -0.192300 1 0 1.000000 
metalwall035a
0 0.384200 -0.577800 0.432600 -0.961431 -0.215107 -0.171405 0.467900 -0.192300 1 0 1.000000 
0 0.296900 -2.478300 3.614200 0.830465 0.053698 0.554477 0.362500 -0.021200 1 0 1.000000 
0 0.200900 -2.211200 3.510800 -0.974560 0.039098 0.220691 0.377300 -0.015700 1 0 1.000000 
metalwall035a
0 0.816400 0.733000 0.611600 0.872937 0.250311 0.418718 0.540700 -0.183300 1 0 1.000000 
0 0.200900 -2.211200 3.510800 -0.974560 0.039098 0.220691 0.377300 -0.015700 1 0 1.000000 
0 0.296900 -2.478300 3.614200 0.830465 0.053698 0.554477 0.362500 -0.021200 1 0 1.000000 
metalwall035a
0 0.816400 0.733000 0.611600 0.872937 0.250311 0.418718 0.540700 -0.183300 1 0 1.000000 
0 0.296900 -2.478300 3.614200 0.830465 0.053698 0.554477 0.362500 -0.021200 1 0 1.000000 
0 0.816400 -0.577800 0.611600 0.985359 0.000000 0.170493 0.467900 -0.183300 1 0 1.000000 
metalwall035a
0 1.248500 -0.577800 -0.431800 0.961431 -0.215107 0.171405 0.467900 -0.242000 1 0 1.000000 
0 1.431800 -2.211200 -3.510000 0.974560 0.039098 -0.220691 0.377300 -0.418600 1 0 1.000000 
0 1.248500 0.733000 -0.431800 0.998234 0.000000 0.059402 0.540700 -0.242000 1 0 1.000000 
metalwall035a
0 1.248500 -0.577800 -0.431800 0.961431 -0.215107 0.171405 0.467900 -0.242000 1 0 1.000000 
0 1.335800 -2.478300 -3.613400 -0.830465 0.053698 -0.554477 0.362500 -0.413100 1 0 1.000000 
0 1.431800 -2.211200 -3.510000 0.974560 0.039098 -0.220691 0.377300 -0.418600 1 0 1.000000 
metalwall035a
0 0.816400 0.733000 -0.610800 -0.872937 0.250311 -0.418718 0.540700 -0.251000 1 0 1.000000 
0 1.431800 -2.211200 -3.510000 0.974560 0.039098 -0.220691 0.377300 -0.418600 1 0 1.000000 
0 1.335800 -2.478300 -3.613400 -0.830465 0.053698 -0.554477 0.362500 -0.413100 1 0 1.000000 
metalwall035a
0 0.816400 0.733000 -0.610800 -0.872937 0.250311 -0.418718 0.540700 -0.251000 1 0 1.000000 
0 1.335800 -2.478300 -3.613400 -0.830465 0.053698 -0.554477 0.362500 -0.413100 1 0 1.000000 
0 0.816400 -0.577800 -0.610800 -0.985359 -0.000000 -0.170493 0.467900 -0.251000 1 0 1.000000 
metalwall035a
0 1.248500 0.733000 0.432600 0.794609 0.400705 0.456105 0.861100 -0.691900 1 0 1.000000 
0 2.206200 -2.211200 1.351100 0.794609 0.400705 0.456105 0.933200 -0.628200 1 0 1.000000 
0 1.427500 0.733000 0.000400 0.851852 0.387124 0.352822 0.874100 -0.723100 1 0 1.000000 
metalwall035a
0 1.248500 0.733000 0.432600 0.794609 0.400705 0.456105 0.861100 -0.691900 1 0 1.000000 
0 2.166400 -2.478300 1.600700 0.726076 0.408686 0.552982 0.930300 -0.610200 1 0 1.000000 
0 2.206200 -2.211200 1.351100 0.794609 0.400705 0.456105 0.933200 -0.628200 1 0 1.000000 
metalwall035a
0 0.384200 0.733000 -0.431800 -0.794609 0.400705 -0.456105 0.798600 -0.754400 1 0 1.000000 
0 -0.573500 -2.211200 -1.350300 -0.794609 0.400705 -0.456105 0.732200 -0.823600 1 0 1.000000 
0 0.205200 0.733000 0.000400 -0.851852 0.387124 -0.352822 0.785700 -0.723100 1 0 1.000000 
metalwall035a
0 0.384200 0.733000 -0.431800 -0.794609 0.400705 -0.456105 0.798600 -0.754400 1 0 1.000000 
0 -0.533700 -2.478300 -1.599900 -0.726076 0.408686 -0.552982 0.735000 -0.841700 1 0 1.000000 
0 -0.573500 -2.211200 -1.350300 -0.794609 0.400705 -0.456105 0.732200 -0.823600 1 0 1.000000 
metalwall035a
0 0.080100 -6.934400 -0.757200 -0.382690 -0.000000 -0.923877 0.351000 -0.773500 1 0 1.000000 
0 0.837800 -6.225100 -1.071000 -0.382690 -0.000000 -0.923877 0.332100 -0.789400 1 0 1.000000 
0 0.837800 -6.934400 -1.071000 -0.382690 -0.000000 -0.923877 0.351000 -0.789400 1 0 1.000000 
metalwall035a
0 0.080100 -6.934400 -0.757200 -0.382690 -0.000000 -0.923877 0.351000 -0.773500 1 0 1.000000 
0 0.080100 -6.225100 -0.757200 -0.382690 -0.000000 -0.923877 0.332100 -0.773500 1 0 1.000000 
0 0.837800 -6.225100 -1.071000 -0.382690 -0.000000 -0.923877 0.332100 -0.789400 1 0 1.000000 
metalwall035a
0 1.296900 -6.934400 0.459600 0.382690 0.000000 0.923877 0.351000 -0.837100 1 0 1.000000 
0 0.837800 -9.012700 0.649800 0.382690 0.000000 0.923877 0.406600 -0.853000 1 0 1.000000 
0 1.296900 -9.012700 0.459600 0.382690 0.000000 0.923877 0.406600 -0.837100 1 0 1.000000 
metalwall035a
0 1.296900 -6.934400 0.459600 0.382690 0.000000 0.923877 0.351000 -0.837100 1 0 1.000000 
0 0.837800 -6.934400 0.649800 0.382690 0.000000 0.923877 0.351000 -0.853000 1 0 1.000000 
0 0.837800 -9.012700 0.649800 0.382690 0.000000 0.923877 0.406600 -0.853000 1 0 1.000000 
metalwall035a
0 0.188400 -6.934400 0.000400 -0.923877 -0.000000 -0.382690 0.351000 -0.757600 1 0 1.000000 
0 0.378600 -9.012700 -0.458800 -0.923877 -0.000000 -0.382690 0.406600 -0.773500 1 0 1.000000 
0 0.188400 -9.012700 0.000400 -0.923877 -0.000000 -0.382690 0.406600 -0.757600 1 0 1.000000 
metalwall035a
0 0.188400 -6.934400 0.000400 -0.923877 -0.000000 -0.382690 0.351000 -0.757600 1 0 1.000000 
0 0.378600 -6.934400 -0.458800 -0.923877 -0.000000 -0.382690 0.351000 -0.773500 1 0 1.000000 
0 0.378600 -9.012700 -0.458800 -0.923877 -0.000000 -0.382690 0.406600 -0.773500 1 0 1.000000 
metalwall035a
0 1.427500 -0.577800 0.000400 -0.481909 -0.666412 -0.568910 0.875300 -0.724400 1 0 1.000000 
0 2.166400 -2.478300 1.600700 -0.481909 -0.666412 -0.568910 0.930600 -0.610400 1 0 1.000000 
0 1.248500 -0.577800 0.432600 -0.763501 -0.563101 -0.316201 0.862400 -0.693100 1 0 1.000000 
metalwall035a
0 1.427500 -0.577800 0.000400 -0.481909 -0.666412 -0.568910 0.875300 -0.724400 1 0 1.000000 
0 2.206200 -2.211200 1.351100 -0.126299 -0.667197 -0.734096 0.933400 -0.628500 1 0 1.000000 
0 2.166400 -2.478300 1.600700 -0.481909 -0.666412 -0.568910 0.930600 -0.610400 1 0 1.000000 
metalwall035a
0 0.205200 -0.577800 0.000400 0.481909 -0.666412 0.568910 0.786900 -0.724400 1 0 1.000000 
0 -0.533700 -2.478300 -1.599900 0.481909 -0.666412 0.568910 0.735300 -0.841900 1 0 1.000000 
0 0.384200 -0.577800 -0.431800 0.763501 -0.563101 0.316201 0.799900 -0.755600 1 0 1.000000 
metalwall035a
0 0.205200 -0.577800 0.000400 0.481909 -0.666412 0.568910 0.786900 -0.724400 1 0 1.000000 
0 -0.573500 -2.211200 -1.350300 0.126299 -0.667197 0.734096 0.732400 -0.823900 1 0 1.000000 
0 -0.533700 -2.478300 -1.599900 0.481909 -0.666412 0.568910 0.735300 -0.841900 1 0 1.000000 
metalwall035a
0 0.413100 6.124100 0.625300 0.689994 0.024700 0.723393 0.839800 -0.181600 1 0 1.000000 
0 -2.369401 8.229900 3.207500 0.689994 0.024700 0.723393 0.956600 -0.032400 1 0 1.000000 
0 0.214000 4.431300 0.918200 0.696513 0.042001 0.716314 0.745800 -0.165000 1 0 1.000000 
metalwall035a
0 0.413100 6.124100 0.625300 0.689994 0.024700 0.723393 0.839800 -0.181600 1 0 1.000000 
0 -2.246701 9.012700 3.084800 0.683197 0.007400 0.730197 1.000000 -0.039500 1 0 1.000000 
0 -2.369401 8.229900 3.207500 0.689994 0.024700 0.723393 0.956600 -0.032400 1 0 1.000000 
metalwall035a
0 -0.138600 3.583900 0.000400 0.000000 -1.000000 0.000000 0.698800 -0.500000 1 0 1.000000 
0 -0.245300 3.583900 -1.082600 0.000000 -1.000000 0.000000 0.698800 -0.649800 1 0 1.000000 
0 0.147300 3.583900 -0.690000 0.000000 -1.000000 0.000000 0.698800 -0.595500 1 0 1.000000 
metalwall035a
0 -0.138600 3.583900 0.000400 0.000000 -1.000000 0.000000 0.698800 -0.500000 1 0 1.000000 
0 -0.693900 3.583900 0.000400 0.000000 -1.000000 0.000000 0.698800 -0.500000 1 0 1.000000 
0 -0.245300 3.583900 -1.082600 0.000000 -1.000000 0.000000 0.698800 -0.649800 1 0 1.000000 
metalwall035a
0 0.146300 -0.936800 0.000400 -0.922329 -0.058102 -0.382012 0.301600 -0.081600 1 0 1.000000 
0 0.147300 3.583900 -0.690000 -0.922329 -0.058102 -0.382012 0.123600 -0.114900 1 0 1.000000 
0 0.348800 -0.936800 -0.488600 -0.922329 -0.058102 -0.382012 0.302000 -0.106700 1 0 1.000000 
metalwall035a
0 0.146300 -0.936800 0.000400 -0.922329 -0.058102 -0.382012 0.301600 -0.081600 1 0 1.000000 
0 -0.138600 3.583900 0.000400 -0.922329 -0.058102 -0.382012 0.123000 -0.081600 1 0 1.000000 
0 0.147300 3.583900 -0.690000 -0.922329 -0.058102 -0.382012 0.123600 -0.114900 1 0 1.000000 
metalwall035a
0 0.837800 -0.936800 0.691900 -0.382012 -0.058102 0.922329 0.303000 -0.300900 1 0 1.000000 
0 0.147300 3.583900 0.690800 -0.382012 -0.058102 0.922329 0.123600 -0.320100 1 0 1.000000 
0 0.348800 -0.936800 0.489400 -0.382012 -0.058102 0.922329 0.302000 -0.328300 1 0 1.000000 
metalwall035a
0 0.837800 -0.936800 0.691900 -0.382012 -0.058102 0.922329 0.303000 -0.300900 1 0 1.000000 
0 0.837800 3.583900 0.976800 -0.382012 -0.058102 0.922329 0.125000 -0.286400 1 0 1.000000 
0 0.147300 3.583900 0.690800 -0.382012 -0.058102 0.922329 0.123600 -0.320100 1 0 1.000000 
metalwall035a
0 1.529300 -0.936800 0.000400 0.922329 -0.058102 0.382012 0.304400 -0.217500 1 0 1.000000 
0 1.528200 3.583900 0.690800 0.922329 -0.058102 0.382012 0.126400 -0.252200 1 0 1.000000 
0 1.326700 -0.936800 0.489400 0.922329 -0.058102 0.382012 0.304000 -0.266500 1 0 1.000000 
metalwall035a
0 1.529300 -0.936800 0.000400 0.922329 -0.058102 0.382012 0.304400 -0.217500 1 0 1.000000 
0 1.814100 3.583900 0.000400 0.922329 -0.058102 0.382012 0.127000 -0.217500 1 0 1.000000 
0 1.528200 3.583900 0.690800 0.922329 -0.058102 0.382012 0.126400 -0.252200 1 0 1.000000 
metalwall035a
0 0.837800 -0.936800 -0.691100 0.382012 -0.058102 -0.922329 0.303000 -0.134000 1 0 1.000000 
0 1.528200 3.583900 -0.690000 0.382012 -0.058102 -0.922329 0.126400 -0.182800 1 0 1.000000 
0 1.326700 -0.936800 -0.488600 0.382012 -0.058102 -0.922329 0.304000 -0.168500 1 0 1.000000 
metalwall035a
0 0.837800 -0.936800 -0.691100 0.382012 -0.058102 -0.922329 0.303000 -0.134000 1 0 1.000000 
0 0.837800 3.583900 -0.976000 0.382012 -0.058102 -0.922329 0.125000 -0.148600 1 0 1.000000 
0 1.528200 3.583900 -0.690000 0.382012 -0.058102 -0.922329 0.126400 -0.182800 1 0 1.000000 
metalwall035a
0 0.212900 6.124100 0.425100 -0.905083 0.200696 0.374893 0.839800 -0.192300 1 0 1.000000 
0 -0.338400 4.431300 0.000400 -0.905083 0.200696 0.374893 0.745800 -0.214600 1 0 1.000000 
0 -0.080000 4.431300 0.624100 -0.905083 0.200696 0.374893 0.745800 -0.180600 1 0 1.000000 
metalwall035a
0 0.212900 6.124100 0.425100 -0.905083 0.200696 0.374893 0.839800 -0.192300 1 0 1.000000 
0 0.036900 6.124100 0.000400 -0.905083 0.200696 0.374893 0.839800 -0.215500 1 0 1.000000 
0 -0.338400 4.431300 0.000400 -0.905083 0.200696 0.374893 0.745800 -0.214600 1 0 1.000000 
metalwall035a
0 0.642400 -6.225100 -0.195000 -0.382690 -0.000000 -0.923877 0.332100 -0.773500 1 0 1.000000 
0 0.837800 -0.936800 -0.275900 -0.382690 -0.000000 -0.923877 0.190700 -0.789400 1 0 1.000000 
0 0.837800 -6.225100 -0.275900 -0.382690 -0.000000 -0.923877 0.332100 -0.789400 1 0 1.000000 
metalwall035a
0 0.642400 -6.225100 -0.195000 -0.382690 -0.000000 -0.923877 0.332100 -0.773500 1 0 1.000000 
0 0.642400 -0.936800 -0.195000 -0.382690 -0.000000 -0.923877 0.190700 -0.773500 1 0 1.000000 
0 0.837800 -0.936800 -0.275900 -0.382690 -0.000000 -0.923877 0.190700 -0.789400 1 0 1.000000 
metalwall035a
0 1.033100 -6.225100 0.195800 0.382690 0.000000 0.923877 0.332100 -0.837100 1 0 1.000000 
0 0.837800 -0.936800 0.276700 0.382690 0.000000 0.923877 0.190700 -0.853000 1 0 1.000000 
0 0.837800 -6.225100 0.276700 0.382690 0.000000 0.923877 0.332100 -0.853000 1 0 1.000000 
metalwall035a
0 1.033100 -6.225100 0.195800 0.382690 0.000000 0.923877 0.332100 -0.837100 1 0 1.000000 
0 1.033100 -0.936800 0.195800 0.382690 0.000000 0.923877 0.190700 -0.837100 1 0 1.000000 
0 0.837800 -0.936800 0.276700 0.382690 0.000000 0.923877 0.190700 -0.853000 1 0 1.000000 
metalwall035a
0 2.013900 4.431300 0.000400 0.905083 0.200696 0.374893 0.094100 -0.217500 1 0 1.000000 
0 1.404000 6.124100 0.566700 0.905083 0.200696 0.374893 0.026200 -0.247600 1 0 1.000000 
0 1.669400 4.431300 0.832000 0.905083 0.200696 0.374893 0.093400 -0.250900 1 0 1.000000 
metalwall035a
0 2.013900 4.431300 0.000400 0.905083 0.200696 0.374893 0.094100 -0.217500 1 0 1.000000 
0 1.638600 6.124100 0.000400 0.905083 0.200696 0.374893 0.026700 -0.217500 1 0 1.000000 
0 1.404000 6.124100 0.566700 0.905083 0.200696 0.374893 0.026200 -0.247600 1 0 1.000000 
metalwall035a
0 0.006100 4.431300 -0.831200 -0.374893 0.200696 -0.905083 0.120400 -0.586500 1 0 1.000000 
0 0.837800 6.124100 -0.800400 -0.374893 0.200696 -0.905083 0.003800 -0.543500 1 0 1.000000 
0 0.837800 4.431300 -1.175700 -0.374893 0.200696 -0.905083 0.114800 -0.536700 1 0 1.000000 
metalwall035a
0 0.006100 4.431300 -0.831200 -0.374893 0.200696 -0.905083 0.120400 -0.586500 1 0 1.000000 
0 0.271500 6.124100 -0.565900 -0.374893 0.200696 -0.905083 0.007600 -0.577400 1 0 1.000000 
0 0.837800 6.124100 -0.800400 -0.374893 0.200696 -0.905083 0.003800 -0.543500 1 0 1.000000 
metalwall035a
0 0.837800 -6.934400 1.071800 -0.382690 -0.000000 0.923877 0.351000 -0.853000 1 0 1.000000 
0 0.080100 -6.225100 0.758000 -0.382690 -0.000000 0.923877 0.332100 -0.868900 1 0 1.000000 
0 0.080100 -6.934400 0.758000 -0.382690 -0.000000 0.923877 0.351000 -0.868900 1 0 1.000000 
metalwall035a
0 0.837800 -6.934400 1.071800 -0.382690 -0.000000 0.923877 0.351000 -0.853000 1 0 1.000000 
0 0.837800 -6.225100 1.071800 -0.382690 -0.000000 0.923877 0.332100 -0.853000 1 0 1.000000 
0 0.080100 -6.225100 0.758000 -0.382690 -0.000000 0.923877 0.332100 -0.868900 1 0 1.000000 
metalwall035a
0 0.080100 -6.934400 0.758000 -0.923877 -0.000000 0.382690 0.351000 -0.868900 1 0 1.000000 
0 -0.233700 -6.225100 0.000400 -0.923877 -0.000000 0.382690 0.332100 -0.884800 1 0 1.000000 
0 -0.233700 -6.934400 0.000400 -0.923877 -0.000000 0.382690 0.351000 -0.884800 1 0 1.000000 
metalwall035a
0 0.080100 -6.934400 0.758000 -0.923877 -0.000000 0.382690 0.351000 -0.868900 1 0 1.000000 
0 0.080100 -6.225100 0.758000 -0.923877 -0.000000 0.382690 0.332100 -0.868900 1 0 1.000000 
0 -0.233700 -6.225100 0.000400 -0.923877 -0.000000 0.382690 0.332100 -0.884800 1 0 1.000000 
metalwall035a
0 0.837800 3.583900 -1.531200 0.382690 0.000000 -0.923877 0.125000 -0.148900 1 0 1.000000 
0 1.920800 4.431300 -1.082600 0.382690 0.000000 -0.923877 0.093900 -0.183900 1 0 1.000000 
0 1.920800 3.583900 -1.082600 0.382690 0.000000 -0.923877 0.127300 -0.183000 1 0 1.000000 
metalwall035a
0 0.837800 3.583900 -1.531200 0.382690 0.000000 -0.923877 0.125000 -0.148900 1 0 1.000000 
0 0.837800 4.431300 -1.531200 0.382690 0.000000 -0.923877 0.091700 -0.150200 1 0 1.000000 
0 1.920800 4.431300 -1.082600 0.382690 0.000000 -0.923877 0.093900 -0.183900 1 0 1.000000 
metalwall035a
0 2.369400 3.583900 0.000400 0.923877 0.000000 0.382690 0.128200 -0.217500 1 0 1.000000 
0 1.920800 4.431300 1.083400 0.923877 0.000000 0.382690 0.093900 -0.251100 1 0 1.000000 
0 1.920800 3.583900 1.083400 0.923877 0.000000 0.382690 0.127300 -0.251900 1 0 1.000000 
metalwall035a
0 2.369400 3.583900 0.000400 0.923877 0.000000 0.382690 0.128200 -0.217500 1 0 1.000000 
0 2.369400 4.431300 0.000400 0.923877 0.000000 0.382690 0.094800 -0.217500 1 0 1.000000 
0 1.920800 4.431300 1.083400 0.923877 0.000000 0.382690 0.093900 -0.251100 1 0 1.000000 
metalwall035a
0 0.837800 -6.934400 -0.649000 0.382690 0.000000 -0.923877 0.351000 -0.789400 1 0 1.000000 
0 1.296900 -9.012700 -0.458800 0.382690 0.000000 -0.923877 0.406600 -0.805300 1 0 1.000000 
0 0.837800 -9.012700 -0.649000 0.382690 0.000000 -0.923877 0.406600 -0.789400 1 0 1.000000 
metalwall035a
0 0.837800 -6.934400 -0.649000 0.382690 0.000000 -0.923877 0.351000 -0.789400 1 0 1.000000 
0 1.296900 -6.934400 -0.458800 0.382690 0.000000 -0.923877 0.351000 -0.805300 1 0 1.000000 
0 1.296900 -9.012700 -0.458800 0.382690 0.000000 -0.923877 0.406600 -0.805300 1 0 1.000000 
metalwall035a
0 1.909200 -6.934400 0.000400 0.923877 0.000000 0.382690 0.351000 -0.821200 1 0 1.000000 
0 1.595400 -6.225100 0.758000 0.923877 0.000000 0.382690 0.332100 -0.837100 1 0 1.000000 
0 1.595400 -6.934400 0.758000 0.923877 0.000000 0.382690 0.351000 -0.837100 1 0 1.000000 
metalwall035a
0 1.909200 -6.934400 0.000400 0.923877 0.000000 0.382690 0.351000 -0.821200 1 0 1.000000 
0 1.909200 -6.225100 0.000400 0.923877 0.000000 0.382690 0.332100 -0.821200 1 0 1.000000 
0 1.595400 -6.225100 0.758000 0.923877 0.000000 0.382690 0.332100 -0.837100 1 0 1.000000 
metalwall035a
0 -0.233700 -6.934400 0.000400 -0.923877 -0.000000 -0.382690 0.351000 -0.757600 1 0 1.000000 
0 0.080100 -6.225100 -0.757200 -0.923877 -0.000000 -0.382690 0.332100 -0.773500 1 0 1.000000 
0 0.080100 -6.934400 -0.757200 -0.923877 -0.000000 -0.382690 0.351000 -0.773500 1 0 1.000000 
metalwall035a
0 -0.233700 -6.934400 0.000400 -0.923877 -0.000000 -0.382690 0.351000 -0.757600 1 0 1.000000 
0 -0.233700 -6.225100 0.000400 -0.923877 -0.000000 -0.382690 0.332100 -0.757600 1 0 1.000000 
0 0.080100 -6.225100 -0.757200 -0.923877 -0.000000 -0.382690 0.332100 -0.773500 1 0 1.000000 
metalwall035a
0 0.378600 -6.934400 0.459600 -0.923877 -0.000000 0.382690 0.351000 -0.868900 1 0 1.000000 
0 0.188400 -9.012700 0.000400 -0.923877 -0.000000 0.382690 0.406600 -0.884800 1 0 1.000000 
0 0.378600 -9.012700 0.459600 -0.923877 -0.000000 0.382690 0.406600 -0.868900 1 0 1.000000 
metalwall035a
0 0.378600 -6.934400 0.459600 -0.923877 -0.000000 0.382690 0.351000 -0.868900 1 0 1.000000 
0 0.188400 -6.934400 0.000400 -0.923877 -0.000000 0.382690 0.351000 -0.884800 1 0 1.000000 
0 0.188400 -9.012700 0.000400 -0.923877 -0.000000 0.382690 0.406600 -0.884800 1 0 1.000000 
metalwall035a
0 1.487100 -6.934400 0.000400 0.923877 0.000000 0.382690 0.351000 -0.821200 1 0 1.000000 
0 1.296900 -9.012700 0.459600 0.923877 0.000000 0.382690 0.406600 -0.837100 1 0 1.000000 
0 1.487100 -9.012700 0.000400 0.923877 0.000000 0.382690 0.406600 -0.821200 1 0 1.000000 
metalwall035a
0 1.487100 -6.934400 0.000400 0.923877 0.000000 0.382690 0.351000 -0.821200 1 0 1.000000 
0 1.296900 -6.934400 0.459600 0.923877 0.000000 0.382690 0.351000 -0.837100 1 0 1.000000 
0 1.296900 -9.012700 0.459600 0.923877 0.000000 0.382690 0.406600 -0.837100 1 0 1.000000 
metalwall035a
0 1.669400 4.431300 0.832000 0.374893 0.200696 0.905083 0.093400 -0.250900 1 0 1.000000 
0 0.837800 6.124100 0.801200 0.374893 0.200696 0.905083 0.025000 -0.279500 1 0 1.000000 
0 0.837800 4.431300 1.176500 0.374893 0.200696 0.905083 0.091700 -0.284600 1 0 1.000000 
metalwall035a
0 1.669400 4.431300 0.832000 0.374893 0.200696 0.905083 0.093400 -0.250900 1 0 1.000000 
0 1.404000 6.124100 0.566700 0.374893 0.200696 0.905083 0.026200 -0.247600 1 0 1.000000 
0 0.837800 6.124100 0.801200 0.374893 0.200696 0.905083 0.025000 -0.279500 1 0 1.000000 
metalwall035a
0 0.837800 4.431300 -1.175700 0.374893 0.200696 -0.905083 0.091700 -0.150400 1 0 1.000000 
0 1.404000 6.124100 -0.565900 0.374893 0.200696 -0.905083 0.026200 -0.187300 1 0 1.000000 
0 1.669400 4.431300 -0.831200 0.374893 0.200696 -0.905083 0.093400 -0.184100 1 0 1.000000 
metalwall035a
0 0.837800 4.431300 -1.175700 0.374893 0.200696 -0.905083 0.091700 -0.150400 1 0 1.000000 
0 0.837800 6.124100 -0.800400 0.374893 0.200696 -0.905083 0.025000 -0.155500 1 0 1.000000 
0 1.404000 6.124100 -0.565900 0.374893 0.200696 -0.905083 0.026200 -0.187300 1 0 1.000000 
metalwall035a
0 0.348800 -0.936800 0.489400 -0.922329 -0.058102 0.382012 0.302000 -0.328300 1 0 1.000000 
0 -0.138600 3.583900 0.000400 -0.922329 -0.058102 0.382012 0.123000 -0.353400 1 0 1.000000 
0 0.146300 -0.936800 0.000400 -0.922329 -0.058102 0.382012 0.301600 -0.353400 1 0 1.000000 
metalwall035a
0 0.348800 -0.936800 0.489400 -0.922329 -0.058102 0.382012 0.302000 -0.328300 1 0 1.000000 
0 0.147300 3.583900 0.690800 -0.922329 -0.058102 0.382012 0.123600 -0.320100 1 0 1.000000 
0 -0.138600 3.583900 0.000400 -0.922329 -0.058102 0.382012 0.123000 -0.353400 1 0 1.000000 
metalwall035a
0 -0.245300 3.583900 1.083400 -0.923877 -0.000000 0.382690 0.122800 -0.319800 1 0 1.000000 
0 -0.693900 4.431300 0.000400 -0.923877 -0.000000 0.382690 0.088500 -0.353400 1 0 1.000000 
0 -0.693900 3.583900 0.000400 -0.923877 -0.000000 0.382690 0.121900 -0.353400 1 0 1.000000 
metalwall035a
0 -0.245300 3.583900 1.083400 -0.923877 -0.000000 0.382690 0.122800 -0.319800 1 0 1.000000 
0 -0.245300 4.431300 1.083400 -0.923877 -0.000000 0.382690 0.089400 -0.318900 1 0 1.000000 
0 -0.693900 4.431300 0.000400 -0.923877 -0.000000 0.382690 0.088500 -0.353400 1 0 1.000000 
metalwall035a
0 1.326700 -0.936800 -0.488600 0.922329 -0.058102 -0.382012 0.304000 -0.168500 1 0 1.000000 
0 1.814100 3.583900 0.000400 0.922329 -0.058102 -0.382012 0.127000 -0.217500 1 0 1.000000 
0 1.529300 -0.936800 0.000400 0.922329 -0.058102 -0.382012 0.304400 -0.217500 1 0 1.000000 
metalwall035a
0 1.326700 -0.936800 -0.488600 0.922329 -0.058102 -0.382012 0.304000 -0.168500 1 0 1.000000 
0 1.528200 3.583900 -0.690000 0.922329 -0.058102 -0.382012 0.126400 -0.182800 1 0 1.000000 
0 1.814100 3.583900 0.000400 0.922329 -0.058102 -0.382012 0.127000 -0.217500 1 0 1.000000 
metalwall035a
0 0.837800 -6.934400 -1.071000 0.382690 0.000000 -0.923877 0.351000 -0.789400 1 0 1.000000 
0 1.595400 -6.225100 -0.757200 0.382690 0.000000 -0.923877 0.332100 -0.805300 1 0 1.000000 
0 1.595400 -6.934400 -0.757200 0.382690 0.000000 -0.923877 0.351000 -0.805300 1 0 1.000000 
metalwall035a
0 0.837800 -6.934400 -1.071000 0.382690 0.000000 -0.923877 0.351000 -0.789400 1 0 1.000000 
0 0.837800 -6.225100 -1.071000 0.382690 0.000000 -0.923877 0.332100 -0.789400 1 0 1.000000 
0 1.595400 -6.225100 -0.757200 0.382690 0.000000 -0.923877 0.332100 -0.805300 1 0 1.000000 
metalwall035a
0 0.837800 3.583900 1.532000 -0.382690 -0.000000 0.923877 0.125000 -0.286100 1 0 1.000000 
0 -0.245300 4.431300 1.083400 -0.382690 -0.000000 0.923877 0.089400 -0.318900 1 0 1.000000 
0 -0.245300 3.583900 1.083400 -0.382690 -0.000000 0.923877 0.122800 -0.319800 1 0 1.000000 
metalwall035a
0 0.837800 3.583900 1.532000 -0.382690 -0.000000 0.923877 0.125000 -0.286100 1 0 1.000000 
0 0.837800 4.431300 1.532000 -0.382690 -0.000000 0.923877 0.091700 -0.284800 1 0 1.000000 
0 -0.245300 4.431300 1.083400 -0.382690 -0.000000 0.923877 0.089400 -0.318900 1 0 1.000000 
metalwall035a
0 -0.693900 3.583900 0.000400 -0.923877 -0.000000 -0.382690 0.121900 -0.081600 1 0 1.000000 
0 -0.245300 4.431300 -1.082600 -0.923877 -0.000000 -0.382690 0.089400 -0.116000 1 0 1.000000 
0 -0.245300 3.583900 -1.082600 -0.923877 -0.000000 -0.382690 0.122800 -0.115200 1 0 1.000000 
metalwall035a
0 -0.693900 3.583900 0.000400 -0.923877 -0.000000 -0.382690 0.121900 -0.081600 1 0 1.000000 
0 -0.693900 4.431300 0.000400 -0.923877 -0.000000 -0.382690 0.088500 -0.081600 1 0 1.000000 
0 -0.245300 4.431300 -1.082600 -0.923877 -0.000000 -0.382690 0.089400 -0.116000 1 0 1.000000 
metalwall035a
0 0.561500 -6.225100 0.000400 -0.923877 -0.000000 -0.382690 0.332100 -0.757600 1 0 1.000000 
0 0.642400 -0.936800 -0.195000 -0.923877 -0.000000 -0.382690 0.190700 -0.773500 1 0 1.000000 
0 0.642400 -6.225100 -0.195000 -0.923877 -0.000000 -0.382690 0.332100 -0.773500 1 0 1.000000 
metalwall035a
0 0.561500 -6.225100 0.000400 -0.923877 -0.000000 -0.382690 0.332100 -0.757600 1 0 1.000000 
0 0.561500 -0.936800 0.000400 -0.923877 -0.000000 -0.382690 0.190700 -0.757600 1 0 1.000000 
0 0.642400 -0.936800 -0.195000 -0.923877 -0.000000 -0.382690 0.190700 -0.773500 1 0 1.000000 
metalwall035a
0 1.920800 3.583900 -1.082600 0.923877 0.000000 -0.382690 0.127300 -0.183000 1 0 1.000000 
0 2.369400 4.431300 0.000400 0.923877 0.000000 -0.382690 0.094800 -0.217500 1 0 1.000000 
0 2.369400 3.583900 0.000400 0.923877 0.000000 -0.382690 0.128200 -0.217500 1 0 1.000000 
metalwall035a
0 1.920800 3.583900 -1.082600 0.923877 0.000000 -0.382690 0.127300 -0.183000 1 0 1.000000 
0 1.920800 4.431300 -1.082600 0.923877 0.000000 -0.382690 0.093900 -0.183900 1 0 1.000000 
0 2.369400 4.431300 0.000400 0.923877 0.000000 -0.382690 0.094800 -0.217500 1 0 1.000000 
metalwall035a
0 -0.245300 3.583900 -1.082600 -0.382690 -0.000000 -0.923877 0.122800 -0.115200 1 0 1.000000 
0 0.837800 4.431300 -1.531200 -0.382690 -0.000000 -0.923877 0.091700 -0.150200 1 0 1.000000 
0 0.837800 3.583900 -1.531200 -0.382690 -0.000000 -0.923877 0.125000 -0.148900 1 0 1.000000 
metalwall035a
0 -0.245300 3.583900 -1.082600 -0.382690 -0.000000 -0.923877 0.122800 -0.115200 1 0 1.000000 
0 -0.245300 4.431300 -1.082600 -0.382690 -0.000000 -0.923877 0.089400 -0.116000 1 0 1.000000 
0 0.837800 4.431300 -1.531200 -0.382690 -0.000000 -0.923877 0.091700 -0.150200 1 0 1.000000 
metalwall035a
0 1.595400 -6.934400 0.758000 0.382690 0.000000 0.923877 0.351000 -0.837100 1 0 1.000000 
0 0.837800 -6.225100 1.071800 0.382690 0.000000 0.923877 0.332100 -0.853000 1 0 1.000000 
0 0.837800 -6.934400 1.071800 0.382690 0.000000 0.923877 0.351000 -0.853000 1 0 1.000000 
metalwall035a
0 1.595400 -6.934400 0.758000 0.382690 0.000000 0.923877 0.351000 -0.837100 1 0 1.000000 
0 1.595400 -6.225100 0.758000 0.382690 0.000000 0.923877 0.332100 -0.837100 1 0 1.000000 
0 0.837800 -6.225100 1.071800 0.382690 0.000000 0.923877 0.332100 -0.853000 1 0 1.000000 
metalwall035a
0 1.296900 -6.934400 -0.458800 0.923877 0.000000 -0.382690 0.351000 -0.805300 1 0 1.000000 
0 1.487100 -9.012700 0.000400 0.923877 0.000000 -0.382690 0.406600 -0.821200 1 0 1.000000 
0 1.296900 -9.012700 -0.458800 0.923877 0.000000 -0.382690 0.406600 -0.805300 1 0 1.000000 
metalwall035a
0 1.296900 -6.934400 -0.458800 0.923877 0.000000 -0.382690 0.351000 -0.805300 1 0 1.000000 
0 1.487100 -6.934400 0.000400 0.923877 0.000000 -0.382690 0.351000 -0.821200 1 0 1.000000 
0 1.487100 -9.012700 0.000400 0.923877 0.000000 -0.382690 0.406600 -0.821200 1 0 1.000000 
metalwall035a
0 0.378600 -6.934400 -0.458800 -0.382690 -0.000000 -0.923877 0.351000 -0.773500 1 0 1.000000 
0 0.837800 -9.012700 -0.649000 -0.382690 -0.000000 -0.923877 0.406600 -0.789400 1 0 1.000000 
0 0.378600 -9.012700 -0.458800 -0.382690 -0.000000 -0.923877 0.406600 -0.773500 1 0 1.000000 
metalwall035a
0 0.378600 -6.934400 -0.458800 -0.382690 -0.000000 -0.923877 0.351000 -0.773500 1 0 1.000000 
0 0.837800 -6.934400 -0.649000 -0.382690 -0.000000 -0.923877 0.351000 -0.789400 1 0 1.000000 
0 0.837800 -9.012700 -0.649000 -0.382690 -0.000000 -0.923877 0.406600 -0.789400 1 0 1.000000 
metalwall035a
0 0.837800 -6.934400 0.649800 -0.382690 -0.000000 0.923877 0.351000 -0.853000 1 0 1.000000 
0 0.378600 -9.012700 0.459600 -0.382690 -0.000000 0.923877 0.406600 -0.868900 1 0 1.000000 
0 0.837800 -9.012700 0.649800 -0.382690 -0.000000 0.923877 0.406600 -0.853000 1 0 1.000000 
metalwall035a
0 0.837800 -6.934400 0.649800 -0.382690 -0.000000 0.923877 0.351000 -0.853000 1 0 1.000000 
0 0.378600 -6.934400 0.459600 -0.382690 -0.000000 0.923877 0.351000 -0.868900 1 0 1.000000 
0 0.378600 -9.012700 0.459600 -0.382690 -0.000000 0.923877 0.406600 -0.868900 1 0 1.000000 
metalwall035a
0 1.920800 3.583900 1.083400 0.382690 0.000000 0.923877 0.127300 -0.251900 1 0 1.000000 
0 0.837800 4.431300 1.532000 0.382690 0.000000 0.923877 0.091700 -0.284800 1 0 1.000000 
0 0.837800 3.583900 1.532000 0.382690 0.000000 0.923877 0.125000 -0.286100 1 0 1.000000 
metalwall035a
0 1.920800 3.583900 1.083400 0.382690 0.000000 0.923877 0.127300 -0.251900 1 0 1.000000 
0 1.920800 4.431300 1.083400 0.382690 0.000000 0.923877 0.093900 -0.251100 1 0 1.000000 
0 0.837800 4.431300 1.532000 0.382690 0.000000 0.923877 0.091700 -0.284800 1 0 1.000000 
metalwall035a
0 2.369400 4.431300 0.000400 -0.000000 1.000000 0.000000 0.938700 -0.719600 1 0 1.000000 
0 1.669400 4.431300 0.832000 -0.000000 1.000000 0.000000 0.888100 -0.659500 1 0 1.000000 
0 1.920800 4.431300 1.083400 -0.000000 1.000000 0.000000 0.906200 -0.641300 1 0 1.000000 
metalwall035a
0 1.920800 4.431300 1.083400 -0.000000 1.000000 0.000000 0.906200 -0.641300 1 0 1.000000 
0 1.669400 4.431300 0.832000 -0.000000 1.000000 0.000000 0.888100 -0.659500 1 0 1.000000 
0 0.837800 4.431300 1.176500 -0.000000 1.000000 0.000000 0.827900 -0.634600 1 0 1.000000 
metalwall035a
0 1.920800 4.431300 1.083400 -0.000000 1.000000 0.000000 0.906200 -0.641300 1 0 1.000000 
0 0.837800 4.431300 1.176500 -0.000000 1.000000 0.000000 0.827900 -0.634600 1 0 1.000000 
0 0.837800 4.431300 1.532000 -0.000000 1.000000 0.000000 0.827900 -0.608900 1 0 1.000000 
metalwall035a
0 -0.056700 4.431300 0.894900 -0.000000 1.000000 0.000000 0.763200 -0.654900 1 0 1.000000 
0 0.837800 4.431300 1.532000 -0.000000 1.000000 0.000000 0.827900 -0.608900 1 0 1.000000 
0 0.837800 4.431300 1.176500 -0.000000 1.000000 0.000000 0.827900 -0.634600 1 0 1.000000 
metalwall035a
0 -0.056700 4.431300 0.894900 -0.000000 1.000000 0.000000 0.763200 -0.654900 1 0 1.000000 
0 -0.245300 4.431300 1.083400 -0.000000 1.000000 0.000000 0.749600 -0.641300 1 0 1.000000 
0 0.837800 4.431300 1.532000 -0.000000 1.000000 0.000000 0.827900 -0.608900 1 0 1.000000 
metalwall035a
0 -0.080000 4.431300 0.624100 -0.000000 1.000000 0.000000 0.761500 -0.674500 1 0 1.000000 
0 -0.245300 4.431300 1.083400 -0.000000 1.000000 0.000000 0.749600 -0.641300 1 0 1.000000 
0 -0.056700 4.431300 0.894900 -0.000000 1.000000 0.000000 0.763200 -0.654900 1 0 1.000000 
metalwall035a
0 -0.080000 4.431300 0.624100 -0.000000 1.000000 0.000000 0.761500 -0.674500 1 0 1.000000 
0 -0.693900 4.431300 0.000400 -0.000000 1.000000 0.000000 0.717200 -0.719600 1 0 1.000000 
0 -0.245300 4.431300 1.083400 -0.000000 1.000000 0.000000 0.749600 -0.641300 1 0 1.000000 
metalwall035a
0 -0.080000 4.431300 0.624100 -0.000000 1.000000 0.000000 0.761500 -0.674500 1 0 1.000000 
0 -0.338400 4.431300 0.000400 -0.000000 1.000000 0.000000 0.742900 -0.719600 1 0 1.000000 
0 -0.693900 4.431300 0.000400 -0.000000 1.000000 0.000000 0.717200 -0.719600 1 0 1.000000 
metalwall035a
0 -0.693900 4.431300 0.000400 -0.000000 1.000000 0.000000 0.717200 -0.719600 1 0 1.000000 
0 -0.338400 4.431300 0.000400 -0.000000 1.000000 0.000000 0.742900 -0.719600 1 0 1.000000 
0 0.006100 4.431300 -0.831200 -0.000000 1.000000 0.000000 0.767800 -0.779800 1 0 1.000000 
metalwall035a
0 -0.693900 4.431300 0.000400 -0.000000 1.000000 0.000000 0.717200 -0.719600 1 0 1.000000 
0 0.006100 4.431300 -0.831200 -0.000000 1.000000 0.000000 0.767800 -0.779800 1 0 1.000000 
0 -0.245300 4.431300 -1.082600 -0.000000 1.000000 0.000000 0.749600 -0.798000 1 0 1.000000 
metalwall035a
0 -0.245300 4.431300 -1.082600 -0.000000 1.000000 0.000000 0.749600 -0.798000 1 0 1.000000 
0 0.006100 4.431300 -0.831200 -0.000000 1.000000 0.000000 0.767800 -0.779800 1 0 1.000000 
0 0.837800 4.431300 -1.175700 -0.000000 1.000000 0.000000 0.827900 -0.804700 1 0 1.000000 
metalwall035a
0 -0.245300 4.431300 -1.082600 -0.000000 1.000000 0.000000 0.749600 -0.798000 1 0 1.000000 
0 0.837800 4.431300 -1.175700 -0.000000 1.000000 0.000000 0.827900 -0.804700 1 0 1.000000 
0 0.837800 4.431300 -1.531200 -0.000000 1.000000 0.000000 0.827900 -0.830400 1 0 1.000000 
metalwall035a
0 0.837800 4.431300 -1.531200 -0.000000 1.000000 0.000000 0.827900 -0.830400 1 0 1.000000 
0 0.837800 4.431300 -1.175700 -0.000000 1.000000 0.000000 0.827900 -0.804700 1 0 1.000000 
0 1.669400 4.431300 -0.831200 -0.000000 1.000000 0.000000 0.888100 -0.779800 1 0 1.000000 
metalwall035a
0 0.837800 4.431300 -1.531200 -0.000000 1.000000 0.000000 0.827900 -0.830400 1 0 1.000000 
0 1.669400 4.431300 -0.831200 -0.000000 1.000000 0.000000 0.888100 -0.779800 1 0 1.000000 
0 1.920800 4.431300 -1.082600 -0.000000 1.000000 0.000000 0.906200 -0.797900 1 0 1.000000 
metalwall035a
0 1.920800 4.431300 -1.082600 -0.000000 1.000000 0.000000 0.906200 -0.797900 1 0 1.000000 
0 1.669400 4.431300 -0.831200 -0.000000 1.000000 0.000000 0.888100 -0.779800 1 0 1.000000 
0 2.013900 4.431300 0.000400 -0.000000 1.000000 0.000000 0.913000 -0.719600 1 0 1.000000 
metalwall035a
0 1.920800 4.431300 -1.082600 -0.000000 1.000000 0.000000 0.906200 -0.797900 1 0 1.000000 
0 2.013900 4.431300 0.000400 -0.000000 1.000000 0.000000 0.913000 -0.719600 1 0 1.000000 
0 2.369400 4.431300 0.000400 -0.000000 1.000000 0.000000 0.938700 -0.719600 1 0 1.000000 
metalwall035a
0 2.369400 4.431300 0.000400 -0.000000 1.000000 0.000000 0.938700 -0.719600 1 0 1.000000 
0 2.013900 4.431300 0.000400 -0.000000 1.000000 0.000000 0.913000 -0.719600 1 0 1.000000 
0 1.669400 4.431300 0.832000 -0.000000 1.000000 0.000000 0.888100 -0.659500 1 0 1.000000 
metalwall035a
0 -0.056700 4.431300 0.894900 -0.000000 1.000000 0.000000 0.763200 -0.654900 1 0 1.000000 
0 0.837800 4.431300 1.176500 -0.000000 1.000000 0.000000 0.827900 -0.634600 1 0 1.000000 
0 0.214000 4.431300 0.918200 -0.000000 1.000000 0.000000 0.782800 -0.653300 1 0 1.000000 
metalwall035a
0 0.837800 -0.936800 0.276700 0.000000 -1.000000 0.000000 0.833000 -0.704700 1 0 1.000000 
0 0.348800 -0.936800 0.489400 0.000000 -1.000000 0.000000 0.797700 -0.689300 1 0 1.000000 
0 0.642400 -0.936800 0.195800 0.000000 -1.000000 0.000000 0.818900 -0.710600 1 0 1.000000 
metalwall035a
0 0.642400 -0.936800 0.195800 0.000000 -1.000000 0.000000 0.818900 -0.710600 1 0 1.000000 
0 0.348800 -0.936800 0.489400 0.000000 -1.000000 0.000000 0.797700 -0.689300 1 0 1.000000 
0 0.146300 -0.936800 0.000400 0.000000 -1.000000 0.000000 0.783000 -0.724700 1 0 1.000000 
metalwall035a
0 0.642400 -0.936800 0.195800 0.000000 -1.000000 0.000000 0.818900 -0.710600 1 0 1.000000 
0 0.146300 -0.936800 0.000400 0.000000 -1.000000 0.000000 0.783000 -0.724700 1 0 1.000000 
0 0.561500 -0.936800 0.000400 0.000000 -1.000000 0.000000 0.813000 -0.724700 1 0 1.000000 
metalwall035a
0 0.561500 -0.936800 0.000400 0.000000 -1.000000 0.000000 0.813000 -0.724700 1 0 1.000000 
0 0.146300 -0.936800 0.000400 0.000000 -1.000000 0.000000 0.783000 -0.724700 1 0 1.000000 
0 0.348800 -0.936800 -0.488600 0.000000 -1.000000 0.000000 0.797700 -0.760100 1 0 1.000000 
metalwall035a
0 0.561500 -0.936800 0.000400 0.000000 -1.000000 0.000000 0.813000 -0.724700 1 0 1.000000 
0 0.348800 -0.936800 -0.488600 0.000000 -1.000000 0.000000 0.797700 -0.760100 1 0 1.000000 
0 0.642400 -0.936800 -0.195000 0.000000 -1.000000 0.000000 0.818900 -0.738800 1 0 1.000000 
metalwall035a
0 0.642400 -0.936800 -0.195000 0.000000 -1.000000 0.000000 0.818900 -0.738800 1 0 1.000000 
0 0.348800 -0.936800 -0.488600 0.000000 -1.000000 0.000000 0.797700 -0.760100 1 0 1.000000 
0 0.837800 -0.936800 -0.691100 0.000000 -1.000000 0.000000 0.833000 -0.774700 1 0 1.000000 
metalwall035a
0 0.642400 -0.936800 -0.195000 0.000000 -1.000000 0.000000 0.818900 -0.738800 1 0 1.000000 
0 0.837800 -0.936800 -0.691100 0.000000 -1.000000 0.000000 0.833000 -0.774700 1 0 1.000000 
0 0.837800 -0.936800 -0.275900 0.000000 -1.000000 0.000000 0.833000 -0.744700 1 0 1.000000 
metalwall035a
0 0.837800 -0.936800 -0.275900 0.000000 -1.000000 0.000000 0.833000 -0.744700 1 0 1.000000 
0 0.837800 -0.936800 -0.691100 0.000000 -1.000000 0.000000 0.833000 -0.774700 1 0 1.000000 
0 1.326700 -0.936800 -0.488600 0.000000 -1.000000 0.000000 0.868400 -0.760100 1 0 1.000000 
metalwall035a
0 0.837800 -0.936800 -0.275900 0.000000 -1.000000 0.000000 0.833000 -0.744700 1 0 1.000000 
0 1.326700 -0.936800 -0.488600 0.000000 -1.000000 0.000000 0.868400 -0.760100 1 0 1.000000 
0 1.033100 -0.936800 -0.195000 0.000000 -1.000000 0.000000 0.847100 -0.738800 1 0 1.000000 
metalwall035a
0 1.033100 -0.936800 -0.195000 0.000000 -1.000000 0.000000 0.847100 -0.738800 1 0 1.000000 
0 1.326700 -0.936800 -0.488600 0.000000 -1.000000 0.000000 0.868400 -0.760100 1 0 1.000000 
0 1.529300 -0.936800 0.000400 0.000000 -1.000000 0.000000 0.883000 -0.724700 1 0 1.000000 
metalwall035a
0 1.033100 -0.936800 -0.195000 0.000000 -1.000000 0.000000 0.847100 -0.738800 1 0 1.000000 
0 1.529300 -0.936800 0.000400 0.000000 -1.000000 0.000000 0.883000 -0.724700 1 0 1.000000 
0 1.326700 -0.936800 0.489400 0.000000 -1.000000 0.000000 0.868400 -0.689300 1 0 1.000000 
metalwall035a
0 1.033100 -0.936800 -0.195000 0.000000 -1.000000 0.000000 0.847100 -0.738800 1 0 1.000000 
0 1.326700 -0.936800 0.489400 0.000000 -1.000000 0.000000 0.868400 -0.689300 1 0 1.000000 
0 1.033100 -0.936800 0.195800 0.000000 -1.000000 0.000000 0.847100 -0.710600 1 0 1.000000 
metalwall035a
0 1.033100 -0.936800 0.195800 0.000000 -1.000000 0.000000 0.847100 -0.710600 1 0 1.000000 
0 1.326700 -0.936800 0.489400 0.000000 -1.000000 0.000000 0.868400 -0.689300 1 0 1.000000 
0 0.837800 -0.936800 0.691900 0.000000 -1.000000 0.000000 0.833000 -0.674700 1 0 1.000000 
metalwall035a
0 1.033100 -0.936800 0.195800 0.000000 -1.000000 0.000000 0.847100 -0.710600 1 0 1.000000 
0 0.837800 -0.936800 0.691900 0.000000 -1.000000 0.000000 0.833000 -0.674700 1 0 1.000000 
0 0.837800 -0.936800 0.276700 0.000000 -1.000000 0.000000 0.833000 -0.704700 1 0 1.000000 
metalwall035a
0 0.837800 -0.936800 0.276700 0.000000 -1.000000 0.000000 0.833000 -0.704700 1 0 1.000000 
0 0.837800 -0.936800 0.691900 0.000000 -1.000000 0.000000 0.833000 -0.674700 1 0 1.000000 
0 0.348800 -0.936800 0.489400 0.000000 -1.000000 0.000000 0.797700 -0.689300 1 0 1.000000 
metalwall035a
0 0.214000 4.431300 0.918200 -0.071502 -0.550115 0.832022 0.782800 -0.653300 1 0 1.000000 
0 -2.369401 8.229900 3.207500 -0.071502 -0.550115 0.832022 0.592400 -0.484100 1 0 1.000000 
0 -0.056700 4.431300 0.894900 -0.071502 -0.550115 0.832022 0.763200 -0.654900 1 0 1.000000 
metalwall035a
0 0.147300 3.583900 0.690800 0.000000 -1.000000 0.000000 0.778800 -0.670500 1 0 1.000000 
0 -0.693900 3.583900 0.000400 0.000000 -1.000000 0.000000 0.718000 -0.720400 1 0 1.000000 
0 -0.138600 3.583900 0.000400 0.000000 -1.000000 0.000000 0.758100 -0.720400 1 0 1.000000 
metalwall035a
0 0.147300 3.583900 0.690800 0.000000 -1.000000 0.000000 0.778800 -0.670500 1 0 1.000000 
0 -0.245300 3.583900 1.083400 0.000000 -1.000000 0.000000 0.750400 -0.642100 1 0 1.000000 
0 -0.693900 3.583900 0.000400 0.000000 -1.000000 0.000000 0.718000 -0.720400 1 0 1.000000 
metalwall035a
0 0.837800 3.583900 0.976800 0.000000 -1.000000 0.000000 0.828700 -0.649800 1 0 1.000000 
0 -0.245300 3.583900 1.083400 0.000000 -1.000000 0.000000 0.750400 -0.642100 1 0 1.000000 
0 0.147300 3.583900 0.690800 0.000000 -1.000000 0.000000 0.778800 -0.670500 1 0 1.000000 
metalwall035a
0 0.837800 3.583900 0.976800 0.000000 -1.000000 0.000000 0.828700 -0.649800 1 0 1.000000 
0 0.837800 3.583900 1.532000 0.000000 -1.000000 0.000000 0.828700 -0.609700 1 0 1.000000 
0 -0.245300 3.583900 1.083400 0.000000 -1.000000 0.000000 0.750400 -0.642100 1 0 1.000000 
metalwall035a
0 1.528200 3.583900 0.690800 0.000000 -1.000000 0.000000 0.878700 -0.670500 1 0 1.000000 
0 0.837800 3.583900 1.532000 0.000000 -1.000000 0.000000 0.828700 -0.609700 1 0 1.000000 
0 0.837800 3.583900 0.976800 0.000000 -1.000000 0.000000 0.828700 -0.649800 1 0 1.000000 
metalwall035a
0 1.528200 3.583900 0.690800 0.000000 -1.000000 0.000000 0.878700 -0.670500 1 0 1.000000 
0 1.920800 3.583900 1.083400 0.000000 -1.000000 0.000000 0.907000 -0.642100 1 0 1.000000 
0 0.837800 3.583900 1.532000 0.000000 -1.000000 0.000000 0.828700 -0.609700 1 0 1.000000 
metalwall035a
0 1.814100 3.583900 0.000400 0.000000 -1.000000 0.000000 0.899300 -0.720400 1 0 1.000000 
0 1.920800 3.583900 1.083400 0.000000 -1.000000 0.000000 0.907000 -0.642100 1 0 1.000000 
0 1.528200 3.583900 0.690800 0.000000 -1.000000 0.000000 0.878700 -0.670500 1 0 1.000000 
metalwall035a
0 1.814100 3.583900 0.000400 0.000000 -1.000000 0.000000 0.899300 -0.720400 1 0 1.000000 
0 2.369400 3.583900 0.000400 0.000000 -1.000000 0.000000 0.939500 -0.720400 1 0 1.000000 
0 1.920800 3.583900 1.083400 0.000000 -1.000000 0.000000 0.907000 -0.642100 1 0 1.000000 
metalwall035a
0 1.528200 3.583900 -0.690000 0.000000 -1.000000 0.000000 0.878700 -0.770300 1 0 1.000000 
0 2.369400 3.583900 0.000400 0.000000 -1.000000 0.000000 0.939500 -0.720400 1 0 1.000000 
0 1.814100 3.583900 0.000400 0.000000 -1.000000 0.000000 0.899300 -0.720400 1 0 1.000000 
metalwall035a
0 1.528200 3.583900 -0.690000 0.000000 -1.000000 0.000000 0.878700 -0.770300 1 0 1.000000 
0 1.920800 3.583900 -1.082600 0.000000 -1.000000 0.000000 0.907000 -0.798700 1 0 1.000000 
0 2.369400 3.583900 0.000400 0.000000 -1.000000 0.000000 0.939500 -0.720400 1 0 1.000000 
metalwall035a
0 0.837800 3.583900 -0.976000 0.000000 -1.000000 0.000000 0.828700 -0.791000 1 0 1.000000 
0 1.920800 3.583900 -1.082600 0.000000 -1.000000 0.000000 0.907000 -0.798700 1 0 1.000000 
0 1.528200 3.583900 -0.690000 0.000000 -1.000000 0.000000 0.878700 -0.770300 1 0 1.000000 
metalwall035a
0 0.837800 3.583900 -0.976000 0.000000 -1.000000 0.000000 0.828700 -0.791000 1 0 1.000000 
0 0.837800 3.583900 -1.531200 0.000000 -1.000000 0.000000 0.828700 -0.831200 1 0 1.000000 
0 1.920800 3.583900 -1.082600 0.000000 -1.000000 0.000000 0.907000 -0.798700 1 0 1.000000 
metalwall035a
0 0.147300 3.583900 -0.690000 0.000000 -1.000000 0.000000 0.778800 -0.770400 1 0 1.000000 
0 0.837800 3.583900 -1.531200 0.000000 -1.000000 0.000000 0.828700 -0.831200 1 0 1.000000 
0 0.837800 3.583900 -0.976000 0.000000 -1.000000 0.000000 0.828700 -0.791000 1 0 1.000000 
metalwall035a
0 0.147300 3.583900 -0.690000 0.000000 -1.000000 0.000000 0.778800 -0.770400 1 0 1.000000 
0 -0.245300 3.583900 -1.082600 0.000000 -1.000000 0.000000 0.750400 -0.798800 1 0 1.000000 
0 0.837800 3.583900 -1.531200 0.000000 -1.000000 0.000000 0.828700 -0.831200 1 0 1.000000 
metalwall035a
0 0.413100 6.124100 0.625300 -0.000000 1.000000 0.000000 0.795600 -0.672800 1 0 1.000000 
0 0.036900 6.124100 0.000400 -0.000000 1.000000 0.000000 0.768400 -0.718000 1 0 1.000000 
0 0.212900 6.124100 0.425100 -0.000000 1.000000 0.000000 0.781100 -0.687300 1 0 1.000000 
metalwall035a
0 0.413100 6.124100 0.625300 -0.000000 1.000000 0.000000 0.795600 -0.672800 1 0 1.000000 
0 0.271500 6.124100 -0.565900 -0.000000 1.000000 0.000000 0.785400 -0.759000 1 0 1.000000 
0 0.036900 6.124100 0.000400 -0.000000 1.000000 0.000000 0.768400 -0.718000 1 0 1.000000 
metalwall035a
0 0.413100 6.124100 0.625300 -0.000000 1.000000 0.000000 0.795600 -0.672800 1 0 1.000000 
0 0.837800 6.124100 -0.800400 -0.000000 1.000000 0.000000 0.826300 -0.775900 1 0 1.000000 
0 0.271500 6.124100 -0.565900 -0.000000 1.000000 0.000000 0.785400 -0.759000 1 0 1.000000 
metalwall035a
0 0.413100 6.124100 0.625300 -0.000000 1.000000 0.000000 0.795600 -0.672800 1 0 1.000000 
0 1.404000 6.124100 -0.565900 -0.000000 1.000000 0.000000 0.867300 -0.759000 1 0 1.000000 
0 0.837800 6.124100 -0.800400 -0.000000 1.000000 0.000000 0.826300 -0.775900 1 0 1.000000 
metalwall035a
0 0.413100 6.124100 0.625300 -0.000000 1.000000 0.000000 0.795600 -0.672800 1 0 1.000000 
0 1.638600 6.124100 0.000400 -0.000000 1.000000 0.000000 0.884200 -0.718000 1 0 1.000000 
0 1.404000 6.124100 -0.565900 -0.000000 1.000000 0.000000 0.867300 -0.759000 1 0 1.000000 
metalwall035a
0 0.413100 6.124100 0.625300 -0.000000 1.000000 0.000000 0.795600 -0.672800 1 0 1.000000 
0 1.404000 6.124100 0.566700 -0.000000 1.000000 0.000000 0.867300 -0.677100 1 0 1.000000 
0 1.638600 6.124100 0.000400 -0.000000 1.000000 0.000000 0.884200 -0.718000 1 0 1.000000 
metalwall035a
0 0.413100 6.124100 0.625300 -0.000000 1.000000 0.000000 0.795600 -0.672800 1 0 1.000000 
0 0.837800 6.124100 0.801200 -0.000000 1.000000 0.000000 0.826300 -0.660100 1 0 1.000000 
0 1.404000 6.124100 0.566700 -0.000000 1.000000 0.000000 0.867300 -0.677100 1 0 1.000000 
metalwall035a
0 0.212900 6.124100 0.425100 0.441031 0.781654 -0.441031 0.781100 -0.687300 1 0 1.000000 
0 -2.246701 9.012700 3.084800 0.441031 0.781654 -0.441031 0.600500 -0.492300 1 0 1.000000 
0 0.413100 6.124100 0.625300 0.441031 0.781654 -0.441031 0.795600 -0.672800 1 0 1.000000 
metalwall035a
0 1.296900 -9.012700 0.459600 0.000000 -1.000000 0.000000 0.873900 -0.699100 1 0 1.000000 
0 1.296900 -9.012700 -0.458800 0.000000 -1.000000 0.000000 0.873900 -0.765500 1 0 1.000000 
0 1.487100 -9.012700 0.000400 0.000000 -1.000000 0.000000 0.887600 -0.732300 1 0 1.000000 
metalwall035a
0 1.296900 -9.012700 0.459600 0.000000 -1.000000 0.000000 0.873900 -0.699100 1 0 1.000000 
0 0.837800 -9.012700 -0.649000 0.000000 -1.000000 0.000000 0.840700 -0.779300 1 0 1.000000 
0 1.296900 -9.012700 -0.458800 0.000000 -1.000000 0.000000 0.873900 -0.765500 1 0 1.000000 
metalwall035a
0 1.296900 -9.012700 0.459600 0.000000 -1.000000 0.000000 0.873900 -0.699100 1 0 1.000000 
0 0.378600 -9.012700 -0.458800 0.000000 -1.000000 0.000000 0.807500 -0.765600 1 0 1.000000 
0 0.837800 -9.012700 -0.649000 0.000000 -1.000000 0.000000 0.840700 -0.779300 1 0 1.000000 
metalwall035a
0 1.296900 -9.012700 0.459600 0.000000 -1.000000 0.000000 0.873900 -0.699100 1 0 1.000000 
0 0.188400 -9.012700 0.000400 0.000000 -1.000000 0.000000 0.793700 -0.732400 1 0 1.000000 
0 0.378600 -9.012700 -0.458800 0.000000 -1.000000 0.000000 0.807500 -0.765600 1 0 1.000000 
metalwall035a
0 1.296900 -9.012700 0.459600 0.000000 -1.000000 0.000000 0.873900 -0.699100 1 0 1.000000 
0 0.378600 -9.012700 0.459600 0.000000 -1.000000 0.000000 0.807500 -0.699100 1 0 1.000000 
0 0.188400 -9.012700 0.000400 0.000000 -1.000000 0.000000 0.793700 -0.732400 1 0 1.000000 
metalwall035a
0 1.296900 -9.012700 0.459600 0.000000 -1.000000 0.000000 0.873900 -0.699100 1 0 1.000000 
0 0.837800 -9.012700 0.649800 0.000000 -1.000000 0.000000 0.840700 -0.685400 1 0 1.000000 
0 0.378600 -9.012700 0.459600 0.000000 -1.000000 0.000000 0.807500 -0.699100 1 0 1.000000 
metalwall035a
0 0.816400 -0.577800 0.611600 0.206111 -0.842547 -0.497627 0.831100 -0.680200 1 0 1.000000 
0 0.296900 -2.478300 3.614200 0.206111 -0.842547 -0.497627 0.795400 -0.464800 1 0 1.000000 
0 0.384200 -0.577800 0.432600 0.209098 -0.837592 -0.504695 0.799900 -0.693100 1 0 1.000000 
metalwall035a
0 -0.233700 -6.225100 0.000400 -0.000000 1.000000 0.000000 0.760600 -0.729700 1 0 1.000000 
0 0.642400 -6.225100 -0.195000 -0.000000 1.000000 0.000000 0.823900 -0.743800 1 0 1.000000 
0 0.080100 -6.225100 -0.757200 -0.000000 1.000000 0.000000 0.783200 -0.784500 1 0 1.000000 
metalwall035a
0 0.080100 -6.225100 -0.757200 -0.000000 1.000000 0.000000 0.783200 -0.784500 1 0 1.000000 
0 0.642400 -6.225100 -0.195000 -0.000000 1.000000 0.000000 0.823900 -0.743800 1 0 1.000000 
0 0.837800 -6.225100 -0.275900 -0.000000 1.000000 0.000000 0.838000 -0.749700 1 0 1.000000 
metalwall035a
0 0.080100 -6.225100 -0.757200 -0.000000 1.000000 0.000000 0.783200 -0.784500 1 0 1.000000 
0 0.837800 -6.225100 -0.275900 -0.000000 1.000000 0.000000 0.838000 -0.749700 1 0 1.000000 
0 0.837800 -6.225100 -1.071000 -0.000000 1.000000 0.000000 0.838000 -0.807200 1 0 1.000000 
metalwall035a
0 0.837800 -6.225100 -1.071000 -0.000000 1.000000 0.000000 0.838000 -0.807200 1 0 1.000000 
0 0.837800 -6.225100 -0.275900 -0.000000 1.000000 0.000000 0.838000 -0.749700 1 0 1.000000 
0 1.033100 -6.225100 -0.195000 -0.000000 1.000000 0.000000 0.852200 -0.743800 1 0 1.000000 
metalwall035a
0 0.837800 -6.225100 -1.071000 -0.000000 1.000000 0.000000 0.838000 -0.807200 1 0 1.000000 
0 1.033100 -6.225100 -0.195000 -0.000000 1.000000 0.000000 0.852200 -0.743800 1 0 1.000000 
0 1.595400 -6.225100 -0.757200 -0.000000 1.000000 0.000000 0.892800 -0.784500 1 0 1.000000 
metalwall035a
0 1.595400 -6.225100 -0.757200 -0.000000 1.000000 0.000000 0.892800 -0.784500 1 0 1.000000 
0 1.033100 -6.225100 -0.195000 -0.000000 1.000000 0.000000 0.852200 -0.743800 1 0 1.000000 
0 1.114000 -6.225100 0.000400 -0.000000 1.000000 0.000000 0.858000 -0.729700 1 0 1.000000 
metalwall035a
0 1.595400 -6.225100 -0.757200 -0.000000 1.000000 0.000000 0.892800 -0.784500 1 0 1.000000 
0 1.114000 -6.225100 0.000400 -0.000000 1.000000 0.000000 0.858000 -0.729700 1 0 1.000000 
0 1.909200 -6.225100 0.000400 -0.000000 1.000000 0.000000 0.915500 -0.729700 1 0 1.000000 
metalwall035a
0 1.909200 -6.225100 0.000400 -0.000000 1.000000 0.000000 0.915500 -0.729700 1 0 1.000000 
0 1.114000 -6.225100 0.000400 -0.000000 1.000000 0.000000 0.858000 -0.729700 1 0 1.000000 
0 1.033100 -6.225100 0.195800 -0.000000 1.000000 0.000000 0.852200 -0.715600 1 0 1.000000 
metalwall035a
0 1.909200 -6.225100 0.000400 -0.000000 1.000000 0.000000 0.915500 -0.729700 1 0 1.000000 
0 1.033100 -6.225100 0.195800 -0.000000 1.000000 0.000000 0.852200 -0.715600 1 0 1.000000 
0 1.595400 -6.225100 0.758000 -0.000000 1.000000 0.000000 0.892800 -0.674900 1 0 1.000000 
metalwall035a
0 1.595400 -6.225100 0.758000 -0.000000 1.000000 0.000000 0.892800 -0.674900 1 0 1.000000 
0 1.033100 -6.225100 0.195800 -0.000000 1.000000 0.000000 0.852200 -0.715600 1 0 1.000000 
0 0.837800 -6.225100 0.276700 -0.000000 1.000000 0.000000 0.838000 -0.709700 1 0 1.000000 
metalwall035a
0 1.595400 -6.225100 0.758000 -0.000000 1.000000 0.000000 0.892800 -0.674900 1 0 1.000000 
0 0.837800 -6.225100 0.276700 -0.000000 1.000000 0.000000 0.838000 -0.709700 1 0 1.000000 
0 0.837800 -6.225100 1.071800 -0.000000 1.000000 0.000000 0.838000 -0.652200 1 0 1.000000 
metalwall035a
0 0.837800 -6.225100 1.071800 -0.000000 1.000000 0.000000 0.838000 -0.652200 1 0 1.000000 
0 0.837800 -6.225100 0.276700 -0.000000 1.000000 0.000000 0.838000 -0.709700 1 0 1.000000 
0 0.642400 -6.225100 0.195800 -0.000000 1.000000 0.000000 0.823900 -0.715600 1 0 1.000000 
metalwall035a
0 0.837800 -6.225100 1.071800 -0.000000 1.000000 0.000000 0.838000 -0.652200 1 0 1.000000 
0 0.642400 -6.225100 0.195800 -0.000000 1.000000 0.000000 0.823900 -0.715600 1 0 1.000000 
0 0.080100 -6.225100 0.758000 -0.000000 1.000000 0.000000 0.783200 -0.674900 1 0 1.000000 
metalwall035a
0 0.080100 -6.225100 0.758000 -0.000000 1.000000 0.000000 0.783200 -0.674900 1 0 1.000000 
0 0.642400 -6.225100 0.195800 -0.000000 1.000000 0.000000 0.823900 -0.715600 1 0 1.000000 
0 0.561500 -6.225100 0.000400 -0.000000 1.000000 0.000000 0.818100 -0.729700 1 0 1.000000 
metalwall035a
0 0.080100 -6.225100 0.758000 -0.000000 1.000000 0.000000 0.783200 -0.674900 1 0 1.000000 
0 0.561500 -6.225100 0.000400 -0.000000 1.000000 0.000000 0.818100 -0.729700 1 0 1.000000 
0 -0.233700 -6.225100 0.000400 -0.000000 1.000000 0.000000 0.760600 -0.729700 1 0 1.000000 
metalwall035a
0 -0.233700 -6.225100 0.000400 -0.000000 1.000000 0.000000 0.760600 -0.729700 1 0 1.000000 
0 0.561500 -6.225100 0.000400 -0.000000 1.000000 0.000000 0.818100 -0.729700 1 0 1.000000 
0 0.642400 -6.225100 -0.195000 -0.000000 1.000000 0.000000 0.823900 -0.743800 1 0 1.000000 
metalwall035a
0 0.816400 -0.577800 -0.610800 -0.206111 -0.842547 0.497628 0.831100 -0.768600 1 0 1.000000 
0 1.335800 -2.478300 -3.613400 -0.206111 -0.842547 0.497628 0.870500 -0.987500 1 0 1.000000 
0 1.248500 -0.577800 -0.431800 -0.209098 -0.837592 0.504695 0.862400 -0.755600 1 0 1.000000 
metalwall035a
0 0.837800 -6.934400 0.649800 0.000000 -1.000000 0.000000 0.838700 -0.683400 1 0 1.000000 
0 0.080100 -6.934400 0.758000 0.000000 -1.000000 0.000000 0.783900 -0.675600 1 0 1.000000 
0 0.378600 -6.934400 0.459600 0.000000 -1.000000 0.000000 0.805500 -0.697200 1 0 1.000000 
metalwall035a
0 0.378600 -6.934400 0.459600 0.000000 -1.000000 0.000000 0.805500 -0.697200 1 0 1.000000 
0 0.080100 -6.934400 0.758000 0.000000 -1.000000 0.000000 0.783900 -0.675600 1 0 1.000000 
0 -0.233700 -6.934400 0.000400 0.000000 -1.000000 0.000000 0.761200 -0.730400 1 0 1.000000 
metalwall035a
0 0.378600 -6.934400 0.459600 0.000000 -1.000000 0.000000 0.805500 -0.697200 1 0 1.000000 
0 -0.233700 -6.934400 0.000400 0.000000 -1.000000 0.000000 0.761200 -0.730400 1 0 1.000000 
0 0.188400 -6.934400 0.000400 0.000000 -1.000000 0.000000 0.791700 -0.730400 1 0 1.000000 
metalwall035a
0 0.188400 -6.934400 0.000400 0.000000 -1.000000 0.000000 0.791700 -0.730400 1 0 1.000000 
0 -0.233700 -6.934400 0.000400 0.000000 -1.000000 0.000000 0.761200 -0.730400 1 0 1.000000 
0 0.080100 -6.934400 -0.757200 0.000000 -1.000000 0.000000 0.783900 -0.785200 1 0 1.000000 
metalwall035a
0 0.188400 -6.934400 0.000400 0.000000 -1.000000 0.000000 0.791700 -0.730400 1 0 1.000000 
0 0.080100 -6.934400 -0.757200 0.000000 -1.000000 0.000000 0.783900 -0.785200 1 0 1.000000 
0 0.378600 -6.934400 -0.458800 0.000000 -1.000000 0.000000 0.805500 -0.763600 1 0 1.000000 
metalwall035a
0 0.378600 -6.934400 -0.458800 0.000000 -1.000000 0.000000 0.805500 -0.763600 1 0 1.000000 
0 0.080100 -6.934400 -0.757200 0.000000 -1.000000 0.000000 0.783900 -0.785200 1 0 1.000000 
0 0.837800 -6.934400 -1.071000 0.000000 -1.000000 0.000000 0.838700 -0.807900 1 0 1.000000 
metalwall035a
0 0.378600 -6.934400 -0.458800 0.000000 -1.000000 0.000000 0.805500 -0.763600 1 0 1.000000 
0 0.837800 -6.934400 -1.071000 0.000000 -1.000000 0.000000 0.838700 -0.807900 1 0 1.000000 
0 0.837800 -6.934400 -0.649000 0.000000 -1.000000 0.000000 0.838700 -0.777300 1 0 1.000000 
metalwall035a
0 0.837800 -6.934400 -0.649000 0.000000 -1.000000 0.000000 0.838700 -0.777300 1 0 1.000000 
0 0.837800 -6.934400 -1.071000 0.000000 -1.000000 0.000000 0.838700 -0.807900 1 0 1.000000 
0 1.595400 -6.934400 -0.757200 0.000000 -1.000000 0.000000 0.893500 -0.785200 1 0 1.000000 
metalwall035a
0 0.837800 -6.934400 -0.649000 0.000000 -1.000000 0.000000 0.838700 -0.777300 1 0 1.000000 
0 1.595400 -6.934400 -0.757200 0.000000 -1.000000 0.000000 0.893500 -0.785200 1 0 1.000000 
0 1.296900 -6.934400 -0.458800 0.000000 -1.000000 0.000000 0.871900 -0.763600 1 0 1.000000 
metalwall035a
0 1.296900 -6.934400 -0.458800 0.000000 -1.000000 0.000000 0.871900 -0.763600 1 0 1.000000 
0 1.595400 -6.934400 -0.757200 0.000000 -1.000000 0.000000 0.893500 -0.785200 1 0 1.000000 
0 1.909200 -6.934400 0.000400 0.000000 -1.000000 0.000000 0.916200 -0.730400 1 0 1.000000 
metalwall035a
0 1.296900 -6.934400 -0.458800 0.000000 -1.000000 0.000000 0.871900 -0.763600 1 0 1.000000 
0 1.909200 -6.934400 0.000400 0.000000 -1.000000 0.000000 0.916200 -0.730400 1 0 1.000000 
0 1.487100 -6.934400 0.000400 0.000000 -1.000000 0.000000 0.885700 -0.730400 1 0 1.000000 
metalwall035a
0 1.487100 -6.934400 0.000400 0.000000 -1.000000 0.000000 0.885700 -0.730400 1 0 1.000000 
0 1.909200 -6.934400 0.000400 0.000000 -1.000000 0.000000 0.916200 -0.730400 1 0 1.000000 
0 1.595400 -6.934400 0.758000 0.000000 -1.000000 0.000000 0.893500 -0.675600 1 0 1.000000 
metalwall035a
0 1.487100 -6.934400 0.000400 0.000000 -1.000000 0.000000 0.885700 -0.730400 1 0 1.000000 
0 1.595400 -6.934400 0.758000 0.000000 -1.000000 0.000000 0.893500 -0.675600 1 0 1.000000 
0 1.296900 -6.934400 0.459600 0.000000 -1.000000 0.000000 0.871900 -0.697200 1 0 1.000000 
metalwall035a
0 1.296900 -6.934400 0.459600 0.000000 -1.000000 0.000000 0.871900 -0.697200 1 0 1.000000 
0 1.595400 -6.934400 0.758000 0.000000 -1.000000 0.000000 0.893500 -0.675600 1 0 1.000000 
0 0.837800 -6.934400 1.071800 0.000000 -1.000000 0.000000 0.838700 -0.652900 1 0 1.000000 
metalwall035a
0 1.296900 -6.934400 0.459600 0.000000 -1.000000 0.000000 0.871900 -0.697200 1 0 1.000000 
0 0.837800 -6.934400 1.071800 0.000000 -1.000000 0.000000 0.838700 -0.652900 1 0 1.000000 
0 0.837800 -6.934400 0.649800 0.000000 -1.000000 0.000000 0.838700 -0.683400 1 0 1.000000 
metalwall035a
0 0.837800 -6.934400 0.649800 0.000000 -1.000000 0.000000 0.838700 -0.683400 1 0 1.000000 
0 0.837800 -6.934400 1.071800 0.000000 -1.000000 0.000000 0.838700 -0.652900 1 0 1.000000 
0 0.080100 -6.934400 0.758000 0.000000 -1.000000 0.000000 0.783900 -0.675600 1 0 1.000000 
metalwall035a
0 1.248500 0.733000 -0.431800 0.271997 0.703493 -0.656593 0.861100 -0.754400 1 0 1.000000 
0 1.431800 -2.211200 -3.510000 0.271997 0.703493 -0.656593 0.877200 -0.979800 1 0 1.000000 
0 0.816400 0.733000 -0.610800 0.269305 0.710513 -0.650112 0.829900 -0.767300 1 0 1.000000 
metalwall035a
0 0.205200 0.733000 0.000400 -0.866379 -0.000000 0.499388 0.540700 -0.215800 1 0 1.000000 
0 -0.573500 -2.211200 -1.350300 -0.866379 -0.000000 0.499388 0.377300 -0.289000 1 0 1.000000 
0 0.205200 -0.577800 0.000400 -0.866379 -0.000000 0.499388 0.467900 -0.215800 1 0 1.000000 
metalwall035a
0 0.384200 0.733000 0.432600 -0.271997 0.703493 0.656593 0.798600 -0.691900 1 0 1.000000 
0 0.200900 -2.211200 3.510800 -0.271997 0.703493 0.656593 0.788200 -0.472000 1 0 1.000000 
0 0.816400 0.733000 0.611600 -0.269305 0.710513 0.650112 0.829900 -0.678900 1 0 1.000000 
metalwall035a
0 1.248500 -0.577800 0.432600 -0.786273 -0.000000 0.617879 0.440800 -0.458800 1 0 1.000000 
0 2.166400 -2.478300 1.600700 -0.786273 -0.000000 0.617879 0.559300 -0.373700 1 0 1.000000 
0 1.248500 0.733000 0.432600 -0.786273 -0.000000 0.617879 0.354800 -0.467500 1 0 1.000000 
metalwall035a
0 1.033100 -6.225100 -0.195000 0.923877 0.000000 -0.382690 0.332100 -0.805300 1 0 1.000000 
0 1.033100 -0.936800 -0.195000 0.923877 0.000000 -0.382690 0.190700 -0.805300 1 0 1.000000 
0 1.114000 -6.225100 0.000400 0.923877 0.000000 -0.382690 0.332100 -0.821200 1 0 1.000000 
metalwall035a
0 1.427500 0.733000 0.000400 0.866379 0.000000 -0.499388 0.540700 -0.218500 1 0 1.000000 
0 2.206200 -2.211200 1.351100 0.866379 0.000000 -0.499388 0.377300 -0.145300 1 0 1.000000 
0 1.427500 -0.577800 0.000400 0.866379 0.000000 -0.499388 0.467900 -0.218500 1 0 1.000000 
metalwall035a
0 -0.056700 4.431300 0.894900 -0.832022 -0.550115 0.071502 0.763200 -0.654900 1 0 1.000000 
0 -2.369401 8.229900 3.207500 -0.832022 -0.550115 0.071502 0.592400 -0.484100 1 0 1.000000 
0 -0.080000 4.431300 0.624100 -0.832022 -0.550115 0.071502 0.761500 -0.674500 1 0 1.000000 
end
