version 1
nodes
  0 "static_prop" -1
end
skeleton
time 0
  0 0.000000 0.000000 0.000000 0.000000 0.000000 0.000000
end
triangles
PipeMetal004a.bmp
0 -6.030000 3.967400 -132.787903 -0.998790 -0.002700 -0.049100 0.487500 -1.429100
0 -3.696700 1.634100 -132.384293 0.387206 -0.910215 0.146902 0.260500 -1.429100
0 -5.297300 -5.115700 141.751801 0.292304 -0.913212 -0.283904 0.260500 5.648600
PipeMetal004a.bmp
0 3.314500 -2.782400 160.137405 -0.821698 0.285599 0.493199 0.487500 6.224400
0 -7.630600 -2.782400 141.979706 -0.962771 0.013300 0.269992 0.487500 5.648600
0 5.647700 -5.115699 160.137405 -0.301892 -0.935575 0.183195 0.260500 6.224400
PipeMetal004a.bmp
0 -7.630600 -2.782400 141.979706 -0.962771 0.013300 0.269992 0.487500 5.648600
0 -5.297300 -5.115700 141.751801 0.292304 -0.913212 -0.283904 0.260500 5.648600
0 5.647700 -5.115699 160.137405 -0.301892 -0.935575 0.183195 0.260500 6.224400
PipeMetal004a.bmp
0 -7.630600 -2.782400 141.979706 -0.962771 0.013300 0.269992 0.487500 5.648600
0 -6.030000 3.967400 -132.787903 -0.998790 -0.002700 -0.049100 0.487500 -1.429100
0 -5.297300 -5.115700 141.751801 0.292304 -0.913212 -0.283904 0.260500 5.648600
PipeMetal004a.bmp
0 -3.696700 6.300700 -133.199905 0.384706 0.920914 -0.062601 0.723900 -1.429100
0 -6.030000 3.967400 -132.787903 -0.998790 -0.002700 -0.049100 0.487500 -1.429100
0 -7.630600 -2.782400 141.979706 -0.962771 0.013300 0.269992 0.487500 5.648600
PipeMetal004a.bmp
0 -5.297300 -0.449200 141.751801 0.389513 0.912931 0.121804 0.723900 5.648600
0 -3.696700 6.300700 -133.199905 0.384706 0.920914 -0.062601 0.723900 -1.429100
0 -7.630600 -2.782400 141.979706 -0.962771 0.013300 0.269992 0.487500 5.648600
PipeMetal004a.bmp
0 -3.696700 1.634100 -132.384293 0.387206 -0.910215 0.146902 0.956200 -1.429100
0 -3.696700 6.300700 -133.199905 0.384706 0.920914 -0.062601 0.723900 -1.429100
0 -5.297300 -0.449200 141.751801 0.389513 0.912931 0.121804 0.723900 5.648600
PipeMetal004a.bmp
0 -5.297300 -5.115700 141.751801 0.292304 -0.913212 -0.283904 0.956200 5.648600
0 -3.696700 1.634100 -132.384293 0.387206 -0.910215 0.146902 0.956200 -1.429100
0 -5.297300 -0.449200 141.751801 0.389513 0.912931 0.121804 0.723900 5.648600
PipeMetal004a.bmp
0 -5.297300 -5.115700 141.751801 0.292304 -0.913212 -0.283904 0.956200 5.648600
0 -5.297300 -0.449200 141.751801 0.389513 0.912931 0.121804 0.723900 5.648600
0 5.647700 -0.449200 160.137405 0.760810 0.464806 -0.452906 0.723900 6.224400
PipeMetal004a.bmp
0 5.647700 -5.115699 160.137405 -0.301892 -0.935575 0.183195 0.956200 6.224400
0 -5.297300 -5.115700 141.751801 0.292304 -0.913212 -0.283904 0.956200 5.648600
0 5.647700 -0.449200 160.137405 0.760810 0.464806 -0.452906 0.723900 6.224400
PipeMetal004a.bmp
0 -5.297300 -0.449200 141.751801 0.389513 0.912931 0.121804 0.723900 5.648600
0 -7.630600 -2.782400 141.979706 -0.962771 0.013300 0.269992 0.487500 5.648600
0 3.314500 -2.782400 160.137405 -0.821698 0.285599 0.493199 0.487500 6.224400
PipeMetal004a.bmp
0 5.647700 -0.449200 160.137405 0.760810 0.464806 -0.452906 0.723900 6.224400
0 -5.297300 -0.449200 141.751801 0.389513 0.912931 0.121804 0.723900 5.648600
0 3.314500 -2.782400 160.137405 -0.821698 0.285599 0.493199 0.487500 6.224400
PipeMetal004a.bmp
0 -6.030000 -2.956500 -160.126999 -0.948693 -0.316198 0.000000 0.482300 -2.911600
0 -3.696700 -5.289700 -160.126999 0.876022 -0.467912 0.116803 0.255300 -2.911600
0 -3.696700 1.634100 -132.384293 0.394589 -0.915074 0.083298 0.254800 -2.250500
PipeMetal004a.bmp
0 -6.030000 3.967400 -132.787903 -0.995708 -0.033700 -0.086201 0.481900 -2.226700
0 -6.030000 -2.956500 -160.126999 -0.948693 -0.316198 0.000000 0.482300 -2.911600
0 -3.696700 1.634100 -132.384293 0.394589 -0.915074 0.083298 0.254800 -2.250500
PipeMetal004a.bmp
0 -3.696700 -0.623200 -160.126999 -0.275698 0.931392 -0.237698 0.718700 -2.911600
0 -6.030000 -2.956500 -160.126999 -0.948693 -0.316198 0.000000 0.482300 -2.911600
0 -6.030000 3.967400 -132.787903 -0.995708 -0.033700 -0.086201 0.481900 -2.226700
PipeMetal004a.bmp
0 -3.696700 6.300700 -133.199905 0.384706 0.920914 -0.062601 0.718700 -2.252400
0 -3.696700 -0.623200 -160.126999 -0.275698 0.931392 -0.237698 0.718700 -2.911600
0 -6.030000 3.967400 -132.787903 -0.995708 -0.033700 -0.086201 0.481900 -2.226700
PipeMetal004a.bmp
0 -3.696700 -5.289700 -160.126999 0.876022 -0.467912 0.116803 0.951100 -2.911600
0 -3.696700 -0.623200 -160.126999 -0.275698 0.931392 -0.237698 0.718700 -2.911600
0 -3.696700 6.300700 -133.199905 0.384706 0.920914 -0.062601 0.718700 -2.252400
PipeMetal004a.bmp
0 -3.696700 1.634100 -132.384293 0.394589 -0.915074 0.083298 0.950600 -2.250500
0 -3.696700 -5.289700 -160.126999 0.876022 -0.467912 0.116803 0.951100 -2.911600
0 -3.696700 6.300700 -133.199905 0.384706 0.920914 -0.062601 0.718700 -2.252400
end
