"VertexLitGeneric"
{
	//"$basealphaenvmapmask" 1
	"$basetexture" "glass/glasswindow071a"
	"$envmap" "env_cubemap"
	"$bumpmap" "glass/glasswindow071a_normal"
	"$normalmapalphaenvmapmask" 1
	"$envmapmode" "1"
}
