version 1
nodes
  0 "car001b.Suspension" -1
  1 "car001b.Chassis" 0
  2 "car001b.Hood" 1
  3 "car001b.Bumper" 1
  4 "car001b.Hatch" 1
  5 "car001b.FR_Door" 1
  6 "car001b.Roof" 1
  7 "XSISceneRoot" -1
  8 "polymsh" 7
end
skeleton
time 0
0 5.224604 -5.444306 -18.008263 1.570796 -0.000000 0.000003
1 -0.000000 17.458668 0.000000 -0.000000 -0.000000 0.000000
2 1.788845 5.889179 -77.062912 1.513903 -1.398333 1.588747
3 -20.472437 -8.446364 -75.122017 0.333326 0.018004 -0.051949
4 -13.634374 20.825956 43.272858 -2.197234 -1.011130 -1.014002
5 -33.871830 -0.023549 -32.539955 1.865320 -1.329980 -3.141592
6 -17.790598 20.583952 13.438386 -0.138019 0.001795 -0.401948
7 0.000000 0.000000 0.000000 1.570796 -0.000000 0.000000
8 0.000000 0.000000 0.000000 0.000000 1.570796 0.000000
end
