version 1
nodes
  0 "static_prop" -1
end
skeleton
time 0
0 0.000000 0.000000 0.000000 0.000000 0.000000 0.000000
end
triangles
cable_01
0 12.285605 -126.123596 125.480400 0.158306 -0.971937 0.174007 0.003500 -0.013000 1 0 1.000000 
0 5.911506 -127.149101 125.552902 0.158306 -0.971937 0.174007 0.001900 -0.012700 1 0 1.000000 
0 9.152506 -127.196602 122.337898 0.158306 -0.971937 0.174007 0.000500 -0.025200 1 0 1.000000 
cable_01
0 9.044605 -126.076103 128.695404 0.158306 -0.971937 0.174007 0.004900 -0.000500 1 0 1.000000 
0 5.911506 -127.149101 125.552902 0.158306 -0.971937 0.174007 0.001900 -0.012700 1 0 1.000000 
0 12.285605 -126.123596 125.480400 0.158306 -0.971937 0.174007 0.003500 -0.013000 1 0 1.000000 
cable_01
0 -4.940306 127.602097 -128.205002 -0.082701 0.160803 -0.983516 0.999500 -0.997600 1 0 1.000000 
0 -3.633405 125.493202 -128.659698 -0.082701 0.160803 -0.983516 0.990800 -0.999400 1 0 1.000000 
0 -7.087506 126.279099 -128.240707 -0.082701 0.160803 -0.983516 0.995100 -0.997700 1 0 1.000000 
cable_01
0 -3.633405 125.493202 -128.659698 -0.082701 0.160803 -0.983516 0.990800 -0.999400 1 0 1.000000 
0 -5.780605 124.170303 -128.695496 -0.082701 0.160803 -0.983516 0.986400 -0.999500 1 0 1.000000 
0 -7.087506 126.279099 -128.240707 -0.082701 0.160803 -0.983516 0.995100 -0.997700 1 0 1.000000 
cable_01
0 -1.178105 118.439003 46.116600 0.225402 0.927410 0.298503 0.977000 -0.282900 1 0 1.000000 
0 -2.204305 112.880798 57.785198 0.206695 0.772382 0.600586 0.957000 -0.226300 1 0 1.000000 
0 0.107895 116.594101 45.828499 0.968564 -0.237191 0.074997 0.968800 -0.285700 1 0 1.000000 
cable_01
0 -2.204305 112.880798 57.785198 0.206695 0.772382 0.600586 0.957000 -0.226300 1 0 1.000000 
0 -1.178105 118.439003 46.116600 0.225402 0.927410 0.298503 0.977000 -0.282900 1 0 1.000000 
0 -4.342805 111.816704 57.262100 -0.961174 0.264093 -0.079998 0.953200 -0.229700 1 0 1.000000 
cable_01
0 -3.220505 117.358498 45.629200 -0.968058 0.239590 -0.073897 0.973200 -0.286100 1 0 1.000000 
0 -4.342805 111.816704 57.262100 -0.961174 0.264093 -0.079998 0.953200 -0.229700 1 0 1.000000 
0 -1.178105 118.439003 46.116600 0.225402 0.927410 0.298503 0.977000 -0.282900 1 0 1.000000 
cable_01
0 -4.342805 111.816704 57.262100 -0.961174 0.264093 -0.079998 0.953200 -0.229700 1 0 1.000000 
0 -3.220505 117.358498 45.629200 -0.968058 0.239590 -0.073897 0.973200 -0.286100 1 0 1.000000 
0 -3.036605 109.889503 56.944199 -0.208900 -0.767701 -0.605801 0.944700 -0.232700 1 0 1.000000 
cable_01
0 -4.342805 111.816704 57.262100 -0.961174 0.264093 -0.079998 0.953200 -0.229700 1 0 1.000000 
0 -3.036605 109.889503 56.944199 -0.208900 -0.767701 -0.605801 0.944700 -0.232700 1 0 1.000000 
0 -5.311504 101.457497 64.896896 -0.130799 -0.487995 -0.862991 0.914300 -0.205700 1 0 1.000000 
cable_01
0 -3.177604 101.349403 66.379303 0.961912 -0.272503 0.021600 0.913700 -0.198000 1 0 1.000000 
0 -5.311504 101.457497 64.896896 -0.130799 -0.487995 -0.862991 0.914300 -0.205700 1 0 1.000000 
0 -3.036605 109.889503 56.944199 -0.208900 -0.767701 -0.605801 0.944700 -0.232700 1 0 1.000000 
cable_01
0 -3.177604 101.349403 66.379303 0.961912 -0.272503 0.021600 0.913700 -0.198000 1 0 1.000000 
0 -4.660404 91.333199 69.995697 0.983063 -0.172993 -0.060498 0.875300 -0.185400 1 0 1.000000 
0 -5.311504 101.457497 64.896896 -0.130799 -0.487995 -0.862991 0.914300 -0.205700 1 0 1.000000 
cable_01
0 -4.660404 91.333199 69.995697 0.983063 -0.172993 -0.060498 0.875300 -0.185400 1 0 1.000000 
0 -3.177604 101.349403 66.379303 0.961912 -0.272503 0.021600 0.913700 -0.198000 1 0 1.000000 
0 -6.536304 91.970100 71.637299 0.069703 0.195908 0.978142 0.879500 -0.176300 1 0 1.000000 
cable_01
0 -4.660404 91.333199 69.995697 0.983063 -0.172993 -0.060498 0.875300 -0.185400 1 0 1.000000 
0 -6.536304 91.970100 71.637299 0.069703 0.195908 0.978142 0.879500 -0.176300 1 0 1.000000 
0 -8.071103 70.047096 73.580002 0.025601 -0.136403 0.990322 0.787500 -0.184900 1 0 1.000000 
cable_01
0 -10.242103 70.585197 71.649300 -0.981999 0.172700 0.076500 0.793400 -0.191400 1 0 1.000000 
0 -8.071103 70.047096 73.580002 0.025601 -0.136403 0.990322 0.787500 -0.184900 1 0 1.000000 
0 -6.536304 91.970100 71.637299 0.069703 0.195908 0.978142 0.879500 -0.176300 1 0 1.000000 
cable_01
0 -10.242103 70.585197 71.649300 -0.981999 0.172700 0.076500 0.793400 -0.191400 1 0 1.000000 
0 -11.920302 58.092400 67.046600 -0.981811 0.159102 0.103601 0.742100 -0.212600 1 0 1.000000 
0 -8.071103 70.047096 73.580002 0.025601 -0.136403 0.990322 0.787500 -0.184900 1 0 1.000000 
cable_01
0 -11.920302 58.092400 67.046600 -0.981811 0.159102 0.103601 0.742100 -0.212600 1 0 1.000000 
0 -10.242103 70.585197 71.649300 -0.981999 0.172700 0.076500 0.793400 -0.191400 1 0 1.000000 
0 -9.996303 59.124001 65.495399 -0.040100 0.411103 -0.910706 0.744700 -0.220200 1 0 1.000000 
cable_01
0 -11.920302 58.092400 67.046600 -0.981811 0.159102 0.103601 0.742100 -0.212600 1 0 1.000000 
0 -9.996303 59.124001 65.495399 -0.040100 0.411103 -0.910706 0.744700 -0.220200 1 0 1.000000 
0 -14.560802 40.194199 54.798302 0.004700 0.480688 -0.876879 0.664000 -0.288600 1 0 1.000000 
cable_01
0 -12.827601 39.445499 56.108501 0.998404 -0.042400 -0.037300 0.660900 -0.282200 1 0 1.000000 
0 -14.560802 40.194199 54.798302 0.004700 0.480688 -0.876879 0.664000 -0.288600 1 0 1.000000 
0 -9.996303 59.124001 65.495399 -0.040100 0.411103 -0.910706 0.744700 -0.220200 1 0 1.000000 
cable_01
0 -14.560802 40.194199 54.798302 0.004700 0.480688 -0.876879 0.664000 -0.288600 1 0 1.000000 
0 -16.324202 39.466301 56.076302 -0.999226 0.027001 0.028601 0.662300 -0.282200 1 0 1.000000 
0 -11.920302 58.092400 67.046600 -0.981811 0.159102 0.103601 0.742100 -0.212600 1 0 1.000000 
cable_01
0 -9.861503 56.775101 68.355400 0.035898 -0.437380 0.898560 0.736500 -0.206600 1 0 1.000000 
0 -11.920302 58.092400 67.046600 -0.981811 0.159102 0.103601 0.742100 -0.212600 1 0 1.000000 
0 -16.324202 39.466301 56.076302 -0.999226 0.027001 0.028601 0.662300 -0.282200 1 0 1.000000 
cable_01
0 -9.861503 56.775101 68.355400 0.035898 -0.437380 0.898560 0.736500 -0.206600 1 0 1.000000 
0 -8.071103 70.047096 73.580002 0.025601 -0.136403 0.990322 0.787500 -0.184900 1 0 1.000000 
0 -11.920302 58.092400 67.046600 -0.981811 0.159102 0.103601 0.742100 -0.212600 1 0 1.000000 
cable_01
0 -8.071103 70.047096 73.580002 0.025601 -0.136403 0.990322 0.787500 -0.184900 1 0 1.000000 
0 -9.861503 56.775101 68.355400 0.035898 -0.437380 0.898560 0.736500 -0.206600 1 0 1.000000 
0 -6.098703 70.200104 71.588203 0.981781 -0.172997 -0.078598 0.790400 -0.193000 1 0 1.000000 
cable_01
0 -8.071103 70.047096 73.580002 0.025601 -0.136403 0.990322 0.787500 -0.184900 1 0 1.000000 
0 -6.098703 70.200104 71.588203 0.981781 -0.172997 -0.078598 0.790400 -0.193000 1 0 1.000000 
0 -4.660404 91.333199 69.995697 0.983063 -0.172993 -0.060498 0.875300 -0.185400 1 0 1.000000 
cable_01
0 -6.934504 91.461700 68.483498 -0.066300 -0.182301 -0.981005 0.876000 -0.193200 1 0 1.000000 
0 -4.660404 91.333199 69.995697 0.983063 -0.172993 -0.060498 0.875300 -0.185400 1 0 1.000000 
0 -6.098703 70.200104 71.588203 0.981781 -0.172997 -0.078598 0.790400 -0.193000 1 0 1.000000 
cable_01
0 -6.934504 91.461700 68.483498 -0.066300 -0.182301 -0.981005 0.876000 -0.193200 1 0 1.000000 
0 -5.311504 101.457497 64.896896 -0.130799 -0.487995 -0.862991 0.914300 -0.205700 1 0 1.000000 
0 -4.660404 91.333199 69.995697 0.983063 -0.172993 -0.060498 0.875300 -0.185400 1 0 1.000000 
cable_01
0 -5.311504 101.457497 64.896896 -0.130799 -0.487995 -0.862991 0.914300 -0.205700 1 0 1.000000 
0 -6.934504 91.461700 68.483498 -0.066300 -0.182301 -0.981005 0.876000 -0.193200 1 0 1.000000 
0 -7.146704 102.007301 66.483299 -0.957852 0.285486 -0.031898 0.918100 -0.196900 1 0 1.000000 
cable_01
0 -5.311504 101.457497 64.896896 -0.130799 -0.487995 -0.862991 0.914300 -0.205700 1 0 1.000000 
0 -7.146704 102.007301 66.483299 -0.957852 0.285486 -0.031898 0.918100 -0.196900 1 0 1.000000 
0 -4.342805 111.816704 57.262100 -0.961174 0.264093 -0.079998 0.953200 -0.229700 1 0 1.000000 
cable_01
0 -2.204305 112.880798 57.785198 0.206695 0.772382 0.600586 0.957000 -0.226300 1 0 1.000000 
0 -4.342805 111.816704 57.262100 -0.961174 0.264093 -0.079998 0.953200 -0.229700 1 0 1.000000 
0 -7.146704 102.007301 66.483299 -0.957852 0.285486 -0.031898 0.918100 -0.196900 1 0 1.000000 
cable_01
0 -7.937902 57.805199 66.805000 0.976058 -0.182592 -0.118195 0.739200 -0.214200 1 0 1.000000 
0 -9.861503 56.775101 68.355400 0.035898 -0.437380 0.898560 0.736500 -0.206600 1 0 1.000000 
0 -14.591002 38.717602 57.386398 -0.006000 -0.494287 0.869278 0.659200 -0.275900 1 0 1.000000 
cable_01
0 -16.324202 39.466301 56.076302 -0.999226 0.027001 0.028601 0.662300 -0.282200 1 0 1.000000 
0 -14.591002 38.717602 57.386398 -0.006000 -0.494287 0.869278 0.659200 -0.275900 1 0 1.000000 
0 -9.861503 56.775101 68.355400 0.035898 -0.437380 0.898560 0.736500 -0.206600 1 0 1.000000 
cable_01
0 -14.591002 38.717602 57.386398 -0.006000 -0.494287 0.869278 0.659200 -0.275900 1 0 1.000000 
0 -16.324202 39.466301 56.076302 -0.999226 0.027001 0.028601 0.662300 -0.282200 1 0 1.000000 
0 -14.341501 16.636801 46.425598 -0.931699 -0.206100 0.299100 0.567800 -0.350900 1 0 1.000000 
cable_01
0 -12.858601 17.577000 45.200298 -0.285102 0.352802 -0.891206 0.570500 -0.356800 1 0 1.000000 
0 -14.341501 16.636801 46.425598 -0.931699 -0.206100 0.299100 0.567800 -0.350900 1 0 1.000000 
0 -16.324202 39.466301 56.076302 -0.999226 0.027001 0.028601 0.662300 -0.282200 1 0 1.000000 
cable_01
0 -16.324202 39.466301 56.076302 -0.999226 0.027001 0.028601 0.662300 -0.282200 1 0 1.000000 
0 -14.560802 40.194199 54.798302 0.004700 0.480688 -0.876879 0.664000 -0.288600 1 0 1.000000 
0 -12.858601 17.577000 45.200298 -0.285102 0.352802 -0.891206 0.570500 -0.356800 1 0 1.000000 
cable_01
0 -11.303901 16.906300 46.461800 0.932243 0.194809 -0.304914 0.567700 -0.350700 1 0 1.000000 
0 -12.858601 17.577000 45.200298 -0.285102 0.352802 -0.891206 0.570500 -0.356800 1 0 1.000000 
0 -14.560802 40.194199 54.798302 0.004700 0.480688 -0.876879 0.664000 -0.288600 1 0 1.000000 
cable_01
0 -14.560802 40.194199 54.798302 0.004700 0.480688 -0.876879 0.664000 -0.288600 1 0 1.000000 
0 -12.827601 39.445499 56.108501 0.998404 -0.042400 -0.037300 0.660900 -0.282200 1 0 1.000000 
0 -11.303901 16.906300 46.461800 0.932243 0.194809 -0.304914 0.567700 -0.350700 1 0 1.000000 
cable_01
0 -12.786901 15.966099 47.687199 0.286386 -0.359883 0.887957 0.565100 -0.344800 1 0 1.000000 
0 -11.303901 16.906300 46.461800 0.932243 0.194809 -0.304914 0.567700 -0.350700 1 0 1.000000 
0 -12.827601 39.445499 56.108501 0.998404 -0.042400 -0.037300 0.660900 -0.282200 1 0 1.000000 
cable_01
0 -12.827601 39.445499 56.108501 0.998404 -0.042400 -0.037300 0.660900 -0.282200 1 0 1.000000 
0 -14.591002 38.717602 57.386398 -0.006000 -0.494287 0.869278 0.659200 -0.275900 1 0 1.000000 
0 -12.786901 15.966099 47.687199 0.286386 -0.359883 0.887957 0.565100 -0.344800 1 0 1.000000 
cable_01
0 -14.341501 16.636801 46.425598 -0.931699 -0.206100 0.299100 0.567800 -0.350900 1 0 1.000000 
0 -12.786901 15.966099 47.687199 0.286386 -0.359883 0.887957 0.565100 -0.344800 1 0 1.000000 
0 -14.591002 38.717602 57.386398 -0.006000 -0.494287 0.869278 0.659200 -0.275900 1 0 1.000000 
cable_01
0 0.151195 112.228798 -9.439500 0.077703 -0.988943 0.126306 0.921800 -0.576800 1 0 1.000000 
0 1.720195 113.065804 -9.942300 0.995385 0.095799 -0.005500 0.924300 -0.579000 1 0 1.000000 
0 1.403895 118.413597 29.606899 0.969516 -0.227704 0.090501 0.968000 -0.370600 1 0 1.000000 
cable_01
0 0.108595 120.469902 29.403700 0.234809 0.972039 -0.002200 0.976800 -0.370300 1 0 1.000000 
0 1.403895 118.413597 29.606899 0.969516 -0.227704 0.090501 0.968000 -0.370600 1 0 1.000000 
0 1.720195 113.065804 -9.942300 0.995385 0.095799 -0.005500 0.924300 -0.579000 1 0 1.000000 
cable_01
0 1.720195 113.065804 -9.942300 0.995385 0.095799 -0.005500 0.924300 -0.579000 1 0 1.000000 
0 0.751595 114.467903 -10.696400 -0.077300 0.985902 -0.148400 0.930000 -0.582000 1 0 1.000000 
0 0.108595 120.469902 29.403700 0.234809 0.972039 -0.002200 0.976800 -0.370300 1 0 1.000000 
cable_01
0 -2.023205 119.186996 29.468800 -0.969330 0.225507 -0.097703 0.972400 -0.370800 1 0 1.000000 
0 0.108595 120.469902 29.403700 0.234809 0.972039 -0.002200 0.976800 -0.370300 1 0 1.000000 
0 0.751595 114.467903 -10.696400 -0.077300 0.985902 -0.148400 0.930000 -0.582000 1 0 1.000000 
cable_01
0 0.751595 114.467903 -10.696400 -0.077300 0.985902 -0.148400 0.930000 -0.582000 1 0 1.000000 
0 -0.817405 113.630898 -10.193500 -0.994695 -0.101500 -0.016700 0.927500 -0.579900 1 0 1.000000 
0 -2.023205 119.186996 29.468800 -0.969330 0.225507 -0.097703 0.972400 -0.370800 1 0 1.000000 
cable_01
0 -0.727805 117.130699 29.672001 -0.234007 -0.972231 -0.002800 0.963600 -0.371100 1 0 1.000000 
0 -2.023205 119.186996 29.468800 -0.969330 0.225507 -0.097703 0.972400 -0.370800 1 0 1.000000 
0 -0.817405 113.630898 -10.193500 -0.994695 -0.101500 -0.016700 0.927500 -0.579900 1 0 1.000000 
cable_01
0 -2.023205 119.186996 29.468800 -0.969330 0.225507 -0.097703 0.972400 -0.370800 1 0 1.000000 
0 -0.727805 117.130699 29.672001 -0.234007 -0.972231 -0.002800 0.963600 -0.371100 1 0 1.000000 
0 -1.934505 115.513000 45.341202 -0.225493 -0.927970 -0.296690 0.965000 -0.288900 1 0 1.000000 
cable_01
0 0.107895 116.594101 45.828499 0.968564 -0.237191 0.074997 0.968800 -0.285700 1 0 1.000000 
0 -1.934505 115.513000 45.341202 -0.225493 -0.927970 -0.296690 0.965000 -0.288900 1 0 1.000000 
0 -0.727805 117.130699 29.672001 -0.234007 -0.972231 -0.002800 0.963600 -0.371100 1 0 1.000000 
cable_01
0 0.107895 116.594101 45.828499 0.968564 -0.237191 0.074997 0.968800 -0.285700 1 0 1.000000 
0 -0.885005 110.978500 57.459301 0.964915 -0.253004 0.070201 0.948500 -0.229300 1 0 1.000000 
0 -1.934505 115.513000 45.341202 -0.225493 -0.927970 -0.296690 0.965000 -0.288900 1 0 1.000000 
cable_01
0 -0.885005 110.978500 57.459301 0.964915 -0.253004 0.070201 0.948500 -0.229300 1 0 1.000000 
0 0.107895 116.594101 45.828499 0.968564 -0.237191 0.074997 0.968800 -0.285700 1 0 1.000000 
0 -2.204305 112.880798 57.785198 0.206695 0.772382 0.600586 0.957000 -0.226300 1 0 1.000000 
cable_01
0 -0.885005 110.978500 57.459301 0.964915 -0.253004 0.070201 0.948500 -0.229300 1 0 1.000000 
0 -2.204305 112.880798 57.785198 0.206695 0.772382 0.600586 0.957000 -0.226300 1 0 1.000000 
0 -5.003804 101.902802 67.975502 0.130506 0.494822 0.859138 0.917500 -0.189200 1 0 1.000000 
cable_01
0 -7.146704 102.007301 66.483299 -0.957852 0.285486 -0.031898 0.918100 -0.196900 1 0 1.000000 
0 -5.003804 101.902802 67.975502 0.130506 0.494822 0.859138 0.917500 -0.189200 1 0 1.000000 
0 -2.204305 112.880798 57.785198 0.206695 0.772382 0.600586 0.957000 -0.226300 1 0 1.000000 
cable_01
0 -7.146704 102.007301 66.483299 -0.957852 0.285486 -0.031898 0.918100 -0.196900 1 0 1.000000 
0 -8.810504 92.098801 70.122101 -0.981210 0.184302 0.057101 0.880200 -0.184100 1 0 1.000000 
0 -5.003804 101.902802 67.975502 0.130506 0.494822 0.859138 0.917500 -0.189200 1 0 1.000000 
cable_01
0 -8.810504 92.098801 70.122101 -0.981210 0.184302 0.057101 0.880200 -0.184100 1 0 1.000000 
0 -7.146704 102.007301 66.483299 -0.957852 0.285486 -0.031898 0.918100 -0.196900 1 0 1.000000 
0 -6.934504 91.461700 68.483498 -0.066300 -0.182301 -0.981005 0.876000 -0.193200 1 0 1.000000 
cable_01
0 -8.810504 92.098801 70.122101 -0.981210 0.184302 0.057101 0.880200 -0.184100 1 0 1.000000 
0 -6.934504 91.461700 68.483498 -0.066300 -0.182301 -0.981005 0.876000 -0.193200 1 0 1.000000 
0 -8.269603 70.737900 69.652603 -0.025699 0.138294 -0.990058 0.796400 -0.199500 1 0 1.000000 
cable_01
0 -6.098703 70.200104 71.588203 0.981781 -0.172997 -0.078598 0.790400 -0.193000 1 0 1.000000 
0 -8.269603 70.737900 69.652603 -0.025699 0.138294 -0.990058 0.796400 -0.199500 1 0 1.000000 
0 -6.934504 91.461700 68.483498 -0.066300 -0.182301 -0.981005 0.876000 -0.193200 1 0 1.000000 
cable_01
0 -6.098703 70.200104 71.588203 0.981781 -0.172997 -0.078598 0.790400 -0.193000 1 0 1.000000 
0 -7.937902 57.805199 66.805000 0.976058 -0.182592 -0.118195 0.739200 -0.214200 1 0 1.000000 
0 -8.269603 70.737900 69.652603 -0.025699 0.138294 -0.990058 0.796400 -0.199500 1 0 1.000000 
cable_01
0 -7.937902 57.805199 66.805000 0.976058 -0.182592 -0.118195 0.739200 -0.214200 1 0 1.000000 
0 -6.098703 70.200104 71.588203 0.981781 -0.172997 -0.078598 0.790400 -0.193000 1 0 1.000000 
0 -9.861503 56.775101 68.355400 0.035898 -0.437380 0.898560 0.736500 -0.206600 1 0 1.000000 
cable_01
0 -0.817405 113.630898 -10.193500 -0.994695 -0.101500 -0.016700 0.927500 -0.579900 1 0 1.000000 
0 0.151195 112.228798 -9.439500 0.077703 -0.988943 0.126306 0.921800 -0.576800 1 0 1.000000 
0 -0.727805 117.130699 29.672001 -0.234007 -0.972231 -0.002800 0.963600 -0.371100 1 0 1.000000 
cable_01
0 1.403895 118.413597 29.606899 0.969516 -0.227704 0.090501 0.968000 -0.370600 1 0 1.000000 
0 -0.727805 117.130699 29.672001 -0.234007 -0.972231 -0.002800 0.963600 -0.371100 1 0 1.000000 
0 0.151195 112.228798 -9.439500 0.077703 -0.988943 0.126306 0.921800 -0.576800 1 0 1.000000 
cable_01
0 -0.727805 117.130699 29.672001 -0.234007 -0.972231 -0.002800 0.963600 -0.371100 1 0 1.000000 
0 1.403895 118.413597 29.606899 0.969516 -0.227704 0.090501 0.968000 -0.370600 1 0 1.000000 
0 0.107895 116.594101 45.828499 0.968564 -0.237191 0.074997 0.968800 -0.285700 1 0 1.000000 
cable_01
0 -1.178105 118.439003 46.116600 0.225402 0.927410 0.298503 0.977000 -0.282900 1 0 1.000000 
0 0.107895 116.594101 45.828499 0.968564 -0.237191 0.074997 0.968800 -0.285700 1 0 1.000000 
0 1.403895 118.413597 29.606899 0.969516 -0.227704 0.090501 0.968000 -0.370600 1 0 1.000000 
cable_01
0 1.403895 118.413597 29.606899 0.969516 -0.227704 0.090501 0.968000 -0.370600 1 0 1.000000 
0 0.108595 120.469902 29.403700 0.234809 0.972039 -0.002200 0.976800 -0.370300 1 0 1.000000 
0 -1.178105 118.439003 46.116600 0.225402 0.927410 0.298503 0.977000 -0.282900 1 0 1.000000 
cable_01
0 -3.220505 117.358498 45.629200 -0.968058 0.239590 -0.073897 0.973200 -0.286100 1 0 1.000000 
0 -1.178105 118.439003 46.116600 0.225402 0.927410 0.298503 0.977000 -0.282900 1 0 1.000000 
0 0.108595 120.469902 29.403700 0.234809 0.972039 -0.002200 0.976800 -0.370300 1 0 1.000000 
cable_01
0 0.108595 120.469902 29.403700 0.234809 0.972039 -0.002200 0.976800 -0.370300 1 0 1.000000 
0 -2.023205 119.186996 29.468800 -0.969330 0.225507 -0.097703 0.972400 -0.370800 1 0 1.000000 
0 -3.220505 117.358498 45.629200 -0.968058 0.239590 -0.073897 0.973200 -0.286100 1 0 1.000000 
cable_01
0 -1.934505 115.513000 45.341202 -0.225493 -0.927970 -0.296690 0.965000 -0.288900 1 0 1.000000 
0 -3.220505 117.358498 45.629200 -0.968058 0.239590 -0.073897 0.973200 -0.286100 1 0 1.000000 
0 -2.023205 119.186996 29.468800 -0.969330 0.225507 -0.097703 0.972400 -0.370800 1 0 1.000000 
cable_01
0 -1.934505 115.513000 45.341202 -0.225493 -0.927970 -0.296690 0.965000 -0.288900 1 0 1.000000 
0 -3.036605 109.889503 56.944199 -0.208900 -0.767701 -0.605801 0.944700 -0.232700 1 0 1.000000 
0 -3.220505 117.358498 45.629200 -0.968058 0.239590 -0.073897 0.973200 -0.286100 1 0 1.000000 
cable_01
0 -3.036605 109.889503 56.944199 -0.208900 -0.767701 -0.605801 0.944700 -0.232700 1 0 1.000000 
0 -1.934505 115.513000 45.341202 -0.225493 -0.927970 -0.296690 0.965000 -0.288900 1 0 1.000000 
0 -0.885005 110.978500 57.459301 0.964915 -0.253004 0.070201 0.948500 -0.229300 1 0 1.000000 
cable_01
0 -3.036605 109.889503 56.944199 -0.208900 -0.767701 -0.605801 0.944700 -0.232700 1 0 1.000000 
0 -0.885005 110.978500 57.459301 0.964915 -0.253004 0.070201 0.948500 -0.229300 1 0 1.000000 
0 -3.177604 101.349403 66.379303 0.961912 -0.272503 0.021600 0.913700 -0.198000 1 0 1.000000 
cable_01
0 -5.003804 101.902802 67.975502 0.130506 0.494822 0.859138 0.917500 -0.189200 1 0 1.000000 
0 -3.177604 101.349403 66.379303 0.961912 -0.272503 0.021600 0.913700 -0.198000 1 0 1.000000 
0 -0.885005 110.978500 57.459301 0.964915 -0.253004 0.070201 0.948500 -0.229300 1 0 1.000000 
cable_01
0 -5.003804 101.902802 67.975502 0.130506 0.494822 0.859138 0.917500 -0.189200 1 0 1.000000 
0 -6.536304 91.970100 71.637299 0.069703 0.195908 0.978142 0.879500 -0.176300 1 0 1.000000 
0 -3.177604 101.349403 66.379303 0.961912 -0.272503 0.021600 0.913700 -0.198000 1 0 1.000000 
cable_01
0 -6.536304 91.970100 71.637299 0.069703 0.195908 0.978142 0.879500 -0.176300 1 0 1.000000 
0 -5.003804 101.902802 67.975502 0.130506 0.494822 0.859138 0.917500 -0.189200 1 0 1.000000 
0 -8.810504 92.098801 70.122101 -0.981210 0.184302 0.057101 0.880200 -0.184100 1 0 1.000000 
cable_01
0 -6.536304 91.970100 71.637299 0.069703 0.195908 0.978142 0.879500 -0.176300 1 0 1.000000 
0 -8.810504 92.098801 70.122101 -0.981210 0.184302 0.057101 0.880200 -0.184100 1 0 1.000000 
0 -10.242103 70.585197 71.649300 -0.981999 0.172700 0.076500 0.793400 -0.191400 1 0 1.000000 
cable_01
0 -8.269603 70.737900 69.652603 -0.025699 0.138294 -0.990058 0.796400 -0.199500 1 0 1.000000 
0 -10.242103 70.585197 71.649300 -0.981999 0.172700 0.076500 0.793400 -0.191400 1 0 1.000000 
0 -8.810504 92.098801 70.122101 -0.981210 0.184302 0.057101 0.880200 -0.184100 1 0 1.000000 
cable_01
0 -8.269603 70.737900 69.652603 -0.025699 0.138294 -0.990058 0.796400 -0.199500 1 0 1.000000 
0 -9.996303 59.124001 65.495399 -0.040100 0.411103 -0.910706 0.744700 -0.220200 1 0 1.000000 
0 -10.242103 70.585197 71.649300 -0.981999 0.172700 0.076500 0.793400 -0.191400 1 0 1.000000 
cable_01
0 -9.996303 59.124001 65.495399 -0.040100 0.411103 -0.910706 0.744700 -0.220200 1 0 1.000000 
0 -8.269603 70.737900 69.652603 -0.025699 0.138294 -0.990058 0.796400 -0.199500 1 0 1.000000 
0 -7.937902 57.805199 66.805000 0.976058 -0.182592 -0.118195 0.739200 -0.214200 1 0 1.000000 
cable_01
0 -9.996303 59.124001 65.495399 -0.040100 0.411103 -0.910706 0.744700 -0.220200 1 0 1.000000 
0 -7.937902 57.805199 66.805000 0.976058 -0.182592 -0.118195 0.739200 -0.214200 1 0 1.000000 
0 -12.827601 39.445499 56.108501 0.998404 -0.042400 -0.037300 0.660900 -0.282200 1 0 1.000000 
cable_01
0 -14.591002 38.717602 57.386398 -0.006000 -0.494287 0.869278 0.659200 -0.275900 1 0 1.000000 
0 -12.827601 39.445499 56.108501 0.998404 -0.042400 -0.037300 0.660900 -0.282200 1 0 1.000000 
0 -7.937902 57.805199 66.805000 0.976058 -0.182592 -0.118195 0.739200 -0.214200 1 0 1.000000 
cable_01
0 0.032795 109.688103 6.447700 -0.223901 -0.964004 -0.143401 0.915000 -0.475000 1 0 1.000000 
0 -2.324605 113.525703 6.587800 -0.970703 0.235801 -0.046200 0.930900 -0.474400 1 0 1.000000 
0 -1.945205 113.532600 -35.524601 -0.973509 0.227002 0.027400 0.927200 -0.637900 1 0 1.000000 
cable_01
0 1.445695 115.629898 -35.280800 0.227707 0.973230 0.031201 0.934100 -0.636900 1 0 1.000000 
0 -1.945205 113.532600 -35.524601 -0.973509 0.227002 0.027400 0.927200 -0.637900 1 0 1.000000 
0 -2.324605 113.525703 6.587800 -0.970703 0.235801 -0.046200 0.930900 -0.474400 1 0 1.000000 
cable_01
0 1.445695 115.629898 -35.280800 0.227707 0.973230 0.031201 0.934100 -0.636900 1 0 1.000000 
0 0.573495 119.400398 -77.235901 0.227599 0.969596 0.089900 0.941900 -0.723400 1 0 1.000000 
0 -1.945205 113.532600 -35.524601 -0.973509 0.227002 0.027400 0.927200 -0.637900 1 0 1.000000 
cable_01
0 0.573495 119.400398 -77.235901 0.227599 0.969596 0.089900 0.941900 -0.723400 1 0 1.000000 
0 1.445695 115.629898 -35.280800 0.227707 0.973230 0.031201 0.934100 -0.636900 1 0 1.000000 
0 2.511295 116.315201 -77.878098 0.970210 -0.215802 -0.110101 0.929100 -0.725900 1 0 1.000000 
cable_01
0 3.548195 112.265701 -35.960499 0.973294 -0.225799 -0.041400 0.920200 -0.639600 1 0 1.000000 
0 2.511295 116.315201 -77.878098 0.970210 -0.215802 -0.110101 0.929100 -0.725900 1 0 1.000000 
0 1.445695 115.629898 -35.280800 0.227707 0.973230 0.031201 0.934100 -0.636900 1 0 1.000000 
cable_01
0 2.511295 116.315201 -77.878098 0.970210 -0.215802 -0.110101 0.929100 -0.725900 1 0 1.000000 
0 3.548195 112.265701 -35.960499 0.973294 -0.225799 -0.041400 0.920200 -0.639600 1 0 1.000000 
0 -0.613405 114.389702 -78.101601 -0.229204 -0.967017 -0.111102 0.922800 -0.726700 1 0 1.000000 
cable_01
0 2.511295 116.315201 -77.878098 0.970210 -0.215802 -0.110101 0.929100 -0.725900 1 0 1.000000 
0 -0.613405 114.389702 -78.101601 -0.229204 -0.967017 -0.111102 0.922800 -0.726700 1 0 1.000000 
0 -5.780605 124.170303 -128.695496 0.083998 -0.976779 -0.197096 0.986400 -0.999500 1 0 1.000000 
cable_01
0 -7.087506 126.279099 -128.240707 -0.992564 -0.098296 0.071797 0.995100 -0.997700 1 0 1.000000 
0 -5.780605 124.170303 -128.695496 0.083998 -0.976779 -0.197096 0.986400 -0.999500 1 0 1.000000 
0 -0.613405 114.389702 -78.101601 -0.229204 -0.967017 -0.111102 0.922800 -0.726700 1 0 1.000000 
cable_01
0 -0.613405 114.389702 -78.101601 -0.229204 -0.967017 -0.111102 0.922800 -0.726700 1 0 1.000000 
0 -2.551005 117.474800 -77.459503 -0.971573 0.219294 0.089198 0.935600 -0.724300 1 0 1.000000 
0 -7.087506 126.279099 -128.240707 -0.992564 -0.098296 0.071797 0.995100 -0.997700 1 0 1.000000 
cable_01
0 -4.940306 127.602097 -128.205002 -0.086395 0.982047 0.167691 0.999500 -0.997600 1 0 1.000000 
0 -7.087506 126.279099 -128.240707 -0.992564 -0.098296 0.071797 0.995100 -0.997700 1 0 1.000000 
0 -2.551005 117.474800 -77.459503 -0.971573 0.219294 0.089198 0.935600 -0.724300 1 0 1.000000 
cable_01
0 -5.922602 56.919601 56.581501 0.992600 -0.119700 -0.020400 0.724200 -0.280400 1 0 1.000000 
0 -4.138703 71.183998 58.959400 0.983525 -0.179304 -0.023001 0.779200 -0.271200 1 0 1.000000 
0 -9.024503 56.957001 59.870201 -0.001000 -0.216496 0.976283 0.725500 -0.267600 1 0 1.000000 
cable_01
0 -4.138703 71.183998 58.959400 0.983525 -0.179304 -0.023001 0.779200 -0.271200 1 0 1.000000 
0 -5.922602 56.919601 56.581501 0.992600 -0.119700 -0.020400 0.724200 -0.280400 1 0 1.000000 
0 -7.526703 71.941101 55.585701 -0.020800 0.013300 -0.999695 0.783400 -0.284300 1 0 1.000000 
cable_01
0 -4.138703 71.183998 58.959400 0.983525 -0.179304 -0.023001 0.779200 -0.271200 1 0 1.000000 
0 -7.526703 71.941101 55.585701 -0.020800 0.013300 -0.999695 0.783400 -0.284300 1 0 1.000000 
0 -6.271004 82.237099 54.199100 -0.077300 -0.307200 -0.948500 0.823100 -0.289600 1 0 1.000000 
cable_01
0 -9.596304 84.889702 57.785599 -0.980921 0.194404 -0.000900 0.834700 -0.275700 1 0 1.000000 
0 -6.271004 82.237099 54.199100 -0.077300 -0.307200 -0.948500 0.823100 -0.289600 1 0 1.000000 
0 -7.526703 71.941101 55.585701 -0.020800 0.013300 -0.999695 0.783400 -0.284300 1 0 1.000000 
cable_01
0 -9.596304 84.889702 57.785599 -0.980921 0.194404 -0.000900 0.834700 -0.275700 1 0 1.000000 
0 -7.594804 97.681000 50.256802 -0.959785 0.269596 -0.078299 0.873300 -0.296300 1 0 1.000000 
0 -6.271004 82.237099 54.199100 -0.077300 -0.307200 -0.948500 0.823100 -0.289600 1 0 1.000000 
cable_01
0 -7.594804 97.681000 50.256802 -0.959785 0.269596 -0.078299 0.873300 -0.296300 1 0 1.000000 
0 -9.596304 84.889702 57.785599 -0.980921 0.194404 -0.000900 0.834700 -0.275700 1 0 1.000000 
0 -3.558304 98.734901 53.822498 0.143701 0.673906 0.724707 0.875900 -0.282500 1 0 1.000000 
cable_01
0 -7.594804 97.681000 50.256802 -0.959785 0.269596 -0.078299 0.873300 -0.296300 1 0 1.000000 
0 -3.558304 98.734901 53.822498 0.143701 0.673906 0.724707 0.875900 -0.282500 1 0 1.000000 
0 0.191895 108.663101 36.755600 0.213295 0.904178 0.370091 0.918800 -0.336100 1 0 1.000000 
cable_01
0 2.883996 104.594704 35.293301 0.966507 -0.248402 0.064500 0.901900 -0.341700 1 0 1.000000 
0 0.191895 108.663101 36.755600 0.213295 0.904178 0.370091 0.918800 -0.336100 1 0 1.000000 
0 -3.558304 98.734901 53.822498 0.143701 0.673906 0.724707 0.875900 -0.282500 1 0 1.000000 
cable_01
0 0.191895 108.663101 36.755600 0.213295 0.904178 0.370091 0.918800 -0.336100 1 0 1.000000 
0 2.883996 104.594704 35.293301 0.966507 -0.248402 0.064500 0.901900 -0.341700 1 0 1.000000 
0 3.855195 112.060600 6.638900 0.972174 -0.232994 0.024299 0.922800 -0.474200 1 0 1.000000 
cable_01
0 0.032795 109.688103 6.447700 -0.223901 -0.964004 -0.143401 0.915000 -0.475000 1 0 1.000000 
0 3.855195 112.060600 6.638900 0.972174 -0.232994 0.024299 0.922800 -0.474200 1 0 1.000000 
0 2.883996 104.594704 35.293301 0.966507 -0.248402 0.064500 0.901900 -0.341700 1 0 1.000000 
cable_01
0 3.855195 112.060600 6.638900 0.972174 -0.232994 0.024299 0.922800 -0.474200 1 0 1.000000 
0 0.032795 109.688103 6.447700 -0.223901 -0.964004 -0.143401 0.915000 -0.475000 1 0 1.000000 
0 0.158295 110.169296 -36.204201 -0.227998 -0.972593 -0.045600 0.913300 -0.640500 1 0 1.000000 
cable_01
0 -1.945205 113.532600 -35.524601 -0.973509 0.227002 0.027400 0.927200 -0.637900 1 0 1.000000 
0 0.158295 110.169296 -36.204201 -0.227998 -0.972593 -0.045600 0.913300 -0.640500 1 0 1.000000 
0 0.032795 109.688103 6.447700 -0.223901 -0.964004 -0.143401 0.915000 -0.475000 1 0 1.000000 
cable_01
0 -1.945205 113.532600 -35.524601 -0.973509 0.227002 0.027400 0.927200 -0.637900 1 0 1.000000 
0 -2.551005 117.474800 -77.459503 -0.971573 0.219294 0.089198 0.935600 -0.724300 1 0 1.000000 
0 0.158295 110.169296 -36.204201 -0.227998 -0.972593 -0.045600 0.913300 -0.640500 1 0 1.000000 
cable_01
0 -2.551005 117.474800 -77.459503 -0.971573 0.219294 0.089198 0.935600 -0.724300 1 0 1.000000 
0 -1.945205 113.532600 -35.524601 -0.973509 0.227002 0.027400 0.927200 -0.637900 1 0 1.000000 
0 0.573495 119.400398 -77.235901 0.227599 0.969596 0.089900 0.941900 -0.723400 1 0 1.000000 
cable_01
0 -2.551005 117.474800 -77.459503 -0.971573 0.219294 0.089198 0.935600 -0.724300 1 0 1.000000 
0 0.573495 119.400398 -77.235901 0.227599 0.969596 0.089900 0.941900 -0.723400 1 0 1.000000 
0 -4.940306 127.602097 -128.205002 -0.086395 0.982047 0.167691 0.999500 -0.997600 1 0 1.000000 
cable_01
0 -3.633405 125.493202 -128.659698 0.989539 0.103104 -0.100904 0.990800 -0.999400 1 0 1.000000 
0 -4.940306 127.602097 -128.205002 -0.086395 0.982047 0.167691 0.999500 -0.997600 1 0 1.000000 
0 0.573495 119.400398 -77.235901 0.227599 0.969596 0.089900 0.941900 -0.723400 1 0 1.000000 
cable_01
0 0.573495 119.400398 -77.235901 0.227599 0.969596 0.089900 0.941900 -0.723400 1 0 1.000000 
0 2.511295 116.315201 -77.878098 0.970210 -0.215802 -0.110101 0.929100 -0.725900 1 0 1.000000 
0 -3.633405 125.493202 -128.659698 0.989539 0.103104 -0.100904 0.990800 -0.999400 1 0 1.000000 
cable_01
0 -5.780605 124.170303 -128.695496 0.083998 -0.976779 -0.197096 0.986400 -0.999500 1 0 1.000000 
0 -3.633405 125.493202 -128.659698 0.989539 0.103104 -0.100904 0.990800 -0.999400 1 0 1.000000 
0 2.511295 116.315201 -77.878098 0.970210 -0.215802 -0.110101 0.929100 -0.725900 1 0 1.000000 
cable_01
0 -0.613405 114.389702 -78.101601 -0.229204 -0.967017 -0.111102 0.922800 -0.726700 1 0 1.000000 
0 0.158295 110.169296 -36.204201 -0.227998 -0.972593 -0.045600 0.913300 -0.640500 1 0 1.000000 
0 -2.551005 117.474800 -77.459503 -0.971573 0.219294 0.089198 0.935600 -0.724300 1 0 1.000000 
cable_01
0 0.158295 110.169296 -36.204201 -0.227998 -0.972593 -0.045600 0.913300 -0.640500 1 0 1.000000 
0 -0.613405 114.389702 -78.101601 -0.229204 -0.967017 -0.111102 0.922800 -0.726700 1 0 1.000000 
0 3.548195 112.265701 -35.960499 0.973294 -0.225799 -0.041400 0.920200 -0.639600 1 0 1.000000 
cable_01
0 0.158295 110.169296 -36.204201 -0.227998 -0.972593 -0.045600 0.913300 -0.640500 1 0 1.000000 
0 3.548195 112.265701 -35.960499 0.973294 -0.225799 -0.041400 0.920200 -0.639600 1 0 1.000000 
0 3.855195 112.060600 6.638900 0.972174 -0.232994 0.024299 0.922800 -0.474200 1 0 1.000000 
cable_01
0 1.497795 115.898201 6.779000 0.224995 0.966980 0.119697 0.938700 -0.473700 1 0 1.000000 
0 3.855195 112.060600 6.638900 0.972174 -0.232994 0.024299 0.922800 -0.474200 1 0 1.000000 
0 3.548195 112.265701 -35.960499 0.973294 -0.225799 -0.041400 0.920200 -0.639600 1 0 1.000000 
cable_01
0 3.855195 112.060600 6.638900 0.972174 -0.232994 0.024299 0.922800 -0.474200 1 0 1.000000 
0 1.497795 115.898201 6.779000 0.224995 0.966980 0.119697 0.938700 -0.473700 1 0 1.000000 
0 0.191895 108.663101 36.755600 0.213295 0.904178 0.370091 0.918800 -0.336100 1 0 1.000000 
cable_01
0 -4.007605 106.239899 35.052502 -0.963171 0.255792 -0.082897 0.910900 -0.342700 1 0 1.000000 
0 0.191895 108.663101 36.755600 0.213295 0.904178 0.370091 0.918800 -0.336100 1 0 1.000000 
0 1.497795 115.898201 6.779000 0.224995 0.966980 0.119697 0.938700 -0.473700 1 0 1.000000 
cable_01
0 0.191895 108.663101 36.755600 0.213295 0.904178 0.370091 0.918800 -0.336100 1 0 1.000000 
0 -4.007605 106.239899 35.052502 -0.963171 0.255792 -0.082897 0.910900 -0.342700 1 0 1.000000 
0 -7.594804 97.681000 50.256802 -0.959785 0.269596 -0.078299 0.873300 -0.296300 1 0 1.000000 
cable_01
0 -4.173204 95.094200 46.566200 -0.148299 -0.678796 -0.719196 0.861900 -0.310600 1 0 1.000000 
0 -7.594804 97.681000 50.256802 -0.959785 0.269596 -0.078299 0.873300 -0.296300 1 0 1.000000 
0 -4.007605 106.239899 35.052502 -0.963171 0.255792 -0.082897 0.910900 -0.342700 1 0 1.000000 
cable_01
0 -4.173204 95.094200 46.566200 -0.148299 -0.678796 -0.719196 0.861900 -0.310600 1 0 1.000000 
0 -6.271004 82.237099 54.199100 -0.077300 -0.307200 -0.948500 0.823100 -0.289600 1 0 1.000000 
0 -7.594804 97.681000 50.256802 -0.959785 0.269596 -0.078299 0.873300 -0.296300 1 0 1.000000 
cable_01
0 -6.271004 82.237099 54.199100 -0.077300 -0.307200 -0.948500 0.823100 -0.289600 1 0 1.000000 
0 -4.173204 95.094200 46.566200 -0.148299 -0.678796 -0.719196 0.861900 -0.310600 1 0 1.000000 
0 -2.309604 83.246696 57.671700 0.974329 -0.225007 0.007400 0.825500 -0.276200 1 0 1.000000 
cable_01
0 -6.271004 82.237099 54.199100 -0.077300 -0.307200 -0.948500 0.823100 -0.289600 1 0 1.000000 
0 -2.309604 83.246696 57.671700 0.974329 -0.225007 0.007400 0.825500 -0.276200 1 0 1.000000 
0 -4.138703 71.183998 58.959400 0.983525 -0.179304 -0.023001 0.779200 -0.271200 1 0 1.000000 
cable_01
0 -7.459503 71.263496 62.448299 0.013800 -0.054700 0.998407 0.780700 -0.257600 1 0 1.000000 
0 -4.138703 71.183998 58.959400 0.983525 -0.179304 -0.023001 0.779200 -0.271200 1 0 1.000000 
0 -2.309604 83.246696 57.671700 0.974329 -0.225007 0.007400 0.825500 -0.276200 1 0 1.000000 
cable_01
0 -7.459503 71.263496 62.448299 0.013800 -0.054700 0.998407 0.780700 -0.257600 1 0 1.000000 
0 -9.024503 56.957001 59.870201 -0.001000 -0.216496 0.976283 0.725500 -0.267600 1 0 1.000000 
0 -4.138703 71.183998 58.959400 0.983525 -0.179304 -0.023001 0.779200 -0.271200 1 0 1.000000 
cable_01
0 -9.024503 56.957001 59.870201 -0.001000 -0.216496 0.976283 0.725500 -0.267600 1 0 1.000000 
0 -7.459503 71.263496 62.448299 0.013800 -0.054700 0.998407 0.780700 -0.257600 1 0 1.000000 
0 -12.173803 57.660999 56.733799 -0.994779 0.100398 0.018300 0.729400 -0.279800 1 0 1.000000 
cable_01
0 -9.024503 56.957001 59.870201 -0.001000 -0.216496 0.976283 0.725500 -0.267600 1 0 1.000000 
0 -12.173803 57.660999 56.733799 -0.994779 0.100398 0.018300 0.729400 -0.279800 1 0 1.000000 
0 -15.867901 15.963399 46.254501 -0.996388 -0.084399 0.009300 0.568200 -0.353600 1 0 1.000000 
cable_01
0 -12.844201 16.963499 43.469398 0.016699 0.058298 -0.998159 0.571000 -0.364400 1 0 1.000000 
0 -15.867901 15.963399 46.254501 -0.996388 -0.084399 0.009300 0.568200 -0.353600 1 0 1.000000 
0 -12.173803 57.660999 56.733799 -0.994779 0.100398 0.018300 0.729400 -0.279800 1 0 1.000000 
cable_01
0 -15.867901 15.963399 46.254501 -0.996388 -0.084399 0.009300 0.568200 -0.353600 1 0 1.000000 
0 -12.844201 16.963499 43.469398 0.016699 0.058298 -0.998159 0.571000 -0.364400 1 0 1.000000 
0 -10.536500 -2.803101 47.039101 0.049798 -0.322487 -0.945263 0.493000 -0.365600 1 0 1.000000 
cable_01
0 -7.624600 -0.849400 50.001499 0.985305 0.163801 -0.048400 0.499600 -0.354100 1 0 1.000000 
0 -10.536500 -2.803101 47.039101 0.049798 -0.322487 -0.945263 0.493000 -0.365600 1 0 1.000000 
0 -12.844201 16.963499 43.469398 0.016699 0.058298 -0.998159 0.571000 -0.364400 1 0 1.000000 
cable_01
0 -5.021798 -46.611801 85.604897 0.093402 -0.651111 -0.753213 0.320100 -0.167700 1 0 1.000000 
0 -8.264798 -45.144798 87.931099 -0.990876 -0.133797 -0.016200 0.327000 -0.158700 1 0 1.000000 
0 -11.843999 -17.538700 58.703400 -0.986232 -0.160405 0.040201 0.436000 -0.320300 1 0 1.000000 
cable_01
0 -8.816599 -15.497300 61.717899 -0.051501 0.604916 0.794622 0.442900 -0.308600 1 0 1.000000 
0 -11.843999 -17.538700 58.703400 -0.986232 -0.160405 0.040201 0.436000 -0.320300 1 0 1.000000 
0 -8.264798 -45.144798 87.931099 -0.990876 -0.133797 -0.016200 0.327000 -0.158700 1 0 1.000000 
cable_01
0 -8.816599 -15.497300 61.717899 -0.051501 0.604916 0.794622 0.442900 -0.308600 1 0 1.000000 
0 -10.919700 0.517600 53.021599 -0.061599 0.356695 0.932188 0.506100 -0.342300 1 0 1.000000 
0 -11.843999 -17.538700 58.703400 -0.986232 -0.160405 0.040201 0.436000 -0.320300 1 0 1.000000 
cable_01
0 -10.919700 0.517600 53.021599 -0.061599 0.356695 0.932188 0.506100 -0.342300 1 0 1.000000 
0 -8.816599 -15.497300 61.717899 -0.051501 0.604916 0.794622 0.442900 -0.308600 1 0 1.000000 
0 -7.624600 -0.849400 50.001499 0.985305 0.163801 -0.048400 0.499600 -0.354100 1 0 1.000000 
cable_01
0 -10.919700 0.517600 53.021599 -0.061599 0.356695 0.932188 0.506100 -0.342300 1 0 1.000000 
0 -7.624600 -0.849400 50.001499 0.985305 0.163801 -0.048400 0.499600 -0.354100 1 0 1.000000 
0 -9.886501 15.892600 46.270199 0.994358 0.105496 -0.011100 0.565700 -0.353500 1 0 1.000000 
cable_01
0 -12.844201 16.963499 43.469398 0.016699 0.058298 -0.998159 0.571000 -0.364400 1 0 1.000000 
0 -9.886501 15.892600 46.270199 0.994358 0.105496 -0.011100 0.565700 -0.353500 1 0 1.000000 
0 -7.624600 -0.849400 50.001499 0.985305 0.163801 -0.048400 0.499600 -0.354100 1 0 1.000000 
cable_01
0 -9.886501 15.892600 46.270199 0.994358 0.105496 -0.011100 0.565700 -0.353500 1 0 1.000000 
0 -12.844201 16.963499 43.469398 0.016699 0.058298 -0.998159 0.571000 -0.364400 1 0 1.000000 
0 -9.071603 57.623402 53.445702 -0.002600 0.196904 -0.980419 0.728100 -0.292600 1 0 1.000000 
cable_01
0 -12.173803 57.660999 56.733799 -0.994779 0.100398 0.018300 0.729400 -0.279800 1 0 1.000000 
0 -9.071603 57.623402 53.445702 -0.002600 0.196904 -0.980419 0.728100 -0.292600 1 0 1.000000 
0 -12.844201 16.963499 43.469398 0.016699 0.058298 -0.998159 0.571000 -0.364400 1 0 1.000000 
cable_01
0 -12.173803 57.660999 56.733799 -0.994779 0.100398 0.018300 0.729400 -0.279800 1 0 1.000000 
0 -10.844003 71.989502 59.112400 -0.990100 0.137800 0.026700 0.784800 -0.270600 1 0 1.000000 
0 -9.071603 57.623402 53.445702 -0.002600 0.196904 -0.980419 0.728100 -0.292600 1 0 1.000000 
cable_01
0 -10.844003 71.989502 59.112400 -0.990100 0.137800 0.026700 0.784800 -0.270600 1 0 1.000000 
0 -12.173803 57.660999 56.733799 -0.994779 0.100398 0.018300 0.729400 -0.279800 1 0 1.000000 
0 -7.459503 71.263496 62.448299 0.013800 -0.054700 0.998407 0.780700 -0.257600 1 0 1.000000 
cable_01
0 -10.844003 71.989502 59.112400 -0.990100 0.137800 0.026700 0.784800 -0.270600 1 0 1.000000 
0 -7.459503 71.263496 62.448299 0.013800 -0.054700 0.998407 0.780700 -0.257600 1 0 1.000000 
0 -5.626604 85.905701 61.283699 0.073301 0.275105 0.958616 0.837100 -0.262100 1 0 1.000000 
cable_01
0 -2.309604 83.246696 57.671700 0.974329 -0.225007 0.007400 0.825500 -0.276200 1 0 1.000000 
0 -5.626604 85.905701 61.283699 0.073301 0.275105 0.958616 0.837100 -0.262100 1 0 1.000000 
0 -7.459503 71.263496 62.448299 0.013800 -0.054700 0.998407 0.780700 -0.257600 1 0 1.000000 
cable_01
0 -2.309604 83.246696 57.671700 0.974329 -0.225007 0.007400 0.825500 -0.276200 1 0 1.000000 
0 -0.145704 96.136101 50.114201 0.958923 -0.273407 0.075602 0.864500 -0.296900 1 0 1.000000 
0 -5.626604 85.905701 61.283699 0.073301 0.275105 0.958616 0.837100 -0.262100 1 0 1.000000 
cable_01
0 -0.145704 96.136101 50.114201 0.958923 -0.273407 0.075602 0.864500 -0.296900 1 0 1.000000 
0 -2.309604 83.246696 57.671700 0.974329 -0.225007 0.007400 0.825500 -0.276200 1 0 1.000000 
0 -4.173204 95.094200 46.566200 -0.148299 -0.678796 -0.719196 0.861900 -0.310600 1 0 1.000000 
cable_01
0 -0.145704 96.136101 50.114201 0.958923 -0.273407 0.075602 0.864500 -0.296900 1 0 1.000000 
0 -4.173204 95.094200 46.566200 -0.148299 -0.678796 -0.719196 0.861900 -0.310600 1 0 1.000000 
0 -1.315504 102.171501 33.590199 -0.213904 -0.899318 -0.381408 0.894000 -0.348300 1 0 1.000000 
cable_01
0 -4.007605 106.239899 35.052502 -0.963171 0.255792 -0.082897 0.910900 -0.342700 1 0 1.000000 
0 -1.315504 102.171501 33.590199 -0.213904 -0.899318 -0.381408 0.894000 -0.348300 1 0 1.000000 
0 -4.173204 95.094200 46.566200 -0.148299 -0.678796 -0.719196 0.861900 -0.310600 1 0 1.000000 
cable_01
0 -1.315504 102.171501 33.590199 -0.213904 -0.899318 -0.381408 0.894000 -0.348300 1 0 1.000000 
0 -4.007605 106.239899 35.052502 -0.963171 0.255792 -0.082897 0.910900 -0.342700 1 0 1.000000 
0 -2.324605 113.525703 6.587800 -0.970703 0.235801 -0.046200 0.930900 -0.474400 1 0 1.000000 
cable_01
0 1.497795 115.898201 6.779000 0.224995 0.966980 0.119697 0.938700 -0.473700 1 0 1.000000 
0 -2.324605 113.525703 6.587800 -0.970703 0.235801 -0.046200 0.930900 -0.474400 1 0 1.000000 
0 -4.007605 106.239899 35.052502 -0.963171 0.255792 -0.082897 0.910900 -0.342700 1 0 1.000000 
cable_01
0 -2.324605 113.525703 6.587800 -0.970703 0.235801 -0.046200 0.930900 -0.474400 1 0 1.000000 
0 1.497795 115.898201 6.779000 0.224995 0.966980 0.119697 0.938700 -0.473700 1 0 1.000000 
0 1.445695 115.629898 -35.280800 0.227707 0.973230 0.031201 0.934100 -0.636900 1 0 1.000000 
cable_01
0 3.548195 112.265701 -35.960499 0.973294 -0.225799 -0.041400 0.920200 -0.639600 1 0 1.000000 
0 1.445695 115.629898 -35.280800 0.227707 0.973230 0.031201 0.934100 -0.636900 1 0 1.000000 
0 1.497795 115.898201 6.779000 0.224995 0.966980 0.119697 0.938700 -0.473700 1 0 1.000000 
cable_01
0 -2.343398 -44.217499 87.951599 0.991905 0.124901 0.022900 0.328400 -0.158600 1 0 1.000000 
0 -5.021798 -46.611801 85.604897 0.093402 -0.651111 -0.753213 0.320100 -0.167700 1 0 1.000000 
0 -8.588599 -18.904800 55.583302 0.050899 -0.608287 -0.792083 0.429500 -0.332400 1 0 1.000000 
cable_01
0 -11.843999 -17.538700 58.703400 -0.986232 -0.160405 0.040201 0.436000 -0.320300 1 0 1.000000 
0 -8.588599 -18.904800 55.583302 0.050899 -0.608287 -0.792083 0.429500 -0.332400 1 0 1.000000 
0 -5.021798 -46.611801 85.604897 0.093402 -0.651111 -0.753213 0.320100 -0.167700 1 0 1.000000 
cable_01
0 -11.843999 -17.538700 58.703400 -0.986232 -0.160405 0.040201 0.436000 -0.320300 1 0 1.000000 
0 -13.813700 -1.423901 50.081200 -0.988684 -0.143598 0.043399 0.499600 -0.353800 1 0 1.000000 
0 -8.588599 -18.904800 55.583302 0.050899 -0.608287 -0.792083 0.429500 -0.332400 1 0 1.000000 
cable_01
0 -13.813700 -1.423901 50.081200 -0.988684 -0.143598 0.043399 0.499600 -0.353800 1 0 1.000000 
0 -11.843999 -17.538700 58.703400 -0.986232 -0.160405 0.040201 0.436000 -0.320300 1 0 1.000000 
0 -10.919700 0.517600 53.021599 -0.061599 0.356695 0.932188 0.506100 -0.342300 1 0 1.000000 
cable_01
0 -13.813700 -1.423901 50.081200 -0.988684 -0.143598 0.043399 0.499600 -0.353800 1 0 1.000000 
0 -10.919700 0.517600 53.021599 -0.061599 0.356695 0.932188 0.506100 -0.342300 1 0 1.000000 
0 -12.910201 14.892399 49.055401 -0.026399 -0.031698 0.999149 0.562900 -0.342700 1 0 1.000000 
cable_01
0 -9.886501 15.892600 46.270199 0.994358 0.105496 -0.011100 0.565700 -0.353500 1 0 1.000000 
0 -12.910201 14.892399 49.055401 -0.026399 -0.031698 0.999149 0.562900 -0.342700 1 0 1.000000 
0 -10.919700 0.517600 53.021599 -0.061599 0.356695 0.932188 0.506100 -0.342300 1 0 1.000000 
cable_01
0 -12.910201 14.892399 49.055401 -0.026399 -0.031698 0.999149 0.562900 -0.342700 1 0 1.000000 
0 -9.886501 15.892600 46.270199 0.994358 0.105496 -0.011100 0.565700 -0.353500 1 0 1.000000 
0 -5.922602 56.919601 56.581501 0.992600 -0.119700 -0.020400 0.724200 -0.280400 1 0 1.000000 
cable_01
0 -9.071603 57.623402 53.445702 -0.002600 0.196904 -0.980419 0.728100 -0.292600 1 0 1.000000 
0 -5.922602 56.919601 56.581501 0.992600 -0.119700 -0.020400 0.724200 -0.280400 1 0 1.000000 
0 -9.886501 15.892600 46.270199 0.994358 0.105496 -0.011100 0.565700 -0.353500 1 0 1.000000 
cable_01
0 -9.071603 57.623402 53.445702 -0.002600 0.196904 -0.980419 0.728100 -0.292600 1 0 1.000000 
0 -7.526703 71.941101 55.585701 -0.020800 0.013300 -0.999695 0.783400 -0.284300 1 0 1.000000 
0 -5.922602 56.919601 56.581501 0.992600 -0.119700 -0.020400 0.724200 -0.280400 1 0 1.000000 
cable_01
0 -7.526703 71.941101 55.585701 -0.020800 0.013300 -0.999695 0.783400 -0.284300 1 0 1.000000 
0 -9.071603 57.623402 53.445702 -0.002600 0.196904 -0.980419 0.728100 -0.292600 1 0 1.000000 
0 -10.844003 71.989502 59.112400 -0.990100 0.137800 0.026700 0.784800 -0.270600 1 0 1.000000 
cable_01
0 -7.526703 71.941101 55.585701 -0.020800 0.013300 -0.999695 0.783400 -0.284300 1 0 1.000000 
0 -10.844003 71.989502 59.112400 -0.990100 0.137800 0.026700 0.784800 -0.270600 1 0 1.000000 
0 -9.596304 84.889702 57.785599 -0.980921 0.194404 -0.000900 0.834700 -0.275700 1 0 1.000000 
cable_01
0 -5.626604 85.905701 61.283699 0.073301 0.275105 0.958616 0.837100 -0.262100 1 0 1.000000 
0 -9.596304 84.889702 57.785599 -0.980921 0.194404 -0.000900 0.834700 -0.275700 1 0 1.000000 
0 -10.844003 71.989502 59.112400 -0.990100 0.137800 0.026700 0.784800 -0.270600 1 0 1.000000 
cable_01
0 -5.626604 85.905701 61.283699 0.073301 0.275105 0.958616 0.837100 -0.262100 1 0 1.000000 
0 -3.558304 98.734901 53.822498 0.143701 0.673906 0.724707 0.875900 -0.282500 1 0 1.000000 
0 -9.596304 84.889702 57.785599 -0.980921 0.194404 -0.000900 0.834700 -0.275700 1 0 1.000000 
cable_01
0 -3.558304 98.734901 53.822498 0.143701 0.673906 0.724707 0.875900 -0.282500 1 0 1.000000 
0 -5.626604 85.905701 61.283699 0.073301 0.275105 0.958616 0.837100 -0.262100 1 0 1.000000 
0 -0.145704 96.136101 50.114201 0.958923 -0.273407 0.075602 0.864500 -0.296900 1 0 1.000000 
cable_01
0 -3.558304 98.734901 53.822498 0.143701 0.673906 0.724707 0.875900 -0.282500 1 0 1.000000 
0 -0.145704 96.136101 50.114201 0.958923 -0.273407 0.075602 0.864500 -0.296900 1 0 1.000000 
0 2.883996 104.594704 35.293301 0.966507 -0.248402 0.064500 0.901900 -0.341700 1 0 1.000000 
cable_01
0 -1.315504 102.171501 33.590199 -0.213904 -0.899318 -0.381408 0.894000 -0.348300 1 0 1.000000 
0 2.883996 104.594704 35.293301 0.966507 -0.248402 0.064500 0.901900 -0.341700 1 0 1.000000 
0 -0.145704 96.136101 50.114201 0.958923 -0.273407 0.075602 0.864500 -0.296900 1 0 1.000000 
cable_01
0 2.883996 104.594704 35.293301 0.966507 -0.248402 0.064500 0.901900 -0.341700 1 0 1.000000 
0 -1.315504 102.171501 33.590199 -0.213904 -0.899318 -0.381408 0.894000 -0.348300 1 0 1.000000 
0 0.032795 109.688103 6.447700 -0.223901 -0.964004 -0.143401 0.915000 -0.475000 1 0 1.000000 
cable_01
0 -2.324605 113.525703 6.587800 -0.970703 0.235801 -0.046200 0.930900 -0.474400 1 0 1.000000 
0 0.032795 109.688103 6.447700 -0.223901 -0.964004 -0.143401 0.915000 -0.475000 1 0 1.000000 
0 -1.315504 102.171501 33.590199 -0.213904 -0.899318 -0.381408 0.894000 -0.348300 1 0 1.000000 
cable_01
0 5.911506 -127.149101 125.552902 -0.951689 -0.077599 0.297097 0.001900 -0.012700 1 0 1.000000 
0 9.044605 -126.076103 128.695404 0.284981 0.287381 0.914439 0.004900 -0.000500 1 0 1.000000 
0 0.896803 -78.589401 116.320000 -0.075000 0.418100 0.905300 0.193200 -0.048500 1 0 1.000000 
cable_01
0 3.754004 -79.131798 113.678001 0.992189 0.121299 0.029100 0.190000 -0.058800 1 0 1.000000 
0 0.896803 -78.589401 116.320000 -0.075000 0.418100 0.905300 0.193200 -0.048500 1 0 1.000000 
0 9.044605 -126.076103 128.695404 0.284981 0.287381 0.914439 0.004900 -0.000500 1 0 1.000000 
cable_01
0 9.044605 -126.076103 128.695404 0.284981 0.287381 0.914439 0.004900 -0.000500 1 0 1.000000 
0 12.285605 -126.123596 125.480400 0.948678 0.094498 -0.301793 0.003500 -0.013000 1 0 1.000000 
0 3.754004 -79.131798 113.678001 0.992189 0.121299 0.029100 0.190000 -0.058800 1 0 1.000000 
cable_01
0 1.300804 -80.639397 110.963997 0.074500 -0.414701 -0.906903 0.185000 -0.069300 1 0 1.000000 
0 3.754004 -79.131798 113.678001 0.992189 0.121299 0.029100 0.190000 -0.058800 1 0 1.000000 
0 12.285605 -126.123596 125.480400 0.948678 0.094498 -0.301793 0.003500 -0.013000 1 0 1.000000 
cable_01
0 12.285605 -126.123596 125.480400 0.948678 0.094498 -0.301793 0.003500 -0.013000 1 0 1.000000 
0 9.152506 -127.196602 122.337898 -0.287182 -0.272683 -0.918243 0.000500 -0.025200 1 0 1.000000 
0 1.300804 -80.639397 110.963997 0.074500 -0.414701 -0.906903 0.185000 -0.069300 1 0 1.000000 
cable_01
0 -1.556497 -80.097000 113.606003 -0.992782 -0.116398 -0.028899 0.188200 -0.059100 1 0 1.000000 
0 1.300804 -80.639397 110.963997 0.074500 -0.414701 -0.906903 0.185000 -0.069300 1 0 1.000000 
0 9.152506 -127.196602 122.337898 -0.287182 -0.272683 -0.918243 0.000500 -0.025200 1 0 1.000000 
cable_01
0 9.152506 -127.196602 122.337898 -0.287182 -0.272683 -0.918243 0.000500 -0.025200 1 0 1.000000 
0 5.911506 -127.149101 125.552902 -0.951689 -0.077599 0.297097 0.001900 -0.012700 1 0 1.000000 
0 -1.556497 -80.097000 113.606003 -0.992782 -0.116398 -0.028899 0.188200 -0.059100 1 0 1.000000 
cable_01
0 0.896803 -78.589401 116.320000 -0.075000 0.418100 0.905300 0.193200 -0.048500 1 0 1.000000 
0 -1.556497 -80.097000 113.606003 -0.992782 -0.116398 -0.028899 0.188200 -0.059100 1 0 1.000000 
0 5.911506 -127.149101 125.552902 -0.951689 -0.077599 0.297097 0.001900 -0.012700 1 0 1.000000 
cable_01
0 -1.556497 -80.097000 113.606003 -0.992782 -0.116398 -0.028899 0.188200 -0.059100 1 0 1.000000 
0 0.896803 -78.589401 116.320000 -0.075000 0.418100 0.905300 0.193200 -0.048500 1 0 1.000000 
0 -5.586398 -42.750599 90.277802 -0.091701 0.642108 0.761110 0.335400 -0.149600 1 0 1.000000 
cable_01
0 -2.343398 -44.217499 87.951599 0.991905 0.124901 0.022900 0.328400 -0.158600 1 0 1.000000 
0 -5.586398 -42.750599 90.277802 -0.091701 0.642108 0.761110 0.335400 -0.149600 1 0 1.000000 
0 0.896803 -78.589401 116.320000 -0.075000 0.418100 0.905300 0.193200 -0.048500 1 0 1.000000 
cable_01
0 -5.586398 -42.750599 90.277802 -0.091701 0.642108 0.761110 0.335400 -0.149600 1 0 1.000000 
0 -2.343398 -44.217499 87.951599 0.991905 0.124901 0.022900 0.328400 -0.158600 1 0 1.000000 
0 -5.560699 -16.862700 58.598400 0.986867 0.157195 -0.037199 0.436300 -0.320700 1 0 1.000000 
cable_01
0 -8.588599 -18.904800 55.583302 0.050899 -0.608287 -0.792083 0.429500 -0.332400 1 0 1.000000 
0 -5.560699 -16.862700 58.598400 0.986867 0.157195 -0.037199 0.436300 -0.320700 1 0 1.000000 
0 -2.343398 -44.217499 87.951599 0.991905 0.124901 0.022900 0.328400 -0.158600 1 0 1.000000 
cable_01
0 -8.588599 -18.904800 55.583302 0.050899 -0.608287 -0.792083 0.429500 -0.332400 1 0 1.000000 
0 -10.536500 -2.803101 47.039101 0.049798 -0.322487 -0.945263 0.493000 -0.365600 1 0 1.000000 
0 -5.560699 -16.862700 58.598400 0.986867 0.157195 -0.037199 0.436300 -0.320700 1 0 1.000000 
cable_01
0 -10.536500 -2.803101 47.039101 0.049798 -0.322487 -0.945263 0.493000 -0.365600 1 0 1.000000 
0 -8.588599 -18.904800 55.583302 0.050899 -0.608287 -0.792083 0.429500 -0.332400 1 0 1.000000 
0 -13.813700 -1.423901 50.081200 -0.988684 -0.143598 0.043399 0.499600 -0.353800 1 0 1.000000 
cable_01
0 -10.536500 -2.803101 47.039101 0.049798 -0.322487 -0.945263 0.493000 -0.365600 1 0 1.000000 
0 -13.813700 -1.423901 50.081200 -0.988684 -0.143598 0.043399 0.499600 -0.353800 1 0 1.000000 
0 -15.867901 15.963399 46.254501 -0.996388 -0.084399 0.009300 0.568200 -0.353600 1 0 1.000000 
cable_01
0 -12.910201 14.892399 49.055401 -0.026399 -0.031698 0.999149 0.562900 -0.342700 1 0 1.000000 
0 -15.867901 15.963399 46.254501 -0.996388 -0.084399 0.009300 0.568200 -0.353600 1 0 1.000000 
0 -13.813700 -1.423901 50.081200 -0.988684 -0.143598 0.043399 0.499600 -0.353800 1 0 1.000000 
cable_01
0 -15.867901 15.963399 46.254501 -0.996388 -0.084399 0.009300 0.568200 -0.353600 1 0 1.000000 
0 -12.910201 14.892399 49.055401 -0.026399 -0.031698 0.999149 0.562900 -0.342700 1 0 1.000000 
0 -9.024503 56.957001 59.870201 -0.001000 -0.216496 0.976283 0.725500 -0.267600 1 0 1.000000 
cable_01
0 -5.922602 56.919601 56.581501 0.992600 -0.119700 -0.020400 0.724200 -0.280400 1 0 1.000000 
0 -9.024503 56.957001 59.870201 -0.001000 -0.216496 0.976283 0.725500 -0.267600 1 0 1.000000 
0 -12.910201 14.892399 49.055401 -0.026399 -0.031698 0.999149 0.562900 -0.342700 1 0 1.000000 
cable_01
0 -7.624600 -0.849400 50.001499 0.985305 0.163801 -0.048400 0.499600 -0.354100 1 0 1.000000 
0 -5.560699 -16.862700 58.598400 0.986867 0.157195 -0.037199 0.436300 -0.320700 1 0 1.000000 
0 -10.536500 -2.803101 47.039101 0.049798 -0.322487 -0.945263 0.493000 -0.365600 1 0 1.000000 
cable_01
0 -5.560699 -16.862700 58.598400 0.986867 0.157195 -0.037199 0.436300 -0.320700 1 0 1.000000 
0 -7.624600 -0.849400 50.001499 0.985305 0.163801 -0.048400 0.499600 -0.354100 1 0 1.000000 
0 -8.816599 -15.497300 61.717899 -0.051501 0.604916 0.794622 0.442900 -0.308600 1 0 1.000000 
cable_01
0 -5.560699 -16.862700 58.598400 0.986867 0.157195 -0.037199 0.436300 -0.320700 1 0 1.000000 
0 -8.816599 -15.497300 61.717899 -0.051501 0.604916 0.794622 0.442900 -0.308600 1 0 1.000000 
0 -5.586398 -42.750599 90.277802 -0.091701 0.642108 0.761110 0.335400 -0.149600 1 0 1.000000 
cable_01
0 -8.264798 -45.144798 87.931099 -0.990876 -0.133797 -0.016200 0.327000 -0.158700 1 0 1.000000 
0 -5.586398 -42.750599 90.277802 -0.091701 0.642108 0.761110 0.335400 -0.149600 1 0 1.000000 
0 -8.816599 -15.497300 61.717899 -0.051501 0.604916 0.794622 0.442900 -0.308600 1 0 1.000000 
cable_01
0 -5.586398 -42.750599 90.277802 -0.091701 0.642108 0.761110 0.335400 -0.149600 1 0 1.000000 
0 -8.264798 -45.144798 87.931099 -0.990876 -0.133797 -0.016200 0.327000 -0.158700 1 0 1.000000 
0 -1.556497 -80.097000 113.606003 -0.992782 -0.116398 -0.028899 0.188200 -0.059100 1 0 1.000000 
cable_01
0 1.300804 -80.639397 110.963997 0.074500 -0.414701 -0.906903 0.185000 -0.069300 1 0 1.000000 
0 -1.556497 -80.097000 113.606003 -0.992782 -0.116398 -0.028899 0.188200 -0.059100 1 0 1.000000 
0 -8.264798 -45.144798 87.931099 -0.990876 -0.133797 -0.016200 0.327000 -0.158700 1 0 1.000000 
cable_01
0 -8.264798 -45.144798 87.931099 -0.990876 -0.133797 -0.016200 0.327000 -0.158700 1 0 1.000000 
0 -5.021798 -46.611801 85.604897 0.093402 -0.651111 -0.753213 0.320100 -0.167700 1 0 1.000000 
0 1.300804 -80.639397 110.963997 0.074500 -0.414701 -0.906903 0.185000 -0.069300 1 0 1.000000 
cable_01
0 3.754004 -79.131798 113.678001 0.992189 0.121299 0.029100 0.190000 -0.058800 1 0 1.000000 
0 1.300804 -80.639397 110.963997 0.074500 -0.414701 -0.906903 0.185000 -0.069300 1 0 1.000000 
0 -5.021798 -46.611801 85.604897 0.093402 -0.651111 -0.753213 0.320100 -0.167700 1 0 1.000000 
cable_01
0 -5.021798 -46.611801 85.604897 0.093402 -0.651111 -0.753213 0.320100 -0.167700 1 0 1.000000 
0 -2.343398 -44.217499 87.951599 0.991905 0.124901 0.022900 0.328400 -0.158600 1 0 1.000000 
0 3.754004 -79.131798 113.678001 0.992189 0.121299 0.029100 0.190000 -0.058800 1 0 1.000000 
cable_01
0 0.896803 -78.589401 116.320000 -0.075000 0.418100 0.905300 0.193200 -0.048500 1 0 1.000000 
0 3.754004 -79.131798 113.678001 0.992189 0.121299 0.029100 0.190000 -0.058800 1 0 1.000000 
0 -2.343398 -44.217499 87.951599 0.991905 0.124901 0.022900 0.328400 -0.158600 1 0 1.000000 
end
