version 1
nodes
  0 "static_prop" -1
end
skeleton
time 0
  0 0.000000 0.000000 0.000000 0.000000 0.000000 0.000000
end
triangles
pipesystem001b.bmp
0 573.195007 3.622425 22.529900 -0.105502 -0.002700 0.994415 0.975300 -0.012700
0 569.911072 7.505425 22.206400 -0.099097 -0.004200 0.995069 0.949400 -0.013100
0 570.004089 4.518625 22.202999 -0.094998 -0.001200 0.995477 0.968900 -0.012700
pipesystem001b.bmp
0 564.576416 11.718824 21.714500 -0.093601 0.000300 0.995610 0.923000 -0.013900
0 570.004089 4.518625 22.202999 -0.094998 -0.001200 0.995477 0.968900 -0.012700
0 569.911072 7.505425 22.206400 -0.099097 -0.004200 0.995069 0.949400 -0.013100
pipesystem001b.bmp
0 564.708008 6.777325 21.739401 -0.092204 0.002000 0.995738 0.953100 -0.012900
0 570.004089 4.518625 22.202999 -0.094998 -0.001200 0.995477 0.968900 -0.012700
0 564.576416 11.718824 21.714500 -0.093601 0.000300 0.995610 0.923000 -0.013900
pipesystem001b.bmp
0 556.629517 17.372625 20.904499 -0.102196 0.004000 0.994756 0.891900 -0.015500
0 564.708008 6.777325 21.739401 -0.092204 0.002000 0.995738 0.953100 -0.012900
0 564.576416 11.718824 21.714500 -0.093601 0.000300 0.995610 0.923000 -0.013900
pipesystem001b.bmp
0 564.708008 6.777325 21.739401 -0.092204 0.002000 0.995738 0.953100 -0.012900
0 556.629517 17.372625 20.904499 -0.102196 0.004000 0.994756 0.891900 -0.015500
0 556.914673 9.790825 20.970400 -0.106204 0.002300 0.994342 0.932200 -0.013300
pipesystem001b.bmp
0 544.865906 25.790724 19.556200 -0.113800 0.002300 0.993501 0.855600 -0.018700
0 556.914673 9.790825 20.970400 -0.106204 0.002300 0.994342 0.932200 -0.013300
0 556.629517 17.372625 20.904499 -0.102196 0.004000 0.994756 0.891900 -0.015500
pipesystem001b.bmp
0 544.630981 15.403924 19.540800 -0.116598 0.000600 0.993179 0.896100 -0.014500
0 556.914673 9.790825 20.970400 -0.106204 0.002300 0.994342 0.932200 -0.013300
0 544.865906 25.790724 19.556200 -0.113800 0.002300 0.993501 0.855600 -0.018700
pipesystem001b.bmp
0 530.414429 36.100822 17.860600 -0.116104 -0.000100 0.993237 0.825200 -0.023800
0 544.630981 15.403924 19.540800 -0.116598 0.000600 0.993179 0.896100 -0.014500
0 544.865906 25.790724 19.556200 -0.113800 0.002300 0.993501 0.855600 -0.018700
pipesystem001b.bmp
0 544.630981 15.403924 19.540800 -0.116598 0.000600 0.993179 0.896100 -0.014500
0 530.414429 36.100822 17.860600 -0.116104 -0.000100 0.993237 0.825200 -0.023800
0 529.806274 20.229122 17.779100 -0.116104 -0.000400 0.993237 0.867400 -0.016100
pipesystem001b.bmp
0 513.817383 47.538124 15.959800 -0.112999 -0.000800 0.993595 0.803400 -0.030400
0 529.806274 20.229122 17.779100 -0.116104 -0.000400 0.993237 0.867400 -0.016100
0 530.414429 36.100822 17.860600 -0.116104 -0.000100 0.993237 0.825200 -0.023800
pipesystem001b.bmp
0 513.023804 26.961823 15.854100 -0.112100 -0.000500 0.993697 0.837200 -0.019100
0 529.806274 20.229122 17.779100 -0.116104 -0.000400 0.993237 0.867400 -0.016100
0 513.817383 47.538124 15.959800 -0.112999 -0.000800 0.993595 0.803400 -0.030400
pipesystem001b.bmp
0 495.337311 59.323124 13.912700 -0.109301 -0.000700 0.994008 0.788200 -0.038200
0 513.023804 26.961823 15.854100 -0.112100 -0.000500 0.993697 0.837200 -0.019100
0 513.817383 47.538124 15.959800 -0.112999 -0.000800 0.993595 0.803400 -0.030400
pipesystem001b.bmp
0 513.023804 26.961823 15.854100 -0.112100 -0.000500 0.993697 0.837200 -0.019100
0 495.337311 59.323124 13.912700 -0.109301 -0.000700 0.994008 0.788200 -0.038200
0 494.546112 32.087723 13.807200 -0.108005 -0.000300 0.994150 0.817200 -0.022100
pipesystem001b.bmp
0 474.379913 71.067223 11.664900 -0.106402 -0.000300 0.994323 0.777200 -0.046900
0 494.546112 32.087723 13.807200 -0.108005 -0.000300 0.994150 0.817200 -0.022100
0 495.337311 59.323124 13.912700 -0.109301 -0.000700 0.994008 0.788200 -0.038200
pipesystem001b.bmp
0 473.406311 38.672318 11.558200 -0.105799 -0.000000 0.994388 0.798500 -0.026500
0 494.546112 32.087723 13.807200 -0.108005 -0.000300 0.994150 0.817200 -0.022100
0 474.379913 71.067223 11.664900 -0.106402 -0.000300 0.994323 0.777200 -0.046900
pipesystem001b.bmp
0 451.048706 82.827126 9.169200 -0.106501 0.000200 0.994313 0.768700 -0.056800
0 473.406311 38.672318 11.558200 -0.105799 -0.000000 0.994388 0.798500 -0.026500
0 474.379913 71.067223 11.664900 -0.106402 -0.000300 0.994323 0.777200 -0.046900
pipesystem001b.bmp
0 473.406311 38.672318 11.558200 -0.105799 -0.000000 0.994388 0.798500 -0.026500
0 451.048706 82.827126 9.169200 -0.106501 0.000200 0.994313 0.768700 -0.056800
0 450.001099 43.824818 9.068800 -0.106897 0.000100 0.994270 0.784600 -0.030800
pipesystem001b.bmp
0 425.062500 94.489616 6.358300 -0.107204 -0.000000 0.994237 0.761700 -0.068000
0 450.001099 43.824818 9.068800 -0.106897 0.000100 0.994270 0.784600 -0.030800
0 451.048706 82.827126 9.169200 -0.106501 0.000200 0.994313 0.768700 -0.056800
pipesystem001b.bmp
0 423.583588 50.516819 6.192800 -0.107501 -0.000200 0.994205 0.771300 -0.037100
0 450.001099 43.824818 9.068800 -0.106897 0.000100 0.994270 0.784600 -0.030800
0 425.062500 94.489616 6.358300 -0.107204 -0.000000 0.994237 0.761700 -0.068000
pipesystem001b.bmp
0 397.604797 105.108116 3.431700 -0.104700 -0.000500 0.994504 0.756100 -0.080100
0 423.583588 50.516819 6.192800 -0.107501 -0.000200 0.994205 0.771300 -0.037100
0 425.062500 94.489616 6.358300 -0.107204 -0.000000 0.994237 0.761700 -0.068000
pipesystem001b.bmp
0 423.583588 50.516819 6.192800 -0.107501 -0.000200 0.994205 0.771300 -0.037100
0 397.604797 105.108116 3.431700 -0.104700 -0.000500 0.994504 0.756100 -0.080100
0 395.791901 54.694618 3.207600 -0.103701 -0.000400 0.994608 0.761100 -0.042600
pipesystem001b.bmp
0 369.654907 113.533813 0.597600 -0.098999 -0.000700 0.995087 0.751700 -0.092100
0 395.791901 54.694618 3.207600 -0.103701 -0.000400 0.994608 0.761100 -0.042600
0 397.604797 105.108116 3.431700 -0.104700 -0.000500 0.994504 0.756100 -0.080100
pipesystem001b.bmp
0 367.611603 58.788815 0.356900 -0.097602 -0.000500 0.995225 0.752600 -0.049000
0 395.791901 54.694618 3.207600 -0.103701 -0.000400 0.994608 0.761100 -0.042600
0 369.654907 113.533813 0.597600 -0.098999 -0.000700 0.995087 0.751700 -0.092100
pipesystem001b.bmp
0 342.003815 120.352013 -2.043100 -0.092699 -0.000800 0.995694 0.748100 -0.104400
0 367.611603 58.788815 0.356900 -0.097602 -0.000500 0.995225 0.752600 -0.049000
0 369.654907 113.533813 0.597600 -0.098999 -0.000700 0.995087 0.751700 -0.092100
pipesystem001b.bmp
0 367.611603 58.788815 0.356900 -0.097602 -0.000500 0.995225 0.752600 -0.049000
0 342.003815 120.352013 -2.043100 -0.092699 -0.000800 0.995694 0.748100 -0.104400
0 339.911987 61.432915 -2.286200 -0.090698 -0.000500 0.995878 0.745600 -0.055100
pipesystem001b.bmp
0 314.072693 126.053513 -4.498800 -0.085702 -0.000700 0.996321 0.745100 -0.117600
0 339.911987 61.432915 -2.286200 -0.090698 -0.000500 0.995878 0.745600 -0.055100
0 342.003815 120.352013 -2.043100 -0.092699 -0.000800 0.995694 0.748100 -0.104400
pipesystem001b.bmp
0 312.892792 64.389015 -4.634600 -0.084196 -0.000400 0.996449 0.740100 -0.062500
0 339.911987 61.432915 -2.286200 -0.090698 -0.000500 0.995878 0.745600 -0.055100
0 314.072693 126.053513 -4.498800 -0.085702 -0.000700 0.996321 0.745100 -0.117600
pipesystem001b.bmp
0 281.807892 131.247910 -7.173600 -0.081100 -0.000400 0.996706 0.742000 -0.134000
0 312.892792 64.389015 -4.634600 -0.084196 -0.000400 0.996449 0.740100 -0.062500
0 314.072693 126.053513 -4.498800 -0.085702 -0.000700 0.996321 0.745100 -0.117600
pipesystem001b.bmp
0 312.892792 64.389015 -4.634600 -0.084196 -0.000400 0.996449 0.740100 -0.062500
0 281.807892 131.247910 -7.173600 -0.081100 -0.000400 0.996706 0.742000 -0.134000
0 281.623291 66.584518 -7.211900 -0.080496 -0.000400 0.996755 0.734300 -0.071400
pipesystem001b.bmp
0 240.642899 136.088516 -10.406900 -0.076100 -0.000900 0.997100 0.738600 -0.157800
0 281.623291 66.584518 -7.211900 -0.080496 -0.000400 0.996755 0.734300 -0.071400
0 281.807892 131.247910 -7.173600 -0.081100 -0.000400 0.996706 0.742000 -0.134000
pipesystem001b.bmp
0 305.467407 0.000013 -5.261500 -0.082797 -0.000000 0.996566 0.500000 -0.004700
0 281.623291 66.584518 -7.211900 -0.080496 -0.000400 0.996755 0.734300 -0.071400
0 271.909393 0.000012 -8.010100 -0.079801 -0.000000 0.996811 0.500000 -0.008300
pipesystem001b.bmp
0 312.892792 64.389015 -4.634600 -0.084196 -0.000400 0.996449 0.740100 -0.062500
0 281.623291 66.584518 -7.211900 -0.080496 -0.000400 0.996755 0.734300 -0.071400
0 305.467407 0.000013 -5.261500 -0.082797 -0.000000 0.996566 0.500000 -0.004700
pipesystem001b.bmp
0 332.733185 0.000015 -2.945500 -0.088101 -0.000000 0.996112 0.500000 -0.002200
0 312.892792 64.389015 -4.634600 -0.084196 -0.000400 0.996449 0.740100 -0.062500
0 305.467407 0.000013 -5.261500 -0.082797 -0.000000 0.996566 0.500000 -0.004700
pipesystem001b.bmp
0 312.892792 64.389015 -4.634600 -0.084196 -0.000400 0.996449 0.740100 -0.062500
0 332.733185 0.000015 -2.945500 -0.088101 -0.000000 0.996112 0.500000 -0.002200
0 339.911987 61.432915 -2.286200 -0.090698 -0.000500 0.995878 0.745600 -0.055100
pipesystem001b.bmp
0 388.226593 0.000017 2.412600 -0.101801 -0.000000 0.994805 0.000000 -0.002400
0 367.611603 58.788815 0.356900 -0.097602 -0.000500 0.995225 -0.247400 -0.049000
0 359.990112 0.000016 -0.396900 -0.095701 -0.000000 0.995410 0.000000 -0.000200
pipesystem001b.bmp
0 367.611603 58.788815 0.356900 -0.097602 -0.000500 0.995225 -0.247400 -0.049000
0 339.911987 61.432915 -2.286200 -0.090698 -0.000500 0.995878 -0.254400 -0.055100
0 359.990112 0.000016 -0.396900 -0.095701 -0.000000 0.995410 0.000000 -0.000200
pipesystem001b.bmp
0 359.990112 0.000016 -0.396900 -0.095701 -0.000000 0.995410 0.000000 -0.000200
0 339.911987 61.432915 -2.286200 -0.090698 -0.000500 0.995878 -0.254400 -0.055100
0 332.733185 0.000015 -2.945500 -0.088101 -0.000000 0.996112 0.500000 -0.002200
pipesystem001b.bmp
0 339.911987 -61.432884 -2.286200 -0.090698 0.000500 0.995878 0.254400 -0.055100
0 359.990112 0.000016 -0.396900 -0.095701 -0.000000 0.995410 0.000000 -0.000200
0 332.733185 0.000015 -2.945500 -0.088101 -0.000000 0.996112 0.500000 -0.002200
pipesystem001b.bmp
0 332.733185 0.000015 -2.945500 -0.088101 -0.000000 0.996112 0.500000 -0.002200
0 312.892792 -64.388985 -4.634600 -0.084196 0.000400 0.996449 0.259900 -0.062500
0 339.911987 -61.432884 -2.286200 -0.090698 0.000500 0.995878 0.254400 -0.055100
pipesystem001b.bmp
0 312.892792 -64.388985 -4.634600 -0.084196 0.000400 0.996449 0.259900 -0.062500
0 332.733185 0.000015 -2.945500 -0.088101 -0.000000 0.996112 0.500000 -0.002200
0 305.467407 0.000013 -5.261500 -0.082797 -0.000000 0.996566 0.500000 -0.004700
pipesystem001b.bmp
0 281.623291 -66.584488 -7.211900 -0.080496 0.000400 0.996755 0.265700 -0.071400
0 312.892792 -64.388985 -4.634600 -0.084196 0.000400 0.996449 0.259900 -0.062500
0 305.467407 0.000013 -5.261500 -0.082797 -0.000000 0.996566 0.500000 -0.004700
pipesystem001b.bmp
0 281.623291 -66.584488 -7.211900 -0.080496 0.000400 0.996755 0.265700 -0.071400
0 305.467407 0.000013 -5.261500 -0.082797 -0.000000 0.996566 0.500000 -0.004700
0 271.909393 0.000012 -8.010100 -0.079801 -0.000000 0.996811 0.500000 -0.008300
pipesystem001b.bmp
0 271.909393 0.000012 -8.010100 -0.079801 -0.000000 0.996811 0.500000 -0.008300
0 239.065002 -69.310791 -10.599300 -0.075297 0.000900 0.997161 0.272800 -0.086700
0 281.623291 -66.584488 -7.211900 -0.080496 0.000400 0.996755 0.265700 -0.071400
pipesystem001b.bmp
0 239.065002 -69.310791 -10.599300 -0.075297 0.000900 0.997161 0.272800 -0.086700
0 271.909393 0.000012 -8.010100 -0.079801 -0.000000 0.996811 0.500000 -0.008300
0 226.587494 0.000010 -11.574800 -0.072903 -0.000000 0.997339 0.500000 -0.014600
pipesystem001b.bmp
0 395.791901 -54.694580 3.207600 -0.103701 0.000400 0.994608 0.238900 -0.042600
0 416.181091 0.000018 5.384200 -0.106996 -0.000000 0.994259 0.000000 -0.004500
0 388.226593 0.000017 2.412600 -0.101801 -0.000000 0.994805 0.000000 -0.002400
pipesystem001b.bmp
0 388.226593 0.000017 2.412600 -0.101801 -0.000000 0.994805 0.000000 -0.002400
0 367.611603 -58.788784 0.356900 -0.097602 0.000500 0.995225 0.247400 -0.049000
0 395.791901 -54.694580 3.207600 -0.103701 0.000400 0.994608 0.238900 -0.042600
pipesystem001b.bmp
0 367.611603 -58.788784 0.356900 -0.097602 0.000500 0.995225 0.247400 -0.049000
0 388.226593 0.000017 2.412600 -0.101801 -0.000000 0.994805 0.000000 -0.002400
0 359.990112 0.000016 -0.396900 -0.095701 -0.000000 0.995410 0.000000 -0.000200
pipesystem001b.bmp
0 339.911987 -61.432884 -2.286200 -0.090698 0.000500 0.995878 0.254400 -0.055100
0 367.611603 -58.788784 0.356900 -0.097602 0.000500 0.995225 0.247400 -0.049000
0 359.990112 0.000016 -0.396900 -0.095701 -0.000000 0.995410 0.000000 -0.000200
pipesystem001b.bmp
0 191.112595 -70.823692 -14.053100 -0.063399 0.001400 0.997987 0.279900 -0.108700
0 145.314896 -142.985703 -16.495100 -0.053698 0.002000 0.998555 0.267600 -0.236200
0 193.962708 -140.194382 -13.703500 -0.066599 0.002000 0.997778 0.264800 -0.191100
pipesystem001b.bmp
0 193.962708 -140.194382 -13.703500 -0.066599 0.002000 0.997778 0.264800 -0.191100
0 239.065002 -69.310791 -10.599300 -0.075297 0.000900 0.997161 0.272800 -0.086700
0 191.112595 -70.823692 -14.053100 -0.063399 0.001400 0.997987 0.279900 -0.108700
pipesystem001b.bmp
0 239.065002 -69.310791 -10.599300 -0.075297 0.000900 0.997161 0.272800 -0.086700
0 193.962708 -140.194382 -13.703500 -0.066599 0.002000 0.997778 0.264800 -0.191100
0 240.642899 -136.088486 -10.406900 -0.076100 0.000900 0.997100 0.261400 -0.157800
pipesystem001b.bmp
0 281.623291 -66.584488 -7.211900 -0.080496 0.000400 0.996755 0.265700 -0.071400
0 239.065002 -69.310791 -10.599300 -0.075297 0.000900 0.997161 0.272800 -0.086700
0 240.642899 -136.088486 -10.406900 -0.076100 0.000900 0.997100 0.261400 -0.157800
pipesystem001b.bmp
0 281.623291 -66.584488 -7.211900 -0.080496 0.000400 0.996755 0.265700 -0.071400
0 240.642899 -136.088486 -10.406900 -0.076100 0.000900 0.997100 0.261400 -0.157800
0 281.807892 -131.247879 -7.173600 -0.081100 0.000400 0.996706 0.258000 -0.134000
pipesystem001b.bmp
0 281.807892 -131.247879 -7.173600 -0.081100 0.000400 0.996706 0.258000 -0.134000
0 312.892792 -64.388985 -4.634600 -0.084196 0.000400 0.996449 0.259900 -0.062500
0 281.623291 -66.584488 -7.211900 -0.080496 0.000400 0.996755 0.265700 -0.071400
pipesystem001b.bmp
0 312.892792 -64.388985 -4.634600 -0.084196 0.000400 0.996449 0.259900 -0.062500
0 281.807892 -131.247879 -7.173600 -0.081100 0.000400 0.996706 0.258000 -0.134000
0 314.072693 -126.053482 -4.498800 -0.085702 0.000700 0.996321 0.254900 -0.117600
pipesystem001b.bmp
0 339.911987 -61.432884 -2.286200 -0.090698 0.000500 0.995878 0.254400 -0.055100
0 312.892792 -64.388985 -4.634600 -0.084196 0.000400 0.996449 0.259900 -0.062500
0 314.072693 -126.053482 -4.498800 -0.085702 0.000700 0.996321 0.254900 -0.117600
pipesystem001b.bmp
0 339.911987 -61.432884 -2.286200 -0.090698 0.000500 0.995878 0.254400 -0.055100
0 314.072693 -126.053482 -4.498800 -0.085702 0.000700 0.996321 0.254900 -0.117600
0 342.003815 -120.351982 -2.043100 -0.092699 0.000800 0.995694 0.251900 -0.104400
pipesystem001b.bmp
0 342.003815 -120.351982 -2.043100 -0.092699 0.000800 0.995694 0.251900 -0.104400
0 367.611603 -58.788784 0.356900 -0.097602 0.000500 0.995225 0.247400 -0.049000
0 339.911987 -61.432884 -2.286200 -0.090698 0.000500 0.995878 0.254400 -0.055100
pipesystem001b.bmp
0 191.112595 -70.823692 -14.053100 -0.063399 0.001400 0.997987 0.279900 -0.108700
0 239.065002 -69.310791 -10.599300 -0.075297 0.000900 0.997161 0.272800 -0.086700
0 226.587494 0.000010 -11.574800 -0.072903 -0.000000 0.997339 0.500000 -0.014600
pipesystem001b.bmp
0 191.112595 -70.823692 -14.053100 -0.063399 0.001400 0.997987 0.279900 -0.108700
0 226.587494 0.000010 -11.574800 -0.072903 -0.000000 0.997339 0.500000 -0.014600
0 177.888000 0.000008 -14.910600 -0.058499 -0.000000 0.998287 0.500000 -0.024000
pipesystem001b.bmp
0 177.888000 0.000008 -14.910600 -0.058499 -0.000000 0.998287 0.500000 -0.024000
0 141.682297 -72.002693 -16.799900 -0.050800 0.001100 0.998708 0.285200 -0.142800
0 191.112595 -70.823692 -14.053100 -0.063399 0.001400 0.997987 0.279900 -0.108700
pipesystem001b.bmp
0 141.682297 -72.002693 -16.799900 -0.050800 0.001100 0.998708 0.285200 -0.142800
0 177.888000 0.000008 -14.910600 -0.058499 -0.000000 0.998287 0.500000 -0.024000
0 128.279602 0.000006 -17.478901 -0.047898 -0.000000 0.998852 0.500000 -0.038200
pipesystem001b.bmp
0 93.741898 -72.648293 -19.044701 -0.042999 0.000800 0.999075 0.289600 -0.196800
0 141.682297 -72.002693 -16.799900 -0.050800 0.001100 0.998708 0.285200 -0.142800
0 128.279602 0.000006 -17.478901 -0.047898 -0.000000 0.998852 0.500000 -0.038200
pipesystem001b.bmp
0 93.741898 -72.648293 -19.044701 -0.042999 0.000800 0.999075 0.289600 -0.196800
0 128.279602 0.000006 -17.478901 -0.047898 -0.000000 0.998852 0.500000 -0.038200
0 81.397499 0.000004 -19.593901 -0.040799 -0.000000 0.999167 0.500000 -0.064100
pipesystem001b.bmp
0 81.397499 0.000004 -19.593901 -0.040799 -0.000000 0.999167 0.500000 -0.064100
0 50.078705 -73.212898 -20.780001 -0.034001 0.001200 0.999421 0.292800 -0.282800
0 93.741898 -72.648293 -19.044701 -0.042999 0.000800 0.999075 0.289600 -0.196800
pipesystem001b.bmp
0 50.078705 -73.212898 -20.780001 -0.034001 0.001200 0.999421 0.292800 -0.282800
0 81.397499 0.000004 -19.593901 -0.040799 -0.000000 0.999167 0.500000 -0.064100
0 38.546700 0.000002 -21.203600 -0.030501 -0.000000 0.999535 0.500000 -0.124000
pipesystem001b.bmp
0 7.267603 -73.404503 -22.028700 -0.019800 0.001400 0.999803 0.295200 -0.422900
0 50.078705 -73.212898 -20.780001 -0.034001 0.001200 0.999421 0.292800 -0.282800
0 38.546700 0.000002 -21.203600 -0.030501 -0.000000 0.999535 0.500000 -0.124000
pipesystem001b.bmp
0 7.267603 -73.404503 -22.028700 -0.019800 0.001400 0.999803 0.295200 -0.422900
0 38.546700 0.000002 -21.203600 -0.030501 -0.000000 0.999535 0.500000 -0.124000
0 -4.491600 -0.000000 -22.275400 -0.014500 -0.000000 0.999895 0.500000 -0.398600
pipesystem001b.bmp
0 -37.771996 -73.308098 -22.533199 -0.006600 0.000900 0.999978 0.296300 -0.604800
0 -80.071495 -146.331802 -22.603201 -0.002000 0.001000 0.999997 0.273700 -0.637900
0 -34.817192 -146.910995 -22.402399 -0.009700 0.001800 0.999951 0.273400 -0.549300
pipesystem001b.bmp
0 7.267603 -73.404503 -22.028700 -0.019800 0.001400 0.999803 0.295200 -0.422900
0 -37.771996 -73.308098 -22.533199 -0.006600 0.000900 0.999978 0.296300 -0.604800
0 -34.817192 -146.910995 -22.402399 -0.009700 0.001800 0.999951 0.273400 -0.549300
pipesystem001b.bmp
0 7.267603 -73.404503 -22.028700 -0.019800 0.001400 0.999803 0.295200 -0.422900
0 -34.817192 -146.910995 -22.402399 -0.009700 0.001800 0.999951 0.273400 -0.549300
0 9.941807 -146.819107 -21.800200 -0.023800 0.002200 0.999714 0.272800 -0.454000
pipesystem001b.bmp
0 9.941807 -146.819107 -21.800200 -0.023800 0.002200 0.999714 0.272800 -0.454000
0 50.078705 -73.212898 -20.780001 -0.034001 0.001200 0.999421 0.292800 -0.282800
0 7.267603 -73.404503 -22.028700 -0.019800 0.001400 0.999803 0.295200 -0.422900
pipesystem001b.bmp
0 50.078705 -73.212898 -20.780001 -0.034001 0.001200 0.999421 0.292800 -0.282800
0 9.941807 -146.819107 -21.800200 -0.023800 0.002200 0.999714 0.272800 -0.454000
0 53.449009 -146.090500 -20.552799 -0.036102 0.001500 0.999347 0.271600 -0.367700
pipesystem001b.bmp
0 93.741898 -72.648293 -19.044701 -0.042999 0.000800 0.999075 0.289600 -0.196800
0 50.078705 -73.212898 -20.780001 -0.034001 0.001200 0.999421 0.292800 -0.282800
0 53.449009 -146.090500 -20.552799 -0.036102 0.001500 0.999347 0.271600 -0.367700
pipesystem001b.bmp
0 93.741898 -72.648293 -19.044701 -0.042999 0.000800 0.999075 0.289600 -0.196800
0 53.449009 -146.090500 -20.552799 -0.036102 0.001500 0.999347 0.271600 -0.367700
0 97.847107 -144.861893 -18.785101 -0.044999 0.001400 0.998986 0.269900 -0.295200
pipesystem001b.bmp
0 97.847107 -144.861893 -18.785101 -0.044999 0.001400 0.998986 0.269900 -0.295200
0 141.682297 -72.002693 -16.799900 -0.050800 0.001100 0.998708 0.285200 -0.142800
0 93.741898 -72.648293 -19.044701 -0.042999 0.000800 0.999075 0.289600 -0.196800
pipesystem001b.bmp
0 141.682297 -72.002693 -16.799900 -0.050800 0.001100 0.998708 0.285200 -0.142800
0 97.847107 -144.861893 -18.785101 -0.044999 0.001400 0.998986 0.269900 -0.295200
0 145.314896 -142.985703 -16.495100 -0.053698 0.002000 0.998555 0.267600 -0.236200
pipesystem001b.bmp
0 191.112595 -70.823692 -14.053100 -0.063399 0.001400 0.997987 0.279900 -0.108700
0 141.682297 -72.002693 -16.799900 -0.050800 0.001100 0.998708 0.285200 -0.142800
0 145.314896 -142.985703 -16.495100 -0.053698 0.002000 0.998555 0.267600 -0.236200
pipesystem001b.bmp
0 -237.313004 -69.138611 -21.481899 0.017601 0.000200 0.999845 0.296700 -0.901400
0 -255.747406 -137.798309 -21.103300 0.019500 0.000300 0.999810 0.273500 -0.834900
0 -233.314606 -139.364319 -21.519501 0.016100 0.000500 0.999870 0.273700 -0.819800
pipesystem001b.bmp
0 -233.314606 -139.364319 -21.519501 0.016100 0.000500 0.999870 0.273700 -0.819800
0 -206.536194 -69.874504 -21.949100 0.013300 0.000300 0.999911 0.297200 -0.885800
0 -237.313004 -69.138611 -21.481899 0.017601 0.000200 0.999845 0.296700 -0.901400
pipesystem001b.bmp
0 -206.536194 -69.874504 -21.949100 0.013300 0.000300 0.999911 0.297200 -0.885800
0 -233.314606 -139.364319 -21.519501 0.016100 0.000500 0.999870 0.273700 -0.819800
0 -202.699799 -141.186615 -21.960800 0.012000 0.000600 0.999928 0.273900 -0.795700
pipesystem001b.bmp
0 -169.775406 -70.992210 -22.359501 0.008300 0.000400 0.999965 0.297300 -0.860300
0 -206.536194 -69.874504 -21.949100 0.013300 0.000300 0.999911 0.297200 -0.885800
0 -202.699799 -141.186615 -21.960800 0.012000 0.000600 0.999928 0.273900 -0.795700
pipesystem001b.bmp
0 -169.775406 -70.992210 -22.359501 0.008300 0.000400 0.999965 0.297300 -0.860300
0 -202.699799 -141.186615 -21.960800 0.012000 0.000600 0.999928 0.273900 -0.795700
0 -165.877396 -143.122498 -22.339001 0.007000 0.000700 0.999975 0.274000 -0.760100
pipesystem001b.bmp
0 -165.877396 -143.122498 -22.339001 0.007000 0.000700 0.999975 0.274000 -0.760100
0 -127.796700 -71.845306 -22.584000 0.003700 0.000400 0.999993 0.297300 -0.817300
0 -169.775406 -70.992210 -22.359501 0.008300 0.000400 0.999965 0.297300 -0.860300
pipesystem001b.bmp
0 -127.796700 -71.845306 -22.584000 0.003700 0.000400 0.999993 0.297300 -0.817300
0 -165.877396 -143.122498 -22.339001 0.007000 0.000700 0.999975 0.274000 -0.760100
0 -124.230194 -144.943604 -22.554399 0.002700 0.000700 0.999996 0.273900 -0.708500
pipesystem001b.bmp
0 -83.432404 -72.867599 -22.662800 -0.000400 0.000500 1.000000 0.296800 -0.740700
0 -127.796700 -71.845306 -22.584000 0.003700 0.000400 0.999993 0.297300 -0.817300
0 -124.230194 -144.943604 -22.554399 0.002700 0.000700 0.999996 0.273900 -0.708500
pipesystem001b.bmp
0 -83.432404 -72.867599 -22.662800 -0.000400 0.000500 1.000000 0.296800 -0.740700
0 -124.230194 -144.943604 -22.554399 0.002700 0.000700 0.999996 0.273900 -0.708500
0 -80.071495 -146.331802 -22.603201 -0.002000 0.001000 0.999997 0.273700 -0.637900
pipesystem001b.bmp
0 -80.071495 -146.331802 -22.603201 -0.002000 0.001000 0.999997 0.273700 -0.637900
0 -37.771996 -73.308098 -22.533199 -0.006600 0.000900 0.999978 0.296300 -0.604800
0 -83.432404 -72.867599 -22.662800 -0.000400 0.000500 1.000000 0.296800 -0.740700
pipesystem001b.bmp
0 -4.491600 -0.000000 -22.275400 -0.014500 -0.000000 0.999895 0.500000 -0.398600
0 -37.771996 -73.308098 -22.533199 -0.006600 0.000900 0.999978 0.296300 -0.604800
0 7.267603 -73.404503 -22.028700 -0.019800 0.001400 0.999803 0.295200 -0.422900
pipesystem001b.bmp
0 -37.771996 -73.308098 -22.533199 -0.006600 0.000900 0.999978 0.296300 -0.604800
0 -4.491600 -0.000000 -22.275400 -0.014500 -0.000000 0.999895 0.500000 -0.398600
0 -50.179501 -0.000002 -22.610201 -0.003800 -0.000000 0.999993 0.500000 -0.834900
pipesystem001b.bmp
0 -83.432404 -72.867599 -22.662800 -0.000400 0.000500 1.000000 0.296800 -0.740700
0 -37.771996 -73.308098 -22.533199 -0.006600 0.000900 0.999978 0.296300 -0.604800
0 -50.179501 -0.000002 -22.610201 -0.003800 -0.000000 0.999993 0.500000 -0.834900
pipesystem001b.bmp
0 -83.432404 -72.867599 -22.662800 -0.000400 0.000500 1.000000 0.296800 -0.740700
0 -50.179501 -0.000002 -22.610201 -0.003800 -0.000000 0.999993 0.500000 -0.834900
0 -95.644997 -0.000004 -22.670601 0.001100 0.000000 0.999999 0.500000 -0.918200
pipesystem001b.bmp
0 -95.644997 -0.000004 -22.670601 0.001100 0.000000 0.999999 0.500000 -0.918200
0 -127.796700 -71.845306 -22.584000 0.003700 0.000400 0.999993 0.297300 -0.817300
0 -83.432404 -72.867599 -22.662800 -0.000400 0.000500 1.000000 0.296800 -0.740700
pipesystem001b.bmp
0 -127.796700 -71.845306 -22.584000 0.003700 0.000400 0.999993 0.297300 -0.817300
0 -95.644997 -0.000004 -22.670601 0.001100 0.000000 0.999999 0.500000 -0.918200
0 -139.667206 -0.000006 -22.546200 0.004900 0.000000 0.999988 0.500000 -0.946000
pipesystem001b.bmp
0 -169.775406 -70.992210 -22.359501 0.008300 0.000400 0.999965 0.297300 -0.860300
0 -127.796700 -71.845306 -22.584000 0.003700 0.000400 0.999993 0.297300 -0.817300
0 -139.667206 -0.000006 -22.546200 0.004900 0.000000 0.999988 0.500000 -0.946000
pipesystem001b.bmp
0 -169.775406 -70.992210 -22.359501 0.008300 0.000400 0.999965 0.297300 -0.860300
0 -139.667206 -0.000006 -22.546200 0.004900 0.000000 0.999988 0.500000 -0.946000
0 -180.542496 -0.000008 -22.275400 0.010200 0.000000 0.999948 0.500000 -0.959400
pipesystem001b.bmp
0 -180.542496 -0.000008 -22.275400 0.010200 0.000000 0.999948 0.500000 -0.959400
0 -206.536194 -69.874504 -21.949100 0.013300 0.000300 0.999911 0.297200 -0.885800
0 -169.775406 -70.992210 -22.359501 0.008300 0.000400 0.999965 0.297300 -0.860300
pipesystem001b.bmp
0 -206.536194 -69.874504 -21.949100 0.013300 0.000300 0.999911 0.297200 -0.885800
0 -180.542496 -0.000008 -22.275400 0.010200 0.000000 0.999948 0.500000 -0.959400
0 -215.978607 -0.000009 -21.824100 0.014800 0.000000 0.999890 0.500000 -0.967100
pipesystem001b.bmp
0 -139.667206 -0.000006 -22.546200 0.004900 0.000000 0.999988 0.500000 -0.946000
0 -169.775406 70.992195 -22.359501 0.008300 -0.000400 0.999965 0.702700 -0.860300
0 -180.542496 -0.000008 -22.275400 0.010200 0.000000 0.999948 0.500000 -0.959400
pipesystem001b.bmp
0 -127.796700 71.845291 -22.584000 0.003700 -0.000400 0.999993 0.702700 -0.817300
0 -169.775406 70.992195 -22.359501 0.008300 -0.000400 0.999965 0.702700 -0.860300
0 -139.667206 -0.000006 -22.546200 0.004900 0.000000 0.999988 0.500000 -0.946000
pipesystem001b.bmp
0 -95.644997 -0.000004 -22.670601 0.001100 0.000000 0.999999 0.500000 -0.918200
0 -127.796700 71.845291 -22.584000 0.003700 -0.000400 0.999993 0.702700 -0.817300
0 -139.667206 -0.000006 -22.546200 0.004900 0.000000 0.999988 0.500000 -0.946000
pipesystem001b.bmp
0 -127.796700 71.845291 -22.584000 0.003700 -0.000400 0.999993 0.702700 -0.817300
0 -95.644997 -0.000004 -22.670601 0.001100 0.000000 0.999999 0.500000 -0.918200
0 -83.432404 72.867599 -22.662800 -0.000400 -0.000500 1.000000 0.703200 -0.740700
pipesystem001b.bmp
0 -50.179501 -0.000002 -22.610201 -0.003800 -0.000000 0.999993 0.500000 -0.834900
0 -83.432404 72.867599 -22.662800 -0.000400 -0.000500 1.000000 0.703200 -0.740700
0 -95.644997 -0.000004 -22.670601 0.001100 0.000000 0.999999 0.500000 -0.918200
pipesystem001b.bmp
0 -37.772003 73.308098 -22.533199 -0.006600 -0.000900 0.999978 0.703700 -0.604800
0 -83.432404 72.867599 -22.662800 -0.000400 -0.000500 1.000000 0.703200 -0.740700
0 -50.179501 -0.000002 -22.610201 -0.003800 -0.000000 0.999993 0.500000 -0.834900
pipesystem001b.bmp
0 -4.491600 -0.000000 -22.275400 -0.014500 -0.000000 0.999895 0.500000 -0.398600
0 -37.772003 73.308098 -22.533199 -0.006600 -0.000900 0.999978 0.703700 -0.604800
0 -50.179501 -0.000002 -22.610201 -0.003800 -0.000000 0.999993 0.500000 -0.834900
pipesystem001b.bmp
0 -37.772003 73.308098 -22.533199 -0.006600 -0.000900 0.999978 0.703700 -0.604800
0 -4.491600 -0.000000 -22.275400 -0.014500 -0.000000 0.999895 0.500000 -0.398600
0 7.267597 73.404503 -22.028700 -0.019800 -0.001400 0.999803 0.704800 -0.422900
pipesystem001b.bmp
0 38.546700 0.000002 -21.203600 -0.030501 -0.000000 0.999535 0.500000 -0.124000
0 7.267597 73.404503 -22.028700 -0.019800 -0.001400 0.999803 0.704800 -0.422900
0 -4.491600 -0.000000 -22.275400 -0.014500 -0.000000 0.999895 0.500000 -0.398600
pipesystem001b.bmp
0 50.078697 73.212898 -20.780001 -0.034001 -0.001200 0.999421 0.707200 -0.282800
0 7.267597 73.404503 -22.028700 -0.019800 -0.001400 0.999803 0.704800 -0.422900
0 38.546700 0.000002 -21.203600 -0.030501 -0.000000 0.999535 0.500000 -0.124000
pipesystem001b.bmp
0 50.078697 73.212898 -20.780001 -0.034001 -0.001200 0.999421 0.707200 -0.282800
0 9.941793 146.819107 -21.800200 -0.023800 -0.002200 0.999714 0.727200 -0.454000
0 7.267597 73.404503 -22.028700 -0.019800 -0.001400 0.999803 0.704800 -0.422900
pipesystem001b.bmp
0 -34.817207 146.910995 -22.402399 -0.009700 -0.001800 0.999951 0.726600 -0.549300
0 7.267597 73.404503 -22.028700 -0.019800 -0.001400 0.999803 0.704800 -0.422900
0 9.941793 146.819107 -21.800200 -0.023800 -0.002200 0.999714 0.727200 -0.454000
pipesystem001b.bmp
0 -37.772003 73.308098 -22.533199 -0.006600 -0.000900 0.999978 0.703700 -0.604800
0 7.267597 73.404503 -22.028700 -0.019800 -0.001400 0.999803 0.704800 -0.422900
0 -34.817207 146.910995 -22.402399 -0.009700 -0.001800 0.999951 0.726600 -0.549300
pipesystem001b.bmp
0 -80.071510 146.331802 -22.603201 -0.002000 -0.001000 0.999997 0.726300 -0.637900
0 -37.772003 73.308098 -22.533199 -0.006600 -0.000900 0.999978 0.703700 -0.604800
0 -34.817207 146.910995 -22.402399 -0.009700 -0.001800 0.999951 0.726600 -0.549300
pipesystem001b.bmp
0 -37.772003 73.308098 -22.533199 -0.006600 -0.000900 0.999978 0.703700 -0.604800
0 -80.071510 146.331802 -22.603201 -0.002000 -0.001000 0.999997 0.726300 -0.637900
0 -83.432404 72.867599 -22.662800 -0.000400 -0.000500 1.000000 0.703200 -0.740700
pipesystem001b.bmp
0 -124.230209 144.943604 -22.554399 0.002700 -0.000700 0.999996 0.726100 -0.708500
0 -83.432404 72.867599 -22.662800 -0.000400 -0.000500 1.000000 0.703200 -0.740700
0 -80.071510 146.331802 -22.603201 -0.002000 -0.001000 0.999997 0.726300 -0.637900
pipesystem001b.bmp
0 -127.796700 71.845291 -22.584000 0.003700 -0.000400 0.999993 0.702700 -0.817300
0 -83.432404 72.867599 -22.662800 -0.000400 -0.000500 1.000000 0.703200 -0.740700
0 -124.230209 144.943604 -22.554399 0.002700 -0.000700 0.999996 0.726100 -0.708500
pipesystem001b.bmp
0 -165.877396 143.122498 -22.339001 0.007000 -0.000700 0.999975 0.726000 -0.760100
0 -127.796700 71.845291 -22.584000 0.003700 -0.000400 0.999993 0.702700 -0.817300
0 -124.230209 144.943604 -22.554399 0.002700 -0.000700 0.999996 0.726100 -0.708500
pipesystem001b.bmp
0 -127.796700 71.845291 -22.584000 0.003700 -0.000400 0.999993 0.702700 -0.817300
0 -165.877396 143.122498 -22.339001 0.007000 -0.000700 0.999975 0.726000 -0.760100
0 -169.775406 70.992195 -22.359501 0.008300 -0.000400 0.999965 0.702700 -0.860300
pipesystem001b.bmp
0 -202.699799 141.186584 -21.960800 0.012000 -0.000600 0.999928 0.726100 -0.795700
0 -169.775406 70.992195 -22.359501 0.008300 -0.000400 0.999965 0.702700 -0.860300
0 -165.877396 143.122498 -22.339001 0.007000 -0.000700 0.999975 0.726000 -0.760100
pipesystem001b.bmp
0 239.065002 69.310806 -10.599300 -0.075297 -0.000900 0.997161 0.727200 -0.086700
0 281.623291 66.584518 -7.211900 -0.080496 -0.000400 0.996755 0.734300 -0.071400
0 240.642899 136.088516 -10.406900 -0.076100 -0.000900 0.997100 0.738600 -0.157800
pipesystem001b.bmp
0 193.962708 140.194412 -13.703500 -0.066599 -0.002000 0.997778 0.735200 -0.191100
0 239.065002 69.310806 -10.599300 -0.075297 -0.000900 0.997161 0.727200 -0.086700
0 240.642899 136.088516 -10.406900 -0.076100 -0.000900 0.997100 0.738600 -0.157800
pipesystem001b.bmp
0 239.065002 69.310806 -10.599300 -0.075297 -0.000900 0.997161 0.727200 -0.086700
0 193.962708 140.194412 -13.703500 -0.066599 -0.002000 0.997778 0.735200 -0.191100
0 191.112595 70.823708 -14.053100 -0.063399 -0.001400 0.997987 0.720100 -0.108700
pipesystem001b.bmp
0 145.314896 142.985703 -16.495100 -0.053698 -0.002000 0.998555 0.732400 -0.236200
0 191.112595 70.823708 -14.053100 -0.063399 -0.001400 0.997987 0.720100 -0.108700
0 193.962708 140.194412 -13.703500 -0.066599 -0.002000 0.997778 0.735200 -0.191100
pipesystem001b.bmp
0 141.682297 72.002708 -16.799900 -0.050800 -0.001100 0.998708 0.714800 -0.142800
0 191.112595 70.823708 -14.053100 -0.063399 -0.001400 0.997987 0.720100 -0.108700
0 145.314896 142.985703 -16.495100 -0.053698 -0.002000 0.998555 0.732400 -0.236200
pipesystem001b.bmp
0 97.847092 144.861893 -18.785101 -0.044999 -0.001400 0.998986 0.730100 -0.295200
0 141.682297 72.002708 -16.799900 -0.050800 -0.001100 0.998708 0.714800 -0.142800
0 145.314896 142.985703 -16.495100 -0.053698 -0.002000 0.998555 0.732400 -0.236200
pipesystem001b.bmp
0 141.682297 72.002708 -16.799900 -0.050800 -0.001100 0.998708 0.714800 -0.142800
0 97.847092 144.861893 -18.785101 -0.044999 -0.001400 0.998986 0.730100 -0.295200
0 93.741898 72.648308 -19.044701 -0.042999 -0.000800 0.999075 0.710400 -0.196800
pipesystem001b.bmp
0 53.448994 146.090500 -20.552799 -0.036102 -0.001500 0.999347 0.728400 -0.367700
0 93.741898 72.648308 -19.044701 -0.042999 -0.000800 0.999075 0.710400 -0.196800
0 97.847092 144.861893 -18.785101 -0.044999 -0.001400 0.998986 0.730100 -0.295200
pipesystem001b.bmp
0 50.078697 73.212898 -20.780001 -0.034001 -0.001200 0.999421 0.707200 -0.282800
0 93.741898 72.648308 -19.044701 -0.042999 -0.000800 0.999075 0.710400 -0.196800
0 53.448994 146.090500 -20.552799 -0.036102 -0.001500 0.999347 0.728400 -0.367700
pipesystem001b.bmp
0 9.941793 146.819107 -21.800200 -0.023800 -0.002200 0.999714 0.727200 -0.454000
0 50.078697 73.212898 -20.780001 -0.034001 -0.001200 0.999421 0.707200 -0.282800
0 53.448994 146.090500 -20.552799 -0.036102 -0.001500 0.999347 0.728400 -0.367700
pipesystem001b.bmp
0 81.397499 0.000004 -19.593901 -0.040799 -0.000000 0.999167 0.500000 -0.064100
0 50.078697 73.212898 -20.780001 -0.034001 -0.001200 0.999421 0.707200 -0.282800
0 38.546700 0.000002 -21.203600 -0.030501 -0.000000 0.999535 0.500000 -0.124000
pipesystem001b.bmp
0 50.078697 73.212898 -20.780001 -0.034001 -0.001200 0.999421 0.707200 -0.282800
0 81.397499 0.000004 -19.593901 -0.040799 -0.000000 0.999167 0.500000 -0.064100
0 93.741898 72.648308 -19.044701 -0.042999 -0.000800 0.999075 0.710400 -0.196800
pipesystem001b.bmp
0 128.279602 0.000006 -17.478901 -0.047898 -0.000000 0.998852 0.500000 -0.038200
0 93.741898 72.648308 -19.044701 -0.042999 -0.000800 0.999075 0.710400 -0.196800
0 81.397499 0.000004 -19.593901 -0.040799 -0.000000 0.999167 0.500000 -0.064100
pipesystem001b.bmp
0 141.682297 72.002708 -16.799900 -0.050800 -0.001100 0.998708 0.714800 -0.142800
0 93.741898 72.648308 -19.044701 -0.042999 -0.000800 0.999075 0.710400 -0.196800
0 128.279602 0.000006 -17.478901 -0.047898 -0.000000 0.998852 0.500000 -0.038200
pipesystem001b.bmp
0 177.888000 0.000008 -14.910600 -0.058499 -0.000000 0.998287 0.500000 -0.024000
0 141.682297 72.002708 -16.799900 -0.050800 -0.001100 0.998708 0.714800 -0.142800
0 128.279602 0.000006 -17.478901 -0.047898 -0.000000 0.998852 0.500000 -0.038200
pipesystem001b.bmp
0 141.682297 72.002708 -16.799900 -0.050800 -0.001100 0.998708 0.714800 -0.142800
0 177.888000 0.000008 -14.910600 -0.058499 -0.000000 0.998287 0.500000 -0.024000
0 191.112595 70.823708 -14.053100 -0.063399 -0.001400 0.997987 0.720100 -0.108700
pipesystem001b.bmp
0 226.587494 0.000010 -11.574800 -0.072903 -0.000000 0.997339 0.500000 -0.014600
0 191.112595 70.823708 -14.053100 -0.063399 -0.001400 0.997987 0.720100 -0.108700
0 177.888000 0.000008 -14.910600 -0.058499 -0.000000 0.998287 0.500000 -0.024000
pipesystem001b.bmp
0 239.065002 69.310806 -10.599300 -0.075297 -0.000900 0.997161 0.727200 -0.086700
0 191.112595 70.823708 -14.053100 -0.063399 -0.001400 0.997987 0.720100 -0.108700
0 226.587494 0.000010 -11.574800 -0.072903 -0.000000 0.997339 0.500000 -0.014600
pipesystem001b.bmp
0 271.909393 0.000012 -8.010100 -0.079801 -0.000000 0.996811 0.500000 -0.008300
0 239.065002 69.310806 -10.599300 -0.075297 -0.000900 0.997161 0.727200 -0.086700
0 226.587494 0.000010 -11.574800 -0.072903 -0.000000 0.997339 0.500000 -0.014600
pipesystem001b.bmp
0 239.065002 69.310806 -10.599300 -0.075297 -0.000900 0.997161 0.727200 -0.086700
0 271.909393 0.000012 -8.010100 -0.079801 -0.000000 0.996811 0.500000 -0.008300
0 281.623291 66.584518 -7.211900 -0.080496 -0.000400 0.996755 0.734300 -0.071400
pipesystem001b.bmp
0 -540.677673 -0.000024 -5.485000 0.076903 0.000000 0.997039 0.500000 -0.997100
0 -547.025085 -31.777025 -5.071000 0.058400 -0.001200 0.998293 0.272200 -0.980900
0 -537.298401 -35.524624 -5.789400 0.084701 -0.001000 0.996406 0.273100 -0.978300
pipesystem001b.bmp
0 -547.025085 -31.777025 -5.071000 0.058400 -0.001200 0.998293 0.272200 -0.980900
0 -540.677673 -0.000024 -5.485000 0.076903 0.000000 0.997039 0.500000 -0.997100
0 -549.264282 -0.000024 -4.934300 0.049199 0.000000 0.998789 0.500000 -0.997400
pipesystem001b.bmp
0 -554.541626 -28.045925 -4.725300 0.032399 -0.000900 0.999475 0.273200 -0.983400
0 -547.025085 -31.777025 -5.071000 0.058400 -0.001200 0.998293 0.272200 -0.980900
0 -549.264282 -0.000024 -4.934300 0.049199 0.000000 0.998789 0.500000 -0.997400
pipesystem001b.bmp
0 -554.541626 -28.045925 -4.725300 0.032399 -0.000900 0.999475 0.273200 -0.983400
0 -549.264282 -0.000024 -4.934300 0.049199 0.000000 0.998789 0.500000 -0.997400
0 -556.486206 -0.000024 -4.659400 0.025200 0.000000 0.999682 0.500000 -0.997600
pipesystem001b.bmp
0 -556.486206 -0.000024 -4.659400 0.025200 0.000000 0.999682 0.500000 -0.997600
0 -561.650879 -21.629425 -4.572200 0.015300 -0.000600 0.999883 0.278900 -0.987300
0 -554.541626 -28.045925 -4.725300 0.032399 -0.000900 0.999475 0.273200 -0.983400
pipesystem001b.bmp
0 -561.650879 -21.629425 -4.572200 0.015300 -0.000600 0.999883 0.278900 -0.987300
0 -556.486206 -0.000024 -4.659400 0.025200 0.000000 0.999682 0.500000 -0.997600
0 -563.395081 -0.000025 -4.543300 0.012800 0.000000 0.999918 0.500000 -0.997700
pipesystem001b.bmp
0 -567.968384 -14.516725 -4.499800 0.007400 -0.000500 0.999973 0.291700 -0.991400
0 -561.650879 -21.629425 -4.572200 0.015300 -0.000600 0.999883 0.278900 -0.987300
0 -563.395081 -0.000025 -4.543300 0.012800 0.000000 0.999918 0.500000 -0.997700
pipesystem001b.bmp
0 -567.968384 -14.516725 -4.499800 0.007400 -0.000500 0.999973 0.291700 -0.991400
0 -563.395081 -0.000025 -4.543300 0.012800 0.000000 0.999918 0.500000 -0.997700
0 -568.173706 -0.000025 -4.493100 0.007100 0.000000 0.999975 0.500000 -0.997800
pipesystem001b.bmp
0 -568.173706 -0.000025 -4.493100 0.007100 0.000000 0.999975 0.500000 -0.997800
0 -571.810181 -0.000025 -4.479500 0.003100 0.000000 0.999995 0.500000 -0.997800
0 -567.968384 -14.516725 -4.499800 0.007400 -0.000500 0.999973 0.291700 -0.991400
pipesystem001b.bmp
0 -571.810181 -0.000025 -4.479500 0.003100 0.000000 0.999995 0.500000 -0.997800
0 -568.173706 -0.000025 -4.493100 0.007100 0.000000 0.999975 0.500000 -0.997800
0 -567.968384 14.516675 -4.499800 0.007400 0.000500 0.999973 0.708300 -0.991400
pipesystem001b.bmp
0 -563.395081 -0.000025 -4.543300 0.012800 0.000000 0.999918 0.500000 -0.997700
0 -567.968384 14.516675 -4.499800 0.007400 0.000500 0.999973 0.708300 -0.991400
0 -568.173706 -0.000025 -4.493100 0.007100 0.000000 0.999975 0.500000 -0.997800
pipesystem001b.bmp
0 -561.650879 21.629375 -4.572200 0.015300 0.000600 0.999883 0.721100 -0.987300
0 -567.968384 14.516675 -4.499800 0.007400 0.000500 0.999973 0.708300 -0.991400
0 -563.395081 -0.000025 -4.543300 0.012800 0.000000 0.999918 0.500000 -0.997700
pipesystem001b.bmp
0 -556.486206 -0.000024 -4.659400 0.025200 0.000000 0.999682 0.500000 -0.997600
0 -561.650879 21.629375 -4.572200 0.015300 0.000600 0.999883 0.721100 -0.987300
0 -563.395081 -0.000025 -4.543300 0.012800 0.000000 0.999918 0.500000 -0.997700
pipesystem001b.bmp
0 -561.650879 21.629375 -4.572200 0.015300 0.000600 0.999883 0.721100 -0.987300
0 -556.486206 -0.000024 -4.659400 0.025200 0.000000 0.999682 0.500000 -0.997600
0 -554.541626 28.045876 -4.725300 0.032399 0.000900 0.999475 0.726800 -0.983400
pipesystem001b.bmp
0 -549.264282 -0.000024 -4.934300 0.049199 0.000000 0.998789 0.500000 -0.997400
0 -554.541626 28.045876 -4.725300 0.032399 0.000900 0.999475 0.726800 -0.983400
0 -556.486206 -0.000024 -4.659400 0.025200 0.000000 0.999682 0.500000 -0.997600
pipesystem001b.bmp
0 -547.025085 31.776976 -5.071000 0.058400 0.001200 0.998293 0.727800 -0.980900
0 -554.541626 28.045876 -4.725300 0.032399 0.000900 0.999475 0.726800 -0.983400
0 -549.264282 -0.000024 -4.934300 0.049199 0.000000 0.998789 0.500000 -0.997400
pipesystem001b.bmp
0 -540.677673 -0.000024 -5.485000 0.076903 0.000000 0.997039 0.500000 -0.997100
0 -547.025085 31.776976 -5.071000 0.058400 0.001200 0.998293 0.727800 -0.980900
0 -549.264282 -0.000024 -4.934300 0.049199 0.000000 0.998789 0.500000 -0.997400
pipesystem001b.bmp
0 -547.025085 31.776976 -5.071000 0.058400 0.001200 0.998293 0.727800 -0.980900
0 -540.677673 -0.000024 -5.485000 0.076903 0.000000 0.997039 0.500000 -0.997100
0 -537.298401 35.524578 -5.789400 0.084701 0.001000 0.996406 0.726900 -0.978300
pipesystem001b.bmp
0 -526.918030 -0.000023 -6.778600 0.096701 0.000000 0.995313 0.500000 -0.996200
0 -537.298401 35.524578 -5.789400 0.084701 0.001000 0.996406 0.726900 -0.978300
0 -540.677673 -0.000024 -5.485000 0.076903 0.000000 0.997039 0.500000 -0.997100
pipesystem001b.bmp
0 -522.368591 38.864178 -7.237600 0.097503 0.000200 0.995235 0.723100 -0.975500
0 -537.298401 35.524578 -5.789400 0.084701 0.001000 0.996406 0.726900 -0.978300
0 -526.918030 -0.000023 -6.778600 0.096701 0.000000 0.995313 0.500000 -0.996200
pipesystem001b.bmp
0 -522.368591 38.864178 -7.237600 0.097503 0.000200 0.995235 0.723100 -0.975500
0 -535.303223 74.897774 -6.020900 0.088597 0.001100 0.996067 0.738500 -0.954700
0 -537.298401 35.524578 -5.789400 0.084701 0.001000 0.996406 0.726900 -0.978300
pipesystem001b.bmp
0 -545.752075 67.544777 -5.215100 0.065902 0.001900 0.997824 0.739200 -0.959900
0 -537.298401 35.524578 -5.789400 0.084701 0.001000 0.996406 0.726900 -0.978300
0 -535.303223 74.897774 -6.020900 0.088597 0.001100 0.996067 0.738500 -0.954700
pipesystem001b.bmp
0 -547.025085 31.776976 -5.071000 0.058400 0.001200 0.998293 0.727800 -0.980900
0 -537.298401 35.524578 -5.789400 0.084701 0.001000 0.996406 0.726900 -0.978300
0 -545.752075 67.544777 -5.215100 0.065902 0.001900 0.997824 0.739200 -0.959900
pipesystem001b.bmp
0 -553.858704 59.727077 -4.797700 0.039501 0.001800 0.999218 0.738800 -0.965000
0 -547.025085 31.776976 -5.071000 0.058400 0.001200 0.998293 0.727800 -0.980900
0 -545.752075 67.544777 -5.215100 0.065902 0.001900 0.997824 0.739200 -0.959900
pipesystem001b.bmp
0 -547.025085 31.776976 -5.071000 0.058400 0.001200 0.998293 0.727800 -0.980900
0 -553.858704 59.727077 -4.797700 0.039501 0.001800 0.999218 0.738800 -0.965000
0 -554.541626 28.045876 -4.725300 0.032399 0.000900 0.999475 0.726800 -0.983400
pipesystem001b.bmp
0 -561.076416 49.532478 -4.605900 0.018900 0.001200 0.999821 0.737200 -0.971300
0 -554.541626 28.045876 -4.725300 0.032399 0.000900 0.999475 0.726800 -0.983400
0 -553.858704 59.727077 -4.797700 0.039501 0.001800 0.999218 0.738800 -0.965000
pipesystem001b.bmp
0 -561.650879 21.629375 -4.572200 0.015300 0.000600 0.999883 0.721100 -0.987300
0 -554.541626 28.045876 -4.725300 0.032399 0.000900 0.999475 0.726800 -0.983400
0 -561.076416 49.532478 -4.605900 0.018900 0.001200 0.999821 0.737200 -0.971300
pipesystem001b.bmp
0 -567.556519 36.216873 -4.516100 0.009000 0.000700 0.999959 0.732900 -0.979200
0 -561.650879 21.629375 -4.572200 0.015300 0.000600 0.999883 0.721100 -0.987300
0 -561.076416 49.532478 -4.605900 0.018900 0.001200 0.999821 0.737200 -0.971300
pipesystem001b.bmp
0 -561.650879 21.629375 -4.572200 0.015300 0.000600 0.999883 0.721100 -0.987300
0 -567.556519 36.216873 -4.516100 0.009000 0.000700 0.999959 0.732900 -0.979200
0 -567.968384 14.516675 -4.499800 0.007400 0.000500 0.999973 0.708300 -0.991400
pipesystem001b.bmp
0 -572.402588 18.969576 -4.483400 0.003300 0.000400 0.999994 0.717900 -0.989000
0 -567.968384 14.516675 -4.499800 0.007400 0.000500 0.999973 0.708300 -0.991400
0 -567.556519 36.216873 -4.516100 0.009000 0.000700 0.999959 0.732900 -0.979200
pipesystem001b.bmp
0 -445.834198 53.982880 -13.437200 0.058200 -0.000600 0.998305 0.712900 -0.959500
0 -419.794708 56.569679 -14.855000 0.052800 -0.000300 0.998605 0.710700 -0.954800
0 -443.303894 110.826279 -13.543500 0.056999 -0.000600 0.998374 0.731500 -0.919500
pipesystem001b.bmp
0 -466.345795 105.559578 -12.117200 0.066698 -0.001300 0.997772 0.732700 -0.927000
0 -445.834198 53.982880 -13.437200 0.058200 -0.000600 0.998305 0.712900 -0.959500
0 -443.303894 110.826279 -13.543500 0.056999 -0.000600 0.998374 0.731500 -0.919500
pipesystem001b.bmp
0 -445.834198 53.982880 -13.437200 0.058200 -0.000600 0.998305 0.712900 -0.959500
0 -466.345795 105.559578 -12.117200 0.066698 -0.001300 0.997772 0.732700 -0.927000
0 -468.708496 51.501980 -12.032400 0.070202 -0.000900 0.997532 0.715200 -0.963400
pipesystem001b.bmp
0 -485.993011 99.093277 -10.618600 0.081498 -0.001400 0.996673 0.734000 -0.934100
0 -468.708496 51.501980 -12.032400 0.070202 -0.000900 0.997532 0.715200 -0.963400
0 -466.345795 105.559578 -12.117200 0.066698 -0.001300 0.997772 0.732700 -0.927000
pipesystem001b.bmp
0 -487.745697 47.470078 -10.535200 0.085296 -0.000800 0.996355 0.717200 -0.967700
0 -468.708496 51.501980 -12.032400 0.070202 -0.000900 0.997532 0.715200 -0.963400
0 -485.993011 99.093277 -10.618600 0.081498 -0.001400 0.996673 0.734000 -0.934100
pipesystem001b.bmp
0 -503.909210 91.517174 -9.027000 0.092204 -0.001000 0.995740 0.735400 -0.941300
0 -487.745697 47.470078 -10.535200 0.085296 -0.000800 0.996355 0.717200 -0.967700
0 -485.993011 99.093277 -10.618600 0.081498 -0.001400 0.996673 0.734000 -0.934100
pipesystem001b.bmp
0 -487.745697 47.470078 -10.535200 0.085296 -0.000800 0.996355 0.717200 -0.967700
0 -503.909210 91.517174 -9.027000 0.092204 -0.001000 0.995740 0.735400 -0.941300
0 -505.266205 43.910175 -8.937300 0.094998 -0.000400 0.995477 0.720200 -0.971300
pipesystem001b.bmp
0 -520.758423 83.106377 -7.397500 0.096602 -0.000200 0.995323 0.737000 -0.948300
0 -505.266205 43.910175 -8.937300 0.094998 -0.000400 0.995477 0.720200 -0.971300
0 -503.909210 91.517174 -9.027000 0.092204 -0.001000 0.995740 0.735400 -0.941300
pipesystem001b.bmp
0 -522.368591 38.864178 -7.237600 0.097503 0.000200 0.995235 0.723100 -0.975500
0 -505.266205 43.910175 -8.937300 0.094998 -0.000400 0.995477 0.720200 -0.971300
0 -520.758423 83.106377 -7.397500 0.096602 -0.000200 0.995323 0.737000 -0.948300
pipesystem001b.bmp
0 -535.303223 74.897774 -6.020900 0.088597 0.001100 0.996067 0.738500 -0.954700
0 -522.368591 38.864178 -7.237600 0.097503 0.000200 0.995235 0.723100 -0.975500
0 -520.758423 83.106377 -7.397500 0.096602 -0.000200 0.995323 0.737000 -0.948300
pipesystem001b.bmp
0 -509.989288 -0.000022 -8.482400 0.097603 0.000000 0.995225 0.500000 -0.995000
0 -522.368591 38.864178 -7.237600 0.097503 0.000200 0.995235 0.723100 -0.975500
0 -526.918030 -0.000023 -6.778600 0.096701 0.000000 0.995313 0.500000 -0.996200
pipesystem001b.bmp
0 -522.368591 38.864178 -7.237600 0.097503 0.000200 0.995235 0.723100 -0.975500
0 -509.989288 -0.000022 -8.482400 0.097603 0.000000 0.995225 0.500000 -0.995000
0 -505.266205 43.910175 -8.937300 0.094998 -0.000400 0.995477 0.720200 -0.971300
pipesystem001b.bmp
0 -492.631012 -0.000022 -10.117500 0.089400 0.000000 0.995996 0.500000 -0.993700
0 -505.266205 43.910175 -8.937300 0.094998 -0.000400 0.995477 0.720200 -0.971300
0 -509.989288 -0.000022 -8.482400 0.097603 0.000000 0.995225 0.500000 -0.995000
pipesystem001b.bmp
0 -487.745697 47.470078 -10.535200 0.085296 -0.000800 0.996355 0.717200 -0.967700
0 -505.266205 43.910175 -8.937300 0.094998 -0.000400 0.995477 0.720200 -0.971300
0 -492.631012 -0.000022 -10.117500 0.089400 0.000000 0.995996 0.500000 -0.993700
pipesystem001b.bmp
0 -474.372986 -0.000021 -11.646900 0.075603 0.000000 0.997138 0.500000 -0.992400
0 -487.745697 47.470078 -10.535200 0.085296 -0.000800 0.996355 0.717200 -0.967700
0 -492.631012 -0.000022 -10.117500 0.089400 0.000000 0.995996 0.500000 -0.993700
pipesystem001b.bmp
0 -487.745697 47.470078 -10.535200 0.085296 -0.000800 0.996355 0.717200 -0.967700
0 -474.372986 -0.000021 -11.646900 0.075603 0.000000 0.997138 0.500000 -0.992400
0 -468.708496 51.501980 -12.032400 0.070202 -0.000900 0.997532 0.715200 -0.963400
pipesystem001b.bmp
0 -452.534393 -0.000020 -13.060500 0.060498 0.000000 0.998168 0.500000 -0.991000
0 -468.708496 51.501980 -12.032400 0.070202 -0.000900 0.997532 0.715200 -0.963400
0 -474.372986 -0.000021 -11.646900 0.075603 0.000000 0.997138 0.500000 -0.992400
pipesystem001b.bmp
0 -445.834198 53.982880 -13.437200 0.058200 -0.000600 0.998305 0.712900 -0.959500
0 -468.708496 51.501980 -12.032400 0.070202 -0.000900 0.997532 0.715200 -0.963400
0 -452.534393 -0.000020 -13.060500 0.060498 0.000000 0.998168 0.500000 -0.991000
pipesystem001b.bmp
0 -427.419006 -0.000019 -14.459300 0.053797 0.000000 0.998552 0.500000 -0.989400
0 -445.834198 53.982880 -13.437200 0.058200 -0.000600 0.998305 0.712900 -0.959500
0 -452.534393 -0.000020 -13.060500 0.060498 0.000000 0.998168 0.500000 -0.991000
pipesystem001b.bmp
0 -445.834198 53.982880 -13.437200 0.058200 -0.000600 0.998305 0.712900 -0.959500
0 -427.419006 -0.000019 -14.459300 0.053797 0.000000 0.998552 0.500000 -0.989400
0 -419.794708 56.569679 -14.855000 0.052800 -0.000300 0.998605 0.710700 -0.954800
pipesystem001b.bmp
0 -468.708496 -51.502018 -12.032400 0.070202 0.000900 0.997532 0.284800 -0.963400
0 -445.834198 -53.982918 -13.437200 0.058200 0.000600 0.998305 0.287100 -0.959500
0 -452.534393 -0.000020 -13.060500 0.060498 0.000000 0.998168 0.500000 -0.991000
pipesystem001b.bmp
0 -468.708496 -51.502018 -12.032400 0.070202 0.000900 0.997532 0.284800 -0.963400
0 -452.534393 -0.000020 -13.060500 0.060498 0.000000 0.998168 0.500000 -0.991000
0 -474.372986 -0.000021 -11.646900 0.075603 0.000000 0.997138 0.500000 -0.992400
pipesystem001b.bmp
0 -474.372986 -0.000021 -11.646900 0.075603 0.000000 0.997138 0.500000 -0.992400
0 -487.745697 -47.470123 -10.535200 0.085296 0.000800 0.996355 0.282800 -0.967700
0 -468.708496 -51.502018 -12.032400 0.070202 0.000900 0.997532 0.284800 -0.963400
pipesystem001b.bmp
0 -487.745697 -47.470123 -10.535200 0.085296 0.000800 0.996355 0.282800 -0.967700
0 -474.372986 -0.000021 -11.646900 0.075603 0.000000 0.997138 0.500000 -0.992400
0 -492.631012 -0.000022 -10.117500 0.089400 0.000000 0.995996 0.500000 -0.993700
pipesystem001b.bmp
0 -505.266205 -43.910221 -8.937300 0.094998 0.000400 0.995477 0.279800 -0.971300
0 -487.745697 -47.470123 -10.535200 0.085296 0.000800 0.996355 0.282800 -0.967700
0 -492.631012 -0.000022 -10.117500 0.089400 0.000000 0.995996 0.500000 -0.993700
pipesystem001b.bmp
0 -505.266205 -43.910221 -8.937300 0.094998 0.000400 0.995477 0.279800 -0.971300
0 -492.631012 -0.000022 -10.117500 0.089400 0.000000 0.995996 0.500000 -0.993700
0 -509.989288 -0.000022 -8.482400 0.097603 0.000000 0.995225 0.500000 -0.995000
pipesystem001b.bmp
0 -509.989288 -0.000022 -8.482400 0.097603 0.000000 0.995225 0.500000 -0.995000
0 -522.368591 -38.864223 -7.237600 0.097503 -0.000200 0.995235 0.276900 -0.975500
0 -505.266205 -43.910221 -8.937300 0.094998 0.000400 0.995477 0.279800 -0.971300
pipesystem001b.bmp
0 -522.368591 -38.864223 -7.237600 0.097503 -0.000200 0.995235 0.276900 -0.975500
0 -509.989288 -0.000022 -8.482400 0.097603 0.000000 0.995225 0.500000 -0.995000
0 -526.918030 -0.000023 -6.778600 0.096701 0.000000 0.995313 0.500000 -0.996200
pipesystem001b.bmp
0 -537.298401 -35.524624 -5.789400 0.084701 -0.001000 0.996406 0.273100 -0.978300
0 -522.368591 -38.864223 -7.237600 0.097503 -0.000200 0.995235 0.276900 -0.975500
0 -526.918030 -0.000023 -6.778600 0.096701 0.000000 0.995313 0.500000 -0.996200
pipesystem001b.bmp
0 -537.298401 -35.524624 -5.789400 0.084701 -0.001000 0.996406 0.273100 -0.978300
0 -526.918030 -0.000023 -6.778600 0.096701 0.000000 0.995313 0.500000 -0.996200
0 -540.677673 -0.000024 -5.485000 0.076903 0.000000 0.997039 0.500000 -0.997100
pipesystem001b.bmp
0 -547.025085 -31.777025 -5.071000 0.058400 -0.001200 0.998293 0.272200 -0.980900
0 -553.858704 -59.727123 -4.797700 0.039501 -0.001800 0.999218 0.261200 -0.965000
0 -545.752075 -67.544823 -5.215100 0.065902 -0.001900 0.997824 0.260800 -0.959900
pipesystem001b.bmp
0 -537.298401 -35.524624 -5.789400 0.084701 -0.001000 0.996406 0.273100 -0.978300
0 -547.025085 -31.777025 -5.071000 0.058400 -0.001200 0.998293 0.272200 -0.980900
0 -545.752075 -67.544823 -5.215100 0.065902 -0.001900 0.997824 0.260800 -0.959900
pipesystem001b.bmp
0 -537.298401 -35.524624 -5.789400 0.084701 -0.001000 0.996406 0.273100 -0.978300
0 -545.752075 -67.544823 -5.215100 0.065902 -0.001900 0.997824 0.260800 -0.959900
0 -535.303223 -74.897820 -6.020900 0.088597 -0.001100 0.996067 0.261500 -0.954700
pipesystem001b.bmp
0 -535.303223 -74.897820 -6.020900 0.088597 -0.001100 0.996067 0.261500 -0.954700
0 -522.368591 -38.864223 -7.237600 0.097503 -0.000200 0.995235 0.276900 -0.975500
0 -537.298401 -35.524624 -5.789400 0.084701 -0.001000 0.996406 0.273100 -0.978300
pipesystem001b.bmp
0 -522.368591 -38.864223 -7.237600 0.097503 -0.000200 0.995235 0.276900 -0.975500
0 -535.303223 -74.897820 -6.020900 0.088597 -0.001100 0.996067 0.261500 -0.954700
0 -520.758423 -83.106422 -7.397500 0.096602 0.000200 0.995323 0.263000 -0.948300
pipesystem001b.bmp
0 -505.266205 -43.910221 -8.937300 0.094998 0.000400 0.995477 0.279800 -0.971300
0 -522.368591 -38.864223 -7.237600 0.097503 -0.000200 0.995235 0.276900 -0.975500
0 -520.758423 -83.106422 -7.397500 0.096602 0.000200 0.995323 0.263000 -0.948300
pipesystem001b.bmp
0 -505.266205 -43.910221 -8.937300 0.094998 0.000400 0.995477 0.279800 -0.971300
0 -520.758423 -83.106422 -7.397500 0.096602 0.000200 0.995323 0.263000 -0.948300
0 -503.909210 -91.517220 -9.027000 0.092204 0.001000 0.995740 0.264600 -0.941300
pipesystem001b.bmp
0 -503.909210 -91.517220 -9.027000 0.092204 0.001000 0.995740 0.264600 -0.941300
0 -487.745697 -47.470123 -10.535200 0.085296 0.000800 0.996355 0.282800 -0.967700
0 -505.266205 -43.910221 -8.937300 0.094998 0.000400 0.995477 0.279800 -0.971300
pipesystem001b.bmp
0 -487.745697 -47.470123 -10.535200 0.085296 0.000800 0.996355 0.282800 -0.967700
0 -503.909210 -91.517220 -9.027000 0.092204 0.001000 0.995740 0.264600 -0.941300
0 -485.993011 -99.093323 -10.618600 0.081498 0.001400 0.996673 0.266000 -0.934100
pipesystem001b.bmp
0 -468.708496 -51.502018 -12.032400 0.070202 0.000900 0.997532 0.284800 -0.963400
0 -487.745697 -47.470123 -10.535200 0.085296 0.000800 0.996355 0.282800 -0.967700
0 -485.993011 -99.093323 -10.618600 0.081498 0.001400 0.996673 0.266000 -0.934100
pipesystem001b.bmp
0 -468.708496 -51.502018 -12.032400 0.070202 0.000900 0.997532 0.284800 -0.963400
0 -485.993011 -99.093323 -10.618600 0.081498 0.001400 0.996673 0.266000 -0.934100
0 -466.345795 -105.559624 -12.117200 0.066698 0.001300 0.997772 0.267300 -0.927000
pipesystem001b.bmp
0 -466.345795 -105.559624 -12.117200 0.066698 0.001300 0.997772 0.267300 -0.927000
0 -445.834198 -53.982918 -13.437200 0.058200 0.000600 0.998305 0.287100 -0.959500
0 -468.708496 -51.502018 -12.032400 0.070202 0.000900 0.997532 0.284800 -0.963400
pipesystem001b.bmp
0 -445.834198 -53.982918 -13.437200 0.058200 0.000600 0.998305 0.287100 -0.959500
0 -466.345795 -105.559624 -12.117200 0.066698 0.001300 0.997772 0.267300 -0.927000
0 -443.303894 -110.826324 -13.543500 0.056999 0.000600 0.998374 0.268500 -0.919500
pipesystem001b.bmp
0 -419.794708 -56.569717 -14.855000 0.052800 0.000300 0.998605 0.289300 -0.954800
0 -445.834198 -53.982918 -13.437200 0.058200 0.000600 0.998305 0.287100 -0.959500
0 -443.303894 -110.826324 -13.543500 0.056999 0.000600 0.998374 0.268500 -0.919500
pipesystem001b.bmp
0 -419.794708 -56.569717 -14.855000 0.052800 0.000300 0.998605 0.289300 -0.954800
0 -443.303894 -110.826324 -13.543500 0.056999 0.000600 0.998374 0.268500 -0.919500
0 -417.062897 -115.874214 -14.977600 0.052202 0.000300 0.998636 0.269600 -0.910700
pipesystem001b.bmp
0 -417.062897 -115.874214 -14.977600 0.052202 0.000300 0.998636 0.269600 -0.910700
0 -389.892090 -58.872414 -16.377501 0.050102 0.000200 0.998744 0.291700 -0.949100
0 -419.794708 -56.569717 -14.855000 0.052800 0.000300 0.998605 0.289300 -0.954800
pipesystem001b.bmp
0 -389.892090 -58.872414 -16.377501 0.050102 0.000200 0.998744 0.291700 -0.949100
0 -417.062897 -115.874214 -14.977600 0.052202 0.000300 0.998636 0.269600 -0.910700
0 -387.950714 -121.382118 -16.461500 0.049698 0.000300 0.998764 0.270700 -0.899900
pipesystem001b.bmp
0 -359.993896 -62.265015 -17.850100 0.048002 0.000200 0.998847 0.293000 -0.941600
0 -389.892090 -58.872414 -16.377501 0.050102 0.000200 0.998744 0.291700 -0.949100
0 -387.950714 -121.382118 -16.461500 0.049698 0.000300 0.998764 0.270700 -0.899900
pipesystem001b.bmp
0 -359.993896 -62.265015 -17.850100 0.048002 0.000200 0.998847 0.293000 -0.941600
0 -387.950714 -121.382118 -16.461500 0.049698 0.000300 0.998764 0.270700 -0.899900
0 -358.910309 -126.545517 -17.880899 0.046900 0.000500 0.998899 0.271600 -0.887800
pipesystem001b.bmp
0 -358.910309 -126.545517 -17.880899 0.046900 0.000500 0.998899 0.271600 -0.887800
0 -333.764801 -64.252716 -19.069901 0.043598 0.000400 0.999049 0.294500 -0.934900
0 -359.993896 -62.265015 -17.850100 0.048002 0.000200 0.998847 0.293000 -0.941600
pipesystem001b.bmp
0 -316.310699 -0.000014 -19.815100 0.036701 0.000000 0.999326 0.500000 -0.980000
0 -333.764801 -64.252716 -19.069901 0.043598 0.000400 0.999049 0.294500 -0.934900
0 -310.845795 -65.932915 -19.985201 0.032100 0.000600 0.999484 0.295500 -0.928100
pipesystem001b.bmp
0 -333.764801 -64.252716 -19.069901 0.043598 0.000400 0.999049 0.294500 -0.934900
0 -316.310699 -0.000014 -19.815100 0.036701 0.000000 0.999326 0.500000 -0.980000
0 -340.375610 -0.000015 -18.778999 0.045698 0.000000 0.998955 0.500000 -0.982400
pipesystem001b.bmp
0 -359.993896 -62.265015 -17.850100 0.048002 0.000200 0.998847 0.293000 -0.941600
0 -333.764801 -64.252716 -19.069901 0.043598 0.000400 0.999049 0.294500 -0.934900
0 -340.375610 -0.000015 -18.778999 0.045698 0.000000 0.998955 0.500000 -0.982400
pipesystem001b.bmp
0 -359.993896 -62.265015 -17.850100 0.048002 0.000200 0.998847 0.293000 -0.941600
0 -340.375610 -0.000015 -18.778999 0.045698 0.000000 0.998955 0.500000 -0.982400
0 -367.571198 -0.000016 -17.486401 0.048800 0.000000 0.998809 0.500000 -0.984900
pipesystem001b.bmp
0 -367.571198 -0.000016 -17.486401 0.048800 0.000000 0.998809 0.500000 -0.984900
0 -389.892090 -58.872414 -16.377501 0.050102 0.000200 0.998744 0.291700 -0.949100
0 -359.993896 -62.265015 -17.850100 0.048002 0.000200 0.998847 0.293000 -0.941600
pipesystem001b.bmp
0 -389.892090 -58.872414 -16.377501 0.050102 0.000200 0.998744 0.291700 -0.949100
0 -367.571198 -0.000016 -17.486401 0.048800 0.000000 0.998809 0.500000 -0.984900
0 -398.230499 -0.000017 -15.961600 0.050601 0.000000 0.998719 0.500000 -0.987400
pipesystem001b.bmp
0 -419.794708 -56.569717 -14.855000 0.052800 0.000300 0.998605 0.289300 -0.954800
0 -389.892090 -58.872414 -16.377501 0.050102 0.000200 0.998744 0.291700 -0.949100
0 -398.230499 -0.000017 -15.961600 0.050601 0.000000 0.998719 0.500000 -0.987400
pipesystem001b.bmp
0 -419.794708 -56.569717 -14.855000 0.052800 0.000300 0.998605 0.289300 -0.954800
0 -398.230499 -0.000017 -15.961600 0.050601 0.000000 0.998719 0.500000 -0.987400
0 -427.419006 -0.000019 -14.459300 0.053797 0.000000 0.998552 0.500000 -0.989400
pipesystem001b.bmp
0 -427.419006 -0.000019 -14.459300 0.053797 0.000000 0.998552 0.500000 -0.989400
0 -445.834198 -53.982918 -13.437200 0.058200 0.000600 0.998305 0.287100 -0.959500
0 -419.794708 -56.569717 -14.855000 0.052800 0.000300 0.998605 0.289300 -0.954800
pipesystem001b.bmp
0 -445.834198 -53.982918 -13.437200 0.058200 0.000600 0.998305 0.287100 -0.959500
0 -427.419006 -0.000019 -14.459300 0.053797 0.000000 0.998552 0.500000 -0.989400
0 -452.534393 -0.000020 -13.060500 0.060498 0.000000 0.998168 0.500000 -0.991000
pipesystem001b.bmp
0 -398.230499 -0.000017 -15.961600 0.050601 0.000000 0.998719 0.500000 -0.987400
0 -419.794708 56.569679 -14.855000 0.052800 -0.000300 0.998605 0.710700 -0.954800
0 -427.419006 -0.000019 -14.459300 0.053797 0.000000 0.998552 0.500000 -0.989400
pipesystem001b.bmp
0 -389.892090 58.872383 -16.377501 0.050102 -0.000200 0.998744 0.708300 -0.949100
0 -419.794708 56.569679 -14.855000 0.052800 -0.000300 0.998605 0.710700 -0.954800
0 -398.230499 -0.000017 -15.961600 0.050601 0.000000 0.998719 0.500000 -0.987400
pipesystem001b.bmp
0 -367.571198 -0.000016 -17.486401 0.048800 0.000000 0.998809 0.500000 -0.984900
0 -389.892090 58.872383 -16.377501 0.050102 -0.000200 0.998744 0.708300 -0.949100
0 -398.230499 -0.000017 -15.961600 0.050601 0.000000 0.998719 0.500000 -0.987400
pipesystem001b.bmp
0 -389.892090 58.872383 -16.377501 0.050102 -0.000200 0.998744 0.708300 -0.949100
0 -367.571198 -0.000016 -17.486401 0.048800 0.000000 0.998809 0.500000 -0.984900
0 -359.993896 62.264984 -17.850100 0.048002 -0.000200 0.998847 0.707000 -0.941600
pipesystem001b.bmp
0 -340.375610 -0.000015 -18.778999 0.045698 0.000000 0.998955 0.500000 -0.982400
0 -359.993896 62.264984 -17.850100 0.048002 -0.000200 0.998847 0.707000 -0.941600
0 -367.571198 -0.000016 -17.486401 0.048800 0.000000 0.998809 0.500000 -0.984900
pipesystem001b.bmp
0 -333.764801 64.252686 -19.069901 0.043598 -0.000400 0.999049 0.705500 -0.934900
0 -359.993896 62.264984 -17.850100 0.048002 -0.000200 0.998847 0.707000 -0.941600
0 -340.375610 -0.000015 -18.778999 0.045698 0.000000 0.998955 0.500000 -0.982400
pipesystem001b.bmp
0 -316.310699 -0.000014 -19.815100 0.036701 0.000000 0.999326 0.500000 -0.980000
0 -333.764801 64.252686 -19.069901 0.043598 -0.000400 0.999049 0.705500 -0.934900
0 -340.375610 -0.000015 -18.778999 0.045698 0.000000 0.998955 0.500000 -0.982400
pipesystem001b.bmp
0 -333.764801 64.252686 -19.069901 0.043598 -0.000400 0.999049 0.705500 -0.934900
0 -316.310699 -0.000014 -19.815100 0.036701 0.000000 0.999326 0.500000 -0.980000
0 -310.845795 65.932884 -19.985201 0.032100 -0.000600 0.999484 0.704500 -0.928100
pipesystem001b.bmp
0 -296.821014 -0.000013 -20.346399 0.022299 0.000000 0.999751 0.500000 -0.978000
0 -310.845795 65.932884 -19.985201 0.032100 -0.000600 0.999484 0.704500 -0.928100
0 -316.310699 -0.000014 -19.815100 0.036701 0.000000 0.999326 0.500000 -0.980000
pipesystem001b.bmp
0 -292.161896 66.864182 -20.423100 0.020300 -0.000300 0.999794 0.704100 -0.922400
0 -310.845795 65.932884 -19.985201 0.032100 -0.000600 0.999484 0.704500 -0.928100
0 -296.821014 -0.000013 -20.346399 0.022299 0.000000 0.999751 0.500000 -0.978000
pipesystem001b.bmp
0 -292.161896 66.864182 -20.423100 0.020300 -0.000300 0.999794 0.704100 -0.922400
0 -310.290710 132.975891 -19.933201 0.029199 -0.000800 0.999573 0.727000 -0.865400
0 -310.845795 65.932884 -19.985201 0.032100 -0.000600 0.999484 0.704500 -0.928100
pipesystem001b.bmp
0 -332.912994 130.313889 -19.062201 0.041302 -0.000800 0.999146 0.727600 -0.876200
0 -310.845795 65.932884 -19.985201 0.032100 -0.000600 0.999484 0.704500 -0.928100
0 -310.290710 132.975891 -19.933201 0.029199 -0.000800 0.999573 0.727000 -0.865400
pipesystem001b.bmp
0 -333.764801 64.252686 -19.069901 0.043598 -0.000400 0.999049 0.705500 -0.934900
0 -310.845795 65.932884 -19.985201 0.032100 -0.000600 0.999484 0.704500 -0.928100
0 -332.912994 130.313889 -19.062201 0.041302 -0.000800 0.999146 0.727600 -0.876200
pipesystem001b.bmp
0 -358.910309 126.545486 -17.880899 0.046900 -0.000500 0.998899 0.728400 -0.887800
0 -333.764801 64.252686 -19.069901 0.043598 -0.000400 0.999049 0.705500 -0.934900
0 -332.912994 130.313889 -19.062201 0.041302 -0.000800 0.999146 0.727600 -0.876200
pipesystem001b.bmp
0 -333.764801 64.252686 -19.069901 0.043598 -0.000400 0.999049 0.705500 -0.934900
0 -358.910309 126.545486 -17.880899 0.046900 -0.000500 0.998899 0.728400 -0.887800
0 -359.993896 62.264984 -17.850100 0.048002 -0.000200 0.998847 0.707000 -0.941600
pipesystem001b.bmp
0 -387.950714 121.382088 -16.461500 0.049698 -0.000300 0.998764 0.729300 -0.899900
0 -359.993896 62.264984 -17.850100 0.048002 -0.000200 0.998847 0.707000 -0.941600
0 -358.910309 126.545486 -17.880899 0.046900 -0.000500 0.998899 0.728400 -0.887800
pipesystem001b.bmp
0 -389.892090 58.872383 -16.377501 0.050102 -0.000200 0.998744 0.708300 -0.949100
0 -359.993896 62.264984 -17.850100 0.048002 -0.000200 0.998847 0.707000 -0.941600
0 -387.950714 121.382088 -16.461500 0.049698 -0.000300 0.998764 0.729300 -0.899900
pipesystem001b.bmp
0 -417.062897 115.874184 -14.977600 0.052202 -0.000300 0.998636 0.730400 -0.910700
0 -389.892090 58.872383 -16.377501 0.050102 -0.000200 0.998744 0.708300 -0.949100
0 -387.950714 121.382088 -16.461500 0.049698 -0.000300 0.998764 0.729300 -0.899900
pipesystem001b.bmp
0 -389.892090 58.872383 -16.377501 0.050102 -0.000200 0.998744 0.708300 -0.949100
0 -417.062897 115.874184 -14.977600 0.052202 -0.000300 0.998636 0.730400 -0.910700
0 -419.794708 56.569679 -14.855000 0.052800 -0.000300 0.998605 0.710700 -0.954800
pipesystem001b.bmp
0 -443.303894 110.826279 -13.543500 0.056999 -0.000600 0.998374 0.731500 -0.919500
0 -419.794708 56.569679 -14.855000 0.052800 -0.000300 0.998605 0.710700 -0.954800
0 -417.062897 115.874184 -14.977600 0.052202 -0.000300 0.998636 0.730400 -0.910700
pipesystem001b.bmp
0 -206.536194 69.874489 -21.949100 0.013300 -0.000300 0.999911 0.702800 -0.885800
0 -169.775406 70.992195 -22.359501 0.008300 -0.000400 0.999965 0.702700 -0.860300
0 -202.699799 141.186584 -21.960800 0.012000 -0.000600 0.999928 0.726100 -0.795700
pipesystem001b.bmp
0 -233.314606 139.364288 -21.519501 0.016100 -0.000500 0.999870 0.726300 -0.819800
0 -206.536194 69.874489 -21.949100 0.013300 -0.000300 0.999911 0.702800 -0.885800
0 -202.699799 141.186584 -21.960800 0.012000 -0.000600 0.999928 0.726100 -0.795700
pipesystem001b.bmp
0 -206.536194 69.874489 -21.949100 0.013300 -0.000300 0.999911 0.702800 -0.885800
0 -233.314606 139.364288 -21.519501 0.016100 -0.000500 0.999870 0.726300 -0.819800
0 -237.313004 69.138596 -21.481899 0.017601 -0.000200 0.999845 0.703300 -0.901400
pipesystem001b.bmp
0 -255.747406 137.798279 -21.103300 0.019500 -0.000300 0.999810 0.726500 -0.834900
0 -237.313004 69.138596 -21.481899 0.017601 -0.000200 0.999845 0.703300 -0.901400
0 -233.314606 139.364288 -21.519501 0.016100 -0.000500 0.999870 0.726300 -0.819800
pipesystem001b.bmp
0 -258.328888 68.338394 -21.059799 0.020600 0.000000 0.999788 0.703700 -0.910400
0 -237.313004 69.138596 -21.481899 0.017601 -0.000200 0.999845 0.703300 -0.901400
0 -255.747406 137.798279 -21.103300 0.019500 -0.000300 0.999810 0.726500 -0.834900
pipesystem001b.bmp
0 -273.892609 136.356277 -20.745300 0.019800 0.000100 0.999804 0.726700 -0.846000
0 -258.328888 68.338394 -21.059799 0.020600 0.000000 0.999788 0.703700 -0.910400
0 -255.747406 137.798279 -21.103300 0.019500 -0.000300 0.999810 0.726500 -0.834900
pipesystem001b.bmp
0 -258.328888 68.338394 -21.059799 0.020600 0.000000 0.999788 0.703700 -0.910400
0 -273.892609 136.356277 -20.745300 0.019800 0.000100 0.999804 0.726700 -0.846000
0 -275.300507 67.725487 -20.703699 0.019000 0.000000 0.999819 0.704100 -0.916700
pipesystem001b.bmp
0 -291.270996 134.840591 -20.419399 0.020300 -0.000100 0.999794 0.726800 -0.855600
0 -275.300507 67.725487 -20.703699 0.019000 0.000000 0.999819 0.704100 -0.916700
0 -273.892609 136.356277 -20.745300 0.019800 0.000100 0.999804 0.726700 -0.846000
pipesystem001b.bmp
0 -292.161896 66.864182 -20.423100 0.020300 -0.000300 0.999794 0.704100 -0.922400
0 -275.300507 67.725487 -20.703699 0.019000 0.000000 0.999819 0.704100 -0.916700
0 -291.270996 134.840591 -20.419399 0.020300 -0.000100 0.999794 0.726800 -0.855600
pipesystem001b.bmp
0 -310.290710 132.975891 -19.933201 0.029199 -0.000800 0.999573 0.727000 -0.865400
0 -292.161896 66.864182 -20.423100 0.020300 -0.000300 0.999794 0.704100 -0.922400
0 -291.270996 134.840591 -20.419399 0.020300 -0.000100 0.999794 0.726800 -0.855600
pipesystem001b.bmp
0 -279.716614 -0.000012 -20.624701 0.017601 0.000000 0.999845 0.500000 -0.976300
0 -292.161896 66.864182 -20.423100 0.020300 -0.000300 0.999794 0.704100 -0.922400
0 -296.821014 -0.000013 -20.346399 0.022299 0.000000 0.999751 0.500000 -0.978000
pipesystem001b.bmp
0 -292.161896 66.864182 -20.423100 0.020300 -0.000300 0.999794 0.704100 -0.922400
0 -279.716614 -0.000012 -20.624701 0.017601 0.000000 0.999845 0.500000 -0.976300
0 -275.300507 67.725487 -20.703699 0.019000 0.000000 0.999819 0.704100 -0.916700
pipesystem001b.bmp
0 -263.264099 -0.000012 -20.951700 0.020800 0.000000 0.999784 0.500000 -0.974300
0 -275.300507 67.725487 -20.703699 0.019000 0.000000 0.999819 0.704100 -0.916700
0 -279.716614 -0.000012 -20.624701 0.017601 0.000000 0.999845 0.500000 -0.976300
pipesystem001b.bmp
0 -258.328888 68.338394 -21.059799 0.020600 0.000000 0.999788 0.703700 -0.910400
0 -275.300507 67.725487 -20.703699 0.019000 0.000000 0.999819 0.704100 -0.916700
0 -263.264099 -0.000012 -20.951700 0.020800 0.000000 0.999784 0.500000 -0.974300
pipesystem001b.bmp
0 -244.397598 -0.000011 -21.358101 0.019300 0.000000 0.999814 0.500000 -0.971700
0 -258.328888 68.338394 -21.059799 0.020600 0.000000 0.999788 0.703700 -0.910400
0 -263.264099 -0.000012 -20.951700 0.020800 0.000000 0.999784 0.500000 -0.974300
pipesystem001b.bmp
0 -258.328888 68.338394 -21.059799 0.020600 0.000000 0.999788 0.703700 -0.910400
0 -244.397598 -0.000011 -21.358101 0.019300 0.000000 0.999814 0.500000 -0.971700
0 -237.313004 69.138596 -21.481899 0.017601 -0.000200 0.999845 0.703300 -0.901400
pipesystem001b.bmp
0 -215.978607 -0.000009 -21.824100 0.014800 0.000000 0.999890 0.500000 -0.967100
0 -237.313004 69.138596 -21.481899 0.017601 -0.000200 0.999845 0.703300 -0.901400
0 -244.397598 -0.000011 -21.358101 0.019300 0.000000 0.999814 0.500000 -0.971700
pipesystem001b.bmp
0 -206.536194 69.874489 -21.949100 0.013300 -0.000300 0.999911 0.702800 -0.885800
0 -237.313004 69.138596 -21.481899 0.017601 -0.000200 0.999845 0.703300 -0.901400
0 -215.978607 -0.000009 -21.824100 0.014800 0.000000 0.999890 0.500000 -0.967100
pipesystem001b.bmp
0 -180.542496 -0.000008 -22.275400 0.010200 0.000000 0.999948 0.500000 -0.959400
0 -206.536194 69.874489 -21.949100 0.013300 -0.000300 0.999911 0.702800 -0.885800
0 -215.978607 -0.000009 -21.824100 0.014800 0.000000 0.999890 0.500000 -0.967100
pipesystem001b.bmp
0 -206.536194 69.874489 -21.949100 0.013300 -0.000300 0.999911 0.702800 -0.885800
0 -180.542496 -0.000008 -22.275400 0.010200 0.000000 0.999948 0.500000 -0.959400
0 -169.775406 70.992195 -22.359501 0.008300 -0.000400 0.999965 0.702700 -0.860300
pipesystem001b.bmp
0 -237.313004 -69.138611 -21.481899 0.017601 0.000200 0.999845 0.296700 -0.901400
0 -206.536194 -69.874504 -21.949100 0.013300 0.000300 0.999911 0.297200 -0.885800
0 -215.978607 -0.000009 -21.824100 0.014800 0.000000 0.999890 0.500000 -0.967100
pipesystem001b.bmp
0 -237.313004 -69.138611 -21.481899 0.017601 0.000200 0.999845 0.296700 -0.901400
0 -215.978607 -0.000009 -21.824100 0.014800 0.000000 0.999890 0.500000 -0.967100
0 -244.397598 -0.000011 -21.358101 0.019300 0.000000 0.999814 0.500000 -0.971700
pipesystem001b.bmp
0 -244.397598 -0.000011 -21.358101 0.019300 0.000000 0.999814 0.500000 -0.971700
0 -258.328888 -68.338409 -21.059799 0.020600 0.000000 0.999788 0.296300 -0.910400
0 -237.313004 -69.138611 -21.481899 0.017601 0.000200 0.999845 0.296700 -0.901400
pipesystem001b.bmp
0 -258.328888 -68.338409 -21.059799 0.020600 0.000000 0.999788 0.296300 -0.910400
0 -244.397598 -0.000011 -21.358101 0.019300 0.000000 0.999814 0.500000 -0.971700
0 -263.264099 -0.000012 -20.951700 0.020800 0.000000 0.999784 0.500000 -0.974300
pipesystem001b.bmp
0 -275.300507 -67.725517 -20.703699 0.019000 0.000000 0.999819 0.295900 -0.916700
0 -258.328888 -68.338409 -21.059799 0.020600 0.000000 0.999788 0.296300 -0.910400
0 -263.264099 -0.000012 -20.951700 0.020800 0.000000 0.999784 0.500000 -0.974300
pipesystem001b.bmp
0 -275.300507 -67.725517 -20.703699 0.019000 0.000000 0.999819 0.295900 -0.916700
0 -263.264099 -0.000012 -20.951700 0.020800 0.000000 0.999784 0.500000 -0.974300
0 -279.716614 -0.000012 -20.624701 0.017601 0.000000 0.999845 0.500000 -0.976300
pipesystem001b.bmp
0 -279.716614 -0.000012 -20.624701 0.017601 0.000000 0.999845 0.500000 -0.976300
0 -292.161896 -66.864212 -20.423100 0.020300 0.000300 0.999794 0.295900 -0.922400
0 -275.300507 -67.725517 -20.703699 0.019000 0.000000 0.999819 0.295900 -0.916700
pipesystem001b.bmp
0 -292.161896 -66.864212 -20.423100 0.020300 0.000300 0.999794 0.295900 -0.922400
0 -279.716614 -0.000012 -20.624701 0.017601 0.000000 0.999845 0.500000 -0.976300
0 -296.821014 -0.000013 -20.346399 0.022299 0.000000 0.999751 0.500000 -0.978000
pipesystem001b.bmp
0 -310.845795 -65.932915 -19.985201 0.032100 0.000600 0.999484 0.295500 -0.928100
0 -292.161896 -66.864212 -20.423100 0.020300 0.000300 0.999794 0.295900 -0.922400
0 -296.821014 -0.000013 -20.346399 0.022299 0.000000 0.999751 0.500000 -0.978000
pipesystem001b.bmp
0 -310.845795 -65.932915 -19.985201 0.032100 0.000600 0.999484 0.295500 -0.928100
0 -296.821014 -0.000013 -20.346399 0.022299 0.000000 0.999751 0.500000 -0.978000
0 -316.310699 -0.000014 -19.815100 0.036701 0.000000 0.999326 0.500000 -0.980000
pipesystem001b.bmp
0 -333.764801 -64.252716 -19.069901 0.043598 0.000400 0.999049 0.294500 -0.934900
0 -358.910309 -126.545517 -17.880899 0.046900 0.000500 0.998899 0.271600 -0.887800
0 -332.912994 -130.313919 -19.062201 0.041302 0.000800 0.999146 0.272400 -0.876200
pipesystem001b.bmp
0 -310.845795 -65.932915 -19.985201 0.032100 0.000600 0.999484 0.295500 -0.928100
0 -333.764801 -64.252716 -19.069901 0.043598 0.000400 0.999049 0.294500 -0.934900
0 -332.912994 -130.313919 -19.062201 0.041302 0.000800 0.999146 0.272400 -0.876200
pipesystem001b.bmp
0 -310.845795 -65.932915 -19.985201 0.032100 0.000600 0.999484 0.295500 -0.928100
0 -332.912994 -130.313919 -19.062201 0.041302 0.000800 0.999146 0.272400 -0.876200
0 -310.290710 -132.975922 -19.933201 0.029199 0.000800 0.999573 0.273000 -0.865400
pipesystem001b.bmp
0 -310.290710 -132.975922 -19.933201 0.029199 0.000800 0.999573 0.273000 -0.865400
0 -292.161896 -66.864212 -20.423100 0.020300 0.000300 0.999794 0.295900 -0.922400
0 -310.845795 -65.932915 -19.985201 0.032100 0.000600 0.999484 0.295500 -0.928100
pipesystem001b.bmp
0 -292.161896 -66.864212 -20.423100 0.020300 0.000300 0.999794 0.295900 -0.922400
0 -310.290710 -132.975922 -19.933201 0.029199 0.000800 0.999573 0.273000 -0.865400
0 -291.270996 -134.840622 -20.419399 0.020300 0.000100 0.999794 0.273200 -0.855600
pipesystem001b.bmp
0 -275.300507 -67.725517 -20.703699 0.019000 0.000000 0.999819 0.295900 -0.916700
0 -292.161896 -66.864212 -20.423100 0.020300 0.000300 0.999794 0.295900 -0.922400
0 -291.270996 -134.840622 -20.419399 0.020300 0.000100 0.999794 0.273200 -0.855600
pipesystem001b.bmp
0 -275.300507 -67.725517 -20.703699 0.019000 0.000000 0.999819 0.295900 -0.916700
0 -291.270996 -134.840622 -20.419399 0.020300 0.000100 0.999794 0.273200 -0.855600
0 -273.892609 -136.356308 -20.745300 0.019800 -0.000100 0.999804 0.273300 -0.846000
pipesystem001b.bmp
0 -273.892609 -136.356308 -20.745300 0.019800 -0.000100 0.999804 0.273300 -0.846000
0 -258.328888 -68.338409 -21.059799 0.020600 0.000000 0.999788 0.296300 -0.910400
0 -275.300507 -67.725517 -20.703699 0.019000 0.000000 0.999819 0.295900 -0.916700
pipesystem001b.bmp
0 -258.328888 -68.338409 -21.059799 0.020600 0.000000 0.999788 0.296300 -0.910400
0 -273.892609 -136.356308 -20.745300 0.019800 -0.000100 0.999804 0.273300 -0.846000
0 -255.747406 -137.798309 -21.103300 0.019500 0.000300 0.999810 0.273500 -0.834900
pipesystem001b.bmp
0 -237.313004 -69.138611 -21.481899 0.017601 0.000200 0.999845 0.296700 -0.901400
0 -258.328888 -68.338409 -21.059799 0.020600 0.000000 0.999788 0.296300 -0.910400
0 -255.747406 -137.798309 -21.103300 0.019500 0.000300 0.999810 0.273500 -0.834900
pipesystem001b.bmp
0 513.023804 -26.961777 15.854100 -0.112100 0.000500 0.993697 0.162800 -0.019100
0 525.597229 0.000023 17.284599 -0.114897 -0.000000 0.993377 0.000000 -0.010600
0 508.308411 0.000022 15.320800 -0.110596 -0.000000 0.993865 0.000000 -0.009700
pipesystem001b.bmp
0 494.546112 -32.087677 13.807200 -0.108005 0.000300 0.994150 0.182800 -0.022100
0 513.023804 -26.961777 15.854100 -0.112100 0.000500 0.993697 0.162800 -0.019100
0 508.308411 0.000022 15.320800 -0.110596 -0.000000 0.993865 0.000000 -0.009700
pipesystem001b.bmp
0 494.546112 -32.087677 13.807200 -0.108005 0.000300 0.994150 0.182800 -0.022100
0 508.308411 0.000022 15.320800 -0.110596 -0.000000 0.993865 0.000000 -0.009700
0 489.300110 0.000021 13.239200 -0.106600 -0.000000 0.994302 0.000000 -0.008800
pipesystem001b.bmp
0 489.300110 0.000021 13.239200 -0.106600 -0.000000 0.994302 0.000000 -0.008800
0 473.406311 -38.672279 11.558200 -0.105799 -0.000000 0.994388 0.201500 -0.026500
0 494.546112 -32.087677 13.807200 -0.108005 0.000300 0.994150 0.182800 -0.022100
pipesystem001b.bmp
0 473.406311 -38.672279 11.558200 -0.105799 -0.000000 0.994388 0.201500 -0.026500
0 489.300110 0.000021 13.239200 -0.106600 -0.000000 0.994302 0.000000 -0.008800
0 467.428192 0.000020 10.927400 -0.105700 -0.000000 0.994398 0.000000 -0.007700
pipesystem001b.bmp
0 450.001099 -43.824780 9.068800 -0.106897 -0.000100 0.994270 0.215400 -0.030800
0 473.406311 -38.672279 11.558200 -0.105799 -0.000000 0.994388 0.201500 -0.026500
0 467.428192 0.000020 10.927400 -0.105700 -0.000000 0.994398 0.000000 -0.007700
pipesystem001b.bmp
0 450.001099 -43.824780 9.068800 -0.106897 -0.000100 0.994270 0.215400 -0.030800
0 467.428192 0.000020 10.927400 -0.105700 -0.000000 0.994398 0.000000 -0.007700
0 443.341003 0.000019 8.350800 -0.107698 -0.000000 0.994184 0.000000 -0.006300
pipesystem001b.bmp
0 443.341003 0.000019 8.350800 -0.107698 -0.000000 0.994184 0.000000 -0.006300
0 423.583588 -50.516781 6.192800 -0.107501 0.000200 0.994205 0.228700 -0.037100
0 450.001099 -43.824780 9.068800 -0.106897 -0.000100 0.994270 0.215400 -0.030800
pipesystem001b.bmp
0 423.583588 -50.516781 6.192800 -0.107501 0.000200 0.994205 0.228700 -0.037100
0 443.341003 0.000019 8.350800 -0.107698 -0.000000 0.994184 0.000000 -0.006300
0 416.181091 0.000018 5.384200 -0.106996 -0.000000 0.994259 0.000000 -0.004500
pipesystem001b.bmp
0 395.791901 -54.694580 3.207600 -0.103701 0.000400 0.994608 0.238900 -0.042600
0 423.583588 -50.516781 6.192800 -0.107501 0.000200 0.994205 0.228700 -0.037100
0 416.181091 0.000018 5.384200 -0.106996 -0.000000 0.994259 0.000000 -0.004500
pipesystem001b.bmp
0 367.611603 -58.788784 0.356900 -0.097602 0.000500 0.995225 0.247400 -0.049000
0 342.003815 -120.351982 -2.043100 -0.092699 0.000800 0.995694 0.251900 -0.104400
0 369.654907 -113.533783 0.597600 -0.098999 0.000700 0.995087 0.248300 -0.092100
pipesystem001b.bmp
0 395.791901 -54.694580 3.207600 -0.103701 0.000400 0.994608 0.238900 -0.042600
0 367.611603 -58.788784 0.356900 -0.097602 0.000500 0.995225 0.247400 -0.049000
0 369.654907 -113.533783 0.597600 -0.098999 0.000700 0.995087 0.248300 -0.092100
pipesystem001b.bmp
0 395.791901 -54.694580 3.207600 -0.103701 0.000400 0.994608 0.238900 -0.042600
0 369.654907 -113.533783 0.597600 -0.098999 0.000700 0.995087 0.248300 -0.092100
0 397.604797 -105.108086 3.431700 -0.104700 0.000500 0.994504 0.243900 -0.080100
pipesystem001b.bmp
0 397.604797 -105.108086 3.431700 -0.104700 0.000500 0.994504 0.243900 -0.080100
0 423.583588 -50.516781 6.192800 -0.107501 0.000200 0.994205 0.228700 -0.037100
0 395.791901 -54.694580 3.207600 -0.103701 0.000400 0.994608 0.238900 -0.042600
pipesystem001b.bmp
0 423.583588 -50.516781 6.192800 -0.107501 0.000200 0.994205 0.228700 -0.037100
0 397.604797 -105.108086 3.431700 -0.104700 0.000500 0.994504 0.243900 -0.080100
0 425.062500 -94.489586 6.358300 -0.107204 -0.000000 0.994237 0.238300 -0.068000
pipesystem001b.bmp
0 450.001099 -43.824780 9.068800 -0.106897 -0.000100 0.994270 0.215400 -0.030800
0 423.583588 -50.516781 6.192800 -0.107501 0.000200 0.994205 0.228700 -0.037100
0 425.062500 -94.489586 6.358300 -0.107204 -0.000000 0.994237 0.238300 -0.068000
pipesystem001b.bmp
0 450.001099 -43.824780 9.068800 -0.106897 -0.000100 0.994270 0.215400 -0.030800
0 425.062500 -94.489586 6.358300 -0.107204 -0.000000 0.994237 0.238300 -0.068000
0 451.048706 -82.827080 9.169200 -0.106501 -0.000200 0.994313 0.231300 -0.056800
pipesystem001b.bmp
0 451.048706 -82.827080 9.169200 -0.106501 -0.000200 0.994313 0.231300 -0.056800
0 473.406311 -38.672279 11.558200 -0.105799 -0.000000 0.994388 0.201500 -0.026500
0 450.001099 -43.824780 9.068800 -0.106897 -0.000100 0.994270 0.215400 -0.030800
pipesystem001b.bmp
0 473.406311 -38.672279 11.558200 -0.105799 -0.000000 0.994388 0.201500 -0.026500
0 451.048706 -82.827080 9.169200 -0.106501 -0.000200 0.994313 0.231300 -0.056800
0 474.379913 -71.067177 11.664900 -0.106402 0.000300 0.994323 0.222800 -0.046900
pipesystem001b.bmp
0 494.546112 -32.087677 13.807200 -0.108005 0.000300 0.994150 0.182800 -0.022100
0 473.406311 -38.672279 11.558200 -0.105799 -0.000000 0.994388 0.201500 -0.026500
0 474.379913 -71.067177 11.664900 -0.106402 0.000300 0.994323 0.222800 -0.046900
pipesystem001b.bmp
0 494.546112 -32.087677 13.807200 -0.108005 0.000300 0.994150 0.182800 -0.022100
0 474.379913 -71.067177 11.664900 -0.106402 0.000300 0.994323 0.222800 -0.046900
0 495.337311 -59.323078 13.912700 -0.109301 0.000700 0.994008 0.211800 -0.038200
pipesystem001b.bmp
0 495.337311 -59.323078 13.912700 -0.109301 0.000700 0.994008 0.211800 -0.038200
0 513.023804 -26.961777 15.854100 -0.112100 0.000500 0.993697 0.162800 -0.019100
0 494.546112 -32.087677 13.807200 -0.108005 0.000300 0.994150 0.182800 -0.022100
pipesystem001b.bmp
0 513.023804 -26.961777 15.854100 -0.112100 0.000500 0.993697 0.162800 -0.019100
0 495.337311 -59.323078 13.912700 -0.109301 0.000700 0.994008 0.211800 -0.038200
0 513.817383 -47.538078 15.959800 -0.112999 0.000800 0.993595 0.196600 -0.030400
pipesystem001b.bmp
0 529.806274 -20.229076 17.779100 -0.116104 0.000400 0.993237 0.132600 -0.016100
0 513.023804 -26.961777 15.854100 -0.112100 0.000500 0.993697 0.162800 -0.019100
0 513.817383 -47.538078 15.959800 -0.112999 0.000800 0.993595 0.196600 -0.030400
pipesystem001b.bmp
0 529.806274 -20.229076 17.779100 -0.116104 0.000400 0.993237 0.132600 -0.016100
0 513.817383 -47.538078 15.959800 -0.112999 0.000800 0.993595 0.196600 -0.030400
0 530.414429 -36.100777 17.860600 -0.116104 0.000100 0.993237 0.174800 -0.023800
pipesystem001b.bmp
0 530.414429 -36.100777 17.860600 -0.116104 0.000100 0.993237 0.174800 -0.023800
0 544.630981 -15.403876 19.540800 -0.116598 -0.000600 0.993179 0.103900 -0.014500
0 529.806274 -20.229076 17.779100 -0.116104 0.000400 0.993237 0.132600 -0.016100
pipesystem001b.bmp
0 544.630981 -15.403876 19.540800 -0.116598 -0.000600 0.993179 0.103900 -0.014500
0 530.414429 -36.100777 17.860600 -0.116104 0.000100 0.993237 0.174800 -0.023800
0 544.865906 -25.790678 19.556200 -0.113800 -0.002300 0.993501 0.144400 -0.018700
pipesystem001b.bmp
0 556.914673 -9.790775 20.970400 -0.106204 -0.002300 0.994342 0.067800 -0.013300
0 544.630981 -15.403876 19.540800 -0.116598 -0.000600 0.993179 0.103900 -0.014500
0 544.865906 -25.790678 19.556200 -0.113800 -0.002300 0.993501 0.144400 -0.018700
pipesystem001b.bmp
0 556.914673 -9.790775 20.970400 -0.106204 -0.002300 0.994342 0.067800 -0.013300
0 544.865906 -25.790678 19.556200 -0.113800 -0.002300 0.993501 0.144400 -0.018700
0 556.629517 -17.372576 20.904499 -0.102196 -0.004000 0.994756 0.108100 -0.015500
pipesystem001b.bmp
0 556.629517 -17.372576 20.904499 -0.102196 -0.004000 0.994756 0.108100 -0.015500
0 564.708008 -6.777275 21.739401 -0.092204 -0.002000 0.995738 0.046900 -0.012900
0 556.914673 -9.790775 20.970400 -0.106204 -0.002300 0.994342 0.067800 -0.013300
pipesystem001b.bmp
0 570.004089 -4.518575 22.202999 -0.094998 0.001200 0.995477 0.031100 -0.012700
0 572.708130 0.000025 22.470699 -0.103097 -0.000000 0.994671 0.000000 -0.012600
0 568.926392 0.000025 22.105700 -0.090004 -0.000000 0.995941 0.000000 -0.012400
pipesystem001b.bmp
0 568.926392 0.000025 22.105700 -0.090004 -0.000000 0.995941 0.000000 -0.012400
0 564.708008 -6.777275 21.739401 -0.092204 -0.002000 0.995738 0.046900 -0.012900
0 570.004089 -4.518575 22.202999 -0.094998 0.001200 0.995477 0.031100 -0.012700
pipesystem001b.bmp
0 564.708008 -6.777275 21.739401 -0.092204 -0.002000 0.995738 0.046900 -0.012900
0 568.926392 0.000025 22.105700 -0.090004 -0.000000 0.995941 0.000000 -0.012400
0 563.072327 0.000025 21.597099 -0.095701 -0.000000 0.995410 0.000000 -0.012300
pipesystem001b.bmp
0 556.914673 -9.790775 20.970400 -0.106204 -0.002300 0.994342 0.067800 -0.013300
0 564.708008 -6.777275 21.739401 -0.092204 -0.002000 0.995738 0.046900 -0.012900
0 563.072327 0.000025 21.597099 -0.095701 -0.000000 0.995410 0.000000 -0.012300
pipesystem001b.bmp
0 556.914673 -9.790775 20.970400 -0.106204 -0.002300 0.994342 0.067800 -0.013300
0 563.072327 0.000025 21.597099 -0.095701 -0.000000 0.995410 0.000000 -0.012300
0 554.302673 0.000024 20.687300 -0.111902 -0.000000 0.993719 0.000000 -0.012000
pipesystem001b.bmp
0 554.302673 0.000024 20.687300 -0.111902 -0.000000 0.993719 0.000000 -0.012000
0 544.630981 -15.403876 19.540800 -0.116598 -0.000600 0.993179 0.103900 -0.014500
0 556.914673 -9.790775 20.970400 -0.106204 -0.002300 0.994342 0.067800 -0.013300
pipesystem001b.bmp
0 544.630981 -15.403876 19.540800 -0.116598 -0.000600 0.993179 0.103900 -0.014500
0 554.302673 0.000024 20.687300 -0.111902 -0.000000 0.993719 0.000000 -0.012000
0 540.928772 0.000024 19.099501 -0.117804 -0.000000 0.993037 0.000000 -0.011300
pipesystem001b.bmp
0 529.806274 -20.229076 17.779100 -0.116104 0.000400 0.993237 0.132600 -0.016100
0 544.630981 -15.403876 19.540800 -0.116598 -0.000600 0.993179 0.103900 -0.014500
0 540.928772 0.000024 19.099501 -0.117804 -0.000000 0.993037 0.000000 -0.011300
pipesystem001b.bmp
0 529.806274 -20.229076 17.779100 -0.116104 0.000400 0.993237 0.132600 -0.016100
0 540.928772 0.000024 19.099501 -0.117804 -0.000000 0.993037 0.000000 -0.011300
0 525.597229 0.000023 17.284599 -0.114897 -0.000000 0.993377 0.000000 -0.010600
pipesystem001b.bmp
0 525.597229 0.000023 17.284599 -0.114897 -0.000000 0.993377 0.000000 -0.010600
0 513.023804 -26.961777 15.854100 -0.112100 0.000500 0.993697 0.162800 -0.019100
0 529.806274 -20.229076 17.779100 -0.116104 0.000400 0.993237 0.132600 -0.016100
pipesystem001b.bmp
0 564.708008 -6.777275 21.739401 -0.092204 -0.002000 0.995738 0.046900 -0.012900
0 556.629517 -17.372576 20.904499 -0.102196 -0.004000 0.994756 0.108100 -0.015500
0 564.576416 -11.718775 21.714500 -0.093601 -0.000300 0.995610 0.077000 -0.013900
pipesystem001b.bmp
0 570.004089 -4.518575 22.202999 -0.094998 0.001200 0.995477 0.031100 -0.012700
0 564.708008 -6.777275 21.739401 -0.092204 -0.002000 0.995738 0.046900 -0.012900
0 564.576416 -11.718775 21.714500 -0.093601 -0.000300 0.995610 0.077000 -0.013900
pipesystem001b.bmp
0 570.004089 -4.518575 22.202999 -0.094998 0.001200 0.995477 0.031100 -0.012700
0 564.576416 -11.718775 21.714500 -0.093601 -0.000300 0.995610 0.077000 -0.013900
0 569.911072 -7.505375 22.206400 -0.099097 0.004200 0.995069 0.050600 -0.013100
pipesystem001b.bmp
0 569.911072 -7.505375 22.206400 -0.099097 0.004200 0.995069 0.050600 -0.013100
0 573.195007 -3.622375 22.529900 -0.105502 0.002700 0.994415 0.024700 -0.012700
0 570.004089 -4.518575 22.202999 -0.094998 0.001200 0.995477 0.031100 -0.012700
pipesystem001b.bmp
0 570.004089 -4.518575 22.202999 -0.094998 0.001200 0.995477 0.031100 -0.012700
0 573.195007 -3.622375 22.529900 -0.105502 0.002700 0.994415 0.024700 -0.012700
0 572.708130 0.000025 22.470699 -0.103097 -0.000000 0.994671 0.000000 -0.012600
pipesystem001b.bmp
0 573.195007 -3.622375 22.529900 -0.105502 0.002700 0.994415 0.024700 -0.012700
0 574.504272 0.000025 22.670700 -0.110695 -0.000000 0.993854 0.000000 -0.012600
0 572.708130 0.000025 22.470699 -0.103097 -0.000000 0.994671 0.000000 -0.012600
pipesystem001b.bmp
0 574.504272 0.000025 22.670700 -0.110695 -0.000000 0.993854 0.000000 -0.012600
0 573.195007 3.622425 22.529900 -0.105502 -0.002700 0.994415 -0.024700 -0.012700
0 572.708130 0.000025 22.470699 -0.103097 -0.000000 0.994671 0.000000 -0.012600
pipesystem001b.bmp
0 573.195007 3.622425 22.529900 -0.105502 -0.002700 0.994415 -0.024700 -0.012700
0 570.004089 4.518625 22.202999 -0.094998 -0.001200 0.995477 -0.031100 -0.012700
0 572.708130 0.000025 22.470699 -0.103097 -0.000000 0.994671 0.000000 -0.012600
pipesystem001b.bmp
0 572.708130 0.000025 22.470699 -0.103097 -0.000000 0.994671 0.000000 -0.012600
0 570.004089 4.518625 22.202999 -0.094998 -0.001200 0.995477 -0.031100 -0.012700
0 568.926392 0.000025 22.105700 -0.090004 -0.000000 0.995941 0.000000 -0.012400
pipesystem001b.bmp
0 564.708008 6.777325 21.739401 -0.092204 0.002000 0.995738 -0.046900 -0.012900
0 568.926392 0.000025 22.105700 -0.090004 -0.000000 0.995941 0.000000 -0.012400
0 570.004089 4.518625 22.202999 -0.094998 -0.001200 0.995477 -0.031100 -0.012700
pipesystem001b.bmp
0 568.926392 0.000025 22.105700 -0.090004 -0.000000 0.995941 0.000000 -0.012400
0 564.708008 6.777325 21.739401 -0.092204 0.002000 0.995738 -0.046900 -0.012900
0 563.072327 0.000025 21.597099 -0.095701 -0.000000 0.995410 0.000000 -0.012300
pipesystem001b.bmp
0 564.708008 6.777325 21.739401 -0.092204 0.002000 0.995738 -0.046900 -0.012900
0 556.914673 9.790825 20.970400 -0.106204 0.002300 0.994342 -0.067800 -0.013300
0 563.072327 0.000025 21.597099 -0.095701 -0.000000 0.995410 0.000000 -0.012300
pipesystem001b.bmp
0 563.072327 0.000025 21.597099 -0.095701 -0.000000 0.995410 0.000000 -0.012300
0 556.914673 9.790825 20.970400 -0.106204 0.002300 0.994342 -0.067800 -0.013300
0 554.302673 0.000024 20.687300 -0.111902 -0.000000 0.993719 0.000000 -0.012000
pipesystem001b.bmp
0 544.630981 15.403924 19.540800 -0.116598 0.000600 0.993179 -0.103900 -0.014500
0 554.302673 0.000024 20.687300 -0.111902 -0.000000 0.993719 0.000000 -0.012000
0 556.914673 9.790825 20.970400 -0.106204 0.002300 0.994342 -0.067800 -0.013300
pipesystem001b.bmp
0 554.302673 0.000024 20.687300 -0.111902 -0.000000 0.993719 0.000000 -0.012000
0 544.630981 15.403924 19.540800 -0.116598 0.000600 0.993179 -0.103900 -0.014500
0 540.928772 0.000024 19.099501 -0.117804 -0.000000 0.993037 0.000000 -0.011300
pipesystem001b.bmp
0 544.630981 15.403924 19.540800 -0.116598 0.000600 0.993179 -0.103900 -0.014500
0 529.806274 20.229122 17.779100 -0.116104 -0.000400 0.993237 -0.132600 -0.016100
0 540.928772 0.000024 19.099501 -0.117804 -0.000000 0.993037 0.000000 -0.011300
pipesystem001b.bmp
0 540.928772 0.000024 19.099501 -0.117804 -0.000000 0.993037 0.000000 -0.011300
0 529.806274 20.229122 17.779100 -0.116104 -0.000400 0.993237 -0.132600 -0.016100
0 525.597229 0.000023 17.284599 -0.114897 -0.000000 0.993377 0.000000 -0.010600
pipesystem001b.bmp
0 513.023804 26.961823 15.854100 -0.112100 -0.000500 0.993697 -0.162800 -0.019100
0 525.597229 0.000023 17.284599 -0.114897 -0.000000 0.993377 0.000000 -0.010600
0 529.806274 20.229122 17.779100 -0.116104 -0.000400 0.993237 -0.132600 -0.016100
pipesystem001b.bmp
0 525.597229 0.000023 17.284599 -0.114897 -0.000000 0.993377 0.000000 -0.010600
0 513.023804 26.961823 15.854100 -0.112100 -0.000500 0.993697 -0.162800 -0.019100
0 508.308411 0.000022 15.320800 -0.110596 -0.000000 0.993865 0.000000 -0.009700
pipesystem001b.bmp
0 513.023804 26.961823 15.854100 -0.112100 -0.000500 0.993697 -0.162800 -0.019100
0 494.546112 32.087723 13.807200 -0.108005 -0.000300 0.994150 -0.182800 -0.022100
0 508.308411 0.000022 15.320800 -0.110596 -0.000000 0.993865 0.000000 -0.009700
pipesystem001b.bmp
0 508.308411 0.000022 15.320800 -0.110596 -0.000000 0.993865 0.000000 -0.009700
0 494.546112 32.087723 13.807200 -0.108005 -0.000300 0.994150 -0.182800 -0.022100
0 489.300110 0.000021 13.239200 -0.106600 -0.000000 0.994302 0.000000 -0.008800
pipesystem001b.bmp
0 473.406311 38.672318 11.558200 -0.105799 -0.000000 0.994388 -0.201500 -0.026500
0 489.300110 0.000021 13.239200 -0.106600 -0.000000 0.994302 0.000000 -0.008800
0 494.546112 32.087723 13.807200 -0.108005 -0.000300 0.994150 -0.182800 -0.022100
pipesystem001b.bmp
0 489.300110 0.000021 13.239200 -0.106600 -0.000000 0.994302 0.000000 -0.008800
0 473.406311 38.672318 11.558200 -0.105799 -0.000000 0.994388 -0.201500 -0.026500
0 467.428192 0.000020 10.927400 -0.105700 -0.000000 0.994398 0.000000 -0.007700
pipesystem001b.bmp
0 473.406311 38.672318 11.558200 -0.105799 -0.000000 0.994388 -0.201500 -0.026500
0 450.001099 43.824818 9.068800 -0.106897 0.000100 0.994270 -0.215400 -0.030800
0 467.428192 0.000020 10.927400 -0.105700 -0.000000 0.994398 0.000000 -0.007700
pipesystem001b.bmp
0 467.428192 0.000020 10.927400 -0.105700 -0.000000 0.994398 0.000000 -0.007700
0 450.001099 43.824818 9.068800 -0.106897 0.000100 0.994270 -0.215400 -0.030800
0 443.341003 0.000019 8.350800 -0.107698 -0.000000 0.994184 0.000000 -0.006300
pipesystem001b.bmp
0 423.583588 50.516819 6.192800 -0.107501 -0.000200 0.994205 -0.228700 -0.037100
0 443.341003 0.000019 8.350800 -0.107698 -0.000000 0.994184 0.000000 -0.006300
0 450.001099 43.824818 9.068800 -0.106897 0.000100 0.994270 -0.215400 -0.030800
pipesystem001b.bmp
0 443.341003 0.000019 8.350800 -0.107698 -0.000000 0.994184 0.000000 -0.006300
0 423.583588 50.516819 6.192800 -0.107501 -0.000200 0.994205 -0.228700 -0.037100
0 416.181091 0.000018 5.384200 -0.106996 -0.000000 0.994259 0.000000 -0.004500
pipesystem001b.bmp
0 423.583588 50.516819 6.192800 -0.107501 -0.000200 0.994205 -0.228700 -0.037100
0 395.791901 54.694618 3.207600 -0.103701 -0.000400 0.994608 -0.238900 -0.042600
0 416.181091 0.000018 5.384200 -0.106996 -0.000000 0.994259 0.000000 -0.004500
pipesystem001b.bmp
0 416.181091 0.000018 5.384200 -0.106996 -0.000000 0.994259 0.000000 -0.004500
0 395.791901 54.694618 3.207600 -0.103701 -0.000400 0.994608 -0.238900 -0.042600
0 388.226593 0.000017 2.412600 -0.101801 -0.000000 0.994805 0.000000 -0.002400
pipesystem001b.bmp
0 367.611603 58.788815 0.356900 -0.097602 -0.000500 0.995225 -0.247400 -0.049000
0 388.226593 0.000017 2.412600 -0.101801 -0.000000 0.994805 0.000000 -0.002400
0 395.791901 54.694618 3.207600 -0.103701 -0.000400 0.994608 -0.238900 -0.042600
pipesystem001b.bmp
0 -571.810181 -0.000025 -4.479500 0.003100 0.000000 0.999995 0.500000 -0.997800
0 -567.968384 14.516675 -4.499800 0.007400 0.000500 0.999973 0.708300 -0.991400
0 -572.402588 18.969576 -4.483400 0.003300 0.000400 0.999994 0.717900 -0.989000
pipesystem001b.bmp
0 -574.504272 -0.000025 -4.475400 0.001500 0.000000 0.999999 0.500000 -0.997800
0 -571.810181 -0.000025 -4.479500 0.003100 0.000000 0.999995 0.500000 -0.997800
0 -572.402588 18.969576 -4.483400 0.003300 0.000400 0.999994 0.717900 -0.989000
pipesystem001b.bmp
0 -571.810181 -0.000025 -4.479500 0.003100 0.000000 0.999995 0.500000 -0.997800
0 -574.504272 -0.000025 -4.475400 0.001500 0.000000 0.999999 0.500000 -0.997800
0 -572.402588 -18.969625 -4.483400 0.003300 -0.000400 0.999994 0.282100 -0.989000
pipesystem001b.bmp
0 -567.968384 -14.516725 -4.499800 0.007400 -0.000500 0.999973 0.291700 -0.991400
0 -571.810181 -0.000025 -4.479500 0.003100 0.000000 0.999995 0.500000 -0.997800
0 -572.402588 -18.969625 -4.483400 0.003300 -0.000400 0.999994 0.282100 -0.989000
pipesystem001b.bmp
0 -567.968384 -14.516725 -4.499800 0.007400 -0.000500 0.999973 0.291700 -0.991400
0 -572.402588 -18.969625 -4.483400 0.003300 -0.000400 0.999994 0.282100 -0.989000
0 -567.556519 -36.216927 -4.516100 0.009000 -0.000700 0.999959 0.267100 -0.979200
pipesystem001b.bmp
0 -567.556519 -36.216927 -4.516100 0.009000 -0.000700 0.999959 0.267100 -0.979200
0 -561.650879 -21.629425 -4.572200 0.015300 -0.000600 0.999883 0.278900 -0.987300
0 -567.968384 -14.516725 -4.499800 0.007400 -0.000500 0.999973 0.291700 -0.991400
pipesystem001b.bmp
0 -561.650879 -21.629425 -4.572200 0.015300 -0.000600 0.999883 0.278900 -0.987300
0 -567.556519 -36.216927 -4.516100 0.009000 -0.000700 0.999959 0.267100 -0.979200
0 -561.076416 -49.532524 -4.605900 0.018900 -0.001200 0.999821 0.262800 -0.971300
pipesystem001b.bmp
0 -554.541626 -28.045925 -4.725300 0.032399 -0.000900 0.999475 0.273200 -0.983400
0 -561.650879 -21.629425 -4.572200 0.015300 -0.000600 0.999883 0.278900 -0.987300
0 -561.076416 -49.532524 -4.605900 0.018900 -0.001200 0.999821 0.262800 -0.971300
pipesystem001b.bmp
0 -554.541626 -28.045925 -4.725300 0.032399 -0.000900 0.999475 0.273200 -0.983400
0 -561.076416 -49.532524 -4.605900 0.018900 -0.001200 0.999821 0.262800 -0.971300
0 -553.858704 -59.727123 -4.797700 0.039501 -0.001800 0.999218 0.261200 -0.965000
pipesystem001b.bmp
0 -553.858704 -59.727123 -4.797700 0.039501 -0.001800 0.999218 0.261200 -0.965000
0 -547.025085 -31.777025 -5.071000 0.058400 -0.001200 0.998293 0.272200 -0.980900
0 -554.541626 -28.045925 -4.725300 0.032399 -0.000900 0.999475 0.273200 -0.983400
end
