version 1
nodes
  0 "static_prop" -1
end
skeleton
time 0
0 0.000000 0.000000 0.000000 0.000000 0.000000 0.000000
end
triangles
borealis_vent001
0 10.000000 10.000000 -9.056500 -0.000000 1.000000 0.000000 0.772600 -0.778500 1 0 1.000000 
0 -10.000000 10.000000 -14.493500 -0.000000 1.000000 0.000000 0.806800 -0.575700 1 0 1.000000 
0 -10.000000 10.000000 -9.056500 -0.000000 1.000000 0.000000 0.772600 -0.575700 1 0 1.000000 
borealis_vent001
0 10.000000 10.000000 -9.056500 -0.000000 1.000000 0.000000 0.772600 -0.778500 1 0 1.000000 
0 10.000000 10.000000 -14.493500 -0.000000 1.000000 0.000000 0.806800 -0.778500 1 0 1.000000 
0 -10.000000 10.000000 -14.493500 -0.000000 1.000000 0.000000 0.806800 -0.575700 1 0 1.000000 
borealis_vent001
0 10.000000 10.000000 -9.056500 1.000000 0.000000 0.000000 0.964400 -0.801400 1 0 1.000000 
0 10.000000 -1.000000 -14.493500 1.000000 0.000000 0.000000 0.839300 -0.742200 1 0 1.000000 
0 10.000000 10.000000 -14.493500 1.000000 0.000000 0.000000 0.964400 -0.742200 1 0 1.000000 
borealis_vent001
0 10.000000 10.000000 -9.056500 1.000000 0.000000 0.000000 0.964400 -0.801400 1 0 1.000000 
0 10.000000 -1.000000 -11.352800 1.000000 0.000000 0.000000 0.839300 -0.774900 1 0 1.000000 
0 10.000000 -1.000000 -14.493500 1.000000 0.000000 0.000000 0.839300 -0.742200 1 0 1.000000 
borealis_vent001
0 10.000000 10.000000 -9.056500 1.000000 0.000000 0.000000 0.964400 -0.801400 1 0 1.000000 
0 10.000000 -1.454200 -9.056500 1.000000 0.000000 0.000000 0.833800 -0.801400 1 0 1.000000 
0 10.000000 -1.000000 -11.352800 1.000000 0.000000 0.000000 0.839300 -0.774900 1 0 1.000000 
borealis_vent001
0 10.000000 10.000000 -9.056500 1.000000 0.000000 0.000000 0.964400 -0.801400 1 0 1.000000 
0 10.000000 8.908800 -3.165700 1.000000 0.000000 0.000000 0.951600 -0.869200 1 0 1.000000 
0 10.000000 -1.454200 -9.056500 1.000000 0.000000 0.000000 0.833800 -0.801400 1 0 1.000000 
borealis_vent001
0 10.000000 8.908800 -3.165700 1.000000 0.000000 0.000000 0.951600 -0.869200 1 0 1.000000 
0 10.000000 -2.766400 -7.416300 1.000000 0.000000 0.000000 0.818900 -0.820200 1 0 1.000000 
0 10.000000 -1.454200 -9.056500 1.000000 0.000000 0.000000 0.833800 -0.801400 1 0 1.000000 
borealis_vent001
0 10.000000 8.908800 -3.165700 1.000000 0.000000 0.000000 0.951600 -0.869200 1 0 1.000000 
0 10.000000 6.005301 1.479800 1.000000 0.000000 0.000000 0.918600 -0.922600 1 0 1.000000 
0 10.000000 -2.766400 -7.416300 1.000000 0.000000 0.000000 0.818900 -0.820200 1 0 1.000000 
borealis_vent001
0 10.000000 1.547200 4.383300 1.000000 0.000000 0.000000 0.867900 -0.956100 1 0 1.000000 
0 10.000000 -2.766400 -7.416300 1.000000 0.000000 0.000000 0.818900 -0.820200 1 0 1.000000 
0 10.000000 6.005301 1.479800 1.000000 0.000000 0.000000 0.918600 -0.922600 1 0 1.000000 
borealis_vent001
0 10.000000 1.547200 4.383300 1.000000 0.000000 0.000000 0.867900 -0.956100 1 0 1.000000 
0 10.000000 -4.685599 -6.104200 1.000000 0.000000 0.000000 0.797100 -0.835300 1 0 1.000000 
0 10.000000 -2.766400 -7.416300 1.000000 0.000000 0.000000 0.818900 -0.820200 1 0 1.000000 
borealis_vent001
0 10.000000 -4.685599 5.500000 1.000000 0.000000 0.000000 0.797100 -0.968900 1 0 1.000000 
0 10.000000 -4.685599 -6.104200 1.000000 0.000000 0.000000 0.797100 -0.835300 1 0 1.000000 
0 10.000000 1.547200 4.383300 1.000000 0.000000 0.000000 0.867900 -0.956100 1 0 1.000000 
borealis_vent001
0 10.000000 -4.685599 5.500000 1.000000 0.000000 0.000000 0.797100 -0.968900 1 0 1.000000 
0 10.000000 -6.981900 -5.500000 1.000000 0.000000 0.000000 0.770900 -0.842300 1 0 1.000000 
0 10.000000 -4.685599 -6.104200 1.000000 0.000000 0.000000 0.797100 -0.835300 1 0 1.000000 
borealis_vent001
0 10.000000 -4.685599 5.500000 1.000000 0.000000 0.000000 0.797100 -0.968900 1 0 1.000000 
0 10.000000 -10.000000 -5.500000 1.000000 0.000000 0.000000 0.737200 -0.842300 1 0 1.000000 
0 10.000000 -6.981900 -5.500000 1.000000 0.000000 0.000000 0.770900 -0.842300 1 0 1.000000 
borealis_vent001
0 10.000000 -4.685599 5.500000 1.000000 0.000000 0.000000 0.797100 -0.968900 1 0 1.000000 
0 10.000000 -10.000000 5.500000 1.000000 0.000000 0.000000 0.737200 -0.968900 1 0 1.000000 
0 10.000000 -10.000000 -5.500000 1.000000 0.000000 0.000000 0.737200 -0.842300 1 0 1.000000 
borealis_vent001
0 10.000000 -10.000000 5.500000 0.000000 -1.000000 0.000000 0.732800 -0.804300 1 0 1.000000 
0 -10.000000 -10.000000 -5.500000 0.000000 -1.000000 0.000000 0.614300 -0.416200 1 0 1.000000 
0 10.000000 -10.000000 -5.500000 0.000000 -1.000000 0.000000 0.614300 -0.804300 1 0 1.000000 
borealis_vent001
0 10.000000 -10.000000 5.500000 0.000000 -1.000000 0.000000 0.732800 -0.804300 1 0 1.000000 
0 -10.000000 -10.000000 5.500000 0.000000 -1.000000 0.000000 0.732800 -0.416200 1 0 1.000000 
0 -10.000000 -10.000000 -5.500000 0.000000 -1.000000 0.000000 0.614300 -0.416200 1 0 1.000000 
borealis_vent001
0 10.000000 -1.000000 -11.352800 0.000000 -0.736710 -0.676209 0.681900 -0.857300 1 0 1.000000 
0 -10.000000 -1.454201 -9.056500 0.000000 -0.736710 -0.676209 0.659800 -0.670700 1 0 1.000000 
0 -10.000000 -1.000000 -11.352800 0.000000 -0.736710 -0.676209 0.681900 -0.670700 1 0 1.000000 
borealis_vent001
0 10.000000 -1.000000 -11.352800 0.000000 -0.736710 -0.676209 0.681900 -0.857300 1 0 1.000000 
0 10.000000 -1.454200 -9.056500 0.000000 -0.736710 -0.676209 0.659800 -0.857300 1 0 1.000000 
0 -10.000000 -1.454201 -9.056500 0.000000 -0.736710 -0.676209 0.659800 -0.670700 1 0 1.000000 
borealis_vent001
0 -10.000000 10.000000 -9.056500 -0.000000 0.758395 0.651795 0.772600 -0.575700 1 0 1.000000 
0 10.000000 8.908800 -3.165700 -0.000000 0.758395 0.651795 0.714200 -0.778500 1 0 1.000000 
0 10.000000 10.000000 -9.056500 -0.000000 0.758395 0.651795 0.772600 -0.778500 1 0 1.000000 
borealis_vent001
0 -10.000000 10.000000 -9.056500 -0.000000 0.758395 0.651795 0.772600 -0.575700 1 0 1.000000 
0 -10.000000 8.908800 -3.165700 -0.000000 0.758395 0.651795 0.714200 -0.575700 1 0 1.000000 
0 10.000000 8.908800 -3.165700 -0.000000 0.758395 0.651795 0.714200 -0.778500 1 0 1.000000 
borealis_vent001
0 10.000000 10.000000 -14.493500 0.000000 0.000000 -1.000000 0.605400 -0.831000 1 0 1.000000 
0 -10.000000 -1.000000 -14.493500 0.000000 0.000000 -1.000000 0.721700 -0.449700 1 0 1.000000 
0 -10.000000 10.000000 -14.493500 0.000000 0.000000 -1.000000 0.605400 -0.449700 1 0 1.000000 
borealis_vent001
0 10.000000 10.000000 -14.493500 0.000000 0.000000 -1.000000 0.605400 -0.831000 1 0 1.000000 
0 10.000000 -1.000000 -14.493500 0.000000 0.000000 -1.000000 0.721700 -0.831000 1 0 1.000000 
0 -10.000000 -1.000000 -14.493500 0.000000 0.000000 -1.000000 0.721700 -0.449700 1 0 1.000000 
borealis_vent001
0 10.000000 -1.000000 -11.352800 0.000000 -1.000000 0.000000 0.681900 -0.857300 1 0 1.000000 
0 -10.000000 -1.000000 -14.493500 0.000000 -1.000000 0.000000 0.700600 -0.670700 1 0 1.000000 
0 10.000000 -1.000000 -14.493500 0.000000 -1.000000 0.000000 0.700600 -0.857300 1 0 1.000000 
borealis_vent001
0 10.000000 -1.000000 -11.352800 0.000000 -1.000000 0.000000 0.681900 -0.857300 1 0 1.000000 
0 -10.000000 -1.000000 -11.352800 0.000000 -1.000000 0.000000 0.681900 -0.670700 1 0 1.000000 
0 -10.000000 -1.000000 -14.493500 0.000000 -1.000000 0.000000 0.700600 -0.670700 1 0 1.000000 
borealis_vent001
0 10.000000 -1.454200 -9.056500 0.000000 -0.260095 -0.965583 0.659800 -0.857300 1 0 1.000000 
0 -10.000000 -2.766401 -7.416300 0.000000 -0.203303 -0.979116 0.637200 -0.670700 1 0 1.000000 
0 -10.000000 -1.454201 -9.056500 0.000000 -0.260095 -0.965583 0.659800 -0.670700 1 0 1.000000 
borealis_vent001
0 10.000000 -1.454200 -9.056500 0.000000 -0.260095 -0.965583 0.659800 -0.857300 1 0 1.000000 
0 10.000000 -2.766400 -7.416300 0.000000 -0.203303 -0.979116 0.637200 -0.857300 1 0 1.000000 
0 -10.000000 -2.766401 -7.416300 0.000000 -0.203303 -0.979116 0.637200 -0.670700 1 0 1.000000 
borealis_vent001
0 10.000000 -4.685599 -6.104200 0.000000 -0.116203 -0.993225 0.611500 -0.857300 1 0 1.000000 
0 -10.000000 -2.766401 -7.416300 0.000000 -0.203303 -0.979116 0.637200 -0.670700 1 0 1.000000 
0 10.000000 -2.766400 -7.416300 0.000000 -0.203303 -0.979116 0.637200 -0.857300 1 0 1.000000 
borealis_vent001
0 10.000000 -4.685599 -6.104200 0.000000 -0.116203 -0.993225 0.611500 -0.857300 1 0 1.000000 
0 -10.000000 -4.685600 -6.104200 0.000000 -0.086397 -0.996261 0.611500 -0.670700 1 0 1.000000 
0 -10.000000 -2.766401 -7.416300 0.000000 -0.203303 -0.979116 0.637200 -0.670700 1 0 1.000000 
borealis_vent001
0 10.000000 -6.981900 -5.500000 0.000000 -0.028300 -0.999599 0.589900 -0.857300 1 0 1.000000 
0 -10.000000 -4.685600 -6.104200 0.000000 -0.086397 -0.996261 0.611500 -0.670700 1 0 1.000000 
0 10.000000 -4.685599 -6.104200 0.000000 -0.116203 -0.993225 0.611500 -0.857300 1 0 1.000000 
borealis_vent001
0 10.000000 -6.981900 -5.500000 0.000000 -0.028300 -0.999599 0.589900 -0.857300 1 0 1.000000 
0 -10.000000 -6.981901 -5.500000 0.000000 -0.028300 -0.999599 0.589900 -0.670700 1 0 1.000000 
0 -10.000000 -4.685600 -6.104200 0.000000 -0.086397 -0.996261 0.611500 -0.670700 1 0 1.000000 
borealis_vent001
0 10.000000 -6.981900 -5.500000 0.000000 -0.028300 -0.999599 0.589900 -0.857300 1 0 1.000000 
0 -10.000000 -10.000000 -5.500000 0.000000 0.000000 -1.000000 0.570900 -0.670700 1 0 1.000000 
0 -10.000000 -6.981901 -5.500000 0.000000 -0.028300 -0.999599 0.589900 -0.670700 1 0 1.000000 
borealis_vent001
0 10.000000 -6.981900 -5.500000 0.000000 -0.028300 -0.999599 0.589900 -0.857300 1 0 1.000000 
0 10.000000 -10.000000 -5.500000 0.000000 0.000000 -1.000000 0.570900 -0.857300 1 0 1.000000 
0 -10.000000 -10.000000 -5.500000 0.000000 0.000000 -1.000000 0.570900 -0.670700 1 0 1.000000 
borealis_vent001
0 -10.000000 8.908800 -3.165700 -0.000000 0.325991 0.945373 0.714200 -0.575700 1 0 1.000000 
0 10.000000 6.005301 1.479800 -0.000000 0.233607 0.972331 0.649200 -0.778500 1 0 1.000000 
0 10.000000 8.908800 -3.165700 -0.000000 0.325991 0.945373 0.714200 -0.778500 1 0 1.000000 
borealis_vent001
0 -10.000000 8.908800 -3.165700 -0.000000 0.325991 0.945373 0.714200 -0.575700 1 0 1.000000 
0 -10.000000 6.005300 1.479800 -0.000000 0.233607 0.972331 0.649200 -0.575700 1 0 1.000000 
0 10.000000 6.005301 1.479800 -0.000000 0.233607 0.972331 0.649200 -0.778500 1 0 1.000000 
borealis_vent001
0 -10.000000 1.547199 4.383300 -0.000000 0.105601 0.994408 0.586700 -0.575700 1 0 1.000000 
0 10.000000 6.005301 1.479800 -0.000000 0.233607 0.972331 0.649200 -0.778500 1 0 1.000000 
0 -10.000000 6.005300 1.479800 -0.000000 0.233607 0.972331 0.649200 -0.575700 1 0 1.000000 
borealis_vent001
0 -10.000000 1.547199 4.383300 -0.000000 0.105601 0.994408 0.586700 -0.575700 1 0 1.000000 
0 10.000000 1.547200 4.383300 -0.000000 0.072100 0.997397 0.586700 -0.778500 1 0 1.000000 
0 10.000000 6.005301 1.479800 -0.000000 0.233607 0.972331 0.649200 -0.778500 1 0 1.000000 
borealis_vent001
0 -10.000000 -4.685600 5.500000 -0.000000 0.019300 0.999814 0.525300 -0.575700 1 0 1.000000 
0 10.000000 1.547200 4.383300 -0.000000 0.072100 0.997397 0.586700 -0.778500 1 0 1.000000 
0 -10.000000 1.547199 4.383300 -0.000000 0.105601 0.994408 0.586700 -0.575700 1 0 1.000000 
borealis_vent001
0 -10.000000 -4.685600 5.500000 -0.000000 0.019300 0.999814 0.525300 -0.575700 1 0 1.000000 
0 10.000000 -4.685599 5.500000 -0.000000 0.019300 0.999814 0.525300 -0.778500 1 0 1.000000 
0 10.000000 1.547200 4.383300 -0.000000 0.072100 0.997397 0.586700 -0.778500 1 0 1.000000 
borealis_vent001
0 -10.000000 -4.685600 5.500000 -0.000000 0.019300 0.999814 0.525300 -0.575700 1 0 1.000000 
0 10.000000 -10.000000 5.500000 0.000000 0.000000 1.000000 0.490800 -0.778500 1 0 1.000000 
0 10.000000 -4.685599 5.500000 -0.000000 0.019300 0.999814 0.525300 -0.778500 1 0 1.000000 
borealis_vent001
0 -10.000000 -4.685600 5.500000 -0.000000 0.019300 0.999814 0.525300 -0.575700 1 0 1.000000 
0 -10.000000 -10.000000 5.500000 0.000000 0.000000 1.000000 0.490800 -0.575700 1 0 1.000000 
0 10.000000 -10.000000 5.500000 0.000000 0.000000 1.000000 0.490800 -0.778500 1 0 1.000000 
borealis_vent001
0 -10.000000 10.000000 -9.056500 -1.000000 -0.000000 0.000000 0.964400 -0.800300 1 0 1.000000 
0 -10.000000 10.000000 -14.493500 -1.000000 -0.000000 0.000000 0.964400 -0.741200 1 0 1.000000 
0 -10.000000 -1.000000 -14.493500 -1.000000 -0.000000 0.000000 0.839300 -0.741200 1 0 1.000000 
borealis_vent001
0 -10.000000 10.000000 -9.056500 -1.000000 -0.000000 0.000000 0.964400 -0.800300 1 0 1.000000 
0 -10.000000 -1.000000 -14.493500 -1.000000 -0.000000 0.000000 0.839300 -0.741200 1 0 1.000000 
0 -10.000000 -1.000000 -11.352800 -1.000000 -0.000000 0.000000 0.839300 -0.773900 1 0 1.000000 
borealis_vent001
0 -10.000000 -1.000000 -11.352800 -1.000000 -0.000000 0.000000 0.839300 -0.773900 1 0 1.000000 
0 -10.000000 8.908800 -3.165700 -1.000000 -0.000000 0.000000 0.951600 -0.868200 1 0 1.000000 
0 -10.000000 10.000000 -9.056500 -1.000000 -0.000000 0.000000 0.964400 -0.800300 1 0 1.000000 
borealis_vent001
0 -10.000000 -1.000000 -11.352800 -1.000000 -0.000000 0.000000 0.839300 -0.773900 1 0 1.000000 
0 -10.000000 -1.454201 -9.056500 -1.000000 -0.000000 0.000000 0.833800 -0.800300 1 0 1.000000 
0 -10.000000 8.908800 -3.165700 -1.000000 -0.000000 0.000000 0.951600 -0.868200 1 0 1.000000 
borealis_vent001
0 -10.000000 -1.454201 -9.056500 -1.000000 -0.000000 0.000000 0.833800 -0.800300 1 0 1.000000 
0 -10.000000 6.005300 1.479800 -1.000000 -0.000000 0.000000 0.918600 -0.921600 1 0 1.000000 
0 -10.000000 8.908800 -3.165700 -1.000000 -0.000000 0.000000 0.951600 -0.868200 1 0 1.000000 
borealis_vent001
0 -10.000000 -1.454201 -9.056500 -1.000000 -0.000000 0.000000 0.833800 -0.800300 1 0 1.000000 
0 -10.000000 -2.766401 -7.416300 -1.000000 -0.000000 0.000000 0.818900 -0.819200 1 0 1.000000 
0 -10.000000 6.005300 1.479800 -1.000000 -0.000000 0.000000 0.918600 -0.921600 1 0 1.000000 
borealis_vent001
0 -10.000000 -4.685600 -6.104200 -1.000000 -0.000000 0.000000 0.797100 -0.834300 1 0 1.000000 
0 -10.000000 6.005300 1.479800 -1.000000 -0.000000 0.000000 0.918600 -0.921600 1 0 1.000000 
0 -10.000000 -2.766401 -7.416300 -1.000000 -0.000000 0.000000 0.818900 -0.819200 1 0 1.000000 
borealis_vent001
0 -10.000000 -4.685600 -6.104200 -1.000000 -0.000000 0.000000 0.797100 -0.834300 1 0 1.000000 
0 -10.000000 1.547199 4.383300 -1.000000 -0.000000 0.000000 0.867900 -0.955100 1 0 1.000000 
0 -10.000000 6.005300 1.479800 -1.000000 -0.000000 0.000000 0.918600 -0.921600 1 0 1.000000 
borealis_vent001
0 -10.000000 -6.981901 -5.500000 -1.000000 -0.000000 0.000000 0.770900 -0.841300 1 0 1.000000 
0 -10.000000 1.547199 4.383300 -1.000000 -0.000000 0.000000 0.867900 -0.955100 1 0 1.000000 
0 -10.000000 -4.685600 -6.104200 -1.000000 -0.000000 0.000000 0.797100 -0.834300 1 0 1.000000 
borealis_vent001
0 -10.000000 -6.981901 -5.500000 -1.000000 -0.000000 0.000000 0.770900 -0.841300 1 0 1.000000 
0 -10.000000 -4.685600 5.500000 -1.000000 -0.000000 0.000000 0.797100 -0.967900 1 0 1.000000 
0 -10.000000 1.547199 4.383300 -1.000000 -0.000000 0.000000 0.867900 -0.955100 1 0 1.000000 
borealis_vent001
0 -10.000000 -6.981901 -5.500000 -1.000000 -0.000000 0.000000 0.770900 -0.841300 1 0 1.000000 
0 -10.000000 -10.000000 5.500000 -1.000000 -0.000000 0.000000 0.737200 -0.967900 1 0 1.000000 
0 -10.000000 -4.685600 5.500000 -1.000000 -0.000000 0.000000 0.797100 -0.967900 1 0 1.000000 
borealis_vent001
0 -10.000000 -6.981901 -5.500000 -1.000000 -0.000000 0.000000 0.770900 -0.841300 1 0 1.000000 
0 -10.000000 -10.000000 -5.500000 -1.000000 -0.000000 0.000000 0.737200 -0.841300 1 0 1.000000 
0 -10.000000 -10.000000 5.500000 -1.000000 -0.000000 0.000000 0.737200 -0.967900 1 0 1.000000 
end
