$cd ".\"
$modelname "props_debris/Building_Skybridge128Chunk01a.mdl"
$model "Body" "Building_Skybridge128Chunk01a_reference.smd"
$cdmaterials "models/props_debris/"
$surfaceprop "metal"
$eyeposition 0.000 0.000 0.000
$illumposition 6.180 23.908 -14.179
$sequence idle "idle" ACT_IDLE 1 fps 30.000000
$keyvalues
{
	prop_data
	{
		base	Stone.Medium
		health	"0"
	}
}