// Created by Crowbar 0.42.0.0

$ModelName "props_junk/iBeam01a_old.mdl"

$StaticProp

$BodyGroup "Body"
{
	studio "iBeam01a_reference.smd"
}


$SurfaceProp "metal"

$Contents "solid"

$CDMaterials "models\props_junk\old"

$CBox 0 0 0 0 0 0

$BBox -98.892 -5.989 -6.394 98.892 5.989 6.394

$Animation "a_idle" "iBeam01a_anims\idle.smd" {
	fps 30
}

$Sequence "idle" {
	"a_idle"
	fadein 0.2
	fadeout 0.2
	fps 30
}


$CollisionModel "iBeam01a_physics.smd"
{
	$mass 500
	$inertia 1
	$damping 0
	$rotdamping 0
	$concave

}
