// Created by Crowbar 0.42.0.0
version 1
nodes
  0 "static_prop" -1
end
skeleton
  time 0
    0 0.000000 0.000000 0.000000 0.000000 0.000000 0.000000
end
triangles
  phy
    0 -0.674604 98.834000 -6.229100 1.000000 0.000000 0.000000 0 0
    0 -0.674596 -98.837098 -6.229100 -1.000000 0.000000 0.000000 0 0
    0 -0.674604 98.834000 6.168100 0.000000 1.000000 0.000000 0 0
  phy
    0 -0.674604 98.834000 6.168100 0.000000 1.000000 0.000000 0 0
    0 -0.674596 -98.837098 -6.229100 -1.000000 0.000000 0.000000 0 0
    0 -0.674596 -98.837098 6.168100 0.000000 1.000000 0.000000 0 0
  phy
    0 -0.674596 -98.837098 -6.229100 -1.000000 0.000000 0.000000 0 0
    0 -0.674604 98.834000 -6.229100 1.000000 0.000000 0.000000 0 0
    0 0.655196 98.834000 -6.229100 0.000000 -0.482182 0.876071 0 0
  phy
    0 -0.674596 -98.837098 -6.229100 -1.000000 0.000000 0.000000 0 0
    0 0.655196 98.834000 -6.229100 0.000000 -0.482182 0.876071 0 0
    0 0.655204 -98.837098 -6.229100 0.000000 -0.482182 0.876071 0 0
  phy
    0 -0.674604 98.834000 -6.229100 1.000000 0.000000 0.000000 0 0
    0 -0.674604 98.834000 6.168100 0.000000 1.000000 0.000000 0 0
    0 0.655196 98.834000 -6.229100 0.000000 -0.482182 0.876071 0 0
  phy
    0 0.655196 98.834000 -6.229100 0.000000 -0.482182 0.876071 0 0
    0 -0.674604 98.834000 6.168100 0.000000 1.000000 0.000000 0 0
    0 0.655196 98.834000 6.168100 0.000000 1.000000 0.000000 0 0
  phy
    0 -0.674596 -98.837098 -6.229100 -1.000000 0.000000 0.000000 0 0
    0 0.655204 -98.837098 6.168100 0.000000 -1.000000 0.000000 0 0
    0 -0.674596 -98.837098 6.168100 0.000000 1.000000 0.000000 0 0
  phy
    0 -0.674596 -98.837098 -6.229100 -1.000000 0.000000 0.000000 0 0
    0 0.655204 -98.837098 -6.229100 0.000000 -0.482182 0.876071 0 0
    0 0.655204 -98.837098 6.168100 0.000000 -1.000000 0.000000 0 0
  phy
    0 0.655204 -98.837098 6.168100 0.000000 -1.000000 0.000000 0 0
    0 0.655196 98.834000 -6.229100 0.000000 -0.482182 0.876071 0 0
    0 0.655196 98.834000 6.168100 0.000000 1.000000 0.000000 0 0
  phy
    0 0.655204 -98.837098 6.168100 0.000000 -1.000000 0.000000 0 0
    0 0.655204 -98.837098 -6.229100 0.000000 -0.482182 0.876071 0 0
    0 0.655196 98.834000 -6.229100 0.000000 -0.482182 0.876071 0 0
  phy
    0 0.655196 98.834000 6.168100 0.000000 1.000000 0.000000 0 0
    0 -0.674596 -98.837098 6.168100 0.000000 1.000000 0.000000 0 0
    0 0.655204 -98.837098 6.168100 0.000000 -1.000000 0.000000 0 0
  phy
    0 0.655196 98.834000 6.168100 0.000000 1.000000 0.000000 0 0
    0 -0.674604 98.834000 6.168100 0.000000 1.000000 0.000000 0 0
    0 -0.674596 -98.837098 6.168100 0.000000 1.000000 0.000000 0 0
  phy
    0 -5.748095 -98.820099 5.452200 0.000000 1.000000 0.000000 0 0
    0 -5.748095 -98.820099 6.247100 1.000000 0.000000 0.000000 0 0
    0 -5.748104 98.834000 5.452200 0.000000 1.000000 0.000000 0 0
  phy
    0 -5.748104 98.834000 5.452200 0.000000 1.000000 0.000000 0 0
    0 -5.748095 -98.820099 6.247100 1.000000 0.000000 0.000000 0 0
    0 -5.748104 98.834000 6.247100 1.000000 0.000000 0.000000 0 0
  phy
    0 5.754804 -98.820099 6.247100 0.004013 -0.997806 0.066086 0 0
    0 5.754796 98.834000 6.247100 0.056609 0.000000 0.998396 0 0
    0 -5.748095 -98.820099 6.247100 1.000000 0.000000 0.000000 0 0
  phy
    0 5.754796 98.834000 6.247100 0.056609 0.000000 0.998396 0 0
    0 -5.748104 98.834000 6.247100 1.000000 0.000000 0.000000 0 0
    0 -5.748095 -98.820099 6.247100 1.000000 0.000000 0.000000 0 0
  phy
    0 -5.748095 -98.820099 6.247100 1.000000 0.000000 0.000000 0 0
    0 5.754804 -98.820099 5.452200 0.056609 0.000000 0.998396 0 0
    0 5.754804 -98.820099 6.247100 0.004013 -0.997806 0.066086 0 0
  phy
    0 -5.748095 -98.820099 6.247100 1.000000 0.000000 0.000000 0 0
    0 -5.748095 -98.820099 5.452200 0.000000 1.000000 0.000000 0 0
    0 5.754804 -98.820099 5.452200 0.056609 0.000000 0.998396 0 0
  phy
    0 5.754804 -98.820099 6.247100 0.004013 -0.997806 0.066086 0 0
    0 5.754804 -98.820099 5.452200 0.056609 0.000000 0.998396 0 0
    0 5.754796 98.834000 6.247100 0.056609 0.000000 0.998396 0 0
  phy
    0 5.754796 98.834000 5.452200 0.056609 0.000000 0.998396 0 0
    0 -5.748104 98.834000 5.452200 0.000000 1.000000 0.000000 0 0
    0 5.754796 98.834000 6.247100 0.056609 0.000000 0.998396 0 0
  phy
    0 5.754796 98.834000 6.247100 0.056609 0.000000 0.998396 0 0
    0 -5.748104 98.834000 5.452200 0.000000 1.000000 0.000000 0 0
    0 -5.748104 98.834000 6.247100 1.000000 0.000000 0.000000 0 0
  phy
    0 -5.748104 98.834000 5.452200 0.000000 1.000000 0.000000 0 0
    0 5.754796 98.834000 5.452200 0.056609 0.000000 0.998396 0 0
    0 -5.748095 -98.820099 5.452200 0.000000 1.000000 0.000000 0 0
  phy
    0 -5.748095 -98.820099 5.452200 0.000000 1.000000 0.000000 0 0
    0 5.754796 98.834000 5.452200 0.056609 0.000000 0.998396 0 0
    0 5.754804 -98.820099 5.452200 0.056609 0.000000 0.998396 0 0
  phy
    0 5.754804 -98.820099 5.452200 0.056609 0.000000 0.998396 0 0
    0 5.754796 98.834000 5.452200 0.056609 0.000000 0.998396 0 0
    0 5.754796 98.834000 6.247100 0.056609 0.000000 0.998396 0 0
  phy
    0 -5.696696 -98.824097 -6.253500 0.000000 1.000000 0.000000 0 0
    0 -5.696696 -98.824097 -5.497400 0.000000 -1.000000 0.000000 0 0
    0 -5.696705 98.834000 -6.253500 -1.000000 0.000000 0.000000 0 0
  phy
    0 -5.696705 98.834000 -6.253500 -1.000000 0.000000 0.000000 0 0
    0 -5.696696 -98.824097 -5.497400 0.000000 -1.000000 0.000000 0 0
    0 -5.696705 98.834000 -5.497400 -1.000000 0.000000 0.000000 0 0
  phy
    0 -5.696696 -98.824097 -5.497400 0.000000 -1.000000 0.000000 0 0
    0 5.729504 -98.824097 -6.253500 -0.002651 0.000000 0.999996 0 0
    0 5.729504 -98.824097 -5.497400 0.001123 -0.293460 0.955971 0 0
  phy
    0 -5.696696 -98.824097 -5.497400 0.000000 -1.000000 0.000000 0 0
    0 -5.696696 -98.824097 -6.253500 0.000000 1.000000 0.000000 0 0
    0 5.729504 -98.824097 -6.253500 -0.002651 0.000000 0.999996 0 0
  phy
    0 5.729504 -98.824097 -5.497400 0.001123 -0.293460 0.955971 0 0
    0 5.729495 98.834000 -5.497400 -0.002651 0.000000 0.999996 0 0
    0 -5.696696 -98.824097 -5.497400 0.000000 -1.000000 0.000000 0 0
  phy
    0 5.729495 98.834000 -5.497400 -0.002651 0.000000 0.999996 0 0
    0 -5.696705 98.834000 -5.497400 -1.000000 0.000000 0.000000 0 0
    0 -5.696696 -98.824097 -5.497400 0.000000 -1.000000 0.000000 0 0
  phy
    0 5.729504 -98.824097 -6.253500 -0.002651 0.000000 0.999996 0 0
    0 -5.696696 -98.824097 -6.253500 0.000000 1.000000 0.000000 0 0
    0 5.729495 98.834000 -6.253500 -0.002651 0.000000 0.999996 0 0
  phy
    0 5.729495 98.834000 -6.253500 -0.002651 0.000000 0.999996 0 0
    0 -5.696696 -98.824097 -6.253500 0.000000 1.000000 0.000000 0 0
    0 -5.696705 98.834000 -6.253500 -1.000000 0.000000 0.000000 0 0
  phy
    0 5.729495 98.834000 -6.253500 -0.002651 0.000000 0.999996 0 0
    0 -5.696705 98.834000 -6.253500 -1.000000 0.000000 0.000000 0 0
    0 5.729495 98.834000 -5.497400 -0.002651 0.000000 0.999996 0 0
  phy
    0 5.729495 98.834000 -5.497400 -0.002651 0.000000 0.999996 0 0
    0 -5.696705 98.834000 -6.253500 -1.000000 0.000000 0.000000 0 0
    0 -5.696705 98.834000 -5.497400 -1.000000 0.000000 0.000000 0 0
  phy
    0 5.729504 -98.824097 -5.497400 0.001123 -0.293460 0.955971 0 0
    0 5.729504 -98.824097 -6.253500 -0.002651 0.000000 0.999996 0 0
    0 5.729495 98.834000 -5.497400 -0.002651 0.000000 0.999996 0 0
  phy
    0 5.729504 -98.824097 -6.253500 -0.002651 0.000000 0.999996 0 0
    0 5.729495 98.834000 -6.253500 -0.002651 0.000000 0.999996 0 0
    0 5.729495 98.834000 -5.497400 -0.002651 0.000000 0.999996 0 0
end
