version 1
nodes
  0 "static_prop" -1
end
skeleton
time 0
0 0.000000 0.000000 0.000000 0.000000 0.000000 0.000000
end
triangles
borealis_deckdetail_system01
0 -0.449400 -0.580900 -1.278300 0.390281 0.164092 0.905955 0.480000 0.089300 1 0 1.000000 
0 0.701100 -0.580900 -0.126400 -0.957774 -0.232394 0.169295 0.498000 0.107200 1 0 1.000000 
0 -0.449400 0.580900 -1.278300 -0.417612 -0.302409 0.856825 0.480000 0.089300 1 0 1.000000 
borealis_deckdetail_system01
0 0.124800 0.580900 0.871700 -0.379702 -0.374302 -0.846005 0.513600 0.098200 1 0 1.000000 
0 -0.449400 0.580900 -1.278300 -0.417612 -0.302409 0.856825 0.480000 0.089300 1 0 1.000000 
0 0.701100 -0.580900 -0.126400 -0.957774 -0.232394 0.169295 0.498000 0.107200 1 0 1.000000 
borealis_deckdetail_system01
0 0.701100 -0.580900 -0.126400 -0.957774 -0.232394 0.169295 0.498000 0.107200 1 0 1.000000 
0 0.124800 -0.580900 0.871700 -0.327306 -0.000000 -0.944918 0.513600 0.098200 1 0 1.000000 
0 0.124800 0.580900 0.871700 -0.379702 -0.374302 -0.846005 0.513600 0.098200 1 0 1.000000 
borealis_deckdetail_system01
0 0.124800 -0.580900 0.871700 -0.327306 -0.000000 -0.944918 0.513600 0.098200 1 0 1.000000 
0 -1.449600 -0.580900 0.449900 0.762354 0.000200 -0.647161 0.507000 0.073600 1 0 1.000000 
0 0.124800 0.580900 0.871700 -0.379702 -0.374302 -0.846005 0.513600 0.098200 1 0 1.000000 
borealis_deckdetail_system01
0 -1.604000 0.580900 -0.126400 0.983611 0.000200 0.180302 0.498000 0.071200 1 0 1.000000 
0 0.124800 0.580900 0.871700 -0.379702 -0.374302 -0.846005 0.513600 0.098200 1 0 1.000000 
0 -1.449600 -0.580900 0.449900 0.762354 0.000200 -0.647161 0.507000 0.073600 1 0 1.000000 
borealis_deckdetail_system01
0 -1.449600 -0.580900 0.449900 0.762354 0.000200 -0.647161 0.507000 0.073600 1 0 1.000000 
0 -0.449400 -0.580900 -1.278300 0.390281 0.164092 0.905955 0.480000 0.089300 1 0 1.000000 
0 -1.604000 0.580900 -0.126400 0.983611 0.000200 0.180302 0.498000 0.071200 1 0 1.000000 
borealis_deckdetail_system01
0 -0.449400 0.580900 -1.278300 -0.417612 -0.302409 0.856825 0.480000 0.089300 1 0 1.000000 
0 -1.604000 0.580900 -0.126400 0.983611 0.000200 0.180302 0.498000 0.071200 1 0 1.000000 
0 -0.449400 -0.580900 -1.278300 0.390281 0.164092 0.905955 0.480000 0.089300 1 0 1.000000 
borealis_deckdetail_system01
0 2.098200 0.000000 -0.727100 0.899796 0.343599 -0.268899 0.488600 0.129100 1 0 1.000000 
0 1.109600 0.580900 1.808000 0.413701 0.835001 0.362801 0.528300 0.113600 1 0 1.000000 
0 2.098200 0.000000 0.727100 0.899796 -0.343599 0.268899 0.511400 0.129100 1 0 1.000000 
borealis_deckdetail_system01
0 0.124800 0.580900 0.871700 -0.000000 1.000000 0.000000 0.513600 0.098200 1 0 1.000000 
0 1.109600 0.580900 1.808000 0.413701 0.835001 0.362801 0.528300 0.113600 1 0 1.000000 
0 -0.449400 0.580900 -1.278300 -0.000000 1.000000 0.000000 0.480000 0.089300 1 0 1.000000 
borealis_deckdetail_system01
0 1.109600 0.580900 1.808000 0.413701 0.835001 0.362801 0.528300 0.113600 1 0 1.000000 
0 1.109600 0.580900 -1.808000 0.456005 0.738809 -0.496206 0.471700 0.113600 1 0 1.000000 
0 -0.449400 0.580900 -1.278300 -0.000000 1.000000 0.000000 0.480000 0.089300 1 0 1.000000 
borealis_deckdetail_system01
0 2.098200 0.000000 -0.727100 0.899796 0.343599 -0.268899 0.488600 0.129100 1 0 1.000000 
0 1.109600 0.580900 -1.808000 0.456005 0.738809 -0.496206 0.471700 0.113600 1 0 1.000000 
0 1.109600 0.580900 1.808000 0.413701 0.835001 0.362801 0.528300 0.113600 1 0 1.000000 
borealis_deckdetail_system01
0 2.098200 0.000000 -0.727100 0.899796 0.343599 -0.268899 0.488600 0.129100 1 0 1.000000 
0 1.109600 -0.580900 -1.808000 0.413701 -0.835001 -0.362801 0.471700 0.113600 1 0 1.000000 
0 1.109600 0.580900 -1.808000 0.456005 0.738809 -0.496206 0.471700 0.113600 1 0 1.000000 
borealis_deckdetail_system01
0 2.098200 0.000000 0.727100 0.899796 -0.343599 0.268899 0.511400 0.129100 1 0 1.000000 
0 1.109600 -0.580900 -1.808000 0.413701 -0.835001 -0.362801 0.471700 0.113600 1 0 1.000000 
0 2.098200 0.000000 -0.727100 0.899796 0.343599 -0.268899 0.488600 0.129100 1 0 1.000000 
borealis_deckdetail_system01
0 2.098200 0.000000 0.727100 0.899796 -0.343599 0.268899 0.511400 0.129100 1 0 1.000000 
0 1.109600 -0.580900 1.808000 0.301492 -0.917676 0.258793 0.528300 0.113600 1 0 1.000000 
0 1.109600 -0.580900 -1.808000 0.413701 -0.835001 -0.362801 0.471700 0.113600 1 0 1.000000 
borealis_deckdetail_system01
0 2.098200 0.000000 0.727100 0.899796 -0.343599 0.268899 0.511400 0.129100 1 0 1.000000 
0 1.109600 0.580900 1.808000 0.413701 0.835001 0.362801 0.528300 0.113600 1 0 1.000000 
0 1.109600 -0.580900 1.808000 0.301492 -0.917676 0.258793 0.528300 0.113600 1 0 1.000000 
borealis_deckdetail_system01
0 1.109600 0.580900 1.808000 0.413701 0.835001 0.362801 0.528300 0.113600 1 0 1.000000 
0 -2.004200 -0.000000 3.665300 0.126205 -0.570520 0.811529 0.557300 0.065000 1 0 1.000000 
0 1.109600 -0.580900 1.808000 0.301492 -0.917676 0.258793 0.528300 0.113600 1 0 1.000000 
borealis_deckdetail_system01
0 1.109600 0.580900 1.808000 0.413701 0.835001 0.362801 0.528300 0.113600 1 0 1.000000 
0 -2.004200 0.580900 3.243600 0.046202 0.984342 0.170107 0.550700 0.065000 1 0 1.000000 
0 -2.004200 -0.000000 3.665300 0.126205 -0.570520 0.811529 0.557300 0.065000 1 0 1.000000 
borealis_deckdetail_system01
0 0.124800 0.580900 0.871700 -0.000000 1.000000 0.000000 0.513600 0.098200 1 0 1.000000 
0 -2.004200 0.580900 3.243600 0.046202 0.984342 0.170107 0.550700 0.065000 1 0 1.000000 
0 1.109600 0.580900 1.808000 0.413701 0.835001 0.362801 0.528300 0.113600 1 0 1.000000 
borealis_deckdetail_system01
0 -1.604000 0.580900 -0.126400 -0.000000 1.000000 0.000000 0.498000 0.071200 1 0 1.000000 
0 -2.004200 0.580900 3.243600 0.046202 0.984342 0.170107 0.550700 0.065000 1 0 1.000000 
0 0.124800 0.580900 0.871700 -0.000000 1.000000 0.000000 0.513600 0.098200 1 0 1.000000 
borealis_deckdetail_system01
0 -2.004200 0.580900 -3.243600 0.095804 0.973445 -0.207910 0.449300 0.065000 1 0 1.000000 
0 -2.004200 0.580900 3.243600 0.046202 0.984342 0.170107 0.550700 0.065000 1 0 1.000000 
0 -1.604000 0.580900 -0.126400 -0.000000 1.000000 0.000000 0.498000 0.071200 1 0 1.000000 
borealis_deckdetail_system01
0 -0.449400 0.580900 -1.278300 -0.000000 1.000000 0.000000 0.480000 0.089300 1 0 1.000000 
0 -2.004200 0.580900 -3.243600 0.095804 0.973445 -0.207910 0.449300 0.065000 1 0 1.000000 
0 -1.604000 0.580900 -0.126400 -0.000000 1.000000 0.000000 0.498000 0.071200 1 0 1.000000 
borealis_deckdetail_system01
0 -0.449400 0.580900 -1.278300 -0.000000 1.000000 0.000000 0.480000 0.089300 1 0 1.000000 
0 1.109600 0.580900 -1.808000 0.456005 0.738809 -0.496206 0.471700 0.113600 1 0 1.000000 
0 -2.004200 0.580900 -3.243600 0.095804 0.973445 -0.207910 0.449300 0.065000 1 0 1.000000 
borealis_deckdetail_system01
0 -2.004200 -0.000000 -3.665300 0.454320 0.000000 -0.890839 0.442700 0.065000 1 0 1.000000 
0 -2.004200 0.580900 -3.243600 0.095804 0.973445 -0.207910 0.449300 0.065000 1 0 1.000000 
0 1.109600 0.580900 -1.808000 0.456005 0.738809 -0.496206 0.471700 0.113600 1 0 1.000000 
borealis_deckdetail_system01
0 1.109600 -0.580900 -1.808000 0.413701 -0.835001 -0.362801 0.471700 0.113600 1 0 1.000000 
0 -2.004200 -0.000000 -3.665300 0.454320 0.000000 -0.890839 0.442700 0.065000 1 0 1.000000 
0 1.109600 0.580900 -1.808000 0.456005 0.738809 -0.496206 0.471700 0.113600 1 0 1.000000 
borealis_deckdetail_system01
0 1.109600 -0.580900 -1.808000 0.413701 -0.835001 -0.362801 0.471700 0.113600 1 0 1.000000 
0 -2.004200 -0.580900 -3.243600 -0.039399 -0.979773 -0.196195 0.449300 0.065000 1 0 1.000000 
0 -2.004200 -0.000000 -3.665300 0.454320 0.000000 -0.890839 0.442700 0.065000 1 0 1.000000 
borealis_deckdetail_system01
0 -0.449400 -0.580900 -1.278300 0.000000 -1.000000 0.000000 0.480000 0.089300 1 0 1.000000 
0 -2.004200 -0.580900 -3.243600 -0.039399 -0.979773 -0.196195 0.449300 0.065000 1 0 1.000000 
0 1.109600 -0.580900 -1.808000 0.413701 -0.835001 -0.362801 0.471700 0.113600 1 0 1.000000 
borealis_deckdetail_system01
0 -1.449600 -0.580900 0.449900 -0.146999 -0.987291 0.060399 0.507000 0.073600 1 0 1.000000 
0 -2.004200 -0.580900 -3.243600 -0.039399 -0.979773 -0.196195 0.449300 0.065000 1 0 1.000000 
0 -0.449400 -0.580900 -1.278300 0.000000 -1.000000 0.000000 0.480000 0.089300 1 0 1.000000 
borealis_deckdetail_system01
0 -2.004200 -0.000000 3.665300 0.126205 -0.570520 0.811529 0.557300 0.065000 1 0 1.000000 
0 -2.004200 -0.580900 -3.243600 -0.039399 -0.979773 -0.196195 0.449300 0.065000 1 0 1.000000 
0 -1.449600 -0.580900 0.449900 -0.146999 -0.987291 0.060399 0.507000 0.073600 1 0 1.000000 
borealis_deckdetail_system01
0 -2.004200 -0.000000 3.665300 0.126205 -0.570520 0.811529 0.557300 0.065000 1 0 1.000000 
0 -1.449600 -0.580900 0.449900 -0.146999 -0.987291 0.060399 0.507000 0.073600 1 0 1.000000 
0 1.109600 -0.580900 1.808000 0.301492 -0.917676 0.258793 0.528300 0.113600 1 0 1.000000 
borealis_deckdetail_system01
0 0.124800 -0.580900 0.871700 0.000000 -1.000000 0.000000 0.513600 0.098200 1 0 1.000000 
0 1.109600 -0.580900 1.808000 0.301492 -0.917676 0.258793 0.528300 0.113600 1 0 1.000000 
0 -1.449600 -0.580900 0.449900 -0.146999 -0.987291 0.060399 0.507000 0.073600 1 0 1.000000 
borealis_deckdetail_system01
0 0.701100 -0.580900 -0.126400 0.000000 -1.000000 0.000000 0.498000 0.107200 1 0 1.000000 
0 1.109600 -0.580900 1.808000 0.301492 -0.917676 0.258793 0.528300 0.113600 1 0 1.000000 
0 0.124800 -0.580900 0.871700 0.000000 -1.000000 0.000000 0.513600 0.098200 1 0 1.000000 
borealis_deckdetail_system01
0 1.109600 -0.580900 -1.808000 0.413701 -0.835001 -0.362801 0.471700 0.113600 1 0 1.000000 
0 1.109600 -0.580900 1.808000 0.301492 -0.917676 0.258793 0.528300 0.113600 1 0 1.000000 
0 0.701100 -0.580900 -0.126400 0.000000 -1.000000 0.000000 0.498000 0.107200 1 0 1.000000 
borealis_deckdetail_system01
0 1.109600 -0.580900 -1.808000 0.413701 -0.835001 -0.362801 0.471700 0.113600 1 0 1.000000 
0 0.701100 -0.580900 -0.126400 0.000000 -1.000000 0.000000 0.498000 0.107200 1 0 1.000000 
0 -0.449400 -0.580900 -1.278300 0.000000 -1.000000 0.000000 0.480000 0.089300 1 0 1.000000 
end
