version 1
nodes
  0 "static_prop" -1
end
skeleton
time 0
0 0.000000 0.000000 0.000000 0.000000 0.000000 0.000000
end
triangles
borealis_deckdetail_system01
0 0.124800 0.580900 0.871700 -0.654694 -0.000000 -0.755894 0.513600 0.098200 1 0 1.000000 
0 0.701100 0.580900 -0.126400 -0.996031 -0.000000 -0.089003 0.498000 0.107200 1 0 1.000000 
0 0.701100 -0.580900 -0.126400 -0.991447 -0.000000 -0.130506 0.498000 0.107200 1 0 1.000000 
borealis_deckdetail_system01
0 0.546700 0.580900 -0.702600 -0.793486 -0.000000 0.608589 0.489000 0.104800 1 0 1.000000 
0 0.701100 -0.580900 -0.126400 -0.991447 -0.000000 -0.130506 0.498000 0.107200 1 0 1.000000 
0 0.701100 0.580900 -0.126400 -0.996031 -0.000000 -0.089003 0.498000 0.107200 1 0 1.000000 
borealis_deckdetail_system01
0 0.546700 -0.580900 -0.702600 -0.818089 -0.000000 0.575092 0.489000 0.104800 1 0 1.000000 
0 0.701100 -0.580900 -0.126400 -0.991447 -0.000000 -0.130506 0.498000 0.107200 1 0 1.000000 
0 0.546700 0.580900 -0.702600 -0.793486 -0.000000 0.608589 0.489000 0.104800 1 0 1.000000 
borealis_deckdetail_system01
0 -0.449400 -0.580900 -1.278300 -0.189708 -0.000000 0.981840 0.480000 0.089300 1 0 1.000000 
0 0.546700 -0.580900 -0.702600 -0.818089 -0.000000 0.575092 0.489000 0.104800 1 0 1.000000 
0 0.546700 0.580900 -0.702600 -0.793486 -0.000000 0.608589 0.489000 0.104800 1 0 1.000000 
borealis_deckdetail_system01
0 0.546700 0.580900 -0.702600 -0.793486 -0.000000 0.608589 0.489000 0.104800 1 0 1.000000 
0 -0.449400 0.580900 -1.278300 0.187898 0.000000 0.982188 0.480000 0.089300 1 0 1.000000 
0 -0.449400 -0.580900 -1.278300 -0.189708 -0.000000 0.981840 0.480000 0.089300 1 0 1.000000 
borealis_deckdetail_system01
0 -1.449600 -0.580900 -0.702600 0.828611 0.036901 0.558607 0.489000 0.073600 1 0 1.000000 
0 -0.449400 -0.580900 -1.278300 -0.189708 -0.000000 0.981840 0.480000 0.089300 1 0 1.000000 
0 -0.449400 0.580900 -1.278300 0.187898 0.000000 0.982188 0.480000 0.089300 1 0 1.000000 
borealis_deckdetail_system01
0 -0.449400 0.580900 -1.278300 0.187898 0.000000 0.982188 0.480000 0.089300 1 0 1.000000 
0 -1.449600 0.580900 -0.702600 0.818089 0.000000 0.575092 0.489000 0.073600 1 0 1.000000 
0 -1.449600 -0.580900 -0.702600 0.828611 0.036901 0.558607 0.489000 0.073600 1 0 1.000000 
borealis_deckdetail_system01
0 -1.449600 0.580900 -0.702600 0.818089 0.000000 0.575092 0.489000 0.073600 1 0 1.000000 
0 -1.604000 0.580900 -0.126400 0.996483 0.000000 -0.083799 0.498000 0.071200 1 0 1.000000 
0 -1.449600 -0.580900 -0.702600 0.828611 0.036901 0.558607 0.489000 0.073600 1 0 1.000000 
borealis_deckdetail_system01
0 -1.449600 -0.580900 0.449900 0.904871 0.000000 -0.425686 0.507000 0.073600 1 0 1.000000 
0 -1.449600 -0.580900 -0.702600 0.828611 0.036901 0.558607 0.489000 0.073600 1 0 1.000000 
0 -1.604000 0.580900 -0.126400 0.996483 0.000000 -0.083799 0.498000 0.071200 1 0 1.000000 
borealis_deckdetail_system01
0 -1.604000 0.580900 -0.126400 0.996483 0.000000 -0.083799 0.498000 0.071200 1 0 1.000000 
0 -1.027700 0.580900 0.871700 0.438891 -0.036899 -0.897782 0.513600 0.080200 1 0 1.000000 
0 -1.449600 -0.580900 0.449900 0.904871 0.000000 -0.425686 0.507000 0.073600 1 0 1.000000 
borealis_deckdetail_system01
0 -1.027700 -0.580900 0.871700 0.419686 -0.000100 -0.907669 0.513600 0.080200 1 0 1.000000 
0 -1.449600 -0.580900 0.449900 0.904871 0.000000 -0.425686 0.507000 0.073600 1 0 1.000000 
0 -1.027700 0.580900 0.871700 0.438891 -0.036899 -0.897782 0.513600 0.080200 1 0 1.000000 
borealis_deckdetail_system01
0 0.124800 -0.580900 0.871700 -0.327306 -0.000000 -0.944918 0.513600 0.098200 1 0 1.000000 
0 -1.027700 -0.580900 0.871700 0.419686 -0.000100 -0.907669 0.513600 0.080200 1 0 1.000000 
0 -1.027700 0.580900 0.871700 0.438891 -0.036899 -0.897782 0.513600 0.080200 1 0 1.000000 
borealis_deckdetail_system01
0 -1.027700 0.580900 0.871700 0.438891 -0.036899 -0.897782 0.513600 0.080200 1 0 1.000000 
0 0.124800 0.580900 0.871700 -0.654694 -0.000000 -0.755894 0.513600 0.098200 1 0 1.000000 
0 0.124800 -0.580900 0.871700 -0.327306 -0.000000 -0.944918 0.513600 0.098200 1 0 1.000000 
borealis_deckdetail_system01
0 0.701100 -0.580900 -0.126400 -0.991447 -0.000000 -0.130506 0.498000 0.107200 1 0 1.000000 
0 0.124800 -0.580900 0.871700 -0.327306 -0.000000 -0.944918 0.513600 0.098200 1 0 1.000000 
0 0.124800 0.580900 0.871700 -0.654694 -0.000000 -0.755894 0.513600 0.098200 1 0 1.000000 
borealis_deckdetail_system01
0 0.124800 0.580900 0.871700 -0.000000 1.000000 0.000000 0.513600 0.098200 1 0 1.000000 
0 1.109600 0.580900 1.808000 0.227708 0.938234 0.260510 0.528300 0.113600 1 0 1.000000 
0 0.701100 0.580900 -0.126400 -0.000000 1.000000 0.000000 0.498000 0.107200 1 0 1.000000 
borealis_deckdetail_system01
0 1.109600 0.580900 1.808000 0.227708 0.938234 0.260510 0.528300 0.113600 1 0 1.000000 
0 1.109600 0.580900 -1.808000 0.265093 0.936977 -0.227594 0.471700 0.113600 1 0 1.000000 
0 0.701100 0.580900 -0.126400 -0.000000 1.000000 0.000000 0.498000 0.107200 1 0 1.000000 
borealis_deckdetail_system01
0 0.701100 0.580900 -0.126400 -0.000000 1.000000 0.000000 0.498000 0.107200 1 0 1.000000 
0 1.109600 0.580900 -1.808000 0.265093 0.936977 -0.227594 0.471700 0.113600 1 0 1.000000 
0 0.546700 0.580900 -0.702600 -0.000000 1.000000 0.000000 0.489000 0.104800 1 0 1.000000 
borealis_deckdetail_system01
0 0.546700 0.580900 -0.702600 -0.000000 1.000000 0.000000 0.489000 0.104800 1 0 1.000000 
0 1.109600 0.580900 -1.808000 0.265093 0.936977 -0.227594 0.471700 0.113600 1 0 1.000000 
0 -0.449400 0.580900 -1.278300 -0.000000 1.000000 0.000000 0.480000 0.089300 1 0 1.000000 
borealis_deckdetail_system01
0 1.109600 0.580900 1.808000 0.227708 0.938234 0.260510 0.528300 0.113600 1 0 1.000000 
0 -0.506400 -0.000000 3.187200 0.425422 -0.028501 0.904546 0.549800 0.088400 1 0 1.000000 
0 1.252900 0.000000 2.043100 0.710433 -0.006700 0.703733 0.531900 0.115900 1 0 1.000000 
borealis_deckdetail_system01
0 1.109600 0.580900 1.808000 0.227708 0.938234 0.260510 0.528300 0.113600 1 0 1.000000 
0 -0.447300 0.580900 2.820500 0.160197 0.906085 0.391594 0.544100 0.089300 1 0 1.000000 
0 -0.506400 -0.000000 3.187200 0.425422 -0.028501 0.904546 0.549800 0.088400 1 0 1.000000 
borealis_deckdetail_system01
0 0.124800 0.580900 0.871700 -0.000000 1.000000 0.000000 0.513600 0.098200 1 0 1.000000 
0 -0.447300 0.580900 2.820500 0.160197 0.906085 0.391594 0.544100 0.089300 1 0 1.000000 
0 1.109600 0.580900 1.808000 0.227708 0.938234 0.260510 0.528300 0.113600 1 0 1.000000 
borealis_deckdetail_system01
0 -1.027700 0.580900 0.871700 -0.000000 1.000000 0.000000 0.513600 0.080200 1 0 1.000000 
0 -0.447300 0.580900 2.820500 0.160197 0.906085 0.391594 0.544100 0.089300 1 0 1.000000 
0 0.124800 0.580900 0.871700 -0.000000 1.000000 0.000000 0.513600 0.098200 1 0 1.000000 
borealis_deckdetail_system01
0 1.857700 0.580900 0.643400 0.719794 0.630895 0.289598 0.510100 0.125300 1 0 1.000000 
0 1.252900 0.000000 2.043100 0.710433 -0.006700 0.703733 0.531900 0.115900 1 0 1.000000 
0 2.098200 0.000000 0.727100 0.959705 -0.001800 0.281002 0.511400 0.129100 1 0 1.000000 
borealis_deckdetail_system01
0 1.857700 0.580900 0.643400 0.719794 0.630895 0.289598 0.510100 0.125300 1 0 1.000000 
0 1.109600 0.580900 1.808000 0.227708 0.938234 0.260510 0.528300 0.113600 1 0 1.000000 
0 1.252900 0.000000 2.043100 0.710433 -0.006700 0.703733 0.531900 0.115900 1 0 1.000000 
borealis_deckdetail_system01
0 1.857700 0.580900 -0.643400 0.634285 0.763682 -0.120297 0.489900 0.125300 1 0 1.000000 
0 1.109600 0.580900 1.808000 0.227708 0.938234 0.260510 0.528300 0.113600 1 0 1.000000 
0 1.857700 0.580900 0.643400 0.719794 0.630895 0.289598 0.510100 0.125300 1 0 1.000000 
borealis_deckdetail_system01
0 1.857700 0.580900 -0.643400 0.634285 0.763682 -0.120297 0.489900 0.125300 1 0 1.000000 
0 1.109600 0.580900 -1.808000 0.265093 0.936977 -0.227594 0.471700 0.113600 1 0 1.000000 
0 1.109600 0.580900 1.808000 0.227708 0.938234 0.260510 0.528300 0.113600 1 0 1.000000 
borealis_deckdetail_system01
0 2.098200 0.000000 -0.727100 0.959705 0.001800 -0.281002 0.488600 0.129100 1 0 1.000000 
0 1.109600 0.580900 -1.808000 0.265093 0.936977 -0.227594 0.471700 0.113600 1 0 1.000000 
0 1.857700 0.580900 -0.643400 0.634285 0.763682 -0.120297 0.489900 0.125300 1 0 1.000000 
borealis_deckdetail_system01
0 2.098200 0.000000 -0.727100 0.959705 0.001800 -0.281002 0.488600 0.129100 1 0 1.000000 
0 1.252900 0.000000 -2.043100 0.710433 0.006700 -0.703733 0.468100 0.115900 1 0 1.000000 
0 1.109600 0.580900 -1.808000 0.265093 0.936977 -0.227594 0.471700 0.113600 1 0 1.000000 
borealis_deckdetail_system01
0 1.857700 -0.580900 -0.643400 0.719795 -0.630895 -0.289598 0.489900 0.125300 1 0 1.000000 
0 1.252900 0.000000 -2.043100 0.710433 0.006700 -0.703733 0.468100 0.115900 1 0 1.000000 
0 2.098200 0.000000 -0.727100 0.959705 0.001800 -0.281002 0.488600 0.129100 1 0 1.000000 
borealis_deckdetail_system01
0 1.857700 -0.580900 -0.643400 0.719795 -0.630895 -0.289598 0.489900 0.125300 1 0 1.000000 
0 1.109600 -0.580900 -1.808000 0.227708 -0.938234 -0.260510 0.471700 0.113600 1 0 1.000000 
0 1.252900 0.000000 -2.043100 0.710433 0.006700 -0.703733 0.468100 0.115900 1 0 1.000000 
borealis_deckdetail_system01
0 1.857700 -0.580900 0.643400 0.634285 -0.763682 0.120297 0.510100 0.125300 1 0 1.000000 
0 1.109600 -0.580900 -1.808000 0.227708 -0.938234 -0.260510 0.471700 0.113600 1 0 1.000000 
0 1.857700 -0.580900 -0.643400 0.719795 -0.630895 -0.289598 0.489900 0.125300 1 0 1.000000 
borealis_deckdetail_system01
0 1.857700 -0.580900 0.643400 0.634285 -0.763682 0.120297 0.510100 0.125300 1 0 1.000000 
0 1.109600 -0.580900 1.808000 0.301492 -0.917676 0.258793 0.528300 0.113600 1 0 1.000000 
0 1.109600 -0.580900 -1.808000 0.227708 -0.938234 -0.260510 0.471700 0.113600 1 0 1.000000 
borealis_deckdetail_system01
0 2.098200 0.000000 0.727100 0.959705 -0.001800 0.281002 0.511400 0.129100 1 0 1.000000 
0 1.109600 -0.580900 1.808000 0.301492 -0.917676 0.258793 0.528300 0.113600 1 0 1.000000 
0 1.857700 -0.580900 0.643400 0.634285 -0.763682 0.120297 0.510100 0.125300 1 0 1.000000 
borealis_deckdetail_system01
0 2.098200 0.000000 0.727100 0.959705 -0.001800 0.281002 0.511400 0.129100 1 0 1.000000 
0 1.252900 0.000000 2.043100 0.710433 -0.006700 0.703733 0.531900 0.115900 1 0 1.000000 
0 1.109600 -0.580900 1.808000 0.301492 -0.917676 0.258793 0.528300 0.113600 1 0 1.000000 
borealis_deckdetail_system01
0 1.252900 0.000000 2.043100 0.710433 -0.006700 0.703733 0.531900 0.115900 1 0 1.000000 
0 -0.447300 -0.580900 2.820500 0.202810 -0.896842 0.393119 0.544100 0.089300 1 0 1.000000 
0 1.109600 -0.580900 1.808000 0.301492 -0.917676 0.258793 0.528300 0.113600 1 0 1.000000 
borealis_deckdetail_system01
0 1.252900 0.000000 2.043100 0.710433 -0.006700 0.703733 0.531900 0.115900 1 0 1.000000 
0 -0.506400 -0.000000 3.187200 0.425422 -0.028501 0.904546 0.549800 0.088400 1 0 1.000000 
0 -0.447300 -0.580900 2.820500 0.202810 -0.896842 0.393119 0.544100 0.089300 1 0 1.000000 
borealis_deckdetail_system01
0 -0.506400 -0.000000 3.187200 0.425422 -0.028501 0.904546 0.549800 0.088400 1 0 1.000000 
0 -2.004200 -0.580900 3.243600 0.089203 -0.948931 0.302610 0.550700 0.065000 1 0 1.000000 
0 -0.447300 -0.580900 2.820500 0.202810 -0.896842 0.393119 0.544100 0.089300 1 0 1.000000 
borealis_deckdetail_system01
0 -0.506400 -0.000000 3.187200 0.425422 -0.028501 0.904546 0.549800 0.088400 1 0 1.000000 
0 -2.004200 -0.000000 3.665300 0.284902 0.195502 0.938408 0.557300 0.065000 1 0 1.000000 
0 -2.004200 -0.580900 3.243600 0.089203 -0.948931 0.302610 0.550700 0.065000 1 0 1.000000 
borealis_deckdetail_system01
0 -0.447300 0.580900 2.820500 0.160197 0.906085 0.391594 0.544100 0.089300 1 0 1.000000 
0 -2.004200 -0.000000 3.665300 0.284902 0.195502 0.938408 0.557300 0.065000 1 0 1.000000 
0 -0.506400 -0.000000 3.187200 0.425422 -0.028501 0.904546 0.549800 0.088400 1 0 1.000000 
borealis_deckdetail_system01
0 -0.447300 0.580900 2.820500 0.160197 0.906085 0.391594 0.544100 0.089300 1 0 1.000000 
0 -2.004200 0.580900 3.243600 0.046202 0.984342 0.170107 0.550700 0.065000 1 0 1.000000 
0 -2.004200 -0.000000 3.665300 0.284902 0.195502 0.938408 0.557300 0.065000 1 0 1.000000 
borealis_deckdetail_system01
0 2.098200 0.000000 0.727100 0.959705 -0.001800 0.281002 0.511400 0.129100 1 0 1.000000 
0 1.857700 0.580900 -0.643400 0.634285 0.763682 -0.120297 0.489900 0.125300 1 0 1.000000 
0 1.857700 0.580900 0.643400 0.719794 0.630895 0.289598 0.510100 0.125300 1 0 1.000000 
borealis_deckdetail_system01
0 2.098200 0.000000 0.727100 0.959705 -0.001800 0.281002 0.511400 0.129100 1 0 1.000000 
0 2.098200 0.000000 -0.727100 0.959705 0.001800 -0.281002 0.488600 0.129100 1 0 1.000000 
0 1.857700 0.580900 -0.643400 0.634285 0.763682 -0.120297 0.489900 0.125300 1 0 1.000000 
borealis_deckdetail_system01
0 1.857700 -0.580900 0.643400 0.634285 -0.763682 0.120297 0.510100 0.125300 1 0 1.000000 
0 2.098200 0.000000 -0.727100 0.959705 0.001800 -0.281002 0.488600 0.129100 1 0 1.000000 
0 2.098200 0.000000 0.727100 0.959705 -0.001800 0.281002 0.511400 0.129100 1 0 1.000000 
borealis_deckdetail_system01
0 1.857700 -0.580900 0.643400 0.634285 -0.763682 0.120297 0.510100 0.125300 1 0 1.000000 
0 1.857700 -0.580900 -0.643400 0.719795 -0.630895 -0.289598 0.489900 0.125300 1 0 1.000000 
0 2.098200 0.000000 -0.727100 0.959705 0.001800 -0.281002 0.488600 0.129100 1 0 1.000000 
borealis_deckdetail_system01
0 0.124800 -0.580900 0.871700 0.000000 -1.000000 0.000000 0.513600 0.098200 1 0 1.000000 
0 -0.447300 -0.580900 2.820500 0.202810 -0.896842 0.393119 0.544100 0.089300 1 0 1.000000 
0 -1.027700 -0.580900 0.871700 0.000000 -1.000000 0.000000 0.513600 0.080200 1 0 1.000000 
borealis_deckdetail_system01
0 1.109600 -0.580900 1.808000 0.301492 -0.917676 0.258793 0.528300 0.113600 1 0 1.000000 
0 -0.447300 -0.580900 2.820500 0.202810 -0.896842 0.393119 0.544100 0.089300 1 0 1.000000 
0 0.124800 -0.580900 0.871700 0.000000 -1.000000 0.000000 0.513600 0.098200 1 0 1.000000 
borealis_deckdetail_system01
0 0.701100 -0.580900 -0.126400 0.000000 -1.000000 0.000000 0.498000 0.107200 1 0 1.000000 
0 1.109600 -0.580900 1.808000 0.301492 -0.917676 0.258793 0.528300 0.113600 1 0 1.000000 
0 0.124800 -0.580900 0.871700 0.000000 -1.000000 0.000000 0.513600 0.098200 1 0 1.000000 
borealis_deckdetail_system01
0 1.109600 -0.580900 -1.808000 0.227708 -0.938234 -0.260510 0.471700 0.113600 1 0 1.000000 
0 1.109600 -0.580900 1.808000 0.301492 -0.917676 0.258793 0.528300 0.113600 1 0 1.000000 
0 0.701100 -0.580900 -0.126400 0.000000 -1.000000 0.000000 0.498000 0.107200 1 0 1.000000 
borealis_deckdetail_system01
0 1.109600 -0.580900 -1.808000 0.227708 -0.938234 -0.260510 0.471700 0.113600 1 0 1.000000 
0 0.701100 -0.580900 -0.126400 0.000000 -1.000000 0.000000 0.498000 0.107200 1 0 1.000000 
0 0.546700 -0.580900 -0.702600 0.000000 -1.000000 0.000000 0.489000 0.104800 1 0 1.000000 
borealis_deckdetail_system01
0 1.109600 -0.580900 -1.808000 0.227708 -0.938234 -0.260510 0.471700 0.113600 1 0 1.000000 
0 0.546700 -0.580900 -0.702600 0.000000 -1.000000 0.000000 0.489000 0.104800 1 0 1.000000 
0 -0.449400 -0.580900 -1.278300 0.000000 -1.000000 0.000000 0.480000 0.089300 1 0 1.000000 
borealis_deckdetail_system01
0 -1.027700 0.580900 0.871700 -0.000000 1.000000 0.000000 0.513600 0.080200 1 0 1.000000 
0 -2.004200 0.580900 3.243600 0.046202 0.984342 0.170107 0.550700 0.065000 1 0 1.000000 
0 -0.447300 0.580900 2.820500 0.160197 0.906085 0.391594 0.544100 0.089300 1 0 1.000000 
borealis_deckdetail_system01
0 -1.604000 0.580900 -0.126400 -0.000000 1.000000 0.000000 0.498000 0.071200 1 0 1.000000 
0 -2.004200 0.580900 3.243600 0.046202 0.984342 0.170107 0.550700 0.065000 1 0 1.000000 
0 -1.027700 0.580900 0.871700 -0.000000 1.000000 0.000000 0.513600 0.080200 1 0 1.000000 
borealis_deckdetail_system01
0 -2.004200 0.580900 -3.243600 0.089203 0.948931 -0.302610 0.449300 0.065000 1 0 1.000000 
0 -2.004200 0.580900 3.243600 0.046202 0.984342 0.170107 0.550700 0.065000 1 0 1.000000 
0 -1.604000 0.580900 -0.126400 -0.000000 1.000000 0.000000 0.498000 0.071200 1 0 1.000000 
borealis_deckdetail_system01
0 -1.449600 0.580900 -0.702600 -0.000000 1.000000 0.000000 0.489000 0.073600 1 0 1.000000 
0 -2.004200 0.580900 -3.243600 0.089203 0.948931 -0.302610 0.449300 0.065000 1 0 1.000000 
0 -1.604000 0.580900 -0.126400 -0.000000 1.000000 0.000000 0.498000 0.071200 1 0 1.000000 
borealis_deckdetail_system01
0 -0.449400 0.580900 -1.278300 -0.000000 1.000000 0.000000 0.480000 0.089300 1 0 1.000000 
0 -2.004200 0.580900 -3.243600 0.089203 0.948931 -0.302610 0.449300 0.065000 1 0 1.000000 
0 -1.449600 0.580900 -0.702600 -0.000000 1.000000 0.000000 0.489000 0.073600 1 0 1.000000 
borealis_deckdetail_system01
0 -0.449400 0.580900 -1.278300 -0.000000 1.000000 0.000000 0.480000 0.089300 1 0 1.000000 
0 -0.447300 0.580900 -2.820500 0.283490 0.785872 -0.549580 0.455900 0.089300 1 0 1.000000 
0 -2.004200 0.580900 -3.243600 0.089203 0.948931 -0.302610 0.449300 0.065000 1 0 1.000000 
borealis_deckdetail_system01
0 1.109600 0.580900 -1.808000 0.265093 0.936977 -0.227594 0.471700 0.113600 1 0 1.000000 
0 -0.447300 0.580900 -2.820500 0.283490 0.785872 -0.549580 0.455900 0.089300 1 0 1.000000 
0 -0.449400 0.580900 -1.278300 -0.000000 1.000000 0.000000 0.480000 0.089300 1 0 1.000000 
borealis_deckdetail_system01
0 1.252900 0.000000 -2.043100 0.710433 0.006700 -0.703733 0.468100 0.115900 1 0 1.000000 
0 -0.447300 0.580900 -2.820500 0.283490 0.785872 -0.549580 0.455900 0.089300 1 0 1.000000 
0 1.109600 0.580900 -1.808000 0.265093 0.936977 -0.227594 0.471700 0.113600 1 0 1.000000 
borealis_deckdetail_system01
0 1.252900 0.000000 -2.043100 0.710433 0.006700 -0.703733 0.468100 0.115900 1 0 1.000000 
0 -0.506400 -0.000000 -3.187200 0.425422 0.028501 -0.904546 0.450200 0.088400 1 0 1.000000 
0 -0.447300 0.580900 -2.820500 0.283490 0.785872 -0.549580 0.455900 0.089300 1 0 1.000000 
borealis_deckdetail_system01
0 1.109600 -0.580900 -1.808000 0.227708 -0.938234 -0.260510 0.471700 0.113600 1 0 1.000000 
0 -0.506400 -0.000000 -3.187200 0.425422 0.028501 -0.904546 0.450200 0.088400 1 0 1.000000 
0 1.252900 0.000000 -2.043100 0.710433 0.006700 -0.703733 0.468100 0.115900 1 0 1.000000 
borealis_deckdetail_system01
0 1.109600 -0.580900 -1.808000 0.227708 -0.938234 -0.260510 0.471700 0.113600 1 0 1.000000 
0 -0.447300 -0.580900 -2.820500 0.160197 -0.906085 -0.391594 0.455900 0.089300 1 0 1.000000 
0 -0.506400 -0.000000 -3.187200 0.425422 0.028501 -0.904546 0.450200 0.088400 1 0 1.000000 
borealis_deckdetail_system01
0 -0.449400 -0.580900 -1.278300 0.000000 -1.000000 0.000000 0.480000 0.089300 1 0 1.000000 
0 -0.447300 -0.580900 -2.820500 0.160197 -0.906085 -0.391594 0.455900 0.089300 1 0 1.000000 
0 1.109600 -0.580900 -1.808000 0.227708 -0.938234 -0.260510 0.471700 0.113600 1 0 1.000000 
borealis_deckdetail_system01
0 -0.447300 -0.580900 -2.820500 0.160197 -0.906085 -0.391594 0.455900 0.089300 1 0 1.000000 
0 -0.449400 -0.580900 -1.278300 0.000000 -1.000000 0.000000 0.480000 0.089300 1 0 1.000000 
0 -1.449600 -0.580900 -0.702600 0.000000 -1.000000 0.000000 0.489000 0.073600 1 0 1.000000 
borealis_deckdetail_system01
0 -2.004200 -0.580900 -3.243600 0.046202 -0.984342 -0.170107 0.449300 0.065000 1 0 1.000000 
0 -0.447300 -0.580900 -2.820500 0.160197 -0.906085 -0.391594 0.455900 0.089300 1 0 1.000000 
0 -1.449600 -0.580900 -0.702600 0.000000 -1.000000 0.000000 0.489000 0.073600 1 0 1.000000 
borealis_deckdetail_system01
0 -1.449600 -0.580900 0.449900 0.000000 -1.000000 0.000000 0.507000 0.073600 1 0 1.000000 
0 -2.004200 -0.580900 -3.243600 0.046202 -0.984342 -0.170107 0.449300 0.065000 1 0 1.000000 
0 -1.449600 -0.580900 -0.702600 0.000000 -1.000000 0.000000 0.489000 0.073600 1 0 1.000000 
borealis_deckdetail_system01
0 -2.004200 -0.580900 3.243600 0.089203 -0.948931 0.302610 0.550700 0.065000 1 0 1.000000 
0 -2.004200 -0.580900 -3.243600 0.046202 -0.984342 -0.170107 0.449300 0.065000 1 0 1.000000 
0 -1.449600 -0.580900 0.449900 0.000000 -1.000000 0.000000 0.507000 0.073600 1 0 1.000000 
borealis_deckdetail_system01
0 -2.004200 -0.580900 3.243600 0.089203 -0.948931 0.302610 0.550700 0.065000 1 0 1.000000 
0 -1.449600 -0.580900 0.449900 0.000000 -1.000000 0.000000 0.507000 0.073600 1 0 1.000000 
0 -1.027700 -0.580900 0.871700 0.000000 -1.000000 0.000000 0.513600 0.080200 1 0 1.000000 
borealis_deckdetail_system01
0 -2.004200 -0.580900 3.243600 0.089203 -0.948931 0.302610 0.550700 0.065000 1 0 1.000000 
0 -1.027700 -0.580900 0.871700 0.000000 -1.000000 0.000000 0.513600 0.080200 1 0 1.000000 
0 -0.447300 -0.580900 2.820500 0.202810 -0.896842 0.393119 0.544100 0.089300 1 0 1.000000 
borealis_deckdetail_system01
0 -0.506400 -0.000000 -3.187200 0.425422 0.028501 -0.904546 0.450200 0.088400 1 0 1.000000 
0 -2.004200 0.580900 -3.243600 0.089203 0.948931 -0.302610 0.449300 0.065000 1 0 1.000000 
0 -0.447300 0.580900 -2.820500 0.283490 0.785872 -0.549580 0.455900 0.089300 1 0 1.000000 
borealis_deckdetail_system01
0 -0.506400 -0.000000 -3.187200 0.425422 0.028501 -0.904546 0.450200 0.088400 1 0 1.000000 
0 -2.004200 -0.000000 -3.665300 0.284902 -0.195502 -0.938408 0.442700 0.065000 1 0 1.000000 
0 -2.004200 0.580900 -3.243600 0.089203 0.948931 -0.302610 0.449300 0.065000 1 0 1.000000 
borealis_deckdetail_system01
0 -0.447300 -0.580900 -2.820500 0.160197 -0.906085 -0.391594 0.455900 0.089300 1 0 1.000000 
0 -2.004200 -0.000000 -3.665300 0.284902 -0.195502 -0.938408 0.442700 0.065000 1 0 1.000000 
0 -0.506400 -0.000000 -3.187200 0.425422 0.028501 -0.904546 0.450200 0.088400 1 0 1.000000 
borealis_deckdetail_system01
0 -0.447300 -0.580900 -2.820500 0.160197 -0.906085 -0.391594 0.455900 0.089300 1 0 1.000000 
0 -2.004200 -0.580900 -3.243600 0.046202 -0.984342 -0.170107 0.449300 0.065000 1 0 1.000000 
0 -2.004200 -0.000000 -3.665300 0.284902 -0.195502 -0.938408 0.442700 0.065000 1 0 1.000000 
end
