$cd ".\"
$modelname "props_c17/Handrail01_corner.mdl"
$model "Body" "Handrail01_corner_reference.smd"
$cdmaterials "models/props_c17/"
$surfaceprop "metal"
$eyeposition 0.000 0.000 0.000
$illumposition 0.521 -2.730 19.994
$sequence idle "idle" ACT_IDLE 1 fps 30.000000
$staticprop
$origin 0 0 0 270

$texturegroup skinfamilies
{
	{ "HandrailMetal002a.vmt" }
	{ "HandrailMetal003a.vmt" }
}

$lod 10
{
	replacemodel "Handrail01_corner_reference.smd" "Handrail01_corner_reference_Lod1.smd"
}

$lod 30
{
	replacemodel "Handrail01_corner_reference.smd" "Handrail01_corner_reference_Lod2.smd"
}