version 1
nodes
  0 "static_prop" -1
end
skeleton
time 0
0 0.000000 0.000000 0.000000 0.000000 0.000000 0.000000
end
triangles
pipe_cap001
0 -5.000000 -2.771600 1.148000 1.000000 0.000000 0.000000 0.243600 -0.914100 1 0 1.000000 
0 -5.000000 -3.000000 0.000000 1.000000 0.000000 0.000000 0.248300 -0.937700 1 0 1.000000 
0 -5.000000 -2.121300 2.121300 1.000000 0.000000 0.000000 0.230300 -0.894200 1 0 1.000000 
pipe_cap001
0 -5.000000 -2.121300 2.121300 1.000000 0.000000 0.000000 0.230300 -0.894200 1 0 1.000000 
0 -5.000000 -3.000000 0.000000 1.000000 0.000000 0.000000 0.248300 -0.937700 1 0 1.000000 
0 -5.000000 -1.148000 2.771600 1.000000 0.000000 0.000000 0.210300 -0.880900 1 0 1.000000 
pipe_cap001
0 -5.000000 -1.148000 2.771600 1.000000 0.000000 0.000000 0.210300 -0.880900 1 0 1.000000 
0 -5.000000 -3.000000 0.000000 1.000000 0.000000 0.000000 0.248300 -0.937700 1 0 1.000000 
0 -5.000000 -0.000000 3.000000 1.000000 0.000000 0.000000 0.186800 -0.876200 1 0 1.000000 
pipe_cap001
0 -5.000000 -0.000000 3.000000 1.000000 0.000000 0.000000 0.186800 -0.876200 1 0 1.000000 
0 -5.000000 -3.000000 0.000000 1.000000 0.000000 0.000000 0.248300 -0.937700 1 0 1.000000 
0 -5.000000 1.148000 2.771600 1.000000 0.000000 0.000000 0.163300 -0.880900 1 0 1.000000 
pipe_cap001
0 -5.000000 1.148000 2.771600 1.000000 0.000000 0.000000 0.163300 -0.880900 1 0 1.000000 
0 -5.000000 -3.000000 0.000000 1.000000 0.000000 0.000000 0.248300 -0.937700 1 0 1.000000 
0 -5.000000 2.121300 2.121300 1.000000 0.000000 0.000000 0.143300 -0.894200 1 0 1.000000 
pipe_cap001
0 -5.000000 2.121300 2.121300 1.000000 0.000000 0.000000 0.143300 -0.894200 1 0 1.000000 
0 -5.000000 -3.000000 0.000000 1.000000 0.000000 0.000000 0.248300 -0.937700 1 0 1.000000 
0 -5.000000 2.771600 1.148000 1.000000 0.000000 0.000000 0.130000 -0.914100 1 0 1.000000 
pipe_cap001
0 -5.000000 2.771600 1.148000 1.000000 0.000000 0.000000 0.130000 -0.914100 1 0 1.000000 
0 -5.000000 -3.000000 0.000000 1.000000 0.000000 0.000000 0.248300 -0.937700 1 0 1.000000 
0 -5.000000 3.000000 0.000000 1.000000 0.000000 0.000000 0.125300 -0.937700 1 0 1.000000 
pipe_cap001
0 -5.000000 3.000000 0.000000 1.000000 0.000000 0.000000 0.125300 -0.937700 1 0 1.000000 
0 -5.000000 -3.000000 0.000000 1.000000 0.000000 0.000000 0.248300 -0.937700 1 0 1.000000 
0 -5.000000 2.771600 -1.148100 1.000000 0.000000 0.000000 0.130000 -0.961200 1 0 1.000000 
pipe_cap001
0 -5.000000 2.771600 -1.148100 1.000000 0.000000 0.000000 0.130000 -0.961200 1 0 1.000000 
0 -5.000000 -3.000000 0.000000 1.000000 0.000000 0.000000 0.248300 -0.937700 1 0 1.000000 
0 -5.000000 2.121300 -2.121300 1.000000 0.000000 0.000000 0.143300 -0.981100 1 0 1.000000 
pipe_cap001
0 -5.000000 2.121300 -2.121300 1.000000 0.000000 0.000000 0.143300 -0.981100 1 0 1.000000 
0 -5.000000 -3.000000 0.000000 1.000000 0.000000 0.000000 0.248300 -0.937700 1 0 1.000000 
0 -5.000000 1.148000 -2.771600 1.000000 0.000000 0.000000 0.163300 -0.994500 1 0 1.000000 
pipe_cap001
0 -5.000000 1.148000 -2.771600 1.000000 0.000000 0.000000 0.163300 -0.994500 1 0 1.000000 
0 -5.000000 -3.000000 0.000000 1.000000 0.000000 0.000000 0.248300 -0.937700 1 0 1.000000 
0 -5.000000 -0.000000 -3.000000 1.000000 0.000000 0.000000 0.186800 -0.999200 1 0 1.000000 
pipe_cap001
0 -5.000000 -0.000000 -3.000000 1.000000 0.000000 0.000000 0.186800 -0.999200 1 0 1.000000 
0 -5.000000 -3.000000 0.000000 1.000000 0.000000 0.000000 0.248300 -0.937700 1 0 1.000000 
0 -5.000000 -1.148000 -2.771600 1.000000 0.000000 0.000000 0.210300 -0.994500 1 0 1.000000 
pipe_cap001
0 -5.000000 -1.148000 -2.771600 1.000000 0.000000 0.000000 0.210300 -0.994500 1 0 1.000000 
0 -5.000000 -3.000000 0.000000 1.000000 0.000000 0.000000 0.248300 -0.937700 1 0 1.000000 
0 -5.000000 -2.121300 -2.121300 1.000000 0.000000 0.000000 0.230300 -0.981100 1 0 1.000000 
pipe_cap001
0 -5.000000 -2.121300 -2.121300 1.000000 0.000000 0.000000 0.230300 -0.981100 1 0 1.000000 
0 -5.000000 -3.000000 0.000000 1.000000 0.000000 0.000000 0.248300 -0.937700 1 0 1.000000 
0 -5.000000 -2.771600 -1.148100 1.000000 0.000000 0.000000 0.243600 -0.961200 1 0 1.000000 
pipe_cap001
0 0.000000 -3.695500 -1.530700 0.097805 0.892249 0.440824 0.436800 -0.062500 1 0 1.000000 
0 0.000000 -2.828400 -2.828400 0.097803 0.655624 0.748727 0.436800 -0.125000 1 0 1.000000 
0 -0.780400 -2.774100 -2.774100 0.195201 0.694404 0.692604 0.392800 -0.125000 1 0 1.000000 
pipe_cap001
0 0.000000 -2.828400 -2.828400 0.097803 0.655624 0.748727 0.436800 -0.125000 1 0 1.000000 
0 -0.780400 -1.501300 -3.624500 0.195203 0.376506 0.905615 0.392800 -0.187500 1 0 1.000000 
0 -0.780400 -2.774100 -2.774100 0.195201 0.694404 0.692604 0.392800 -0.125000 1 0 1.000000 
pipe_cap001
0 -0.780400 -2.774100 -2.774100 0.195201 0.694404 0.692604 0.392800 -0.125000 1 0 1.000000 
0 -0.780400 -1.501300 -3.624500 0.195203 0.376506 0.905615 0.392800 -0.187500 1 0 1.000000 
0 -1.530700 -1.414200 -3.414200 0.382789 0.355790 0.852576 0.350600 -0.187500 1 0 1.000000 
pipe_cap001
0 -0.780400 -1.501300 -3.624500 0.195203 0.376506 0.905615 0.392800 -0.187500 1 0 1.000000 
0 -1.530700 -0.000000 -3.695500 0.382810 0.002400 0.923824 0.350600 -0.250000 1 0 1.000000 
0 -1.530700 -1.414200 -3.414200 0.382789 0.355790 0.852576 0.350600 -0.187500 1 0 1.000000 
pipe_cap001
0 -0.780400 -1.501300 -3.624500 0.195203 0.376506 0.905615 0.392800 -0.187500 1 0 1.000000 
0 -0.780400 -0.000000 -3.923100 0.195193 0.001200 0.980764 0.392800 -0.250000 1 0 1.000000 
0 -1.530700 -0.000000 -3.695500 0.382810 0.002400 0.923824 0.350600 -0.250000 1 0 1.000000 
pipe_cap001
0 -0.780400 -0.000000 -3.923100 0.195193 0.001200 0.980764 0.392800 -0.250000 1 0 1.000000 
0 -1.530700 1.414200 -3.414200 0.382810 -0.351309 0.854423 0.350600 -0.312500 1 0 1.000000 
0 -1.530700 -0.000000 -3.695500 0.382810 0.002400 0.923824 0.350600 -0.250000 1 0 1.000000 
pipe_cap001
0 -0.780400 -0.000000 -3.923100 0.195193 0.001200 0.980764 0.392800 -0.250000 1 0 1.000000 
0 -0.780400 1.501300 -3.624500 0.195195 -0.374190 0.906576 0.392800 -0.312500 1 0 1.000000 
0 -1.530700 1.414200 -3.414200 0.382810 -0.351309 0.854423 0.350600 -0.312500 1 0 1.000000 
pipe_cap001
0 -0.780400 1.501300 -3.624500 0.195195 -0.374190 0.906576 0.392800 -0.312500 1 0 1.000000 
0 -1.530700 2.613100 -2.613100 0.382798 -0.651496 0.654996 0.350600 -0.375000 1 0 1.000000 
0 -1.530700 1.414200 -3.414200 0.382810 -0.351309 0.854423 0.350600 -0.312500 1 0 1.000000 
pipe_cap001
0 -0.780400 1.501300 -3.624500 0.195195 -0.374190 0.906576 0.392800 -0.312500 1 0 1.000000 
0 -0.780400 2.774100 -2.774100 0.195201 -0.692604 0.694404 0.392800 -0.375000 1 0 1.000000 
0 -1.530700 2.613100 -2.613100 0.382798 -0.651496 0.654996 0.350600 -0.375000 1 0 1.000000 
pipe_cap001
0 -0.780400 2.774100 -2.774100 0.195201 -0.692604 0.694404 0.392800 -0.375000 1 0 1.000000 
0 -1.530700 3.414200 -1.414200 0.382789 -0.852576 0.355790 0.350600 -0.437500 1 0 1.000000 
0 -1.530700 2.613100 -2.613100 0.382798 -0.651496 0.654996 0.350600 -0.375000 1 0 1.000000 
pipe_cap001
0 -0.780400 2.774100 -2.774100 0.195201 -0.692604 0.694404 0.392800 -0.375000 1 0 1.000000 
0 -0.780400 3.624500 -1.501300 0.195203 -0.905615 0.376506 0.392800 -0.437500 1 0 1.000000 
0 -1.530700 3.414200 -1.414200 0.382789 -0.852576 0.355790 0.350600 -0.437500 1 0 1.000000 
pipe_cap001
0 -0.780400 3.624500 -1.501300 0.195203 -0.905615 0.376506 0.392800 -0.437500 1 0 1.000000 
0 -1.530700 3.695500 0.000000 0.382810 -0.923824 0.002400 0.350600 -0.500000 1 0 1.000000 
0 -1.530700 3.414200 -1.414200 0.382789 -0.852576 0.355790 0.350600 -0.437500 1 0 1.000000 
pipe_cap001
0 -0.780400 3.624500 -1.501300 0.195203 -0.905615 0.376506 0.392800 -0.437500 1 0 1.000000 
0 -0.780400 3.923100 0.000000 0.195193 -0.980764 0.001200 0.392800 -0.500000 1 0 1.000000 
0 -1.530700 3.695500 0.000000 0.382810 -0.923824 0.002400 0.350600 -0.500000 1 0 1.000000 
pipe_cap001
0 -0.780400 3.923100 0.000000 0.195193 -0.980764 0.001200 0.392800 -0.500000 1 0 1.000000 
0 -1.530700 3.414200 1.414200 0.382810 -0.854423 -0.351309 0.350600 -0.562500 1 0 1.000000 
0 -1.530700 3.695500 0.000000 0.382810 -0.923824 0.002400 0.350600 -0.500000 1 0 1.000000 
pipe_cap001
0 -0.780400 3.923100 0.000000 0.195193 -0.980764 0.001200 0.392800 -0.500000 1 0 1.000000 
0 -0.780400 3.624500 1.501300 0.195195 -0.906576 -0.374190 0.392800 -0.562500 1 0 1.000000 
0 -1.530700 3.414200 1.414200 0.382810 -0.854423 -0.351309 0.350600 -0.562500 1 0 1.000000 
pipe_cap001
0 -0.780400 3.624500 1.501300 0.195195 -0.906576 -0.374190 0.392800 -0.562500 1 0 1.000000 
0 -1.530700 2.613100 2.613100 0.382798 -0.654996 -0.651496 0.350600 -0.625000 1 0 1.000000 
0 -1.530700 3.414200 1.414200 0.382810 -0.854423 -0.351309 0.350600 -0.562500 1 0 1.000000 
pipe_cap001
0 -0.780400 3.624500 1.501300 0.195195 -0.906576 -0.374190 0.392800 -0.562500 1 0 1.000000 
0 -0.780400 2.774100 2.774100 0.195201 -0.694404 -0.692604 0.392800 -0.625000 1 0 1.000000 
0 -1.530700 2.613100 2.613100 0.382798 -0.654996 -0.651496 0.350600 -0.625000 1 0 1.000000 
pipe_cap001
0 -0.780400 2.774100 2.774100 0.195201 -0.694404 -0.692604 0.392800 -0.625000 1 0 1.000000 
0 -1.530700 1.414200 3.414200 0.382789 -0.355790 -0.852576 0.350600 -0.687500 1 0 1.000000 
0 -1.530700 2.613100 2.613100 0.382798 -0.654996 -0.651496 0.350600 -0.625000 1 0 1.000000 
pipe_cap001
0 0.000000 -2.828400 -2.828400 0.097803 0.655624 0.748727 0.436800 -0.125000 1 0 1.000000 
0 0.000000 -1.530700 -3.695500 0.097803 0.319208 0.942624 0.436800 -0.187500 1 0 1.000000 
0 -0.780400 -1.501300 -3.624500 0.195203 0.376506 0.905615 0.392800 -0.187500 1 0 1.000000 
pipe_cap001
0 0.000000 -1.530700 -3.695500 0.097803 0.319208 0.942624 0.436800 -0.187500 1 0 1.000000 
0 -0.780400 -0.000000 -3.923100 0.195193 0.001200 0.980764 0.392800 -0.250000 1 0 1.000000 
0 -0.780400 -1.501300 -3.624500 0.195203 0.376506 0.905615 0.392800 -0.187500 1 0 1.000000 
pipe_cap001
0 0.000000 -1.530700 -3.695500 0.097803 0.319208 0.942624 0.436800 -0.187500 1 0 1.000000 
0 0.000000 0.000000 -4.000000 0.097803 -0.065802 0.993028 0.436800 -0.250000 1 0 1.000000 
0 -0.780400 -0.000000 -3.923100 0.195193 0.001200 0.980764 0.392800 -0.250000 1 0 1.000000 
pipe_cap001
0 0.000000 0.000000 -4.000000 0.097803 -0.065802 0.993028 0.436800 -0.250000 1 0 1.000000 
0 -0.780400 1.501300 -3.624500 0.195195 -0.374190 0.906576 0.392800 -0.312500 1 0 1.000000 
0 -0.780400 -0.000000 -3.923100 0.195193 0.001200 0.980764 0.392800 -0.250000 1 0 1.000000 
pipe_cap001
0 0.000000 0.000000 -4.000000 0.097803 -0.065802 0.993028 0.436800 -0.250000 1 0 1.000000 
0 -0.000000 1.530700 -3.695500 0.097805 -0.440824 0.892249 0.436800 -0.312500 1 0 1.000000 
0 -0.780400 1.501300 -3.624500 0.195195 -0.374190 0.906576 0.392800 -0.312500 1 0 1.000000 
pipe_cap001
0 -0.000000 1.530700 -3.695500 0.097805 -0.440824 0.892249 0.436800 -0.312500 1 0 1.000000 
0 -0.780400 2.774100 -2.774100 0.195201 -0.692604 0.694404 0.392800 -0.375000 1 0 1.000000 
0 -0.780400 1.501300 -3.624500 0.195195 -0.374190 0.906576 0.392800 -0.312500 1 0 1.000000 
pipe_cap001
0 -0.000000 1.530700 -3.695500 0.097805 -0.440824 0.892249 0.436800 -0.312500 1 0 1.000000 
0 -0.000000 2.828400 -2.828400 0.097804 -0.748727 0.655624 0.436800 -0.375000 1 0 1.000000 
0 -0.780400 2.774100 -2.774100 0.195201 -0.692604 0.694404 0.392800 -0.375000 1 0 1.000000 
pipe_cap001
0 -0.000000 2.828400 -2.828400 0.097804 -0.748727 0.655624 0.436800 -0.375000 1 0 1.000000 
0 -0.780400 3.624500 -1.501300 0.195203 -0.905615 0.376506 0.392800 -0.437500 1 0 1.000000 
0 -0.780400 2.774100 -2.774100 0.195201 -0.692604 0.694404 0.392800 -0.375000 1 0 1.000000 
pipe_cap001
0 -0.000000 2.828400 -2.828400 0.097804 -0.748727 0.655624 0.436800 -0.375000 1 0 1.000000 
0 -0.000000 3.695500 -1.530700 0.097803 -0.942624 0.319208 0.436800 -0.437500 1 0 1.000000 
0 -0.780400 3.624500 -1.501300 0.195203 -0.905615 0.376506 0.392800 -0.437500 1 0 1.000000 
pipe_cap001
0 -0.000000 3.695500 -1.530700 0.097803 -0.942624 0.319208 0.436800 -0.437500 1 0 1.000000 
0 -0.780400 3.923100 0.000000 0.195193 -0.980764 0.001200 0.392800 -0.500000 1 0 1.000000 
0 -0.780400 3.624500 -1.501300 0.195203 -0.905615 0.376506 0.392800 -0.437500 1 0 1.000000 
pipe_cap001
0 -0.000000 3.695500 -1.530700 0.097803 -0.942624 0.319208 0.436800 -0.437500 1 0 1.000000 
0 -0.000000 4.000000 0.000000 0.097803 -0.993028 -0.065802 0.436800 -0.500000 1 0 1.000000 
0 -0.780400 3.923100 0.000000 0.195193 -0.980764 0.001200 0.392800 -0.500000 1 0 1.000000 
pipe_cap001
0 -0.000000 4.000000 0.000000 0.097803 -0.993028 -0.065802 0.436800 -0.500000 1 0 1.000000 
0 -0.780400 3.624500 1.501300 0.195195 -0.906576 -0.374190 0.392800 -0.562500 1 0 1.000000 
0 -0.780400 3.923100 0.000000 0.195193 -0.980764 0.001200 0.392800 -0.500000 1 0 1.000000 
pipe_cap001
0 -0.000000 4.000000 0.000000 0.097803 -0.993028 -0.065802 0.436800 -0.500000 1 0 1.000000 
0 -0.000000 3.695500 1.530700 0.097805 -0.892249 -0.440824 0.436800 -0.562500 1 0 1.000000 
0 -0.780400 3.624500 1.501300 0.195195 -0.906576 -0.374190 0.392800 -0.562500 1 0 1.000000 
pipe_cap001
0 -0.000000 3.695500 1.530700 0.097805 -0.892249 -0.440824 0.436800 -0.562500 1 0 1.000000 
0 -0.780400 2.774100 2.774100 0.195201 -0.694404 -0.692604 0.392800 -0.625000 1 0 1.000000 
0 -0.780400 3.624500 1.501300 0.195195 -0.906576 -0.374190 0.392800 -0.562500 1 0 1.000000 
pipe_cap001
0 -0.000000 3.695500 1.530700 0.097805 -0.892249 -0.440824 0.436800 -0.562500 1 0 1.000000 
0 -0.000000 2.828400 2.828400 0.097804 -0.655624 -0.748727 0.436800 -0.625000 1 0 1.000000 
0 -0.780400 2.774100 2.774100 0.195201 -0.694404 -0.692604 0.392800 -0.625000 1 0 1.000000 
pipe_cap001
0 -0.000000 2.828400 2.828400 0.097804 -0.655624 -0.748727 0.436800 -0.625000 1 0 1.000000 
0 -0.780400 1.501300 3.624500 0.195203 -0.376506 -0.905615 0.392800 -0.687500 1 0 1.000000 
0 -0.780400 2.774100 2.774100 0.195201 -0.694404 -0.692604 0.392800 -0.625000 1 0 1.000000 
pipe_cap001
0 -0.000000 2.828400 2.828400 0.097804 -0.655624 -0.748727 0.436800 -0.625000 1 0 1.000000 
0 -0.000000 1.530700 3.695500 0.097803 -0.319208 -0.942624 0.436800 -0.687500 1 0 1.000000 
0 -0.780400 1.501300 3.624500 0.195203 -0.376506 -0.905615 0.392800 -0.687500 1 0 1.000000 
pipe_cap001
0 -0.000000 1.530700 3.695500 0.097803 -0.319208 -0.942624 0.436800 -0.687500 1 0 1.000000 
0 -0.780400 -0.000000 3.923100 0.195193 -0.001200 -0.980764 0.392800 -0.750000 1 0 1.000000 
0 -0.780400 1.501300 3.624500 0.195203 -0.376506 -0.905615 0.392800 -0.687500 1 0 1.000000 
pipe_cap001
0 -0.780400 2.774100 2.774100 0.195201 -0.694404 -0.692604 0.392800 -0.625000 1 0 1.000000 
0 -0.780400 1.501300 3.624500 0.195203 -0.376506 -0.905615 0.392800 -0.687500 1 0 1.000000 
0 -1.530700 1.414200 3.414200 0.382789 -0.355790 -0.852576 0.350600 -0.687500 1 0 1.000000 
pipe_cap001
0 -0.780400 1.501300 3.624500 0.195203 -0.376506 -0.905615 0.392800 -0.687500 1 0 1.000000 
0 -1.530700 -0.000000 3.695500 0.382810 -0.002400 -0.923824 0.350600 -0.750000 1 0 1.000000 
0 -1.530700 1.414200 3.414200 0.382789 -0.355790 -0.852576 0.350600 -0.687500 1 0 1.000000 
pipe_cap001
0 -0.780400 1.501300 3.624500 0.195203 -0.376506 -0.905615 0.392800 -0.687500 1 0 1.000000 
0 -0.780400 -0.000000 3.923100 0.195193 -0.001200 -0.980764 0.392800 -0.750000 1 0 1.000000 
0 -1.530700 -0.000000 3.695500 0.382810 -0.002400 -0.923824 0.350600 -0.750000 1 0 1.000000 
pipe_cap001
0 -0.780400 -0.000000 3.923100 0.195193 -0.001200 -0.980764 0.392800 -0.750000 1 0 1.000000 
0 -1.530700 -1.414200 3.414200 0.382810 0.351309 -0.854423 0.350600 -0.812500 1 0 1.000000 
0 -1.530700 -0.000000 3.695500 0.382810 -0.002400 -0.923824 0.350600 -0.750000 1 0 1.000000 
pipe_cap001
0 -0.780400 -0.000000 3.923100 0.195193 -0.001200 -0.980764 0.392800 -0.750000 1 0 1.000000 
0 -0.780400 -1.501300 3.624500 0.195195 0.374190 -0.906576 0.392800 -0.812500 1 0 1.000000 
0 -1.530700 -1.414200 3.414200 0.382810 0.351309 -0.854423 0.350600 -0.812500 1 0 1.000000 
pipe_cap001
0 -0.780400 -1.501300 3.624500 0.195195 0.374190 -0.906576 0.392800 -0.812500 1 0 1.000000 
0 -1.530700 -2.613100 2.613100 0.382797 0.651496 -0.654996 0.350600 -0.875000 1 0 1.000000 
0 -1.530700 -1.414200 3.414200 0.382810 0.351309 -0.854423 0.350600 -0.812500 1 0 1.000000 
pipe_cap001
0 -0.780400 -1.501300 3.624500 0.195195 0.374190 -0.906576 0.392800 -0.812500 1 0 1.000000 
0 -0.780400 -2.774100 2.774100 0.195201 0.692604 -0.694404 0.392800 -0.875000 1 0 1.000000 
0 -1.530700 -2.613100 2.613100 0.382797 0.651496 -0.654996 0.350600 -0.875000 1 0 1.000000 
pipe_cap001
0 -0.780400 -2.774100 2.774100 0.195201 0.692604 -0.694404 0.392800 -0.875000 1 0 1.000000 
0 -1.530700 -3.414200 1.414200 0.382789 0.852576 -0.355790 0.350600 -0.937500 1 0 1.000000 
0 -1.530700 -2.613100 2.613100 0.382797 0.651496 -0.654996 0.350600 -0.875000 1 0 1.000000 
pipe_cap001
0 -0.780400 -2.774100 2.774100 0.195201 0.692604 -0.694404 0.392800 -0.875000 1 0 1.000000 
0 -0.780400 -3.624500 1.501300 0.195203 0.905615 -0.376506 0.392800 -0.937500 1 0 1.000000 
0 -1.530700 -3.414200 1.414200 0.382789 0.852576 -0.355790 0.350600 -0.937500 1 0 1.000000 
pipe_cap001
0 0.000000 -2.828400 2.828400 0.097803 0.748727 -0.655624 0.436800 -0.875000 1 0 1.000000 
0 -0.780400 -3.624500 1.501300 0.195203 0.905615 -0.376506 0.392800 -0.937500 1 0 1.000000 
0 -0.780400 -2.774100 2.774100 0.195201 0.692604 -0.694404 0.392800 -0.875000 1 0 1.000000 
pipe_cap001
0 0.000000 -2.828400 2.828400 0.097803 0.748727 -0.655624 0.436800 -0.875000 1 0 1.000000 
0 0.000000 -3.695500 1.530700 0.097802 0.942624 -0.319208 0.436800 -0.937500 1 0 1.000000 
0 -0.780400 -3.624500 1.501300 0.195203 0.905615 -0.376506 0.392800 -0.937500 1 0 1.000000 
pipe_cap001
0 -0.000000 1.530700 3.695500 0.097803 -0.319208 -0.942624 0.436800 -0.687500 1 0 1.000000 
0 0.000000 0.000000 4.000000 0.097803 0.065802 -0.993028 0.436800 -0.750000 1 0 1.000000 
0 -0.780400 -0.000000 3.923100 0.195193 -0.001200 -0.980764 0.392800 -0.750000 1 0 1.000000 
pipe_cap001
0 0.000000 0.000000 4.000000 0.097803 0.065802 -0.993028 0.436800 -0.750000 1 0 1.000000 
0 -0.780400 -1.501300 3.624500 0.195195 0.374190 -0.906576 0.392800 -0.812500 1 0 1.000000 
0 -0.780400 -0.000000 3.923100 0.195193 -0.001200 -0.980764 0.392800 -0.750000 1 0 1.000000 
pipe_cap001
0 0.000000 0.000000 4.000000 0.097803 0.065802 -0.993028 0.436800 -0.750000 1 0 1.000000 
0 0.000000 -1.530700 3.695500 0.097805 0.440824 -0.892249 0.436800 -0.812500 1 0 1.000000 
0 -0.780400 -1.501300 3.624500 0.195195 0.374190 -0.906576 0.392800 -0.812500 1 0 1.000000 
pipe_cap001
0 0.000000 -1.530700 3.695500 0.097805 0.440824 -0.892249 0.436800 -0.812500 1 0 1.000000 
0 -0.780400 -2.774100 2.774100 0.195201 0.692604 -0.694404 0.392800 -0.875000 1 0 1.000000 
0 -0.780400 -1.501300 3.624500 0.195195 0.374190 -0.906576 0.392800 -0.812500 1 0 1.000000 
pipe_cap001
0 0.000000 -1.530700 3.695500 0.097805 0.440824 -0.892249 0.436800 -0.812500 1 0 1.000000 
0 0.000000 -2.828400 2.828400 0.097803 0.748727 -0.655624 0.436800 -0.875000 1 0 1.000000 
0 -0.780400 -2.774100 2.774100 0.195201 0.692604 -0.694404 0.392800 -0.875000 1 0 1.000000 
pipe_cap001
0 -0.780400 -3.624500 1.501300 0.195203 0.905615 -0.376506 0.392800 -0.937500 1 0 1.000000 
0 -1.530700 -3.695500 0.000000 0.382810 0.923824 -0.002400 0.350600 -1.000000 1 0 1.000000 
0 -1.530700 -3.414200 1.414200 0.382789 0.852576 -0.355790 0.350600 -0.937500 1 0 1.000000 
pipe_cap001
0 -0.780400 -3.624500 1.501300 0.195203 0.905615 -0.376506 0.392800 -0.937500 1 0 1.000000 
0 -0.780400 -3.923100 0.000000 0.195193 0.980764 -0.001200 0.392800 -1.000000 1 0 1.000000 
0 -1.530700 -3.695500 0.000000 0.382810 0.923824 -0.002400 0.350600 -1.000000 1 0 1.000000 
pipe_cap001
0 0.000000 -3.695500 1.530700 0.097802 0.942624 -0.319208 0.436800 -0.937500 1 0 1.000000 
0 -0.780400 -3.923100 0.000000 0.195193 0.980764 -0.001200 0.392800 -1.000000 1 0 1.000000 
0 -0.780400 -3.624500 1.501300 0.195203 0.905615 -0.376506 0.392800 -0.937500 1 0 1.000000 
pipe_cap001
0 0.000000 -3.695500 1.530700 0.097802 0.942624 -0.319208 0.436800 -0.937500 1 0 1.000000 
0 0.000000 -4.000000 0.000000 0.097803 0.993028 0.065802 0.436800 -1.000000 1 0 1.000000 
0 -0.780400 -3.923100 0.000000 0.195193 0.980764 -0.001200 0.392800 -1.000000 1 0 1.000000 
pipe_cap001
0 -1.530700 3.414200 -1.414200 0.382789 -0.852576 0.355790 0.350600 -0.437500 1 0 1.000000 
0 -2.222300 3.325900 0.000000 0.470605 -0.880409 0.058401 0.311700 -0.500000 1 0 1.000000 
0 -2.222300 3.072700 -1.272800 0.470575 -0.791058 0.390879 0.311700 -0.437500 1 0 1.000000 
pipe_cap001
0 -1.530700 3.414200 -1.414200 0.382789 -0.852576 0.355790 0.350600 -0.437500 1 0 1.000000 
0 -1.530700 3.695500 0.000000 0.382810 -0.923824 0.002400 0.350600 -0.500000 1 0 1.000000 
0 -2.222300 3.325900 0.000000 0.470605 -0.880409 0.058401 0.311700 -0.500000 1 0 1.000000 
pipe_cap001
0 -1.530700 3.695500 0.000000 0.382810 -0.923824 0.002400 0.350600 -0.500000 1 0 1.000000 
0 -2.222300 3.072700 1.272800 0.470612 -0.835722 -0.283007 0.311700 -0.562500 1 0 1.000000 
0 -2.222300 3.325900 0.000000 0.470605 -0.880409 0.058401 0.311700 -0.500000 1 0 1.000000 
pipe_cap001
0 -1.530700 3.695500 0.000000 0.382810 -0.923824 0.002400 0.350600 -0.500000 1 0 1.000000 
0 -1.530700 3.414200 1.414200 0.382810 -0.854423 -0.351309 0.350600 -0.562500 1 0 1.000000 
0 -2.222300 3.072700 1.272800 0.470612 -0.835722 -0.283007 0.311700 -0.562500 1 0 1.000000 
pipe_cap001
0 -1.530700 3.414200 1.414200 0.382810 -0.854423 -0.351309 0.350600 -0.562500 1 0 1.000000 
0 -2.222300 2.351800 2.351800 0.470599 -0.663798 -0.581299 0.311700 -0.625000 1 0 1.000000 
0 -2.222300 3.072700 1.272800 0.470612 -0.835722 -0.283007 0.311700 -0.562500 1 0 1.000000 
pipe_cap001
0 -1.530700 3.414200 1.414200 0.382810 -0.854423 -0.351309 0.350600 -0.562500 1 0 1.000000 
0 -1.530700 2.613100 2.613100 0.382798 -0.654996 -0.651496 0.350600 -0.625000 1 0 1.000000 
0 -2.222300 2.351800 2.351800 0.470599 -0.663798 -0.581299 0.311700 -0.625000 1 0 1.000000 
pipe_cap001
0 -1.530700 2.613100 2.613100 0.382798 -0.654996 -0.651496 0.350600 -0.625000 1 0 1.000000 
0 -2.222300 1.272800 3.072700 0.470575 -0.390879 -0.791058 0.311700 -0.687500 1 0 1.000000 
0 -2.222300 2.351800 2.351800 0.470599 -0.663798 -0.581299 0.311700 -0.625000 1 0 1.000000 
pipe_cap001
0 -1.530700 2.613100 2.613100 0.382798 -0.654996 -0.651496 0.350600 -0.625000 1 0 1.000000 
0 -1.530700 1.414200 3.414200 0.382789 -0.355790 -0.852576 0.350600 -0.687500 1 0 1.000000 
0 -2.222300 1.272800 3.072700 0.470575 -0.390879 -0.791058 0.311700 -0.687500 1 0 1.000000 
pipe_cap001
0 -1.530700 1.414200 3.414200 0.382789 -0.355790 -0.852576 0.350600 -0.687500 1 0 1.000000 
0 -2.222300 -0.000000 3.325900 0.470605 -0.058401 -0.880409 0.311700 -0.750000 1 0 1.000000 
0 -2.222300 1.272800 3.072700 0.470575 -0.390879 -0.791058 0.311700 -0.687500 1 0 1.000000 
pipe_cap001
0 -1.530700 1.414200 3.414200 0.382789 -0.355790 -0.852576 0.350600 -0.687500 1 0 1.000000 
0 -1.530700 -0.000000 3.695500 0.382810 -0.002400 -0.923824 0.350600 -0.750000 1 0 1.000000 
0 -2.222300 -0.000000 3.325900 0.470605 -0.058401 -0.880409 0.311700 -0.750000 1 0 1.000000 
pipe_cap001
0 -1.530700 -0.000000 3.695500 0.382810 -0.002400 -0.923824 0.350600 -0.750000 1 0 1.000000 
0 -2.222300 -1.272800 3.072700 0.470612 0.283007 -0.835722 0.311700 -0.812500 1 0 1.000000 
0 -2.222300 -0.000000 3.325900 0.470605 -0.058401 -0.880409 0.311700 -0.750000 1 0 1.000000 
pipe_cap001
0 -1.530700 -0.000000 3.695500 0.382810 -0.002400 -0.923824 0.350600 -0.750000 1 0 1.000000 
0 -1.530700 -1.414200 3.414200 0.382810 0.351309 -0.854423 0.350600 -0.812500 1 0 1.000000 
0 -2.222300 -1.272800 3.072700 0.470612 0.283007 -0.835722 0.311700 -0.812500 1 0 1.000000 
pipe_cap001
0 -1.530700 -1.414200 3.414200 0.382810 0.351309 -0.854423 0.350600 -0.812500 1 0 1.000000 
0 -2.222300 -2.351800 2.351800 0.470599 0.581299 -0.663798 0.311700 -0.875000 1 0 1.000000 
0 -2.222300 -1.272800 3.072700 0.470612 0.283007 -0.835722 0.311700 -0.812500 1 0 1.000000 
pipe_cap001
0 -1.530700 -1.414200 3.414200 0.382810 0.351309 -0.854423 0.350600 -0.812500 1 0 1.000000 
0 -1.530700 -2.613100 2.613100 0.382797 0.651496 -0.654996 0.350600 -0.875000 1 0 1.000000 
0 -2.222300 -2.351800 2.351800 0.470599 0.581299 -0.663798 0.311700 -0.875000 1 0 1.000000 
pipe_cap001
0 -1.530700 -2.613100 2.613100 0.382797 0.651496 -0.654996 0.350600 -0.875000 1 0 1.000000 
0 -2.222300 -3.072700 1.272800 0.470575 0.791058 -0.390879 0.311700 -0.937500 1 0 1.000000 
0 -2.222300 -2.351800 2.351800 0.470599 0.581299 -0.663798 0.311700 -0.875000 1 0 1.000000 
pipe_cap001
0 -1.530700 -2.613100 2.613100 0.382797 0.651496 -0.654996 0.350600 -0.875000 1 0 1.000000 
0 -1.530700 -3.414200 1.414200 0.382789 0.852576 -0.355790 0.350600 -0.937500 1 0 1.000000 
0 -2.222300 -3.072700 1.272800 0.470575 0.791058 -0.390879 0.311700 -0.937500 1 0 1.000000 
pipe_cap001
0 -1.530700 -3.414200 1.414200 0.382789 0.852576 -0.355790 0.350600 -0.937500 1 0 1.000000 
0 -2.222300 -3.325900 0.000000 0.470605 0.880409 -0.058401 0.311700 -1.000000 1 0 1.000000 
0 -2.222300 -3.072700 1.272800 0.470575 0.791058 -0.390879 0.311700 -0.937500 1 0 1.000000 
pipe_cap001
0 -1.530700 -3.414200 1.414200 0.382789 0.852576 -0.355790 0.350600 -0.937500 1 0 1.000000 
0 -1.530700 -3.695500 0.000000 0.382810 0.923824 -0.002400 0.350600 -1.000000 1 0 1.000000 
0 -2.222300 -3.325900 0.000000 0.470605 0.880409 -0.058401 0.311700 -1.000000 1 0 1.000000 
pipe_cap001
0 -1.530700 -3.414200 -1.414200 0.382810 0.854423 0.351309 0.350600 -0.062500 1 0 1.000000 
0 -2.222300 -2.351800 -2.351800 0.470599 0.663798 0.581299 0.311700 -0.125000 1 0 1.000000 
0 -2.222300 -3.072700 -1.272800 0.470612 0.835722 0.283007 0.311700 -0.062500 1 0 1.000000 
pipe_cap001
0 -0.780400 -3.624500 -1.501300 0.195195 0.906576 0.374190 0.392800 -0.062500 1 0 1.000000 
0 -1.530700 -2.613100 -2.613100 0.382797 0.654996 0.651496 0.350600 -0.125000 1 0 1.000000 
0 -1.530700 -3.414200 -1.414200 0.382810 0.854423 0.351309 0.350600 -0.062500 1 0 1.000000 
pipe_cap001
0 -1.530700 -3.414200 -1.414200 0.382810 0.854423 0.351309 0.350600 -0.062500 1 0 1.000000 
0 -1.530700 -2.613100 -2.613100 0.382797 0.654996 0.651496 0.350600 -0.125000 1 0 1.000000 
0 -2.222300 -2.351800 -2.351800 0.470599 0.663798 0.581299 0.311700 -0.125000 1 0 1.000000 
pipe_cap001
0 -1.530700 -2.613100 -2.613100 0.382797 0.654996 0.651496 0.350600 -0.125000 1 0 1.000000 
0 -2.222300 -1.272800 -3.072700 0.470575 0.390879 0.791058 0.311700 -0.187500 1 0 1.000000 
0 -2.222300 -2.351800 -2.351800 0.470599 0.663798 0.581299 0.311700 -0.125000 1 0 1.000000 
pipe_cap001
0 -1.530700 -3.695500 0.000000 0.382810 0.923824 -0.002400 0.350600 -0.000000 1 0 1.000000 
0 -2.222300 -3.072700 -1.272800 0.470612 0.835722 0.283007 0.311700 -0.062500 1 0 1.000000 
0 -2.222300 -3.325900 0.000000 0.470605 0.880409 -0.058401 0.311700 -0.000000 1 0 1.000000 
pipe_cap001
0 -1.530700 -3.695500 0.000000 0.382810 0.923824 -0.002400 0.350600 -0.000000 1 0 1.000000 
0 -1.530700 -3.414200 -1.414200 0.382810 0.854423 0.351309 0.350600 -0.062500 1 0 1.000000 
0 -2.222300 -3.072700 -1.272800 0.470612 0.835722 0.283007 0.311700 -0.062500 1 0 1.000000 
pipe_cap001
0 -0.780400 -3.923100 0.000000 0.195193 0.980764 -0.001200 0.392800 -0.000000 1 0 1.000000 
0 -1.530700 -3.414200 -1.414200 0.382810 0.854423 0.351309 0.350600 -0.062500 1 0 1.000000 
0 -1.530700 -3.695500 0.000000 0.382810 0.923824 -0.002400 0.350600 -0.000000 1 0 1.000000 
pipe_cap001
0 -0.780400 -3.923100 0.000000 0.195193 0.980764 -0.001200 0.392800 -0.000000 1 0 1.000000 
0 -0.780400 -3.624500 -1.501300 0.195195 0.906576 0.374190 0.392800 -0.062500 1 0 1.000000 
0 -1.530700 -3.414200 -1.414200 0.382810 0.854423 0.351309 0.350600 -0.062500 1 0 1.000000 
pipe_cap001
0 0.000000 -4.000000 0.000000 0.097803 0.993028 0.065802 0.436800 -0.000000 1 0 1.000000 
0 -0.780400 -3.624500 -1.501300 0.195195 0.906576 0.374190 0.392800 -0.062500 1 0 1.000000 
0 -0.780400 -3.923100 0.000000 0.195193 0.980764 -0.001200 0.392800 -0.000000 1 0 1.000000 
pipe_cap001
0 0.000000 -4.000000 0.000000 0.097803 0.993028 0.065802 0.436800 -0.000000 1 0 1.000000 
0 0.000000 -3.695500 -1.530700 0.097805 0.892249 0.440824 0.436800 -0.062500 1 0 1.000000 
0 -0.780400 -3.624500 -1.501300 0.195195 0.906576 0.374190 0.392800 -0.062500 1 0 1.000000 
pipe_cap001
0 0.000000 -3.695500 -1.530700 0.097805 0.892249 0.440824 0.436800 -0.062500 1 0 1.000000 
0 -0.780400 -2.774100 -2.774100 0.195201 0.694404 0.692604 0.392800 -0.125000 1 0 1.000000 
0 -0.780400 -3.624500 -1.501300 0.195195 0.906576 0.374190 0.392800 -0.062500 1 0 1.000000 
pipe_cap001
0 -0.780400 -3.624500 -1.501300 0.195195 0.906576 0.374190 0.392800 -0.062500 1 0 1.000000 
0 -0.780400 -2.774100 -2.774100 0.195201 0.694404 0.692604 0.392800 -0.125000 1 0 1.000000 
0 -1.530700 -2.613100 -2.613100 0.382797 0.654996 0.651496 0.350600 -0.125000 1 0 1.000000 
pipe_cap001
0 -0.780400 -2.774100 -2.774100 0.195201 0.694404 0.692604 0.392800 -0.125000 1 0 1.000000 
0 -1.530700 -1.414200 -3.414200 0.382789 0.355790 0.852576 0.350600 -0.187500 1 0 1.000000 
0 -1.530700 -2.613100 -2.613100 0.382797 0.654996 0.651496 0.350600 -0.125000 1 0 1.000000 
pipe_cap001
0 -1.530700 -2.613100 -2.613100 0.382797 0.654996 0.651496 0.350600 -0.125000 1 0 1.000000 
0 -1.530700 -1.414200 -3.414200 0.382789 0.355790 0.852576 0.350600 -0.187500 1 0 1.000000 
0 -2.222300 -1.272800 -3.072700 0.470575 0.390879 0.791058 0.311700 -0.187500 1 0 1.000000 
pipe_cap001
0 -1.530700 -1.414200 -3.414200 0.382789 0.355790 0.852576 0.350600 -0.187500 1 0 1.000000 
0 -2.222300 -0.000000 -3.325900 0.470605 0.058401 0.880409 0.311700 -0.250000 1 0 1.000000 
0 -2.222300 -1.272800 -3.072700 0.470575 0.390879 0.791058 0.311700 -0.187500 1 0 1.000000 
pipe_cap001
0 -1.530700 -1.414200 -3.414200 0.382789 0.355790 0.852576 0.350600 -0.187500 1 0 1.000000 
0 -1.530700 -0.000000 -3.695500 0.382810 0.002400 0.923824 0.350600 -0.250000 1 0 1.000000 
0 -2.222300 -0.000000 -3.325900 0.470605 0.058401 0.880409 0.311700 -0.250000 1 0 1.000000 
pipe_cap001
0 -1.530700 -0.000000 -3.695500 0.382810 0.002400 0.923824 0.350600 -0.250000 1 0 1.000000 
0 -2.222300 1.272800 -3.072700 0.470612 -0.283007 0.835722 0.311700 -0.312500 1 0 1.000000 
0 -2.222300 -0.000000 -3.325900 0.470605 0.058401 0.880409 0.311700 -0.250000 1 0 1.000000 
pipe_cap001
0 -1.530700 -0.000000 -3.695500 0.382810 0.002400 0.923824 0.350600 -0.250000 1 0 1.000000 
0 -1.530700 1.414200 -3.414200 0.382810 -0.351309 0.854423 0.350600 -0.312500 1 0 1.000000 
0 -2.222300 1.272800 -3.072700 0.470612 -0.283007 0.835722 0.311700 -0.312500 1 0 1.000000 
pipe_cap001
0 -1.530700 1.414200 -3.414200 0.382810 -0.351309 0.854423 0.350600 -0.312500 1 0 1.000000 
0 -2.222300 2.351800 -2.351800 0.470599 -0.581299 0.663798 0.311700 -0.375000 1 0 1.000000 
0 -2.222300 1.272800 -3.072700 0.470612 -0.283007 0.835722 0.311700 -0.312500 1 0 1.000000 
pipe_cap001
0 -1.530700 1.414200 -3.414200 0.382810 -0.351309 0.854423 0.350600 -0.312500 1 0 1.000000 
0 -1.530700 2.613100 -2.613100 0.382798 -0.651496 0.654996 0.350600 -0.375000 1 0 1.000000 
0 -2.222300 2.351800 -2.351800 0.470599 -0.581299 0.663798 0.311700 -0.375000 1 0 1.000000 
pipe_cap001
0 -1.530700 2.613100 -2.613100 0.382798 -0.651496 0.654996 0.350600 -0.375000 1 0 1.000000 
0 -2.222300 3.072700 -1.272800 0.470575 -0.791058 0.390879 0.311700 -0.437500 1 0 1.000000 
0 -2.222300 2.351800 -2.351800 0.470599 -0.581299 0.663798 0.311700 -0.375000 1 0 1.000000 
pipe_cap001
0 -1.530700 2.613100 -2.613100 0.382798 -0.651496 0.654996 0.350600 -0.375000 1 0 1.000000 
0 -1.530700 3.414200 -1.414200 0.382789 -0.852576 0.355790 0.350600 -0.437500 1 0 1.000000 
0 -2.222300 3.072700 -1.272800 0.470575 -0.791058 0.390879 0.311700 -0.437500 1 0 1.000000 
pipe_cap001
0 -2.222300 3.000000 0.000000 1.000000 0.000000 0.000000 0.461900 -0.500000 1 0 1.000000 
0 -2.222300 3.325900 0.000000 1.000000 0.000000 0.000000 0.484600 -0.500000 1 0 1.000000 
0 -2.222300 3.072700 1.272800 1.000000 0.000000 0.000000 0.466900 -0.411000 1 0 1.000000 
pipe_cap001
0 -2.222300 2.771600 -1.148100 1.000000 0.000000 0.000000 0.445900 -0.580300 1 0 1.000000 
0 -2.222300 3.325900 0.000000 1.000000 0.000000 0.000000 0.484600 -0.500000 1 0 1.000000 
0 -2.222300 3.000000 0.000000 1.000000 0.000000 0.000000 0.461900 -0.500000 1 0 1.000000 
pipe_cap001
0 -2.222300 2.771600 -1.148100 1.000000 0.000000 0.000000 0.445900 -0.580300 1 0 1.000000 
0 -2.222300 3.072700 -1.272800 1.000000 0.000000 0.000000 0.466900 -0.589000 1 0 1.000000 
0 -2.222300 3.325900 0.000000 1.000000 0.000000 0.000000 0.484600 -0.500000 1 0 1.000000 
pipe_cap001
0 -2.222300 2.121300 -2.121300 1.000000 0.000000 0.000000 0.400400 -0.648400 1 0 1.000000 
0 -2.222300 3.072700 -1.272800 1.000000 0.000000 0.000000 0.466900 -0.589000 1 0 1.000000 
0 -2.222300 2.771600 -1.148100 1.000000 0.000000 0.000000 0.445900 -0.580300 1 0 1.000000 
pipe_cap001
0 -2.222300 2.121300 -2.121300 1.000000 0.000000 0.000000 0.400400 -0.648400 1 0 1.000000 
0 -2.222300 2.351800 -2.351800 1.000000 0.000000 0.000000 0.416500 -0.664500 1 0 1.000000 
0 -2.222300 3.072700 -1.272800 1.000000 0.000000 0.000000 0.466900 -0.589000 1 0 1.000000 
pipe_cap001
0 -2.222300 1.148000 -2.771600 1.000000 0.000000 0.000000 0.332300 -0.693900 1 0 1.000000 
0 -2.222300 2.351800 -2.351800 1.000000 0.000000 0.000000 0.416500 -0.664500 1 0 1.000000 
0 -2.222300 2.121300 -2.121300 1.000000 0.000000 0.000000 0.400400 -0.648400 1 0 1.000000 
pipe_cap001
0 -2.222300 1.148000 -2.771600 1.000000 0.000000 0.000000 0.332300 -0.693900 1 0 1.000000 
0 -2.222300 1.272800 -3.072700 1.000000 0.000000 0.000000 0.341000 -0.714900 1 0 1.000000 
0 -2.222300 2.351800 -2.351800 1.000000 0.000000 0.000000 0.416500 -0.664500 1 0 1.000000 
pipe_cap001
0 -2.222300 -0.000000 -3.000000 1.000000 0.000000 0.000000 0.252000 -0.709800 1 0 1.000000 
0 -2.222300 1.272800 -3.072700 1.000000 0.000000 0.000000 0.341000 -0.714900 1 0 1.000000 
0 -2.222300 1.148000 -2.771600 1.000000 0.000000 0.000000 0.332300 -0.693900 1 0 1.000000 
pipe_cap001
0 -2.222300 -0.000000 -3.000000 1.000000 0.000000 0.000000 0.252000 -0.709800 1 0 1.000000 
0 -2.222300 -0.000000 -3.325900 1.000000 0.000000 0.000000 0.252000 -0.732600 1 0 1.000000 
0 -2.222300 1.272800 -3.072700 1.000000 0.000000 0.000000 0.341000 -0.714900 1 0 1.000000 
pipe_cap001
0 -2.222300 -1.148000 -2.771600 1.000000 0.000000 0.000000 0.171700 -0.693900 1 0 1.000000 
0 -2.222300 -0.000000 -3.325900 1.000000 0.000000 0.000000 0.252000 -0.732600 1 0 1.000000 
0 -2.222300 -0.000000 -3.000000 1.000000 0.000000 0.000000 0.252000 -0.709800 1 0 1.000000 
pipe_cap001
0 -2.222300 -1.148000 -2.771600 1.000000 0.000000 0.000000 0.171700 -0.693900 1 0 1.000000 
0 -2.222300 -1.272800 -3.072700 1.000000 0.000000 0.000000 0.163000 -0.714900 1 0 1.000000 
0 -2.222300 -0.000000 -3.325900 1.000000 0.000000 0.000000 0.252000 -0.732600 1 0 1.000000 
pipe_cap001
0 -2.222300 -2.121300 -2.121300 1.000000 0.000000 0.000000 0.103600 -0.648400 1 0 1.000000 
0 -2.222300 -1.272800 -3.072700 1.000000 0.000000 0.000000 0.163000 -0.714900 1 0 1.000000 
0 -2.222300 -1.148000 -2.771600 1.000000 0.000000 0.000000 0.171700 -0.693900 1 0 1.000000 
pipe_cap001
0 -2.222300 -2.121300 -2.121300 1.000000 0.000000 0.000000 0.103600 -0.648400 1 0 1.000000 
0 -2.222300 -2.351800 -2.351800 1.000000 0.000000 0.000000 0.087500 -0.664500 1 0 1.000000 
0 -2.222300 -1.272800 -3.072700 1.000000 0.000000 0.000000 0.163000 -0.714900 1 0 1.000000 
pipe_cap001
0 -2.222300 -2.771600 -1.148100 1.000000 0.000000 0.000000 0.058200 -0.580300 1 0 1.000000 
0 -2.222300 -2.351800 -2.351800 1.000000 0.000000 0.000000 0.087500 -0.664500 1 0 1.000000 
0 -2.222300 -2.121300 -2.121300 1.000000 0.000000 0.000000 0.103600 -0.648400 1 0 1.000000 
pipe_cap001
0 -2.222300 -2.771600 -1.148100 1.000000 0.000000 0.000000 0.058200 -0.580300 1 0 1.000000 
0 -2.222300 -3.072700 -1.272800 1.000000 0.000000 0.000000 0.037100 -0.589000 1 0 1.000000 
0 -2.222300 -2.351800 -2.351800 1.000000 0.000000 0.000000 0.087500 -0.664500 1 0 1.000000 
pipe_cap001
0 -2.222300 -3.000000 0.000000 1.000000 0.000000 0.000000 0.042200 -0.500000 1 0 1.000000 
0 -2.222300 -3.072700 -1.272800 1.000000 0.000000 0.000000 0.037100 -0.589000 1 0 1.000000 
0 -2.222300 -2.771600 -1.148100 1.000000 0.000000 0.000000 0.058200 -0.580300 1 0 1.000000 
pipe_cap001
0 -2.222300 -3.000000 0.000000 1.000000 0.000000 0.000000 0.042200 -0.500000 1 0 1.000000 
0 -2.222300 -3.325900 0.000000 1.000000 0.000000 0.000000 0.019400 -0.500000 1 0 1.000000 
0 -2.222300 -3.072700 -1.272800 1.000000 0.000000 0.000000 0.037100 -0.589000 1 0 1.000000 
pipe_cap001
0 -2.222300 -2.771600 1.148000 1.000000 0.000000 0.000000 0.058200 -0.419700 1 0 1.000000 
0 -2.222300 -3.325900 0.000000 1.000000 0.000000 0.000000 0.019400 -0.500000 1 0 1.000000 
0 -2.222300 -3.000000 0.000000 1.000000 0.000000 0.000000 0.042200 -0.500000 1 0 1.000000 
pipe_cap001
0 -2.222300 -2.771600 1.148000 1.000000 0.000000 0.000000 0.058200 -0.419700 1 0 1.000000 
0 -2.222300 -3.072700 1.272800 1.000000 0.000000 0.000000 0.037100 -0.411000 1 0 1.000000 
0 -2.222300 -3.325900 0.000000 1.000000 0.000000 0.000000 0.019400 -0.500000 1 0 1.000000 
pipe_cap001
0 -2.222300 -2.121300 2.121300 1.000000 0.000000 0.000000 0.103600 -0.351600 1 0 1.000000 
0 -2.222300 -3.072700 1.272800 1.000000 0.000000 0.000000 0.037100 -0.411000 1 0 1.000000 
0 -2.222300 -2.771600 1.148000 1.000000 0.000000 0.000000 0.058200 -0.419700 1 0 1.000000 
pipe_cap001
0 -2.222300 -2.121300 2.121300 1.000000 0.000000 0.000000 0.103600 -0.351600 1 0 1.000000 
0 -2.222300 -2.351800 2.351800 1.000000 0.000000 0.000000 0.087500 -0.335500 1 0 1.000000 
0 -2.222300 -3.072700 1.272800 1.000000 0.000000 0.000000 0.037100 -0.411000 1 0 1.000000 
pipe_cap001
0 -2.222300 -1.148000 2.771600 1.000000 0.000000 0.000000 0.171700 -0.306100 1 0 1.000000 
0 -2.222300 -2.351800 2.351800 1.000000 0.000000 0.000000 0.087500 -0.335500 1 0 1.000000 
0 -2.222300 -2.121300 2.121300 1.000000 0.000000 0.000000 0.103600 -0.351600 1 0 1.000000 
pipe_cap001
0 -2.222300 -1.148000 2.771600 1.000000 0.000000 0.000000 0.171700 -0.306100 1 0 1.000000 
0 -2.222300 -1.272800 3.072700 1.000000 0.000000 0.000000 0.163000 -0.285100 1 0 1.000000 
0 -2.222300 -2.351800 2.351800 1.000000 0.000000 0.000000 0.087500 -0.335500 1 0 1.000000 
pipe_cap001
0 -2.222300 -0.000000 3.000000 1.000000 0.000000 0.000000 0.252000 -0.290200 1 0 1.000000 
0 -2.222300 -1.272800 3.072700 1.000000 0.000000 0.000000 0.163000 -0.285100 1 0 1.000000 
0 -2.222300 -1.148000 2.771600 1.000000 0.000000 0.000000 0.171700 -0.306100 1 0 1.000000 
pipe_cap001
0 -2.222300 -0.000000 3.000000 1.000000 0.000000 0.000000 0.252000 -0.290200 1 0 1.000000 
0 -2.222300 -0.000000 3.325900 1.000000 0.000000 0.000000 0.252000 -0.267400 1 0 1.000000 
0 -2.222300 -1.272800 3.072700 1.000000 0.000000 0.000000 0.163000 -0.285100 1 0 1.000000 
pipe_cap001
0 -2.222300 1.148000 2.771600 1.000000 0.000000 0.000000 0.332300 -0.306100 1 0 1.000000 
0 -2.222300 -0.000000 3.325900 1.000000 0.000000 0.000000 0.252000 -0.267400 1 0 1.000000 
0 -2.222300 -0.000000 3.000000 1.000000 0.000000 0.000000 0.252000 -0.290200 1 0 1.000000 
pipe_cap001
0 -2.222300 1.148000 2.771600 1.000000 0.000000 0.000000 0.332300 -0.306100 1 0 1.000000 
0 -2.222300 1.272800 3.072700 1.000000 0.000000 0.000000 0.341000 -0.285100 1 0 1.000000 
0 -2.222300 -0.000000 3.325900 1.000000 0.000000 0.000000 0.252000 -0.267400 1 0 1.000000 
pipe_cap001
0 -2.222300 2.121300 2.121300 1.000000 0.000000 0.000000 0.400400 -0.351600 1 0 1.000000 
0 -2.222300 1.272800 3.072700 1.000000 0.000000 0.000000 0.341000 -0.285100 1 0 1.000000 
0 -2.222300 1.148000 2.771600 1.000000 0.000000 0.000000 0.332300 -0.306100 1 0 1.000000 
pipe_cap001
0 -2.222300 2.121300 2.121300 1.000000 0.000000 0.000000 0.400400 -0.351600 1 0 1.000000 
0 -2.222300 2.351800 2.351800 1.000000 0.000000 0.000000 0.416500 -0.335500 1 0 1.000000 
0 -2.222300 1.272800 3.072700 1.000000 0.000000 0.000000 0.341000 -0.285100 1 0 1.000000 
pipe_cap001
0 -2.222300 2.771600 1.148000 1.000000 0.000000 0.000000 0.445900 -0.419700 1 0 1.000000 
0 -2.222300 2.351800 2.351800 1.000000 0.000000 0.000000 0.416500 -0.335500 1 0 1.000000 
0 -2.222300 2.121300 2.121300 1.000000 0.000000 0.000000 0.400400 -0.351600 1 0 1.000000 
pipe_cap001
0 -2.222300 2.771600 1.148000 1.000000 0.000000 0.000000 0.445900 -0.419700 1 0 1.000000 
0 -2.222300 3.072700 1.272800 1.000000 0.000000 0.000000 0.466900 -0.411000 1 0 1.000000 
0 -2.222300 2.351800 2.351800 1.000000 0.000000 0.000000 0.416500 -0.335500 1 0 1.000000 
pipe_cap001
0 -2.222300 3.000000 0.000000 1.000000 0.000000 0.000000 0.461900 -0.500000 1 0 1.000000 
0 -2.222300 3.072700 1.272800 1.000000 0.000000 0.000000 0.466900 -0.411000 1 0 1.000000 
0 -2.222300 2.771600 1.148000 1.000000 0.000000 0.000000 0.445900 -0.419700 1 0 1.000000 
pipe_cap001
0 -2.222300 -1.148000 2.771600 -0.000000 0.320694 -0.947183 0.472700 -0.062500 1 0 1.000000 
0 -5.000000 -0.000000 3.000000 -0.000000 0.066200 -0.997806 0.264300 -0.000000 1 0 1.000000 
0 -2.222300 -0.000000 3.000000 0.000000 -0.066200 -0.997806 0.472700 -0.000000 1 0 1.000000 
pipe_cap001
0 -2.222300 -1.148000 2.771600 -0.000000 0.320694 -0.947183 0.472700 -0.062500 1 0 1.000000 
0 -5.000000 -1.148000 2.771600 -0.000000 0.443009 -0.896517 0.264300 -0.062500 1 0 1.000000 
0 -5.000000 -0.000000 3.000000 -0.000000 0.066200 -0.997806 0.264300 -0.000000 1 0 1.000000 
pipe_cap001
0 -2.222300 -2.121300 2.121300 -0.000000 0.658809 -0.752310 0.472700 -0.125000 1 0 1.000000 
0 -5.000000 -1.148000 2.771600 -0.000000 0.443009 -0.896517 0.264300 -0.062500 1 0 1.000000 
0 -2.222300 -1.148000 2.771600 -0.000000 0.320694 -0.947183 0.472700 -0.062500 1 0 1.000000 
pipe_cap001
0 -2.222300 -2.121300 2.121300 -0.000000 0.658809 -0.752310 0.472700 -0.125000 1 0 1.000000 
0 -5.000000 -2.121300 2.121300 -0.000000 0.752310 -0.658809 0.264300 -0.125000 1 0 1.000000 
0 -5.000000 -1.148000 2.771600 -0.000000 0.443009 -0.896517 0.264300 -0.062500 1 0 1.000000 
pipe_cap001
0 -2.222300 -2.771600 1.148000 -0.000000 0.896517 -0.443009 0.472700 -0.187500 1 0 1.000000 
0 -5.000000 -2.121300 2.121300 -0.000000 0.752310 -0.658809 0.264300 -0.125000 1 0 1.000000 
0 -2.222300 -2.121300 2.121300 -0.000000 0.658809 -0.752310 0.472700 -0.125000 1 0 1.000000 
pipe_cap001
0 -2.222300 -2.771600 1.148000 -0.000000 0.896517 -0.443009 0.472700 -0.187500 1 0 1.000000 
0 -5.000000 -2.771600 1.148000 -0.000000 0.947183 -0.320694 0.264300 -0.187500 1 0 1.000000 
0 -5.000000 -2.121300 2.121300 -0.000000 0.752310 -0.658809 0.264300 -0.125000 1 0 1.000000 
pipe_cap001
0 -2.222300 -3.000000 0.000000 -0.000000 0.997806 -0.066200 0.472700 -0.250000 1 0 1.000000 
0 -5.000000 -2.771600 1.148000 -0.000000 0.947183 -0.320694 0.264300 -0.187500 1 0 1.000000 
0 -2.222300 -2.771600 1.148000 -0.000000 0.896517 -0.443009 0.472700 -0.187500 1 0 1.000000 
pipe_cap001
0 -2.222300 -3.000000 0.000000 -0.000000 0.997806 -0.066200 0.472700 -0.250000 1 0 1.000000 
0 -5.000000 -3.000000 0.000000 -0.000000 0.997806 0.066200 0.264300 -0.250000 1 0 1.000000 
0 -5.000000 -2.771600 1.148000 -0.000000 0.947183 -0.320694 0.264300 -0.187500 1 0 1.000000 
pipe_cap001
0 -2.222300 -2.771600 -1.148100 -0.000000 0.947183 0.320694 0.472700 -0.312500 1 0 1.000000 
0 -5.000000 -3.000000 0.000000 -0.000000 0.997806 0.066200 0.264300 -0.250000 1 0 1.000000 
0 -2.222300 -3.000000 0.000000 -0.000000 0.997806 -0.066200 0.472700 -0.250000 1 0 1.000000 
pipe_cap001
0 -2.222300 -2.771600 -1.148100 -0.000000 0.947183 0.320694 0.472700 -0.312500 1 0 1.000000 
0 -5.000000 -2.771600 -1.148100 -0.000000 0.896517 0.443009 0.264300 -0.312500 1 0 1.000000 
0 -5.000000 -3.000000 0.000000 -0.000000 0.997806 0.066200 0.264300 -0.250000 1 0 1.000000 
pipe_cap001
0 -2.222300 -2.121300 -2.121300 -0.000000 0.752310 0.658809 0.472700 -0.375000 1 0 1.000000 
0 -5.000000 -2.771600 -1.148100 -0.000000 0.896517 0.443009 0.264300 -0.312500 1 0 1.000000 
0 -2.222300 -2.771600 -1.148100 -0.000000 0.947183 0.320694 0.472700 -0.312500 1 0 1.000000 
pipe_cap001
0 -2.222300 -2.121300 -2.121300 -0.000000 0.752310 0.658809 0.472700 -0.375000 1 0 1.000000 
0 -5.000000 -2.121300 -2.121300 -0.000000 0.658809 0.752310 0.264300 -0.375000 1 0 1.000000 
0 -5.000000 -2.771600 -1.148100 -0.000000 0.896517 0.443009 0.264300 -0.312500 1 0 1.000000 
pipe_cap001
0 -2.222300 -1.148000 -2.771600 -0.000000 0.443009 0.896517 0.472700 -0.437500 1 0 1.000000 
0 -5.000000 -2.121300 -2.121300 -0.000000 0.658809 0.752310 0.264300 -0.375000 1 0 1.000000 
0 -2.222300 -2.121300 -2.121300 -0.000000 0.752310 0.658809 0.472700 -0.375000 1 0 1.000000 
pipe_cap001
0 -2.222300 -1.148000 -2.771600 -0.000000 0.443009 0.896517 0.472700 -0.437500 1 0 1.000000 
0 -5.000000 -1.148000 -2.771600 -0.000000 0.320694 0.947183 0.264300 -0.437500 1 0 1.000000 
0 -5.000000 -2.121300 -2.121300 -0.000000 0.658809 0.752310 0.264300 -0.375000 1 0 1.000000 
pipe_cap001
0 -2.222300 -0.000000 -3.000000 -0.000000 0.066200 0.997806 0.472700 -0.500000 1 0 1.000000 
0 -5.000000 -1.148000 -2.771600 -0.000000 0.320694 0.947183 0.264300 -0.437500 1 0 1.000000 
0 -2.222300 -1.148000 -2.771600 -0.000000 0.443009 0.896517 0.472700 -0.437500 1 0 1.000000 
pipe_cap001
0 -2.222300 -0.000000 -3.000000 -0.000000 0.066200 0.997806 0.472700 -0.500000 1 0 1.000000 
0 -5.000000 -0.000000 -3.000000 0.000000 -0.066200 0.997806 0.264300 -0.500000 1 0 1.000000 
0 -5.000000 -1.148000 -2.771600 -0.000000 0.320694 0.947183 0.264300 -0.437500 1 0 1.000000 
pipe_cap001
0 -2.222300 1.148000 -2.771600 0.000000 -0.320694 0.947183 0.472700 -0.562500 1 0 1.000000 
0 -5.000000 -0.000000 -3.000000 0.000000 -0.066200 0.997806 0.264300 -0.500000 1 0 1.000000 
0 -2.222300 -0.000000 -3.000000 -0.000000 0.066200 0.997806 0.472700 -0.500000 1 0 1.000000 
pipe_cap001
0 -2.222300 1.148000 -2.771600 0.000000 -0.320694 0.947183 0.472700 -0.562500 1 0 1.000000 
0 -5.000000 1.148000 -2.771600 0.000000 -0.443009 0.896517 0.264300 -0.562500 1 0 1.000000 
0 -5.000000 -0.000000 -3.000000 0.000000 -0.066200 0.997806 0.264300 -0.500000 1 0 1.000000 
pipe_cap001
0 -2.222300 2.121300 -2.121300 0.000000 -0.658809 0.752310 0.472700 -0.625000 1 0 1.000000 
0 -5.000000 1.148000 -2.771600 0.000000 -0.443009 0.896517 0.264300 -0.562500 1 0 1.000000 
0 -2.222300 1.148000 -2.771600 0.000000 -0.320694 0.947183 0.472700 -0.562500 1 0 1.000000 
pipe_cap001
0 -2.222300 2.121300 -2.121300 0.000000 -0.658809 0.752310 0.472700 -0.625000 1 0 1.000000 
0 -5.000000 2.121300 -2.121300 0.000000 -0.752310 0.658809 0.264300 -0.625000 1 0 1.000000 
0 -5.000000 1.148000 -2.771600 0.000000 -0.443009 0.896517 0.264300 -0.562500 1 0 1.000000 
pipe_cap001
0 -2.222300 2.771600 -1.148100 0.000000 -0.896517 0.443009 0.472700 -0.687500 1 0 1.000000 
0 -5.000000 2.121300 -2.121300 0.000000 -0.752310 0.658809 0.264300 -0.625000 1 0 1.000000 
0 -2.222300 2.121300 -2.121300 0.000000 -0.658809 0.752310 0.472700 -0.625000 1 0 1.000000 
pipe_cap001
0 -2.222300 2.771600 -1.148100 0.000000 -0.896517 0.443009 0.472700 -0.687500 1 0 1.000000 
0 -5.000000 2.771600 -1.148100 0.000000 -0.947183 0.320694 0.264300 -0.687500 1 0 1.000000 
0 -5.000000 2.121300 -2.121300 0.000000 -0.752310 0.658809 0.264300 -0.625000 1 0 1.000000 
pipe_cap001
0 -2.222300 3.000000 0.000000 0.000000 -0.997806 0.066200 0.472700 -0.750000 1 0 1.000000 
0 -5.000000 2.771600 -1.148100 0.000000 -0.947183 0.320694 0.264300 -0.687500 1 0 1.000000 
0 -2.222300 2.771600 -1.148100 0.000000 -0.896517 0.443009 0.472700 -0.687500 1 0 1.000000 
pipe_cap001
0 -2.222300 3.000000 0.000000 0.000000 -0.997806 0.066200 0.472700 -0.750000 1 0 1.000000 
0 -5.000000 3.000000 0.000000 0.000000 -0.997806 -0.066200 0.264300 -0.750000 1 0 1.000000 
0 -5.000000 2.771600 -1.148100 0.000000 -0.947183 0.320694 0.264300 -0.687500 1 0 1.000000 
pipe_cap001
0 -2.222300 2.771600 1.148000 0.000000 -0.947183 -0.320694 0.472700 -0.812500 1 0 1.000000 
0 -5.000000 3.000000 0.000000 0.000000 -0.997806 -0.066200 0.264300 -0.750000 1 0 1.000000 
0 -2.222300 3.000000 0.000000 0.000000 -0.997806 0.066200 0.472700 -0.750000 1 0 1.000000 
pipe_cap001
0 -2.222300 2.771600 1.148000 0.000000 -0.947183 -0.320694 0.472700 -0.812500 1 0 1.000000 
0 -5.000000 2.771600 1.148000 0.000000 -0.896517 -0.443009 0.264300 -0.812500 1 0 1.000000 
0 -5.000000 3.000000 0.000000 0.000000 -0.997806 -0.066200 0.264300 -0.750000 1 0 1.000000 
pipe_cap001
0 -2.222300 2.121300 2.121300 0.000000 -0.752310 -0.658809 0.472700 -0.875000 1 0 1.000000 
0 -5.000000 2.771600 1.148000 0.000000 -0.896517 -0.443009 0.264300 -0.812500 1 0 1.000000 
0 -2.222300 2.771600 1.148000 0.000000 -0.947183 -0.320694 0.472700 -0.812500 1 0 1.000000 
pipe_cap001
0 -2.222300 2.121300 2.121300 0.000000 -0.752310 -0.658809 0.472700 -0.875000 1 0 1.000000 
0 -5.000000 2.121300 2.121300 0.000000 -0.658809 -0.752310 0.264300 -0.875000 1 0 1.000000 
0 -5.000000 2.771600 1.148000 0.000000 -0.896517 -0.443009 0.264300 -0.812500 1 0 1.000000 
pipe_cap001
0 -2.222300 1.148000 2.771600 0.000000 -0.443009 -0.896517 0.472700 -0.937500 1 0 1.000000 
0 -5.000000 2.121300 2.121300 0.000000 -0.658809 -0.752310 0.264300 -0.875000 1 0 1.000000 
0 -2.222300 2.121300 2.121300 0.000000 -0.752310 -0.658809 0.472700 -0.875000 1 0 1.000000 
pipe_cap001
0 -2.222300 1.148000 2.771600 0.000000 -0.443009 -0.896517 0.472700 -0.937500 1 0 1.000000 
0 -5.000000 1.148000 2.771600 0.000000 -0.320694 -0.947183 0.264300 -0.937500 1 0 1.000000 
0 -5.000000 2.121300 2.121300 0.000000 -0.658809 -0.752310 0.264300 -0.875000 1 0 1.000000 
pipe_cap001
0 -2.222300 -0.000000 3.000000 0.000000 -0.066200 -0.997806 0.472700 -1.000000 1 0 1.000000 
0 -5.000000 1.148000 2.771600 0.000000 -0.320694 -0.947183 0.264300 -0.937500 1 0 1.000000 
0 -2.222300 1.148000 2.771600 0.000000 -0.443009 -0.896517 0.472700 -0.937500 1 0 1.000000 
pipe_cap001
0 -2.222300 -0.000000 3.000000 0.000000 -0.066200 -0.997806 0.472700 -1.000000 1 0 1.000000 
0 -5.000000 -0.000000 3.000000 -0.000000 0.066200 -0.997806 0.264300 -1.000000 1 0 1.000000 
0 -5.000000 1.148000 2.771600 0.000000 -0.320694 -0.947183 0.264300 -0.937500 1 0 1.000000 
end
