version 1
nodes
  0 "static_prop" -1
end
skeleton
time 0
0 0.000000 0.000000 0.000000 0.000000 0.000000 0.000000
end
triangles
HandrailMetal002a
0 -0.499499 -33.280102 -20.006800 -0.866019 -0.500011 0.000000 0.462300 -0.946700 1 0 1.000000 
0 1.000501 -32.414001 -20.006800 0.866019 -0.500011 0.000000 0.462300 -0.792900 1 0 1.000000 
0 -0.499499 -33.280102 19.144300 0.000000 -1.000000 0.000000 -0.139000 -0.946700 1 0 1.000000 
HandrailMetal002a
0 1.000501 -32.414001 -20.006800 0.866019 -0.500011 0.000000 0.462300 -0.792900 1 0 1.000000 
0 1.000501 -32.414001 19.144300 0.866019 0.500011 0.000000 -0.139000 -0.792900 1 0 1.000000 
0 -0.499499 -33.280102 19.144300 0.000000 -1.000000 0.000000 -0.139000 -0.946700 1 0 1.000000 
HandrailMetal002a
0 1.000501 -32.414001 -20.006800 0.866019 -0.500011 0.000000 0.462300 -0.792900 1 0 1.000000 
0 -0.499499 -31.548000 -20.006800 -0.000000 1.000000 0.000000 0.462300 -0.639100 1 0 1.000000 
0 1.000501 -32.414001 19.144300 0.866019 0.500011 0.000000 -0.139000 -0.792900 1 0 1.000000 
HandrailMetal002a
0 -0.499499 -31.548000 -20.006800 -0.000000 1.000000 0.000000 0.462300 -0.639100 1 0 1.000000 
0 -0.499499 -31.548000 19.144300 -0.866019 0.500011 0.000000 -0.139000 -0.639100 1 0 1.000000 
0 1.000501 -32.414001 19.144300 0.866019 0.500011 0.000000 -0.139000 -0.792900 1 0 1.000000 
HandrailMetal002a
0 -0.499499 -31.548000 -20.006800 -0.000000 1.000000 0.000000 0.462300 -0.639100 1 0 1.000000 
0 -0.499499 -33.280102 -20.006800 -0.866019 -0.500011 0.000000 0.462300 -0.499100 1 0 1.000000 
0 -0.499499 -31.548000 19.144300 -0.866019 0.500011 0.000000 -0.139000 -0.639100 1 0 1.000000 
HandrailMetal002a
0 -0.499499 -33.280102 -20.006800 -0.866019 -0.500011 0.000000 0.462300 -0.499100 1 0 1.000000 
0 -0.499499 -33.280102 19.144300 0.000000 -1.000000 0.000000 -0.139000 -0.499100 1 0 1.000000 
0 -0.499499 -31.548000 19.144300 -0.866019 0.500011 0.000000 -0.139000 -0.639100 1 0 1.000000 
HandrailMetal002a
0 -0.500497 -63.542301 18.274799 0.258806 -0.003500 -0.965923 0.307300 -0.400900 1 0 1.000000 
0 -1.000497 -63.542301 19.140800 -0.981978 -0.000000 0.188996 0.307300 -0.339900 1 0 1.000000 
0 -0.500503 64.452003 18.274799 -0.707105 0.002000 -0.707105 -1.973700 -0.400900 1 0 1.000000 
HandrailMetal002a
0 -1.000497 -63.542301 19.140800 -0.981978 -0.000000 0.188996 0.307300 -0.339900 1 0 1.000000 
0 -0.500503 64.452003 20.006800 -0.500010 0.002000 0.866017 -1.973700 -0.278900 1 0 1.000000 
0 -0.500503 64.452003 18.274799 -0.707105 0.002000 -0.707105 -1.973700 -0.400900 1 0 1.000000 
HandrailMetal002a
0 -1.000497 -63.542301 19.140800 -0.981978 -0.000000 0.188996 0.307300 -0.339900 1 0 1.000000 
0 0.499503 -63.542301 20.006800 0.575019 -0.004500 0.818127 0.307300 -0.217900 1 0 1.000000 
0 -0.500503 64.452003 20.006800 -0.500010 0.002000 0.866017 -1.973700 -0.278900 1 0 1.000000 
HandrailMetal002a
0 0.499503 -63.542301 20.006800 0.575019 -0.004500 0.818127 0.307300 -0.217900 1 0 1.000000 
0 0.999497 64.452003 19.140800 0.965928 -0.001500 -0.258807 -1.973700 -0.156900 1 0 1.000000 
0 -0.500503 64.452003 20.006800 -0.500010 0.002000 0.866017 -1.973700 -0.278900 1 0 1.000000 
HandrailMetal002a
0 0.499503 -63.542301 20.006800 0.575019 -0.004500 0.818127 0.307300 -0.217900 1 0 1.000000 
0 -0.500497 -63.542301 18.274799 0.258806 -0.003500 -0.965923 0.307300 -0.034900 1 0 1.000000 
0 0.999497 64.452003 19.140800 0.965928 -0.001500 -0.258807 -1.973700 -0.156900 1 0 1.000000 
HandrailMetal002a
0 -0.500497 -63.542301 18.274799 0.258806 -0.003500 -0.965923 0.307300 -0.034900 1 0 1.000000 
0 -0.500503 64.452003 18.274799 -0.707105 0.002000 -0.707105 -1.973700 -0.034900 1 0 1.000000 
0 0.999497 64.452003 19.140800 0.965928 -0.001500 -0.258807 -1.973700 -0.156900 1 0 1.000000 
HandrailMetal002a
0 -0.499501 28.838400 -20.006800 -0.500011 -0.866019 0.000000 -0.117000 -0.521600 1 0 1.000000 
0 0.500499 28.838400 -20.006800 0.654694 -0.755894 0.000000 -0.117000 -0.605400 1 0 1.000000 
0 -0.499501 28.838400 19.144300 -0.499989 -0.865982 0.009300 0.484400 -0.521600 1 0 1.000000 
HandrailMetal002a
0 0.500499 28.838400 -20.006800 0.654694 -0.755894 0.000000 -0.117000 -0.605400 1 0 1.000000 
0 1.000499 29.704500 19.144300 0.999979 0.000000 0.006400 0.484400 -0.675400 1 0 1.000000 
0 -0.499501 28.838400 19.144300 -0.499989 -0.865982 0.009300 0.484400 -0.521600 1 0 1.000000 
HandrailMetal002a
0 0.500499 28.838400 -20.006800 0.654694 -0.755894 0.000000 -0.117000 -0.605400 1 0 1.000000 
0 0.500499 30.570499 -20.006800 0.500001 0.866001 -0.006400 -0.117000 -0.745400 1 0 1.000000 
0 1.000499 29.704500 19.144300 0.999979 0.000000 0.006400 0.484400 -0.675400 1 0 1.000000 
HandrailMetal002a
0 0.500499 30.570499 -20.006800 0.500001 0.866001 -0.006400 -0.117000 -0.745400 1 0 1.000000 
0 -0.499501 30.570499 19.144300 -0.500001 0.866001 0.006400 0.484400 -0.829200 1 0 1.000000 
0 1.000499 29.704500 19.144300 0.999979 0.000000 0.006400 0.484400 -0.675400 1 0 1.000000 
HandrailMetal002a
0 0.500499 30.570499 -20.006800 0.500001 0.866001 -0.006400 -0.117000 -0.745400 1 0 1.000000 
0 -0.999501 29.704500 -20.006800 -0.988241 0.152906 0.000000 -0.117000 -0.899200 1 0 1.000000 
0 -0.499501 30.570499 19.144300 -0.500001 0.866001 0.006400 0.484400 -0.829200 1 0 1.000000 
HandrailMetal002a
0 -0.999501 29.704500 -20.006800 -0.988241 0.152906 0.000000 -0.117000 -0.899200 1 0 1.000000 
0 -0.499501 28.838400 19.144300 -0.499989 -0.865982 0.009300 0.484400 -0.969200 1 0 1.000000 
0 -0.499501 30.570499 19.144300 -0.500001 0.866001 0.006400 0.484400 -0.829200 1 0 1.000000 
HandrailMetal002a
0 -0.999501 29.704500 -20.006800 -0.988241 0.152906 0.000000 -0.117000 -0.899200 1 0 1.000000 
0 -0.499501 28.838400 -20.006800 -0.500011 -0.866019 0.000000 -0.117000 -0.969200 1 0 1.000000 
0 -0.499501 28.838400 19.144300 -0.499989 -0.865982 0.009300 0.484400 -0.969200 1 0 1.000000 
HandrailMetal002a
0 -0.500497 -63.543400 4.014200 -0.654694 -0.000000 -0.755894 1.247100 -0.815700 1 0 1.000000 
0 -1.000503 64.451698 4.880300 -0.988241 -0.000000 0.152906 -0.976100 -0.879600 1 0 1.000000 
0 -0.500503 64.451698 4.014200 0.258806 0.003500 -0.965923 -0.976100 -0.940200 1 0 1.000000 
HandrailMetal002a
0 -0.500497 -63.543400 4.014200 -0.654694 -0.000000 -0.755894 1.247100 -0.815700 1 0 1.000000 
0 -0.500497 -63.543400 5.746300 -0.500009 -0.002900 0.866015 1.247100 -0.694400 1 0 1.000000 
0 -1.000503 64.451698 4.880300 -0.988241 -0.000000 0.152906 -0.976100 -0.879600 1 0 1.000000 
HandrailMetal002a
0 -0.500497 -63.543400 5.746300 -0.500009 -0.002900 0.866015 1.247100 -0.694400 1 0 1.000000 
0 0.499497 64.451698 5.746300 0.575019 0.004500 0.818127 -0.976100 -0.758300 1 0 1.000000 
0 -1.000503 64.451698 4.880300 -0.988241 -0.000000 0.152906 -0.976100 -0.879600 1 0 1.000000 
HandrailMetal002a
0 -0.500497 -63.543400 5.746300 -0.500009 -0.002900 0.866015 1.247100 -0.694400 1 0 1.000000 
0 0.999503 -63.543400 4.880200 0.981978 0.000000 -0.188996 1.247100 -0.573200 1 0 1.000000 
0 0.499497 64.451698 5.746300 0.575019 0.004500 0.818127 -0.976100 -0.758300 1 0 1.000000 
HandrailMetal002a
0 0.999503 -63.543400 4.880200 0.981978 0.000000 -0.188996 1.247100 -0.573200 1 0 1.000000 
0 -0.500503 64.451698 4.014200 0.258806 0.003500 -0.965923 -0.976100 -0.576400 1 0 1.000000 
0 0.499497 64.451698 5.746300 0.575019 0.004500 0.818127 -0.976100 -0.758300 1 0 1.000000 
HandrailMetal002a
0 0.999503 -63.543400 4.880200 0.981978 0.000000 -0.188996 1.247100 -0.573200 1 0 1.000000 
0 -0.500497 -63.543400 4.014200 -0.654694 -0.000000 -0.755894 1.247100 -0.451900 1 0 1.000000 
0 -0.500503 64.451698 4.014200 0.258806 0.003500 -0.965923 -0.976100 -0.576400 1 0 1.000000 
HandrailMetal002a
0 -0.499497 -64.408302 -20.006800 -0.499989 -0.865982 -0.009300 0.013800 -0.392700 1 0 1.000000 
0 0.500503 -64.408302 19.144300 0.626510 -0.779413 0.000000 0.983000 -0.486300 1 0 1.000000 
0 -0.499497 -64.408302 19.144300 -0.500011 -0.866019 0.000000 0.983000 -0.392700 1 0 1.000000 
HandrailMetal002a
0 -0.499497 -64.408302 -20.006800 -0.499989 -0.865982 -0.009300 0.013800 -0.392700 1 0 1.000000 
0 1.000503 -63.542301 -20.006800 0.999979 0.000000 -0.006400 0.013800 -0.579900 1 0 1.000000 
0 0.500503 -64.408302 19.144300 0.626510 -0.779413 0.000000 0.983000 -0.486300 1 0 1.000000 
HandrailMetal002a
0 1.000503 -63.542301 -20.006800 0.999979 0.000000 -0.006400 0.013800 -0.579900 1 0 1.000000 
0 0.500503 -62.676300 19.144300 0.500001 0.866001 0.006400 0.983000 -0.673500 1 0 1.000000 
0 0.500503 -64.408302 19.144300 0.626510 -0.779413 0.000000 0.983000 -0.486300 1 0 1.000000 
HandrailMetal002a
0 1.000503 -63.542301 -20.006800 0.999979 0.000000 -0.006400 0.013800 -0.579900 1 0 1.000000 
0 -0.499497 -62.676300 -20.006800 -0.500001 0.866001 -0.006400 0.013800 -0.767000 1 0 1.000000 
0 0.500503 -62.676300 19.144300 0.500001 0.866001 0.006400 0.983000 -0.673500 1 0 1.000000 
HandrailMetal002a
0 -0.499497 -62.676300 -20.006800 -0.500001 0.866001 -0.006400 0.013800 -0.767000 1 0 1.000000 
0 -0.999497 -63.542301 19.144300 -0.981978 0.188996 0.000000 0.983000 -0.860600 1 0 1.000000 
0 0.500503 -62.676300 19.144300 0.500001 0.866001 0.006400 0.983000 -0.673500 1 0 1.000000 
HandrailMetal002a
0 -0.499497 -62.676300 -20.006800 -0.500001 0.866001 -0.006400 0.013800 -0.767000 1 0 1.000000 
0 -0.499497 -64.408302 -20.006800 -0.499989 -0.865982 -0.009300 0.013800 -0.954200 1 0 1.000000 
0 -0.999497 -63.542301 19.144300 -0.981978 0.188996 0.000000 0.983000 -0.860600 1 0 1.000000 
HandrailMetal002a
0 -0.499497 -64.408302 -20.006800 -0.499989 -0.865982 -0.009300 0.013800 -0.954200 1 0 1.000000 
0 -0.499497 -64.408302 19.144300 -0.500011 -0.866019 0.000000 0.983000 -0.954200 1 0 1.000000 
0 -0.999497 -63.542301 19.144300 -0.981978 0.188996 0.000000 0.983000 -0.860600 1 0 1.000000 
HandrailMetal002a
0 -0.499500 -2.185400 -20.006800 -0.327306 -0.944918 0.000000 0.187600 -0.521600 1 0 1.000000 
0 1.000500 -1.319400 -20.006800 0.965929 -0.258808 0.000000 0.187600 -0.675400 1 0 1.000000 
0 -0.499500 -2.185400 19.144300 -0.258808 -0.965929 0.000000 0.789000 -0.521600 1 0 1.000000 
HandrailMetal002a
0 1.000500 -1.319400 -20.006800 0.965929 -0.258808 0.000000 0.187600 -0.675400 1 0 1.000000 
0 1.000500 -1.319400 19.144300 0.981978 -0.188996 0.000000 0.789000 -0.675400 1 0 1.000000 
0 -0.499500 -2.185400 19.144300 -0.258808 -0.965929 0.000000 0.789000 -0.521600 1 0 1.000000 
HandrailMetal002a
0 1.000500 -1.319400 -20.006800 0.965929 -0.258808 0.000000 0.187600 -0.675400 1 0 1.000000 
0 0.500500 -0.453400 19.144300 0.258808 0.965929 0.000000 0.789000 -0.745400 1 0 1.000000 
0 1.000500 -1.319400 19.144300 0.981978 -0.188996 0.000000 0.789000 -0.675400 1 0 1.000000 
HandrailMetal002a
0 1.000500 -1.319400 -20.006800 0.965929 -0.258808 0.000000 0.187600 -0.675400 1 0 1.000000 
0 0.500500 -0.453400 -20.006800 0.327306 0.944918 0.000000 0.187600 -0.745400 1 0 1.000000 
0 0.500500 -0.453400 19.144300 0.258808 0.965929 0.000000 0.789000 -0.745400 1 0 1.000000 
HandrailMetal002a
0 0.500500 -0.453400 -20.006800 0.327306 0.944918 0.000000 0.187600 -0.745400 1 0 1.000000 
0 -0.999500 -1.319400 -20.006800 -0.965929 0.258808 0.000000 0.187600 -0.899200 1 0 1.000000 
0 0.500500 -0.453400 19.144300 0.258808 0.965929 0.000000 0.789000 -0.745400 1 0 1.000000 
HandrailMetal002a
0 -0.999500 -1.319400 -20.006800 -0.965929 0.258808 0.000000 0.187600 -0.899200 1 0 1.000000 
0 -0.999500 -1.319400 19.144300 -0.981978 0.188996 0.000000 0.789000 -0.899200 1 0 1.000000 
0 0.500500 -0.453400 19.144300 0.258808 0.965929 0.000000 0.789000 -0.745400 1 0 1.000000 
HandrailMetal002a
0 -0.999500 -1.319400 -20.006800 -0.965929 0.258808 0.000000 0.187600 -0.899200 1 0 1.000000 
0 -0.499500 -2.185400 19.144300 -0.258808 -0.965929 0.000000 0.789000 -0.969200 1 0 1.000000 
0 -0.999500 -1.319400 19.144300 -0.981978 0.188996 0.000000 0.789000 -0.899200 1 0 1.000000 
HandrailMetal002a
0 -0.999500 -1.319400 -20.006800 -0.965929 0.258808 0.000000 0.187600 -0.899200 1 0 1.000000 
0 -0.499500 -2.185400 -20.006800 -0.327306 -0.944918 0.000000 0.187600 -0.969200 1 0 1.000000 
0 -0.499500 -2.185400 19.144300 -0.258808 -0.965929 0.000000 0.789000 -0.969200 1 0 1.000000 
end
