version 1
nodes
  0 "static_prop" -1
end
skeleton
time 0
0 0.000000 0.000000 0.000000 0.000000 0.000000 0.000000
end
triangles
Furniture_DetailProps001a
0 1.454400 1.170400 9.091500 -0.068801 0.710513 -0.700313 0.487400 -0.508600 1 0 1.000000 
0 1.454400 0.039700 9.091500 -0.137699 -0.710497 -0.690097 0.505800 -0.508600 1 0 1.000000 
0 -0.837400 0.039700 9.091500 0.068801 -0.710513 -0.700313 0.505800 -0.535300 1 0 1.000000 
Furniture_DetailProps001a
0 -0.837400 0.039700 9.091500 0.068801 -0.710513 -0.700313 0.505800 -0.535300 1 0 1.000000 
0 -0.837400 1.170400 9.091500 0.137699 0.710497 -0.690097 0.487400 -0.535300 1 0 1.000000 
0 1.454400 1.170400 9.091500 -0.068801 0.710513 -0.700313 0.487400 -0.508600 1 0 1.000000 
Furniture_DetailProps001a
0 15.892700 -5.233900 6.906900 0.963881 -0.142197 0.225196 0.001100 -0.838100 1 0 1.000000 
0 15.679300 -5.233900 7.264700 0.715668 -0.078897 0.693969 0.004300 -0.843400 1 0 1.000000 
0 15.528400 -5.643799 7.264700 0.581922 -0.363014 0.727728 0.006500 -0.843400 1 0 1.000000 
Furniture_DetailProps001a
0 15.679300 -5.813499 6.906900 0.757642 -0.596133 0.265715 0.004300 -0.838100 1 0 1.000000 
0 15.528400 -5.643799 7.264700 0.581922 -0.363014 0.727728 0.006500 -0.843400 1 0 1.000000 
0 15.164100 -5.813499 7.264700 0.177702 -0.558407 0.810310 0.011800 -0.843400 1 0 1.000000 
Furniture_DetailProps001a
0 15.892700 -5.233900 6.906900 0.963881 -0.142197 0.225196 0.001100 -0.838100 1 0 1.000000 
0 15.528400 -5.643799 7.264700 0.581922 -0.363014 0.727728 0.006500 -0.843400 1 0 1.000000 
0 15.679300 -5.813499 6.906900 0.757642 -0.596133 0.265715 0.004300 -0.838100 1 0 1.000000 
Furniture_DetailProps001a
0 15.892700 -5.233900 -9.364100 0.969727 -0.147504 -0.194605 0.001100 -0.596100 1 0 1.000000 
0 15.892700 -5.233900 6.906900 0.963881 -0.142197 0.225196 0.001100 -0.838100 1 0 1.000000 
0 15.679300 -5.813499 6.906900 0.757642 -0.596133 0.265715 0.004300 -0.838100 1 0 1.000000 
Furniture_DetailProps001a
0 15.164100 -6.053599 6.906900 0.269093 -0.912776 0.307292 0.011800 -0.838100 1 0 1.000000 
0 15.164100 -5.813499 7.264700 0.177702 -0.558407 0.810310 0.011800 -0.843400 1 0 1.000000 
0 -15.164100 -5.813500 7.264700 -0.099796 -0.657776 0.746573 0.456500 -0.843400 1 0 1.000000 
Furniture_DetailProps001a
0 15.679300 -5.813499 6.906900 0.757642 -0.596133 0.265715 0.004300 -0.838100 1 0 1.000000 
0 15.164100 -5.813499 7.264700 0.177702 -0.558407 0.810310 0.011800 -0.843400 1 0 1.000000 
0 15.164100 -6.053599 6.906900 0.269093 -0.912776 0.307292 0.011800 -0.838100 1 0 1.000000 
Furniture_DetailProps001a
0 15.679300 -5.813499 -9.364100 0.735802 -0.652002 -0.183000 0.004300 -0.596100 1 0 1.000000 
0 15.679300 -5.813499 6.906900 0.757642 -0.596133 0.265715 0.004300 -0.838100 1 0 1.000000 
0 15.164100 -6.053599 6.906900 0.269093 -0.912776 0.307292 0.011800 -0.838100 1 0 1.000000 
Furniture_DetailProps001a
0 15.892700 -5.233900 -9.364100 0.969727 -0.147504 -0.194605 0.001100 -0.596100 1 0 1.000000 
0 15.679300 -5.813499 6.906900 0.757642 -0.596133 0.265715 0.004300 -0.838100 1 0 1.000000 
0 15.679300 -5.813499 -9.364100 0.735802 -0.652002 -0.183000 0.004300 -0.596100 1 0 1.000000 
Furniture_DetailProps001a
0 15.679300 -5.233900 -9.793400 0.698572 -0.120195 -0.705372 0.004300 -0.589800 1 0 1.000000 
0 15.892700 -5.233900 -9.364100 0.969727 -0.147504 -0.194605 0.001100 -0.596100 1 0 1.000000 
0 15.679300 -5.813499 -9.364100 0.735802 -0.652002 -0.183000 0.004300 -0.596100 1 0 1.000000 
Furniture_DetailProps001a
0 15.679300 -5.233900 -9.793400 0.698572 -0.120195 -0.705372 0.004300 -0.589800 1 0 1.000000 
0 15.679300 -5.813499 -9.364100 0.735802 -0.652002 -0.183000 0.004300 -0.596100 1 0 1.000000 
0 15.528400 -5.643799 -9.793400 0.515719 -0.502218 -0.694126 0.006500 -0.589800 1 0 1.000000 
Furniture_DetailProps001a
0 15.164100 -5.233900 -9.971300 0.157900 -0.169500 -0.972799 0.011800 -0.587100 1 0 1.000000 
0 15.679300 -5.233900 -9.793400 0.698572 -0.120195 -0.705372 0.004300 -0.589800 1 0 1.000000 
0 15.528400 -5.643799 -9.793400 0.515719 -0.502218 -0.694126 0.006500 -0.589800 1 0 1.000000 
Furniture_DetailProps001a
0 15.164100 -5.233900 -9.971300 0.157900 -0.169500 -0.972799 0.011800 -0.587100 1 0 1.000000 
0 15.528400 -5.643799 -9.793400 0.515719 -0.502218 -0.694126 0.006500 -0.589800 1 0 1.000000 
0 15.164100 -5.813499 -9.793400 0.107999 -0.708796 -0.697096 0.011800 -0.589800 1 0 1.000000 
Furniture_DetailProps001a
0 15.164100 -5.233900 -9.971300 0.157900 -0.169500 -0.972799 0.011800 -0.587100 1 0 1.000000 
0 15.164100 -5.813499 -9.793400 0.107999 -0.708796 -0.697096 0.011800 -0.589800 1 0 1.000000 
0 -15.164100 -5.813500 -9.793400 -0.189999 -0.606696 -0.771894 0.456500 -0.589800 1 0 1.000000 
Furniture_DetailProps001a
0 15.164100 -5.813499 -9.793400 0.107999 -0.708796 -0.697096 0.011800 -0.589800 1 0 1.000000 
0 -15.164100 -6.053600 -9.364100 -0.269287 -0.925254 -0.267187 0.456500 -0.596100 1 0 1.000000 
0 -15.164100 -5.813500 -9.793400 -0.189999 -0.606696 -0.771894 0.456500 -0.589800 1 0 1.000000 
Furniture_DetailProps001a
0 -15.164100 -5.813500 -9.793400 -0.189999 -0.606696 -0.771894 0.456500 -0.589800 1 0 1.000000 
0 -15.164100 -6.053600 -9.364100 -0.269287 -0.925254 -0.267187 0.456500 -0.596100 1 0 1.000000 
0 -15.679300 -5.813500 -9.364100 -0.763141 -0.604632 -0.228112 0.464100 -0.596100 1 0 1.000000 
Furniture_DetailProps001a
0 -15.164100 -6.053600 -9.364100 -0.269287 -0.925254 -0.267187 0.456500 -0.596100 1 0 1.000000 
0 -15.679300 -5.813500 6.906900 -0.730006 -0.649105 0.213902 0.464100 -0.838100 1 0 1.000000 
0 -15.679300 -5.813500 -9.364100 -0.763141 -0.604632 -0.228112 0.464100 -0.596100 1 0 1.000000 
Furniture_DetailProps001a
0 -15.679300 -5.813500 -9.364100 -0.763141 -0.604632 -0.228112 0.464100 -0.596100 1 0 1.000000 
0 -15.679300 -5.813500 6.906900 -0.730006 -0.649105 0.213902 0.464100 -0.838100 1 0 1.000000 
0 -15.892700 -5.233901 6.906900 -0.977618 -0.146803 0.150703 0.467200 -0.838100 1 0 1.000000 
Furniture_DetailProps001a
0 -15.679300 -5.813500 6.906900 -0.730006 -0.649105 0.213902 0.464100 -0.838100 1 0 1.000000 
0 -15.679300 -5.233901 7.264700 -0.748929 -0.113104 0.652926 0.464100 -0.843400 1 0 1.000000 
0 -15.892700 -5.233901 6.906900 -0.977618 -0.146803 0.150703 0.467200 -0.838100 1 0 1.000000 
Furniture_DetailProps001a
0 -15.679300 -5.813500 6.906900 -0.730006 -0.649105 0.213902 0.464100 -0.838100 1 0 1.000000 
0 -15.528400 -5.643800 7.264700 -0.480712 -0.469311 0.740718 0.461800 -0.843400 1 0 1.000000 
0 -15.679300 -5.233901 7.264700 -0.748929 -0.113104 0.652926 0.464100 -0.843400 1 0 1.000000 
Furniture_DetailProps001a
0 -15.164100 -6.053600 6.906900 -0.231210 -0.934742 0.269812 0.456500 -0.838100 1 0 1.000000 
0 -15.528400 -5.643800 7.264700 -0.480712 -0.469311 0.740718 0.461800 -0.843400 1 0 1.000000 
0 -15.679300 -5.813500 6.906900 -0.730006 -0.649105 0.213902 0.464100 -0.838100 1 0 1.000000 
Furniture_DetailProps001a
0 -15.164100 -6.053600 6.906900 -0.231210 -0.934742 0.269812 0.456500 -0.838100 1 0 1.000000 
0 -15.164100 -5.813500 7.264700 -0.099796 -0.657776 0.746573 0.456500 -0.843400 1 0 1.000000 
0 -15.528400 -5.643800 7.264700 -0.480712 -0.469311 0.740718 0.461800 -0.843400 1 0 1.000000 
Furniture_DetailProps001a
0 -0.009400 -6.079200 6.906900 -0.009799 -0.974954 0.222190 0.234200 -0.838100 1 0 1.000000 
0 -15.164100 -5.813500 7.264700 -0.099796 -0.657776 0.746573 0.456500 -0.843400 1 0 1.000000 
0 -15.164100 -6.053600 6.906900 -0.231210 -0.934742 0.269812 0.456500 -0.838100 1 0 1.000000 
Furniture_DetailProps001a
0 -15.164100 -5.813500 -9.793400 -0.189999 -0.606696 -0.771894 0.456500 -0.589800 1 0 1.000000 
0 -15.679300 -5.813500 -9.364100 -0.763141 -0.604632 -0.228112 0.464100 -0.596100 1 0 1.000000 
0 -15.528400 -5.643800 -9.793400 -0.619307 -0.389704 -0.681608 0.461800 -0.589800 1 0 1.000000 
Furniture_DetailProps001a
0 -15.679300 -5.813500 -9.364100 -0.763141 -0.604632 -0.228112 0.464100 -0.596100 1 0 1.000000 
0 -15.892700 -5.233901 6.906900 -0.977618 -0.146803 0.150703 0.467200 -0.838100 1 0 1.000000 
0 -15.892700 -5.233901 -9.364100 -0.955651 -0.143608 -0.257114 0.467200 -0.596100 1 0 1.000000 
Furniture_DetailProps001a
0 -15.528400 -5.643800 -9.793400 -0.619307 -0.389704 -0.681608 0.461800 -0.589800 1 0 1.000000 
0 -15.679300 -5.813500 -9.364100 -0.763141 -0.604632 -0.228112 0.464100 -0.596100 1 0 1.000000 
0 -15.892700 -5.233901 -9.364100 -0.955651 -0.143608 -0.257114 0.467200 -0.596100 1 0 1.000000 
Furniture_DetailProps001a
0 -15.528400 -5.643800 -9.793400 -0.619307 -0.389704 -0.681608 0.461800 -0.589800 1 0 1.000000 
0 -15.892700 -5.233901 -9.364100 -0.955651 -0.143608 -0.257114 0.467200 -0.596100 1 0 1.000000 
0 -15.679300 -5.233901 -9.793400 -0.641483 -0.084398 -0.762480 0.464100 -0.589800 1 0 1.000000 
Furniture_DetailProps001a
0 -15.164100 -5.233901 -9.971300 -0.157901 -0.119401 -0.980209 0.456500 -0.587100 1 0 1.000000 
0 -15.528400 -5.643800 -9.793400 -0.619307 -0.389704 -0.681608 0.461800 -0.589800 1 0 1.000000 
0 -15.679300 -5.233901 -9.793400 -0.641483 -0.084398 -0.762480 0.464100 -0.589800 1 0 1.000000 
Furniture_DetailProps001a
0 -15.164100 -5.233901 -9.971300 -0.157901 -0.119401 -0.980209 0.456500 -0.587100 1 0 1.000000 
0 -15.164100 -5.813500 -9.793400 -0.189999 -0.606696 -0.771894 0.456500 -0.589800 1 0 1.000000 
0 -15.528400 -5.643800 -9.793400 -0.619307 -0.389704 -0.681608 0.461800 -0.589800 1 0 1.000000 
Furniture_DetailProps001a
0 15.164100 -5.233900 -9.971300 0.157900 -0.169500 -0.972799 0.011800 -0.587100 1 0 1.000000 
0 -15.164100 -5.813500 -9.793400 -0.189999 -0.606696 -0.771894 0.456500 -0.589800 1 0 1.000000 
0 -15.164100 -5.233901 -9.971300 -0.157901 -0.119401 -0.980209 0.456500 -0.587100 1 0 1.000000 
Furniture_DetailProps001a
0 15.164100 -6.053599 6.906900 0.269093 -0.912776 0.307292 0.011800 -0.838100 1 0 1.000000 
0 -15.164100 -5.813500 7.264700 -0.099796 -0.657776 0.746573 0.456500 -0.843400 1 0 1.000000 
0 -0.009400 -6.079200 6.906900 -0.009799 -0.974954 0.222190 0.234200 -0.838100 1 0 1.000000 
Furniture_DetailProps001a
0 15.173500 -6.079199 -1.224100 0.203396 -0.978981 -0.015000 0.011800 -0.717100 1 0 1.000000 
0 15.164100 -6.053599 6.906900 0.269093 -0.912776 0.307292 0.011800 -0.838100 1 0 1.000000 
0 -0.009400 -6.079200 6.906900 -0.009799 -0.974954 0.222190 0.234200 -0.838100 1 0 1.000000 
Furniture_DetailProps001a
0 15.679300 -5.813499 -9.364100 0.735802 -0.652002 -0.183000 0.004300 -0.596100 1 0 1.000000 
0 15.164100 -6.053599 6.906900 0.269093 -0.912776 0.307292 0.011800 -0.838100 1 0 1.000000 
0 15.173500 -6.079199 -1.224100 0.203396 -0.978981 -0.015000 0.011800 -0.717100 1 0 1.000000 
Furniture_DetailProps001a
0 15.679300 -5.813499 -9.364100 0.735802 -0.652002 -0.183000 0.004300 -0.596100 1 0 1.000000 
0 15.173500 -6.079199 -1.224100 0.203396 -0.978981 -0.015000 0.011800 -0.717100 1 0 1.000000 
0 15.164100 -6.053599 -9.364100 0.235194 -0.944076 -0.231094 0.011800 -0.596100 1 0 1.000000 
Furniture_DetailProps001a
0 15.528400 -5.643799 -9.793400 0.515719 -0.502218 -0.694126 0.006500 -0.589800 1 0 1.000000 
0 15.679300 -5.813499 -9.364100 0.735802 -0.652002 -0.183000 0.004300 -0.596100 1 0 1.000000 
0 15.164100 -6.053599 -9.364100 0.235194 -0.944076 -0.231094 0.011800 -0.596100 1 0 1.000000 
Furniture_DetailProps001a
0 15.528400 -5.643799 -9.793400 0.515719 -0.502218 -0.694126 0.006500 -0.589800 1 0 1.000000 
0 15.164100 -6.053599 -9.364100 0.235194 -0.944076 -0.231094 0.011800 -0.596100 1 0 1.000000 
0 15.164100 -5.813499 -9.793400 0.107999 -0.708796 -0.697096 0.011800 -0.589800 1 0 1.000000 
Furniture_DetailProps001a
0 15.164100 -5.813499 -9.793400 0.107999 -0.708796 -0.697096 0.011800 -0.589800 1 0 1.000000 
0 15.164100 -6.053599 -9.364100 0.235194 -0.944076 -0.231094 0.011800 -0.596100 1 0 1.000000 
0 0.009400 -6.079200 -9.364100 0.009700 -0.981716 -0.190103 0.234200 -0.596100 1 0 1.000000 
Furniture_DetailProps001a
0 15.164100 -5.813499 -9.793400 0.107999 -0.708796 -0.697096 0.011800 -0.589800 1 0 1.000000 
0 0.009400 -6.079200 -9.364100 0.009700 -0.981716 -0.190103 0.234200 -0.596100 1 0 1.000000 
0 -15.164100 -6.053600 -9.364100 -0.269287 -0.925254 -0.267187 0.456500 -0.596100 1 0 1.000000 
Furniture_DetailProps001a
0 0.009400 -6.079200 -9.364100 0.009700 -0.981716 -0.190103 0.234200 -0.596100 1 0 1.000000 
0 -15.173500 -6.079200 -1.224100 -0.203396 -0.978981 0.015000 0.456500 -0.717100 1 0 1.000000 
0 -15.164100 -6.053600 -9.364100 -0.269287 -0.925254 -0.267187 0.456500 -0.596100 1 0 1.000000 
Furniture_DetailProps001a
0 -15.164100 -6.053600 -9.364100 -0.269287 -0.925254 -0.267187 0.456500 -0.596100 1 0 1.000000 
0 -15.173500 -6.079200 -1.224100 -0.203396 -0.978981 0.015000 0.456500 -0.717100 1 0 1.000000 
0 -15.679300 -5.813500 6.906900 -0.730006 -0.649105 0.213902 0.464100 -0.838100 1 0 1.000000 
Furniture_DetailProps001a
0 -15.173500 -6.079200 -1.224100 -0.203396 -0.978981 0.015000 0.456500 -0.717100 1 0 1.000000 
0 -15.164100 -6.053600 6.906900 -0.231210 -0.934742 0.269812 0.456500 -0.838100 1 0 1.000000 
0 -15.679300 -5.813500 6.906900 -0.730006 -0.649105 0.213902 0.464100 -0.838100 1 0 1.000000 
Furniture_DetailProps001a
0 0.000000 -5.493700 -1.224100 0.000000 -1.000000 0.000000 0.234200 -0.717100 1 0 1.000000 
0 -15.164100 -6.053600 6.906900 -0.231210 -0.934742 0.269812 0.456500 -0.838100 1 0 1.000000 
0 -15.173500 -6.079200 -1.224100 -0.203396 -0.978981 0.015000 0.456500 -0.717100 1 0 1.000000 
Furniture_DetailProps001a
0 0.000000 -5.493700 -1.224100 0.000000 -1.000000 0.000000 0.234200 -0.717100 1 0 1.000000 
0 -0.009400 -6.079200 6.906900 -0.009799 -0.974954 0.222190 0.234200 -0.838100 1 0 1.000000 
0 -15.164100 -6.053600 6.906900 -0.231210 -0.934742 0.269812 0.456500 -0.838100 1 0 1.000000 
Furniture_DetailProps001a
0 15.173500 -6.079199 -1.224100 0.203396 -0.978981 -0.015000 0.011800 -0.717100 1 0 1.000000 
0 -0.009400 -6.079200 6.906900 -0.009799 -0.974954 0.222190 0.234200 -0.838100 1 0 1.000000 
0 0.000000 -5.493700 -1.224100 0.000000 -1.000000 0.000000 0.234200 -0.717100 1 0 1.000000 
Furniture_DetailProps001a
0 15.164100 -6.053599 -9.364100 0.235194 -0.944076 -0.231094 0.011800 -0.596100 1 0 1.000000 
0 15.173500 -6.079199 -1.224100 0.203396 -0.978981 -0.015000 0.011800 -0.717100 1 0 1.000000 
0 0.000000 -5.493700 -1.224100 0.000000 -1.000000 0.000000 0.234200 -0.717100 1 0 1.000000 
Furniture_DetailProps001a
0 15.164100 -6.053599 -9.364100 0.235194 -0.944076 -0.231094 0.011800 -0.596100 1 0 1.000000 
0 0.000000 -5.493700 -1.224100 0.000000 -1.000000 0.000000 0.234200 -0.717100 1 0 1.000000 
0 0.009400 -6.079200 -9.364100 0.009700 -0.981716 -0.190103 0.234200 -0.596100 1 0 1.000000 
Furniture_DetailProps001a
0 0.000000 -5.493700 -1.224100 0.000000 -1.000000 0.000000 0.234200 -0.717100 1 0 1.000000 
0 -15.173500 -6.079200 -1.224100 -0.203396 -0.978981 0.015000 0.456500 -0.717100 1 0 1.000000 
0 0.009400 -6.079200 -9.364100 0.009700 -0.981716 -0.190103 0.234200 -0.596100 1 0 1.000000 
Furniture_DetailProps001a
0 1.518600 1.170400 9.355900 0.068801 0.710513 0.700313 0.487400 -0.507800 1 0 1.000000 
0 -0.901700 1.170400 9.355900 -0.137699 0.710496 0.690097 0.487400 -0.536100 1 0 1.000000 
0 -0.901700 0.039700 9.355900 -0.068801 -0.710513 0.700313 0.505800 -0.536100 1 0 1.000000 
Furniture_DetailProps001a
0 -0.901700 0.039700 9.355900 -0.068801 -0.710513 0.700313 0.505800 -0.536100 1 0 1.000000 
0 1.518600 0.039700 9.355900 0.137699 -0.710496 0.690097 0.505800 -0.507800 1 0 1.000000 
0 1.518600 1.170400 9.355900 0.068801 0.710513 0.700313 0.487400 -0.507800 1 0 1.000000 
Furniture_DetailProps001a
0 3.798700 1.170400 8.778800 0.290501 0.713403 0.637703 0.487400 -0.476600 1 0 1.000000 
0 1.518600 1.170400 9.355900 0.068801 0.710513 0.700313 0.487400 -0.510700 1 0 1.000000 
0 1.518600 0.039700 9.355900 0.137699 -0.710496 0.690097 0.505800 -0.510700 1 0 1.000000 
Furniture_DetailProps001a
0 1.518600 0.039700 9.355900 0.137699 -0.710496 0.690097 0.505800 -0.510700 1 0 1.000000 
0 3.798700 0.039700 8.778800 0.373699 -0.713399 0.592799 0.505800 -0.476600 1 0 1.000000 
0 3.798700 1.170400 8.778800 0.290501 0.713403 0.637703 0.487400 -0.476600 1 0 1.000000 
Furniture_DetailProps001a
0 4.567300 1.170400 8.244800 0.932691 0.303997 0.194098 0.487400 -0.465200 1 0 1.000000 
0 3.798700 1.170400 8.778800 0.290501 0.713403 0.637703 0.487400 -0.476600 1 0 1.000000 
0 3.798700 0.039700 8.778800 0.373699 -0.713399 0.592799 0.505800 -0.476600 1 0 1.000000 
Furniture_DetailProps001a
0 3.798700 0.039700 8.778800 0.373699 -0.713399 0.592799 0.505800 -0.476600 1 0 1.000000 
0 4.567300 0.039700 8.244800 0.603790 -0.787187 0.125598 0.505800 -0.465200 1 0 1.000000 
0 4.567300 1.170400 8.244800 0.932691 0.303997 0.194098 0.487400 -0.465200 1 0 1.000000 
Furniture_DetailProps001a
0 4.567300 1.170400 8.244800 0.932691 0.303997 0.194098 0.487400 -0.465200 1 0 1.000000 
0 4.567300 0.039700 8.244800 0.603790 -0.787187 0.125598 0.505800 -0.465200 1 0 1.000000 
0 4.352100 0.039700 7.887800 0.492007 -0.465307 -0.735811 0.505800 -0.468400 1 0 1.000000 
Furniture_DetailProps001a
0 4.352100 0.039700 7.887800 0.492007 -0.465307 -0.735811 0.505800 -0.468400 1 0 1.000000 
0 4.352100 1.170400 7.887800 -0.205092 0.724573 -0.657975 0.487400 -0.468400 1 0 1.000000 
0 4.567300 1.170400 8.244800 0.932691 0.303997 0.194098 0.487400 -0.465200 1 0 1.000000 
Furniture_DetailProps001a
0 4.352100 1.170400 7.887800 -0.205092 0.724573 -0.657975 0.487400 -0.468400 1 0 1.000000 
0 4.352100 0.039700 7.887800 0.492007 -0.465307 -0.735811 0.505800 -0.468400 1 0 1.000000 
0 3.613400 0.039700 8.545000 -0.418796 -0.717892 -0.556094 0.505800 -0.479400 1 0 1.000000 
Furniture_DetailProps001a
0 3.613400 0.039700 8.545000 -0.418796 -0.717892 -0.556094 0.505800 -0.479400 1 0 1.000000 
0 3.613400 1.170400 8.545000 -0.313692 0.717882 -0.621484 0.487400 -0.479400 1 0 1.000000 
0 4.352100 1.170400 7.887800 -0.205092 0.724573 -0.657975 0.487400 -0.468400 1 0 1.000000 
Furniture_DetailProps001a
0 3.613400 1.170400 8.545000 -0.313692 0.717882 -0.621484 0.487400 -0.479400 1 0 1.000000 
0 3.613400 0.039700 8.545000 -0.418796 -0.717892 -0.556094 0.505800 -0.479400 1 0 1.000000 
0 1.454400 0.039700 9.091500 -0.137699 -0.710497 -0.690097 0.505800 -0.511600 1 0 1.000000 
Furniture_DetailProps001a
0 1.454400 0.039700 9.091500 -0.137699 -0.710497 -0.690097 0.505800 -0.511600 1 0 1.000000 
0 1.454400 1.170400 9.091500 -0.068801 0.710513 -0.700313 0.487400 -0.511600 1 0 1.000000 
0 3.613400 1.170400 8.545000 -0.313692 0.717882 -0.621484 0.487400 -0.479400 1 0 1.000000 
Furniture_DetailProps001a
0 -15.164100 5.233900 7.412900 -0.133603 0.100503 0.985925 0.008600 -0.581900 1 0 1.000000 
0 15.164100 -5.233900 7.412900 0.162100 -0.086200 0.983002 0.459800 -0.450300 1 0 1.000000 
0 15.164100 5.233901 7.412900 0.133703 0.142503 0.980722 0.459800 -0.581900 1 0 1.000000 
Furniture_DetailProps001a
0 -15.164100 5.233900 7.412900 -0.133603 0.100503 0.985925 0.008600 -0.581900 1 0 1.000000 
0 -15.164100 -5.233901 7.412900 -0.162192 -0.122294 0.979152 0.008600 -0.450300 1 0 1.000000 
0 15.164100 -5.233900 7.412900 0.162100 -0.086200 0.983002 0.459800 -0.450300 1 0 1.000000 
Furniture_DetailProps001a
0 15.164100 5.813500 7.264700 0.099796 0.657776 0.746573 0.459800 -0.587900 1 0 1.000000 
0 15.164100 5.233901 7.412900 0.133703 0.142503 0.980722 0.459800 -0.581900 1 0 1.000000 
0 15.528400 5.643800 7.264700 0.480712 0.469311 0.740718 0.465200 -0.585800 1 0 1.000000 
Furniture_DetailProps001a
0 15.528400 5.643800 7.264700 0.480712 0.469311 0.740718 0.465200 -0.585800 1 0 1.000000 
0 15.164100 5.233901 7.412900 0.133703 0.142503 0.980722 0.459800 -0.581900 1 0 1.000000 
0 15.679300 5.233901 7.264700 0.652311 0.114102 0.749313 0.467500 -0.581900 1 0 1.000000 
Furniture_DetailProps001a
0 15.679300 5.233901 7.264700 0.652311 0.114102 0.749313 0.467500 -0.581900 1 0 1.000000 
0 15.164100 5.233901 7.412900 0.133703 0.142503 0.980722 0.459800 -0.581900 1 0 1.000000 
0 15.164100 -5.233900 7.412900 0.162100 -0.086200 0.983002 0.459800 -0.450300 1 0 1.000000 
Furniture_DetailProps001a
0 15.679300 5.233901 7.264700 0.652311 0.114102 0.749313 0.467500 -0.581900 1 0 1.000000 
0 15.164100 -5.233900 7.412900 0.162100 -0.086200 0.983002 0.459800 -0.450300 1 0 1.000000 
0 15.679300 -5.233900 7.264700 0.715668 -0.078897 0.693969 0.467500 -0.450300 1 0 1.000000 
Furniture_DetailProps001a
0 15.679300 -5.233900 7.264700 0.715668 -0.078897 0.693969 0.467500 -0.450300 1 0 1.000000 
0 15.164100 -5.233900 7.412900 0.162100 -0.086200 0.983002 0.459800 -0.450300 1 0 1.000000 
0 15.528400 -5.643799 7.264700 0.581922 -0.363014 0.727728 0.465200 -0.445200 1 0 1.000000 
Furniture_DetailProps001a
0 15.528400 -5.643799 7.264700 0.581922 -0.363014 0.727728 0.465200 -0.445200 1 0 1.000000 
0 15.164100 -5.233900 7.412900 0.162100 -0.086200 0.983002 0.459800 -0.450300 1 0 1.000000 
0 15.164100 -5.813499 7.264700 0.177702 -0.558407 0.810310 0.459800 -0.443000 1 0 1.000000 
Furniture_DetailProps001a
0 15.164100 -5.813499 7.264700 0.177702 -0.558407 0.810310 0.459800 -0.443000 1 0 1.000000 
0 15.164100 -5.233900 7.412900 0.162100 -0.086200 0.983002 0.459800 -0.450300 1 0 1.000000 
0 -15.164100 -5.233901 7.412900 -0.162192 -0.122294 0.979152 0.008600 -0.450300 1 0 1.000000 
Furniture_DetailProps001a
0 15.164100 -5.813499 7.264700 0.177702 -0.558407 0.810310 0.459800 -0.443000 1 0 1.000000 
0 -15.164100 -5.233901 7.412900 -0.162192 -0.122294 0.979152 0.008600 -0.450300 1 0 1.000000 
0 -15.164100 -5.813500 7.264700 -0.099796 -0.657776 0.746573 0.008600 -0.443000 1 0 1.000000 
Furniture_DetailProps001a
0 -15.164100 -5.813500 7.264700 -0.099796 -0.657776 0.746573 0.008600 -0.443000 1 0 1.000000 
0 -15.164100 -5.233901 7.412900 -0.162192 -0.122294 0.979152 0.008600 -0.450300 1 0 1.000000 
0 -15.528400 -5.643800 7.264700 -0.480712 -0.469311 0.740718 0.003200 -0.445200 1 0 1.000000 
Furniture_DetailProps001a
0 -15.528400 -5.643800 7.264700 -0.480712 -0.469311 0.740718 0.003200 -0.445200 1 0 1.000000 
0 -15.164100 -5.233901 7.412900 -0.162192 -0.122294 0.979152 0.008600 -0.450300 1 0 1.000000 
0 -15.679300 -5.233901 7.264700 -0.748929 -0.113104 0.652926 0.001000 -0.450300 1 0 1.000000 
Furniture_DetailProps001a
0 -15.679300 5.233900 7.264700 -0.592209 0.078901 0.801912 0.001000 -0.581900 1 0 1.000000 
0 -15.679300 -5.233901 7.264700 -0.748929 -0.113104 0.652926 0.001000 -0.450300 1 0 1.000000 
0 -15.164100 -5.233901 7.412900 -0.162192 -0.122294 0.979152 0.008600 -0.450300 1 0 1.000000 
Furniture_DetailProps001a
0 -15.679300 5.233900 7.264700 -0.592209 0.078901 0.801912 0.001000 -0.581900 1 0 1.000000 
0 -15.164100 -5.233901 7.412900 -0.162192 -0.122294 0.979152 0.008600 -0.450300 1 0 1.000000 
0 -15.164100 5.233900 7.412900 -0.133603 0.100503 0.985925 0.008600 -0.581900 1 0 1.000000 
Furniture_DetailProps001a
0 -15.679300 5.233900 7.264700 -0.592209 0.078901 0.801912 0.001000 -0.581900 1 0 1.000000 
0 -15.164100 5.233900 7.412900 -0.133603 0.100503 0.985925 0.008600 -0.581900 1 0 1.000000 
0 -15.528400 5.643799 7.264700 -0.581922 0.363014 0.727728 0.003200 -0.585800 1 0 1.000000 
Furniture_DetailProps001a
0 -15.528400 5.643799 7.264700 -0.581922 0.363014 0.727728 0.003200 -0.585800 1 0 1.000000 
0 -15.164100 5.233900 7.412900 -0.133603 0.100503 0.985925 0.008600 -0.581900 1 0 1.000000 
0 -15.164100 5.813499 7.264700 -0.177702 0.558407 0.810310 0.008600 -0.587900 1 0 1.000000 
Furniture_DetailProps001a
0 -15.164100 5.813499 7.264700 -0.177702 0.558407 0.810310 0.008600 -0.587900 1 0 1.000000 
0 -15.164100 5.233900 7.412900 -0.133603 0.100503 0.985925 0.008600 -0.581900 1 0 1.000000 
0 15.164100 5.233901 7.412900 0.133703 0.142503 0.980722 0.459800 -0.581900 1 0 1.000000 
Furniture_DetailProps001a
0 -15.164100 5.813499 7.264700 -0.177702 0.558407 0.810310 0.008600 -0.587900 1 0 1.000000 
0 15.164100 5.233901 7.412900 0.133703 0.142503 0.980722 0.459800 -0.581900 1 0 1.000000 
0 15.164100 5.813500 7.264700 0.099796 0.657776 0.746573 0.459800 -0.587900 1 0 1.000000 
Furniture_DetailProps001a
0 -15.164100 5.813499 -9.793400 -0.107999 0.708796 -0.697096 0.456500 -0.589800 1 0 1.000000 
0 15.164100 6.053600 -9.364100 0.269287 0.925254 -0.267187 0.011800 -0.596100 1 0 1.000000 
0 15.164100 5.813500 -9.793400 0.189999 0.606696 -0.771894 0.011800 -0.589800 1 0 1.000000 
Furniture_DetailProps001a
0 -15.164100 5.813499 -9.793400 -0.107999 0.708796 -0.697096 0.456500 -0.589800 1 0 1.000000 
0 -0.009400 6.079200 -9.364100 -0.002600 0.977483 -0.210996 0.234200 -0.596100 1 0 1.000000 
0 15.164100 6.053600 -9.364100 0.269287 0.925254 -0.267187 0.011800 -0.596100 1 0 1.000000 
Furniture_DetailProps001a
0 -0.009400 6.079200 -9.364100 -0.002600 0.977483 -0.210996 0.234200 -0.596100 1 0 1.000000 
0 15.173500 6.079200 -1.224100 0.216706 0.976229 0.004000 0.011800 -0.717100 1 0 1.000000 
0 15.164100 6.053600 -9.364100 0.269287 0.925254 -0.267187 0.011800 -0.596100 1 0 1.000000 
Furniture_DetailProps001a
0 -0.000000 5.924100 -1.224100 -0.000000 1.000000 0.000000 0.234200 -0.717100 1 0 1.000000 
0 15.173500 6.079200 -1.224100 0.216706 0.976229 0.004000 0.011800 -0.717100 1 0 1.000000 
0 -0.009400 6.079200 -9.364100 -0.002600 0.977483 -0.210996 0.234200 -0.596100 1 0 1.000000 
Furniture_DetailProps001a
0 -15.164100 6.053599 -9.364100 -0.240209 0.940735 -0.239409 0.456500 -0.596100 1 0 1.000000 
0 -0.000000 5.924100 -1.224100 -0.000000 1.000000 0.000000 0.234200 -0.717100 1 0 1.000000 
0 -0.009400 6.079200 -9.364100 -0.002600 0.977483 -0.210996 0.234200 -0.596100 1 0 1.000000 
Furniture_DetailProps001a
0 -15.164100 6.053599 -9.364100 -0.240209 0.940735 -0.239409 0.456500 -0.596100 1 0 1.000000 
0 -15.173500 6.079199 -1.224100 -0.216802 0.976207 -0.004000 0.456500 -0.717100 1 0 1.000000 
0 -0.000000 5.924100 -1.224100 -0.000000 1.000000 0.000000 0.234200 -0.717100 1 0 1.000000 
Furniture_DetailProps001a
0 -15.173500 6.079199 -1.224100 -0.216802 0.976207 -0.004000 0.456500 -0.717100 1 0 1.000000 
0 0.009400 6.079200 6.906900 0.002600 0.970021 0.243005 0.234200 -0.838100 1 0 1.000000 
0 -0.000000 5.924100 -1.224100 -0.000000 1.000000 0.000000 0.234200 -0.717100 1 0 1.000000 
Furniture_DetailProps001a
0 -0.000000 5.924100 -1.224100 -0.000000 1.000000 0.000000 0.234200 -0.717100 1 0 1.000000 
0 0.009400 6.079200 6.906900 0.002600 0.970021 0.243005 0.234200 -0.838100 1 0 1.000000 
0 15.164100 6.053600 6.906900 0.236292 0.931068 0.277990 0.011800 -0.838100 1 0 1.000000 
Furniture_DetailProps001a
0 -15.164100 5.813499 -9.793400 -0.107999 0.708796 -0.697096 0.456500 -0.589800 1 0 1.000000 
0 -15.164100 6.053599 -9.364100 -0.240209 0.940735 -0.239409 0.456500 -0.596100 1 0 1.000000 
0 -0.009400 6.079200 -9.364100 -0.002600 0.977483 -0.210996 0.234200 -0.596100 1 0 1.000000 
Furniture_DetailProps001a
0 -15.173500 6.079199 -1.224100 -0.216802 0.976207 -0.004000 0.456500 -0.717100 1 0 1.000000 
0 -15.164100 6.053599 6.906900 -0.269093 0.912776 0.307292 0.456500 -0.838100 1 0 1.000000 
0 0.009400 6.079200 6.906900 0.002600 0.970021 0.243005 0.234200 -0.838100 1 0 1.000000 
Furniture_DetailProps001a
0 -15.679300 5.813499 -9.364100 -0.735802 0.652002 -0.183000 0.464100 -0.596100 1 0 1.000000 
0 -15.164100 6.053599 6.906900 -0.269093 0.912776 0.307292 0.456500 -0.838100 1 0 1.000000 
0 -15.173500 6.079199 -1.224100 -0.216802 0.976207 -0.004000 0.456500 -0.717100 1 0 1.000000 
Furniture_DetailProps001a
0 -15.679300 5.813499 -9.364100 -0.735802 0.652002 -0.183000 0.464100 -0.596100 1 0 1.000000 
0 -15.173500 6.079199 -1.224100 -0.216802 0.976207 -0.004000 0.456500 -0.717100 1 0 1.000000 
0 -15.164100 6.053599 -9.364100 -0.240209 0.940735 -0.239409 0.456500 -0.596100 1 0 1.000000 
Furniture_DetailProps001a
0 -15.528400 5.643799 -9.793400 -0.515719 0.502218 -0.694126 0.461800 -0.589800 1 0 1.000000 
0 -15.679300 5.813499 -9.364100 -0.735802 0.652002 -0.183000 0.464100 -0.596100 1 0 1.000000 
0 -15.164100 6.053599 -9.364100 -0.240209 0.940735 -0.239409 0.456500 -0.596100 1 0 1.000000 
Furniture_DetailProps001a
0 -15.528400 5.643799 -9.793400 -0.515719 0.502218 -0.694126 0.461800 -0.589800 1 0 1.000000 
0 -15.164100 6.053599 -9.364100 -0.240209 0.940735 -0.239409 0.456500 -0.596100 1 0 1.000000 
0 -15.164100 5.813499 -9.793400 -0.107999 0.708796 -0.697096 0.456500 -0.589800 1 0 1.000000 
Furniture_DetailProps001a
0 -15.164100 5.233900 -9.971300 -0.191702 0.145501 -0.970608 0.456500 -0.587100 1 0 1.000000 
0 -15.528400 5.643799 -9.793400 -0.515719 0.502218 -0.694126 0.461800 -0.589800 1 0 1.000000 
0 -15.164100 5.813499 -9.793400 -0.107999 0.708796 -0.697096 0.456500 -0.589800 1 0 1.000000 
Furniture_DetailProps001a
0 -15.164100 5.233900 -9.971300 -0.191702 0.145501 -0.970608 0.456500 -0.587100 1 0 1.000000 
0 -15.164100 5.813499 -9.793400 -0.107999 0.708796 -0.697096 0.456500 -0.589800 1 0 1.000000 
0 15.164100 5.813500 -9.793400 0.189999 0.606696 -0.771894 0.011800 -0.589800 1 0 1.000000 
Furniture_DetailProps001a
0 -15.164100 5.233900 -9.971300 -0.191702 0.145501 -0.970608 0.456500 -0.587100 1 0 1.000000 
0 15.164100 5.813500 -9.793400 0.189999 0.606696 -0.771894 0.011800 -0.589800 1 0 1.000000 
0 15.164100 5.233901 -9.971300 0.191507 0.102404 -0.976134 0.011800 -0.587100 1 0 1.000000 
Furniture_DetailProps001a
0 -0.000000 5.924100 -1.224100 -0.000000 1.000000 0.000000 0.234200 -0.717100 1 0 1.000000 
0 15.164100 6.053600 6.906900 0.236292 0.931068 0.277990 0.011800 -0.838100 1 0 1.000000 
0 15.173500 6.079200 -1.224100 0.216706 0.976229 0.004000 0.011800 -0.717100 1 0 1.000000 
Furniture_DetailProps001a
0 15.173500 6.079200 -1.224100 0.216706 0.976229 0.004000 0.011800 -0.717100 1 0 1.000000 
0 15.164100 6.053600 6.906900 0.236292 0.931068 0.277990 0.011800 -0.838100 1 0 1.000000 
0 15.679300 5.813500 6.906900 0.730068 0.649072 0.213791 0.004300 -0.838100 1 0 1.000000 
Furniture_DetailProps001a
0 15.164100 6.053600 -9.364100 0.269287 0.925254 -0.267187 0.011800 -0.596100 1 0 1.000000 
0 15.173500 6.079200 -1.224100 0.216706 0.976229 0.004000 0.011800 -0.717100 1 0 1.000000 
0 15.679300 5.813500 6.906900 0.730068 0.649072 0.213791 0.004300 -0.838100 1 0 1.000000 
Furniture_DetailProps001a
0 15.164100 6.053600 -9.364100 0.269287 0.925254 -0.267187 0.011800 -0.596100 1 0 1.000000 
0 15.679300 5.813500 6.906900 0.730068 0.649072 0.213791 0.004300 -0.838100 1 0 1.000000 
0 15.679300 5.813500 -9.364100 0.763141 0.604632 -0.228112 0.004300 -0.596100 1 0 1.000000 
Furniture_DetailProps001a
0 15.164100 5.813500 -9.793400 0.189999 0.606696 -0.771894 0.011800 -0.589800 1 0 1.000000 
0 15.164100 6.053600 -9.364100 0.269287 0.925254 -0.267187 0.011800 -0.596100 1 0 1.000000 
0 15.679300 5.813500 -9.364100 0.763141 0.604632 -0.228112 0.004300 -0.596100 1 0 1.000000 
Furniture_DetailProps001a
0 15.164100 5.813500 -9.793400 0.189999 0.606696 -0.771894 0.011800 -0.589800 1 0 1.000000 
0 15.679300 5.813500 -9.364100 0.763141 0.604632 -0.228112 0.004300 -0.596100 1 0 1.000000 
0 15.528400 5.643800 -9.793400 0.619307 0.389704 -0.681608 0.006500 -0.589800 1 0 1.000000 
Furniture_DetailProps001a
0 15.164100 5.233901 -9.971300 0.191507 0.102404 -0.976134 0.011800 -0.587100 1 0 1.000000 
0 15.164100 5.813500 -9.793400 0.189999 0.606696 -0.771894 0.011800 -0.589800 1 0 1.000000 
0 15.528400 5.643800 -9.793400 0.619307 0.389704 -0.681608 0.006500 -0.589800 1 0 1.000000 
Furniture_DetailProps001a
0 15.164100 5.233901 -9.971300 0.191507 0.102404 -0.976134 0.011800 -0.587100 1 0 1.000000 
0 15.528400 5.643800 -9.793400 0.619307 0.389704 -0.681608 0.006500 -0.589800 1 0 1.000000 
0 15.679300 5.233901 -9.793400 0.759175 0.084497 -0.645379 0.004300 -0.589800 1 0 1.000000 
Furniture_DetailProps001a
0 15.528400 5.643800 -9.793400 0.619307 0.389704 -0.681608 0.006500 -0.589800 1 0 1.000000 
0 15.892700 5.233901 -9.364100 0.970788 0.143898 -0.191998 0.001100 -0.596100 1 0 1.000000 
0 15.679300 5.233901 -9.793400 0.759175 0.084497 -0.645379 0.004300 -0.589800 1 0 1.000000 
Furniture_DetailProps001a
0 15.528400 5.643800 -9.793400 0.619307 0.389704 -0.681608 0.006500 -0.589800 1 0 1.000000 
0 15.679300 5.813500 -9.364100 0.763141 0.604632 -0.228112 0.004300 -0.596100 1 0 1.000000 
0 15.892700 5.233901 -9.364100 0.970788 0.143898 -0.191998 0.001100 -0.596100 1 0 1.000000 
Furniture_DetailProps001a
0 15.679300 5.813500 -9.364100 0.763141 0.604632 -0.228112 0.004300 -0.596100 1 0 1.000000 
0 15.892700 5.233901 6.906900 0.962443 0.147207 0.228110 0.001100 -0.838100 1 0 1.000000 
0 15.892700 5.233901 -9.364100 0.970788 0.143898 -0.191998 0.001100 -0.596100 1 0 1.000000 
Furniture_DetailProps001a
0 15.679300 5.813500 -9.364100 0.763141 0.604632 -0.228112 0.004300 -0.596100 1 0 1.000000 
0 15.679300 5.813500 6.906900 0.730068 0.649072 0.213791 0.004300 -0.838100 1 0 1.000000 
0 15.892700 5.233901 6.906900 0.962443 0.147207 0.228110 0.001100 -0.838100 1 0 1.000000 
Furniture_DetailProps001a
0 15.679300 5.813500 6.906900 0.730068 0.649072 0.213791 0.004300 -0.838100 1 0 1.000000 
0 15.679300 5.233901 7.264700 0.652311 0.114102 0.749313 0.004300 -0.843400 1 0 1.000000 
0 15.892700 5.233901 6.906900 0.962443 0.147207 0.228110 0.001100 -0.838100 1 0 1.000000 
Furniture_DetailProps001a
0 15.679300 5.813500 6.906900 0.730068 0.649072 0.213791 0.004300 -0.838100 1 0 1.000000 
0 15.528400 5.643800 7.264700 0.480712 0.469311 0.740718 0.006500 -0.843400 1 0 1.000000 
0 15.679300 5.233901 7.264700 0.652311 0.114102 0.749313 0.004300 -0.843400 1 0 1.000000 
Furniture_DetailProps001a
0 15.164100 6.053600 6.906900 0.236292 0.931068 0.277990 0.011800 -0.838100 1 0 1.000000 
0 15.528400 5.643800 7.264700 0.480712 0.469311 0.740718 0.006500 -0.843400 1 0 1.000000 
0 15.679300 5.813500 6.906900 0.730068 0.649072 0.213791 0.004300 -0.838100 1 0 1.000000 
Furniture_DetailProps001a
0 15.164100 6.053600 6.906900 0.236292 0.931068 0.277990 0.011800 -0.838100 1 0 1.000000 
0 15.164100 5.813500 7.264700 0.099796 0.657776 0.746573 0.011800 -0.843400 1 0 1.000000 
0 15.528400 5.643800 7.264700 0.480712 0.469311 0.740718 0.006500 -0.843400 1 0 1.000000 
Furniture_DetailProps001a
0 0.009400 6.079200 6.906900 0.002600 0.970021 0.243005 0.234200 -0.838100 1 0 1.000000 
0 15.164100 5.813500 7.264700 0.099796 0.657776 0.746573 0.011800 -0.843400 1 0 1.000000 
0 15.164100 6.053600 6.906900 0.236292 0.931068 0.277990 0.011800 -0.838100 1 0 1.000000 
Furniture_DetailProps001a
0 -15.164100 6.053599 6.906900 -0.269093 0.912776 0.307292 0.456500 -0.838100 1 0 1.000000 
0 15.164100 5.813500 7.264700 0.099796 0.657776 0.746573 0.011800 -0.843400 1 0 1.000000 
0 0.009400 6.079200 6.906900 0.002600 0.970021 0.243005 0.234200 -0.838100 1 0 1.000000 
Furniture_DetailProps001a
0 -15.164100 6.053599 6.906900 -0.269093 0.912776 0.307292 0.456500 -0.838100 1 0 1.000000 
0 -15.164100 5.813499 7.264700 -0.177702 0.558407 0.810310 0.456500 -0.843400 1 0 1.000000 
0 15.164100 5.813500 7.264700 0.099796 0.657776 0.746573 0.011800 -0.843400 1 0 1.000000 
Furniture_DetailProps001a
0 -15.679300 5.813499 -9.364100 -0.735802 0.652002 -0.183000 0.464100 -0.596100 1 0 1.000000 
0 -15.679300 5.813499 6.906900 -0.757642 0.596133 0.265715 0.464100 -0.838100 1 0 1.000000 
0 -15.164100 6.053599 6.906900 -0.269093 0.912776 0.307292 0.456500 -0.838100 1 0 1.000000 
Furniture_DetailProps001a
0 -15.679300 5.813499 6.906900 -0.757642 0.596133 0.265715 0.464100 -0.838100 1 0 1.000000 
0 -15.164100 5.813499 7.264700 -0.177702 0.558407 0.810310 0.456500 -0.843400 1 0 1.000000 
0 -15.164100 6.053599 6.906900 -0.269093 0.912776 0.307292 0.456500 -0.838100 1 0 1.000000 
Furniture_DetailProps001a
0 -15.679300 5.813499 6.906900 -0.757642 0.596133 0.265715 0.464100 -0.838100 1 0 1.000000 
0 -15.528400 5.643799 7.264700 -0.581922 0.363014 0.727728 0.461800 -0.843400 1 0 1.000000 
0 -15.164100 5.813499 7.264700 -0.177702 0.558407 0.810310 0.456500 -0.843400 1 0 1.000000 
Furniture_DetailProps001a
0 -15.164100 5.233900 -9.971300 -0.191702 0.145501 -0.970608 0.456500 -0.587100 1 0 1.000000 
0 -15.679300 5.233900 -9.793400 -0.789786 0.119198 -0.601689 0.464100 -0.589800 1 0 1.000000 
0 -15.528400 5.643799 -9.793400 -0.515719 0.502218 -0.694126 0.461800 -0.589800 1 0 1.000000 
Furniture_DetailProps001a
0 -15.679300 5.233900 -9.793400 -0.789786 0.119198 -0.601689 0.464100 -0.589800 1 0 1.000000 
0 -15.679300 5.813499 -9.364100 -0.735802 0.652002 -0.183000 0.464100 -0.596100 1 0 1.000000 
0 -15.528400 5.643799 -9.793400 -0.515719 0.502218 -0.694126 0.461800 -0.589800 1 0 1.000000 
Furniture_DetailProps001a
0 -15.679300 5.233900 -9.793400 -0.789786 0.119198 -0.601689 0.464100 -0.589800 1 0 1.000000 
0 -15.892700 5.233900 -9.364100 -0.980711 0.147202 -0.128601 0.467200 -0.596100 1 0 1.000000 
0 -15.679300 5.813499 -9.364100 -0.735802 0.652002 -0.183000 0.464100 -0.596100 1 0 1.000000 
Furniture_DetailProps001a
0 -15.892700 5.233900 -9.364100 -0.980711 0.147202 -0.128601 0.467200 -0.596100 1 0 1.000000 
0 -15.679300 5.813499 6.906900 -0.757642 0.596133 0.265715 0.464100 -0.838100 1 0 1.000000 
0 -15.679300 5.813499 -9.364100 -0.735802 0.652002 -0.183000 0.464100 -0.596100 1 0 1.000000 
Furniture_DetailProps001a
0 -15.892700 5.233900 -9.364100 -0.980711 0.147202 -0.128601 0.467200 -0.596100 1 0 1.000000 
0 -15.892700 5.233900 6.906900 -0.942963 0.141794 0.301188 0.467200 -0.838100 1 0 1.000000 
0 -15.679300 5.813499 6.906900 -0.757642 0.596133 0.265715 0.464100 -0.838100 1 0 1.000000 
Furniture_DetailProps001a
0 -15.892700 5.233900 6.906900 -0.942963 0.141794 0.301188 0.467200 -0.838100 1 0 1.000000 
0 -15.528400 5.643799 7.264700 -0.581922 0.363014 0.727728 0.461800 -0.843400 1 0 1.000000 
0 -15.679300 5.813499 6.906900 -0.757642 0.596133 0.265715 0.464100 -0.838100 1 0 1.000000 
Furniture_DetailProps001a
0 -15.892700 5.233900 6.906900 -0.942963 0.141794 0.301188 0.467200 -0.838100 1 0 1.000000 
0 -15.679300 5.233900 7.264700 -0.592209 0.078901 0.801912 0.464100 -0.843400 1 0 1.000000 
0 -15.528400 5.643799 7.264700 -0.581922 0.363014 0.727728 0.461800 -0.843400 1 0 1.000000 
Furniture_DetailProps001a
0 4.232000 1.566800 8.267300 -0.839620 0.259806 -0.477011 0.416200 -0.558500 1 0 1.000000 
0 4.422100 1.333100 8.077200 0.735994 -0.533395 -0.416896 0.419500 -0.561000 1 0 1.000000 
0 4.422100 -0.070700 8.077200 -0.462095 0.303197 -0.833391 0.438900 -0.561000 1 0 1.000000 
Furniture_DetailProps001a
0 4.422100 1.333100 8.077200 0.735994 -0.533395 -0.416896 0.419500 -0.561000 1 0 1.000000 
0 4.232000 1.566800 8.267300 -0.839620 0.259806 -0.477011 0.416200 -0.558500 1 0 1.000000 
0 5.796000 0.496100 6.513700 -0.483206 -0.271303 -0.832410 0.431000 -0.578600 1 0 1.000000 
Furniture_DetailProps001a
0 4.422100 1.566800 8.267300 0.572486 0.117997 0.811380 0.416200 -0.561000 1 0 1.000000 
0 4.422100 1.333100 8.077200 0.735994 -0.533395 -0.416896 0.419500 -0.561000 1 0 1.000000 
0 5.796000 0.496100 6.513700 -0.483206 -0.271303 -0.832410 0.431000 -0.578600 1 0 1.000000 
Furniture_DetailProps001a
0 4.232000 1.566800 8.267300 -0.839620 0.259806 -0.477011 0.416200 -0.558500 1 0 1.000000 
0 4.422100 1.566800 8.267300 0.572486 0.117997 0.811380 0.416200 -0.561000 1 0 1.000000 
0 5.796000 0.496100 6.513700 -0.483206 -0.271303 -0.832410 0.431000 -0.578600 1 0 1.000000 
Furniture_DetailProps001a
0 4.422100 1.566800 8.267300 0.572486 0.117997 0.811380 0.416200 -0.561000 1 0 1.000000 
0 4.232000 1.566800 8.267300 -0.839620 0.259806 -0.477011 0.416200 -0.558500 1 0 1.000000 
0 4.232000 -0.386000 8.267300 -0.870602 -0.456001 0.184700 0.443200 -0.558500 1 0 1.000000 
Furniture_DetailProps001a
0 4.422100 -0.070700 8.077200 -0.462095 0.303197 -0.833391 0.438900 -0.561000 1 0 1.000000 
0 4.232000 -0.386000 8.267300 -0.870602 -0.456001 0.184700 0.443200 -0.558500 1 0 1.000000 
0 4.232000 1.566800 8.267300 -0.839620 0.259806 -0.477011 0.416200 -0.558500 1 0 1.000000 
Furniture_DetailProps001a
0 4.232000 -0.386000 8.267300 -0.870602 -0.456001 0.184700 0.443200 -0.558500 1 0 1.000000 
0 4.422100 -0.070700 8.077200 -0.462095 0.303197 -0.833391 0.438900 -0.561000 1 0 1.000000 
0 5.796000 0.496100 6.513700 -0.483206 -0.271303 -0.832410 0.431000 -0.578600 1 0 1.000000 
Furniture_DetailProps001a
0 4.422100 -0.070700 8.077200 -0.462095 0.303197 -0.833391 0.438900 -0.561000 1 0 1.000000 
0 4.422100 -0.386000 8.267300 0.900836 -0.172507 0.398416 0.443200 -0.561000 1 0 1.000000 
0 5.796000 0.496100 6.513700 -0.483206 -0.271303 -0.832410 0.431000 -0.578600 1 0 1.000000 
Furniture_DetailProps001a
0 4.422100 -0.386000 8.267300 0.900836 -0.172507 0.398416 0.443200 -0.561000 1 0 1.000000 
0 4.232000 -0.386000 8.267300 -0.870602 -0.456001 0.184700 0.443200 -0.558500 1 0 1.000000 
0 5.796000 0.496100 6.513700 -0.483206 -0.271303 -0.832410 0.431000 -0.578600 1 0 1.000000 
Furniture_DetailProps001a
0 4.232000 -0.386000 8.267300 -0.870602 -0.456001 0.184700 0.443200 -0.558500 1 0 1.000000 
0 4.422100 -0.386000 8.267300 0.900836 -0.172507 0.398416 0.443200 -0.561000 1 0 1.000000 
0 4.422100 1.566800 8.267300 0.572486 0.117997 0.811380 0.416200 -0.561000 1 0 1.000000 
Furniture_DetailProps001a
0 4.422100 1.333100 8.077200 0.735994 -0.533395 -0.416896 0.419500 -0.561000 1 0 1.000000 
0 4.422100 1.566800 8.267300 0.572486 0.117997 0.811380 0.416200 -0.561000 1 0 1.000000 
0 4.422100 -0.386000 8.267300 0.900836 -0.172507 0.398416 0.443200 -0.561000 1 0 1.000000 
Furniture_DetailProps001a
0 4.422100 -0.386000 8.267300 0.900836 -0.172507 0.398416 0.443200 -0.561000 1 0 1.000000 
0 4.422100 -0.070700 8.077200 -0.462095 0.303197 -0.833391 0.438900 -0.561000 1 0 1.000000 
0 4.422100 1.333100 8.077200 0.735994 -0.533395 -0.416896 0.419500 -0.561000 1 0 1.000000 
Furniture_DetailProps001a
0 15.679300 5.233901 -9.793400 0.759175 0.084497 -0.645379 0.609200 -0.598100 1 0 1.000000 
0 15.892700 -5.233900 -9.364100 0.969727 -0.147504 -0.194605 0.470700 -0.597600 1 0 1.000000 
0 15.679300 -5.233900 -9.793400 0.698572 -0.120195 -0.705372 0.470700 -0.595500 1 0 1.000000 
Furniture_DetailProps001a
0 15.679300 5.233901 -9.793400 0.759175 0.084497 -0.645379 0.609200 -0.598100 1 0 1.000000 
0 15.892700 5.233901 -9.364100 0.970788 0.143898 -0.191998 0.609200 -0.602400 1 0 1.000000 
0 15.892700 -5.233900 -9.364100 0.969727 -0.147504 -0.194605 0.470700 -0.597600 1 0 1.000000 
Furniture_DetailProps001a
0 15.892700 5.233901 -9.364100 0.970788 0.143898 -0.191998 0.609200 -0.602400 1 0 1.000000 
0 15.892700 -5.233900 6.906900 0.963881 -0.142197 0.225196 0.470700 -0.839300 1 0 1.000000 
0 15.892700 -5.233900 -9.364100 0.969727 -0.147504 -0.194605 0.470700 -0.597600 1 0 1.000000 
Furniture_DetailProps001a
0 15.892700 5.233901 -9.364100 0.970788 0.143898 -0.191998 0.609200 -0.602400 1 0 1.000000 
0 15.892700 5.233901 6.906900 0.962443 0.147207 0.228110 0.609200 -0.840800 1 0 1.000000 
0 15.892700 -5.233900 6.906900 0.963881 -0.142197 0.225196 0.470700 -0.839300 1 0 1.000000 
Furniture_DetailProps001a
0 15.892700 5.233901 6.906900 0.962443 0.147207 0.228110 0.609200 -0.840800 1 0 1.000000 
0 15.679300 -5.233900 7.264700 0.715668 -0.078897 0.693969 0.470700 -0.848000 1 0 1.000000 
0 15.892700 -5.233900 6.906900 0.963881 -0.142197 0.225196 0.470700 -0.839300 1 0 1.000000 
Furniture_DetailProps001a
0 15.892700 5.233901 6.906900 0.962443 0.147207 0.228110 0.609200 -0.840800 1 0 1.000000 
0 15.679300 5.233901 7.264700 0.652311 0.114102 0.749313 0.609200 -0.848000 1 0 1.000000 
0 15.679300 -5.233900 7.264700 0.715668 -0.078897 0.693969 0.470700 -0.848000 1 0 1.000000 
Furniture_DetailProps001a
0 -12.854000 1.770999 7.525900 -0.671523 -0.335611 0.660622 0.043500 -0.535800 1 0 1.000000 
0 -12.090000 1.771000 7.529700 0.408281 -0.822162 0.396682 0.051500 -0.535800 1 0 1.000000 
0 -12.090000 4.339600 7.536700 0.661778 0.330989 0.672678 0.051500 -0.554000 1 0 1.000000 
Furniture_DetailProps001a
0 -12.090000 4.339600 7.536700 0.661778 0.330989 0.672678 0.051500 -0.554000 1 0 1.000000 
0 -12.854000 4.339600 7.533000 -0.408398 0.810595 0.419698 0.043500 -0.554000 1 0 1.000000 
0 -12.854000 1.770999 7.525900 -0.671523 -0.335611 0.660622 0.043500 -0.535800 1 0 1.000000 
Furniture_DetailProps001a
0 -12.854000 1.770999 7.525900 -0.671523 -0.335611 0.660622 0.043500 -0.535800 1 0 1.000000 
0 -12.854000 4.339600 7.533000 -0.408398 0.810595 0.419698 0.043500 -0.554000 1 0 1.000000 
0 -12.853600 4.343299 7.323900 -0.894448 0.447124 0.006500 0.043500 -0.555900 1 0 1.000000 
Furniture_DetailProps001a
0 -12.089600 4.343299 7.327600 0.447112 0.894324 0.016600 0.051500 -0.555900 1 0 1.000000 
0 -12.853600 4.343299 7.323900 -0.894448 0.447124 0.006500 0.043500 -0.555900 1 0 1.000000 
0 -12.854000 4.339600 7.533000 -0.408398 0.810595 0.419698 0.043500 -0.554000 1 0 1.000000 
Furniture_DetailProps001a
0 -12.854000 4.339600 7.533000 -0.408398 0.810595 0.419698 0.043500 -0.554000 1 0 1.000000 
0 -12.090000 4.339600 7.536700 0.661778 0.330989 0.672678 0.051500 -0.554000 1 0 1.000000 
0 -12.089600 4.343299 7.327600 0.447112 0.894324 0.016600 0.051500 -0.555900 1 0 1.000000 
Furniture_DetailProps001a
0 -12.089600 1.774700 7.320600 0.894448 -0.447124 -0.006500 0.051500 -0.537700 1 0 1.000000 
0 -12.089600 4.343299 7.327600 0.447112 0.894324 0.016600 0.051500 -0.555900 1 0 1.000000 
0 -12.090000 4.339600 7.536700 0.661778 0.330989 0.672678 0.051500 -0.554000 1 0 1.000000 
Furniture_DetailProps001a
0 -12.090000 4.339600 7.536700 0.661778 0.330989 0.672678 0.051500 -0.554000 1 0 1.000000 
0 -12.090000 1.771000 7.529700 0.408281 -0.822162 0.396682 0.051500 -0.535800 1 0 1.000000 
0 -12.089600 1.774700 7.320600 0.894448 -0.447124 -0.006500 0.051500 -0.537700 1 0 1.000000 
Furniture_DetailProps001a
0 -12.853600 1.774699 7.316900 -0.447112 -0.894324 -0.016600 0.043500 -0.537700 1 0 1.000000 
0 -12.089600 1.774700 7.320600 0.894448 -0.447124 -0.006500 0.051500 -0.537700 1 0 1.000000 
0 -12.090000 1.771000 7.529700 0.408281 -0.822162 0.396682 0.051500 -0.535800 1 0 1.000000 
Furniture_DetailProps001a
0 -12.090000 1.771000 7.529700 0.408281 -0.822162 0.396682 0.051500 -0.535800 1 0 1.000000 
0 -12.854000 1.770999 7.525900 -0.671523 -0.335611 0.660622 0.043500 -0.535800 1 0 1.000000 
0 -12.853600 1.774699 7.316900 -0.447112 -0.894324 -0.016600 0.043500 -0.537700 1 0 1.000000 
Furniture_DetailProps001a
0 -12.853600 4.343299 7.323900 -0.894448 0.447124 0.006500 0.043500 -0.555900 1 0 1.000000 
0 -12.853600 1.774699 7.316900 -0.447112 -0.894324 -0.016600 0.043500 -0.537700 1 0 1.000000 
0 -12.854000 1.770999 7.525900 -0.671523 -0.335611 0.660622 0.043500 -0.535800 1 0 1.000000 
Furniture_DetailProps001a
0 -15.164100 5.233900 -9.971300 -0.191702 0.145501 -0.970608 0.009400 -0.845000 1 0 1.000000 
0 -15.679300 -5.233901 -9.793400 -0.641483 -0.084398 -0.762480 0.001700 -0.997900 1 0 1.000000 
0 -15.679300 5.233900 -9.793400 -0.789786 0.119198 -0.601689 0.001700 -0.845000 1 0 1.000000 
Furniture_DetailProps001a
0 -15.164100 5.233900 -9.971300 -0.191702 0.145501 -0.970608 0.009400 -0.845000 1 0 1.000000 
0 -15.164100 -5.233901 -9.971300 -0.157901 -0.119401 -0.980209 0.009400 -0.997900 1 0 1.000000 
0 -15.679300 -5.233901 -9.793400 -0.641483 -0.084398 -0.762480 0.001700 -0.997900 1 0 1.000000 
Furniture_DetailProps001a
0 15.164100 5.233901 -9.971300 0.191507 0.102404 -0.976134 0.461600 -0.848100 1 0 1.000000 
0 -15.164100 -5.233901 -9.971300 -0.157901 -0.119401 -0.980209 0.009400 -0.997900 1 0 1.000000 
0 -15.164100 5.233900 -9.971300 -0.191702 0.145501 -0.970608 0.009400 -0.845000 1 0 1.000000 
Furniture_DetailProps001a
0 15.164100 5.233901 -9.971300 0.191507 0.102404 -0.976134 0.461600 -0.848100 1 0 1.000000 
0 15.164100 -5.233900 -9.971300 0.157900 -0.169500 -0.972799 0.461600 -0.997900 1 0 1.000000 
0 -15.164100 -5.233901 -9.971300 -0.157901 -0.119401 -0.980209 0.009400 -0.997900 1 0 1.000000 
Furniture_DetailProps001a
0 15.164100 5.233901 -9.971300 0.191507 0.102404 -0.976134 0.461600 -0.848100 1 0 1.000000 
0 15.679300 -5.233900 -9.793400 0.698572 -0.120195 -0.705372 0.469400 -0.997900 1 0 1.000000 
0 15.164100 -5.233900 -9.971300 0.157900 -0.169500 -0.972799 0.461600 -0.997900 1 0 1.000000 
Furniture_DetailProps001a
0 15.164100 5.233901 -9.971300 0.191507 0.102404 -0.976134 0.461600 -0.848100 1 0 1.000000 
0 15.679300 5.233901 -9.793400 0.759175 0.084497 -0.645379 0.469400 -0.848100 1 0 1.000000 
0 15.679300 -5.233900 -9.793400 0.698572 -0.120195 -0.705372 0.469400 -0.997900 1 0 1.000000 
Furniture_DetailProps001a
0 -0.536000 0.008100 7.691800 -0.666499 -0.325899 0.670499 0.228000 -0.567400 1 0 1.000000 
0 1.054200 0.008100 7.689900 0.410112 -0.814223 0.410912 0.247600 -0.567400 1 0 1.000000 
0 1.054200 4.827700 7.633300 0.666843 0.340722 0.662743 0.247600 -0.516900 1 0 1.000000 
Furniture_DetailProps001a
0 1.054200 4.827700 7.633300 0.666843 0.340722 0.662743 0.247600 -0.516900 1 0 1.000000 
0 -0.536100 4.827700 7.635200 -0.406378 0.818757 0.405579 0.228000 -0.516900 1 0 1.000000 
0 -0.536000 0.008100 7.691800 -0.666499 -0.325899 0.670499 0.228000 -0.567400 1 0 1.000000 
Furniture_DetailProps001a
0 -0.536000 0.008100 7.691800 -0.666499 -0.325899 0.670499 0.228000 -0.567400 1 0 1.000000 
0 -0.536100 4.827700 7.635200 -0.406378 0.818757 0.405579 0.228000 -0.516900 1 0 1.000000 
0 -0.537300 4.826700 7.320900 -0.894426 0.447213 0.001300 0.228000 -0.515000 1 0 1.000000 
Furniture_DetailProps001a
0 1.053000 4.826700 7.319000 0.447210 0.894419 -0.004200 0.247600 -0.515000 1 0 1.000000 
0 -0.537300 4.826700 7.320900 -0.894426 0.447213 0.001300 0.228000 -0.515000 1 0 1.000000 
0 -0.536100 4.827700 7.635200 -0.406378 0.818757 0.405579 0.228000 -0.516900 1 0 1.000000 
Furniture_DetailProps001a
0 -0.536100 4.827700 7.635200 -0.406378 0.818757 0.405579 0.228000 -0.516900 1 0 1.000000 
0 1.054200 4.827700 7.633300 0.666843 0.340722 0.662743 0.247600 -0.516900 1 0 1.000000 
0 1.053000 4.826700 7.319000 0.447210 0.894419 -0.004200 0.247600 -0.515000 1 0 1.000000 
Furniture_DetailProps001a
0 1.053100 0.007100 7.375600 0.894426 -0.447213 -0.001300 0.247600 -0.565500 1 0 1.000000 
0 1.053000 4.826700 7.319000 0.447210 0.894419 -0.004200 0.247600 -0.515000 1 0 1.000000 
0 1.054200 4.827700 7.633300 0.666843 0.340722 0.662743 0.247600 -0.516900 1 0 1.000000 
Furniture_DetailProps001a
0 1.054200 4.827700 7.633300 0.666843 0.340722 0.662743 0.247600 -0.516900 1 0 1.000000 
0 1.054200 0.008100 7.689900 0.410112 -0.814223 0.410912 0.247600 -0.567400 1 0 1.000000 
0 1.053100 0.007100 7.375600 0.894426 -0.447213 -0.001300 0.247600 -0.565500 1 0 1.000000 
Furniture_DetailProps001a
0 -0.537200 0.007100 7.377500 -0.447210 -0.894419 0.004200 0.228000 -0.565500 1 0 1.000000 
0 1.053100 0.007100 7.375600 0.894426 -0.447213 -0.001300 0.247600 -0.565500 1 0 1.000000 
0 1.054200 0.008100 7.689900 0.410112 -0.814223 0.410912 0.247600 -0.567400 1 0 1.000000 
Furniture_DetailProps001a
0 1.054200 0.008100 7.689900 0.410112 -0.814223 0.410912 0.247600 -0.567400 1 0 1.000000 
0 -0.536000 0.008100 7.691800 -0.666499 -0.325899 0.670499 0.228000 -0.567400 1 0 1.000000 
0 -0.537200 0.007100 7.377500 -0.447210 -0.894419 0.004200 0.228000 -0.565500 1 0 1.000000 
Furniture_DetailProps001a
0 -0.537300 4.826700 7.320900 -0.894426 0.447213 0.001300 0.228000 -0.515000 1 0 1.000000 
0 -0.537200 0.007100 7.377500 -0.447210 -0.894419 0.004200 0.228000 -0.565500 1 0 1.000000 
0 -0.536000 0.008100 7.691800 -0.666499 -0.325899 0.670499 0.228000 -0.567400 1 0 1.000000 
Furniture_DetailProps001a
0 -15.892700 5.233900 6.906900 -0.942963 0.141794 0.301188 0.609200 -0.840800 1 0 1.000000 
0 -15.679300 -5.233901 7.264700 -0.748929 -0.113104 0.652926 0.470700 -0.848000 1 0 1.000000 
0 -15.679300 5.233900 7.264700 -0.592209 0.078901 0.801912 0.609200 -0.848000 1 0 1.000000 
Furniture_DetailProps001a
0 -15.892700 5.233900 6.906900 -0.942963 0.141794 0.301188 0.609200 -0.840800 1 0 1.000000 
0 -15.892700 -5.233901 6.906900 -0.977618 -0.146803 0.150703 0.470700 -0.839300 1 0 1.000000 
0 -15.679300 -5.233901 7.264700 -0.748929 -0.113104 0.652926 0.470700 -0.848000 1 0 1.000000 
Furniture_DetailProps001a
0 -15.892700 5.233900 -9.364100 -0.980711 0.147202 -0.128601 0.609200 -0.602400 1 0 1.000000 
0 -15.892700 -5.233901 6.906900 -0.977618 -0.146803 0.150703 0.470700 -0.839300 1 0 1.000000 
0 -15.892700 5.233900 6.906900 -0.942963 0.141794 0.301188 0.609200 -0.840800 1 0 1.000000 
Furniture_DetailProps001a
0 -15.892700 5.233900 -9.364100 -0.980711 0.147202 -0.128601 0.609200 -0.602400 1 0 1.000000 
0 -15.892700 -5.233901 -9.364100 -0.955651 -0.143608 -0.257114 0.470700 -0.597600 1 0 1.000000 
0 -15.892700 -5.233901 6.906900 -0.977618 -0.146803 0.150703 0.470700 -0.839300 1 0 1.000000 
Furniture_DetailProps001a
0 -15.679300 5.233900 -9.793400 -0.789786 0.119198 -0.601689 0.609200 -0.598100 1 0 1.000000 
0 -15.892700 -5.233901 -9.364100 -0.955651 -0.143608 -0.257114 0.470700 -0.597600 1 0 1.000000 
0 -15.892700 5.233900 -9.364100 -0.980711 0.147202 -0.128601 0.609200 -0.602400 1 0 1.000000 
Furniture_DetailProps001a
0 -15.679300 5.233900 -9.793400 -0.789786 0.119198 -0.601689 0.609200 -0.598100 1 0 1.000000 
0 -15.679300 -5.233901 -9.793400 -0.641483 -0.084398 -0.762480 0.470700 -0.595500 1 0 1.000000 
0 -15.892700 -5.233901 -9.364100 -0.955651 -0.143608 -0.257114 0.470700 -0.597600 1 0 1.000000 
Furniture_DetailProps001a
0 -3.511500 1.582900 8.267300 0.915711 0.368304 0.160702 0.416000 -0.557700 1 0 1.000000 
0 -3.701600 1.267600 8.077200 0.535009 -0.379106 -0.755012 0.420400 -0.560200 1 0 1.000000 
0 -4.937700 0.285500 6.513700 0.502107 -0.068201 -0.862112 0.433900 -0.575900 1 0 1.000000 
Furniture_DetailProps001a
0 -3.701600 1.267600 8.077200 0.535009 -0.379106 -0.755012 0.420400 -0.560200 1 0 1.000000 
0 -3.701600 1.582900 8.267300 -0.916831 0.140305 0.373813 0.416000 -0.560200 1 0 1.000000 
0 -4.937700 0.285500 6.513700 0.502107 -0.068201 -0.862112 0.433900 -0.575900 1 0 1.000000 
Furniture_DetailProps001a
0 -3.701600 1.582900 8.267300 -0.916831 0.140305 0.373813 0.416000 -0.560200 1 0 1.000000 
0 -3.701600 1.267600 8.077200 0.535009 -0.379106 -0.755012 0.420400 -0.560200 1 0 1.000000 
0 -3.701600 -0.153900 8.077200 -0.780105 0.458303 -0.425903 0.440000 -0.560200 1 0 1.000000 
Furniture_DetailProps001a
0 -3.701600 -0.153900 8.077200 -0.780105 0.458303 -0.425903 0.440000 -0.560200 1 0 1.000000 
0 -3.701600 -0.387600 8.267300 -0.594072 -0.165692 0.787162 0.443200 -0.560200 1 0 1.000000 
0 -3.701600 1.582900 8.267300 -0.916831 0.140305 0.373813 0.416000 -0.560200 1 0 1.000000 
Furniture_DetailProps001a
0 -3.701600 -0.387600 8.267300 -0.594072 -0.165692 0.787162 0.443200 -0.560200 1 0 1.000000 
0 -3.701600 -0.153900 8.077200 -0.780105 0.458303 -0.425903 0.440000 -0.560200 1 0 1.000000 
0 -4.937700 0.285500 6.513700 0.502107 -0.068201 -0.862112 0.433900 -0.575900 1 0 1.000000 
Furniture_DetailProps001a
0 -3.511500 -0.387600 8.267300 0.863648 -0.282316 -0.417623 0.443200 -0.557700 1 0 1.000000 
0 -3.701600 -0.387600 8.267300 -0.594072 -0.165692 0.787162 0.443200 -0.560200 1 0 1.000000 
0 -4.937700 0.285500 6.513700 0.502107 -0.068201 -0.862112 0.433900 -0.575900 1 0 1.000000 
Furniture_DetailProps001a
0 -3.701600 -0.153900 8.077200 -0.780105 0.458303 -0.425903 0.440000 -0.560200 1 0 1.000000 
0 -3.511500 -0.387600 8.267300 0.863648 -0.282316 -0.417623 0.443200 -0.557700 1 0 1.000000 
0 -4.937700 0.285500 6.513700 0.502107 -0.068201 -0.862112 0.433900 -0.575900 1 0 1.000000 
Furniture_DetailProps001a
0 -3.511500 -0.387600 8.267300 0.863648 -0.282316 -0.417623 0.443200 -0.557700 1 0 1.000000 
0 -3.701600 -0.153900 8.077200 -0.780105 0.458303 -0.425903 0.440000 -0.560200 1 0 1.000000 
0 -3.701600 1.267600 8.077200 0.535009 -0.379106 -0.755012 0.420400 -0.560200 1 0 1.000000 
Furniture_DetailProps001a
0 -3.701600 1.267600 8.077200 0.535009 -0.379106 -0.755012 0.420400 -0.560200 1 0 1.000000 
0 -3.511500 1.582900 8.267300 0.915711 0.368304 0.160702 0.416000 -0.557700 1 0 1.000000 
0 -3.511500 -0.387600 8.267300 0.863648 -0.282316 -0.417623 0.443200 -0.557700 1 0 1.000000 
Furniture_DetailProps001a
0 -3.701600 -0.387600 8.267300 -0.594072 -0.165692 0.787162 0.443200 -0.560200 1 0 1.000000 
0 -3.511500 -0.387600 8.267300 0.863648 -0.282316 -0.417623 0.443200 -0.557700 1 0 1.000000 
0 -3.511500 1.582900 8.267300 0.915711 0.368304 0.160702 0.416000 -0.557700 1 0 1.000000 
Furniture_DetailProps001a
0 -3.511500 1.582900 8.267300 0.915711 0.368304 0.160702 0.416000 -0.557700 1 0 1.000000 
0 -3.701600 1.582900 8.267300 -0.916831 0.140305 0.373813 0.416000 -0.560200 1 0 1.000000 
0 -3.701600 -0.387600 8.267300 -0.594072 -0.165692 0.787162 0.443200 -0.560200 1 0 1.000000 
Furniture_DetailProps001a
0 -3.701600 1.582900 8.267300 -0.916831 0.140305 0.373813 0.416000 -0.560200 1 0 1.000000 
0 -3.511500 1.582900 8.267300 0.915711 0.368304 0.160702 0.416000 -0.557700 1 0 1.000000 
0 -4.937700 0.285500 6.513700 0.502107 -0.068201 -0.862112 0.433900 -0.575900 1 0 1.000000 
Furniture_DetailProps001a
0 12.956400 1.771001 7.525900 -0.671523 -0.335611 0.660622 0.426900 -0.535800 1 0 1.000000 
0 13.720300 1.771001 7.529700 0.408281 -0.822162 0.396682 0.435600 -0.535800 1 0 1.000000 
0 13.720300 4.339601 7.536700 0.661778 0.330989 0.672678 0.435600 -0.557100 1 0 1.000000 
Furniture_DetailProps001a
0 13.720300 4.339601 7.536700 0.661778 0.330989 0.672678 0.435600 -0.557100 1 0 1.000000 
0 12.956300 4.339601 7.533000 -0.408398 0.810595 0.419698 0.426900 -0.557100 1 0 1.000000 
0 12.956400 1.771001 7.525900 -0.671523 -0.335611 0.660622 0.426900 -0.535800 1 0 1.000000 
Furniture_DetailProps001a
0 12.956400 1.771001 7.525900 -0.671523 -0.335611 0.660622 0.426900 -0.535800 1 0 1.000000 
0 12.956300 4.339601 7.533000 -0.408398 0.810595 0.419698 0.426900 -0.557100 1 0 1.000000 
0 12.956700 4.343300 7.323900 -0.894448 0.447124 0.006500 0.426800 -0.559000 1 0 1.000000 
Furniture_DetailProps001a
0 13.720700 4.343300 7.327600 0.447112 0.894324 0.016600 0.435600 -0.559000 1 0 1.000000 
0 12.956700 4.343300 7.323900 -0.894448 0.447124 0.006500 0.426800 -0.559000 1 0 1.000000 
0 12.956300 4.339601 7.533000 -0.408398 0.810595 0.419698 0.426900 -0.557100 1 0 1.000000 
Furniture_DetailProps001a
0 12.956300 4.339601 7.533000 -0.408398 0.810595 0.419698 0.426900 -0.557100 1 0 1.000000 
0 13.720300 4.339601 7.536700 0.661778 0.330989 0.672678 0.435600 -0.557100 1 0 1.000000 
0 13.720700 4.343300 7.327600 0.447112 0.894324 0.016600 0.435600 -0.559000 1 0 1.000000 
Furniture_DetailProps001a
0 13.720700 1.774701 7.320600 0.894448 -0.447124 -0.006500 0.435600 -0.537700 1 0 1.000000 
0 13.720700 4.343300 7.327600 0.447112 0.894324 0.016600 0.435600 -0.559000 1 0 1.000000 
0 13.720300 4.339601 7.536700 0.661778 0.330989 0.672678 0.435600 -0.557100 1 0 1.000000 
Furniture_DetailProps001a
0 13.720300 4.339601 7.536700 0.661778 0.330989 0.672678 0.435600 -0.557100 1 0 1.000000 
0 13.720300 1.771001 7.529700 0.408281 -0.822162 0.396682 0.435600 -0.535800 1 0 1.000000 
0 13.720700 1.774701 7.320600 0.894448 -0.447124 -0.006500 0.435600 -0.537700 1 0 1.000000 
Furniture_DetailProps001a
0 12.956800 1.774701 7.316900 -0.447112 -0.894324 -0.016600 0.426800 -0.537700 1 0 1.000000 
0 13.720700 1.774701 7.320600 0.894448 -0.447124 -0.006500 0.435600 -0.537700 1 0 1.000000 
0 13.720300 1.771001 7.529700 0.408281 -0.822162 0.396682 0.435600 -0.535800 1 0 1.000000 
Furniture_DetailProps001a
0 13.720300 1.771001 7.529700 0.408281 -0.822162 0.396682 0.435600 -0.535800 1 0 1.000000 
0 12.956400 1.771001 7.525900 -0.671523 -0.335611 0.660622 0.426900 -0.535800 1 0 1.000000 
0 12.956800 1.774701 7.316900 -0.447112 -0.894324 -0.016600 0.426800 -0.537700 1 0 1.000000 
Furniture_DetailProps001a
0 12.956700 4.343300 7.323900 -0.894448 0.447124 0.006500 0.426800 -0.559000 1 0 1.000000 
0 12.956800 1.774701 7.316900 -0.447112 -0.894324 -0.016600 0.426800 -0.537700 1 0 1.000000 
0 12.956400 1.771001 7.525900 -0.671523 -0.335611 0.660622 0.426900 -0.535800 1 0 1.000000 
Furniture_DetailProps001a
0 -3.181800 0.039700 8.778800 -0.287394 -0.712885 0.639687 0.505800 -0.564100 1 0 1.000000 
0 -0.901700 0.039700 9.355900 -0.068801 -0.710513 0.700313 0.505800 -0.530400 1 0 1.000000 
0 -0.901700 1.170400 9.355900 -0.137699 0.710496 0.690097 0.487400 -0.530400 1 0 1.000000 
Furniture_DetailProps001a
0 -0.901700 1.170400 9.355900 -0.137699 0.710496 0.690097 0.487400 -0.530400 1 0 1.000000 
0 -3.181800 1.170400 8.778800 -0.367599 0.712898 0.597199 0.487400 -0.564100 1 0 1.000000 
0 -3.181800 0.039700 8.778800 -0.287394 -0.712885 0.639687 0.505800 -0.564100 1 0 1.000000 
Furniture_DetailProps001a
0 -3.872100 0.039700 8.314400 -0.916217 -0.289506 0.277005 0.505800 -0.574300 1 0 1.000000 
0 -3.181800 0.039700 8.778800 -0.287394 -0.712885 0.639687 0.505800 -0.564100 1 0 1.000000 
0 -3.181800 1.170400 8.778800 -0.367599 0.712898 0.597199 0.487400 -0.564100 1 0 1.000000 
Furniture_DetailProps001a
0 -3.181800 1.170400 8.778800 -0.367599 0.712898 0.597199 0.487400 -0.564100 1 0 1.000000 
0 -3.872100 1.170400 8.314400 -0.609814 0.770817 0.184304 0.487400 -0.574300 1 0 1.000000 
0 -3.872100 0.039700 8.314400 -0.916217 -0.289506 0.277005 0.505800 -0.574300 1 0 1.000000 
Furniture_DetailProps001a
0 -3.872100 0.039700 8.314400 -0.916217 -0.289506 0.277005 0.505800 -0.574300 1 0 1.000000 
0 -3.872100 1.170400 8.314400 -0.609814 0.770817 0.184304 0.487400 -0.574300 1 0 1.000000 
0 -3.710900 1.170400 7.886900 -0.585072 0.501576 -0.637269 0.487400 -0.571900 1 0 1.000000 
Furniture_DetailProps001a
0 -3.710900 1.170400 7.886900 -0.585072 0.501576 -0.637269 0.487400 -0.571900 1 0 1.000000 
0 -3.710900 0.039700 7.886900 0.200395 -0.757281 -0.621584 0.505800 -0.571900 1 0 1.000000 
0 -3.872100 0.039700 8.314400 -0.916217 -0.289506 0.277005 0.505800 -0.574300 1 0 1.000000 
Furniture_DetailProps001a
0 -3.710900 0.039700 7.886900 0.200395 -0.757281 -0.621584 0.505800 -0.571900 1 0 1.000000 
0 -3.710900 1.170400 7.886900 -0.585072 0.501576 -0.637269 0.487400 -0.571900 1 0 1.000000 
0 -2.996400 1.170400 8.545000 0.424882 0.718569 -0.550576 0.487400 -0.561400 1 0 1.000000 
Furniture_DetailProps001a
0 -2.996400 1.170400 8.545000 0.424882 0.718569 -0.550576 0.487400 -0.561400 1 0 1.000000 
0 -2.996400 0.039700 8.545000 0.316885 -0.718565 -0.619070 0.505800 -0.561400 1 0 1.000000 
0 -3.710900 0.039700 7.886900 0.200395 -0.757281 -0.621584 0.505800 -0.571900 1 0 1.000000 
Furniture_DetailProps001a
0 -2.996400 0.039700 8.545000 0.316885 -0.718565 -0.619070 0.505800 -0.561400 1 0 1.000000 
0 -2.996400 1.170400 8.545000 0.424882 0.718569 -0.550576 0.487400 -0.561400 1 0 1.000000 
0 -0.837400 1.170400 9.091500 0.137699 0.710497 -0.690097 0.487400 -0.529400 1 0 1.000000 
Furniture_DetailProps001a
0 -0.837400 1.170400 9.091500 0.137699 0.710497 -0.690097 0.487400 -0.529400 1 0 1.000000 
0 -0.837400 0.039700 9.091500 0.068801 -0.710513 -0.700313 0.505800 -0.529400 1 0 1.000000 
0 -2.996400 0.039700 8.545000 0.316885 -0.718565 -0.619070 0.505800 -0.561400 1 0 1.000000 
Furniture_DetailProps001a
0 3.798700 1.170400 8.778800 0.290501 0.713403 0.637703 0.495900 -0.517600 1 0 1.000000 
0 4.567300 1.170400 8.244800 0.932691 0.303997 0.194098 0.495900 -0.517600 1 0 1.000000 
0 4.352100 1.170400 7.887800 -0.205092 0.724573 -0.657975 0.495900 -0.517600 1 0 1.000000 
Furniture_DetailProps001a
0 4.352100 1.170400 7.887800 -0.205092 0.724573 -0.657975 0.495900 -0.517600 1 0 1.000000 
0 3.613400 1.170400 8.545000 -0.313692 0.717882 -0.621484 0.495900 -0.517600 1 0 1.000000 
0 3.798700 1.170400 8.778800 0.290501 0.713403 0.637703 0.495900 -0.517600 1 0 1.000000 
Furniture_DetailProps001a
0 1.518600 1.170400 9.355900 0.068801 0.710513 0.700313 0.495900 -0.517700 1 0 1.000000 
0 3.798700 1.170400 8.778800 0.290501 0.713403 0.637703 0.495900 -0.517600 1 0 1.000000 
0 3.613400 1.170400 8.545000 -0.313692 0.717882 -0.621484 0.495900 -0.517600 1 0 1.000000 
Furniture_DetailProps001a
0 3.613400 1.170400 8.545000 -0.313692 0.717882 -0.621484 0.495900 -0.517600 1 0 1.000000 
0 1.454400 1.170400 9.091500 -0.068801 0.710513 -0.700313 0.495900 -0.517700 1 0 1.000000 
0 1.518600 1.170400 9.355900 0.068801 0.710513 0.700313 0.495900 -0.517700 1 0 1.000000 
Furniture_DetailProps001a
0 -0.901700 1.170400 9.355900 -0.137699 0.710496 0.690097 0.495900 -0.517700 1 0 1.000000 
0 1.518600 1.170400 9.355900 0.068801 0.710513 0.700313 0.495900 -0.517700 1 0 1.000000 
0 1.454400 1.170400 9.091500 -0.068801 0.710513 -0.700313 0.495900 -0.517700 1 0 1.000000 
Furniture_DetailProps001a
0 1.454400 1.170400 9.091500 -0.068801 0.710513 -0.700313 0.495900 -0.517700 1 0 1.000000 
0 -0.837400 1.170400 9.091500 0.137699 0.710497 -0.690097 0.495900 -0.517700 1 0 1.000000 
0 -0.901700 1.170400 9.355900 -0.137699 0.710496 0.690097 0.495900 -0.517700 1 0 1.000000 
Furniture_DetailProps001a
0 -3.181800 1.170400 8.778800 -0.367599 0.712898 0.597199 0.495900 -0.517700 1 0 1.000000 
0 -0.901700 1.170400 9.355900 -0.137699 0.710496 0.690097 0.495900 -0.517700 1 0 1.000000 
0 -0.837400 1.170400 9.091500 0.137699 0.710497 -0.690097 0.495900 -0.517700 1 0 1.000000 
Furniture_DetailProps001a
0 -0.837400 1.170400 9.091500 0.137699 0.710497 -0.690097 0.495900 -0.517700 1 0 1.000000 
0 -2.996400 1.170400 8.545000 0.424882 0.718569 -0.550576 0.495900 -0.517700 1 0 1.000000 
0 -3.181800 1.170400 8.778800 -0.367599 0.712898 0.597199 0.495900 -0.517700 1 0 1.000000 
Furniture_DetailProps001a
0 -3.872100 1.170400 8.314400 -0.609814 0.770817 0.184304 0.495900 -0.517700 1 0 1.000000 
0 -3.181800 1.170400 8.778800 -0.367599 0.712898 0.597199 0.495900 -0.517700 1 0 1.000000 
0 -2.996400 1.170400 8.545000 0.424882 0.718569 -0.550576 0.495900 -0.517700 1 0 1.000000 
Furniture_DetailProps001a
0 -2.996400 1.170400 8.545000 0.424882 0.718569 -0.550576 0.495900 -0.517700 1 0 1.000000 
0 -3.710900 1.170400 7.886900 -0.585072 0.501576 -0.637269 0.495900 -0.517700 1 0 1.000000 
0 -3.872100 1.170400 8.314400 -0.609814 0.770817 0.184304 0.495900 -0.517700 1 0 1.000000 
Furniture_DetailProps001a
0 3.613400 0.039700 8.545000 -0.418796 -0.717892 -0.556094 0.495900 -0.517600 1 0 1.000000 
0 4.352100 0.039700 7.887800 0.492007 -0.465307 -0.735811 0.495900 -0.517600 1 0 1.000000 
0 4.567300 0.039700 8.244800 0.603790 -0.787187 0.125598 0.495900 -0.517600 1 0 1.000000 
Furniture_DetailProps001a
0 4.567300 0.039700 8.244800 0.603790 -0.787187 0.125598 0.495900 -0.517600 1 0 1.000000 
0 3.798700 0.039700 8.778800 0.373699 -0.713399 0.592799 0.495900 -0.517600 1 0 1.000000 
0 3.613400 0.039700 8.545000 -0.418796 -0.717892 -0.556094 0.495900 -0.517600 1 0 1.000000 
Furniture_DetailProps001a
0 1.454400 0.039700 9.091500 -0.137699 -0.710497 -0.690097 0.495900 -0.517700 1 0 1.000000 
0 3.613400 0.039700 8.545000 -0.418796 -0.717892 -0.556094 0.495900 -0.517600 1 0 1.000000 
0 3.798700 0.039700 8.778800 0.373699 -0.713399 0.592799 0.495900 -0.517600 1 0 1.000000 
Furniture_DetailProps001a
0 3.798700 0.039700 8.778800 0.373699 -0.713399 0.592799 0.495900 -0.517600 1 0 1.000000 
0 1.518600 0.039700 9.355900 0.137699 -0.710496 0.690097 0.495900 -0.517700 1 0 1.000000 
0 1.454400 0.039700 9.091500 -0.137699 -0.710497 -0.690097 0.495900 -0.517700 1 0 1.000000 
Furniture_DetailProps001a
0 -0.837400 0.039700 9.091500 0.068801 -0.710513 -0.700313 0.495900 -0.517700 1 0 1.000000 
0 1.454400 0.039700 9.091500 -0.137699 -0.710497 -0.690097 0.495900 -0.517700 1 0 1.000000 
0 1.518600 0.039700 9.355900 0.137699 -0.710496 0.690097 0.495900 -0.517700 1 0 1.000000 
Furniture_DetailProps001a
0 1.518600 0.039700 9.355900 0.137699 -0.710496 0.690097 0.495900 -0.517700 1 0 1.000000 
0 -0.901700 0.039700 9.355900 -0.068801 -0.710513 0.700313 0.495900 -0.517700 1 0 1.000000 
0 -0.837400 0.039700 9.091500 0.068801 -0.710513 -0.700313 0.495900 -0.517700 1 0 1.000000 
Furniture_DetailProps001a
0 -2.996400 0.039700 8.545000 0.316885 -0.718565 -0.619070 0.495900 -0.517700 1 0 1.000000 
0 -0.837400 0.039700 9.091500 0.068801 -0.710513 -0.700313 0.495900 -0.517700 1 0 1.000000 
0 -0.901700 0.039700 9.355900 -0.068801 -0.710513 0.700313 0.495900 -0.517700 1 0 1.000000 
Furniture_DetailProps001a
0 -0.901700 0.039700 9.355900 -0.068801 -0.710513 0.700313 0.495900 -0.517700 1 0 1.000000 
0 -3.181800 0.039700 8.778800 -0.287394 -0.712885 0.639687 0.495900 -0.517700 1 0 1.000000 
0 -2.996400 0.039700 8.545000 0.316885 -0.718565 -0.619070 0.495900 -0.517700 1 0 1.000000 
Furniture_DetailProps001a
0 -3.710900 0.039700 7.886900 0.200395 -0.757281 -0.621584 0.495900 -0.517700 1 0 1.000000 
0 -2.996400 0.039700 8.545000 0.316885 -0.718565 -0.619070 0.495900 -0.517700 1 0 1.000000 
0 -3.181800 0.039700 8.778800 -0.287394 -0.712885 0.639687 0.495900 -0.517700 1 0 1.000000 
Furniture_DetailProps001a
0 -3.181800 0.039700 8.778800 -0.287394 -0.712885 0.639687 0.495900 -0.517700 1 0 1.000000 
0 -3.872100 0.039700 8.314400 -0.916217 -0.289506 0.277005 0.495900 -0.517700 1 0 1.000000 
0 -3.710900 0.039700 7.886900 0.200395 -0.757281 -0.621584 0.495900 -0.517700 1 0 1.000000 
end
