version 1
nodes
  0 "static_prop" -1
end
skeleton
time 0
0 0.000000 0.000000 0.000000 0.000000 0.000000 0.000000
end
triangles
canister_propane02a
0 8.896300 3.793500 2.506600 0.870035 -0.452218 0.196308 0.447700 -0.985100 1 0 1.000000 
0 7.913499 6.807301 13.803700 0.870035 -0.452218 0.196308 0.511200 -0.539300 1 0 1.000000 
0 8.807700 3.637100 2.539000 0.870035 -0.452218 0.196308 0.447700 -0.985100 1 0 1.000000 
canister_propane02a
0 2.481500 4.879200 14.376300 0.378680 -0.915152 0.138193 0.639400 -0.539300 1 0 1.000000 
0 5.066100 7.828800 2.716600 -0.336497 -0.877892 0.340697 0.575400 -0.985100 1 0 1.000000 
0 5.802100 6.382401 15.232500 0.036998 -0.992145 -0.119493 0.575200 -0.539300 1 0 1.000000 
canister_propane02a
0 5.066100 7.828800 2.716600 -0.336497 -0.877892 0.340697 0.575400 -0.985100 1 0 1.000000 
0 8.068700 5.954000 2.716600 -0.583480 -0.705376 0.402486 0.511400 -0.985100 1 0 1.000000 
0 5.802100 6.382401 15.232500 0.036998 -0.992145 -0.119493 0.575200 -0.539300 1 0 1.000000 
canister_propane02a
0 5.802100 6.382401 15.232500 0.036998 -0.992145 -0.119493 0.575200 -0.539300 1 0 1.000000 
0 8.068700 5.954000 2.716600 -0.583480 -0.705376 0.402486 0.511400 -0.985100 1 0 1.000000 
0 7.824900 6.649100 13.782100 -0.516325 -0.855342 0.042402 0.511200 -0.539300 1 0 1.000000 
canister_propane02a
0 8.068700 5.954000 2.716600 -0.583480 -0.705376 0.402486 0.511400 -0.985100 1 0 1.000000 
0 8.807700 3.637100 2.539000 -0.930950 -0.311583 0.190390 0.447700 -0.985100 1 0 1.000000 
0 7.824900 6.649100 13.782100 -0.516325 -0.855342 0.042402 0.511200 -0.539300 1 0 1.000000 
canister_propane02a
0 2.087600 5.817100 16.739201 -0.142800 -0.964302 -0.223001 0.817200 -0.271500 1 0 1.000000 
0 3.815200 4.967200 16.905899 -0.342405 -0.794512 -0.501507 0.805100 -0.369100 1 0 1.000000 
0 2.316600 5.394700 18.370199 -0.421494 -0.890486 -0.171397 0.795800 -0.271500 1 0 1.000000 
canister_propane02a
0 3.815200 4.967200 16.905899 -0.342405 -0.794512 -0.501507 0.805100 -0.369100 1 0 1.000000 
0 2.087600 5.817100 16.739201 -0.142800 -0.964302 -0.223001 0.817200 -0.271500 1 0 1.000000 
0 5.802100 6.382401 15.232500 0.036998 -0.992145 -0.119493 0.812800 -0.377200 1 0 1.000000 
canister_propane02a
0 2.481500 4.879200 14.376300 0.378680 -0.915152 0.138193 0.825900 -0.271500 1 0 1.000000 
0 5.802100 6.382401 15.232500 0.036998 -0.992145 -0.119493 0.812800 -0.377200 1 0 1.000000 
0 2.087600 5.817100 16.739201 -0.142800 -0.964302 -0.223001 0.817200 -0.271500 1 0 1.000000 
canister_propane02a
0 5.154699 7.985200 2.684200 0.338987 0.876666 -0.341387 0.565700 -0.374500 1 0 1.000000 
0 8.155500 6.115100 2.716600 0.581721 0.706925 -0.402314 0.528900 -0.456800 1 0 1.000000 
0 6.850500 4.740301 1.299600 0.401516 0.494420 -0.770931 0.516100 -0.419900 1 0 1.000000 
canister_propane02a
0 6.850500 4.740301 1.299600 0.401516 0.494420 -0.770931 0.516100 -0.419900 1 0 1.000000 
0 4.620900 7.376100 1.267200 0.458611 0.413410 -0.786618 0.538100 -0.345700 1 0 1.000000 
0 5.154699 7.985200 2.684200 0.338987 0.876666 -0.341387 0.565700 -0.374500 1 0 1.000000 
canister_propane02a
0 4.620900 7.376100 1.267200 0.458611 0.413410 -0.786618 0.538100 -0.345700 1 0 1.000000 
0 6.850500 4.740301 1.299600 0.401516 0.494420 -0.770931 0.516100 -0.419900 1 0 1.000000 
0 5.458400 4.053000 0.391600 -0.011200 0.284411 -0.958637 0.507300 -0.393700 1 0 1.000000 
canister_propane02a
0 5.458400 4.053000 0.391600 -0.011200 0.284411 -0.958637 0.507300 -0.393700 1 0 1.000000 
0 4.361800 6.408600 0.872200 -0.080401 0.163202 -0.983311 0.531700 -0.339100 1 0 1.000000 
0 4.620900 7.376100 1.267200 0.458611 0.413410 -0.786618 0.538100 -0.345700 1 0 1.000000 
canister_propane02a
0 1.606200 -2.109700 2.113200 -0.493207 0.065901 -0.867412 0.388700 -0.305600 1 0 1.000000 
0 4.361800 6.408600 0.872200 -0.080401 0.163202 -0.983311 0.531700 -0.339100 1 0 1.000000 
0 5.458400 4.053000 0.391600 -0.011200 0.284411 -0.958637 0.507300 -0.393700 1 0 1.000000 
canister_propane02a
0 1.606200 -2.109700 2.113200 -0.493207 0.065901 -0.867412 0.388700 -0.305600 1 0 1.000000 
0 5.458400 4.053000 0.391600 -0.011200 0.284411 -0.958637 0.507300 -0.393700 1 0 1.000000 
0 7.017200 0.572500 -1.288700 0.021800 0.431399 -0.901898 0.472900 -0.419700 1 0 1.000000 
canister_propane02a
0 7.017200 0.572500 -1.288700 0.021800 0.431399 -0.901898 0.472900 -0.419700 1 0 1.000000 
0 5.458400 4.053000 0.391600 -0.011200 0.284411 -0.958637 0.507300 -0.393700 1 0 1.000000 
0 6.850500 4.740301 1.299600 0.401516 0.494420 -0.770931 0.516100 -0.419900 1 0 1.000000 
canister_propane02a
0 6.850500 4.740301 1.299600 0.401516 0.494420 -0.770931 0.516100 -0.419900 1 0 1.000000 
0 8.699000 1.087900 -0.196800 0.553686 0.463688 -0.691683 0.474300 -0.451400 1 0 1.000000 
0 7.017200 0.572500 -1.288700 0.021800 0.431399 -0.901898 0.472900 -0.419700 1 0 1.000000 
canister_propane02a
0 8.699000 1.087900 -0.196800 0.553686 0.463688 -0.691683 0.474300 -0.451400 1 0 1.000000 
0 6.850500 4.740301 1.299600 0.401516 0.494420 -0.770931 0.516100 -0.419900 1 0 1.000000 
0 8.155500 6.115100 2.716600 0.581721 0.706925 -0.402314 0.528900 -0.456800 1 0 1.000000 
canister_propane02a
0 8.155500 6.115100 2.716600 0.581721 0.706925 -0.402314 0.528900 -0.456800 1 0 1.000000 
0 8.896300 3.793500 2.506600 0.930046 0.314016 -0.190809 0.476900 -0.495800 1 0 1.000000 
0 8.699000 1.087900 -0.196800 0.553686 0.463688 -0.691683 0.474300 -0.451400 1 0 1.000000 
canister_propane02a
0 7.017200 0.572500 -1.288700 0.552690 -0.617389 -0.559790 0.472900 -0.419700 1 0 1.000000 
0 8.699000 1.087900 -0.196800 0.552690 -0.617389 -0.559790 0.474300 -0.451400 1 0 1.000000 
0 6.928700 0.429300 -1.218100 0.552690 -0.617389 -0.559790 0.472900 -0.419700 1 0 1.000000 
canister_propane02a
0 8.610500 0.944700 -0.126200 0.552690 -0.617389 -0.559790 0.474300 -0.451400 1 0 1.000000 
0 6.928700 0.429300 -1.218100 0.552690 -0.617389 -0.559790 0.472900 -0.419700 1 0 1.000000 
0 8.699000 1.087900 -0.196800 0.552690 -0.617389 -0.559790 0.474300 -0.451400 1 0 1.000000 
canister_propane02a
0 4.620900 7.376100 1.267200 -0.829753 0.386578 -0.402577 0.538100 -0.345700 1 0 1.000000 
0 4.361800 6.408600 0.872200 -0.829753 0.386578 -0.402577 0.531700 -0.339100 1 0 1.000000 
0 4.532300 7.219700 1.299600 -0.829753 0.386578 -0.402577 0.538100 -0.345700 1 0 1.000000 
canister_propane02a
0 4.273200 6.252300 0.904600 -0.829753 0.386578 -0.402577 0.531700 -0.339100 1 0 1.000000 
0 4.532300 7.219700 1.299600 -0.829753 0.386578 -0.402577 0.538100 -0.345700 1 0 1.000000 
0 4.361800 6.408600 0.872200 -0.829753 0.386578 -0.402577 0.531700 -0.339100 1 0 1.000000 
canister_propane02a
0 8.807700 3.637100 2.539000 0.844820 -0.406410 0.348008 0.476900 -0.495800 1 0 1.000000 
0 8.610500 0.944700 -0.126200 0.844820 -0.406410 0.348008 0.474300 -0.451400 1 0 1.000000 
0 8.896300 3.793500 2.506600 0.844820 -0.406410 0.348008 0.476900 -0.495800 1 0 1.000000 
canister_propane02a
0 8.610500 0.944700 -0.126200 -0.559114 -0.455711 0.692617 0.474300 -0.451400 1 0 1.000000 
0 6.763700 4.579200 1.299600 -0.397801 -0.491202 0.774903 0.516100 -0.419900 1 0 1.000000 
0 6.928700 0.429300 -1.218100 -0.019300 -0.423009 0.905920 0.472900 -0.419700 1 0 1.000000 
canister_propane02a
0 5.371600 3.897000 0.431900 0.016700 -0.279104 0.960115 0.507300 -0.393700 1 0 1.000000 
0 6.928700 0.429300 -1.218100 -0.019300 -0.423009 0.905920 0.472900 -0.419700 1 0 1.000000 
0 6.763700 4.579200 1.299600 -0.397801 -0.491202 0.774903 0.516100 -0.419900 1 0 1.000000 
canister_propane02a
0 5.371600 3.897000 0.431900 0.016700 -0.279104 0.960115 0.507300 -0.393700 1 0 1.000000 
0 1.517600 -2.252900 2.183800 0.492783 -0.061598 0.867969 0.388700 -0.305600 1 0 1.000000 
0 6.928700 0.429300 -1.218100 -0.019300 -0.423009 0.905920 0.472900 -0.419700 1 0 1.000000 
canister_propane02a
0 4.273200 6.252300 0.904600 0.078903 -0.160707 0.983843 0.531700 -0.339100 1 0 1.000000 
0 1.517600 -2.252900 2.183800 0.492783 -0.061598 0.867969 0.388700 -0.305600 1 0 1.000000 
0 5.371600 3.897000 0.431900 0.016700 -0.279104 0.960115 0.507300 -0.393700 1 0 1.000000 
canister_propane02a
0 4.273200 6.252300 0.904600 0.078903 -0.160707 0.983843 0.531700 -0.339100 1 0 1.000000 
0 5.371600 3.897000 0.431900 0.016700 -0.279104 0.960115 0.507300 -0.393700 1 0 1.000000 
0 4.532300 7.219700 1.299600 -0.453417 -0.413016 0.789830 0.538100 -0.345700 1 0 1.000000 
canister_propane02a
0 6.763700 4.579200 1.299600 -0.397801 -0.491202 0.774903 0.516100 -0.419900 1 0 1.000000 
0 4.532300 7.219700 1.299600 -0.453417 -0.413016 0.789830 0.538100 -0.345700 1 0 1.000000 
0 5.371600 3.897000 0.431900 0.016700 -0.279104 0.960115 0.507300 -0.393700 1 0 1.000000 
canister_propane02a
0 4.532300 7.219700 1.299600 -0.453417 -0.413016 0.789830 0.538100 -0.345700 1 0 1.000000 
0 6.763700 4.579200 1.299600 -0.397801 -0.491202 0.774903 0.516100 -0.419900 1 0 1.000000 
0 5.066100 7.828800 2.716600 -0.336497 -0.877892 0.340697 0.565700 -0.374500 1 0 1.000000 
canister_propane02a
0 8.068700 5.954000 2.716600 -0.583480 -0.705376 0.402486 0.528900 -0.456800 1 0 1.000000 
0 5.066100 7.828800 2.716600 -0.336497 -0.877892 0.340697 0.565700 -0.374500 1 0 1.000000 
0 6.763700 4.579200 1.299600 -0.397801 -0.491202 0.774903 0.516100 -0.419900 1 0 1.000000 
canister_propane02a
0 6.763700 4.579200 1.299600 -0.397801 -0.491202 0.774903 0.516100 -0.419900 1 0 1.000000 
0 8.610500 0.944700 -0.126200 -0.559114 -0.455711 0.692617 0.474300 -0.451400 1 0 1.000000 
0 8.068700 5.954000 2.716600 -0.583480 -0.705376 0.402486 0.528900 -0.456800 1 0 1.000000 
canister_propane02a
0 8.807700 3.637100 2.539000 -0.930950 -0.311583 0.190390 0.476900 -0.495800 1 0 1.000000 
0 8.068700 5.954000 2.716600 -0.583480 -0.705376 0.402486 0.528900 -0.456800 1 0 1.000000 
0 8.610500 0.944700 -0.126200 -0.559114 -0.455711 0.692617 0.474300 -0.451400 1 0 1.000000 
canister_propane02a
0 8.699000 1.087900 -0.196800 0.868492 -0.380596 0.317597 0.474300 -0.451400 1 0 1.000000 
0 8.896300 3.793500 2.506600 0.868492 -0.380596 0.317597 0.476900 -0.495800 1 0 1.000000 
0 8.610500 0.944700 -0.126200 0.868492 -0.380596 0.317597 0.474300 -0.451400 1 0 1.000000 
canister_propane02a
0 5.890600 6.540600 15.254100 -0.037199 0.992162 0.119295 0.812800 -0.377200 1 0 1.000000 
0 2.570100 5.037400 14.397900 -0.378579 0.915149 -0.138492 0.825900 -0.271500 1 0 1.000000 
0 2.176200 5.975300 16.760799 0.142800 0.964302 0.223001 0.817200 -0.271500 1 0 1.000000 
canister_propane02a
0 2.176200 5.975300 16.760799 0.142800 0.964302 0.223001 0.817200 -0.271500 1 0 1.000000 
0 3.903800 5.125400 16.927500 0.342405 0.794512 0.501507 0.805100 -0.369100 1 0 1.000000 
0 5.890600 6.540600 15.254100 -0.037199 0.992162 0.119295 0.812800 -0.377200 1 0 1.000000 
canister_propane02a
0 3.903800 5.125400 16.927500 0.342405 0.794512 0.501507 0.805100 -0.369100 1 0 1.000000 
0 2.176200 5.975300 16.760799 0.142800 0.964302 0.223001 0.817200 -0.271500 1 0 1.000000 
0 2.405100 5.552900 18.391800 0.421494 0.890486 0.171397 0.795800 -0.271500 1 0 1.000000 
canister_propane02a
0 5.154699 7.985200 2.684200 -0.855809 0.506605 0.104601 0.565700 -0.374500 1 0 1.000000 
0 4.620900 7.376100 1.267200 -0.855809 0.506605 0.104601 0.538100 -0.345700 1 0 1.000000 
0 5.066100 7.828800 2.716600 -0.855809 0.506605 0.104601 0.565700 -0.374500 1 0 1.000000 
canister_propane02a
0 4.532300 7.219700 1.299600 -0.855809 0.506605 0.104601 0.538100 -0.345700 1 0 1.000000 
0 5.066100 7.828800 2.716600 -0.855809 0.506605 0.104601 0.565700 -0.374500 1 0 1.000000 
0 4.620900 7.376100 1.267200 -0.855809 0.506605 0.104601 0.538100 -0.345700 1 0 1.000000 
canister_propane02a
0 1.606200 -2.109700 2.113200 -0.480912 -0.129703 -0.867122 0.388700 -0.305600 1 0 1.000000 
0 7.017200 0.572500 -1.288700 -0.480912 -0.129703 -0.867122 0.472900 -0.419700 1 0 1.000000 
0 1.517600 -2.252900 2.183800 -0.480912 -0.129703 -0.867122 0.388700 -0.305600 1 0 1.000000 
canister_propane02a
0 6.928700 0.429300 -1.218100 -0.480912 -0.129703 -0.867122 0.472900 -0.419700 1 0 1.000000 
0 1.517600 -2.252900 2.183800 -0.480912 -0.129703 -0.867122 0.388700 -0.305600 1 0 1.000000 
0 7.017200 0.572500 -1.288700 -0.480912 -0.129703 -0.867122 0.472900 -0.419700 1 0 1.000000 
canister_propane02a
0 1.517600 -2.252900 2.183800 -0.749882 0.145896 -0.645284 0.388700 -0.305600 1 0 1.000000 
0 4.273200 6.252300 0.904600 -0.749882 0.145896 -0.645284 0.531700 -0.339100 1 0 1.000000 
0 1.606200 -2.109700 2.113200 -0.749882 0.145896 -0.645284 0.388700 -0.305600 1 0 1.000000 
canister_propane02a
0 8.896300 3.793500 2.506600 0.930046 0.314016 -0.190809 0.447700 -0.985100 1 0 1.000000 
0 8.155500 6.115100 2.716600 0.581721 0.706925 -0.402314 0.511400 -0.985100 1 0 1.000000 
0 7.913499 6.807301 13.803700 0.516405 0.855309 -0.042100 0.511200 -0.539300 1 0 1.000000 
canister_propane02a
0 8.155500 6.115100 2.716600 0.581721 0.706925 -0.402314 0.511400 -0.985100 1 0 1.000000 
0 5.890600 6.540600 15.254100 -0.037199 0.992162 0.119295 0.575200 -0.539300 1 0 1.000000 
0 7.913499 6.807301 13.803700 0.516405 0.855309 -0.042100 0.511200 -0.539300 1 0 1.000000 
canister_propane02a
0 8.155500 6.115100 2.716600 0.581721 0.706925 -0.402314 0.511400 -0.985100 1 0 1.000000 
0 5.154699 7.985200 2.684200 0.338987 0.876666 -0.341387 0.575400 -0.985100 1 0 1.000000 
0 5.890600 6.540600 15.254100 -0.037199 0.992162 0.119295 0.575200 -0.539300 1 0 1.000000 
canister_propane02a
0 5.154699 7.985200 2.684200 0.338987 0.876666 -0.341387 0.575400 -0.985100 1 0 1.000000 
0 2.570100 5.037400 14.397900 -0.378579 0.915149 -0.138492 0.639400 -0.539300 1 0 1.000000 
0 5.890600 6.540600 15.254100 -0.037199 0.992162 0.119295 0.575200 -0.539300 1 0 1.000000 
canister_propane02a
0 2.176200 5.975300 16.760799 -0.803549 0.495068 -0.330479 0.817200 -0.271500 1 0 1.000000 
0 2.570100 5.037400 14.397900 -0.803549 0.495068 -0.330479 0.825900 -0.271500 1 0 1.000000 
0 2.087600 5.817100 16.739201 -0.803549 0.495068 -0.330479 0.817200 -0.271500 1 0 1.000000 
canister_propane02a
0 2.481500 4.879200 14.376300 -0.803549 0.495068 -0.330479 0.825900 -0.271500 1 0 1.000000 
0 2.087600 5.817100 16.739201 -0.803549 0.495068 -0.330479 0.817200 -0.271500 1 0 1.000000 
0 2.570100 5.037400 14.397900 -0.803549 0.495068 -0.330479 0.825900 -0.271500 1 0 1.000000 
canister_propane02a
0 5.890600 6.540600 15.254100 0.739525 -0.478716 0.473216 0.812800 -0.377200 1 0 1.000000 
0 3.903800 5.125400 16.927500 0.739525 -0.478716 0.473216 0.805100 -0.369100 1 0 1.000000 
0 5.802100 6.382401 15.232500 0.739525 -0.478716 0.473216 0.812800 -0.377200 1 0 1.000000 
canister_propane02a
0 3.815200 4.967200 16.905899 0.739525 -0.478716 0.473216 0.805100 -0.369100 1 0 1.000000 
0 5.802100 6.382401 15.232500 0.739525 -0.478716 0.473216 0.812800 -0.377200 1 0 1.000000 
0 3.903800 5.125400 16.927500 0.739525 -0.478716 0.473216 0.805100 -0.369100 1 0 1.000000 
canister_propane02a
0 2.405100 5.552900 18.391800 -0.861085 0.449692 0.237296 0.795800 -0.271500 1 0 1.000000 
0 2.176200 5.975300 16.760799 -0.861085 0.449692 0.237296 0.817200 -0.271500 1 0 1.000000 
0 2.316600 5.394700 18.370199 -0.861085 0.449692 0.237296 0.795800 -0.271500 1 0 1.000000 
canister_propane02a
0 2.087600 5.817100 16.739201 -0.861085 0.449692 0.237296 0.817200 -0.271500 1 0 1.000000 
0 2.316600 5.394700 18.370199 -0.861085 0.449692 0.237296 0.795800 -0.271500 1 0 1.000000 
0 2.176200 5.975300 16.760799 -0.861085 0.449692 0.237296 0.817200 -0.271500 1 0 1.000000 
canister_propane02a
0 3.903800 5.125400 16.927500 0.571687 -0.416690 0.706784 0.805100 -0.369100 1 0 1.000000 
0 2.405100 5.552900 18.391800 0.571687 -0.416690 0.706784 0.795800 -0.271500 1 0 1.000000 
0 3.815200 4.967200 16.905899 0.571687 -0.416690 0.706784 0.805100 -0.369100 1 0 1.000000 
canister_propane02a
0 2.316600 5.394700 18.370199 0.571687 -0.416690 0.706784 0.795800 -0.271500 1 0 1.000000 
0 3.815200 4.967200 16.905899 0.571687 -0.416690 0.706784 0.805100 -0.369100 1 0 1.000000 
0 2.405100 5.552900 18.391800 0.571687 -0.416690 0.706784 0.795800 -0.271500 1 0 1.000000 
canister_propane02a
0 7.824900 6.649100 13.782100 0.841246 -0.499327 0.207311 0.511200 -0.539300 1 0 1.000000 
0 8.807700 3.637100 2.539000 0.841246 -0.499327 0.207311 0.447700 -0.985100 1 0 1.000000 
0 7.913499 6.807301 13.803700 0.841246 -0.499327 0.207311 0.511200 -0.539300 1 0 1.000000 
canister_propane02a
0 4.361800 6.408600 0.872200 -0.245794 -0.061398 -0.967376 0.531700 -0.339100 1 0 1.000000 
0 1.606200 -2.109700 2.113200 -0.245794 -0.061398 -0.967376 0.388700 -0.305600 1 0 1.000000 
0 4.273200 6.252300 0.904600 -0.245794 -0.061398 -0.967376 0.531700 -0.339100 1 0 1.000000 
canister_propane02a
0 7.913499 6.807301 13.803700 0.565823 -0.414217 0.712929 0.511200 -0.539300 1 0 1.000000 
0 5.890600 6.540600 15.254100 0.565823 -0.414217 0.712929 0.575200 -0.539300 1 0 1.000000 
0 7.824900 6.649100 13.782100 0.565823 -0.414217 0.712929 0.511200 -0.539300 1 0 1.000000 
canister_propane02a
0 5.802100 6.382401 15.232500 0.565823 -0.414217 0.712929 0.575200 -0.539300 1 0 1.000000 
0 7.824900 6.649100 13.782100 0.565823 -0.414217 0.712929 0.511200 -0.539300 1 0 1.000000 
0 5.890600 6.540600 15.254100 0.565823 -0.414217 0.712929 0.575200 -0.539300 1 0 1.000000 
canister_propane02a
0 2.570100 5.037400 14.397900 -0.866673 0.494384 -0.066798 0.639400 -0.539300 1 0 1.000000 
0 5.154699 7.985200 2.684200 -0.866673 0.494384 -0.066798 0.575400 -0.985100 1 0 1.000000 
0 2.481500 4.879200 14.376300 -0.866673 0.494384 -0.066798 0.639400 -0.539300 1 0 1.000000 
canister_propane02a
0 5.066100 7.828800 2.716600 -0.874157 0.480231 -0.072305 0.575400 -0.985100 1 0 1.000000 
0 2.481500 4.879200 14.376300 -0.866673 0.494384 -0.066798 0.639400 -0.539300 1 0 1.000000 
0 5.154699 7.985200 2.684200 -0.866673 0.494384 -0.066798 0.575400 -0.985100 1 0 1.000000 
end
