version 1
nodes
  0 "static_prop" -1
end
skeleton
time 0
0 0.000000 0.000000 0.000000 0.000000 0.000000 0.000000
end
triangles
rockcliff02a
0 5.636100 -8.624300 130.090607 0.697623 -0.110304 0.707923 0.474400 -0.106800 1 0 1.000000 
0 44.125900 -22.065298 90.064796 0.697623 -0.110304 0.707923 0.421900 -0.263200 1 0 1.000000 
0 20.712599 36.718899 122.300003 0.697623 -0.110304 0.707923 0.651600 -0.137300 1 0 1.000000 
rockcliff02a
0 -30.565401 37.668701 122.066498 -0.041699 0.582188 0.811984 0.657200 -0.309800 1 0 1.000000 
0 5.636100 -8.624300 130.090607 -0.123799 0.074699 0.989492 0.476300 -0.168400 1 0 1.000000 
0 20.712599 36.718899 122.300003 -0.001300 0.169796 0.985478 0.653500 -0.109500 1 0 1.000000 
rockcliff02a
0 -30.565401 37.668701 122.066498 -0.041699 0.582188 0.811984 0.657200 -0.309800 1 0 1.000000 
0 -41.704601 -20.864202 117.934898 -0.243299 -0.022200 0.969697 0.428500 -0.353400 1 0 1.000000 
0 5.636100 -8.624300 130.090607 -0.123799 0.074699 0.989492 0.476300 -0.168400 1 0 1.000000 
rockcliff02a
0 -22.516800 -14.085301 -70.268402 0.048598 -0.010600 -0.998762 0.436300 -0.581500 1 0 1.000000 
0 10.512499 18.788200 -70.672203 -0.014300 0.002000 -0.999896 0.564700 -0.452500 1 0 1.000000 
0 19.225201 -14.836199 -70.865196 -0.014601 -0.017501 -0.999740 0.433400 -0.418500 1 0 1.000000 
rockcliff02a
0 -22.516800 -14.085301 -70.268402 0.048598 -0.010600 -0.998762 0.436300 -0.581500 1 0 1.000000 
0 -15.810901 19.261801 -70.295898 0.048598 -0.010600 -0.998762 0.566600 -0.555300 1 0 1.000000 
0 10.512499 18.788200 -70.672203 -0.014300 0.002000 -0.999896 0.564700 -0.452500 1 0 1.000000 
rockcliff02a
0 -15.810901 19.261801 -70.295898 0.031000 0.989004 -0.144601 0.449500 -0.897300 1 0 1.000000 
0 44.708900 28.937302 88.688797 0.046298 0.995862 -0.078197 0.643600 -0.262100 1 0 1.000000 
0 10.512499 18.788200 -70.672203 0.015800 0.990011 -0.140102 0.552300 -0.898700 1 0 1.000000 
rockcliff02a
0 -15.810901 19.261801 -70.295898 0.031000 0.989004 -0.144601 0.449500 -0.897300 1 0 1.000000 
0 -30.565401 37.668701 122.066498 -0.041699 0.582188 0.811984 0.391900 -0.145800 1 0 1.000000 
0 44.708900 28.937302 88.688797 0.046298 0.995862 -0.078197 0.643600 -0.262100 1 0 1.000000 
rockcliff02a
0 44.125900 -22.065298 90.064796 0.996062 -0.013699 -0.087597 0.421900 -0.263200 1 0 1.000000 
0 20.011501 -25.322500 -53.497200 0.986963 -0.072097 -0.143895 0.409200 -0.824000 1 0 1.000000 
0 44.708900 28.937302 88.688797 0.984705 0.034400 -0.170801 0.621200 -0.268600 1 0 1.000000 
rockcliff02a
0 44.708900 28.937302 88.688797 0.984705 0.034400 -0.170801 0.621200 -0.268600 1 0 1.000000 
0 20.011501 -25.322500 -53.497200 0.986963 -0.072097 -0.143895 0.409200 -0.824000 1 0 1.000000 
0 19.225201 -14.836199 -70.865196 0.983004 0.060000 -0.173501 0.450200 -0.891800 1 0 1.000000 
rockcliff02a
0 19.225201 -14.836199 -70.865196 0.983004 0.060000 -0.173501 0.450200 -0.891800 1 0 1.000000 
0 10.512499 18.788200 -70.672203 0.944371 0.245992 -0.218293 0.527200 -0.893200 1 0 1.000000 
0 44.708900 28.937302 88.688797 0.984705 0.034400 -0.170801 0.621200 -0.268600 1 0 1.000000 
rockcliff02a
0 5.038702 -36.558601 105.378899 0.100995 -0.994855 -0.008000 0.333800 -0.180300 1 0 1.000000 
0 20.011501 -25.322500 -53.497200 0.144804 -0.987930 -0.055002 0.392200 -0.800900 1 0 1.000000 
0 43.792301 -37.781895 82.610397 -0.041898 -0.998965 -0.017699 0.485100 -0.269200 1 0 1.000000 
rockcliff02a
0 -32.922997 -46.026901 101.476402 0.252912 -0.966546 -0.042702 0.185500 -0.195500 1 0 1.000000 
0 20.011501 -25.322500 -53.497200 0.144804 -0.987930 -0.055002 0.392200 -0.800900 1 0 1.000000 
0 5.038702 -36.558601 105.378899 0.100995 -0.994855 -0.008000 0.333800 -0.180300 1 0 1.000000 
rockcliff02a
0 -32.922997 -46.026901 101.476402 0.252912 -0.966546 -0.042702 0.185500 -0.195500 1 0 1.000000 
0 -22.438297 -37.152100 -43.815498 0.259713 -0.964849 -0.040202 0.226400 -0.763100 1 0 1.000000 
0 20.011501 -25.322500 -53.497200 0.144804 -0.987930 -0.055002 0.392200 -0.800900 1 0 1.000000 
rockcliff02a
0 -22.516800 -14.085301 -70.268402 -0.022700 -0.867286 -0.497292 0.226100 -0.866400 1 0 1.000000 
0 19.225201 -14.836199 -70.865196 -0.022700 -0.867286 -0.497292 0.389200 -0.868800 1 0 1.000000 
0 20.011501 -25.322500 -53.497200 -0.029399 -0.856274 -0.515684 0.392200 -0.800900 1 0 1.000000 
rockcliff02a
0 -41.704601 -20.864202 117.934898 -0.976908 0.192502 -0.092701 0.493600 -0.109500 1 0 1.000000 
0 -30.565401 37.668701 122.066498 -0.976504 0.194301 -0.093200 0.722200 -0.093400 1 0 1.000000 
0 -22.516800 -14.085301 -70.268402 -0.976504 0.194301 -0.093200 0.520000 -0.844700 1 0 1.000000 
rockcliff02a
0 -22.516800 -14.085301 -70.268402 -0.976504 0.194301 -0.093200 0.520000 -0.844700 1 0 1.000000 
0 -30.565401 37.668701 122.066498 -0.976504 0.194301 -0.093200 0.722200 -0.093400 1 0 1.000000 
0 -15.810901 19.261801 -70.295898 -0.976087 0.196197 -0.093599 0.610200 -0.845600 1 0 1.000000 
rockcliff02a
0 44.708900 28.937302 88.688797 0.814514 0.006300 0.580110 0.621200 -0.268600 1 0 1.000000 
0 20.712599 36.718899 122.300003 0.814514 0.006300 0.580110 0.651600 -0.137300 1 0 1.000000 
0 44.125900 -22.065298 90.064796 0.814514 0.006300 0.580110 0.421900 -0.263200 1 0 1.000000 
rockcliff02a
0 5.038702 -36.558601 105.378899 0.457503 -0.389002 0.799605 0.333800 -0.180300 1 0 1.000000 
0 43.792301 -37.781895 82.610397 0.457503 -0.389002 0.799605 0.485100 -0.269200 1 0 1.000000 
0 44.125900 -22.065298 90.064796 0.457503 -0.389002 0.799605 0.486400 -0.240100 1 0 1.000000 
rockcliff02a
0 -32.922997 -46.026901 101.476402 0.088299 -0.661092 0.745091 0.185500 -0.195500 1 0 1.000000 
0 5.038702 -36.558601 105.378899 0.088299 -0.661092 0.745091 0.333800 -0.180300 1 0 1.000000 
0 5.636100 -8.624300 130.090607 0.088299 -0.661092 0.745091 0.335100 -0.132600 1 0 1.000000 
rockcliff02a
0 -41.704601 -20.864202 117.934898 -0.986725 -0.123803 -0.105103 0.493600 -0.109500 1 0 1.000000 
0 -22.516800 -14.085301 -70.268402 -0.986725 -0.123803 -0.105103 0.491200 -0.793300 1 0 1.000000 
0 -22.438297 -37.152100 -43.815498 -0.986725 -0.123803 -0.105103 0.429900 -0.741300 1 0 1.000000 
rockcliff02a
0 44.125900 -22.065298 90.064796 0.474594 -0.588892 0.654191 0.486400 -0.240100 1 0 1.000000 
0 5.636100 -8.624300 130.090607 0.474594 -0.588892 0.654191 0.335100 -0.132600 1 0 1.000000 
0 5.038702 -36.558601 105.378899 0.474594 -0.588892 0.654191 0.333800 -0.180300 1 0 1.000000 
rockcliff02a
0 20.011501 -25.322500 -53.497200 0.059999 -0.752291 -0.656093 0.392200 -0.800900 1 0 1.000000 
0 -22.438297 -37.152100 -43.815498 0.059999 -0.752291 -0.656093 0.226400 -0.763100 1 0 1.000000 
0 -22.516800 -14.085301 -70.268402 0.059999 -0.752291 -0.656093 0.200300 -0.815000 1 0 1.000000 
rockcliff02a
0 20.011501 -25.322500 -53.497200 0.984289 0.058199 -0.166698 0.402000 -0.824600 1 0 1.000000 
0 44.125900 -22.065298 90.064796 0.984289 0.058199 -0.166698 0.414700 -0.263800 1 0 1.000000 
0 43.792301 -37.781895 82.610397 0.984289 0.058199 -0.166698 0.353300 -0.293000 1 0 1.000000 
rockcliff02a
0 5.636100 -8.624300 130.090607 -0.066298 -0.562287 0.824280 0.335100 -0.132600 1 0 1.000000 
0 -41.704601 -20.864202 117.934898 -0.066298 -0.562287 0.824280 0.151200 -0.131200 1 0 1.000000 
0 -32.922997 -46.026901 101.476402 -0.066298 -0.562287 0.824280 0.185500 -0.195500 1 0 1.000000 
rockcliff02a
0 -30.565401 37.668701 122.066498 0.019099 0.976955 -0.212590 0.391900 -0.145800 1 0 1.000000 
0 20.712599 36.718899 122.300003 0.019099 0.976955 -0.212590 0.592200 -0.144900 1 0 1.000000 
0 44.708900 28.937302 88.688797 0.019099 0.976955 -0.212590 0.643600 -0.262100 1 0 1.000000 
rockcliff02a
0 -22.438297 -37.152100 -43.815498 -0.956810 -0.277703 -0.086001 0.429900 -0.741300 1 0 1.000000 
0 -32.922997 -46.026901 101.476402 -0.956810 -0.277703 -0.086001 0.395300 -0.173800 1 0 1.000000 
0 -41.704601 -20.864202 117.934898 -0.956810 -0.277703 -0.086001 0.493600 -0.109500 1 0 1.000000 
end
