version 1
nodes
  0 "static_prop" -1
end
skeleton
time 0
0 0.000000 0.000000 0.000000 0.000000 0.000000 0.000000
end
triangles
barrelbottom01a
0 6.319600 13.655100 0.000000 0.000000 0.000000 -1.000000 0.500000 -0.200100 1 0 1.000000 
0 -4.513700 12.304200 0.000000 0.000000 0.000000 -1.000000 0.131800 -0.147300 1 0 1.000000 
0 0.617499 15.050400 0.000000 0.000000 0.000000 -1.000000 0.304900 -0.033700 1 0 1.000000 
barrelbottom01a
0 6.319600 13.655100 0.000000 0.000000 0.000000 -1.000000 0.500000 -0.200100 1 0 1.000000 
0 -10.203201 11.112000 0.000000 0.000000 0.000000 -1.000000 0.038500 -0.308800 1 0 1.000000 
0 -4.513700 12.304200 0.000000 0.000000 0.000000 -1.000000 0.131800 -0.147300 1 0 1.000000 
barrelbottom01a
0 6.319600 13.655100 0.000000 0.000000 0.000000 -1.000000 0.500000 -0.200100 1 0 1.000000 
0 -13.674400 6.377900 0.000000 0.000000 0.000000 -1.000000 0.000500 -0.500000 1 0 1.000000 
0 -10.203201 11.112000 0.000000 0.000000 0.000000 -1.000000 0.038500 -0.308800 1 0 1.000000 
barrelbottom01a
0 6.319600 13.655100 0.000000 0.000000 0.000000 -1.000000 0.500000 -0.200100 1 0 1.000000 
0 -15.069700 0.675699 0.000000 0.000000 0.000000 -1.000000 0.038500 -0.691200 1 0 1.000000 
0 -13.674400 6.377900 0.000000 0.000000 0.000000 -1.000000 0.000500 -0.500000 1 0 1.000000 
barrelbottom01a
0 6.319600 13.655100 0.000000 0.000000 0.000000 -1.000000 0.500000 -0.200100 1 0 1.000000 
0 -14.176700 -5.126300 0.000000 0.000000 0.000000 -1.000000 0.146800 -0.853200 1 0 1.000000 
0 -15.069700 0.675699 0.000000 0.000000 0.000000 -1.000000 0.038500 -0.691200 1 0 1.000000 
barrelbottom01a
0 6.319600 13.655100 0.000000 0.000000 0.000000 -1.000000 0.500000 -0.200100 1 0 1.000000 
0 -11.131300 -10.144901 0.000000 0.000000 0.000000 -1.000000 0.308800 -0.961500 1 0 1.000000 
0 -14.176700 -5.126300 0.000000 0.000000 0.000000 -1.000000 0.146800 -0.853200 1 0 1.000000 
barrelbottom01a
0 6.319600 13.655100 0.000000 0.000000 0.000000 -1.000000 0.500000 -0.200100 1 0 1.000000 
0 -6.397200 -13.616100 0.000000 0.000000 0.000000 -1.000000 0.500000 -0.999500 1 0 1.000000 
0 -11.131300 -10.144901 0.000000 0.000000 0.000000 -1.000000 0.308800 -0.961500 1 0 1.000000 
barrelbottom01a
0 6.319600 13.655100 0.000000 0.000000 0.000000 -1.000000 0.500000 -0.200100 1 0 1.000000 
0 -0.695099 -15.011400 0.000000 0.000000 0.000000 -1.000000 0.691200 -0.961500 1 0 1.000000 
0 -6.397200 -13.616100 0.000000 0.000000 0.000000 -1.000000 0.500000 -0.999500 1 0 1.000000 
barrelbottom01a
0 6.319600 13.655100 0.000000 0.000000 0.000000 -1.000000 0.500000 -0.200100 1 0 1.000000 
0 5.107000 -14.118400 0.000000 0.000000 0.000000 -1.000000 0.853200 -0.853200 1 0 1.000000 
0 -0.695099 -15.011400 0.000000 0.000000 0.000000 -1.000000 0.691200 -0.961500 1 0 1.000000 
barrelbottom01a
0 6.319600 13.655100 0.000000 0.000000 0.000000 -1.000000 0.500000 -0.200100 1 0 1.000000 
0 10.125601 -11.073000 0.000000 0.000000 0.000000 -1.000000 0.961500 -0.691200 1 0 1.000000 
0 5.107000 -14.118400 0.000000 0.000000 0.000000 -1.000000 0.853200 -0.853200 1 0 1.000000 
barrelbottom01a
0 6.319600 13.655100 0.000000 0.000000 0.000000 -1.000000 0.500000 -0.200100 1 0 1.000000 
0 13.596800 -6.338900 0.000000 0.000000 0.000000 -1.000000 0.999500 -0.500000 1 0 1.000000 
0 10.125601 -11.073000 0.000000 0.000000 0.000000 -1.000000 0.961500 -0.691200 1 0 1.000000 
barrelbottom01a
0 6.319600 13.655100 0.000000 0.000000 0.000000 -1.000000 0.500000 -0.200100 1 0 1.000000 
0 14.992100 -0.636799 0.000000 0.000000 0.000000 -1.000000 0.961500 -0.308800 1 0 1.000000 
0 13.596800 -6.338900 0.000000 0.000000 0.000000 -1.000000 0.999500 -0.500000 1 0 1.000000 
barrelbottom01a
0 6.319600 13.655100 0.000000 0.000000 0.000000 -1.000000 0.500000 -0.200100 1 0 1.000000 
0 14.099100 5.165201 0.000000 0.000000 0.000000 -1.000000 0.853200 -0.146800 1 0 1.000000 
0 14.992100 -0.636799 0.000000 0.000000 0.000000 -1.000000 0.961500 -0.308800 1 0 1.000000 
barrelbottom01a
0 6.319600 13.655100 0.000000 0.000000 0.000000 -1.000000 0.500000 -0.200100 1 0 1.000000 
0 11.053700 10.183901 0.000000 0.000000 0.000000 -1.000000 0.691200 -0.038500 1 0 1.000000 
0 14.099100 5.165201 0.000000 0.000000 0.000000 -1.000000 0.853200 -0.146800 1 0 1.000000 
barrelside01a
0 -12.400000 6.095200 1.741300 -0.714213 0.335806 0.614112 -0.053300 -0.963300 1 0 1.000000 
0 -13.674400 6.377900 0.000000 -0.714213 0.335806 0.614112 -0.050000 -0.999500 1 0 1.000000 
0 -15.069700 0.675699 0.000000 -0.759504 0.185801 0.623403 0.012500 -0.999500 1 0 1.000000 
barrelside01a
0 3.191200 -12.914200 14.714500 0.230003 -0.952813 -0.198103 0.308400 -0.693400 1 0 1.000000 
0 -1.785699 -13.687200 12.522900 0.027900 -0.992297 -0.120700 0.249300 -0.739000 1 0 1.000000 
0 8.203400 -10.147700 12.522900 0.304206 -0.858515 -0.412807 0.377900 -0.739000 1 0 1.000000 
barrelside01a
0 -1.703999 -13.616100 14.714500 -0.116898 -0.992382 0.038899 0.250100 -0.693400 1 0 1.000000 
0 -1.785699 -13.687200 12.522900 0.027900 -0.992297 -0.120700 0.249300 -0.739000 1 0 1.000000 
0 3.191200 -12.914200 14.714500 0.230003 -0.952813 -0.198103 0.308400 -0.693400 1 0 1.000000 
barrelside01a
0 -1.785699 -13.687200 12.522900 0.027900 -0.992297 -0.120700 0.249300 -0.739000 1 0 1.000000 
0 -1.703999 -13.616100 14.714500 -0.116898 -0.992382 0.038899 0.250100 -0.693400 1 0 1.000000 
0 -9.452900 -10.593600 13.719000 -0.367899 -0.928697 0.046600 0.154000 -0.714100 1 0 1.000000 
barrelside01a
0 -15.032000 -5.437601 13.719000 -0.487319 -0.527320 0.696027 0.075000 -0.714100 1 0 1.000000 
0 -9.452900 -10.593600 13.719000 -0.387305 -0.609308 0.691909 0.154000 -0.714100 1 0 1.000000 
0 -8.781800 -9.978700 14.714500 -0.446098 -0.585497 0.676897 0.155100 -0.693400 1 0 1.000000 
barrelside01a
0 -9.452900 -10.593600 13.719000 -0.387305 -0.609308 0.691909 0.154000 -0.714100 1 0 1.000000 
0 -1.703999 -13.616100 14.714500 -0.337706 -0.657011 0.674011 0.250100 -0.693400 1 0 1.000000 
0 -8.781800 -9.978700 14.714500 -0.446098 -0.585497 0.676897 0.155100 -0.693400 1 0 1.000000 
barrelside01a
0 -13.674400 6.377900 0.000000 -0.714213 0.335806 0.614112 0.950000 -0.999500 1 0 1.000000 
0 -12.400000 6.095200 1.741300 -0.714213 0.335806 0.614112 0.946700 -0.963300 1 0 1.000000 
0 -10.203201 11.112000 0.000000 -0.651325 0.477619 0.589623 0.887500 -0.999500 1 0 1.000000 
barrelside01a
0 -15.979100 0.715399 13.719000 -0.995129 0.081202 -0.055902 0.012500 -0.714100 1 0 1.000000 
0 -15.032000 -5.437601 34.297600 -0.913440 -0.402718 0.058703 0.075000 -0.285900 1 0 1.000000 
0 -15.979100 0.715399 34.297600 -0.975886 0.210297 0.058499 0.012500 -0.285900 1 0 1.000000 
barrelside01a
0 -15.979100 0.715399 13.719000 -0.995129 0.081202 -0.055902 0.012500 -0.714100 1 0 1.000000 
0 -15.032000 -5.437601 13.719000 -0.893800 -0.444700 -0.058000 0.075000 -0.714100 1 0 1.000000 
0 -15.032000 -5.437601 34.297600 -0.913440 -0.402718 0.058703 0.075000 -0.285900 1 0 1.000000 
barrelside01a
0 -15.032000 -5.437601 13.719000 -0.893800 -0.444700 -0.058000 0.075000 -0.714100 1 0 1.000000 
0 -11.802400 -10.759901 34.297600 -0.689808 -0.721609 0.058701 0.137500 -0.285900 1 0 1.000000 
0 -15.032000 -5.437601 34.297600 -0.913440 -0.402718 0.058703 0.075000 -0.285900 1 0 1.000000 
barrelside01a
0 -15.032000 -5.437601 13.719000 -0.893800 -0.444700 -0.058000 0.075000 -0.714100 1 0 1.000000 
0 -8.781800 -9.978700 14.714500 -0.572594 -0.813292 -0.103399 0.155100 -0.693400 1 0 1.000000 
0 -11.802400 -10.759901 34.297600 -0.689808 -0.721609 0.058701 0.137500 -0.285900 1 0 1.000000 
barrelside01a
0 -8.781800 -9.978700 14.714500 -0.572594 -0.813292 -0.103399 0.155100 -0.693400 1 0 1.000000 
0 -6.781899 -14.441100 34.297600 -0.397900 -0.916599 -0.039000 0.200000 -0.285900 1 0 1.000000 
0 -11.802400 -10.759901 34.297600 -0.689808 -0.721609 0.058701 0.137500 -0.285900 1 0 1.000000 
barrelside01a
0 -8.781800 -9.978700 14.714500 -0.572594 -0.813292 -0.103399 0.155100 -0.693400 1 0 1.000000 
0 -1.703999 -13.616100 14.714500 -0.189191 -0.977354 -0.094796 0.250100 -0.693400 1 0 1.000000 
0 -6.781899 -14.441100 34.297600 -0.397900 -0.916599 -0.039000 0.200000 -0.285900 1 0 1.000000 
barrelside01a
0 -1.703999 -13.616100 14.714500 -0.189191 -0.977354 -0.094796 0.250100 -0.693400 1 0 1.000000 
0 -0.734799 -15.920800 34.297600 0.058401 -0.997413 0.041901 0.262500 -0.285900 1 0 1.000000 
0 -6.781899 -14.441100 34.297600 -0.397900 -0.916599 -0.039000 0.200000 -0.285900 1 0 1.000000 
barrelside01a
0 -1.703999 -13.616100 14.714500 -0.189191 -0.977354 -0.094796 0.250100 -0.693400 1 0 1.000000 
0 3.191200 -12.914200 14.714500 0.363594 -0.928485 -0.075599 0.308400 -0.693400 1 0 1.000000 
0 -0.734799 -15.920800 34.297600 0.058401 -0.997413 0.041901 0.262500 -0.285900 1 0 1.000000 
barrelside01a
0 3.191200 -12.914200 14.714500 0.363594 -0.928485 -0.075599 0.308400 -0.693400 1 0 1.000000 
0 5.418301 -14.973800 34.297600 0.379005 -0.925113 -0.022800 0.325000 -0.285900 1 0 1.000000 
0 -0.734799 -15.920800 34.297600 0.058401 -0.997413 0.041901 0.262500 -0.285900 1 0 1.000000 
barrelside01a
0 3.191200 -12.914200 14.714500 0.363594 -0.928485 -0.075599 0.308400 -0.693400 1 0 1.000000 
0 10.740601 -11.744100 34.297600 0.742799 -0.665599 -0.072300 0.387500 -0.285900 1 0 1.000000 
0 5.418301 -14.973800 34.297600 0.379005 -0.925113 -0.022800 0.325000 -0.285900 1 0 1.000000 
barrelside01a
0 3.191200 -12.914200 14.714500 0.363594 -0.928485 -0.075599 0.308400 -0.693400 1 0 1.000000 
0 8.203400 -10.147700 12.522900 0.564288 -0.822182 0.074798 0.377900 -0.739000 1 0 1.000000 
0 10.740601 -11.744100 34.297600 0.742799 -0.665599 -0.072300 0.387500 -0.285900 1 0 1.000000 
barrelside01a
0 8.203400 -10.147700 12.522900 0.564288 -0.822182 0.074798 0.377900 -0.739000 1 0 1.000000 
0 12.811400 -5.328700 35.645401 0.913970 -0.404987 0.025399 0.456700 -0.257900 1 0 1.000000 
0 10.740601 -11.744100 34.297600 0.742799 -0.665599 -0.072300 0.387500 -0.285900 1 0 1.000000 
barrelside01a
0 8.203400 -10.147700 12.522900 0.564288 -0.822182 0.074798 0.377900 -0.739000 1 0 1.000000 
0 14.421800 -6.723599 13.719000 0.802015 -0.596211 0.036101 0.450000 -0.714100 1 0 1.000000 
0 12.811400 -5.328700 35.645401 0.913970 -0.404987 0.025399 0.456700 -0.257900 1 0 1.000000 
barrelside01a
0 14.421800 -6.723599 13.719000 0.802015 -0.596211 0.036101 0.450000 -0.714100 1 0 1.000000 
0 15.901500 -0.676499 34.297600 0.960609 -0.211302 0.180502 0.512500 -0.285900 1 0 1.000000 
0 12.811400 -5.328700 35.645401 0.913970 -0.404987 0.025399 0.456700 -0.257900 1 0 1.000000 
barrelside01a
0 14.421800 -6.723599 13.719000 0.802015 -0.596211 0.036101 0.450000 -0.714100 1 0 1.000000 
0 15.901500 -0.676499 13.719000 0.998433 -0.043501 -0.035201 0.512500 -0.714100 1 0 1.000000 
0 15.901500 -0.676499 34.297600 0.960609 -0.211302 0.180502 0.512500 -0.285900 1 0 1.000000 
barrelside01a
0 15.901500 -0.676499 13.719000 0.998433 -0.043501 -0.035201 0.512500 -0.714100 1 0 1.000000 
0 14.954400 5.476601 34.297600 0.913440 0.402718 0.058703 0.575000 -0.285900 1 0 1.000000 
0 15.901500 -0.676499 34.297600 0.960609 -0.211302 0.180502 0.512500 -0.285900 1 0 1.000000 
barrelside01a
0 15.901500 -0.676499 13.719000 0.998433 -0.043501 -0.035201 0.512500 -0.714100 1 0 1.000000 
0 14.954400 5.476601 13.719000 0.942593 0.318398 -0.100699 0.575000 -0.714100 1 0 1.000000 
0 14.954400 5.476601 34.297600 0.913440 0.402718 0.058703 0.575000 -0.285900 1 0 1.000000 
barrelside01a
0 14.954400 5.476601 13.719000 0.942593 0.318398 -0.100699 0.575000 -0.714100 1 0 1.000000 
0 11.724800 10.798801 34.297600 0.689808 0.721609 0.058701 0.637500 -0.285900 1 0 1.000000 
0 14.954400 5.476601 34.297600 0.913440 0.402718 0.058703 0.575000 -0.285900 1 0 1.000000 
barrelside01a
0 -0.734799 -15.920800 34.297600 0.058401 -0.997413 0.041901 0.262500 -0.285900 1 0 1.000000 
0 -0.701599 -15.161800 48.016701 -0.109605 -0.993948 0.007300 0.262500 -0.000500 1 0 1.000000 
0 -6.781899 -14.441100 34.297600 -0.397900 -0.916599 -0.039000 0.200000 -0.285900 1 0 1.000000 
barrelside01a
0 -0.701599 -15.161800 48.016701 -0.109605 -0.993948 0.007300 0.262500 -0.000500 1 0 1.000000 
0 -0.734799 -15.920800 34.297600 0.058401 -0.997413 0.041901 0.262500 -0.285900 1 0 1.000000 
0 5.158401 -14.259800 48.016701 0.279109 -0.960231 0.007300 0.325000 -0.000500 1 0 1.000000 
barrelside01a
0 5.418301 -14.973800 34.297600 0.379005 -0.925113 -0.022800 0.325000 -0.285900 1 0 1.000000 
0 5.158401 -14.259800 48.016701 0.279109 -0.960231 0.007300 0.325000 -0.000500 1 0 1.000000 
0 -0.734799 -15.920800 34.297600 0.058401 -0.997413 0.041901 0.262500 -0.285900 1 0 1.000000 
barrelside01a
0 5.158401 -14.259800 48.016701 0.279109 -0.960231 0.007300 0.325000 -0.000500 1 0 1.000000 
0 5.418301 -14.973800 34.297600 0.379005 -0.925113 -0.022800 0.325000 -0.285900 1 0 1.000000 
0 10.227301 -11.184000 48.016701 0.625324 -0.780331 0.007300 0.387500 -0.000500 1 0 1.000000 
barrelside01a
0 10.740601 -11.744100 34.297600 0.742799 -0.665599 -0.072300 0.387500 -0.285900 1 0 1.000000 
0 10.227301 -11.184000 48.016701 0.625324 -0.780331 0.007300 0.387500 -0.000500 1 0 1.000000 
0 5.418301 -14.973800 34.297600 0.379005 -0.925113 -0.022800 0.325000 -0.285900 1 0 1.000000 
barrelside01a
0 10.227301 -11.184000 48.016701 0.625324 -0.780331 0.007300 0.387500 -0.000500 1 0 1.000000 
0 10.740601 -11.744100 34.297600 0.742799 -0.665599 -0.072300 0.387500 -0.285900 1 0 1.000000 
0 13.733200 -6.402500 48.016701 0.956672 -0.285392 -0.057698 0.450000 -0.000500 1 0 1.000000 
barrelside01a
0 12.811400 -5.328700 35.645401 0.913970 -0.404987 0.025399 0.456700 -0.257900 1 0 1.000000 
0 13.733200 -6.402500 48.016701 0.956672 -0.285392 -0.057698 0.450000 -0.000500 1 0 1.000000 
0 10.740601 -11.744100 34.297600 0.742799 -0.665599 -0.072300 0.387500 -0.285900 1 0 1.000000 
barrelside01a
0 13.733200 -6.402500 48.016701 0.956672 -0.285392 -0.057698 0.450000 -0.000500 1 0 1.000000 
0 12.811400 -5.328700 35.645401 0.913970 -0.404987 0.025399 0.456700 -0.257900 1 0 1.000000 
0 12.664900 -0.408199 48.016701 0.974560 -0.187492 0.122795 0.514100 -0.000500 1 0 1.000000 
barrelside01a
0 15.901500 -0.676499 34.297600 0.960609 -0.211302 0.180502 0.512500 -0.285900 1 0 1.000000 
0 12.664900 -0.408199 48.016701 0.974560 -0.187492 0.122795 0.514100 -0.000500 1 0 1.000000 
0 12.811400 -5.328700 35.645401 0.913970 -0.404987 0.025399 0.456700 -0.257900 1 0 1.000000 
barrelside01a
0 12.664900 -0.408199 48.016701 0.974560 -0.187492 0.122795 0.514100 -0.000500 1 0 1.000000 
0 15.901500 -0.676499 34.297600 0.960609 -0.211302 0.180502 0.512500 -0.285900 1 0 1.000000 
0 14.240500 5.216701 48.016701 0.986263 0.144295 0.080397 0.575000 -0.000500 1 0 1.000000 
barrelside01a
0 14.954400 5.476601 34.297600 0.913440 0.402718 0.058703 0.575000 -0.285900 1 0 1.000000 
0 14.240500 5.216701 48.016701 0.986263 0.144295 0.080397 0.575000 -0.000500 1 0 1.000000 
0 15.901500 -0.676499 34.297600 0.960609 -0.211302 0.180502 0.512500 -0.285900 1 0 1.000000 
barrelside01a
0 14.240500 5.216701 48.016701 0.986263 0.144295 0.080397 0.575000 -0.000500 1 0 1.000000 
0 14.954400 5.476601 34.297600 0.913440 0.402718 0.058703 0.575000 -0.285900 1 0 1.000000 
0 11.164600 10.285501 48.016701 0.780331 0.625324 0.007300 0.637500 -0.000500 1 0 1.000000 
barrelside01a
0 11.724800 10.798801 34.297600 0.689808 0.721609 0.058701 0.637500 -0.285900 1 0 1.000000 
0 11.164600 10.285501 48.016701 0.780331 0.625324 0.007300 0.637500 -0.000500 1 0 1.000000 
0 14.954400 5.476601 34.297600 0.913440 0.402718 0.058703 0.575000 -0.285900 1 0 1.000000 
barrelside01a
0 11.164600 10.285501 48.016701 0.780331 0.625324 0.007300 0.637500 -0.000500 1 0 1.000000 
0 11.724800 10.798801 34.297600 0.689808 0.721609 0.058701 0.637500 -0.285900 1 0 1.000000 
0 6.383200 13.791400 48.016701 0.481626 0.876347 0.007300 0.700000 -0.000500 1 0 1.000000 
barrelside01a
0 6.704299 14.480000 34.297600 0.361092 0.930681 0.058699 0.700000 -0.285900 1 0 1.000000 
0 6.383200 13.791400 48.016701 0.481626 0.876347 0.007300 0.700000 -0.000500 1 0 1.000000 
0 11.724800 10.798801 34.297600 0.689808 0.721609 0.058701 0.637500 -0.285900 1 0 1.000000 
barrelside01a
0 6.383200 13.791400 48.016701 0.481626 0.876347 0.007300 0.700000 -0.000500 1 0 1.000000 
0 6.704299 14.480000 34.297600 0.361092 0.930681 0.058699 0.700000 -0.285900 1 0 1.000000 
0 0.623999 15.200700 48.016701 0.109605 0.993948 0.007300 0.762500 -0.000500 1 0 1.000000 
barrelside01a
0 0.657199 15.959700 34.297600 -0.022501 0.998022 0.058701 0.762500 -0.285900 1 0 1.000000 
0 0.623999 15.200700 48.016701 0.109605 0.993948 0.007300 0.762500 -0.000500 1 0 1.000000 
0 6.704299 14.480000 34.297600 0.361092 0.930681 0.058699 0.700000 -0.285900 1 0 1.000000 
barrelside01a
0 0.623999 15.200700 48.016701 0.109605 0.993948 0.007300 0.762500 -0.000500 1 0 1.000000 
0 0.657199 15.959700 34.297600 -0.022501 0.998022 0.058701 0.762500 -0.285900 1 0 1.000000 
0 -5.236001 14.298700 48.016701 -0.279109 0.960231 0.007300 0.825000 -0.000500 1 0 1.000000 
barrelside01a
0 14.954400 5.476601 13.719000 0.942593 0.318398 -0.100699 0.575000 -0.714100 1 0 1.000000 
0 11.724800 10.798801 13.719000 0.778410 0.623808 -0.070301 0.637500 -0.714100 1 0 1.000000 
0 11.724800 10.798801 34.297600 0.689808 0.721609 0.058701 0.637500 -0.285900 1 0 1.000000 
barrelside01a
0 11.724800 10.798801 13.719000 0.778410 0.623808 -0.070301 0.637500 -0.714100 1 0 1.000000 
0 6.704299 14.480000 34.297600 0.361092 0.930681 0.058699 0.700000 -0.285900 1 0 1.000000 
0 11.724800 10.798801 34.297600 0.689808 0.721609 0.058701 0.637500 -0.285900 1 0 1.000000 
barrelside01a
0 11.724800 10.798801 13.719000 0.778410 0.623808 -0.070301 0.637500 -0.714100 1 0 1.000000 
0 6.704299 14.480000 13.719000 0.480488 0.874179 -0.070298 0.700000 -0.714100 1 0 1.000000 
0 6.704299 14.480000 34.297600 0.361092 0.930681 0.058699 0.700000 -0.285900 1 0 1.000000 
barrelside01a
0 6.704299 14.480000 13.719000 0.480488 0.874179 -0.070298 0.700000 -0.714100 1 0 1.000000 
0 0.657199 15.959700 34.297600 -0.022501 0.998022 0.058701 0.762500 -0.285900 1 0 1.000000 
0 6.704299 14.480000 34.297600 0.361092 0.930681 0.058699 0.700000 -0.285900 1 0 1.000000 
barrelside01a
0 6.704299 14.480000 13.719000 0.480488 0.874179 -0.070298 0.700000 -0.714100 1 0 1.000000 
0 0.657199 15.959700 13.719000 0.109302 0.991519 -0.070301 0.762500 -0.714100 1 0 1.000000 
0 0.657199 15.959700 34.297600 -0.022501 0.998022 0.058701 0.762500 -0.285900 1 0 1.000000 
barrelside01a
0 0.657199 15.959700 13.719000 0.109302 0.991519 -0.070301 0.762500 -0.714100 1 0 1.000000 
0 -5.495901 15.012700 34.297600 -0.402718 0.913440 0.058703 0.825000 -0.285900 1 0 1.000000 
0 0.657199 15.959700 34.297600 -0.022501 0.998022 0.058701 0.762500 -0.285900 1 0 1.000000 
barrelside01a
0 0.657199 15.959700 13.719000 0.109302 0.991519 -0.070301 0.762500 -0.714100 1 0 1.000000 
0 -5.495901 15.012700 13.719000 -0.379582 0.909556 -0.169192 0.825000 -0.714100 1 0 1.000000 
0 -5.495901 15.012700 34.297600 -0.402718 0.913440 0.058703 0.825000 -0.285900 1 0 1.000000 
barrelside01a
0 -5.495901 15.012700 13.719000 -0.379582 0.909556 -0.169192 0.825000 -0.714100 1 0 1.000000 
0 -10.818201 11.783100 34.297600 -0.805328 0.592821 -0.003200 0.887500 -0.285900 1 0 1.000000 
0 -5.495901 15.012700 34.297600 -0.402718 0.913440 0.058703 0.825000 -0.285900 1 0 1.000000 
barrelside01a
0 -5.495901 15.012700 13.719000 -0.379582 0.909556 -0.169192 0.825000 -0.714100 1 0 1.000000 
0 -10.818201 11.783100 13.719000 -0.696379 0.716978 -0.031599 0.887500 -0.714100 1 0 1.000000 
0 -10.818201 11.783100 34.297600 -0.805328 0.592821 -0.003200 0.887500 -0.285900 1 0 1.000000 
barrelside01a
0 -5.495901 15.012700 13.719000 -0.379582 0.909556 -0.169192 0.825000 -0.714100 1 0 1.000000 
0 -4.513700 12.304200 0.000000 -0.443611 0.885421 -0.138703 0.825000 -0.999500 1 0 1.000000 
0 -10.818201 11.783100 13.719000 -0.696379 0.716978 -0.031599 0.887500 -0.714100 1 0 1.000000 
barrelside01a
0 -10.203201 11.112000 0.000000 -0.706280 0.698080 -0.117697 0.887500 -0.999500 1 0 1.000000 
0 -10.818201 11.783100 13.719000 -0.696379 0.716978 -0.031599 0.887500 -0.714100 1 0 1.000000 
0 -4.513700 12.304200 0.000000 -0.443611 0.885421 -0.138703 0.825000 -0.999500 1 0 1.000000 
barrelside01a
0 -5.495901 15.012700 34.297600 -0.402718 0.913440 0.058703 0.825000 -0.285900 1 0 1.000000 
0 -5.236001 14.298700 48.016701 -0.279109 0.960231 0.007300 0.825000 -0.000500 1 0 1.000000 
0 0.657199 15.959700 34.297600 -0.022501 0.998022 0.058701 0.762500 -0.285900 1 0 1.000000 
barrelside01a
0 -5.236001 14.298700 48.016701 -0.279109 0.960231 0.007300 0.825000 -0.000500 1 0 1.000000 
0 -5.495901 15.012700 34.297600 -0.402718 0.913440 0.058703 0.825000 -0.285900 1 0 1.000000 
0 -10.304901 11.222900 48.016701 -0.625324 0.780331 0.007300 0.887500 -0.000500 1 0 1.000000 
barrelside01a
0 -10.818201 11.783100 34.297600 -0.805328 0.592821 -0.003200 0.887500 -0.285900 1 0 1.000000 
0 -10.304901 11.222900 48.016701 -0.625324 0.780331 0.007300 0.887500 -0.000500 1 0 1.000000 
0 -5.495901 15.012700 34.297600 -0.402718 0.913440 0.058703 0.825000 -0.285900 1 0 1.000000 
barrelside01a
0 -10.304901 11.222900 48.016701 -0.625324 0.780331 0.007300 0.887500 -0.000500 1 0 1.000000 
0 -10.818201 11.783100 34.297600 -0.805328 0.592821 -0.003200 0.887500 -0.285900 1 0 1.000000 
0 -13.810800 6.441400 48.016701 -0.925676 0.355791 -0.128597 0.950000 -0.000500 1 0 1.000000 
barrelside01a
0 -11.423400 5.632599 33.117199 -0.905470 0.424386 0.004600 0.946500 -0.310500 1 0 1.000000 
0 -13.810800 6.441400 48.016701 -0.925676 0.355791 -0.128597 0.950000 -0.000500 1 0 1.000000 
0 -10.818201 11.783100 34.297600 -0.805328 0.592821 -0.003200 0.887500 -0.285900 1 0 1.000000 
barrelside01a
0 -10.818201 11.783100 13.719000 -0.696379 0.716978 -0.031599 0.887500 -0.714100 1 0 1.000000 
0 -11.423400 5.632599 33.117199 -0.905470 0.424386 0.004600 0.946500 -0.310500 1 0 1.000000 
0 -10.818201 11.783100 34.297600 -0.805328 0.592821 -0.003200 0.887500 -0.285900 1 0 1.000000 
barrelside01a
0 -10.818201 11.783100 13.719000 -0.696379 0.716978 -0.031599 0.887500 -0.714100 1 0 1.000000 
0 -14.499400 6.762499 13.719000 -0.887309 0.460705 -0.020800 0.950000 -0.714100 1 0 1.000000 
0 -11.423400 5.632599 33.117199 -0.905470 0.424386 0.004600 0.946500 -0.310500 1 0 1.000000 
barrelside01a
0 -10.818201 11.783100 13.719000 -0.696379 0.716978 -0.031599 0.887500 -0.714100 1 0 1.000000 
0 -10.203201 11.112000 0.000000 -0.706280 0.698080 -0.117697 0.887500 -0.999500 1 0 1.000000 
0 -14.499400 6.762499 13.719000 -0.887309 0.460705 -0.020800 0.950000 -0.714100 1 0 1.000000 
barrelside01a
0 -12.400000 6.095200 1.741300 -0.918208 0.384903 -0.093501 0.946700 -0.963300 1 0 1.000000 
0 -14.499400 6.762499 13.719000 -0.887309 0.460705 -0.020800 0.950000 -0.714100 1 0 1.000000 
0 -10.203201 11.112000 0.000000 -0.706280 0.698080 -0.117697 0.887500 -0.999500 1 0 1.000000 
barrelside01a
0 -4.513700 12.304200 0.000000 -0.443611 0.885421 -0.138703 0.825000 -0.999500 1 0 1.000000 
0 -5.495901 15.012700 13.719000 -0.379582 0.909556 -0.169192 0.825000 -0.714100 1 0 1.000000 
0 0.617499 15.050400 0.000000 -0.132699 0.989290 -0.060799 0.762500 -0.999500 1 0 1.000000 
barrelside01a
0 0.657199 15.959700 13.719000 0.109302 0.991519 -0.070301 0.762500 -0.714100 1 0 1.000000 
0 0.617499 15.050400 0.000000 -0.132699 0.989290 -0.060799 0.762500 -0.999500 1 0 1.000000 
0 -5.495901 15.012700 13.719000 -0.379582 0.909556 -0.169192 0.825000 -0.714100 1 0 1.000000 
barrelside01a
0 0.617499 15.050400 0.000000 -0.132699 0.989290 -0.060799 0.762500 -0.999500 1 0 1.000000 
0 0.657199 15.959700 13.719000 0.109302 0.991519 -0.070301 0.762500 -0.714100 1 0 1.000000 
0 6.319600 13.655100 0.000000 0.361698 0.932294 -0.001200 0.700000 -0.999500 1 0 1.000000 
barrelside01a
0 6.704299 14.480000 13.719000 0.480488 0.874179 -0.070298 0.700000 -0.714100 1 0 1.000000 
0 6.319600 13.655100 0.000000 0.361698 0.932294 -0.001200 0.700000 -0.999500 1 0 1.000000 
0 0.657199 15.959700 13.719000 0.109302 0.991519 -0.070301 0.762500 -0.714100 1 0 1.000000 
barrelside01a
0 6.319600 13.655100 0.000000 0.361698 0.932294 -0.001200 0.700000 -0.999500 1 0 1.000000 
0 6.704299 14.480000 13.719000 0.480488 0.874179 -0.070298 0.700000 -0.714100 1 0 1.000000 
0 11.053700 10.183901 0.000000 0.690977 0.722876 0.000100 0.637500 -0.999500 1 0 1.000000 
barrelside01a
0 11.724800 10.798801 13.719000 0.778410 0.623808 -0.070301 0.637500 -0.714100 1 0 1.000000 
0 11.053700 10.183901 0.000000 0.690977 0.722876 0.000100 0.637500 -0.999500 1 0 1.000000 
0 6.704299 14.480000 13.719000 0.480488 0.874179 -0.070298 0.700000 -0.714100 1 0 1.000000 
barrelside01a
0 11.053700 10.183901 0.000000 0.690977 0.722876 0.000100 0.637500 -0.999500 1 0 1.000000 
0 11.724800 10.798801 13.719000 0.778410 0.623808 -0.070301 0.637500 -0.714100 1 0 1.000000 
0 14.099100 5.165201 0.000000 0.912750 0.402422 -0.070304 0.575000 -0.999500 1 0 1.000000 
barrelside01a
0 14.954400 5.476601 13.719000 0.942593 0.318398 -0.100699 0.575000 -0.714100 1 0 1.000000 
0 14.099100 5.165201 0.000000 0.912750 0.402422 -0.070304 0.575000 -0.999500 1 0 1.000000 
0 11.724800 10.798801 13.719000 0.778410 0.623808 -0.070301 0.637500 -0.714100 1 0 1.000000 
barrelside01a
0 14.099100 5.165201 0.000000 0.912750 0.402422 -0.070304 0.575000 -0.999500 1 0 1.000000 
0 14.954400 5.476601 13.719000 0.942593 0.318398 -0.100699 0.575000 -0.714100 1 0 1.000000 
0 14.992100 -0.636799 0.000000 0.999358 -0.027199 -0.023299 0.512500 -0.999500 1 0 1.000000 
barrelside01a
0 14.954400 5.476601 13.719000 0.942593 0.318398 -0.100699 0.575000 -0.714100 1 0 1.000000 
0 15.901500 -0.676499 13.719000 0.998433 -0.043501 -0.035201 0.512500 -0.714100 1 0 1.000000 
0 14.992100 -0.636799 0.000000 0.999358 -0.027199 -0.023299 0.512500 -0.999500 1 0 1.000000 
barrelside01a
0 14.992100 -0.636799 0.000000 0.999358 -0.027199 -0.023299 0.512500 -0.999500 1 0 1.000000 
0 15.901500 -0.676499 13.719000 0.998433 -0.043501 -0.035201 0.512500 -0.714100 1 0 1.000000 
0 13.596800 -6.338900 0.000000 0.932295 -0.361698 -0.000700 0.450000 -0.999500 1 0 1.000000 
barrelside01a
0 14.421800 -6.723599 13.719000 0.802015 -0.596211 0.036101 0.450000 -0.714100 1 0 1.000000 
0 13.596800 -6.338900 0.000000 0.932295 -0.361698 -0.000700 0.450000 -0.999500 1 0 1.000000 
0 15.901500 -0.676499 13.719000 0.998433 -0.043501 -0.035201 0.512500 -0.714100 1 0 1.000000 
barrelside01a
0 13.596800 -6.338900 0.000000 0.932295 -0.361698 -0.000700 0.450000 -0.999500 1 0 1.000000 
0 14.421800 -6.723599 13.719000 0.802015 -0.596211 0.036101 0.450000 -0.714100 1 0 1.000000 
0 10.125601 -11.073000 0.000000 0.639509 -0.761811 0.103302 0.387500 -0.999500 1 0 1.000000 
barrelside01a
0 8.203400 -10.147700 12.522900 0.564288 -0.822182 0.074798 0.377900 -0.739000 1 0 1.000000 
0 10.125601 -11.073000 0.000000 0.639509 -0.761811 0.103302 0.387500 -0.999500 1 0 1.000000 
0 14.421800 -6.723599 13.719000 0.802015 -0.596211 0.036101 0.450000 -0.714100 1 0 1.000000 
barrelside01a
0 10.125601 -11.073000 0.000000 0.639509 -0.761811 0.103302 0.387500 -0.999500 1 0 1.000000 
0 8.203400 -10.147700 12.522900 0.564288 -0.822182 0.074798 0.377900 -0.739000 1 0 1.000000 
0 5.107000 -14.118400 0.000000 0.334294 -0.927284 0.168497 0.325000 -0.999500 1 0 1.000000 
barrelside01a
0 8.203400 -10.147700 12.522900 0.564288 -0.822182 0.074798 0.377900 -0.739000 1 0 1.000000 
0 -1.785699 -13.687200 12.522900 -0.169709 -0.972252 0.161009 0.249300 -0.739000 1 0 1.000000 
0 5.107000 -14.118400 0.000000 0.334294 -0.927284 0.168497 0.325000 -0.999500 1 0 1.000000 
barrelside01a
0 -0.695099 -15.011400 0.000000 -0.043801 -0.993218 0.107702 0.262500 -0.999500 1 0 1.000000 
0 5.107000 -14.118400 0.000000 0.334294 -0.927284 0.168497 0.325000 -0.999500 1 0 1.000000 
0 -1.785699 -13.687200 12.522900 -0.169709 -0.972252 0.161009 0.249300 -0.739000 1 0 1.000000 
barrelside01a
0 -1.785699 -13.687200 12.522900 -0.169709 -0.972252 0.161009 0.249300 -0.739000 1 0 1.000000 
0 -6.397200 -13.616100 0.000000 -0.415496 -0.895891 0.157298 0.200000 -0.999500 1 0 1.000000 
0 -0.695099 -15.011400 0.000000 -0.043801 -0.993218 0.107702 0.262500 -0.999500 1 0 1.000000 
barrelside01a
0 -6.397200 -13.616100 0.000000 -0.415496 -0.895891 0.157298 0.200000 -0.999500 1 0 1.000000 
0 -1.785699 -13.687200 12.522900 -0.169709 -0.972252 0.161009 0.249300 -0.739000 1 0 1.000000 
0 -11.131300 -10.144901 0.000000 -0.642591 -0.748189 0.165198 0.137500 -0.999500 1 0 1.000000 
barrelside01a
0 -9.452900 -10.593600 13.719000 -0.657492 -0.753291 0.016000 0.154000 -0.714100 1 0 1.000000 
0 -11.131300 -10.144901 0.000000 -0.642591 -0.748189 0.165198 0.137500 -0.999500 1 0 1.000000 
0 -1.785699 -13.687200 12.522900 -0.169709 -0.972252 0.161009 0.249300 -0.739000 1 0 1.000000 
barrelside01a
0 -11.131300 -10.144901 0.000000 -0.642591 -0.748189 0.165198 0.137500 -0.999500 1 0 1.000000 
0 -9.452900 -10.593600 13.719000 -0.657492 -0.753291 0.016000 0.154000 -0.714100 1 0 1.000000 
0 -14.176700 -5.126300 0.000000 -0.870428 -0.489616 0.051302 0.075000 -0.999500 1 0 1.000000 
barrelside01a
0 -15.032000 -5.437601 13.719000 -0.893800 -0.444700 -0.058000 0.075000 -0.714100 1 0 1.000000 
0 -14.176700 -5.126300 0.000000 -0.870428 -0.489616 0.051302 0.075000 -0.999500 1 0 1.000000 
0 -9.452900 -10.593600 13.719000 -0.657492 -0.753291 0.016000 0.154000 -0.714100 1 0 1.000000 
barrelside01a
0 -14.176700 -5.126300 0.000000 -0.870428 -0.489616 0.051302 0.075000 -0.999500 1 0 1.000000 
0 -15.032000 -5.437601 13.719000 -0.893800 -0.444700 -0.058000 0.075000 -0.714100 1 0 1.000000 
0 -15.069700 0.675699 0.000000 -0.998778 0.048499 -0.009500 0.012500 -0.999500 1 0 1.000000 
barrelside01a
0 -15.979100 0.715399 13.719000 -0.995129 0.081202 -0.055902 0.012500 -0.714100 1 0 1.000000 
0 -15.069700 0.675699 0.000000 -0.998778 0.048499 -0.009500 0.012500 -0.999500 1 0 1.000000 
0 -15.032000 -5.437601 13.719000 -0.893800 -0.444700 -0.058000 0.075000 -0.714100 1 0 1.000000 
barrelside01a
0 -15.069700 0.675699 0.000000 -0.998778 0.048499 -0.009500 0.012500 -0.999500 1 0 1.000000 
0 -15.979100 0.715399 13.719000 -0.995129 0.081202 -0.055902 0.012500 -0.714100 1 0 1.000000 
0 -12.400000 6.095200 1.741300 -0.918208 0.384903 -0.093501 -0.053300 -0.963300 1 0 1.000000 
barrelside01a
0 -14.499400 6.762499 13.719000 -0.887309 0.460705 -0.020800 -0.050000 -0.714100 1 0 1.000000 
0 -12.400000 6.095200 1.741300 -0.918208 0.384903 -0.093501 -0.053300 -0.963300 1 0 1.000000 
0 -15.979100 0.715399 13.719000 -0.995129 0.081202 -0.055902 0.012500 -0.714100 1 0 1.000000 
barrelside01a
0 -14.499400 6.762499 13.719000 -0.887309 0.460705 -0.020800 -0.050000 -0.714100 1 0 1.000000 
0 -15.979100 0.715399 13.719000 -0.995129 0.081202 -0.055902 0.012500 -0.714100 1 0 1.000000 
0 -15.979100 0.715399 34.297600 -0.975886 0.210297 0.058499 0.012500 -0.285900 1 0 1.000000 
barrelside01a
0 -14.499400 6.762499 13.719000 -0.887309 0.460705 -0.020800 -0.050000 -0.714100 1 0 1.000000 
0 -15.979100 0.715399 34.297600 -0.975886 0.210297 0.058499 0.012500 -0.285900 1 0 1.000000 
0 -11.423400 5.632599 33.117199 -0.905470 0.424386 0.004600 -0.053500 -0.310500 1 0 1.000000 
barrelside01a
0 -15.979100 0.715399 34.297600 -0.975886 0.210297 0.058499 0.012500 -0.285900 1 0 1.000000 
0 -15.220000 0.682299 48.016701 -0.969719 0.235905 -0.063201 0.012500 -0.000500 1 0 1.000000 
0 -11.423400 5.632599 33.117199 -0.905470 0.424386 0.004600 -0.053500 -0.310500 1 0 1.000000 
barrelside01a
0 -15.220000 0.682299 48.016701 -0.969719 0.235905 -0.063201 0.012500 -0.000500 1 0 1.000000 
0 -15.979100 0.715399 34.297600 -0.975886 0.210297 0.058499 0.012500 -0.285900 1 0 1.000000 
0 -14.318100 -5.177801 48.016701 -0.960231 -0.279109 0.007300 0.075000 -0.000500 1 0 1.000000 
barrelside01a
0 -15.032000 -5.437601 34.297600 -0.913440 -0.402718 0.058703 0.075000 -0.285900 1 0 1.000000 
0 -14.318100 -5.177801 48.016701 -0.960231 -0.279109 0.007300 0.075000 -0.000500 1 0 1.000000 
0 -15.979100 0.715399 34.297600 -0.975886 0.210297 0.058499 0.012500 -0.285900 1 0 1.000000 
barrelside01a
0 -14.318100 -5.177801 48.016701 -0.960231 -0.279109 0.007300 0.075000 -0.000500 1 0 1.000000 
0 -15.032000 -5.437601 34.297600 -0.913440 -0.402718 0.058703 0.075000 -0.285900 1 0 1.000000 
0 -11.242200 -10.246601 48.016701 -0.780331 -0.625324 0.007300 0.137500 -0.000500 1 0 1.000000 
barrelside01a
0 -11.802400 -10.759901 34.297600 -0.689808 -0.721609 0.058701 0.137500 -0.285900 1 0 1.000000 
0 -11.242200 -10.246601 48.016701 -0.780331 -0.625324 0.007300 0.137500 -0.000500 1 0 1.000000 
0 -15.032000 -5.437601 34.297600 -0.913440 -0.402718 0.058703 0.075000 -0.285900 1 0 1.000000 
barrelside01a
0 -11.242200 -10.246601 48.016701 -0.780331 -0.625324 0.007300 0.137500 -0.000500 1 0 1.000000 
0 -11.802400 -10.759901 34.297600 -0.689808 -0.721609 0.058701 0.137500 -0.285900 1 0 1.000000 
0 -6.460800 -13.752500 48.016701 -0.481626 -0.876347 0.007300 0.200000 -0.000500 1 0 1.000000 
barrelside01a
0 -6.781899 -14.441100 34.297600 -0.397900 -0.916599 -0.039000 0.200000 -0.285900 1 0 1.000000 
0 -6.460800 -13.752500 48.016701 -0.481626 -0.876347 0.007300 0.200000 -0.000500 1 0 1.000000 
0 -11.802400 -10.759901 34.297600 -0.689808 -0.721609 0.058701 0.137500 -0.285900 1 0 1.000000 
barrelside01a
0 -6.460800 -13.752500 48.016701 -0.481626 -0.876347 0.007300 0.200000 -0.000500 1 0 1.000000 
0 -6.781899 -14.441100 34.297600 -0.397900 -0.916599 -0.039000 0.200000 -0.285900 1 0 1.000000 
0 -0.701599 -15.161800 48.016701 -0.109605 -0.993948 0.007300 0.262500 -0.000500 1 0 1.000000 
barrelside01a
0 -13.810800 6.441400 48.016701 -0.925676 0.355791 -0.128597 -0.050000 -0.000500 1 0 1.000000 
0 -11.423400 5.632599 33.117199 -0.905470 0.424386 0.004600 -0.053500 -0.310500 1 0 1.000000 
0 -15.220000 0.682299 48.016701 -0.969719 0.235905 -0.063201 0.012500 -0.000500 1 0 1.000000 
barreltop01a
0 -11.242200 -10.246601 48.016701 0.000000 0.000000 1.000000 0.357200 -0.793300 1 0 1.000000 
0 -15.220000 0.682299 48.016701 0.000000 0.000000 1.000000 0.038500 -0.691200 1 0 1.000000 
0 -14.318100 -5.177801 48.016701 0.000000 0.000000 1.000000 0.146800 -0.853200 1 0 1.000000 
barreltop01a
0 -11.242200 -10.246601 48.016701 0.000000 0.000000 1.000000 0.357200 -0.793300 1 0 1.000000 
0 -13.810800 6.441400 48.016701 0.000000 0.000000 1.000000 0.000500 -0.500000 1 0 1.000000 
0 -15.220000 0.682299 48.016701 0.000000 0.000000 1.000000 0.038500 -0.691200 1 0 1.000000 
barreltop01a
0 -11.242200 -10.246601 48.016701 0.000000 0.000000 1.000000 0.357200 -0.793300 1 0 1.000000 
0 -10.304901 11.222900 48.016701 0.000000 0.000000 1.000000 0.038500 -0.308800 1 0 1.000000 
0 -13.810800 6.441400 48.016701 0.000000 0.000000 1.000000 0.000500 -0.500000 1 0 1.000000 
barreltop01a
0 -11.242200 -10.246601 48.016701 0.000000 0.000000 1.000000 0.357200 -0.793300 1 0 1.000000 
0 -5.236001 14.298700 48.016701 0.000000 0.000000 1.000000 0.146800 -0.146800 1 0 1.000000 
0 -10.304901 11.222900 48.016701 0.000000 0.000000 1.000000 0.038500 -0.308800 1 0 1.000000 
barreltop01a
0 -11.242200 -10.246601 48.016701 0.000000 0.000000 1.000000 0.357200 -0.793300 1 0 1.000000 
0 0.623999 15.200700 48.016701 0.000000 0.000000 1.000000 0.308800 -0.038500 1 0 1.000000 
0 -5.236001 14.298700 48.016701 0.000000 0.000000 1.000000 0.146800 -0.146800 1 0 1.000000 
barreltop01a
0 -11.242200 -10.246601 48.016701 0.000000 0.000000 1.000000 0.357200 -0.793300 1 0 1.000000 
0 6.383200 13.791400 48.016701 0.000000 0.000000 1.000000 0.500000 -0.000500 1 0 1.000000 
0 0.623999 15.200700 48.016701 0.000000 0.000000 1.000000 0.308800 -0.038500 1 0 1.000000 
barreltop01a
0 -11.242200 -10.246601 48.016701 0.000000 0.000000 1.000000 0.357200 -0.793300 1 0 1.000000 
0 11.164600 10.285501 48.016701 0.000000 0.000000 1.000000 0.691200 -0.038500 1 0 1.000000 
0 6.383200 13.791400 48.016701 0.000000 0.000000 1.000000 0.500000 -0.000500 1 0 1.000000 
barreltop01a
0 -11.242200 -10.246601 48.016701 0.000000 0.000000 1.000000 0.357200 -0.793300 1 0 1.000000 
0 14.240500 5.216701 48.016701 0.000000 0.000000 1.000000 0.853200 -0.146800 1 0 1.000000 
0 11.164600 10.285501 48.016701 0.000000 0.000000 1.000000 0.691200 -0.038500 1 0 1.000000 
barreltop01a
0 -11.242200 -10.246601 48.016701 0.000000 0.000000 1.000000 0.357200 -0.793300 1 0 1.000000 
0 12.664900 -0.408199 48.016701 0.000000 0.000000 1.000000 0.967300 -0.295200 1 0 1.000000 
0 14.240500 5.216701 48.016701 0.000000 0.000000 1.000000 0.853200 -0.146800 1 0 1.000000 
barreltop01a
0 -11.242200 -10.246601 48.016701 0.000000 0.000000 1.000000 0.357200 -0.793300 1 0 1.000000 
0 13.733200 -6.402500 48.016701 0.000000 0.000000 1.000000 0.999500 -0.500000 1 0 1.000000 
0 12.664900 -0.408199 48.016701 0.000000 0.000000 1.000000 0.967300 -0.295200 1 0 1.000000 
barreltop01a
0 -11.242200 -10.246601 48.016701 0.000000 0.000000 1.000000 0.357200 -0.793300 1 0 1.000000 
0 10.227301 -11.184000 48.016701 0.000000 0.000000 1.000000 0.961500 -0.691200 1 0 1.000000 
0 13.733200 -6.402500 48.016701 0.000000 0.000000 1.000000 0.999500 -0.500000 1 0 1.000000 
barreltop01a
0 -11.242200 -10.246601 48.016701 0.000000 0.000000 1.000000 0.357200 -0.793300 1 0 1.000000 
0 5.158401 -14.259800 48.016701 0.000000 0.000000 1.000000 0.853200 -0.853200 1 0 1.000000 
0 10.227301 -11.184000 48.016701 0.000000 0.000000 1.000000 0.961500 -0.691200 1 0 1.000000 
barreltop01a
0 -11.242200 -10.246601 48.016701 0.000000 0.000000 1.000000 0.357200 -0.793300 1 0 1.000000 
0 -0.701599 -15.161800 48.016701 0.000000 0.000000 1.000000 0.691200 -0.961500 1 0 1.000000 
0 5.158401 -14.259800 48.016701 0.000000 0.000000 1.000000 0.853200 -0.853200 1 0 1.000000 
barreltop01a
0 -11.242200 -10.246601 48.016701 0.000000 0.000000 1.000000 0.357200 -0.793300 1 0 1.000000 
0 -6.460800 -13.752500 48.016701 0.000000 0.000000 1.000000 0.500000 -0.999500 1 0 1.000000 
0 -0.701599 -15.161800 48.016701 0.000000 0.000000 1.000000 0.691200 -0.961500 1 0 1.000000 
end
