version 1
nodes
  0 "static_prop" -1
end
skeleton
time 0
0 0.000000 0.000000 0.000000 0.000000 0.000000 0.000000
end
triangles
rockcliff01a
0 -42.525002 32.896500 92.520599 0.246503 0.964611 0.093601 0.388300 -0.271000 1 0 1.000000 
0 -29.598402 26.327099 125.210999 0.246503 0.964611 0.093601 0.424900 -0.160400 1 0 1.000000 
0 23.023500 16.540003 88.567299 0.246503 0.964611 0.093601 0.574100 -0.282500 1 0 1.000000 
rockcliff01a
0 21.691200 18.097601 67.352898 0.891492 0.452496 -0.022100 0.544600 -0.339000 1 0 1.000000 
0 17.169998 27.235001 71.933098 0.891492 0.452496 -0.022100 0.570500 -0.325600 1 0 1.000000 
0 23.023500 16.540003 88.567299 0.891492 0.452496 -0.022100 0.540200 -0.277100 1 0 1.000000 
rockcliff01a
0 21.691200 18.097601 67.352898 0.891492 0.452496 -0.022100 0.544600 -0.339000 1 0 1.000000 
0 4.336298 53.422199 57.147800 0.897064 0.441882 0.003900 0.644700 -0.368800 1 0 1.000000 
0 17.169998 27.235001 71.933098 0.891492 0.452496 -0.022100 0.570500 -0.325600 1 0 1.000000 
rockcliff01a
0 4.336298 53.422199 57.147800 -0.001600 0.995448 -0.095295 0.521100 -0.374300 1 0 1.000000 
0 45.719002 37.536304 -98.721199 0.005200 0.995261 -0.097096 0.638400 -0.829400 1 0 1.000000 
0 -41.009201 37.947899 -99.112503 -0.001600 0.995448 -0.095295 0.392600 -0.830500 1 0 1.000000 
rockcliff01a
0 -41.009201 37.947899 -99.112503 -0.001600 0.995448 -0.095295 0.392600 -0.830500 1 0 1.000000 
0 -30.573101 52.841301 54.161800 -0.008300 0.995594 -0.093399 0.422200 -0.383000 1 0 1.000000 
0 4.336298 53.422199 57.147800 -0.001600 0.995448 -0.095295 0.521100 -0.374300 1 0 1.000000 
rockcliff01a
0 34.986500 14.436402 -122.604103 0.147800 0.377599 -0.914097 0.608000 -0.899100 1 0 1.000000 
0 36.775200 -0.155998 -127.365997 0.285807 0.336609 -0.897223 0.613100 -0.913000 1 0 1.000000 
0 10.646902 -36.439301 -148.660507 0.144001 0.407002 -0.902005 0.539000 -0.975200 1 0 1.000000 
rockcliff01a
0 34.986500 14.436402 -122.604103 0.147800 0.377599 -0.914097 0.608000 -0.899100 1 0 1.000000 
0 10.646902 -36.439301 -148.660507 0.144001 0.407002 -0.902005 0.539000 -0.975200 1 0 1.000000 
0 -25.427797 -39.441101 -150.142303 0.077303 0.395213 -0.915331 0.436700 -0.979500 1 0 1.000000 
rockcliff01a
0 -25.427797 -39.441101 -150.142303 0.077303 0.395213 -0.915331 0.436700 -0.979500 1 0 1.000000 
0 -24.012199 6.681599 -134.664597 0.154995 0.318489 -0.935169 0.440800 -0.934300 1 0 1.000000 
0 34.986500 14.436402 -122.604103 0.147800 0.377599 -0.914097 0.608000 -0.899100 1 0 1.000000 
rockcliff01a
0 -43.085499 -33.401299 -98.308098 -0.988560 -0.146494 0.035899 0.301200 -0.834500 1 0 1.000000 
0 -43.210300 -29.831102 141.298004 -0.999919 -0.012700 -0.000300 0.311300 -0.134900 1 0 1.000000 
0 -43.662201 5.443598 150.142197 -0.999967 0.007400 -0.003400 0.411300 -0.109000 1 0 1.000000 
rockcliff01a
0 -43.085499 -33.401299 -98.308098 -0.988560 -0.146494 0.035899 0.301200 -0.834500 1 0 1.000000 
0 -43.662201 5.443598 150.142197 -0.999967 0.007400 -0.003400 0.411300 -0.109000 1 0 1.000000 
0 -42.525002 32.896500 92.520599 -0.945906 -0.306602 0.106101 0.489100 -0.277300 1 0 1.000000 
rockcliff01a
0 -43.085499 -33.401299 -98.308098 -0.988560 -0.146494 0.035899 0.301200 -0.834500 1 0 1.000000 
0 -42.525002 32.896500 92.520599 -0.945906 -0.306602 0.106101 0.489100 -0.277300 1 0 1.000000 
0 -51.942299 37.958595 72.538902 -0.948471 -0.307391 0.076898 0.503500 -0.335600 1 0 1.000000 
rockcliff01a
0 -51.942299 37.958595 72.538902 -0.948471 -0.307391 0.076898 0.503500 -0.335600 1 0 1.000000 
0 -41.009201 37.947899 -99.112503 -0.997693 0.028300 -0.061700 0.503500 -0.836800 1 0 1.000000 
0 -43.085499 -33.401299 -98.308098 -0.988560 -0.146494 0.035899 0.301200 -0.834500 1 0 1.000000 
rockcliff01a
0 -24.012199 6.681599 -134.664597 -0.915422 0.064402 -0.397310 0.414800 -0.940600 1 0 1.000000 
0 -36.261696 -53.422100 -116.724998 -0.915422 0.064402 -0.397310 0.244500 -0.888200 1 0 1.000000 
0 -43.085499 -33.401299 -98.308098 -0.915422 0.064402 -0.397310 0.301200 -0.834500 1 0 1.000000 
rockcliff01a
0 51.942200 -15.852098 -97.816299 0.957135 0.270210 0.104304 0.448300 -0.821300 1 0 1.000000 
0 45.719002 37.536304 -98.721199 0.981545 0.117093 0.151191 0.599700 -0.823900 1 0 1.000000 
0 21.691200 18.097601 67.352898 0.909156 0.408680 0.080096 0.544600 -0.339000 1 0 1.000000 
rockcliff01a
0 51.942200 -15.852098 -97.816299 0.957135 0.270210 0.104304 0.448300 -0.821300 1 0 1.000000 
0 21.691200 18.097601 67.352898 0.909156 0.408680 0.080096 0.544600 -0.339000 1 0 1.000000 
0 23.023500 16.540003 88.567299 0.905605 0.419002 0.065700 0.540200 -0.277100 1 0 1.000000 
rockcliff01a
0 51.942200 -15.852098 -97.816299 0.957135 0.270210 0.104304 0.448300 -0.821300 1 0 1.000000 
0 23.023500 16.540003 88.567299 0.905605 0.419002 0.065700 0.540200 -0.277100 1 0 1.000000 
0 22.462400 7.653201 102.596802 0.983178 0.132897 0.125297 0.515000 -0.236100 1 0 1.000000 
rockcliff01a
0 22.462400 7.653201 102.596802 0.983178 0.132897 0.125297 0.515000 -0.236100 1 0 1.000000 
0 25.272800 -18.903097 106.983803 0.984021 0.125603 0.126203 0.439700 -0.206500 1 0 1.000000 
0 51.942200 -15.852098 -97.816299 0.957135 0.270210 0.104304 0.448300 -0.821300 1 0 1.000000 
rockcliff01a
0 -23.107098 -44.893600 138.440704 -0.597217 -0.801723 0.023901 0.268600 -0.143200 1 0 1.000000 
0 -43.210300 -29.831102 141.298004 -0.597217 -0.801723 0.023901 0.311300 -0.134900 1 0 1.000000 
0 -23.170198 -52.101398 -97.967201 -0.597217 -0.801723 0.023901 0.248200 -0.833500 1 0 1.000000 
rockcliff01a
0 -23.107098 -44.893600 138.440704 0.179001 -0.982805 0.045300 0.400600 -0.146500 1 0 1.000000 
0 -23.170198 -52.101398 -97.967201 0.091597 -0.995362 0.029399 0.400400 -0.836700 1 0 1.000000 
0 21.382402 -47.995201 -97.731102 0.164993 -0.985057 0.049398 0.526700 -0.836100 1 0 1.000000 
rockcliff01a
0 21.382402 -47.995201 -97.731102 0.164993 -0.985057 0.049398 0.526700 -0.836100 1 0 1.000000 
0 -5.999998 -40.051201 140.447601 0.265988 -0.962057 0.060797 0.449100 -0.140600 1 0 1.000000 
0 -23.107098 -44.893600 138.440704 0.179001 -0.982805 0.045300 0.400600 -0.146500 1 0 1.000000 
rockcliff01a
0 21.382402 -47.995201 -97.731102 0.164993 -0.985057 0.049398 0.526700 -0.836100 1 0 1.000000 
0 4.505301 -38.036701 126.642601 0.150802 -0.987110 0.053601 0.478800 -0.180900 1 0 1.000000 
0 -5.999998 -40.051201 140.447601 0.265988 -0.962057 0.060797 0.449100 -0.140600 1 0 1.000000 
rockcliff01a
0 21.382402 -47.995201 -97.731102 0.164993 -0.985057 0.049398 0.526700 -0.836100 1 0 1.000000 
0 11.260201 -38.281300 116.706299 0.032601 -0.998437 0.045402 0.498000 -0.193100 1 0 1.000000 
0 4.505301 -38.036701 126.642601 0.150802 -0.987110 0.053601 0.478800 -0.180900 1 0 1.000000 
rockcliff01a
0 -30.034199 -52.943802 -132.370407 0.091697 -0.995769 0.005900 0.380900 -0.937200 1 0 1.000000 
0 19.152601 -48.671799 -130.496399 0.085999 -0.996192 0.014300 0.520400 -0.931700 1 0 1.000000 
0 21.382402 -47.995201 -97.731102 0.091697 -0.995769 0.005900 0.526700 -0.836100 1 0 1.000000 
rockcliff01a
0 21.382402 -47.995201 -97.731102 0.091697 -0.995769 0.005900 0.526700 -0.836100 1 0 1.000000 
0 -36.261696 -53.422100 -116.724998 0.091697 -0.995769 0.005900 0.363300 -0.891500 1 0 1.000000 
0 -30.034199 -52.943802 -132.370407 0.091697 -0.995769 0.005900 0.380900 -0.937200 1 0 1.000000 
rockcliff01a
0 21.382402 -47.995201 -97.731102 0.091697 -0.995769 0.005900 0.526700 -0.836100 1 0 1.000000 
0 -23.170198 -52.101398 -97.967201 0.091597 -0.995362 0.029399 0.400400 -0.836700 1 0 1.000000 
0 -36.261696 -53.422100 -116.724998 0.091697 -0.995769 0.005900 0.363300 -0.891500 1 0 1.000000 
rockcliff01a
0 -5.999998 -40.051201 140.447601 -0.010800 -0.222896 0.974782 0.470800 -0.055600 1 0 1.000000 
0 0.514900 0.496100 148.120804 0.024400 -0.195000 0.980500 0.585800 -0.037100 1 0 1.000000 
0 -43.662201 5.443598 150.142197 -0.022601 -0.232107 0.972428 0.599800 -0.162400 1 0 1.000000 
rockcliff01a
0 -43.662201 5.443598 150.142197 -0.022601 -0.232107 0.972428 0.599800 -0.162400 1 0 1.000000 
0 -23.107098 -44.893600 138.440704 -0.045999 -0.250294 0.967076 0.457100 -0.104100 1 0 1.000000 
0 -5.999998 -40.051201 140.447601 -0.010800 -0.222896 0.974782 0.470800 -0.055600 1 0 1.000000 
rockcliff01a
0 -43.662201 5.443598 150.142197 -0.022601 -0.232107 0.972428 0.599800 -0.162400 1 0 1.000000 
0 -43.210300 -29.831102 141.298004 -0.045999 -0.250294 0.967076 0.499800 -0.161100 1 0 1.000000 
0 -23.107098 -44.893600 138.440704 -0.045999 -0.250294 0.967076 0.457100 -0.104100 1 0 1.000000 
rockcliff01a
0 -43.085499 -33.401299 -98.308098 -0.684574 -0.728872 0.010200 0.301200 -0.834500 1 0 1.000000 
0 -23.170198 -52.101398 -97.967201 -0.684574 -0.728872 0.010200 0.248200 -0.833500 1 0 1.000000 
0 -43.210300 -29.831102 141.298004 -0.684574 -0.728872 0.010200 0.311300 -0.134900 1 0 1.000000 
rockcliff01a
0 23.971201 18.195602 104.923500 0.109797 0.988572 -0.103297 0.576800 -0.234800 1 0 1.000000 
0 23.023500 16.540003 88.567299 0.109797 0.988572 -0.103297 0.574100 -0.282500 1 0 1.000000 
0 -29.598402 26.327099 125.210999 0.109797 0.988572 -0.103297 0.424900 -0.160400 1 0 1.000000 
rockcliff01a
0 -43.085499 -33.401299 -98.308098 -0.612420 -0.643621 0.459015 0.301200 -0.834500 1 0 1.000000 
0 -36.261696 -53.422100 -116.724998 -0.612420 -0.643621 0.459015 0.244500 -0.888200 1 0 1.000000 
0 -23.170198 -52.101398 -97.967201 -0.612420 -0.643621 0.459015 0.248200 -0.833500 1 0 1.000000 
rockcliff01a
0 -41.009201 37.947899 -99.112503 -0.592806 0.804508 -0.036700 0.392600 -0.830500 1 0 1.000000 
0 -51.942299 37.958595 72.538902 -0.592806 0.804508 -0.036700 0.361600 -0.329300 1 0 1.000000 
0 -30.573101 52.841301 54.161800 -0.592806 0.804508 -0.036700 0.422200 -0.383000 1 0 1.000000 
rockcliff01a
0 45.719002 37.536304 -98.721199 0.895144 0.122992 -0.428473 0.599700 -0.823900 1 0 1.000000 
0 43.404301 -18.703598 -119.088501 0.895144 0.122992 -0.428473 0.440200 -0.883400 1 0 1.000000 
0 36.775200 -0.155998 -127.365997 0.895144 0.122992 -0.428473 0.492800 -0.907600 1 0 1.000000 
rockcliff01a
0 45.719002 37.536304 -98.721199 0.862043 0.475624 0.175109 0.599700 -0.823900 1 0 1.000000 
0 4.336298 53.422199 57.147800 0.862043 0.475624 0.175109 0.644700 -0.368800 1 0 1.000000 
0 21.691200 18.097601 67.352898 0.862043 0.475624 0.175109 0.544600 -0.339000 1 0 1.000000 
rockcliff01a
0 19.152601 -48.671799 -130.496399 0.732202 -0.367701 -0.573302 0.355300 -0.916700 1 0 1.000000 
0 10.646902 -36.439301 -148.660507 0.732202 -0.367701 -0.573302 0.390000 -0.969700 1 0 1.000000 
0 43.404301 -18.703598 -119.088501 0.732202 -0.367701 -0.573302 0.440200 -0.883400 1 0 1.000000 
rockcliff01a
0 -51.942299 37.958595 72.538902 0.090401 0.533408 0.841013 0.361600 -0.329300 1 0 1.000000 
0 17.169998 27.235001 71.933098 0.090401 0.533408 0.841013 0.557500 -0.331100 1 0 1.000000 
0 4.336298 53.422199 57.147800 0.090401 0.533408 0.841013 0.521100 -0.374300 1 0 1.000000 
rockcliff01a
0 36.775200 -0.155998 -127.365997 0.700664 -0.075696 -0.709464 0.492800 -0.907600 1 0 1.000000 
0 43.404301 -18.703598 -119.088501 0.700664 -0.075696 -0.709464 0.440200 -0.883400 1 0 1.000000 
0 10.646902 -36.439301 -148.660507 0.700664 -0.075696 -0.709464 0.390000 -0.969700 1 0 1.000000 
rockcliff01a
0 4.336298 53.422199 57.147800 -0.063901 0.818313 0.571209 0.521100 -0.374300 1 0 1.000000 
0 -30.573101 52.841301 54.161800 -0.063901 0.818313 0.571209 0.422200 -0.383000 1 0 1.000000 
0 -51.942299 37.958595 72.538902 -0.063901 0.818313 0.571209 0.361600 -0.329300 1 0 1.000000 
rockcliff01a
0 -30.034199 -52.943802 -132.370407 0.093098 -0.812282 -0.575787 0.380900 -0.937200 1 0 1.000000 
0 -25.427797 -39.441101 -150.142303 0.093098 -0.812282 -0.575787 0.394000 -0.989100 1 0 1.000000 
0 19.152601 -48.671799 -130.496399 0.093098 -0.812282 -0.575787 0.520400 -0.931700 1 0 1.000000 
rockcliff01a
0 10.646902 -36.439301 -148.660507 0.091996 -0.813761 -0.573873 0.496300 -0.984800 1 0 1.000000 
0 19.152601 -48.671799 -130.496399 0.093098 -0.812282 -0.575787 0.520400 -0.931700 1 0 1.000000 
0 -25.427797 -39.441101 -150.142303 0.093098 -0.812282 -0.575787 0.394000 -0.989100 1 0 1.000000 
rockcliff01a
0 -24.012199 6.681599 -134.664597 -0.979585 0.091899 -0.178797 0.414800 -0.940600 1 0 1.000000 
0 -25.427797 -39.441101 -150.142303 -0.979585 0.091899 -0.178797 0.284100 -0.985800 1 0 1.000000 
0 -30.034199 -52.943802 -132.370407 -0.979585 0.091899 -0.178797 0.245800 -0.933900 1 0 1.000000 
rockcliff01a
0 11.305299 20.378500 118.841797 0.139604 0.989828 -0.027401 0.540900 -0.179000 1 0 1.000000 
0 23.971201 18.195602 104.923500 0.139604 0.989828 -0.027401 0.576800 -0.234800 1 0 1.000000 
0 -29.598402 26.327099 125.210999 0.139604 0.989828 -0.027401 0.424900 -0.160400 1 0 1.000000 
rockcliff01a
0 19.152601 -48.671799 -130.496399 0.798495 -0.552396 -0.239298 0.355300 -0.916700 1 0 1.000000 
0 43.404301 -18.703598 -119.088501 0.798495 -0.552396 -0.239298 0.440200 -0.883400 1 0 1.000000 
0 51.942200 -15.852098 -97.816299 0.798495 -0.552396 -0.239298 0.448300 -0.821300 1 0 1.000000 
rockcliff01a
0 4.505301 -38.036701 126.642601 0.833677 -0.035899 0.551085 0.385400 -0.165900 1 0 1.000000 
0 11.260201 -38.281300 116.706299 0.833677 -0.035899 0.551085 0.384700 -0.178100 1 0 1.000000 
0 6.724100 1.426200 125.879204 0.833677 -0.035899 0.551085 0.497300 -0.168100 1 0 1.000000 
rockcliff01a
0 51.942200 -15.852098 -97.816299 0.724273 -0.688674 -0.033999 0.448300 -0.821300 1 0 1.000000 
0 21.382402 -47.995201 -97.731102 0.724273 -0.688674 -0.033999 0.357200 -0.821000 1 0 1.000000 
0 19.152601 -48.671799 -130.496399 0.724273 -0.688674 -0.033999 0.355300 -0.916700 1 0 1.000000 
rockcliff01a
0 22.462400 7.653201 102.596802 0.799723 0.182005 0.572116 0.515000 -0.236100 1 0 1.000000 
0 6.724100 1.426200 125.879204 0.799723 0.182005 0.572116 0.497300 -0.168100 1 0 1.000000 
0 25.272800 -18.903097 106.983803 0.799723 0.182005 0.572116 0.439700 -0.206500 1 0 1.000000 
rockcliff01a
0 34.986500 14.436402 -122.604103 0.033800 0.767799 -0.639799 0.608000 -0.899100 1 0 1.000000 
0 -24.012199 6.681599 -134.664597 0.033800 0.767799 -0.639799 0.440800 -0.934300 1 0 1.000000 
0 -41.009201 37.947899 -99.112503 0.033800 0.767799 -0.639799 0.392600 -0.830500 1 0 1.000000 
rockcliff01a
0 23.023500 16.540003 88.567299 0.242207 0.858024 0.452913 0.574100 -0.282500 1 0 1.000000 
0 17.169998 27.235001 71.933098 0.242207 0.858024 0.452913 0.557500 -0.331100 1 0 1.000000 
0 -42.525002 32.896500 92.520599 0.242207 0.858024 0.452913 0.388300 -0.271000 1 0 1.000000 
rockcliff01a
0 -41.009201 37.947899 -99.112503 0.006600 0.727488 -0.686089 0.392600 -0.830500 1 0 1.000000 
0 45.719002 37.536304 -98.721199 0.006600 0.727488 -0.686089 0.638400 -0.829400 1 0 1.000000 
0 34.986500 14.436402 -122.604103 0.006600 0.727488 -0.686089 0.608000 -0.899100 1 0 1.000000 
rockcliff01a
0 -51.942299 37.958595 72.538902 0.152604 0.973625 0.169604 0.361600 -0.329300 1 0 1.000000 
0 -42.525002 32.896500 92.520599 0.152604 0.973625 0.169604 0.388300 -0.271000 1 0 1.000000 
0 17.169998 27.235001 71.933098 0.152604 0.973625 0.169604 0.557500 -0.331100 1 0 1.000000 
rockcliff01a
0 36.775200 -0.155998 -127.365997 0.744563 0.292885 -0.599870 0.492800 -0.907600 1 0 1.000000 
0 34.986500 14.436402 -122.604103 0.744563 0.292885 -0.599870 0.534200 -0.893700 1 0 1.000000 
0 45.719002 37.536304 -98.721199 0.744563 0.292885 -0.599870 0.599700 -0.823900 1 0 1.000000 
rockcliff01a
0 -43.662201 5.443598 150.142197 0.333114 0.253611 0.908139 0.599800 -0.162400 1 0 1.000000 
0 4.929299 9.880900 131.633896 0.333114 0.253611 0.908139 0.612400 -0.024600 1 0 1.000000 
0 7.442500 15.675700 129.167801 0.333114 0.253611 0.908139 0.628800 -0.017500 1 0 1.000000 
rockcliff01a
0 45.719002 37.536304 -98.721199 0.922482 0.100998 -0.372593 0.599700 -0.823900 1 0 1.000000 
0 51.942200 -15.852098 -97.816299 0.922482 0.100998 -0.372593 0.448300 -0.821300 1 0 1.000000 
0 43.404301 -18.703598 -119.088501 0.922482 0.100998 -0.372593 0.440200 -0.883400 1 0 1.000000 
rockcliff01a
0 7.442500 15.675700 129.167801 0.203395 0.606685 0.768481 0.628800 -0.017500 1 0 1.000000 
0 -34.049500 19.290897 137.059097 0.203395 0.606685 0.768481 0.639000 -0.135100 1 0 1.000000 
0 -43.662201 5.443598 150.142197 0.203395 0.606685 0.768481 0.599800 -0.162400 1 0 1.000000 
rockcliff01a
0 -24.012199 6.681599 -134.664597 -0.930578 0.079798 -0.357291 0.414800 -0.940600 1 0 1.000000 
0 -30.034199 -52.943802 -132.370407 -0.930578 0.079798 -0.357291 0.245800 -0.933900 1 0 1.000000 
0 -36.261696 -53.422100 -116.724998 -0.930578 0.079798 -0.357291 0.244500 -0.888200 1 0 1.000000 
rockcliff01a
0 -42.525002 32.896500 92.520599 -0.517719 0.780229 0.351013 0.489100 -0.277300 1 0 1.000000 
0 -43.662201 5.443598 150.142197 -0.517719 0.780229 0.351013 0.411300 -0.109000 1 0 1.000000 
0 -29.598402 26.327099 125.210999 -0.517719 0.780229 0.351013 0.474400 -0.166700 1 0 1.000000 
rockcliff01a
0 -43.085499 -33.401299 -98.308098 -0.899836 0.021101 -0.435717 0.301200 -0.834500 1 0 1.000000 
0 -41.009201 37.947899 -99.112503 -0.899836 0.021101 -0.435717 0.503500 -0.836800 1 0 1.000000 
0 -24.012199 6.681599 -134.664597 -0.899836 0.021101 -0.435717 0.414800 -0.940600 1 0 1.000000 
rockcliff01a
0 23.023500 16.540003 88.567299 0.990329 -0.132004 -0.042701 0.540200 -0.277100 1 0 1.000000 
0 23.971201 18.195602 104.923500 0.990329 -0.132004 -0.042701 0.544800 -0.229300 1 0 1.000000 
0 22.462400 7.653201 102.596802 0.990329 -0.132004 -0.042701 0.515000 -0.236100 1 0 1.000000 
rockcliff01a
0 6.724100 1.426200 125.879204 0.666183 -0.099797 0.739081 0.497300 -0.168100 1 0 1.000000 
0 11.260201 -38.281300 116.706299 0.666183 -0.099797 0.739081 0.384700 -0.178100 1 0 1.000000 
0 25.272800 -18.903097 106.983803 0.666183 -0.099797 0.739081 0.439700 -0.206500 1 0 1.000000 
rockcliff01a
0 6.724100 1.426200 125.879204 0.839768 -0.231791 0.490981 0.497300 -0.168100 1 0 1.000000 
0 22.462400 7.653201 102.596802 0.839768 -0.231791 0.490981 0.515000 -0.236100 1 0 1.000000 
0 23.971201 18.195602 104.923500 0.839768 -0.231791 0.490981 0.544800 -0.229300 1 0 1.000000 
rockcliff01a
0 25.272800 -18.903097 106.983803 0.829639 -0.549826 0.096905 0.439700 -0.206500 1 0 1.000000 
0 11.260201 -38.281300 116.706299 0.829639 -0.549826 0.096905 0.384700 -0.178100 1 0 1.000000 
0 51.942200 -15.852098 -97.816299 0.829639 -0.549826 0.096905 0.448300 -0.821300 1 0 1.000000 
rockcliff01a
0 23.971201 18.195602 104.923500 0.833095 -0.125099 0.538797 0.544800 -0.229300 1 0 1.000000 
0 7.442500 15.675700 129.167801 0.833095 -0.125099 0.538797 0.537700 -0.158500 1 0 1.000000 
0 4.929299 9.880900 131.633896 0.833095 -0.125099 0.538797 0.521300 -0.151300 1 0 1.000000 
rockcliff01a
0 21.382402 -47.995201 -97.731102 0.723356 -0.687558 0.063396 0.357200 -0.821000 1 0 1.000000 
0 51.942200 -15.852098 -97.816299 0.723356 -0.687558 0.063396 0.448300 -0.821300 1 0 1.000000 
0 11.260201 -38.281300 116.706299 0.723356 -0.687558 0.063396 0.384700 -0.178100 1 0 1.000000 
rockcliff01a
0 -29.598402 26.327099 125.210999 -0.789593 0.610295 0.063899 0.742400 -0.066200 1 0 1.000000 
0 -43.662201 5.443598 150.142197 -0.789593 0.610295 0.063899 0.540300 -0.000500 1 0 1.000000 
0 -34.049500 19.290897 137.059097 -0.789593 0.610295 0.063899 0.666100 -0.044000 1 0 1.000000 
rockcliff01a
0 23.971201 18.195602 104.923500 0.833292 -0.187698 0.519995 0.544800 -0.229300 1 0 1.000000 
0 4.929299 9.880900 131.633896 0.833292 -0.187698 0.519995 0.521300 -0.151300 1 0 1.000000 
0 6.724100 1.426200 125.879204 0.833292 -0.187698 0.519995 0.497300 -0.168100 1 0 1.000000 
rockcliff01a
0 23.971201 18.195602 104.923500 0.655265 0.573570 0.491574 0.544800 -0.229300 1 0 1.000000 
0 11.305299 20.378500 118.841797 0.655265 0.573570 0.491574 0.554900 -0.173500 1 0 1.000000 
0 7.442500 15.675700 129.167801 0.655265 0.573570 0.491574 0.537700 -0.158500 1 0 1.000000 
rockcliff01a
0 6.724100 1.426200 125.879204 0.964519 -0.049101 0.259405 0.497300 -0.168100 1 0 1.000000 
0 0.514900 0.496100 148.120804 0.964519 -0.049101 0.259405 0.494700 -0.103200 1 0 1.000000 
0 4.505301 -38.036701 126.642601 0.964519 -0.049101 0.259405 0.385400 -0.165900 1 0 1.000000 
rockcliff01a
0 -29.598402 26.327099 125.210999 0.205601 0.813504 0.544003 0.662900 -0.122500 1 0 1.000000 
0 -34.049500 19.290897 137.059097 0.205601 0.813504 0.544003 0.639000 -0.135100 1 0 1.000000 
0 11.305299 20.378500 118.841797 0.205601 0.813504 0.544003 0.646000 -0.006600 1 0 1.000000 
rockcliff01a
0 -5.999998 -40.051201 140.447601 0.797203 -0.236401 0.555502 0.379700 -0.125600 1 0 1.000000 
0 4.505301 -38.036701 126.642601 0.797203 -0.236401 0.555502 0.385400 -0.165900 1 0 1.000000 
0 0.514900 0.496100 148.120804 0.797203 -0.236401 0.555502 0.494700 -0.103200 1 0 1.000000 
rockcliff01a
0 7.442500 15.675700 129.167801 0.164398 0.878689 0.448195 0.628800 -0.017500 1 0 1.000000 
0 11.305299 20.378500 118.841797 0.164398 0.878689 0.448195 0.646000 -0.006600 1 0 1.000000 
0 -34.049500 19.290897 137.059097 0.164398 0.878689 0.448195 0.639000 -0.135100 1 0 1.000000 
rockcliff01a
0 -43.662201 5.443598 150.142197 0.119594 0.855457 0.503875 0.599800 -0.162400 1 0 1.000000 
0 0.514900 0.496100 148.120804 0.119594 0.855457 0.503875 0.585800 -0.037100 1 0 1.000000 
0 4.929299 9.880900 131.633896 0.119594 0.855457 0.503875 0.612400 -0.024600 1 0 1.000000 
rockcliff01a
0 6.724100 1.426200 125.879204 0.964763 0.020899 0.262290 0.497300 -0.168100 1 0 1.000000 
0 4.929299 9.880900 131.633896 0.964763 0.020899 0.262290 0.521300 -0.151300 1 0 1.000000 
0 0.514900 0.496100 148.120804 0.964763 0.020899 0.262290 0.494700 -0.103200 1 0 1.000000 
end
