$cd ".\"
$modelname "props_junk/wood_pallet001a_chunkb1.mdl"
$model "Body" "wood_pallet001a_chunkb1_reference.smd"
$cdmaterials "models/props_junk/"
$surfaceprop "wood"
$eyeposition 0.000 0.000 0.000
$illumposition 0.266 -32.491 3.528
$sequence idle "idle" fps 30.000000

$staticprop
//$origin 0 0 0 270

$collisionmodel "wood_pallet001a_chunkb1_physics.smd"
{
	$mass 30
	$concave
	$inertia 1
}
$keyvalues
{
	prop_data
	{
		"base"			"Wooden.Small"
		"health"		10
	}
	fire_interactions 
	{
		"flammable" "yes"
	}
}
$collisiontext 
{
break {"model" "props_debris/wood_splinters01a" "health" "10" "fadetime" "2" "debris" "1"  }
break {"model" "props_debris/wood_splinters01b" "health" "10" "fadetime" "2" "debris" "1"  }
break {"model" "props_debris/wood_splinters01c" "health" "10" "fadetime" "2" "debris" "1"  }
break {"model" "props_debris/wood_splinters01b" "health" "10" "fadetime" "2" "debris" "1"  }
break {"model" "props_debris/wood_splinters01c" "health" "10" "fadetime" "2" "debris" "1"  }
break {"model" "props_debris/wood_splinters01d" "health" "10" "fadetime" "2" "debris" "1"  }
break {"model" "props_debris/wood_splinters01e" "health" "10" "fadetime" "2" "debris" "1"  }
}