$cd ".\"
$modelname "props_debris/concrete_chunk05c.mdl"
$model "Body" "concrete_chunk05c_reference.smd"
$cdmaterials "models/props_debris/"
$surfaceprop "rock"
$eyeposition 0.000 0.000 0.000
$illumposition 0.000 0.000 0.000
$sequence idle "idle" ACT_IDLE 1 fps 30.000000
$keyvalues
{
	prop_data
	{
		base	Stone.Medium
		health	"0"
	}
}