version 1
nodes
  0 "static_prop" -1
end
skeleton
time 0
0 0.000000 0.000000 0.000000 0.000000 0.000000 0.000000
end
triangles
chimneystone01
0 10.188600 -6.631499 97.680801 -0.505310 -0.524411 0.685314 0.919200 -0.147300 1 0 1.000000 
0 3.199900 0.357200 97.680801 -0.505310 -0.524411 0.685314 0.919200 -0.090700 1 0 1.000000 
0 5.246800 -4.584600 95.465897 -0.505310 -0.524411 0.685314 0.919200 -0.107300 1 0 1.000000 
chimneystone01
0 12.971200 -2.768199 104.616501 0.000000 -1.000000 0.000000 0.823700 -0.812300 1 0 1.000000 
0 7.595800 -2.768200 104.616501 0.000000 -1.000000 0.000000 0.825900 -0.901000 1 0 1.000000 
0 7.595800 -2.768200 98.427101 0.000000 -1.000000 0.000000 0.874200 -0.900900 1 0 1.000000 
chimneystone01
0 7.595800 -2.768200 98.427101 0.000000 -1.000000 0.000000 0.874200 -0.900900 1 0 1.000000 
0 12.971200 -2.768199 98.427101 0.000000 -1.000000 0.000000 0.872100 -0.812100 1 0 1.000000 
0 12.971200 -2.768199 104.616501 0.000000 -1.000000 0.000000 0.823700 -0.812300 1 0 1.000000 
chimneystone01
0 7.595800 2.831200 104.616501 -0.000000 1.000000 0.000000 0.819300 -0.634300 1 0 1.000000 
0 12.971200 2.831200 104.616501 -0.000000 1.000000 0.000000 0.821500 -0.723100 1 0 1.000000 
0 12.971200 2.831200 98.427101 -0.000000 1.000000 0.000000 0.869900 -0.722900 1 0 1.000000 
chimneystone01
0 12.971200 2.831200 98.427101 -0.000000 1.000000 0.000000 0.869900 -0.722900 1 0 1.000000 
0 7.595800 2.831200 98.427101 -0.000000 1.000000 0.000000 0.867700 -0.634200 1 0 1.000000 
0 7.595800 2.831200 104.616501 -0.000000 1.000000 0.000000 0.819300 -0.634300 1 0 1.000000 
chimneystone01
0 -14.993000 2.831199 104.616501 -0.000000 1.000000 0.000000 0.823700 -0.812300 1 0 1.000000 
0 -9.617600 2.831199 104.616501 -0.000000 1.000000 0.000000 0.825900 -0.901000 1 0 1.000000 
0 -9.617600 2.831199 98.427101 -0.000000 1.000000 0.000000 0.874200 -0.900900 1 0 1.000000 
chimneystone01
0 -9.617600 2.831199 98.427101 -0.000000 1.000000 0.000000 0.874200 -0.900900 1 0 1.000000 
0 -14.993000 2.831199 98.427101 -0.000000 1.000000 0.000000 0.872100 -0.812100 1 0 1.000000 
0 -14.993000 2.831199 104.616501 -0.000000 1.000000 0.000000 0.823700 -0.812300 1 0 1.000000 
chimneystone01
0 -14.993000 -2.768201 98.427101 0.000000 -1.000000 0.000000 0.869900 -0.722900 1 0 1.000000 
0 -9.617600 -2.768200 98.427101 0.000000 -1.000000 0.000000 0.867700 -0.634200 1 0 1.000000 
0 -9.617600 -2.768200 104.616501 0.000000 -1.000000 0.000000 0.819300 -0.634300 1 0 1.000000 
chimneystone01
0 -9.617600 -2.768200 104.616501 0.000000 -1.000000 0.000000 0.819300 -0.634300 1 0 1.000000 
0 -14.993000 -2.768201 104.616501 0.000000 -1.000000 0.000000 0.821500 -0.723100 1 0 1.000000 
0 -14.993000 -2.768201 98.427101 0.000000 -1.000000 0.000000 0.869900 -0.722900 1 0 1.000000 
chimneystone01
0 -9.617600 2.831199 104.616501 1.000000 0.000000 0.000000 0.825900 -0.901000 1 0 1.000000 
0 -9.617600 -2.768200 104.616501 1.000000 0.000000 0.000000 0.828100 -0.990200 1 0 1.000000 
0 -9.617600 -2.768200 98.427101 1.000000 0.000000 0.000000 0.876400 -0.990000 1 0 1.000000 
chimneystone01
0 -9.617600 -2.768200 98.427101 1.000000 0.000000 0.000000 0.876400 -0.990000 1 0 1.000000 
0 -9.617600 2.831199 98.427101 1.000000 0.000000 0.000000 0.874200 -0.900900 1 0 1.000000 
0 -9.617600 2.831199 104.616501 1.000000 0.000000 0.000000 0.825900 -0.901000 1 0 1.000000 
chimneystone01
0 -14.993000 -2.768201 104.616501 -1.000000 -0.000000 0.000000 0.821500 -0.723100 1 0 1.000000 
0 -14.993000 2.831199 104.616501 -1.000000 -0.000000 0.000000 0.823700 -0.812300 1 0 1.000000 
0 -14.993000 2.831199 98.427101 -1.000000 -0.000000 0.000000 0.872100 -0.812100 1 0 1.000000 
chimneystone01
0 -14.993000 2.831199 98.427101 -1.000000 -0.000000 0.000000 0.872100 -0.812100 1 0 1.000000 
0 -14.993000 -2.768201 98.427101 -1.000000 -0.000000 0.000000 0.869900 -0.722900 1 0 1.000000 
0 -14.993000 -2.768201 104.616501 -1.000000 -0.000000 0.000000 0.821500 -0.723100 1 0 1.000000 
chimneystone01
0 7.595800 -2.768200 104.616501 -1.000000 -0.000000 0.000000 0.825900 -0.901000 1 0 1.000000 
0 7.595800 2.831200 104.616501 -1.000000 -0.000000 0.000000 0.828100 -0.990200 1 0 1.000000 
0 7.595800 2.831200 98.427101 -1.000000 -0.000000 0.000000 0.876400 -0.990000 1 0 1.000000 
chimneystone01
0 7.595800 2.831200 98.427101 -1.000000 -0.000000 0.000000 0.876400 -0.990000 1 0 1.000000 
0 7.595800 -2.768200 98.427101 -1.000000 -0.000000 0.000000 0.874200 -0.900900 1 0 1.000000 
0 7.595800 -2.768200 104.616501 -1.000000 -0.000000 0.000000 0.825900 -0.901000 1 0 1.000000 
chimneystone01
0 12.971200 2.831200 104.616501 1.000000 0.000000 0.000000 0.821500 -0.723100 1 0 1.000000 
0 12.971200 -2.768199 104.616501 1.000000 0.000000 0.000000 0.823700 -0.812300 1 0 1.000000 
0 12.971200 -2.768199 98.427101 1.000000 0.000000 0.000000 0.872100 -0.812100 1 0 1.000000 
chimneystone01
0 12.971200 -2.768199 98.427101 1.000000 0.000000 0.000000 0.872100 -0.812100 1 0 1.000000 
0 12.971200 2.831200 98.427101 1.000000 0.000000 0.000000 0.869900 -0.722900 1 0 1.000000 
0 12.971200 2.831200 104.616501 1.000000 0.000000 0.000000 0.821500 -0.723100 1 0 1.000000 
chimneystone01
0 26.503099 -12.266399 76.981796 1.000000 0.000000 0.000000 0.906400 -0.692300 1 0 1.000000 
0 26.503099 12.416501 76.981796 1.000000 0.000000 0.000000 0.903000 -0.885100 1 0 1.000000 
0 26.503099 12.416501 85.758499 1.000000 0.000000 0.000000 0.971600 -0.886300 1 0 1.000000 
chimneystone01
0 26.503099 12.416501 85.758499 1.000000 0.000000 0.000000 0.971600 -0.886300 1 0 1.000000 
0 26.503099 -12.266399 85.758499 1.000000 0.000000 0.000000 0.974900 -0.693500 1 0 1.000000 
0 26.503099 -12.266399 76.981796 1.000000 0.000000 0.000000 0.906400 -0.692300 1 0 1.000000 
chimneystone01
0 24.286699 -14.566399 85.758499 0.000000 -1.000000 0.000000 0.974600 -0.963000 1 0 1.000000 
0 -24.912500 -14.566401 85.758499 0.000000 -1.000000 0.000000 0.974600 -0.564100 1 0 1.000000 
0 -24.912500 -14.566401 76.981796 0.000000 -1.000000 0.000000 0.906100 -0.564100 1 0 1.000000 
chimneystone01
0 -24.912500 -14.566401 76.981796 0.000000 -1.000000 0.000000 0.906100 -0.564100 1 0 1.000000 
0 24.286699 -14.566399 76.981796 0.000000 -1.000000 0.000000 0.906100 -0.963000 1 0 1.000000 
0 24.286699 -14.566399 85.758499 0.000000 -1.000000 0.000000 0.974600 -0.963000 1 0 1.000000 
chimneystone01
0 -12.618700 4.386099 106.963203 0.027599 0.333692 0.942278 0.859700 -0.178200 1 0 1.000000 
0 -5.782500 -4.721400 104.903503 0.424500 -0.405400 0.809599 0.930900 -0.122800 1 0 1.000000 
0 -5.782500 4.386099 104.903503 0.678668 0.406681 0.611571 0.859700 -0.122800 1 0 1.000000 
chimneystone01
0 -12.618700 4.386099 106.963203 0.027599 0.333692 0.942278 0.859700 -0.178200 1 0 1.000000 
0 -16.547899 -4.721401 106.398300 -0.313291 -0.360490 0.878576 0.930900 -0.210100 1 0 1.000000 
0 -5.782500 -4.721400 104.903503 0.424500 -0.405400 0.809599 0.930900 -0.122800 1 0 1.000000 
chimneystone01
0 -20.471701 4.386099 102.791397 -0.510515 0.310309 0.801924 0.859700 -0.241900 1 0 1.000000 
0 -16.547899 -4.721401 106.398300 -0.313291 -0.360490 0.878576 0.930900 -0.210100 1 0 1.000000 
0 -12.618700 4.386099 106.963203 0.027599 0.333692 0.942278 0.859700 -0.178200 1 0 1.000000 
chimneystone01
0 -20.471701 4.386099 102.791397 -0.510515 0.310309 0.801924 0.859700 -0.241900 1 0 1.000000 
0 -20.471701 -4.721401 102.791397 -0.580581 -0.482984 0.655478 0.930900 -0.241900 1 0 1.000000 
0 -16.547899 -4.721401 106.398300 -0.313291 -0.360490 0.878576 0.930900 -0.210100 1 0 1.000000 
chimneystone01
0 -12.584300 -8.144101 102.791397 -0.001200 -0.882778 0.469788 0.957600 -0.177900 1 0 1.000000 
0 -16.547899 -4.721401 106.398300 -0.313291 -0.360490 0.878576 0.930900 -0.210100 1 0 1.000000 
0 -20.471701 -4.721401 102.791397 -0.580581 -0.482984 0.655478 0.930900 -0.241900 1 0 1.000000 
chimneystone01
0 -12.584300 -8.144101 102.791397 -0.001200 -0.882778 0.469788 0.957600 -0.177900 1 0 1.000000 
0 -5.782500 -4.721400 104.903503 0.424500 -0.405400 0.809599 0.930900 -0.122800 1 0 1.000000 
0 -16.547899 -4.721401 106.398300 -0.313291 -0.360490 0.878576 0.930900 -0.210100 1 0 1.000000 
chimneystone01
0 -12.584300 -8.144101 102.791397 -0.001200 -0.882778 0.469788 0.957600 -0.177900 1 0 1.000000 
0 -4.697200 -4.721400 102.827797 0.823809 -0.348604 0.447005 0.930900 -0.114000 1 0 1.000000 
0 -5.782500 -4.721400 104.903503 0.424500 -0.405400 0.809599 0.930900 -0.122800 1 0 1.000000 
chimneystone01
0 -5.782500 4.386099 104.903503 0.678668 0.406681 0.611571 0.859700 -0.122800 1 0 1.000000 
0 -5.782500 -4.721400 104.903503 0.424500 -0.405400 0.809599 0.930900 -0.122800 1 0 1.000000 
0 -4.697200 -4.721400 102.827797 0.823809 -0.348604 0.447005 0.930900 -0.114000 1 0 1.000000 
chimneystone01
0 -5.782500 4.386099 104.903503 0.678668 0.406681 0.611571 0.859700 -0.122800 1 0 1.000000 
0 -4.697200 -4.721400 102.827797 0.823809 -0.348604 0.447005 0.930900 -0.114000 1 0 1.000000 
0 -4.697200 4.386100 102.827797 0.746958 0.527071 0.405277 0.859700 -0.114000 1 0 1.000000 
chimneystone01
0 -12.584300 7.963600 102.791397 0.093498 0.845584 0.525590 0.831800 -0.177900 1 0 1.000000 
0 -5.782500 4.386099 104.903503 0.678668 0.406681 0.611571 0.859700 -0.122800 1 0 1.000000 
0 -4.697200 4.386100 102.827797 0.746958 0.527071 0.405277 0.859700 -0.114000 1 0 1.000000 
chimneystone01
0 -12.584300 7.963600 102.791397 0.093498 0.845584 0.525590 0.831800 -0.177900 1 0 1.000000 
0 -12.618700 4.386099 106.963203 0.027599 0.333692 0.942278 0.859700 -0.178200 1 0 1.000000 
0 -5.782500 4.386099 104.903503 0.678668 0.406681 0.611571 0.859700 -0.122800 1 0 1.000000 
chimneystone01
0 -12.584300 7.963600 102.791397 0.093498 0.845584 0.525590 0.831800 -0.177900 1 0 1.000000 
0 -20.471701 4.386099 102.791397 -0.510515 0.310309 0.801924 0.859700 -0.241900 1 0 1.000000 
0 -12.618700 4.386099 106.963203 0.027599 0.333692 0.942278 0.859700 -0.178200 1 0 1.000000 
chimneystone01
0 -27.128799 12.416499 76.981796 -1.000000 -0.000000 0.000000 0.910400 -0.864100 1 0 1.000000 
0 -27.128799 -12.266401 76.981796 -1.000000 -0.000000 0.000000 0.908800 -0.671200 1 0 1.000000 
0 -27.128799 -12.266401 85.758499 -1.000000 -0.000000 0.000000 0.977300 -0.670600 1 0 1.000000 
chimneystone01
0 -27.128799 -12.266401 85.758499 -1.000000 -0.000000 0.000000 0.977300 -0.670600 1 0 1.000000 
0 -27.128799 12.416499 85.758499 -1.000000 -0.000000 0.000000 0.979000 -0.863500 1 0 1.000000 
0 -27.128799 12.416499 76.981796 -1.000000 -0.000000 0.000000 0.910400 -0.864100 1 0 1.000000 
chimneystone01
0 -24.912500 14.716499 85.758499 -0.000000 1.000000 0.000000 0.977400 -0.964100 1 0 1.000000 
0 24.286699 14.716501 85.758499 -0.000000 1.000000 0.000000 0.977400 -0.565300 1 0 1.000000 
0 24.286699 14.716501 76.981796 -0.000000 1.000000 0.000000 0.908900 -0.565300 1 0 1.000000 
chimneystone01
0 24.286699 14.716501 76.981796 -0.000000 1.000000 0.000000 0.908900 -0.565300 1 0 1.000000 
0 -24.912500 14.716499 76.981796 -0.000000 1.000000 0.000000 0.908900 -0.964100 1 0 1.000000 
0 -24.912500 14.716499 85.758499 -0.000000 1.000000 0.000000 0.977400 -0.964100 1 0 1.000000 
chimneystone01
0 24.094000 -12.066399 88.258499 0.000000 0.000000 1.000000 0.928100 -0.978100 1 0 1.000000 
0 24.094000 12.216501 88.258499 0.000000 0.000000 1.000000 0.998400 -0.978100 1 0 1.000000 
0 -24.719700 12.216499 88.258499 0.000000 0.000000 1.000000 0.998400 -0.582300 1 0 1.000000 
chimneystone01
0 -24.719700 12.216499 88.258499 0.000000 0.000000 1.000000 0.998400 -0.582300 1 0 1.000000 
0 -24.719700 -12.066401 88.258499 0.000000 0.000000 1.000000 0.928100 -0.582300 1 0 1.000000 
0 24.094000 -12.066399 88.258499 0.000000 0.000000 1.000000 0.928100 -0.978100 1 0 1.000000 
chimneystone01
0 -17.037701 -4.710601 95.465897 0.000000 0.000000 -1.000000 0.901800 -0.187400 1 0 1.000000 
0 -5.107300 0.231200 95.465897 0.000000 0.000000 -1.000000 0.901800 -0.090700 1 0 1.000000 
0 -7.154300 -4.710600 95.465897 0.000000 0.000000 -1.000000 0.901800 -0.107300 1 0 1.000000 
chimneystone01
0 -17.037701 -4.710601 95.465897 0.000000 0.000000 -1.000000 0.901800 -0.187400 1 0 1.000000 
0 -7.154300 5.172900 95.465897 0.000000 0.000000 -1.000000 0.901800 -0.107300 1 0 1.000000 
0 -5.107300 0.231200 95.465897 0.000000 0.000000 -1.000000 0.901800 -0.090700 1 0 1.000000 
chimneystone01
0 -17.037701 -4.710601 95.465897 0.000000 0.000000 -1.000000 0.901800 -0.187400 1 0 1.000000 
0 -12.096000 7.219800 95.465897 0.000000 0.000000 -1.000000 0.901800 -0.147300 1 0 1.000000 
0 -7.154300 5.172900 95.465897 0.000000 0.000000 -1.000000 0.901800 -0.107300 1 0 1.000000 
chimneystone01
0 -17.037701 -4.710601 95.465897 0.000000 0.000000 -1.000000 0.901800 -0.187400 1 0 1.000000 
0 -17.037701 5.172899 95.465897 0.000000 0.000000 -1.000000 0.901800 -0.187400 1 0 1.000000 
0 -12.096000 7.219800 95.465897 0.000000 0.000000 -1.000000 0.901800 -0.147300 1 0 1.000000 
chimneystone01
0 -12.409000 4.990600 101.146301 0.000000 0.000000 1.000000 0.848500 -0.528600 1 0 1.000000 
0 -7.381700 -0.036800 101.146301 0.000000 0.000000 1.000000 0.807700 -0.528300 1 0 1.000000 
0 -8.854200 3.518100 101.146301 0.000000 0.000000 1.000000 0.819700 -0.528400 1 0 1.000000 
chimneystone01
0 -12.409000 4.990600 101.146301 0.000000 0.000000 1.000000 0.848500 -0.528600 1 0 1.000000 
0 -8.854200 -3.591600 101.146301 0.000000 0.000000 1.000000 0.819700 -0.528400 1 0 1.000000 
0 -7.381700 -0.036800 101.146301 0.000000 0.000000 1.000000 0.807700 -0.528300 1 0 1.000000 
chimneystone01
0 -12.409000 4.990600 101.146301 0.000000 0.000000 1.000000 0.848500 -0.528600 1 0 1.000000 
0 -12.409000 -5.064100 101.146301 0.000000 0.000000 1.000000 0.848500 -0.528600 1 0 1.000000 
0 -8.854200 -3.591600 101.146301 0.000000 0.000000 1.000000 0.819700 -0.528400 1 0 1.000000 
chimneystone01
0 -12.409000 4.990600 101.146301 0.000000 0.000000 1.000000 0.848500 -0.528600 1 0 1.000000 
0 -15.963900 -3.591601 101.146301 0.000000 0.000000 1.000000 0.877300 -0.528900 1 0 1.000000 
0 -12.409000 -5.064100 101.146301 0.000000 0.000000 1.000000 0.848500 -0.528600 1 0 1.000000 
chimneystone01
0 -12.409000 4.990600 101.146301 0.000000 0.000000 1.000000 0.848500 -0.528600 1 0 1.000000 
0 -17.436399 -0.036801 101.146301 0.000000 0.000000 1.000000 0.889300 -0.529000 1 0 1.000000 
0 -15.963900 -3.591601 101.146301 0.000000 0.000000 1.000000 0.877300 -0.528900 1 0 1.000000 
chimneystone01
0 -12.409000 4.990600 101.146301 0.000000 0.000000 1.000000 0.848500 -0.528600 1 0 1.000000 
0 -15.963900 3.518099 101.146301 0.000000 0.000000 1.000000 0.877300 -0.528900 1 0 1.000000 
0 -17.436399 -0.036801 101.146301 0.000000 0.000000 1.000000 0.889300 -0.529000 1 0 1.000000 
chimneystone01
0 24.286699 -14.566399 76.981796 0.000000 0.000000 -1.000000 0.900200 -0.970000 1 0 1.000000 
0 -24.912500 -14.566401 76.981796 0.000000 0.000000 -1.000000 0.900200 -0.571100 1 0 1.000000 
0 -27.128799 -12.266401 76.981796 0.000000 0.000000 -1.000000 0.906800 -0.553100 1 0 1.000000 
chimneystone01
0 24.286699 -14.566399 76.981796 0.000000 0.000000 -1.000000 0.900200 -0.970000 1 0 1.000000 
0 -27.128799 -12.266401 76.981796 0.000000 0.000000 -1.000000 0.906800 -0.553100 1 0 1.000000 
0 -27.128799 12.416499 76.981796 0.000000 0.000000 -1.000000 0.977400 -0.553100 1 0 1.000000 
chimneystone01
0 -27.128799 12.416499 76.981796 0.000000 0.000000 -1.000000 0.977400 -0.553100 1 0 1.000000 
0 -24.912500 14.716499 76.981796 0.000000 0.000000 -1.000000 0.984000 -0.571100 1 0 1.000000 
0 24.286699 -14.566399 76.981796 0.000000 0.000000 -1.000000 0.900200 -0.970000 1 0 1.000000 
chimneystone01
0 26.503099 -12.266399 76.981796 0.000000 0.000000 -1.000000 0.906800 -0.987900 1 0 1.000000 
0 24.286699 -14.566399 76.981796 0.000000 0.000000 -1.000000 0.900200 -0.970000 1 0 1.000000 
0 -24.912500 14.716499 76.981796 0.000000 0.000000 -1.000000 0.984000 -0.571100 1 0 1.000000 
chimneystone01
0 -24.912500 14.716499 76.981796 0.000000 0.000000 -1.000000 0.984000 -0.571100 1 0 1.000000 
0 26.503099 12.416501 76.981796 0.000000 0.000000 -1.000000 0.977400 -0.987900 1 0 1.000000 
0 26.503099 -12.266399 76.981796 0.000000 0.000000 -1.000000 0.906800 -0.987900 1 0 1.000000 
chimneystone01
0 -24.912500 14.716499 76.981796 0.000000 0.000000 -1.000000 0.984000 -0.571100 1 0 1.000000 
0 24.286699 14.716501 76.981796 0.000000 0.000000 -1.000000 0.984000 -0.970000 1 0 1.000000 
0 26.503099 12.416501 76.981796 0.000000 0.000000 -1.000000 0.977400 -0.987900 1 0 1.000000 
chimneystone01
0 -12.409000 3.503599 76.536499 -0.000000 0.995304 -0.096800 0.846800 -0.720900 1 0 1.000000 
0 -15.963900 3.518099 101.146301 -0.694416 0.715517 -0.076302 0.877300 -0.528900 1 0 1.000000 
0 -12.409000 4.990600 101.146301 -0.000000 0.998180 -0.060299 0.848500 -0.528600 1 0 1.000000 
chimneystone01
0 -12.409000 3.503599 76.536499 -0.000000 0.995304 -0.096800 0.846800 -0.720900 1 0 1.000000 
0 -15.949400 -0.036801 76.536499 -0.994997 -0.000000 -0.099900 0.875500 -0.721200 1 0 1.000000 
0 -15.963900 3.518099 101.146301 -0.694416 0.715517 -0.076302 0.877300 -0.528900 1 0 1.000000 
chimneystone01
0 -15.949400 -0.036801 76.536499 -0.994997 -0.000000 -0.099900 0.875500 -0.721200 1 0 1.000000 
0 -17.436399 -0.036801 101.146301 -0.998038 -0.000000 -0.062602 0.889300 -0.529000 1 0 1.000000 
0 -15.963900 3.518099 101.146301 -0.694416 0.715517 -0.076302 0.877300 -0.528900 1 0 1.000000 
chimneystone01
0 -15.949400 -0.036801 76.536499 -0.994997 -0.000000 -0.099900 0.875500 -0.721200 1 0 1.000000 
0 -15.963900 -3.591601 101.146301 -0.694416 -0.715517 -0.076302 0.877300 -0.528900 1 0 1.000000 
0 -17.436399 -0.036801 101.146301 -0.998038 -0.000000 -0.062602 0.889300 -0.529000 1 0 1.000000 
chimneystone01
0 -15.949400 -0.036801 76.536499 -0.994997 -0.000000 -0.099900 0.875500 -0.721200 1 0 1.000000 
0 -12.409000 -3.577101 76.536499 0.000000 -0.995304 -0.096800 0.846800 -0.720900 1 0 1.000000 
0 -15.963900 -3.591601 101.146301 -0.694416 -0.715517 -0.076302 0.877300 -0.528900 1 0 1.000000 
chimneystone01
0 -12.409000 -3.577101 76.536499 0.000000 -0.995304 -0.096800 0.846800 -0.720900 1 0 1.000000 
0 -12.409000 -5.064100 101.146301 0.000000 -0.998180 -0.060299 0.848500 -0.528600 1 0 1.000000 
0 -15.963900 -3.591601 101.146301 -0.694416 -0.715517 -0.076302 0.877300 -0.528900 1 0 1.000000 
chimneystone01
0 -12.409000 -3.577101 76.536499 0.000000 -0.995304 -0.096800 0.846800 -0.720900 1 0 1.000000 
0 -8.854200 -3.591600 101.146301 0.694416 -0.715517 -0.076302 0.819700 -0.528400 1 0 1.000000 
0 -12.409000 -5.064100 101.146301 0.000000 -0.998180 -0.060299 0.848500 -0.528600 1 0 1.000000 
chimneystone01
0 -12.409000 -3.577101 76.536499 0.000000 -0.995304 -0.096800 0.846800 -0.720900 1 0 1.000000 
0 -8.868700 -0.036800 76.536499 0.994997 0.000000 -0.099900 0.818100 -0.720600 1 0 1.000000 
0 -8.854200 -3.591600 101.146301 0.694416 -0.715517 -0.076302 0.819700 -0.528400 1 0 1.000000 
chimneystone01
0 -8.868700 -0.036800 76.536499 0.994997 0.000000 -0.099900 0.818100 -0.720600 1 0 1.000000 
0 -7.381700 -0.036800 101.146301 0.998038 0.000000 -0.062602 0.807700 -0.528300 1 0 1.000000 
0 -8.854200 -3.591600 101.146301 0.694416 -0.715517 -0.076302 0.819700 -0.528400 1 0 1.000000 
chimneystone01
0 -8.868700 -0.036800 76.536499 0.994997 0.000000 -0.099900 0.818100 -0.720600 1 0 1.000000 
0 -8.854200 3.518100 101.146301 0.694416 0.715517 -0.076302 0.819700 -0.528400 1 0 1.000000 
0 -7.381700 -0.036800 101.146301 0.998038 0.000000 -0.062602 0.807700 -0.528300 1 0 1.000000 
chimneystone01
0 -8.868700 -0.036800 76.536499 0.994997 0.000000 -0.099900 0.818100 -0.720600 1 0 1.000000 
0 -12.409000 3.503599 76.536499 -0.000000 0.995304 -0.096800 0.846800 -0.720900 1 0 1.000000 
0 -8.854200 3.518100 101.146301 0.694416 0.715517 -0.076302 0.819700 -0.528400 1 0 1.000000 
chimneystone01
0 -12.409000 3.503599 76.536499 -0.000000 0.995304 -0.096800 0.846800 -0.720900 1 0 1.000000 
0 -12.409000 4.990600 101.146301 -0.000000 0.998180 -0.060299 0.848500 -0.528600 1 0 1.000000 
0 -8.854200 3.518100 101.146301 0.694416 0.715517 -0.076302 0.819700 -0.528400 1 0 1.000000 
chimneystone01
0 45.066898 21.933802 -109.827904 0.994629 0.000000 0.103503 0.511300 -0.989000 1 0 1.000000 
0 25.809900 6.460301 82.225098 0.994629 0.000000 0.103503 0.390400 0.511500 1 0 1.000000 
0 45.066898 -21.933798 -109.827904 0.994629 0.000000 0.103503 0.168500 -0.989000 1 0 1.000000 
chimneystone01
0 25.809900 -6.460299 82.225098 0.994629 0.000000 0.103503 0.289400 0.511500 1 0 1.000000 
0 45.066898 -21.933798 -109.827904 0.994629 0.000000 0.103503 0.168500 -0.989000 1 0 1.000000 
0 25.809900 6.460301 82.225098 0.994629 0.000000 0.103503 0.390400 0.511500 1 0 1.000000 
chimneystone01
0 -39.256599 28.531399 -109.827904 -0.000000 0.996771 0.080298 0.737100 -0.995600 1 0 1.000000 
0 -19.999701 13.057899 82.225098 -0.000000 0.996771 0.080298 0.572100 0.504800 1 0 1.000000 
0 39.256599 28.531403 -109.827904 -0.000000 0.996771 0.080298 0.068800 -0.995600 1 0 1.000000 
chimneystone01
0 19.999701 13.057901 82.225098 -0.000000 0.996771 0.080298 0.231600 0.504800 1 0 1.000000 
0 39.256599 28.531403 -109.827904 -0.000000 0.996771 0.080298 0.068800 -0.995600 1 0 1.000000 
0 -19.999701 13.057899 82.225098 -0.000000 0.996771 0.080298 0.572100 0.504800 1 0 1.000000 
chimneystone01
0 -39.256599 -28.531403 -109.827904 0.000000 -0.996771 0.080298 0.063800 -0.988000 1 0 1.000000 
0 39.256599 -28.531399 -109.827904 0.000000 -0.996771 0.080298 0.700400 -0.988000 1 0 1.000000 
0 -19.999701 -13.058001 82.225098 0.000000 -0.996771 0.080298 0.218900 0.512400 1 0 1.000000 
chimneystone01
0 19.999701 -13.057999 82.225098 0.000000 -0.996771 0.080298 0.543200 0.512400 1 0 1.000000 
0 -19.999701 -13.058001 82.225098 0.000000 -0.996771 0.080298 0.218900 0.512400 1 0 1.000000 
0 39.256599 -28.531399 -109.827904 0.000000 -0.996771 0.080298 0.700400 -0.988000 1 0 1.000000 
chimneystone01
0 24.286699 14.716501 85.758499 0.561996 0.561996 0.606895 0.977400 -0.565300 1 0 1.000000 
0 24.094000 12.216501 88.258499 0.561996 0.561996 0.606895 0.997000 -0.566800 1 0 1.000000 
0 26.503099 12.416501 85.758499 0.561996 0.561996 0.606895 0.977400 -0.547300 1 0 1.000000 
chimneystone01
0 10.179800 3.897501 76.536499 -0.258411 0.962641 -0.080903 0.846800 -0.720900 1 0 1.000000 
0 6.624900 3.912000 101.146301 -0.694416 0.715517 -0.076302 0.819700 -0.528400 1 0 1.000000 
0 10.179800 5.384501 101.146301 0.131698 0.989484 -0.059799 0.848500 -0.528600 1 0 1.000000 
chimneystone01
0 10.179800 3.897501 76.536499 -0.258411 0.962641 -0.080903 0.846800 -0.720900 1 0 1.000000 
0 6.639400 0.357200 76.536499 -0.992490 0.092799 -0.079699 0.818100 -0.720600 1 0 1.000000 
0 6.624900 3.912000 101.146301 -0.694416 0.715517 -0.076302 0.819700 -0.528400 1 0 1.000000 
chimneystone01
0 6.639400 0.357200 76.536499 -0.992490 0.092799 -0.079699 0.818100 -0.720600 1 0 1.000000 
0 5.152500 0.357200 101.146301 -0.998038 -0.000000 -0.062602 0.807700 -0.528300 1 0 1.000000 
0 6.624900 3.912000 101.146301 -0.694416 0.715517 -0.076302 0.819700 -0.528400 1 0 1.000000 
chimneystone01
0 6.639400 0.357200 76.536499 -0.992490 0.092799 -0.079699 0.818100 -0.720600 1 0 1.000000 
0 6.624900 -3.197700 101.146301 -0.787662 -0.613070 -0.061097 0.819700 -0.528400 1 0 1.000000 
0 5.152500 0.357200 101.146301 -0.998038 -0.000000 -0.062602 0.807700 -0.528300 1 0 1.000000 
chimneystone01
0 6.639400 0.357200 76.536499 -0.992490 0.092799 -0.079699 0.818100 -0.720600 1 0 1.000000 
0 7.676400 -2.146200 76.536499 -0.484196 -0.871193 -0.081099 0.826500 -0.720700 1 0 1.000000 
0 6.624900 -3.197700 101.146301 -0.787662 -0.613070 -0.061097 0.819700 -0.528400 1 0 1.000000 
chimneystone01
0 7.676400 -2.146200 76.536499 -0.484196 -0.871193 -0.081099 0.826500 -0.720700 1 0 1.000000 
0 10.179800 -4.670100 101.146301 0.000000 -0.997191 -0.074899 0.848500 -0.528600 1 0 1.000000 
0 6.624900 -3.197700 101.146301 -0.787662 -0.613070 -0.061097 0.819700 -0.528400 1 0 1.000000 
chimneystone01
0 7.676400 -2.146200 76.536499 -0.484196 -0.871193 -0.081099 0.826500 -0.720700 1 0 1.000000 
0 12.683200 -2.146199 76.536499 0.698356 -0.708955 -0.098394 0.867100 -0.721100 1 0 1.000000 
0 10.179800 -4.670100 101.146301 0.000000 -0.997191 -0.074899 0.848500 -0.528600 1 0 1.000000 
chimneystone01
0 12.683200 -2.146199 76.536499 0.698356 -0.708955 -0.098394 0.867100 -0.721100 1 0 1.000000 
0 13.734600 -3.197699 101.146301 0.696463 -0.714962 -0.061397 0.877300 -0.528900 1 0 1.000000 
0 10.179800 -4.670100 101.146301 0.000000 -0.997191 -0.074899 0.848500 -0.528600 1 0 1.000000 
chimneystone01
0 12.683200 -2.146199 76.536499 0.698356 -0.708955 -0.098394 0.867100 -0.721100 1 0 1.000000 
0 15.207100 0.357201 101.146301 0.996969 0.000000 -0.077798 0.889300 -0.529000 1 0 1.000000 
0 13.734600 -3.197699 101.146301 0.696463 -0.714962 -0.061397 0.877300 -0.528900 1 0 1.000000 
chimneystone01
0 12.683200 -2.146199 76.536499 0.698356 -0.708955 -0.098394 0.867100 -0.721100 1 0 1.000000 
0 12.683200 2.860600 76.536499 0.760275 0.644779 -0.078997 0.867100 -0.721100 1 0 1.000000 
0 15.207100 0.357201 101.146301 0.996969 0.000000 -0.077798 0.889300 -0.529000 1 0 1.000000 
chimneystone01
0 12.683200 2.860600 76.536499 0.760275 0.644779 -0.078997 0.867100 -0.721100 1 0 1.000000 
0 13.734600 3.912001 101.146301 0.696463 0.714962 -0.061397 0.877300 -0.528900 1 0 1.000000 
0 15.207100 0.357201 101.146301 0.996969 0.000000 -0.077798 0.889300 -0.529000 1 0 1.000000 
chimneystone01
0 12.683200 2.860600 76.536499 0.760275 0.644779 -0.078997 0.867100 -0.721100 1 0 1.000000 
0 10.179800 5.384501 101.146301 0.131698 0.989484 -0.059799 0.848500 -0.528600 1 0 1.000000 
0 13.734600 3.912001 101.146301 0.696463 0.714962 -0.061397 0.877300 -0.528900 1 0 1.000000 
chimneystone01
0 12.683200 2.860600 76.536499 0.760275 0.644779 -0.078997 0.867100 -0.721100 1 0 1.000000 
0 10.179800 3.897501 76.536499 -0.258411 0.962641 -0.080903 0.846800 -0.720900 1 0 1.000000 
0 10.179800 5.384501 101.146301 0.131698 0.989484 -0.059799 0.848500 -0.528600 1 0 1.000000 
chimneystone01
0 10.188600 -6.631499 95.465897 0.131895 -0.991264 0.000000 0.901800 -0.147300 1 0 1.000000 
0 15.130300 -4.584599 97.680801 0.593291 -0.804988 0.000000 0.919200 -0.187400 1 0 1.000000 
0 10.188600 -6.631499 97.680801 0.000000 -1.000000 0.000000 0.919200 -0.147300 1 0 1.000000 
chimneystone01
0 10.188600 -6.631499 95.465897 0.131895 -0.991264 0.000000 0.901800 -0.147300 1 0 1.000000 
0 15.130300 -4.584599 95.465897 0.789169 -0.614176 0.000000 0.901800 -0.187400 1 0 1.000000 
0 15.130300 -4.584599 97.680801 0.593291 -0.804988 0.000000 0.919200 -0.187400 1 0 1.000000 
chimneystone01
0 15.130300 -4.584599 95.465897 0.789169 -0.614176 0.000000 0.901800 -0.187400 1 0 1.000000 
0 17.177200 0.357201 97.680801 0.989895 -0.141799 0.000000 0.919200 -0.204000 1 0 1.000000 
0 15.130300 -4.584599 97.680801 0.593291 -0.804988 0.000000 0.919200 -0.187400 1 0 1.000000 
chimneystone01
0 15.130300 -4.584599 95.465897 0.789169 -0.614176 0.000000 0.901800 -0.187400 1 0 1.000000 
0 17.177200 0.357201 95.465897 0.989895 0.141799 0.000000 0.901800 -0.204000 1 0 1.000000 
0 17.177200 0.357201 97.680801 0.989895 -0.141799 0.000000 0.919200 -0.204000 1 0 1.000000 
chimneystone01
0 17.177200 0.357201 95.465897 0.989895 0.141799 0.000000 0.901800 -0.204000 1 0 1.000000 
0 15.130300 5.298901 97.680801 0.789169 0.614176 0.000000 0.919200 -0.187400 1 0 1.000000 
0 17.177200 0.357201 97.680801 0.989895 -0.141799 0.000000 0.919200 -0.204000 1 0 1.000000 
chimneystone01
0 17.177200 0.357201 95.465897 0.989895 0.141799 0.000000 0.901800 -0.204000 1 0 1.000000 
0 15.130300 5.298901 95.465897 0.593291 0.804988 0.000000 0.901800 -0.187400 1 0 1.000000 
0 15.130300 5.298901 97.680801 0.789169 0.614176 0.000000 0.919200 -0.187400 1 0 1.000000 
chimneystone01
0 15.130300 5.298901 95.465897 0.593291 0.804988 0.000000 0.901800 -0.187400 1 0 1.000000 
0 10.188600 7.345800 97.680801 0.131895 0.991264 0.000000 0.919200 -0.147300 1 0 1.000000 
0 15.130300 5.298901 97.680801 0.789169 0.614176 0.000000 0.919200 -0.187400 1 0 1.000000 
chimneystone01
0 15.130300 5.298901 95.465897 0.593291 0.804988 0.000000 0.901800 -0.187400 1 0 1.000000 
0 10.188600 7.345800 95.465897 -0.131895 0.991264 0.000000 0.901800 -0.147300 1 0 1.000000 
0 10.188600 7.345800 97.680801 0.131895 0.991264 0.000000 0.919200 -0.147300 1 0 1.000000 
chimneystone01
0 10.188600 7.345800 95.465897 -0.131895 0.991264 0.000000 0.901800 -0.147300 1 0 1.000000 
0 5.246800 5.298900 97.680801 -0.593291 0.804988 0.000000 0.919200 -0.107300 1 0 1.000000 
0 10.188600 7.345800 97.680801 0.131895 0.991264 0.000000 0.919200 -0.147300 1 0 1.000000 
chimneystone01
0 10.188600 7.345800 95.465897 -0.131895 0.991264 0.000000 0.901800 -0.147300 1 0 1.000000 
0 5.246800 5.298900 95.465897 -0.789169 0.614176 0.000000 0.901800 -0.107300 1 0 1.000000 
0 5.246800 5.298900 97.680801 -0.593291 0.804988 0.000000 0.919200 -0.107300 1 0 1.000000 
chimneystone01
0 5.246800 5.298900 95.465897 -0.789169 0.614176 0.000000 0.901800 -0.107300 1 0 1.000000 
0 3.199900 0.357200 97.680801 -0.989895 0.141799 0.000000 0.919200 -0.090700 1 0 1.000000 
0 5.246800 5.298900 97.680801 -0.593291 0.804988 0.000000 0.919200 -0.107300 1 0 1.000000 
chimneystone01
0 5.246800 5.298900 95.465897 -0.789169 0.614176 0.000000 0.901800 -0.107300 1 0 1.000000 
0 3.199900 0.357200 95.465897 -1.000000 -0.000000 0.000000 0.901800 -0.090700 1 0 1.000000 
0 3.199900 0.357200 97.680801 -0.989895 0.141799 0.000000 0.919200 -0.090700 1 0 1.000000 
chimneystone01
0 3.199900 0.357200 95.465897 -1.000000 -0.000000 0.000000 0.901800 -0.090700 1 0 1.000000 
0 5.246800 -4.584600 95.465897 -0.697796 -0.716296 0.000000 0.901800 -0.107300 1 0 1.000000 
0 3.199900 0.357200 97.680801 -0.989895 0.141799 0.000000 0.919200 -0.090700 1 0 1.000000 
chimneystone01
0 5.246800 -4.584600 95.465897 -0.697796 -0.716296 0.000000 0.901800 -0.107300 1 0 1.000000 
0 10.188600 -6.631499 95.465897 0.131895 -0.991264 0.000000 0.901800 -0.147300 1 0 1.000000 
0 10.188600 -6.631499 97.680801 0.000000 -1.000000 0.000000 0.919200 -0.147300 1 0 1.000000 
chimneystone01
0 10.161600 7.969901 102.791397 0.001200 0.882778 0.469788 0.957600 -0.177900 1 0 1.000000 
0 14.125100 4.547300 106.398300 0.313291 0.360490 0.878576 0.930900 -0.210100 1 0 1.000000 
0 18.049000 4.547301 102.791397 0.580581 0.482984 0.655478 0.930900 -0.241900 1 0 1.000000 
chimneystone01
0 18.049000 -4.560299 102.791397 0.510515 -0.310309 0.801924 0.859700 -0.241900 1 0 1.000000 
0 18.049000 4.547301 102.791397 0.580581 0.482984 0.655478 0.930900 -0.241900 1 0 1.000000 
0 14.125100 4.547300 106.398300 0.313291 0.360490 0.878576 0.930900 -0.210100 1 0 1.000000 
chimneystone01
0 18.049000 -4.560299 102.791397 0.510515 -0.310309 0.801924 0.859700 -0.241900 1 0 1.000000 
0 14.125100 4.547300 106.398300 0.313291 0.360490 0.878576 0.930900 -0.210100 1 0 1.000000 
0 10.196000 -4.560299 106.963203 -0.027599 -0.333692 0.942278 0.859700 -0.178200 1 0 1.000000 
chimneystone01
0 10.161600 -8.137800 102.791397 -0.093498 -0.845584 0.525590 0.831800 -0.177900 1 0 1.000000 
0 18.049000 -4.560299 102.791397 0.510515 -0.310309 0.801924 0.859700 -0.241900 1 0 1.000000 
0 10.196000 -4.560299 106.963203 -0.027599 -0.333692 0.942278 0.859700 -0.178200 1 0 1.000000 
chimneystone01
0 10.161600 -8.137800 102.791397 -0.093498 -0.845584 0.525590 0.831800 -0.177900 1 0 1.000000 
0 10.196000 -4.560299 106.963203 -0.027599 -0.333692 0.942278 0.859700 -0.178200 1 0 1.000000 
0 3.359800 -4.560300 104.903503 -0.678668 -0.406681 0.611571 0.859700 -0.122800 1 0 1.000000 
chimneystone01
0 10.161600 -8.137800 102.791397 -0.093498 -0.845584 0.525590 0.831800 -0.177900 1 0 1.000000 
0 3.359800 -4.560300 104.903503 -0.678668 -0.406681 0.611571 0.859700 -0.122800 1 0 1.000000 
0 2.274500 -4.560300 102.827797 -0.746958 -0.527071 0.405277 0.859700 -0.114000 1 0 1.000000 
chimneystone01
0 3.359800 -4.560300 104.903503 -0.678668 -0.406681 0.611571 0.859700 -0.122800 1 0 1.000000 
0 2.274500 4.547300 102.827797 -0.823809 0.348604 0.447005 0.930900 -0.114000 1 0 1.000000 
0 2.274500 -4.560300 102.827797 -0.746958 -0.527071 0.405277 0.859700 -0.114000 1 0 1.000000 
chimneystone01
0 3.359800 -4.560300 104.903503 -0.678668 -0.406681 0.611571 0.859700 -0.122800 1 0 1.000000 
0 3.359800 4.547300 104.903503 -0.424500 0.405400 0.809599 0.930900 -0.122800 1 0 1.000000 
0 2.274500 4.547300 102.827797 -0.823809 0.348604 0.447005 0.930900 -0.114000 1 0 1.000000 
chimneystone01
0 10.161600 7.969901 102.791397 0.001200 0.882778 0.469788 0.957600 -0.177900 1 0 1.000000 
0 2.274500 4.547300 102.827797 -0.823809 0.348604 0.447005 0.930900 -0.114000 1 0 1.000000 
0 3.359800 4.547300 104.903503 -0.424500 0.405400 0.809599 0.930900 -0.122800 1 0 1.000000 
chimneystone01
0 10.161600 7.969901 102.791397 0.001200 0.882778 0.469788 0.957600 -0.177900 1 0 1.000000 
0 3.359800 4.547300 104.903503 -0.424500 0.405400 0.809599 0.930900 -0.122800 1 0 1.000000 
0 14.125100 4.547300 106.398300 0.313291 0.360490 0.878576 0.930900 -0.210100 1 0 1.000000 
chimneystone01
0 10.196000 -4.560299 106.963203 -0.027599 -0.333692 0.942278 0.859700 -0.178200 1 0 1.000000 
0 14.125100 4.547300 106.398300 0.313291 0.360490 0.878576 0.930900 -0.210100 1 0 1.000000 
0 3.359800 4.547300 104.903503 -0.424500 0.405400 0.809599 0.930900 -0.122800 1 0 1.000000 
chimneystone01
0 10.196000 -4.560299 106.963203 -0.027599 -0.333692 0.942278 0.859700 -0.178200 1 0 1.000000 
0 3.359800 4.547300 104.903503 -0.424500 0.405400 0.809599 0.930900 -0.122800 1 0 1.000000 
0 3.359800 -4.560300 104.903503 -0.678668 -0.406681 0.611571 0.859700 -0.122800 1 0 1.000000 
chimneystone01
0 -24.912500 -14.566401 85.758499 -0.561996 -0.561996 0.606895 0.974600 -0.564100 1 0 1.000000 
0 -24.719700 -12.066401 88.258499 -0.561996 -0.561996 0.606895 0.994200 -0.565700 1 0 1.000000 
0 -27.128799 -12.266401 85.758499 -0.561996 -0.561996 0.606895 0.974600 -0.546100 1 0 1.000000 
chimneystone01
0 10.179800 -4.670100 101.146301 0.000000 0.000000 1.000000 0.848500 -0.528600 1 0 1.000000 
0 5.152500 0.357200 101.146301 0.000000 0.000000 1.000000 0.807700 -0.528300 1 0 1.000000 
0 6.624900 -3.197700 101.146301 0.000000 0.000000 1.000000 0.819700 -0.528400 1 0 1.000000 
chimneystone01
0 10.179800 -4.670100 101.146301 0.000000 0.000000 1.000000 0.848500 -0.528600 1 0 1.000000 
0 6.624900 3.912000 101.146301 0.000000 0.000000 1.000000 0.819700 -0.528400 1 0 1.000000 
0 5.152500 0.357200 101.146301 0.000000 0.000000 1.000000 0.807700 -0.528300 1 0 1.000000 
chimneystone01
0 10.179800 -4.670100 101.146301 0.000000 0.000000 1.000000 0.848500 -0.528600 1 0 1.000000 
0 10.179800 5.384501 101.146301 0.000000 0.000000 1.000000 0.848500 -0.528600 1 0 1.000000 
0 6.624900 3.912000 101.146301 0.000000 0.000000 1.000000 0.819700 -0.528400 1 0 1.000000 
chimneystone01
0 10.179800 -4.670100 101.146301 0.000000 0.000000 1.000000 0.848500 -0.528600 1 0 1.000000 
0 13.734600 3.912001 101.146301 0.000000 0.000000 1.000000 0.877300 -0.528900 1 0 1.000000 
0 10.179800 5.384501 101.146301 0.000000 0.000000 1.000000 0.848500 -0.528600 1 0 1.000000 
chimneystone01
0 10.179800 -4.670100 101.146301 0.000000 0.000000 1.000000 0.848500 -0.528600 1 0 1.000000 
0 15.207100 0.357201 101.146301 0.000000 0.000000 1.000000 0.889300 -0.529000 1 0 1.000000 
0 13.734600 3.912001 101.146301 0.000000 0.000000 1.000000 0.877300 -0.528900 1 0 1.000000 
chimneystone01
0 10.179800 -4.670100 101.146301 0.000000 0.000000 1.000000 0.848500 -0.528600 1 0 1.000000 
0 13.734600 -3.197699 101.146301 0.000000 0.000000 1.000000 0.877300 -0.528900 1 0 1.000000 
0 15.207100 0.357201 101.146301 0.000000 0.000000 1.000000 0.889300 -0.529000 1 0 1.000000 
chimneystone01
0 24.094000 -12.066399 88.258499 0.561996 -0.561996 0.606895 0.994200 -0.961400 1 0 1.000000 
0 24.286699 -14.566399 85.758499 0.561996 -0.561996 0.606895 0.974600 -0.963000 1 0 1.000000 
0 26.503099 -12.266399 85.758499 0.561996 -0.561996 0.606895 0.974600 -0.981000 1 0 1.000000 
chimneystone01
0 2.274500 -4.560300 102.827797 -0.004400 -0.000000 -0.999990 0.859700 -0.334600 1 0 1.000000 
0 18.049000 -4.560299 102.791397 -0.002200 -0.000000 -0.999997 0.859700 -0.462500 1 0 1.000000 
0 10.161600 -8.137800 102.791397 -0.002200 0.005100 -0.999984 0.831800 -0.398500 1 0 1.000000 
chimneystone01
0 2.274500 -4.560300 102.827797 -0.004400 -0.000000 -0.999990 0.859700 -0.334600 1 0 1.000000 
0 18.049000 4.547301 102.791397 -0.001000 -0.002300 -0.999997 0.930900 -0.462500 1 0 1.000000 
0 18.049000 -4.560299 102.791397 -0.002200 -0.000000 -0.999997 0.859700 -0.462500 1 0 1.000000 
chimneystone01
0 2.274500 -4.560300 102.827797 -0.004400 -0.000000 -0.999990 0.859700 -0.334600 1 0 1.000000 
0 10.161600 7.969901 102.791397 -0.004400 -0.000000 -0.999990 0.957600 -0.398500 1 0 1.000000 
0 18.049000 4.547301 102.791397 -0.001000 -0.002300 -0.999997 0.930900 -0.462500 1 0 1.000000 
chimneystone01
0 2.274500 -4.560300 102.827797 -0.004400 -0.000000 -0.999990 0.859700 -0.334600 1 0 1.000000 
0 2.274500 4.547300 102.827797 -0.004400 -0.000000 -0.999990 0.930900 -0.334600 1 0 1.000000 
0 10.161600 7.969901 102.791397 -0.004400 -0.000000 -0.999990 0.957600 -0.398500 1 0 1.000000 
chimneystone01
0 -27.128799 12.416499 85.758499 -0.561996 0.561996 0.606895 0.977400 -0.982100 1 0 1.000000 
0 -24.719700 12.216499 88.258499 -0.561996 0.561996 0.606895 0.997000 -0.962600 1 0 1.000000 
0 -24.912500 14.716499 85.758499 -0.561996 0.561996 0.606895 0.977400 -0.964100 1 0 1.000000 
chimneystone01
0 -4.697200 4.386100 102.827797 0.004400 0.000000 -0.999990 0.859700 -0.334600 1 0 1.000000 
0 -20.471701 4.386099 102.791397 0.002200 0.000000 -0.999997 0.859700 -0.462500 1 0 1.000000 
0 -12.584300 7.963600 102.791397 0.002200 -0.005100 -0.999984 0.831800 -0.398500 1 0 1.000000 
chimneystone01
0 -4.697200 4.386100 102.827797 0.004400 0.000000 -0.999990 0.859700 -0.334600 1 0 1.000000 
0 -20.471701 -4.721401 102.791397 0.001000 0.002300 -0.999997 0.930900 -0.462500 1 0 1.000000 
0 -20.471701 4.386099 102.791397 0.002200 0.000000 -0.999997 0.859700 -0.462500 1 0 1.000000 
chimneystone01
0 -4.697200 4.386100 102.827797 0.004400 0.000000 -0.999990 0.859700 -0.334600 1 0 1.000000 
0 -12.584300 -8.144101 102.791397 0.004400 0.000000 -0.999990 0.957600 -0.398500 1 0 1.000000 
0 -20.471701 -4.721401 102.791397 0.001000 0.002300 -0.999997 0.930900 -0.462500 1 0 1.000000 
chimneystone01
0 -4.697200 4.386100 102.827797 0.004400 0.000000 -0.999990 0.859700 -0.334600 1 0 1.000000 
0 -4.697200 -4.721400 102.827797 0.004400 0.000000 -0.999990 0.930900 -0.334600 1 0 1.000000 
0 -12.584300 -8.144101 102.791397 0.004400 0.000000 -0.999990 0.957600 -0.398500 1 0 1.000000 
chimneystone01
0 19.999701 13.057901 82.225098 0.731898 0.668898 0.130000 0.231600 0.504800 1 0 1.000000 
0 25.809900 6.460301 82.225098 0.731898 0.668898 0.130000 0.181700 0.504800 1 0 1.000000 
0 39.256599 28.531403 -109.827904 0.731898 0.668898 0.130000 0.068800 -0.995600 1 0 1.000000 
chimneystone01
0 45.066898 21.933802 -109.827904 0.731898 0.668898 0.130000 0.018800 -0.995600 1 0 1.000000 
0 39.256599 28.531403 -109.827904 0.731898 0.668898 0.130000 0.068800 -0.995600 1 0 1.000000 
0 25.809900 6.460301 82.225098 0.731898 0.668898 0.130000 0.181700 0.504800 1 0 1.000000 
chimneystone01
0 -39.256599 28.531399 -109.827904 -0.731898 0.668898 0.130000 0.737100 -0.995600 1 0 1.000000 
0 -45.066898 21.933798 -109.827904 -0.731898 0.668898 0.130000 0.779700 -0.995600 1 0 1.000000 
0 -19.999701 13.057899 82.225098 -0.731898 0.668898 0.130000 0.572100 0.504800 1 0 1.000000 
chimneystone01
0 -25.809900 6.460299 82.225098 -0.731898 0.668898 0.130000 0.621100 0.504800 1 0 1.000000 
0 -19.999701 13.057899 82.225098 -0.731898 0.668898 0.130000 0.572100 0.504800 1 0 1.000000 
0 -45.066898 21.933798 -109.827904 -0.731898 0.668898 0.130000 0.779700 -0.995600 1 0 1.000000 
chimneystone01
0 -17.037701 -4.710601 95.465897 -0.721703 -0.000000 -0.692203 0.901800 -0.187400 1 0 1.000000 
0 -19.084700 0.231199 97.680801 -0.721703 -0.000000 -0.692203 0.901800 -0.204000 1 0 1.000000 
0 -17.037701 5.172899 95.465897 -0.721703 -0.000000 -0.692203 0.901800 -0.187400 1 0 1.000000 
chimneystone01
0 -12.096000 7.219800 97.680801 0.000000 0.000000 1.000000 0.919200 -0.147300 1 0 1.000000 
0 -7.154300 -4.710600 97.680801 0.000000 0.000000 1.000000 0.919200 -0.107300 1 0 1.000000 
0 -5.107300 0.231200 97.680801 0.000000 0.000000 1.000000 0.919200 -0.090700 1 0 1.000000 
chimneystone01
0 -12.096000 7.219800 97.680801 0.000000 0.000000 1.000000 0.919200 -0.147300 1 0 1.000000 
0 -12.096000 -6.757501 97.680801 0.000000 0.000000 1.000000 0.919200 -0.147300 1 0 1.000000 
0 -7.154300 -4.710600 97.680801 0.000000 0.000000 1.000000 0.919200 -0.107300 1 0 1.000000 
chimneystone01
0 -12.096000 7.219800 97.680801 0.000000 0.000000 1.000000 0.919200 -0.147300 1 0 1.000000 
0 -17.037701 -4.710601 97.680801 0.000000 0.000000 1.000000 0.919200 -0.187400 1 0 1.000000 
0 -12.096000 -6.757501 97.680801 0.000000 0.000000 1.000000 0.919200 -0.147300 1 0 1.000000 
chimneystone01
0 -12.096000 7.219800 97.680801 0.000000 0.000000 1.000000 0.919200 -0.147300 1 0 1.000000 
0 -19.084700 0.231199 97.680801 0.000000 0.000000 1.000000 0.919200 -0.204000 1 0 1.000000 
0 -17.037701 -4.710601 97.680801 0.000000 0.000000 1.000000 0.919200 -0.187400 1 0 1.000000 
chimneystone01
0 -12.096000 7.219800 97.680801 0.000000 0.000000 1.000000 0.919200 -0.147300 1 0 1.000000 
0 -17.037701 5.172899 97.680801 0.000000 0.000000 1.000000 0.919200 -0.187400 1 0 1.000000 
0 -19.084700 0.231199 97.680801 0.000000 0.000000 1.000000 0.919200 -0.204000 1 0 1.000000 
chimneystone01
0 -17.037701 -4.710601 95.465897 0.000000 -0.734408 -0.678708 0.901800 -0.187400 1 0 1.000000 
0 -7.154300 -4.710600 95.465897 0.000000 -0.734408 -0.678708 0.901800 -0.107300 1 0 1.000000 
0 -12.096000 -6.757501 97.680801 0.000000 -0.734408 -0.678708 0.901800 -0.147300 1 0 1.000000 
chimneystone01
0 -7.154300 5.172900 95.465897 0.697796 0.716296 0.000000 0.901800 -0.107300 1 0 1.000000 
0 -12.096000 7.219800 95.465897 -0.131895 0.991264 0.000000 0.901800 -0.147300 1 0 1.000000 
0 -12.096000 7.219800 97.680801 -0.000000 1.000000 0.000000 0.919200 -0.147300 1 0 1.000000 
chimneystone01
0 -12.096000 7.219800 95.465897 -0.131895 0.991264 0.000000 0.901800 -0.147300 1 0 1.000000 
0 -17.037701 5.172899 97.680801 -0.593291 0.804988 0.000000 0.919200 -0.187400 1 0 1.000000 
0 -12.096000 7.219800 97.680801 -0.000000 1.000000 0.000000 0.919200 -0.147300 1 0 1.000000 
chimneystone01
0 -12.096000 7.219800 95.465897 -0.131895 0.991264 0.000000 0.901800 -0.147300 1 0 1.000000 
0 -17.037701 5.172899 95.465897 -0.697796 0.716296 0.000000 0.901800 -0.187400 1 0 1.000000 
0 -17.037701 5.172899 97.680801 -0.593291 0.804988 0.000000 0.919200 -0.187400 1 0 1.000000 
chimneystone01
0 -17.037701 5.172899 95.465897 -0.697796 0.716296 0.000000 0.901800 -0.187400 1 0 1.000000 
0 -19.084700 0.231199 97.680801 -1.000000 -0.000000 0.000000 0.919200 -0.204000 1 0 1.000000 
0 -17.037701 5.172899 97.680801 -0.593291 0.804988 0.000000 0.919200 -0.187400 1 0 1.000000 
chimneystone01
0 -19.084700 0.231199 97.680801 -1.000000 -0.000000 0.000000 0.919200 -0.204000 1 0 1.000000 
0 -17.037701 -4.710601 95.465897 -0.697796 -0.716296 0.000000 0.901800 -0.187400 1 0 1.000000 
0 -17.037701 -4.710601 97.680801 -0.697796 -0.716296 0.000000 0.919200 -0.187400 1 0 1.000000 
chimneystone01
0 -17.037701 -4.710601 95.465897 -0.697796 -0.716296 0.000000 0.901800 -0.187400 1 0 1.000000 
0 -12.096000 -6.757501 97.680801 0.000000 -1.000000 0.000000 0.919200 -0.147300 1 0 1.000000 
0 -17.037701 -4.710601 97.680801 -0.697796 -0.716296 0.000000 0.919200 -0.187400 1 0 1.000000 
chimneystone01
0 -12.096000 -6.757501 97.680801 0.000000 -1.000000 0.000000 0.919200 -0.147300 1 0 1.000000 
0 -7.154300 -4.710600 95.465897 0.789169 -0.614176 0.000000 0.901800 -0.107300 1 0 1.000000 
0 -7.154300 -4.710600 97.680801 0.697796 -0.716296 0.000000 0.919200 -0.107300 1 0 1.000000 
chimneystone01
0 -7.154300 -4.710600 95.465897 0.789169 -0.614176 0.000000 0.901800 -0.107300 1 0 1.000000 
0 -5.107300 0.231200 97.680801 0.989895 -0.141799 0.000000 0.919200 -0.090700 1 0 1.000000 
0 -7.154300 -4.710600 97.680801 0.697796 -0.716296 0.000000 0.919200 -0.107300 1 0 1.000000 
chimneystone01
0 -7.154300 -4.710600 95.465897 0.789169 -0.614176 0.000000 0.901800 -0.107300 1 0 1.000000 
0 -5.107300 0.231200 95.465897 1.000000 0.000000 0.000000 0.901800 -0.090700 1 0 1.000000 
0 -5.107300 0.231200 97.680801 0.989895 -0.141799 0.000000 0.919200 -0.090700 1 0 1.000000 
chimneystone01
0 -5.107300 0.231200 95.465897 1.000000 0.000000 0.000000 0.901800 -0.090700 1 0 1.000000 
0 -7.154300 5.172900 95.465897 0.697796 0.716296 0.000000 0.901800 -0.107300 1 0 1.000000 
0 -5.107300 0.231200 97.680801 0.989895 -0.141799 0.000000 0.919200 -0.090700 1 0 1.000000 
chimneystone01
0 -45.066898 -21.933802 -109.827904 -0.994629 -0.000000 0.103503 0.186800 -0.993300 1 0 1.000000 
0 -25.809900 -6.460301 82.225098 -0.994629 -0.000000 0.103503 0.307700 0.507200 1 0 1.000000 
0 -45.066898 21.933798 -109.827904 -0.994629 -0.000000 0.103503 0.529500 -0.993300 1 0 1.000000 
chimneystone01
0 -25.809900 6.460299 82.225098 -0.994629 -0.000000 0.103503 0.408600 0.507200 1 0 1.000000 
0 -45.066898 21.933798 -109.827904 -0.994629 -0.000000 0.103503 0.529500 -0.993300 1 0 1.000000 
0 -25.809900 -6.460301 82.225098 -0.994629 -0.000000 0.103503 0.307700 0.507200 1 0 1.000000 
chimneystone01
0 10.188600 -6.631499 97.680801 0.000000 0.000000 1.000000 0.919200 -0.147300 1 0 1.000000 
0 5.246800 5.298900 97.680801 0.000000 0.000000 1.000000 0.919200 -0.107300 1 0 1.000000 
0 3.199900 0.357200 97.680801 0.000000 0.000000 1.000000 0.919200 -0.090700 1 0 1.000000 
chimneystone01
0 10.188600 -6.631499 97.680801 0.000000 0.000000 1.000000 0.919200 -0.147300 1 0 1.000000 
0 10.188600 7.345800 97.680801 0.000000 0.000000 1.000000 0.919200 -0.147300 1 0 1.000000 
0 5.246800 5.298900 97.680801 0.000000 0.000000 1.000000 0.919200 -0.107300 1 0 1.000000 
chimneystone01
0 10.188600 -6.631499 97.680801 0.000000 0.000000 1.000000 0.919200 -0.147300 1 0 1.000000 
0 15.130300 5.298901 97.680801 0.000000 0.000000 1.000000 0.919200 -0.187400 1 0 1.000000 
0 10.188600 7.345800 97.680801 0.000000 0.000000 1.000000 0.919200 -0.147300 1 0 1.000000 
chimneystone01
0 10.188600 -6.631499 97.680801 0.000000 0.000000 1.000000 0.919200 -0.147300 1 0 1.000000 
0 17.177200 0.357201 97.680801 0.000000 0.000000 1.000000 0.919200 -0.204000 1 0 1.000000 
0 15.130300 5.298901 97.680801 0.000000 0.000000 1.000000 0.919200 -0.187400 1 0 1.000000 
chimneystone01
0 10.188600 -6.631499 97.680801 0.000000 0.000000 1.000000 0.919200 -0.147300 1 0 1.000000 
0 15.130300 -4.584599 97.680801 0.000000 0.000000 1.000000 0.919200 -0.187400 1 0 1.000000 
0 17.177200 0.357201 97.680801 0.000000 0.000000 1.000000 0.919200 -0.204000 1 0 1.000000 
chimneystone01
0 -12.096000 7.219800 97.680801 0.505310 0.524411 0.685314 0.919200 -0.147300 1 0 1.000000 
0 -5.107300 0.231200 97.680801 0.505310 0.524411 0.685314 0.919200 -0.090700 1 0 1.000000 
0 -7.154300 5.172900 95.465897 0.505310 0.524411 0.685314 0.919200 -0.107300 1 0 1.000000 
chimneystone01
0 15.130300 5.298901 95.465897 0.000000 0.000000 -1.000000 0.901800 -0.187400 1 0 1.000000 
0 5.246800 5.298900 95.465897 0.000000 0.000000 -1.000000 0.901800 -0.107300 1 0 1.000000 
0 10.188600 7.345800 95.465897 0.000000 0.000000 -1.000000 0.901800 -0.147300 1 0 1.000000 
chimneystone01
0 15.130300 5.298901 95.465897 0.000000 0.000000 -1.000000 0.901800 -0.187400 1 0 1.000000 
0 3.199900 0.357200 95.465897 0.000000 0.000000 -1.000000 0.901800 -0.090700 1 0 1.000000 
0 5.246800 5.298900 95.465897 0.000000 0.000000 -1.000000 0.901800 -0.107300 1 0 1.000000 
chimneystone01
0 15.130300 5.298901 95.465897 0.000000 0.000000 -1.000000 0.901800 -0.187400 1 0 1.000000 
0 5.246800 -4.584600 95.465897 0.000000 0.000000 -1.000000 0.901800 -0.107300 1 0 1.000000 
0 3.199900 0.357200 95.465897 0.000000 0.000000 -1.000000 0.901800 -0.090700 1 0 1.000000 
chimneystone01
0 15.130300 5.298901 95.465897 0.000000 0.000000 -1.000000 0.901800 -0.187400 1 0 1.000000 
0 10.188600 -6.631499 95.465897 0.000000 0.000000 -1.000000 0.901800 -0.147300 1 0 1.000000 
0 5.246800 -4.584600 95.465897 0.000000 0.000000 -1.000000 0.901800 -0.107300 1 0 1.000000 
chimneystone01
0 15.130300 5.298901 95.465897 0.000000 0.000000 -1.000000 0.901800 -0.187400 1 0 1.000000 
0 15.130300 -4.584599 95.465897 0.000000 0.000000 -1.000000 0.901800 -0.187400 1 0 1.000000 
0 10.188600 -6.631499 95.465897 0.000000 0.000000 -1.000000 0.901800 -0.147300 1 0 1.000000 
chimneystone01
0 15.130300 5.298901 95.465897 0.000000 0.000000 -1.000000 0.901800 -0.187400 1 0 1.000000 
0 17.177200 0.357201 95.465897 0.000000 0.000000 -1.000000 0.901800 -0.204000 1 0 1.000000 
0 15.130300 -4.584599 95.465897 0.000000 0.000000 -1.000000 0.901800 -0.187400 1 0 1.000000 
chimneystone01
0 26.503099 12.416501 85.758499 0.707107 0.000000 0.707107 0.971600 -0.886300 1 0 1.000000 
0 24.094000 12.216501 88.258499 0.707107 0.000000 0.707107 0.991100 -0.885100 1 0 1.000000 
0 26.503099 -12.266399 85.758499 0.707107 0.000000 0.707107 0.974900 -0.693500 1 0 1.000000 
chimneystone01
0 24.094000 12.216501 88.258499 0.707107 0.000000 0.707107 0.991100 -0.885100 1 0 1.000000 
0 24.094000 -12.066399 88.258499 0.707107 0.000000 0.707107 0.994400 -0.695400 1 0 1.000000 
0 26.503099 -12.266399 85.758499 0.707107 0.000000 0.707107 0.974900 -0.693500 1 0 1.000000 
chimneystone01
0 -27.128799 -12.266401 85.758499 -0.707107 -0.000000 0.707107 0.977300 -0.670600 1 0 1.000000 
0 -24.719700 -12.066401 88.258499 -0.707107 -0.000000 0.707107 0.996900 -0.672000 1 0 1.000000 
0 -27.128799 12.416499 85.758499 -0.707107 -0.000000 0.707107 0.979000 -0.863500 1 0 1.000000 
chimneystone01
0 -24.719700 -12.066401 88.258499 -0.707107 -0.000000 0.707107 0.996900 -0.672000 1 0 1.000000 
0 -24.719700 12.216499 88.258499 -0.707107 -0.000000 0.707107 0.998500 -0.861700 1 0 1.000000 
0 -27.128799 12.416499 85.758499 -0.707107 -0.000000 0.707107 0.979000 -0.863500 1 0 1.000000 
chimneystone01
0 24.286699 14.716501 85.758499 0.707107 0.707107 0.000000 0.977400 -0.565300 1 0 1.000000 
0 26.503099 12.416501 85.758499 0.707107 0.707107 0.000000 0.977400 -0.547300 1 0 1.000000 
0 24.286699 14.716501 76.981796 0.707107 0.707107 0.000000 0.908900 -0.565300 1 0 1.000000 
chimneystone01
0 26.503099 12.416501 76.981796 0.707107 0.707107 0.000000 0.908900 -0.547300 1 0 1.000000 
0 24.286699 14.716501 76.981796 0.707107 0.707107 0.000000 0.908900 -0.565300 1 0 1.000000 
0 26.503099 12.416501 85.758499 0.707107 0.707107 0.000000 0.977400 -0.547300 1 0 1.000000 
chimneystone01
0 -24.912500 -14.566401 85.758499 -0.707107 -0.707107 0.000000 0.974600 -0.564100 1 0 1.000000 
0 -27.128799 -12.266401 85.758499 -0.707107 -0.707107 0.000000 0.974600 -0.546100 1 0 1.000000 
0 -24.912500 -14.566401 76.981796 -0.707107 -0.707107 0.000000 0.906100 -0.564100 1 0 1.000000 
chimneystone01
0 -27.128799 -12.266401 76.981796 -0.707107 -0.707107 0.000000 0.906100 -0.546100 1 0 1.000000 
0 -24.912500 -14.566401 76.981796 -0.707107 -0.707107 0.000000 0.906100 -0.564100 1 0 1.000000 
0 -27.128799 -12.266401 85.758499 -0.707107 -0.707107 0.000000 0.974600 -0.546100 1 0 1.000000 
chimneystone01
0 24.286699 -14.566399 85.758499 0.000000 -0.707107 0.707107 0.974600 -0.963000 1 0 1.000000 
0 24.094000 -12.066399 88.258499 0.000000 -0.707107 0.707107 0.994200 -0.961400 1 0 1.000000 
0 -24.912500 -14.566401 85.758499 0.000000 -0.707107 0.707107 0.974600 -0.564100 1 0 1.000000 
chimneystone01
0 24.094000 -12.066399 88.258499 0.000000 -0.707107 0.707107 0.994200 -0.961400 1 0 1.000000 
0 -24.719700 -12.066401 88.258499 0.000000 -0.707107 0.707107 0.994200 -0.565700 1 0 1.000000 
0 -24.912500 -14.566401 85.758499 0.000000 -0.707107 0.707107 0.974600 -0.564100 1 0 1.000000 
chimneystone01
0 26.503099 -12.266399 85.758499 0.707107 -0.707107 0.000000 0.974600 -0.981000 1 0 1.000000 
0 24.286699 -14.566399 85.758499 0.707107 -0.707107 0.000000 0.974600 -0.963000 1 0 1.000000 
0 26.503099 -12.266399 76.981796 0.707107 -0.707107 0.000000 0.906100 -0.981000 1 0 1.000000 
chimneystone01
0 24.286699 -14.566399 76.981796 0.707107 -0.707107 0.000000 0.906100 -0.963000 1 0 1.000000 
0 26.503099 -12.266399 76.981796 0.707107 -0.707107 0.000000 0.906100 -0.981000 1 0 1.000000 
0 24.286699 -14.566399 85.758499 0.707107 -0.707107 0.000000 0.974600 -0.963000 1 0 1.000000 
chimneystone01
0 -24.912500 14.716499 85.758499 -0.000000 0.707107 0.707107 0.977400 -0.964100 1 0 1.000000 
0 -24.719700 12.216499 88.258499 -0.000000 0.707107 0.707107 0.997000 -0.962600 1 0 1.000000 
0 24.286699 14.716501 85.758499 -0.000000 0.707107 0.707107 0.977400 -0.565300 1 0 1.000000 
chimneystone01
0 -24.719700 12.216499 88.258499 -0.000000 0.707107 0.707107 0.997000 -0.962600 1 0 1.000000 
0 24.094000 12.216501 88.258499 -0.000000 0.707107 0.707107 0.997000 -0.566800 1 0 1.000000 
0 24.286699 14.716501 85.758499 -0.000000 0.707107 0.707107 0.977400 -0.565300 1 0 1.000000 
chimneystone01
0 -27.128799 12.416499 85.758499 -0.707107 0.707107 0.000000 0.977400 -0.982100 1 0 1.000000 
0 -24.912500 14.716499 85.758499 -0.707107 0.707107 0.000000 0.977400 -0.964100 1 0 1.000000 
0 -27.128799 12.416499 76.981796 -0.707107 0.707107 0.000000 0.908900 -0.982100 1 0 1.000000 
chimneystone01
0 -24.912500 14.716499 76.981796 -0.707107 0.707107 0.000000 0.908900 -0.964100 1 0 1.000000 
0 -27.128799 12.416499 76.981796 -0.707107 0.707107 0.000000 0.908900 -0.982100 1 0 1.000000 
0 -24.912500 14.716499 85.758499 -0.707107 0.707107 0.000000 0.977400 -0.964100 1 0 1.000000 
chimneystone01
0 39.256599 -28.531399 -109.827904 0.731898 -0.668898 0.130000 0.700400 -0.988000 1 0 1.000000 
0 45.066898 -21.933798 -109.827904 0.731898 -0.668898 0.130000 0.747000 -0.988000 1 0 1.000000 
0 19.999701 -13.057999 82.225098 0.731898 -0.668898 0.130000 0.543200 0.512400 1 0 1.000000 
chimneystone01
0 25.809900 -6.460299 82.225098 0.731898 -0.668898 0.130000 0.589800 0.512400 1 0 1.000000 
0 19.999701 -13.057999 82.225098 0.731898 -0.668898 0.130000 0.543200 0.512400 1 0 1.000000 
0 45.066898 -21.933798 -109.827904 0.731898 -0.668898 0.130000 0.747000 -0.988000 1 0 1.000000 
chimneystone01
0 -19.999701 -13.058001 82.225098 -0.731898 -0.668898 0.130000 0.218900 0.512400 1 0 1.000000 
0 -25.809900 -6.460301 82.225098 -0.731898 -0.668898 0.130000 0.171400 0.512400 1 0 1.000000 
0 -39.256599 -28.531403 -109.827904 -0.731898 -0.668898 0.130000 0.063800 -0.988000 1 0 1.000000 
chimneystone01
0 -45.066898 -21.933802 -109.827904 -0.731898 -0.668898 0.130000 0.016300 -0.988000 1 0 1.000000 
0 -39.256599 -28.531403 -109.827904 -0.731898 -0.668898 0.130000 0.063800 -0.988000 1 0 1.000000 
0 -25.809900 -6.460301 82.225098 -0.731898 -0.668898 0.130000 0.171400 0.512400 1 0 1.000000 
end
