$cd ".\"
$modelname "fire_equipment/W_FireHose.mdl"
$model "body" "W_FireHose.smd"
$cdmaterials "models/fire_equipment/w_firehose/"
$surfaceprop "rubbertire"
$eyeposition 0.000 0.000 0.000
$illumposition 9.993 0.240 45.174
$sequence IDLE "IDLE" loop ACT_IDLE 1 fps 5.000000
$collisionmodel "W_FireHose.smd"
{
	$automass
}
$staticprop
$origin 0 0 0 270