version 1
nodes
  0 "static_prop" -1
end
skeleton
time 0
0 0.000000 0.000000 0.000000 0.000000 0.000000 0.000000
end
triangles
metal_streetprops001a
0 -3.777200 -1.848600 13.382800 -0.985701 0.091800 0.141300 0.936400 -0.035900 1 0 1.000000 
0 -3.188700 0.212900 13.594400 -0.431515 0.896331 0.101904 0.967400 -0.039700 1 0 1.000000 
0 -3.488600 0.532400 9.512900 -0.629481 0.693780 0.349890 0.965600 -0.100900 1 0 1.000000 
metal_streetprops001a
0 -3.488600 0.532400 9.512900 -0.629481 0.693780 0.349890 0.965600 -0.100900 1 0 1.000000 
0 -3.117500 1.428700 9.512100 -0.379190 0.500186 0.778479 0.952200 -0.100900 1 0 1.000000 
0 -3.787200 2.098500 3.631000 -0.796929 0.603522 0.025801 0.952200 -0.189100 1 0 1.000000 
metal_streetprops001a
0 0.159800 3.733400 3.631000 -0.198999 0.978393 0.056100 0.901200 -0.189100 1 0 1.000000 
0 -3.787200 2.098500 3.631000 -0.796929 0.603522 0.025801 0.952200 -0.189100 1 0 1.000000 
0 -3.117500 1.428700 9.512100 -0.379190 0.500186 0.778479 0.952200 -0.100900 1 0 1.000000 
metal_streetprops001a
0 0.159800 3.733400 3.631000 -0.198999 0.978393 0.056100 0.901200 -0.189100 1 0 1.000000 
0 -3.117500 1.428700 9.512100 -0.379190 0.500186 0.778479 0.952200 -0.100900 1 0 1.000000 
0 -2.305000 1.765100 9.512900 -0.351388 0.767974 0.535482 0.940100 -0.100900 1 0 1.000000 
metal_streetprops001a
0 0.159800 3.733400 3.631000 -0.198999 0.978393 0.056100 0.901200 -0.189100 1 0 1.000000 
0 -2.305000 1.765100 9.512900 -0.351388 0.767974 0.535482 0.940100 -0.100900 1 0 1.000000 
0 -2.061400 1.377500 13.601000 -0.367408 0.920121 0.135603 0.940300 -0.039600 1 0 1.000000 
metal_streetprops001a
0 -2.061400 1.377500 13.601000 -0.367408 0.920121 0.135603 0.940300 -0.039600 1 0 1.000000 
0 0.159800 2.088400 13.382800 0.194600 0.969299 0.150300 0.901200 -0.042800 1 0 1.000000 
0 0.159800 3.733400 3.631000 -0.198999 0.978393 0.056100 0.901200 -0.189100 1 0 1.000000 
metal_streetprops001a
0 4.106800 2.098500 3.631000 0.671586 0.737584 0.070299 0.850200 -0.189100 1 0 1.000000 
0 0.159800 3.733400 3.631000 -0.198999 0.978393 0.056100 0.901200 -0.189100 1 0 1.000000 
0 0.159800 2.088400 13.382800 0.194600 0.969299 0.150300 0.901200 -0.042800 1 0 1.000000 
metal_streetprops001a
0 4.106800 2.098500 3.631000 0.671586 0.737584 0.070299 0.850200 -0.189100 1 0 1.000000 
0 0.159800 1.915300 -13.187900 0.135996 0.984969 -0.106497 0.901200 -0.432900 1 0 1.000000 
0 0.159800 3.733400 3.631000 -0.198999 0.978393 0.056100 0.901200 -0.189100 1 0 1.000000 
metal_streetprops001a
0 4.106800 2.098500 3.631000 0.671586 0.737584 0.070299 0.850200 -0.189100 1 0 1.000000 
0 2.821200 0.812900 -13.187900 0.792633 0.600325 -0.106504 0.850200 -0.432900 1 0 1.000000 
0 0.159800 1.915300 -13.187900 0.135996 0.984969 -0.106497 0.901200 -0.432900 1 0 1.000000 
metal_streetprops001a
0 0.159800 3.733400 3.631000 -0.198999 0.978393 0.056100 0.901200 -0.189100 1 0 1.000000 
0 -2.501600 0.812900 -13.187900 -0.600325 0.792633 -0.106504 0.952200 -0.432900 1 0 1.000000 
0 -3.787200 2.098500 3.631000 -0.796929 0.603522 0.025801 0.952200 -0.189100 1 0 1.000000 
metal_streetprops001a
0 0.159800 3.733400 3.631000 -0.198999 0.978393 0.056100 0.901200 -0.189100 1 0 1.000000 
0 0.159800 1.915300 -13.187900 0.135996 0.984969 -0.106497 0.901200 -0.432900 1 0 1.000000 
0 -2.501600 0.812900 -13.187900 -0.600325 0.792633 -0.106504 0.952200 -0.432900 1 0 1.000000 
metal_streetprops001a
0 0.159800 2.088400 13.382800 0.194600 0.969299 0.150300 0.901200 -0.042800 1 0 1.000000 
0 2.128700 1.405600 13.436600 0.988112 0.110001 0.107401 0.865800 -0.042000 1 0 1.000000 
0 2.544400 1.798300 9.512900 0.494382 0.605279 0.623878 0.863600 -0.100900 1 0 1.000000 
metal_streetprops001a
0 2.544400 1.798300 9.512900 0.494382 0.605279 0.623878 0.863600 -0.100900 1 0 1.000000 
0 4.106800 2.098500 3.631000 0.671586 0.737584 0.070299 0.850200 -0.189100 1 0 1.000000 
0 0.159800 2.088400 13.382800 0.194600 0.969299 0.150300 0.901200 -0.042800 1 0 1.000000 
metal_streetprops001a
0 2.544400 1.798300 9.512900 0.494382 0.605279 0.623878 0.863600 -0.100900 1 0 1.000000 
0 3.437100 1.428700 9.512000 0.441283 0.441283 0.781370 0.850200 -0.100900 1 0 1.000000 
0 4.106800 2.098500 3.631000 0.671586 0.737584 0.070299 0.850200 -0.189100 1 0 1.000000 
metal_streetprops001a
0 4.106800 2.098500 3.631000 0.671586 0.737584 0.070299 0.850200 -0.189100 1 0 1.000000 
0 3.437100 1.428700 9.512000 0.441283 0.441283 0.781370 0.850200 -0.100900 1 0 1.000000 
0 3.776100 0.610000 9.512900 0.841117 0.323407 0.433509 0.837900 -0.100900 1 0 1.000000 
metal_streetprops001a
0 4.096800 -1.848600 13.382800 0.984426 0.069202 0.161604 0.799100 -0.042800 1 0 1.000000 
0 3.776100 0.610000 9.512900 0.841117 0.323407 0.433509 0.837900 -0.100900 1 0 1.000000 
0 3.291200 0.272300 13.453500 0.926700 0.347200 0.143800 0.837800 -0.041800 1 0 1.000000 
metal_streetprops001a
0 4.096800 -1.848600 13.382800 0.984426 0.069202 0.161604 0.799100 -0.042800 1 0 1.000000 
0 4.106800 2.098500 3.631000 0.671586 0.737584 0.070299 0.850200 -0.189100 1 0 1.000000 
0 3.776100 0.610000 9.512900 0.841117 0.323407 0.433509 0.837900 -0.100900 1 0 1.000000 
metal_streetprops001a
0 4.096800 -1.848600 13.382800 0.984426 0.069202 0.161604 0.799100 -0.042800 1 0 1.000000 
0 5.741700 -1.848600 3.631000 0.999583 0.003100 0.028700 0.799100 -0.189100 1 0 1.000000 
0 4.106800 2.098500 3.631000 0.671586 0.737584 0.070299 0.850200 -0.189100 1 0 1.000000 
metal_streetprops001a
0 5.741700 -1.848600 3.631000 0.999583 0.003100 0.028700 0.799100 -0.189100 1 0 1.000000 
0 2.821200 0.812900 -13.187900 0.792633 0.600325 -0.106504 0.850200 -0.432900 1 0 1.000000 
0 4.106800 2.098500 3.631000 0.671586 0.737584 0.070299 0.850200 -0.189100 1 0 1.000000 
metal_streetprops001a
0 5.741700 -1.848600 3.631000 0.999583 0.003100 0.028700 0.799100 -0.189100 1 0 1.000000 
0 3.923600 -1.848600 -13.187900 0.984969 -0.135996 -0.106497 0.799100 -0.432900 1 0 1.000000 
0 2.821200 0.812900 -13.187900 0.792633 0.600325 -0.106504 0.850200 -0.432900 1 0 1.000000 
metal_streetprops001a
0 4.106801 -5.795600 3.631000 0.796929 -0.603522 0.025801 0.748100 -0.189100 1 0 1.000000 
0 3.923600 -1.848600 -13.187900 0.984969 -0.135996 -0.106497 0.799100 -0.432900 1 0 1.000000 
0 5.741700 -1.848600 3.631000 0.999583 0.003100 0.028700 0.799100 -0.189100 1 0 1.000000 
metal_streetprops001a
0 4.106801 -5.795600 3.631000 0.796929 -0.603522 0.025801 0.748100 -0.189100 1 0 1.000000 
0 2.821200 -4.510000 -13.187900 0.600325 -0.792633 -0.106504 0.748100 -0.432900 1 0 1.000000 
0 3.923600 -1.848600 -13.187900 0.984969 -0.135996 -0.106497 0.799100 -0.432900 1 0 1.000000 
metal_streetprops001a
0 0.159800 -7.430500 3.631000 0.134497 -0.988177 0.073598 0.697100 -0.189100 1 0 1.000000 
0 2.821200 -4.510000 -13.187900 0.600325 -0.792633 -0.106504 0.748100 -0.432900 1 0 1.000000 
0 4.106801 -5.795600 3.631000 0.796929 -0.603522 0.025801 0.748100 -0.189100 1 0 1.000000 
metal_streetprops001a
0 0.159800 -7.430500 3.631000 0.134497 -0.988177 0.073598 0.697100 -0.189100 1 0 1.000000 
0 0.159800 -5.612400 -13.187900 -0.135996 -0.984969 -0.106497 0.697100 -0.432900 1 0 1.000000 
0 2.821200 -4.510000 -13.187900 0.600325 -0.792633 -0.106504 0.748100 -0.432900 1 0 1.000000 
metal_streetprops001a
0 -3.787200 -5.795600 3.631000 -0.663294 -0.746993 0.045200 0.646100 -0.189100 1 0 1.000000 
0 0.159800 -5.612400 -13.187900 -0.135996 -0.984969 -0.106497 0.697100 -0.432900 1 0 1.000000 
0 0.159800 -7.430500 3.631000 0.134497 -0.988177 0.073598 0.697100 -0.189100 1 0 1.000000 
metal_streetprops001a
0 -3.787200 -5.795600 3.631000 -0.663294 -0.746993 0.045200 0.646100 -0.189100 1 0 1.000000 
0 -2.501600 -4.510000 -13.187900 -0.792633 -0.600325 -0.106504 0.646100 -0.432900 1 0 1.000000 
0 0.159800 -5.612400 -13.187900 -0.135996 -0.984969 -0.106497 0.697100 -0.432900 1 0 1.000000 
metal_streetprops001a
0 -5.422100 -1.848600 3.631000 -0.992945 -0.100705 0.062603 0.595100 -0.189100 1 0 1.000000 
0 -2.501600 -4.510000 -13.187900 -0.792633 -0.600325 -0.106504 0.646100 -0.432900 1 0 1.000000 
0 -3.787200 -5.795600 3.631000 -0.663294 -0.746993 0.045200 0.646100 -0.189100 1 0 1.000000 
metal_streetprops001a
0 -5.422100 -1.848600 3.631000 -0.992945 -0.100705 0.062603 0.595100 -0.189100 1 0 1.000000 
0 -3.604000 -1.848600 -13.187900 -0.984969 0.135996 -0.106497 0.595100 -0.432900 1 0 1.000000 
0 -2.501600 -4.510000 -13.187900 -0.792633 -0.600325 -0.106504 0.646100 -0.432900 1 0 1.000000 
metal_streetprops001a
0 -3.787200 2.098500 3.631000 -0.796929 0.603522 0.025801 0.544100 -0.189100 1 0 1.000000 
0 -3.604000 -1.848600 -13.187900 -0.984969 0.135996 -0.106497 0.595100 -0.432900 1 0 1.000000 
0 -5.422100 -1.848600 3.631000 -0.992945 -0.100705 0.062603 0.595100 -0.189100 1 0 1.000000 
metal_streetprops001a
0 -3.787200 2.098500 3.631000 -0.796929 0.603522 0.025801 0.544100 -0.189100 1 0 1.000000 
0 -2.501600 0.812900 -13.187900 -0.600325 0.792633 -0.106504 0.544100 -0.432900 1 0 1.000000 
0 -3.604000 -1.848600 -13.187900 -0.984969 0.135996 -0.106497 0.595100 -0.432900 1 0 1.000000 
metal_streetprops001a
0 4.096800 -1.848600 13.382800 0.984426 0.069202 0.161604 0.799100 -0.042800 1 0 1.000000 
0 3.284800 -3.808800 13.382800 0.911314 -0.377506 0.164303 0.762700 -0.042800 1 0 1.000000 
0 3.807300 -4.231600 9.513000 0.856753 -0.351081 0.377779 0.761500 -0.100900 1 0 1.000000 
metal_streetprops001a
0 3.807300 -4.231600 9.513000 0.856753 -0.351081 0.377779 0.761500 -0.100900 1 0 1.000000 
0 5.741700 -1.848600 3.631000 0.999583 0.003100 0.028700 0.799100 -0.189100 1 0 1.000000 
0 4.096800 -1.848600 13.382800 0.984426 0.069202 0.161604 0.799100 -0.042800 1 0 1.000000 
metal_streetprops001a
0 3.807300 -4.231600 9.513000 0.856753 -0.351081 0.377779 0.761500 -0.100900 1 0 1.000000 
0 4.106801 -5.795600 3.631000 0.796929 -0.603522 0.025801 0.748100 -0.189100 1 0 1.000000 
0 5.741700 -1.848600 3.631000 0.999583 0.003100 0.028700 0.799100 -0.189100 1 0 1.000000 
metal_streetprops001a
0 3.807300 -4.231600 9.513000 0.856753 -0.351081 0.377779 0.761500 -0.100900 1 0 1.000000 
0 3.437100 -5.125800 9.512100 0.453301 -0.598102 0.660902 0.748100 -0.100900 1 0 1.000000 
0 4.106801 -5.795600 3.631000 0.796929 -0.603522 0.025801 0.748100 -0.189100 1 0 1.000000 
metal_streetprops001a
0 0.159800 -7.430500 3.631000 0.134497 -0.988177 0.073598 0.697100 -0.189100 1 0 1.000000 
0 4.106801 -5.795600 3.631000 0.796929 -0.603522 0.025801 0.748100 -0.189100 1 0 1.000000 
0 3.437100 -5.125800 9.512100 0.453301 -0.598102 0.660902 0.748100 -0.100900 1 0 1.000000 
metal_streetprops001a
0 0.159800 -7.430500 3.631000 0.134497 -0.988177 0.073598 0.697100 -0.189100 1 0 1.000000 
0 3.437100 -5.125800 9.512100 0.453301 -0.598102 0.660902 0.748100 -0.100900 1 0 1.000000 
0 2.631100 -5.459500 9.512900 0.698584 -0.280194 0.658385 0.736100 -0.100900 1 0 1.000000 
metal_streetprops001a
0 -3.488600 0.532400 9.512900 -0.629481 0.693780 0.349890 0.557500 -0.100900 1 0 1.000000 
0 -3.787200 2.098500 3.631000 -0.796929 0.603522 0.025801 0.544100 -0.189100 1 0 1.000000 
0 -5.422100 -1.848600 3.631000 -0.992945 -0.100705 0.062603 0.595100 -0.189100 1 0 1.000000 
metal_streetprops001a
0 -3.488600 0.532400 9.512900 -0.629481 0.693780 0.349890 0.557500 -0.100900 1 0 1.000000 
0 -5.422100 -1.848600 3.631000 -0.992945 -0.100705 0.062603 0.595100 -0.189100 1 0 1.000000 
0 -3.777200 -1.848600 13.382800 -0.985701 0.091800 0.141300 0.595100 -0.042800 1 0 1.000000 
metal_streetprops001a
0 -2.971200 -3.858300 13.386300 -0.650674 -0.741371 0.164293 0.632100 -0.042800 1 0 1.000000 
0 -3.777200 -1.848600 13.382800 -0.985701 0.091800 0.141300 0.595100 -0.042800 1 0 1.000000 
0 -5.422100 -1.848600 3.631000 -0.992945 -0.100705 0.062603 0.595100 -0.189100 1 0 1.000000 
metal_streetprops001a
0 -5.422100 -1.848600 3.631000 -0.992945 -0.100705 0.062603 0.595100 -0.189100 1 0 1.000000 
0 -3.462800 -4.291700 9.512900 -0.386612 -0.588919 0.709722 0.633600 -0.100900 1 0 1.000000 
0 -2.971200 -3.858300 13.386300 -0.650674 -0.741371 0.164293 0.632100 -0.042800 1 0 1.000000 
metal_streetprops001a
0 -5.422100 -1.848600 3.631000 -0.992945 -0.100705 0.062603 0.595100 -0.189100 1 0 1.000000 
0 -3.787200 -5.795600 3.631000 -0.663294 -0.746993 0.045200 0.646100 -0.189100 1 0 1.000000 
0 -3.462800 -4.291700 9.512900 -0.386612 -0.588919 0.709722 0.633600 -0.100900 1 0 1.000000 
metal_streetprops001a
0 -3.787200 -5.795600 3.631000 -0.663294 -0.746993 0.045200 0.646100 -0.189100 1 0 1.000000 
0 -3.117500 -5.125800 9.512100 -0.577317 -0.577317 0.577417 0.646100 -0.100900 1 0 1.000000 
0 -3.462800 -4.291700 9.512900 -0.386612 -0.588919 0.709722 0.633600 -0.100900 1 0 1.000000 
metal_streetprops001a
0 -2.243500 -5.487700 9.512900 -0.314302 -0.773905 0.549804 0.659200 -0.100900 1 0 1.000000 
0 -3.117500 -5.125800 9.512100 -0.577317 -0.577317 0.577417 0.646100 -0.100900 1 0 1.000000 
0 -3.787200 -5.795600 3.631000 -0.663294 -0.746993 0.045200 0.646100 -0.189100 1 0 1.000000 
metal_streetprops001a
0 -2.243500 -5.487700 9.512900 -0.314302 -0.773905 0.549804 0.659200 -0.100900 1 0 1.000000 
0 -3.787200 -5.795600 3.631000 -0.663294 -0.746993 0.045200 0.646100 -0.189100 1 0 1.000000 
0 0.159800 -7.430500 3.631000 0.134497 -0.988177 0.073598 0.697100 -0.189100 1 0 1.000000 
metal_streetprops001a
0 -2.243500 -5.487700 9.512900 -0.314302 -0.773905 0.549804 0.659200 -0.100900 1 0 1.000000 
0 0.159800 -7.430500 3.631000 0.134497 -0.988177 0.073598 0.697100 -0.189100 1 0 1.000000 
0 0.159800 -5.785500 13.382800 -0.124796 -0.978266 0.165594 0.697100 -0.042800 1 0 1.000000 
metal_streetprops001a
0 2.184600 -4.946800 13.382800 0.740643 -0.650837 0.166910 0.734700 -0.042800 1 0 1.000000 
0 0.159800 -5.785500 13.382800 -0.124796 -0.978266 0.165594 0.697100 -0.042800 1 0 1.000000 
0 0.159800 -7.430500 3.631000 0.134497 -0.988177 0.073598 0.697100 -0.189100 1 0 1.000000 
metal_streetprops001a
0 0.159800 -7.430500 3.631000 0.134497 -0.988177 0.073598 0.697100 -0.189100 1 0 1.000000 
0 2.631100 -5.459500 9.512900 0.698584 -0.280194 0.658385 0.736100 -0.100900 1 0 1.000000 
0 2.184600 -4.946800 13.382800 0.740643 -0.650837 0.166910 0.734700 -0.042800 1 0 1.000000 
metal_streetprops001a
0 1.919900 -4.406200 13.997900 0.980393 -0.168899 0.101499 0.736300 -0.033600 1 0 1.000000 
0 2.184600 -4.946800 13.382800 0.740643 -0.650837 0.166910 0.734700 -0.042800 1 0 1.000000 
0 2.631100 -5.459500 9.512900 0.698584 -0.280194 0.658385 0.736100 -0.100900 1 0 1.000000 
metal_streetprops001a
0 0.159800 -5.785500 13.382800 -0.124796 -0.978266 0.165594 0.697100 -0.042800 1 0 1.000000 
0 -1.825100 -5.003000 13.334400 -0.365492 -0.917581 0.156397 0.660600 -0.043600 1 0 1.000000 
0 -2.243500 -5.487700 9.512900 -0.314302 -0.773905 0.549804 0.659200 -0.100900 1 0 1.000000 
metal_streetprops001a
0 0.518500 7.430500 -0.905200 -0.000000 1.000000 0.000000 0.899300 -0.257300 1 0 1.000000 
0 0.170800 7.430500 0.268400 -0.000000 1.000000 0.000000 0.902600 -0.239700 1 0 1.000000 
0 0.771000 7.430500 -0.192100 -0.000000 1.000000 0.000000 0.896800 -0.246600 1 0 1.000000 
metal_streetprops001a
0 0.518500 7.430500 -0.905200 -0.000000 1.000000 0.000000 0.899300 -0.257300 1 0 1.000000 
0 -0.452600 7.430500 -0.160100 -0.000000 1.000000 0.000000 0.908700 -0.246100 1 0 1.000000 
0 0.170800 7.430500 0.268400 -0.000000 1.000000 0.000000 0.902600 -0.239700 1 0 1.000000 
metal_streetprops001a
0 0.518500 7.430500 -0.905200 -0.000000 1.000000 0.000000 0.899300 -0.257300 1 0 1.000000 
0 -0.237800 7.430500 -0.885400 -0.000000 1.000000 0.000000 0.906600 -0.257000 1 0 1.000000 
0 -0.452600 7.430500 -0.160100 -0.000000 1.000000 0.000000 0.908700 -0.246100 1 0 1.000000 
metal_streetprops001a
0 0.154000 -5.855800 -0.374900 0.000000 -1.000000 0.000000 0.728000 -0.013100 1 0 1.000000 
0 0.170800 7.430500 0.268400 0.026100 -0.048399 0.998487 0.672400 -0.180200 1 0 1.000000 
0 -0.452600 7.430500 -0.160100 -0.941537 -0.048402 0.333413 0.717300 -0.180200 1 0 1.000000 
metal_streetprops001a
0 0.154000 -5.855800 -0.374900 0.000000 -1.000000 0.000000 0.728000 -0.013100 1 0 1.000000 
0 0.771000 7.430500 -0.192100 0.957691 -0.048400 0.283697 0.625500 -0.180200 1 0 1.000000 
0 0.170800 7.430500 0.268400 0.026100 -0.048399 0.998487 0.672400 -0.180200 1 0 1.000000 
metal_streetprops001a
0 0.154000 -5.855800 -0.374900 0.000000 -1.000000 0.000000 0.728000 -0.013100 1 0 1.000000 
0 0.518500 7.430500 -0.905200 0.565695 -0.048400 -0.823193 0.807700 -0.180200 1 0 1.000000 
0 0.771000 7.430500 -0.192100 0.957691 -0.048400 0.283697 0.625500 -0.180200 1 0 1.000000 
metal_streetprops001a
0 0.154000 -5.855800 -0.374900 0.000000 -1.000000 0.000000 0.728000 -0.013100 1 0 1.000000 
0 -0.237800 7.430500 -0.885400 -0.608029 -0.048402 -0.792438 0.761800 -0.180200 1 0 1.000000 
0 0.518500 7.430500 -0.905200 0.565695 -0.048400 -0.823193 0.807700 -0.180200 1 0 1.000000 
metal_streetprops001a
0 0.154000 -5.855800 -0.374900 0.000000 -1.000000 0.000000 0.728000 -0.013100 1 0 1.000000 
0 -0.452600 7.430500 -0.160100 -0.941537 -0.048402 0.333413 0.717300 -0.180200 1 0 1.000000 
0 -0.237800 7.430500 -0.885400 -0.608029 -0.048402 -0.792438 0.761800 -0.180200 1 0 1.000000 
metal_streetprops001a
0 2.762500 -0.081800 13.986700 -0.492309 0.870116 0.023000 0.943300 -0.013200 1 0 1.000000 
0 3.776100 0.610000 9.512900 -0.492309 0.870116 0.023000 0.998000 -0.009700 1 0 1.000000 
0 3.086600 0.283600 9.514700 -0.427419 0.903040 0.042802 0.998000 -0.012400 1 0 1.000000 
metal_streetprops001a
0 2.762500 -0.081800 13.986700 -0.492309 0.870116 0.023000 0.943300 -0.013200 1 0 1.000000 
0 3.291200 0.272300 13.453500 -0.554374 0.832261 0.003100 0.949900 -0.011000 1 0 1.000000 
0 3.776100 0.610000 9.512900 -0.492309 0.870116 0.023000 0.998000 -0.009700 1 0 1.000000 
metal_streetprops001a
0 -2.461200 -3.605700 13.983300 -0.688691 -0.716891 0.108499 0.944900 -0.005600 1 0 1.000000 
0 -1.942200 -4.780600 9.514700 -0.688691 -0.716891 0.108499 0.996800 -0.013800 1 0 1.000000 
0 -1.589300 -4.441600 13.990700 -0.688378 -0.717177 0.108596 0.944900 -0.013100 1 0 1.000000 
metal_streetprops001a
0 -2.461200 -3.605700 13.983300 -0.688691 -0.716891 0.108499 0.944900 -0.005600 1 0 1.000000 
0 -2.784700 -3.970600 9.514700 -0.689004 -0.716605 0.108401 0.996800 -0.005800 1 0 1.000000 
0 -1.942200 -4.780600 9.514700 -0.688691 -0.716891 0.108499 0.996800 -0.013800 1 0 1.000000 
metal_streetprops001a
0 3.284800 -3.808800 13.382800 -0.375801 -0.925503 0.047100 0.940600 0.000200 1 0 1.000000 
0 3.120000 -3.938700 9.514700 -0.375801 -0.925503 0.047100 0.998600 -0.002900 1 0 1.000000 
0 3.807300 -4.231600 9.513000 -0.391603 -0.918907 0.047500 0.998600 -0.001100 1 0 1.000000 
metal_streetprops001a
0 3.284800 -3.808800 13.382800 -0.375801 -0.925503 0.047100 0.940600 0.000200 1 0 1.000000 
0 2.729900 -3.563600 13.999400 -0.359996 -0.931789 0.046599 0.931300 -0.001100 1 0 1.000000 
0 3.120000 -3.938700 9.514700 -0.375801 -0.925503 0.047100 0.998600 -0.002900 1 0 1.000000 
metal_streetprops001a
0 -1.589300 -4.441600 13.990700 -0.932247 0.357980 0.052597 0.944900 -0.013100 1 0 1.000000 
0 -2.243500 -5.487700 9.512900 -0.932247 0.357980 0.052597 0.996800 -0.019300 1 0 1.000000 
0 -1.825100 -5.003000 13.334400 -0.944075 0.323791 0.062298 0.952500 -0.020100 1 0 1.000000 
metal_streetprops001a
0 -1.589300 -4.441600 13.990700 -0.932247 0.357980 0.052597 0.944900 -0.013100 1 0 1.000000 
0 -1.942200 -4.780600 9.514700 -0.919133 0.391614 0.042802 0.996800 -0.013800 1 0 1.000000 
0 -2.243500 -5.487700 9.512900 -0.932247 0.357980 0.052597 0.996800 -0.019300 1 0 1.000000 
metal_streetprops001a
0 -2.461200 -3.605700 13.983300 0.410216 -0.910735 0.047802 0.944900 -0.005600 1 0 1.000000 
0 -3.462800 -4.291700 9.512900 -0.386612 -0.588919 0.709722 0.996800 -0.000400 1 0 1.000000 
0 -2.784700 -3.970600 9.514700 0.294686 -0.626270 0.721766 0.996800 -0.005800 1 0 1.000000 
metal_streetprops001a
0 -2.461200 -3.605700 13.983300 0.410216 -0.910735 0.047802 0.944900 -0.005600 1 0 1.000000 
0 -2.971200 -3.858300 13.386300 -0.650674 -0.741371 0.164293 0.951900 -0.002000 1 0 1.000000 
0 -3.462800 -4.291700 9.512900 -0.386612 -0.588919 0.709722 0.996800 -0.000400 1 0 1.000000 
metal_streetprops001a
0 -3.462800 -4.291700 9.512900 -0.386612 -0.588919 0.709722 0.997300 -0.012800 1 0 1.000000 
0 -1.942200 -4.780600 9.514700 -0.001700 -0.001800 0.999997 0.996800 -0.013800 1 0 1.000000 
0 -2.784700 -3.970600 9.514700 0.294686 -0.626270 0.721766 0.996800 -0.005800 1 0 1.000000 
metal_streetprops001a
0 -3.462800 -4.291700 9.512900 -0.386612 -0.588919 0.709722 0.997300 -0.012800 1 0 1.000000 
0 -2.243500 -5.487700 9.512900 -0.314302 -0.773905 0.549804 0.996800 -0.019300 1 0 1.000000 
0 -1.942200 -4.780600 9.514700 -0.001700 -0.001800 0.999997 0.996800 -0.013800 1 0 1.000000 
metal_streetprops001a
0 -3.462800 -4.291700 9.512900 -0.386612 -0.588919 0.709722 0.997300 -0.012800 1 0 1.000000 
0 -3.117500 -5.125800 9.512100 -0.577317 -0.577317 0.577417 0.997300 -0.012700 1 0 1.000000 
0 -2.243500 -5.487700 9.512900 -0.314302 -0.773905 0.549804 0.996800 -0.019300 1 0 1.000000 
metal_streetprops001a
0 0.162700 6.699000 0.582100 -0.000000 1.000000 0.000000 0.902700 -0.235000 1 0 1.000000 
0 -0.704200 6.699000 -0.919400 -0.000000 1.000000 0.000000 0.912000 -0.257500 1 0 1.000000 
0 -0.704200 6.699000 0.081600 -0.000000 1.000000 0.000000 0.912000 -0.242500 1 0 1.000000 
metal_streetprops001a
0 0.162700 6.699000 0.582100 -0.000000 1.000000 0.000000 0.902700 -0.235000 1 0 1.000000 
0 0.162700 6.699000 -1.419900 -0.000000 1.000000 0.000000 0.902700 -0.265000 1 0 1.000000 
0 -0.704200 6.699000 -0.919400 -0.000000 1.000000 0.000000 0.912000 -0.257500 1 0 1.000000 
metal_streetprops001a
0 0.162700 6.699000 0.582100 -0.000000 1.000000 0.000000 0.902700 -0.235000 1 0 1.000000 
0 1.029600 6.699000 -0.919400 -0.000000 1.000000 0.000000 0.893400 -0.257500 1 0 1.000000 
0 0.162700 6.699000 -1.419900 -0.000000 1.000000 0.000000 0.902700 -0.265000 1 0 1.000000 
metal_streetprops001a
0 0.162700 6.699000 0.582100 -0.000000 1.000000 0.000000 0.902700 -0.235000 1 0 1.000000 
0 1.029600 6.699000 0.081600 -0.000000 1.000000 0.000000 0.893400 -0.242500 1 0 1.000000 
0 1.029600 6.699000 -0.919400 -0.000000 1.000000 0.000000 0.893400 -0.257500 1 0 1.000000 
metal_streetprops001a
0 -1.613700 0.752700 13.986400 -0.860769 -0.508681 0.017899 0.932000 -0.014000 1 0 1.000000 
0 -2.305000 1.765100 9.512900 -0.860769 -0.508681 0.017899 0.996900 -0.018800 1 0 1.000000 
0 -1.979000 1.076700 9.514700 -0.903040 -0.427419 0.042802 0.997100 -0.013200 1 0 1.000000 
metal_streetprops001a
0 -1.613700 0.752700 13.986400 -0.860769 -0.508681 0.017899 0.932000 -0.014000 1 0 1.000000 
0 -2.061400 1.377500 13.601000 -0.810708 -0.585406 -0.007200 0.937200 -0.019100 1 0 1.000000 
0 -2.305000 1.765100 9.512900 -0.860769 -0.508681 0.017899 0.996900 -0.018800 1 0 1.000000 
metal_streetprops001a
0 -2.065000 -1.924100 3.562100 1.000000 0.000000 0.000000 0.780700 -0.214100 1 0 1.000000 
0 -9.404400 -1.559700 3.031800 0.087301 0.564204 -0.821006 0.776200 -0.127500 1 0 1.000000 
0 -9.404400 -1.307100 3.744900 0.087297 0.955171 0.282891 0.766100 -0.127500 1 0 1.000000 
metal_streetprops001a
0 -2.065000 -1.924100 3.562100 1.000000 0.000000 0.000000 0.780700 -0.214100 1 0 1.000000 
0 -9.404400 -2.315901 3.051600 0.087304 -0.606425 -0.790333 0.785100 -0.127500 1 0 1.000000 
0 -9.404400 -1.559700 3.031800 0.087301 0.564204 -0.821006 0.776200 -0.127500 1 0 1.000000 
metal_streetprops001a
0 -2.065000 -1.924100 3.562100 1.000000 0.000000 0.000000 0.780700 -0.214100 1 0 1.000000 
0 -9.404400 -2.530700 3.776900 0.087304 -0.939048 0.332517 0.795300 -0.127500 1 0 1.000000 
0 -9.404400 -2.315901 3.051600 0.087304 -0.606425 -0.790333 0.785100 -0.127500 1 0 1.000000 
metal_streetprops001a
0 -2.065000 -1.924100 3.562100 1.000000 0.000000 0.000000 0.759000 -0.251300 1 0 1.000000 
0 -9.404400 -1.907300 4.205400 0.087303 0.026101 0.995840 0.754800 -0.127500 1 0 1.000000 
0 -9.404400 -2.530700 3.776900 0.087304 -0.939048 0.332517 0.743700 -0.127500 1 0 1.000000 
metal_streetprops001a
0 -2.065000 -1.924100 3.562100 1.000000 0.000000 0.000000 0.759000 -0.251300 1 0 1.000000 
0 -9.404400 -1.307100 3.744900 0.087297 0.955171 0.282891 0.766100 -0.127500 1 0 1.000000 
0 -9.404400 -1.907300 4.205400 0.087303 0.026101 0.995840 0.754800 -0.127500 1 0 1.000000 
metal_streetprops001a
0 0.342900 -1.911100 -12.595800 0.000000 0.000000 -1.000000 0.639300 -0.619500 1 0 1.000000 
0 -0.551300 -1.934600 14.861700 -0.999125 -0.026201 -0.032601 0.626600 -0.195600 1 0 1.000000 
0 0.044300 -1.068000 14.861700 -0.333616 0.942145 -0.032602 0.633500 -0.195600 1 0 1.000000 
metal_streetprops001a
0 0.342900 -1.911100 -12.595800 0.000000 0.000000 -1.000000 0.639300 -0.619500 1 0 1.000000 
0 0.088900 -2.768800 14.861700 -0.283900 -0.958299 -0.032600 0.635900 -0.195600 1 0 1.000000 
0 -0.551300 -1.934600 14.861700 -0.999125 -0.026201 -0.032601 0.626600 -0.195600 1 0 1.000000 
metal_streetprops001a
0 0.342900 -1.911100 -12.595800 0.000000 0.000000 -1.000000 0.639300 -0.619500 1 0 1.000000 
0 1.080100 -2.417800 14.861700 0.823694 -0.566096 -0.032600 0.646900 -0.195600 1 0 1.000000 
0 0.088900 -2.768800 14.861700 -0.283900 -0.958299 -0.032600 0.635900 -0.195600 1 0 1.000000 
metal_streetprops001a
0 0.342900 -1.911100 -12.595800 0.000000 0.000000 -1.000000 0.639300 -0.619500 1 0 1.000000 
0 1.052500 -1.366600 14.861700 0.792938 0.608429 -0.032602 0.653100 -0.195600 1 0 1.000000 
0 1.080100 -2.417800 14.861700 0.823694 -0.566096 -0.032600 0.646900 -0.195600 1 0 1.000000 
metal_streetprops001a
0 0.342900 -1.911100 -12.595800 0.000000 0.000000 -1.000000 0.639300 -0.619500 1 0 1.000000 
0 0.044300 -1.068000 14.861700 -0.333616 0.942145 -0.032602 0.633500 -0.195600 1 0 1.000000 
0 1.052500 -1.366600 14.861700 0.792938 0.608429 -0.032602 0.653100 -0.195600 1 0 1.000000 
metal_streetprops001a
0 0.345800 -1.913200 1.168400 0.000000 0.000000 -1.000000 0.639400 -0.407000 1 0 1.000000 
0 -0.185800 -1.927100 15.429000 -0.998961 -0.026199 -0.037299 0.631600 -0.186800 1 0 1.000000 
0 0.168300 -1.411800 15.429000 -0.333593 0.941979 -0.037299 0.636800 -0.186800 1 0 1.000000 
metal_streetprops001a
0 0.345800 -1.913200 1.168400 0.000000 0.000000 -1.000000 0.639400 -0.407000 1 0 1.000000 
0 0.194800 -2.423100 15.429000 -0.283788 -0.958161 -0.037298 0.637000 -0.186800 1 0 1.000000 
0 -0.185800 -1.927100 15.429000 -0.998961 -0.026199 -0.037299 0.631600 -0.186800 1 0 1.000000 
metal_streetprops001a
0 0.345800 -1.913200 1.168400 0.000000 0.000000 -1.000000 0.639400 -0.407000 1 0 1.000000 
0 0.784100 -2.214400 15.429000 0.823573 -0.565982 -0.037299 0.644400 -0.186800 1 0 1.000000 
0 0.194800 -2.423100 15.429000 -0.283788 -0.958161 -0.037298 0.637000 -0.186800 1 0 1.000000 
metal_streetprops001a
0 0.345800 -1.913200 1.168400 0.000000 0.000000 -1.000000 0.639400 -0.407000 1 0 1.000000 
0 0.767700 -1.589400 15.429000 0.792819 0.608315 -0.037301 0.647000 -0.186800 1 0 1.000000 
0 0.784100 -2.214400 15.429000 0.823573 -0.565982 -0.037299 0.644400 -0.186800 1 0 1.000000 
metal_streetprops001a
0 0.345800 -1.913200 1.168400 0.000000 0.000000 -1.000000 0.639400 -0.407000 1 0 1.000000 
0 0.168300 -1.411800 15.429000 -0.333593 0.941979 -0.037299 0.636800 -0.186800 1 0 1.000000 
0 0.767700 -1.589400 15.429000 0.792819 0.608315 -0.037301 0.647000 -0.186800 1 0 1.000000 
metal_streetprops001a
0 2.065000 -1.912500 3.562100 -1.000000 -0.000000 0.000000 0.765100 -0.214100 1 0 1.000000 
0 9.404400 -2.276999 3.031800 -0.087301 -0.564204 -0.821006 0.760600 -0.127500 1 0 1.000000 
0 9.404400 -2.529500 3.744900 -0.087297 -0.955171 0.282891 0.750500 -0.127500 1 0 1.000000 
metal_streetprops001a
0 2.065000 -1.912500 3.562100 -1.000000 -0.000000 0.000000 0.765100 -0.214100 1 0 1.000000 
0 9.404400 -1.520800 3.051600 -0.087304 0.606425 -0.790333 0.769500 -0.127500 1 0 1.000000 
0 9.404400 -2.276999 3.031800 -0.087301 -0.564204 -0.821006 0.760600 -0.127500 1 0 1.000000 
metal_streetprops001a
0 2.065000 -1.912500 3.562100 -1.000000 -0.000000 0.000000 0.765100 -0.214100 1 0 1.000000 
0 9.404400 -1.305900 3.776900 -0.087304 0.939048 0.332517 0.779700 -0.127500 1 0 1.000000 
0 9.404400 -1.520800 3.051600 -0.087304 0.606425 -0.790333 0.769500 -0.127500 1 0 1.000000 
metal_streetprops001a
0 2.065000 -1.912500 3.562100 -1.000000 -0.000000 0.000000 0.743400 -0.251300 1 0 1.000000 
0 9.404400 -1.929400 4.205400 -0.087303 -0.026101 0.995840 0.739200 -0.127500 1 0 1.000000 
0 9.404400 -1.305900 3.776900 -0.087304 0.939048 0.332517 0.728100 -0.127500 1 0 1.000000 
metal_streetprops001a
0 2.065000 -1.912500 3.562100 -1.000000 -0.000000 0.000000 0.743400 -0.251300 1 0 1.000000 
0 9.404400 -2.529500 3.744900 -0.087297 -0.955171 0.282891 0.750500 -0.127500 1 0 1.000000 
0 9.404400 -1.929400 4.205400 -0.087303 -0.026101 0.995840 0.739200 -0.127500 1 0 1.000000 
metal_streetprops001a
0 2.128700 1.405600 13.436600 0.988112 0.110001 0.107401 0.949900 -0.019800 1 0 1.000000 
0 1.891300 0.754700 13.990000 0.894811 0.434305 0.103401 0.943200 -0.017400 1 0 1.000000 
0 2.244100 1.093600 9.514700 0.902887 0.008500 0.429794 0.998000 -0.019600 1 0 1.000000 
metal_streetprops001a
0 3.086600 0.283600 9.514700 0.365299 0.379999 0.849798 0.998000 -0.012400 1 0 1.000000 
0 2.244100 1.093600 9.514700 0.902887 0.008500 0.429794 0.998000 -0.019600 1 0 1.000000 
0 1.891300 0.754700 13.990000 0.894811 0.434305 0.103401 0.943200 -0.017400 1 0 1.000000 
metal_streetprops001a
0 3.086600 0.283600 9.514700 0.365299 0.379999 0.849798 0.998000 -0.012400 1 0 1.000000 
0 2.544400 1.798300 9.512900 0.494382 0.605279 0.623878 0.998100 -0.003200 1 0 1.000000 
0 2.244100 1.093600 9.514700 0.902887 0.008500 0.429794 0.998000 -0.019600 1 0 1.000000 
metal_streetprops001a
0 3.086600 0.283600 9.514700 0.365299 0.379999 0.849798 0.998000 -0.012400 1 0 1.000000 
0 3.437100 1.428700 9.512000 0.441283 0.441283 0.781370 0.998000 -0.006600 1 0 1.000000 
0 2.544400 1.798300 9.512900 0.494382 0.605279 0.623878 0.998100 -0.003200 1 0 1.000000 
metal_streetprops001a
0 3.086600 0.283600 9.514700 0.365299 0.379999 0.849798 0.998000 -0.012400 1 0 1.000000 
0 3.776100 0.610000 9.512900 0.841117 0.323407 0.433509 0.998000 -0.009700 1 0 1.000000 
0 3.437100 1.428700 9.512000 0.441283 0.441283 0.781370 0.998000 -0.006600 1 0 1.000000 
metal_streetprops001a
0 3.086600 0.283600 9.514700 0.365299 0.379999 0.849798 0.998000 -0.012400 1 0 1.000000 
0 1.891300 0.754700 13.990000 0.894811 0.434305 0.103401 0.943200 -0.017400 1 0 1.000000 
0 2.762500 -0.081800 13.986700 0.688740 0.716842 0.108506 0.943300 -0.013200 1 0 1.000000 
metal_streetprops001a
0 2.128700 1.405600 13.436600 0.988112 0.110001 0.107401 0.950300 -0.000700 1 0 1.000000 
0 2.244100 1.093600 9.514700 0.902887 0.008500 0.429794 0.998100 -0.000500 1 0 1.000000 
0 2.544400 1.798300 9.512900 0.494382 0.605279 0.623878 0.998100 -0.003200 1 0 1.000000 
metal_streetprops001a
0 3.013000 0.981300 5.312300 0.000000 0.000000 -1.000000 0.813200 -0.164000 1 0 1.000000 
0 3.284200 0.710100 9.994400 0.423993 -0.423993 0.800287 0.805500 -0.093700 1 0 1.000000 
0 2.741800 0.710100 9.994400 -0.599279 -0.599279 0.530781 0.808700 -0.093700 1 0 1.000000 
metal_streetprops001a
0 3.013000 0.981300 5.312300 0.000000 0.000000 -1.000000 0.813200 -0.164000 1 0 1.000000 
0 3.284200 1.252500 9.994400 0.599279 0.599279 0.530781 0.816900 -0.093700 1 0 1.000000 
0 3.284200 0.710100 9.994400 0.423993 -0.423993 0.800287 0.805500 -0.093700 1 0 1.000000 
metal_streetprops001a
0 3.284200 0.710100 9.994400 0.423993 -0.423993 0.800287 0.805500 -0.093700 1 0 1.000000 
0 3.284200 1.252500 9.994400 0.599279 0.599279 0.530781 0.816900 -0.093700 1 0 1.000000 
0 2.741800 1.252500 9.994400 -0.423993 0.423993 0.800287 0.821900 -0.093700 1 0 1.000000 
metal_streetprops001a
0 3.013000 0.981300 5.312300 0.000000 0.000000 -1.000000 0.813200 -0.164000 1 0 1.000000 
0 2.741800 1.252500 9.994400 -0.423993 0.423993 0.800287 0.821900 -0.093700 1 0 1.000000 
0 3.284200 1.252500 9.994400 0.599279 0.599279 0.530781 0.816900 -0.093700 1 0 1.000000 
metal_streetprops001a
0 3.013000 0.981300 5.312300 0.000000 0.000000 -1.000000 0.813200 -0.164000 1 0 1.000000 
0 2.741800 0.710100 9.994400 -0.599279 -0.599279 0.530781 0.808700 -0.093700 1 0 1.000000 
0 2.741800 1.252500 9.994400 -0.423993 0.423993 0.800287 0.821900 -0.093700 1 0 1.000000 
metal_streetprops001a
0 3.284200 0.710100 9.994400 0.423993 -0.423993 0.800287 0.805500 -0.093700 1 0 1.000000 
0 2.741800 1.252500 9.994400 -0.423993 0.423993 0.800287 0.821900 -0.093700 1 0 1.000000 
0 2.741800 0.710100 9.994400 -0.599279 -0.599279 0.530781 0.808700 -0.093700 1 0 1.000000 
metal_streetprops001a
0 0.162700 -6.600500 -0.418900 0.000000 -1.000000 0.000000 0.774300 -0.003700 1 0 1.000000 
0 1.029600 6.699000 -0.919400 0.863580 -0.075098 -0.498588 0.823400 -0.171000 1 0 1.000000 
0 1.029600 6.699000 0.081600 0.863580 -0.075098 0.498588 0.862200 -0.171000 1 0 1.000000 
metal_streetprops001a
0 0.162700 -6.600500 -0.418900 0.000000 -1.000000 0.000000 0.774300 -0.003700 1 0 1.000000 
0 0.162700 6.699000 -1.419900 0.000000 -0.075098 -0.997176 0.786300 -0.171000 1 0 1.000000 
0 1.029600 6.699000 -0.919400 0.863580 -0.075098 -0.498588 0.823400 -0.171000 1 0 1.000000 
metal_streetprops001a
0 0.162700 -6.600500 -0.418900 0.000000 -1.000000 0.000000 0.774300 -0.003700 1 0 1.000000 
0 -0.704200 6.699000 -0.919400 -0.863580 -0.075098 -0.498588 0.749600 -0.171000 1 0 1.000000 
0 0.162700 6.699000 -1.419900 0.000000 -0.075098 -0.997176 0.786300 -0.171000 1 0 1.000000 
metal_streetprops001a
0 0.162700 -6.600500 -0.418900 0.000000 -1.000000 0.000000 0.774300 -0.003700 1 0 1.000000 
0 -0.704200 6.699000 0.081600 -0.863580 -0.075098 0.498588 0.711900 -0.171000 1 0 1.000000 
0 -0.704200 6.699000 -0.919400 -0.863580 -0.075098 -0.498588 0.749600 -0.171000 1 0 1.000000 
metal_streetprops001a
0 0.162700 -6.600500 -0.418900 0.000000 -1.000000 0.000000 0.774300 -0.003700 1 0 1.000000 
0 0.162700 6.699000 0.582100 0.000000 -0.075098 0.997176 0.672500 -0.171000 1 0 1.000000 
0 -0.704200 6.699000 0.081600 -0.863580 -0.075098 0.498588 0.711900 -0.171000 1 0 1.000000 
metal_streetprops001a
0 0.162700 -6.600500 -0.418900 0.000000 -1.000000 0.000000 0.774300 -0.003700 1 0 1.000000 
0 1.029600 6.699000 0.081600 0.863580 -0.075098 0.498588 0.632600 -0.171000 1 0 1.000000 
0 0.162700 6.699000 0.582100 0.000000 -0.075098 0.997176 0.672500 -0.171000 1 0 1.000000 
metal_streetprops001a
0 3.013000 -4.711100 5.312300 0.000000 0.000000 -1.000000 0.715200 -0.164000 1 0 1.000000 
0 3.284200 -4.982300 9.994400 0.423993 -0.423993 0.800287 0.716300 -0.093700 1 0 1.000000 
0 2.741800 -4.982300 9.994400 -0.599279 -0.599279 0.530781 0.710400 -0.093700 1 0 1.000000 
metal_streetprops001a
0 3.013000 -4.711100 5.312300 0.000000 0.000000 -1.000000 0.715200 -0.164000 1 0 1.000000 
0 3.284200 -4.440000 9.994400 0.599279 0.599279 0.530781 0.720200 -0.093700 1 0 1.000000 
0 3.284200 -4.982300 9.994400 0.423993 -0.423993 0.800287 0.716300 -0.093700 1 0 1.000000 
metal_streetprops001a
0 3.284200 -4.982300 9.994400 0.423993 -0.423993 0.800287 0.716300 -0.093700 1 0 1.000000 
0 3.284200 -4.440000 9.994400 0.599279 0.599279 0.530781 0.720200 -0.093700 1 0 1.000000 
0 2.741800 -4.440000 9.994400 -0.423993 0.423993 0.800287 0.713900 -0.093700 1 0 1.000000 
metal_streetprops001a
0 3.013000 -4.711100 5.312300 0.000000 0.000000 -1.000000 0.715200 -0.164000 1 0 1.000000 
0 2.741800 -4.440000 9.994400 -0.423993 0.423993 0.800287 0.713900 -0.093700 1 0 1.000000 
0 3.284200 -4.440000 9.994400 0.599279 0.599279 0.530781 0.720200 -0.093700 1 0 1.000000 
metal_streetprops001a
0 3.013000 -4.711100 5.312300 0.000000 0.000000 -1.000000 0.715200 -0.164000 1 0 1.000000 
0 2.741800 -4.982300 9.994400 -0.599279 -0.599279 0.530781 0.710400 -0.093700 1 0 1.000000 
0 2.741800 -4.440000 9.994400 -0.423993 0.423993 0.800287 0.713900 -0.093700 1 0 1.000000 
metal_streetprops001a
0 3.284200 -4.982300 9.994400 0.423993 -0.423993 0.800287 0.716300 -0.093700 1 0 1.000000 
0 2.741800 -4.440000 9.994400 -0.423993 0.423993 0.800287 0.713900 -0.093700 1 0 1.000000 
0 2.741800 -4.982300 9.994400 -0.599279 -0.599279 0.530781 0.710400 -0.093700 1 0 1.000000 
metal_streetprops001a
0 2.734400 5.659900 -0.340900 -0.000000 1.000000 0.000000 0.871900 -0.248800 1 0 1.000000 
0 0.159800 5.659900 2.224400 -0.000000 1.000000 0.000000 0.902700 -0.210300 1 0 1.000000 
0 1.976600 5.659900 1.471900 -0.000000 1.000000 0.000000 0.880300 -0.221600 1 0 1.000000 
metal_streetprops001a
0 2.734400 5.659900 -0.340900 -0.000000 1.000000 0.000000 0.871900 -0.248800 1 0 1.000000 
0 -1.656900 5.659900 1.471900 -0.000000 1.000000 0.000000 0.925200 -0.221600 1 0 1.000000 
0 0.159800 5.659900 2.224400 -0.000000 1.000000 0.000000 0.902700 -0.210300 1 0 1.000000 
metal_streetprops001a
0 2.734400 5.659900 -0.340900 -0.000000 1.000000 0.000000 0.871900 -0.248800 1 0 1.000000 
0 -2.409400 5.659900 -0.344800 -0.000000 1.000000 0.000000 0.933500 -0.248900 1 0 1.000000 
0 -1.656900 5.659900 1.471900 -0.000000 1.000000 0.000000 0.925200 -0.221600 1 0 1.000000 
metal_streetprops001a
0 2.734400 5.659900 -0.340900 -0.000000 1.000000 0.000000 0.871900 -0.248800 1 0 1.000000 
0 -1.656900 5.659900 -2.161500 -0.000000 1.000000 0.000000 0.925200 -0.276200 1 0 1.000000 
0 -2.409400 5.659900 -0.344800 -0.000000 1.000000 0.000000 0.933500 -0.248900 1 0 1.000000 
metal_streetprops001a
0 2.734400 5.659900 -0.340900 -0.000000 1.000000 0.000000 0.871900 -0.248800 1 0 1.000000 
0 0.159800 5.659900 -2.914000 -0.000000 1.000000 0.000000 0.902700 -0.287400 1 0 1.000000 
0 -1.656900 5.659900 -2.161500 -0.000000 1.000000 0.000000 0.925200 -0.276200 1 0 1.000000 
metal_streetprops001a
0 2.734400 5.659900 -0.340900 -0.000000 1.000000 0.000000 0.871900 -0.248800 1 0 1.000000 
0 1.977600 5.659900 -2.168100 -0.000000 1.000000 0.000000 0.880300 -0.276200 1 0 1.000000 
0 0.159800 5.659900 -2.914000 -0.000000 1.000000 0.000000 0.902700 -0.287400 1 0 1.000000 
metal_streetprops001a
0 -2.695100 0.981300 5.312300 0.000000 0.000000 -1.000000 0.992300 -0.164000 1 0 1.000000 
0 -2.423900 0.710100 9.994400 0.423993 -0.423993 0.800287 0.986600 -0.093700 1 0 1.000000 
0 -2.966300 0.710100 9.994400 -0.599279 -0.599279 0.530781 0.989800 -0.093700 1 0 1.000000 
metal_streetprops001a
0 -2.695100 0.981300 5.312300 0.000000 0.000000 -1.000000 0.992300 -0.164000 1 0 1.000000 
0 -2.423900 1.252500 9.994400 0.599279 0.599279 0.530781 0.973400 -0.093700 1 0 1.000000 
0 -2.423900 0.710100 9.994400 0.423993 -0.423993 0.800287 0.986600 -0.093700 1 0 1.000000 
metal_streetprops001a
0 -2.423900 0.710100 9.994400 0.423993 -0.423993 0.800287 0.986600 -0.093700 1 0 1.000000 
0 -2.423900 1.252500 9.994400 0.599279 0.599279 0.530781 0.973400 -0.093700 1 0 1.000000 
0 -2.966300 1.252500 9.994400 -0.423993 0.423993 0.800287 0.978400 -0.093700 1 0 1.000000 
metal_streetprops001a
0 -2.695100 0.981300 5.312300 0.000000 0.000000 -1.000000 0.992300 -0.164000 1 0 1.000000 
0 -2.966300 1.252500 9.994400 -0.423993 0.423993 0.800287 0.978400 -0.093700 1 0 1.000000 
0 -2.423900 1.252500 9.994400 0.599279 0.599279 0.530781 0.973400 -0.093700 1 0 1.000000 
metal_streetprops001a
0 -2.695100 0.981300 5.312300 0.000000 0.000000 -1.000000 0.992300 -0.164000 1 0 1.000000 
0 -2.966300 0.710100 9.994400 -0.599279 -0.599279 0.530781 0.989800 -0.093700 1 0 1.000000 
0 -2.966300 1.252500 9.994400 -0.423993 0.423993 0.800287 0.978400 -0.093700 1 0 1.000000 
metal_streetprops001a
0 -2.423900 0.710100 9.994400 0.423993 -0.423993 0.800287 0.986600 -0.093700 1 0 1.000000 
0 -2.966300 1.252500 9.994400 -0.423993 0.423993 0.800287 0.978400 -0.093700 1 0 1.000000 
0 -2.966300 0.710100 9.994400 -0.599279 -0.599279 0.530781 0.989800 -0.093700 1 0 1.000000 
metal_streetprops001a
0 -1.613700 0.752700 13.986400 -0.001200 0.413094 0.910687 0.700000 -0.080900 1 0 1.000000 
0 1.891300 0.754700 13.990000 -0.001200 0.413094 0.910687 0.700000 -0.039900 1 0 1.000000 
0 0.159800 2.088400 13.382800 -0.001200 0.413094 0.910687 0.715600 -0.060200 1 0 1.000000 
metal_streetprops001a
0 -2.695100 -4.711100 5.312300 0.000000 0.000000 -1.000000 0.636600 -0.164000 1 0 1.000000 
0 -2.423900 -4.982300 9.994400 0.423993 -0.423993 0.800287 0.641400 -0.093700 1 0 1.000000 
0 -2.966300 -4.982300 9.994400 -0.599279 -0.599279 0.530781 0.635400 -0.093700 1 0 1.000000 
metal_streetprops001a
0 -2.695100 -4.711100 5.312300 0.000000 0.000000 -1.000000 0.636600 -0.164000 1 0 1.000000 
0 -2.423900 -4.440000 9.994400 0.599279 0.599279 0.530781 0.637800 -0.093700 1 0 1.000000 
0 -2.423900 -4.982300 9.994400 0.423993 -0.423993 0.800287 0.641400 -0.093700 1 0 1.000000 
metal_streetprops001a
0 -2.423900 -4.982300 9.994400 0.423993 -0.423993 0.800287 0.641400 -0.093700 1 0 1.000000 
0 -2.423900 -4.440000 9.994400 0.599279 0.599279 0.530781 0.637800 -0.093700 1 0 1.000000 
0 -2.966300 -4.440000 9.994400 -0.423993 0.423993 0.800287 0.631600 -0.093700 1 0 1.000000 
metal_streetprops001a
0 -2.695100 -4.711100 5.312300 0.000000 0.000000 -1.000000 0.636600 -0.164000 1 0 1.000000 
0 -2.966300 -4.440000 9.994400 -0.423993 0.423993 0.800287 0.631600 -0.093700 1 0 1.000000 
0 -2.423900 -4.440000 9.994400 0.599279 0.599279 0.530781 0.637800 -0.093700 1 0 1.000000 
metal_streetprops001a
0 -2.695100 -4.711100 5.312300 0.000000 0.000000 -1.000000 0.636600 -0.164000 1 0 1.000000 
0 -2.966300 -4.982300 9.994400 -0.599279 -0.599279 0.530781 0.635400 -0.093700 1 0 1.000000 
0 -2.966300 -4.440000 9.994400 -0.423993 0.423993 0.800287 0.631600 -0.093700 1 0 1.000000 
metal_streetprops001a
0 -2.423900 -4.982300 9.994400 0.423993 -0.423993 0.800287 0.641400 -0.093700 1 0 1.000000 
0 -2.966300 -4.440000 9.994400 -0.423993 0.423993 0.800287 0.631600 -0.093700 1 0 1.000000 
0 -2.966300 -4.982300 9.994400 -0.599279 -0.599279 0.530781 0.635400 -0.093700 1 0 1.000000 
metal_streetprops001a
0 2.128700 1.405600 13.436600 0.185505 0.596316 0.781021 0.707600 -0.037100 1 0 1.000000 
0 0.159800 2.088400 13.382800 0.185505 0.596316 0.781021 0.715600 -0.060200 1 0 1.000000 
0 1.891300 0.754700 13.990000 0.185505 0.596316 0.781021 0.700000 -0.039900 1 0 1.000000 
metal_streetprops001a
0 0.159800 5.659900 2.224400 0.167199 0.354998 0.919794 0.672200 -0.157900 1 0 1.000000 
0 2.868900 1.734900 2.364400 0.615901 0.322700 0.718701 0.643600 -0.108600 1 0 1.000000 
0 1.976600 5.659900 1.471900 0.775092 0.288197 0.562294 0.643700 -0.157900 1 0 1.000000 
metal_streetprops001a
0 0.159800 5.659900 2.224400 0.167199 0.354998 0.919794 0.672200 -0.157900 1 0 1.000000 
0 0.159800 1.734900 3.872700 -0.133499 0.366497 0.920792 0.672100 -0.108600 1 0 1.000000 
0 2.868900 1.734900 2.364400 0.615901 0.322700 0.718701 0.643600 -0.108600 1 0 1.000000 
metal_streetprops001a
0 -1.656900 5.659900 1.471900 -0.601377 0.331887 0.726772 0.700500 -0.157900 1 0 1.000000 
0 0.159800 1.734900 3.872700 -0.133499 0.366497 0.920792 0.672100 -0.108600 1 0 1.000000 
0 0.159800 5.659900 2.224400 0.167199 0.354998 0.919794 0.672200 -0.157900 1 0 1.000000 
metal_streetprops001a
0 -1.656900 5.659900 1.471900 -0.601377 0.331887 0.726772 0.700500 -0.157900 1 0 1.000000 
0 -2.549400 1.734900 2.364400 -0.797389 0.289496 0.529493 0.700600 -0.108600 1 0 1.000000 
0 0.159800 1.734900 3.872700 -0.133499 0.366497 0.920792 0.672100 -0.108600 1 0 1.000000 
metal_streetprops001a
0 -2.409400 5.659900 -0.344800 -0.956541 0.271412 0.106605 0.728900 -0.157900 1 0 1.000000 
0 -2.549400 1.734900 2.364400 -0.797389 0.289496 0.529493 0.700600 -0.108600 1 0 1.000000 
0 -1.656900 5.659900 1.471900 -0.601377 0.331887 0.726772 0.700500 -0.157900 1 0 1.000000 
metal_streetprops001a
0 -2.409400 5.659900 -0.344800 -0.956541 0.271412 0.106605 0.728900 -0.157900 1 0 1.000000 
0 -3.450700 1.734900 -0.344800 -0.955426 0.265507 -0.129103 0.729100 -0.108600 1 0 1.000000 
0 -2.549400 1.734900 2.364400 -0.797389 0.289496 0.529493 0.700600 -0.108600 1 0 1.000000 
metal_streetprops001a
0 -1.656900 5.659900 -2.161500 -0.778664 0.285987 -0.558474 0.757600 -0.157900 1 0 1.000000 
0 -3.450700 1.734900 -0.344800 -0.955426 0.265507 -0.129103 0.729100 -0.108600 1 0 1.000000 
0 -2.409400 5.659900 -0.344800 -0.956541 0.271412 0.106605 0.728900 -0.157900 1 0 1.000000 
metal_streetprops001a
0 -1.656900 5.659900 -2.161500 -0.778664 0.285987 -0.558474 0.757600 -0.157900 1 0 1.000000 
0 -2.549400 1.734900 -3.053900 -0.622508 0.325504 -0.711709 0.757800 -0.108600 1 0 1.000000 
0 -3.450700 1.734900 -0.344800 -0.955426 0.265507 -0.129103 0.729100 -0.108600 1 0 1.000000 
metal_streetprops001a
0 0.159800 5.659900 -2.914000 -0.173599 0.362698 -0.915595 0.786500 -0.157900 1 0 1.000000 
0 -2.549400 1.734900 -3.053900 -0.622508 0.325504 -0.711709 0.757800 -0.108600 1 0 1.000000 
0 -1.656900 5.659900 -2.161500 -0.778664 0.285987 -0.558474 0.757600 -0.157900 1 0 1.000000 
metal_streetprops001a
0 0.159800 5.659900 -2.914000 -0.173599 0.362698 -0.915595 0.786500 -0.157900 1 0 1.000000 
0 0.159800 1.734900 -4.624300 0.133099 0.375797 -0.917094 0.786600 -0.108600 1 0 1.000000 
0 -2.549400 1.734900 -3.053900 -0.622508 0.325504 -0.711709 0.757800 -0.108600 1 0 1.000000 
metal_streetprops001a
0 1.977600 5.659900 -2.168100 0.604591 0.335595 -0.722389 0.815600 -0.157900 1 0 1.000000 
0 0.159800 1.734900 -4.624300 0.133099 0.375797 -0.917094 0.786600 -0.108600 1 0 1.000000 
0 0.159800 5.659900 -2.914000 -0.173599 0.362698 -0.915595 0.786500 -0.157900 1 0 1.000000 
metal_streetprops001a
0 1.977600 5.659900 -2.168100 0.604591 0.335595 -0.722389 0.815600 -0.157900 1 0 1.000000 
0 2.868900 1.734900 -3.053900 0.797814 0.290305 -0.528409 0.815600 -0.108600 1 0 1.000000 
0 0.159800 1.734900 -4.624300 0.133099 0.375797 -0.917094 0.786600 -0.108600 1 0 1.000000 
metal_streetprops001a
0 2.734400 5.659900 -0.340900 0.954967 0.275690 -0.109696 0.844700 -0.157900 1 0 1.000000 
0 2.868900 1.734900 -3.053900 0.797814 0.290305 -0.528409 0.815600 -0.108600 1 0 1.000000 
0 1.977600 5.659900 -2.168100 0.604591 0.335595 -0.722389 0.815600 -0.157900 1 0 1.000000 
metal_streetprops001a
0 2.734400 5.659900 -0.340900 0.954967 0.275690 -0.109696 0.844700 -0.157900 1 0 1.000000 
0 3.806600 1.734900 -0.344800 0.953705 0.271001 0.130401 0.844500 -0.108600 1 0 1.000000 
0 2.868900 1.734900 -3.053900 0.797814 0.290305 -0.528409 0.815600 -0.108600 1 0 1.000000 
metal_streetprops001a
0 1.976600 5.659900 1.471900 0.775092 0.288197 0.562294 0.873400 -0.157900 1 0 1.000000 
0 3.806600 1.734900 -0.344800 0.953705 0.271001 0.130401 0.844500 -0.108600 1 0 1.000000 
0 2.734400 5.659900 -0.340900 0.954967 0.275690 -0.109696 0.844700 -0.157900 1 0 1.000000 
metal_streetprops001a
0 1.976600 5.659900 1.471900 0.775092 0.288197 0.562294 0.873400 -0.157900 1 0 1.000000 
0 2.868900 1.734900 2.364400 0.615901 0.322700 0.718701 0.873200 -0.108600 1 0 1.000000 
0 3.806600 1.734900 -0.344800 0.953705 0.271001 0.130401 0.844500 -0.108600 1 0 1.000000 
metal_streetprops001a
0 0.159800 3.456700 -13.187900 -0.136800 0.990599 0.000000 0.902700 -0.441700 1 0 1.000000 
0 -3.591600 1.902800 -15.429000 -0.603706 0.797207 0.000000 0.982300 -0.475300 1 0 1.000000 
0 -3.591600 1.902800 -13.187900 -0.797207 0.603705 0.000000 0.982300 -0.441700 1 0 1.000000 
metal_streetprops001a
0 0.159800 3.456700 -13.187900 -0.136800 0.990599 0.000000 0.902700 -0.441700 1 0 1.000000 
0 0.159800 3.456700 -15.429000 0.136800 0.990599 0.000000 0.902700 -0.475300 1 0 1.000000 
0 -3.591600 1.902800 -15.429000 -0.603706 0.797207 0.000000 0.982300 -0.475300 1 0 1.000000 
metal_streetprops001a
0 3.911200 1.902800 -13.187900 0.603705 0.797207 0.000000 0.823200 -0.441700 1 0 1.000000 
0 0.159800 3.456700 -15.429000 0.136800 0.990599 0.000000 0.902700 -0.475300 1 0 1.000000 
0 0.159800 3.456700 -13.187900 -0.136800 0.990599 0.000000 0.902700 -0.441700 1 0 1.000000 
metal_streetprops001a
0 3.911200 1.902800 -13.187900 0.603705 0.797207 0.000000 0.823200 -0.441700 1 0 1.000000 
0 3.911200 1.902800 -15.429000 0.797207 0.603706 0.000000 0.823200 -0.475300 1 0 1.000000 
0 0.159800 3.456700 -15.429000 0.136800 0.990599 0.000000 0.902700 -0.475300 1 0 1.000000 
metal_streetprops001a
0 5.465000 -1.848600 -13.187900 0.990599 0.136800 0.000000 0.765100 -0.441700 1 0 1.000000 
0 3.911200 1.902800 -15.429000 0.797207 0.603706 0.000000 0.823200 -0.475300 1 0 1.000000 
0 3.911200 1.902800 -13.187900 0.603705 0.797207 0.000000 0.823200 -0.441700 1 0 1.000000 
metal_streetprops001a
0 5.465000 -1.848600 -13.187900 0.990599 0.136800 0.000000 0.765100 -0.441700 1 0 1.000000 
0 5.465000 -1.848600 -15.429000 0.990599 -0.136800 0.000000 0.765100 -0.475300 1 0 1.000000 
0 3.911200 1.902800 -15.429000 0.797207 0.603706 0.000000 0.823200 -0.475300 1 0 1.000000 
metal_streetprops001a
0 3.911200 -5.599900 -13.187900 0.797207 -0.603705 0.000000 0.718500 -0.441700 1 0 1.000000 
0 5.465000 -1.848600 -15.429000 0.990599 -0.136800 0.000000 0.765100 -0.475300 1 0 1.000000 
0 5.465000 -1.848600 -13.187900 0.990599 0.136800 0.000000 0.765100 -0.441700 1 0 1.000000 
metal_streetprops001a
0 3.911200 -5.599900 -13.187900 0.797207 -0.603705 0.000000 0.718500 -0.441700 1 0 1.000000 
0 3.911200 -5.599900 -15.429000 0.603706 -0.797207 0.000000 0.718500 -0.475300 1 0 1.000000 
0 5.465000 -1.848600 -15.429000 0.990599 -0.136800 0.000000 0.765100 -0.475300 1 0 1.000000 
metal_streetprops001a
0 0.159800 -7.153800 -13.187900 0.136800 -0.990599 0.000000 0.675900 -0.441700 1 0 1.000000 
0 3.911200 -5.599900 -15.429000 0.603706 -0.797207 0.000000 0.718500 -0.475300 1 0 1.000000 
0 3.911200 -5.599900 -13.187900 0.797207 -0.603705 0.000000 0.718500 -0.441700 1 0 1.000000 
metal_streetprops001a
0 0.159800 -7.153800 -13.187900 0.136800 -0.990599 0.000000 0.675900 -0.441700 1 0 1.000000 
0 0.159800 -7.153800 -15.429000 -0.136800 -0.990599 0.000000 0.675900 -0.475300 1 0 1.000000 
0 3.911200 -5.599900 -15.429000 0.603706 -0.797207 0.000000 0.718500 -0.475300 1 0 1.000000 
metal_streetprops001a
0 -3.591600 -5.599900 -13.187900 -0.603705 -0.797207 0.000000 0.633300 -0.441700 1 0 1.000000 
0 0.159800 -7.153800 -15.429000 -0.136800 -0.990599 0.000000 0.675900 -0.475300 1 0 1.000000 
0 0.159800 -7.153800 -13.187900 0.136800 -0.990599 0.000000 0.675900 -0.441700 1 0 1.000000 
metal_streetprops001a
0 -3.591600 -5.599900 -13.187900 -0.603705 -0.797207 0.000000 0.633300 -0.441700 1 0 1.000000 
0 -3.591600 -5.599900 -15.429000 -0.797207 -0.603706 0.000000 0.633300 -0.475300 1 0 1.000000 
0 0.159800 -7.153800 -15.429000 -0.136800 -0.990599 0.000000 0.675900 -0.475300 1 0 1.000000 
metal_streetprops001a
0 -5.145400 -1.848600 -13.187900 -0.990599 -0.136800 0.000000 0.586700 -0.441700 1 0 1.000000 
0 -3.591600 -5.599900 -15.429000 -0.797207 -0.603706 0.000000 0.633300 -0.475300 1 0 1.000000 
0 -3.591600 -5.599900 -13.187900 -0.603705 -0.797207 0.000000 0.633300 -0.441700 1 0 1.000000 
metal_streetprops001a
0 -5.145400 -1.848600 -13.187900 -0.990599 -0.136800 0.000000 0.586700 -0.441700 1 0 1.000000 
0 -5.145400 -1.848600 -15.429000 -0.990599 0.136800 0.000000 0.586700 -0.475300 1 0 1.000000 
0 -3.591600 -5.599900 -15.429000 -0.797207 -0.603706 0.000000 0.633300 -0.475300 1 0 1.000000 
metal_streetprops001a
0 -3.591600 1.902800 -13.187900 -0.797207 0.603705 0.000000 0.528600 -0.441700 1 0 1.000000 
0 -5.145400 -1.848600 -15.429000 -0.990599 0.136800 0.000000 0.586700 -0.475300 1 0 1.000000 
0 -5.145400 -1.848600 -13.187900 -0.990599 -0.136800 0.000000 0.586700 -0.441700 1 0 1.000000 
metal_streetprops001a
0 -3.591600 1.902800 -13.187900 -0.797207 0.603705 0.000000 0.528600 -0.441700 1 0 1.000000 
0 -3.591600 1.902800 -15.429000 -0.603706 0.797207 0.000000 0.528600 -0.475300 1 0 1.000000 
0 -5.145400 -1.848600 -15.429000 -0.990599 0.136800 0.000000 0.586700 -0.475300 1 0 1.000000 
metal_streetprops001a
0 8.000300 -0.618300 4.923800 0.250698 0.584497 0.771695 0.830400 -0.440100 1 0 1.000000 
0 4.587200 -1.902600 6.348100 0.250692 0.132396 0.958970 0.851000 -0.483100 1 0 1.000000 
0 8.000300 -1.902700 5.455800 0.250692 -0.132396 0.958971 0.851000 -0.440100 1 0 1.000000 
metal_streetprops001a
0 8.000300 -0.618300 4.923800 0.250698 0.584497 0.771695 0.830400 -0.440100 1 0 1.000000 
0 4.587200 0.012600 5.554700 0.240199 0.788496 0.566197 0.830500 -0.483100 1 0 1.000000 
0 4.587200 -1.902600 6.348100 0.250692 0.132396 0.958970 0.851000 -0.483100 1 0 1.000000 
metal_streetprops001a
0 8.000300 -0.086300 3.639500 0.223491 0.968660 0.108396 0.808500 -0.440100 1 0 1.000000 
0 4.587200 0.012600 5.554700 0.240199 0.788496 0.566197 0.830500 -0.483100 1 0 1.000000 
0 8.000300 -0.618300 4.923800 0.250698 0.584497 0.771695 0.830400 -0.440100 1 0 1.000000 
metal_streetprops001a
0 8.000300 -0.086300 3.639500 0.223491 0.968660 0.108396 0.808500 -0.440100 1 0 1.000000 
0 4.587200 0.649900 3.639500 0.218504 0.967016 -0.130902 0.808500 -0.483100 1 0 1.000000 
0 4.587200 0.012600 5.554700 0.240199 0.788496 0.566197 0.830500 -0.483100 1 0 1.000000 
metal_streetprops001a
0 8.000300 -0.618300 2.355100 0.235811 0.789438 -0.566727 0.786600 -0.440100 1 0 1.000000 
0 4.587200 0.649900 3.639500 0.218504 0.967016 -0.130902 0.808500 -0.483100 1 0 1.000000 
0 8.000300 -0.086300 3.639500 0.223491 0.968660 0.108396 0.808500 -0.440100 1 0 1.000000 
metal_streetprops001a
0 8.000300 -0.618300 2.355100 0.235811 0.789438 -0.566727 0.786600 -0.440100 1 0 1.000000 
0 4.587200 0.012600 1.724200 0.251393 0.601384 -0.758379 0.786600 -0.483100 1 0 1.000000 
0 4.587200 0.649900 3.639500 0.218504 0.967016 -0.130902 0.808500 -0.483100 1 0 1.000000 
metal_streetprops001a
0 8.000300 -1.902700 1.823100 0.250707 0.133404 -0.958827 0.766100 -0.440100 1 0 1.000000 
0 4.587200 0.012600 1.724200 0.251393 0.601384 -0.758379 0.786600 -0.483100 1 0 1.000000 
0 8.000300 -0.618300 2.355100 0.235811 0.789438 -0.566727 0.786600 -0.440100 1 0 1.000000 
metal_streetprops001a
0 8.000300 -1.902700 1.823100 0.250707 0.133404 -0.958827 0.766100 -0.440100 1 0 1.000000 
0 4.587200 -1.902600 0.930900 0.250306 -0.131303 -0.959222 0.766000 -0.483100 1 0 1.000000 
0 4.587200 0.012600 1.724200 0.251393 0.601384 -0.758379 0.786600 -0.483100 1 0 1.000000 
metal_streetprops001a
0 8.000300 -3.187800 2.350400 0.250192 -0.583682 -0.772476 0.745500 -0.440100 1 0 1.000000 
0 4.587200 -1.902600 0.930900 0.250306 -0.131303 -0.959222 0.766000 -0.483100 1 0 1.000000 
0 8.000300 -1.902700 1.823100 0.250707 0.133404 -0.958827 0.766100 -0.440100 1 0 1.000000 
metal_streetprops001a
0 8.000300 -3.187800 2.350400 0.250192 -0.583682 -0.772476 0.745500 -0.440100 1 0 1.000000 
0 4.587200 -3.817900 1.724200 0.241102 -0.785906 -0.569404 0.745400 -0.483100 1 0 1.000000 
0 4.587200 -1.902600 0.930900 0.250306 -0.131303 -0.959222 0.766000 -0.483100 1 0 1.000000 
metal_streetprops001a
0 8.000300 -3.722800 3.642200 0.227093 -0.967469 -0.111496 0.723200 -0.440100 1 0 1.000000 
0 4.587200 -3.817900 1.724200 0.241102 -0.785906 -0.569404 0.745400 -0.483100 1 0 1.000000 
0 8.000300 -3.187800 2.350400 0.250192 -0.583682 -0.772476 0.745500 -0.440100 1 0 1.000000 
metal_streetprops001a
0 8.000300 -3.722800 3.642200 0.227093 -0.967469 -0.111496 0.723200 -0.440100 1 0 1.000000 
0 4.587200 -4.480800 3.639500 0.223098 -0.965790 0.132199 0.723300 -0.483100 1 0 1.000000 
0 4.587200 -3.817900 1.724200 0.241102 -0.785906 -0.569404 0.745400 -0.483100 1 0 1.000000 
metal_streetprops001a
0 8.000300 -3.187000 4.923800 0.237701 -0.786002 0.570701 0.701100 -0.440100 1 0 1.000000 
0 4.587200 -4.480800 3.639500 0.223098 -0.965790 0.132199 0.723300 -0.483100 1 0 1.000000 
0 8.000300 -3.722800 3.642200 0.227093 -0.967469 -0.111496 0.723200 -0.440100 1 0 1.000000 
metal_streetprops001a
0 8.000300 -3.187000 4.923800 0.237701 -0.786002 0.570701 0.701100 -0.440100 1 0 1.000000 
0 4.587200 -3.817900 5.554700 0.251283 -0.598559 0.760647 0.701100 -0.483100 1 0 1.000000 
0 4.587200 -4.480800 3.639500 0.223098 -0.965790 0.132199 0.723300 -0.483100 1 0 1.000000 
metal_streetprops001a
0 8.000300 -1.902700 5.455800 0.250692 -0.132396 0.958971 0.680500 -0.440100 1 0 1.000000 
0 4.587200 -3.817900 5.554700 0.251283 -0.598559 0.760647 0.701100 -0.483100 1 0 1.000000 
0 8.000300 -3.187000 4.923800 0.237701 -0.786002 0.570701 0.701100 -0.440100 1 0 1.000000 
metal_streetprops001a
0 8.000300 -1.902700 5.455800 0.250692 -0.132396 0.958971 0.680500 -0.440100 1 0 1.000000 
0 4.587200 -1.902600 6.348100 0.250692 0.132396 0.958970 0.680500 -0.483100 1 0 1.000000 
0 4.587200 -3.817900 5.554700 0.251283 -0.598559 0.760647 0.701100 -0.483100 1 0 1.000000 
metal_streetprops001a
0 -1.589300 -4.441600 13.990700 -0.002100 0.006600 0.999976 0.639100 -0.080700 1 0 1.000000 
0 1.919900 -4.406200 13.997900 -0.002000 0.000200 0.999998 0.639500 -0.039500 1 0 1.000000 
0 -2.461200 -3.605700 13.983300 -0.003600 -0.001500 0.999992 0.648900 -0.090900 1 0 1.000000 
metal_streetprops001a
0 -2.461200 -3.605700 13.983300 -0.003600 -0.001500 0.999992 0.648900 -0.090900 1 0 1.000000 
0 1.919900 -4.406200 13.997900 -0.002000 0.000200 0.999998 0.639500 -0.039500 1 0 1.000000 
0 -2.450500 -0.118400 13.988500 -0.000300 0.002700 0.999996 0.689800 -0.090700 1 0 1.000000 
metal_streetprops001a
0 2.729900 -3.563600 13.999400 -0.000300 0.002700 0.999996 0.649400 -0.030000 1 0 1.000000 
0 -2.450500 -0.118400 13.988500 -0.000300 0.002700 0.999996 0.689800 -0.090700 1 0 1.000000 
0 1.919900 -4.406200 13.997900 -0.002000 0.000200 0.999998 0.639500 -0.039500 1 0 1.000000 
metal_streetprops001a
0 2.729900 -3.563600 13.999400 -0.000300 0.002700 0.999996 0.649400 -0.030000 1 0 1.000000 
0 -1.613700 0.752700 13.986400 -0.000300 0.002700 0.999996 0.700000 -0.080900 1 0 1.000000 
0 -2.450500 -0.118400 13.988500 -0.000300 0.002700 0.999996 0.689800 -0.090700 1 0 1.000000 
metal_streetprops001a
0 2.762500 -0.081800 13.986700 -0.001000 -0.005000 0.999987 0.690200 -0.029700 1 0 1.000000 
0 -1.613700 0.752700 13.986400 -0.000300 0.002700 0.999996 0.700000 -0.080900 1 0 1.000000 
0 2.729900 -3.563600 13.999400 -0.000300 0.002700 0.999996 0.649400 -0.030000 1 0 1.000000 
metal_streetprops001a
0 2.762500 -0.081800 13.986700 -0.001000 -0.005000 0.999987 0.690200 -0.029700 1 0 1.000000 
0 1.891300 0.754700 13.990000 -0.001000 -0.005000 0.999987 0.700000 -0.039900 1 0 1.000000 
0 -1.613700 0.752700 13.986400 -0.000300 0.002700 0.999996 0.700000 -0.080900 1 0 1.000000 
metal_streetprops001a
0 8.000300 -3.722800 3.642200 1.000000 0.000000 0.000000 0.617200 -0.318900 1 0 1.000000 
0 8.000300 -1.902700 5.455800 1.000000 0.000000 0.000000 0.647800 -0.288400 1 0 1.000000 
0 8.000300 -3.187000 4.923800 1.000000 0.000000 0.000000 0.626200 -0.297300 1 0 1.000000 
metal_streetprops001a
0 8.000300 -3.722800 3.642200 1.000000 0.000000 0.000000 0.617200 -0.318900 1 0 1.000000 
0 8.000300 -0.618300 4.923800 1.000000 0.000000 0.000000 0.669400 -0.297300 1 0 1.000000 
0 8.000300 -1.902700 5.455800 1.000000 0.000000 0.000000 0.647800 -0.288400 1 0 1.000000 
metal_streetprops001a
0 8.000300 -3.722800 3.642200 1.000000 0.000000 0.000000 0.617200 -0.318900 1 0 1.000000 
0 8.000300 -0.086300 3.639500 1.000000 0.000000 0.000000 0.678300 -0.318900 1 0 1.000000 
0 8.000300 -0.618300 4.923800 1.000000 0.000000 0.000000 0.669400 -0.297300 1 0 1.000000 
metal_streetprops001a
0 8.000300 -3.722800 3.642200 1.000000 0.000000 0.000000 0.617200 -0.318900 1 0 1.000000 
0 8.000300 -0.618300 2.355100 1.000000 0.000000 0.000000 0.669400 -0.340500 1 0 1.000000 
0 8.000300 -0.086300 3.639500 1.000000 0.000000 0.000000 0.678300 -0.318900 1 0 1.000000 
metal_streetprops001a
0 8.000300 -3.722800 3.642200 1.000000 0.000000 0.000000 0.617200 -0.318900 1 0 1.000000 
0 8.000300 -1.902700 1.823100 1.000000 0.000000 0.000000 0.647800 -0.349500 1 0 1.000000 
0 8.000300 -0.618300 2.355100 1.000000 0.000000 0.000000 0.669400 -0.340500 1 0 1.000000 
metal_streetprops001a
0 8.000300 -3.722800 3.642200 1.000000 0.000000 0.000000 0.617200 -0.318900 1 0 1.000000 
0 8.000300 -3.187800 2.350400 1.000000 0.000000 0.000000 0.626100 -0.340600 1 0 1.000000 
0 8.000300 -1.902700 1.823100 1.000000 0.000000 0.000000 0.647800 -0.349500 1 0 1.000000 
metal_streetprops001a
0 -2.061400 1.377500 13.601000 -0.070203 0.486719 0.870733 0.707300 -0.086200 1 0 1.000000 
0 -1.613700 0.752700 13.986400 -0.070203 0.486719 0.870733 0.700000 -0.080900 1 0 1.000000 
0 0.159800 2.088400 13.382800 -0.070203 0.486719 0.870733 0.715600 -0.060200 1 0 1.000000 
metal_streetprops001a
0 -4.119900 -1.907100 3.565300 -1.000000 -0.000000 0.000000 0.765700 -0.271400 1 0 1.000000 
0 8.754600 -2.773999 4.065800 -0.077501 -0.863414 0.498508 0.748000 -0.133500 1 0 1.000000 
0 8.754600 -1.907100 4.566300 -0.077499 -0.000000 0.996992 0.739000 -0.133500 1 0 1.000000 
metal_streetprops001a
0 -4.119900 -1.907100 3.565300 -1.000000 -0.000000 0.000000 0.765700 -0.271400 1 0 1.000000 
0 8.754600 -2.773999 3.064800 -0.077501 -0.863414 -0.498508 0.757000 -0.133500 1 0 1.000000 
0 8.754600 -2.773999 4.065800 -0.077501 -0.863414 0.498508 0.748000 -0.133500 1 0 1.000000 
metal_streetprops001a
0 -4.119900 -1.907100 3.565300 -1.000000 -0.000000 0.000000 0.765700 -0.271400 1 0 1.000000 
0 8.754600 -1.907100 2.564300 -0.077499 -0.000000 -0.996992 0.764900 -0.133500 1 0 1.000000 
0 8.754600 -2.773999 3.064800 -0.077501 -0.863414 -0.498508 0.757000 -0.133500 1 0 1.000000 
metal_streetprops001a
0 -4.119900 -1.907100 3.565300 -1.000000 -0.000000 0.000000 0.765700 -0.271400 1 0 1.000000 
0 8.754600 -1.040200 3.064800 -0.077501 0.863414 -0.498508 0.772800 -0.133500 1 0 1.000000 
0 8.754600 -1.907100 2.564300 -0.077499 -0.000000 -0.996992 0.764900 -0.133500 1 0 1.000000 
metal_streetprops001a
0 -4.119900 -1.907100 3.565300 -1.000000 -0.000000 0.000000 0.765700 -0.271400 1 0 1.000000 
0 8.754600 -1.040200 4.065800 -0.077501 0.863414 0.498508 0.781600 -0.133500 1 0 1.000000 
0 8.754600 -1.040200 3.064800 -0.077501 0.863414 -0.498508 0.772800 -0.133500 1 0 1.000000 
metal_streetprops001a
0 -4.119900 -1.907100 3.565300 -1.000000 -0.000000 0.000000 0.765700 -0.271400 1 0 1.000000 
0 8.754600 -1.907100 4.566300 -0.077499 -0.000000 0.996992 0.790600 -0.133500 1 0 1.000000 
0 8.754600 -1.040200 4.065800 -0.077501 0.863414 0.498508 0.781600 -0.133500 1 0 1.000000 
metal_streetprops001a
0 4.096800 -1.848600 13.382800 0.411707 -0.000500 0.911316 0.669500 -0.014000 1 0 1.000000 
0 2.762500 -0.081800 13.986700 0.411707 -0.000500 0.911316 0.690200 -0.029700 1 0 1.000000 
0 2.729900 -3.563600 13.999400 0.411707 -0.000500 0.911316 0.649400 -0.030000 1 0 1.000000 
metal_streetprops001a
0 5.465000 -1.848600 -15.429000 0.000000 0.000000 -1.000000 0.864900 -0.182700 1 0 1.000000 
0 0.159800 3.456700 -15.429000 0.000000 0.000000 -1.000000 0.798600 -0.249000 1 0 1.000000 
0 3.911200 1.902800 -15.429000 0.000000 0.000000 -1.000000 0.845500 -0.229500 1 0 1.000000 
metal_streetprops001a
0 5.465000 -1.848600 -15.429000 0.000000 0.000000 -1.000000 0.864900 -0.182700 1 0 1.000000 
0 -3.591600 1.902800 -15.429000 0.000000 0.000000 -1.000000 0.751700 -0.229500 1 0 1.000000 
0 0.159800 3.456700 -15.429000 0.000000 0.000000 -1.000000 0.798600 -0.249000 1 0 1.000000 
metal_streetprops001a
0 5.465000 -1.848600 -15.429000 0.000000 0.000000 -1.000000 0.864900 -0.182700 1 0 1.000000 
0 -5.145400 -1.848600 -15.429000 0.000000 0.000000 -1.000000 0.732300 -0.182700 1 0 1.000000 
0 -3.591600 1.902800 -15.429000 0.000000 0.000000 -1.000000 0.751700 -0.229500 1 0 1.000000 
metal_streetprops001a
0 5.465000 -1.848600 -15.429000 0.000000 0.000000 -1.000000 0.864900 -0.182700 1 0 1.000000 
0 -3.591600 -5.599900 -15.429000 0.000000 0.000000 -1.000000 0.751700 -0.135800 1 0 1.000000 
0 -5.145400 -1.848600 -15.429000 0.000000 0.000000 -1.000000 0.732300 -0.182700 1 0 1.000000 
metal_streetprops001a
0 5.465000 -1.848600 -15.429000 0.000000 0.000000 -1.000000 0.864900 -0.182700 1 0 1.000000 
0 0.159800 -7.153800 -15.429000 0.000000 0.000000 -1.000000 0.798600 -0.116400 1 0 1.000000 
0 -3.591600 -5.599900 -15.429000 0.000000 0.000000 -1.000000 0.751700 -0.135800 1 0 1.000000 
metal_streetprops001a
0 5.465000 -1.848600 -15.429000 0.000000 0.000000 -1.000000 0.864900 -0.182700 1 0 1.000000 
0 3.911200 -5.599900 -15.429000 0.000000 0.000000 -1.000000 0.845500 -0.135800 1 0 1.000000 
0 0.159800 -7.153800 -15.429000 0.000000 0.000000 -1.000000 0.798600 -0.116400 1 0 1.000000 
metal_streetprops001a
0 4.096800 -1.848600 13.382800 0.620608 0.210603 0.755309 0.669500 -0.014000 1 0 1.000000 
0 3.291200 0.272300 13.453500 0.620608 0.210603 0.755309 0.694400 -0.023500 1 0 1.000000 
0 2.762500 -0.081800 13.986700 0.620608 0.210603 0.755309 0.690200 -0.029700 1 0 1.000000 
metal_streetprops001a
0 -3.591600 -5.599900 -13.187900 0.000000 0.000000 1.000000 0.774300 -0.399000 1 0 1.000000 
0 -3.591600 1.902800 -13.187900 0.000000 0.000000 1.000000 0.857300 -0.399000 1 0 1.000000 
0 -5.145400 -1.848600 -13.187900 0.000000 0.000000 1.000000 0.815800 -0.416200 1 0 1.000000 
metal_streetprops001a
0 -3.591600 -5.599900 -13.187900 0.000000 0.000000 1.000000 0.774300 -0.399000 1 0 1.000000 
0 0.159800 3.456700 -13.187900 0.000000 0.000000 1.000000 0.874400 -0.357500 1 0 1.000000 
0 -3.591600 1.902800 -13.187900 0.000000 0.000000 1.000000 0.857300 -0.399000 1 0 1.000000 
metal_streetprops001a
0 -3.591600 -5.599900 -13.187900 0.000000 0.000000 1.000000 0.774300 -0.399000 1 0 1.000000 
0 3.911200 1.902800 -13.187900 0.000000 0.000000 1.000000 0.857300 -0.316000 1 0 1.000000 
0 0.159800 3.456700 -13.187900 0.000000 0.000000 1.000000 0.874400 -0.357500 1 0 1.000000 
metal_streetprops001a
0 -3.591600 -5.599900 -13.187900 0.000000 0.000000 1.000000 0.774300 -0.399000 1 0 1.000000 
0 5.465000 -1.848600 -13.187900 0.000000 0.000000 1.000000 0.815800 -0.298800 1 0 1.000000 
0 3.911200 1.902800 -13.187900 0.000000 0.000000 1.000000 0.857300 -0.316000 1 0 1.000000 
metal_streetprops001a
0 -3.591600 -5.599900 -13.187900 0.000000 0.000000 1.000000 0.774300 -0.399000 1 0 1.000000 
0 3.911200 -5.599900 -13.187900 0.000000 0.000000 1.000000 0.774300 -0.316000 1 0 1.000000 
0 5.465000 -1.848600 -13.187900 0.000000 0.000000 1.000000 0.815800 -0.298800 1 0 1.000000 
metal_streetprops001a
0 -3.591600 -5.599900 -13.187900 0.000000 0.000000 1.000000 0.774300 -0.399000 1 0 1.000000 
0 0.159800 -7.153800 -13.187900 0.000000 0.000000 1.000000 0.757100 -0.357500 1 0 1.000000 
0 3.911200 -5.599900 -13.187900 0.000000 0.000000 1.000000 0.774300 -0.316000 1 0 1.000000 
metal_streetprops001a
0 3.284800 -3.808800 13.382800 0.658601 -0.272801 0.701302 0.646500 -0.023500 1 0 1.000000 
0 4.096800 -1.848600 13.382800 0.658601 -0.272801 0.701302 0.669500 -0.014000 1 0 1.000000 
0 2.729900 -3.563600 13.999400 0.658601 -0.272801 0.701302 0.649400 -0.030000 1 0 1.000000 
metal_streetprops001a
0 -7.685500 -3.332800 4.923800 -0.250698 -0.584497 0.771695 0.846100 -0.445500 1 0 1.000000 
0 -4.272500 -2.048500 6.348100 -0.250692 -0.132396 0.958970 0.866600 -0.483700 1 0 1.000000 
0 -7.685500 -2.048400 5.455800 -0.250692 0.132396 0.958971 0.866600 -0.445500 1 0 1.000000 
metal_streetprops001a
0 -7.685500 -3.332800 4.923800 -0.250698 -0.584497 0.771695 0.846100 -0.445500 1 0 1.000000 
0 -4.272500 -3.963800 5.554700 -0.240199 -0.788496 0.566197 0.846100 -0.483700 1 0 1.000000 
0 -4.272500 -2.048500 6.348100 -0.250692 -0.132396 0.958970 0.866600 -0.483700 1 0 1.000000 
metal_streetprops001a
0 -7.685500 -3.864800 3.639500 -0.223491 -0.968660 0.108396 0.824100 -0.445500 1 0 1.000000 
0 -4.272500 -3.963800 5.554700 -0.240199 -0.788496 0.566197 0.846100 -0.483700 1 0 1.000000 
0 -7.685500 -3.332800 4.923800 -0.250698 -0.584497 0.771695 0.846100 -0.445500 1 0 1.000000 
metal_streetprops001a
0 -7.685500 -3.864800 3.639500 -0.223491 -0.968660 0.108396 0.824100 -0.445500 1 0 1.000000 
0 -4.272500 -4.601000 3.639500 -0.218504 -0.967016 -0.130902 0.824100 -0.483700 1 0 1.000000 
0 -4.272500 -3.963800 5.554700 -0.240199 -0.788496 0.566197 0.846100 -0.483700 1 0 1.000000 
metal_streetprops001a
0 -7.685500 -3.332800 2.355100 -0.235811 -0.789438 -0.566727 0.802200 -0.445500 1 0 1.000000 
0 -4.272500 -4.601000 3.639500 -0.218504 -0.967016 -0.130902 0.824100 -0.483700 1 0 1.000000 
0 -7.685500 -3.864800 3.639500 -0.223491 -0.968660 0.108396 0.824100 -0.445500 1 0 1.000000 
metal_streetprops001a
0 -7.685500 -3.332800 2.355100 -0.235811 -0.789438 -0.566727 0.802200 -0.445500 1 0 1.000000 
0 -4.272500 -3.963800 1.724200 -0.251393 -0.601384 -0.758379 0.802200 -0.483700 1 0 1.000000 
0 -4.272500 -4.601000 3.639500 -0.218504 -0.967016 -0.130902 0.824100 -0.483700 1 0 1.000000 
metal_streetprops001a
0 -7.685500 -2.048400 1.823100 -0.250707 -0.133404 -0.958827 0.781700 -0.445500 1 0 1.000000 
0 -4.272500 -3.963800 1.724200 -0.251393 -0.601384 -0.758379 0.802200 -0.483700 1 0 1.000000 
0 -7.685500 -3.332800 2.355100 -0.235811 -0.789438 -0.566727 0.802200 -0.445500 1 0 1.000000 
metal_streetprops001a
0 -7.685500 -2.048400 1.823100 -0.250707 -0.133404 -0.958827 0.781700 -0.445500 1 0 1.000000 
0 -4.272500 -2.048500 0.930900 -0.250306 0.131303 -0.959222 0.781600 -0.483700 1 0 1.000000 
0 -4.272500 -3.963800 1.724200 -0.251393 -0.601384 -0.758379 0.802200 -0.483700 1 0 1.000000 
metal_streetprops001a
0 -7.685500 -0.763400 2.350400 -0.250192 0.583682 -0.772476 0.761100 -0.440700 1 0 1.000000 
0 -4.272500 -2.048500 0.930900 -0.250306 0.131303 -0.959222 0.781600 -0.483700 1 0 1.000000 
0 -7.685500 -2.048400 1.823100 -0.250707 -0.133404 -0.958827 0.781700 -0.440700 1 0 1.000000 
metal_streetprops001a
0 -7.685500 -0.763400 2.350400 -0.250192 0.583682 -0.772476 0.761100 -0.440700 1 0 1.000000 
0 -4.272500 -0.133200 1.724200 -0.241102 0.785906 -0.569404 0.761000 -0.483700 1 0 1.000000 
0 -4.272500 -2.048500 0.930900 -0.250306 0.131303 -0.959222 0.781600 -0.483700 1 0 1.000000 
metal_streetprops001a
0 -7.685500 -0.228300 3.642200 -0.227093 0.967469 -0.111496 0.738800 -0.440700 1 0 1.000000 
0 -4.272500 -0.133200 1.724200 -0.241102 0.785906 -0.569404 0.761000 -0.483700 1 0 1.000000 
0 -7.685500 -0.763400 2.350400 -0.250192 0.583682 -0.772476 0.761100 -0.440700 1 0 1.000000 
metal_streetprops001a
0 -7.685500 -0.228300 3.642200 -0.227093 0.967469 -0.111496 0.738800 -0.440700 1 0 1.000000 
0 -4.272500 0.529700 3.639500 -0.223098 0.965790 0.132199 0.738900 -0.483700 1 0 1.000000 
0 -4.272500 -0.133200 1.724200 -0.241102 0.785906 -0.569404 0.761000 -0.483700 1 0 1.000000 
metal_streetprops001a
0 -7.685500 -0.764100 4.923800 -0.237701 0.786002 0.570701 0.716700 -0.440700 1 0 1.000000 
0 -4.272500 0.529700 3.639500 -0.223098 0.965790 0.132199 0.738900 -0.483700 1 0 1.000000 
0 -7.685500 -0.228300 3.642200 -0.227093 0.967469 -0.111496 0.738800 -0.440700 1 0 1.000000 
metal_streetprops001a
0 -7.685500 -0.764100 4.923800 -0.237701 0.786002 0.570701 0.716700 -0.440700 1 0 1.000000 
0 -4.272500 -0.133200 5.554700 -0.251283 0.598559 0.760647 0.716700 -0.483700 1 0 1.000000 
0 -4.272500 0.529700 3.639500 -0.223098 0.965790 0.132199 0.738900 -0.483700 1 0 1.000000 
metal_streetprops001a
0 -7.685500 -2.048400 5.455800 -0.250692 0.132396 0.958971 0.696100 -0.440700 1 0 1.000000 
0 -4.272500 -0.133200 5.554700 -0.251283 0.598559 0.760647 0.716700 -0.483700 1 0 1.000000 
0 -7.685500 -0.764100 4.923800 -0.237701 0.786002 0.570701 0.716700 -0.440700 1 0 1.000000 
metal_streetprops001a
0 -7.685500 -2.048400 5.455800 -0.250692 0.132396 0.958971 0.696100 -0.440700 1 0 1.000000 
0 -4.272500 -2.048500 6.348100 -0.250692 -0.132396 0.958970 0.696100 -0.483700 1 0 1.000000 
0 -4.272500 -0.133200 5.554700 -0.251283 0.598559 0.760647 0.716700 -0.483700 1 0 1.000000 
metal_streetprops001a
0 -1.589300 -4.441600 13.990700 0.002200 -0.409707 0.912215 0.639100 -0.080700 1 0 1.000000 
0 0.159800 -5.785500 13.382800 0.002200 -0.409707 0.912215 0.623400 -0.060200 1 0 1.000000 
0 1.919900 -4.406200 13.997900 0.002200 -0.409707 0.912215 0.639500 -0.039500 1 0 1.000000 
metal_streetprops001a
0 -7.685500 -0.228300 3.642200 -1.000000 -0.000000 0.000000 0.632800 -0.318900 1 0 1.000000 
0 -7.685500 -2.048400 5.455800 -1.000000 -0.000000 0.000000 0.663400 -0.288400 1 0 1.000000 
0 -7.685500 -0.764100 4.923800 -1.000000 -0.000000 0.000000 0.641800 -0.297300 1 0 1.000000 
metal_streetprops001a
0 -7.685500 -0.228300 3.642200 -1.000000 -0.000000 0.000000 0.632800 -0.318900 1 0 1.000000 
0 -7.685500 -3.332800 4.923800 -1.000000 -0.000000 0.000000 0.685000 -0.297300 1 0 1.000000 
0 -7.685500 -2.048400 5.455800 -1.000000 -0.000000 0.000000 0.663400 -0.288400 1 0 1.000000 
metal_streetprops001a
0 -7.685500 -0.228300 3.642200 -1.000000 -0.000000 0.000000 0.632800 -0.318900 1 0 1.000000 
0 -7.685500 -3.864800 3.639500 -1.000000 -0.000000 0.000000 0.693900 -0.318900 1 0 1.000000 
0 -7.685500 -3.332800 4.923800 -1.000000 -0.000000 0.000000 0.685000 -0.297300 1 0 1.000000 
metal_streetprops001a
0 -7.685500 -0.228300 3.642200 -1.000000 -0.000000 0.000000 0.632800 -0.318900 1 0 1.000000 
0 -7.685500 -3.332800 2.355100 -1.000000 -0.000000 0.000000 0.685000 -0.340500 1 0 1.000000 
0 -7.685500 -3.864800 3.639500 -1.000000 -0.000000 0.000000 0.693900 -0.318900 1 0 1.000000 
metal_streetprops001a
0 -7.685500 -0.228300 3.642200 -1.000000 -0.000000 0.000000 0.632800 -0.318900 1 0 1.000000 
0 -7.685500 -2.048400 1.823100 -1.000000 -0.000000 0.000000 0.663400 -0.349500 1 0 1.000000 
0 -7.685500 -3.332800 2.355100 -1.000000 -0.000000 0.000000 0.685000 -0.340500 1 0 1.000000 
metal_streetprops001a
0 -7.685500 -0.228300 3.642200 -1.000000 -0.000000 0.000000 0.632800 -0.318900 1 0 1.000000 
0 -7.685500 -0.763400 2.350400 -1.000000 -0.000000 0.000000 0.641800 -0.340600 1 0 1.000000 
0 -7.685500 -2.048400 1.823100 -1.000000 -0.000000 0.000000 0.663400 -0.349500 1 0 1.000000 
metal_streetprops001a
0 1.919900 -4.406200 13.997900 0.273791 -0.660977 0.698676 0.639500 -0.039500 1 0 1.000000 
0 0.159800 -5.785500 13.382800 0.273791 -0.660977 0.698676 0.623400 -0.060200 1 0 1.000000 
0 2.184600 -4.946800 13.382800 0.273791 -0.660977 0.698676 0.633200 -0.036400 1 0 1.000000 
metal_streetprops001a
0 4.231000 -1.907100 3.565300 1.000000 0.000000 0.000000 0.781300 -0.271400 1 0 1.000000 
0 -8.643500 -1.040200 4.065800 0.077501 0.863414 0.498508 0.763600 -0.133500 1 0 1.000000 
0 -8.643500 -1.907100 4.566300 0.077499 0.000000 0.996992 0.754600 -0.133500 1 0 1.000000 
metal_streetprops001a
0 4.231000 -1.907100 3.565300 1.000000 0.000000 0.000000 0.781300 -0.271400 1 0 1.000000 
0 -8.643500 -1.040200 3.064800 0.077501 0.863414 -0.498508 0.772600 -0.133500 1 0 1.000000 
0 -8.643500 -1.040200 4.065800 0.077501 0.863414 0.498508 0.763600 -0.133500 1 0 1.000000 
metal_streetprops001a
0 4.231000 -1.907100 3.565300 1.000000 0.000000 0.000000 0.781300 -0.271400 1 0 1.000000 
0 -8.643500 -1.907100 2.564300 0.077499 0.000000 -0.996992 0.780500 -0.133500 1 0 1.000000 
0 -8.643500 -1.040200 3.064800 0.077501 0.863414 -0.498508 0.772600 -0.133500 1 0 1.000000 
metal_streetprops001a
0 4.231000 -1.907100 3.565300 1.000000 0.000000 0.000000 0.781300 -0.271400 1 0 1.000000 
0 -8.643500 -2.774000 3.064800 0.077501 -0.863414 -0.498508 0.788400 -0.133500 1 0 1.000000 
0 -8.643500 -1.907100 2.564300 0.077499 0.000000 -0.996992 0.780500 -0.133500 1 0 1.000000 
metal_streetprops001a
0 4.231000 -1.907100 3.565300 1.000000 0.000000 0.000000 0.781300 -0.271400 1 0 1.000000 
0 -8.643500 -2.774000 4.065800 0.077501 -0.863414 0.498508 0.797200 -0.133500 1 0 1.000000 
0 -8.643500 -2.774000 3.064800 0.077501 -0.863414 -0.498508 0.788400 -0.133500 1 0 1.000000 
metal_streetprops001a
0 4.231000 -1.907100 3.565300 1.000000 0.000000 0.000000 0.781300 -0.271400 1 0 1.000000 
0 -8.643500 -1.907100 4.566300 0.077499 0.000000 0.996992 0.806200 -0.133500 1 0 1.000000 
0 -8.643500 -2.774000 4.065800 0.077501 -0.863414 0.498508 0.797200 -0.133500 1 0 1.000000 
metal_streetprops001a
0 -1.825100 -5.003000 13.334400 -0.283110 -0.676124 0.680224 0.632500 -0.083400 1 0 1.000000 
0 0.159800 -5.785500 13.382800 -0.283110 -0.676124 0.680224 0.623400 -0.060200 1 0 1.000000 
0 -1.589300 -4.441600 13.990700 -0.283110 -0.676124 0.680224 0.639100 -0.080700 1 0 1.000000 
metal_streetprops001a
0 8.754600 -1.907100 4.566300 1.000000 0.000000 0.000000 0.617500 -0.303900 1 0 1.000000 
0 8.754600 -1.040200 3.064800 1.000000 0.000000 0.000000 0.632100 -0.329100 1 0 1.000000 
0 8.754600 -1.040200 4.065800 1.000000 0.000000 0.000000 0.632100 -0.312300 1 0 1.000000 
metal_streetprops001a
0 8.754600 -1.907100 4.566300 1.000000 0.000000 0.000000 0.617500 -0.303900 1 0 1.000000 
0 8.754600 -1.907100 2.564300 1.000000 0.000000 0.000000 0.617500 -0.337600 1 0 1.000000 
0 8.754600 -1.040200 3.064800 1.000000 0.000000 0.000000 0.632100 -0.329100 1 0 1.000000 
metal_streetprops001a
0 8.754600 -1.907100 4.566300 1.000000 0.000000 0.000000 0.617500 -0.303900 1 0 1.000000 
0 8.754600 -2.773999 3.064800 1.000000 0.000000 0.000000 0.603000 -0.329100 1 0 1.000000 
0 8.754600 -1.907100 2.564300 1.000000 0.000000 0.000000 0.617500 -0.337600 1 0 1.000000 
metal_streetprops001a
0 8.754600 -1.907100 4.566300 1.000000 0.000000 0.000000 0.617500 -0.303900 1 0 1.000000 
0 8.754600 -2.773999 4.065800 1.000000 0.000000 0.000000 0.603000 -0.312300 1 0 1.000000 
0 8.754600 -2.773999 3.064800 1.000000 0.000000 0.000000 0.603000 -0.329100 1 0 1.000000 
metal_streetprops001a
0 -2.461200 -3.605700 13.983300 -0.415211 -0.000100 0.909725 0.648900 -0.090900 1 0 1.000000 
0 -2.450500 -0.118400 13.988500 -0.415211 -0.000100 0.909725 0.689800 -0.090700 1 0 1.000000 
0 -3.777200 -1.848600 13.382800 -0.415211 -0.000100 0.909725 0.669500 -0.106300 1 0 1.000000 
metal_streetprops001a
0 -8.643500 -1.907100 4.566300 -1.000000 -0.000000 0.000000 0.779200 -0.192800 1 0 1.000000 
0 -8.643500 -2.774000 3.064800 -1.000000 -0.000000 0.000000 0.793800 -0.218000 1 0 1.000000 
0 -8.643500 -2.774000 4.065800 -1.000000 -0.000000 0.000000 0.793800 -0.201200 1 0 1.000000 
metal_streetprops001a
0 -8.643500 -1.907100 4.566300 -1.000000 -0.000000 0.000000 0.779200 -0.192800 1 0 1.000000 
0 -8.643500 -1.907100 2.564300 -1.000000 -0.000000 0.000000 0.779200 -0.226400 1 0 1.000000 
0 -8.643500 -2.774000 3.064800 -1.000000 -0.000000 0.000000 0.793800 -0.218000 1 0 1.000000 
metal_streetprops001a
0 -8.643500 -1.907100 4.566300 -1.000000 -0.000000 0.000000 0.779200 -0.192800 1 0 1.000000 
0 -8.643500 -1.040200 3.064800 -1.000000 -0.000000 0.000000 0.764600 -0.218000 1 0 1.000000 
0 -8.643500 -1.907100 2.564300 -1.000000 -0.000000 0.000000 0.779200 -0.226400 1 0 1.000000 
metal_streetprops001a
0 -8.643500 -1.907100 4.566300 -1.000000 -0.000000 0.000000 0.779200 -0.192800 1 0 1.000000 
0 -8.643500 -1.040200 4.065800 -1.000000 -0.000000 0.000000 0.764600 -0.201200 1 0 1.000000 
0 -8.643500 -1.040200 3.064800 -1.000000 -0.000000 0.000000 0.764600 -0.218000 1 0 1.000000 
metal_streetprops001a
0 -3.777200 -1.848600 13.382800 -0.673188 -0.268795 0.688888 0.669500 -0.106300 1 0 1.000000 
0 -2.971200 -3.858300 13.386300 -0.673188 -0.268795 0.688888 0.646000 -0.096800 1 0 1.000000 
0 -2.461200 -3.605700 13.983300 -0.673188 -0.268795 0.688888 0.648900 -0.090900 1 0 1.000000 
metal_streetprops001a
0 9.404400 -2.276999 3.031800 1.000000 0.000000 0.000000 0.735500 -0.320500 1 0 1.000000 
0 9.404400 -1.929400 4.205400 1.000000 0.000000 0.000000 0.741300 -0.300700 1 0 1.000000 
0 9.404400 -2.529500 3.744900 1.000000 0.000000 0.000000 0.731200 -0.308500 1 0 1.000000 
metal_streetprops001a
0 9.404400 -2.276999 3.031800 1.000000 0.000000 0.000000 0.735500 -0.320500 1 0 1.000000 
0 9.404400 -1.305900 3.776900 1.000000 0.000000 0.000000 0.751800 -0.307900 1 0 1.000000 
0 9.404400 -1.929400 4.205400 1.000000 0.000000 0.000000 0.741300 -0.300700 1 0 1.000000 
metal_streetprops001a
0 9.404400 -2.276999 3.031800 1.000000 0.000000 0.000000 0.735500 -0.320500 1 0 1.000000 
0 9.404400 -1.520800 3.051600 1.000000 0.000000 0.000000 0.748200 -0.320100 1 0 1.000000 
0 9.404400 -1.305900 3.776900 1.000000 0.000000 0.000000 0.751800 -0.307900 1 0 1.000000 
metal_streetprops001a
0 -3.188700 0.212900 13.594400 -0.456802 0.039200 0.888704 0.693700 -0.099400 1 0 1.000000 
0 -3.777200 -1.848600 13.382800 -0.456802 0.039200 0.888704 0.669500 -0.106300 1 0 1.000000 
0 -2.450500 -0.118400 13.988500 -0.456802 0.039200 0.888704 0.689800 -0.090700 1 0 1.000000 
metal_streetprops001a
0 0.784100 -2.214400 15.429000 0.000000 0.000000 1.000000 0.644400 -0.186800 1 0 1.000000 
0 -0.185800 -1.927100 15.429000 0.000000 0.000000 1.000000 0.631600 -0.186800 1 0 1.000000 
0 0.194800 -2.423100 15.429000 0.000000 0.000000 1.000000 0.637000 -0.186800 1 0 1.000000 
metal_streetprops001a
0 0.784100 -2.214400 15.429000 0.000000 0.000000 1.000000 0.644400 -0.186800 1 0 1.000000 
0 0.168300 -1.411800 15.429000 0.000000 0.000000 1.000000 0.636800 -0.186800 1 0 1.000000 
0 -0.185800 -1.927100 15.429000 0.000000 0.000000 1.000000 0.631600 -0.186800 1 0 1.000000 
metal_streetprops001a
0 0.784100 -2.214400 15.429000 0.000000 0.000000 1.000000 0.644400 -0.186800 1 0 1.000000 
0 0.767700 -1.589400 15.429000 0.000000 0.000000 1.000000 0.647000 -0.186800 1 0 1.000000 
0 0.168300 -1.411800 15.429000 0.000000 0.000000 1.000000 0.636800 -0.186800 1 0 1.000000 
metal_streetprops001a
0 1.919900 -4.406200 13.997900 0.980393 -0.168899 0.101499 0.931200 -0.018700 1 0 1.000000 
0 3.120000 -3.938700 9.514700 0.377707 -0.363206 0.851715 0.998600 -0.002900 1 0 1.000000 
0 2.729900 -3.563600 13.999400 0.715678 -0.688079 0.119796 0.931300 -0.001100 1 0 1.000000 
metal_streetprops001a
0 1.919900 -4.406200 13.997900 0.980393 -0.168899 0.101499 0.931200 -0.018700 1 0 1.000000 
0 2.309900 -4.781200 9.514700 0.805568 -0.130395 0.577977 0.998400 -0.017700 1 0 1.000000 
0 3.120000 -3.938700 9.514700 0.377707 -0.363206 0.851715 0.998600 -0.002900 1 0 1.000000 
metal_streetprops001a
0 1.919900 -4.406200 13.997900 0.980393 -0.168899 0.101499 0.931200 -0.018700 1 0 1.000000 
0 2.631100 -5.459500 9.512900 0.698584 -0.280194 0.658385 0.998400 -0.019300 1 0 1.000000 
0 2.309900 -4.781200 9.514700 0.805568 -0.130395 0.577977 0.998400 -0.017700 1 0 1.000000 
metal_streetprops001a
0 3.120000 -3.938700 9.514700 0.377707 -0.363206 0.851715 0.998600 -0.002900 1 0 1.000000 
0 2.309900 -4.781200 9.514700 0.805568 -0.130395 0.577977 0.998400 -0.017700 1 0 1.000000 
0 2.631100 -5.459500 9.512900 0.698584 -0.280194 0.658385 0.998400 -0.019300 1 0 1.000000 
metal_streetprops001a
0 3.120000 -3.938700 9.514700 0.377707 -0.363206 0.851715 0.998600 -0.002900 1 0 1.000000 
0 2.631100 -5.459500 9.512900 0.698584 -0.280194 0.658385 0.998400 -0.019300 1 0 1.000000 
0 3.437100 -5.125800 9.512100 0.453301 -0.598102 0.660902 0.998500 -0.011700 1 0 1.000000 
metal_streetprops001a
0 3.120000 -3.938700 9.514700 0.377707 -0.363206 0.851715 0.998600 -0.002900 1 0 1.000000 
0 3.437100 -5.125800 9.512100 0.453301 -0.598102 0.660902 0.998500 -0.011700 1 0 1.000000 
0 3.807300 -4.231600 9.513000 0.856753 -0.351081 0.377779 0.998600 -0.001100 1 0 1.000000 
metal_streetprops001a
0 -3.117500 1.428700 9.512100 -0.379190 0.500186 0.778479 0.996600 -0.010400 1 0 1.000000 
0 -3.488600 0.532400 9.512900 -0.629481 0.693780 0.349890 0.996300 -0.001100 1 0 1.000000 
0 -2.789100 0.234200 9.514700 -0.308315 0.678633 0.666632 0.996500 -0.006300 1 0 1.000000 
metal_streetprops001a
0 -2.450500 -0.118400 13.988500 0.025500 0.996720 0.076802 0.931700 -0.005600 1 0 1.000000 
0 -3.488600 0.532400 9.512900 -0.629481 0.693780 0.349890 0.996300 -0.001100 1 0 1.000000 
0 -3.188700 0.212900 13.594400 -0.431515 0.896331 0.101904 0.936700 -0.000500 1 0 1.000000 
metal_streetprops001a
0 -2.450500 -0.118400 13.988500 0.025500 0.996720 0.076802 0.931700 -0.005600 1 0 1.000000 
0 -2.789100 0.234200 9.514700 -0.308315 0.678633 0.666632 0.996500 -0.006300 1 0 1.000000 
0 -3.488600 0.532400 9.512900 -0.629481 0.693780 0.349890 0.996300 -0.001100 1 0 1.000000 
metal_streetprops001a
0 -1.613700 0.752700 13.986400 -0.716695 0.688895 0.108499 0.932000 -0.014000 1 0 1.000000 
0 -2.789100 0.234200 9.514700 -0.308315 0.678633 0.666632 0.996500 -0.006300 1 0 1.000000 
0 -2.450500 -0.118400 13.988500 0.025500 0.996720 0.076802 0.931700 -0.005600 1 0 1.000000 
metal_streetprops001a
0 -1.613700 0.752700 13.986400 -0.716695 0.688895 0.108499 0.932000 -0.014000 1 0 1.000000 
0 -1.979000 1.076700 9.514700 -0.308691 0.296791 0.903673 0.997100 -0.013200 1 0 1.000000 
0 -2.789100 0.234200 9.514700 -0.308315 0.678633 0.666632 0.996500 -0.006300 1 0 1.000000 
metal_streetprops001a
0 -3.117500 1.428700 9.512100 -0.379190 0.500186 0.778479 0.996600 -0.010400 1 0 1.000000 
0 -2.789100 0.234200 9.514700 -0.308315 0.678633 0.666632 0.996500 -0.006300 1 0 1.000000 
0 -1.979000 1.076700 9.514700 -0.308691 0.296791 0.903673 0.997100 -0.013200 1 0 1.000000 
metal_streetprops001a
0 -3.117500 1.428700 9.512100 -0.379190 0.500186 0.778479 0.996600 -0.010400 1 0 1.000000 
0 -1.979000 1.076700 9.514700 -0.308691 0.296791 0.903673 0.997100 -0.013200 1 0 1.000000 
0 -2.305000 1.765100 9.512900 -0.351388 0.767974 0.535482 0.996900 -0.018800 1 0 1.000000 
metal_streetprops001a
0 -9.404400 -1.559700 3.031800 -1.000000 -0.000000 0.000000 0.699800 -0.337400 1 0 1.000000 
0 -9.404400 -1.907300 4.205400 -1.000000 -0.000000 0.000000 0.705600 -0.317600 1 0 1.000000 
0 -9.404400 -1.307100 3.744900 -1.000000 -0.000000 0.000000 0.695500 -0.325400 1 0 1.000000 
metal_streetprops001a
0 -9.404400 -1.559700 3.031800 -1.000000 -0.000000 0.000000 0.699800 -0.337400 1 0 1.000000 
0 -9.404400 -2.530700 3.776900 -1.000000 -0.000000 0.000000 0.716100 -0.324800 1 0 1.000000 
0 -9.404400 -1.907300 4.205400 -1.000000 -0.000000 0.000000 0.705600 -0.317600 1 0 1.000000 
metal_streetprops001a
0 -9.404400 -1.559700 3.031800 -1.000000 -0.000000 0.000000 0.699800 -0.337400 1 0 1.000000 
0 -9.404400 -2.315901 3.051600 -1.000000 -0.000000 0.000000 0.712500 -0.337000 1 0 1.000000 
0 -9.404400 -2.530700 3.776900 -1.000000 -0.000000 0.000000 0.716100 -0.324800 1 0 1.000000 
metal_streetprops001a
0 1.080100 -2.417800 14.861700 0.000000 0.000000 1.000000 0.646900 -0.195600 1 0 1.000000 
0 -0.551300 -1.934600 14.861700 0.000000 0.000000 1.000000 0.626600 -0.195600 1 0 1.000000 
0 0.088900 -2.768800 14.861700 0.000000 0.000000 1.000000 0.635900 -0.195600 1 0 1.000000 
metal_streetprops001a
0 1.080100 -2.417800 14.861700 0.000000 0.000000 1.000000 0.646900 -0.195600 1 0 1.000000 
0 0.044300 -1.068000 14.861700 0.000000 0.000000 1.000000 0.633500 -0.195600 1 0 1.000000 
0 -0.551300 -1.934600 14.861700 0.000000 0.000000 1.000000 0.626600 -0.195600 1 0 1.000000 
metal_streetprops001a
0 1.080100 -2.417800 14.861700 0.000000 0.000000 1.000000 0.646900 -0.195600 1 0 1.000000 
0 1.052500 -1.366600 14.861700 0.000000 0.000000 1.000000 0.653100 -0.195600 1 0 1.000000 
0 0.044300 -1.068000 14.861700 0.000000 0.000000 1.000000 0.633500 -0.195600 1 0 1.000000 
end
