version 1
nodes
  0 "static_prop" -1
end
skeleton
time 0
0 0.000000 0.000000 0.000000 0.000000 0.000000 0.000000
end
triangles
windlass01
0 5.114501 -17.845600 3.393500 0.000000 0.000000 1.000000 0.363100 -0.938400 1 0 1.000000 
0 5.620001 -16.761499 3.393500 0.000000 0.000000 1.000000 0.365600 -0.924400 1 0 1.000000 
0 3.236801 -16.969999 3.393500 0.000000 0.000000 1.000000 0.339000 -0.934100 1 0 1.000000 
windlass01
0 -5.726100 -1.463700 7.543200 -0.626676 -0.231591 -0.744072 0.094300 -0.503000 1 0 1.000000 
0 -4.124500 -4.175600 5.094900 -0.352708 -0.650216 0.672916 0.180200 -0.663300 1 0 1.000000 
0 -4.132900 -4.178400 7.543200 -0.372995 -0.225997 -0.899889 0.180100 -0.503000 1 0 1.000000 
windlass01
0 -5.726100 -1.463700 7.543200 -0.626676 -0.231591 -0.744072 0.094300 -0.503000 1 0 1.000000 
0 -5.719500 -1.457900 5.094900 -0.386616 -0.049002 0.920938 0.094200 -0.663300 1 0 1.000000 
0 -4.124500 -4.175600 5.094900 -0.352708 -0.650216 0.672916 0.180200 -0.663300 1 0 1.000000 
windlass01
0 -5.726100 -1.463700 7.543200 -0.626676 -0.231591 -0.744072 0.094300 -0.503000 1 0 1.000000 
0 -4.170700 4.114400 5.094900 -0.398984 0.308888 0.863365 -0.068900 -0.663300 1 0 1.000000 
0 -5.719500 -1.457900 5.094900 -0.386616 -0.049002 0.920938 0.094200 -0.663300 1 0 1.000000 
windlass01
0 -4.170700 4.114400 5.094900 -0.398984 0.308888 0.863365 -0.068900 -0.663300 1 0 1.000000 
0 -5.726100 -1.463700 7.543200 -0.626676 -0.231591 -0.744072 0.094300 -0.503000 1 0 1.000000 
0 -5.719500 -1.457900 5.094900 -0.386616 -0.049002 0.920938 0.094200 -0.663300 1 0 1.000000 
windlass01
0 -4.173000 4.123100 7.543200 -0.315204 0.329704 -0.889911 -0.069000 -0.503000 1 0 1.000000 
0 -4.170700 4.114400 5.094900 -0.398984 0.308888 0.863365 -0.068900 -0.663300 1 0 1.000000 
0 -5.726100 -1.463700 7.543200 -0.626676 -0.231591 -0.744072 0.094300 -0.503000 1 0 1.000000 
windlass01
0 -1.540200 5.606000 7.543200 -0.090704 0.488321 -0.867937 0.844700 -0.503000 1 0 1.000000 
0 4.115600 4.047700 5.094900 0.353485 0.647972 0.674671 0.676200 -0.663300 1 0 1.000000 
0 4.123700 4.049700 7.543200 0.532290 0.141897 -0.834585 0.676100 -0.503000 1 0 1.000000 
windlass01
0 5.776500 1.490400 7.964200 0.662399 0.273100 -0.697599 0.593000 -0.475500 1 0 1.000000 
0 4.115600 4.047700 5.094900 0.353485 0.647972 0.674671 0.676200 -0.663300 1 0 1.000000 
0 4.123700 4.049700 7.543200 0.532290 0.141897 -0.834585 0.676100 -0.503000 1 0 1.000000 
windlass01
0 5.776500 1.490400 7.964200 0.662399 0.273100 -0.697599 0.593000 -0.475500 1 0 1.000000 
0 5.789300 1.780300 5.098000 0.339793 -0.117098 0.933182 0.600300 -0.663100 1 0 1.000000 
0 4.115600 4.047700 5.094900 0.353485 0.647972 0.674671 0.676200 -0.663300 1 0 1.000000 
windlass01
0 5.776500 1.490400 7.964200 0.662399 0.273100 -0.697599 0.593000 -0.475500 1 0 1.000000 
0 5.744800 -1.692800 5.100200 0.744080 -0.003300 0.668082 0.507500 -0.662900 1 0 1.000000 
0 5.789300 1.780300 5.098000 0.339793 -0.117098 0.933182 0.600300 -0.663100 1 0 1.000000 
windlass01
0 4.182500 -4.177900 7.543200 0.505690 -0.218896 -0.834483 0.428500 -0.503000 1 0 1.000000 
0 5.744800 -1.692800 5.100200 0.744080 -0.003300 0.668082 0.507500 -0.662900 1 0 1.000000 
0 5.776500 1.490400 7.964200 0.662399 0.273100 -0.697599 0.593000 -0.475500 1 0 1.000000 
windlass01
0 4.182500 -4.177900 7.543200 0.505690 -0.218896 -0.834483 0.428500 -0.503000 1 0 1.000000 
0 4.180200 -4.169300 5.094900 0.346498 -0.336298 0.875695 0.428600 -0.663300 1 0 1.000000 
0 5.744800 -1.692800 5.100200 0.744080 -0.003300 0.668082 0.507500 -0.662900 1 0 1.000000 
windlass01
0 1.513700 -5.708200 7.543200 0.223115 -0.607740 -0.762150 0.344900 -0.503000 1 0 1.000000 
0 4.180200 -4.169300 5.094900 0.346498 -0.336298 0.875695 0.428600 -0.663300 1 0 1.000000 
0 4.182500 -4.177900 7.543200 0.505690 -0.218896 -0.834483 0.428500 -0.503000 1 0 1.000000 
windlass01
0 1.513700 -5.708200 7.543200 0.223115 -0.607740 -0.762150 0.344900 -0.503000 1 0 1.000000 
0 1.507500 -5.701800 5.094900 -0.158999 -0.374497 0.913494 0.344800 -0.663300 1 0 1.000000 
0 4.180200 -4.169300 5.094900 0.346498 -0.336298 0.875695 0.428600 -0.663300 1 0 1.000000 
windlass01
0 1.513700 -5.708200 7.543200 0.223115 -0.607740 -0.762150 0.344900 -0.503000 1 0 1.000000 
0 -4.124500 -4.175600 5.094900 -0.352708 -0.650216 0.672916 0.180200 -0.663300 1 0 1.000000 
0 1.507500 -5.701800 5.094900 -0.158999 -0.374497 0.913494 0.344800 -0.663300 1 0 1.000000 
windlass01
0 1.513700 -5.708200 7.543200 0.223115 -0.607740 -0.762150 0.344900 -0.503000 1 0 1.000000 
0 -4.124500 -4.175600 5.094900 -0.352708 -0.650216 0.672916 0.180200 -0.663300 1 0 1.000000 
0 -4.132900 -4.178400 7.543200 -0.372995 -0.225997 -0.899889 0.180100 -0.503000 1 0 1.000000 
windlass01
0 -4.132900 -4.178400 7.543200 -0.372995 -0.225997 -0.899889 0.180100 -0.503000 1 0 1.000000 
0 -4.124500 -4.175600 5.094900 -0.352708 -0.650216 0.672916 0.180200 -0.663300 1 0 1.000000 
0 1.513700 -5.708200 7.543200 0.223115 -0.607740 -0.762150 0.344900 -0.503000 1 0 1.000000 
windlass01
0 4.123700 4.049700 7.543200 0.532290 0.141897 -0.834585 0.676100 -0.503000 1 0 1.000000 
0 4.115600 4.047700 5.094900 0.353485 0.647972 0.674671 0.676200 -0.663300 1 0 1.000000 
0 -1.540200 5.606000 7.543200 -0.090704 0.488321 -0.867937 0.844700 -0.503000 1 0 1.000000 
windlass01
0 4.180200 -4.169300 5.094900 0.346498 -0.336298 0.875695 0.428600 -0.663300 1 0 1.000000 
0 5.776500 1.490400 7.964200 0.662399 0.273100 -0.697599 0.593000 -0.475500 1 0 1.000000 
0 5.789300 1.780300 5.098000 0.339793 -0.117098 0.933182 0.600300 -0.663100 1 0 1.000000 
windlass01
0 -1.540200 5.606000 7.543200 -0.090704 0.488321 -0.867937 0.844700 -0.503000 1 0 1.000000 
0 -4.170700 4.114400 5.094900 -0.398984 0.308888 0.863365 0.927800 -0.663300 1 0 1.000000 
0 -4.173000 4.123100 7.543200 -0.315204 0.329704 -0.889911 0.927700 -0.503000 1 0 1.000000 
windlass01
0 -1.540200 5.606000 7.543200 -0.090704 0.488321 -0.867937 0.844700 -0.503000 1 0 1.000000 
0 -1.533900 5.599700 5.094900 0.205511 0.412123 0.887649 0.844600 -0.663300 1 0 1.000000 
0 -4.170700 4.114400 5.094900 -0.398984 0.308888 0.863365 0.927800 -0.663300 1 0 1.000000 
windlass01
0 -1.540200 5.606000 7.543200 -0.090704 0.488321 -0.867937 0.844700 -0.503000 1 0 1.000000 
0 4.115600 4.047700 5.094900 0.353485 0.647972 0.674671 0.676200 -0.663300 1 0 1.000000 
0 -1.533900 5.599700 5.094900 0.205511 0.412123 0.887649 0.844600 -0.663300 1 0 1.000000 
windlass01
0 -13.224701 12.819599 3.393500 0.000000 0.000000 1.000000 0.059500 -0.643900 1 0 1.000000 
0 -12.126801 11.062699 3.393500 0.000000 0.000000 1.000000 0.077500 -0.660700 1 0 1.000000 
0 -11.112401 11.696499 3.393500 0.000000 0.000000 1.000000 0.087100 -0.650300 1 0 1.000000 
windlass01
0 -2.964499 -11.023500 7.479000 -0.136293 -0.070596 -0.988150 0.511200 -0.858800 1 0 1.000000 
0 -4.132900 -4.178400 7.543200 -0.372995 -0.225997 -0.899889 0.454700 -0.798400 1 0 1.000000 
0 1.513700 -5.708200 7.543200 0.223115 -0.607740 -0.762150 0.568800 -0.798500 1 0 1.000000 
windlass01
0 -11.041800 2.977799 7.479000 -0.058000 0.014700 -0.998208 0.288400 -0.749300 1 0 1.000000 
0 -4.132900 -4.178400 7.543200 -0.372995 -0.225997 -0.899889 0.454700 -0.798400 1 0 1.000000 
0 -2.964499 -11.023500 7.479000 -0.136293 -0.070596 -0.988150 0.511200 -0.858800 1 0 1.000000 
windlass01
0 -11.041800 2.977799 7.479000 -0.058000 0.014700 -0.998208 0.288400 -0.749300 1 0 1.000000 
0 -5.726100 -1.463700 7.543200 -0.626676 -0.231591 -0.744072 0.411000 -0.777200 1 0 1.000000 
0 -4.132900 -4.178400 7.543200 -0.372995 -0.225997 -0.899889 0.454700 -0.798400 1 0 1.000000 
windlass01
0 -5.726100 -1.463700 7.543200 -0.626676 -0.231591 -0.744072 0.411000 -0.777200 1 0 1.000000 
0 -4.132900 -4.178400 7.543200 -0.372995 -0.225997 -0.899889 0.454700 -0.798400 1 0 1.000000 
0 -8.949000 -5.152700 8.623500 -0.184700 -0.108400 -0.976798 0.368900 -0.819300 1 0 1.000000 
windlass01
0 1.513700 -5.708200 7.543200 0.223115 -0.607740 -0.762150 0.568800 -0.798500 1 0 1.000000 
0 4.182500 -4.177900 7.543200 0.505690 -0.218896 -0.834483 0.611300 -0.777800 1 0 1.000000 
0 5.028700 -8.827100 8.623500 0.110903 -0.193406 -0.974830 0.650700 -0.818700 1 0 1.000000 
windlass01
0 -11.658400 3.132699 4.860600 -0.199299 -0.066300 0.977693 0.276000 -0.749400 1 0 1.000000 
0 -5.726100 -1.463700 7.543200 -0.626676 -0.231591 -0.744072 0.411000 -0.777200 1 0 1.000000 
0 -4.170700 4.114400 5.094900 -0.398984 0.308888 0.863365 0.412100 -0.721800 1 0 1.000000 
windlass01
0 -5.719500 -1.457900 5.094900 -0.386616 -0.049002 0.920938 0.411100 -0.777100 1 0 1.000000 
0 -5.726100 -1.463700 7.543200 -0.626676 -0.231591 -0.744072 0.411000 -0.777200 1 0 1.000000 
0 -11.658400 3.132699 4.860600 -0.199299 -0.066300 0.977693 0.276000 -0.749400 1 0 1.000000 
windlass01
0 2.988500 11.060000 7.479000 0.222900 0.128000 -0.966401 0.511900 -0.639800 1 0 1.000000 
0 -1.540200 5.606000 7.543200 -0.090704 0.488321 -0.867937 0.454100 -0.701400 1 0 1.000000 
0 -2.945500 11.079600 7.469700 0.004700 -0.011500 -0.999923 0.400000 -0.654300 1 0 1.000000 
windlass01
0 -2.945500 11.079600 7.469700 0.004700 -0.011500 -0.999923 0.400000 -0.654300 1 0 1.000000 
0 -1.540200 5.606000 7.543200 -0.090704 0.488321 -0.867937 0.454100 -0.701400 1 0 1.000000 
0 -4.173000 4.123100 7.543200 -0.315204 0.329704 -0.889911 0.412000 -0.721700 1 0 1.000000 
windlass01
0 -2.945500 11.079600 7.469700 0.004700 -0.011500 -0.999923 0.400000 -0.654300 1 0 1.000000 
0 -4.173000 4.123100 7.543200 -0.315204 0.329704 -0.889911 0.412000 -0.721700 1 0 1.000000 
0 -5.726100 -1.463700 7.543200 -0.626676 -0.231591 -0.744072 0.411000 -0.777200 1 0 1.000000 
windlass01
0 -4.173000 4.123100 7.543200 -0.315204 0.329704 -0.889911 0.412000 -0.721700 1 0 1.000000 
0 -5.726100 -1.463700 7.543200 -0.626676 -0.231591 -0.744072 0.411000 -0.777200 1 0 1.000000 
0 -11.041800 2.977799 7.479000 -0.058000 0.014700 -0.998208 0.288400 -0.749300 1 0 1.000000 
windlass01
0 -2.945500 11.079600 7.469700 0.004700 -0.011500 -0.999923 0.400000 -0.654300 1 0 1.000000 
0 -5.726100 -1.463700 7.543200 -0.626676 -0.231591 -0.744072 0.411000 -0.777200 1 0 1.000000 
0 -11.041800 2.977799 7.479000 -0.058000 0.014700 -0.998208 0.288400 -0.749300 1 0 1.000000 
windlass01
0 -5.085701 8.837600 8.623500 -0.107101 0.190101 -0.975905 0.371000 -0.680300 1 0 1.000000 
0 -1.540200 5.606000 7.543200 -0.090704 0.488321 -0.867937 0.454100 -0.701400 1 0 1.000000 
0 -4.173000 4.123100 7.543200 -0.315204 0.329704 -0.889911 0.412000 -0.721700 1 0 1.000000 
windlass01
0 -5.709600 9.915700 4.852800 0.111301 0.581904 0.805605 0.353800 -0.671900 1 0 1.000000 
0 -1.540200 5.606000 7.543200 -0.090704 0.488321 -0.867937 0.454100 -0.701400 1 0 1.000000 
0 -1.533900 5.599700 5.094900 0.205511 0.412123 0.887649 0.454300 -0.701500 1 0 1.000000 
windlass01
0 -1.533900 5.599700 5.094900 0.205511 0.412123 0.887649 0.454300 -0.701500 1 0 1.000000 
0 -1.540200 5.606000 7.543200 -0.090704 0.488321 -0.867937 0.454100 -0.701400 1 0 1.000000 
0 -4.170700 4.114400 5.094900 -0.398984 0.308888 0.863365 0.412100 -0.721800 1 0 1.000000 
windlass01
0 -4.170700 4.114400 5.094900 -0.398984 0.308888 0.863365 0.412100 -0.721800 1 0 1.000000 
0 -1.540200 5.606000 7.543200 -0.090704 0.488321 -0.867937 0.454100 -0.701400 1 0 1.000000 
0 -5.709600 9.915700 4.852800 0.111301 0.581904 0.805605 0.353800 -0.671900 1 0 1.000000 
windlass01
0 -9.943100 -5.720800 4.852800 -0.199597 -0.564993 0.800590 0.353000 -0.827000 1 0 1.000000 
0 -4.132900 -4.178400 7.543200 -0.372995 -0.225997 -0.899889 0.454700 -0.798400 1 0 1.000000 
0 -5.719500 -1.457900 5.094900 -0.386616 -0.049002 0.920938 0.411100 -0.777100 1 0 1.000000 
windlass01
0 -5.719500 -1.457900 5.094900 -0.386616 -0.049002 0.920938 0.411100 -0.777100 1 0 1.000000 
0 -4.132900 -4.178400 7.543200 -0.372995 -0.225997 -0.899889 0.454700 -0.798400 1 0 1.000000 
0 -4.124500 -4.175600 5.094900 -0.352708 -0.650216 0.672916 0.454800 -0.798300 1 0 1.000000 
windlass01
0 -4.132900 -4.178400 7.543200 -0.372995 -0.225997 -0.899889 0.454700 -0.798400 1 0 1.000000 
0 -4.124500 -4.175600 5.094900 -0.352708 -0.650216 0.672916 0.454800 -0.798300 1 0 1.000000 
0 -2.964499 -11.023500 7.479000 -0.136293 -0.070596 -0.988150 0.511200 -0.858800 1 0 1.000000 
windlass01
0 -2.964499 -11.023500 7.479000 -0.136293 -0.070596 -0.988150 0.511200 -0.858800 1 0 1.000000 
0 -4.124500 -4.175600 5.094900 -0.352708 -0.650216 0.672916 0.454800 -0.798300 1 0 1.000000 
0 1.513700 -5.708200 7.543200 0.223115 -0.607740 -0.762150 0.568800 -0.798500 1 0 1.000000 
windlass01
0 -2.964499 -11.023500 7.479000 -0.136293 -0.070596 -0.988150 0.511200 -0.858800 1 0 1.000000 
0 1.513700 -5.708200 7.543200 0.223115 -0.607740 -0.762150 0.568800 -0.798500 1 0 1.000000 
0 4.182500 -4.177900 7.543200 0.505690 -0.218896 -0.834483 0.611300 -0.777800 1 0 1.000000 
windlass01
0 -2.964499 -11.023500 7.479000 -0.136293 -0.070596 -0.988150 0.511200 -0.858800 1 0 1.000000 
0 4.182500 -4.177900 7.543200 0.505690 -0.218896 -0.834483 0.611300 -0.777800 1 0 1.000000 
0 11.070700 -2.983000 7.479000 -0.001600 0.020700 -0.999784 0.735000 -0.749600 1 0 1.000000 
windlass01
0 4.182500 -4.177900 7.543200 0.505690 -0.218896 -0.834483 0.611300 -0.777800 1 0 1.000000 
0 5.776500 1.490400 7.964200 0.662399 0.273100 -0.697599 0.612700 -0.721400 1 0 1.000000 
0 11.070700 -2.983000 7.479000 -0.001600 0.020700 -0.999784 0.735000 -0.749600 1 0 1.000000 
windlass01
0 11.070700 -2.983000 7.479000 -0.001600 0.020700 -0.999784 0.735000 -0.749600 1 0 1.000000 
0 5.776500 1.490400 7.964200 0.662399 0.273100 -0.697599 0.612700 -0.721400 1 0 1.000000 
0 11.073500 2.985801 7.469700 -0.045199 -0.061599 -0.997077 0.704900 -0.694400 1 0 1.000000 
windlass01
0 11.073500 2.985801 7.469700 -0.045199 -0.061599 -0.997077 0.704900 -0.694400 1 0 1.000000 
0 5.776500 1.490400 7.964200 0.662399 0.273100 -0.697599 0.612700 -0.721400 1 0 1.000000 
0 4.123700 4.049700 7.543200 0.532290 0.141897 -0.834585 0.568700 -0.701800 1 0 1.000000 
windlass01
0 11.073500 2.985801 7.469700 -0.045199 -0.061599 -0.997077 0.704900 -0.694400 1 0 1.000000 
0 4.123700 4.049700 7.543200 0.532290 0.141897 -0.834585 0.568700 -0.701800 1 0 1.000000 
0 -1.540200 5.606000 7.543200 -0.090704 0.488321 -0.867937 0.454100 -0.701400 1 0 1.000000 
windlass01
0 11.073500 2.985801 7.469700 -0.045199 -0.061599 -0.997077 0.704900 -0.694400 1 0 1.000000 
0 -1.540200 5.606000 7.543200 -0.090704 0.488321 -0.867937 0.454100 -0.701400 1 0 1.000000 
0 2.988500 11.060000 7.479000 0.222900 0.128000 -0.966401 0.511900 -0.639800 1 0 1.000000 
windlass01
0 2.988500 11.060000 7.479000 0.222900 0.128000 -0.966401 0.511900 -0.639800 1 0 1.000000 
0 4.115600 4.047700 5.094900 0.353485 0.647972 0.674671 0.568500 -0.701800 1 0 1.000000 
0 -1.540200 5.606000 7.543200 -0.090704 0.488321 -0.867937 0.454100 -0.701400 1 0 1.000000 
windlass01
0 4.123700 4.049700 7.543200 0.532290 0.141897 -0.834585 0.568700 -0.701800 1 0 1.000000 
0 4.115600 4.047700 5.094900 0.353485 0.647972 0.674671 0.568500 -0.701800 1 0 1.000000 
0 2.988500 11.060000 7.479000 0.222900 0.128000 -0.966401 0.511900 -0.639800 1 0 1.000000 
windlass01
0 5.789300 1.780300 5.098000 0.339793 -0.117098 0.933182 0.611500 -0.718700 1 0 1.000000 
0 4.123700 4.049700 7.543200 0.532290 0.141897 -0.834585 0.568700 -0.701800 1 0 1.000000 
0 4.115600 4.047700 5.094900 0.353485 0.647972 0.674671 0.568500 -0.701800 1 0 1.000000 
windlass01
0 9.938300 5.653601 4.852800 0.203097 0.547493 0.811790 0.670100 -0.672500 1 0 1.000000 
0 4.123700 4.049700 7.543200 0.532290 0.141897 -0.834585 0.568700 -0.701800 1 0 1.000000 
0 5.789300 1.780300 5.098000 0.339793 -0.117098 0.933182 0.611500 -0.718700 1 0 1.000000 
windlass01
0 4.115600 4.047700 5.094900 0.353485 0.647972 0.674671 0.568500 -0.701800 1 0 1.000000 
0 4.123700 4.049700 7.543200 0.532290 0.141897 -0.834585 0.568700 -0.701800 1 0 1.000000 
0 9.938300 5.653601 4.852800 0.203097 0.547493 0.811790 0.670100 -0.672500 1 0 1.000000 
windlass01
0 -1.533900 5.599700 5.094900 0.205511 0.412123 0.887649 0.454300 -0.701500 1 0 1.000000 
0 4.115600 4.047700 5.094900 0.353485 0.647972 0.674671 0.568500 -0.701800 1 0 1.000000 
0 3.145499 11.661700 4.860600 0.027599 0.090997 0.995468 0.511800 -0.633800 1 0 1.000000 
windlass01
0 11.070700 -2.983000 7.479000 -0.001600 0.020700 -0.999784 0.735000 -0.749600 1 0 1.000000 
0 4.182500 -4.177900 7.543200 0.505690 -0.218896 -0.834483 0.611300 -0.777800 1 0 1.000000 
0 5.776500 1.490400 7.964200 0.662399 0.273100 -0.697599 0.612700 -0.721400 1 0 1.000000 
windlass01
0 -4.124500 -4.175600 5.094900 -0.352708 -0.650216 0.672916 0.454800 -0.798300 1 0 1.000000 
0 -4.132900 -4.178400 7.543200 -0.372995 -0.225997 -0.899889 0.454700 -0.798400 1 0 1.000000 
0 -9.943100 -5.720800 4.852800 -0.199597 -0.564993 0.800590 0.353000 -0.827000 1 0 1.000000 
windlass01
0 5.776500 1.490400 7.964200 0.662399 0.273100 -0.697599 0.612700 -0.721400 1 0 1.000000 
0 4.123700 4.049700 7.543200 0.532290 0.141897 -0.834585 0.568700 -0.701800 1 0 1.000000 
0 8.277200 4.718000 8.623500 0.237802 0.002900 -0.971309 0.643500 -0.685300 1 0 1.000000 
windlass01
0 5.658700 -9.906000 4.852800 0.560697 -0.210199 0.800896 0.668000 -0.827100 1 0 1.000000 
0 4.182500 -4.177900 7.543200 0.505690 -0.218896 -0.834483 0.611300 -0.777800 1 0 1.000000 
0 1.507500 -5.701800 5.094900 -0.158999 -0.374497 0.913494 0.568600 -0.798500 1 0 1.000000 
windlass01
0 1.507500 -5.701800 5.094900 -0.158999 -0.374497 0.913494 0.568600 -0.798500 1 0 1.000000 
0 -4.124500 -4.175600 5.094900 -0.352708 -0.650216 0.672916 0.454800 -0.798300 1 0 1.000000 
0 -3.134500 -11.642100 4.860600 -0.027999 -0.093196 0.995254 0.511200 -0.864900 1 0 1.000000 
windlass01
0 4.180200 -4.169300 5.094900 0.346498 -0.336298 0.875695 0.611200 -0.777700 1 0 1.000000 
0 4.182500 -4.177900 7.543200 0.505690 -0.218896 -0.834483 0.611300 -0.777800 1 0 1.000000 
0 5.658700 -9.906000 4.852800 0.560697 -0.210199 0.800896 0.668000 -0.827100 1 0 1.000000 
windlass01
0 1.507500 -5.701800 5.094900 -0.158999 -0.374497 0.913494 0.568600 -0.798500 1 0 1.000000 
0 4.182500 -4.177900 7.543200 0.505690 -0.218896 -0.834483 0.611300 -0.777800 1 0 1.000000 
0 4.180200 -4.169300 5.094900 0.346498 -0.336298 0.875695 0.611200 -0.777700 1 0 1.000000 
windlass01
0 1.507500 -5.701800 5.094900 -0.158999 -0.374497 0.913494 0.568600 -0.798500 1 0 1.000000 
0 -3.134500 -11.642100 4.860600 -0.027999 -0.093196 0.995254 0.511200 -0.864900 1 0 1.000000 
0 4.180200 -4.169300 5.094900 0.346498 -0.336298 0.875695 0.611200 -0.777700 1 0 1.000000 
windlass01
0 -4.124500 -4.175600 5.094900 -0.352708 -0.650216 0.672916 0.454800 -0.798300 1 0 1.000000 
0 -3.134500 -11.642100 4.860600 -0.027999 -0.093196 0.995254 0.511200 -0.864900 1 0 1.000000 
0 1.507500 -5.701800 5.094900 -0.158999 -0.374497 0.913494 0.568600 -0.798500 1 0 1.000000 
windlass01
0 -4.124500 -4.175600 5.094900 -0.352708 -0.650216 0.672916 0.454800 -0.798300 1 0 1.000000 
0 -8.543200 -8.541100 4.868400 -0.026100 -0.022500 0.999406 0.393600 -0.849700 1 0 1.000000 
0 -3.134500 -11.642100 4.860600 -0.027999 -0.093196 0.995254 0.511200 -0.864900 1 0 1.000000 
windlass01
0 -5.719500 -1.457900 5.094900 -0.386616 -0.049002 0.920938 0.411100 -0.777100 1 0 1.000000 
0 -8.543200 -8.541100 4.868400 -0.026100 -0.022500 0.999406 0.393600 -0.849700 1 0 1.000000 
0 -4.124500 -4.175600 5.094900 -0.352708 -0.650216 0.672916 0.454800 -0.798300 1 0 1.000000 
windlass01
0 -4.170700 4.114400 5.094900 -0.398984 0.308888 0.863365 0.412100 -0.721800 1 0 1.000000 
0 -8.543200 -8.541100 4.868400 -0.026100 -0.022500 0.999406 0.393600 -0.849700 1 0 1.000000 
0 -5.719500 -1.457900 5.094900 -0.386616 -0.049002 0.920938 0.411100 -0.777100 1 0 1.000000 
windlass01
0 -4.170700 4.114400 5.094900 -0.398984 0.308888 0.863365 0.412100 -0.721800 1 0 1.000000 
0 -11.658400 3.132699 4.860600 -0.199299 -0.066300 0.977693 0.276000 -0.749400 1 0 1.000000 
0 -8.543200 -8.541100 4.868400 -0.026100 -0.022500 0.999406 0.393600 -0.849700 1 0 1.000000 
windlass01
0 -1.533900 5.599700 5.094900 0.205511 0.412123 0.887649 0.454300 -0.701500 1 0 1.000000 
0 -11.658400 3.132699 4.860600 -0.199299 -0.066300 0.977693 0.276000 -0.749400 1 0 1.000000 
0 -4.170700 4.114400 5.094900 -0.398984 0.308888 0.863365 0.412100 -0.721800 1 0 1.000000 
windlass01
0 -1.533900 5.599700 5.094900 0.205511 0.412123 0.887649 0.454300 -0.701500 1 0 1.000000 
0 3.145499 11.661700 4.860600 0.027599 0.090997 0.995468 0.511800 -0.633800 1 0 1.000000 
0 -11.658400 3.132699 4.860600 -0.199299 -0.066300 0.977693 0.276000 -0.749400 1 0 1.000000 
windlass01
0 4.115600 4.047700 5.094900 0.353485 0.647972 0.674671 0.568500 -0.701800 1 0 1.000000 
0 3.145499 11.661700 4.860600 0.027599 0.090997 0.995468 0.511800 -0.633800 1 0 1.000000 
0 -1.533900 5.599700 5.094900 0.205511 0.412123 0.887649 0.454300 -0.701500 1 0 1.000000 
windlass01
0 4.115600 4.047700 5.094900 0.353485 0.647972 0.674671 0.568500 -0.701800 1 0 1.000000 
0 11.719800 2.333400 4.720600 -0.019900 -0.357205 0.933814 0.715600 -0.691500 1 0 1.000000 
0 3.145499 11.661700 4.860600 0.027599 0.090997 0.995468 0.511800 -0.633800 1 0 1.000000 
windlass01
0 5.789300 1.780300 5.098000 0.339793 -0.117098 0.933182 0.611500 -0.718700 1 0 1.000000 
0 11.719800 2.333400 4.720600 -0.019900 -0.357205 0.933814 0.715600 -0.691500 1 0 1.000000 
0 4.115600 4.047700 5.094900 0.353485 0.647972 0.674671 0.568500 -0.701800 1 0 1.000000 
windlass01
0 5.744800 -1.692800 5.100200 0.744080 -0.003300 0.668082 0.628200 -0.750900 1 0 1.000000 
0 11.719800 2.333400 4.720600 -0.019900 -0.357205 0.933814 0.715600 -0.691500 1 0 1.000000 
0 5.789300 1.780300 5.098000 0.339793 -0.117098 0.933182 0.611500 -0.718700 1 0 1.000000 
windlass01
0 5.744800 -1.692800 5.100200 0.744080 -0.003300 0.668082 0.628200 -0.750900 1 0 1.000000 
0 11.674300 -3.154999 4.860600 0.032500 0.310205 0.950114 0.747300 -0.749700 1 0 1.000000 
0 11.719800 2.333400 4.720600 -0.019900 -0.357205 0.933814 0.715600 -0.691500 1 0 1.000000 
windlass01
0 4.180200 -4.169300 5.094900 0.346498 -0.336298 0.875695 0.611200 -0.777700 1 0 1.000000 
0 11.674300 -3.154999 4.860600 0.032500 0.310205 0.950114 0.747300 -0.749700 1 0 1.000000 
0 5.744800 -1.692800 5.100200 0.744080 -0.003300 0.668082 0.628200 -0.750900 1 0 1.000000 
windlass01
0 11.674300 -3.154999 4.860600 0.032500 0.310205 0.950114 0.747300 -0.749700 1 0 1.000000 
0 5.776500 1.490400 7.964200 0.662399 0.273100 -0.697599 0.612700 -0.721400 1 0 1.000000 
0 4.180200 -4.169300 5.094900 0.346498 -0.336298 0.875695 0.611200 -0.777700 1 0 1.000000 
windlass01
0 5.789300 1.780300 5.098000 0.339793 -0.117098 0.933182 0.611500 -0.718700 1 0 1.000000 
0 5.776500 1.490400 7.964200 0.662399 0.273100 -0.697599 0.612700 -0.721400 1 0 1.000000 
0 11.674300 -3.154999 4.860600 0.032500 0.310205 0.950114 0.747300 -0.749700 1 0 1.000000 
windlass01
0 4.180200 -4.169300 5.094900 0.346498 -0.336298 0.875695 0.611200 -0.777700 1 0 1.000000 
0 -3.134500 -11.642100 4.860600 -0.027999 -0.093196 0.995254 0.511200 -0.864900 1 0 1.000000 
0 11.674300 -3.154999 4.860600 0.032500 0.310205 0.950114 0.747300 -0.749700 1 0 1.000000 
windlass01
0 14.754900 2.437401 2.705600 0.653472 -0.733668 -0.186292 0.788300 -0.853200 1 0 1.000000 
0 19.479099 5.248601 2.672600 0.320606 -0.547411 -0.773015 1.064500 -0.854700 1 0 1.000000 
0 16.930599 2.751801 7.418900 0.223902 -0.972908 -0.057600 0.914800 -0.693600 1 0 1.000000 
windlass01
0 11.719800 2.333400 4.720600 -0.019900 -0.357205 0.933814 0.611800 -0.785000 1 0 1.000000 
0 14.754900 2.437401 2.705600 0.653472 -0.733668 -0.186292 0.788300 -0.853200 1 0 1.000000 
0 16.930599 2.751801 7.418900 0.223902 -0.972908 -0.057600 0.914800 -0.693600 1 0 1.000000 
windlass01
0 11.719800 2.333400 4.720600 -0.019900 -0.357205 0.933814 0.611800 -0.785000 1 0 1.000000 
0 16.930599 2.751801 7.418900 0.223902 -0.972908 -0.057600 0.914800 -0.693600 1 0 1.000000 
0 5.789300 1.780300 5.098000 0.339793 -0.117098 0.933182 0.267000 -0.772200 1 0 1.000000 
windlass01
0 11.686300 3.085300 2.740900 -0.472474 -0.078396 -0.877851 0.609600 -0.851700 1 0 1.000000 
0 5.789300 1.780300 5.098000 0.339793 -0.117098 0.933182 0.267000 -0.772200 1 0 1.000000 
0 11.719800 2.333400 4.720600 -0.019900 -0.357205 0.933814 0.611800 -0.785000 1 0 1.000000 
windlass01
0 11.686300 3.085300 2.740900 -0.472474 -0.078396 -0.877851 0.609600 -0.851700 1 0 1.000000 
0 11.719800 2.333400 4.720600 -0.019900 -0.357205 0.933814 0.611800 -0.785000 1 0 1.000000 
0 5.789300 1.780300 5.098000 0.339793 -0.117098 0.933182 0.267000 -0.772200 1 0 1.000000 
windlass01
0 11.674300 -3.154999 4.860600 0.172908 -0.933541 -0.314014 0.609200 -0.780200 1 0 1.000000 
0 16.971100 -2.657399 7.418900 -0.147695 -0.853172 0.500284 0.918900 -0.693500 1 0 1.000000 
0 5.744800 -1.692800 5.100200 -0.178398 -0.809891 0.558794 0.264400 -0.772100 1 0 1.000000 
windlass01
0 11.674300 -3.154999 4.860600 0.172908 -0.933541 -0.314014 0.609200 -0.780200 1 0 1.000000 
0 19.489500 -5.186099 2.677600 -0.047700 -0.382800 0.922599 1.063600 -0.854100 1 0 1.000000 
0 16.971100 -2.657399 7.418900 -0.147695 -0.853172 0.500284 0.918900 -0.693500 1 0 1.000000 
windlass01
0 -10.199200 -2.732900 24.507900 -0.912623 -0.334008 -0.235706 0.168600 -0.127600 1 0 1.000000 
0 -10.199200 -2.732900 13.329800 -0.903906 -0.230201 0.360502 0.168600 -0.357300 1 0 1.000000 
0 -7.466400 -7.466300 13.329800 -0.667708 -0.651308 0.360504 0.249900 -0.357300 1 0 1.000000 
windlass01
0 -10.199200 2.732899 24.507900 -0.957372 0.166995 -0.235693 0.087400 -0.127600 1 0 1.000000 
0 -10.199200 -2.732900 13.329800 -0.903906 -0.230201 0.360502 0.168600 -0.357300 1 0 1.000000 
0 -10.199200 -2.732900 24.507900 -0.912623 -0.334008 -0.235706 0.168600 -0.127600 1 0 1.000000 
windlass01
0 -10.199200 2.732899 24.507900 -0.957372 0.166995 -0.235693 0.087400 -0.127600 1 0 1.000000 
0 -10.199200 2.732899 13.329800 -0.897820 0.252605 0.360708 0.087400 -0.357300 1 0 1.000000 
0 -10.199200 -2.732900 13.329800 -0.903906 -0.230201 0.360502 0.168600 -0.357300 1 0 1.000000 
windlass01
0 2.732900 -10.199200 13.329800 0.287600 -0.931999 0.220600 0.412400 -0.357300 1 0 1.000000 
0 3.635201 -13.512600 9.287800 0.319089 -0.930668 -0.178994 0.412600 -0.454100 1 0 1.000000 
0 13.532400 -3.615400 9.287800 0.868239 -0.480322 -0.124306 0.575300 -0.454100 1 0 1.000000 
windlass01
0 -2.732899 -10.199200 13.329800 -0.252596 -0.897787 0.360795 0.331100 -0.357300 1 0 1.000000 
0 3.635201 -13.512600 9.287800 0.319089 -0.930668 -0.178994 0.412600 -0.454100 1 0 1.000000 
0 2.732900 -10.199200 13.329800 0.287600 -0.931999 0.220600 0.412400 -0.357300 1 0 1.000000 
windlass01
0 -2.732899 -10.199200 13.329800 -0.252596 -0.897787 0.360795 0.331100 -0.357300 1 0 1.000000 
0 -3.610100 -13.512600 9.287800 -0.314485 -0.944355 0.096395 0.331300 -0.454100 1 0 1.000000 
0 3.635201 -13.512600 9.287800 0.319089 -0.930668 -0.178994 0.412600 -0.454100 1 0 1.000000 
windlass01
0 -7.466400 -7.466300 13.329800 -0.667708 -0.651308 0.360504 0.249900 -0.357300 1 0 1.000000 
0 -3.610100 -13.512600 9.287800 -0.314485 -0.944355 0.096395 0.331300 -0.454100 1 0 1.000000 
0 -2.732899 -10.199200 13.329800 -0.252596 -0.897787 0.360795 0.331100 -0.357300 1 0 1.000000 
windlass01
0 -7.466400 -7.466300 13.329800 -0.667708 -0.651308 0.360504 0.249900 -0.357300 1 0 1.000000 
0 -9.884700 -9.890000 9.287800 -0.734581 -0.675682 0.061998 0.249900 -0.454100 1 0 1.000000 
0 -3.610100 -13.512600 9.287800 -0.314485 -0.944355 0.096395 0.331300 -0.454100 1 0 1.000000 
windlass01
0 -10.199200 -2.732900 13.329800 -0.903906 -0.230201 0.360502 0.168600 -0.357300 1 0 1.000000 
0 -9.884700 -9.890000 9.287800 -0.734581 -0.675682 0.061998 0.249900 -0.454100 1 0 1.000000 
0 -7.466400 -7.466300 13.329800 -0.667708 -0.651308 0.360504 0.249900 -0.357300 1 0 1.000000 
windlass01
0 -10.199200 -2.732900 13.329800 -0.903906 -0.230201 0.360502 0.168600 -0.357300 1 0 1.000000 
0 -13.507300 -3.615401 9.287800 -0.957652 -0.223689 -0.181291 0.168600 -0.454100 1 0 1.000000 
0 -9.884700 -9.890000 9.287800 -0.734581 -0.675682 0.061998 0.249900 -0.454100 1 0 1.000000 
windlass01
0 -10.199200 2.732899 13.329800 -0.897820 0.252605 0.360708 0.087400 -0.357300 1 0 1.000000 
0 -13.507300 -3.615401 9.287800 -0.957652 -0.223689 -0.181291 0.168600 -0.454100 1 0 1.000000 
0 -10.199200 -2.732900 13.329800 -0.903906 -0.230201 0.360502 0.168600 -0.357300 1 0 1.000000 
windlass01
0 -10.199200 2.732899 13.329800 -0.897820 0.252605 0.360708 0.087400 -0.357300 1 0 1.000000 
0 -13.507300 3.629900 9.287800 -0.944314 0.314205 0.097701 0.087200 -0.454100 1 0 1.000000 
0 -13.507300 -3.615401 9.287800 -0.957652 -0.223689 -0.181291 0.168600 -0.454100 1 0 1.000000 
windlass01
0 -7.466300 7.466300 13.329800 -0.611002 0.696202 0.376801 0.006100 -0.357300 1 0 1.000000 
0 -13.507300 3.629900 9.287800 -0.944314 0.314205 0.097701 0.087200 -0.454100 1 0 1.000000 
0 -10.199200 2.732899 13.329800 -0.897820 0.252605 0.360708 0.087400 -0.357300 1 0 1.000000 
windlass01
0 -7.466401 7.466300 24.507900 -0.683624 0.674024 -0.279910 0.006100 -0.127600 1 0 1.000000 
0 -7.466300 7.466300 13.329800 -0.611002 0.696202 0.376801 0.006100 -0.357300 1 0 1.000000 
0 -10.199200 2.732899 13.329800 -0.897820 0.252605 0.360708 0.087400 -0.357300 1 0 1.000000 
windlass01
0 -7.466401 7.466300 24.507900 -0.683624 0.674024 -0.279910 0.006100 -0.127600 1 0 1.000000 
0 -10.199200 2.732899 13.329800 -0.897820 0.252605 0.360708 0.087400 -0.357300 1 0 1.000000 
0 -10.199200 2.732899 24.507900 -0.957372 0.166995 -0.235693 0.087400 -0.127600 1 0 1.000000 
windlass01
0 -9.164100 9.164100 28.527599 -0.806401 0.540701 0.239500 0.006100 -0.062700 1 0 1.000000 
0 -7.466401 7.466300 24.507900 -0.683624 0.674024 -0.279910 0.006100 -0.127600 1 0 1.000000 
0 -10.199200 2.732899 24.507900 -0.957372 0.166995 -0.235693 0.087400 -0.127600 1 0 1.000000 
windlass01
0 -9.164100 9.164100 28.527599 -0.806401 0.540701 0.239500 0.006100 -0.062700 1 0 1.000000 
0 -10.199200 2.732899 24.507900 -0.957372 0.166995 -0.235693 0.087400 -0.127600 1 0 1.000000 
0 -12.518400 -3.354300 28.527599 -0.955301 -0.262700 0.135600 0.168600 -0.062700 1 0 1.000000 
windlass01
0 -12.518400 -3.354300 28.527599 -0.955301 -0.262700 0.135600 0.168600 -0.062700 1 0 1.000000 
0 -10.199200 2.732899 24.507900 -0.957372 0.166995 -0.235693 0.087400 -0.127600 1 0 1.000000 
0 -10.199200 -2.732900 24.507900 -0.912623 -0.334008 -0.235706 0.168600 -0.127600 1 0 1.000000 
windlass01
0 -12.518400 -3.354300 28.527599 -0.955301 -0.262700 0.135600 0.168600 -0.062700 1 0 1.000000 
0 -10.199200 -2.732900 24.507900 -0.912623 -0.334008 -0.235706 0.168600 -0.127600 1 0 1.000000 
0 -7.466300 -7.466300 24.507900 -0.623307 -0.745609 -0.235703 0.249900 -0.127600 1 0 1.000000 
windlass01
0 -10.199200 -2.732900 24.507900 -0.912623 -0.334008 -0.235706 0.168600 -0.127600 1 0 1.000000 
0 -7.466400 -7.466300 13.329800 -0.667708 -0.651308 0.360504 0.249900 -0.357300 1 0 1.000000 
0 -7.466300 -7.466300 24.507900 -0.623307 -0.745609 -0.235703 0.249900 -0.127600 1 0 1.000000 
windlass01
0 -7.466300 -7.466300 24.507900 -0.623307 -0.745609 -0.235703 0.249900 -0.127600 1 0 1.000000 
0 -7.466400 -7.466300 13.329800 -0.667708 -0.651308 0.360504 0.249900 -0.357300 1 0 1.000000 
0 -2.732899 -10.199200 13.329800 -0.252596 -0.897787 0.360795 0.331100 -0.357300 1 0 1.000000 
windlass01
0 2.732900 -10.199200 13.329800 0.287600 -0.931999 0.220600 0.412400 -0.357300 1 0 1.000000 
0 13.532400 -3.615400 9.287800 0.868239 -0.480322 -0.124306 0.575300 -0.454100 1 0 1.000000 
0 7.466300 -7.466300 13.329800 0.689220 -0.708320 0.152504 0.493800 -0.357300 1 0 1.000000 
windlass01
0 7.466300 -7.466300 13.329800 0.689220 -0.708320 0.152504 0.493800 -0.357300 1 0 1.000000 
0 13.532400 -3.615400 9.287800 0.868239 -0.480322 -0.124306 0.575300 -0.454100 1 0 1.000000 
0 10.199200 -2.732899 13.329800 0.881080 -0.191896 0.432290 0.575200 -0.357300 1 0 1.000000 
windlass01
0 10.199200 -2.732899 13.329800 0.881080 -0.191896 0.432290 0.575200 -0.357300 1 0 1.000000 
0 13.532400 -3.615400 9.287800 0.868239 -0.480322 -0.124306 0.575300 -0.454100 1 0 1.000000 
0 13.532400 3.629900 9.287800 0.974484 0.200297 0.101298 0.656700 -0.454100 1 0 1.000000 
windlass01
0 13.532400 -3.615400 9.287800 0.868239 -0.480322 -0.124306 0.575300 -0.454100 1 0 1.000000 
0 11.073500 2.985801 7.469700 0.551284 0.095997 -0.828776 0.656900 -0.483500 1 0 1.000000 
0 13.532400 3.629900 9.287800 0.974484 0.200297 0.101298 0.656700 -0.454100 1 0 1.000000 
windlass01
0 13.532400 -3.615400 9.287800 0.868239 -0.480322 -0.124306 0.575300 -0.454100 1 0 1.000000 
0 11.070700 -2.983000 7.479000 0.397909 -0.240206 -0.885420 0.575000 -0.483300 1 0 1.000000 
0 11.073500 2.985801 7.469700 0.551284 0.095997 -0.828776 0.656900 -0.483500 1 0 1.000000 
windlass01
0 3.635201 -13.512600 9.287800 0.319089 -0.930668 -0.178994 0.412600 -0.454100 1 0 1.000000 
0 11.070700 -2.983000 7.479000 0.397909 -0.240206 -0.885420 0.575000 -0.483300 1 0 1.000000 
0 13.532400 -3.615400 9.287800 0.868239 -0.480322 -0.124306 0.575300 -0.454100 1 0 1.000000 
windlass01
0 3.635201 -13.512600 9.287800 0.319089 -0.930668 -0.178994 0.412600 -0.454100 1 0 1.000000 
0 -2.964499 -11.023500 7.479000 -0.135203 -0.334008 -0.932823 0.331000 -0.483300 1 0 1.000000 
0 11.070700 -2.983000 7.479000 0.397909 -0.240206 -0.885420 0.575000 -0.483300 1 0 1.000000 
windlass01
0 -3.610100 -13.512600 9.287800 -0.314485 -0.944355 0.096395 0.331300 -0.454100 1 0 1.000000 
0 -2.964499 -11.023500 7.479000 -0.135203 -0.334008 -0.932823 0.331000 -0.483300 1 0 1.000000 
0 3.635201 -13.512600 9.287800 0.319089 -0.930668 -0.178994 0.412600 -0.454100 1 0 1.000000 
windlass01
0 -9.884700 -9.890000 9.287800 -0.734581 -0.675682 0.061998 0.249900 -0.454100 1 0 1.000000 
0 -2.964499 -11.023500 7.479000 -0.135203 -0.334008 -0.932823 0.331000 -0.483300 1 0 1.000000 
0 -3.610100 -13.512600 9.287800 -0.314485 -0.944355 0.096395 0.331300 -0.454100 1 0 1.000000 
windlass01
0 -13.507300 -3.615401 9.287800 -0.957652 -0.223689 -0.181291 0.168600 -0.454100 1 0 1.000000 
0 -2.964499 -11.023500 7.479000 -0.135203 -0.334008 -0.932823 0.331000 -0.483300 1 0 1.000000 
0 -9.884700 -9.890000 9.287800 -0.734581 -0.675682 0.061998 0.249900 -0.454100 1 0 1.000000 
windlass01
0 -13.507300 -3.615401 9.287800 -0.957652 -0.223689 -0.181291 0.168600 -0.454100 1 0 1.000000 
0 -11.041800 2.977799 7.479000 -0.410586 0.104896 -0.905768 0.087100 -0.483300 1 0 1.000000 
0 -2.964499 -11.023500 7.479000 -0.135203 -0.334008 -0.932823 0.331000 -0.483300 1 0 1.000000 
windlass01
0 -13.507300 3.629900 9.287800 -0.944314 0.314205 0.097701 0.087200 -0.454100 1 0 1.000000 
0 -11.041800 2.977799 7.479000 -0.410586 0.104896 -0.905768 0.087100 -0.483300 1 0 1.000000 
0 -13.507300 -3.615401 9.287800 -0.957652 -0.223689 -0.181291 0.168600 -0.454100 1 0 1.000000 
windlass01
0 -7.466300 -7.466300 24.507900 -0.623307 -0.745609 -0.235703 0.249900 -0.127600 1 0 1.000000 
0 -2.732899 -10.199200 13.329800 -0.252596 -0.897787 0.360795 0.331100 -0.357300 1 0 1.000000 
0 -2.732899 -10.199200 24.507900 -0.166995 -0.957372 -0.235693 0.331100 -0.127600 1 0 1.000000 
windlass01
0 -2.732899 -10.199200 24.507900 -0.166995 -0.957372 -0.235693 0.331100 -0.127600 1 0 1.000000 
0 -2.732899 -10.199200 13.329800 -0.252596 -0.897787 0.360795 0.331100 -0.357300 1 0 1.000000 
0 2.732900 -10.199200 13.329800 0.287600 -0.931999 0.220600 0.412400 -0.357300 1 0 1.000000 
windlass01
0 -2.732899 -10.199200 24.507900 -0.166995 -0.957372 -0.235693 0.331100 -0.127600 1 0 1.000000 
0 2.732900 -10.199200 13.329800 0.287600 -0.931999 0.220600 0.412400 -0.357300 1 0 1.000000 
0 2.732900 -10.199200 24.507900 0.334008 -0.912623 -0.235706 0.412400 -0.127600 1 0 1.000000 
windlass01
0 2.732900 -10.199200 24.507900 0.334008 -0.912623 -0.235706 0.412400 -0.127600 1 0 1.000000 
0 2.732900 -10.199200 13.329800 0.287600 -0.931999 0.220600 0.412400 -0.357300 1 0 1.000000 
0 7.466300 -7.466300 13.329800 0.689220 -0.708320 0.152504 0.493800 -0.357300 1 0 1.000000 
windlass01
0 2.732900 -10.199200 24.507900 0.334008 -0.912623 -0.235706 0.412400 -0.127600 1 0 1.000000 
0 7.466300 -7.466300 13.329800 0.689220 -0.708320 0.152504 0.493800 -0.357300 1 0 1.000000 
0 10.199200 -2.732899 24.507900 0.963423 -0.168104 -0.208705 0.575200 -0.127600 1 0 1.000000 
windlass01
0 10.199200 -2.732899 24.507900 0.963423 -0.168104 -0.208705 0.575200 -0.127600 1 0 1.000000 
0 7.466300 -7.466300 13.329800 0.689220 -0.708320 0.152504 0.493800 -0.357300 1 0 1.000000 
0 10.199200 -2.732899 13.329800 0.881080 -0.191896 0.432290 0.575200 -0.357300 1 0 1.000000 
windlass01
0 10.199200 -2.732899 24.507900 0.963423 -0.168104 -0.208705 0.575200 -0.127600 1 0 1.000000 
0 10.199200 -2.732899 13.329800 0.881080 -0.191896 0.432290 0.575200 -0.357300 1 0 1.000000 
0 10.199200 2.732900 13.329800 0.883070 0.273091 0.381587 0.656600 -0.357300 1 0 1.000000 
windlass01
0 10.199200 -2.732899 13.329800 0.881080 -0.191896 0.432290 0.575200 -0.357300 1 0 1.000000 
0 13.532400 3.629900 9.287800 0.974484 0.200297 0.101298 0.656700 -0.454100 1 0 1.000000 
0 10.199200 2.732900 13.329800 0.883070 0.273091 0.381587 0.656600 -0.357300 1 0 1.000000 
windlass01
0 10.199200 2.732900 13.329800 0.883070 0.273091 0.381587 0.656600 -0.357300 1 0 1.000000 
0 13.532400 3.629900 9.287800 0.974484 0.200297 0.101298 0.656700 -0.454100 1 0 1.000000 
0 9.909700 9.904500 9.287800 0.455381 0.858064 0.237390 0.738000 -0.454100 1 0 1.000000 
windlass01
0 13.532400 3.629900 9.287800 0.974484 0.200297 0.101298 0.656700 -0.454100 1 0 1.000000 
0 11.073500 2.985801 7.469700 0.551284 0.095997 -0.828776 0.656900 -0.483500 1 0 1.000000 
0 9.909700 9.904500 9.287800 0.455381 0.858064 0.237390 0.738000 -0.454100 1 0 1.000000 
windlass01
0 9.909700 9.904500 9.287800 0.455381 0.858064 0.237390 0.738000 -0.454100 1 0 1.000000 
0 11.073500 2.985801 7.469700 0.551284 0.095997 -0.828776 0.656900 -0.483500 1 0 1.000000 
0 2.988500 11.060000 7.479000 0.229687 0.923848 -0.306183 0.819200 -0.483300 1 0 1.000000 
windlass01
0 9.909700 9.904500 9.287800 0.455381 0.858064 0.237390 0.738000 -0.454100 1 0 1.000000 
0 2.988500 11.060000 7.479000 0.229687 0.923848 -0.306183 0.819200 -0.483300 1 0 1.000000 
0 -2.945500 11.079600 7.469700 -0.138997 0.985078 0.101498 0.900600 -0.483500 1 0 1.000000 
windlass01
0 9.909700 9.904500 9.287800 0.455381 0.858064 0.237390 0.738000 -0.454100 1 0 1.000000 
0 -2.945500 11.079600 7.469700 -0.138997 0.985078 0.101498 0.900600 -0.483500 1 0 1.000000 
0 -9.884700 9.904500 9.287800 -0.377706 0.925916 -0.004200 0.982100 -0.454100 1 0 1.000000 
windlass01
0 -9.884700 9.904500 9.287800 -0.377706 0.925916 -0.004200 0.982100 -0.454100 1 0 1.000000 
0 -2.945500 11.079600 7.469700 -0.138997 0.985078 0.101498 0.900600 -0.483500 1 0 1.000000 
0 -11.041800 2.977799 7.479000 -0.410586 0.104896 -0.905768 1.063300 -0.483300 1 0 1.000000 
windlass01
0 -9.884700 9.904500 9.287800 -0.377706 0.925916 -0.004200 0.982100 -0.454100 1 0 1.000000 
0 -11.041800 2.977799 7.479000 -0.410586 0.104896 -0.905768 1.063300 -0.483300 1 0 1.000000 
0 -13.507300 3.629900 9.287800 -0.944314 0.314205 0.097701 1.063400 -0.454100 1 0 1.000000 
windlass01
0 -7.466300 7.466300 13.329800 -0.611002 0.696202 0.376801 0.982300 -0.357300 1 0 1.000000 
0 -9.884700 9.904500 9.287800 -0.377706 0.925916 -0.004200 0.982100 -0.454100 1 0 1.000000 
0 -13.507300 3.629900 9.287800 -0.944314 0.314205 0.097701 1.063400 -0.454100 1 0 1.000000 
windlass01
0 -2.732900 10.199200 13.329800 -0.189094 0.973971 0.124996 0.900900 -0.357300 1 0 1.000000 
0 -9.884700 9.904500 9.287800 -0.377706 0.925916 -0.004200 0.982100 -0.454100 1 0 1.000000 
0 -7.466300 7.466300 13.329800 -0.611002 0.696202 0.376801 0.982300 -0.357300 1 0 1.000000 
windlass01
0 -2.732900 10.199200 24.507900 -0.334008 0.912623 -0.235706 0.900900 -0.127600 1 0 1.000000 
0 -2.732900 10.199200 13.329800 -0.189094 0.973971 0.124996 0.900900 -0.357300 1 0 1.000000 
0 -7.466300 7.466300 13.329800 -0.611002 0.696202 0.376801 0.982300 -0.357300 1 0 1.000000 
windlass01
0 12.518400 -3.354300 28.879700 0.876556 -0.120094 0.466076 0.575200 -0.057000 1 0 1.000000 
0 10.199200 -2.732899 24.507900 0.963423 -0.168104 -0.208705 0.575200 -0.127600 1 0 1.000000 
0 9.164100 9.164100 28.527599 0.733590 0.672691 0.096599 0.738100 -0.062700 1 0 1.000000 
windlass01
0 9.164100 -9.164100 28.527599 0.596218 -0.778123 0.197606 0.493800 -0.062700 1 0 1.000000 
0 10.199200 -2.732899 24.507900 0.963423 -0.168104 -0.208705 0.575200 -0.127600 1 0 1.000000 
0 12.518400 -3.354300 28.879700 0.876556 -0.120094 0.466076 0.575200 -0.057000 1 0 1.000000 
windlass01
0 10.199200 -2.732899 24.507900 0.963423 -0.168104 -0.208705 0.575200 -0.127600 1 0 1.000000 
0 9.164100 -9.164100 28.527599 0.596218 -0.778123 0.197606 0.493800 -0.062700 1 0 1.000000 
0 2.732900 -10.199200 24.507900 0.334008 -0.912623 -0.235706 0.412400 -0.127600 1 0 1.000000 
windlass01
0 -3.354300 -12.518400 28.527599 -0.262700 -0.955301 0.135600 0.331200 -0.062700 1 0 1.000000 
0 2.732900 -10.199200 24.507900 0.334008 -0.912623 -0.235706 0.412400 -0.127600 1 0 1.000000 
0 9.164100 -9.164100 28.527599 0.596218 -0.778123 0.197606 0.493800 -0.062700 1 0 1.000000 
windlass01
0 -3.354300 -12.518400 28.527599 -0.262700 -0.955301 0.135600 0.331200 -0.062700 1 0 1.000000 
0 -2.732899 -10.199200 24.507900 -0.166995 -0.957372 -0.235693 0.331100 -0.127600 1 0 1.000000 
0 2.732900 -10.199200 24.507900 0.334008 -0.912623 -0.235706 0.412400 -0.127600 1 0 1.000000 
windlass01
0 -3.354300 -12.518400 28.527599 -0.262700 -0.955301 0.135600 0.331200 -0.062700 1 0 1.000000 
0 -7.466300 -7.466300 24.507900 -0.623307 -0.745609 -0.235703 0.249900 -0.127600 1 0 1.000000 
0 -2.732899 -10.199200 24.507900 -0.166995 -0.957372 -0.235693 0.331100 -0.127600 1 0 1.000000 
windlass01
0 -12.518400 -3.354300 28.527599 -0.955301 -0.262700 0.135600 0.168600 -0.062700 1 0 1.000000 
0 -7.466300 -7.466300 24.507900 -0.623307 -0.745609 -0.235703 0.249900 -0.127600 1 0 1.000000 
0 -3.354300 -12.518400 28.527599 -0.262700 -0.955301 0.135600 0.331200 -0.062700 1 0 1.000000 
windlass01
0 2.732899 10.199200 24.507900 0.166995 0.957372 -0.235693 0.819500 -0.127600 1 0 1.000000 
0 -2.732900 10.199200 13.329800 -0.189094 0.973971 0.124996 0.900900 -0.357300 1 0 1.000000 
0 -2.732900 10.199200 24.507900 -0.334008 0.912623 -0.235706 0.900900 -0.127600 1 0 1.000000 
windlass01
0 -3.354300 12.518400 28.527599 -0.175410 0.982554 0.061803 0.900900 -0.062700 1 0 1.000000 
0 2.732899 10.199200 24.507900 0.166995 0.957372 -0.235693 0.819500 -0.127600 1 0 1.000000 
0 -2.732900 10.199200 24.507900 -0.334008 0.912623 -0.235706 0.900900 -0.127600 1 0 1.000000 
windlass01
0 9.164100 9.164100 28.527599 0.733590 0.672691 0.096599 0.738100 -0.062700 1 0 1.000000 
0 2.732899 10.199200 24.507900 0.166995 0.957372 -0.235693 0.819500 -0.127600 1 0 1.000000 
0 -3.354300 12.518400 28.527599 -0.175410 0.982554 0.061803 0.900900 -0.062700 1 0 1.000000 
windlass01
0 9.164100 9.164100 28.527599 0.733590 0.672691 0.096599 0.738100 -0.062700 1 0 1.000000 
0 7.466300 7.466300 24.507900 0.754614 0.636312 -0.160203 0.738100 -0.127600 1 0 1.000000 
0 2.732899 10.199200 24.507900 0.166995 0.957372 -0.235693 0.819500 -0.127600 1 0 1.000000 
windlass01
0 7.466300 7.466300 24.507900 0.754614 0.636312 -0.160203 0.738100 -0.127600 1 0 1.000000 
0 9.164100 9.164100 28.527599 0.733590 0.672691 0.096599 0.738100 -0.062700 1 0 1.000000 
0 10.199200 -2.732899 24.507900 0.963423 -0.168104 -0.208705 0.575200 -0.127600 1 0 1.000000 
windlass01
0 10.199200 -2.732899 24.507900 0.963423 -0.168104 -0.208705 0.575200 -0.127600 1 0 1.000000 
0 10.199200 2.732900 13.329800 0.883070 0.273091 0.381587 0.656600 -0.357300 1 0 1.000000 
0 7.466300 7.466300 24.507900 0.754614 0.636312 -0.160203 0.738100 -0.127600 1 0 1.000000 
windlass01
0 7.466300 7.466300 24.507900 0.754614 0.636312 -0.160203 0.738100 -0.127600 1 0 1.000000 
0 10.199200 2.732900 13.329800 0.883070 0.273091 0.381587 0.656600 -0.357300 1 0 1.000000 
0 7.466300 7.466401 13.329800 0.659010 0.659010 0.362506 0.738100 -0.357300 1 0 1.000000 
windlass01
0 10.199200 2.732900 13.329800 0.883070 0.273091 0.381587 0.656600 -0.357300 1 0 1.000000 
0 9.909700 9.904500 9.287800 0.455381 0.858064 0.237390 0.738000 -0.454100 1 0 1.000000 
0 7.466300 7.466401 13.329800 0.659010 0.659010 0.362506 0.738100 -0.357300 1 0 1.000000 
windlass01
0 7.466300 7.466401 13.329800 0.659010 0.659010 0.362506 0.738100 -0.357300 1 0 1.000000 
0 9.909700 9.904500 9.287800 0.455381 0.858064 0.237390 0.738000 -0.454100 1 0 1.000000 
0 2.732899 10.199200 13.329800 0.246904 0.964814 0.090401 0.819500 -0.357300 1 0 1.000000 
windlass01
0 2.732899 10.199200 13.329800 0.246904 0.964814 0.090401 0.819500 -0.357300 1 0 1.000000 
0 9.909700 9.904500 9.287800 0.455381 0.858064 0.237390 0.738000 -0.454100 1 0 1.000000 
0 -9.884700 9.904500 9.287800 -0.377706 0.925916 -0.004200 0.982100 -0.454100 1 0 1.000000 
windlass01
0 2.732899 10.199200 13.329800 0.246904 0.964814 0.090401 0.819500 -0.357300 1 0 1.000000 
0 -9.884700 9.904500 9.287800 -0.377706 0.925916 -0.004200 0.982100 -0.454100 1 0 1.000000 
0 -2.732900 10.199200 13.329800 -0.189094 0.973971 0.124996 0.900900 -0.357300 1 0 1.000000 
windlass01
0 2.732899 10.199200 24.507900 0.166995 0.957372 -0.235693 0.819500 -0.127600 1 0 1.000000 
0 2.732899 10.199200 13.329800 0.246904 0.964814 0.090401 0.819500 -0.357300 1 0 1.000000 
0 -2.732900 10.199200 13.329800 -0.189094 0.973971 0.124996 0.900900 -0.357300 1 0 1.000000 
windlass01
0 7.466300 7.466300 24.507900 0.754614 0.636312 -0.160203 0.738100 -0.127600 1 0 1.000000 
0 2.732899 10.199200 13.329800 0.246904 0.964814 0.090401 0.819500 -0.357300 1 0 1.000000 
0 2.732899 10.199200 24.507900 0.166995 0.957372 -0.235693 0.819500 -0.127600 1 0 1.000000 
windlass01
0 7.466300 7.466300 24.507900 0.754614 0.636312 -0.160203 0.738100 -0.127600 1 0 1.000000 
0 7.466300 7.466401 13.329800 0.659010 0.659010 0.362506 0.738100 -0.357300 1 0 1.000000 
0 2.732899 10.199200 13.329800 0.246904 0.964814 0.090401 0.819500 -0.357300 1 0 1.000000 
windlass01
0 -3.354300 12.518400 28.527599 -0.175410 0.982554 0.061803 0.900900 -0.062700 1 0 1.000000 
0 -7.466401 7.466300 24.507900 -0.683624 0.674024 -0.279910 0.982300 -0.127600 1 0 1.000000 
0 -9.164100 9.164100 28.527599 -0.806401 0.540701 0.239500 0.982200 -0.062700 1 0 1.000000 
windlass01
0 -3.354300 12.518400 28.527599 -0.175410 0.982554 0.061803 0.900900 -0.062700 1 0 1.000000 
0 -2.732900 10.199200 24.507900 -0.334008 0.912623 -0.235706 0.900900 -0.127600 1 0 1.000000 
0 -7.466401 7.466300 24.507900 -0.683624 0.674024 -0.279910 0.982300 -0.127600 1 0 1.000000 
windlass01
0 -2.732900 10.199200 24.507900 -0.334008 0.912623 -0.235706 0.900900 -0.127600 1 0 1.000000 
0 -7.466300 7.466300 13.329800 -0.611002 0.696202 0.376801 0.982300 -0.357300 1 0 1.000000 
0 -7.466401 7.466300 24.507900 -0.683624 0.674024 -0.279910 0.982300 -0.127600 1 0 1.000000 
windlass01
0 11.674300 -3.154999 4.860600 0.032500 0.310205 0.950114 0.799500 -0.644000 1 0 1.000000 
0 14.754900 2.437401 2.705600 0.653472 -0.733668 -0.186292 0.518200 -0.859200 1 0 1.000000 
0 11.719800 2.333400 4.720600 -0.019900 -0.357205 0.933814 0.798900 -0.856900 1 0 1.000000 
windlass01
0 11.674300 -3.154999 4.860600 0.032500 0.310205 0.950114 0.799500 -0.644000 1 0 1.000000 
0 14.749600 -2.489299 2.705600 0.021700 0.470000 -0.882400 0.518000 -0.639100 1 0 1.000000 
0 14.754900 2.437401 2.705600 0.653472 -0.733668 -0.186292 0.518200 -0.859200 1 0 1.000000 
windlass01
0 14.749600 -2.489299 2.705600 0.021700 0.470000 -0.882400 0.518000 -0.639100 1 0 1.000000 
0 11.686300 3.085300 2.740900 -0.459015 0.000900 -0.888428 0.363200 -0.888100 1 0 1.000000 
0 14.754900 2.437401 2.705600 0.653472 -0.733668 -0.186292 0.518200 -0.859200 1 0 1.000000 
windlass01
0 14.749600 -2.489299 2.705600 0.021700 0.470000 -0.882400 0.518000 -0.639100 1 0 1.000000 
0 11.674300 -3.154999 4.860600 0.032500 0.310205 0.950114 0.274400 -0.609300 1 0 1.000000 
0 11.686300 3.085300 2.740900 -0.459015 0.000900 -0.888428 0.363200 -0.888100 1 0 1.000000 
windlass01
0 11.674300 -3.154999 4.860600 0.032500 0.310205 0.950114 0.274400 -0.609300 1 0 1.000000 
0 11.719800 2.333400 4.720600 -0.019900 -0.357205 0.933814 0.290200 -0.854500 1 0 1.000000 
0 11.686300 3.085300 2.740900 -0.459015 0.000900 -0.888428 0.363200 -0.888100 1 0 1.000000 
windlass01
0 19.489500 -5.186099 2.677600 0.140703 0.256605 -0.956220 0.604000 -0.518600 1 0 1.000000 
0 11.674300 -3.154999 4.860600 0.032500 0.310205 0.950114 0.274400 -0.609300 1 0 1.000000 
0 14.749600 -2.489299 2.705600 0.021700 0.470000 -0.882400 0.518000 -0.639100 1 0 1.000000 
windlass01
0 14.754900 2.437401 2.705600 0.653472 -0.733668 -0.186292 0.518200 -0.859200 1 0 1.000000 
0 11.686300 3.085300 2.740900 -0.459015 0.000900 -0.888428 0.363200 -0.888100 1 0 1.000000 
0 19.479099 5.248601 2.672600 0.320606 -0.547411 -0.773015 0.603800 -0.984800 1 0 1.000000 
windlass01
0 -4.838700 15.340300 3.393500 0.000000 0.000000 1.000000 0.147700 -0.589400 1 0 1.000000 
0 -3.141601 16.528700 3.393500 0.000000 0.000000 1.000000 0.163400 -0.570700 1 0 1.000000 
0 -5.019201 17.404200 3.393500 0.000000 0.000000 1.000000 0.139300 -0.566400 1 0 1.000000 
windlass01
0 14.295999 14.296000 1.414200 0.109604 0.121404 0.986533 0.708600 -0.581800 1 0 1.000000 
0 18.053301 18.053301 0.042900 0.232788 0.189690 0.953849 0.760400 -0.537700 1 0 1.000000 
0 6.607999 24.661200 1.332100 0.004000 0.012000 0.999920 0.511400 -0.505000 1 0 1.000000 
windlass01
0 19.479099 5.248601 2.672600 0.316895 0.141898 0.937786 0.852900 -0.652700 1 0 1.000000 
0 18.053301 18.053301 0.042900 0.232788 0.189690 0.953849 0.760400 -0.537700 1 0 1.000000 
0 14.295999 14.296000 1.414200 0.109604 0.121404 0.986533 0.708600 -0.581800 1 0 1.000000 
windlass01
0 19.479099 5.248601 2.672600 0.316895 0.141898 0.937786 0.852900 -0.652700 1 0 1.000000 
0 24.661200 6.608001 0.042900 0.415408 0.072801 0.906717 0.942600 -0.627200 1 0 1.000000 
0 18.053301 18.053301 0.042900 0.232788 0.189690 0.953849 0.760400 -0.537700 1 0 1.000000 
windlass01
0 19.489500 -5.186099 2.677600 0.406608 -0.104402 0.907618 0.905700 -0.749500 1 0 1.000000 
0 24.661200 6.608001 0.042900 0.415408 0.072801 0.906717 0.942600 -0.627200 1 0 1.000000 
0 19.479099 5.248601 2.672600 0.316895 0.141898 0.937786 0.852900 -0.652700 1 0 1.000000 
windlass01
0 19.489500 -5.186099 2.677600 0.406608 -0.104402 0.907618 0.905700 -0.749500 1 0 1.000000 
0 24.661200 -6.607999 0.042900 0.332803 -0.146101 0.931609 1.009300 -0.749500 1 0 1.000000 
0 24.661200 6.608001 0.042900 0.415408 0.072801 0.906717 0.942600 -0.627200 1 0 1.000000 
windlass01
0 14.296000 -14.295999 1.414200 0.253793 -0.188695 0.948674 0.852900 -0.846300 1 0 1.000000 
0 24.661200 -6.607999 0.042900 0.332803 -0.146101 0.931609 1.009300 -0.749500 1 0 1.000000 
0 19.489500 -5.186099 2.677600 0.406608 -0.104402 0.907618 0.905700 -0.749500 1 0 1.000000 
windlass01
0 14.296000 -14.295999 1.414200 0.253793 -0.188695 0.948674 0.852900 -0.846300 1 0 1.000000 
0 18.053301 -18.053301 0.042900 0.213090 -0.211990 0.953757 0.942600 -0.871700 1 0 1.000000 
0 24.661200 -6.607999 0.042900 0.332803 -0.146101 0.931609 1.009300 -0.749500 1 0 1.000000 
windlass01
0 5.232701 -19.528700 2.691500 0.109404 -0.329111 0.937932 0.708600 -0.917200 1 0 1.000000 
0 18.053301 -18.053301 0.042900 0.213090 -0.211990 0.953757 0.942600 -0.871700 1 0 1.000000 
0 14.296000 -14.295999 1.414200 0.253793 -0.188695 0.948674 0.852900 -0.846300 1 0 1.000000 
windlass01
0 5.232701 -19.528700 2.691500 0.109404 -0.329111 0.937932 0.708600 -0.917200 1 0 1.000000 
0 6.608001 -24.661200 0.042900 0.039601 -0.365109 0.930122 0.760400 -0.961200 1 0 1.000000 
0 18.053301 -18.053301 0.042900 0.213090 -0.211990 0.953757 0.942600 -0.871700 1 0 1.000000 
windlass01
0 -5.232699 -19.528700 1.414200 -0.075198 -0.306890 0.948770 0.511400 -0.943100 1 0 1.000000 
0 6.608001 -24.661200 0.042900 0.039601 -0.365109 0.930122 0.760400 -0.961200 1 0 1.000000 
0 5.232701 -19.528700 2.691500 0.109404 -0.329111 0.937932 0.708600 -0.917200 1 0 1.000000 
windlass01
0 -5.232699 -19.528700 1.414200 -0.075198 -0.306890 0.948770 0.511400 -0.943100 1 0 1.000000 
0 -6.607999 -24.661200 0.042900 -0.081602 -0.222904 0.971419 0.511400 -0.994000 1 0 1.000000 
0 6.608001 -24.661200 0.042900 0.039601 -0.365109 0.930122 0.760400 -0.961200 1 0 1.000000 
windlass01
0 -14.295999 -14.296000 1.414200 -0.152204 -0.182105 0.971428 0.314300 -0.917200 1 0 1.000000 
0 -6.607999 -24.661200 0.042900 -0.081602 -0.222904 0.971419 0.511400 -0.994000 1 0 1.000000 
0 -5.232699 -19.528700 1.414200 -0.075198 -0.306890 0.948770 0.511400 -0.943100 1 0 1.000000 
windlass01
0 -14.295999 -14.296000 1.414200 -0.152204 -0.182105 0.971428 0.314300 -0.917200 1 0 1.000000 
0 -18.053301 -18.053301 0.042900 -0.182105 -0.152204 0.971427 0.262500 -0.961200 1 0 1.000000 
0 -6.607999 -24.661200 0.042900 -0.081602 -0.222904 0.971419 0.511400 -0.994000 1 0 1.000000 
windlass01
0 -19.528700 -5.232701 1.414200 -0.212601 -0.118700 0.969903 0.170000 -0.846300 1 0 1.000000 
0 -18.053301 -18.053301 0.042900 -0.182105 -0.152204 0.971427 0.262500 -0.961200 1 0 1.000000 
0 -14.295999 -14.296000 1.414200 -0.152204 -0.182105 0.971428 0.314300 -0.917200 1 0 1.000000 
windlass01
0 -19.528700 -5.232701 1.414200 -0.212601 -0.118700 0.969903 0.170000 -0.846300 1 0 1.000000 
0 -24.661200 -6.608001 0.042900 -0.290092 -0.078498 0.953774 0.080300 -0.871700 1 0 1.000000 
0 -18.053301 -18.053301 0.042900 -0.182105 -0.152204 0.971427 0.262500 -0.961200 1 0 1.000000 
windlass01
0 -19.528700 5.232699 2.691500 -0.339713 0.069803 0.937935 0.117200 -0.749500 1 0 1.000000 
0 -24.661200 -6.608001 0.042900 -0.290092 -0.078498 0.953774 0.080300 -0.871700 1 0 1.000000 
0 -19.528700 -5.232701 1.414200 -0.212601 -0.118700 0.969903 0.170000 -0.846300 1 0 1.000000 
windlass01
0 -19.528700 5.232699 2.691500 -0.339713 0.069803 0.937935 0.117200 -0.749500 1 0 1.000000 
0 -24.661200 6.607999 0.042900 -0.336004 0.148302 0.930112 0.013600 -0.749500 1 0 1.000000 
0 -24.661200 -6.608001 0.042900 -0.290092 -0.078498 0.953774 0.080300 -0.871700 1 0 1.000000 
windlass01
0 -14.296000 14.295999 1.414200 -0.228096 0.218596 0.948782 0.170000 -0.652700 1 0 1.000000 
0 -24.661200 6.607999 0.042900 -0.336004 0.148302 0.930112 0.013600 -0.749500 1 0 1.000000 
0 -19.528700 5.232699 2.691500 -0.339713 0.069803 0.937935 0.117200 -0.749500 1 0 1.000000 
windlass01
0 -14.296000 14.295999 1.414200 -0.228096 0.218596 0.948782 0.170000 -0.652700 1 0 1.000000 
0 -18.053301 18.053301 0.042900 -0.152204 0.182105 0.971427 0.080300 -0.627200 1 0 1.000000 
0 -24.661200 6.607999 0.042900 -0.336004 0.148302 0.930112 0.013600 -0.749500 1 0 1.000000 
windlass01
0 -5.232701 19.528700 1.414200 -0.081602 0.222904 0.971419 0.314300 -0.581800 1 0 1.000000 
0 -18.053301 18.053301 0.042900 -0.152204 0.182105 0.971427 0.080300 -0.627200 1 0 1.000000 
0 -14.296000 14.295999 1.414200 -0.228096 0.218596 0.948782 0.170000 -0.652700 1 0 1.000000 
windlass01
0 -5.232701 19.528700 1.414200 -0.081602 0.222904 0.971419 0.314300 -0.581800 1 0 1.000000 
0 -6.608001 24.661200 0.042900 -0.071602 0.166004 0.983522 0.262500 -0.537700 1 0 1.000000 
0 -18.053301 18.053301 0.042900 -0.152204 0.182105 0.971427 0.080300 -0.627200 1 0 1.000000 
windlass01
0 5.232699 19.528700 1.414200 -0.028201 0.099603 0.994627 0.511400 -0.555900 1 0 1.000000 
0 -6.608001 24.661200 0.042900 -0.071602 0.166004 0.983522 0.262500 -0.537700 1 0 1.000000 
0 -5.232701 19.528700 1.414200 -0.081602 0.222904 0.971419 0.314300 -0.581800 1 0 1.000000 
windlass01
0 5.232699 19.528700 1.414200 -0.028201 0.099603 0.994627 0.511400 -0.555900 1 0 1.000000 
0 6.607999 24.661200 1.332100 0.004000 0.012000 0.999920 0.511400 -0.505000 1 0 1.000000 
0 -6.608001 24.661200 0.042900 -0.071602 0.166004 0.983522 0.262500 -0.537700 1 0 1.000000 
windlass01
0 14.295999 14.296000 1.414200 0.109604 0.121404 0.986533 0.708600 -0.581800 1 0 1.000000 
0 6.607999 24.661200 1.332100 0.004000 0.012000 0.999920 0.511400 -0.505000 1 0 1.000000 
0 5.232699 19.528700 1.414200 -0.028201 0.099603 0.994627 0.511400 -0.555900 1 0 1.000000 
windlass01
0 -2.057800 7.680000 2.812900 -0.080602 0.545814 0.834021 0.433900 -0.683500 1 0 1.000000 
0 14.295999 14.296000 1.414200 0.005100 0.008400 0.999952 0.708600 -0.581800 1 0 1.000000 
0 5.232699 19.528700 1.414200 0.003500 0.011600 0.999926 0.511400 -0.555900 1 0 1.000000 
windlass01
0 -2.057800 7.680000 2.812900 -0.080602 0.545814 0.834021 0.433900 -0.683500 1 0 1.000000 
0 5.232699 19.528700 1.414200 0.003500 0.011600 0.999926 0.511400 -0.555900 1 0 1.000000 
0 -5.232701 19.528700 1.414200 -0.027699 0.103296 0.994265 0.314300 -0.581800 1 0 1.000000 
windlass01
0 -2.057800 7.680000 2.812900 -0.080602 0.545814 0.834021 0.433900 -0.683500 1 0 1.000000 
0 -5.232701 19.528700 1.414200 -0.027699 0.103296 0.994265 0.314300 -0.581800 1 0 1.000000 
0 -14.296000 14.295999 1.414200 -0.041201 0.121504 0.991735 0.170000 -0.652700 1 0 1.000000 
windlass01
0 -2.057800 7.680000 2.812900 -0.080602 0.545814 0.834021 0.433900 -0.683500 1 0 1.000000 
0 -14.296000 14.295999 1.414200 -0.041201 0.121504 0.991735 0.170000 -0.652700 1 0 1.000000 
0 -19.528700 5.232699 2.691500 -0.008800 0.003200 0.999956 0.117200 -0.749500 1 0 1.000000 
windlass01
0 -2.057800 7.680000 2.812900 -0.080602 0.545814 0.834021 0.433900 -0.683500 1 0 1.000000 
0 -19.528700 5.232699 2.691500 -0.008800 0.003200 0.999956 0.117200 -0.749500 1 0 1.000000 
0 -5.622099 -5.622100 2.812900 -0.430882 -0.391283 0.813165 0.433900 -0.815400 1 0 1.000000 
windlass01
0 -5.622099 -5.622100 2.812900 -0.430882 -0.391283 0.813165 0.433900 -0.815400 1 0 1.000000 
0 -19.528700 5.232699 2.691500 -0.008800 0.003200 0.999956 0.117200 -0.749500 1 0 1.000000 
0 -19.528700 -5.232701 1.414200 -0.096404 -0.084603 0.991740 0.170000 -0.846300 1 0 1.000000 
windlass01
0 -5.622099 -5.622100 2.812900 -0.430882 -0.391283 0.813165 0.433900 -0.815400 1 0 1.000000 
0 -19.528700 -5.232701 1.414200 -0.096404 -0.084603 0.991740 0.170000 -0.846300 1 0 1.000000 
0 -14.295999 -14.296000 1.414200 -0.075598 -0.075598 0.994268 0.314300 -0.917200 1 0 1.000000 
windlass01
0 -5.622099 -5.622100 2.812900 -0.430882 -0.391283 0.813165 0.433900 -0.815400 1 0 1.000000 
0 -14.295999 -14.296000 1.414200 -0.075598 -0.075598 0.994268 0.314300 -0.917200 1 0 1.000000 
0 -5.232699 -19.528700 1.414200 -0.084603 -0.096404 0.991740 0.511400 -0.943100 1 0 1.000000 
windlass01
0 -5.622099 -5.622100 2.812900 -0.430882 -0.391283 0.813165 0.433900 -0.815400 1 0 1.000000 
0 -5.232699 -19.528700 1.414200 -0.084603 -0.096404 0.991740 0.511400 -0.943100 1 0 1.000000 
0 5.232701 -19.528700 2.691500 0.001600 -0.009200 0.999956 0.708600 -0.917200 1 0 1.000000 
windlass01
0 -5.622099 -5.622100 2.812900 -0.430882 -0.391283 0.813165 0.433900 -0.815400 1 0 1.000000 
0 5.232701 -19.528700 2.691500 0.001600 -0.009200 0.999956 0.708600 -0.917200 1 0 1.000000 
0 7.680000 -2.057800 2.812900 0.426715 -0.215108 0.878432 0.666500 -0.749500 1 0 1.000000 
windlass01
0 7.680000 -2.057800 2.812900 0.426715 -0.215108 0.878432 0.666500 -0.749500 1 0 1.000000 
0 5.232701 -19.528700 2.691500 0.001600 -0.009200 0.999956 0.708600 -0.917200 1 0 1.000000 
0 14.296000 -14.295999 1.414200 0.063501 -0.072901 0.995315 0.852900 -0.846300 1 0 1.000000 
windlass01
0 7.680000 -2.057800 2.812900 0.426715 -0.215108 0.878432 0.666500 -0.749500 1 0 1.000000 
0 14.296000 -14.295999 1.414200 0.063501 -0.072901 0.995315 0.852900 -0.846300 1 0 1.000000 
0 19.489500 -5.186099 2.677600 -0.047700 -0.382800 0.922599 0.904700 -0.749100 1 0 1.000000 
windlass01
0 7.680000 -2.057800 2.812900 0.426715 -0.215108 0.878432 0.666500 -0.749500 1 0 1.000000 
0 19.489500 -5.186099 2.677600 -0.047700 -0.382800 0.922599 0.904700 -0.749100 1 0 1.000000 
0 19.479099 5.248601 2.672600 -0.138097 0.538888 0.830981 0.851800 -0.652600 1 0 1.000000 
windlass01
0 7.680000 -2.057800 2.812900 0.426715 -0.215108 0.878432 0.666500 -0.749500 1 0 1.000000 
0 19.479099 5.248601 2.672600 -0.138097 0.538888 0.830981 0.851800 -0.652600 1 0 1.000000 
0 14.295999 14.296000 1.414200 0.005100 0.008400 0.999952 0.708600 -0.581800 1 0 1.000000 
windlass01
0 7.680000 -2.057800 2.812900 0.426715 -0.215108 0.878432 0.666500 -0.749500 1 0 1.000000 
0 14.295999 14.296000 1.414200 0.005100 0.008400 0.999952 0.708600 -0.581800 1 0 1.000000 
0 -2.057800 7.680000 2.812900 -0.080602 0.545814 0.834021 0.433900 -0.683500 1 0 1.000000 
windlass01
0 11.719800 2.333400 4.720600 0.066100 0.835697 -0.545198 0.716800 -0.691200 1 0 1.000000 
0 7.680000 -2.057800 2.812900 0.426715 -0.215108 0.878432 0.666500 -0.749500 1 0 1.000000 
0 -2.057800 7.680000 2.812900 -0.080602 0.545814 0.834021 0.433900 -0.683500 1 0 1.000000 
windlass01
0 11.719800 2.333400 4.720600 0.066100 0.835697 -0.545198 0.716800 -0.691200 1 0 1.000000 
0 -2.057800 7.680000 2.812900 -0.080602 0.545814 0.834021 0.433900 -0.683500 1 0 1.000000 
0 3.145499 11.661700 4.860600 -0.149000 0.582301 -0.799202 0.511500 -0.633000 1 0 1.000000 
windlass01
0 3.145499 11.661700 4.860600 -0.149000 0.582301 -0.799202 0.511500 -0.633000 1 0 1.000000 
0 -2.057800 7.680000 2.812900 -0.080602 0.545814 0.834021 0.433900 -0.683500 1 0 1.000000 
0 -11.658400 3.132699 4.860600 -0.433604 0.277202 -0.857407 0.274400 -0.749400 1 0 1.000000 
windlass01
0 -11.658400 3.132699 4.860600 -0.433604 0.277202 -0.857407 0.274400 -0.749400 1 0 1.000000 
0 -2.057800 7.680000 2.812900 -0.080602 0.545814 0.834021 0.433900 -0.683500 1 0 1.000000 
0 -5.622099 -5.622100 2.812900 -0.430882 -0.391283 0.813165 0.433900 -0.815400 1 0 1.000000 
windlass01
0 -11.658400 3.132699 4.860600 -0.433604 0.277202 -0.857407 0.274400 -0.749400 1 0 1.000000 
0 -5.622099 -5.622100 2.812900 -0.430882 -0.391283 0.813165 0.433900 -0.815400 1 0 1.000000 
0 -8.543200 -8.541100 4.868400 -0.300320 -0.300520 -0.905260 0.393000 -0.850200 1 0 1.000000 
windlass01
0 -8.543200 -8.541100 4.868400 -0.300320 -0.300520 -0.905260 0.393000 -0.850200 1 0 1.000000 
0 -5.622099 -5.622100 2.812900 -0.430882 -0.391283 0.813165 0.433900 -0.815400 1 0 1.000000 
0 -3.134500 -11.642100 4.860600 0.044099 -0.387094 -0.920985 0.511500 -0.865800 1 0 1.000000 
windlass01
0 -3.134500 -11.642100 4.860600 0.044099 -0.387094 -0.920985 0.511500 -0.865800 1 0 1.000000 
0 -5.622099 -5.622100 2.812900 -0.430882 -0.391283 0.813165 0.433900 -0.815400 1 0 1.000000 
0 7.680000 -2.057800 2.812900 0.426715 -0.215108 0.878432 0.666500 -0.749500 1 0 1.000000 
windlass01
0 -3.134500 -11.642100 4.860600 0.044099 -0.387094 -0.920985 0.511500 -0.865800 1 0 1.000000 
0 7.680000 -2.057800 2.812900 0.426715 -0.215108 0.878432 0.666500 -0.749500 1 0 1.000000 
0 11.674300 -3.154999 4.860600 0.172908 -0.933541 -0.314014 0.748600 -0.749400 1 0 1.000000 
windlass01
0 11.674300 -3.154999 4.860600 0.172908 -0.933541 -0.314014 0.748600 -0.749400 1 0 1.000000 
0 7.680000 -2.057800 2.812900 0.426715 -0.215108 0.878432 0.666500 -0.749500 1 0 1.000000 
0 11.719800 2.333400 4.720600 0.066100 0.835697 -0.545198 0.716800 -0.691200 1 0 1.000000 
windlass01
0 5.744800 -1.692800 5.100200 0.744080 -0.003300 0.668082 0.264400 -0.772100 1 0 1.000000 
0 16.971100 -2.657399 7.418900 0.187201 0.953104 -0.237801 0.917200 -0.693600 1 0 1.000000 
0 11.674300 -3.154999 4.860600 0.032500 0.310205 0.950114 0.611800 -0.784900 1 0 1.000000 
windlass01
0 16.971100 -2.657399 7.418900 0.187201 0.953104 -0.237801 0.917200 -0.693600 1 0 1.000000 
0 14.749600 -2.489299 2.705600 0.021700 0.470000 -0.882400 0.788000 -0.853200 1 0 1.000000 
0 11.674300 -3.154999 4.860600 0.032500 0.310205 0.950114 0.611800 -0.784900 1 0 1.000000 
windlass01
0 16.971100 -2.657399 7.418900 0.187201 0.953104 -0.237801 0.917200 -0.693600 1 0 1.000000 
0 19.489500 -5.186099 2.677600 0.140703 0.256605 -0.956220 1.069700 -0.854700 1 0 1.000000 
0 14.749600 -2.489299 2.705600 0.021700 0.470000 -0.882400 0.788000 -0.853200 1 0 1.000000 
windlass01
0 4.277299 17.509600 3.393500 0.000000 0.000000 1.000000 0.245300 -0.536700 1 0 1.000000 
0 4.485799 15.126400 3.393500 0.000000 0.000000 1.000000 0.254900 -0.563300 1 0 1.000000 
0 5.361399 17.004000 3.393500 0.000000 0.000000 1.000000 0.259200 -0.539200 1 0 1.000000 
windlass01
0 11.719800 2.333400 4.720600 0.066100 0.835697 -0.545198 0.609500 -0.780000 1 0 1.000000 
0 19.479099 5.248601 2.672600 -0.138097 0.538888 0.830981 1.063000 -0.854300 1 0 1.000000 
0 11.686300 3.085300 2.740900 -0.246106 0.897520 0.365908 0.609900 -0.852000 1 0 1.000000 
windlass01
0 11.719800 2.333400 4.720600 0.066100 0.835697 -0.545198 0.609500 -0.780000 1 0 1.000000 
0 16.930599 2.751801 7.418900 -0.173001 0.965304 0.195601 0.918900 -0.693600 1 0 1.000000 
0 19.479099 5.248601 2.672600 -0.138097 0.538888 0.830981 1.063000 -0.854300 1 0 1.000000 
windlass01
0 11.719800 2.333400 4.720600 0.066100 0.835697 -0.545198 0.609500 -0.780000 1 0 1.000000 
0 5.789300 1.780300 5.098000 -0.091403 0.995534 0.023601 0.267000 -0.772200 1 0 1.000000 
0 16.930599 2.751801 7.418900 -0.173001 0.965304 0.195601 0.918900 -0.693600 1 0 1.000000 
windlass01
0 15.336600 6.934900 3.393500 0.000000 0.000000 1.000000 0.404100 -0.623700 1 0 1.000000 
0 16.434500 5.178001 3.393500 0.000000 0.000000 1.000000 0.422000 -0.640500 1 0 1.000000 
0 17.407101 7.007201 3.393500 0.000000 0.000000 1.000000 0.427600 -0.616600 1 0 1.000000 
windlass01
0 12.518400 -3.354300 28.879700 0.876556 -0.120094 0.466076 0.498400 -0.465700 1 0 1.000000 
0 9.164100 9.164100 28.527599 0.733590 0.672691 0.096599 0.673800 -0.364500 1 0 1.000000 
0 -2.377900 -2.377900 31.252501 -0.023601 -0.020000 0.999521 0.452900 -0.236900 1 0 1.000000 
windlass01
0 -2.377900 -2.377900 31.252501 -0.023601 -0.020000 0.999521 0.452900 -0.236900 1 0 1.000000 
0 9.164100 9.164100 28.527599 0.733590 0.672691 0.096599 0.673800 -0.364500 1 0 1.000000 
0 -3.354300 12.518400 28.527599 -0.175410 0.982554 0.061803 0.673800 -0.162000 1 0 1.000000 
windlass01
0 -2.377900 -2.377900 31.252501 -0.023601 -0.020000 0.999521 0.452900 -0.236900 1 0 1.000000 
0 -3.354300 12.518400 28.527599 -0.175410 0.982554 0.061803 0.673800 -0.162000 1 0 1.000000 
0 -9.164100 9.164100 28.527599 -0.806401 0.540701 0.239500 0.599700 -0.087800 1 0 1.000000 
windlass01
0 -2.377900 -2.377900 31.252501 -0.023601 -0.020000 0.999521 0.452900 -0.236900 1 0 1.000000 
0 -9.164100 9.164100 28.527599 -0.806401 0.540701 0.239500 0.599700 -0.087800 1 0 1.000000 
0 -12.518400 -3.354300 28.527599 -0.955301 -0.262700 0.135600 0.397200 -0.087800 1 0 1.000000 
windlass01
0 -2.377900 -2.377900 31.252501 -0.023601 -0.020000 0.999521 0.452900 -0.236900 1 0 1.000000 
0 -12.518400 -3.354300 28.527599 -0.955301 -0.262700 0.135600 0.397200 -0.087800 1 0 1.000000 
0 -3.354300 -12.518400 28.527599 -0.262700 -0.955301 0.135600 0.295900 -0.263200 1 0 1.000000 
windlass01
0 -2.377900 -2.377900 31.252501 -0.023601 -0.020000 0.999521 0.452900 -0.236900 1 0 1.000000 
0 -3.354300 -12.518400 28.527599 -0.262700 -0.955301 0.135600 0.295900 -0.263200 1 0 1.000000 
0 9.164100 -9.164100 28.527599 0.596218 -0.778123 0.197606 0.397200 -0.438600 1 0 1.000000 
windlass01
0 -2.377900 -2.377900 31.252501 -0.023601 -0.020000 0.999521 0.452900 -0.236900 1 0 1.000000 
0 9.164100 -9.164100 28.527599 0.596218 -0.778123 0.197606 0.397200 -0.438600 1 0 1.000000 
0 12.518400 -3.354300 28.879700 0.876556 -0.120094 0.466076 0.498400 -0.465700 1 0 1.000000 
windlass01
0 -17.516001 -3.583301 3.393500 0.000000 0.000000 1.000000 0.060700 -0.844600 1 0 1.000000 
0 -17.335400 -5.647201 3.393500 0.000000 0.000000 1.000000 0.069100 -0.867700 1 0 1.000000 
0 -15.638300 -4.458900 3.393500 0.000000 0.000000 1.000000 0.084900 -0.848900 1 0 1.000000 
windlass01
0 13.238001 -13.170599 3.393500 0.000000 0.000000 1.000000 0.441700 -0.860000 1 0 1.000000 
0 11.166301 -11.974399 3.393500 0.000000 0.000000 1.000000 0.414300 -0.852700 1 0 1.000000 
0 12.202101 -13.768600 3.393500 0.000000 0.000000 1.000000 0.431700 -0.870000 1 0 1.000000 
end
