$cd ".\"
$modelname "props_junk/wood_crate001a_damaged_old.mdl"
$model "Body" "wood_crate001a_damaged_reference.smd"
$cdmaterials "models/props_junk/old/"
$surfaceprop "wood"
$eyeposition 0.000 0.000 0.000
$illumposition 0.289 0.309 0.305
$sequence idle "idle" fps 30.000000
$staticprop
$collisionmodel "wood_crate001a_damaged_reference.smd"
{
	$mass 240
}
$texturegroup "WoodCrates"
{
	{ "WoodCrates01a" }
	{ "WoodCrates02a" }
}
$origin 0 0 0 270
$keyvalues
{
	prop_data
	{
		"base"			"Wooden.Medium"
	}
	fire_interactions 
	{
		"flammable" "yes"
	}
}
$collisiontext
{
break {"model" "props_junk/wood_crate001a_damagedmax_old" "health" "100" "debris" "0"  }
break {"model" "props_debris/wood_splinters01a" "health" "10" "fadetime" "2"  }
break {"model" "props_debris/wood_splinters01b" "health" "10" "fadetime" "2"  }
break {"model" "props_debris/wood_splinters01c" "health" "10" "fadetime" "2"  }
break {"model" "props_debris/wood_splinters01d" "health" "10" "fadetime" "2"  }
}