version 1
nodes
  0 "static_prop" -1
end
skeleton
time 0
0 0.000000 0.000000 0.000000 0.000000 0.000000 0.000000
end
triangles
RooftopCluster01a
0 -55.454803 61.412098 73.708099 -0.951058 0.302687 0.062197 0.811000 -0.357400 1 0 1.000000 
0 -55.116104 62.632397 72.950203 -0.951058 0.302687 0.062197 0.810800 -0.357900 1 0 1.000000 
0 -55.549904 61.416397 72.235298 -0.951058 0.302687 0.062197 0.811000 -0.358500 1 0 1.000000 
RooftopCluster01a
0 -31.699499 4.530499 75.676598 0.829796 -0.221799 0.512097 0.822000 -0.355900 1 0 1.000000 
0 -16.488901 49.860600 69.225304 0.813305 -0.325302 -0.482403 0.804800 -0.360700 1 0 1.000000 
0 -16.483803 49.955601 70.698097 0.016700 0.103400 0.994500 0.804700 -0.359600 1 0 1.000000 
RooftopCluster01a
0 -31.699499 4.530499 75.676598 0.829796 -0.221799 0.512097 0.822000 -0.355900 1 0 1.000000 
0 -31.704599 4.435499 74.203796 -0.016000 -0.103599 -0.994490 0.822000 -0.357000 1 0 1.000000 
0 -16.488901 49.860600 69.225304 0.813305 -0.325302 -0.482403 0.804800 -0.360700 1 0 1.000000 
RooftopCluster01a
0 -31.704599 4.435499 74.203796 -0.016000 -0.103599 -0.994490 0.822000 -0.357000 1 0 1.000000 
0 -17.701101 50.305000 69.940300 -0.829582 0.221695 -0.512489 0.805000 -0.360200 1 0 1.000000 
0 -16.488901 49.860600 69.225304 0.813305 -0.325302 -0.482403 0.804800 -0.360700 1 0 1.000000 
RooftopCluster01a
0 -31.704599 4.435499 74.203796 -0.016000 -0.103599 -0.994490 0.822000 -0.357000 1 0 1.000000 
0 -32.916901 4.879899 74.918800 -0.813193 0.325297 0.482596 0.822000 -0.356500 1 0 1.000000 
0 -17.701101 50.305000 69.940300 -0.829582 0.221695 -0.512489 0.805000 -0.360200 1 0 1.000000 
RooftopCluster01a
0 -32.916901 4.879899 74.918800 -0.813193 0.325297 0.482596 0.822000 -0.356500 1 0 1.000000 
0 -16.483803 49.955601 70.698097 0.016700 0.103400 0.994500 0.804700 -0.359600 1 0 1.000000 
0 -17.701101 50.305000 69.940300 -0.829582 0.221695 -0.512489 0.805000 -0.360200 1 0 1.000000 
RooftopCluster01a
0 -32.916901 4.879899 74.918800 -0.813193 0.325297 0.482596 0.822000 -0.356500 1 0 1.000000 
0 -31.699499 4.530499 75.676598 0.829796 -0.221799 0.512097 0.822000 -0.355900 1 0 1.000000 
0 -16.483803 49.955601 70.698097 0.016700 0.103400 0.994500 0.804700 -0.359600 1 0 1.000000 
RooftopCluster01a
0 -19.731703 42.236599 71.703102 0.406195 0.052299 0.912288 0.806600 -0.358900 1 0 1.000000 
0 -19.749802 43.087502 71.662300 0.406195 0.052299 0.912288 0.806400 -0.358900 1 0 1.000000 
0 -20.396801 41.811100 72.023598 0.406195 0.052299 0.912288 0.806800 -0.358600 1 0 1.000000 
RooftopCluster01a
0 -19.731703 42.236599 71.703102 0.406195 0.052299 0.912288 0.806600 -0.358900 1 0 1.000000 
0 -19.048502 41.811100 71.423302 0.406195 0.052299 0.912288 0.806400 -0.359100 1 0 1.000000 
0 -19.749802 43.087502 71.662300 0.406195 0.052299 0.912288 0.806400 -0.358900 1 0 1.000000 
RooftopCluster01a
0 -19.731703 42.236599 71.703102 0.406195 0.052299 0.912288 0.806600 -0.358900 1 0 1.000000 
0 -20.396801 41.811100 72.023598 0.406195 0.052299 0.912288 0.806800 -0.358600 1 0 1.000000 
0 -19.048502 41.811100 71.423302 0.406195 0.052299 0.912288 0.806400 -0.359100 1 0 1.000000 
RooftopCluster01a
0 -31.860401 40.673801 -75.351601 0.000000 0.000000 -1.000000 0.809900 -0.468400 1 0 1.000000 
0 -32.598301 40.247799 -75.351601 0.000000 0.000000 -1.000000 0.810200 -0.468400 1 0 1.000000 
0 -31.860401 41.525902 -75.351601 0.000000 0.000000 -1.000000 0.809800 -0.468400 1 0 1.000000 
RooftopCluster01a
0 -31.860401 40.673801 -75.351601 0.000000 0.000000 -1.000000 0.809900 -0.468400 1 0 1.000000 
0 -31.122402 40.247799 -75.351601 0.000000 0.000000 -1.000000 0.809800 -0.468400 1 0 1.000000 
0 -32.598301 40.247799 -75.351601 0.000000 0.000000 -1.000000 0.810200 -0.468400 1 0 1.000000 
RooftopCluster01a
0 -31.860401 40.673801 -75.351601 0.000000 0.000000 -1.000000 0.809900 -0.468400 1 0 1.000000 
0 -31.860401 41.525902 -75.351601 0.000000 0.000000 -1.000000 0.809800 -0.468400 1 0 1.000000 
0 -31.122402 40.247799 -75.351601 0.000000 0.000000 -1.000000 0.809800 -0.468400 1 0 1.000000 
RooftopCluster01a
0 51.199001 -23.409098 -23.068199 0.608784 -0.753480 0.248293 0.447500 -0.149900 1 0 1.000000 
0 44.569599 -27.043098 -30.511499 -0.096603 -0.961729 0.256408 0.404100 -0.264900 1 0 1.000000 
0 52.759602 -24.606598 -30.540001 0.885498 -0.392799 0.248199 0.443900 -0.265300 1 0 1.000000 
RooftopCluster01a
0 51.199001 -23.409098 -23.068199 0.608784 -0.753480 0.248293 0.447500 -0.149900 1 0 1.000000 
0 45.386299 -25.133898 -23.051701 -0.525111 -0.808917 0.264406 0.419400 -0.149700 1 0 1.000000 
0 44.569599 -27.043098 -30.511499 -0.096603 -0.961729 0.256408 0.404100 -0.264900 1 0 1.000000 
RooftopCluster01a
0 45.386299 -25.133898 -23.051701 -0.525111 -0.808917 0.264406 0.419400 -0.149700 1 0 1.000000 
0 39.741600 -20.007399 -30.465401 -0.939498 -0.202900 0.275999 0.438200 -0.264100 1 0 1.000000 
0 44.569599 -27.043098 -30.511499 -0.096603 -0.961729 0.256408 0.404100 -0.264900 1 0 1.000000 
RooftopCluster01a
0 45.386299 -25.133898 -23.051701 -0.525111 -0.808917 0.264406 0.419400 -0.149700 1 0 1.000000 
0 41.955299 -20.138798 -23.025200 -0.926981 0.249395 0.280194 0.444500 -0.149200 1 0 1.000000 
0 39.741600 -20.007399 -30.465401 -0.939498 -0.202900 0.275999 0.438200 -0.264100 1 0 1.000000 
RooftopCluster01a
0 41.955299 -20.138798 -23.025200 -0.926981 0.249395 0.280194 0.444500 -0.149200 1 0 1.000000 
0 44.947800 -13.222598 -30.465401 -0.480822 0.830838 0.280213 0.508600 -0.264100 1 0 1.000000 
0 39.741600 -20.007399 -30.465401 -0.939498 -0.202900 0.275999 0.438200 -0.264100 1 0 1.000000 
RooftopCluster01a
0 41.955299 -20.138798 -23.025200 -0.926981 0.249395 0.280194 0.444500 -0.149200 1 0 1.000000 
0 45.647701 -15.326898 -23.025200 -0.047200 0.959998 0.275999 0.492700 -0.149200 1 0 1.000000 
0 44.947800 -13.222598 -30.465401 -0.480822 0.830838 0.280213 0.508600 -0.264100 1 0 1.000000 
RooftopCluster01a
0 45.647701 -15.326898 -23.025200 -0.047200 0.959998 0.275999 0.492700 -0.149200 1 0 1.000000 
0 52.993301 -16.064999 -30.511499 0.645604 0.716404 0.264501 0.500300 -0.264900 1 0 1.000000 
0 44.947800 -13.222598 -30.465401 -0.480822 0.830838 0.280213 0.508600 -0.264100 1 0 1.000000 
RooftopCluster01a
0 45.647701 -15.326898 -23.025200 -0.047200 0.959998 0.275999 0.492700 -0.149200 1 0 1.000000 
0 51.360600 -17.347998 -23.051701 0.903997 0.342199 0.256299 0.488600 -0.149700 1 0 1.000000 
0 52.993301 -16.064999 -30.511499 0.645604 0.716404 0.264501 0.500300 -0.264900 1 0 1.000000 
RooftopCluster01a
0 51.360600 -17.347998 -23.051701 0.903997 0.342199 0.256299 0.488600 -0.149700 1 0 1.000000 
0 52.759602 -24.606598 -30.540001 0.885498 -0.392799 0.248199 0.443900 -0.265300 1 0 1.000000 
0 52.993301 -16.064999 -30.511499 0.645604 0.716404 0.264501 0.500300 -0.264900 1 0 1.000000 
RooftopCluster01a
0 51.360600 -17.347998 -23.051701 0.903997 0.342199 0.256299 0.488600 -0.149700 1 0 1.000000 
0 51.199001 -23.409098 -23.068199 0.608784 -0.753480 0.248293 0.447500 -0.149900 1 0 1.000000 
0 52.759602 -24.606598 -30.540001 0.885498 -0.392799 0.248199 0.443900 -0.265300 1 0 1.000000 
RooftopCluster01a
0 51.360600 -17.347998 -23.051701 0.003700 -0.002800 0.999989 0.488600 -0.149700 1 0 1.000000 
0 45.386299 -25.133898 -23.051701 0.003700 -0.002800 0.999989 0.419400 -0.149700 1 0 1.000000 
0 51.199001 -23.409098 -23.068199 0.003700 -0.002800 0.999989 0.447500 -0.149900 1 0 1.000000 
RooftopCluster01a
0 51.360600 -17.347998 -23.051701 0.003700 -0.002800 0.999989 0.488600 -0.149700 1 0 1.000000 
0 41.955299 -20.138798 -23.025200 0.003700 -0.002800 0.999989 0.444500 -0.149200 1 0 1.000000 
0 45.386299 -25.133898 -23.051701 0.003700 -0.002800 0.999989 0.419400 -0.149700 1 0 1.000000 
RooftopCluster01a
0 51.360600 -17.347998 -23.051701 0.003700 -0.002800 0.999989 0.488600 -0.149700 1 0 1.000000 
0 45.647701 -15.326898 -23.025200 0.003700 -0.002800 0.999989 0.492700 -0.149200 1 0 1.000000 
0 41.955299 -20.138798 -23.025200 0.003700 -0.002800 0.999989 0.444500 -0.149200 1 0 1.000000 
RooftopCluster01a
0 52.003605 -54.880096 -23.051701 0.000000 -0.004600 0.999989 0.304300 -0.149700 1 0 1.000000 
0 42.189705 -54.880100 -23.051701 0.000000 -0.004600 0.999989 0.269100 -0.149700 1 0 1.000000 
0 47.096603 -58.441696 -23.068199 0.000000 -0.004600 0.999989 0.277000 -0.149900 1 0 1.000000 
RooftopCluster01a
0 52.003605 -54.880096 -23.051701 0.000000 -0.004600 0.999989 0.304300 -0.149700 1 0 1.000000 
0 44.064003 -49.117294 -23.025200 0.000000 -0.004600 0.999989 0.295000 -0.149200 1 0 1.000000 
0 42.189705 -54.880100 -23.051701 0.000000 -0.004600 0.999989 0.269100 -0.149700 1 0 1.000000 
RooftopCluster01a
0 52.003605 -54.880096 -23.051701 0.000000 -0.004600 0.999989 0.304300 -0.149700 1 0 1.000000 
0 50.129303 -49.117294 -23.025200 0.000000 -0.004600 0.999989 0.317300 -0.149200 1 0 1.000000 
0 44.064003 -49.117294 -23.025200 0.000000 -0.004600 0.999989 0.295000 -0.149200 1 0 1.000000 
RooftopCluster01a
0 -55.549904 61.416397 72.235298 -0.064401 0.002900 -0.997920 0.811000 -0.358500 1 0 1.000000 
0 20.968498 38.417900 67.971802 0.229506 0.826820 -0.513513 0.793000 -0.361600 1 0 1.000000 
0 20.534698 37.201801 67.256798 -0.293886 -0.823961 -0.484477 0.793000 -0.362200 1 0 1.000000 
RooftopCluster01a
0 -55.549904 61.416397 72.235298 -0.064401 0.002900 -0.997920 0.811000 -0.358500 1 0 1.000000 
0 -55.116104 62.632397 72.950203 0.293886 0.823961 0.484477 0.810800 -0.357900 1 0 1.000000 
0 20.968498 38.417900 67.971802 0.229506 0.826820 -0.513513 0.793000 -0.361600 1 0 1.000000 
RooftopCluster01a
0 -55.116104 62.632397 72.950203 0.293886 0.823961 0.484477 0.810800 -0.357900 1 0 1.000000 
0 20.629698 37.197601 68.729599 0.064401 -0.002900 0.997920 0.793000 -0.361100 1 0 1.000000 
0 20.968498 38.417900 67.971802 0.229506 0.826820 -0.513513 0.793000 -0.361600 1 0 1.000000 
RooftopCluster01a
0 -55.116104 62.632397 72.950203 0.293886 0.823961 0.484477 0.810800 -0.357900 1 0 1.000000 
0 -55.454803 61.412098 73.708099 -0.229506 -0.826820 0.513513 0.811000 -0.357400 1 0 1.000000 
0 20.629698 37.197601 68.729599 0.064401 -0.002900 0.997920 0.793000 -0.361100 1 0 1.000000 
RooftopCluster01a
0 -55.454803 61.412098 73.708099 -0.229506 -0.826820 0.513513 0.811000 -0.357400 1 0 1.000000 
0 20.534698 37.201801 67.256798 -0.293886 -0.823961 -0.484477 0.793000 -0.362200 1 0 1.000000 
0 20.629698 37.197601 68.729599 0.064401 -0.002900 0.997920 0.793000 -0.361100 1 0 1.000000 
RooftopCluster01a
0 -55.454803 61.412098 73.708099 -0.229506 -0.826820 0.513513 0.811000 -0.357400 1 0 1.000000 
0 -55.549904 61.416397 72.235298 -0.064401 0.002900 -0.997920 0.811000 -0.358500 1 0 1.000000 
0 20.534698 37.201801 67.256798 -0.293886 -0.823961 -0.484477 0.793000 -0.362200 1 0 1.000000 
RooftopCluster01a
0 47.911804 -51.900696 -57.035702 0.001000 0.999694 -0.024700 0.299900 -0.674400 1 0 1.000000 
0 44.623104 -52.721497 -38.244400 -0.950682 0.308394 -0.033099 0.285100 -0.384300 1 0 1.000000 
0 47.582806 -50.571095 -38.244400 -0.000000 0.999680 -0.025299 0.303200 -0.384300 1 0 1.000000 
RooftopCluster01a
0 47.911804 -51.900696 -57.035702 0.001000 0.999694 -0.024700 0.299900 -0.674400 1 0 1.000000 
0 44.952103 -54.051098 -57.035702 -0.950221 0.307507 0.050201 0.282100 -0.674400 1 0 1.000000 
0 44.623104 -52.721497 -38.244400 -0.950682 0.308394 -0.033099 0.285100 -0.384300 1 0 1.000000 
RooftopCluster01a
0 44.952103 -54.051098 -57.035702 -0.950221 0.307507 0.050201 0.282100 -0.674400 1 0 1.000000 
0 45.753605 -56.200798 -38.244400 -0.588022 -0.808830 0.004900 0.278600 -0.384300 1 0 1.000000 
0 44.623104 -52.721497 -38.244400 -0.950682 0.308394 -0.033099 0.285100 -0.384300 1 0 1.000000 
RooftopCluster01a
0 44.952103 -54.051098 -57.035702 -0.950221 0.307507 0.050201 0.282100 -0.674400 1 0 1.000000 
0 46.082603 -57.530396 -57.035702 -0.586700 -0.807900 0.055500 0.276000 -0.674400 1 0 1.000000 
0 45.753605 -56.200798 -38.244400 -0.588022 -0.808830 0.004900 0.278600 -0.384300 1 0 1.000000 
RooftopCluster01a
0 46.082603 -57.530396 -57.035702 -0.586700 -0.807900 0.055500 0.276000 -0.674400 1 0 1.000000 
0 49.412003 -56.200798 -38.244400 0.587800 -0.808200 0.036100 0.291500 -0.384300 1 0 1.000000 
0 45.753605 -56.200798 -38.244400 -0.588022 -0.808830 0.004900 0.278600 -0.384300 1 0 1.000000 
RooftopCluster01a
0 46.082603 -57.530396 -57.035702 -0.586700 -0.807900 0.055500 0.276000 -0.674400 1 0 1.000000 
0 49.741005 -57.530396 -57.035702 0.587373 -0.809162 -0.015799 0.288700 -0.674400 1 0 1.000000 
0 49.412003 -56.200798 -38.244400 0.587800 -0.808200 0.036100 0.291500 -0.384300 1 0 1.000000 
RooftopCluster01a
0 49.741005 -57.530396 -57.035702 0.587373 -0.809162 -0.015799 0.288700 -0.674400 1 0 1.000000 
0 50.542503 -52.721497 -38.244400 0.950902 0.309001 0.017400 0.306400 -0.384300 1 0 1.000000 
0 49.412003 -56.200798 -38.244400 0.587800 -0.808200 0.036100 0.291500 -0.384300 1 0 1.000000 
RooftopCluster01a
0 49.741005 -57.530396 -57.035702 0.587373 -0.809162 -0.015799 0.288700 -0.674400 1 0 1.000000 
0 50.871502 -54.051098 -57.035702 0.948567 0.309789 -0.065198 0.303200 -0.674400 1 0 1.000000 
0 50.542503 -52.721497 -38.244400 0.950902 0.309001 0.017400 0.306400 -0.384300 1 0 1.000000 
RooftopCluster01a
0 47.582806 -50.571095 -38.244400 -0.000000 0.999680 -0.025299 0.303200 -0.384300 1 0 1.000000 
0 44.367302 -53.074295 -19.783600 -0.851595 0.524197 -0.001800 0.283000 -0.099200 1 0 1.000000 
0 47.327003 -50.923996 -19.783600 0.235200 0.971702 0.021800 0.301100 -0.099200 1 0 1.000000 
RooftopCluster01a
0 47.582806 -50.571095 -38.244400 -0.000000 0.999680 -0.025299 0.303200 -0.384300 1 0 1.000000 
0 44.623104 -52.721497 -38.244400 -0.950682 0.308394 -0.033099 0.285100 -0.384300 1 0 1.000000 
0 44.367302 -53.074295 -19.783600 -0.851595 0.524197 -0.001800 0.283000 -0.099200 1 0 1.000000 
RooftopCluster01a
0 44.623104 -52.721497 -38.244400 -0.950682 0.308394 -0.033099 0.285100 -0.384300 1 0 1.000000 
0 45.497803 -56.553696 -19.783600 -0.761480 -0.647783 -0.022899 0.276700 -0.099200 1 0 1.000000 
0 44.367302 -53.074295 -19.783600 -0.851595 0.524197 -0.001800 0.283000 -0.099200 1 0 1.000000 
RooftopCluster01a
0 44.623104 -52.721497 -38.244400 -0.950682 0.308394 -0.033099 0.285100 -0.384300 1 0 1.000000 
0 45.753605 -56.200798 -38.244400 -0.588022 -0.808830 0.004900 0.278600 -0.384300 1 0 1.000000 
0 45.497803 -56.553696 -19.783600 -0.761480 -0.647783 -0.022899 0.276700 -0.099200 1 0 1.000000 
RooftopCluster01a
0 45.753605 -56.200798 -38.244400 -0.588022 -0.808830 0.004900 0.278600 -0.384300 1 0 1.000000 
0 49.156204 -56.553696 -19.783600 0.380912 -0.924528 -0.012400 0.289600 -0.099200 1 0 1.000000 
0 45.497803 -56.553696 -19.783600 -0.761480 -0.647783 -0.022899 0.276700 -0.099200 1 0 1.000000 
RooftopCluster01a
0 45.753605 -56.200798 -38.244400 -0.588022 -0.808830 0.004900 0.278600 -0.384300 1 0 1.000000 
0 49.412003 -56.200798 -38.244400 0.587800 -0.808200 0.036100 0.291500 -0.384300 1 0 1.000000 
0 49.156204 -56.553696 -19.783600 0.380912 -0.924528 -0.012400 0.289600 -0.099200 1 0 1.000000 
RooftopCluster01a
0 49.412003 -56.200798 -38.244400 0.587800 -0.808200 0.036100 0.291500 -0.384300 1 0 1.000000 
0 50.286705 -53.074295 -19.783600 0.996960 0.076397 0.015299 0.304300 -0.099200 1 0 1.000000 
0 49.156204 -56.553696 -19.783600 0.380912 -0.924528 -0.012400 0.289600 -0.099200 1 0 1.000000 
RooftopCluster01a
0 49.412003 -56.200798 -38.244400 0.587800 -0.808200 0.036100 0.291500 -0.384300 1 0 1.000000 
0 50.542503 -52.721497 -38.244400 0.950902 0.309001 0.017400 0.306400 -0.384300 1 0 1.000000 
0 50.286705 -53.074295 -19.783600 0.996960 0.076397 0.015299 0.304300 -0.099200 1 0 1.000000 
RooftopCluster01a
0 50.542503 -52.721497 -38.244400 0.950902 0.309001 0.017400 0.306400 -0.384300 1 0 1.000000 
0 47.327003 -50.923996 -19.783600 0.235200 0.971702 0.021800 0.301100 -0.099200 1 0 1.000000 
0 50.286705 -53.074295 -19.783600 0.996960 0.076397 0.015299 0.304300 -0.099200 1 0 1.000000 
RooftopCluster01a
0 50.542503 -52.721497 -38.244400 0.950902 0.309001 0.017400 0.306400 -0.384300 1 0 1.000000 
0 47.582806 -50.571095 -38.244400 -0.000000 0.999680 -0.025299 0.303200 -0.384300 1 0 1.000000 
0 47.327003 -50.923996 -19.783600 0.235200 0.971702 0.021800 0.301100 -0.099200 1 0 1.000000 
RooftopCluster01a
0 50.871502 -54.051098 -57.035702 0.948567 0.309789 -0.065198 0.303200 -0.674400 1 0 1.000000 
0 47.582806 -50.571095 -38.244400 -0.000000 0.999680 -0.025299 0.303200 -0.384300 1 0 1.000000 
0 50.542503 -52.721497 -38.244400 0.950902 0.309001 0.017400 0.306400 -0.384300 1 0 1.000000 
RooftopCluster01a
0 50.871502 -54.051098 -57.035702 0.948567 0.309789 -0.065198 0.303200 -0.674400 1 0 1.000000 
0 47.911804 -51.900696 -57.035702 0.001000 0.999694 -0.024700 0.299900 -0.674400 1 0 1.000000 
0 47.582806 -50.571095 -38.244400 -0.000000 0.999680 -0.025299 0.303200 -0.384300 1 0 1.000000 
RooftopCluster01a
0 48.829403 -53.074295 -75.676598 0.848657 0.524873 -0.065497 0.299300 -0.962300 1 0 1.000000 
0 47.911804 -51.900696 -57.035702 0.001000 0.999694 -0.024700 0.299900 -0.674400 1 0 1.000000 
0 50.871502 -54.051098 -57.035702 0.948567 0.309789 -0.065198 0.303200 -0.674400 1 0 1.000000 
RooftopCluster01a
0 48.829403 -53.074295 -75.676598 0.848657 0.524873 -0.065497 0.299300 -0.962300 1 0 1.000000 
0 45.869705 -50.923996 -75.676598 -0.233090 0.969457 0.076297 0.295700 -0.962300 1 0 1.000000 
0 47.911804 -51.900696 -57.035702 0.001000 0.999694 -0.024700 0.299900 -0.674400 1 0 1.000000 
RooftopCluster01a
0 45.869705 -50.923996 -75.676598 -0.233090 0.969457 0.076297 0.295700 -0.962300 1 0 1.000000 
0 44.952103 -54.051098 -57.035702 -0.950221 0.307507 0.050201 0.282100 -0.674400 1 0 1.000000 
0 47.911804 -51.900696 -57.035702 0.001000 0.999694 -0.024700 0.299900 -0.674400 1 0 1.000000 
RooftopCluster01a
0 45.869705 -50.923996 -75.676598 -0.233090 0.969457 0.076297 0.295700 -0.962300 1 0 1.000000 
0 42.910004 -53.074299 -75.676598 -0.990787 0.075399 0.112499 0.277400 -0.962300 1 0 1.000000 
0 44.952103 -54.051098 -57.035702 -0.950221 0.307507 0.050201 0.282100 -0.674400 1 0 1.000000 
RooftopCluster01a
0 42.910004 -53.074299 -75.676598 -0.990787 0.075399 0.112499 0.277400 -0.962300 1 0 1.000000 
0 46.082603 -57.530396 -57.035702 -0.586700 -0.807900 0.055500 0.276000 -0.674400 1 0 1.000000 
0 44.952103 -54.051098 -57.035702 -0.950221 0.307507 0.050201 0.282100 -0.674400 1 0 1.000000 
RooftopCluster01a
0 42.910004 -53.074299 -75.676598 -0.990787 0.075399 0.112499 0.277400 -0.962300 1 0 1.000000 
0 44.040504 -56.553696 -75.676598 -0.380107 -0.924917 -0.006800 0.271300 -0.962300 1 0 1.000000 
0 46.082603 -57.530396 -57.035702 -0.586700 -0.807900 0.055500 0.276000 -0.674400 1 0 1.000000 
RooftopCluster01a
0 44.040504 -56.553696 -75.676598 -0.380107 -0.924917 -0.006800 0.271300 -0.962300 1 0 1.000000 
0 49.741005 -57.530396 -57.035702 0.587373 -0.809162 -0.015799 0.288700 -0.674400 1 0 1.000000 
0 46.082603 -57.530396 -57.035702 -0.586700 -0.807900 0.055500 0.276000 -0.674400 1 0 1.000000 
RooftopCluster01a
0 44.040504 -56.553696 -75.676598 -0.380107 -0.924917 -0.006800 0.271300 -0.962300 1 0 1.000000 
0 47.698902 -56.553696 -75.676598 0.755363 -0.644868 -0.116494 0.284600 -0.962300 1 0 1.000000 
0 49.741005 -57.530396 -57.035702 0.587373 -0.809162 -0.015799 0.288700 -0.674400 1 0 1.000000 
RooftopCluster01a
0 47.698902 -56.553696 -75.676598 0.755363 -0.644868 -0.116494 0.284600 -0.962300 1 0 1.000000 
0 50.871502 -54.051098 -57.035702 0.948567 0.309789 -0.065198 0.303200 -0.674400 1 0 1.000000 
0 49.741005 -57.530396 -57.035702 0.587373 -0.809162 -0.015799 0.288700 -0.674400 1 0 1.000000 
RooftopCluster01a
0 47.698902 -56.553696 -75.676598 0.755363 -0.644868 -0.116494 0.284600 -0.962300 1 0 1.000000 
0 48.829403 -53.074295 -75.676598 0.848657 0.524873 -0.065497 0.299300 -0.962300 1 0 1.000000 
0 50.871502 -54.051098 -57.035702 0.948567 0.309789 -0.065198 0.303200 -0.674400 1 0 1.000000 
RooftopCluster01a
0 43.736900 -23.997198 -75.676598 -0.663009 -0.740110 0.112501 0.421700 -0.962300 1 0 1.000000 
0 47.185501 -25.218397 -75.676598 0.502404 -0.864606 -0.006800 0.424600 -0.962300 1 0 1.000000 
0 49.203602 -24.192898 -57.035702 0.283702 -0.957305 0.055500 0.437200 -0.674400 1 0 1.000000 
RooftopCluster01a
0 47.185501 -25.218397 -75.676598 0.502404 -0.864606 -0.006800 0.424600 -0.962300 1 0 1.000000 
0 51.430698 -21.290499 -57.035702 0.999521 -0.026601 -0.015800 0.461900 -0.674400 1 0 1.000000 
0 49.203602 -24.192898 -57.035702 0.283702 -0.957305 0.055500 0.437200 -0.674400 1 0 1.000000 
RooftopCluster01a
0 47.185501 -25.218397 -75.676598 0.502404 -0.864606 -0.006800 0.424600 -0.962300 1 0 1.000000 
0 49.412601 -22.315998 -75.676598 0.971441 0.206709 -0.116505 0.450100 -0.962300 1 0 1.000000 
0 51.430698 -21.290499 -57.035702 0.999521 -0.026601 -0.015800 0.461900 -0.674400 1 0 1.000000 
RooftopCluster01a
0 49.412601 -22.315998 -75.676598 0.971441 0.206709 -0.116505 0.450100 -0.962300 1 0 1.000000 
0 49.358501 -18.275497 -57.035702 0.331709 0.941126 -0.065202 0.478000 -0.674400 1 0 1.000000 
0 51.430698 -21.290499 -57.035702 0.999521 -0.026601 -0.015800 0.461900 -0.674400 1 0 1.000000 
RooftopCluster01a
0 49.412601 -22.315998 -75.676598 0.971441 0.206709 -0.116505 0.450100 -0.962300 1 0 1.000000 
0 47.340401 -19.300999 -75.676598 0.100201 0.992809 -0.065501 0.466000 -0.962300 1 0 1.000000 
0 49.358501 -18.275497 -57.035702 0.331709 0.941126 -0.065202 0.478000 -0.674400 1 0 1.000000 
RooftopCluster01a
0 47.340401 -19.300999 -75.676598 0.100201 0.992809 -0.065501 0.466000 -0.962300 1 0 1.000000 
0 45.850800 -19.314598 -57.035702 -0.792486 0.609389 -0.024700 0.462100 -0.674400 1 0 1.000000 
0 49.358501 -18.275497 -57.035702 0.331709 0.941126 -0.065202 0.478000 -0.674400 1 0 1.000000 
RooftopCluster01a
0 47.340401 -19.300999 -75.676598 0.100201 0.992809 -0.065501 0.466000 -0.962300 1 0 1.000000 
0 43.832699 -20.340097 -75.676598 -0.910995 0.405298 0.076300 0.448700 -0.962300 1 0 1.000000 
0 45.850800 -19.314598 -57.035702 -0.792486 0.609389 -0.024700 0.462100 -0.674400 1 0 1.000000 
RooftopCluster01a
0 43.832699 -20.340097 -75.676598 -0.910995 0.405298 0.076300 0.448700 -0.962300 1 0 1.000000 
0 45.755001 -22.971699 -57.035702 -0.822396 -0.566697 0.050200 0.435400 -0.674400 1 0 1.000000 
0 45.850800 -19.314598 -57.035702 -0.792486 0.609389 -0.024700 0.462100 -0.674400 1 0 1.000000 
RooftopCluster01a
0 43.832699 -20.340097 -75.676598 -0.910995 0.405298 0.076300 0.448700 -0.962300 1 0 1.000000 
0 43.736900 -23.997198 -75.676598 -0.663009 -0.740110 0.112501 0.421700 -0.962300 1 0 1.000000 
0 45.755001 -22.971699 -57.035702 -0.822396 -0.566697 0.050200 0.435400 -0.674400 1 0 1.000000 
RooftopCluster01a
0 43.736900 -23.997198 -75.676598 -0.663009 -0.740110 0.112501 0.421700 -0.962300 1 0 1.000000 
0 49.203602 -24.192898 -57.035702 0.283702 -0.957305 0.055500 0.437200 -0.674400 1 0 1.000000 
0 45.755001 -22.971699 -57.035702 -0.822396 -0.566697 0.050200 0.435400 -0.674400 1 0 1.000000 
RooftopCluster01a
0 45.755001 -22.971699 -57.035702 -0.822396 -0.566697 0.050200 0.435400 -0.674400 1 0 1.000000 
0 49.203602 -24.192898 -57.035702 0.283702 -0.957305 0.055500 0.437200 -0.674400 1 0 1.000000 
0 47.948502 -23.644499 -38.244400 0.283700 -0.958900 0.004900 0.437200 -0.384300 1 0 1.000000 
RooftopCluster01a
0 49.203602 -24.192898 -57.035702 0.283702 -0.957305 0.055500 0.437200 -0.674400 1 0 1.000000 
0 50.175598 -20.742098 -38.244400 0.999020 -0.025600 0.036101 0.462600 -0.384300 1 0 1.000000 
0 47.948502 -23.644499 -38.244400 0.283700 -0.958900 0.004900 0.437200 -0.384300 1 0 1.000000 
RooftopCluster01a
0 47.948502 -23.644499 -38.244400 0.283700 -0.958900 0.004900 0.437200 -0.384300 1 0 1.000000 
0 50.175598 -20.742098 -38.244400 0.999020 -0.025600 0.036101 0.462600 -0.384300 1 0 1.000000 
0 50.299702 -21.159798 -19.783600 0.965337 -0.260710 -0.012400 0.460100 -0.099200 1 0 1.000000 
RooftopCluster01a
0 50.175598 -20.742098 -38.244400 0.999020 -0.025600 0.036101 0.462600 -0.384300 1 0 1.000000 
0 48.227600 -18.144798 -19.783600 0.546323 0.837435 0.015301 0.476500 -0.099200 1 0 1.000000 
0 50.299702 -21.159798 -19.783600 0.965337 -0.260710 -0.012400 0.460100 -0.099200 1 0 1.000000 
RooftopCluster01a
0 50.175598 -20.742098 -38.244400 0.999020 -0.025600 0.036101 0.462600 -0.384300 1 0 1.000000 
0 48.103401 -17.727098 -38.244400 0.333795 0.942485 0.017400 0.479300 -0.384300 1 0 1.000000 
0 48.227600 -18.144798 -19.783600 0.546323 0.837435 0.015301 0.476500 -0.099200 1 0 1.000000 
RooftopCluster01a
0 48.103401 -17.727098 -38.244400 0.333795 0.942485 0.017400 0.479300 -0.384300 1 0 1.000000 
0 44.719898 -19.183899 -19.783600 -0.627676 0.778170 0.021799 0.460100 -0.099200 1 0 1.000000 
0 48.227600 -18.144798 -19.783600 0.546323 0.837435 0.015301 0.476500 -0.099200 1 0 1.000000 
RooftopCluster01a
0 48.103401 -17.727098 -38.244400 0.333795 0.942485 0.017400 0.479300 -0.384300 1 0 1.000000 
0 44.595699 -18.766098 -38.244400 -0.793083 0.608587 -0.025299 0.463000 -0.384300 1 0 1.000000 
0 44.719898 -19.183899 -19.783600 -0.627676 0.778170 0.021799 0.460100 -0.099200 1 0 1.000000 
RooftopCluster01a
0 44.595699 -18.766098 -38.244400 -0.793083 0.608587 -0.025299 0.463000 -0.384300 1 0 1.000000 
0 44.624100 -22.840998 -19.783600 -0.934294 -0.356498 -0.001800 0.432800 -0.099200 1 0 1.000000 
0 44.719898 -19.183899 -19.783600 -0.627676 0.778170 0.021799 0.460100 -0.099200 1 0 1.000000 
RooftopCluster01a
0 49.203602 -24.192898 -57.035702 0.283702 -0.957305 0.055500 0.437200 -0.674400 1 0 1.000000 
0 51.430698 -21.290499 -57.035702 0.999521 -0.026601 -0.015800 0.461900 -0.674400 1 0 1.000000 
0 50.175598 -20.742098 -38.244400 0.999020 -0.025600 0.036101 0.462600 -0.384300 1 0 1.000000 
RooftopCluster01a
0 51.430698 -21.290499 -57.035702 0.999521 -0.026601 -0.015800 0.461900 -0.674400 1 0 1.000000 
0 48.103401 -17.727098 -38.244400 0.333795 0.942485 0.017400 0.479300 -0.384300 1 0 1.000000 
0 50.175598 -20.742098 -38.244400 0.999020 -0.025600 0.036101 0.462600 -0.384300 1 0 1.000000 
RooftopCluster01a
0 51.430698 -21.290499 -57.035702 0.999521 -0.026601 -0.015800 0.461900 -0.674400 1 0 1.000000 
0 49.358501 -18.275497 -57.035702 0.331709 0.941126 -0.065202 0.478000 -0.674400 1 0 1.000000 
0 48.103401 -17.727098 -38.244400 0.333795 0.942485 0.017400 0.479300 -0.384300 1 0 1.000000 
RooftopCluster01a
0 49.358501 -18.275497 -57.035702 0.331709 0.941126 -0.065202 0.478000 -0.674400 1 0 1.000000 
0 44.595699 -18.766098 -38.244400 -0.793083 0.608587 -0.025299 0.463000 -0.384300 1 0 1.000000 
0 48.103401 -17.727098 -38.244400 0.333795 0.942485 0.017400 0.479300 -0.384300 1 0 1.000000 
RooftopCluster01a
0 49.358501 -18.275497 -57.035702 0.331709 0.941126 -0.065202 0.478000 -0.674400 1 0 1.000000 
0 45.850800 -19.314598 -57.035702 -0.792486 0.609389 -0.024700 0.462100 -0.674400 1 0 1.000000 
0 44.595699 -18.766098 -38.244400 -0.793083 0.608587 -0.025299 0.463000 -0.384300 1 0 1.000000 
RooftopCluster01a
0 45.850800 -19.314598 -57.035702 -0.792486 0.609389 -0.024700 0.462100 -0.674400 1 0 1.000000 
0 44.499901 -22.423298 -38.244400 -0.823398 -0.566498 -0.033100 0.435400 -0.384300 1 0 1.000000 
0 44.595699 -18.766098 -38.244400 -0.793083 0.608587 -0.025299 0.463000 -0.384300 1 0 1.000000 
RooftopCluster01a
0 45.850800 -19.314598 -57.035702 -0.792486 0.609389 -0.024700 0.462100 -0.674400 1 0 1.000000 
0 45.755001 -22.971699 -57.035702 -0.822396 -0.566697 0.050200 0.435400 -0.674400 1 0 1.000000 
0 44.499901 -22.423298 -38.244400 -0.823398 -0.566498 -0.033100 0.435400 -0.384300 1 0 1.000000 
RooftopCluster01a
0 45.755001 -22.971699 -57.035702 -0.822396 -0.566697 0.050200 0.435400 -0.674400 1 0 1.000000 
0 47.948502 -23.644499 -38.244400 0.283700 -0.958900 0.004900 0.437200 -0.384300 1 0 1.000000 
0 44.499901 -22.423298 -38.244400 -0.823398 -0.566498 -0.033100 0.435400 -0.384300 1 0 1.000000 
RooftopCluster01a
0 44.595699 -18.766098 -38.244400 -0.793083 0.608587 -0.025299 0.463000 -0.384300 1 0 1.000000 
0 44.499901 -22.423298 -38.244400 -0.823398 -0.566498 -0.033100 0.435400 -0.384300 1 0 1.000000 
0 44.624100 -22.840998 -19.783600 -0.934294 -0.356498 -0.001800 0.432800 -0.099200 1 0 1.000000 
RooftopCluster01a
0 44.499901 -22.423298 -38.244400 -0.823398 -0.566498 -0.033100 0.435400 -0.384300 1 0 1.000000 
0 48.072701 -24.062199 -19.783600 0.050299 -0.998472 -0.022899 0.434800 -0.099200 1 0 1.000000 
0 44.624100 -22.840998 -19.783600 -0.934294 -0.356498 -0.001800 0.432800 -0.099200 1 0 1.000000 
RooftopCluster01a
0 44.499901 -22.423298 -38.244400 -0.823398 -0.566498 -0.033100 0.435400 -0.384300 1 0 1.000000 
0 47.948502 -23.644499 -38.244400 0.283700 -0.958900 0.004900 0.437200 -0.384300 1 0 1.000000 
0 48.072701 -24.062199 -19.783600 0.050299 -0.998472 -0.022899 0.434800 -0.099200 1 0 1.000000 
RooftopCluster01a
0 47.948502 -23.644499 -38.244400 0.283700 -0.958900 0.004900 0.437200 -0.384300 1 0 1.000000 
0 50.299702 -21.159798 -19.783600 0.965337 -0.260710 -0.012400 0.460100 -0.099200 1 0 1.000000 
0 48.072701 -24.062199 -19.783600 0.050299 -0.998472 -0.022899 0.434800 -0.099200 1 0 1.000000 
RooftopCluster01a
0 44.064003 -49.117294 -23.025200 -0.366508 0.887218 0.280206 0.295000 -0.149200 1 0 1.000000 
0 50.129303 -49.117294 -23.025200 0.732917 0.621814 0.276006 0.317300 -0.149200 1 0 1.000000 
0 51.372704 -47.281097 -30.465401 0.366421 0.887251 0.280216 0.328300 -0.264100 1 0 1.000000 
RooftopCluster01a
0 50.129303 -49.117294 -23.025200 0.732917 0.621814 0.276006 0.317300 -0.149200 1 0 1.000000 
0 54.015404 -55.394398 -30.511499 0.961387 -0.075999 0.264497 0.309200 -0.264900 1 0 1.000000 
0 51.372704 -47.281097 -30.465401 0.366421 0.887251 0.280216 0.328300 -0.264100 1 0 1.000000 
RooftopCluster01a
0 50.129303 -49.117294 -23.025200 0.732917 0.621814 0.276006 0.317300 -0.149200 1 0 1.000000 
0 52.003605 -54.880096 -23.051701 0.821790 -0.508894 0.256297 0.304300 -0.149700 1 0 1.000000 
0 54.015404 -55.394398 -30.511499 0.961387 -0.075999 0.264497 0.309200 -0.264900 1 0 1.000000 
RooftopCluster01a
0 52.003605 -54.880096 -23.051701 0.821790 -0.508894 0.256297 0.304300 -0.149700 1 0 1.000000 
0 47.096603 -60.408695 -30.540001 0.227409 -0.941635 0.248209 0.271600 -0.265300 1 0 1.000000 
0 54.015404 -55.394398 -30.511499 0.961387 -0.075999 0.264497 0.309200 -0.264900 1 0 1.000000 
RooftopCluster01a
0 52.003605 -54.880096 -23.051701 0.821790 -0.508894 0.256297 0.304300 -0.149700 1 0 1.000000 
0 47.096603 -58.441696 -23.068199 -0.227192 -0.941666 0.248291 0.277000 -0.149900 1 0 1.000000 
0 47.096603 -60.408695 -30.540001 0.227409 -0.941635 0.248209 0.271600 -0.265300 1 0 1.000000 
RooftopCluster01a
0 47.096603 -58.441696 -23.068199 -0.227192 -0.941666 0.248291 0.277000 -0.149900 1 0 1.000000 
0 40.177803 -55.394402 -30.511499 -0.821811 -0.508807 0.256403 0.259700 -0.264900 1 0 1.000000 
0 47.096603 -60.408695 -30.540001 0.227409 -0.941635 0.248209 0.271600 -0.265300 1 0 1.000000 
RooftopCluster01a
0 47.096603 -58.441696 -23.068199 -0.227192 -0.941666 0.248291 0.277000 -0.149900 1 0 1.000000 
0 42.189705 -54.880100 -23.051701 -0.961427 -0.075802 0.264408 0.269100 -0.149700 1 0 1.000000 
0 40.177803 -55.394402 -30.511499 -0.821811 -0.508807 0.256403 0.259700 -0.264900 1 0 1.000000 
RooftopCluster01a
0 42.189705 -54.880100 -23.051701 -0.961427 -0.075802 0.264408 0.269100 -0.149700 1 0 1.000000 
0 42.820602 -47.281101 -30.465401 -0.732917 0.621814 0.276006 0.296600 -0.264100 1 0 1.000000 
0 40.177803 -55.394402 -30.511499 -0.821811 -0.508807 0.256403 0.259700 -0.264900 1 0 1.000000 
RooftopCluster01a
0 42.189705 -54.880100 -23.051701 -0.961427 -0.075802 0.264408 0.269100 -0.149700 1 0 1.000000 
0 44.064003 -49.117294 -23.025200 -0.366508 0.887218 0.280206 0.295000 -0.149200 1 0 1.000000 
0 42.820602 -47.281101 -30.465401 -0.732917 0.621814 0.276006 0.296600 -0.264100 1 0 1.000000 
RooftopCluster01a
0 44.064003 -49.117294 -23.025200 -0.366508 0.887218 0.280206 0.295000 -0.149200 1 0 1.000000 
0 51.372704 -47.281097 -30.465401 0.366421 0.887251 0.280216 0.328300 -0.264100 1 0 1.000000 
0 42.820602 -47.281101 -30.465401 -0.732917 0.621814 0.276006 0.296600 -0.264100 1 0 1.000000 
RooftopCluster01a
0 -31.860401 41.525902 -75.351601 -0.523830 0.851649 -0.017201 0.809800 -0.468400 1 0 1.000000 
0 -32.598301 40.247799 -75.351601 -0.494895 -0.868492 0.028300 0.810200 -0.468400 1 0 1.000000 
0 -31.731703 42.471500 8.460200 -0.856893 -0.512896 0.051700 0.809600 -0.406000 1 0 1.000000 
RooftopCluster01a
0 -32.598301 40.247799 -75.351601 -0.494895 -0.868492 0.028300 0.810200 -0.468400 1 0 1.000000 
0 -30.383402 42.471500 7.859900 0.859106 -0.503804 -0.090101 0.809300 -0.406400 1 0 1.000000 
0 -31.731703 42.471500 8.460200 -0.856893 -0.512896 0.051700 0.809600 -0.406000 1 0 1.000000 
RooftopCluster01a
0 -31.731703 42.471500 8.460200 -0.856893 -0.512896 0.051700 0.809600 -0.406000 1 0 1.000000 
0 -30.383402 42.471500 7.859900 0.859106 -0.503804 -0.090101 0.809300 -0.406400 1 0 1.000000 
0 -19.048502 41.811100 71.423302 0.488524 -0.867242 -0.096105 0.806400 -0.359100 1 0 1.000000 
RooftopCluster01a
0 -30.383402 42.471500 7.859900 0.859106 -0.503804 -0.090101 0.809300 -0.406400 1 0 1.000000 
0 -19.749802 43.087502 71.662300 0.496491 0.864384 -0.079599 0.806400 -0.358900 1 0 1.000000 
0 -19.048502 41.811100 71.423302 0.488524 -0.867242 -0.096105 0.806400 -0.359100 1 0 1.000000 
RooftopCluster01a
0 -30.383402 42.471500 7.859900 0.859106 -0.503804 -0.090101 0.809300 -0.406400 1 0 1.000000 
0 -31.084803 43.747898 8.099000 -0.007100 0.999054 0.042898 0.809200 -0.406200 1 0 1.000000 
0 -19.749802 43.087502 71.662300 0.496491 0.864384 -0.079599 0.806400 -0.358900 1 0 1.000000 
RooftopCluster01a
0 -31.084803 43.747898 8.099000 -0.007100 0.999054 0.042898 0.809200 -0.406200 1 0 1.000000 
0 -20.396801 41.811100 72.023598 -0.984295 -0.020800 0.175299 0.806800 -0.358600 1 0 1.000000 
0 -19.749802 43.087502 71.662300 0.496491 0.864384 -0.079599 0.806400 -0.358900 1 0 1.000000 
RooftopCluster01a
0 -31.084803 43.747898 8.099000 -0.007100 0.999054 0.042898 0.809200 -0.406200 1 0 1.000000 
0 -31.731703 42.471500 8.460200 -0.856893 -0.512896 0.051700 0.809600 -0.406000 1 0 1.000000 
0 -20.396801 41.811100 72.023598 -0.984295 -0.020800 0.175299 0.806800 -0.358600 1 0 1.000000 
RooftopCluster01a
0 -31.731703 42.471500 8.460200 -0.856893 -0.512896 0.051700 0.809600 -0.406000 1 0 1.000000 
0 -19.048502 41.811100 71.423302 0.488524 -0.867242 -0.096105 0.806400 -0.359100 1 0 1.000000 
0 -20.396801 41.811100 72.023598 -0.984295 -0.020800 0.175299 0.806800 -0.358600 1 0 1.000000 
RooftopCluster01a
0 -32.598301 40.247799 -75.351601 -0.494895 -0.868492 0.028300 0.810200 -0.468400 1 0 1.000000 
0 -31.122402 40.247799 -75.351601 0.999922 -0.008800 -0.008800 0.809800 -0.468400 1 0 1.000000 
0 -30.383402 42.471500 7.859900 0.859106 -0.503804 -0.090101 0.809300 -0.406400 1 0 1.000000 
RooftopCluster01a
0 -31.122402 40.247799 -75.351601 0.999922 -0.008800 -0.008800 0.809800 -0.468400 1 0 1.000000 
0 -31.084803 43.747898 8.099000 -0.007100 0.999054 0.042898 0.809200 -0.406200 1 0 1.000000 
0 -30.383402 42.471500 7.859900 0.859106 -0.503804 -0.090101 0.809300 -0.406400 1 0 1.000000 
RooftopCluster01a
0 -31.122402 40.247799 -75.351601 0.999922 -0.008800 -0.008800 0.809800 -0.468400 1 0 1.000000 
0 -31.860401 41.525902 -75.351601 -0.523830 0.851649 -0.017201 0.809800 -0.468400 1 0 1.000000 
0 -31.084803 43.747898 8.099000 -0.007100 0.999054 0.042898 0.809200 -0.406200 1 0 1.000000 
RooftopCluster01a
0 -31.860401 41.525902 -75.351601 -0.523830 0.851649 -0.017201 0.809800 -0.468400 1 0 1.000000 
0 -31.731703 42.471500 8.460200 -0.856893 -0.512896 0.051700 0.809600 -0.406000 1 0 1.000000 
0 -31.084803 43.747898 8.099000 -0.007100 0.999054 0.042898 0.809200 -0.406200 1 0 1.000000 
RooftopCluster01a
0 -32.882900 42.637299 8.115900 -0.044200 -0.008100 -0.998990 0.809800 -0.406200 1 0 1.000000 
0 -29.783401 44.633801 7.962700 -0.044200 -0.008100 -0.998990 0.808800 -0.406300 1 0 1.000000 
0 -29.810701 41.001701 7.993300 -0.044200 -0.008100 -0.998990 0.809400 -0.406300 1 0 1.000000 
RooftopCluster01a
0 39.082806 -48.813999 -20.149500 -0.463813 0.268007 0.844423 0.275600 -0.104800 1 0 1.000000 
0 39.082806 -58.026299 -20.149500 -0.463813 -0.268007 0.844423 0.248100 -0.104800 1 0 1.000000 
0 47.103004 -53.420097 -14.282700 0.001500 0.000000 0.999999 0.292000 -0.014300 1 0 1.000000 
RooftopCluster01a
0 39.082806 -58.026299 -20.149500 -0.463813 -0.268007 0.844423 0.248100 -0.104800 1 0 1.000000 
0 47.056004 -62.632397 -20.150801 0.000700 -0.537296 0.843393 0.265700 -0.104900 1 0 1.000000 
0 47.103004 -53.420097 -14.282700 0.001500 0.000000 0.999999 0.292000 -0.014300 1 0 1.000000 
RooftopCluster01a
0 47.056004 -62.632397 -20.150801 0.000700 -0.537296 0.843393 0.265700 -0.104900 1 0 1.000000 
0 55.029205 -58.026295 -20.152201 0.467189 -0.269194 0.842181 0.304400 -0.104900 1 0 1.000000 
0 47.103004 -53.420097 -14.282700 0.001500 0.000000 0.999999 0.292000 -0.014300 1 0 1.000000 
RooftopCluster01a
0 55.029205 -58.026295 -20.152201 0.467189 -0.269194 0.842181 0.304400 -0.104900 1 0 1.000000 
0 55.029205 -48.813995 -20.152201 0.467189 0.269194 0.842181 0.334600 -0.104900 1 0 1.000000 
0 47.103004 -53.420097 -14.282700 0.001500 0.000000 0.999999 0.292000 -0.014300 1 0 1.000000 
RooftopCluster01a
0 55.029205 -48.813995 -20.152201 0.467189 0.269194 0.842181 0.334600 -0.104900 1 0 1.000000 
0 47.056004 -44.207798 -20.150801 0.000700 0.537296 0.843393 0.325000 -0.104900 1 0 1.000000 
0 47.103004 -53.420097 -14.282700 0.001500 0.000000 0.999999 0.292000 -0.014300 1 0 1.000000 
RooftopCluster01a
0 47.056004 -44.207798 -20.150801 0.000700 0.537296 0.843393 0.325000 -0.104900 1 0 1.000000 
0 39.082806 -48.813999 -20.149500 -0.463813 0.268007 0.844423 0.275600 -0.104800 1 0 1.000000 
0 47.103004 -53.420097 -14.282700 0.001500 0.000000 0.999999 0.292000 -0.014300 1 0 1.000000 
RooftopCluster01a
0 55.549900 -17.128998 -20.152201 -0.000100 -0.000100 -1.000000 0.497200 -0.104900 1 0 1.000000 
0 39.733200 -15.042398 -20.150801 -0.000100 -0.000100 -1.000000 0.481500 -0.104900 1 0 1.000000 
0 48.241299 -11.520898 -20.152201 -0.000100 -0.000100 -1.000000 0.527300 -0.104900 1 0 1.000000 
RooftopCluster01a
0 55.549900 -17.128998 -20.152201 -0.000100 -0.000100 -1.000000 0.497200 -0.104900 1 0 1.000000 
0 38.533699 -24.172098 -20.149500 -0.000100 -0.000100 -1.000000 0.400700 -0.104800 1 0 1.000000 
0 39.733200 -15.042398 -20.150801 -0.000100 -0.000100 -1.000000 0.481500 -0.104900 1 0 1.000000 
RooftopCluster01a
0 55.549900 -17.128998 -20.152201 -0.000100 -0.000100 -1.000000 0.497200 -0.104900 1 0 1.000000 
0 45.842300 -29.780098 -20.149500 -0.000100 -0.000100 -1.000000 0.391700 -0.104800 1 0 1.000000 
0 38.533699 -24.172098 -20.149500 -0.000100 -0.000100 -1.000000 0.400700 -0.104800 1 0 1.000000 
RooftopCluster01a
0 55.549900 -17.128998 -20.152201 -0.000100 -0.000100 -1.000000 0.497200 -0.104900 1 0 1.000000 
0 54.350399 -26.258598 -20.150801 -0.000100 -0.000100 -1.000000 0.438000 -0.104900 1 0 1.000000 
0 45.842300 -29.780098 -20.149500 -0.000100 -0.000100 -1.000000 0.391700 -0.104800 1 0 1.000000 
RooftopCluster01a
0 -27.414501 44.875599 20.487200 -0.000200 0.008400 0.999965 0.808200 -0.397000 1 0 1.000000 
0 -31.168503 42.474400 20.506701 -0.000200 0.008400 0.999965 0.809400 -0.397000 1 0 1.000000 
0 -27.447802 40.440102 20.524599 -0.000200 0.008400 0.999965 0.808900 -0.397000 1 0 1.000000 
RooftopCluster01a
0 39.733200 -15.042398 -20.150801 -0.425810 0.327608 0.843421 0.481500 -0.104900 1 0 1.000000 
0 38.533699 -24.172098 -20.149500 -0.495005 -0.204802 0.844409 0.400700 -0.104800 1 0 1.000000 
0 47.070400 -20.613197 -14.282700 0.000900 0.001200 0.999999 0.455800 -0.014300 1 0 1.000000 
RooftopCluster01a
0 38.533699 -24.172098 -20.149500 -0.495005 -0.204802 0.844409 0.400700 -0.104800 1 0 1.000000 
0 45.842300 -29.780098 -20.149500 -0.069702 -0.531117 0.844427 0.391700 -0.104800 1 0 1.000000 
0 47.070400 -20.613197 -14.282700 0.000900 0.001200 0.999999 0.455800 -0.014300 1 0 1.000000 
RooftopCluster01a
0 45.842300 -29.780098 -20.149500 -0.069702 -0.531117 0.844427 0.391700 -0.104800 1 0 1.000000 
0 54.350399 -26.258598 -20.150801 0.426700 -0.326500 0.843400 0.438000 -0.104900 1 0 1.000000 
0 47.070400 -20.613197 -14.282700 0.000900 0.001200 0.999999 0.455800 -0.014300 1 0 1.000000 
RooftopCluster01a
0 54.350399 -26.258598 -20.150801 0.426700 -0.326500 0.843400 0.438000 -0.104900 1 0 1.000000 
0 55.549900 -17.128998 -20.152201 0.497982 0.206793 0.842170 0.497200 -0.104900 1 0 1.000000 
0 47.070400 -20.613197 -14.282700 0.000900 0.001200 0.999999 0.455800 -0.014300 1 0 1.000000 
RooftopCluster01a
0 55.549900 -17.128998 -20.152201 0.497982 0.206793 0.842170 0.497200 -0.104900 1 0 1.000000 
0 48.241299 -11.520898 -20.152201 0.070899 0.534495 0.842192 0.527300 -0.104900 1 0 1.000000 
0 47.070400 -20.613197 -14.282700 0.000900 0.001200 0.999999 0.455800 -0.014300 1 0 1.000000 
RooftopCluster01a
0 48.241299 -11.520898 -20.152201 0.070899 0.534495 0.842192 0.527300 -0.104900 1 0 1.000000 
0 39.733200 -15.042398 -20.150801 -0.425810 0.327608 0.843421 0.481500 -0.104900 1 0 1.000000 
0 47.070400 -20.613197 -14.282700 0.000900 0.001200 0.999999 0.455800 -0.014300 1 0 1.000000 
RooftopCluster01a
0 44.367302 -53.074295 -19.783600 0.000000 0.000000 1.000000 0.283000 -0.099200 1 0 1.000000 
0 50.286705 -53.074295 -19.783600 0.000000 0.000000 1.000000 0.304300 -0.099200 1 0 1.000000 
0 47.327003 -50.923996 -19.783600 0.000000 0.000000 1.000000 0.301100 -0.099200 1 0 1.000000 
RooftopCluster01a
0 44.367302 -53.074295 -19.783600 0.000000 0.000000 1.000000 0.283000 -0.099200 1 0 1.000000 
0 49.156204 -56.553696 -19.783600 0.000000 0.000000 1.000000 0.289600 -0.099200 1 0 1.000000 
0 50.286705 -53.074295 -19.783600 0.000000 0.000000 1.000000 0.304300 -0.099200 1 0 1.000000 
RooftopCluster01a
0 44.367302 -53.074295 -19.783600 0.000000 0.000000 1.000000 0.283000 -0.099200 1 0 1.000000 
0 45.497803 -56.553696 -19.783600 0.000000 0.000000 1.000000 0.276700 -0.099200 1 0 1.000000 
0 49.156204 -56.553696 -19.783600 0.000000 0.000000 1.000000 0.289600 -0.099200 1 0 1.000000 
RooftopCluster01a
0 -32.882900 42.637299 8.115900 -0.467618 -0.882334 0.053102 0.809800 -0.406200 1 0 1.000000 
0 -29.810701 41.001701 7.993300 -0.473480 -0.879262 0.052098 0.809400 -0.406300 1 0 1.000000 
0 -31.168503 42.474400 20.506701 -0.473480 -0.879262 0.052098 0.809400 -0.397000 1 0 1.000000 
RooftopCluster01a
0 -29.810701 41.001701 7.993300 -0.473480 -0.879262 0.052098 0.809400 -0.406300 1 0 1.000000 
0 -27.447802 40.440102 20.524599 -0.479284 -0.876171 0.051098 0.808900 -0.397000 1 0 1.000000 
0 -31.168503 42.474400 20.506701 -0.473480 -0.879262 0.052098 0.809400 -0.397000 1 0 1.000000 
RooftopCluster01a
0 -29.810701 41.001701 7.993300 0.982566 -0.009000 -0.185694 0.809400 -0.406300 1 0 1.000000 
0 -29.783401 44.633801 7.962700 0.982566 -0.009000 -0.185694 0.808800 -0.406300 1 0 1.000000 
0 -27.447802 40.440102 20.524599 0.982566 -0.009000 -0.185694 0.808900 -0.397000 1 0 1.000000 
RooftopCluster01a
0 -29.783401 44.633801 7.962700 0.982566 -0.009000 -0.185694 0.808800 -0.406300 1 0 1.000000 
0 -27.414501 44.875599 20.487200 0.982566 -0.009000 -0.185694 0.808200 -0.397000 1 0 1.000000 
0 -27.447802 40.440102 20.524599 0.982566 -0.009000 -0.185694 0.808900 -0.397000 1 0 1.000000 
RooftopCluster01a
0 -29.783401 44.633801 7.962700 -0.536606 0.839510 0.085301 0.808800 -0.406300 1 0 1.000000 
0 -32.882900 42.637299 8.115900 -0.536606 0.839510 0.085301 0.809800 -0.406200 1 0 1.000000 
0 -27.414501 44.875599 20.487200 -0.536606 0.839510 0.085301 0.808200 -0.397000 1 0 1.000000 
RooftopCluster01a
0 -32.882900 42.637299 8.115900 -0.536606 0.839510 0.085301 0.809800 -0.406200 1 0 1.000000 
0 -31.168503 42.474400 20.506701 -0.536535 0.839555 0.085306 0.809400 -0.397000 1 0 1.000000 
0 -27.414501 44.875599 20.487200 -0.536606 0.839510 0.085301 0.808200 -0.397000 1 0 1.000000 
RooftopCluster01a
0 -33.528400 41.416199 -41.049500 -0.044200 -0.008100 -0.998990 0.810200 -0.442800 1 0 1.000000 
0 -30.428902 43.412701 -41.202801 -0.044200 -0.008100 -0.998990 0.809100 -0.443000 1 0 1.000000 
0 -30.456202 39.780701 -41.172100 -0.044200 -0.008100 -0.998990 0.809800 -0.442900 1 0 1.000000 
RooftopCluster01a
0 47.096603 -60.408695 -30.540001 -0.000000 0.005700 -0.999984 0.271600 -0.265300 1 0 1.000000 
0 51.372704 -47.281097 -30.465401 -0.000000 0.005700 -0.999984 0.328300 -0.264100 1 0 1.000000 
0 54.015404 -55.394398 -30.511499 -0.000000 0.005700 -0.999984 0.309200 -0.264900 1 0 1.000000 
RooftopCluster01a
0 47.096603 -60.408695 -30.540001 -0.000000 0.005700 -0.999984 0.271600 -0.265300 1 0 1.000000 
0 42.820602 -47.281101 -30.465401 -0.000000 0.005700 -0.999984 0.296600 -0.264100 1 0 1.000000 
0 51.372704 -47.281097 -30.465401 -0.000000 0.005700 -0.999984 0.328300 -0.264100 1 0 1.000000 
RooftopCluster01a
0 47.096603 -60.408695 -30.540001 -0.000000 0.005700 -0.999984 0.271600 -0.265300 1 0 1.000000 
0 40.177803 -55.394402 -30.511499 -0.000000 0.005700 -0.999984 0.259700 -0.264900 1 0 1.000000 
0 42.820602 -47.281101 -30.465401 -0.000000 0.005700 -0.999984 0.296600 -0.264100 1 0 1.000000 
RooftopCluster01a
0 -30.187202 43.861301 -32.620399 -0.000200 0.008400 0.999965 0.809000 -0.436600 1 0 1.000000 
0 -33.941200 41.460201 -32.600899 -0.000200 0.008400 0.999965 0.810300 -0.436600 1 0 1.000000 
0 -30.220503 39.425800 -32.583000 -0.000200 0.008400 0.999965 0.809800 -0.436500 1 0 1.000000 
RooftopCluster01a
0 55.029205 -58.026295 -20.152201 -0.000200 -0.000000 -1.000000 0.304400 -0.104900 1 0 1.000000 
0 47.056004 -44.207798 -20.150801 -0.000200 -0.000000 -1.000000 0.325000 -0.104900 1 0 1.000000 
0 55.029205 -48.813995 -20.152201 -0.000200 -0.000000 -1.000000 0.334600 -0.104900 1 0 1.000000 
RooftopCluster01a
0 55.029205 -58.026295 -20.152201 -0.000200 -0.000000 -1.000000 0.304400 -0.104900 1 0 1.000000 
0 39.082806 -48.813999 -20.149500 -0.000200 -0.000000 -1.000000 0.275600 -0.104800 1 0 1.000000 
0 47.056004 -44.207798 -20.150801 -0.000200 -0.000000 -1.000000 0.325000 -0.104900 1 0 1.000000 
RooftopCluster01a
0 55.029205 -58.026295 -20.152201 -0.000200 -0.000000 -1.000000 0.304400 -0.104900 1 0 1.000000 
0 39.082806 -58.026299 -20.149500 -0.000200 -0.000000 -1.000000 0.248100 -0.104800 1 0 1.000000 
0 39.082806 -48.813999 -20.149500 -0.000200 -0.000000 -1.000000 0.275600 -0.104800 1 0 1.000000 
RooftopCluster01a
0 55.029205 -58.026295 -20.152201 -0.000200 -0.000000 -1.000000 0.304400 -0.104900 1 0 1.000000 
0 47.056004 -62.632397 -20.150801 -0.000200 -0.000000 -1.000000 0.265700 -0.104900 1 0 1.000000 
0 39.082806 -58.026299 -20.149500 -0.000200 -0.000000 -1.000000 0.248100 -0.104800 1 0 1.000000 
RooftopCluster01a
0 -33.528400 41.416199 -41.049500 -0.470384 -0.882270 -0.018399 0.810200 -0.442800 1 0 1.000000 
0 -30.456202 39.780701 -41.172100 -0.474976 -0.879755 -0.020699 0.809800 -0.442900 1 0 1.000000 
0 -33.941200 41.460201 -32.600899 -0.474976 -0.879755 -0.020699 0.810300 -0.436600 1 0 1.000000 
RooftopCluster01a
0 -30.456202 39.780701 -41.172100 -0.474976 -0.879755 -0.020699 0.809800 -0.442900 1 0 1.000000 
0 -30.220503 39.425800 -32.583000 -0.479516 -0.877229 -0.023101 0.809800 -0.436500 1 0 1.000000 
0 -33.941200 41.460201 -32.600899 -0.474976 -0.879755 -0.020699 0.810300 -0.436600 1 0 1.000000 
RooftopCluster01a
0 -30.456202 39.780701 -41.172100 0.999587 -0.007700 -0.027700 0.809800 -0.442900 1 0 1.000000 
0 -30.428902 43.412701 -41.202801 0.999587 -0.007700 -0.027700 0.809100 -0.443000 1 0 1.000000 
0 -30.220503 39.425800 -32.583000 0.999587 -0.007700 -0.027700 0.809800 -0.436500 1 0 1.000000 
RooftopCluster01a
0 -30.428902 43.412701 -41.202801 0.999587 -0.007700 -0.027700 0.809100 -0.443000 1 0 1.000000 
0 -30.187202 43.861301 -32.620399 0.999587 -0.007700 -0.027700 0.809000 -0.436600 1 0 1.000000 
0 -30.220503 39.425800 -32.583000 0.999587 -0.007700 -0.027700 0.809800 -0.436500 1 0 1.000000 
RooftopCluster01a
0 -30.428902 43.412701 -41.202801 -0.542299 0.839698 -0.028600 0.809100 -0.443000 1 0 1.000000 
0 -33.528400 41.416199 -41.049500 -0.540509 0.840814 -0.029700 0.810200 -0.442800 1 0 1.000000 
0 -30.187202 43.861301 -32.620399 -0.540509 0.840814 -0.029700 0.809000 -0.436600 1 0 1.000000 
RooftopCluster01a
0 -33.528400 41.416199 -41.049500 -0.540509 0.840814 -0.029700 0.810200 -0.442800 1 0 1.000000 
0 -33.941200 41.460201 -32.600899 -0.538672 0.841956 -0.030698 0.810300 -0.436600 1 0 1.000000 
0 -30.187202 43.861301 -32.620399 -0.540509 0.840814 -0.029700 0.809000 -0.436600 1 0 1.000000 
RooftopCluster01a
0 -16.483803 49.955601 70.698097 0.310992 0.948375 -0.062198 0.804700 -0.359600 1 0 1.000000 
0 -16.488901 49.860600 69.225304 0.310992 0.948375 -0.062198 0.804800 -0.360700 1 0 1.000000 
0 -17.701101 50.305000 69.940300 0.310992 0.948375 -0.062198 0.805000 -0.360200 1 0 1.000000 
RooftopCluster01a
0 44.624100 -22.840998 -19.783600 0.000000 0.000000 1.000000 0.432800 -0.099200 1 0 1.000000 
0 48.227600 -18.144798 -19.783600 0.000000 0.000000 1.000000 0.476500 -0.099200 1 0 1.000000 
0 44.719898 -19.183899 -19.783600 0.000000 0.000000 1.000000 0.460100 -0.099200 1 0 1.000000 
RooftopCluster01a
0 44.624100 -22.840998 -19.783600 0.000000 0.000000 1.000000 0.432800 -0.099200 1 0 1.000000 
0 50.299702 -21.159798 -19.783600 0.000000 0.000000 1.000000 0.460100 -0.099200 1 0 1.000000 
0 48.227600 -18.144798 -19.783600 0.000000 0.000000 1.000000 0.476500 -0.099200 1 0 1.000000 
RooftopCluster01a
0 44.624100 -22.840998 -19.783600 0.000000 0.000000 1.000000 0.432800 -0.099200 1 0 1.000000 
0 48.072701 -24.062199 -19.783600 0.000000 0.000000 1.000000 0.434800 -0.099200 1 0 1.000000 
0 50.299702 -21.159798 -19.783600 0.000000 0.000000 1.000000 0.460100 -0.099200 1 0 1.000000 
RooftopCluster01a
0 -31.699499 4.530499 75.676598 -0.310992 -0.948375 0.062198 0.822000 -0.355900 1 0 1.000000 
0 -32.916901 4.879899 74.918800 -0.310992 -0.948375 0.062198 0.822000 -0.356500 1 0 1.000000 
0 -31.704599 4.435499 74.203796 -0.310992 -0.948375 0.062198 0.822000 -0.357000 1 0 1.000000 
RooftopCluster01a
0 52.759602 -24.606598 -30.540001 -0.004500 0.003500 -0.999984 0.443900 -0.265300 1 0 1.000000 
0 44.947800 -13.222598 -30.465401 -0.004500 0.003500 -0.999984 0.508600 -0.264100 1 0 1.000000 
0 52.993301 -16.064999 -30.511499 -0.004500 0.003500 -0.999984 0.500300 -0.264900 1 0 1.000000 
RooftopCluster01a
0 52.759602 -24.606598 -30.540001 -0.004500 0.003500 -0.999984 0.443900 -0.265300 1 0 1.000000 
0 39.741600 -20.007399 -30.465401 -0.004500 0.003500 -0.999984 0.438200 -0.264100 1 0 1.000000 
0 44.947800 -13.222598 -30.465401 -0.004500 0.003500 -0.999984 0.508600 -0.264100 1 0 1.000000 
RooftopCluster01a
0 52.759602 -24.606598 -30.540001 -0.004500 0.003500 -0.999984 0.443900 -0.265300 1 0 1.000000 
0 44.569599 -27.043098 -30.511499 -0.004500 0.003500 -0.999984 0.404100 -0.264900 1 0 1.000000 
0 39.741600 -20.007399 -30.465401 -0.004500 0.003500 -0.999984 0.438200 -0.264100 1 0 1.000000 
RooftopCluster01a
0 20.629698 37.197601 68.729599 0.951058 -0.302687 -0.062197 0.793000 -0.361100 1 0 1.000000 
0 20.534698 37.201801 67.256798 0.951058 -0.302687 -0.062197 0.793000 -0.362200 1 0 1.000000 
0 20.968498 38.417900 67.971802 0.951058 -0.302687 -0.062197 0.793000 -0.361600 1 0 1.000000 
end
