version 1
nodes
  0 "static_prop" -1
end
skeleton
time 0
0 0.000000 0.000000 0.000000 0.000000 0.000000 0.000000
end
triangles
canister01a
0 -4.841700 -0.000000 -28.874300 -0.000000 0.204206 -0.978928 0.500000 -0.999500 1 0 1.000000 
0 3.401600 -2.080200 -29.308201 -0.000000 0.204206 -0.978928 0.403600 -0.884200 1 0 1.000000 
0 -3.804400 -2.080200 -29.308201 -0.000000 0.204206 -0.978928 0.403600 -0.991200 1 0 1.000000 
canister01a
0 1.878800 3.603000 -29.308201 0.000000 0.000000 -1.000000 0.609400 -0.906800 1 0 1.000000 
0 3.401600 -2.080200 -29.308201 0.000000 0.000000 -1.000000 0.403600 -0.884200 1 0 1.000000 
0 -2.281600 3.603000 -29.308201 0.000000 0.000000 -1.000000 0.609400 -0.968600 1 0 1.000000 
canister01a
0 3.401600 2.080200 -29.308201 0.000000 0.000000 -1.000000 0.596400 -0.884200 1 0 1.000000 
0 3.401600 -2.080200 -29.308201 0.000000 0.000000 -1.000000 0.403600 -0.884200 1 0 1.000000 
0 1.878800 3.603000 -29.308201 0.000000 0.000000 -1.000000 0.609400 -0.906800 1 0 1.000000 
canister01a
0 -3.804400 -2.080200 -29.308201 0.000000 0.000000 -1.000000 0.403600 -0.991200 1 0 1.000000 
0 3.401600 -2.080200 -29.308201 0.000000 0.000000 -1.000000 0.403600 -0.884200 1 0 1.000000 
0 -0.201400 -4.160400 -29.308201 0.000000 0.000000 -1.000000 0.388000 -0.937700 1 0 1.000000 
canister01a
0 -1.832800 2.825700 20.771500 -0.353998 0.611897 0.707296 0.833300 -0.120500 1 0 1.000000 
0 -3.804400 2.080200 19.856899 -0.726301 0.408801 0.552601 0.916700 -0.140800 1 0 1.000000 
0 -3.027100 1.631400 20.771500 -0.613714 0.379909 0.692116 0.916700 -0.120500 1 0 1.000000 
canister01a
0 -0.201400 2.402000 21.615299 -0.062404 0.698643 0.712744 0.750000 -0.107900 1 0 1.000000 
0 -1.832800 2.825700 20.771500 -0.353998 0.611897 0.707296 0.833300 -0.120500 1 0 1.000000 
0 -1.402400 2.080200 21.615299 -0.403416 0.573823 0.712729 0.833300 -0.107900 1 0 1.000000 
canister01a
0 -1.402400 2.080200 21.615299 -0.403416 0.573823 0.712729 0.833300 -0.107900 1 0 1.000000 
0 -1.832800 2.825700 20.771500 -0.353998 0.611897 0.707296 0.833300 -0.120500 1 0 1.000000 
0 -3.027100 1.631400 20.771500 -0.613714 0.379909 0.692116 0.916700 -0.120500 1 0 1.000000 
canister01a
0 -1.402400 2.080200 21.615299 -0.403416 0.573823 0.712729 0.833300 -0.107900 1 0 1.000000 
0 -3.027100 1.631400 20.771500 -0.613714 0.379909 0.692116 0.916700 -0.120500 1 0 1.000000 
0 -2.281600 1.201000 21.615299 -0.553586 0.256893 0.792180 0.916700 -0.114700 1 0 1.000000 
canister01a
0 -2.281600 1.201000 21.615299 -0.553586 0.256893 0.792180 0.916700 -0.114700 1 0 1.000000 
0 -3.027100 1.631400 20.771500 -0.613714 0.379909 0.692116 0.916700 -0.120500 1 0 1.000000 
0 -3.517300 -0.000000 20.914000 -0.694901 -0.002300 0.719101 1.000000 -0.118300 1 0 1.000000 
canister01a
0 -3.027100 1.631400 20.771500 -0.613714 0.379909 0.692116 0.916700 -0.120500 1 0 1.000000 
0 -3.804400 2.080200 19.856899 -0.726301 0.408801 0.552601 0.916700 -0.140800 1 0 1.000000 
0 -3.517300 -0.000000 20.914000 -0.694901 -0.002300 0.719101 1.000000 -0.118300 1 0 1.000000 
canister01a
0 -3.804400 2.080200 19.856899 -0.726301 0.408801 0.552601 0.916700 -0.140800 1 0 1.000000 
0 -4.841700 -0.000000 18.698200 -0.965843 -0.002900 0.259112 1.000000 -0.158000 1 0 1.000000 
0 -3.517300 -0.000000 20.914000 -0.694901 -0.002300 0.719101 1.000000 -0.118300 1 0 1.000000 
canister01a
0 -3.804400 2.080200 19.856899 -0.726301 0.408801 0.552601 0.916700 -0.140800 1 0 1.000000 
0 -4.220100 2.320200 18.698200 -0.837862 0.480478 0.259088 0.916700 -0.158000 1 0 1.000000 
0 -4.841700 -0.000000 18.698200 -0.965843 -0.002900 0.259112 1.000000 -0.158000 1 0 1.000000 
canister01a
0 -4.220100 2.320200 18.698200 -0.837862 0.480478 0.259088 0.916700 -0.158000 1 0 1.000000 
0 -4.841700 -0.000000 -28.874300 -0.913684 0.036399 -0.404793 1.000000 -0.864400 1 0 1.000000 
0 -4.841700 -0.000000 18.698200 -0.965843 -0.002900 0.259112 1.000000 -0.158000 1 0 1.000000 
canister01a
0 -4.220100 2.320200 18.698200 -0.837862 0.480478 0.259088 0.916700 -0.158000 1 0 1.000000 
0 -4.220100 2.320200 -28.874300 -0.745174 0.530881 -0.403586 0.916700 -0.864400 1 0 1.000000 
0 -4.841700 -0.000000 -28.874300 -0.913684 0.036399 -0.404793 1.000000 -0.864400 1 0 1.000000 
canister01a
0 -4.220100 2.320200 -28.874300 -0.745174 0.530881 -0.403586 0.916700 -0.864400 1 0 1.000000 
0 -2.281600 3.603000 -29.308201 -0.241306 0.418610 -0.875521 0.833300 -0.870800 1 0 1.000000 
0 -4.841700 -0.000000 -28.874300 -0.913684 0.036399 -0.404793 1.000000 -0.864400 1 0 1.000000 
canister01a
0 -2.521600 4.018600 -28.874300 -0.421573 0.845945 -0.326579 0.833300 -0.864400 1 0 1.000000 
0 -2.281600 3.603000 -29.308201 -0.241306 0.418610 -0.875521 0.833300 -0.870800 1 0 1.000000 
0 -4.220100 2.320200 -28.874300 -0.745174 0.530881 -0.403586 0.916700 -0.864400 1 0 1.000000 
canister01a
0 -2.521600 4.018600 18.698200 -0.485407 0.835012 0.259104 0.833300 -0.158000 1 0 1.000000 
0 -2.521600 4.018600 -28.874300 -0.421573 0.845945 -0.326579 0.833300 -0.864400 1 0 1.000000 
0 -4.220100 2.320200 -28.874300 -0.745174 0.530881 -0.403586 0.916700 -0.864400 1 0 1.000000 
canister01a
0 -0.201400 4.640300 18.698200 -0.002900 0.965843 0.259112 0.750000 -0.158000 1 0 1.000000 
0 -2.521600 4.018600 -28.874300 -0.421573 0.845945 -0.326579 0.833300 -0.864400 1 0 1.000000 
0 -2.521600 4.018600 18.698200 -0.485407 0.835012 0.259104 0.833300 -0.158000 1 0 1.000000 
canister01a
0 -0.201400 3.262800 20.771500 0.010100 0.776469 0.630075 0.750000 -0.120500 1 0 1.000000 
0 -0.201400 4.640300 18.698200 -0.002900 0.965843 0.259112 0.750000 -0.158000 1 0 1.000000 
0 -2.521600 4.018600 18.698200 -0.485407 0.835012 0.259104 0.833300 -0.158000 1 0 1.000000 
canister01a
0 1.878800 3.603000 19.856899 0.408801 0.726301 0.552601 0.666700 -0.140800 1 0 1.000000 
0 -0.201400 4.640300 18.698200 -0.002900 0.965843 0.259112 0.750000 -0.158000 1 0 1.000000 
0 -0.201400 3.262800 20.771500 0.010100 0.776469 0.630075 0.750000 -0.120500 1 0 1.000000 
canister01a
0 1.430000 2.825700 20.771500 0.352906 0.612510 0.707311 0.666700 -0.120500 1 0 1.000000 
0 1.878800 3.603000 19.856899 0.408801 0.726301 0.552601 0.666700 -0.140800 1 0 1.000000 
0 -0.201400 3.262800 20.771500 0.010100 0.776469 0.630075 0.750000 -0.120500 1 0 1.000000 
canister01a
0 2.624300 1.631400 20.771500 0.611897 0.353998 0.707296 0.583300 -0.120500 1 0 1.000000 
0 1.878800 3.603000 19.856899 0.408801 0.726301 0.552601 0.666700 -0.140800 1 0 1.000000 
0 1.430000 2.825700 20.771500 0.352906 0.612510 0.707311 0.666700 -0.120500 1 0 1.000000 
canister01a
0 1.878800 1.201000 21.615299 0.573823 0.403416 0.712729 0.583300 -0.107900 1 0 1.000000 
0 2.624300 1.631400 20.771500 0.611897 0.353998 0.707296 0.583300 -0.120500 1 0 1.000000 
0 1.430000 2.825700 20.771500 0.352906 0.612510 0.707311 0.666700 -0.120500 1 0 1.000000 
canister01a
0 -2.281600 1.201000 21.615299 -0.553586 0.256893 0.792180 0.916700 -0.114700 1 0 1.000000 
0 -3.517300 -0.000000 20.914000 -0.694901 -0.002300 0.719101 1.000000 -0.118300 1 0 1.000000 
0 -2.603400 -0.000000 21.615299 -0.607878 -0.054298 0.792171 1.000000 -0.114700 1 0 1.000000 
canister01a
0 -0.201400 3.262800 20.771500 0.010100 0.776469 0.630075 0.750000 -0.120500 1 0 1.000000 
0 -2.521600 4.018600 18.698200 -0.485407 0.835012 0.259104 0.833300 -0.158000 1 0 1.000000 
0 -2.281600 3.603000 19.856899 -0.424594 0.717190 0.552592 0.833300 -0.140800 1 0 1.000000 
canister01a
0 1.878800 1.201000 21.615299 0.573823 0.403416 0.712729 0.583300 -0.107900 1 0 1.000000 
0 1.430000 2.825700 20.771500 0.352906 0.612510 0.707311 0.666700 -0.120500 1 0 1.000000 
0 0.999600 2.080200 21.615299 0.295316 0.636234 0.712738 0.666700 -0.107900 1 0 1.000000 
canister01a
0 0.999600 2.080200 21.615299 0.295316 0.636234 0.712738 0.666700 -0.107900 1 0 1.000000 
0 1.430000 2.825700 20.771500 0.352906 0.612510 0.707311 0.666700 -0.120500 1 0 1.000000 
0 -0.201400 3.262800 20.771500 0.010100 0.776469 0.630075 0.750000 -0.120500 1 0 1.000000 
canister01a
0 0.999600 2.080200 21.615299 0.295316 0.636234 0.712738 0.666700 -0.107900 1 0 1.000000 
0 -0.201400 3.262800 20.771500 0.010100 0.776469 0.630075 0.750000 -0.120500 1 0 1.000000 
0 -0.201400 2.402000 21.615299 -0.062404 0.698643 0.712744 0.750000 -0.107900 1 0 1.000000 
canister01a
0 -0.201400 2.402000 21.615299 -0.062404 0.698643 0.712744 0.750000 -0.107900 1 0 1.000000 
0 -0.201400 3.262800 20.771500 0.010100 0.776469 0.630075 0.750000 -0.120500 1 0 1.000000 
0 -1.832800 2.825700 20.771500 -0.353998 0.611897 0.707296 0.833300 -0.120500 1 0 1.000000 
canister01a
0 -0.201400 3.262800 20.771500 0.010100 0.776469 0.630075 0.750000 -0.120500 1 0 1.000000 
0 -2.281600 3.603000 19.856899 -0.424594 0.717190 0.552592 0.833300 -0.140800 1 0 1.000000 
0 -1.832800 2.825700 20.771500 -0.353998 0.611897 0.707296 0.833300 -0.120500 1 0 1.000000 
canister01a
0 -1.832800 2.825700 20.771500 -0.353998 0.611897 0.707296 0.833300 -0.120500 1 0 1.000000 
0 -2.281600 3.603000 19.856899 -0.424594 0.717190 0.552592 0.833300 -0.140800 1 0 1.000000 
0 -3.804400 2.080200 19.856899 -0.726301 0.408801 0.552601 0.916700 -0.140800 1 0 1.000000 
canister01a
0 -2.281600 3.603000 19.856899 -0.424594 0.717190 0.552592 0.833300 -0.140800 1 0 1.000000 
0 -4.220100 2.320200 18.698200 -0.837862 0.480478 0.259088 0.916700 -0.158000 1 0 1.000000 
0 -3.804400 2.080200 19.856899 -0.726301 0.408801 0.552601 0.916700 -0.140800 1 0 1.000000 
canister01a
0 -2.281600 3.603000 19.856899 -0.424594 0.717190 0.552592 0.833300 -0.140800 1 0 1.000000 
0 -2.521600 4.018600 18.698200 -0.485407 0.835012 0.259104 0.833300 -0.158000 1 0 1.000000 
0 -4.220100 2.320200 18.698200 -0.837862 0.480478 0.259088 0.916700 -0.158000 1 0 1.000000 
canister01a
0 -2.521600 4.018600 18.698200 -0.485407 0.835012 0.259104 0.833300 -0.158000 1 0 1.000000 
0 -4.220100 2.320200 -28.874300 -0.745174 0.530881 -0.403586 0.916700 -0.864400 1 0 1.000000 
0 -4.220100 2.320200 18.698200 -0.837862 0.480478 0.259088 0.916700 -0.158000 1 0 1.000000 
canister01a
0 3.817200 2.320200 18.698200 0.835012 0.485407 0.259104 0.583300 -0.158000 1 0 1.000000 
0 2.118700 4.018600 18.698200 0.445999 0.881298 0.156200 0.666700 -0.158000 1 0 1.000000 
0 1.878800 3.603000 19.856899 0.408801 0.726301 0.552601 0.666700 -0.140800 1 0 1.000000 
canister01a
0 1.878800 3.603000 19.856899 0.408801 0.726301 0.552601 0.666700 -0.140800 1 0 1.000000 
0 2.118700 4.018600 18.698200 0.445999 0.881298 0.156200 0.666700 -0.158000 1 0 1.000000 
0 -0.201400 4.640300 18.698200 -0.002900 0.965843 0.259112 0.750000 -0.158000 1 0 1.000000 
canister01a
0 2.118700 4.018600 18.698200 0.445999 0.881298 0.156200 0.666700 -0.158000 1 0 1.000000 
0 -0.201400 4.640300 -28.874300 -0.005900 0.916927 -0.399012 0.750000 -0.864400 1 0 1.000000 
0 -0.201400 4.640300 18.698200 -0.002900 0.965843 0.259112 0.750000 -0.158000 1 0 1.000000 
canister01a
0 -0.201400 4.640300 18.698200 -0.002900 0.965843 0.259112 0.750000 -0.158000 1 0 1.000000 
0 -0.201400 4.640300 -28.874300 -0.005900 0.916927 -0.399012 0.750000 -0.864400 1 0 1.000000 
0 -2.521600 4.018600 -28.874300 -0.421573 0.845945 -0.326579 0.833300 -0.864400 1 0 1.000000 
canister01a
0 -0.201400 4.640300 -28.874300 -0.005900 0.916927 -0.399012 0.750000 -0.864400 1 0 1.000000 
0 -2.281600 3.603000 -29.308201 -0.241306 0.418610 -0.875521 0.833300 -0.870800 1 0 1.000000 
0 -2.521600 4.018600 -28.874300 -0.421573 0.845945 -0.326579 0.833300 -0.864400 1 0 1.000000 
canister01a
0 -0.201400 4.640300 -28.874300 -0.005900 0.916927 -0.399012 0.750000 -0.864400 1 0 1.000000 
0 1.878800 3.603000 -29.308201 0.294790 0.518783 -0.802473 0.666700 -0.870800 1 0 1.000000 
0 -2.281600 3.603000 -29.308201 -0.241306 0.418610 -0.875521 0.833300 -0.870800 1 0 1.000000 
canister01a
0 2.118700 4.018600 -28.874300 0.521788 0.788082 -0.326593 0.666700 -0.864400 1 0 1.000000 
0 1.878800 3.603000 -29.308201 0.294790 0.518783 -0.802473 0.666700 -0.870800 1 0 1.000000 
0 -0.201400 4.640300 -28.874300 -0.005900 0.916927 -0.399012 0.750000 -0.864400 1 0 1.000000 
canister01a
0 3.817200 2.320200 -28.874300 0.810634 0.431418 -0.395917 0.583300 -0.864400 1 0 1.000000 
0 1.878800 3.603000 -29.308201 0.294790 0.518783 -0.802473 0.666700 -0.870800 1 0 1.000000 
0 2.118700 4.018600 -28.874300 0.521788 0.788082 -0.326593 0.666700 -0.864400 1 0 1.000000 
canister01a
0 3.817200 2.320200 18.698200 0.835012 0.485407 0.259104 0.583300 -0.158000 1 0 1.000000 
0 3.817200 2.320200 -28.874300 0.810634 0.431418 -0.395917 0.583300 -0.864400 1 0 1.000000 
0 2.118700 4.018600 -28.874300 0.521788 0.788082 -0.326593 0.666700 -0.864400 1 0 1.000000 
canister01a
0 4.438900 0.000000 18.698200 0.965843 0.002900 0.259112 0.500000 -0.158000 1 0 1.000000 
0 3.817200 2.320200 -28.874300 0.810634 0.431418 -0.395917 0.583300 -0.864400 1 0 1.000000 
0 3.817200 2.320200 18.698200 0.835012 0.485407 0.259104 0.583300 -0.158000 1 0 1.000000 
canister01a
0 4.438900 0.000000 18.698200 0.965843 0.002900 0.259112 0.500000 -0.158000 1 0 1.000000 
0 4.438900 0.000000 -28.874300 0.887026 -0.049901 -0.459014 0.500000 -0.864400 1 0 1.000000 
0 3.817200 2.320200 -28.874300 0.810634 0.431418 -0.395917 0.583300 -0.864400 1 0 1.000000 
canister01a
0 3.817200 -2.320200 18.698200 0.837862 -0.480478 0.259088 0.416700 -0.158000 1 0 1.000000 
0 4.438900 0.000000 -28.874300 0.887026 -0.049901 -0.459014 0.500000 -0.864400 1 0 1.000000 
0 4.438900 0.000000 18.698200 0.965843 0.002900 0.259112 0.500000 -0.158000 1 0 1.000000 
canister01a
0 3.817200 -2.320200 18.698200 0.837862 -0.480478 0.259088 0.416700 -0.158000 1 0 1.000000 
0 3.817200 -2.320200 -28.874300 0.788082 -0.521788 -0.326593 0.416700 -0.864400 1 0 1.000000 
0 4.438900 0.000000 -28.874300 0.887026 -0.049901 -0.459014 0.500000 -0.864400 1 0 1.000000 
canister01a
0 2.118700 -4.018600 18.698200 0.485407 -0.835012 0.259104 0.333300 -0.158000 1 0 1.000000 
0 3.817200 -2.320200 -28.874300 0.788082 -0.521788 -0.326593 0.416700 -0.864400 1 0 1.000000 
0 3.817200 -2.320200 18.698200 0.837862 -0.480478 0.259088 0.416700 -0.158000 1 0 1.000000 
canister01a
0 2.118700 -4.018600 18.698200 0.485407 -0.835012 0.259104 0.333300 -0.158000 1 0 1.000000 
0 2.118700 -4.018600 -28.874300 0.400314 -0.793128 -0.459016 0.333300 -0.864400 1 0 1.000000 
0 3.817200 -2.320200 -28.874300 0.788082 -0.521788 -0.326593 0.416700 -0.864400 1 0 1.000000 
canister01a
0 2.118700 -4.018600 -28.874300 0.400314 -0.793128 -0.459016 0.333300 -0.864400 1 0 1.000000 
0 3.401600 -2.080200 -29.308201 0.446477 -0.257787 -0.856857 0.416700 -0.870800 1 0 1.000000 
0 3.817200 -2.320200 -28.874300 0.788082 -0.521788 -0.326593 0.416700 -0.864400 1 0 1.000000 
canister01a
0 2.118700 -4.018600 -28.874300 0.400314 -0.793128 -0.459016 0.333300 -0.864400 1 0 1.000000 
0 -0.201400 -4.160400 -29.308201 0.000000 -0.515569 -0.856848 0.250000 -0.870800 1 0 1.000000 
0 3.401600 -2.080200 -29.308201 0.446477 -0.257787 -0.856857 0.416700 -0.870800 1 0 1.000000 
canister01a
0 2.118700 4.018600 18.698200 0.445999 0.881298 0.156200 0.666700 -0.158000 1 0 1.000000 
0 2.118700 4.018600 -28.874300 0.521788 0.788082 -0.326593 0.666700 -0.864400 1 0 1.000000 
0 -0.201400 4.640300 -28.874300 -0.005900 0.916927 -0.399012 0.750000 -0.864400 1 0 1.000000 
canister01a
0 3.817200 2.320200 18.698200 0.835012 0.485407 0.259104 0.583300 -0.158000 1 0 1.000000 
0 2.118700 4.018600 -28.874300 0.521788 0.788082 -0.326593 0.666700 -0.864400 1 0 1.000000 
0 2.118700 4.018600 18.698200 0.445999 0.881298 0.156200 0.666700 -0.158000 1 0 1.000000 
canister01a
0 3.817200 2.320200 -28.874300 0.810634 0.431418 -0.395917 0.583300 -0.864400 1 0 1.000000 
0 3.401600 2.080200 -29.308201 0.526001 0.227101 -0.819602 0.583300 -0.870800 1 0 1.000000 
0 1.878800 3.603000 -29.308201 0.294790 0.518783 -0.802473 0.666700 -0.870800 1 0 1.000000 
canister01a
0 4.438900 0.000000 -28.874300 0.887026 -0.049901 -0.459014 0.500000 -0.864400 1 0 1.000000 
0 3.401600 2.080200 -29.308201 0.526001 0.227101 -0.819602 0.583300 -0.870800 1 0 1.000000 
0 3.817200 2.320200 -28.874300 0.810634 0.431418 -0.395917 0.583300 -0.864400 1 0 1.000000 
canister01a
0 4.438900 0.000000 -28.874300 0.887026 -0.049901 -0.459014 0.500000 -0.864400 1 0 1.000000 
0 3.401600 -2.080200 -29.308201 0.446477 -0.257787 -0.856857 0.416700 -0.870800 1 0 1.000000 
0 3.401600 2.080200 -29.308201 0.526001 0.227101 -0.819602 0.583300 -0.870800 1 0 1.000000 
canister01a
0 3.817200 -2.320200 -28.874300 0.788082 -0.521788 -0.326593 0.416700 -0.864400 1 0 1.000000 
0 3.401600 -2.080200 -29.308201 0.446477 -0.257787 -0.856857 0.416700 -0.870800 1 0 1.000000 
0 4.438900 0.000000 -28.874300 0.887026 -0.049901 -0.459014 0.500000 -0.864400 1 0 1.000000 
canister01a
0 3.401600 -2.080200 19.856899 0.726301 -0.408801 0.552601 0.416700 -0.140800 1 0 1.000000 
0 3.817200 -2.320200 18.698200 0.837862 -0.480478 0.259088 0.416700 -0.158000 1 0 1.000000 
0 4.438900 0.000000 18.698200 0.965843 0.002900 0.259112 0.500000 -0.158000 1 0 1.000000 
canister01a
0 1.878800 -3.603000 19.856899 0.424594 -0.717190 0.552592 0.333300 -0.140800 1 0 1.000000 
0 3.817200 -2.320200 18.698200 0.837862 -0.480478 0.259088 0.416700 -0.158000 1 0 1.000000 
0 3.401600 -2.080200 19.856899 0.726301 -0.408801 0.552601 0.416700 -0.140800 1 0 1.000000 
canister01a
0 1.878800 -3.603000 19.856899 0.424594 -0.717190 0.552592 0.333300 -0.140800 1 0 1.000000 
0 2.118700 -4.018600 18.698200 0.485407 -0.835012 0.259104 0.333300 -0.158000 1 0 1.000000 
0 3.817200 -2.320200 18.698200 0.837862 -0.480478 0.259088 0.416700 -0.158000 1 0 1.000000 
canister01a
0 -4.841700 -0.000000 -28.874300 -0.913684 0.036399 -0.404793 -0.000000 -0.864400 1 0 1.000000 
0 -3.804400 -2.080200 -29.308201 -0.459693 -0.341994 -0.819587 0.083300 -0.870800 1 0 1.000000 
0 -4.220100 -2.320200 -28.874300 -0.845945 -0.421573 -0.326579 0.083300 -0.864400 1 0 1.000000 
canister01a
0 -4.220100 -2.320200 -28.874300 -0.845945 -0.421573 -0.326579 0.083300 -0.864400 1 0 1.000000 
0 -3.804400 -2.080200 -29.308201 -0.459693 -0.341994 -0.819587 0.083300 -0.870800 1 0 1.000000 
0 -2.521600 -4.018600 -28.874300 -0.486723 -0.743236 -0.459022 0.166700 -0.864400 1 0 1.000000 
canister01a
0 -2.521600 -4.018600 -28.874300 -0.486723 -0.743236 -0.459022 0.166700 -0.864400 1 0 1.000000 
0 -3.804400 -2.080200 -29.308201 -0.459693 -0.341994 -0.819587 0.083300 -0.870800 1 0 1.000000 
0 -0.201400 -4.160400 -29.308201 0.000000 -0.515569 -0.856848 0.250000 -0.870800 1 0 1.000000 
canister01a
0 -2.521600 -4.018600 -28.874300 -0.486723 -0.743236 -0.459022 0.166700 -0.864400 1 0 1.000000 
0 -0.201400 -4.160400 -29.308201 0.000000 -0.515569 -0.856848 0.250000 -0.870800 1 0 1.000000 
0 -0.201400 -4.640300 -28.874300 -0.002600 -0.922115 -0.386906 0.250000 -0.864400 1 0 1.000000 
canister01a
0 -0.201400 -4.640300 -28.874300 -0.002600 -0.922115 -0.386906 0.250000 -0.864400 1 0 1.000000 
0 -0.201400 -4.160400 -29.308201 0.000000 -0.515569 -0.856848 0.250000 -0.870800 1 0 1.000000 
0 2.118700 -4.018600 -28.874300 0.400314 -0.793128 -0.459016 0.333300 -0.864400 1 0 1.000000 
canister01a
0 -0.201400 -4.640300 18.698200 0.002900 -0.965843 0.259112 0.250000 -0.158000 1 0 1.000000 
0 -0.201400 -4.640300 -28.874300 -0.002600 -0.922115 -0.386906 0.250000 -0.864400 1 0 1.000000 
0 2.118700 -4.018600 -28.874300 0.400314 -0.793128 -0.459016 0.333300 -0.864400 1 0 1.000000 
canister01a
0 -0.201400 -4.640300 18.698200 0.002900 -0.965843 0.259112 0.250000 -0.158000 1 0 1.000000 
0 2.118700 -4.018600 -28.874300 0.400314 -0.793128 -0.459016 0.333300 -0.864400 1 0 1.000000 
0 2.118700 -4.018600 18.698200 0.485407 -0.835012 0.259104 0.333300 -0.158000 1 0 1.000000 
canister01a
0 -0.201400 -4.160400 19.856899 0.009100 -0.833398 0.552599 0.250000 -0.140800 1 0 1.000000 
0 -0.201400 -4.640300 18.698200 0.002900 -0.965843 0.259112 0.250000 -0.158000 1 0 1.000000 
0 2.118700 -4.018600 18.698200 0.485407 -0.835012 0.259104 0.333300 -0.158000 1 0 1.000000 
canister01a
0 -0.201400 -4.160400 19.856899 0.009100 -0.833398 0.552599 0.250000 -0.140800 1 0 1.000000 
0 2.118700 -4.018600 18.698200 0.485407 -0.835012 0.259104 0.333300 -0.158000 1 0 1.000000 
0 1.878800 -3.603000 19.856899 0.424594 -0.717190 0.552592 0.333300 -0.140800 1 0 1.000000 
canister01a
0 -0.201400 -3.262800 20.771500 0.000600 -0.706907 0.707307 0.250000 -0.120500 1 0 1.000000 
0 -0.201400 -4.160400 19.856899 0.009100 -0.833398 0.552599 0.250000 -0.140800 1 0 1.000000 
0 1.878800 -3.603000 19.856899 0.424594 -0.717190 0.552592 0.333300 -0.140800 1 0 1.000000 
canister01a
0 -0.201400 -3.262800 20.771500 0.000600 -0.706907 0.707307 0.250000 -0.120500 1 0 1.000000 
0 1.878800 -3.603000 19.856899 0.424594 -0.717190 0.552592 0.333300 -0.140800 1 0 1.000000 
0 1.430000 -2.825700 20.771500 0.353998 -0.611897 0.707296 0.333300 -0.125200 1 0 1.000000 
canister01a
0 1.430000 -2.825700 20.771500 0.353998 -0.611897 0.707296 0.333300 -0.125200 1 0 1.000000 
0 1.878800 -3.603000 19.856899 0.424594 -0.717190 0.552592 0.333300 -0.140800 1 0 1.000000 
0 3.401600 -2.080200 19.856899 0.726301 -0.408801 0.552601 0.416700 -0.140800 1 0 1.000000 
canister01a
0 1.430000 -2.825700 20.771500 0.353998 -0.611897 0.707296 0.333300 -0.125200 1 0 1.000000 
0 3.401600 -2.080200 19.856899 0.726301 -0.408801 0.552601 0.416700 -0.140800 1 0 1.000000 
0 2.624300 -1.631400 20.771500 0.612510 -0.352906 0.707311 0.416700 -0.125200 1 0 1.000000 
canister01a
0 2.624300 -1.631400 20.771500 0.612510 -0.352906 0.707311 0.416700 -0.125200 1 0 1.000000 
0 3.401600 -2.080200 19.856899 0.726301 -0.408801 0.552601 0.416700 -0.140800 1 0 1.000000 
0 4.438900 0.000000 18.698200 0.965843 0.002900 0.259112 0.500000 -0.158000 1 0 1.000000 
canister01a
0 2.624300 -1.631400 20.771500 0.612510 -0.352906 0.707311 0.416700 -0.125200 1 0 1.000000 
0 4.438900 0.000000 18.698200 0.965843 0.002900 0.259112 0.500000 -0.158000 1 0 1.000000 
0 3.061400 0.000000 20.771500 0.770417 0.005700 0.637514 0.500000 -0.120500 1 0 1.000000 
canister01a
0 3.061400 0.000000 20.771500 0.770417 0.005700 0.637514 0.500000 -0.120500 1 0 1.000000 
0 4.438900 0.000000 18.698200 0.965843 0.002900 0.259112 0.500000 -0.158000 1 0 1.000000 
0 3.817200 2.320200 18.698200 0.835012 0.485407 0.259104 0.583300 -0.158000 1 0 1.000000 
canister01a
0 3.061400 0.000000 20.771500 0.770417 0.005700 0.637514 0.500000 -0.120500 1 0 1.000000 
0 3.817200 2.320200 18.698200 0.835012 0.485407 0.259104 0.583300 -0.158000 1 0 1.000000 
0 2.624300 1.631400 20.771500 0.611897 0.353998 0.707296 0.583300 -0.120500 1 0 1.000000 
canister01a
0 2.624300 1.631400 20.771500 0.611897 0.353998 0.707296 0.583300 -0.120500 1 0 1.000000 
0 3.817200 2.320200 18.698200 0.835012 0.485407 0.259104 0.583300 -0.158000 1 0 1.000000 
0 1.878800 3.603000 19.856899 0.408801 0.726301 0.552601 0.666700 -0.140800 1 0 1.000000 
canister01a
0 -1.832800 -2.825700 20.771500 -0.392707 -0.679513 0.619712 0.166700 -0.120500 1 0 1.000000 
0 -0.201400 -4.160400 19.856899 0.009100 -0.833398 0.552599 0.250000 -0.140800 1 0 1.000000 
0 -0.201400 -3.262800 20.771500 0.000600 -0.706907 0.707307 0.250000 -0.120500 1 0 1.000000 
canister01a
0 -1.832800 -2.825700 20.771500 -0.392707 -0.679513 0.619712 0.166700 -0.120500 1 0 1.000000 
0 -0.201400 -4.640300 18.698200 0.002900 -0.965843 0.259112 0.250000 -0.158000 1 0 1.000000 
0 -0.201400 -4.160400 19.856899 0.009100 -0.833398 0.552599 0.250000 -0.140800 1 0 1.000000 
canister01a
0 -1.832800 -2.825700 20.771500 -0.392707 -0.679513 0.619712 0.166700 -0.120500 1 0 1.000000 
0 -2.521600 -4.018600 18.698200 -0.480478 -0.837862 0.259088 0.166700 -0.158000 1 0 1.000000 
0 -0.201400 -4.640300 18.698200 0.002900 -0.965843 0.259112 0.250000 -0.158000 1 0 1.000000 
canister01a
0 -2.521600 -4.018600 18.698200 -0.480478 -0.837862 0.259088 0.166700 -0.158000 1 0 1.000000 
0 -0.201400 -4.640300 -28.874300 -0.002600 -0.922115 -0.386906 0.250000 -0.864400 1 0 1.000000 
0 -0.201400 -4.640300 18.698200 0.002900 -0.965843 0.259112 0.250000 -0.158000 1 0 1.000000 
canister01a
0 -2.521600 -4.018600 18.698200 -0.480478 -0.837862 0.259088 0.166700 -0.158000 1 0 1.000000 
0 -2.521600 -4.018600 -28.874300 -0.486723 -0.743236 -0.459022 0.166700 -0.864400 1 0 1.000000 
0 -0.201400 -4.640300 -28.874300 -0.002600 -0.922115 -0.386906 0.250000 -0.864400 1 0 1.000000 
canister01a
0 -4.220100 -2.320200 18.698200 -0.835012 -0.485407 0.259104 0.083300 -0.158000 1 0 1.000000 
0 -2.521600 -4.018600 -28.874300 -0.486723 -0.743236 -0.459022 0.166700 -0.864400 1 0 1.000000 
0 -2.521600 -4.018600 18.698200 -0.480478 -0.837862 0.259088 0.166700 -0.158000 1 0 1.000000 
canister01a
0 -4.220100 -2.320200 18.698200 -0.835012 -0.485407 0.259104 0.083300 -0.158000 1 0 1.000000 
0 -4.220100 -2.320200 -28.874300 -0.845945 -0.421573 -0.326579 0.083300 -0.864400 1 0 1.000000 
0 -2.521600 -4.018600 -28.874300 -0.486723 -0.743236 -0.459022 0.166700 -0.864400 1 0 1.000000 
canister01a
0 -3.027100 -1.631400 20.771500 -0.641193 -0.410595 0.648293 0.083300 -0.120500 1 0 1.000000 
0 -2.521600 -4.018600 18.698200 -0.480478 -0.837862 0.259088 0.166700 -0.158000 1 0 1.000000 
0 -1.832800 -2.825700 20.771500 -0.392707 -0.679513 0.619712 0.166700 -0.120500 1 0 1.000000 
canister01a
0 -3.027100 -1.631400 20.771500 -0.641193 -0.410595 0.648293 0.083300 -0.120500 1 0 1.000000 
0 -4.220100 -2.320200 18.698200 -0.835012 -0.485407 0.259104 0.083300 -0.158000 1 0 1.000000 
0 -2.521600 -4.018600 18.698200 -0.480478 -0.837862 0.259088 0.166700 -0.158000 1 0 1.000000 
canister01a
0 2.200600 0.000000 21.615299 0.698643 0.062404 0.712744 0.500000 -0.107900 1 0 1.000000 
0 2.624300 1.631400 20.771500 0.611897 0.353998 0.707296 0.583300 -0.120500 1 0 1.000000 
0 1.878800 1.201000 21.615299 0.573823 0.403416 0.712729 0.583300 -0.107900 1 0 1.000000 
canister01a
0 2.200600 0.000000 21.615299 0.698643 0.062404 0.712744 0.500000 -0.107900 1 0 1.000000 
0 3.061400 0.000000 20.771500 0.770417 0.005700 0.637514 0.500000 -0.120500 1 0 1.000000 
0 2.624300 1.631400 20.771500 0.611897 0.353998 0.707296 0.583300 -0.120500 1 0 1.000000 
canister01a
0 1.878800 -1.201000 21.615299 0.636234 -0.295316 0.712738 0.416700 -0.107900 1 0 1.000000 
0 3.061400 0.000000 20.771500 0.770417 0.005700 0.637514 0.500000 -0.120500 1 0 1.000000 
0 2.200600 0.000000 21.615299 0.698643 0.062404 0.712744 0.500000 -0.107900 1 0 1.000000 
canister01a
0 1.878800 -1.201000 21.615299 0.636234 -0.295316 0.712738 0.416700 -0.107900 1 0 1.000000 
0 2.624300 -1.631400 20.771500 0.612510 -0.352906 0.707311 0.416700 -0.125200 1 0 1.000000 
0 3.061400 0.000000 20.771500 0.770417 0.005700 0.637514 0.500000 -0.120500 1 0 1.000000 
canister01a
0 0.999600 -2.080200 21.615299 0.403416 -0.573823 0.712729 0.333300 -0.107900 1 0 1.000000 
0 2.624300 -1.631400 20.771500 0.612510 -0.352906 0.707311 0.416700 -0.125200 1 0 1.000000 
0 1.878800 -1.201000 21.615299 0.636234 -0.295316 0.712738 0.416700 -0.107900 1 0 1.000000 
canister01a
0 0.999600 -2.080200 21.615299 0.403416 -0.573823 0.712729 0.333300 -0.107900 1 0 1.000000 
0 1.430000 -2.825700 20.771500 0.353998 -0.611897 0.707296 0.333300 -0.125200 1 0 1.000000 
0 2.624300 -1.631400 20.771500 0.612510 -0.352906 0.707311 0.416700 -0.125200 1 0 1.000000 
canister01a
0 -0.201400 -2.402000 21.615299 0.062404 -0.698643 0.712744 0.250000 -0.107900 1 0 1.000000 
0 1.430000 -2.825700 20.771500 0.353998 -0.611897 0.707296 0.333300 -0.125200 1 0 1.000000 
0 0.999600 -2.080200 21.615299 0.403416 -0.573823 0.712729 0.333300 -0.107900 1 0 1.000000 
canister01a
0 -0.201400 -2.402000 21.615299 0.062404 -0.698643 0.712744 0.250000 -0.107900 1 0 1.000000 
0 -0.201400 -3.262800 20.771500 0.000600 -0.706907 0.707307 0.250000 -0.120500 1 0 1.000000 
0 1.430000 -2.825700 20.771500 0.353998 -0.611897 0.707296 0.333300 -0.125200 1 0 1.000000 
canister01a
0 -1.402400 -2.080200 21.615299 -0.295316 -0.636234 0.712738 0.166700 -0.107900 1 0 1.000000 
0 -0.201400 -3.262800 20.771500 0.000600 -0.706907 0.707307 0.250000 -0.120500 1 0 1.000000 
0 -0.201400 -2.402000 21.615299 0.062404 -0.698643 0.712744 0.250000 -0.107900 1 0 1.000000 
canister01a
0 -1.402400 -2.080200 21.615299 -0.295316 -0.636234 0.712738 0.166700 -0.107900 1 0 1.000000 
0 -1.832800 -2.825700 20.771500 -0.392707 -0.679513 0.619712 0.166700 -0.120500 1 0 1.000000 
0 -0.201400 -3.262800 20.771500 0.000600 -0.706907 0.707307 0.250000 -0.120500 1 0 1.000000 
canister01a
0 -2.281600 -1.201000 21.615299 -0.573823 -0.403416 0.712729 0.083300 -0.107900 1 0 1.000000 
0 -1.832800 -2.825700 20.771500 -0.392707 -0.679513 0.619712 0.166700 -0.120500 1 0 1.000000 
0 -1.402400 -2.080200 21.615299 -0.295316 -0.636234 0.712738 0.166700 -0.107900 1 0 1.000000 
canister01a
0 -2.281600 -1.201000 21.615299 -0.573823 -0.403416 0.712729 0.083300 -0.107900 1 0 1.000000 
0 -3.027100 -1.631400 20.771500 -0.641193 -0.410595 0.648293 0.083300 -0.120500 1 0 1.000000 
0 -1.832800 -2.825700 20.771500 -0.392707 -0.679513 0.619712 0.166700 -0.120500 1 0 1.000000 
canister01a
0 -2.603400 -0.000000 21.615299 -0.607878 -0.054298 0.792171 -0.000000 -0.114700 1 0 1.000000 
0 -3.027100 -1.631400 20.771500 -0.641193 -0.410595 0.648293 0.083300 -0.120500 1 0 1.000000 
0 -2.281600 -1.201000 21.615299 -0.573823 -0.403416 0.712729 0.083300 -0.107900 1 0 1.000000 
canister01a
0 -2.603400 -0.000000 21.615299 -0.607878 -0.054298 0.792171 -0.000000 -0.114700 1 0 1.000000 
0 -3.517300 -0.000000 20.914000 -0.694901 -0.002300 0.719101 -0.000000 -0.118300 1 0 1.000000 
0 -3.027100 -1.631400 20.771500 -0.641193 -0.410595 0.648293 0.083300 -0.120500 1 0 1.000000 
canister01a
0 -3.517300 -0.000000 20.914000 -0.694901 -0.002300 0.719101 -0.000000 -0.118300 1 0 1.000000 
0 -4.220100 -2.320200 18.698200 -0.835012 -0.485407 0.259104 0.083300 -0.158000 1 0 1.000000 
0 -3.027100 -1.631400 20.771500 -0.641193 -0.410595 0.648293 0.083300 -0.120500 1 0 1.000000 
canister01a
0 -3.517300 -0.000000 20.914000 -0.694901 -0.002300 0.719101 -0.000000 -0.118300 1 0 1.000000 
0 -4.841700 -0.000000 18.698200 -0.965843 -0.002900 0.259112 -0.000000 -0.158000 1 0 1.000000 
0 -4.220100 -2.320200 18.698200 -0.835012 -0.485407 0.259104 0.083300 -0.158000 1 0 1.000000 
canister01a
0 -4.841700 -0.000000 18.698200 -0.965843 -0.002900 0.259112 -0.000000 -0.158000 1 0 1.000000 
0 -4.220100 -2.320200 -28.874300 -0.845945 -0.421573 -0.326579 0.083300 -0.864400 1 0 1.000000 
0 -4.220100 -2.320200 18.698200 -0.835012 -0.485407 0.259104 0.083300 -0.158000 1 0 1.000000 
canister01a
0 -4.841700 -0.000000 18.698200 -0.965843 -0.002900 0.259112 -0.000000 -0.158000 1 0 1.000000 
0 -4.841700 -0.000000 -28.874300 -0.913684 0.036399 -0.404793 -0.000000 -0.864400 1 0 1.000000 
0 -4.220100 -2.320200 -28.874300 -0.845945 -0.421573 -0.326579 0.083300 -0.864400 1 0 1.000000 
canister01a
0 -2.281600 3.603000 -29.308201 -0.070098 -0.070098 -0.995074 0.609400 -0.968600 1 0 1.000000 
0 3.401600 -2.080200 -29.308201 -0.070098 -0.070098 -0.995074 0.403600 -0.884200 1 0 1.000000 
0 -4.841700 -0.000000 -28.874300 -0.070098 -0.070098 -0.995074 0.500000 -0.999500 1 0 1.000000 
canister01a
0 -0.249400 -2.570100 23.341299 0.038202 -0.998449 -0.040502 0.247000 -0.082300 1 0 1.000000 
0 -0.201400 -2.402000 21.615299 0.000200 -0.995294 -0.096899 0.250000 -0.107900 1 0 1.000000 
0 0.999600 -2.080200 21.615299 0.532019 -0.846729 -0.002300 0.333300 -0.107900 1 0 1.000000 
canister01a
0 -1.402400 -2.080200 21.615299 -0.481196 -0.876393 -0.019600 0.166700 -0.107900 1 0 1.000000 
0 -0.201400 -2.402000 21.615299 0.000200 -0.995294 -0.096899 0.250000 -0.107900 1 0 1.000000 
0 -0.249400 -2.570100 23.341299 0.038202 -0.998449 -0.040502 0.247000 -0.082300 1 0 1.000000 
canister01a
0 -0.249400 -2.570100 23.341299 0.038202 -0.998449 -0.040502 0.247000 -0.082300 1 0 1.000000 
0 -1.279400 -1.914200 28.199200 -0.494803 -0.753904 0.432202 0.168400 -0.010200 1 0 1.000000 
0 -1.402400 -2.080200 21.615299 -0.481196 -0.876393 -0.019600 0.166700 -0.107900 1 0 1.000000 
canister01a
0 -1.279400 -1.914200 28.199200 -0.494803 -0.753904 0.432202 0.168400 -0.010200 1 0 1.000000 
0 -2.475200 -1.285100 26.765200 -0.840286 -0.528191 0.122198 0.081900 -0.038300 1 0 1.000000 
0 -1.402400 -2.080200 21.615299 -0.481196 -0.876393 -0.019600 0.166700 -0.107900 1 0 1.000000 
canister01a
0 -1.279400 -1.914200 28.199200 -0.494803 -0.753904 0.432202 0.168400 -0.010200 1 0 1.000000 
0 -2.384500 -0.000000 28.199200 -0.834606 -0.151501 0.529604 -0.000000 -0.010200 1 0 1.000000 
0 -2.475200 -1.285100 26.765200 -0.840286 -0.528191 0.122198 0.081900 -0.038300 1 0 1.000000 
canister01a
0 -2.819500 -0.000000 26.765200 -0.985265 0.078997 0.151695 -0.000000 -0.031500 1 0 1.000000 
0 -2.475200 -1.285100 26.765200 -0.840286 -0.528191 0.122198 0.081900 -0.038300 1 0 1.000000 
0 -2.384500 -0.000000 28.199200 -0.834606 -0.151501 0.529604 -0.000000 -0.010200 1 0 1.000000 
canister01a
0 -2.475200 -1.285100 26.765200 -0.840286 -0.528191 0.122198 0.081900 -0.038300 1 0 1.000000 
0 -2.819500 -0.000000 26.765200 -0.985265 0.078997 0.151695 -0.000000 -0.031500 1 0 1.000000 
0 -2.819500 -0.000000 23.341299 -0.996646 0.068603 -0.044602 -0.000000 -0.082300 1 0 1.000000 
canister01a
0 -2.819500 -0.000000 23.341299 -0.996646 0.068603 -0.044602 -0.000000 -0.082300 1 0 1.000000 
0 -2.281600 -1.201000 21.615299 -0.905394 -0.420197 -0.060800 0.083300 -0.114700 1 0 1.000000 
0 -2.475200 -1.285100 26.765200 -0.840286 -0.528191 0.122198 0.081900 -0.038300 1 0 1.000000 
canister01a
0 -2.819500 -0.000000 23.341299 -0.996646 0.068603 -0.044602 -0.000000 -0.082300 1 0 1.000000 
0 -2.603400 -0.000000 21.615299 -0.992258 -0.000000 -0.124195 -0.000000 -0.107900 1 0 1.000000 
0 -2.281600 -1.201000 21.615299 -0.905394 -0.420197 -0.060800 0.083300 -0.114700 1 0 1.000000 
canister01a
0 -1.402400 -2.080200 21.615299 -0.481196 -0.876393 -0.019600 0.166700 -0.107900 1 0 1.000000 
0 -2.475200 -1.285100 26.765200 -0.840286 -0.528191 0.122198 0.081900 -0.038300 1 0 1.000000 
0 -2.281600 -1.201000 21.615299 -0.905394 -0.420197 -0.060800 0.083300 -0.114700 1 0 1.000000 
canister01a
0 0.931000 -1.914200 28.199200 0.418073 -0.751152 0.510867 0.335000 -0.017000 1 0 1.000000 
0 -0.174200 -2.210300 28.199200 0.000000 -0.895246 0.445573 0.252000 -0.010200 1 0 1.000000 
0 -0.249400 -2.570100 23.341299 0.038202 -0.998449 -0.040502 0.247000 -0.082300 1 0 1.000000 
canister01a
0 -0.174200 -2.210300 28.199200 0.000000 -0.895246 0.445573 0.252000 -0.010200 1 0 1.000000 
0 -1.279400 -1.914200 28.199200 -0.494803 -0.753904 0.432202 0.168400 -0.010200 1 0 1.000000 
0 -0.249400 -2.570100 23.341299 0.038202 -0.998449 -0.040502 0.247000 -0.082300 1 0 1.000000 
canister01a
0 -2.088400 1.105200 28.199200 -0.786607 0.435404 0.437804 0.915700 -0.010200 1 0 1.000000 
0 -2.819500 -0.000000 26.765200 -0.985265 0.078997 0.151695 1.000000 -0.031500 1 0 1.000000 
0 -2.384500 -0.000000 28.199200 -0.834606 -0.151501 0.529604 1.000000 -0.010200 1 0 1.000000 
canister01a
0 -2.819500 -0.000000 26.765200 -0.985265 0.078997 0.151695 1.000000 -0.031500 1 0 1.000000 
0 -2.088400 1.105200 28.199200 -0.786607 0.435404 0.437804 0.915700 -0.010200 1 0 1.000000 
0 -2.819500 -0.000000 23.341299 -0.996646 0.068603 -0.044602 1.000000 -0.082300 1 0 1.000000 
canister01a
0 -2.819500 -0.000000 23.341299 -0.996646 0.068603 -0.044602 1.000000 -0.082300 1 0 1.000000 
0 -2.088400 1.105200 28.199200 -0.786607 0.435404 0.437804 0.915700 -0.010200 1 0 1.000000 
0 -2.281600 1.201000 21.615299 -0.816677 0.574184 -0.057898 0.916700 -0.114700 1 0 1.000000 
canister01a
0 -2.088400 1.105200 28.199200 -0.786607 0.435404 0.437804 0.915700 -0.010200 1 0 1.000000 
0 -1.279400 1.914200 28.199200 -0.517883 0.781874 0.347088 0.831600 -0.010200 1 0 1.000000 
0 -2.281600 1.201000 21.615299 -0.816677 0.574184 -0.057898 0.916700 -0.114700 1 0 1.000000 
canister01a
0 -2.281600 1.201000 21.615299 -0.816677 0.574184 -0.057898 0.916700 -0.114700 1 0 1.000000 
0 -1.279400 1.914200 28.199200 -0.517883 0.781874 0.347088 0.831600 -0.010200 1 0 1.000000 
0 -1.402400 2.080200 21.615299 -0.420496 0.906192 -0.044700 0.833300 -0.114700 1 0 1.000000 
canister01a
0 -1.279400 1.914200 28.199200 -0.517883 0.781874 0.347088 0.831600 -0.010200 1 0 1.000000 
0 -0.174200 2.210300 28.199200 -0.048300 0.897190 0.438995 0.748000 -0.010200 1 0 1.000000 
0 -1.402400 2.080200 21.615299 -0.420496 0.906192 -0.044700 0.833300 -0.114700 1 0 1.000000 
canister01a
0 -1.402400 2.080200 21.615299 -0.420496 0.906192 -0.044700 0.833300 -0.114700 1 0 1.000000 
0 -0.174200 2.210300 28.199200 -0.048300 0.897190 0.438995 0.748000 -0.010200 1 0 1.000000 
0 -0.201400 2.402000 21.615299 0.089004 0.995640 -0.027901 0.750000 -0.114700 1 0 1.000000 
canister01a
0 -0.174200 2.210300 28.199200 -0.048300 0.897190 0.438995 0.748000 -0.010200 1 0 1.000000 
0 0.931000 1.914200 28.199200 0.478384 0.828572 0.290890 0.665000 -0.010200 1 0 1.000000 
0 -0.201400 2.402000 21.615299 0.089004 0.995640 -0.027901 0.750000 -0.114700 1 0 1.000000 
canister01a
0 -0.201400 2.402000 21.615299 0.089004 0.995640 -0.027901 0.750000 -0.114700 1 0 1.000000 
0 0.931000 1.914200 28.199200 0.478384 0.828572 0.290890 0.665000 -0.010200 1 0 1.000000 
0 0.999600 2.080200 21.615299 0.499809 0.865715 0.027000 0.666700 -0.107900 1 0 1.000000 
canister01a
0 1.878800 1.201000 21.615299 0.817815 0.574911 0.025600 0.583300 -0.107900 1 0 1.000000 
0 0.999600 2.080200 21.615299 0.499809 0.865715 0.027000 0.666700 -0.107900 1 0 1.000000 
0 0.931000 1.914200 28.199200 0.478384 0.828572 0.290890 0.665000 -0.010200 1 0 1.000000 
canister01a
0 0.931000 1.914200 28.199200 0.478384 0.828572 0.290890 0.665000 -0.010200 1 0 1.000000 
0 1.740000 1.105200 28.199200 0.828788 0.418894 0.370995 0.582400 -0.010200 1 0 1.000000 
0 1.878800 1.201000 21.615299 0.817815 0.574911 0.025600 0.583300 -0.107900 1 0 1.000000 
canister01a
0 2.200600 0.000000 21.615299 0.995729 0.088903 0.024901 0.500000 -0.107900 1 0 1.000000 
0 1.878800 1.201000 21.615299 0.817815 0.574911 0.025600 0.583300 -0.107900 1 0 1.000000 
0 1.740000 1.105200 28.199200 0.828788 0.418894 0.370995 0.582400 -0.010200 1 0 1.000000 
canister01a
0 1.740000 1.105200 28.199200 0.828788 0.418894 0.370995 0.582400 -0.010200 1 0 1.000000 
0 2.036100 0.000000 28.199200 0.866781 -0.014100 0.498489 0.500000 -0.017000 1 0 1.000000 
0 2.200600 0.000000 21.615299 0.995729 0.088903 0.024901 0.500000 -0.107900 1 0 1.000000 
canister01a
0 1.878800 -1.201000 21.615299 0.906803 -0.420801 0.025200 0.416700 -0.107900 1 0 1.000000 
0 2.200600 0.000000 21.615299 0.995729 0.088903 0.024901 0.500000 -0.107900 1 0 1.000000 
0 2.036100 0.000000 28.199200 0.866781 -0.014100 0.498489 0.500000 -0.017000 1 0 1.000000 
canister01a
0 2.036100 0.000000 28.199200 0.866781 -0.014100 0.498489 0.500000 -0.017000 1 0 1.000000 
0 1.740000 -1.105200 28.199200 0.782870 -0.518580 0.343787 0.417600 -0.010200 1 0 1.000000 
0 1.878800 -1.201000 21.615299 0.906803 -0.420801 0.025200 0.416700 -0.107900 1 0 1.000000 
canister01a
0 0.999600 -2.080200 21.615299 0.532019 -0.846729 -0.002300 0.333300 -0.107900 1 0 1.000000 
0 1.878800 -1.201000 21.615299 0.906803 -0.420801 0.025200 0.416700 -0.107900 1 0 1.000000 
0 1.740000 -1.105200 28.199200 0.782870 -0.518580 0.343787 0.417600 -0.010200 1 0 1.000000 
canister01a
0 1.740000 -1.105200 28.199200 0.782870 -0.518580 0.343787 0.417600 -0.010200 1 0 1.000000 
0 0.931000 -1.914200 28.199200 0.418073 -0.751152 0.510867 0.335000 -0.017000 1 0 1.000000 
0 0.999600 -2.080200 21.615299 0.532019 -0.846729 -0.002300 0.333300 -0.107900 1 0 1.000000 
canister01a
0 -0.249400 -2.570100 23.341299 0.038202 -0.998449 -0.040502 0.247000 -0.082300 1 0 1.000000 
0 0.999600 -2.080200 21.615299 0.532019 -0.846729 -0.002300 0.333300 -0.107900 1 0 1.000000 
0 0.931000 -1.914200 28.199200 0.418073 -0.751152 0.510867 0.335000 -0.017000 1 0 1.000000 
canister01a
0 -2.281600 1.201000 21.615299 -0.816677 0.574184 -0.057898 0.916700 -0.114700 1 0 1.000000 
0 -2.603400 -0.000000 21.615299 -0.992258 -0.000000 -0.124195 1.000000 -0.107900 1 0 1.000000 
0 -2.819500 -0.000000 23.341299 -0.996646 0.068603 -0.044602 1.000000 -0.082300 1 0 1.000000 
canister01a
0 -2.088400 1.105200 28.199200 -0.786607 0.435404 0.437804 0.563900 -0.009600 1 0 1.000000 
0 -2.384500 -0.000000 28.199200 -0.834606 -0.151501 0.529604 0.527100 -0.001600 1 0 1.000000 
0 -1.287100 -0.642500 29.025101 -0.450798 -0.217999 0.865596 0.505700 -0.031300 1 0 1.000000 
canister01a
0 -2.384500 -0.000000 28.199200 -0.834606 -0.151501 0.529604 0.527100 -0.001600 1 0 1.000000 
0 -1.279400 -1.914200 28.199200 -0.494803 -0.753904 0.432202 0.463200 -0.031500 1 0 1.000000 
0 -1.287100 -0.642500 29.025101 -0.450798 -0.217999 0.865596 0.505700 -0.031300 1 0 1.000000 
canister01a
0 -0.174200 -1.285100 29.025101 -0.036600 -0.499399 0.865598 0.484200 -0.061500 1 0 1.000000 
0 -1.287100 -0.642500 29.025101 -0.450798 -0.217999 0.865596 0.505700 -0.031300 1 0 1.000000 
0 -1.279400 -1.914200 28.199200 -0.494803 -0.753904 0.432202 0.463200 -0.031500 1 0 1.000000 
canister01a
0 -1.279400 -1.914200 28.199200 -0.494803 -0.753904 0.432202 0.463200 -0.031500 1 0 1.000000 
0 -0.174200 -2.210300 28.199200 0.000000 -0.895246 0.445573 0.453400 -0.061500 1 0 1.000000 
0 -0.174200 -1.285100 29.025101 -0.036600 -0.499399 0.865598 0.484200 -0.061500 1 0 1.000000 
canister01a
0 -0.174200 -2.210300 28.199200 0.000000 -0.895246 0.445573 0.453400 -0.061500 1 0 1.000000 
0 0.931000 -1.914200 28.199200 0.418073 -0.751152 0.510867 0.463200 -0.091400 1 0 1.000000 
0 -0.174200 -1.285100 29.025101 -0.036600 -0.499399 0.865598 0.484200 -0.061500 1 0 1.000000 
canister01a
0 0.938700 -0.642500 29.025101 0.414198 -0.281398 0.865595 0.505700 -0.091700 1 0 1.000000 
0 -0.174200 -1.285100 29.025101 -0.036600 -0.499399 0.865598 0.484200 -0.061500 1 0 1.000000 
0 0.931000 -1.914200 28.199200 0.418073 -0.751152 0.510867 0.463200 -0.091400 1 0 1.000000 
canister01a
0 0.931000 -1.914200 28.199200 0.418073 -0.751152 0.510867 0.463200 -0.091400 1 0 1.000000 
0 1.740000 -1.105200 28.199200 0.782870 -0.518580 0.343787 0.490200 -0.113400 1 0 1.000000 
0 0.938700 -0.642500 29.025101 0.414198 -0.281398 0.865595 0.505700 -0.091700 1 0 1.000000 
canister01a
0 1.740000 -1.105200 28.199200 0.782870 -0.518580 0.343787 0.490200 -0.113400 1 0 1.000000 
0 2.036100 0.000000 28.199200 0.866781 -0.014100 0.498489 0.527100 -0.121400 1 0 1.000000 
0 0.938700 -0.642500 29.025101 0.414198 -0.281398 0.865595 0.505700 -0.091700 1 0 1.000000 
canister01a
0 0.468300 1.112900 29.025101 0.281398 0.414198 0.865595 0.564200 -0.078900 1 0 1.000000 
0 0.938700 -0.642500 29.025101 0.414198 -0.281398 0.865595 0.505700 -0.091700 1 0 1.000000 
0 2.036100 0.000000 28.199200 0.866781 -0.014100 0.498489 0.527100 -0.121400 1 0 1.000000 
canister01a
0 2.036100 0.000000 28.199200 0.866781 -0.014100 0.498489 0.527100 -0.121400 1 0 1.000000 
0 1.740000 1.105200 28.199200 0.828788 0.418894 0.370995 0.563900 -0.113400 1 0 1.000000 
0 0.468300 1.112900 29.025101 0.281398 0.414198 0.865595 0.564200 -0.078900 1 0 1.000000 
canister01a
0 1.740000 1.105200 28.199200 0.828788 0.418894 0.370995 0.563900 -0.113400 1 0 1.000000 
0 0.931000 1.914200 28.199200 0.478384 0.828572 0.290890 0.590900 -0.091400 1 0 1.000000 
0 0.468300 1.112900 29.025101 0.281398 0.414198 0.865595 0.564200 -0.078900 1 0 1.000000 
canister01a
0 0.931000 1.914200 28.199200 0.478384 0.828572 0.290890 0.590900 -0.091400 1 0 1.000000 
0 -0.174200 2.210300 28.199200 -0.048300 0.897190 0.438995 0.600800 -0.061500 1 0 1.000000 
0 0.468300 1.112900 29.025101 0.281398 0.414198 0.865595 0.564200 -0.078900 1 0 1.000000 
canister01a
0 -0.816700 1.112900 29.025101 -0.217999 0.450798 0.865596 0.564200 -0.044100 1 0 1.000000 
0 0.468300 1.112900 29.025101 0.281398 0.414198 0.865595 0.564200 -0.078900 1 0 1.000000 
0 -0.174200 2.210300 28.199200 -0.048300 0.897190 0.438995 0.600800 -0.061500 1 0 1.000000 
canister01a
0 -0.174200 2.210300 28.199200 -0.048300 0.897190 0.438995 0.600800 -0.061500 1 0 1.000000 
0 -1.279400 1.914200 28.199200 -0.517883 0.781874 0.347088 0.590900 -0.031500 1 0 1.000000 
0 -0.816700 1.112900 29.025101 -0.217999 0.450798 0.865596 0.564200 -0.044100 1 0 1.000000 
canister01a
0 -1.279400 1.914200 28.199200 -0.517883 0.781874 0.347088 0.590900 -0.031500 1 0 1.000000 
0 -2.088400 1.105200 28.199200 -0.786607 0.435404 0.437804 0.563900 -0.009600 1 0 1.000000 
0 -0.816700 1.112900 29.025101 -0.217999 0.450798 0.865596 0.564200 -0.044100 1 0 1.000000 
canister01a
0 -1.287100 -0.642500 29.025101 -0.450798 -0.217999 0.865596 0.505700 -0.031300 1 0 1.000000 
0 -0.816700 1.112900 29.025101 -0.217999 0.450798 0.865596 0.564200 -0.044100 1 0 1.000000 
0 -2.088400 1.105200 28.199200 -0.786607 0.435404 0.437804 0.563900 -0.009600 1 0 1.000000 
canister01a
0 -0.816700 1.112900 29.025101 -0.217999 0.450798 0.865596 0.564200 -0.044100 1 0 1.000000 
0 -1.287100 -0.642500 29.025101 -0.450798 -0.217999 0.865596 0.505700 -0.031300 1 0 1.000000 
0 -0.174200 -0.000000 29.308201 0.000000 0.000000 1.000000 0.527100 -0.061500 1 0 1.000000 
canister01a
0 -1.287100 -0.642500 29.025101 -0.450798 -0.217999 0.865596 0.505700 -0.031300 1 0 1.000000 
0 -0.174200 -1.285100 29.025101 -0.036600 -0.499399 0.865598 0.484200 -0.061500 1 0 1.000000 
0 -0.174200 -0.000000 29.308201 0.000000 0.000000 1.000000 0.527100 -0.061500 1 0 1.000000 
canister01a
0 -0.174200 -1.285100 29.025101 -0.036600 -0.499399 0.865598 0.484200 -0.061500 1 0 1.000000 
0 0.938700 -0.642500 29.025101 0.414198 -0.281398 0.865595 0.505700 -0.091700 1 0 1.000000 
0 -0.174200 -0.000000 29.308201 0.000000 0.000000 1.000000 0.527100 -0.061500 1 0 1.000000 
canister01a
0 0.938700 -0.642500 29.025101 0.414198 -0.281398 0.865595 0.505700 -0.091700 1 0 1.000000 
0 0.468300 1.112900 29.025101 0.281398 0.414198 0.865595 0.564200 -0.078900 1 0 1.000000 
0 -0.174200 -0.000000 29.308201 0.000000 0.000000 1.000000 0.527100 -0.061500 1 0 1.000000 
canister01a
0 0.468300 1.112900 29.025101 0.281398 0.414198 0.865595 0.564200 -0.078900 1 0 1.000000 
0 -0.816700 1.112900 29.025101 -0.217999 0.450798 0.865596 0.564200 -0.044100 1 0 1.000000 
0 -0.174200 -0.000000 29.308201 0.000000 0.000000 1.000000 0.527100 -0.061500 1 0 1.000000 
end
