version 1
nodes
  0 "static_prop" -1
end
skeleton
time 0
0 0.000000 0.000000 0.000000 0.000000 0.000000 0.000000
end
triangles
borealis_vent001
0 -19.752403 106.000000 -13.438900 -1.000000 -0.000000 0.000000 0.000000 -0.295000 1 0 1.000000 
0 -19.752403 106.000000 -2.438900 -1.000000 -0.000000 0.000000 1.000000 -0.004900 1 0 1.000000 
0 -19.752409 234.000000 -13.438900 -1.000000 -0.000000 0.000000 1.000000 -0.297400 1 0 1.000000 
borealis_vent001
0 -19.752409 234.000000 -2.438900 -1.000000 -0.000000 0.000000 1.000000 -0.006800 1 0 1.000000 
0 -19.752409 234.000000 -13.438900 -1.000000 -0.000000 0.000000 1.000000 -0.297400 1 0 1.000000 
0 -19.752403 106.000000 -2.438900 -1.000000 -0.000000 0.000000 0.000000 -0.003600 1 0 1.000000 
borealis_vent001
0 -19.752398 -34.470402 -2.438900 -1.000000 -0.000000 0.000000 1.000000 -0.004100 1 0 1.000000 
0 -19.752398 -22.000000 -13.438900 -1.000000 -0.000000 0.000000 0.000000 -0.294500 1 0 1.000000 
0 -19.752398 -34.470402 -13.438900 -1.000000 -0.000000 0.000000 1.000000 -0.294500 1 0 1.000000 
borealis_vent001
0 -19.752398 -34.470402 -2.438900 -1.000000 -0.000000 0.000000 1.000000 -0.004100 1 0 1.000000 
0 -19.752398 -22.000000 -2.438900 -1.000000 -0.000000 0.000000 0.000000 -0.004100 1 0 1.000000 
0 -19.752398 -22.000000 -13.438900 -1.000000 -0.000000 0.000000 0.000000 -0.294500 1 0 1.000000 
borealis_vent001
0 -19.752398 -22.000000 -2.438900 -1.000000 -0.000000 0.000000 0.000000 -0.004100 1 0 1.000000 
0 -19.752403 106.000000 -13.438900 -1.000000 -0.000000 0.000000 1.000000 -0.297600 1 0 1.000000 
0 -19.752398 -22.000000 -13.438900 -1.000000 -0.000000 0.000000 0.000000 -0.294500 1 0 1.000000 
borealis_vent001
0 -19.752403 106.000000 -2.438900 -1.000000 -0.000000 0.000000 1.000000 -0.004900 1 0 1.000000 
0 -19.752403 106.000000 -13.438900 -1.000000 -0.000000 0.000000 1.000000 -0.297600 1 0 1.000000 
0 -19.752398 -22.000000 -2.438900 -1.000000 -0.000000 0.000000 0.000000 -0.004100 1 0 1.000000 
borealis_vent001
0 19.747610 -234.000000 14.061100 0.000000 -1.000000 0.000000 0.720700 -0.576300 1 0 1.000000 
0 -0.252390 -234.000000 14.061100 0.000000 -1.000000 0.000000 0.530400 -0.576300 1 0 1.000000 
0 -0.252390 -234.000000 1.124200 0.000000 -0.992542 -0.121905 0.530400 -0.697200 1 0 1.000000 
borealis_vent001
0 19.747610 -234.000000 1.124200 0.000000 -0.998144 -0.060903 0.720700 -0.697200 1 0 1.000000 
0 19.747610 -234.000000 14.061100 0.000000 -1.000000 0.000000 0.720700 -0.576300 1 0 1.000000 
0 -0.252390 -234.000000 1.124200 0.000000 -0.992542 -0.121905 0.530400 -0.697200 1 0 1.000000 
borealis_vent001
0 -0.252390 -234.000000 1.124200 0.000000 -0.992542 -0.121905 0.530400 -0.697200 1 0 1.000000 
0 19.747610 -232.908798 -4.766700 0.000000 -0.953049 -0.302816 0.720700 -0.754200 1 0 1.000000 
0 19.747610 -234.000000 1.124200 0.000000 -0.998144 -0.060903 0.720700 -0.697200 1 0 1.000000 
borealis_vent001
0 -0.252390 -234.000000 1.124200 0.000000 -0.992542 -0.121905 0.530400 -0.697200 1 0 1.000000 
0 -0.252390 -232.908798 -4.766700 0.000000 -0.907238 -0.420618 0.530400 -0.754200 1 0 1.000000 
0 19.747610 -232.908798 -4.766700 0.000000 -0.953049 -0.302816 0.720700 -0.754200 1 0 1.000000 
borealis_vent001
0 -0.252390 -232.908798 -4.766700 0.000000 -0.907238 -0.420618 0.530400 -0.754200 1 0 1.000000 
0 19.747610 -230.005295 -9.412200 0.000000 -0.713676 -0.700476 0.720700 -0.802700 1 0 1.000000 
0 19.747610 -232.908798 -4.766700 0.000000 -0.953049 -0.302816 0.720700 -0.754200 1 0 1.000000 
borealis_vent001
0 -0.252390 -232.908798 -4.766700 0.000000 -0.907238 -0.420618 0.530400 -0.754200 1 0 1.000000 
0 -0.252390 -230.005295 -9.412200 0.000000 -0.713676 -0.700476 0.530400 -0.802700 1 0 1.000000 
0 19.747610 -230.005295 -9.412200 0.000000 -0.713676 -0.700476 0.720700 -0.802700 1 0 1.000000 
borealis_vent001
0 -19.752398 -22.000000 -13.438900 0.000000 0.000000 -1.000000 0.001100 -0.004100 1 0 1.000000 
0 0.247595 106.000000 -13.438900 0.000000 0.000000 -1.000000 1.000000 -0.299000 1 0 1.000000 
0 0.247601 -22.000000 -13.438900 0.000000 0.000000 -1.000000 0.001100 -0.295800 1 0 1.000000 
borealis_vent001
0 -19.752398 -22.000000 -13.438900 0.000000 0.000000 -1.000000 0.001100 -0.004100 1 0 1.000000 
0 -19.752403 106.000000 -13.438900 0.000000 0.000000 -1.000000 1.000000 -0.004700 1 0 1.000000 
0 0.247595 106.000000 -13.438900 0.000000 0.000000 -1.000000 1.000000 -0.299000 1 0 1.000000 
borealis_vent001
0 -19.752398 -22.000000 -2.438900 0.000000 0.000000 1.000000 0.000000 -0.004100 1 0 1.000000 
0 0.247601 -22.000000 -2.438900 0.000000 0.000000 1.000000 0.000000 -0.295800 1 0 1.000000 
0 0.247595 106.000000 -2.438900 0.000000 0.000000 1.000000 0.998900 -0.299000 1 0 1.000000 
borealis_vent001
0 0.247595 106.000000 -2.438900 0.000000 0.000000 1.000000 0.998900 -0.299000 1 0 1.000000 
0 -19.752403 106.000000 -2.438900 0.000000 0.000000 1.000000 0.998900 -0.004700 1 0 1.000000 
0 -19.752398 -22.000000 -2.438900 0.000000 0.000000 1.000000 0.000000 -0.004100 1 0 1.000000 
borealis_vent001
0 -19.752398 -34.991600 -2.438900 0.000000 0.000000 1.000000 0.988100 -0.036600 1 0 1.000000 
0 19.703304 -71.991600 -2.438900 0.000000 0.000000 1.000000 0.004700 -0.259000 1 0 1.000000 
0 0.251602 -34.991600 -2.438900 0.000000 0.000000 1.000000 0.809800 -0.257500 1 0 1.000000 
borealis_vent001
0 -19.752398 -34.991600 -2.438900 0.000000 0.000000 1.000000 0.988100 -0.036600 1 0 1.000000 
0 -0.263597 -71.991600 -2.438900 0.000000 0.000000 1.000000 0.182600 -0.038600 1 0 1.000000 
0 19.703304 -71.991600 -2.438900 0.000000 0.000000 1.000000 0.004700 -0.259000 1 0 1.000000 
borealis_vent001
0 0.251602 -34.991600 -13.438900 0.000000 0.000000 -1.000000 0.810600 -0.257700 1 0 1.000000 
0 -0.263597 -71.991600 -13.438900 0.000000 0.000000 -1.000000 0.183400 -0.038900 1 0 1.000000 
0 -19.752398 -34.991600 -13.438900 0.000000 0.000000 -1.000000 0.988900 -0.036900 1 0 1.000000 
borealis_vent001
0 0.251602 -34.991600 -13.438900 0.000000 0.000000 -1.000000 0.810600 -0.257700 1 0 1.000000 
0 19.703505 -71.991600 -13.438900 0.000000 0.000000 -1.000000 0.005500 -0.259300 1 0 1.000000 
0 -0.263597 -71.991600 -13.438900 0.000000 0.000000 -1.000000 0.183400 -0.038900 1 0 1.000000 
borealis_vent001
0 -0.995096 -90.936302 -13.910300 -0.000000 1.000000 0.000000 0.314400 -0.992100 1 0 1.000000 
0 -0.694896 -90.936302 -13.539600 -0.000000 1.000000 0.000000 0.310100 -0.986700 1 0 1.000000 
0 20.495104 -90.936302 -13.910300 -0.000000 1.000000 0.000000 0.005300 -0.992100 1 0 1.000000 
borealis_vent001
0 -0.995096 -90.936302 -13.910300 -0.000000 1.000000 0.000000 0.314400 -0.992100 1 0 1.000000 
0 -0.995096 -90.936302 14.078100 -0.000000 1.000000 0.000000 0.314400 -0.589500 1 0 1.000000 
0 -0.694896 -90.936302 -13.539600 -0.000000 1.000000 0.000000 0.310100 -0.986700 1 0 1.000000 
borealis_vent001
0 -0.995091 -206.936295 -13.910300 -0.000000 1.000000 0.000000 0.314400 -0.992100 1 0 1.000000 
0 -0.694891 -206.936295 -13.539600 -0.000000 1.000000 0.000000 0.310100 -0.986700 1 0 1.000000 
0 20.495110 -206.936295 -13.910300 -0.000000 1.000000 0.000000 0.005300 -0.992100 1 0 1.000000 
borealis_vent001
0 -0.995091 -206.936295 -13.910300 -0.000000 1.000000 0.000000 0.314400 -0.992100 1 0 1.000000 
0 -0.995091 -206.936295 14.078100 -0.000000 1.000000 0.000000 0.314400 -0.589500 1 0 1.000000 
0 -0.694891 -206.936295 -13.539600 -0.000000 1.000000 0.000000 0.310100 -0.986700 1 0 1.000000 
borealis_vent001
0 -20.495110 229.063705 -13.910300 0.000000 0.000000 -1.000000 0.957300 -0.747700 1 0 1.000000 
0 0.995090 228.000000 -13.910300 0.000000 0.000000 -1.000000 0.403200 -0.720200 1 0 1.000000 
0 -20.495110 228.000000 -13.910300 -0.050202 -0.985031 -0.164905 0.957300 -0.720200 1 0 1.000000 
borealis_vent001
0 -20.495110 229.063705 -13.910300 0.000000 0.000000 -1.000000 0.957300 -0.747700 1 0 1.000000 
0 0.995090 229.063705 -13.910300 0.000000 0.000000 -1.000000 0.403200 -0.747700 1 0 1.000000 
0 0.995090 228.000000 -13.910300 0.000000 0.000000 -1.000000 0.403200 -0.720200 1 0 1.000000 
borealis_vent001
0 -20.194910 229.063705 -13.539600 -0.008400 -0.164701 0.986308 0.949500 -0.747600 1 0 1.000000 
0 0.694890 228.000000 -13.539600 -0.008400 -0.164701 0.986308 0.411000 -0.720200 1 0 1.000000 
0 0.694890 229.063705 -13.539600 0.000000 0.000000 1.000000 0.411000 -0.747600 1 0 1.000000 
borealis_vent001
0 -20.194910 229.063705 -13.539600 -0.008400 -0.164701 0.986308 0.949500 -0.747600 1 0 1.000000 
0 -20.495110 228.000000 -13.910300 -0.050202 -0.985031 -0.164905 0.957300 -0.720200 1 0 1.000000 
0 0.694890 228.000000 -13.539600 -0.008400 -0.164701 0.986308 0.411000 -0.720200 1 0 1.000000 
borealis_vent001
0 -20.495110 228.000000 -13.910300 -0.879776 -0.475387 0.000000 0.613500 -0.950500 1 0 1.000000 
0 -20.495110 229.063705 14.078100 -1.000000 -0.000000 0.000000 0.633400 -0.433800 1 0 1.000000 
0 -20.495110 229.063705 -13.910300 -1.000000 -0.000000 0.000000 0.633400 -0.957400 1 0 1.000000 
borealis_vent001
0 -20.495110 228.000000 -13.910300 -0.879776 -0.475387 0.000000 0.613500 -0.950500 1 0 1.000000 
0 -20.194910 228.000000 14.078100 0.963306 -0.268202 0.010400 0.613500 -0.433800 1 0 1.000000 
0 -20.495110 229.063705 14.078100 -1.000000 -0.000000 0.000000 0.633400 -0.433800 1 0 1.000000 
borealis_vent001
0 -20.194910 229.063705 -13.539600 1.000000 0.000000 0.000000 0.633400 -0.950500 1 0 1.000000 
0 -20.495110 229.063705 14.078100 -1.000000 -0.000000 0.000000 0.633400 -0.433800 1 0 1.000000 
0 -20.194910 228.000000 14.078100 0.963306 -0.268202 0.010400 0.613500 -0.433800 1 0 1.000000 
borealis_vent001
0 -20.194910 229.063705 -13.539600 1.000000 0.000000 0.000000 0.633400 -0.950500 1 0 1.000000 
0 -20.194910 228.000000 14.078100 0.963306 -0.268202 0.010400 0.613500 -0.433800 1 0 1.000000 
0 -20.495110 228.000000 -13.910300 -0.879776 -0.475387 0.000000 0.613500 -0.950500 1 0 1.000000 
borealis_vent001
0 -0.262096 -86.000000 -2.446000 0.000000 -1.000000 0.000000 0.316200 -0.586900 1 0 1.000000 
0 19.703304 -86.000000 -13.438900 0.000000 -1.000000 0.000000 0.316200 -0.977300 1 0 1.000000 
0 19.703304 -86.000000 -2.438900 0.000000 -1.000000 0.000000 0.316200 -0.586600 1 0 1.000000 
borealis_vent001
0 -0.262096 -86.000000 -2.446000 0.000000 -1.000000 0.000000 0.316200 -0.586900 1 0 1.000000 
0 -0.262096 -86.000000 -13.438900 0.000000 -1.000000 0.000000 0.316200 -0.977300 1 0 1.000000 
0 19.703304 -86.000000 -13.438900 0.000000 -1.000000 0.000000 0.316200 -0.977300 1 0 1.000000 
borealis_vent001
0 -0.756293 -171.098206 -13.965700 -0.000000 1.000000 0.000000 0.310900 -0.992900 1 0 1.000000 
0 20.251507 -171.098206 -1.912100 -0.000000 1.000000 0.000000 0.008800 -0.819500 1 0 1.000000 
0 20.251608 -171.098206 -13.965700 0.497578 0.021099 -0.867162 0.008800 -0.992900 1 0 1.000000 
borealis_vent001
0 -0.756293 -171.098206 -13.965700 -0.000000 1.000000 0.000000 0.310900 -0.992900 1 0 1.000000 
0 -0.756292 -171.539398 -1.912100 -0.497578 -0.021099 0.867162 0.310900 -0.819500 1 0 1.000000 
0 20.251507 -171.098206 -1.912100 -0.000000 1.000000 0.000000 0.008800 -0.819500 1 0 1.000000 
borealis_vent001
0 -0.756292 -171.539398 -13.965700 0.000000 -1.000000 0.000000 0.310900 -0.992900 1 0 1.000000 
0 20.251507 -171.539398 -1.912100 0.000000 -1.000000 0.000000 0.008800 -0.819500 1 0 1.000000 
0 -0.756292 -171.539398 -1.912100 -0.497578 -0.021099 0.867162 0.310900 -0.819500 1 0 1.000000 
borealis_vent001
0 -0.756292 -171.539398 -13.965700 0.000000 -1.000000 0.000000 0.310900 -0.992900 1 0 1.000000 
0 20.251608 -171.098206 -13.965700 0.497578 0.021099 -0.867162 0.008800 -0.992900 1 0 1.000000 
0 20.251507 -171.539398 -1.912100 0.000000 -1.000000 0.000000 0.008800 -0.819500 1 0 1.000000 
borealis_vent001
0 0.694895 113.063698 -13.539600 -0.000000 1.000000 0.000000 0.012800 -0.989800 1 0 1.000000 
0 0.694895 113.063698 14.078100 -0.000000 1.000000 0.000000 0.012800 -0.583400 1 0 1.000000 
0 0.995095 113.063698 -13.910300 -0.000000 1.000000 0.000000 0.008400 -0.995300 1 0 1.000000 
borealis_vent001
0 -20.495106 113.063698 -13.910300 -0.000000 1.000000 0.000000 0.324600 -0.995300 1 0 1.000000 
0 0.694895 113.063698 -13.539600 -0.000000 1.000000 0.000000 0.012800 -0.989800 1 0 1.000000 
0 0.995095 113.063698 -13.910300 -0.000000 1.000000 0.000000 0.008400 -0.995300 1 0 1.000000 
borealis_vent001
0 -20.495106 113.063698 -13.910300 -0.000000 1.000000 0.000000 0.324600 -0.995300 1 0 1.000000 
0 -20.194906 113.063698 -13.539600 -0.000000 1.000000 0.000000 0.320200 -0.989800 1 0 1.000000 
0 0.694895 113.063698 -13.539600 -0.000000 1.000000 0.000000 0.012800 -0.989800 1 0 1.000000 
borealis_vent001
0 -20.495106 113.063698 -13.910300 -0.000000 1.000000 0.000000 0.324600 -0.995300 1 0 1.000000 
0 -20.495106 113.063698 14.078100 -0.000000 1.000000 0.000000 0.324600 -0.583400 1 0 1.000000 
0 -20.194906 113.063698 -13.539600 -0.000000 1.000000 0.000000 0.320200 -0.989800 1 0 1.000000 
borealis_vent001
0 -20.495100 -14.936301 -13.910300 -0.000000 1.000000 0.000000 0.324600 -0.995300 1 0 1.000000 
0 -20.194901 -14.936301 -13.539600 -0.000000 1.000000 0.000000 0.320200 -0.989800 1 0 1.000000 
0 0.995101 -14.936300 -13.910300 -0.000000 1.000000 0.000000 0.008400 -0.995300 1 0 1.000000 
borealis_vent001
0 -20.495100 -14.936301 -13.910300 -0.000000 1.000000 0.000000 0.324600 -0.995300 1 0 1.000000 
0 -20.495100 -14.936301 14.078100 -0.000000 1.000000 0.000000 0.324600 -0.583400 1 0 1.000000 
0 -20.194901 -14.936301 -13.539600 -0.000000 1.000000 0.000000 0.320200 -0.989800 1 0 1.000000 
borealis_vent001
0 0.694896 101.063698 -13.539600 -0.000000 1.000000 0.000000 0.012800 -0.989800 1 0 1.000000 
0 0.694896 101.063698 14.078100 -0.000000 1.000000 0.000000 0.012800 -0.583400 1 0 1.000000 
0 0.995096 101.063698 -13.910300 -0.000000 1.000000 0.000000 0.008400 -0.995300 1 0 1.000000 
borealis_vent001
0 -20.495104 101.063698 -13.910300 -0.000000 1.000000 0.000000 0.324600 -0.995300 1 0 1.000000 
0 0.694896 101.063698 -13.539600 -0.000000 1.000000 0.000000 0.012800 -0.989800 1 0 1.000000 
0 0.995096 101.063698 -13.910300 -0.000000 1.000000 0.000000 0.008400 -0.995300 1 0 1.000000 
borealis_vent001
0 -20.495104 101.063698 -13.910300 -0.000000 1.000000 0.000000 0.324600 -0.995300 1 0 1.000000 
0 -20.194904 101.063698 -13.539600 -0.000000 1.000000 0.000000 0.320200 -0.989800 1 0 1.000000 
0 0.694896 101.063698 -13.539600 -0.000000 1.000000 0.000000 0.012800 -0.989800 1 0 1.000000 
borealis_vent001
0 -20.495104 101.063698 -13.910300 -0.000000 1.000000 0.000000 0.324600 -0.995300 1 0 1.000000 
0 -20.495104 101.063698 14.078100 -0.000000 1.000000 0.000000 0.324600 -0.583400 1 0 1.000000 
0 -20.194904 101.063698 -13.539600 -0.000000 1.000000 0.000000 0.320200 -0.989800 1 0 1.000000 
borealis_vent001
0 0.694890 229.063705 -13.539600 -0.000000 1.000000 0.000000 0.012800 -0.989800 1 0 1.000000 
0 0.694890 229.063705 14.078100 -0.000000 1.000000 0.000000 0.012800 -0.583400 1 0 1.000000 
0 0.995090 229.063705 -13.910300 -0.000000 1.000000 0.000000 0.008400 -0.995300 1 0 1.000000 
borealis_vent001
0 -20.495110 229.063705 -13.910300 -0.000000 1.000000 0.000000 0.324600 -0.995300 1 0 1.000000 
0 0.694890 229.063705 -13.539600 -0.000000 1.000000 0.000000 0.012800 -0.989800 1 0 1.000000 
0 0.995090 229.063705 -13.910300 -0.000000 1.000000 0.000000 0.008400 -0.995300 1 0 1.000000 
borealis_vent001
0 -20.495110 229.063705 -13.910300 -0.000000 1.000000 0.000000 0.324600 -0.995300 1 0 1.000000 
0 -20.194910 229.063705 -13.539600 -0.000000 1.000000 0.000000 0.320200 -0.989800 1 0 1.000000 
0 0.694890 229.063705 -13.539600 -0.000000 1.000000 0.000000 0.012800 -0.989800 1 0 1.000000 
borealis_vent001
0 -20.495110 229.063705 -13.910300 -0.000000 1.000000 0.000000 0.324600 -0.995300 1 0 1.000000 
0 -20.495110 229.063705 14.078100 -0.000000 1.000000 0.000000 0.324600 -0.583400 1 0 1.000000 
0 -20.194910 229.063705 -13.539600 -0.000000 1.000000 0.000000 0.320200 -0.989800 1 0 1.000000 
borealis_vent001
0 -20.398397 -34.470402 -1.799700 0.000000 0.000000 1.000000 0.924900 -0.623300 1 0 1.000000 
0 0.893602 -34.991600 -1.799700 0.000000 0.000000 1.000000 0.442300 -0.611500 1 0 1.000000 
0 0.893601 -34.470402 -1.799700 0.000000 0.000000 1.000000 0.442300 -0.623300 1 0 1.000000 
borealis_vent001
0 -20.398397 -34.470402 -1.799700 0.000000 0.000000 1.000000 0.924900 -0.623300 1 0 1.000000 
0 -20.398397 -34.991600 -1.799700 0.000000 0.000000 1.000000 0.924900 -0.611500 1 0 1.000000 
0 0.893602 -34.991600 -1.799700 0.000000 0.000000 1.000000 0.442300 -0.611500 1 0 1.000000 
borealis_vent001
0 -20.398397 -34.470402 -14.078100 -1.000000 -0.000000 0.000000 0.537600 -0.915100 1 0 1.000000 
0 -20.398397 -34.991600 -1.799700 -1.000000 -0.000000 0.000000 0.521900 -0.546100 1 0 1.000000 
0 -20.398397 -34.470402 -1.799700 -1.000000 -0.000000 0.000000 0.537600 -0.546100 1 0 1.000000 
borealis_vent001
0 -20.398397 -34.470402 -14.078100 -1.000000 -0.000000 0.000000 0.537600 -0.915100 1 0 1.000000 
0 -20.398397 -34.991600 -14.078100 -1.000000 -0.000000 0.000000 0.521900 -0.915100 1 0 1.000000 
0 -20.398397 -34.991600 -1.799700 -1.000000 -0.000000 0.000000 0.521900 -0.546100 1 0 1.000000 
borealis_vent001
0 0.893601 -34.470402 -14.078100 0.000000 0.000000 -1.000000 0.442300 -0.624600 1 0 1.000000 
0 -20.398397 -34.991600 -14.078100 0.000000 0.000000 -1.000000 0.924900 -0.612700 1 0 1.000000 
0 -20.398397 -34.470402 -14.078100 0.000000 0.000000 -1.000000 0.924900 -0.624600 1 0 1.000000 
borealis_vent001
0 0.893601 -34.470402 -14.078100 0.000000 0.000000 -1.000000 0.442300 -0.624600 1 0 1.000000 
0 0.893602 -34.991600 -14.078100 0.000000 0.000000 -1.000000 0.442300 -0.612700 1 0 1.000000 
0 -20.398397 -34.991600 -14.078100 0.000000 0.000000 -1.000000 0.924900 -0.612700 1 0 1.000000 
borealis_vent001
0 0.893601 -34.470402 -1.799700 1.000000 0.000000 0.000000 0.537600 -0.546100 1 0 1.000000 
0 0.893602 -34.991600 -14.078100 1.000000 0.000000 0.000000 0.521900 -0.915100 1 0 1.000000 
0 0.893601 -34.470402 -14.078100 1.000000 0.000000 0.000000 0.537600 -0.915100 1 0 1.000000 
borealis_vent001
0 0.893601 -34.470402 -1.799700 1.000000 0.000000 0.000000 0.537600 -0.546100 1 0 1.000000 
0 0.893602 -34.991600 -1.799700 1.000000 0.000000 0.000000 0.521900 -0.546100 1 0 1.000000 
0 0.893602 -34.991600 -14.078100 1.000000 0.000000 0.000000 0.521900 -0.915100 1 0 1.000000 
borealis_vent001
0 -0.926197 -71.991600 -14.069600 -1.000000 -0.000000 0.000000 0.947300 -0.943900 1 0 1.000000 
0 -0.926197 -72.568497 -1.808200 -1.000000 -0.000000 0.000000 0.927600 -0.524000 1 0 1.000000 
0 -0.926197 -71.991600 -1.808200 -1.000000 -0.000000 0.000000 0.947300 -0.524000 1 0 1.000000 
borealis_vent001
0 -0.926197 -71.991600 -14.069600 -1.000000 -0.000000 0.000000 0.947300 -0.943900 1 0 1.000000 
0 -0.926197 -72.568497 -14.069600 -1.000000 -0.000000 0.000000 0.927600 -0.943900 1 0 1.000000 
0 -0.926197 -72.568497 -1.808200 -1.000000 -0.000000 0.000000 0.927600 -0.524000 1 0 1.000000 
borealis_vent001
0 20.367304 -71.991600 -14.069600 0.000000 0.000000 -1.000000 0.860200 -0.972000 1 0 1.000000 
0 -0.926197 -72.568497 -14.069600 0.000000 0.000000 -1.000000 0.847900 -0.517700 1 0 1.000000 
0 -0.926197 -71.991600 -14.069600 0.000000 0.000000 -1.000000 0.860200 -0.517700 1 0 1.000000 
borealis_vent001
0 20.367304 -71.991600 -14.069600 0.000000 0.000000 -1.000000 0.860200 -0.972000 1 0 1.000000 
0 20.367304 -72.568497 -14.069600 0.000000 0.000000 -1.000000 0.847900 -0.972000 1 0 1.000000 
0 -0.926197 -72.568497 -14.069600 0.000000 0.000000 -1.000000 0.847900 -0.517700 1 0 1.000000 
borealis_vent001
0 -0.926197 -71.991600 -1.808200 0.000000 0.000000 1.000000 0.860200 -0.516600 1 0 1.000000 
0 20.367304 -72.568497 -1.808200 0.000000 0.000000 1.000000 0.847900 -0.970900 1 0 1.000000 
0 20.367304 -71.991600 -1.808200 0.000000 0.000000 1.000000 0.860200 -0.970900 1 0 1.000000 
borealis_vent001
0 -0.926197 -71.991600 -1.808200 0.000000 0.000000 1.000000 0.860200 -0.516600 1 0 1.000000 
0 -0.926197 -72.568497 -1.808200 0.000000 0.000000 1.000000 0.847900 -0.516600 1 0 1.000000 
0 20.367304 -72.568497 -1.808200 0.000000 0.000000 1.000000 0.847900 -0.970900 1 0 1.000000 
borealis_vent001
0 20.367304 -71.991600 -1.808200 1.000000 0.000000 0.000000 0.947300 -0.524000 1 0 1.000000 
0 20.367304 -72.568497 -14.069600 1.000000 0.000000 0.000000 0.927600 -0.943900 1 0 1.000000 
0 20.367304 -71.991600 -14.069600 1.000000 0.000000 0.000000 0.947300 -0.943900 1 0 1.000000 
borealis_vent001
0 20.367304 -71.991600 -1.808200 1.000000 0.000000 0.000000 0.947300 -0.524000 1 0 1.000000 
0 20.367304 -72.568497 -1.808200 1.000000 0.000000 0.000000 0.927600 -0.524000 1 0 1.000000 
0 20.367304 -72.568497 -14.069600 1.000000 0.000000 0.000000 0.927600 -0.943900 1 0 1.000000 
borealis_vent001
0 17.704908 -164.500000 -13.356800 1.000000 0.000000 0.000000 0.010300 -0.760100 1 0 1.000000 
0 17.704908 -155.500000 -13.731100 1.000000 0.000000 0.000000 0.307600 -0.772500 1 0 1.000000 
0 17.704908 -155.500000 -13.356800 1.000000 0.000000 0.000000 0.307600 -0.760100 1 0 1.000000 
borealis_vent001
0 17.704908 -164.500000 -13.356800 1.000000 0.000000 0.000000 0.010300 -0.760100 1 0 1.000000 
0 17.704908 -164.500000 -13.731100 1.000000 0.000000 0.000000 0.010300 -0.772500 1 0 1.000000 
0 17.704908 -155.500000 -13.731100 1.000000 0.000000 0.000000 0.307600 -0.772500 1 0 1.000000 
borealis_vent001
0 1.704907 -164.500000 -13.356800 0.000000 -1.000000 0.000000 0.318600 -0.717800 1 0 1.000000 
0 17.704908 -164.500000 -13.731100 0.118001 -0.601107 -0.790409 0.020500 -0.724700 1 0 1.000000 
0 17.704908 -164.500000 -13.356800 0.000000 -1.000000 0.000000 0.020500 -0.717800 1 0 1.000000 
borealis_vent001
0 1.704907 -164.500000 -13.356800 0.000000 -1.000000 0.000000 0.318600 -0.717800 1 0 1.000000 
0 1.704907 -164.500000 -13.731100 -0.060801 -0.447906 -0.892011 0.318600 -0.724700 1 0 1.000000 
0 17.704908 -164.500000 -13.731100 0.118001 -0.601107 -0.790409 0.020500 -0.724700 1 0 1.000000 
borealis_vent001
0 -17.752407 177.500000 -13.396700 0.000000 -1.000000 0.000000 0.324000 -0.720900 1 0 1.000000 
0 -1.752408 177.500000 -13.771000 0.118001 -0.601107 -0.790409 0.015100 -0.728100 1 0 1.000000 
0 -1.752408 177.500000 -13.396700 0.000000 -1.000000 0.000000 0.015100 -0.720900 1 0 1.000000 
borealis_vent001
0 -17.752407 177.500000 -13.396700 0.000000 -1.000000 0.000000 0.324000 -0.720900 1 0 1.000000 
0 -17.752407 177.500000 -13.771000 -0.066802 -0.443212 -0.893924 0.324000 -0.728100 1 0 1.000000 
0 -1.752408 177.500000 -13.771000 0.118001 -0.601107 -0.790409 0.015100 -0.728100 1 0 1.000000 
borealis_vent001
0 -1.752408 177.500000 -13.396700 1.000000 0.000000 0.000000 0.005500 -0.719800 1 0 1.000000 
0 -1.752408 186.500000 -13.771000 1.000000 0.000000 0.000000 0.337600 -0.733600 1 0 1.000000 
0 -1.752408 186.500000 -13.396700 1.000000 0.000000 0.000000 0.337600 -0.719800 1 0 1.000000 
borealis_vent001
0 -1.752408 177.500000 -13.396700 1.000000 0.000000 0.000000 0.005500 -0.719800 1 0 1.000000 
0 -1.752408 177.500000 -13.771000 1.000000 0.000000 0.000000 0.005500 -0.733600 1 0 1.000000 
0 -1.752408 186.500000 -13.771000 1.000000 0.000000 0.000000 0.337600 -0.733600 1 0 1.000000 
borealis_vent001
0 1.704907 -164.500000 -13.356800 -0.986622 0.011700 -0.162604 0.010300 -0.760100 1 0 1.000000 
0 1.907607 -155.702698 -13.955000 -0.986622 0.011700 -0.162604 0.307600 -0.772500 1 0 1.000000 
0 1.704907 -164.500000 -13.731100 -1.000000 -0.000000 0.000000 0.010300 -0.772500 1 0 1.000000 
borealis_vent001
0 1.704907 -164.500000 -13.356800 -0.986622 0.011700 -0.162604 0.010300 -0.760100 1 0 1.000000 
0 1.704907 -155.500000 -13.356800 -0.947112 -0.000000 -0.320904 0.307600 -0.760100 1 0 1.000000 
0 1.907607 -155.702698 -13.955000 -0.986622 0.011700 -0.162604 0.307600 -0.772500 1 0 1.000000 
borealis_vent001
0 1.704907 -155.500000 -13.356800 -0.003800 0.986486 -0.163798 0.318600 -0.717800 1 0 1.000000 
0 17.704908 -155.500000 -13.731100 0.057101 0.553010 -0.831215 0.020500 -0.724700 1 0 1.000000 
0 1.907607 -155.702698 -13.955000 -0.056199 0.273296 -0.960287 0.318600 -0.724700 1 0 1.000000 
borealis_vent001
0 1.704907 -155.500000 -13.356800 -0.003800 0.986486 -0.163798 0.318600 -0.717800 1 0 1.000000 
0 17.704908 -155.500000 -13.356800 -0.000000 1.000000 0.000000 0.020500 -0.717800 1 0 1.000000 
0 17.704908 -155.500000 -13.731100 0.057101 0.553010 -0.831215 0.020500 -0.724700 1 0 1.000000 
borealis_vent001
0 -17.752407 177.500000 -13.396700 -1.000000 -0.000000 0.000000 0.005500 -0.719800 1 0 1.000000 
0 -17.752407 186.500000 -13.771000 -1.000000 -0.000000 0.000000 0.337600 -0.733600 1 0 1.000000 
0 -17.752407 177.500000 -13.771000 -1.000000 -0.000000 0.000000 0.005500 -0.733600 1 0 1.000000 
borealis_vent001
0 -17.752407 177.500000 -13.396700 -1.000000 -0.000000 0.000000 0.005500 -0.719800 1 0 1.000000 
0 -17.752407 186.500000 -13.396700 -1.000000 -0.000000 0.000000 0.337600 -0.719800 1 0 1.000000 
0 -17.752407 186.500000 -13.771000 -1.000000 -0.000000 0.000000 0.337600 -0.733600 1 0 1.000000 
borealis_vent001
0 -17.752407 186.500000 -13.396700 -0.000000 1.000000 0.000000 0.324000 -0.720900 1 0 1.000000 
0 -1.752408 186.500000 -13.771000 0.057301 0.638709 -0.767311 0.015100 -0.728100 1 0 1.000000 
0 -17.752407 186.500000 -13.771000 -0.136496 0.380689 -0.914573 0.324000 -0.728100 1 0 1.000000 
borealis_vent001
0 -17.752407 186.500000 -13.396700 -0.000000 1.000000 0.000000 0.324000 -0.720900 1 0 1.000000 
0 -1.752408 186.500000 -13.396700 -0.000000 1.000000 0.000000 0.015100 -0.720900 1 0 1.000000 
0 -1.752408 186.500000 -13.771000 0.057301 0.638709 -0.767311 0.015100 -0.728100 1 0 1.000000 
borealis_vent001
0 -20.194901 -14.936301 -13.539600 0.000000 0.000000 1.000000 0.935400 -0.880700 1 0 1.000000 
0 0.694901 -16.000000 -13.539600 0.000000 0.000000 1.000000 0.418400 -0.854400 1 0 1.000000 
0 0.995101 -14.936300 -13.910300 0.050202 0.985031 -0.164905 0.411000 -0.880800 1 0 1.000000 
borealis_vent001
0 -20.194901 -14.936301 -13.539600 0.000000 0.000000 1.000000 0.935400 -0.880700 1 0 1.000000 
0 -20.495100 -16.000000 -13.910300 -0.050202 -0.985031 -0.164905 0.942800 -0.854500 1 0 1.000000 
0 0.694901 -16.000000 -13.539600 0.000000 0.000000 1.000000 0.418400 -0.854400 1 0 1.000000 
borealis_vent001
0 -20.495100 -14.936301 -13.910300 0.000000 0.000000 -1.000000 0.942800 -0.880800 1 0 1.000000 
0 0.995101 -16.000000 -13.910300 0.000000 0.000000 -1.000000 0.411000 -0.854500 1 0 1.000000 
0 -20.495100 -16.000000 -13.910300 -0.050202 -0.985031 -0.164905 0.942800 -0.854500 1 0 1.000000 
borealis_vent001
0 -20.495100 -14.936301 -13.910300 0.000000 0.000000 -1.000000 0.942800 -0.880800 1 0 1.000000 
0 0.995101 -14.936300 -13.910300 0.050202 0.985031 -0.164905 0.411000 -0.880800 1 0 1.000000 
0 0.995101 -16.000000 -13.910300 0.000000 0.000000 -1.000000 0.411000 -0.854500 1 0 1.000000 
borealis_vent001
0 -20.495100 -16.000000 -13.910300 -0.879776 -0.475387 0.000000 0.596100 -0.955500 1 0 1.000000 
0 -20.495100 -14.936301 14.078100 -1.000000 -0.000000 0.000000 0.617500 -0.401700 1 0 1.000000 
0 -20.495100 -14.936301 -13.910300 -1.000000 -0.000000 0.000000 0.617500 -0.963000 1 0 1.000000 
borealis_vent001
0 -20.495100 -16.000000 -13.910300 -0.879776 -0.475387 0.000000 0.596100 -0.955500 1 0 1.000000 
0 -20.194901 -16.000000 14.078100 0.963306 -0.268202 0.010400 0.596100 -0.401700 1 0 1.000000 
0 -20.495100 -14.936301 14.078100 -1.000000 -0.000000 0.000000 0.617500 -0.401700 1 0 1.000000 
borealis_vent001
0 -20.194901 -14.936301 -13.539600 1.000000 0.000000 0.000000 0.617500 -0.955500 1 0 1.000000 
0 -20.495100 -14.936301 14.078100 -1.000000 -0.000000 0.000000 0.617500 -0.401700 1 0 1.000000 
0 -20.194901 -16.000000 14.078100 0.963306 -0.268202 0.010400 0.596100 -0.401700 1 0 1.000000 
borealis_vent001
0 -20.194901 -14.936301 -13.539600 1.000000 0.000000 0.000000 0.617500 -0.955500 1 0 1.000000 
0 -20.194901 -16.000000 14.078100 0.963306 -0.268202 0.010400 0.596100 -0.401700 1 0 1.000000 
0 -20.495100 -16.000000 -13.910300 -0.879776 -0.475387 0.000000 0.596100 -0.955500 1 0 1.000000 
borealis_vent001
0 0.995096 101.063698 -13.910300 0.990543 0.137106 0.005200 0.669800 -0.958900 1 0 1.000000 
0 0.995096 100.000000 14.078100 1.000000 0.000000 0.000000 0.648900 -0.410400 1 0 1.000000 
0 0.995096 100.000000 -13.910300 1.000000 0.000000 0.000000 0.648900 -0.958900 1 0 1.000000 
borealis_vent001
0 0.995096 101.063698 -13.910300 0.990543 0.137106 0.005200 0.669800 -0.958900 1 0 1.000000 
0 0.694896 101.063698 14.078100 -1.000000 -0.000000 0.000000 0.669800 -0.410400 1 0 1.000000 
0 0.995096 100.000000 14.078100 1.000000 0.000000 0.000000 0.648900 -0.410400 1 0 1.000000 
borealis_vent001
0 0.694896 100.000000 -13.539600 -0.990542 -0.137106 0.005300 0.648900 -0.951700 1 0 1.000000 
0 0.995096 100.000000 14.078100 1.000000 0.000000 0.000000 0.648900 -0.410400 1 0 1.000000 
0 0.694896 101.063698 14.078100 -1.000000 -0.000000 0.000000 0.669800 -0.410400 1 0 1.000000 
borealis_vent001
0 0.694896 100.000000 -13.539600 -0.990542 -0.137106 0.005300 0.648900 -0.951700 1 0 1.000000 
0 0.694896 101.063698 14.078100 -1.000000 -0.000000 0.000000 0.669800 -0.410400 1 0 1.000000 
0 0.694896 101.063698 -13.539600 -1.000000 -0.000000 0.000000 0.669800 -0.951700 1 0 1.000000 
borealis_vent001
0 -0.995091 -208.000000 -13.910300 -0.879818 -0.475310 0.000000 0.512000 -0.950600 1 0 1.000000 
0 -0.995091 -206.936295 14.078100 -1.000000 -0.000000 0.000000 0.534700 -0.359700 1 0 1.000000 
0 -0.995091 -206.936295 -13.910300 -1.000000 -0.000000 0.000000 0.534700 -0.958500 1 0 1.000000 
borealis_vent001
0 -0.995091 -208.000000 -13.910300 -0.879818 -0.475310 0.000000 0.512000 -0.950600 1 0 1.000000 
0 -0.694891 -208.000000 14.078100 0.963306 -0.268202 0.010400 0.512000 -0.359700 1 0 1.000000 
0 -0.995091 -206.936295 14.078100 -1.000000 -0.000000 0.000000 0.534700 -0.359700 1 0 1.000000 
borealis_vent001
0 -0.694891 -206.936295 -13.539600 1.000000 0.000000 0.000000 0.534700 -0.950600 1 0 1.000000 
0 -0.995091 -206.936295 14.078100 -1.000000 -0.000000 0.000000 0.534700 -0.359700 1 0 1.000000 
0 -0.694891 -208.000000 14.078100 0.963306 -0.268202 0.010400 0.512000 -0.359700 1 0 1.000000 
borealis_vent001
0 -0.694891 -206.936295 -13.539600 1.000000 0.000000 0.000000 0.534700 -0.950600 1 0 1.000000 
0 -0.694891 -208.000000 14.078100 0.963306 -0.268202 0.010400 0.512000 -0.359700 1 0 1.000000 
0 -0.995091 -208.000000 -13.910300 -0.879818 -0.475310 0.000000 0.512000 -0.950600 1 0 1.000000 
borealis_vent001
0 -0.694891 -206.936295 -13.539600 0.000000 0.000000 1.000000 0.970600 -0.535000 1 0 1.000000 
0 20.194910 -208.000000 -13.539600 0.000000 0.000000 1.000000 0.383200 -0.505100 1 0 1.000000 
0 20.495110 -206.936295 -13.910300 0.050202 0.985031 -0.164905 0.374700 -0.535000 1 0 1.000000 
borealis_vent001
0 -0.694891 -206.936295 -13.539600 0.000000 0.000000 1.000000 0.970600 -0.535000 1 0 1.000000 
0 -0.995091 -208.000000 -13.910300 -0.050202 -0.985031 -0.164905 0.979100 -0.505100 1 0 1.000000 
0 20.194910 -208.000000 -13.539600 0.000000 0.000000 1.000000 0.383200 -0.505100 1 0 1.000000 
borealis_vent001
0 -0.995091 -206.936295 -13.910300 0.000000 0.000000 -1.000000 0.979100 -0.535000 1 0 1.000000 
0 20.495110 -208.000000 -13.910300 0.000000 0.000000 -1.000000 0.374700 -0.505100 1 0 1.000000 
0 -0.995091 -208.000000 -13.910300 -0.050202 -0.985031 -0.164905 0.979100 -0.505100 1 0 1.000000 
borealis_vent001
0 -0.995091 -206.936295 -13.910300 0.000000 0.000000 -1.000000 0.979100 -0.535000 1 0 1.000000 
0 20.495110 -206.936295 -13.910300 0.050202 0.985031 -0.164905 0.374700 -0.535000 1 0 1.000000 
0 20.495110 -208.000000 -13.910300 0.000000 0.000000 -1.000000 0.374700 -0.505100 1 0 1.000000 
borealis_vent001
0 20.495110 -206.936295 -13.910300 0.879776 0.475387 0.000000 0.534700 -0.950600 1 0 1.000000 
0 20.495110 -208.000000 14.078100 1.000000 0.000000 0.000000 0.512000 -0.359700 1 0 1.000000 
0 20.495110 -208.000000 -13.910300 1.000000 0.000000 0.000000 0.512000 -0.958500 1 0 1.000000 
borealis_vent001
0 20.495110 -206.936295 -13.910300 0.879776 0.475387 0.000000 0.534700 -0.950600 1 0 1.000000 
0 20.194910 -206.936295 14.078100 -0.963306 0.268202 0.010400 0.534700 -0.359700 1 0 1.000000 
0 20.495110 -208.000000 14.078100 1.000000 0.000000 0.000000 0.512000 -0.359700 1 0 1.000000 
borealis_vent001
0 20.194910 -208.000000 -13.539600 -1.000000 -0.000000 0.000000 0.512000 -0.950600 1 0 1.000000 
0 20.495110 -208.000000 14.078100 1.000000 0.000000 0.000000 0.512000 -0.359700 1 0 1.000000 
0 20.194910 -206.936295 14.078100 -0.963306 0.268202 0.010400 0.534700 -0.359700 1 0 1.000000 
borealis_vent001
0 20.194910 -208.000000 -13.539600 -1.000000 -0.000000 0.000000 0.512000 -0.950600 1 0 1.000000 
0 20.194910 -206.936295 14.078100 -0.963306 0.268202 0.010400 0.534700 -0.359700 1 0 1.000000 
0 20.495110 -206.936295 -13.910300 0.879776 0.475387 0.000000 0.534700 -0.950600 1 0 1.000000 
borealis_vent001
0 -0.694896 -90.936302 -13.539600 0.000000 0.000000 1.000000 0.965100 -0.751400 1 0 1.000000 
0 20.194904 -92.000000 -13.539600 0.000000 0.000000 1.000000 0.408800 -0.723100 1 0 1.000000 
0 20.495104 -90.936302 -13.910300 0.050202 0.985031 -0.164905 0.400800 -0.751500 1 0 1.000000 
borealis_vent001
0 -0.694896 -90.936302 -13.539600 0.000000 0.000000 1.000000 0.965100 -0.751400 1 0 1.000000 
0 -0.995096 -92.000000 -13.910300 -0.050202 -0.985031 -0.164905 0.973100 -0.723100 1 0 1.000000 
0 20.194904 -92.000000 -13.539600 0.000000 0.000000 1.000000 0.408800 -0.723100 1 0 1.000000 
borealis_vent001
0 -0.995096 -90.936302 -13.910300 0.000000 0.000000 -1.000000 0.973100 -0.751500 1 0 1.000000 
0 20.495104 -92.000000 -13.910300 0.000000 0.000000 -1.000000 0.400800 -0.723100 1 0 1.000000 
0 -0.995096 -92.000000 -13.910300 -0.050202 -0.985031 -0.164905 0.973100 -0.723100 1 0 1.000000 
borealis_vent001
0 -0.995096 -90.936302 -13.910300 0.000000 0.000000 -1.000000 0.973100 -0.751500 1 0 1.000000 
0 20.495104 -90.936302 -13.910300 0.050202 0.985031 -0.164905 0.400800 -0.751500 1 0 1.000000 
0 20.495104 -92.000000 -13.910300 0.000000 0.000000 -1.000000 0.400800 -0.723100 1 0 1.000000 
borealis_vent001
0 -0.995096 -92.000000 -13.910300 -0.879818 -0.475310 0.000000 0.559000 -0.982600 1 0 1.000000 
0 -0.995096 -90.936302 14.078100 -1.000000 -0.000000 0.000000 0.581200 -0.407900 1 0 1.000000 
0 -0.995096 -90.936302 -13.910300 -1.000000 -0.000000 0.000000 0.581200 -0.990300 1 0 1.000000 
borealis_vent001
0 -0.995096 -92.000000 -13.910300 -0.879818 -0.475310 0.000000 0.559000 -0.982600 1 0 1.000000 
0 -0.694896 -92.000000 14.078100 0.963306 -0.268202 0.010400 0.559000 -0.407900 1 0 1.000000 
0 -0.995096 -90.936302 14.078100 -1.000000 -0.000000 0.000000 0.581200 -0.407900 1 0 1.000000 
borealis_vent001
0 -0.694896 -90.936302 -13.539600 1.000000 0.000000 0.000000 0.581200 -0.982600 1 0 1.000000 
0 -0.995096 -90.936302 14.078100 -1.000000 -0.000000 0.000000 0.581200 -0.407900 1 0 1.000000 
0 -0.694896 -92.000000 14.078100 0.963306 -0.268202 0.010400 0.559000 -0.407900 1 0 1.000000 
borealis_vent001
0 -0.694896 -90.936302 -13.539600 1.000000 0.000000 0.000000 0.581200 -0.982600 1 0 1.000000 
0 -0.694896 -92.000000 14.078100 0.963306 -0.268202 0.010400 0.559000 -0.407900 1 0 1.000000 
0 -0.995096 -92.000000 -13.910300 -0.879818 -0.475310 0.000000 0.559000 -0.982600 1 0 1.000000 
borealis_vent001
0 -20.194906 113.063698 -13.539600 -0.008400 -0.164701 0.986308 0.903600 -0.883600 1 0 1.000000 
0 0.694895 112.000000 -13.539600 -0.008400 -0.164701 0.986308 0.430200 -0.859500 1 0 1.000000 
0 0.694895 113.063698 -13.539600 0.000000 0.000000 1.000000 0.430200 -0.883600 1 0 1.000000 
borealis_vent001
0 -20.194906 113.063698 -13.539600 -0.008400 -0.164701 0.986308 0.903600 -0.883600 1 0 1.000000 
0 -20.495106 112.000000 -13.910300 -0.050202 -0.985031 -0.164905 0.910400 -0.859500 1 0 1.000000 
0 0.694895 112.000000 -13.539600 -0.008400 -0.164701 0.986308 0.430200 -0.859500 1 0 1.000000 
borealis_vent001
0 -20.495106 113.063698 -13.910300 0.000000 0.000000 -1.000000 0.910400 -0.883600 1 0 1.000000 
0 0.995095 112.000000 -13.910300 0.000000 0.000000 -1.000000 0.423400 -0.859500 1 0 1.000000 
0 -20.495106 112.000000 -13.910300 -0.050202 -0.985031 -0.164905 0.910400 -0.859500 1 0 1.000000 
borealis_vent001
0 -20.495106 113.063698 -13.910300 0.000000 0.000000 -1.000000 0.910400 -0.883600 1 0 1.000000 
0 0.995095 113.063698 -13.910300 0.000000 0.000000 -1.000000 0.423400 -0.883600 1 0 1.000000 
0 0.995095 112.000000 -13.910300 0.000000 0.000000 -1.000000 0.423400 -0.859500 1 0 1.000000 
borealis_vent001
0 0.995095 113.063698 -13.910300 0.990543 0.137106 0.005200 0.904900 -0.958900 1 0 1.000000 
0 0.995095 112.000000 14.078100 1.000000 0.000000 0.000000 0.884100 -0.410400 1 0 1.000000 
0 0.995095 112.000000 -13.910300 1.000000 0.000000 0.000000 0.884100 -0.958900 1 0 1.000000 
borealis_vent001
0 0.995095 113.063698 -13.910300 0.990543 0.137106 0.005200 0.904900 -0.958900 1 0 1.000000 
0 0.694895 113.063698 14.078100 -1.000000 -0.000000 0.000000 0.904900 -0.410400 1 0 1.000000 
0 0.995095 112.000000 14.078100 1.000000 0.000000 0.000000 0.884100 -0.410400 1 0 1.000000 
borealis_vent001
0 0.694895 112.000000 -13.539600 -0.990542 -0.137106 0.005300 0.884100 -0.951700 1 0 1.000000 
0 0.995095 112.000000 14.078100 1.000000 0.000000 0.000000 0.884100 -0.410400 1 0 1.000000 
0 0.694895 113.063698 14.078100 -1.000000 -0.000000 0.000000 0.904900 -0.410400 1 0 1.000000 
borealis_vent001
0 0.694895 112.000000 -13.539600 -0.990542 -0.137106 0.005300 0.884100 -0.951700 1 0 1.000000 
0 0.694895 113.063698 14.078100 -1.000000 -0.000000 0.000000 0.904900 -0.410400 1 0 1.000000 
0 0.694895 113.063698 -13.539600 -1.000000 -0.000000 0.000000 0.904900 -0.951700 1 0 1.000000 
borealis_vent001
0 -20.194904 101.063698 -13.539600 -0.008400 -0.164701 0.986308 0.903600 -0.611700 1 0 1.000000 
0 0.694896 100.000000 -13.539600 -0.008400 -0.164701 0.986308 0.430200 -0.587600 1 0 1.000000 
0 0.694896 101.063698 -13.539600 0.000000 0.000000 1.000000 0.430200 -0.611700 1 0 1.000000 
borealis_vent001
0 -20.194904 101.063698 -13.539600 -0.008400 -0.164701 0.986308 0.903600 -0.611700 1 0 1.000000 
0 -20.495104 100.000000 -13.910300 -0.050202 -0.985031 -0.164905 0.910400 -0.587600 1 0 1.000000 
0 0.694896 100.000000 -13.539600 -0.008400 -0.164701 0.986308 0.430200 -0.587600 1 0 1.000000 
borealis_vent001
0 -20.495104 101.063698 -13.910300 0.000000 0.000000 -1.000000 0.910400 -0.611700 1 0 1.000000 
0 0.995096 100.000000 -13.910300 0.000000 0.000000 -1.000000 0.423400 -0.587600 1 0 1.000000 
0 -20.495104 100.000000 -13.910300 -0.050202 -0.985031 -0.164905 0.910400 -0.587600 1 0 1.000000 
borealis_vent001
0 -20.495104 101.063698 -13.910300 0.000000 0.000000 -1.000000 0.910400 -0.611700 1 0 1.000000 
0 0.995096 101.063698 -13.910300 0.000000 0.000000 -1.000000 0.423400 -0.611700 1 0 1.000000 
0 0.995096 100.000000 -13.910300 0.000000 0.000000 -1.000000 0.423400 -0.587600 1 0 1.000000 
borealis_vent001
0 -20.495104 100.000000 -13.910300 -0.879776 -0.475387 0.000000 0.648900 -0.951700 1 0 1.000000 
0 -20.495104 101.063698 14.078100 -1.000000 -0.000000 0.000000 0.669800 -0.410400 1 0 1.000000 
0 -20.495104 101.063698 -13.910300 -1.000000 -0.000000 0.000000 0.669800 -0.958900 1 0 1.000000 
borealis_vent001
0 -20.495104 100.000000 -13.910300 -0.879776 -0.475387 0.000000 0.648900 -0.951700 1 0 1.000000 
0 -20.194904 100.000000 14.078100 0.963306 -0.268202 0.010400 0.648900 -0.410400 1 0 1.000000 
0 -20.495104 101.063698 14.078100 -1.000000 -0.000000 0.000000 0.669800 -0.410400 1 0 1.000000 
borealis_vent001
0 -20.194904 101.063698 -13.539600 1.000000 0.000000 0.000000 0.669800 -0.951700 1 0 1.000000 
0 -20.495104 101.063698 14.078100 -1.000000 -0.000000 0.000000 0.669800 -0.410400 1 0 1.000000 
0 -20.194904 100.000000 14.078100 0.963306 -0.268202 0.010400 0.648900 -0.410400 1 0 1.000000 
borealis_vent001
0 -20.194904 101.063698 -13.539600 1.000000 0.000000 0.000000 0.669800 -0.951700 1 0 1.000000 
0 -20.194904 100.000000 14.078100 0.963306 -0.268202 0.010400 0.648900 -0.410400 1 0 1.000000 
0 -20.495104 100.000000 -13.910300 -0.879776 -0.475387 0.000000 0.648900 -0.951700 1 0 1.000000 
borealis_vent001
0 0.995090 229.063705 -13.910300 0.990543 0.137106 0.005200 0.633400 -0.957400 1 0 1.000000 
0 0.995090 228.000000 14.078100 1.000000 0.000000 0.000000 0.613500 -0.433800 1 0 1.000000 
0 0.995090 228.000000 -13.910300 1.000000 0.000000 0.000000 0.613500 -0.957400 1 0 1.000000 
borealis_vent001
0 0.995090 229.063705 -13.910300 0.990543 0.137106 0.005200 0.633400 -0.957400 1 0 1.000000 
0 0.694890 229.063705 14.078100 -1.000000 -0.000000 0.000000 0.633400 -0.433800 1 0 1.000000 
0 0.995090 228.000000 14.078100 1.000000 0.000000 0.000000 0.613500 -0.433800 1 0 1.000000 
borealis_vent001
0 0.694890 228.000000 -13.539600 -0.990542 -0.137106 0.005300 0.613500 -0.950500 1 0 1.000000 
0 0.995090 228.000000 14.078100 1.000000 0.000000 0.000000 0.613500 -0.433800 1 0 1.000000 
0 0.694890 229.063705 14.078100 -1.000000 -0.000000 0.000000 0.633400 -0.433800 1 0 1.000000 
borealis_vent001
0 0.694890 228.000000 -13.539600 -0.990542 -0.137106 0.005300 0.613500 -0.950500 1 0 1.000000 
0 0.694890 229.063705 14.078100 -1.000000 -0.000000 0.000000 0.633400 -0.433800 1 0 1.000000 
0 0.694890 229.063705 -13.539600 -1.000000 -0.000000 0.000000 0.633400 -0.950500 1 0 1.000000 
borealis_vent001
0 0.247602 -34.470402 -2.438900 1.000000 0.000000 0.000000 0.000000 -0.004100 1 0 1.000000 
0 0.247601 -22.000000 -13.438900 1.000000 0.000000 0.000000 1.000000 -0.294500 1 0 1.000000 
0 0.247601 -22.000000 -2.438900 1.000000 0.000000 0.000000 1.000000 -0.004100 1 0 1.000000 
borealis_vent001
0 0.247602 -34.470402 -2.438900 1.000000 0.000000 0.000000 0.000000 -0.004100 1 0 1.000000 
0 0.247602 -34.470402 -13.438900 1.000000 0.000000 0.000000 0.000000 -0.294500 1 0 1.000000 
0 0.247601 -22.000000 -13.438900 1.000000 0.000000 0.000000 1.000000 -0.294500 1 0 1.000000 
borealis_vent001
0 1.704907 -164.500000 -13.731100 -0.060801 -0.447906 -0.892011 0.200800 -0.314900 1 0 1.000000 
0 16.704908 -163.530304 -13.955000 0.073599 -0.151697 -0.985683 0.427100 -0.327300 1 0 1.000000 
0 17.704908 -164.500000 -13.731100 0.118001 -0.601107 -0.790409 0.442200 -0.314900 1 0 1.000000 
borealis_vent001
0 17.704908 -164.500000 -13.731100 0.118001 -0.601107 -0.790409 0.442200 -0.314900 1 0 1.000000 
0 16.704908 -163.530304 -13.955000 0.073599 -0.151697 -0.985683 0.427100 -0.327300 1 0 1.000000 
0 16.704908 -156.500000 -13.955000 0.147195 0.073597 -0.986365 0.427100 -0.414900 1 0 1.000000 
borealis_vent001
0 17.704908 -164.500000 -13.731100 0.118001 -0.601107 -0.790409 0.442200 -0.314900 1 0 1.000000 
0 16.704908 -156.500000 -13.955000 0.147195 0.073597 -0.986365 0.427100 -0.414900 1 0 1.000000 
0 17.704908 -155.500000 -13.731100 0.057101 0.553010 -0.831215 0.442200 -0.427100 1 0 1.000000 
borealis_vent001
0 17.704908 -155.500000 -13.731100 0.057101 0.553010 -0.831215 0.442200 -0.427100 1 0 1.000000 
0 16.704908 -156.500000 -13.955000 0.147195 0.073597 -0.986365 0.427100 -0.414900 1 0 1.000000 
0 2.704907 -156.500000 -13.955000 0.000000 0.000000 -1.000000 0.215900 -0.414900 1 0 1.000000 
borealis_vent001
0 17.704908 -155.500000 -13.731100 0.057101 0.553010 -0.831215 0.442200 -0.427100 1 0 1.000000 
0 2.704907 -156.500000 -13.955000 0.000000 0.000000 -1.000000 0.215900 -0.414900 1 0 1.000000 
0 1.907607 -155.702698 -13.955000 -0.056199 0.273296 -0.960287 0.203800 -0.424900 1 0 1.000000 
borealis_vent001
0 1.907607 -155.702698 -13.955000 -0.056199 0.273296 -0.960287 0.203800 -0.424900 1 0 1.000000 
0 2.704907 -156.500000 -13.955000 0.000000 0.000000 -1.000000 0.215900 -0.414900 1 0 1.000000 
0 2.704907 -163.530304 -13.955000 -0.067201 -0.082601 -0.994314 0.215900 -0.327300 1 0 1.000000 
borealis_vent001
0 1.907607 -155.702698 -13.955000 -0.056199 0.273296 -0.960287 0.203800 -0.424900 1 0 1.000000 
0 2.704907 -163.530304 -13.955000 -0.067201 -0.082601 -0.994314 0.215900 -0.327300 1 0 1.000000 
0 1.704907 -164.500000 -13.731100 -0.060801 -0.447906 -0.892011 0.200800 -0.314900 1 0 1.000000 
borealis_vent001
0 1.704907 -164.500000 -13.731100 -0.060801 -0.447906 -0.892011 0.200800 -0.314900 1 0 1.000000 
0 2.704907 -163.530304 -13.955000 -0.067201 -0.082601 -0.994314 0.215900 -0.327300 1 0 1.000000 
0 16.704908 -163.530304 -13.955000 0.073599 -0.151697 -0.985683 0.427100 -0.327300 1 0 1.000000 
borealis_vent001
0 2.704907 -163.530304 -13.955000 0.000000 0.000000 -1.000000 0.215900 -0.327300 1 0 1.000000 
0 2.704907 -156.500000 -13.955000 0.000000 0.000000 -1.000000 0.215900 -0.414900 1 0 1.000000 
0 16.704908 -156.500000 -13.955000 0.000000 0.000000 -1.000000 0.427100 -0.414900 1 0 1.000000 
borealis_vent001
0 2.704907 -163.530304 -13.955000 0.000000 0.000000 -1.000000 0.215900 -0.327300 1 0 1.000000 
0 16.704908 -156.500000 -13.955000 0.000000 0.000000 -1.000000 0.427100 -0.414900 1 0 1.000000 
0 16.704908 -163.530304 -13.955000 0.000000 0.000000 -1.000000 0.427100 -0.327300 1 0 1.000000 
borealis_vent001
0 -16.752407 178.469696 -13.994900 -0.000000 1.000000 0.000000 0.304700 -0.732400 1 0 1.000000 
0 -16.752407 178.469696 -13.651600 -0.000000 1.000000 0.000000 0.304700 -0.725800 1 0 1.000000 
0 -2.752408 178.469696 -13.994900 -0.000000 1.000000 0.000000 0.034400 -0.732400 1 0 1.000000 
borealis_vent001
0 -16.752407 178.469696 -13.651600 0.000000 0.000000 -1.000000 0.427200 -0.414900 1 0 1.000000 
0 -2.752408 185.500000 -13.994900 0.000000 0.000000 -1.000000 0.216200 -0.326700 1 0 1.000000 
0 -2.752408 178.469696 -13.994900 0.000000 0.000000 -1.000000 0.216200 -0.414900 1 0 1.000000 
borealis_vent001
0 -16.752407 178.469696 -13.651600 0.000000 0.000000 -1.000000 0.427200 -0.414900 1 0 1.000000 
0 -16.752407 185.500000 -13.994900 0.000000 0.000000 -1.000000 0.427200 -0.326700 1 0 1.000000 
0 -2.752408 185.500000 -13.994900 0.000000 0.000000 -1.000000 0.216200 -0.326700 1 0 1.000000 
borealis_vent001
0 0.247601 -22.000000 -2.438900 1.000000 0.000000 0.000000 0.000000 -0.006900 1 0 1.000000 
0 0.247595 106.000000 -13.438900 1.000000 0.000000 0.000000 1.000000 -0.297600 1 0 1.000000 
0 0.247595 106.000000 -2.438900 1.000000 0.000000 0.000000 1.000000 -0.004900 1 0 1.000000 
borealis_vent001
0 0.247601 -22.000000 -2.438900 1.000000 0.000000 0.000000 0.000000 -0.006900 1 0 1.000000 
0 0.247601 -22.000000 -13.438900 1.000000 0.000000 0.000000 0.000000 -0.296800 1 0 1.000000 
0 0.247595 106.000000 -13.438900 1.000000 0.000000 0.000000 1.000000 -0.297600 1 0 1.000000 
borealis_vent001
0 -19.752398 -34.470402 -13.438900 0.000000 0.000000 -1.000000 0.005100 -0.005800 1 0 1.000000 
0 0.247601 -22.000000 -13.438900 0.000000 0.000000 -1.000000 0.994900 -0.298900 1 0 1.000000 
0 0.247602 -34.470402 -13.438900 0.000000 0.000000 -1.000000 0.005100 -0.298900 1 0 1.000000 
borealis_vent001
0 -19.752398 -34.470402 -13.438900 0.000000 0.000000 -1.000000 0.005100 -0.005800 1 0 1.000000 
0 -19.752398 -22.000000 -13.438900 0.000000 0.000000 -1.000000 0.994900 -0.005800 1 0 1.000000 
0 0.247601 -22.000000 -13.438900 0.000000 0.000000 -1.000000 0.994900 -0.298900 1 0 1.000000 
borealis_vent001
0 19.703304 -72.568497 -2.438900 1.000000 0.000000 0.000000 1.000000 -0.005200 1 0 1.000000 
0 19.703304 -86.000000 -13.438900 1.000000 0.000000 0.000000 0.000000 -0.298800 1 0 1.000000 
0 19.703304 -72.568497 -13.438900 1.000000 0.000000 0.000000 1.000000 -0.298800 1 0 1.000000 
borealis_vent001
0 19.703304 -72.568497 -2.438900 1.000000 0.000000 0.000000 1.000000 -0.005200 1 0 1.000000 
0 19.703304 -86.000000 -2.438900 1.000000 0.000000 0.000000 0.000000 -0.005200 1 0 1.000000 
0 19.703304 -86.000000 -13.438900 1.000000 0.000000 0.000000 0.000000 -0.298800 1 0 1.000000 
borealis_vent001
0 19.747610 -214.000000 -2.438900 1.000000 0.000000 0.000000 0.000000 -0.003700 1 0 1.000000 
0 19.747604 -86.000000 -13.438900 1.000000 0.000000 0.000000 1.000000 -0.298600 1 0 1.000000 
0 19.747604 -86.000000 -2.438900 1.000000 0.000000 0.000000 1.000000 0.000400 1 0 1.000000 
borealis_vent001
0 19.747610 -214.000000 -2.438900 1.000000 0.000000 0.000000 0.000000 -0.003700 1 0 1.000000 
0 19.747610 -214.000000 -13.438900 1.000000 0.000000 0.000000 0.000000 -0.303900 1 0 1.000000 
0 19.747604 -86.000000 -13.438900 1.000000 0.000000 0.000000 1.000000 -0.298600 1 0 1.000000 
borealis_vent001
0 19.747610 -223.000000 3.420500 1.000000 0.000000 0.000000 0.854900 -0.766700 1 0 1.000000 
0 19.747610 -223.000000 14.061100 1.000000 0.000000 0.000000 0.854900 -0.627100 1 0 1.000000 
0 19.747610 -234.000000 14.061100 0.707107 0.000000 0.707107 0.710500 -0.627100 1 0 1.000000 
borealis_vent001
0 19.747610 -234.000000 1.124200 1.000000 0.000000 0.000000 0.710500 -0.796900 1 0 1.000000 
0 19.747610 -223.000000 3.420500 1.000000 0.000000 0.000000 0.854900 -0.766700 1 0 1.000000 
0 19.747610 -234.000000 14.061100 0.707107 0.000000 0.707107 0.710500 -0.627100 1 0 1.000000 
borealis_vent001
0 19.747610 -234.000000 1.124200 1.000000 0.000000 0.000000 0.710500 -0.796900 1 0 1.000000 
0 19.747610 -222.545807 1.124200 1.000000 0.000000 0.000000 0.860800 -0.796900 1 0 1.000000 
0 19.747610 -223.000000 3.420500 1.000000 0.000000 0.000000 0.854900 -0.766700 1 0 1.000000 
borealis_vent001
0 19.747610 -234.000000 1.124200 1.000000 0.000000 0.000000 0.710500 -0.796900 1 0 1.000000 
0 19.747610 -232.908798 -4.766700 1.000000 0.000000 0.000000 0.724800 -0.874200 1 0 1.000000 
0 19.747610 -222.545807 1.124200 1.000000 0.000000 0.000000 0.860800 -0.796900 1 0 1.000000 
borealis_vent001
0 19.747610 -232.908798 -4.766700 1.000000 0.000000 0.000000 0.724800 -0.874200 1 0 1.000000 
0 19.747610 -221.233597 -0.516100 1.000000 0.000000 0.000000 0.878000 -0.818400 1 0 1.000000 
0 19.747610 -222.545807 1.124200 1.000000 0.000000 0.000000 0.860800 -0.796900 1 0 1.000000 
borealis_vent001
0 19.747610 -232.908798 -4.766700 1.000000 0.000000 0.000000 0.724800 -0.874200 1 0 1.000000 
0 19.747610 -230.005295 -9.412200 1.000000 0.000000 0.000000 0.762900 -0.935200 1 0 1.000000 
0 19.747610 -221.233597 -0.516100 1.000000 0.000000 0.000000 0.878000 -0.818400 1 0 1.000000 
borealis_vent001
0 19.747610 -225.547195 -12.315700 1.000000 0.000000 0.000000 0.821400 -0.973300 1 0 1.000000 
0 19.747610 -221.233597 -0.516100 1.000000 0.000000 0.000000 0.878000 -0.818400 1 0 1.000000 
0 19.747610 -230.005295 -9.412200 1.000000 0.000000 0.000000 0.762900 -0.935200 1 0 1.000000 
borealis_vent001
0 19.747610 -225.547195 -12.315700 1.000000 0.000000 0.000000 0.821400 -0.973300 1 0 1.000000 
0 19.747610 -219.314407 -1.828200 1.000000 0.000000 0.000000 0.903200 -0.835600 1 0 1.000000 
0 19.747610 -221.233597 -0.516100 1.000000 0.000000 0.000000 0.878000 -0.818400 1 0 1.000000 
borealis_vent001
0 19.747610 -219.314407 -13.432400 1.000000 0.000000 0.000000 0.903200 -0.987900 1 0 1.000000 
0 19.747610 -219.314407 -1.828200 1.000000 0.000000 0.000000 0.903200 -0.835600 1 0 1.000000 
0 19.747610 -225.547195 -12.315700 1.000000 0.000000 0.000000 0.821400 -0.973300 1 0 1.000000 
borealis_vent001
0 19.747610 -219.314407 -13.432400 1.000000 0.000000 0.000000 0.903200 -0.987900 1 0 1.000000 
0 19.747610 -217.018097 -2.432400 1.000000 0.000000 0.000000 0.933400 -0.843600 1 0 1.000000 
0 19.747610 -219.314407 -1.828200 1.000000 0.000000 0.000000 0.903200 -0.835600 1 0 1.000000 
borealis_vent001
0 19.747610 -219.314407 -13.432400 1.000000 0.000000 0.000000 0.903200 -0.987900 1 0 1.000000 
0 19.747610 -214.000000 -2.432400 1.000000 0.000000 0.000000 0.973000 -0.843600 1 0 1.000000 
0 19.747610 -217.018097 -2.432400 1.000000 0.000000 0.000000 0.933400 -0.843600 1 0 1.000000 
borealis_vent001
0 19.747610 -219.314407 -13.432400 1.000000 0.000000 0.000000 0.903200 -0.987900 1 0 1.000000 
0 19.747610 -214.000000 -13.432400 1.000000 0.000000 0.000000 0.973000 -0.987900 1 0 1.000000 
0 19.747610 -214.000000 -2.432400 1.000000 0.000000 0.000000 0.973000 -0.843600 1 0 1.000000 
borealis_vent001
0 19.747610 -217.018097 -2.432400 -0.000000 0.128304 0.991735 0.609100 -0.840100 1 0 1.000000 
0 19.747610 -214.000000 -2.432400 0.000000 0.000000 1.000000 0.609100 -0.884100 1 0 1.000000 
0 -0.252391 -214.000000 -2.432400 0.000000 0.000000 1.000000 0.905000 -0.884100 1 0 1.000000 
borealis_vent001
0 19.747610 -217.018097 -2.432400 -0.000000 0.128304 0.991735 0.609100 -0.840100 1 0 1.000000 
0 -0.252391 -214.000000 -2.432400 0.000000 0.000000 1.000000 0.905000 -0.884100 1 0 1.000000 
0 -0.252391 -217.018097 -2.432400 -0.000000 0.128304 0.991735 0.905000 -0.840100 1 0 1.000000 
borealis_vent001
0 19.747610 -217.018097 -2.432400 -0.000000 0.128304 0.991735 0.609100 -0.840100 1 0 1.000000 
0 -0.252391 -217.018097 -2.432400 -0.000000 0.128304 0.991735 0.905000 -0.840100 1 0 1.000000 
0 -0.252390 -219.314407 -1.828200 -0.000000 0.362494 0.931986 0.905000 -0.805100 1 0 1.000000 
borealis_vent001
0 19.747610 -217.018097 -2.432400 -0.000000 0.128304 0.991735 0.609100 -0.840100 1 0 1.000000 
0 -0.252390 -219.314407 -1.828200 -0.000000 0.362494 0.931986 0.905000 -0.805100 1 0 1.000000 
0 19.747610 -219.314407 -1.828200 -0.000000 0.467102 0.884203 0.609100 -0.805100 1 0 1.000000 
borealis_vent001
0 19.747610 -219.314407 -1.828200 -0.000000 0.467102 0.884203 0.609100 -0.805100 1 0 1.000000 
0 -0.252390 -219.314407 -1.828200 -0.000000 0.362494 0.931986 0.905000 -0.805100 1 0 1.000000 
0 -0.252390 -221.233597 -0.516100 -0.000000 0.680110 0.733110 0.905200 -0.730900 1 0 1.000000 
borealis_vent001
0 19.747610 -219.314407 -1.828200 -0.000000 0.467102 0.884203 0.609100 -0.805100 1 0 1.000000 
0 -0.252390 -221.233597 -0.516100 -0.000000 0.680110 0.733110 0.905200 -0.730900 1 0 1.000000 
0 19.747610 -221.233597 -0.516100 -0.000000 0.680110 0.733110 0.608800 -0.730900 1 0 1.000000 
borealis_vent001
0 19.747610 -222.545807 1.124200 -0.000000 0.869624 0.493714 0.620200 -0.737700 1 0 1.000000 
0 19.747610 -221.233597 -0.516100 -0.000000 0.680110 0.733110 0.608800 -0.730900 1 0 1.000000 
0 -0.252390 -221.233597 -0.516100 -0.000000 0.680110 0.733110 0.905200 -0.730900 1 0 1.000000 
borealis_vent001
0 19.747610 -222.545807 1.124200 -0.000000 0.869624 0.493714 0.620200 -0.737700 1 0 1.000000 
0 -0.252390 -221.233597 -0.516100 -0.000000 0.680110 0.733110 0.905200 -0.730900 1 0 1.000000 
0 -0.252390 -222.545807 1.124200 -0.000000 0.938088 0.346396 0.867100 -0.737700 1 0 1.000000 
borealis_vent001
0 19.747610 -223.000000 3.420500 -0.000000 0.995235 0.097503 0.620200 -0.709100 1 0 1.000000 
0 19.747610 -222.545807 1.124200 -0.000000 0.869624 0.493714 0.620200 -0.737700 1 0 1.000000 
0 -0.252390 -222.545807 1.124200 -0.000000 0.938088 0.346396 0.867100 -0.737700 1 0 1.000000 
borealis_vent001
0 19.747610 -223.000000 3.420500 -0.000000 0.995235 0.097503 0.620200 -0.709100 1 0 1.000000 
0 -0.252390 -222.545807 1.124200 -0.000000 0.938088 0.346396 0.867100 -0.737700 1 0 1.000000 
0 -0.252390 -223.000000 14.061100 -0.000000 1.000000 0.000000 0.867100 -0.577900 1 0 1.000000 
borealis_vent001
0 -0.252390 -223.000000 14.061100 -0.000000 1.000000 0.000000 0.867100 -0.577900 1 0 1.000000 
0 19.747610 -223.000000 14.061100 -0.000000 1.000000 0.000000 0.620200 -0.577900 1 0 1.000000 
0 19.747610 -223.000000 3.420500 -0.000000 0.995235 0.097503 0.620200 -0.709100 1 0 1.000000 
borealis_vent001
0 -19.752398 -34.470402 -2.438900 0.000000 0.000000 1.000000 0.005100 -0.005100 1 0 1.000000 
0 0.247601 -22.000000 -2.438900 0.000000 0.000000 1.000000 0.994900 -0.298200 1 0 1.000000 
0 -19.752398 -22.000000 -2.438900 0.000000 0.000000 1.000000 0.994900 -0.005100 1 0 1.000000 
borealis_vent001
0 -19.752398 -34.470402 -2.438900 0.000000 0.000000 1.000000 0.005100 -0.005100 1 0 1.000000 
0 0.247602 -34.470402 -2.438900 0.000000 0.000000 1.000000 0.005100 -0.298200 1 0 1.000000 
0 0.247601 -22.000000 -2.438900 0.000000 0.000000 1.000000 0.994900 -0.298200 1 0 1.000000 
borealis_vent001
0 -19.752398 -22.000000 -2.438900 -0.000000 1.000000 0.000000 0.453000 -0.586600 1 0 1.000000 
0 0.247601 -22.000000 -13.438900 -0.000000 1.000000 0.000000 0.453000 -0.977300 1 0 1.000000 
0 -19.752398 -22.000000 -13.438900 -0.000000 1.000000 0.000000 0.453000 -0.977300 1 0 1.000000 
borealis_vent001
0 -19.752398 -22.000000 -2.438900 -0.000000 1.000000 0.000000 0.453000 -0.586600 1 0 1.000000 
0 0.247601 -22.000000 -2.438900 -0.000000 1.000000 0.000000 0.453000 -0.586600 1 0 1.000000 
0 0.247601 -22.000000 -13.438900 -0.000000 1.000000 0.000000 0.453000 -0.977300 1 0 1.000000 
borealis_vent001
0 -19.752398 -34.991600 -13.438900 -0.884788 -0.465994 0.000000 0.000000 -0.297500 1 0 1.000000 
0 -0.263597 -71.991600 -2.438900 -0.884788 -0.465994 0.000000 1.000000 -0.007800 1 0 1.000000 
0 -19.752398 -34.991600 -2.438900 -0.884788 -0.465994 0.000000 0.000000 -0.007800 1 0 1.000000 
borealis_vent001
0 -19.752398 -34.991600 -13.438900 -0.884788 -0.465994 0.000000 0.000000 -0.297500 1 0 1.000000 
0 -0.263597 -71.991600 -13.438900 -0.884788 -0.465994 0.000000 1.000000 -0.297500 1 0 1.000000 
0 -0.263597 -71.991600 -2.438900 -0.884788 -0.465994 0.000000 1.000000 -0.007800 1 0 1.000000 
borealis_vent001
0 -0.262097 -72.568497 -2.446000 -0.000400 -0.000000 1.000000 0.996100 -0.005300 1 0 1.000000 
0 19.703304 -86.000000 -2.438900 -0.000400 -0.000000 1.000000 0.003900 -0.304300 1 0 1.000000 
0 19.703304 -72.568497 -2.438900 -0.000400 -0.000000 1.000000 0.996100 -0.304300 1 0 1.000000 
borealis_vent001
0 -0.262097 -72.568497 -2.446000 -0.000400 -0.000000 1.000000 0.996100 -0.005300 1 0 1.000000 
0 -0.262096 -86.000000 -2.446000 -0.000400 -0.000000 1.000000 0.003900 -0.005300 1 0 1.000000 
0 19.703304 -86.000000 -2.438900 -0.000400 -0.000000 1.000000 0.003900 -0.304300 1 0 1.000000 
borealis_vent001
0 0.251602 -34.991600 -2.438900 0.885141 0.465322 0.000000 1.000000 -0.005300 1 0 1.000000 
0 19.703505 -71.991600 -13.438900 0.885141 0.465322 0.000000 0.000000 -0.299200 1 0 1.000000 
0 0.251602 -34.991600 -13.438900 0.885141 0.465322 0.000000 1.000000 -0.299200 1 0 1.000000 
borealis_vent001
0 0.251602 -34.991600 -2.438900 0.885141 0.465322 0.000000 1.000000 -0.005300 1 0 1.000000 
0 19.703304 -71.991600 -2.438900 0.885141 0.465322 0.000000 0.000000 -0.005300 1 0 1.000000 
0 19.703505 -71.991600 -13.438900 0.885141 0.465322 0.000000 0.000000 -0.299200 1 0 1.000000 
borealis_vent001
0 19.703304 -72.568497 -13.438900 0.000000 0.000000 -1.000000 0.996100 -0.303500 1 0 1.000000 
0 -0.262096 -86.000000 -13.438900 0.000000 0.000000 -1.000000 0.003900 -0.004500 1 0 1.000000 
0 -0.262097 -72.568497 -13.438900 0.000000 0.000000 -1.000000 0.996100 -0.004500 1 0 1.000000 
borealis_vent001
0 19.703304 -72.568497 -13.438900 0.000000 0.000000 -1.000000 0.996100 -0.303500 1 0 1.000000 
0 19.703304 -86.000000 -13.438900 0.000000 0.000000 -1.000000 0.003900 -0.303500 1 0 1.000000 
0 -0.262096 -86.000000 -13.438900 0.000000 0.000000 -1.000000 0.003900 -0.004500 1 0 1.000000 
borealis_vent001
0 19.747610 -234.000000 14.061100 0.707107 0.000000 0.707107 0.145000 -0.940900 1 0 1.000000 
0 -0.252390 -223.000000 14.061100 -0.707107 -0.000000 0.707107 0.280900 -0.694000 1 0 1.000000 
0 -0.252390 -234.000000 14.061100 0.000000 0.000000 1.000000 0.145000 -0.694000 1 0 1.000000 
borealis_vent001
0 19.747610 -234.000000 14.061100 0.707107 0.000000 0.707107 0.145000 -0.940900 1 0 1.000000 
0 19.747610 -223.000000 14.061100 0.000000 0.000000 1.000000 0.280900 -0.940900 1 0 1.000000 
0 -0.252390 -223.000000 14.061100 -0.707107 -0.000000 0.707107 0.280900 -0.694000 1 0 1.000000 
borealis_vent001
0 -0.252391 -214.000000 -2.438900 0.000000 0.000000 1.000000 0.000000 -0.006000 1 0 1.000000 
0 19.747610 -214.000000 -2.438900 0.000000 0.000000 1.000000 0.000000 -0.306000 1 0 1.000000 
0 19.747604 -86.000000 -2.438900 0.000000 0.000000 1.000000 0.998900 -0.297600 1 0 1.000000 
borealis_vent001
0 19.747604 -86.000000 -2.438900 0.000000 0.000000 1.000000 0.998900 -0.297600 1 0 1.000000 
0 -0.252396 -86.000000 -2.438900 0.000000 0.000000 1.000000 0.998900 -0.004900 1 0 1.000000 
0 -0.252391 -214.000000 -2.438900 0.000000 0.000000 1.000000 0.000000 -0.006000 1 0 1.000000 
borealis_vent001
0 0.247590 234.000000 -2.438900 0.000000 0.000000 1.000000 0.998900 -0.300100 1 0 1.000000 
0 -19.752403 106.000000 -2.438900 0.000000 0.000000 1.000000 0.000000 -0.005700 1 0 1.000000 
0 0.247595 106.000000 -2.438900 0.000000 0.000000 1.000000 0.000000 -0.302000 1 0 1.000000 
borealis_vent001
0 0.247590 234.000000 -2.438900 0.000000 0.000000 1.000000 0.998900 -0.300100 1 0 1.000000 
0 -19.752409 234.000000 -2.438900 0.000000 0.000000 1.000000 0.998900 -0.005700 1 0 1.000000 
0 -19.752403 106.000000 -2.438900 0.000000 0.000000 1.000000 0.000000 -0.005700 1 0 1.000000 
borealis_vent001
0 -19.752403 106.000000 -13.438900 0.000000 0.000000 -1.000000 0.001100 -0.005700 1 0 1.000000 
0 0.247590 234.000000 -13.438900 0.000000 0.000000 -1.000000 1.000000 -0.300100 1 0 1.000000 
0 0.247595 106.000000 -13.438900 0.000000 0.000000 -1.000000 0.001100 -0.302000 1 0 1.000000 
borealis_vent001
0 0.247590 234.000000 -13.438900 0.000000 0.000000 -1.000000 1.000000 -0.300100 1 0 1.000000 
0 -19.752403 106.000000 -13.438900 0.000000 0.000000 -1.000000 0.001100 -0.005700 1 0 1.000000 
0 -19.752409 234.000000 -13.438900 0.000000 0.000000 -1.000000 1.000000 -0.005700 1 0 1.000000 
borealis_vent001
0 19.747610 -214.000000 -13.432400 -0.000000 1.000000 0.000000 0.042700 -0.977100 1 0 1.000000 
0 -0.252391 -214.000000 -2.432400 -0.000000 1.000000 0.000000 0.042700 -0.586400 1 0 1.000000 
0 19.747610 -214.000000 -2.432400 -0.000000 1.000000 0.000000 0.042700 -0.586400 1 0 1.000000 
borealis_vent001
0 19.747610 -214.000000 -13.432400 -0.000000 1.000000 0.000000 0.042700 -0.977100 1 0 1.000000 
0 -0.252391 -214.000000 -13.432400 -0.000000 1.000000 0.000000 0.042700 -0.977100 1 0 1.000000 
0 -0.252391 -214.000000 -2.432400 -0.000000 1.000000 0.000000 0.042700 -0.586400 1 0 1.000000 
borealis_vent001
0 -20.495106 112.000000 -13.910300 -0.879776 -0.475387 0.000000 0.884100 -0.951700 1 0 1.000000 
0 -20.495106 113.063698 14.078100 -1.000000 -0.000000 0.000000 0.904900 -0.410400 1 0 1.000000 
0 -20.495106 113.063698 -13.910300 -1.000000 -0.000000 0.000000 0.904900 -0.958900 1 0 1.000000 
borealis_vent001
0 -20.495106 112.000000 -13.910300 -0.879776 -0.475387 0.000000 0.884100 -0.951700 1 0 1.000000 
0 -20.194906 112.000000 14.078100 0.963306 -0.268202 0.010400 0.884100 -0.410400 1 0 1.000000 
0 -20.495106 113.063698 14.078100 -1.000000 -0.000000 0.000000 0.904900 -0.410400 1 0 1.000000 
borealis_vent001
0 -20.194906 113.063698 -13.539600 1.000000 0.000000 0.000000 0.904900 -0.951700 1 0 1.000000 
0 -20.495106 113.063698 14.078100 -1.000000 -0.000000 0.000000 0.904900 -0.410400 1 0 1.000000 
0 -20.194906 112.000000 14.078100 0.963306 -0.268202 0.010400 0.884100 -0.410400 1 0 1.000000 
borealis_vent001
0 -20.194906 113.063698 -13.539600 1.000000 0.000000 0.000000 0.904900 -0.951700 1 0 1.000000 
0 -20.194906 112.000000 14.078100 0.963306 -0.268202 0.010400 0.884100 -0.410400 1 0 1.000000 
0 -20.495106 112.000000 -13.910300 -0.879776 -0.475387 0.000000 0.884100 -0.951700 1 0 1.000000 
borealis_vent001
0 0.694901 -16.000000 -13.539600 -1.000000 -0.000000 0.000000 0.596100 -0.955500 1 0 1.000000 
0 0.694901 -14.936300 14.078100 -0.963306 0.268202 0.010400 0.617500 -0.401700 1 0 1.000000 
0 0.995101 -14.936300 -13.910300 0.879776 0.475387 0.000000 0.617500 -0.955500 1 0 1.000000 
borealis_vent001
0 0.694901 -16.000000 -13.539600 -1.000000 -0.000000 0.000000 0.596100 -0.955500 1 0 1.000000 
0 0.995101 -16.000000 14.078100 1.000000 0.000000 0.000000 0.596100 -0.401700 1 0 1.000000 
0 0.694901 -14.936300 14.078100 -0.963306 0.268202 0.010400 0.617500 -0.401700 1 0 1.000000 
borealis_vent001
0 0.995101 -14.936300 -13.910300 0.879776 0.475387 0.000000 0.617500 -0.955500 1 0 1.000000 
0 0.694901 -14.936300 14.078100 -0.963306 0.268202 0.010400 0.617500 -0.401700 1 0 1.000000 
0 0.995101 -16.000000 14.078100 1.000000 0.000000 0.000000 0.596100 -0.401700 1 0 1.000000 
borealis_vent001
0 0.995101 -14.936300 -13.910300 0.879776 0.475387 0.000000 0.617500 -0.955500 1 0 1.000000 
0 0.995101 -16.000000 14.078100 1.000000 0.000000 0.000000 0.596100 -0.401700 1 0 1.000000 
0 0.995101 -16.000000 -13.910300 1.000000 0.000000 0.000000 0.596100 -0.963000 1 0 1.000000 
borealis_vent001
0 -0.262096 -86.000000 -2.446000 -1.000000 -0.000000 0.000000 1.000000 -0.005400 1 0 1.000000 
0 -0.252391 -214.000000 -13.438900 -1.000000 -0.000000 0.000000 0.000000 -0.303900 1 0 1.000000 
0 -0.252391 -214.000000 -2.438900 -1.000000 -0.000000 0.000000 0.000000 -0.003700 1 0 1.000000 
borealis_vent001
0 -0.262096 -86.000000 -2.446000 -1.000000 -0.000000 0.000000 1.000000 -0.005400 1 0 1.000000 
0 -0.262096 -86.000000 -13.438900 -1.000000 -0.000000 0.000000 1.000000 -0.298800 1 0 1.000000 
0 -0.252391 -214.000000 -13.438900 -1.000000 -0.000000 0.000000 0.000000 -0.303900 1 0 1.000000 
borealis_vent001
0 -0.262097 -72.568497 -13.438900 -1.000000 -0.000000 0.000000 0.000000 -0.298800 1 0 1.000000 
0 -0.262096 -86.000000 -13.438900 -1.000000 -0.000000 0.000000 1.000000 -0.298800 1 0 1.000000 
0 -0.262096 -86.000000 -2.446000 -1.000000 -0.000000 0.000000 1.000000 -0.005400 1 0 1.000000 
borealis_vent001
0 -0.262097 -72.568497 -13.438900 -1.000000 -0.000000 0.000000 0.000000 -0.298800 1 0 1.000000 
0 -0.262096 -86.000000 -2.446000 -1.000000 -0.000000 0.000000 1.000000 -0.005400 1 0 1.000000 
0 -0.262097 -72.568497 -2.446000 -1.000000 -0.000000 0.000000 0.000000 -0.005400 1 0 1.000000 
borealis_vent001
0 20.367304 -72.568497 -1.808200 0.000000 -1.000000 0.000000 0.007100 -0.818000 1 0 1.000000 
0 19.703304 -72.568497 -2.438900 0.000000 -1.000000 0.000000 0.016700 -0.827100 1 0 1.000000 
0 19.703304 -72.568497 -13.438900 0.000000 -1.000000 0.000000 0.016700 -0.985300 1 0 1.000000 
borealis_vent001
0 -0.926197 -72.568497 -1.808200 0.000000 -1.000000 0.000000 0.313400 -0.818000 1 0 1.000000 
0 19.703304 -72.568497 -2.438900 0.000000 -1.000000 0.000000 0.016700 -0.827100 1 0 1.000000 
0 20.367304 -72.568497 -1.808200 0.000000 -1.000000 0.000000 0.007100 -0.818000 1 0 1.000000 
borealis_vent001
0 -0.926197 -72.568497 -1.808200 0.000000 -1.000000 0.000000 0.313400 -0.818000 1 0 1.000000 
0 -0.262097 -72.568497 -2.446000 0.000000 -1.000000 0.000000 0.303800 -0.827200 1 0 1.000000 
0 19.703304 -72.568497 -2.438900 0.000000 -1.000000 0.000000 0.016700 -0.827100 1 0 1.000000 
borealis_vent001
0 -0.926197 -72.568497 -14.069600 0.000000 -1.000000 0.000000 0.313400 -0.994400 1 0 1.000000 
0 -0.262097 -72.568497 -2.446000 0.000000 -1.000000 0.000000 0.303800 -0.827200 1 0 1.000000 
0 -0.926197 -72.568497 -1.808200 0.000000 -1.000000 0.000000 0.313400 -0.818000 1 0 1.000000 
borealis_vent001
0 -0.926197 -72.568497 -14.069600 0.000000 -1.000000 0.000000 0.313400 -0.994400 1 0 1.000000 
0 -0.262097 -72.568497 -13.438900 0.000000 -1.000000 0.000000 0.303800 -0.985300 1 0 1.000000 
0 -0.262097 -72.568497 -2.446000 0.000000 -1.000000 0.000000 0.303800 -0.827200 1 0 1.000000 
borealis_vent001
0 20.367304 -72.568497 -14.069600 0.000000 -1.000000 0.000000 0.007100 -0.994400 1 0 1.000000 
0 -0.262097 -72.568497 -13.438900 0.000000 -1.000000 0.000000 0.303800 -0.985300 1 0 1.000000 
0 -0.926197 -72.568497 -14.069600 0.000000 -1.000000 0.000000 0.313400 -0.994400 1 0 1.000000 
borealis_vent001
0 20.367304 -72.568497 -14.069600 0.000000 -1.000000 0.000000 0.007100 -0.994400 1 0 1.000000 
0 19.703304 -72.568497 -13.438900 0.000000 -1.000000 0.000000 0.016700 -0.985300 1 0 1.000000 
0 -0.262097 -72.568497 -13.438900 0.000000 -1.000000 0.000000 0.303800 -0.985300 1 0 1.000000 
borealis_vent001
0 20.367304 -72.568497 -1.808200 0.000000 -1.000000 0.000000 0.007100 -0.818000 1 0 1.000000 
0 19.703304 -72.568497 -13.438900 0.000000 -1.000000 0.000000 0.016700 -0.985300 1 0 1.000000 
0 20.367304 -72.568497 -14.069600 0.000000 -1.000000 0.000000 0.007100 -0.994400 1 0 1.000000 
borealis_vent001
0 -0.252390 -234.000000 1.124200 -1.000000 -0.000000 0.000000 0.710500 -0.796900 1 0 1.000000 
0 -0.252390 -234.000000 14.061100 -1.000000 -0.000000 0.000000 0.710500 -0.627100 1 0 1.000000 
0 -0.252390 -223.000000 14.061100 -0.707107 -0.000000 0.707107 0.854900 -0.627100 1 0 1.000000 
borealis_vent001
0 -0.252390 -234.000000 1.124200 -1.000000 -0.000000 0.000000 0.710500 -0.796900 1 0 1.000000 
0 -0.252390 -223.000000 14.061100 -0.707107 -0.000000 0.707107 0.854900 -0.627100 1 0 1.000000 
0 -0.252390 -222.545807 1.124200 -1.000000 -0.000000 0.000000 0.860800 -0.796900 1 0 1.000000 
borealis_vent001
0 -0.252390 -222.545807 1.124200 -1.000000 -0.000000 0.000000 0.860800 -0.796900 1 0 1.000000 
0 -0.252390 -232.908798 -4.766700 -1.000000 -0.000000 0.000000 0.724800 -0.874200 1 0 1.000000 
0 -0.252390 -234.000000 1.124200 -1.000000 -0.000000 0.000000 0.710500 -0.796900 1 0 1.000000 
borealis_vent001
0 -0.252390 -222.545807 1.124200 -1.000000 -0.000000 0.000000 0.860800 -0.796900 1 0 1.000000 
0 -0.252390 -230.005295 -9.412200 -1.000000 -0.000000 0.000000 0.762900 -0.935200 1 0 1.000000 
0 -0.252390 -232.908798 -4.766700 -1.000000 -0.000000 0.000000 0.724800 -0.874200 1 0 1.000000 
borealis_vent001
0 -0.252390 -222.545807 1.124200 -1.000000 -0.000000 0.000000 0.860800 -0.796900 1 0 1.000000 
0 -0.252390 -221.233597 -0.516100 -1.000000 -0.000000 0.000000 0.878000 -0.818400 1 0 1.000000 
0 -0.252390 -230.005295 -9.412200 -1.000000 -0.000000 0.000000 0.762900 -0.935200 1 0 1.000000 
borealis_vent001
0 -0.252390 -219.314407 -1.828200 -1.000000 -0.000000 0.000000 0.903200 -0.835600 1 0 1.000000 
0 -0.252390 -230.005295 -9.412200 -1.000000 -0.000000 0.000000 0.762900 -0.935200 1 0 1.000000 
0 -0.252390 -221.233597 -0.516100 -1.000000 -0.000000 0.000000 0.878000 -0.818400 1 0 1.000000 
borealis_vent001
0 -0.252390 -219.314407 -1.828200 -1.000000 -0.000000 0.000000 0.903200 -0.835600 1 0 1.000000 
0 -0.252390 -225.547195 -12.315700 -1.000000 -0.000000 0.000000 0.821400 -0.973300 1 0 1.000000 
0 -0.252390 -230.005295 -9.412200 -1.000000 -0.000000 0.000000 0.762900 -0.935200 1 0 1.000000 
borealis_vent001
0 -0.252391 -217.018097 -2.432400 -1.000000 -0.000000 0.000000 0.933400 -0.843600 1 0 1.000000 
0 -0.252390 -225.547195 -12.315700 -1.000000 -0.000000 0.000000 0.821400 -0.973300 1 0 1.000000 
0 -0.252390 -219.314407 -1.828200 -1.000000 -0.000000 0.000000 0.903200 -0.835600 1 0 1.000000 
borealis_vent001
0 -0.252391 -217.018097 -2.432400 -1.000000 -0.000000 0.000000 0.933400 -0.843600 1 0 1.000000 
0 -0.252390 -219.314407 -13.432400 -1.000000 -0.000000 0.000000 0.903200 -0.987900 1 0 1.000000 
0 -0.252390 -225.547195 -12.315700 -1.000000 -0.000000 0.000000 0.821400 -0.973300 1 0 1.000000 
borealis_vent001
0 -0.252391 -217.018097 -2.432400 -1.000000 -0.000000 0.000000 0.933400 -0.843600 1 0 1.000000 
0 -0.252391 -214.000000 -13.432400 -1.000000 -0.000000 0.000000 0.973000 -0.987900 1 0 1.000000 
0 -0.252390 -219.314407 -13.432400 -1.000000 -0.000000 0.000000 0.903200 -0.987900 1 0 1.000000 
borealis_vent001
0 -0.252391 -217.018097 -2.432400 -1.000000 -0.000000 0.000000 0.933400 -0.843600 1 0 1.000000 
0 -0.252391 -214.000000 -2.432400 -1.000000 -0.000000 0.000000 0.973000 -0.843600 1 0 1.000000 
0 -0.252391 -214.000000 -13.432400 -1.000000 -0.000000 0.000000 0.973000 -0.987900 1 0 1.000000 
borealis_vent001
0 20.495104 -90.936302 -13.910300 0.879776 0.475387 0.000000 0.581200 -0.982600 1 0 1.000000 
0 20.495104 -92.000000 14.078100 1.000000 0.000000 0.000000 0.559000 -0.407900 1 0 1.000000 
0 20.495104 -92.000000 -13.910300 1.000000 0.000000 0.000000 0.559000 -0.990300 1 0 1.000000 
borealis_vent001
0 20.495104 -90.936302 -13.910300 0.879776 0.475387 0.000000 0.581200 -0.982600 1 0 1.000000 
0 20.194904 -90.936302 14.078100 -0.963306 0.268202 0.010400 0.581200 -0.407900 1 0 1.000000 
0 20.495104 -92.000000 14.078100 1.000000 0.000000 0.000000 0.559000 -0.407900 1 0 1.000000 
borealis_vent001
0 20.194904 -92.000000 -13.539600 -1.000000 -0.000000 0.000000 0.559000 -0.982600 1 0 1.000000 
0 20.194904 -90.936302 14.078100 -0.963306 0.268202 0.010400 0.581200 -0.407900 1 0 1.000000 
0 20.495104 -90.936302 -13.910300 0.879776 0.475387 0.000000 0.581200 -0.982600 1 0 1.000000 
borealis_vent001
0 20.194904 -92.000000 -13.539600 -1.000000 -0.000000 0.000000 0.559000 -0.982600 1 0 1.000000 
0 20.495104 -92.000000 14.078100 1.000000 0.000000 0.000000 0.559000 -0.407900 1 0 1.000000 
0 20.194904 -90.936302 14.078100 -0.963306 0.268202 0.010400 0.581200 -0.407900 1 0 1.000000 
borealis_vent001
0 19.703505 -71.991600 -13.438900 -0.000000 1.000000 0.000000 0.016700 -0.985300 1 0 1.000000 
0 -0.926197 -71.991600 -14.069600 -0.000000 1.000000 0.000000 0.313400 -0.994400 1 0 1.000000 
0 -0.263597 -71.991600 -13.438900 -0.000000 1.000000 0.000000 0.303900 -0.985300 1 0 1.000000 
borealis_vent001
0 -0.263597 -71.991600 -13.438900 -0.000000 1.000000 0.000000 0.303900 -0.985300 1 0 1.000000 
0 -0.926197 -71.991600 -14.069600 -0.000000 1.000000 0.000000 0.313400 -0.994400 1 0 1.000000 
0 -0.926197 -71.991600 -1.808200 -0.000000 1.000000 0.000000 0.313400 -0.818000 1 0 1.000000 
borealis_vent001
0 -0.263597 -71.991600 -13.438900 -0.000000 1.000000 0.000000 0.303900 -0.985300 1 0 1.000000 
0 -0.926197 -71.991600 -1.808200 -0.000000 1.000000 0.000000 0.313400 -0.818000 1 0 1.000000 
0 -0.263597 -71.991600 -2.438900 -0.000000 1.000000 0.000000 0.303900 -0.827100 1 0 1.000000 
borealis_vent001
0 -0.263597 -71.991600 -2.438900 -0.000000 1.000000 0.000000 0.303900 -0.827100 1 0 1.000000 
0 -0.926197 -71.991600 -1.808200 -0.000000 1.000000 0.000000 0.313400 -0.818000 1 0 1.000000 
0 20.367304 -71.991600 -1.808200 -0.000000 1.000000 0.000000 0.007100 -0.818000 1 0 1.000000 
borealis_vent001
0 -0.263597 -71.991600 -2.438900 -0.000000 1.000000 0.000000 0.303900 -0.827100 1 0 1.000000 
0 20.367304 -71.991600 -1.808200 -0.000000 1.000000 0.000000 0.007100 -0.818000 1 0 1.000000 
0 19.703304 -71.991600 -2.438900 -0.000000 1.000000 0.000000 0.016700 -0.827100 1 0 1.000000 
borealis_vent001
0 19.703304 -71.991600 -2.438900 -0.000000 1.000000 0.000000 0.016700 -0.827100 1 0 1.000000 
0 20.367304 -71.991600 -1.808200 -0.000000 1.000000 0.000000 0.007100 -0.818000 1 0 1.000000 
0 20.367304 -71.991600 -14.069600 -0.000000 1.000000 0.000000 0.007100 -0.994400 1 0 1.000000 
borealis_vent001
0 19.703304 -71.991600 -2.438900 -0.000000 1.000000 0.000000 0.016700 -0.827100 1 0 1.000000 
0 20.367304 -71.991600 -14.069600 -0.000000 1.000000 0.000000 0.007100 -0.994400 1 0 1.000000 
0 19.703505 -71.991600 -13.438900 -0.000000 1.000000 0.000000 0.016700 -0.985300 1 0 1.000000 
borealis_vent001
0 19.703505 -71.991600 -13.438900 -0.000000 1.000000 0.000000 0.016700 -0.985300 1 0 1.000000 
0 20.367304 -71.991600 -14.069600 -0.000000 1.000000 0.000000 0.007100 -0.994400 1 0 1.000000 
0 -0.926197 -71.991600 -14.069600 -0.000000 1.000000 0.000000 0.313400 -0.994400 1 0 1.000000 
borealis_vent001
0 -16.752407 185.500000 -13.994900 1.000000 0.000000 0.000000 0.300700 -0.741900 1 0 1.000000 
0 -16.752407 178.469696 -13.651600 1.000000 0.000000 0.000000 0.041200 -0.729200 1 0 1.000000 
0 -16.752407 178.469696 -13.994900 1.000000 0.000000 0.000000 0.041200 -0.741900 1 0 1.000000 
borealis_vent001
0 -20.398397 -34.991600 -14.078100 0.000000 -1.000000 0.000000 0.323200 -0.997700 1 0 1.000000 
0 -19.752398 -34.991600 -2.438900 0.000000 -1.000000 0.000000 0.313700 -0.826500 1 0 1.000000 
0 -20.398397 -34.991600 -1.799700 0.000000 -1.000000 0.000000 0.323200 -0.817100 1 0 1.000000 
borealis_vent001
0 -20.398397 -34.991600 -1.799700 0.000000 -1.000000 0.000000 0.323200 -0.817100 1 0 1.000000 
0 -19.752398 -34.991600 -2.438900 0.000000 -1.000000 0.000000 0.313700 -0.826500 1 0 1.000000 
0 0.251602 -34.991600 -2.438900 0.000000 -1.000000 0.000000 0.019300 -0.826500 1 0 1.000000 
borealis_vent001
0 -20.398397 -34.991600 -1.799700 0.000000 -1.000000 0.000000 0.323200 -0.817100 1 0 1.000000 
0 0.251602 -34.991600 -2.438900 0.000000 -1.000000 0.000000 0.019300 -0.826500 1 0 1.000000 
0 0.893602 -34.991600 -1.799700 0.000000 -1.000000 0.000000 0.009800 -0.817100 1 0 1.000000 
borealis_vent001
0 0.893602 -34.991600 -1.799700 0.000000 -1.000000 0.000000 0.009800 -0.817100 1 0 1.000000 
0 0.251602 -34.991600 -2.438900 0.000000 -1.000000 0.000000 0.019300 -0.826500 1 0 1.000000 
0 0.251602 -34.991600 -13.438900 0.000000 -1.000000 0.000000 0.019300 -0.988300 1 0 1.000000 
borealis_vent001
0 0.893602 -34.991600 -1.799700 0.000000 -1.000000 0.000000 0.009800 -0.817100 1 0 1.000000 
0 0.251602 -34.991600 -13.438900 0.000000 -1.000000 0.000000 0.019300 -0.988300 1 0 1.000000 
0 0.893602 -34.991600 -14.078100 0.000000 -1.000000 0.000000 0.009800 -0.997700 1 0 1.000000 
borealis_vent001
0 0.893602 -34.991600 -14.078100 0.000000 -1.000000 0.000000 0.009800 -0.997700 1 0 1.000000 
0 0.251602 -34.991600 -13.438900 0.000000 -1.000000 0.000000 0.019300 -0.988300 1 0 1.000000 
0 -19.752398 -34.991600 -13.438900 0.000000 -1.000000 0.000000 0.313700 -0.988300 1 0 1.000000 
borealis_vent001
0 0.893602 -34.991600 -14.078100 0.000000 -1.000000 0.000000 0.009800 -0.997700 1 0 1.000000 
0 -19.752398 -34.991600 -13.438900 0.000000 -1.000000 0.000000 0.313700 -0.988300 1 0 1.000000 
0 -20.398397 -34.991600 -14.078100 0.000000 -1.000000 0.000000 0.323200 -0.997700 1 0 1.000000 
borealis_vent001
0 -20.398397 -34.991600 -14.078100 0.000000 -1.000000 0.000000 0.323200 -0.997700 1 0 1.000000 
0 -19.752398 -34.991600 -13.438900 0.000000 -1.000000 0.000000 0.313700 -0.988300 1 0 1.000000 
0 -19.752398 -34.991600 -2.438900 0.000000 -1.000000 0.000000 0.313700 -0.826500 1 0 1.000000 
borealis_vent001
0 -20.495104 100.000000 -13.910300 0.000000 -1.000000 0.000000 0.324600 -0.995300 1 0 1.000000 
0 0.995096 100.000000 -13.910300 0.000000 -1.000000 0.000000 0.008400 -0.995300 1 0 1.000000 
0 0.694896 100.000000 -13.539600 0.000000 -1.000000 0.000000 0.012800 -0.989800 1 0 1.000000 
borealis_vent001
0 0.995096 100.000000 -13.910300 0.000000 -1.000000 0.000000 0.008400 -0.995300 1 0 1.000000 
0 0.995096 100.000000 14.078100 0.000000 -1.000000 0.000000 0.008400 -0.583400 1 0 1.000000 
0 0.694896 100.000000 -13.539600 0.000000 -1.000000 0.000000 0.012800 -0.989800 1 0 1.000000 
borealis_vent001
0 -20.495106 112.000000 -13.910300 0.000000 -1.000000 0.000000 0.324600 -0.995300 1 0 1.000000 
0 0.995095 112.000000 -13.910300 0.000000 -1.000000 0.000000 0.008400 -0.995300 1 0 1.000000 
0 0.694895 112.000000 -13.539600 0.000000 -1.000000 0.000000 0.012800 -0.989800 1 0 1.000000 
borealis_vent001
0 0.995095 112.000000 -13.910300 0.000000 -1.000000 0.000000 0.008400 -0.995300 1 0 1.000000 
0 0.995095 112.000000 14.078100 0.000000 -1.000000 0.000000 0.008400 -0.583400 1 0 1.000000 
0 0.694895 112.000000 -13.539600 0.000000 -1.000000 0.000000 0.012800 -0.989800 1 0 1.000000 
borealis_vent001
0 -0.756292 -171.539398 -1.912100 0.000000 0.000000 1.000000 0.950400 -0.529500 1 0 1.000000 
0 20.251507 -171.539398 -1.912100 0.000000 0.000000 1.000000 0.330000 -0.529500 1 0 1.000000 
0 20.251507 -171.098206 -1.912100 0.000000 0.000000 1.000000 0.330000 -0.542500 1 0 1.000000 
borealis_vent001
0 -19.752398 -34.470402 -13.438900 -0.000000 1.000000 0.000000 0.313700 -0.988300 1 0 1.000000 
0 -20.398397 -34.470402 -1.799700 -0.000000 1.000000 0.000000 0.323200 -0.817100 1 0 1.000000 
0 -19.752398 -34.470402 -2.438900 -0.000000 1.000000 0.000000 0.313700 -0.826500 1 0 1.000000 
borealis_vent001
0 -19.752398 -34.470402 -2.438900 -0.000000 1.000000 0.000000 0.313700 -0.826500 1 0 1.000000 
0 -20.398397 -34.470402 -1.799700 -0.000000 1.000000 0.000000 0.323200 -0.817100 1 0 1.000000 
0 0.893601 -34.470402 -1.799700 -0.000000 1.000000 0.000000 0.009800 -0.817100 1 0 1.000000 
borealis_vent001
0 -19.752398 -34.470402 -2.438900 -0.000000 1.000000 0.000000 0.313700 -0.826500 1 0 1.000000 
0 0.893601 -34.470402 -1.799700 -0.000000 1.000000 0.000000 0.009800 -0.817100 1 0 1.000000 
0 0.247602 -34.470402 -2.438900 -0.000000 1.000000 0.000000 0.019400 -0.826500 1 0 1.000000 
borealis_vent001
0 0.247602 -34.470402 -2.438900 -0.000000 1.000000 0.000000 0.019400 -0.826500 1 0 1.000000 
0 0.893601 -34.470402 -1.799700 -0.000000 1.000000 0.000000 0.009800 -0.817100 1 0 1.000000 
0 0.893601 -34.470402 -14.078100 -0.000000 1.000000 0.000000 0.009800 -0.997700 1 0 1.000000 
borealis_vent001
0 0.247602 -34.470402 -2.438900 -0.000000 1.000000 0.000000 0.019400 -0.826500 1 0 1.000000 
0 0.893601 -34.470402 -14.078100 -0.000000 1.000000 0.000000 0.009800 -0.997700 1 0 1.000000 
0 0.247602 -34.470402 -13.438900 -0.000000 1.000000 0.000000 0.019400 -0.988300 1 0 1.000000 
borealis_vent001
0 0.247602 -34.470402 -13.438900 -0.000000 1.000000 0.000000 0.019400 -0.988300 1 0 1.000000 
0 0.893601 -34.470402 -14.078100 -0.000000 1.000000 0.000000 0.009800 -0.997700 1 0 1.000000 
0 -20.398397 -34.470402 -14.078100 -0.000000 1.000000 0.000000 0.323200 -0.997700 1 0 1.000000 
borealis_vent001
0 0.247602 -34.470402 -13.438900 -0.000000 1.000000 0.000000 0.019400 -0.988300 1 0 1.000000 
0 -20.398397 -34.470402 -14.078100 -0.000000 1.000000 0.000000 0.323200 -0.997700 1 0 1.000000 
0 -19.752398 -34.470402 -13.438900 -0.000000 1.000000 0.000000 0.313700 -0.988300 1 0 1.000000 
borealis_vent001
0 -19.752398 -34.470402 -13.438900 -0.000000 1.000000 0.000000 0.313700 -0.988300 1 0 1.000000 
0 -20.398397 -34.470402 -14.078100 -0.000000 1.000000 0.000000 0.323200 -0.997700 1 0 1.000000 
0 -20.398397 -34.470402 -1.799700 -0.000000 1.000000 0.000000 0.323200 -0.817100 1 0 1.000000 
borealis_vent001
0 20.251507 -171.098206 -1.912100 1.000000 0.000000 0.000000 0.530600 -0.389300 1 0 1.000000 
0 20.251507 -171.539398 -1.912100 1.000000 0.000000 0.000000 0.509500 -0.389300 1 0 1.000000 
0 20.251608 -171.098206 -13.965700 1.000000 0.000000 0.000000 0.530600 -0.964900 1 0 1.000000 
borealis_vent001
0 -0.252396 -86.000000 -13.438900 0.000000 0.000000 -1.000000 1.000000 -0.004900 1 0 1.000000 
0 19.747604 -86.000000 -13.438900 0.000000 0.000000 -1.000000 1.000000 -0.297600 1 0 1.000000 
0 -0.252391 -214.000000 -13.438900 0.000000 0.000000 -1.000000 0.001100 -0.006000 1 0 1.000000 
borealis_vent001
0 -0.252391 -214.000000 -13.438900 0.000000 0.000000 -1.000000 0.001100 -0.006000 1 0 1.000000 
0 19.747604 -86.000000 -13.438900 0.000000 0.000000 -1.000000 1.000000 -0.297600 1 0 1.000000 
0 19.747610 -214.000000 -13.438900 0.000000 0.000000 -1.000000 0.001100 -0.306000 1 0 1.000000 
borealis_vent001
0 -0.252390 -225.547195 -12.315700 0.000000 -0.430213 -0.902727 0.640500 -0.681400 1 0 1.000000 
0 19.747610 -230.005295 -9.412200 0.000000 -0.713676 -0.700476 0.597800 -0.873000 1 0 1.000000 
0 -0.252390 -230.005295 -9.412200 0.000000 -0.713676 -0.700476 0.597800 -0.681400 1 0 1.000000 
borealis_vent001
0 -0.252390 -225.547195 -12.315700 0.000000 -0.430213 -0.902727 0.640500 -0.681400 1 0 1.000000 
0 19.747610 -225.547195 -12.315700 0.000000 -0.304895 -0.952386 0.640500 -0.873000 1 0 1.000000 
0 19.747610 -230.005295 -9.412200 0.000000 -0.713676 -0.700476 0.597800 -0.873000 1 0 1.000000 
borealis_vent001
0 -0.252390 -219.314407 -13.432400 0.000000 -0.088498 -0.996076 0.700200 -0.681400 1 0 1.000000 
0 19.747610 -225.547195 -12.315700 0.000000 -0.304895 -0.952386 0.640500 -0.873000 1 0 1.000000 
0 -0.252390 -225.547195 -12.315700 0.000000 -0.430213 -0.902727 0.640500 -0.681400 1 0 1.000000 
borealis_vent001
0 -0.252390 -219.314407 -13.432400 0.000000 -0.088498 -0.996076 0.700200 -0.681400 1 0 1.000000 
0 19.747610 -219.314407 -13.432400 0.000000 -0.088498 -0.996076 0.700200 -0.873000 1 0 1.000000 
0 19.747610 -225.547195 -12.315700 0.000000 -0.304895 -0.952386 0.640500 -0.873000 1 0 1.000000 
borealis_vent001
0 -0.252390 -219.314407 -13.432400 0.000000 -0.088498 -0.996076 0.700200 -0.681400 1 0 1.000000 
0 19.747610 -214.000000 -13.432400 0.000000 0.000000 -1.000000 0.751000 -0.873000 1 0 1.000000 
0 19.747610 -219.314407 -13.432400 0.000000 -0.088498 -0.996076 0.700200 -0.873000 1 0 1.000000 
borealis_vent001
0 -0.252390 -219.314407 -13.432400 0.000000 -0.088498 -0.996076 0.700200 -0.681400 1 0 1.000000 
0 -0.252391 -214.000000 -13.432400 0.000000 0.000000 -1.000000 0.751000 -0.681400 1 0 1.000000 
0 19.747610 -214.000000 -13.432400 0.000000 0.000000 -1.000000 0.751000 -0.873000 1 0 1.000000 
borealis_vent001
0 -0.756292 -171.539398 -1.912100 -1.000000 -0.000000 0.000000 0.509500 -0.389300 1 0 1.000000 
0 -0.756293 -171.098206 -13.965700 -1.000000 -0.000000 0.000000 0.530600 -0.964900 1 0 1.000000 
0 -0.756292 -171.539398 -13.965700 -1.000000 -0.000000 0.000000 0.509500 -0.964900 1 0 1.000000 
borealis_vent001
0 0.247590 234.000000 -2.438900 1.000000 0.000000 0.000000 1.000000 -0.006800 1 0 1.000000 
0 0.247595 106.000000 -2.438900 1.000000 0.000000 0.000000 0.000000 -0.003600 1 0 1.000000 
0 0.247590 234.000000 -13.438900 1.000000 0.000000 0.000000 1.000000 -0.297400 1 0 1.000000 
borealis_vent001
0 0.247595 106.000000 -2.438900 1.000000 0.000000 0.000000 0.000000 -0.003600 1 0 1.000000 
0 0.247595 106.000000 -13.438900 1.000000 0.000000 0.000000 0.000000 -0.295000 1 0 1.000000 
0 0.247590 234.000000 -13.438900 1.000000 0.000000 0.000000 1.000000 -0.297400 1 0 1.000000 
borealis_vent001
0 -0.995091 -208.000000 -13.910300 0.000000 -1.000000 0.000000 0.314400 -0.992100 1 0 1.000000 
0 20.495110 -208.000000 -13.910300 0.000000 -1.000000 0.000000 0.005300 -0.992100 1 0 1.000000 
0 20.194910 -208.000000 -13.539600 0.000000 -1.000000 0.000000 0.009600 -0.986700 1 0 1.000000 
borealis_vent001
0 20.495110 -208.000000 -13.910300 0.000000 -1.000000 0.000000 0.005300 -0.992100 1 0 1.000000 
0 20.495110 -208.000000 14.078100 0.000000 -1.000000 0.000000 0.005300 -0.589500 1 0 1.000000 
0 20.194910 -208.000000 -13.539600 0.000000 -1.000000 0.000000 0.009600 -0.986700 1 0 1.000000 
borealis_vent001
0 -0.995096 -92.000000 -13.910300 0.000000 -1.000000 0.000000 0.314400 -0.992100 1 0 1.000000 
0 20.495104 -92.000000 -13.910300 0.000000 -1.000000 0.000000 0.005300 -0.992100 1 0 1.000000 
0 20.194904 -92.000000 -13.539600 0.000000 -1.000000 0.000000 0.009600 -0.986700 1 0 1.000000 
borealis_vent001
0 20.495104 -92.000000 -13.910300 0.000000 -1.000000 0.000000 0.005300 -0.992100 1 0 1.000000 
0 20.495104 -92.000000 14.078100 0.000000 -1.000000 0.000000 0.005300 -0.589500 1 0 1.000000 
0 20.194904 -92.000000 -13.539600 0.000000 -1.000000 0.000000 0.009600 -0.986700 1 0 1.000000 
borealis_vent001
0 -20.495100 -16.000000 -13.910300 0.000000 -1.000000 0.000000 0.324600 -0.995300 1 0 1.000000 
0 0.995101 -16.000000 -13.910300 0.000000 -1.000000 0.000000 0.008400 -0.995300 1 0 1.000000 
0 0.694901 -16.000000 -13.539600 0.000000 -1.000000 0.000000 0.012800 -0.989800 1 0 1.000000 
borealis_vent001
0 0.995101 -16.000000 -13.910300 0.000000 -1.000000 0.000000 0.008400 -0.995300 1 0 1.000000 
0 0.995101 -16.000000 14.078100 0.000000 -1.000000 0.000000 0.008400 -0.583400 1 0 1.000000 
0 0.694901 -16.000000 -13.539600 0.000000 -1.000000 0.000000 0.012800 -0.989800 1 0 1.000000 
borealis_vent001
0 -20.495110 228.000000 -13.910300 0.000000 -1.000000 0.000000 0.324600 -0.995300 1 0 1.000000 
0 0.995090 228.000000 -13.910300 0.000000 -1.000000 0.000000 0.008400 -0.995300 1 0 1.000000 
0 0.694890 228.000000 -13.539600 0.000000 -1.000000 0.000000 0.012800 -0.989800 1 0 1.000000 
borealis_vent001
0 0.995090 228.000000 -13.910300 0.000000 -1.000000 0.000000 0.008400 -0.995300 1 0 1.000000 
0 0.995090 228.000000 14.078100 0.000000 -1.000000 0.000000 0.008400 -0.583400 1 0 1.000000 
0 0.694890 228.000000 -13.539600 0.000000 -1.000000 0.000000 0.012800 -0.989800 1 0 1.000000 
borealis_vent001
0 -1.752408 186.500000 -13.771000 0.057301 0.638709 -0.767311 0.201200 -0.314200 1 0 1.000000 
0 -16.752407 185.500000 -13.994900 -0.073597 0.147195 -0.986365 0.427200 -0.326700 1 0 1.000000 
0 -17.752407 186.500000 -13.771000 -0.136496 0.380689 -0.914573 0.442300 -0.314200 1 0 1.000000 
borealis_vent001
0 -17.752407 186.500000 -13.771000 -0.136496 0.380689 -0.914573 0.442300 -0.314200 1 0 1.000000 
0 -16.752407 185.500000 -13.994900 -0.073597 0.147195 -0.986365 0.427200 -0.326700 1 0 1.000000 
0 -16.752407 178.469696 -13.994900 -0.147298 -0.075799 -0.986183 0.427200 -0.414900 1 0 1.000000 
borealis_vent001
0 -17.752407 186.500000 -13.771000 -0.136496 0.380689 -0.914573 0.442300 -0.314200 1 0 1.000000 
0 -16.752407 178.469696 -13.994900 -0.147298 -0.075799 -0.986183 0.427200 -0.414900 1 0 1.000000 
0 -17.752407 177.500000 -13.771000 -0.066802 -0.443212 -0.893924 0.442300 -0.427100 1 0 1.000000 
borealis_vent001
0 -17.752407 177.500000 -13.771000 -0.066802 -0.443212 -0.893924 0.442300 -0.427100 1 0 1.000000 
0 -16.752407 178.469696 -13.994900 -0.147298 -0.075799 -0.986183 0.427200 -0.414900 1 0 1.000000 
0 -2.752408 178.469696 -13.994900 0.073599 -0.151697 -0.985683 0.216200 -0.414900 1 0 1.000000 
borealis_vent001
0 -17.752407 177.500000 -13.771000 -0.066802 -0.443212 -0.893924 0.442300 -0.427100 1 0 1.000000 
0 -2.752408 178.469696 -13.994900 0.073599 -0.151697 -0.985683 0.216200 -0.414900 1 0 1.000000 
0 -1.752408 177.500000 -13.771000 0.118001 -0.601107 -0.790409 0.201200 -0.427100 1 0 1.000000 
borealis_vent001
0 -1.752408 177.500000 -13.771000 0.118001 -0.601107 -0.790409 0.201200 -0.427100 1 0 1.000000 
0 -2.752408 178.469696 -13.994900 0.073599 -0.151697 -0.985683 0.216200 -0.414900 1 0 1.000000 
0 -2.752408 185.500000 -13.994900 0.147195 0.073597 -0.986365 0.216200 -0.326700 1 0 1.000000 
borealis_vent001
0 -1.752408 177.500000 -13.771000 0.118001 -0.601107 -0.790409 0.201200 -0.427100 1 0 1.000000 
0 -2.752408 185.500000 -13.994900 0.147195 0.073597 -0.986365 0.216200 -0.326700 1 0 1.000000 
0 -1.752408 186.500000 -13.771000 0.057301 0.638709 -0.767311 0.201200 -0.314200 1 0 1.000000 
borealis_vent001
0 -1.752408 186.500000 -13.771000 0.057301 0.638709 -0.767311 0.201200 -0.314200 1 0 1.000000 
0 -2.752408 185.500000 -13.994900 0.147195 0.073597 -0.986365 0.216200 -0.326700 1 0 1.000000 
0 -16.752407 185.500000 -13.994900 -0.073597 0.147195 -0.986365 0.427200 -0.326700 1 0 1.000000 
borealis_vent001
0 -0.756292 -171.539398 -13.965700 0.000000 0.000000 -1.000000 0.950400 -0.531000 1 0 1.000000 
0 -0.756293 -171.098206 -13.965700 0.000000 0.000000 -1.000000 0.950400 -0.544100 1 0 1.000000 
0 20.251608 -171.098206 -13.965700 0.000000 0.000000 -1.000000 0.330000 -0.544100 1 0 1.000000 
end
