version 1
nodes
  0 "static_prop" -1
end
skeleton
time 0
0 0.000000 0.000000 0.000000 0.000000 0.000000 0.000000
end
triangles
rockcliff02a
0 12.324997 55.207298 40.052502 0.999065 -0.017999 0.039299 0.672500 -0.493200 1 0 1.000000 
0 12.045101 -18.881300 23.771900 0.999564 -0.027699 0.010200 0.441000 -0.556800 1 0 1.000000 
0 12.004602 -61.362999 -51.556301 0.999561 -0.027299 0.011500 0.308200 -0.851100 1 0 1.000000 
rockcliff02a
0 3.908801 -33.376499 26.987801 0.689218 -0.723318 0.042301 0.395700 -0.544300 1 0 1.000000 
0 12.045101 -18.881300 23.771900 0.689218 -0.723318 0.042301 0.441000 -0.556800 1 0 1.000000 
0 16.865999 -7.686199 57.542301 0.689218 -0.723318 0.042301 0.476000 -0.424900 1 0 1.000000 
rockcliff02a
0 16.865999 -7.686199 57.542301 0.689218 -0.723318 0.042301 0.476000 -0.424900 1 0 1.000000 
0 3.725801 -32.321301 50.436401 0.695813 -0.717413 0.034101 0.410900 -0.446400 1 0 1.000000 
0 3.908801 -33.376499 26.987801 0.689218 -0.723318 0.042301 0.395700 -0.544300 1 0 1.000000 
rockcliff02a
0 -1.780502 45.693100 6.518400 -0.992123 0.120103 -0.035601 0.398100 -0.613800 1 0 1.000000 
0 -6.069600 -15.508600 23.023600 -0.992123 0.120103 -0.035601 0.206800 -0.549400 1 0 1.000000 
0 -6.033300 -2.358500 56.957199 -0.992123 0.120103 -0.035601 0.247900 -0.416800 1 0 1.000000 
rockcliff02a
0 -6.033300 -2.358500 56.957199 -0.992123 0.120103 -0.035601 0.247900 -0.416800 1 0 1.000000 
0 -1.763502 47.005600 64.291397 -0.986689 0.162598 -0.002500 0.402200 -0.388100 1 0 1.000000 
0 -1.780502 45.693100 6.518400 -0.992123 0.120103 -0.035601 0.398100 -0.613800 1 0 1.000000 
rockcliff02a
0 -6.109998 -57.862999 -51.556301 -0.942210 -0.334704 0.014600 0.074500 -0.840700 1 0 1.000000 
0 -21.101900 16.934401 -50.125999 -0.902520 -0.429710 -0.028401 0.308200 -0.835100 1 0 1.000000 
0 -21.101900 20.224501 -89.880699 -0.925103 -0.374801 -0.060900 0.318500 -0.990400 1 0 1.000000 
rockcliff02a
0 -21.101900 20.224501 -89.880699 -0.925103 -0.374801 -0.060900 0.318500 -0.990400 1 0 1.000000 
0 1.850504 -81.033897 -89.880699 -0.914018 -0.393608 -0.098202 0.002000 -0.990400 1 0 1.000000 
0 -6.109998 -57.862999 -51.556301 -0.942210 -0.334704 0.014600 0.074500 -0.840700 1 0 1.000000 
rockcliff02a
0 -6.109998 -57.862999 -51.556301 -0.527400 -0.794700 0.300500 0.074500 -0.840700 1 0 1.000000 
0 5.886203 -72.987999 -51.556301 -0.527400 -0.794700 0.300500 0.027200 -0.840700 1 0 1.000000 
0 3.908801 -33.376499 26.987801 -0.527400 -0.794700 0.300500 0.151000 -0.533900 1 0 1.000000 
rockcliff02a
0 5.886203 -72.987999 -51.556301 -0.527400 -0.794700 0.300500 0.027200 -0.840700 1 0 1.000000 
0 -6.109998 -57.862999 -51.556301 -0.527400 -0.794700 0.300500 0.074500 -0.840700 1 0 1.000000 
0 1.850504 -81.033897 -89.880699 -0.539014 -0.812321 0.222706 0.002000 -0.990400 1 0 1.000000 
rockcliff02a
0 5.886203 -72.987999 -51.556301 0.687731 -0.636729 0.348716 0.271900 -0.851100 1 0 1.000000 
0 12.004602 -61.362999 -51.556301 0.652986 -0.652986 0.383692 0.308200 -0.851100 1 0 1.000000 
0 12.045101 -18.881300 23.771900 0.695014 -0.666413 0.269905 0.441000 -0.556800 1 0 1.000000 
rockcliff02a
0 12.045101 -18.881300 23.771900 0.695014 -0.666413 0.269905 0.441000 -0.556800 1 0 1.000000 
0 3.908801 -33.376499 26.987801 0.695014 -0.666413 0.269905 0.395700 -0.544300 1 0 1.000000 
0 5.886203 -72.987999 -51.556301 0.687731 -0.636729 0.348716 0.271900 -0.851100 1 0 1.000000 
rockcliff02a
0 -21.101900 20.224501 -89.880699 0.000000 0.000000 -1.000000 0.590800 -0.855000 1 0 1.000000 
0 12.004602 -69.408897 -89.880699 0.000000 0.000000 -1.000000 0.300900 -0.986300 1 0 1.000000 
0 1.850504 -81.033897 -89.880699 0.000000 0.000000 -1.000000 0.264500 -0.926000 1 0 1.000000 
rockcliff02a
0 -21.101900 20.224501 -89.880699 0.000000 0.000000 -1.000000 0.590800 -0.855000 1 0 1.000000 
0 18.797600 20.224501 -89.880699 0.000000 0.000000 -1.000000 0.581000 -0.992800 1 0 1.000000 
0 12.004602 -69.408897 -89.880699 0.000000 0.000000 -1.000000 0.300900 -0.986300 1 0 1.000000 
rockcliff02a
0 18.797600 20.224501 -89.880699 0.000000 0.000000 -1.000000 0.581000 -0.992800 1 0 1.000000 
0 -21.101900 20.224501 -89.880699 0.000000 0.000000 -1.000000 0.590800 -0.855000 1 0 1.000000 
0 8.071796 81.033897 -89.590698 -0.000000 0.006000 -0.999982 0.771000 -0.958100 1 0 1.000000 
rockcliff02a
0 12.004602 -61.362999 -51.556301 0.984567 -0.163695 0.061898 0.308200 -0.851100 1 0 1.000000 
0 18.797600 20.224501 -89.880699 0.990297 -0.100000 0.096500 0.563200 -1.000800 1 0 1.000000 
0 12.324997 55.207298 40.052502 0.990297 -0.100000 0.096500 0.672500 -0.493200 1 0 1.000000 
rockcliff02a
0 18.797600 20.224501 -89.880699 0.989749 -0.142507 -0.009400 0.563200 -1.000800 1 0 1.000000 
0 12.004602 -61.362999 -51.556301 0.984567 -0.163695 0.061898 0.308200 -0.851100 1 0 1.000000 
0 12.004602 -69.408897 -89.880699 0.988201 -0.152900 0.009000 0.283100 -1.000800 1 0 1.000000 
rockcliff02a
0 -21.101900 16.934401 -50.125999 -0.914683 -0.374093 0.152997 0.308200 -0.835100 1 0 1.000000 
0 -6.109998 -57.862999 -51.556301 -0.920895 -0.354598 0.161899 0.074500 -0.840700 1 0 1.000000 
0 -6.069600 -15.508600 23.023600 -0.914683 -0.374093 0.152997 0.206800 -0.549400 1 0 1.000000 
rockcliff02a
0 -1.780502 45.693100 6.518400 -0.421312 0.885725 0.194905 0.398100 -0.613800 1 0 1.000000 
0 8.090797 59.404202 -10.898200 -0.421312 0.885725 0.194905 0.440900 -0.681900 1 0 1.000000 
0 8.071796 81.033897 -89.590698 -0.421312 0.885725 0.194905 0.508500 -0.989300 1 0 1.000000 
rockcliff02a
0 3.725801 -32.321301 50.436401 -0.815942 -0.551828 0.172409 0.154300 -0.442300 1 0 1.000000 
0 -6.033300 -2.358500 56.957199 -0.815942 -0.551828 0.172409 0.247900 -0.416800 1 0 1.000000 
0 -6.069600 -15.508600 23.023600 -0.815942 -0.551828 0.172409 0.206800 -0.549400 1 0 1.000000 
rockcliff02a
0 16.865999 -7.686199 57.542301 0.877519 -0.049201 0.477010 0.476000 -0.424900 1 0 1.000000 
0 13.498798 52.033199 71.886703 0.877519 -0.049201 0.477010 0.662600 -0.368900 1 0 1.000000 
0 8.832400 -1.428900 80.243599 0.873694 -0.058900 0.482897 0.495500 -0.336200 1 0 1.000000 
rockcliff02a
0 12.324997 55.207298 40.052502 0.972668 0.054998 -0.225593 0.672500 -0.493200 1 0 1.000000 
0 16.865999 -7.686199 57.542301 0.975231 0.028801 -0.219307 0.476000 -0.424900 1 0 1.000000 
0 12.045101 -18.881300 23.771900 0.975231 0.028801 -0.219307 0.441000 -0.556800 1 0 1.000000 
rockcliff02a
0 -6.069600 -15.508600 23.023600 -0.897958 0.243189 0.366783 0.206800 -0.549400 1 0 1.000000 
0 -1.780502 45.693100 6.518400 -0.897958 0.243189 0.366783 0.398100 -0.613800 1 0 1.000000 
0 -21.101900 16.934401 -50.125999 -0.897958 0.243189 0.366783 0.308200 -0.835100 1 0 1.000000 
rockcliff02a
0 -21.101900 20.224501 -89.880699 -0.785504 0.617503 0.040900 0.318500 -0.990400 1 0 1.000000 
0 -21.101900 16.934401 -50.125999 -0.785504 0.617503 0.040900 0.308200 -0.835100 1 0 1.000000 
0 8.071796 81.033897 -89.590698 -0.717370 0.690671 0.091396 0.508500 -0.989300 1 0 1.000000 
rockcliff02a
0 8.071796 81.033897 -89.590698 -0.717370 0.690671 0.091396 0.508500 -0.989300 1 0 1.000000 
0 -21.101900 16.934401 -50.125999 -0.756003 0.641202 0.131601 0.308200 -0.835100 1 0 1.000000 
0 -1.780502 45.693100 6.518400 -0.756003 0.641202 0.131601 0.398100 -0.613800 1 0 1.000000 
rockcliff02a
0 -6.069600 -15.508600 23.023600 -0.688200 -0.725300 0.017900 0.206800 -0.549400 1 0 1.000000 
0 3.908801 -33.376499 26.987801 -0.688200 -0.725300 0.017900 0.151000 -0.533900 1 0 1.000000 
0 3.725801 -32.321301 50.436401 -0.688200 -0.725300 0.017900 0.154300 -0.442300 1 0 1.000000 
rockcliff02a
0 16.865999 -7.686199 57.542301 0.887899 -0.037600 -0.458499 0.476000 -0.424900 1 0 1.000000 
0 12.324997 55.207298 40.052502 0.887899 -0.037600 -0.458499 0.672500 -0.493200 1 0 1.000000 
0 21.101898 42.815601 66.698898 0.887899 -0.037600 -0.458499 0.633800 -0.389100 1 0 1.000000 
rockcliff02a
0 12.004602 -61.362999 -51.556301 0.702175 -0.702175 0.117896 0.308200 -0.851100 1 0 1.000000 
0 5.886203 -72.987999 -51.556301 0.702175 -0.702175 0.117896 0.271900 -0.851100 1 0 1.000000 
0 12.004602 -69.408897 -89.880699 0.702175 -0.702175 0.117896 0.283100 -1.000800 1 0 1.000000 
rockcliff02a
0 -1.763502 47.005600 64.291397 -0.198395 0.976073 0.088998 0.500400 -0.388700 1 0 1.000000 
0 13.498798 52.033199 71.886703 -0.198395 0.976073 0.088998 0.591000 -0.359000 1 0 1.000000 
0 12.324997 55.207298 40.052502 -0.198395 0.976073 0.088998 0.584000 -0.483400 1 0 1.000000 
rockcliff02a
0 8.090797 59.404202 -10.898200 -0.600834 0.799246 -0.014301 0.440900 -0.681900 1 0 1.000000 
0 -1.780502 45.693100 6.518400 -0.600834 0.799246 -0.014301 0.398100 -0.613800 1 0 1.000000 
0 -1.763502 47.005600 64.291397 -0.600834 0.799246 -0.014301 0.402200 -0.388100 1 0 1.000000 
rockcliff02a
0 3.725801 -32.321301 50.436401 0.541969 -0.710859 0.448274 0.410900 -0.446400 1 0 1.000000 
0 16.865999 -7.686199 57.542301 0.541969 -0.710859 0.448274 0.476000 -0.424900 1 0 1.000000 
0 8.832400 -1.428900 80.243599 0.541969 -0.710859 0.448274 0.495500 -0.336200 1 0 1.000000 
rockcliff02a
0 1.037599 19.687599 86.992699 -0.083704 -0.419819 0.903740 0.490500 -0.448700 1 0 1.000000 
0 -0.748900 0.628200 79.658501 -0.083704 -0.419819 0.903740 0.431000 -0.438100 1 0 1.000000 
0 8.832400 -1.428900 80.243599 -0.083704 -0.419819 0.903740 0.424600 -0.495000 1 0 1.000000 
rockcliff02a
0 18.797600 20.224501 -89.880699 0.947993 0.317598 0.021000 0.563200 -1.000800 1 0 1.000000 
0 8.071796 81.033897 -89.590698 0.947993 0.317598 0.021000 0.753200 -0.999700 1 0 1.000000 
0 8.090797 59.404202 -10.898200 0.932020 0.353308 0.080702 0.685600 -0.692300 1 0 1.000000 
rockcliff02a
0 8.832400 -1.428900 80.243599 -0.110996 -0.750676 0.651279 0.495500 -0.336200 1 0 1.000000 
0 -0.748900 0.628200 79.658501 -0.110996 -0.750676 0.651279 0.470400 -0.357700 1 0 1.000000 
0 3.725801 -32.321301 50.436401 -0.110996 -0.750676 0.651279 0.410900 -0.446400 1 0 1.000000 
rockcliff02a
0 -1.763502 47.005600 64.291397 -0.941583 0.094698 0.323194 0.402200 -0.388100 1 0 1.000000 
0 -6.033300 -2.358500 56.957199 -0.941583 0.094698 0.323194 0.247900 -0.416800 1 0 1.000000 
0 -0.748900 0.628200 79.658501 -0.941583 0.094698 0.323194 0.257200 -0.328100 1 0 1.000000 
rockcliff02a
0 -1.763502 47.005600 64.291397 0.259197 0.849789 0.458994 0.500400 -0.388700 1 0 1.000000 
0 12.324997 55.207298 40.052502 0.259197 0.849789 0.458994 0.584000 -0.483400 1 0 1.000000 
0 8.107797 69.079201 23.127501 0.259197 0.849789 0.458994 0.559000 -0.549500 1 0 1.000000 
rockcliff02a
0 13.498798 52.033199 71.886703 -0.336316 0.646131 0.685133 0.591600 -0.522700 1 0 1.000000 
0 -1.763502 47.005600 64.291397 -0.336316 0.646131 0.685133 0.575900 -0.432100 1 0 1.000000 
0 1.037599 19.687599 86.992699 -0.336316 0.646131 0.685133 0.490500 -0.448700 1 0 1.000000 
rockcliff02a
0 12.324997 55.207298 40.052502 0.903514 0.423707 -0.064301 0.672500 -0.493200 1 0 1.000000 
0 8.090797 59.404202 -10.898200 0.866861 0.493878 -0.068097 0.685600 -0.692300 1 0 1.000000 
0 8.107797 69.079201 23.127501 0.886308 0.451404 -0.103401 0.715900 -0.559300 1 0 1.000000 
rockcliff02a
0 1.850504 -81.033897 -89.880699 0.515122 -0.854936 0.061103 0.246800 -1.000800 1 0 1.000000 
0 12.004602 -69.408897 -89.880699 0.515122 -0.854936 0.061103 0.283100 -1.000800 1 0 1.000000 
0 5.886203 -72.987999 -51.556301 0.515122 -0.854936 0.061103 0.271900 -0.851100 1 0 1.000000 
rockcliff02a
0 16.865999 -7.686199 57.542301 0.257601 -0.252401 0.932703 0.405000 -0.542700 1 0 1.000000 
0 21.101898 42.815601 66.698898 0.257601 -0.252401 0.932703 0.562800 -0.567900 1 0 1.000000 
0 13.498798 52.033199 71.886703 0.257601 -0.252401 0.932703 0.591600 -0.522700 1 0 1.000000 
rockcliff02a
0 3.908801 -33.376499 26.987801 -0.696783 -0.664284 0.270593 0.151000 -0.533900 1 0 1.000000 
0 -6.069600 -15.508600 23.023600 -0.696783 -0.664284 0.270593 0.206800 -0.549400 1 0 1.000000 
0 -6.109998 -57.862999 -51.556301 -0.685405 -0.622604 0.377603 0.074500 -0.840700 1 0 1.000000 
rockcliff02a
0 12.324997 55.207298 40.052502 0.548910 0.835115 0.035801 0.584000 -0.483400 1 0 1.000000 
0 13.498798 52.033199 71.886703 0.540916 0.841024 0.009400 0.591000 -0.359000 1 0 1.000000 
0 21.101898 42.815601 66.698898 0.540916 0.841024 0.009400 0.636200 -0.379300 1 0 1.000000 
rockcliff02a
0 -6.033300 -2.358500 56.957199 -0.725815 -0.558411 0.401708 0.247900 -0.416800 1 0 1.000000 
0 3.725801 -32.321301 50.436401 -0.725815 -0.558411 0.401708 0.154300 -0.442300 1 0 1.000000 
0 -0.748900 0.628200 79.658501 -0.760733 -0.560024 0.328114 0.257200 -0.328100 1 0 1.000000 
rockcliff02a
0 -1.763502 47.005600 64.291397 -0.868604 0.483302 -0.109300 0.402200 -0.388100 1 0 1.000000 
0 8.107797 69.079201 23.127501 -0.868604 0.483302 -0.109300 0.471200 -0.548900 1 0 1.000000 
0 8.090797 59.404202 -10.898200 -0.868604 0.483302 -0.109300 0.440900 -0.681900 1 0 1.000000 
rockcliff02a
0 -0.748900 0.628200 79.658501 -0.969542 0.058202 0.237910 0.257200 -0.328100 1 0 1.000000 
0 1.037599 19.687599 86.992699 -0.969542 0.058202 0.237910 0.316800 -0.299500 1 0 1.000000 
0 -1.763502 47.005600 64.291397 -0.969542 0.058202 0.237910 0.402200 -0.388100 1 0 1.000000 
rockcliff02a
0 8.090797 59.404202 -10.898200 0.810515 0.582211 -0.064001 0.685600 -0.692300 1 0 1.000000 
0 12.324997 55.207298 40.052502 0.810515 0.582211 -0.064001 0.672500 -0.493200 1 0 1.000000 
0 18.797600 20.224501 -89.880699 0.810515 0.582211 -0.064001 0.563200 -1.000800 1 0 1.000000 
rockcliff02a
0 1.037599 19.687599 86.992699 0.564382 0.067198 0.822774 0.490500 -0.448700 1 0 1.000000 
0 8.832400 -1.428900 80.243599 0.564382 0.067198 0.822774 0.424600 -0.495000 1 0 1.000000 
0 13.498798 52.033199 71.886703 0.564382 0.067198 0.822774 0.591600 -0.522700 1 0 1.000000 
end
