$cd ".\"
$modelname "props_vehicles/car001a_hatchback_old.mdl"
$model "Body" "car001a_hatchback_reference.smd"
$cdmaterials "models/props_vehicles/"
$surfaceprop "metalvehicle"
$eyeposition 0.000 0.000 0.000
$illumposition 0.000 0.445 -0.147
$sequence idle "idle" fps 30.000000

$keyvalues
{
	prop_data
	{
		base Metal.Large
	}
}

$staticprop
$origin 0 0 0 270

$texturegroup skinfamilies
{
	{ "car001_hatchback_old.vmt" }
	{ "car001b_hatchback.vmt" }
	{ "car001c_hatchback.vmt" }
	{ "car001d_hatchback.vmt" }
	{ "car001e_hatchback.vmt" }
}
$lod 35
{
	replacemodel "car001a_hatchback_reference.smd" "car001a_hatchback_reference_Lod1.smd"
}

$lod 55
{
	replacemodel "car001a_hatchback_reference.smd" "car001a_hatchback_reference_Lod2.smd"
}

$lod 75
{
	replacemodel "car001a_hatchback_reference.smd" "car001a_hatchback_reference_Lod3.smd"
}

$lod 125
{
	replacemodel "car001a_hatchback_reference.smd" "car001a_hatchback_reference_Lod4.smd"
}