version 1
nodes
  0 "static_prop" -1
end
skeleton
time 0
0 0.000000 0.000000 0.000000 0.000000 0.000000 0.000000
end
triangles
dockpole01
0 4.761400 -3.006700 30.984100 0.965921 -0.258806 0.003900 0.286400 -0.383900 1 0 1.000000 
0 5.541600 -0.095100 30.984100 0.965921 -0.258806 0.003900 0.300200 -0.383900 1 0 1.000000 
0 5.370600 1.418600 116.160797 0.969915 -0.241804 0.028200 0.307200 -0.082600 1 0 1.000000 
dockpole01
0 2.999400 -5.138200 116.030800 -0.084400 -0.994495 0.062100 0.274100 -0.083100 1 0 1.000000 
0 -3.043100 -4.821800 108.549202 -0.084400 -0.994495 0.062100 0.246100 -0.109500 1 0 1.000000 
0 -1.186800 -5.527900 75.656998 -0.073503 -0.996448 0.041102 0.255100 -0.225900 1 0 1.000000 
dockpole01
0 2.999400 -5.138200 116.030800 -0.084400 -0.994495 0.062100 0.274100 -0.083100 1 0 1.000000 
0 -1.676100 -4.008300 126.143600 -0.119404 -0.984231 0.130504 0.250400 -0.047300 1 0 1.000000 
0 -3.043100 -4.821800 108.549202 -0.084400 -0.994495 0.062100 0.246100 -0.109500 1 0 1.000000 
dockpole01
0 3.123700 -3.217900 141.222504 -0.091999 -0.977093 0.191899 0.280300 0.006000 1 0 1.000000 
0 -0.658300 -3.211000 136.984497 -0.091999 -0.977093 0.191899 0.255400 -0.009000 1 0 1.000000 
0 -1.676100 -4.008300 126.143600 -0.119404 -0.984231 0.130504 0.250400 -0.047300 1 0 1.000000 
dockpole01
0 -1.186800 -5.527900 75.656998 0.096701 -0.995313 -0.001000 0.255100 -0.225900 1 0 1.000000 
0 2.630000 -5.138200 30.984100 0.096701 -0.995313 -0.001000 0.272700 -0.383900 1 0 1.000000 
0 2.999400 -5.138200 116.030800 0.096701 -0.995313 -0.001000 0.274100 -0.083100 1 0 1.000000 
dockpole01
0 -2.939700 -2.586700 119.943497 -0.703679 0.709479 -0.038399 0.228300 -0.306200 1 0 1.000000 
0 1.692400 1.690400 105.997704 -0.718020 0.695919 -0.012000 0.277800 -0.245000 1 0 1.000000 
0 3.387300 3.219200 75.656998 -0.718020 0.695919 -0.012000 0.301300 -0.118400 1 0 1.000000 
dockpole01
0 -2.939700 -2.586700 119.943497 -0.703679 0.709479 -0.038399 0.228300 -0.306200 1 0 1.000000 
0 -0.596000 -0.220700 121.768501 -0.703679 0.709479 -0.038399 0.251400 -0.311600 1 0 1.000000 
0 1.692400 1.690400 105.997704 -0.718020 0.695919 -0.012000 0.277800 -0.245000 1 0 1.000000 
dockpole01
0 -0.596000 -0.220700 121.768501 -0.703679 0.709479 -0.038399 0.251400 -0.311600 1 0 1.000000 
0 2.929700 3.342900 120.012497 -0.714817 0.697816 -0.045701 0.287100 -0.301300 1 0 1.000000 
0 1.692400 1.690400 105.997704 -0.718020 0.695919 -0.012000 0.277800 -0.245000 1 0 1.000000 
dockpole01
0 3.387300 3.219200 75.656998 -0.874884 0.457491 -0.158997 0.301300 -0.118400 1 0 1.000000 
0 -1.186800 -5.527900 75.656998 -0.904033 0.403115 -0.142205 0.255200 -0.128100 1 0 1.000000 
0 -2.939700 -2.586700 119.943497 -0.903510 0.395404 -0.165302 0.228300 -0.306200 1 0 1.000000 
dockpole01
0 -3.043100 -4.821800 108.549202 -0.904033 0.403115 -0.142205 0.229600 -0.262100 1 0 1.000000 
0 -2.939700 -2.586700 119.943497 -0.903510 0.395404 -0.165302 0.228300 -0.306200 1 0 1.000000 
0 -1.186800 -5.527900 75.656998 -0.904033 0.403115 -0.142205 0.255200 -0.128100 1 0 1.000000 
dockpole01
0 -1.676100 -4.008300 126.143600 0.140098 -0.989985 0.017400 0.250400 -0.047300 1 0 1.000000 
0 3.695900 -3.228200 128.833099 0.140098 -0.989985 0.017400 0.282400 -0.037800 1 0 1.000000 
0 3.123700 -3.217900 141.222504 0.140098 -0.989985 0.017400 0.280300 0.006000 1 0 1.000000 
dockpole01
0 5.176300 -0.494400 128.833099 0.877986 -0.475492 0.055199 0.298200 -0.037800 1 0 1.000000 
0 3.695900 -3.228200 128.833099 0.877986 -0.475492 0.055199 0.282400 -0.037800 1 0 1.000000 
0 2.999400 -5.138200 116.030800 0.879186 -0.476092 -0.019200 0.274100 -0.083100 1 0 1.000000 
dockpole01
0 3.695900 -3.228200 128.833099 0.877986 -0.475492 0.055199 0.282400 -0.037800 1 0 1.000000 
0 5.176300 -0.494400 128.833099 0.877986 -0.475492 0.055199 0.298200 -0.037800 1 0 1.000000 
0 4.604100 -0.484100 141.222504 0.875190 -0.473894 0.097299 0.298000 0.006000 1 0 1.000000 
dockpole01
0 4.604100 -0.484100 141.222504 0.875190 -0.473894 0.097299 0.298000 0.006000 1 0 1.000000 
0 3.123700 -3.217900 141.222504 0.875190 -0.473894 0.097299 0.280300 0.006000 1 0 1.000000 
0 3.695900 -3.228200 128.833099 0.877986 -0.475492 0.055199 0.282400 -0.037800 1 0 1.000000 
dockpole01
0 5.176300 -0.494400 128.833099 0.909537 -0.415517 -0.009400 0.298200 -0.037800 1 0 1.000000 
0 2.999400 -5.138200 116.030800 0.879186 -0.476092 -0.019200 0.274100 -0.083100 1 0 1.000000 
0 2.630000 -5.138200 30.984100 0.909537 -0.415517 -0.009400 0.272700 -0.383900 1 0 1.000000 
dockpole01
0 -5.199000 -2.914800 20.990801 -0.851818 -0.523011 0.029401 0.233400 -0.419200 1 0 1.000000 
0 -3.058600 -3.537500 56.978600 -0.965878 0.067698 0.249994 0.242300 -0.291900 1 0 1.000000 
0 -5.971900 -0.030100 20.990101 -0.996947 0.052702 0.057603 0.220600 -0.419200 1 0 1.000000 
dockpole01
0 -3.058600 -3.537500 56.978600 -0.965878 0.067698 0.249994 0.242300 -0.291900 1 0 1.000000 
0 -5.199000 -2.914800 20.990801 -0.851818 -0.523011 0.029401 0.233400 -0.419200 1 0 1.000000 
0 -0.822700 -5.138200 56.978600 -0.558689 -0.826683 0.066799 0.256500 -0.291900 1 0 1.000000 
dockpole01
0 -3.087300 -5.026500 20.990801 -0.564425 -0.825437 0.008800 0.246400 -0.419200 1 0 1.000000 
0 -0.822700 -5.138200 56.978600 -0.558689 -0.826683 0.066799 0.256500 -0.291900 1 0 1.000000 
0 -5.199000 -2.914800 20.990801 -0.851818 -0.523011 0.029401 0.233400 -0.419200 1 0 1.000000 
dockpole01
0 -0.281600 -5.918300 30.984100 -0.161503 -0.986821 -0.010000 0.259300 -0.383900 1 0 1.000000 
0 -0.822700 -5.138200 56.978600 -0.558689 -0.826683 0.066799 0.256500 -0.291900 1 0 1.000000 
0 -3.087300 -5.026500 20.990801 -0.564425 -0.825437 0.008800 0.246400 -0.419200 1 0 1.000000 
dockpole01
0 -3.159400 -1.421800 -141.222504 -0.817548 -0.574664 -0.037098 0.231200 -0.993000 1 0 1.000000 
0 -1.368200 -3.212900 -141.222504 -0.420712 -0.906526 -0.034801 0.250200 -0.993000 1 0 1.000000 
0 -3.087300 -5.026500 20.990801 -0.564425 -0.825437 0.008800 0.246400 -0.419200 1 0 1.000000 
dockpole01
0 -3.159400 -1.421800 -141.222504 -0.817548 -0.574664 -0.037098 0.231200 -0.993000 1 0 1.000000 
0 -3.087300 -5.026500 20.990801 -0.564425 -0.825437 0.008800 0.246400 -0.419200 1 0 1.000000 
0 -5.199000 -2.914800 20.990801 -0.851818 -0.523011 0.029401 0.233400 -0.419200 1 0 1.000000 
dockpole01
0 -3.815000 1.024900 -141.222504 -0.995497 -0.088900 -0.032900 0.213800 -0.993000 1 0 1.000000 
0 -3.159400 -1.421800 -141.222504 -0.817548 -0.574664 -0.037098 0.231200 -0.993000 1 0 1.000000 
0 -5.199000 -2.914800 20.990801 -0.851818 -0.523011 0.029401 0.233400 -0.419200 1 0 1.000000 
dockpole01
0 -3.815000 1.024900 -141.222504 -0.995497 -0.088900 -0.032900 0.213800 -0.993000 1 0 1.000000 
0 -5.199000 -2.914800 20.990801 -0.851818 -0.523011 0.029401 0.233400 -0.419200 1 0 1.000000 
0 -5.971900 -0.030100 20.990101 -0.996947 0.052702 0.057603 0.220600 -0.419200 1 0 1.000000 
dockpole01
0 -3.159400 3.471600 -141.222504 -0.832047 0.554231 -0.022901 0.199400 -0.993000 1 0 1.000000 
0 -3.815000 1.024900 -141.222504 -0.995497 -0.088900 -0.032900 0.213800 -0.993000 1 0 1.000000 
0 -5.971900 -0.030100 20.990101 -0.996947 0.052702 0.057603 0.220600 -0.419200 1 0 1.000000 
dockpole01
0 -3.159400 3.471600 -141.222504 -0.832047 0.554231 -0.022901 0.199400 -0.993000 1 0 1.000000 
0 -5.971900 -0.030100 20.990101 -0.996947 0.052702 0.057603 0.220600 -0.419200 1 0 1.000000 
0 -5.199000 2.854500 20.987600 -0.839156 0.525672 0.139593 0.207800 -0.419200 1 0 1.000000 
dockpole01
0 -5.971900 -0.030100 20.990101 -0.996947 0.052702 0.057603 0.220600 -0.419200 1 0 1.000000 
0 -3.058600 -3.537500 56.978600 -0.965878 0.067698 0.249994 0.242300 -0.291900 1 0 1.000000 
0 -5.199000 2.854500 20.987600 -0.839156 0.525672 0.139593 0.207800 -0.419200 1 0 1.000000 
dockpole01
0 -5.199000 2.854500 20.987600 -0.839156 0.525672 0.139593 0.207800 -0.419200 1 0 1.000000 
0 -3.058600 -3.537500 56.978600 -0.965878 0.067698 0.249994 0.242300 -0.291900 1 0 1.000000 
0 -3.087200 4.966200 20.985201 -0.597426 0.789034 0.143206 0.194700 -0.419300 1 0 1.000000 
dockpole01
0 0.406900 1.038300 66.225502 -0.759560 0.599768 0.251687 0.220300 -0.259200 1 0 1.000000 
0 -3.087200 4.966200 20.985201 -0.597426 0.789034 0.143206 0.194700 -0.419300 1 0 1.000000 
0 -3.058600 -3.537500 56.978600 -0.965878 0.067698 0.249994 0.242300 -0.291900 1 0 1.000000 
dockpole01
0 -3.159400 3.471600 -141.222504 -0.832047 0.554231 -0.022901 0.359700 -0.993000 1 0 1.000000 
0 -5.199000 2.854500 20.987600 -0.839156 0.525672 0.139593 0.368100 -0.419200 1 0 1.000000 
0 -3.087200 4.966200 20.985201 -0.597426 0.789034 0.143206 0.355000 -0.419300 1 0 1.000000 
dockpole01
0 1.078500 5.918300 -141.222504 -0.175899 0.984397 -0.004700 0.336100 -0.993000 1 0 1.000000 
0 -3.159400 3.471600 -141.222504 -0.832047 0.554231 -0.022901 0.359700 -0.993000 1 0 1.000000 
0 -3.087200 4.966200 20.985201 -0.597426 0.789034 0.143206 0.355000 -0.419300 1 0 1.000000 
dockpole01
0 1.078500 5.918300 -141.222504 -0.175899 0.984397 -0.004700 0.336100 -0.993000 1 0 1.000000 
0 -3.087200 4.966200 20.985201 -0.597426 0.789034 0.143206 0.355000 -0.419300 1 0 1.000000 
0 -0.281600 5.728000 30.984100 -0.157896 0.981276 0.110297 0.342000 -0.383900 1 0 1.000000 
dockpole01
0 3.525200 5.262700 -141.222504 0.421005 0.907011 0.009200 0.325600 -0.993000 1 0 1.000000 
0 1.078500 5.918300 -141.222504 -0.175899 0.984397 -0.004700 0.336100 -0.993000 1 0 1.000000 
0 -0.281600 5.728000 30.984100 -0.157896 0.981276 0.110297 0.342000 -0.383900 1 0 1.000000 
dockpole01
0 3.525200 5.262700 -141.222504 0.421005 0.907011 0.009200 0.325600 -0.993000 1 0 1.000000 
0 -0.281600 5.728000 30.984100 -0.157896 0.981276 0.110297 0.342000 -0.383900 1 0 1.000000 
0 2.630000 4.947900 30.984100 0.545485 0.837576 0.030199 0.328200 -0.383900 1 0 1.000000 
dockpole01
0 5.316300 3.471600 -141.222504 0.896191 0.443596 0.008000 0.315300 -0.993000 1 0 1.000000 
0 3.525200 5.262700 -141.222504 0.421005 0.907011 0.009200 0.325600 -0.993000 1 0 1.000000 
0 2.630000 4.947900 30.984100 0.545485 0.837576 0.030199 0.328200 -0.383900 1 0 1.000000 
dockpole01
0 5.316300 3.471600 -141.222504 0.896191 0.443596 0.008000 0.315300 -0.993000 1 0 1.000000 
0 2.630000 4.947900 30.984100 0.545485 0.837576 0.030199 0.328200 -0.383900 1 0 1.000000 
0 4.761400 2.816500 30.984100 0.891190 0.452795 0.027500 0.314200 -0.383900 1 0 1.000000 
dockpole01
0 4.761400 2.816500 30.984100 0.891190 0.452795 0.027500 0.314200 -0.383900 1 0 1.000000 
0 2.630000 4.947900 30.984100 0.545485 0.837576 0.030199 0.328200 -0.383900 1 0 1.000000 
0 3.387300 3.219200 75.656998 0.414800 0.898301 0.144900 0.319900 -0.225900 1 0 1.000000 
dockpole01
0 5.541600 -0.095100 30.984100 0.997636 0.066102 0.018801 0.300200 -0.383900 1 0 1.000000 
0 4.761400 2.816500 30.984100 0.891190 0.452795 0.027500 0.314200 -0.383900 1 0 1.000000 
0 3.387300 3.219200 75.656998 0.414800 0.898301 0.144900 0.319900 -0.225900 1 0 1.000000 
dockpole01
0 5.316300 3.471600 -141.222504 0.896191 0.443596 0.008000 0.315300 -0.993000 1 0 1.000000 
0 4.761400 2.816500 30.984100 0.891190 0.452795 0.027500 0.314200 -0.383900 1 0 1.000000 
0 5.541600 -0.095100 30.984100 0.997636 0.066102 0.018801 0.300200 -0.383900 1 0 1.000000 
dockpole01
0 5.316300 -1.421800 -141.222504 0.940490 -0.339796 -0.004000 0.294000 -0.993000 1 0 1.000000 
0 5.316300 3.471600 -141.222504 0.896191 0.443596 0.008000 0.315300 -0.993000 1 0 1.000000 
0 5.541600 -0.095100 30.984100 0.997636 0.066102 0.018801 0.300200 -0.383900 1 0 1.000000 
dockpole01
0 5.316300 -1.421800 -141.222504 0.940490 -0.339796 -0.004000 0.294000 -0.993000 1 0 1.000000 
0 5.541600 -0.095100 30.984100 0.997636 0.066102 0.018801 0.300200 -0.383900 1 0 1.000000 
0 4.761400 -3.006700 30.984100 0.818119 -0.575014 -0.006300 0.286400 -0.383900 1 0 1.000000 
dockpole01
0 3.525200 -3.212900 -141.222504 0.575010 -0.818014 -0.014700 0.281900 -0.993000 1 0 1.000000 
0 5.316300 -1.421800 -141.222504 0.940490 -0.339796 -0.004000 0.294000 -0.993000 1 0 1.000000 
0 4.761400 -3.006700 30.984100 0.818119 -0.575014 -0.006300 0.286400 -0.383900 1 0 1.000000 
dockpole01
0 3.525200 -3.212900 -141.222504 0.575010 -0.818014 -0.014700 0.281900 -0.993000 1 0 1.000000 
0 4.761400 -3.006700 30.984100 0.818119 -0.575014 -0.006300 0.286400 -0.383900 1 0 1.000000 
0 2.630000 -5.138200 30.984100 0.420904 -0.906908 -0.018900 0.272700 -0.383900 1 0 1.000000 
dockpole01
0 1.078500 -3.868500 -141.222504 0.088998 -0.995676 -0.026599 0.267600 -0.993000 1 0 1.000000 
0 3.525200 -3.212900 -141.222504 0.575010 -0.818014 -0.014700 0.281900 -0.993000 1 0 1.000000 
0 2.630000 -5.138200 30.984100 0.420904 -0.906908 -0.018900 0.272700 -0.383900 1 0 1.000000 
dockpole01
0 1.078500 -3.868500 -141.222504 0.088998 -0.995676 -0.026599 0.267600 -0.993000 1 0 1.000000 
0 2.630000 -5.138200 30.984100 0.420904 -0.906908 -0.018900 0.272700 -0.383900 1 0 1.000000 
0 -0.281600 -5.918300 30.984100 -0.161503 -0.986821 -0.010000 0.259300 -0.383900 1 0 1.000000 
dockpole01
0 -1.368200 -3.212900 -141.222504 -0.420712 -0.906526 -0.034801 0.250200 -0.993000 1 0 1.000000 
0 1.078500 -3.868500 -141.222504 0.088998 -0.995676 -0.026599 0.267600 -0.993000 1 0 1.000000 
0 -0.281600 -5.918300 30.984100 -0.161503 -0.986821 -0.010000 0.259300 -0.383900 1 0 1.000000 
dockpole01
0 -1.368200 -3.212900 -141.222504 -0.420712 -0.906526 -0.034801 0.250200 -0.993000 1 0 1.000000 
0 -0.281600 -5.918300 30.984100 -0.161503 -0.986821 -0.010000 0.259300 -0.383900 1 0 1.000000 
0 -3.087300 -5.026500 20.990801 -0.564425 -0.825437 0.008800 0.246400 -0.419200 1 0 1.000000 
dockpole01
0 2.630000 4.947900 30.984100 0.545485 0.837576 0.030199 0.328200 -0.383900 1 0 1.000000 
0 -0.281600 5.728000 30.984100 -0.157896 0.981276 0.110297 0.342000 -0.383900 1 0 1.000000 
0 3.387300 3.219200 75.656998 0.414800 0.898301 0.144900 0.319900 -0.225900 1 0 1.000000 
dockpole01
0 0.406900 1.038300 66.225502 -0.759560 0.599768 0.251687 0.331100 -0.259200 1 0 1.000000 
0 3.387300 3.219200 75.656998 0.414800 0.898301 0.144900 0.319900 -0.225900 1 0 1.000000 
0 -0.281600 5.728000 30.984100 -0.157896 0.981276 0.110297 0.342000 -0.383900 1 0 1.000000 
dockpole01
0 -3.087200 4.966200 20.985201 -0.597426 0.789034 0.143206 0.355000 -0.419300 1 0 1.000000 
0 0.406900 1.038300 66.225502 -0.759560 0.599768 0.251687 0.331100 -0.259200 1 0 1.000000 
0 -0.281600 5.728000 30.984100 -0.157896 0.981276 0.110297 0.342000 -0.383900 1 0 1.000000 
dockpole01
0 -3.058600 -3.537500 56.978600 -0.580781 -0.811273 -0.067298 0.242300 -0.291900 1 0 1.000000 
0 -0.822700 -5.138200 56.978600 -0.580781 -0.811273 -0.067298 0.256500 -0.291900 1 0 1.000000 
0 -1.186800 -5.527900 75.656998 -0.580781 -0.811273 -0.067298 0.255100 -0.225900 1 0 1.000000 
dockpole01
0 -3.043100 -4.821800 108.549202 -0.889083 -0.406992 0.209496 0.229600 -0.262100 1 0 1.000000 
0 -1.676100 -4.008300 126.143600 -0.889083 -0.406992 0.209496 0.239500 -0.334400 1 0 1.000000 
0 -2.939700 -2.586700 119.943497 -0.889083 -0.406992 0.209496 0.228300 -0.306200 1 0 1.000000 
dockpole01
0 -0.596000 -0.220700 121.768501 -0.664789 0.470692 0.580090 0.251400 -0.311600 1 0 1.000000 
0 -2.939700 -2.586700 119.943497 -0.664789 0.470692 0.580090 0.228300 -0.306200 1 0 1.000000 
0 -1.676100 -4.008300 126.143600 -0.664789 0.470692 0.580090 0.239500 -0.334400 1 0 1.000000 
dockpole01
0 5.370600 1.418600 116.160797 -0.056197 0.992152 0.111695 0.312100 -0.289300 1 0 1.000000 
0 3.387300 3.219200 75.656998 -0.056197 0.992152 0.111695 0.301300 -0.118400 1 0 1.000000 
0 1.692400 1.690400 105.997704 -0.056197 0.992152 0.111695 0.277800 -0.245000 1 0 1.000000 
dockpole01
0 5.176300 -0.494400 128.833099 0.819663 0.565875 0.089096 0.307300 -0.344200 1 0 1.000000 
0 2.929700 3.342900 120.012497 0.819663 0.565875 0.089096 0.287100 -0.301300 1 0 1.000000 
0 4.604100 -0.484100 141.222504 0.819663 0.565875 0.089096 0.298900 -0.395100 1 0 1.000000 
dockpole01
0 -1.186800 -5.527900 75.656998 -0.819321 0.428511 0.380910 0.255200 -0.128100 1 0 1.000000 
0 3.387300 3.219200 75.656998 -0.819321 0.428511 0.380910 0.301300 -0.118400 1 0 1.000000 
0 0.406900 1.038300 66.225502 -0.819321 0.428511 0.380910 0.273500 -0.080800 1 0 1.000000 
dockpole01
0 2.630000 -5.138200 30.984100 0.258808 -0.965929 0.000000 0.272700 -0.383900 1 0 1.000000 
0 -1.186800 -5.527900 75.656998 0.258702 -0.965407 0.032600 0.255100 -0.225900 1 0 1.000000 
0 -0.281600 -5.918300 30.984100 0.258808 -0.965929 0.000000 0.259300 -0.383900 1 0 1.000000 
dockpole01
0 -0.658300 -3.211000 136.984497 -0.595779 0.702775 0.388786 0.247300 -0.378600 1 0 1.000000 
0 4.604100 -0.484100 141.222504 -0.525299 0.741398 0.417599 0.298900 -0.395100 1 0 1.000000 
0 2.929700 3.342900 120.012497 -0.525299 0.741398 0.417599 0.287100 -0.301300 1 0 1.000000 
dockpole01
0 -1.186800 -5.527900 75.656998 -0.998523 -0.026001 -0.047701 0.255100 -0.225900 1 0 1.000000 
0 -0.822700 -5.138200 56.978600 -0.998523 -0.026001 -0.047701 0.256500 -0.291900 1 0 1.000000 
0 -0.281600 -5.918300 30.984100 -0.998523 -0.026001 -0.047701 0.259300 -0.383900 1 0 1.000000 
dockpole01
0 3.387300 3.219200 75.656998 0.773399 0.633499 -0.023100 0.318600 -0.235800 1 0 1.000000 
0 5.370600 1.418600 116.160797 0.773399 0.633499 -0.023100 0.305000 -0.095400 1 0 1.000000 
0 5.541600 -0.095100 30.984100 0.773399 0.633499 -0.023100 0.302700 -0.235800 1 0 1.000000 
dockpole01
0 5.370600 1.418600 116.160797 0.441587 0.835276 -0.327590 0.312100 -0.289300 1 0 1.000000 
0 1.692400 1.690400 105.997704 0.441587 0.835276 -0.327590 0.277800 -0.245000 1 0 1.000000 
0 2.929700 3.342900 120.012497 0.441587 0.835276 -0.327590 0.287100 -0.301300 1 0 1.000000 
dockpole01
0 2.929700 3.342900 120.012497 -0.678389 0.671689 0.297695 0.287100 -0.301300 1 0 1.000000 
0 -0.596000 -0.220700 121.768501 -0.620469 0.690666 0.371482 0.251400 -0.311600 1 0 1.000000 
0 -0.658300 -3.211000 136.984497 -0.686007 0.679707 0.259603 0.247300 -0.378600 1 0 1.000000 
dockpole01
0 -0.596000 -0.220700 121.768501 -0.929585 0.337195 0.148898 0.251400 -0.311600 1 0 1.000000 
0 -1.676100 -4.008300 126.143600 -0.929585 0.337195 0.148898 0.239500 -0.334400 1 0 1.000000 
0 -0.658300 -3.211000 136.984497 -0.929585 0.337195 0.148898 0.247300 -0.378600 1 0 1.000000 
dockpole01
0 -0.658300 -3.211000 136.984497 -0.414316 0.224408 0.882033 0.247300 -0.378600 1 0 1.000000 
0 3.123700 -3.217900 141.222504 -0.414316 0.224408 0.882033 0.284000 -0.398100 1 0 1.000000 
0 4.604100 -0.484100 141.222504 -0.414316 0.224408 0.882033 0.298900 -0.395100 1 0 1.000000 
dockpole01
0 -1.186800 -5.527900 75.656998 -0.883473 0.379788 0.274292 0.255200 -0.128100 1 0 1.000000 
0 0.406900 1.038300 66.225502 -0.883473 0.379788 0.274292 0.273500 -0.080800 1 0 1.000000 
0 -3.058600 -3.537500 56.978600 -0.848290 0.428295 0.311396 0.240700 -0.047200 1 0 1.000000 
dockpole01
0 5.370600 1.418600 116.160797 0.993915 -0.110102 -0.003300 0.307200 -0.082600 1 0 1.000000 
0 5.176300 -0.494400 128.833099 0.993915 -0.110102 -0.003300 0.298200 -0.037800 1 0 1.000000 
0 4.761400 -3.006700 30.984100 0.993915 -0.110102 -0.003300 0.286400 -0.383900 1 0 1.000000 
dockpole01
0 -1.676100 -4.008300 126.143600 0.068399 -0.942789 0.326296 0.250400 -0.047300 1 0 1.000000 
0 2.999400 -5.138200 116.030800 0.068399 -0.942789 0.326296 0.274100 -0.083100 1 0 1.000000 
0 3.695900 -3.228200 128.833099 0.068399 -0.942789 0.326296 0.282400 -0.037800 1 0 1.000000 
dockpole01
0 5.176300 -0.494400 128.833099 0.698985 0.664386 0.264594 0.307300 -0.344200 1 0 1.000000 
0 5.370600 1.418600 116.160797 0.684492 0.701392 0.198798 0.312100 -0.289300 1 0 1.000000 
0 2.929700 3.342900 120.012497 0.684492 0.701392 0.198798 0.287100 -0.301300 1 0 1.000000 
dockpole01
0 2.630000 -5.138200 30.984100 0.707107 -0.707107 0.000000 0.272700 -0.383900 1 0 1.000000 
0 4.761400 -3.006700 30.984100 0.707107 -0.707107 0.000000 0.286400 -0.383900 1 0 1.000000 
0 5.176300 -0.494400 128.833099 0.706646 -0.706646 0.036102 0.298200 -0.037800 1 0 1.000000 
end
