version 1
nodes
  0 "static_prop" -1
end
skeleton
time 0
0 0.000000 0.000000 0.000000 0.000000 0.000000 0.000000
end
triangles
borealis_deckdetail_system02
0 3.526402 -32.140900 -0.078200 -1.000000 -0.000000 0.000000 0.000700 -0.326300 1 0 1.000000 
0 3.526402 -32.155300 9.560100 -1.000000 -0.000000 0.000000 0.000500 -0.000500 1 0 1.000000 
0 3.526399 32.155300 9.560100 -1.000000 -0.000000 0.000000 0.999500 -0.000500 1 0 1.000000 
borealis_deckdetail_system02
0 -3.526402 32.155300 9.560100 -0.000000 0.999999 -0.001500 0.999500 -0.000500 1 0 1.000000 
0 3.526399 32.155300 9.560100 -0.000000 0.999999 -0.001500 0.999500 -0.000500 1 0 1.000000 
0 3.526399 32.140900 -0.078200 -0.000000 0.999999 -0.001500 0.999300 -0.326300 1 0 1.000000 
borealis_deckdetail_system02
0 3.526399 32.140900 -0.078200 -0.000000 0.999999 -0.001500 0.999300 -0.326300 1 0 1.000000 
0 -3.526402 32.140900 -0.078200 -0.000000 0.999999 -0.001500 0.999300 -0.326300 1 0 1.000000 
0 -3.526402 32.155300 9.560100 -0.000000 0.999999 -0.001500 0.999500 -0.000500 1 0 1.000000 
borealis_deckdetail_system02
0 -3.526399 -32.140900 -0.078200 0.000000 -0.999999 -0.001500 0.000700 -0.326300 1 0 1.000000 
0 3.526402 -32.140900 -0.078200 0.000000 -0.999999 -0.001500 0.000700 -0.326300 1 0 1.000000 
0 3.526402 -32.155300 9.560100 0.000000 -0.999999 -0.001500 0.000500 -0.000500 1 0 1.000000 
borealis_deckdetail_system02
0 3.526402 -32.155300 9.560100 0.000000 -0.999999 -0.001500 0.000500 -0.000500 1 0 1.000000 
0 -3.526399 -32.155300 9.560100 0.000000 -0.999999 -0.001500 0.000500 -0.000500 1 0 1.000000 
0 -3.526399 -32.140900 -0.078200 0.000000 -0.999999 -0.001500 0.000700 -0.326300 1 0 1.000000 
borealis_deckdetail_system02
0 -2.033801 17.414801 -19.989901 -1.000000 -0.000000 0.000000 0.770500 -0.999500 1 0 1.000000 
0 -2.033799 -17.534401 -19.989901 -0.992873 0.020499 -0.117397 0.227600 -0.999500 1 0 1.000000 
0 -2.033801 16.165001 -14.109800 -0.976654 0.026201 -0.213212 0.751100 -0.800700 1 0 1.000000 
borealis_deckdetail_system02
0 -3.454699 -16.227600 -13.841900 -0.976654 0.026201 -0.213212 0.247900 -0.791700 1 0 1.000000 
0 -2.033801 16.165001 -14.109800 -0.976654 0.026201 -0.213212 0.751100 -0.800700 1 0 1.000000 
0 -2.033799 -17.534401 -19.989901 -0.992873 0.020499 -0.117397 0.227600 -0.999500 1 0 1.000000 
borealis_deckdetail_system02
0 -2.033801 16.165001 -14.109800 -0.976654 0.026201 -0.213212 0.751100 -0.800700 1 0 1.000000 
0 -3.454699 -16.227600 -13.841900 -0.976654 0.026201 -0.213212 0.247900 -0.791700 1 0 1.000000 
0 -3.454701 15.481800 -10.895600 -0.978996 0.018900 -0.202999 0.740500 -0.692100 1 0 1.000000 
borealis_deckdetail_system02
0 -3.454699 -15.601400 -10.895600 -1.000000 -0.000000 0.000000 0.257600 -0.692100 1 0 1.000000 
0 -3.454701 15.481800 -10.895600 -0.978996 0.018900 -0.202999 0.740500 -0.692100 1 0 1.000000 
0 -3.454699 -16.227600 -13.841900 -0.976654 0.026201 -0.213212 0.247900 -0.791700 1 0 1.000000 
borealis_deckdetail_system02
0 3.526399 32.155300 9.560100 0.000000 0.000000 1.000000 0.999500 -0.000500 1 0 1.000000 
0 -3.526402 32.155300 9.560100 0.000000 0.000000 1.000000 0.999500 -0.000500 1 0 1.000000 
0 -3.526399 -32.155300 9.560100 0.000000 0.000000 1.000000 0.000500 -0.000500 1 0 1.000000 
borealis_deckdetail_system02
0 -3.526399 -32.155300 9.560100 0.000000 0.000000 1.000000 0.000500 -0.000500 1 0 1.000000 
0 3.526402 -32.155300 9.560100 0.000000 0.000000 1.000000 0.000500 -0.000500 1 0 1.000000 
0 3.526399 32.155300 9.560100 0.000000 0.000000 1.000000 0.999500 -0.000500 1 0 1.000000 
borealis_deckdetail_system02
0 -3.526402 32.140900 -0.078200 -1.000000 -0.000000 0.000000 0.999300 -0.326300 1 0 1.000000 
0 -3.526399 -32.155300 9.560100 -1.000000 -0.000000 0.000000 0.000500 -0.000500 1 0 1.000000 
0 -3.526402 32.155300 9.560100 -1.000000 -0.000000 0.000000 0.999500 -0.000500 1 0 1.000000 
borealis_deckdetail_system02
0 -3.526402 32.140900 -0.078200 -1.000000 -0.000000 0.000000 0.999300 -0.326300 1 0 1.000000 
0 -3.526400 -0.000100 -10.540600 -1.000000 -0.000000 0.000000 0.500000 -0.680000 1 0 1.000000 
0 -3.526399 -32.155300 9.560100 -1.000000 -0.000000 0.000000 0.000500 -0.000500 1 0 1.000000 
borealis_deckdetail_system02
0 -3.526400 -0.000100 -10.540600 -1.000000 -0.000000 0.000000 0.500000 -0.680000 1 0 1.000000 
0 -3.526399 -32.140900 -0.078200 -1.000000 -0.000000 0.000000 0.000700 -0.326300 1 0 1.000000 
0 -3.526399 -32.155300 9.560100 -1.000000 -0.000000 0.000000 0.000500 -0.000500 1 0 1.000000 
borealis_deckdetail_system02
0 3.526400 -0.000100 -10.540600 0.000000 -0.309500 -0.950899 0.500000 -0.680000 1 0 1.000000 
0 3.526402 -32.140900 -0.078200 0.000000 -0.309500 -0.950899 0.000700 -0.326300 1 0 1.000000 
0 -3.526400 -0.000100 -10.540600 0.000000 -0.309500 -0.950899 0.500000 -0.680000 1 0 1.000000 
borealis_deckdetail_system02
0 -3.526399 -32.140900 -0.078200 0.000000 -0.309500 -0.950899 0.000700 -0.326300 1 0 1.000000 
0 -3.526400 -0.000100 -10.540600 0.000000 -0.309500 -0.950899 0.500000 -0.680000 1 0 1.000000 
0 3.526402 -32.140900 -0.078200 0.000000 -0.309500 -0.950899 0.000700 -0.326300 1 0 1.000000 
borealis_deckdetail_system02
0 -3.526400 -0.000100 -10.540600 -0.000000 0.309500 -0.950899 0.500000 -0.680000 1 0 1.000000 
0 -3.526402 32.140900 -0.078200 -0.000000 0.309500 -0.950899 0.999300 -0.326300 1 0 1.000000 
0 3.526400 -0.000100 -10.540600 -0.000000 0.309500 -0.950899 0.500000 -0.680000 1 0 1.000000 
borealis_deckdetail_system02
0 3.526399 32.140900 -0.078200 -0.000000 0.309500 -0.950899 0.999300 -0.326300 1 0 1.000000 
0 3.526400 -0.000100 -10.540600 -0.000000 0.309500 -0.950899 0.500000 -0.680000 1 0 1.000000 
0 -3.526402 32.140900 -0.078200 -0.000000 0.309500 -0.950899 0.999300 -0.326300 1 0 1.000000 
borealis_deckdetail_system02
0 2.025799 17.414801 -19.989901 0.000000 0.000000 -1.000000 0.770500 -0.999500 1 0 1.000000 
0 2.025801 -17.534401 -19.989901 0.000000 0.000000 -1.000000 0.227600 -0.999500 1 0 1.000000 
0 -2.033801 17.414801 -19.989901 0.000000 0.000000 -1.000000 0.770500 -0.999500 1 0 1.000000 
borealis_deckdetail_system02
0 -2.033799 -17.534401 -19.989901 0.000000 0.000000 -1.000000 0.227600 -0.999500 1 0 1.000000 
0 -2.033801 17.414801 -19.989901 0.000000 0.000000 -1.000000 0.770500 -0.999500 1 0 1.000000 
0 2.025801 -17.534401 -19.989901 0.000000 0.000000 -1.000000 0.227600 -0.999500 1 0 1.000000 
borealis_deckdetail_system02
0 -2.033799 -17.534401 -19.989901 0.000000 -0.978148 0.207910 0.227600 -0.999500 1 0 1.000000 
0 2.025801 -17.534401 -19.989901 0.000000 -0.978148 0.207910 0.227600 -0.999500 1 0 1.000000 
0 2.025801 -16.284599 -14.109800 0.000000 -0.978148 0.207910 0.247000 -0.800700 1 0 1.000000 
borealis_deckdetail_system02
0 2.025801 -16.284599 -14.109800 0.000000 -0.978148 0.207910 0.247000 -0.800700 1 0 1.000000 
0 -3.454699 -16.227600 -13.841900 0.000000 -0.978148 0.207910 0.247900 -0.791700 1 0 1.000000 
0 -2.033799 -17.534401 -19.989901 0.000000 -0.978148 0.207910 0.227600 -0.999500 1 0 1.000000 
borealis_deckdetail_system02
0 -3.454699 -16.227600 -13.841900 0.000000 -0.978148 0.207910 0.247900 -0.791700 1 0 1.000000 
0 2.025801 -16.284599 -14.109800 0.000000 -0.978148 0.207910 0.247000 -0.800700 1 0 1.000000 
0 3.446701 -15.601400 -10.895600 0.000000 -0.978148 0.207910 0.257600 -0.692100 1 0 1.000000 
borealis_deckdetail_system02
0 3.446701 -15.601400 -10.895600 0.000000 -0.978148 0.207910 0.257600 -0.692100 1 0 1.000000 
0 -3.454699 -15.601400 -10.895600 0.000000 -0.978148 0.207910 0.257600 -0.692100 1 0 1.000000 
0 -3.454699 -16.227600 -13.841900 0.000000 -0.978148 0.207910 0.247900 -0.791700 1 0 1.000000 
borealis_deckdetail_system02
0 3.446701 -15.601400 -10.895600 0.000000 0.000000 1.000000 0.257600 -0.692100 1 0 1.000000 
0 3.446699 15.481800 -10.895600 0.000000 0.000000 1.000000 0.740500 -0.692100 1 0 1.000000 
0 -3.454699 -15.601400 -10.895600 0.000000 0.000000 1.000000 0.257600 -0.692100 1 0 1.000000 
borealis_deckdetail_system02
0 -3.454701 15.481800 -10.895600 0.000000 0.000000 1.000000 0.740500 -0.692100 1 0 1.000000 
0 -3.454699 -15.601400 -10.895600 0.000000 0.000000 1.000000 0.257600 -0.692100 1 0 1.000000 
0 3.446699 15.481800 -10.895600 0.000000 0.000000 1.000000 0.740500 -0.692100 1 0 1.000000 
borealis_deckdetail_system02
0 3.514000 4.731400 -12.459800 -0.994764 -0.000000 0.102196 0.573500 -0.744900 1 0 1.000000 
0 3.514000 -5.030500 -12.459800 -0.995325 -0.079602 0.054701 0.421900 -0.744900 1 0 1.000000 
0 3.893800 4.731400 -8.762900 -0.997699 0.013700 0.066400 0.573500 -0.619900 1 0 1.000000 
borealis_deckdetail_system02
0 3.514000 -5.030500 -12.459800 -0.995325 -0.079602 0.054701 0.421900 -0.744900 1 0 1.000000 
0 3.893800 3.596200 -7.749300 -0.999197 0.039000 0.009200 0.555900 -0.585700 1 0 1.000000 
0 3.893800 4.731400 -8.762900 -0.997699 0.013700 0.066400 0.573500 -0.619900 1 0 1.000000 
borealis_deckdetail_system02
0 3.514000 -3.895400 -7.749300 -0.983738 -0.174607 0.042102 0.439500 -0.585700 1 0 1.000000 
0 3.893800 3.596200 -7.749300 -0.999197 0.039000 0.009200 0.555900 -0.585700 1 0 1.000000 
0 3.514000 -5.030500 -12.459800 -0.995325 -0.079602 0.054701 0.421900 -0.744900 1 0 1.000000 
borealis_deckdetail_system02
0 3.893800 -5.030500 -8.762900 -0.915820 -0.390408 0.094102 0.421900 -0.619900 1 0 1.000000 
0 3.514000 -3.895400 -7.749300 -0.983738 -0.174607 0.042102 0.439500 -0.585700 1 0 1.000000 
0 3.514000 -5.030500 -12.459800 -0.995325 -0.079602 0.054701 0.421900 -0.744900 1 0 1.000000 
borealis_deckdetail_system02
0 -3.901900 -3.895400 -7.749300 0.917165 -0.046498 0.395785 0.439500 -0.585700 1 0 1.000000 
0 -3.522100 -5.030500 -8.762900 0.988267 -0.017799 0.151695 0.421900 -0.619900 1 0 1.000000 
0 -3.522100 3.596200 -7.749300 1.000000 0.000000 0.000000 0.555900 -0.585700 1 0 1.000000 
borealis_deckdetail_system02
0 -3.522100 -5.030500 -8.762900 0.988267 -0.017799 0.151695 0.421900 -0.619900 1 0 1.000000 
0 -3.901900 -5.030500 -12.459800 0.996064 0.023399 -0.085497 0.421900 -0.744900 1 0 1.000000 
0 -3.522100 3.596200 -7.749300 1.000000 0.000000 0.000000 0.555900 -0.585700 1 0 1.000000 
borealis_deckdetail_system02
0 -3.901900 -5.030500 -12.459800 0.996064 0.023399 -0.085497 0.421900 -0.744900 1 0 1.000000 
0 -3.901900 4.731400 -8.762900 0.996603 0.029200 -0.077000 0.573500 -0.619900 1 0 1.000000 
0 -3.522100 3.596200 -7.749300 1.000000 0.000000 0.000000 0.555900 -0.585700 1 0 1.000000 
borealis_deckdetail_system02
0 -3.522100 4.731400 -12.459800 0.994021 -0.038701 0.102102 0.573500 -0.744900 1 0 1.000000 
0 -3.901900 4.731400 -8.762900 0.996603 0.029200 -0.077000 0.573500 -0.619900 1 0 1.000000 
0 -3.901900 -5.030500 -12.459800 0.996064 0.023399 -0.085497 0.421900 -0.744900 1 0 1.000000 
borealis_deckdetail_system02
0 -3.522100 -5.030500 -8.762900 -0.915820 -0.390408 0.094102 0.421900 -0.619900 1 0 1.000000 
0 -3.901900 -3.895400 -7.749300 -0.983738 -0.174607 0.042102 0.439500 -0.585700 1 0 1.000000 
0 -3.901900 -5.030500 -12.459800 -0.993006 -0.101801 0.059800 0.421900 -0.744900 1 0 1.000000 
borealis_deckdetail_system02
0 -3.901900 -3.895400 -7.749300 -0.983738 -0.174607 0.042102 0.439500 -0.585700 1 0 1.000000 
0 -3.522100 3.596200 -7.749300 -0.992266 -0.022899 0.121996 0.555900 -0.585700 1 0 1.000000 
0 -3.901900 -5.030500 -12.459800 -0.993006 -0.101801 0.059800 0.421900 -0.744900 1 0 1.000000 
borealis_deckdetail_system02
0 -3.901900 -5.030500 -12.459800 -0.993006 -0.101801 0.059800 0.421900 -0.744900 1 0 1.000000 
0 -3.522100 3.596200 -7.749300 -0.992266 -0.022899 0.121996 0.555900 -0.585700 1 0 1.000000 
0 -3.901900 4.731400 -8.762900 -1.000000 -0.000000 0.000000 0.573500 -0.619900 1 0 1.000000 
borealis_deckdetail_system02
0 -3.522100 4.731400 -12.459800 -0.994021 0.038701 -0.102102 0.573500 -0.744900 1 0 1.000000 
0 -3.901900 -5.030500 -12.459800 -0.993006 -0.101801 0.059800 0.421900 -0.744900 1 0 1.000000 
0 -3.901900 4.731400 -8.762900 -1.000000 -0.000000 0.000000 0.573500 -0.619900 1 0 1.000000 
borealis_deckdetail_system02
0 2.025801 -17.534401 -19.989901 1.000000 0.000000 0.000000 0.227600 -0.999500 1 0 1.000000 
0 2.025799 17.414801 -19.989901 0.992873 -0.020499 -0.117397 0.770500 -0.999500 1 0 1.000000 
0 2.025801 -16.284599 -14.109800 0.976654 -0.026201 -0.213212 0.247000 -0.800700 1 0 1.000000 
borealis_deckdetail_system02
0 3.446699 16.108000 -13.841900 0.976654 -0.026201 -0.213212 0.750200 -0.791700 1 0 1.000000 
0 2.025801 -16.284599 -14.109800 0.976654 -0.026201 -0.213212 0.247000 -0.800700 1 0 1.000000 
0 2.025799 17.414801 -19.989901 0.992873 -0.020499 -0.117397 0.770500 -0.999500 1 0 1.000000 
borealis_deckdetail_system02
0 2.025801 -16.284599 -14.109800 0.976654 -0.026201 -0.213212 0.247000 -0.800700 1 0 1.000000 
0 3.446699 16.108000 -13.841900 0.976654 -0.026201 -0.213212 0.750200 -0.791700 1 0 1.000000 
0 3.446701 -15.601400 -10.895600 0.978996 -0.018900 -0.202999 0.257600 -0.692100 1 0 1.000000 
borealis_deckdetail_system02
0 3.446699 15.481800 -10.895600 1.000000 0.000000 0.000000 0.740500 -0.692100 1 0 1.000000 
0 3.446701 -15.601400 -10.895600 0.978996 -0.018900 -0.202999 0.257600 -0.692100 1 0 1.000000 
0 3.446699 16.108000 -13.841900 0.976654 -0.026201 -0.213212 0.750200 -0.791700 1 0 1.000000 
borealis_deckdetail_system02
0 3.514000 -3.895400 -7.749300 0.917165 -0.046498 0.395785 0.439500 -0.585700 1 0 1.000000 
0 3.893800 -5.030500 -8.762900 0.988267 -0.017799 0.151695 0.421900 -0.619900 1 0 1.000000 
0 3.893800 3.596200 -7.749300 0.995718 -0.021100 0.090002 0.555900 -0.585700 1 0 1.000000 
borealis_deckdetail_system02
0 3.893800 -5.030500 -8.762900 0.988267 -0.017799 0.151695 0.421900 -0.619900 1 0 1.000000 
0 3.514000 -5.030500 -12.459800 0.996909 -0.005100 -0.078401 0.421900 -0.744900 1 0 1.000000 
0 3.893800 3.596200 -7.749300 0.995718 -0.021100 0.090002 0.555900 -0.585700 1 0 1.000000 
borealis_deckdetail_system02
0 3.514000 -5.030500 -12.459800 0.996909 -0.005100 -0.078401 0.421900 -0.744900 1 0 1.000000 
0 3.893800 4.731400 -8.762900 1.000000 0.000000 0.000000 0.573500 -0.619900 1 0 1.000000 
0 3.893800 3.596200 -7.749300 0.995718 -0.021100 0.090002 0.555900 -0.585700 1 0 1.000000 
borealis_deckdetail_system02
0 3.514000 4.731400 -12.459800 0.994764 0.000000 -0.102196 0.573500 -0.744900 1 0 1.000000 
0 3.893800 4.731400 -8.762900 1.000000 0.000000 0.000000 0.573500 -0.619900 1 0 1.000000 
0 3.514000 -5.030500 -12.459800 0.996909 -0.005100 -0.078401 0.421900 -0.744900 1 0 1.000000 
borealis_deckdetail_system02
0 3.446699 16.108000 -13.841900 -0.000000 0.978148 0.207910 0.750200 -0.791700 1 0 1.000000 
0 2.025799 17.414801 -19.989901 -0.000000 0.978148 0.207910 0.770500 -0.999500 1 0 1.000000 
0 -2.033801 17.414801 -19.989901 -0.000000 0.978148 0.207910 0.770500 -0.999500 1 0 1.000000 
borealis_deckdetail_system02
0 -2.033801 17.414801 -19.989901 -0.000000 0.978148 0.207910 0.770500 -0.999500 1 0 1.000000 
0 -2.033801 16.165001 -14.109800 -0.000000 0.978148 0.207910 0.751100 -0.800700 1 0 1.000000 
0 3.446699 16.108000 -13.841900 -0.000000 0.978148 0.207910 0.750200 -0.791700 1 0 1.000000 
borealis_deckdetail_system02
0 3.446699 15.481800 -10.895600 -0.000000 0.978148 0.207910 0.740500 -0.692100 1 0 1.000000 
0 3.446699 16.108000 -13.841900 -0.000000 0.978148 0.207910 0.750200 -0.791700 1 0 1.000000 
0 -2.033801 16.165001 -14.109800 -0.000000 0.978148 0.207910 0.751100 -0.800700 1 0 1.000000 
borealis_deckdetail_system02
0 -2.033801 16.165001 -14.109800 -0.000000 0.978148 0.207910 0.751100 -0.800700 1 0 1.000000 
0 -3.454701 15.481800 -10.895600 -0.000000 0.978148 0.207910 0.740500 -0.692100 1 0 1.000000 
0 3.446699 15.481800 -10.895600 -0.000000 0.978148 0.207910 0.740500 -0.692100 1 0 1.000000 
borealis_deckdetail_system02
0 3.526399 32.155300 9.560100 1.000000 0.000000 0.000000 0.999500 -0.000500 1 0 1.000000 
0 3.526402 -32.155300 9.560100 1.000000 0.000000 0.000000 0.000500 -0.000500 1 0 1.000000 
0 3.526402 -32.140900 -0.078200 1.000000 0.000000 0.000000 0.000700 -0.326300 1 0 1.000000 
borealis_deckdetail_system02
0 3.526402 -32.140900 -0.078200 1.000000 0.000000 0.000000 0.000700 -0.326300 1 0 1.000000 
0 3.526400 -0.000100 -10.540600 1.000000 0.000000 0.000000 0.500000 -0.680000 1 0 1.000000 
0 3.526402 -32.155300 9.560100 1.000000 0.000000 0.000000 0.000500 -0.000500 1 0 1.000000 
borealis_deckdetail_system02
0 3.526400 -0.000100 -10.540600 1.000000 0.000000 0.000000 0.500000 -0.680000 1 0 1.000000 
0 3.526399 32.140900 -0.078200 1.000000 0.000000 0.000000 0.999300 -0.326300 1 0 1.000000 
0 3.526402 -32.155300 9.560100 1.000000 0.000000 0.000000 0.000500 -0.000500 1 0 1.000000 
borealis_deckdetail_system02
0 3.526402 -32.155300 9.560100 1.000000 0.000000 0.000000 0.000500 -0.000500 1 0 1.000000 
0 3.526399 32.140900 -0.078200 1.000000 0.000000 0.000000 0.999300 -0.326300 1 0 1.000000 
0 3.526399 32.155300 9.560100 1.000000 0.000000 0.000000 0.999500 -0.000500 1 0 1.000000 
end
