version 1
nodes
  0 "static_prop" -1
end
skeleton
time 0
  0 0.000000 0.000000 0.000000 0.000000 0.000000 0.000000
end
triangles
car001_hatchback.bmp
0 29.571913 24.292742 -16.353304 -0.026199 0.059698 0.997872 0.712300 -0.287100
0 -24.943228 25.407347 -17.855112 -0.017400 0.389897 0.920694 0.912300 -0.297900
0 -32.476608 2.835799 -8.437847 -0.448307 0.097801 0.888513 0.913600 -0.475200
car001_hatchback.bmp
0 29.571913 24.292742 -16.353304 -0.026199 0.059698 0.997872 0.712300 -0.287100
0 -32.476608 2.835799 -8.437847 -0.448307 0.097801 0.888513 0.911600 -0.287400
0 -26.168968 -34.925255 -15.604637 0.063901 -0.047601 0.996820 0.912300 -0.479400
car001_hatchback.bmp
0 29.697695 -34.631607 -12.751530 -0.026018 0.060936 0.997802 0.712937 -0.479258
0 29.571913 24.292742 -16.353304 -0.026199 0.059698 0.997872 0.712300 -0.287100
0 -26.168968 -34.925255 -15.604637 0.063901 -0.047601 0.996820 0.912300 -0.479400
car001_hatchback.bmp
0 14.998982 -30.559181 -14.707964 -0.174104 0.014400 0.984622 0.713200 -0.353000
0 31.879183 -30.496244 -14.267857 -0.025899 -0.028699 0.999252 0.713400 -0.477200
0 30.653437 23.945639 -12.737598 -0.177593 0.056798 0.982463 0.911300 -0.478800
car001_hatchback.bmp
0 14.883396 23.589222 -18.017803 -0.318109 0.057202 0.946327 0.911100 -0.354600
0 14.998982 -30.559181 -14.707964 -0.174104 0.014400 0.984622 0.713200 -0.353000
0 30.653437 23.945639 -12.737598 -0.177593 0.056798 0.982463 0.911300 -0.478800
car001_hatchback.bmp
0 -43.940895 18.006109 -8.864938 0.369494 0.193397 0.908885 0.451700 -0.563500
0 -29.812914 17.410025 -18.271147 0.776393 0.041300 0.628894 0.450400 -0.657200
0 -32.686165 26.993910 -15.353849 0.602914 0.198105 0.772819 0.487000 -0.664800
car001_hatchback.bmp
0 -53.189194 26.871180 -11.886060 -0.267496 0.108898 0.957385 0.486300 -0.491300
0 -43.940895 18.006109 -8.864938 0.369494 0.193397 0.908885 0.451700 -0.563500
0 -32.686165 26.993910 -15.353849 0.602914 0.198105 0.772819 0.487000 -0.664800
car001_hatchback.bmp
0 -66.350159 25.851772 -22.778641 -0.602207 -0.266603 0.752509 0.484700 -0.451700
0 -57.847412 17.305502 -19.002069 -0.602207 -0.266603 0.752509 0.448900 -0.454900
0 -53.189194 26.871180 -11.886060 -0.267496 0.108898 0.957385 0.486300 -0.491300
car001_hatchback.bmp
0 -24.469408 29.167273 2.847505 -0.208298 0.921890 0.326696 0.163900 -0.806000
0 -65.727669 23.743050 -19.255756 -0.759397 -0.475398 0.444198 0.267100 -0.896000
0 -69.813477 25.010487 -12.273260 -0.530396 0.836093 -0.140099 0.322300 -0.920200
car001_hatchback.bmp
0 -45.889824 28.496716 -9.384897 -0.601722 0.794729 -0.079603 0.243900 -0.894300
0 -65.727669 23.743050 -19.255756 -0.759397 -0.475398 0.444198 0.267100 -0.896000
0 -24.469408 29.167273 2.847505 -0.208298 0.921890 0.326696 0.163900 -0.806000
car001_hatchback.bmp
0 -24.469408 29.167273 2.847505 -0.208298 0.921890 0.326696 0.163900 -0.806000
0 -25.854910 27.085707 -18.341825 -0.249205 0.960021 0.127503 0.170100 -0.964200
0 -45.889824 28.496716 -9.384897 -0.601722 0.794729 -0.079603 0.243900 -0.894300
car001_hatchback.bmp
0 -24.469408 29.167273 2.847505 -0.208298 0.921890 0.326696 0.163900 -0.806000
0 -70.183746 23.170748 -2.312159 -0.410896 -0.808292 -0.421696 0.327600 -0.840900
0 -25.854910 27.085707 -18.341825 -0.249205 0.960021 0.127503 0.170100 -0.964200
car001_hatchback.bmp
0 -70.183746 23.170748 -2.312159 -0.410896 -0.808292 -0.421696 0.327600 -0.840900
0 -24.469408 29.167273 2.847505 -0.208298 0.921890 0.326696 0.163900 -0.806000
0 -69.813477 25.010487 -12.273260 -0.530396 0.836093 -0.140099 0.322300 -0.920200
car001_hatchback.bmp
0 -65.727669 23.743050 -19.255756 -0.759397 -0.475398 0.444198 0.318600 -0.965900
0 -70.183746 23.170748 -2.312159 -0.410896 -0.808292 -0.421696 0.327600 -0.840900
0 -69.813477 25.010487 -12.273260 -0.530396 0.836093 -0.140099 0.322300 -0.920200
car001_hatchback.bmp
0 -65.727669 23.743050 -19.255756 -0.759397 -0.475398 0.444198 0.318600 -0.965900
0 -45.889824 28.496716 -9.384897 -0.601722 0.794729 -0.079603 0.243900 -0.894300
0 -70.183746 23.170748 -2.312159 -0.410896 -0.808292 -0.421696 0.327600 -0.840900
car001_hatchback.bmp
0 -70.183746 23.170748 -2.312159 -0.410896 -0.808292 -0.421696 0.327600 -0.840900
0 -45.889824 28.496716 -9.384897 -0.601722 0.794729 -0.079603 0.243900 -0.894300
0 -25.854910 27.085707 -18.341825 -0.249205 0.960021 0.127503 0.170100 -0.964200
car001_hatchback.bmp
0 -25.854910 27.085707 -18.341825 -0.249205 0.960021 0.127503 0.170100 -0.964200
0 16.791040 28.660030 -17.225792 -0.039500 0.429097 0.902394 0.011300 -0.971400
0 29.925474 29.553568 -20.403406 -0.039698 0.992549 0.115194 0.002500 -0.997500
car001_hatchback.bmp
0 -50.503880 -24.442850 -7.386209 0.446590 0.366392 0.816281 0.445700 -0.530900
0 -42.204460 -33.599983 -5.235857 0.512494 -0.429095 0.743792 0.409900 -0.579500
0 -28.426777 -34.210609 -15.082256 0.459890 -0.158696 0.873680 0.408800 -0.652500
car001_hatchback.bmp
0 -29.722652 -24.873194 -15.686567 0.370608 0.111102 0.922120 0.445100 -0.645600
0 -50.503880 -24.442850 -7.386209 0.446590 0.366392 0.816281 0.445700 -0.530900
0 -28.426777 -34.210609 -15.082256 0.459890 -0.158696 0.873680 0.408800 -0.652500
car001_hatchback.bmp
0 16.573139 36.889912 -1.229910 -0.000000 1.000000 0.000000 0.001700 -0.792800
0 13.011697 36.663189 -21.285107 -0.000000 1.000000 0.000000 0.005300 -0.983700
0 -22.272875 28.375181 2.528430 -0.000000 1.000000 0.000000 0.166500 -0.792700
car001_hatchback.bmp
0 -24.440462 25.400763 -17.421034 -0.000000 1.000000 0.000000 0.167700 -0.983300
0 -22.272875 28.375181 2.528430 -0.000000 1.000000 0.000000 0.166500 -0.792700
0 13.011697 36.663189 -21.285107 -0.000000 1.000000 0.000000 0.005300 -0.983700
car001_hatchback.bmp
0 -22.272875 28.375181 2.528430 -0.000000 1.000000 0.000000 0.483800 -0.482900
0 -24.440462 25.400763 -17.421034 -0.000000 1.000000 0.000000 0.404300 -0.474400
0 13.011697 36.663189 -21.285107 -0.000000 1.000000 0.000000 0.407200 -0.768500
car001_hatchback.bmp
0 16.573139 36.889912 -1.229910 -0.000000 1.000000 0.000000 0.486500 -0.762200
0 -22.272875 28.375181 2.528430 -0.000000 1.000000 0.000000 0.483800 -0.482900
0 13.011697 36.663189 -21.285107 -0.000000 1.000000 0.000000 0.407200 -0.768500
car001_hatchback.bmp
0 -70.300034 -28.603703 1.509600 0.196796 -0.089198 -0.976379 0.301600 -0.402100
0 -70.750618 23.323685 -2.713711 0.165990 -0.122027 -0.978548 0.485515 -0.404067
0 -26.424953 27.146765 4.464486 0.168591 -0.117063 -0.978710 0.499550 -0.092262
car001_hatchback.bmp
0 -25.537588 -31.802893 16.152771 0.363281 -0.207578 -0.908261 0.290474 -0.085702
0 -70.300034 -28.603703 1.509600 0.196796 -0.089198 -0.976379 0.301600 -0.402100
0 -26.424953 27.146765 4.464486 0.168591 -0.117063 -0.978710 0.499550 -0.092262
car001_hatchback.bmp
0 73.558548 17.033466 0.161639 -0.764383 0.009900 -0.644686 0.455300 -0.195100
0 75.717087 -21.493252 2.789014 0.999157 -0.026899 0.030999 0.330700 -0.205300
0 71.366142 -23.211773 8.506158 -0.993915 -0.049901 -0.098201 0.325400 -0.243700
car001_hatchback.bmp
0 73.144928 19.379833 6.189719 0.810411 0.097401 0.577708 0.462900 -0.232400
0 73.558548 17.033466 0.161639 -0.764383 0.009900 -0.644686 0.455300 -0.195100
0 71.366142 -23.211773 8.506158 -0.993915 -0.049901 -0.098201 0.325400 -0.243700
car001_hatchback.bmp
0 75.717087 -21.493252 2.789014 0.999157 -0.026899 0.030999 0.469900 -0.755300
0 73.558548 17.033466 0.161639 -0.764383 0.009900 -0.644686 0.359000 -0.754100
0 73.144928 19.379833 6.189719 0.764772 0.062483 0.641264 0.349870 -0.711013
car001_hatchback.bmp
0 71.366142 -23.211773 8.506158 -0.993915 -0.049901 -0.098201 0.476400 -0.706700
0 75.717087 -21.493252 2.789014 0.999157 -0.026899 0.030999 0.469900 -0.755300
0 73.144928 19.379833 6.189719 0.764772 0.062483 0.641264 0.349870 -0.711013
car001_hatchback.bmp
0 72.298019 29.477837 -8.994673 0.054798 0.996634 -0.060969 0.226140 -0.301762
0 47.473663 29.648397 -4.127401 -0.000000 1.000000 0.000000 0.129500 -0.260400
0 70.268600 28.685768 2.782616 0.165398 -0.882088 0.441094 0.217600 -0.208600
car001_hatchback.bmp
0 47.473663 29.648397 -4.127401 -0.000000 1.000000 0.000000 0.129500 -0.260400
0 54.545151 28.065306 5.591706 0.165398 -0.882088 0.441094 0.157800 -0.185800
0 70.268600 28.685768 2.782616 0.165398 -0.882088 0.441094 0.217600 -0.208600
car001_hatchback.bmp
0 51.220284 22.442148 24.131361 0.165398 -0.882088 0.441094 0.135700 -0.009400
0 70.268600 28.685768 2.782616 0.165398 -0.882088 0.441094 0.217600 -0.208600
0 54.545151 28.065306 5.591706 0.165398 -0.882088 0.441094 0.157800 -0.185800
car001_hatchback.bmp
0 -32.476608 2.835799 -8.437847 0.993036 0.109004 0.044702 0.028000 -0.521600
0 -23.179516 3.641684 4.421589 0.810921 -0.036501 -0.584015 0.032100 -0.520800
0 -24.856197 -32.364265 4.345308 0.933672 0.074998 -0.350189 0.031200 -0.540700
car001_hatchback.bmp
0 -26.168968 -34.925255 -15.604637 0.979703 0.180301 -0.087600 0.026400 -0.559700
0 -32.476608 2.835799 -8.437847 0.993036 0.109004 0.044702 0.028000 -0.521600
0 -24.856197 -32.364265 4.345308 0.933672 0.074998 -0.350189 0.031200 -0.540700
car001_hatchback.bmp
0 -35.032936 -32.308380 3.869845 -0.044500 -0.000600 0.999009 0.968200 -0.593700
0 -24.856197 -32.364265 4.345308 -0.046700 0.000100 0.998909 0.933500 -0.593700
0 -23.179516 3.641684 4.421589 -0.044032 0.049715 0.997792 0.942290 -0.827770
car001_hatchback.bmp
0 -37.727074 3.572866 3.803706 -0.042400 -0.001300 0.999100 0.977000 -0.827800
0 -35.032936 -32.308380 3.869845 -0.044500 -0.000600 0.999009 0.968200 -0.593700
0 -23.179516 3.641684 4.421589 -0.044032 0.049715 0.997792 0.942290 -0.827770
car001_hatchback.bmp
0 -37.727074 3.572866 3.803706 -0.042400 -0.001300 0.999100 0.922800 -0.784100
0 -23.179516 3.641684 4.421589 -0.044032 0.049715 0.997792 0.942290 -0.827770
0 -23.625635 28.327673 -1.618724 -1.000000 -0.000000 0.000000 0.969800 -0.603300
car001_hatchback.bmp
0 -35.159424 26.948763 0.247731 -0.000000 1.000000 0.000000 0.935100 -0.602000
0 -37.727074 3.572866 3.803706 -0.042400 -0.001300 0.999100 0.922800 -0.784100
0 -23.625635 28.327673 -1.618724 -1.000000 -0.000000 0.000000 0.969800 -0.603300
car001_hatchback.bmp
0 -23.625635 28.327673 -1.618724 -1.000000 -0.000000 0.000000 0.034100 -0.459200
0 -23.179516 3.641684 4.421589 -0.044500 -0.000600 0.999009 0.032300 -0.500700
0 -37.727074 3.572866 3.803706 -0.042400 -0.001300 0.999100 0.020700 -0.498700
car001_hatchback.bmp
0 -35.159424 26.948763 0.247731 -0.026999 0.996349 0.080996 0.024400 -0.459800
0 -23.625635 28.327673 -1.618724 -1.000000 -0.000000 0.000000 0.034100 -0.459200
0 -37.727074 3.572866 3.803706 -0.042400 -0.001300 0.999100 0.020700 -0.498700
car001_hatchback.bmp
0 50.274750 -24.144146 27.017109 0.068399 -0.155397 0.985481 0.496200 -0.442700
0 51.220284 22.442148 24.131361 -0.051698 -0.980655 0.188791 0.347300 -0.450500
0 17.333271 23.143915 18.488396 0.005800 0.382513 0.923932 0.345600 -0.681600
car001_hatchback.bmp
0 0.218185 -24.853043 21.309557 -0.120703 0.101103 0.987527 0.494500 -0.803600
0 50.274750 -24.144146 27.017109 0.068399 -0.155397 0.985481 0.496200 -0.442700
0 17.333271 23.143915 18.488396 0.005800 0.382513 0.923932 0.345600 -0.681600
car001_hatchback.bmp
0 0.218185 -24.853043 21.309557 -0.120703 0.101103 0.987527 0.494500 -0.803600
0 17.333271 23.143915 18.488396 0.005800 0.382513 0.923932 0.345600 -0.681600
0 -4.510558 20.375038 15.959175 -0.134299 0.184599 0.973595 0.346900 -0.810600
car001_hatchback.bmp
0 -24.943228 25.407347 -17.855112 -0.632195 -0.151799 -0.759794 0.901400 -0.441100
0 -26.168968 -34.925255 -15.604637 -0.909999 0.003000 -0.414600 0.719800 -0.437900
0 -35.032936 -32.308380 3.869845 -0.759961 -0.136993 -0.635367 0.718800 -0.314400
car001_hatchback.bmp
0 -32.476608 2.835799 -8.437847 -0.448307 0.097801 0.888513 0.830400 -0.380700
0 -24.943228 25.407347 -17.855112 -0.632195 -0.151799 -0.759794 0.901400 -0.441100
0 -35.032936 -32.308380 3.869845 -0.759961 -0.136993 -0.635367 0.718800 -0.314400
car001_hatchback.bmp
0 -32.476608 2.835799 -8.437847 -0.448307 0.097801 0.888513 0.830400 -0.380700
0 -35.121185 25.877241 -9.907878 -0.614385 -0.120297 -0.779781 0.901600 -0.381900
0 -24.943228 25.407347 -17.855112 -0.632195 -0.151799 -0.759794 0.901400 -0.441100
car001_hatchback.bmp
0 -32.476608 2.835799 -8.437847 -0.448307 0.097801 0.888513 0.830400 -0.380700
0 -35.032936 -32.308380 3.869845 -0.759961 -0.136993 -0.635367 0.718800 -0.314400
0 -37.727074 3.572866 3.803706 -0.918300 -0.069700 -0.389700 0.830200 -0.303000
car001_hatchback.bmp
0 67.735329 24.447601 -5.820570 -0.105201 0.101001 0.989309 0.914000 -0.458200
0 30.653437 23.945639 -12.737598 -0.177593 0.056798 0.982463 0.913600 -0.239900
0 39.910492 -29.804968 -3.239199 -0.105201 0.101001 0.989309 0.709500 -0.240800
car001_hatchback.bmp
0 67.850914 -29.700802 -2.510729 -0.026200 0.060900 0.997800 0.709900 -0.459100
0 67.735329 24.447601 -5.820570 -0.105201 0.101001 0.989309 0.914000 -0.458200
0 39.910492 -29.804968 -3.239199 -0.105201 0.101001 0.989309 0.709500 -0.240800
car001_hatchback.bmp
0 72.435898 -35.121845 -5.045996 -0.617313 -0.348707 -0.705215 0.295700 -0.124500
0 46.482075 -36.447659 -2.118640 -0.000000 1.000000 0.000000 0.386700 -0.172600
0 54.678764 -32.681553 9.290101 -0.116599 -0.950990 0.286397 0.357500 -0.242700
car001_hatchback.bmp
0 50.274750 -24.144146 27.017109 0.068399 -0.155397 0.985481 0.368500 -0.373500
0 72.435898 -35.121845 -5.045996 -0.617313 -0.348707 -0.705215 0.295700 -0.124500
0 54.678764 -32.681553 9.290101 -0.116599 -0.950990 0.286397 0.357500 -0.242700
car001_hatchback.bmp
0 69.915916 -32.799610 7.422989 0.023901 -0.953132 0.301610 0.217700 -0.197500
0 50.274750 -24.144146 27.017109 0.068399 -0.155397 0.985481 0.133400 -0.013200
0 54.678764 -32.681553 9.290101 -0.116599 -0.950990 0.286397 0.158800 -0.195500
car001_hatchback.bmp
0 54.678764 -32.681553 9.290101 -0.116599 -0.950990 0.286397 0.158800 -0.195500
0 72.435898 -35.121845 -5.045996 -0.617313 -0.348707 -0.705215 0.227400 -0.304300
0 69.915916 -32.799610 7.422989 0.023901 -0.953132 0.301610 0.217700 -0.197500
car001_hatchback.bmp
0 54.678764 -32.681553 9.290101 -0.116599 -0.950990 0.286397 0.161700 -0.255600
0 46.482075 -36.447659 -2.118640 -0.000000 1.000000 0.000000 0.135500 -0.270200
0 72.435898 -35.121845 -5.045996 -0.617313 -0.348707 -0.705215 0.227400 -0.304300
car001_hatchback.bmp
0 -51.375084 -33.952328 -6.509906 -0.063101 -0.996220 0.059701 0.280600 -0.921900
0 -30.109888 -35.992981 -18.105051 -0.063101 -0.996220 0.059701 0.190800 -0.982000
0 -31.681776 -35.447823 -10.665092 -0.063101 -0.996220 0.059701 0.204600 -0.912200
car001_hatchback.bmp
0 -29.418274 26.469130 -23.487844 -0.007500 0.182303 -0.983214 0.584400 -0.302900
0 33.283401 27.285044 -21.888624 0.110599 -0.046200 -0.992791 0.585200 -0.744200
0 33.416023 -34.846825 -18.090788 0.050798 -0.060797 -0.996857 0.550500 -0.744300
car001_hatchback.bmp
0 -29.288126 -34.498451 -19.761175 -0.000400 -0.079701 -0.996819 0.549700 -0.303100
0 -29.418274 26.469130 -23.487844 -0.007500 0.182303 -0.983214 0.584400 -0.302900
0 33.416023 -34.846825 -18.090788 0.050798 -0.060797 -0.996857 0.550500 -0.744300
car001_hatchback.bmp
0 -66.350159 25.851772 -22.778641 -0.621577 0.046498 0.781971 0.720300 -0.025800
0 -57.173172 18.710669 -22.101187 -0.004996 -0.047628 -0.998853 0.674881 -0.090842
0 -66.222488 -33.956402 -19.122841 -0.707700 -0.676300 -0.204400 0.491700 -0.026600
car001_hatchback.bmp
0 -66.222488 -33.956402 -19.122841 -0.707700 -0.676300 -0.204400 0.491700 -0.026600
0 -57.173172 18.710669 -22.101187 -0.004996 -0.047628 -0.998853 0.674881 -0.090842
0 -57.052998 -34.212063 -18.866072 -0.035399 -0.212695 -0.976477 0.507400 -0.092200
car001_hatchback.bmp
0 -29.418274 26.469130 -23.487844 -0.007500 0.182303 -0.983214 0.676400 -0.287400
0 -57.052998 -34.212063 -18.866072 -0.035399 -0.212695 -0.976477 0.507400 -0.092200
0 -57.173172 18.710669 -22.101187 -0.004996 -0.047628 -0.998853 0.674881 -0.090842
car001_hatchback.bmp
0 -29.288126 -34.498451 -19.761175 -0.000400 -0.079701 -0.996819 0.549700 -0.303100
0 -57.052998 -34.212063 -18.866072 -0.035399 -0.212695 -0.976477 0.507400 -0.092200
0 -29.418274 26.469130 -23.487844 -0.007500 0.182303 -0.983214 0.676400 -0.287400
car001_hatchback.bmp
0 59.513634 -25.915594 -16.011290 0.157198 -0.207197 -0.965587 0.531500 -0.952400
0 60.483978 30.593019 -19.132977 0.422391 -0.054399 -0.904780 0.705500 -0.968700
0 60.629326 -37.499249 -14.970813 0.290993 -0.057799 -0.954978 0.510000 -0.969600
car001_hatchback.bmp
0 59.418228 18.784662 -18.743608 0.159694 0.221192 -0.962066 0.676300 -0.950600
0 60.483978 30.593019 -19.132977 0.422391 -0.054399 -0.904780 0.705500 -0.968700
0 59.513634 -25.915594 -16.011290 0.157198 -0.207197 -0.965587 0.531500 -0.952400
car001_hatchback.bmp
0 33.283401 27.285044 -21.888624 0.075400 -0.060700 -0.995304 0.677200 -0.757700
0 59.418228 18.784662 -18.743608 0.159694 0.221192 -0.962066 0.676300 -0.950600
0 59.513634 -25.915594 -16.011290 0.157198 -0.207197 -0.965587 0.531500 -0.952400
car001_hatchback.bmp
0 33.416023 -34.846825 -18.090788 0.050798 -0.060797 -0.996857 0.550500 -0.744300
0 33.283401 27.285044 -21.888624 0.075400 -0.060700 -0.995304 0.677200 -0.757700
0 59.513634 -25.915594 -16.011290 0.157198 -0.207197 -0.965587 0.531500 -0.952400
car001_hatchback.bmp
0 -37.564377 3.334204 -0.489180 -0.645085 0.025599 -0.763682 0.264500 -0.206000
0 -35.048264 26.499434 -1.837689 -0.645085 0.025599 -0.763682 0.355000 -0.225700
0 -28.134663 2.866454 -8.470770 -0.645085 0.025599 -0.763682 0.262700 -0.279700
car001_hatchback.bmp
0 17.194281 26.351177 4.035069 -0.000000 1.000000 0.000000 0.424100 -0.502300
0 15.741282 29.257565 -18.464169 -0.000000 1.000000 0.000000 0.344400 -0.498400
0 32.681404 29.995363 -10.804159 -0.000000 1.000000 0.000000 0.345800 -0.606900
car001_hatchback.bmp
0 40.909584 26.085279 -4.893125 -0.000000 1.000000 0.000000 0.389200 -0.687600
0 17.194281 26.351177 4.035069 -0.000000 1.000000 0.000000 0.424100 -0.502300
0 32.681404 29.995363 -10.804159 -0.000000 1.000000 0.000000 0.345800 -0.606900
car001_hatchback.bmp
0 54.176842 26.381384 6.223758 -0.000000 1.000000 0.000000 0.427900 -0.791500
0 17.194281 26.351177 4.035069 -0.000000 1.000000 0.000000 0.424100 -0.502300
0 40.909584 26.085279 -4.893125 -0.000000 1.000000 0.000000 0.389200 -0.687600
car001_hatchback.bmp
0 70.268600 28.685768 2.782616 0.165398 -0.882088 0.441094 0.291800 -0.200800
0 51.220284 22.442148 24.131361 0.165398 -0.882088 0.441094 0.345900 -0.377200
0 54.545151 28.065306 5.591706 0.165398 -0.882088 0.441094 0.345700 -0.236000
car001_hatchback.bmp
0 47.473663 29.648397 -4.127401 -0.000000 1.000000 0.000000 0.353900 -0.121300
0 70.268600 28.685768 2.782616 0.165398 -0.882088 0.441094 0.291800 -0.200800
0 54.545151 28.065306 5.591706 0.165398 -0.882088 0.441094 0.345700 -0.236000
car001_hatchback.bmp
0 72.298019 29.477837 -8.994673 -0.000000 1.000000 0.000000 0.293300 -0.100400
0 70.268600 28.685768 2.782616 0.165398 -0.882088 0.441094 0.291800 -0.200800
0 47.473663 29.648397 -4.127401 -0.000000 1.000000 0.000000 0.353900 -0.121300
car001_hatchback.bmp
0 14.079846 -35.561180 -13.375162 -0.992967 0.022699 0.116196 0.297300 -0.222900
0 16.531071 -31.609299 6.798288 -0.992967 0.022699 0.116196 0.308400 -0.221400
0 14.166275 -31.187347 -13.490385 -0.992967 0.022699 0.116196 0.302600 -0.380600
car001_hatchback.bmp
0 70.998405 -34.138882 -1.362700 0.018599 0.060998 0.997965 0.108300 -0.576800
0 70.864525 28.579296 -5.196372 0.018599 0.060998 0.997965 0.112700 -0.472500
0 45.098526 -30.732077 -2.251916 -0.261510 0.058302 0.963438 0.087000 -0.567400
car001_hatchback.bmp
0 70.864525 28.579296 -5.196372 0.018599 0.060998 0.997965 0.112700 -0.472500
0 44.979607 24.979429 -5.657303 -0.261510 0.058302 0.963438 0.090900 -0.474700
0 45.098526 -30.732077 -2.251916 -0.261510 0.058302 0.963438 0.087000 -0.567400
car001_hatchback.bmp
0 45.098526 -30.732077 -2.251916 -0.261510 0.058302 0.963438 0.087000 -0.567400
0 44.979607 24.979429 -5.657303 -0.261510 0.058302 0.963438 0.090900 -0.474700
0 29.571913 24.292742 -16.353304 -0.570996 0.048900 0.819495 0.078100 -0.473600
car001_hatchback.bmp
0 45.098526 -30.732077 -2.251916 -0.261510 0.058302 0.963438 0.087000 -0.567400
0 29.571913 24.292742 -16.353304 -0.570996 0.048900 0.819495 0.078100 -0.473600
0 29.697695 -34.631607 -12.751530 -0.570996 0.048900 0.819495 0.073900 -0.571600
car001_hatchback.bmp
0 -25.854910 27.085707 -18.341825 -0.034101 -0.061501 -0.997524 0.006500 -1.000700
0 29.925474 29.553568 -20.403406 0.026200 -0.060900 -0.997800 0.178300 -0.987900
0 29.977983 24.129679 -20.070791 0.026200 -0.060900 -0.997800 0.178600 -1.010600
car001_hatchback.bmp
0 -66.222488 -33.956402 -19.122841 -0.707700 -0.676300 -0.204400 0.713800 -0.216200
0 -57.052998 -34.212063 -18.866072 -0.035399 -0.212695 -0.976477 0.712600 -0.282600
0 -57.757153 -24.977701 -16.417490 -0.085403 -0.014601 0.996239 0.737100 -0.282500
car001_hatchback.bmp
0 -66.222488 -33.956402 -19.122841 -0.707700 -0.676300 -0.204400 0.713800 -0.216200
0 -57.757153 -24.977701 -16.417490 -0.085403 -0.014601 0.996239 0.737100 -0.282500
0 -66.350159 25.851772 -22.778641 -0.621577 0.046498 0.781971 0.911000 -0.281800
car001_hatchback.bmp
0 -57.757153 -24.977701 -16.417490 -0.085403 -0.014601 0.996239 0.737100 -0.282500
0 -57.847412 17.305502 -19.002069 -0.387308 -0.011540 0.921878 0.886529 -0.281887
0 -66.350159 25.851772 -22.778641 -0.621577 0.046498 0.781971 0.911000 -0.281800
car001_hatchback.bmp
0 -57.847412 17.305502 -19.002069 -0.387308 -0.011540 0.921878 0.886529 -0.281887
0 -57.757153 -24.977701 -16.417490 -0.085403 -0.014601 0.996239 0.737100 -0.282500
0 -29.812914 17.410025 -18.271147 -0.026242 0.060935 0.997797 0.886898 -0.482822
car001_hatchback.bmp
0 -29.722652 -24.873194 -15.686567 -0.026242 0.060935 0.997797 0.737449 -0.483469
0 -29.812914 17.410025 -18.271147 -0.026242 0.060935 0.997797 0.886898 -0.482822
0 -57.757153 -24.977701 -16.417490 -0.085403 -0.014601 0.996239 0.737100 -0.282500
car001_hatchback.bmp
0 -69.914169 -30.621029 0.529535 -0.044101 0.917530 -0.395213 0.337700 -0.843500
0 -24.157021 -31.132891 7.234309 -0.026100 -0.958795 0.282898 0.156200 -0.802200
0 -30.210432 -35.763123 -12.979591 -0.008800 0.891271 -0.453385 0.195800 -0.919300
car001_hatchback.bmp
0 -52.618607 -34.166447 -7.972667 -0.138688 -0.979944 0.143095 0.274669 -0.912471
0 -24.157021 -31.132891 7.234309 -0.026100 -0.958795 0.282898 0.156200 -0.802200
0 -69.914169 -30.621029 0.529535 -0.044101 0.917530 -0.395213 0.337700 -0.843500
car001_hatchback.bmp
0 -52.618607 -34.166447 -7.972667 -0.138688 -0.979944 0.143095 0.274669 -0.912471
0 -69.914169 -30.621029 0.529535 -0.044101 0.917530 -0.395213 0.337700 -0.843500
0 -30.210432 -35.763123 -12.979591 -0.008800 0.891271 -0.453385 0.195800 -0.919300
car001_hatchback.bmp
0 -30.210432 -35.763123 -12.979591 -0.008800 0.891271 -0.453385 0.195800 -0.919300
0 -24.157021 -31.132891 7.234309 -0.026100 -0.958795 0.282898 0.156200 -0.802200
0 -52.618607 -34.166447 -7.972667 -0.138688 -0.979944 0.143095 0.274669 -0.912471
car001_hatchback.bmp
0 -69.914169 -30.621029 0.529535 -0.044101 0.917530 -0.395213 0.337700 -0.843500
0 -52.618607 -34.166447 -7.972667 -0.138688 -0.979944 0.143095 0.274669 -0.912471
0 -65.610245 -31.266621 -15.893265 0.208402 0.977909 0.016200 0.319400 -0.968700
car001_hatchback.bmp
0 -30.210432 -35.763123 -12.979591 -0.008800 0.891271 -0.453385 0.195800 -0.919300
0 -25.725428 -35.659206 -14.950455 -0.000000 1.000000 0.000000 0.165900 -0.973500
0 -24.157021 -31.132891 7.234309 -0.026100 -0.958795 0.282898 0.156200 -0.802200
car001_hatchback.bmp
0 -52.618607 -34.166447 -7.972667 -0.138688 -0.979944 0.143095 0.274669 -0.912471
0 -69.914169 -30.621029 0.529535 -0.044101 0.917530 -0.395213 0.337700 -0.843500
0 -65.610245 -31.266621 -15.893265 -0.208402 -0.977909 -0.016200 0.330800 -0.917300
car001_hatchback.bmp
0 29.977983 24.129679 -20.070791 0.213502 0.008000 0.976910 0.345800 -0.733700
0 29.925474 29.553568 -20.403406 0.230691 0.061798 0.971063 0.363600 -0.730500
0 16.791040 28.660030 -17.225792 0.213502 0.008000 0.976910 0.363500 -0.630700
car001_hatchback.bmp
0 17.194281 26.351177 4.035069 -0.000000 1.000000 0.000000 0.007000 -0.189900
0 32.681404 29.995363 -10.804159 -0.011855 0.998728 -0.049016 0.067607 -0.327177
0 15.741282 29.257565 -18.464169 -0.010877 0.997345 -0.072009 0.001632 -0.388367
car001_hatchback.bmp
0 40.909584 26.085279 -4.893125 -0.000000 1.000000 0.000000 0.122800 -0.274000
0 32.681404 29.995363 -10.804159 -0.011855 0.998728 -0.049016 0.067607 -0.327177
0 17.194281 26.351177 4.035069 -0.000000 1.000000 0.000000 0.007000 -0.189900
car001_hatchback.bmp
0 54.176842 26.381384 6.223758 -0.000000 1.000000 0.000000 0.167200 -0.177300
0 40.909584 26.085279 -4.893125 -0.000000 1.000000 0.000000 0.122800 -0.274000
0 17.194281 26.351177 4.035069 -0.000000 1.000000 0.000000 0.007000 -0.189900
car001_hatchback.bmp
0 37.926773 28.020113 -10.480735 0.046700 0.724203 -0.688003 0.140900 -0.429100
0 53.979073 27.711222 -9.716128 0.046700 0.724203 -0.688003 0.098900 -0.431200
0 59.418228 18.784662 -18.743608 0.159694 0.221192 -0.962066 0.074300 -0.387200
car001_hatchback.bmp
0 50.274750 -24.144146 27.017109 0.130701 -0.084600 -0.987806 0.349500 -0.813600
0 -4.510558 20.375038 15.959175 0.091599 -0.110999 -0.989590 0.487300 -0.453600
0 51.220284 22.442148 24.131361 0.147106 -0.064103 -0.987041 0.489900 -0.813000
car001_hatchback.bmp
0 -4.510558 20.375038 15.959175 0.091599 -0.110999 -0.989590 0.487300 -0.453600
0 50.274750 -24.144146 27.017109 0.130701 -0.084600 -0.987806 0.349500 -0.813600
0 0.218185 -24.853043 21.309557 0.114102 -0.104902 -0.987915 0.352300 -0.478900
car001_hatchback.bmp
0 54.678764 -32.681553 9.290101 0.035801 0.903821 -0.426410 0.355000 -0.751700
0 0.218185 -24.853043 21.309557 0.035801 0.903821 -0.426410 0.356000 -0.447400
0 50.274750 -24.144146 27.017109 0.035801 0.903821 -0.426410 0.359200 -0.749400
car001_hatchback.bmp
0 -43.940895 18.006109 -8.864938 0.000956 -0.997709 0.067643 0.432859 -0.727839
0 -57.847412 17.305502 -19.002069 0.001856 -0.997671 0.068181 0.377494 -0.804164
0 -29.812914 17.410025 -18.271147 0.001781 -0.997236 0.074280 0.487089 -0.804189
car001_hatchback.bmp
0 50.274750 -24.144146 27.017109 0.068399 -0.155397 0.985481 0.463800 -0.810300
0 0.218185 -24.853043 21.309557 -0.041702 -0.932938 0.357614 0.456900 -0.622000
0 54.678764 -32.681553 9.290101 -0.116599 -0.950990 0.286397 0.457800 -0.810200
car001_hatchback.bmp
0 39.910492 -29.804968 -3.239199 -0.806850 -0.034702 0.589736 0.720200 -0.362900
0 30.653437 23.945639 -12.737598 -0.806850 -0.034702 0.589736 0.910200 -0.473800
0 31.879183 -30.496244 -14.267857 -0.806850 -0.034702 0.589736 0.712300 -0.474500
car001_hatchback.bmp
0 -42.204460 -33.599983 -5.235857 -0.008600 -0.998493 0.054200 0.220300 -0.919400
0 -57.052998 -34.212063 -18.866072 -0.008600 -0.998493 0.054200 0.194700 -0.996700
0 -29.288126 -34.498451 -19.761175 -0.007900 -0.998262 0.058398 0.290100 -0.995100
car001_hatchback.bmp
0 56.011017 29.464853 -9.424975 0.003418 0.993128 0.116986 0.162471 -0.302903
0 72.055672 29.345406 -8.879685 0.017843 0.994736 0.100901 0.225200 -0.300831
0 60.483978 30.593019 -19.132977 0.024222 0.995534 0.091247 0.172322 -0.348068
car001_hatchback.bmp
0 -70.300034 -28.603703 1.509600 -0.230802 0.130501 0.964209 0.298900 -0.400500
0 -26.424953 27.146765 4.464486 -0.210807 0.123204 0.969732 0.499000 -0.082700
0 -70.750618 23.323685 -2.713711 -0.171401 0.162501 0.971707 0.484100 -0.402500
car001_hatchback.bmp
0 -26.424953 27.146765 4.464486 -0.210807 0.123204 0.969732 0.499000 -0.082700
0 -70.300034 -28.603703 1.509600 -0.230802 0.130501 0.964209 0.298900 -0.400500
0 -25.537588 -31.802893 16.152771 -0.336679 0.172724 0.925642 0.287153 -0.076563
car001_hatchback.bmp
0 -25.854910 27.085707 -18.341825 -0.249205 0.960021 0.127503 0.344600 -0.276000
0 29.977983 24.129679 -20.070791 -0.002300 -0.536570 0.843853 0.345800 -0.733700
0 16.791040 28.660030 -17.225792 -0.039500 0.429097 0.902394 0.363500 -0.630700
car001_hatchback.bmp
0 -50.449162 30.886557 -14.683406 0.590005 -0.092301 -0.802106 0.299900 -0.234400
0 -50.436886 26.669947 -14.189011 0.590005 -0.092301 -0.802106 0.316400 -0.232900
0 -58.147423 28.644716 -20.088621 0.590005 -0.092301 -0.802106 0.310100 -0.293200
car001_hatchback.bmp
0 -57.173172 18.710669 -22.101187 0.132702 0.748511 -0.649709 0.195200 -0.998000
0 -53.189194 26.871180 -11.886060 0.132702 0.748511 -0.649709 0.238100 -0.913500
0 -29.418274 26.469130 -23.487844 -0.251197 0.801691 -0.542394 0.288900 -0.996400
car001_hatchback.bmp
0 -30.275517 31.770956 -25.350336 -0.461282 -0.104596 -0.881066 0.292800 -0.088100
0 -50.436886 26.669947 -14.189011 -0.461282 -0.104596 -0.881066 0.316400 -0.232900
0 -50.449162 30.886557 -14.683406 -0.461282 -0.104596 -0.881066 0.299900 -0.234400
car001_hatchback.bmp
0 -57.847412 17.305502 -19.002069 -0.387308 -0.011540 0.921878 0.448936 -0.454889
0 -43.940895 18.006109 -8.864938 -0.549921 -0.309312 0.775830 0.451700 -0.563500
0 -53.189194 26.871180 -11.886060 -0.499777 0.605272 0.619571 0.486300 -0.491300
car001_hatchback.bmp
0 60.629326 -37.499249 -14.970813 -0.908673 -0.123296 -0.398888 0.075600 -0.390100
0 56.149086 -35.216129 -5.471326 -0.882027 -0.176205 -0.437013 0.092000 -0.392300
0 59.513634 -25.915594 -16.011290 -0.882027 -0.176205 -0.437013 0.069700 -0.433600
car001_hatchback.bmp
0 37.029209 -34.103798 -5.605660 0.326298 -0.944495 -0.038200 0.089900 -0.316900
0 33.416023 -34.846825 -18.090788 0.162099 -0.986695 0.012500 0.072900 -0.383100
0 59.513634 -25.915594 -16.011290 0.326298 -0.944495 -0.038200 0.162700 -0.381200
car001_hatchback.bmp
0 -34.896362 25.989908 -10.059495 0.619506 -0.046600 -0.783607 0.837500 -0.473900
0 -24.090895 26.533098 -1.550328 0.619506 -0.046600 -0.783607 0.869700 -0.473900
0 -24.041466 3.377440 -0.134930 0.619506 -0.046600 -0.783607 0.869700 -0.292700
car001_hatchback.bmp
0 -50.503880 -24.442850 -7.386209 -0.687887 -0.309994 0.656288 0.445700 -0.530900
0 -57.052998 -34.212063 -18.866072 -0.687887 -0.309994 0.656288 0.409000 -0.466900
0 -42.204460 -33.599983 -5.235857 -0.612607 -0.394305 0.685008 0.409900 -0.579500
car001_hatchback.bmp
0 -50.503880 -24.442850 -7.386209 -0.687887 -0.309994 0.656288 0.445700 -0.530900
0 -57.757153 -24.977701 -16.417490 -0.753865 -0.221490 0.618571 0.443600 -0.458000
0 -57.052998 -34.212063 -18.866072 -0.687887 -0.309994 0.656288 0.409000 -0.466900
car001_hatchback.bmp
0 33.283401 27.285044 -21.888624 0.324397 0.926293 -0.191698 0.072800 -0.380900
0 37.926773 28.020113 -10.480735 0.324397 0.926293 -0.191698 0.090300 -0.314600
0 59.418228 18.784662 -18.743608 0.324397 0.926293 -0.191698 0.163300 -0.380300
car001_hatchback.bmp
0 14.283183 26.180641 3.992761 0.268590 0.952566 0.143095 0.300600 -0.229200
0 17.333271 23.143915 18.488396 0.005800 0.382513 0.923932 0.322600 -0.114300
0 16.791040 28.660030 -17.225792 0.268590 0.952566 0.143095 0.363500 -0.630700
car001_hatchback.bmp
0 50.274750 -24.144146 27.017109 0.068399 -0.155397 0.985481 0.331500 -0.583000
0 69.915916 -32.799610 7.422989 0.735788 0.326895 0.593090 0.332800 -0.649900
0 70.729492 -21.724842 0.308729 0.735788 0.326895 0.593090 0.337100 -0.491900
car001_hatchback.bmp
0 17.333271 23.143915 18.488396 -0.268590 -0.952566 -0.143095 0.311100 -0.123600
0 14.283183 26.180641 3.992761 -0.333092 -0.934478 -0.125697 0.301200 -0.235500
0 16.791040 28.660030 -17.225792 -0.268590 -0.952566 -0.143095 0.300900 -0.398600
car001_hatchback.bmp
0 70.729492 -21.724842 0.308729 0.969949 0.128693 0.206489 0.166600 -1.052100
0 72.298019 29.477837 -8.994673 -0.000000 1.000000 0.000000 0.366700 -1.064300
0 72.435898 -35.121845 -5.045996 0.980732 0.049402 0.189006 0.114200 -1.065400
car001_hatchback.bmp
0 70.729492 -21.724842 0.308729 0.969949 0.128693 0.206489 0.166600 -1.052100
0 72.068069 16.806793 -2.006379 -0.997270 -0.020999 -0.070798 0.317200 -1.051400
0 72.298019 29.477837 -8.994673 -0.000000 1.000000 0.000000 0.366700 -1.064300
car001_hatchback.bmp
0 72.068069 16.806793 -2.006379 -0.997270 -0.020999 -0.070798 0.317200 -1.051400
0 70.268600 28.685768 2.782616 -0.981547 -0.078404 -0.174408 0.345100 -1.037700
0 72.298019 29.477837 -8.994673 -0.000000 1.000000 0.000000 0.366700 -1.064300
car001_hatchback.bmp
0 72.435898 -35.121845 -5.045996 0.980732 0.049402 0.189006 0.347300 -0.765500
0 70.729492 -21.724842 0.308729 0.969949 0.128693 0.206489 0.401600 -0.730100
0 69.915916 -32.799610 7.422989 0.989410 -0.018200 0.144001 0.353100 -0.682400
car001_hatchback.bmp
0 72.298019 29.477837 -8.994673 -0.000000 1.000000 0.000000 0.473800 -0.767500
0 70.729492 -21.724842 0.308729 0.969949 0.128693 0.206489 0.401600 -0.730100
0 72.435898 -35.121845 -5.045996 0.980732 0.049402 0.189006 0.347300 -0.765500
car001_hatchback.bmp
0 50.274750 -24.144146 27.017109 -0.792394 0.136699 -0.594495 0.368500 -0.373500
0 70.729492 -21.724842 0.308729 -0.792394 0.136699 -0.594495 0.302000 -0.219000
0 72.435898 -35.121845 -5.045996 -0.792394 0.136699 -0.594495 0.295700 -0.124500
car001_hatchback.bmp
0 -35.032936 -32.308380 3.869845 -0.014800 -0.979275 0.201995 0.020200 -0.558400
0 -26.168968 -34.925255 -15.604637 0.072297 -0.989857 0.122295 0.026300 -0.562900
0 -24.856197 -32.364265 4.345308 0.030701 -0.986525 0.160704 0.027700 -0.559500
car001_hatchback.bmp
0 72.192940 -34.962910 -4.948818 0.659814 -0.044401 -0.750116 0.057000 -0.365000
0 60.629326 -37.499249 -14.970813 0.659814 -0.044401 -0.750116 0.058300 -0.393600
0 60.483978 30.593019 -19.132977 -0.128804 0.009200 -0.991627 0.001200 -0.394600
car001_hatchback.bmp
0 -29.288126 -34.498451 -19.761175 0.001700 -0.998179 0.060299 0.509700 -0.319600
0 33.416023 -34.846825 -18.090788 0.162099 -0.986695 0.012500 0.516100 -0.809400
0 -28.426777 -34.210609 -15.082256 -0.002129 -0.998208 0.059794 0.524543 -0.323522
car001_hatchback.bmp
0 56.149086 -35.216129 -5.471326 -0.038502 -0.743136 -0.668032 0.092000 -0.392300
0 37.029209 -34.103798 -5.605660 -0.038502 -0.743136 -0.668032 0.140600 -0.388600
0 59.513634 -25.915594 -16.011290 0.157198 -0.207197 -0.965587 0.069700 -0.433600
car001_hatchback.bmp
0 -28.426777 -34.210609 -15.082256 0.459890 -0.158696 0.873680 0.096800 -0.388100
0 -42.204460 -33.599983 -5.235857 0.512494 -0.429095 0.743792 0.118200 -0.389200
0 -29.288126 -34.498451 -19.761175 -0.000300 -0.998107 0.061500 0.082500 -0.385000
car001_hatchback.bmp
0 72.068069 16.806793 -2.006379 0.997270 0.020999 0.070798 0.399000 -0.729600
0 72.298019 29.477837 -8.994673 -0.000000 1.000000 0.000000 0.344700 -0.765000
0 70.268600 28.685768 2.782616 0.981547 0.078404 0.174408 0.350800 -0.680500
car001_hatchback.bmp
0 70.729492 -21.724842 0.308729 0.969949 0.128693 0.206489 0.471400 -0.730900
0 72.298019 29.477837 -8.994673 -0.000000 1.000000 0.000000 0.344700 -0.765000
0 72.068069 16.806793 -2.006379 0.997270 0.020999 0.070798 0.399000 -0.729600
car001_hatchback.bmp
0 -69.813477 25.010487 -12.273260 -0.000000 1.000000 0.000000 0.238400 0.068300
0 -65.727669 23.743050 -19.255756 -0.000000 1.000000 0.000000 0.236700 0.058400
0 -65.610245 -31.266621 -15.893265 -0.000000 1.000000 0.000000 0.129300 0.013100
car001_hatchback.bmp
0 -58.218300 -32.215450 -17.421049 -0.000000 1.000000 0.000000 0.400000 -0.048700
0 -68.038513 -34.039948 -10.713996 -0.000000 1.000000 0.000000 0.442200 -0.008400
0 -68.864914 -33.883869 -15.740445 -0.000000 1.000000 0.000000 0.493600 -0.054700
car001_hatchback.bmp
0 -68.038513 -34.039948 -10.713996 -0.000000 1.000000 0.000000 0.496100 -0.005000
0 -73.375214 26.570324 -14.085959 -0.000000 1.000000 0.000000 0.245100 -0.003000
0 -68.864914 -33.883869 -15.740445 -0.000000 1.000000 0.000000 0.493600 -0.054700
car001_hatchback.bmp
0 -68.038513 -34.039948 -10.713996 -0.000000 1.000000 0.000000 0.322300 -0.929100
0 -58.218300 -32.215450 -17.421049 -0.000000 1.000000 0.000000 0.276400 -0.944000
0 -68.864914 -33.883869 -15.740445 -0.000000 1.000000 0.000000 0.324500 -0.971100
car001_hatchback.bmp
0 -65.727669 23.743050 -19.255756 -0.000000 1.000000 0.000000 0.908900 -0.473300
0 -69.813477 25.010487 -12.273260 -0.000000 1.000000 0.000000 0.910800 -0.429000
0 -65.610245 -31.266621 -15.893265 -0.000000 1.000000 0.000000 0.712700 -0.448900
car001_hatchback.bmp
0 -68.038513 -34.039948 -10.713996 -0.000000 1.000000 0.000000 0.310100 -0.577600
0 -68.864914 -33.883869 -15.740445 -0.000000 1.000000 0.000000 0.289200 -0.572700
0 -73.375214 26.570324 -14.085959 -0.000000 1.000000 0.000000 0.310200 -0.795200
car001_hatchback.bmp
0 60.483978 30.593019 -19.132977 0.422391 -0.054399 -0.904780 0.473600 -0.811500
0 72.055672 29.345406 -8.879685 0.659814 -0.044401 -0.750116 0.473800 -0.766500
0 72.192940 -34.962910 -4.948818 0.659814 -0.044401 -0.750116 0.347900 -0.764700
car001_hatchback.bmp
0 -57.757153 -24.977701 -16.417490 -0.011301 0.998753 -0.048625 0.378111 -0.783997
0 -50.503880 -24.442850 -7.386209 -0.021033 0.998885 -0.042264 0.415511 -0.713561
0 -29.722652 -24.873194 -15.686567 -0.002370 0.998649 -0.051904 0.487705 -0.784022
car001_hatchback.bmp
0 51.220284 22.442148 24.131361 -0.051698 -0.980655 0.188791 0.489900 -0.813000
0 -4.510558 20.375038 15.959175 0.166206 -0.290810 -0.942234 0.487300 -0.453600
0 17.333271 23.143915 18.488396 0.005800 0.382513 0.923932 0.496500 -0.596000
car001_hatchback.bmp
0 -34.896362 25.989908 -10.059495 0.025401 -0.391510 -0.919823 0.353000 -0.226900
0 -24.041466 3.377440 -0.134930 0.025401 -0.391510 -0.919823 0.262700 -0.279200
0 -37.628716 3.326780 -0.489180 0.025401 -0.391510 -0.919823 0.262600 -0.226400
car001_hatchback.bmp
0 -35.121185 25.877241 -9.907878 0.134695 -0.985362 0.104496 0.024400 -0.461600
0 -23.625635 28.327673 -1.618724 0.134695 -0.985362 0.104496 0.034100 -0.459200
0 -35.159424 26.948763 0.247731 0.185505 -0.981224 0.052801 0.024200 -0.460700
car001_hatchback.bmp
0 -24.943228 25.407347 -17.855112 -0.000000 1.000000 0.000000 0.031800 -0.460600
0 -35.121185 25.877241 -9.907878 0.134695 -0.985362 0.104496 0.024400 -0.461600
0 -23.625635 28.327673 -1.618724 0.134695 -0.985362 0.104496 0.034100 -0.459200
car001_hatchback.bmp
0 -24.943228 25.407347 -17.855112 -0.000000 1.000000 0.000000 0.031800 -0.460600
0 -23.625635 28.327673 -1.618724 0.134695 -0.985362 0.104496 0.034100 -0.459200
0 -35.121185 25.877241 -9.907878 0.134695 -0.985362 0.104496 0.024400 -0.461600
car001_hatchback.bmp
0 16.531071 -31.609299 6.798288 0.872895 -0.436398 0.218199 0.461800 -0.231500
0 14.277622 -22.048981 20.715847 0.872895 -0.436398 0.218199 0.453200 -0.113700
0 14.079846 -35.561180 -13.375162 0.872895 -0.436398 0.218199 0.451000 -0.387300
car001_hatchback.bmp
0 -35.121185 25.877241 -9.907878 -0.134695 0.985362 -0.104496 0.024400 -0.461600
0 -35.159424 26.948763 0.247731 -0.134695 0.985362 -0.104496 0.024400 -0.459800
0 -23.625635 28.327673 -1.618724 -0.134695 0.985362 -0.104496 0.033500 -0.461200
car001_hatchback.bmp
0 14.079846 -35.561180 -13.375162 0.872895 -0.436398 0.218199 0.297300 -0.222900
0 14.277622 -22.048981 20.715847 0.872895 -0.436398 0.218199 0.297200 -0.113600
0 16.531071 -31.609299 6.798288 0.872895 -0.436398 0.218199 0.308400 -0.221400
car001_hatchback.bmp
0 -35.121185 25.877241 -9.907878 0.614385 0.120297 0.779781 0.865400 -0.455100
0 -32.476608 2.835799 -8.437847 0.993036 0.109004 0.044702 0.865000 -0.275000
0 -24.943228 25.407347 -17.855112 0.614385 0.120297 0.779781 0.907400 -0.454400
car001_hatchback.bmp
0 -32.686165 26.993910 -15.353849 0.602914 0.198105 0.772819 0.357300 -0.244100
0 -29.812914 17.410025 -18.271147 0.776393 0.041300 0.628894 0.319800 -0.266600
0 -29.418274 26.469130 -23.487844 0.918680 0.166296 0.358292 0.356300 -0.259900
car001_hatchback.bmp
0 -57.173172 18.710669 -22.101187 0.132702 0.748511 -0.649709 0.354100 -0.052800
0 -66.350159 25.851772 -22.778641 0.495092 0.574390 -0.651889 0.352800 0.018900
0 -53.189194 26.871180 -11.886060 0.132702 0.748511 -0.649709 0.356800 -0.084000
car001_hatchback.bmp
0 -53.189194 26.871180 -11.886060 -0.499777 0.605272 0.619571 0.143300 -0.430300
0 -32.686165 26.993910 -15.353849 -0.018099 0.997269 -0.071598 0.088400 -0.432300
0 -29.418274 26.469130 -23.487844 -0.007500 0.182303 -0.983214 0.072800 -0.430800
car001_hatchback.bmp
0 -25.725428 -35.659206 -14.950455 -0.000000 1.000000 0.000000 0.117400 -0.298500
0 -30.210432 -35.763123 -12.979591 -0.008800 0.891271 -0.453385 0.111700 -0.263500
0 -24.157021 -31.132891 7.234309 -0.026100 -0.958795 0.282898 0.122700 -0.304300
car001_hatchback.bmp
0 55.699741 -33.218952 -9.211454 0.023399 -0.922874 -0.384389 0.319000 -0.285000
0 52.044289 -36.236000 -2.191326 0.023399 -0.922874 -0.384389 0.299600 -0.259900
0 37.595287 -34.431782 -7.402002 0.023399 -0.922874 -0.384389 0.316800 -0.138700
car001_hatchback.bmp
0 53.979073 27.711222 -9.716128 -0.829473 0.056498 -0.555682 0.098900 -0.431200
0 60.483978 30.593019 -19.132977 -0.128804 0.009200 -0.991627 0.073700 -0.432800
0 59.418228 18.784662 -18.743608 -0.865535 0.061729 -0.497029 0.074339 -0.387234
car001_hatchback.bmp
0 -71.461655 16.404858 -2.883859 -0.998962 0.045498 0.002200 0.292700 -0.767300
0 -71.448372 -21.742460 -7.312959 -0.998500 -0.052100 0.016800 0.318300 -0.473600
0 -71.379585 -22.042585 -0.533745 -0.999948 -0.001500 0.010100 0.292700 -0.467500
car001_hatchback.bmp
0 -71.461655 16.404858 -2.883859 -0.998962 0.045498 0.002200 0.292700 -0.767300
0 -71.527412 15.281002 -9.576032 -0.998719 0.049501 0.010500 0.318300 -0.761200
0 -71.448372 -21.742460 -7.312959 -0.998500 -0.052100 0.016800 0.318300 -0.473600
car001_hatchback.bmp
0 -71.448372 -21.742460 -7.312959 0.999948 0.001500 -0.010100 0.358000 -0.481600
0 -71.461655 16.404858 -2.883859 0.999948 0.001500 -0.010100 0.399700 -0.623100
0 -71.379585 -22.042585 -0.533745 0.999948 0.001500 -0.010100 0.388600 -0.443300
car001_hatchback.bmp
0 -71.448372 -21.742460 -7.312959 0.999948 0.001500 -0.010100 0.358000 -0.481600
0 -71.527412 15.281002 -9.576032 0.999948 0.001500 -0.010100 0.366800 -0.812700
0 -71.461655 16.404858 -2.883859 0.999948 0.001500 -0.010100 0.399700 -0.623100
car001_hatchback.bmp
0 72.192940 -34.962910 -4.948818 0.022048 -0.974956 0.221300 0.226437 -0.303474
0 56.149086 -35.216129 -5.471326 0.007612 -0.971462 0.237072 0.163706 -0.304273
0 60.629326 -37.499249 -14.970813 0.028432 -0.976896 0.211813 0.173358 -0.349670
car001_hatchback.bmp
0 -32.476608 2.835799 -8.437847 -0.004149 0.999277 -0.037787 0.024893 -0.500285
0 -37.727074 3.572866 3.803706 -0.002100 0.998135 -0.061002 0.020700 -0.498700
0 -23.179516 3.641684 4.421589 -0.021399 0.998661 -0.047098 0.032300 -0.500700
end
