version 1
nodes
  0 "static_prop" -1
end
skeleton
time 0
0 0.000000 0.000000 0.000000 0.000000 0.000000 0.000000
end
triangles
lab_objects04
0 -1.908000 -1.101600 0.446500 -0.707107 -0.707107 0.000000 0.689200 -0.419800 1 0 1.000000 
0 -1.101600 -1.908000 2.252500 -0.707107 -0.707107 0.000000 0.677800 -0.387200 1 0 1.000000 
0 -1.908000 -1.101600 2.252500 -0.707107 -0.707107 0.000000 0.689200 -0.387200 1 0 1.000000 
lab_objects04
0 -1.908000 -1.101600 0.446500 -0.707107 -0.707107 0.000000 0.689200 -0.419800 1 0 1.000000 
0 -1.101600 -1.908000 0.446500 -0.707107 -0.707107 0.000000 0.677800 -0.419800 1 0 1.000000 
0 -1.101600 -1.908000 2.252500 -0.707107 -0.707107 0.000000 0.677800 -0.387200 1 0 1.000000 
lab_objects04
0 -0.000000 2.819500 2.252500 0.089003 0.996031 0.000000 0.930400 -0.693100 1 0 1.000000 
0 1.409700 2.441700 2.581900 0.258808 0.965929 0.000000 0.923000 -0.685800 1 0 1.000000 
0 1.409700 2.441700 2.252500 0.258808 0.965929 0.000000 0.923000 -0.693100 1 0 1.000000 
lab_objects04
0 -0.000000 2.819500 2.252500 0.089003 0.996031 0.000000 0.930400 -0.693100 1 0 1.000000 
0 -0.000000 2.819500 2.581900 -0.089003 0.996031 0.000000 0.930400 -0.685800 1 0 1.000000 
0 1.409700 2.441700 2.581900 0.258808 0.965929 0.000000 0.923000 -0.685800 1 0 1.000000 
lab_objects04
0 -1.409700 2.441700 2.252500 -0.258808 0.965929 0.000000 0.923000 -0.693100 1 0 1.000000 
0 -0.000000 2.819500 2.581900 -0.089003 0.996031 0.000000 0.930400 -0.685800 1 0 1.000000 
0 -0.000000 2.819500 2.252500 0.089003 0.996031 0.000000 0.930400 -0.693100 1 0 1.000000 
lab_objects04
0 -1.409700 2.441700 2.252500 -0.258808 0.965929 0.000000 0.923000 -0.693100 1 0 1.000000 
0 -1.409700 2.441700 2.581900 -0.258808 0.965929 0.000000 0.923000 -0.685800 1 0 1.000000 
0 -0.000000 2.819500 2.581900 -0.089003 0.996031 0.000000 0.930400 -0.685800 1 0 1.000000 
lab_objects04
0 2.819500 0.000000 2.252500 0.996031 -0.089003 0.000000 0.874800 -0.693100 1 0 1.000000 
0 2.441700 -1.409700 2.581900 0.965929 -0.258808 0.000000 0.847000 -0.685800 1 0 1.000000 
0 2.441700 -1.409700 2.252500 0.965929 -0.258808 0.000000 0.847000 -0.693100 1 0 1.000000 
lab_objects04
0 2.819500 0.000000 2.252500 0.996031 -0.089003 0.000000 0.874800 -0.693100 1 0 1.000000 
0 2.819500 0.000000 2.581900 0.996031 0.089003 0.000000 0.874800 -0.685800 1 0 1.000000 
0 2.441700 -1.409700 2.581900 0.965929 -0.258808 0.000000 0.847000 -0.685800 1 0 1.000000 
lab_objects04
0 2.441700 1.409700 2.252500 0.965929 0.258808 0.000000 0.902600 -0.693100 1 0 1.000000 
0 2.819500 0.000000 2.581900 0.996031 0.089003 0.000000 0.874800 -0.685800 1 0 1.000000 
0 2.819500 0.000000 2.252500 0.996031 -0.089003 0.000000 0.874800 -0.693100 1 0 1.000000 
lab_objects04
0 2.441700 1.409700 2.252500 0.965929 0.258808 0.000000 0.902600 -0.693100 1 0 1.000000 
0 2.441700 1.409700 2.581900 0.965929 0.258808 0.000000 0.902600 -0.685800 1 0 1.000000 
0 2.819500 0.000000 2.581900 0.996031 0.089003 0.000000 0.874800 -0.685800 1 0 1.000000 
lab_objects04
0 0.000000 -2.819500 2.252500 -0.089003 -0.996031 0.000000 0.819200 -0.693100 1 0 1.000000 
0 -1.409700 -2.441700 2.581900 -0.258808 -0.965929 0.000000 0.826700 -0.685800 1 0 1.000000 
0 -1.409700 -2.441700 2.252500 -0.258808 -0.965929 0.000000 0.826700 -0.693100 1 0 1.000000 
lab_objects04
0 0.000000 -2.819500 2.252500 -0.089003 -0.996031 0.000000 0.819200 -0.693100 1 0 1.000000 
0 0.000000 -2.819500 2.581900 0.089003 -0.996031 0.000000 0.819200 -0.685800 1 0 1.000000 
0 -1.409700 -2.441700 2.581900 -0.258808 -0.965929 0.000000 0.826700 -0.685800 1 0 1.000000 
lab_objects04
0 1.409700 -2.441700 2.252500 0.258808 -0.965929 0.000000 0.826700 -0.693100 1 0 1.000000 
0 0.000000 -2.819500 2.581900 0.089003 -0.996031 0.000000 0.819200 -0.685800 1 0 1.000000 
0 0.000000 -2.819500 2.252500 -0.089003 -0.996031 0.000000 0.819200 -0.693100 1 0 1.000000 
lab_objects04
0 1.409700 -2.441700 2.252500 0.258808 -0.965929 0.000000 0.826700 -0.693100 1 0 1.000000 
0 1.409700 -2.441700 2.581900 0.258808 -0.965929 0.000000 0.826700 -0.685800 1 0 1.000000 
0 0.000000 -2.819500 2.581900 0.089003 -0.996031 0.000000 0.819200 -0.685800 1 0 1.000000 
lab_objects04
0 -2.819500 -0.000000 0.446500 -0.996031 -0.089003 0.000000 0.874900 -0.693200 1 0 1.000000 
0 -2.441700 -1.409700 0.085700 -0.965929 -0.258808 0.000000 0.902700 -0.685900 1 0 1.000000 
0 -2.441700 -1.409700 0.446500 -0.965929 -0.258808 0.000000 0.902700 -0.693200 1 0 1.000000 
lab_objects04
0 -2.819500 -0.000000 0.446500 -0.996031 -0.089003 0.000000 0.874900 -0.693200 1 0 1.000000 
0 -2.819500 -0.000000 0.085700 -0.996031 0.089003 0.000000 0.874900 -0.685900 1 0 1.000000 
0 -2.441700 -1.409700 0.085700 -0.965929 -0.258808 0.000000 0.902700 -0.685900 1 0 1.000000 
lab_objects04
0 -2.441700 1.409700 0.446500 -0.965929 0.258808 0.000000 0.847000 -0.693200 1 0 1.000000 
0 -2.819500 -0.000000 0.085700 -0.996031 0.089003 0.000000 0.874900 -0.685900 1 0 1.000000 
0 -2.819500 -0.000000 0.446500 -0.996031 -0.089003 0.000000 0.874900 -0.693200 1 0 1.000000 
lab_objects04
0 -2.441700 1.409700 0.446500 -0.965929 0.258808 0.000000 0.847000 -0.693200 1 0 1.000000 
0 -2.441700 1.409700 0.085700 -0.965929 0.258808 0.000000 0.847000 -0.685900 1 0 1.000000 
0 -2.819500 -0.000000 0.085700 -0.996031 0.089003 0.000000 0.874900 -0.685900 1 0 1.000000 
lab_objects04
0 -1.409700 -2.441700 2.252500 -0.707107 -0.707107 0.000000 0.826700 -0.693100 1 0 1.000000 
0 -2.441700 -1.409700 2.581900 -0.707107 -0.707107 0.000000 0.847000 -0.685800 1 0 1.000000 
0 -2.441700 -1.409700 2.252500 -0.707107 -0.707107 0.000000 0.847000 -0.693100 1 0 1.000000 
lab_objects04
0 -1.409700 -2.441700 2.252500 -0.707107 -0.707107 0.000000 0.826700 -0.693100 1 0 1.000000 
0 -1.409700 -2.441700 2.581900 -0.707107 -0.707107 0.000000 0.826700 -0.685800 1 0 1.000000 
0 -2.441700 -1.409700 2.581900 -0.707107 -0.707107 0.000000 0.847000 -0.685800 1 0 1.000000 
lab_objects04
0 -2.819500 -0.000000 2.252500 -0.996031 0.089003 0.000000 0.901300 -0.636400 1 0 1.000000 
0 -2.441700 1.409700 2.581900 -0.965929 0.258808 0.000000 0.888600 -0.639700 1 0 1.000000 
0 -2.441700 1.409700 2.252500 -0.965929 0.258808 0.000000 0.888600 -0.639700 1 0 1.000000 
lab_objects04
0 -2.819500 -0.000000 2.252500 -0.996031 0.089003 0.000000 0.901300 -0.636400 1 0 1.000000 
0 -2.819500 -0.000000 2.581900 -0.996031 -0.089003 0.000000 0.901300 -0.636400 1 0 1.000000 
0 -2.441700 1.409700 2.581900 -0.965929 0.258808 0.000000 0.888600 -0.639700 1 0 1.000000 
lab_objects04
0 -2.441700 1.409700 2.252500 -0.707107 0.707107 0.000000 0.902600 -0.693100 1 0 1.000000 
0 -1.409700 2.441700 2.581900 -0.707107 0.707107 0.000000 0.923000 -0.685800 1 0 1.000000 
0 -1.409700 2.441700 2.252500 -0.707107 0.707107 0.000000 0.923000 -0.693100 1 0 1.000000 
lab_objects04
0 -2.441700 1.409700 2.252500 -0.707107 0.707107 0.000000 0.902600 -0.693100 1 0 1.000000 
0 -2.441700 1.409700 2.581900 -0.707107 0.707107 0.000000 0.902600 -0.685800 1 0 1.000000 
0 -1.409700 2.441700 2.581900 -0.707107 0.707107 0.000000 0.923000 -0.685800 1 0 1.000000 
lab_objects04
0 1.409700 2.441700 2.252500 0.707107 0.707107 0.000000 0.923000 -0.693100 1 0 1.000000 
0 2.441700 1.409700 2.581900 0.707107 0.707107 0.000000 0.902600 -0.685800 1 0 1.000000 
0 2.441700 1.409700 2.252500 0.707107 0.707107 0.000000 0.902600 -0.693100 1 0 1.000000 
lab_objects04
0 1.409700 2.441700 2.252500 0.707107 0.707107 0.000000 0.923000 -0.693100 1 0 1.000000 
0 1.409700 2.441700 2.581900 0.707107 0.707107 0.000000 0.923000 -0.685800 1 0 1.000000 
0 2.441700 1.409700 2.581900 0.707107 0.707107 0.000000 0.902600 -0.685800 1 0 1.000000 
lab_objects04
0 2.441700 -1.409700 2.252500 0.707107 -0.707107 0.000000 0.847000 -0.693100 1 0 1.000000 
0 1.409700 -2.441700 2.581900 0.707107 -0.707107 0.000000 0.826700 -0.685800 1 0 1.000000 
0 1.409700 -2.441700 2.252500 0.707107 -0.707107 0.000000 0.826700 -0.693100 1 0 1.000000 
lab_objects04
0 2.441700 -1.409700 2.252500 0.707107 -0.707107 0.000000 0.847000 -0.693100 1 0 1.000000 
0 2.441700 -1.409700 2.581900 0.707107 -0.707107 0.000000 0.847000 -0.685800 1 0 1.000000 
0 1.409700 -2.441700 2.581900 0.707107 -0.707107 0.000000 0.826700 -0.685800 1 0 1.000000 
lab_objects04
0 -2.441700 -1.409700 2.252500 -0.965929 -0.258808 0.000000 0.847000 -0.693100 1 0 1.000000 
0 -2.819500 -0.000000 2.581900 -0.996031 -0.089003 0.000000 0.874800 -0.685800 1 0 1.000000 
0 -2.819500 -0.000000 2.252500 -0.996031 0.089003 0.000000 0.874800 -0.693100 1 0 1.000000 
lab_objects04
0 -2.441700 -1.409700 2.252500 -0.965929 -0.258808 0.000000 0.847000 -0.693100 1 0 1.000000 
0 -2.441700 -1.409700 2.581900 -0.965929 -0.258808 0.000000 0.847000 -0.685800 1 0 1.000000 
0 -2.819500 -0.000000 2.581900 -0.996031 -0.089003 0.000000 0.874800 -0.685800 1 0 1.000000 
lab_objects04
0 -1.409700 2.441700 0.446500 -0.707107 0.707107 0.000000 0.826600 -0.693200 1 0 1.000000 
0 -2.441700 1.409700 0.085700 -0.707107 0.707107 0.000000 0.847000 -0.685900 1 0 1.000000 
0 -2.441700 1.409700 0.446500 -0.707107 0.707107 0.000000 0.847000 -0.693200 1 0 1.000000 
lab_objects04
0 -1.409700 2.441700 0.446500 -0.707107 0.707107 0.000000 0.826600 -0.693200 1 0 1.000000 
0 -1.409700 2.441700 0.085700 -0.707107 0.707107 0.000000 0.826600 -0.685900 1 0 1.000000 
0 -2.441700 1.409700 0.085700 -0.707107 0.707107 0.000000 0.847000 -0.685900 1 0 1.000000 
lab_objects04
0 2.441700 1.409700 0.446500 0.707107 0.707107 0.000000 0.847000 -0.693200 1 0 1.000000 
0 1.409700 2.441700 0.085700 0.707107 0.707107 0.000000 0.826600 -0.685900 1 0 1.000000 
0 1.409700 2.441700 0.446500 0.707107 0.707107 0.000000 0.826600 -0.693200 1 0 1.000000 
lab_objects04
0 2.441700 1.409700 0.446500 0.707107 0.707107 0.000000 0.847000 -0.693200 1 0 1.000000 
0 2.441700 1.409700 0.085700 0.707107 0.707107 0.000000 0.847000 -0.685900 1 0 1.000000 
0 1.409700 2.441700 0.085700 0.707107 0.707107 0.000000 0.826600 -0.685900 1 0 1.000000 
lab_objects04
0 1.409700 -2.441700 0.446500 0.707107 -0.707107 0.000000 0.923100 -0.693200 1 0 1.000000 
0 2.441700 -1.409700 0.085700 0.707107 -0.707107 0.000000 0.902700 -0.685900 1 0 1.000000 
0 2.441700 -1.409700 0.446500 0.707107 -0.707107 0.000000 0.902700 -0.693200 1 0 1.000000 
lab_objects04
0 1.409700 -2.441700 0.446500 0.707107 -0.707107 0.000000 0.923100 -0.693200 1 0 1.000000 
0 1.409700 -2.441700 0.085700 0.707107 -0.707107 0.000000 0.923100 -0.685900 1 0 1.000000 
0 2.441700 -1.409700 0.085700 0.707107 -0.707107 0.000000 0.902700 -0.685900 1 0 1.000000 
lab_objects04
0 -2.441700 -1.409700 0.446500 -0.707107 -0.707107 0.000000 0.902700 -0.693200 1 0 1.000000 
0 -1.409700 -2.441700 0.085700 -0.707107 -0.707107 0.000000 0.923100 -0.685900 1 0 1.000000 
0 -1.409700 -2.441700 0.446500 -0.707107 -0.707107 0.000000 0.923100 -0.693200 1 0 1.000000 
lab_objects04
0 -2.441700 -1.409700 0.446500 -0.707107 -0.707107 0.000000 0.902700 -0.693200 1 0 1.000000 
0 -2.441700 -1.409700 0.085700 -0.707107 -0.707107 0.000000 0.902700 -0.685900 1 0 1.000000 
0 -1.409700 -2.441700 0.085700 -0.707107 -0.707107 0.000000 0.923100 -0.685900 1 0 1.000000 
lab_objects04
0 1.101600 -1.908000 0.446500 0.707107 -0.707107 0.000000 0.677800 -0.419800 1 0 1.000000 
0 1.908000 -1.101600 2.252500 0.707107 -0.707107 0.000000 0.689200 -0.387200 1 0 1.000000 
0 1.101600 -1.908000 2.252500 0.707107 -0.707107 0.000000 0.677800 -0.387200 1 0 1.000000 
lab_objects04
0 1.101600 -1.908000 0.446500 0.707107 -0.707107 0.000000 0.677800 -0.419800 1 0 1.000000 
0 1.908000 -1.101600 0.446500 0.707107 -0.707107 0.000000 0.689200 -0.419800 1 0 1.000000 
0 1.908000 -1.101600 2.252500 0.707107 -0.707107 0.000000 0.689200 -0.387200 1 0 1.000000 
lab_objects04
0 1.908000 -1.101600 0.446500 0.965929 -0.258808 0.000000 0.689200 -0.419800 1 0 1.000000 
0 2.203200 0.000000 2.252500 0.996031 -0.089003 0.000000 0.704700 -0.387200 1 0 1.000000 
0 1.908000 -1.101600 2.252500 0.965929 -0.258808 0.000000 0.689200 -0.387200 1 0 1.000000 
lab_objects04
0 1.908000 -1.101600 0.446500 0.965929 -0.258808 0.000000 0.689200 -0.419800 1 0 1.000000 
0 2.203200 0.000000 0.446500 0.996031 0.089003 0.000000 0.704700 -0.419800 1 0 1.000000 
0 2.203200 0.000000 2.252500 0.996031 -0.089003 0.000000 0.704700 -0.387200 1 0 1.000000 
lab_objects04
0 2.203200 0.000000 0.446500 0.996031 0.089003 0.000000 0.704700 -0.419800 1 0 1.000000 
0 1.908000 1.101600 2.252500 0.965929 0.258808 0.000000 0.720200 -0.387200 1 0 1.000000 
0 2.203200 0.000000 2.252500 0.996031 -0.089003 0.000000 0.704700 -0.387200 1 0 1.000000 
lab_objects04
0 2.203200 0.000000 0.446500 0.996031 0.089003 0.000000 0.704700 -0.419800 1 0 1.000000 
0 1.908000 1.101600 0.446500 0.965929 0.258808 0.000000 0.720200 -0.419800 1 0 1.000000 
0 1.908000 1.101600 2.252500 0.965929 0.258808 0.000000 0.720200 -0.387200 1 0 1.000000 
lab_objects04
0 1.908000 1.101600 0.446500 0.707107 0.707107 0.000000 0.720200 -0.419800 1 0 1.000000 
0 1.101600 1.908000 2.252500 0.707107 0.707107 0.000000 0.731600 -0.387200 1 0 1.000000 
0 1.908000 1.101600 2.252500 0.707107 0.707107 0.000000 0.720200 -0.387200 1 0 1.000000 
lab_objects04
0 1.908000 1.101600 0.446500 0.707107 0.707107 0.000000 0.720200 -0.419800 1 0 1.000000 
0 1.101600 1.908000 0.446500 0.707107 0.707107 0.000000 0.731600 -0.419800 1 0 1.000000 
0 1.101600 1.908000 2.252500 0.707107 0.707107 0.000000 0.731600 -0.387200 1 0 1.000000 
lab_objects04
0 1.101600 1.908000 0.446500 0.258808 0.965929 0.000000 0.731600 -0.419800 1 0 1.000000 
0 -0.000000 2.203200 2.252500 0.089003 0.996031 0.000000 0.735700 -0.387200 1 0 1.000000 
0 1.101600 1.908000 2.252500 0.258808 0.965929 0.000000 0.731600 -0.387200 1 0 1.000000 
lab_objects04
0 1.101600 1.908000 0.446500 0.258808 0.965929 0.000000 0.731600 -0.419800 1 0 1.000000 
0 -0.000000 2.203200 0.446500 -0.089003 0.996031 0.000000 0.735700 -0.419800 1 0 1.000000 
0 -0.000000 2.203200 2.252500 0.089003 0.996031 0.000000 0.735700 -0.387200 1 0 1.000000 
lab_objects04
0 -0.000000 2.203200 0.446500 -0.089003 0.996031 0.000000 0.735700 -0.419800 1 0 1.000000 
0 -1.101600 1.908000 2.252500 -0.258808 0.965929 0.000000 0.731600 -0.387200 1 0 1.000000 
0 -0.000000 2.203200 2.252500 0.089003 0.996031 0.000000 0.735700 -0.387200 1 0 1.000000 
lab_objects04
0 -0.000000 2.203200 0.446500 -0.089003 0.996031 0.000000 0.735700 -0.419800 1 0 1.000000 
0 -1.101600 1.908000 0.446500 -0.258808 0.965929 0.000000 0.731600 -0.419800 1 0 1.000000 
0 -1.101600 1.908000 2.252500 -0.258808 0.965929 0.000000 0.731600 -0.387200 1 0 1.000000 
lab_objects04
0 -1.101600 1.908000 0.446500 -0.707107 0.707107 0.000000 0.731600 -0.419800 1 0 1.000000 
0 -1.908000 1.101600 2.252500 -0.707107 0.707107 0.000000 0.720200 -0.387200 1 0 1.000000 
0 -1.101600 1.908000 2.252500 -0.707107 0.707107 0.000000 0.731600 -0.387200 1 0 1.000000 
lab_objects04
0 -1.101600 1.908000 0.446500 -0.707107 0.707107 0.000000 0.731600 -0.419800 1 0 1.000000 
0 -1.908000 1.101600 0.446500 -0.707107 0.707107 0.000000 0.720200 -0.419800 1 0 1.000000 
0 -1.908000 1.101600 2.252500 -0.707107 0.707107 0.000000 0.720200 -0.387200 1 0 1.000000 
lab_objects04
0 -1.908000 1.101600 0.446500 -0.965929 0.258808 0.000000 0.720200 -0.419800 1 0 1.000000 
0 -2.203200 -0.000000 2.252500 -0.996031 0.089003 0.000000 0.704700 -0.387200 1 0 1.000000 
0 -1.908000 1.101600 2.252500 -0.965929 0.258808 0.000000 0.720200 -0.387200 1 0 1.000000 
lab_objects04
0 -1.908000 1.101600 0.446500 -0.965929 0.258808 0.000000 0.720200 -0.419800 1 0 1.000000 
0 -2.203200 -0.000000 0.446500 -0.996031 -0.089003 0.000000 0.704700 -0.419800 1 0 1.000000 
0 -2.203200 -0.000000 2.252500 -0.996031 0.089003 0.000000 0.704700 -0.387200 1 0 1.000000 
lab_objects04
0 -2.203200 -0.000000 0.446500 -0.996031 -0.089003 0.000000 0.704700 -0.419800 1 0 1.000000 
0 -1.908000 -1.101600 2.252500 -0.965929 -0.258808 0.000000 0.689200 -0.387200 1 0 1.000000 
0 -2.203200 -0.000000 2.252500 -0.996031 0.089003 0.000000 0.704700 -0.387200 1 0 1.000000 
lab_objects04
0 -2.203200 -0.000000 0.446500 -0.996031 -0.089003 0.000000 0.704700 -0.419800 1 0 1.000000 
0 -1.908000 -1.101600 0.446500 -0.965929 -0.258808 0.000000 0.689200 -0.419800 1 0 1.000000 
0 -1.908000 -1.101600 2.252500 -0.965929 -0.258808 0.000000 0.689200 -0.387200 1 0 1.000000 
lab_objects04
0 -1.101600 -1.908000 0.446500 -0.258808 -0.965929 0.000000 0.677800 -0.419800 1 0 1.000000 
0 0.000000 -2.203200 2.252500 -0.089003 -0.996031 0.000000 0.673700 -0.387200 1 0 1.000000 
0 -1.101600 -1.908000 2.252500 -0.258808 -0.965929 0.000000 0.677800 -0.387200 1 0 1.000000 
lab_objects04
0 -1.101600 -1.908000 0.446500 -0.258808 -0.965929 0.000000 0.677800 -0.419800 1 0 1.000000 
0 0.000000 -2.203200 0.446500 0.089003 -0.996031 0.000000 0.673700 -0.419800 1 0 1.000000 
0 0.000000 -2.203200 2.252500 -0.089003 -0.996031 0.000000 0.673700 -0.387200 1 0 1.000000 
lab_objects04
0 0.000000 -2.203200 0.446500 0.089003 -0.996031 0.000000 0.673700 -0.419800 1 0 1.000000 
0 1.101600 -1.908000 2.252500 0.258808 -0.965929 0.000000 0.677800 -0.387200 1 0 1.000000 
0 0.000000 -2.203200 2.252500 -0.089003 -0.996031 0.000000 0.673700 -0.387200 1 0 1.000000 
lab_objects04
0 0.000000 -2.203200 0.446500 0.089003 -0.996031 0.000000 0.673700 -0.419800 1 0 1.000000 
0 1.101600 -1.908000 0.446500 0.258808 -0.965929 0.000000 0.677800 -0.419800 1 0 1.000000 
0 1.101600 -1.908000 2.252500 0.258808 -0.965929 0.000000 0.677800 -0.387200 1 0 1.000000 
lab_objects04
0 -2.441700 -1.409700 0.446500 0.000000 0.000000 1.000000 0.914000 -0.639800 1 0 1.000000 
0 -1.908000 -1.101600 0.446500 0.000000 0.000000 1.000000 0.912300 -0.642600 1 0 1.000000 
0 -2.203200 -0.000000 0.446500 0.000000 0.000000 1.000000 0.901300 -0.639700 1 0 1.000000 
lab_objects04
0 -1.409700 -2.441700 0.446500 0.000000 0.000000 1.000000 0.923300 -0.648700 1 0 1.000000 
0 -1.908000 -1.101600 0.446500 0.000000 0.000000 1.000000 0.912300 -0.642600 1 0 1.000000 
0 -2.441700 -1.409700 0.446500 0.000000 0.000000 1.000000 0.914000 -0.639800 1 0 1.000000 
lab_objects04
0 -1.409700 -2.441700 0.446500 0.000000 0.000000 1.000000 0.923300 -0.648700 1 0 1.000000 
0 -1.101600 -1.908000 0.446500 0.000000 0.000000 1.000000 0.920400 -0.650300 1 0 1.000000 
0 -1.908000 -1.101600 0.446500 0.000000 0.000000 1.000000 0.912300 -0.642600 1 0 1.000000 
lab_objects04
0 0.000000 -2.819500 0.446500 0.000000 0.000000 1.000000 0.926700 -0.660800 1 0 1.000000 
0 -1.101600 -1.908000 0.446500 0.000000 0.000000 1.000000 0.920400 -0.650300 1 0 1.000000 
0 -1.409700 -2.441700 0.446500 0.000000 0.000000 1.000000 0.923300 -0.648700 1 0 1.000000 
lab_objects04
0 0.000000 -2.819500 0.446500 0.000000 0.000000 1.000000 0.926700 -0.660800 1 0 1.000000 
0 0.000000 -2.203200 0.446500 0.000000 0.000000 1.000000 0.923400 -0.660800 1 0 1.000000 
0 -1.101600 -1.908000 0.446500 0.000000 0.000000 1.000000 0.920400 -0.650300 1 0 1.000000 
lab_objects04
0 1.409700 -2.441700 0.446500 0.000000 0.000000 1.000000 0.923300 -0.672900 1 0 1.000000 
0 0.000000 -2.203200 0.446500 0.000000 0.000000 1.000000 0.923400 -0.660800 1 0 1.000000 
0 0.000000 -2.819500 0.446500 0.000000 0.000000 1.000000 0.926700 -0.660800 1 0 1.000000 
lab_objects04
0 1.409700 -2.441700 0.446500 0.000000 0.000000 1.000000 0.923300 -0.672900 1 0 1.000000 
0 1.101600 -1.908000 0.446500 0.000000 0.000000 1.000000 0.920400 -0.671300 1 0 1.000000 
0 0.000000 -2.203200 0.446500 0.000000 0.000000 1.000000 0.923400 -0.660800 1 0 1.000000 
lab_objects04
0 2.441700 -1.409700 0.446500 0.000000 0.000000 1.000000 0.914000 -0.681800 1 0 1.000000 
0 1.101600 -1.908000 0.446500 0.000000 0.000000 1.000000 0.920400 -0.671300 1 0 1.000000 
0 1.409700 -2.441700 0.446500 0.000000 0.000000 1.000000 0.923300 -0.672900 1 0 1.000000 
lab_objects04
0 2.441700 -1.409700 0.446500 0.000000 0.000000 1.000000 0.914000 -0.681800 1 0 1.000000 
0 1.908000 -1.101600 0.446500 0.000000 0.000000 1.000000 0.912300 -0.679000 1 0 1.000000 
0 1.101600 -1.908000 0.446500 0.000000 0.000000 1.000000 0.920400 -0.671300 1 0 1.000000 
lab_objects04
0 2.819500 0.000000 0.446500 0.000000 0.000000 1.000000 0.901300 -0.685000 1 0 1.000000 
0 1.908000 -1.101600 0.446500 0.000000 0.000000 1.000000 0.912300 -0.679000 1 0 1.000000 
0 2.441700 -1.409700 0.446500 0.000000 0.000000 1.000000 0.914000 -0.681800 1 0 1.000000 
lab_objects04
0 2.819500 0.000000 0.446500 0.000000 0.000000 1.000000 0.901300 -0.685000 1 0 1.000000 
0 2.203200 0.000000 0.446500 0.000000 0.000000 1.000000 0.901300 -0.681800 1 0 1.000000 
0 1.908000 -1.101600 0.446500 0.000000 0.000000 1.000000 0.912300 -0.679000 1 0 1.000000 
lab_objects04
0 2.441700 1.409700 0.446500 0.000000 0.000000 1.000000 0.888600 -0.681800 1 0 1.000000 
0 2.203200 0.000000 0.446500 0.000000 0.000000 1.000000 0.901300 -0.681800 1 0 1.000000 
0 2.819500 0.000000 0.446500 0.000000 0.000000 1.000000 0.901300 -0.685000 1 0 1.000000 
lab_objects04
0 2.441700 1.409700 0.446500 0.000000 0.000000 1.000000 0.888600 -0.681800 1 0 1.000000 
0 1.908000 1.101600 0.446500 0.000000 0.000000 1.000000 0.890200 -0.679000 1 0 1.000000 
0 2.203200 0.000000 0.446500 0.000000 0.000000 1.000000 0.901300 -0.681800 1 0 1.000000 
lab_objects04
0 1.409700 2.441700 0.446500 0.000000 0.000000 1.000000 0.879300 -0.672900 1 0 1.000000 
0 1.908000 1.101600 0.446500 0.000000 0.000000 1.000000 0.890200 -0.679000 1 0 1.000000 
0 2.441700 1.409700 0.446500 0.000000 0.000000 1.000000 0.888600 -0.681800 1 0 1.000000 
lab_objects04
0 1.409700 2.441700 0.446500 0.000000 0.000000 1.000000 0.879300 -0.672900 1 0 1.000000 
0 1.101600 1.908000 0.446500 0.000000 0.000000 1.000000 0.882100 -0.671300 1 0 1.000000 
0 1.908000 1.101600 0.446500 0.000000 0.000000 1.000000 0.890200 -0.679000 1 0 1.000000 
lab_objects04
0 -0.000000 2.819500 0.446500 0.000000 0.000000 1.000000 0.875900 -0.660800 1 0 1.000000 
0 1.101600 1.908000 0.446500 0.000000 0.000000 1.000000 0.882100 -0.671300 1 0 1.000000 
0 1.409700 2.441700 0.446500 0.000000 0.000000 1.000000 0.879300 -0.672900 1 0 1.000000 
lab_objects04
0 -0.000000 2.819500 0.446500 0.000000 0.000000 1.000000 0.875900 -0.660800 1 0 1.000000 
0 -0.000000 2.203200 0.446500 0.000000 0.000000 1.000000 0.879200 -0.660800 1 0 1.000000 
0 1.101600 1.908000 0.446500 0.000000 0.000000 1.000000 0.882100 -0.671300 1 0 1.000000 
lab_objects04
0 -1.409700 2.441700 0.446500 0.000000 0.000000 1.000000 0.879300 -0.648700 1 0 1.000000 
0 -0.000000 2.203200 0.446500 0.000000 0.000000 1.000000 0.879200 -0.660800 1 0 1.000000 
0 -0.000000 2.819500 0.446500 0.000000 0.000000 1.000000 0.875900 -0.660800 1 0 1.000000 
lab_objects04
0 -1.409700 2.441700 0.446500 0.000000 0.000000 1.000000 0.879300 -0.648700 1 0 1.000000 
0 -1.101600 1.908000 0.446500 0.000000 0.000000 1.000000 0.882100 -0.650300 1 0 1.000000 
0 -0.000000 2.203200 0.446500 0.000000 0.000000 1.000000 0.879200 -0.660800 1 0 1.000000 
lab_objects04
0 -2.441700 1.409700 0.446500 0.000000 0.000000 1.000000 0.888600 -0.639800 1 0 1.000000 
0 -1.101600 1.908000 0.446500 0.000000 0.000000 1.000000 0.882100 -0.650300 1 0 1.000000 
0 -1.409700 2.441700 0.446500 0.000000 0.000000 1.000000 0.879300 -0.648700 1 0 1.000000 
lab_objects04
0 -2.441700 1.409700 0.446500 0.000000 0.000000 1.000000 0.888600 -0.639800 1 0 1.000000 
0 -1.908000 1.101600 0.446500 0.000000 0.000000 1.000000 0.890200 -0.642600 1 0 1.000000 
0 -1.101600 1.908000 0.446500 0.000000 0.000000 1.000000 0.882100 -0.650300 1 0 1.000000 
lab_objects04
0 -2.819500 -0.000000 0.446500 0.000000 0.000000 1.000000 0.901300 -0.636600 1 0 1.000000 
0 -1.908000 1.101600 0.446500 0.000000 0.000000 1.000000 0.890200 -0.642600 1 0 1.000000 
0 -2.441700 1.409700 0.446500 0.000000 0.000000 1.000000 0.888600 -0.639800 1 0 1.000000 
lab_objects04
0 -2.819500 -0.000000 0.446500 0.000000 0.000000 1.000000 0.901300 -0.636600 1 0 1.000000 
0 -2.203200 -0.000000 0.446500 0.000000 0.000000 1.000000 0.901300 -0.639700 1 0 1.000000 
0 -1.908000 1.101600 0.446500 0.000000 0.000000 1.000000 0.890200 -0.642600 1 0 1.000000 
lab_objects04
0 -2.441700 -1.409700 0.446500 0.000000 0.000000 1.000000 0.914000 -0.639800 1 0 1.000000 
0 -2.203200 -0.000000 0.446500 0.000000 0.000000 1.000000 0.901300 -0.639700 1 0 1.000000 
0 -2.819500 -0.000000 0.446500 0.000000 0.000000 1.000000 0.901300 -0.636600 1 0 1.000000 
lab_objects04
0 -0.000000 2.819500 2.252500 0.000000 0.000000 -1.000000 0.875900 -0.660600 1 0 1.000000 
0 -0.000000 2.203200 2.252500 0.000000 0.000000 -1.000000 0.879200 -0.660600 1 0 1.000000 
0 -1.101600 1.908000 2.252500 0.000000 0.000000 -1.000000 0.882100 -0.650100 1 0 1.000000 
lab_objects04
0 1.409700 2.441700 2.252500 0.000000 0.000000 -1.000000 0.879300 -0.672700 1 0 1.000000 
0 -0.000000 2.203200 2.252500 0.000000 0.000000 -1.000000 0.879200 -0.660600 1 0 1.000000 
0 -0.000000 2.819500 2.252500 0.000000 0.000000 -1.000000 0.875900 -0.660600 1 0 1.000000 
lab_objects04
0 1.409700 2.441700 2.252500 0.000000 0.000000 -1.000000 0.879300 -0.672700 1 0 1.000000 
0 1.101600 1.908000 2.252500 0.000000 0.000000 -1.000000 0.882100 -0.671200 1 0 1.000000 
0 -0.000000 2.203200 2.252500 0.000000 0.000000 -1.000000 0.879200 -0.660600 1 0 1.000000 
lab_objects04
0 2.441700 1.409700 2.252500 0.000000 0.000000 -1.000000 0.888600 -0.681600 1 0 1.000000 
0 1.101600 1.908000 2.252500 0.000000 0.000000 -1.000000 0.882100 -0.671200 1 0 1.000000 
0 1.409700 2.441700 2.252500 0.000000 0.000000 -1.000000 0.879300 -0.672700 1 0 1.000000 
lab_objects04
0 2.441700 1.409700 2.252500 0.000000 0.000000 -1.000000 0.888600 -0.681600 1 0 1.000000 
0 1.908000 1.101600 2.252500 0.000000 0.000000 -1.000000 0.890200 -0.678900 1 0 1.000000 
0 1.101600 1.908000 2.252500 0.000000 0.000000 -1.000000 0.882100 -0.671200 1 0 1.000000 
lab_objects04
0 2.819500 0.000000 2.252500 0.000000 0.000000 -1.000000 0.901300 -0.684800 1 0 1.000000 
0 1.908000 1.101600 2.252500 0.000000 0.000000 -1.000000 0.890200 -0.678900 1 0 1.000000 
0 2.441700 1.409700 2.252500 0.000000 0.000000 -1.000000 0.888600 -0.681600 1 0 1.000000 
lab_objects04
0 2.819500 0.000000 2.252500 0.000000 0.000000 -1.000000 0.901300 -0.684800 1 0 1.000000 
0 2.203200 0.000000 2.252500 0.000000 0.000000 -1.000000 0.901300 -0.681700 1 0 1.000000 
0 1.908000 1.101600 2.252500 0.000000 0.000000 -1.000000 0.890200 -0.678900 1 0 1.000000 
lab_objects04
0 2.441700 -1.409700 2.252500 0.000000 0.000000 -1.000000 0.914000 -0.681600 1 0 1.000000 
0 2.203200 0.000000 2.252500 0.000000 0.000000 -1.000000 0.901300 -0.681700 1 0 1.000000 
0 2.819500 0.000000 2.252500 0.000000 0.000000 -1.000000 0.901300 -0.684800 1 0 1.000000 
lab_objects04
0 2.441700 -1.409700 2.252500 0.000000 0.000000 -1.000000 0.914000 -0.681600 1 0 1.000000 
0 1.908000 -1.101600 2.252500 0.000000 0.000000 -1.000000 0.912300 -0.678900 1 0 1.000000 
0 2.203200 0.000000 2.252500 0.000000 0.000000 -1.000000 0.901300 -0.681700 1 0 1.000000 
lab_objects04
0 1.409700 -2.441700 2.252500 0.000000 0.000000 -1.000000 0.923300 -0.672700 1 0 1.000000 
0 1.908000 -1.101600 2.252500 0.000000 0.000000 -1.000000 0.912300 -0.678900 1 0 1.000000 
0 2.441700 -1.409700 2.252500 0.000000 0.000000 -1.000000 0.914000 -0.681600 1 0 1.000000 
lab_objects04
0 1.409700 -2.441700 2.252500 0.000000 0.000000 -1.000000 0.923300 -0.672700 1 0 1.000000 
0 1.101600 -1.908000 2.252500 0.000000 0.000000 -1.000000 0.920400 -0.671200 1 0 1.000000 
0 1.908000 -1.101600 2.252500 0.000000 0.000000 -1.000000 0.912300 -0.678900 1 0 1.000000 
lab_objects04
0 0.000000 -2.819500 2.252500 0.000000 0.000000 -1.000000 0.926700 -0.660600 1 0 1.000000 
0 1.101600 -1.908000 2.252500 0.000000 0.000000 -1.000000 0.920400 -0.671200 1 0 1.000000 
0 1.409700 -2.441700 2.252500 0.000000 0.000000 -1.000000 0.923300 -0.672700 1 0 1.000000 
lab_objects04
0 0.000000 -2.819500 2.252500 0.000000 0.000000 -1.000000 0.926700 -0.660600 1 0 1.000000 
0 0.000000 -2.203200 2.252500 0.000000 0.000000 -1.000000 0.923400 -0.660600 1 0 1.000000 
0 1.101600 -1.908000 2.252500 0.000000 0.000000 -1.000000 0.920400 -0.671200 1 0 1.000000 
lab_objects04
0 -1.409700 -2.441700 2.252500 0.000000 0.000000 -1.000000 0.923300 -0.648500 1 0 1.000000 
0 0.000000 -2.203200 2.252500 0.000000 0.000000 -1.000000 0.923400 -0.660600 1 0 1.000000 
0 0.000000 -2.819500 2.252500 0.000000 0.000000 -1.000000 0.926700 -0.660600 1 0 1.000000 
lab_objects04
0 -1.409700 -2.441700 2.252500 0.000000 0.000000 -1.000000 0.923300 -0.648500 1 0 1.000000 
0 -1.101600 -1.908000 2.252500 0.000000 0.000000 -1.000000 0.920400 -0.650100 1 0 1.000000 
0 0.000000 -2.203200 2.252500 0.000000 0.000000 -1.000000 0.923400 -0.660600 1 0 1.000000 
lab_objects04
0 -2.441700 -1.409700 2.252500 0.000000 0.000000 -1.000000 0.914000 -0.639700 1 0 1.000000 
0 -1.101600 -1.908000 2.252500 0.000000 0.000000 -1.000000 0.920400 -0.650100 1 0 1.000000 
0 -1.409700 -2.441700 2.252500 0.000000 0.000000 -1.000000 0.923300 -0.648500 1 0 1.000000 
lab_objects04
0 -2.441700 -1.409700 2.252500 0.000000 0.000000 -1.000000 0.914000 -0.639700 1 0 1.000000 
0 -1.908000 -1.101600 2.252500 0.000000 0.000000 -1.000000 0.912300 -0.642400 1 0 1.000000 
0 -1.101600 -1.908000 2.252500 0.000000 0.000000 -1.000000 0.920400 -0.650100 1 0 1.000000 
lab_objects04
0 -2.819500 -0.000000 2.252500 0.000000 0.000000 -1.000000 0.901300 -0.636400 1 0 1.000000 
0 -1.908000 -1.101600 2.252500 0.000000 0.000000 -1.000000 0.912300 -0.642400 1 0 1.000000 
0 -2.441700 -1.409700 2.252500 0.000000 0.000000 -1.000000 0.914000 -0.639700 1 0 1.000000 
lab_objects04
0 -2.819500 -0.000000 2.252500 0.000000 0.000000 -1.000000 0.901300 -0.636400 1 0 1.000000 
0 -2.203200 -0.000000 2.252500 0.000000 0.000000 -1.000000 0.901300 -0.639600 1 0 1.000000 
0 -1.908000 -1.101600 2.252500 0.000000 0.000000 -1.000000 0.912300 -0.642400 1 0 1.000000 
lab_objects04
0 -2.441700 1.409700 2.252500 0.000000 0.000000 -1.000000 0.888600 -0.639700 1 0 1.000000 
0 -2.203200 -0.000000 2.252500 0.000000 0.000000 -1.000000 0.901300 -0.639600 1 0 1.000000 
0 -2.819500 -0.000000 2.252500 0.000000 0.000000 -1.000000 0.901300 -0.636400 1 0 1.000000 
lab_objects04
0 -2.441700 1.409700 2.252500 0.000000 0.000000 -1.000000 0.888600 -0.639700 1 0 1.000000 
0 -1.908000 1.101600 2.252500 0.000000 0.000000 -1.000000 0.890200 -0.642400 1 0 1.000000 
0 -2.203200 -0.000000 2.252500 0.000000 0.000000 -1.000000 0.901300 -0.639600 1 0 1.000000 
lab_objects04
0 -1.409700 2.441700 2.252500 0.000000 0.000000 -1.000000 0.879300 -0.648500 1 0 1.000000 
0 -1.908000 1.101600 2.252500 0.000000 0.000000 -1.000000 0.890200 -0.642400 1 0 1.000000 
0 -2.441700 1.409700 2.252500 0.000000 0.000000 -1.000000 0.888600 -0.639700 1 0 1.000000 
lab_objects04
0 -1.409700 2.441700 2.252500 0.000000 0.000000 -1.000000 0.879300 -0.648500 1 0 1.000000 
0 -1.101600 1.908000 2.252500 0.000000 0.000000 -1.000000 0.882100 -0.650100 1 0 1.000000 
0 -1.908000 1.101600 2.252500 0.000000 0.000000 -1.000000 0.890200 -0.642400 1 0 1.000000 
lab_objects04
0 -0.000000 2.819500 2.252500 0.000000 0.000000 -1.000000 0.875900 -0.660600 1 0 1.000000 
0 -1.101600 1.908000 2.252500 0.000000 0.000000 -1.000000 0.882100 -0.650100 1 0 1.000000 
0 -1.409700 2.441700 2.252500 0.000000 0.000000 -1.000000 0.879300 -0.648500 1 0 1.000000 
lab_objects04
0 -1.409700 2.441700 0.085700 0.000000 0.000000 -1.000000 0.972100 -0.383800 1 0 1.000000 
0 -0.000000 2.819500 0.085700 0.000000 0.000000 -1.000000 0.980000 -0.354300 1 0 1.000000 
0 0.000000 0.000000 0.085700 0.000000 0.000000 -1.000000 0.921400 -0.354300 1 0 1.000000 
lab_objects04
0 -0.000000 2.819500 0.085700 0.000000 0.000000 -1.000000 0.980000 -0.354300 1 0 1.000000 
0 1.409700 2.441700 0.085700 0.000000 0.000000 -1.000000 0.972100 -0.324900 1 0 1.000000 
0 0.000000 0.000000 0.085700 0.000000 0.000000 -1.000000 0.921400 -0.354300 1 0 1.000000 
lab_objects04
0 1.409700 2.441700 0.085700 0.000000 0.000000 -1.000000 0.972100 -0.324900 1 0 1.000000 
0 2.441700 1.409700 0.085700 0.000000 0.000000 -1.000000 0.950700 -0.303300 1 0 1.000000 
0 0.000000 0.000000 0.085700 0.000000 0.000000 -1.000000 0.921400 -0.354300 1 0 1.000000 
lab_objects04
0 2.441700 1.409700 0.085700 0.000000 0.000000 -1.000000 0.950700 -0.303300 1 0 1.000000 
0 2.819500 0.000000 0.085700 0.000000 0.000000 -1.000000 0.921400 -0.295500 1 0 1.000000 
0 0.000000 0.000000 0.085700 0.000000 0.000000 -1.000000 0.921400 -0.354300 1 0 1.000000 
lab_objects04
0 2.819500 0.000000 0.085700 0.000000 0.000000 -1.000000 0.921400 -0.295500 1 0 1.000000 
0 2.441700 -1.409700 0.085700 0.000000 0.000000 -1.000000 0.892100 -0.303300 1 0 1.000000 
0 0.000000 0.000000 0.085700 0.000000 0.000000 -1.000000 0.921400 -0.354300 1 0 1.000000 
lab_objects04
0 2.441700 -1.409700 0.085700 0.000000 0.000000 -1.000000 0.892100 -0.303300 1 0 1.000000 
0 1.409700 -2.441700 0.085700 0.000000 0.000000 -1.000000 0.870700 -0.324900 1 0 1.000000 
0 0.000000 0.000000 0.085700 0.000000 0.000000 -1.000000 0.921400 -0.354300 1 0 1.000000 
lab_objects04
0 1.409700 -2.441700 0.085700 0.000000 0.000000 -1.000000 0.870700 -0.324900 1 0 1.000000 
0 0.000000 -2.819500 0.085700 0.000000 0.000000 -1.000000 0.862900 -0.354300 1 0 1.000000 
0 0.000000 0.000000 0.085700 0.000000 0.000000 -1.000000 0.921400 -0.354300 1 0 1.000000 
lab_objects04
0 0.000000 -2.819500 0.085700 0.000000 0.000000 -1.000000 0.862900 -0.354300 1 0 1.000000 
0 -1.409700 -2.441700 0.085700 0.000000 0.000000 -1.000000 0.870700 -0.383800 1 0 1.000000 
0 0.000000 0.000000 0.085700 0.000000 0.000000 -1.000000 0.921400 -0.354300 1 0 1.000000 
lab_objects04
0 -1.409700 -2.441700 0.085700 0.000000 0.000000 -1.000000 0.870700 -0.383800 1 0 1.000000 
0 -2.441700 -1.409700 0.085700 0.000000 0.000000 -1.000000 0.892100 -0.405300 1 0 1.000000 
0 0.000000 0.000000 0.085700 0.000000 0.000000 -1.000000 0.921400 -0.354300 1 0 1.000000 
lab_objects04
0 -2.441700 -1.409700 0.085700 0.000000 0.000000 -1.000000 0.892100 -0.405300 1 0 1.000000 
0 -2.819500 -0.000000 0.085700 0.000000 0.000000 -1.000000 0.921400 -0.413200 1 0 1.000000 
0 0.000000 0.000000 0.085700 0.000000 0.000000 -1.000000 0.921400 -0.354300 1 0 1.000000 
lab_objects04
0 -2.819500 -0.000000 0.085700 0.000000 0.000000 -1.000000 0.921400 -0.413200 1 0 1.000000 
0 -2.441700 1.409700 0.085700 0.000000 0.000000 -1.000000 0.950700 -0.405300 1 0 1.000000 
0 0.000000 0.000000 0.085700 0.000000 0.000000 -1.000000 0.921400 -0.354300 1 0 1.000000 
lab_objects04
0 -2.441700 1.409700 0.085700 0.000000 0.000000 -1.000000 0.950700 -0.405300 1 0 1.000000 
0 -1.409700 2.441700 0.085700 0.000000 0.000000 -1.000000 0.972100 -0.383800 1 0 1.000000 
0 0.000000 0.000000 0.085700 0.000000 0.000000 -1.000000 0.921400 -0.354300 1 0 1.000000 
lab_objects04
0 -2.441700 -1.409700 2.581900 0.000000 0.000000 1.000000 0.892000 -0.303400 1 0 1.000000 
0 -1.409700 -2.441700 2.581900 0.000000 0.000000 1.000000 0.870500 -0.325000 1 0 1.000000 
0 0.000000 0.000000 2.581900 0.000000 0.000000 1.000000 0.921400 -0.354500 1 0 1.000000 
lab_objects04
0 -1.409700 -2.441700 2.581900 0.000000 0.000000 1.000000 0.870500 -0.325000 1 0 1.000000 
0 0.000000 -2.819500 2.581900 0.000000 0.000000 1.000000 0.862600 -0.354500 1 0 1.000000 
0 0.000000 0.000000 2.581900 0.000000 0.000000 1.000000 0.921400 -0.354500 1 0 1.000000 
lab_objects04
0 0.000000 -2.819500 2.581900 0.000000 0.000000 1.000000 0.862600 -0.354500 1 0 1.000000 
0 1.409700 -2.441700 2.581900 0.000000 0.000000 1.000000 0.870500 -0.384000 1 0 1.000000 
0 0.000000 0.000000 2.581900 0.000000 0.000000 1.000000 0.921400 -0.354500 1 0 1.000000 
lab_objects04
0 1.409700 -2.441700 2.581900 0.000000 0.000000 1.000000 0.870500 -0.384000 1 0 1.000000 
0 2.441700 -1.409700 2.581900 0.000000 0.000000 1.000000 0.892000 -0.405500 1 0 1.000000 
0 0.000000 0.000000 2.581900 0.000000 0.000000 1.000000 0.921400 -0.354500 1 0 1.000000 
lab_objects04
0 2.441700 -1.409700 2.581900 0.000000 0.000000 1.000000 0.892000 -0.405500 1 0 1.000000 
0 2.819500 0.000000 2.581900 0.000000 0.000000 1.000000 0.921400 -0.413400 1 0 1.000000 
0 0.000000 0.000000 2.581900 0.000000 0.000000 1.000000 0.921400 -0.354500 1 0 1.000000 
lab_objects04
0 2.819500 0.000000 2.581900 0.000000 0.000000 1.000000 0.921400 -0.413400 1 0 1.000000 
0 2.441700 1.409700 2.581900 0.000000 0.000000 1.000000 0.950700 -0.405500 1 0 1.000000 
0 0.000000 0.000000 2.581900 0.000000 0.000000 1.000000 0.921400 -0.354500 1 0 1.000000 
lab_objects04
0 2.441700 1.409700 2.581900 0.000000 0.000000 1.000000 0.950700 -0.405500 1 0 1.000000 
0 1.409700 2.441700 2.581900 0.000000 0.000000 1.000000 0.972200 -0.384000 1 0 1.000000 
0 0.000000 0.000000 2.581900 0.000000 0.000000 1.000000 0.921400 -0.354500 1 0 1.000000 
lab_objects04
0 1.409700 2.441700 2.581900 0.000000 0.000000 1.000000 0.972200 -0.384000 1 0 1.000000 
0 -0.000000 2.819500 2.581900 0.000000 0.000000 1.000000 0.980100 -0.354500 1 0 1.000000 
0 0.000000 0.000000 2.581900 0.000000 0.000000 1.000000 0.921400 -0.354500 1 0 1.000000 
lab_objects04
0 -0.000000 2.819500 2.581900 0.000000 0.000000 1.000000 0.980100 -0.354500 1 0 1.000000 
0 -1.409700 2.441700 2.581900 0.000000 0.000000 1.000000 0.972200 -0.325000 1 0 1.000000 
0 0.000000 0.000000 2.581900 0.000000 0.000000 1.000000 0.921400 -0.354500 1 0 1.000000 
lab_objects04
0 -1.409700 2.441700 2.581900 0.000000 0.000000 1.000000 0.972200 -0.325000 1 0 1.000000 
0 -2.441700 1.409700 2.581900 0.000000 0.000000 1.000000 0.950700 -0.303400 1 0 1.000000 
0 0.000000 0.000000 2.581900 0.000000 0.000000 1.000000 0.921400 -0.354500 1 0 1.000000 
lab_objects04
0 -2.441700 1.409700 2.581900 0.000000 0.000000 1.000000 0.950700 -0.303400 1 0 1.000000 
0 -2.819500 -0.000000 2.581900 0.000000 0.000000 1.000000 0.921400 -0.295600 1 0 1.000000 
0 0.000000 0.000000 2.581900 0.000000 0.000000 1.000000 0.921400 -0.354500 1 0 1.000000 
lab_objects04
0 -2.819500 -0.000000 2.581900 0.000000 0.000000 1.000000 0.921400 -0.295600 1 0 1.000000 
0 -2.441700 -1.409700 2.581900 0.000000 0.000000 1.000000 0.892000 -0.303400 1 0 1.000000 
0 0.000000 0.000000 2.581900 0.000000 0.000000 1.000000 0.921400 -0.354500 1 0 1.000000 
lab_objects04
0 0.000000 -2.819500 0.446500 0.089003 -0.996031 0.000000 0.930600 -0.693200 1 0 1.000000 
0 1.409700 -2.441700 0.085700 0.258808 -0.965929 0.000000 0.923100 -0.685900 1 0 1.000000 
0 1.409700 -2.441700 0.446500 0.258808 -0.965929 0.000000 0.923100 -0.693200 1 0 1.000000 
lab_objects04
0 0.000000 -2.819500 0.446500 0.089003 -0.996031 0.000000 0.930600 -0.693200 1 0 1.000000 
0 0.000000 -2.819500 0.085700 -0.089003 -0.996031 0.000000 0.930600 -0.685900 1 0 1.000000 
0 1.409700 -2.441700 0.085700 0.258808 -0.965929 0.000000 0.923100 -0.685900 1 0 1.000000 
lab_objects04
0 -1.409700 -2.441700 0.446500 -0.258808 -0.965929 0.000000 0.923100 -0.693200 1 0 1.000000 
0 0.000000 -2.819500 0.085700 -0.089003 -0.996031 0.000000 0.930600 -0.685900 1 0 1.000000 
0 0.000000 -2.819500 0.446500 0.089003 -0.996031 0.000000 0.930600 -0.693200 1 0 1.000000 
lab_objects04
0 -1.409700 -2.441700 0.446500 -0.258808 -0.965929 0.000000 0.923100 -0.693200 1 0 1.000000 
0 -1.409700 -2.441700 0.085700 -0.258808 -0.965929 0.000000 0.923100 -0.685900 1 0 1.000000 
0 0.000000 -2.819500 0.085700 -0.089003 -0.996031 0.000000 0.930600 -0.685900 1 0 1.000000 
lab_objects04
0 -0.000000 2.819500 0.446500 -0.089003 0.996031 0.000000 0.819100 -0.693200 1 0 1.000000 
0 -1.409700 2.441700 0.085700 -0.258808 0.965929 0.000000 0.826600 -0.685900 1 0 1.000000 
0 -1.409700 2.441700 0.446500 -0.258808 0.965929 0.000000 0.826600 -0.693200 1 0 1.000000 
lab_objects04
0 -0.000000 2.819500 0.446500 -0.089003 0.996031 0.000000 0.819100 -0.693200 1 0 1.000000 
0 -0.000000 2.819500 0.085700 0.089003 0.996031 0.000000 0.819100 -0.685900 1 0 1.000000 
0 -1.409700 2.441700 0.085700 -0.258808 0.965929 0.000000 0.826600 -0.685900 1 0 1.000000 
lab_objects04
0 1.409700 2.441700 0.446500 0.258808 0.965929 0.000000 0.826600 -0.693200 1 0 1.000000 
0 -0.000000 2.819500 0.085700 0.089003 0.996031 0.000000 0.819100 -0.685900 1 0 1.000000 
0 -0.000000 2.819500 0.446500 -0.089003 0.996031 0.000000 0.819100 -0.693200 1 0 1.000000 
lab_objects04
0 1.409700 2.441700 0.446500 0.258808 0.965929 0.000000 0.826600 -0.693200 1 0 1.000000 
0 1.409700 2.441700 0.085700 0.258808 0.965929 0.000000 0.826600 -0.685900 1 0 1.000000 
0 -0.000000 2.819500 0.085700 0.089003 0.996031 0.000000 0.819100 -0.685900 1 0 1.000000 
lab_objects04
0 2.819500 0.000000 0.446500 0.996031 0.089003 0.000000 0.874900 -0.693200 1 0 1.000000 
0 2.441700 1.409700 0.085700 0.965929 0.258808 0.000000 0.847000 -0.685900 1 0 1.000000 
0 2.441700 1.409700 0.446500 0.965929 0.258808 0.000000 0.847000 -0.693200 1 0 1.000000 
lab_objects04
0 2.819500 0.000000 0.446500 0.996031 0.089003 0.000000 0.874900 -0.693200 1 0 1.000000 
0 2.819500 0.000000 0.085700 0.996031 -0.089003 0.000000 0.874900 -0.685900 1 0 1.000000 
0 2.441700 1.409700 0.085700 0.965929 0.258808 0.000000 0.847000 -0.685900 1 0 1.000000 
lab_objects04
0 2.441700 -1.409700 0.446500 0.965929 -0.258808 0.000000 0.902700 -0.693200 1 0 1.000000 
0 2.819500 0.000000 0.085700 0.996031 -0.089003 0.000000 0.874900 -0.685900 1 0 1.000000 
0 2.819500 0.000000 0.446500 0.996031 0.089003 0.000000 0.874900 -0.693200 1 0 1.000000 
lab_objects04
0 2.441700 -1.409700 0.446500 0.965929 -0.258808 0.000000 0.902700 -0.693200 1 0 1.000000 
0 2.441700 -1.409700 0.085700 0.965929 -0.258808 0.000000 0.902700 -0.685900 1 0 1.000000 
0 2.819500 0.000000 0.085700 0.996031 -0.089003 0.000000 0.874900 -0.685900 1 0 1.000000 
end
