version 1
nodes
  0 "static_prop" -1
end
skeleton
time 0
0 0.000000 0.000000 0.000000 0.000000 0.000000 0.000000
end
triangles
METALTRUSS022D
0 -222.000000 77.999992 -79.000000 0.000000 0.000000 -1.000000 0.882800 -1.085900 1 0 1.000000 
0 -224.000000 79.999992 -79.000000 0.000000 0.000000 -1.000000 0.914100 -1.101600 1 0 1.000000 
0 230.000000 78.000008 -79.000000 0.000000 0.000000 -1.000000 0.882800 2.445300 1 0 1.000000 
METALTRUSS022D
0 -222.000000 79.999992 27.000000 -0.000000 1.000000 0.000000 3.468800 -0.476600 1 0 1.000000 
0 -224.000000 79.999992 -79.000000 -0.000000 1.000000 0.000000 3.500000 -1.304700 1 0 1.000000 
0 -224.000000 79.999992 27.000000 -0.000000 1.000000 0.000000 3.500000 -0.476600 1 0 1.000000 
METALTRUSS022D
0 -222.000000 79.999992 -79.000000 -0.000000 1.000000 0.000000 3.468800 -1.304700 1 0 1.000000 
0 -224.000000 79.999992 -79.000000 -0.000000 1.000000 0.000000 3.500000 -1.304700 1 0 1.000000 
0 -222.000000 79.999992 27.000000 -0.000000 1.000000 0.000000 3.468800 -0.476600 1 0 1.000000 
METALTRUSS022D
0 -224.000000 79.999992 27.000000 -1.000000 -0.000000 0.000000 1.218800 -0.476600 1 0 1.000000 
0 -224.000000 77.999992 -79.000000 -1.000000 -0.000000 0.000000 1.187500 -1.304700 1 0 1.000000 
0 -224.000000 77.999992 27.000000 -1.000000 -0.000000 0.000000 1.187500 -0.476600 1 0 1.000000 
METALTRUSS022D
0 -224.000000 79.999992 -79.000000 -1.000000 -0.000000 0.000000 1.218800 -1.304700 1 0 1.000000 
0 -224.000000 77.999992 -79.000000 -1.000000 -0.000000 0.000000 1.187500 -1.304700 1 0 1.000000 
0 -224.000000 79.999992 27.000000 -1.000000 -0.000000 0.000000 1.218800 -0.476600 1 0 1.000000 
METALTRUSS022D
0 -222.000000 77.999992 27.000000 1.000000 0.000000 0.000000 1.187500 -0.476600 1 0 1.000000 
0 -222.000000 79.999992 -79.000000 1.000000 0.000000 0.000000 1.218800 -1.304700 1 0 1.000000 
0 -222.000000 79.999992 27.000000 1.000000 0.000000 0.000000 1.218800 -0.476600 1 0 1.000000 
METALTRUSS022D
0 -222.000000 77.999992 -79.000000 1.000000 0.000000 0.000000 1.187500 -1.304700 1 0 1.000000 
0 -222.000000 79.999992 -79.000000 1.000000 0.000000 0.000000 1.218800 -1.304700 1 0 1.000000 
0 -222.000000 77.999992 27.000000 1.000000 0.000000 0.000000 1.187500 -0.476600 1 0 1.000000 
METALTRUSS022D
0 230.000000 80.000008 -3.000000 0.000000 0.000000 1.000000 1.176500 2.247600 1 0 1.000000 
0 232.000000 78.000008 -3.000000 0.000000 0.000000 1.000000 1.145300 2.263300 1 0 1.000000 
0 232.000000 80.000008 -3.000000 0.000000 0.000000 1.000000 1.176500 2.263300 1 0 1.000000 
METALTRUSS022D
0 230.000000 78.000008 -3.000000 0.000000 0.000000 1.000000 1.145300 2.247600 1 0 1.000000 
0 232.000000 78.000008 -3.000000 0.000000 0.000000 1.000000 1.145300 2.263300 1 0 1.000000 
0 230.000000 80.000008 -3.000000 0.000000 0.000000 1.000000 1.176500 2.247600 1 0 1.000000 
METALTRUSS022D
0 232.000000 80.000008 -47.000000 0.000000 0.000000 -1.000000 -1.181100 2.433300 1 0 1.000000 
0 230.000000 78.000008 -47.000000 0.000000 0.000000 -1.000000 -1.149900 2.417700 1 0 1.000000 
0 230.000000 80.000008 -47.000000 0.000000 0.000000 -1.000000 -1.181100 2.417700 1 0 1.000000 
METALTRUSS022D
0 232.000000 78.000008 -47.000000 0.000000 0.000000 -1.000000 -1.149900 2.433300 1 0 1.000000 
0 230.000000 78.000008 -47.000000 0.000000 0.000000 -1.000000 -1.149900 2.417700 1 0 1.000000 
0 232.000000 80.000008 -47.000000 0.000000 0.000000 -1.000000 -1.181100 2.433300 1 0 1.000000 
METALTRUSS022D
0 230.000000 78.000008 -3.000000 0.000000 -1.000000 0.000000 -3.649400 -0.860300 1 0 1.000000 
0 232.000000 78.000008 -47.000000 0.000000 -1.000000 0.000000 -3.680700 -1.204100 1 0 1.000000 
0 232.000000 78.000008 -3.000000 0.000000 -1.000000 0.000000 -3.680700 -0.860300 1 0 1.000000 
METALTRUSS022D
0 230.000000 78.000008 -47.000000 0.000000 -1.000000 0.000000 -3.649400 -1.204100 1 0 1.000000 
0 232.000000 78.000008 -47.000000 0.000000 -1.000000 0.000000 -3.680700 -1.204100 1 0 1.000000 
0 230.000000 78.000008 -3.000000 0.000000 -1.000000 0.000000 -3.649400 -0.860300 1 0 1.000000 
METALTRUSS022D
0 232.000000 80.000008 -3.000000 -0.000000 1.000000 0.000000 3.726300 -0.238900 1 0 1.000000 
0 230.000000 80.000008 -47.000000 -0.000000 1.000000 0.000000 3.695100 -0.582700 1 0 1.000000 
0 230.000000 80.000008 -3.000000 -0.000000 1.000000 0.000000 3.695100 -0.238900 1 0 1.000000 
METALTRUSS022D
0 232.000000 80.000008 -47.000000 -0.000000 1.000000 0.000000 3.726300 -0.582700 1 0 1.000000 
0 230.000000 80.000008 -47.000000 -0.000000 1.000000 0.000000 3.695100 -0.582700 1 0 1.000000 
0 232.000000 80.000008 -3.000000 -0.000000 1.000000 0.000000 3.726300 -0.238900 1 0 1.000000 
METALTRUSS022D
0 232.000000 78.000008 -3.000000 1.000000 0.000000 0.000000 -1.178500 -0.489200 1 0 1.000000 
0 232.000000 80.000008 -47.000000 1.000000 0.000000 0.000000 -1.209700 -0.833000 1 0 1.000000 
0 232.000000 80.000008 -3.000000 1.000000 0.000000 0.000000 -1.209700 -0.489200 1 0 1.000000 
METALTRUSS022D
0 232.000000 78.000008 -47.000000 1.000000 0.000000 0.000000 -1.178500 -0.833000 1 0 1.000000 
0 232.000000 80.000008 -47.000000 1.000000 0.000000 0.000000 -1.209700 -0.833000 1 0 1.000000 
0 232.000000 78.000008 -3.000000 1.000000 0.000000 0.000000 -1.178500 -0.489200 1 0 1.000000 
METALTRUSS022D
0 230.000000 80.000008 -3.000000 -1.000000 -0.000000 0.000000 1.244100 -0.239100 1 0 1.000000 
0 230.000000 78.000008 -47.000000 -1.000000 -0.000000 0.000000 1.212900 -0.582900 1 0 1.000000 
0 230.000000 78.000008 -3.000000 -1.000000 -0.000000 0.000000 1.212900 -0.239100 1 0 1.000000 
METALTRUSS022D
0 230.000000 80.000008 -47.000000 -1.000000 -0.000000 0.000000 1.244100 -0.582900 1 0 1.000000 
0 230.000000 78.000008 -47.000000 -1.000000 -0.000000 0.000000 1.212900 -0.582900 1 0 1.000000 
0 230.000000 80.000008 -3.000000 -1.000000 -0.000000 0.000000 1.244100 -0.239100 1 0 1.000000 
METALTRUSS022D
0 230.000000 -9.999990 27.000000 0.000000 -1.000000 0.000000 -3.890600 -0.195300 1 0 1.000000 
0 232.000000 -9.999990 -3.000000 0.000000 -1.000000 0.000000 -3.921900 -0.429700 1 0 1.000000 
0 232.000000 -9.999990 27.000000 0.000000 -1.000000 0.000000 -3.921900 -0.195300 1 0 1.000000 
METALTRUSS022D
0 230.000000 -9.999990 -3.000000 0.000000 -1.000000 0.000000 -3.890600 -0.429700 1 0 1.000000 
0 232.000000 -9.999990 -3.000000 0.000000 -1.000000 0.000000 -3.921900 -0.429700 1 0 1.000000 
0 230.000000 -9.999990 27.000000 0.000000 -1.000000 0.000000 -3.890600 -0.195300 1 0 1.000000 
METALTRUSS022D
0 166.000000 -113.999992 -47.000000 0.000000 -1.000000 0.000000 -1.054700 2.342200 1 0 1.000000 
0 168.000000 -113.999992 -79.000000 0.000000 -1.000000 0.000000 -1.554700 2.353200 1 0 1.000000 
0 168.000000 -113.999992 -47.000000 0.000000 -1.000000 0.000000 -1.054700 2.353200 1 0 1.000000 
METALTRUSS022D
0 166.000000 -113.999992 -79.000000 0.000000 -1.000000 0.000000 -1.554700 2.342200 1 0 1.000000 
0 168.000000 -113.999992 -79.000000 0.000000 -1.000000 0.000000 -1.554700 2.353200 1 0 1.000000 
0 166.000000 -113.999992 -47.000000 0.000000 -1.000000 0.000000 -1.054700 2.342200 1 0 1.000000 
METALTRUSS022D
0 166.000000 -113.999992 27.000000 0.000000 -1.000000 0.000000 -2.882800 0.146900 1 0 1.000000 
0 168.000000 -113.999992 -3.000000 0.000000 -1.000000 0.000000 -2.914100 -0.087500 1 0 1.000000 
0 168.000000 -113.999992 27.000000 0.000000 -1.000000 0.000000 -2.914100 0.146900 1 0 1.000000 
METALTRUSS022D
0 166.000000 -113.999992 -3.000000 0.000000 -1.000000 0.000000 -2.882800 -0.087500 1 0 1.000000 
0 168.000000 -113.999992 -3.000000 0.000000 -1.000000 0.000000 -2.914100 -0.087500 1 0 1.000000 
0 166.000000 -113.999992 27.000000 0.000000 -1.000000 0.000000 -2.882800 0.146900 1 0 1.000000 
METALTRUSS022D
0 166.000000 -111.999992 -3.000000 0.000000 0.000000 1.000000 -1.823500 2.247600 1 0 1.000000 
0 168.000000 -113.999992 -3.000000 0.000000 0.000000 1.000000 -1.854700 2.263300 1 0 1.000000 
0 168.000000 -111.999992 -3.000000 0.000000 0.000000 1.000000 -1.823500 2.263300 1 0 1.000000 
METALTRUSS022D
0 166.000000 -113.999992 -3.000000 0.000000 0.000000 1.000000 -1.854700 2.247600 1 0 1.000000 
0 168.000000 -113.999992 -3.000000 0.000000 0.000000 1.000000 -1.854700 2.263300 1 0 1.000000 
0 166.000000 -111.999992 -3.000000 0.000000 0.000000 1.000000 -1.823500 2.247600 1 0 1.000000 
METALTRUSS022D
0 168.000000 -111.999992 -47.000000 0.000000 0.000000 -1.000000 1.818900 1.433300 1 0 1.000000 
0 166.000000 -113.999992 -47.000000 0.000000 0.000000 -1.000000 1.850100 1.417700 1 0 1.000000 
0 166.000000 -111.999992 -47.000000 0.000000 0.000000 -1.000000 1.818900 1.417700 1 0 1.000000 
METALTRUSS022D
0 168.000000 -113.999992 -47.000000 0.000000 0.000000 -1.000000 1.850100 1.433300 1 0 1.000000 
0 166.000000 -113.999992 -47.000000 0.000000 0.000000 -1.000000 1.850100 1.417700 1 0 1.000000 
0 168.000000 -111.999992 -47.000000 0.000000 0.000000 -1.000000 1.818900 1.433300 1 0 1.000000 
METALTRUSS022D
0 166.000000 -113.999992 -3.000000 0.000000 -1.000000 0.000000 -2.649400 -0.860300 1 0 1.000000 
0 168.000000 -113.999992 -47.000000 0.000000 -1.000000 0.000000 -2.680700 -1.204100 1 0 1.000000 
0 168.000000 -113.999992 -3.000000 0.000000 -1.000000 0.000000 -2.680700 -0.860300 1 0 1.000000 
METALTRUSS022D
0 166.000000 -113.999992 -47.000000 0.000000 -1.000000 0.000000 -2.649400 -1.204100 1 0 1.000000 
0 168.000000 -113.999992 -47.000000 0.000000 -1.000000 0.000000 -2.680700 -1.204100 1 0 1.000000 
0 166.000000 -113.999992 -3.000000 0.000000 -1.000000 0.000000 -2.649400 -0.860300 1 0 1.000000 
METALTRUSS022D
0 168.000000 -111.999992 -3.000000 -0.000000 1.000000 0.000000 2.726300 -0.238900 1 0 1.000000 
0 166.000000 -111.999992 -47.000000 -0.000000 1.000000 0.000000 2.695100 -0.582700 1 0 1.000000 
0 166.000000 -111.999992 -3.000000 -0.000000 1.000000 0.000000 2.695100 -0.238900 1 0 1.000000 
METALTRUSS022D
0 168.000000 -111.999992 -47.000000 -0.000000 1.000000 0.000000 2.726300 -0.582700 1 0 1.000000 
0 166.000000 -111.999992 -47.000000 -0.000000 1.000000 0.000000 2.695100 -0.582700 1 0 1.000000 
0 168.000000 -111.999992 -3.000000 -0.000000 1.000000 0.000000 2.726300 -0.238900 1 0 1.000000 
METALTRUSS022D
0 168.000000 -113.999992 -3.000000 1.000000 0.000000 0.000000 1.821500 -0.489200 1 0 1.000000 
0 168.000000 -111.999992 -47.000000 1.000000 0.000000 0.000000 1.790300 -0.833000 1 0 1.000000 
0 168.000000 -111.999992 -3.000000 1.000000 0.000000 0.000000 1.790300 -0.489200 1 0 1.000000 
METALTRUSS022D
0 168.000000 -113.999992 -47.000000 1.000000 0.000000 0.000000 1.821500 -0.833000 1 0 1.000000 
0 168.000000 -111.999992 -47.000000 1.000000 0.000000 0.000000 1.790300 -0.833000 1 0 1.000000 
0 168.000000 -113.999992 -3.000000 1.000000 0.000000 0.000000 1.821500 -0.489200 1 0 1.000000 
METALTRUSS022D
0 166.000000 -113.999992 -47.000000 0.000000 0.000000 1.000000 2.945300 1.500000 1 0 1.000000 
0 168.000000 18.000008 -47.000000 0.000000 0.000000 1.000000 2.976600 0.468800 1 0 1.000000 
0 166.000000 16.000008 -47.000000 0.000000 0.000000 1.000000 2.945300 0.484400 1 0 1.000000 
METALTRUSS022D
0 168.000000 -113.999992 -47.000000 0.000000 0.000000 1.000000 2.976600 1.500000 1 0 1.000000 
0 168.000000 18.000008 -47.000000 0.000000 0.000000 1.000000 2.976600 0.468800 1 0 1.000000 
0 166.000000 -113.999992 -47.000000 0.000000 0.000000 1.000000 2.945300 1.500000 1 0 1.000000 
METALTRUSS022D
0 168.000000 -113.999992 -79.000000 0.000000 0.000000 -1.000000 1.914100 1.531300 1 0 1.000000 
0 166.000000 16.000008 -79.000000 0.000000 0.000000 -1.000000 -0.117200 1.515600 1 0 1.000000 
0 168.000000 18.000008 -79.000000 0.000000 0.000000 -1.000000 -0.148400 1.531300 1 0 1.000000 
METALTRUSS022D
0 166.000000 -113.999992 -79.000000 0.000000 0.000000 -1.000000 1.914100 1.515600 1 0 1.000000 
0 166.000000 16.000008 -79.000000 0.000000 0.000000 -1.000000 -0.117200 1.515600 1 0 1.000000 
0 168.000000 -113.999992 -79.000000 0.000000 0.000000 -1.000000 1.914100 1.531300 1 0 1.000000 
METALTRUSS022D
0 166.000000 -113.999992 27.000000 0.000000 0.000000 1.000000 -2.992200 -0.968700 1 0 1.000000 
0 168.000000 18.000008 27.000000 0.000000 0.000000 1.000000 -3.023400 0.062500 1 0 1.000000 
0 166.000000 16.000008 27.000000 0.000000 0.000000 1.000000 -2.992200 0.046900 1 0 1.000000 
METALTRUSS022D
0 168.000000 -113.999992 27.000000 0.000000 0.000000 1.000000 -3.023400 -0.968700 1 0 1.000000 
0 168.000000 18.000008 27.000000 0.000000 0.000000 1.000000 -3.023400 0.062500 1 0 1.000000 
0 166.000000 -113.999992 27.000000 0.000000 0.000000 1.000000 -2.992200 -0.968700 1 0 1.000000 
METALTRUSS022D
0 168.000000 -113.999992 -3.000000 0.000000 0.000000 -1.000000 2.914100 -0.968700 1 0 1.000000 
0 166.000000 16.000008 -3.000000 0.000000 0.000000 -1.000000 2.882800 0.046900 1 0 1.000000 
0 168.000000 18.000008 -3.000000 0.000000 0.000000 -1.000000 2.914100 0.062500 1 0 1.000000 
METALTRUSS022D
0 166.000000 -113.999992 -3.000000 0.000000 0.000000 -1.000000 2.882800 -0.968700 1 0 1.000000 
0 166.000000 16.000008 -3.000000 0.000000 0.000000 -1.000000 2.882800 0.046900 1 0 1.000000 
0 168.000000 -113.999992 -3.000000 0.000000 0.000000 -1.000000 2.914100 -0.968700 1 0 1.000000 
METALTRUSS022D
0 232.000000 80.000008 -47.000000 -0.707107 0.707107 0.000000 3.898400 -0.999600 1 0 1.000000 
0 230.000000 78.000008 -79.000000 -0.707107 0.707107 0.000000 3.867200 -1.249600 1 0 1.000000 
0 230.000000 78.000008 -47.000000 -0.707107 0.707107 0.000000 3.867200 -0.999600 1 0 1.000000 
METALTRUSS022D
0 232.000000 80.000008 -79.000000 -0.707107 0.707107 0.000000 3.898400 -1.249600 1 0 1.000000 
0 230.000000 78.000008 -79.000000 -0.707107 0.707107 0.000000 3.867200 -1.249600 1 0 1.000000 
0 232.000000 80.000008 -47.000000 -0.707107 0.707107 0.000000 3.898400 -0.999600 1 0 1.000000 
METALTRUSS022D
0 230.000000 78.000008 27.000000 0.707107 -0.707107 0.000000 0.968800 -0.515600 1 0 1.000000 
0 232.000000 80.000008 -3.000000 0.707107 -0.707107 0.000000 1.000000 -0.750000 1 0 1.000000 
0 232.000000 80.000008 27.000000 0.707107 -0.707107 0.000000 1.000000 -0.515600 1 0 1.000000 
METALTRUSS022D
0 230.000000 78.000008 -3.000000 0.707107 -0.707107 0.000000 0.968800 -0.750000 1 0 1.000000 
0 232.000000 80.000008 -3.000000 0.707107 -0.707107 0.000000 1.000000 -0.750000 1 0 1.000000 
0 230.000000 78.000008 27.000000 0.707107 -0.707107 0.000000 0.968800 -0.515600 1 0 1.000000 
METALTRUSS022D
0 230.000000 78.000008 -47.000000 0.707107 -0.707107 0.000000 -3.843800 -1.054700 1 0 1.000000 
0 232.000000 80.000008 -79.000000 0.707107 -0.707107 0.000000 -3.875000 -1.304700 1 0 1.000000 
0 232.000000 80.000008 -47.000000 0.707107 -0.707107 0.000000 -3.875000 -1.054700 1 0 1.000000 
METALTRUSS022D
0 230.000000 78.000008 -79.000000 0.707107 -0.707107 0.000000 -3.843800 -1.304700 1 0 1.000000 
0 232.000000 80.000008 -79.000000 0.707107 -0.707107 0.000000 -3.875000 -1.304700 1 0 1.000000 
0 230.000000 78.000008 -47.000000 0.707107 -0.707107 0.000000 -3.843800 -1.054700 1 0 1.000000 
METALTRUSS022D
0 232.000000 80.000008 27.000000 -0.707107 0.707107 0.000000 3.898400 -0.015200 1 0 1.000000 
0 230.000000 78.000008 -3.000000 -0.707107 0.707107 0.000000 3.867200 -0.249600 1 0 1.000000 
0 230.000000 78.000008 27.000000 -0.707107 0.707107 0.000000 3.867200 -0.015200 1 0 1.000000 
METALTRUSS022D
0 232.000000 80.000008 -3.000000 -0.707107 0.707107 0.000000 3.898400 -0.249600 1 0 1.000000 
0 230.000000 78.000008 -3.000000 -0.707107 0.707107 0.000000 3.867200 -0.249600 1 0 1.000000 
0 232.000000 80.000008 27.000000 -0.707107 0.707107 0.000000 3.898400 -0.015200 1 0 1.000000 
METALTRUSS022D
0 -224.000000 79.999992 27.000000 -0.707107 -0.707107 0.000000 -3.367200 0.146900 1 0 1.000000 
0 -222.000000 77.999992 -3.000000 -0.707107 -0.707107 0.000000 -3.335900 -0.087500 1 0 1.000000 
0 -222.000000 77.999992 27.000000 -0.707107 -0.707107 0.000000 -3.335900 0.146900 1 0 1.000000 
METALTRUSS022D
0 -224.000000 79.999992 -3.000000 -0.707107 -0.707107 0.000000 -3.367200 -0.087500 1 0 1.000000 
0 -222.000000 77.999992 -3.000000 -0.707107 -0.707107 0.000000 -3.335900 -0.087500 1 0 1.000000 
0 -224.000000 79.999992 27.000000 -0.707107 -0.707107 0.000000 -3.367200 0.146900 1 0 1.000000 
METALTRUSS022D
0 -224.000000 79.999992 -47.000000 -0.707107 -0.707107 0.000000 -3.367200 -0.853100 1 0 1.000000 
0 -222.000000 77.999992 -79.000000 -0.707107 -0.707107 0.000000 -3.335900 -1.103100 1 0 1.000000 
0 -222.000000 77.999992 -47.000000 -0.707107 -0.707107 0.000000 -3.335900 -0.853100 1 0 1.000000 
METALTRUSS022D
0 -224.000000 79.999992 -79.000000 -0.707107 -0.707107 0.000000 -3.367200 -1.103100 1 0 1.000000 
0 -222.000000 77.999992 -79.000000 -0.707107 -0.707107 0.000000 -3.335900 -1.103100 1 0 1.000000 
0 -224.000000 79.999992 -47.000000 -0.707107 -0.707107 0.000000 -3.367200 -0.853100 1 0 1.000000 
METALTRUSS022D
0 -222.000000 77.999992 27.000000 0.707107 0.707107 0.000000 -3.468800 -0.515600 1 0 1.000000 
0 -224.000000 79.999992 -3.000000 0.707107 0.707107 0.000000 -3.500000 -0.750000 1 0 1.000000 
0 -224.000000 79.999992 27.000000 0.707107 0.707107 0.000000 -3.500000 -0.515600 1 0 1.000000 
METALTRUSS022D
0 -222.000000 77.999992 -3.000000 0.707107 0.707107 0.000000 -3.468800 -0.750000 1 0 1.000000 
0 -224.000000 79.999992 -3.000000 0.707107 0.707107 0.000000 -3.500000 -0.750000 1 0 1.000000 
0 -222.000000 77.999992 27.000000 0.707107 0.707107 0.000000 -3.468800 -0.515600 1 0 1.000000 
METALTRUSS022D
0 -224.000000 15.999990 27.000000 0.707107 -0.707107 0.000000 -0.101600 0.146900 1 0 1.000000 
0 -222.000000 17.999990 -3.000000 0.707107 -0.707107 0.000000 -0.070300 -0.087500 1 0 1.000000 
0 -222.000000 17.999990 27.000000 0.707107 -0.707107 0.000000 -0.070300 0.146900 1 0 1.000000 
METALTRUSS022D
0 -224.000000 15.999990 -3.000000 0.707107 -0.707107 0.000000 -0.101600 -0.087500 1 0 1.000000 
0 -222.000000 17.999990 -3.000000 0.707107 -0.707107 0.000000 -0.070300 -0.087500 1 0 1.000000 
0 -224.000000 15.999990 27.000000 0.707107 -0.707107 0.000000 -0.101600 0.146900 1 0 1.000000 
METALTRUSS022D
0 -222.000000 17.999990 -47.000000 -0.707107 0.707107 0.000000 3.218800 -1.054700 1 0 1.000000 
0 -224.000000 15.999990 -79.000000 -0.707107 0.707107 0.000000 3.250000 -1.304700 1 0 1.000000 
0 -224.000000 15.999990 -47.000000 -0.707107 0.707107 0.000000 3.250000 -1.054700 1 0 1.000000 
METALTRUSS022D
0 -222.000000 17.999990 -79.000000 -0.707107 0.707107 0.000000 3.218800 -1.304700 1 0 1.000000 
0 -224.000000 15.999990 -79.000000 -0.707107 0.707107 0.000000 3.250000 -1.304700 1 0 1.000000 
0 -222.000000 17.999990 -47.000000 -0.707107 0.707107 0.000000 3.218800 -1.054700 1 0 1.000000 
METALTRUSS022D
0 -222.000000 17.999990 27.000000 -0.707107 0.707107 0.000000 3.218800 -0.476600 1 0 1.000000 
0 -224.000000 15.999990 -3.000000 -0.707107 0.707107 0.000000 3.250000 -0.710900 1 0 1.000000 
0 -224.000000 15.999990 27.000000 -0.707107 0.707107 0.000000 3.250000 -0.476600 1 0 1.000000 
METALTRUSS022D
0 -222.000000 17.999990 -3.000000 -0.707107 0.707107 0.000000 3.218800 -0.710900 1 0 1.000000 
0 -224.000000 15.999990 -3.000000 -0.707107 0.707107 0.000000 3.250000 -0.710900 1 0 1.000000 
0 -222.000000 17.999990 27.000000 -0.707107 0.707107 0.000000 3.218800 -0.476600 1 0 1.000000 
METALTRUSS022D
0 166.000000 16.000008 -47.000000 0.707107 -0.707107 0.000000 -2.843800 -1.054700 1 0 1.000000 
0 168.000000 18.000008 -79.000000 0.707107 -0.707107 0.000000 -2.875000 -1.304700 1 0 1.000000 
0 168.000000 18.000008 -47.000000 0.707107 -0.707107 0.000000 -2.875000 -1.054700 1 0 1.000000 
METALTRUSS022D
0 166.000000 16.000008 -79.000000 0.707107 -0.707107 0.000000 -2.843800 -1.304700 1 0 1.000000 
0 168.000000 18.000008 -79.000000 0.707107 -0.707107 0.000000 -2.875000 -1.304700 1 0 1.000000 
0 166.000000 16.000008 -47.000000 0.707107 -0.707107 0.000000 -2.843800 -1.054700 1 0 1.000000 
METALTRUSS022D
0 166.000000 16.000008 27.000000 0.707107 -0.707107 0.000000 -2.843800 -0.476600 1 0 1.000000 
0 168.000000 18.000008 -3.000000 0.707107 -0.707107 0.000000 -2.875000 -0.710900 1 0 1.000000 
0 168.000000 18.000008 27.000000 0.707107 -0.707107 0.000000 -2.875000 -0.476600 1 0 1.000000 
METALTRUSS022D
0 166.000000 16.000008 -3.000000 0.707107 -0.707107 0.000000 -2.843800 -0.710900 1 0 1.000000 
0 168.000000 18.000008 -3.000000 0.707107 -0.707107 0.000000 -2.875000 -0.710900 1 0 1.000000 
0 166.000000 16.000008 27.000000 0.707107 -0.707107 0.000000 -2.843800 -0.476600 1 0 1.000000 
METALTRUSS022D
0 168.000000 18.000008 -47.000000 -0.707107 0.707107 0.000000 -2.875000 -1.054700 1 0 1.000000 
0 166.000000 16.000008 -79.000000 -0.707107 0.707107 0.000000 -2.843800 -1.304700 1 0 1.000000 
0 166.000000 16.000008 -47.000000 -0.707107 0.707107 0.000000 -2.843800 -1.054700 1 0 1.000000 
METALTRUSS022D
0 168.000000 18.000008 -79.000000 -0.707107 0.707107 0.000000 -2.875000 -1.304700 1 0 1.000000 
0 166.000000 16.000008 -79.000000 -0.707107 0.707107 0.000000 -2.843800 -1.304700 1 0 1.000000 
0 168.000000 18.000008 -47.000000 -0.707107 0.707107 0.000000 -2.875000 -1.054700 1 0 1.000000 
METALTRUSS022D
0 168.000000 18.000008 27.000000 -0.707107 0.707107 0.000000 -2.875000 -0.476600 1 0 1.000000 
0 166.000000 16.000008 -3.000000 -0.707107 0.707107 0.000000 -2.843800 -0.710900 1 0 1.000000 
0 166.000000 16.000008 27.000000 -0.707107 0.707107 0.000000 -2.843800 -0.476600 1 0 1.000000 
METALTRUSS022D
0 168.000000 18.000008 -3.000000 -0.707107 0.707107 0.000000 -2.875000 -0.710900 1 0 1.000000 
0 166.000000 16.000008 -3.000000 -0.707107 0.707107 0.000000 -2.843800 -0.710900 1 0 1.000000 
0 168.000000 18.000008 27.000000 -0.707107 0.707107 0.000000 -2.875000 -0.476600 1 0 1.000000 
METALTRUSS022D
0 -136.000000 -8.000006 1.000000 0.000000 0.000000 -1.000000 -0.132900 0.433600 1 0 1.000000 
0 -188.000000 -20.000008 1.000000 0.000000 0.000000 -1.000000 -0.320400 0.839800 1 0 1.000000 
0 -136.000000 -4.000006 1.000000 0.000000 0.000000 -1.000000 -0.070400 0.433600 1 0 1.000000 
METALTRUSS022D
0 -188.000000 -24.000008 1.000000 0.000000 0.000000 -1.000000 -0.382900 0.839800 1 0 1.000000 
0 -188.000000 -20.000008 1.000000 0.000000 0.000000 -1.000000 -0.320400 0.839800 1 0 1.000000 
0 -136.000000 -8.000006 1.000000 0.000000 0.000000 -1.000000 -0.132900 0.433600 1 0 1.000000 
METALTRUSS022D
0 -188.000000 -76.000008 5.000000 0.000000 0.000000 1.000000 1.242100 0.839800 1 0 1.000000 
0 -136.000000 -84.000008 5.000000 0.000000 0.000000 1.000000 1.367100 0.433600 1 0 1.000000 
0 -188.000000 -72.000008 5.000000 0.000000 0.000000 1.000000 1.179600 0.839800 1 0 1.000000 
METALTRUSS022D
0 -136.000000 -88.000008 5.000000 0.000000 0.000000 1.000000 1.429600 0.433600 1 0 1.000000 
0 -136.000000 -84.000008 5.000000 0.000000 0.000000 1.000000 1.367100 0.433600 1 0 1.000000 
0 -188.000000 -76.000008 5.000000 0.000000 0.000000 1.000000 1.242100 0.839800 1 0 1.000000 
METALTRUSS022D
0 -136.000000 -84.000008 5.000000 -1.000000 -0.000000 0.000000 0.929300 0.036300 1 0 1.000000 
0 -136.000000 -94.000008 64.000000 -1.000000 -0.000000 0.000000 1.004400 -0.429700 1 0 1.000000 
0 -136.000000 -90.000008 64.000000 -1.000000 -0.000000 0.000000 0.942300 -0.427000 1 0 1.000000 
METALTRUSS022D
0 -136.000000 -88.000008 5.000000 -1.000000 -0.000000 0.000000 0.991400 0.033600 1 0 1.000000 
0 -136.000000 -94.000008 64.000000 -1.000000 -0.000000 0.000000 1.004400 -0.429700 1 0 1.000000 
0 -136.000000 -84.000008 5.000000 -1.000000 -0.000000 0.000000 0.929300 0.036300 1 0 1.000000 
METALTRUSS022D
0 -132.000000 -94.000008 64.000000 1.000000 0.000000 0.000000 1.000000 -0.429500 1 0 1.000000 
0 -132.000000 -84.000008 5.000000 1.000000 0.000000 0.000000 0.924800 0.036500 1 0 1.000000 
0 -132.000000 -90.000008 64.000000 1.000000 0.000000 0.000000 0.937900 -0.426800 1 0 1.000000 
METALTRUSS022D
0 -132.000000 -88.000008 5.000000 1.000000 0.000000 0.000000 0.987000 0.033800 1 0 1.000000 
0 -132.000000 -84.000008 5.000000 1.000000 0.000000 0.000000 0.924800 0.036500 1 0 1.000000 
0 -132.000000 -94.000008 64.000000 1.000000 0.000000 0.000000 1.000000 -0.429500 1 0 1.000000 
METALTRUSS022D
0 -132.000000 -87.999908 5.000000 0.000000 0.000000 -1.000000 0.986900 0.033800 1 0 1.000000 
0 -136.000000 -84.000008 5.000000 0.000000 0.000000 -1.000000 0.930300 0.067600 1 0 1.000000 
0 -132.000000 -84.000008 5.000000 0.000000 0.000000 -1.000000 0.924800 0.036500 1 0 1.000000 
METALTRUSS022D
0 -136.000000 -87.999908 5.000000 0.000000 0.000000 -1.000000 0.992400 0.064900 1 0 1.000000 
0 -136.000000 -84.000008 5.000000 0.000000 0.000000 -1.000000 0.930300 0.067600 1 0 1.000000 
0 -132.000000 -87.999908 5.000000 0.000000 0.000000 -1.000000 0.986900 0.033800 1 0 1.000000 
METALTRUSS022D
0 -136.000000 -8.000006 5.000000 1.000000 0.000000 0.000000 0.000000 -0.316400 1 0 1.000000 
0 -136.000000 -4.000006 1.000000 1.000000 0.000000 0.000000 0.062500 -0.285200 1 0 1.000000 
0 -136.000000 -4.000006 5.000000 1.000000 0.000000 0.000000 0.000000 -0.285200 1 0 1.000000 
METALTRUSS022D
0 -136.000000 -8.000006 1.000000 1.000000 0.000000 0.000000 0.062500 -0.316400 1 0 1.000000 
0 -136.000000 -4.000006 1.000000 1.000000 0.000000 0.000000 0.062500 -0.285200 1 0 1.000000 
0 -136.000000 -8.000006 5.000000 1.000000 0.000000 0.000000 0.000000 -0.316400 1 0 1.000000 
METALTRUSS022D
0 -136.000000 -94.000008 64.000000 0.000000 0.000000 1.000000 0.994600 -0.460600 1 0 1.000000 
0 -132.000000 -90.000008 64.000000 0.000000 0.000000 1.000000 0.937900 -0.426800 1 0 1.000000 
0 -136.000000 -90.000008 64.000000 0.000000 0.000000 1.000000 0.932500 -0.457900 1 0 1.000000 
METALTRUSS022D
0 -132.000000 -94.000008 64.000000 0.000000 0.000000 1.000000 1.000000 -0.429500 1 0 1.000000 
0 -132.000000 -90.000008 64.000000 0.000000 0.000000 1.000000 0.937900 -0.426800 1 0 1.000000 
0 -136.000000 -94.000008 64.000000 0.000000 0.000000 1.000000 0.994600 -0.460600 1 0 1.000000 
METALTRUSS022D
0 -132.000000 -4.000006 5.000000 -0.000000 1.000000 0.000000 0.000000 0.683600 1 0 1.000000 
0 -136.000000 -4.000006 1.000000 -0.000000 1.000000 0.000000 0.062500 0.714800 1 0 1.000000 
0 -136.000000 -4.000006 5.000000 -0.000000 1.000000 0.000000 0.000000 0.714800 1 0 1.000000 
METALTRUSS022D
0 -132.000000 -4.000006 1.000000 -0.000000 1.000000 0.000000 0.062500 0.683600 1 0 1.000000 
0 -136.000000 -4.000006 1.000000 -0.000000 1.000000 0.000000 0.062500 0.714800 1 0 1.000000 
0 -132.000000 -4.000006 5.000000 -0.000000 1.000000 0.000000 0.000000 0.683600 1 0 1.000000 
METALTRUSS022D
0 -136.000000 -88.000008 5.000000 0.000000 -1.000000 0.000000 0.000000 0.714800 1 0 1.000000 
0 -132.000000 -88.000008 1.000000 0.000000 -1.000000 0.000000 0.062500 0.683600 1 0 1.000000 
0 -132.000000 -88.000008 5.000000 0.000000 -1.000000 0.000000 0.000000 0.683600 1 0 1.000000 
METALTRUSS022D
0 -136.000000 -88.000008 1.000000 0.000000 -1.000000 0.000000 0.062500 0.714800 1 0 1.000000 
0 -132.000000 -88.000008 1.000000 0.000000 -1.000000 0.000000 0.062500 0.683600 1 0 1.000000 
0 -136.000000 -88.000008 5.000000 0.000000 -1.000000 0.000000 0.000000 0.714800 1 0 1.000000 
METALTRUSS022D
0 -136.000000 -4.000006 5.000000 0.000000 0.000000 1.000000 2.054600 -0.910200 1 0 1.000000 
0 -132.000000 -88.000008 5.000000 0.000000 0.000000 1.000000 1.992100 -1.566400 1 0 1.000000 
0 -132.000000 -4.000006 5.000000 0.000000 0.000000 1.000000 1.992100 -0.910200 1 0 1.000000 
METALTRUSS022D
0 -136.000000 -88.000008 5.000000 0.000000 0.000000 1.000000 2.054600 -1.566400 1 0 1.000000 
0 -132.000000 -88.000008 5.000000 0.000000 0.000000 1.000000 1.992100 -1.566400 1 0 1.000000 
0 -136.000000 -4.000006 5.000000 0.000000 0.000000 1.000000 2.054600 -0.910200 1 0 1.000000 
METALTRUSS022D
0 -132.000000 -4.000006 1.000000 0.000000 0.000000 -1.000000 1.992100 -0.910200 1 0 1.000000 
0 -136.000000 -88.000008 1.000000 0.000000 0.000000 -1.000000 2.054600 -1.566400 1 0 1.000000 
0 -136.000000 -4.000006 1.000000 0.000000 0.000000 -1.000000 2.054600 -0.910200 1 0 1.000000 
METALTRUSS022D
0 -132.000000 -88.000008 1.000000 0.000000 0.000000 -1.000000 1.992100 -1.566400 1 0 1.000000 
0 -136.000000 -88.000008 1.000000 0.000000 0.000000 -1.000000 2.054600 -1.566400 1 0 1.000000 
0 -132.000000 -4.000006 1.000000 0.000000 0.000000 -1.000000 1.992100 -0.910200 1 0 1.000000 
METALTRUSS022D
0 -136.000000 -4.000006 1.000000 -1.000000 -0.000000 0.000000 0.062500 -0.910200 1 0 1.000000 
0 -136.000000 -88.000008 5.000000 -1.000000 -0.000000 0.000000 0.000000 -1.566400 1 0 1.000000 
0 -136.000000 -4.000006 5.000000 -1.000000 -0.000000 0.000000 0.000000 -0.910200 1 0 1.000000 
METALTRUSS022D
0 -136.000000 -88.000008 1.000000 -1.000000 -0.000000 0.000000 0.062500 -1.566400 1 0 1.000000 
0 -136.000000 -88.000008 5.000000 -1.000000 -0.000000 0.000000 0.000000 -1.566400 1 0 1.000000 
0 -136.000000 -4.000006 1.000000 -1.000000 -0.000000 0.000000 0.062500 -0.910200 1 0 1.000000 
METALTRUSS022D
0 -132.000000 -88.000008 1.000000 1.000000 0.000000 0.000000 0.062500 -1.566400 1 0 1.000000 
0 -132.000000 -4.000006 5.000000 1.000000 0.000000 0.000000 0.000000 -0.910200 1 0 1.000000 
0 -132.000000 -88.000008 5.000000 1.000000 0.000000 0.000000 0.000000 -1.566400 1 0 1.000000 
METALTRUSS022D
0 -132.000000 -4.000006 1.000000 1.000000 0.000000 0.000000 0.062500 -0.910200 1 0 1.000000 
0 -132.000000 -4.000006 5.000000 1.000000 0.000000 0.000000 0.000000 -0.910200 1 0 1.000000 
0 -132.000000 -88.000008 1.000000 1.000000 0.000000 0.000000 0.062500 -1.566400 1 0 1.000000 
METALTRUSS022D
0 -136.000000 -88.000008 5.000000 1.000000 0.000000 0.000000 0.000000 0.714800 1 0 1.000000 
0 -136.000000 -84.000008 1.000000 1.000000 0.000000 0.000000 0.062500 0.683600 1 0 1.000000 
0 -136.000000 -84.000008 5.000000 1.000000 0.000000 0.000000 0.000000 0.683600 1 0 1.000000 
METALTRUSS022D
0 -136.000000 -88.000008 1.000000 1.000000 0.000000 0.000000 0.062500 0.714800 1 0 1.000000 
0 -136.000000 -84.000008 1.000000 1.000000 0.000000 0.000000 0.062500 0.683600 1 0 1.000000 
0 -136.000000 -88.000008 5.000000 1.000000 0.000000 0.000000 0.000000 0.714800 1 0 1.000000 
METALTRUSS022D
0 -136.000000 -83.999908 1.000000 0.224896 0.974383 0.000000 0.062500 0.433600 1 0 1.000000 
0 -188.000000 -71.999908 5.000000 0.224896 0.974383 0.000000 0.000000 0.839800 1 0 1.000000 
0 -136.000000 -83.999908 5.000000 0.224896 0.974383 0.000000 0.000000 0.433600 1 0 1.000000 
METALTRUSS022D
0 -188.000000 -71.999908 1.000000 0.224896 0.974383 0.000000 0.062500 0.839800 1 0 1.000000 
0 -188.000000 -71.999908 5.000000 0.224896 0.974383 0.000000 0.000000 0.839800 1 0 1.000000 
0 -136.000000 -83.999908 1.000000 0.224896 0.974383 0.000000 0.062500 0.433600 1 0 1.000000 
METALTRUSS022D
0 -132.000000 -2.000006 64.000000 -0.000000 0.999425 -0.033901 -1.000000 0.683600 1 0 1.000000 
0 -136.000000 -4.000006 5.000000 -0.000000 0.999425 -0.033901 -0.078100 0.714800 1 0 1.000000 
0 -136.000000 -2.000006 64.000000 -0.000000 0.999425 -0.033901 -1.000000 0.714800 1 0 1.000000 
METALTRUSS022D
0 -132.000000 -4.000006 5.000000 -0.000000 0.999425 -0.033901 -0.078100 0.683600 1 0 1.000000 
0 -136.000000 -4.000006 5.000000 -0.000000 0.999425 -0.033901 -0.078100 0.714800 1 0 1.000000 
0 -132.000000 -2.000006 64.000000 -0.000000 0.999425 -0.033901 -1.000000 0.683600 1 0 1.000000 
METALTRUSS022D
0 -132.000000 -2.000006 64.000000 0.000000 0.000000 1.000000 1.992100 0.417900 1 0 1.000000 
0 -136.000000 -6.000006 64.000000 0.000000 0.000000 1.000000 2.054600 0.449200 1 0 1.000000 
0 -132.000000 -6.000006 64.000000 0.000000 0.000000 1.000000 1.992100 0.449200 1 0 1.000000 
METALTRUSS022D
0 -136.000000 -2.000006 64.000000 0.000000 0.000000 1.000000 2.054600 0.417900 1 0 1.000000 
0 -136.000000 -6.000006 64.000000 0.000000 0.000000 1.000000 2.054600 0.449200 1 0 1.000000 
0 -132.000000 -2.000006 64.000000 0.000000 0.000000 1.000000 1.992100 0.417900 1 0 1.000000 
METALTRUSS022D
0 -188.000000 -20.000008 5.000000 -1.000000 -0.000000 0.000000 0.000000 -0.410200 1 0 1.000000 
0 -188.000000 -24.000008 1.000000 -1.000000 -0.000000 0.000000 0.062500 -0.441400 1 0 1.000000 
0 -188.000000 -24.000008 5.000000 -1.000000 -0.000000 0.000000 0.000000 -0.441400 1 0 1.000000 
METALTRUSS022D
0 -188.000000 -20.000008 1.000000 -1.000000 -0.000000 0.000000 0.062500 -0.410200 1 0 1.000000 
0 -188.000000 -24.000008 1.000000 -1.000000 -0.000000 0.000000 0.062500 -0.441400 1 0 1.000000 
0 -188.000000 -20.000008 5.000000 -1.000000 -0.000000 0.000000 0.000000 -0.410200 1 0 1.000000 
METALTRUSS022D
0 -132.000000 -90.000008 64.000000 -0.000000 0.994866 0.101197 -1.061800 -0.426800 1 0 1.000000 
0 -136.000000 -84.000008 5.000000 -0.000000 0.994866 0.101197 -1.137000 0.036000 1 0 1.000000 
0 -136.000000 -90.000008 64.000000 -0.000000 0.994866 0.101197 -1.123600 -0.427200 1 0 1.000000 
METALTRUSS022D
0 -132.000000 -84.000008 5.000000 -0.000000 0.994866 0.101197 -1.075100 0.036500 1 0 1.000000 
0 -136.000000 -84.000008 5.000000 -0.000000 0.994866 0.101197 -1.137000 0.036000 1 0 1.000000 
0 -132.000000 -90.000008 64.000000 -0.000000 0.994866 0.101197 -1.061800 -0.426800 1 0 1.000000 
METALTRUSS022D
0 -136.000000 -94.000008 64.000000 0.000000 -0.994866 -0.101197 2.062700 -0.429000 1 0 1.000000 
0 -132.000000 -88.000008 5.000000 0.000000 -0.994866 -0.101197 1.987200 0.033800 1 0 1.000000 
0 -132.000000 -94.000008 64.000000 0.000000 -0.994866 -0.101197 2.000200 -0.429500 1 0 1.000000 
METALTRUSS022D
0 -136.000000 -88.000008 5.000000 0.000000 -0.994866 -0.101197 2.049700 0.034200 1 0 1.000000 
0 -132.000000 -88.000008 5.000000 0.000000 -0.994866 -0.101197 1.987200 0.033800 1 0 1.000000 
0 -136.000000 -94.000008 64.000000 0.000000 -0.994866 -0.101197 2.062700 -0.429000 1 0 1.000000 
METALTRUSS022D
0 -188.000000 -75.999908 1.000000 -0.224896 -0.974383 0.000000 0.062500 0.839800 1 0 1.000000 
0 -136.000000 -87.999908 5.000000 -0.224896 -0.974383 0.000000 0.000000 0.433600 1 0 1.000000 
0 -188.000000 -75.999908 5.000000 -0.224896 -0.974383 0.000000 0.000000 0.839800 1 0 1.000000 
METALTRUSS022D
0 -136.000000 -87.999908 1.000000 -0.224896 -0.974383 0.000000 0.062500 0.433600 1 0 1.000000 
0 -136.000000 -87.999908 5.000000 -0.224896 -0.974383 0.000000 0.000000 0.433600 1 0 1.000000 
0 -188.000000 -75.999908 1.000000 -0.224896 -0.974383 0.000000 0.062500 0.839800 1 0 1.000000 
METALTRUSS022D
0 -105.000000 1.469995 111.000000 0.000000 0.000000 1.000000 -1.336900 0.025400 1 0 1.000000 
0 -83.999901 15.999996 111.000000 0.000000 0.000000 1.000000 -1.481200 -0.138200 1 0 1.000000 
0 -105.000000 9.469995 111.000000 0.000000 0.000000 1.000000 -1.415100 0.025600 1 0 1.000000 
METALTRUSS022D
0 -83.999901 7.999996 111.000000 0.000000 0.000000 1.000000 -1.403000 -0.138500 1 0 1.000000 
0 -83.999901 15.999996 111.000000 0.000000 0.000000 1.000000 -1.481200 -0.138200 1 0 1.000000 
0 -105.000000 1.469995 111.000000 0.000000 0.000000 1.000000 -1.336900 0.025400 1 0 1.000000 
METALTRUSS022D
0 -84.000000 15.999996 111.000000 0.756171 0.000000 -0.654374 0.032600 -0.106500 1 0 1.000000 
0 -264.000000 -48.000011 -96.999603 0.756171 0.000000 -0.654374 -0.061600 2.041300 1 0 1.000000 
0 -264.000000 -39.999912 -96.999603 0.756171 0.000000 -0.654374 0.060700 2.028800 1 0 1.000000 
METALTRUSS022D
0 -84.000000 7.999996 111.000000 0.756171 0.000000 -0.654374 -0.089700 -0.094000 1 0 1.000000 
0 -264.000000 -48.000011 -96.999603 0.756171 0.000000 -0.654374 -0.061600 2.041300 1 0 1.000000 
0 -84.000000 15.999996 111.000000 0.756171 0.000000 -0.654374 0.032600 -0.106500 1 0 1.000000 
METALTRUSS022D
0 -83.999992 -104.000000 111.000000 0.756171 0.000000 -0.654374 0.979700 -0.966900 1 0 1.000000 
0 -264.000000 -56.000011 -96.999603 0.756171 0.000000 -0.654374 1.046900 1.069900 1 0 1.000000 
0 -264.000000 -48.000011 -96.999603 0.756171 0.000000 -0.654374 0.924100 1.080700 1 0 1.000000 
METALTRUSS022D
0 -83.999992 -112.000000 111.000000 0.756171 0.000000 -0.654374 1.102500 -0.977700 1 0 1.000000 
0 -264.000000 -56.000011 -96.999603 0.756171 0.000000 -0.654374 1.046900 1.069900 1 0 1.000000 
0 -83.999992 -104.000000 111.000000 0.756171 0.000000 -0.654374 0.979700 -0.966900 1 0 1.000000 
METALTRUSS022D
0 -253.000000 -48.000011 40.000000 0.647483 -0.762080 0.000000 -0.593800 1.232200 1 0 1.000000 
0 -100.000000 81.999992 32.000000 0.647483 -0.762080 0.000000 -0.468800 -0.185200 1 0 1.000000 
0 -100.000000 81.999992 40.000000 0.647483 -0.762080 0.000000 -0.593800 -0.185200 1 0 1.000000 
METALTRUSS022D
0 -253.000000 -48.000011 32.000000 0.647483 -0.762080 0.000000 -0.468800 1.232200 1 0 1.000000 
0 -100.000000 81.999992 32.000000 0.647483 -0.762080 0.000000 -0.468800 -0.185200 1 0 1.000000 
0 -253.000000 -48.000011 40.000000 0.647483 -0.762080 0.000000 -0.593800 1.232200 1 0 1.000000 
METALTRUSS022D
0 -296.000000 -48.000011 32.000000 0.000000 -1.000000 0.000000 -0.500000 1.500000 1 0 1.000000 
0 -253.000000 -48.000011 40.000000 0.000000 -1.000000 0.000000 -0.625000 1.164100 1 0 1.000000 
0 -296.000000 -48.000011 40.000000 0.000000 -1.000000 0.000000 -0.625000 1.500000 1 0 1.000000 
METALTRUSS022D
0 -253.000000 -48.000011 32.000000 0.000000 -1.000000 0.000000 -0.500000 1.164100 1 0 1.000000 
0 -253.000000 -48.000011 40.000000 0.000000 -1.000000 0.000000 -0.625000 1.164100 1 0 1.000000 
0 -296.000000 -48.000011 32.000000 0.000000 -1.000000 0.000000 -0.500000 1.500000 1 0 1.000000 
METALTRUSS022D
0 -100.000000 81.999992 32.000000 1.000000 0.000000 0.000000 1.281300 0.375000 1 0 1.000000 
0 -100.000008 114.327789 40.000000 1.000000 0.000000 0.000000 1.786400 0.312500 1 0 1.000000 
0 -100.000000 81.999992 40.000000 1.000000 0.000000 0.000000 1.281300 0.312500 1 0 1.000000 
METALTRUSS022D
0 -100.000008 114.327789 32.000000 1.000000 0.000000 0.000000 1.786400 0.375000 1 0 1.000000 
0 -100.000008 114.327789 40.000000 1.000000 0.000000 0.000000 1.786400 0.312500 1 0 1.000000 
0 -100.000000 81.999992 32.000000 1.000000 0.000000 0.000000 1.281300 0.375000 1 0 1.000000 
METALTRUSS022D
0 -100.000008 114.327896 40.000000 -0.637860 0.770152 0.000000 0.531300 -0.000000 1 0 1.000000 
0 -295.999908 -48.000011 32.000000 -0.637860 0.770152 0.000000 0.406300 -1.988200 1 0 1.000000 
0 -295.999908 -48.000011 40.000000 -0.637860 0.770152 0.000000 0.531300 -1.988200 1 0 1.000000 
METALTRUSS022D
0 -100.000008 114.327896 32.000000 -0.637860 0.770152 0.000000 0.406300 -0.000000 1 0 1.000000 
0 -295.999908 -48.000011 32.000000 -0.637860 0.770152 0.000000 0.406300 -1.988200 1 0 1.000000 
0 -100.000008 114.327896 40.000000 -0.637860 0.770152 0.000000 0.531300 -0.000000 1 0 1.000000 
METALTRUSS022D
0 -296.000000 -56.000011 212.000000 0.000000 0.000000 1.000000 0.906300 -2.693400 1 0 1.000000 
0 -264.000000 -40.000011 212.000000 0.000000 0.000000 1.000000 0.656300 -2.443400 1 0 1.000000 
0 -296.000000 -40.000011 212.000000 0.000000 0.000000 1.000000 0.656300 -2.693400 1 0 1.000000 
METALTRUSS022D
0 -264.000000 -56.000011 212.000000 0.000000 0.000000 1.000000 0.906300 -2.443400 1 0 1.000000 
0 -264.000000 -40.000011 212.000000 0.000000 0.000000 1.000000 0.656300 -2.443400 1 0 1.000000 
0 -296.000000 -56.000011 212.000000 0.000000 0.000000 1.000000 0.906300 -2.693400 1 0 1.000000 
METALTRUSS022D
0 -264.000000 -56.000011 -128.000000 0.000000 0.000000 -1.000000 0.906300 1.400400 1 0 1.000000 
0 -296.000000 -40.000011 -128.000000 0.000000 0.000000 -1.000000 0.656300 1.650400 1 0 1.000000 
0 -264.000000 -40.000011 -128.000000 0.000000 0.000000 -1.000000 0.656300 1.400400 1 0 1.000000 
METALTRUSS022D
0 -296.000000 -56.000011 -128.000000 0.000000 0.000000 -1.000000 0.906300 1.650400 1 0 1.000000 
0 -296.000000 -40.000011 -128.000000 0.000000 0.000000 -1.000000 0.656300 1.650400 1 0 1.000000 
0 -264.000000 -56.000011 -128.000000 0.000000 0.000000 -1.000000 0.906300 1.400400 1 0 1.000000 
METALTRUSS022D
0 -100.000008 114.327789 32.000000 0.000000 0.000000 -1.000000 -1.958400 0.784400 1 0 1.000000 
0 -253.000000 -48.000011 32.000000 0.000000 0.000000 -1.000000 -1.529800 -0.945100 1 0 1.000000 
0 -295.999695 -48.000011 32.000000 0.000000 0.000000 -1.000000 -1.958400 -1.203800 1 0 1.000000 
METALTRUSS022D
0 -100.000000 81.999992 32.000000 0.000000 0.000000 -1.000000 -1.569300 0.623300 1 0 1.000000 
0 -253.000000 -48.000011 32.000000 0.000000 0.000000 -1.000000 -1.529800 -0.945100 1 0 1.000000 
0 -100.000008 114.327789 32.000000 0.000000 0.000000 -1.000000 -1.958400 0.784400 1 0 1.000000 
METALTRUSS022D
0 -100.000000 81.999992 40.000000 0.000000 0.000000 1.000000 -1.567600 0.623900 1 0 1.000000 
0 -295.999695 -48.000011 40.000000 0.000000 0.000000 1.000000 -1.956600 -1.203200 1 0 1.000000 
0 -253.000000 -48.000011 40.000000 0.000000 0.000000 1.000000 -1.528100 -0.944500 1 0 1.000000 
METALTRUSS022D
0 -100.000008 114.327789 40.000000 0.000000 0.000000 1.000000 -1.956600 0.785000 1 0 1.000000 
0 -295.999695 -48.000011 40.000000 0.000000 0.000000 1.000000 -1.956600 -1.203200 1 0 1.000000 
0 -100.000000 81.999992 40.000000 0.000000 0.000000 1.000000 -1.567600 0.623900 1 0 1.000000 
METALTRUSS022D
0 -221.999802 77.999992 27.000000 0.000000 -1.000000 0.000000 0.468800 -1.132800 1 0 1.000000 
0 230.000000 78.000008 -3.000000 0.000000 -1.000000 0.000000 0.000000 2.398400 1 0 1.000000 
0 230.000000 78.000008 27.000000 0.000000 -1.000000 0.000000 0.468800 2.398400 1 0 1.000000 
METALTRUSS022D
0 -221.999802 77.999992 -3.000000 0.000000 -1.000000 0.000000 0.000000 -1.132800 1 0 1.000000 
0 230.000000 78.000008 -3.000000 0.000000 -1.000000 0.000000 0.000000 2.398400 1 0 1.000000 
0 -221.999802 77.999992 27.000000 0.000000 -1.000000 0.000000 0.468800 -1.132800 1 0 1.000000 
METALTRUSS022D
0 230.000000 78.000008 -3.000000 -1.000000 -0.000000 0.000000 0.000000 0.312500 1 0 1.000000 
0 230.000000 -9.999990 -3.000000 -1.000000 -0.000000 0.000000 0.000000 1.000000 1 0 1.000000 
0 230.000000 78.000008 27.000000 -1.000000 -0.000000 0.000000 0.468800 0.312500 1 0 1.000000 
METALTRUSS022D
0 230.000000 78.000008 27.000000 -1.000000 -0.000000 0.000000 0.468800 0.312500 1 0 1.000000 
0 230.000000 -9.999990 -3.000000 -1.000000 -0.000000 0.000000 0.000000 1.000000 1 0 1.000000 
0 230.000000 -9.999990 27.000000 -1.000000 -0.000000 0.000000 0.468800 1.000000 1 0 1.000000 
METALTRUSS022D
0 -221.999802 77.999992 -79.000000 0.000000 -1.000000 0.000000 -1.000000 -1.085900 1 0 1.000000 
0 230.000000 78.000008 -79.000000 0.000000 -1.000000 0.000000 -1.000000 2.445300 1 0 1.000000 
0 -221.999802 77.999992 -47.000000 0.000000 -1.000000 0.000000 -0.500000 -1.085900 1 0 1.000000 
METALTRUSS022D
0 -221.999802 77.999992 -47.000000 0.000000 -1.000000 0.000000 -0.500000 -1.085900 1 0 1.000000 
0 230.000000 78.000008 -79.000000 0.000000 -1.000000 0.000000 -1.000000 2.445300 1 0 1.000000 
0 230.000000 78.000008 -47.000000 0.000000 -1.000000 0.000000 -0.500000 2.445300 1 0 1.000000 
METALTRUSS022D
0 232.000000 -9.999990 -79.000000 1.000000 0.000000 0.000000 -1.000000 -0.156200 1 0 1.000000 
0 232.000000 79.999710 -79.000000 1.000000 0.000000 0.000000 -1.000000 0.546900 1 0 1.000000 
0 232.000000 -9.999990 -47.000000 1.000000 0.000000 0.000000 -0.500000 -0.156200 1 0 1.000000 
METALTRUSS022D
0 232.000000 -9.999990 -47.000000 1.000000 0.000000 0.000000 -0.500000 -0.156200 1 0 1.000000 
0 232.000000 79.999710 -79.000000 1.000000 0.000000 0.000000 -1.000000 0.546900 1 0 1.000000 
0 232.000000 79.999710 -47.000000 1.000000 0.000000 0.000000 -0.500000 0.546900 1 0 1.000000 
METALTRUSS022D
0 230.000000 78.000008 -79.000000 -1.000000 -0.000000 0.000000 -1.000000 0.312500 1 0 1.000000 
0 230.000000 -9.999990 -79.000000 -1.000000 -0.000000 0.000000 -1.000000 1.000000 1 0 1.000000 
0 230.000000 78.000008 -47.000000 -1.000000 -0.000000 0.000000 -0.500000 0.312500 1 0 1.000000 
METALTRUSS022D
0 230.000000 78.000008 -47.000000 -1.000000 -0.000000 0.000000 -0.500000 0.312500 1 0 1.000000 
0 230.000000 -9.999990 -79.000000 -1.000000 -0.000000 0.000000 -1.000000 1.000000 1 0 1.000000 
0 230.000000 -9.999990 -47.000000 -1.000000 -0.000000 0.000000 -0.500000 1.000000 1 0 1.000000 
METALTRUSS022D
0 168.000000 -113.999992 -79.000000 1.000000 0.000000 0.000000 -1.000000 -1.453100 1 0 1.000000 
0 168.000000 18.000008 -79.000000 1.000000 0.000000 0.000000 -1.000000 -0.421900 1 0 1.000000 
0 168.000000 -113.999992 -47.000000 1.000000 0.000000 0.000000 -0.500000 -1.453100 1 0 1.000000 
METALTRUSS022D
0 168.000000 -113.999992 -47.000000 1.000000 0.000000 0.000000 -0.500000 -1.453100 1 0 1.000000 
0 168.000000 18.000008 -79.000000 1.000000 0.000000 0.000000 -1.000000 -0.421900 1 0 1.000000 
0 168.000000 18.000008 -47.000000 1.000000 0.000000 0.000000 -0.500000 -0.421900 1 0 1.000000 
METALTRUSS022D
0 166.000000 16.000008 -79.000000 -1.000000 -0.000000 0.000000 -1.000000 -0.437500 1 0 1.000000 
0 166.000000 -113.999992 -79.000000 -1.000000 -0.000000 0.000000 -1.000000 -1.453100 1 0 1.000000 
0 166.000000 16.000008 -47.000000 -1.000000 -0.000000 0.000000 -0.500000 -0.437500 1 0 1.000000 
METALTRUSS022D
0 166.000000 16.000008 -47.000000 -1.000000 -0.000000 0.000000 -0.500000 -0.437500 1 0 1.000000 
0 166.000000 -113.999992 -79.000000 -1.000000 -0.000000 0.000000 -1.000000 -1.453100 1 0 1.000000 
0 166.000000 -113.999992 -47.000000 -1.000000 -0.000000 0.000000 -0.500000 -1.453100 1 0 1.000000 
METALTRUSS022D
0 232.000000 -9.999990 -3.000000 1.000000 0.000000 0.000000 0.000000 1.000000 1 0 1.000000 
0 232.000000 79.999710 -3.000000 1.000000 0.000000 0.000000 0.000000 0.296900 1 0 1.000000 
0 232.000000 -9.999990 27.000000 1.000000 0.000000 0.000000 0.468800 1.000000 1 0 1.000000 
METALTRUSS022D
0 232.000000 -9.999990 27.000000 1.000000 0.000000 0.000000 0.468800 1.000000 1 0 1.000000 
0 232.000000 79.999710 -3.000000 1.000000 0.000000 0.000000 0.000000 0.296900 1 0 1.000000 
0 232.000000 79.999710 27.000000 1.000000 0.000000 0.000000 0.468800 0.296900 1 0 1.000000 
METALTRUSS022D
0 -224.000000 15.999990 -3.000000 0.000000 -1.000000 0.000000 0.000000 -1.632800 1 0 1.000000 
0 166.000000 16.000008 -3.000000 0.000000 -1.000000 0.000000 0.000000 1.414100 1 0 1.000000 
0 -224.000000 15.999990 27.000000 0.000000 -1.000000 0.000000 0.468800 -1.632800 1 0 1.000000 
METALTRUSS022D
0 -224.000000 15.999990 27.000000 0.000000 -1.000000 0.000000 0.468800 -1.632800 1 0 1.000000 
0 166.000000 16.000008 -3.000000 0.000000 -1.000000 0.000000 0.000000 1.414100 1 0 1.000000 
0 166.000000 16.000008 27.000000 0.000000 -1.000000 0.000000 0.468800 1.414100 1 0 1.000000 
METALTRUSS022D
0 168.000000 18.000008 -3.000000 -0.000000 1.000000 0.000000 0.000000 1.914100 1 0 1.000000 
0 -222.000000 17.999990 -3.000000 -0.000000 1.000000 0.000000 0.000000 -1.132800 1 0 1.000000 
0 168.000000 18.000008 27.000000 -0.000000 1.000000 0.000000 0.468800 1.914100 1 0 1.000000 
METALTRUSS022D
0 168.000000 18.000008 27.000000 -0.000000 1.000000 0.000000 0.468800 1.914100 1 0 1.000000 
0 -222.000000 17.999990 -3.000000 -0.000000 1.000000 0.000000 0.000000 -1.132800 1 0 1.000000 
0 -222.000000 17.999990 27.000000 -0.000000 1.000000 0.000000 0.468800 -1.132800 1 0 1.000000 
METALTRUSS022D
0 232.000000 80.000008 -3.000000 -0.000000 1.000000 0.000000 0.000000 2.414100 1 0 1.000000 
0 -224.000000 79.999992 -3.000000 -0.000000 1.000000 0.000000 0.000000 -1.148400 1 0 1.000000 
0 232.000000 80.000008 27.000000 -0.000000 1.000000 0.000000 0.468800 2.414100 1 0 1.000000 
METALTRUSS022D
0 232.000000 80.000008 27.000000 -0.000000 1.000000 0.000000 0.468800 2.414100 1 0 1.000000 
0 -224.000000 79.999992 -3.000000 -0.000000 1.000000 0.000000 0.000000 -1.148400 1 0 1.000000 
0 -224.000000 79.999992 27.000000 -0.000000 1.000000 0.000000 0.468800 -1.148400 1 0 1.000000 
METALTRUSS022D
0 -224.000000 79.999992 -3.000000 -1.000000 -0.000000 0.000000 0.000000 -0.500000 1 0 1.000000 
0 -224.000000 15.999690 -3.000000 -1.000000 -0.000000 0.000000 0.000000 -0.000000 1 0 1.000000 
0 -224.000000 79.999992 27.000000 -1.000000 -0.000000 0.000000 0.468800 -0.500000 1 0 1.000000 
METALTRUSS022D
0 -224.000000 79.999992 27.000000 -1.000000 -0.000000 0.000000 0.468800 -0.500000 1 0 1.000000 
0 -224.000000 15.999690 -3.000000 -1.000000 -0.000000 0.000000 0.000000 -0.000000 1 0 1.000000 
0 -224.000000 15.999690 27.000000 -1.000000 -0.000000 0.000000 0.468800 -0.000000 1 0 1.000000 
METALTRUSS022D
0 -222.000000 17.999990 -3.000000 1.000000 0.000000 0.000000 0.000000 -0.000000 1 0 1.000000 
0 -222.000000 77.999992 -3.000000 1.000000 0.000000 0.000000 0.000000 -0.468700 1 0 1.000000 
0 -222.000000 17.999990 27.000000 1.000000 0.000000 0.000000 0.468800 -0.000000 1 0 1.000000 
METALTRUSS022D
0 -222.000000 17.999990 27.000000 1.000000 0.000000 0.000000 0.468800 -0.000000 1 0 1.000000 
0 -222.000000 77.999992 -3.000000 1.000000 0.000000 0.000000 0.000000 -0.468700 1 0 1.000000 
0 -222.000000 77.999992 27.000000 1.000000 0.000000 0.000000 0.468800 -0.468700 1 0 1.000000 
METALTRUSS022D
0 168.000000 -113.999992 -3.000000 1.000000 0.000000 0.000000 0.000000 1.015600 1 0 1.000000 
0 168.000000 18.000008 -3.000000 1.000000 0.000000 0.000000 0.000000 -0.015600 1 0 1.000000 
0 168.000000 -113.999992 27.000000 1.000000 0.000000 0.000000 0.468800 1.015600 1 0 1.000000 
METALTRUSS022D
0 168.000000 -113.999992 27.000000 1.000000 0.000000 0.000000 0.468800 1.015600 1 0 1.000000 
0 168.000000 18.000008 -3.000000 1.000000 0.000000 0.000000 0.000000 -0.015600 1 0 1.000000 
0 168.000000 18.000008 27.000000 1.000000 0.000000 0.000000 0.468800 -0.015600 1 0 1.000000 
METALTRUSS022D
0 166.000000 16.000008 -3.000000 -1.000000 -0.000000 0.000000 0.000000 -0.000000 1 0 1.000000 
0 166.000000 -113.999992 -3.000000 -1.000000 -0.000000 0.000000 0.000000 1.015600 1 0 1.000000 
0 166.000000 16.000008 27.000000 -1.000000 -0.000000 0.000000 0.468800 -0.000000 1 0 1.000000 
METALTRUSS022D
0 166.000000 16.000008 27.000000 -1.000000 -0.000000 0.000000 0.468800 -0.000000 1 0 1.000000 
0 166.000000 -113.999992 -3.000000 -1.000000 -0.000000 0.000000 0.000000 1.015600 1 0 1.000000 
0 166.000000 -113.999992 27.000000 -1.000000 -0.000000 0.000000 0.468800 1.015600 1 0 1.000000 
METALTRUSS022D
0 -83.999893 -104.000000 111.000000 0.296902 0.954908 0.000100 -1.020300 -0.966800 1 0 1.000000 
0 -264.000000 -47.999912 -97.000000 0.296994 0.954879 0.000100 -1.075900 1.080700 1 0 1.000000 
0 -104.999992 -97.469910 111.000000 0.296994 0.954879 0.000100 -1.277300 -0.857800 1 0 1.000000 
METALTRUSS022D
0 -104.999992 -97.469910 111.000000 0.296994 0.954879 0.000100 -1.277300 -0.857800 1 0 1.000000 
0 -264.000000 -47.999912 -97.000000 0.296994 0.954879 0.000100 -1.075900 1.080700 1 0 1.000000 
0 -264.000000 -47.999912 -81.000000 0.297085 0.954851 0.000000 -1.241100 0.995100 1 0 1.000000 
METALTRUSS022D
0 -84.000000 15.999996 111.000000 -0.296902 0.954908 -0.000100 -1.037500 -1.093600 1 0 1.000000 
0 -264.000000 -40.000011 -97.000000 -0.296994 0.954879 -0.000100 -1.009400 1.041600 1 0 1.000000 
0 -105.000000 9.469995 111.000000 -0.296994 0.954879 -0.000100 -1.284700 -0.974300 1 0 1.000000 
METALTRUSS022D
0 -105.000000 9.469995 111.000000 -0.296994 0.954879 -0.000100 -1.284700 -0.974300 1 0 1.000000 
0 -264.000000 -40.000011 -97.000000 -0.296994 0.954879 -0.000100 -1.009400 1.041600 1 0 1.000000 
0 -264.000000 -40.000011 -81.000000 -0.297085 0.954851 0.000000 -1.174600 0.956000 1 0 1.000000 
METALTRUSS022D
0 -83.999992 -112.000000 111.000000 -0.296902 -0.954908 -0.000100 -1.000000 -1.000000 1 0 1.000000 
0 -104.999992 -105.469910 111.000000 -0.296994 -0.954879 -0.000100 -1.257000 -0.890900 1 0 1.000000 
0 -264.000000 -55.999912 -96.999901 -0.296994 -0.954879 -0.000100 -1.055700 1.047600 1 0 1.000000 
METALTRUSS022D
0 -264.000000 -55.999912 -96.999901 -0.296994 -0.954879 -0.000100 -1.055700 1.047600 1 0 1.000000 
0 -104.999992 -105.469910 111.000000 -0.296994 -0.954879 -0.000100 -1.257000 -0.890900 1 0 1.000000 
0 -264.000000 -55.999912 -81.000000 -0.297085 -0.954851 0.000000 -1.220900 0.962000 1 0 1.000000 
METALTRUSS022D
0 -84.000000 7.999996 111.000000 0.296902 -0.954908 0.000100 -1.089700 -1.094000 1 0 1.000000 
0 -105.000000 1.469895 111.000000 0.296994 -0.954879 0.000100 -1.336900 -0.974600 1 0 1.000000 
0 -264.000000 -48.000011 -96.999702 0.296994 -0.954879 0.000100 -1.061600 1.041300 1 0 1.000000 
METALTRUSS022D
0 -264.000000 -48.000011 -96.999702 0.296994 -0.954879 0.000100 -1.061600 1.041300 1 0 1.000000 
0 -105.000000 1.469895 111.000000 0.296994 -0.954879 0.000100 -1.336900 -0.974600 1 0 1.000000 
0 -264.000000 -48.000011 -81.000000 0.297085 -0.954851 0.000000 -1.226800 0.955700 1 0 1.000000 
METALTRUSS022D
0 -264.000000 -56.000011 212.000000 1.000000 0.000000 0.000000 0.906300 1.275400 1 0 1.000000 
0 -264.000000 -56.000011 -128.000000 1.000000 0.000000 0.000000 0.906300 -1.380900 1 0 1.000000 
0 -264.000000 -40.000011 212.000000 1.000000 0.000000 0.000000 0.656300 1.275400 1 0 1.000000 
METALTRUSS022D
0 -264.000000 -40.000011 212.000000 1.000000 0.000000 0.000000 0.656300 1.275400 1 0 1.000000 
0 -264.000000 -56.000011 -128.000000 1.000000 0.000000 0.000000 0.906300 -1.380900 1 0 1.000000 
0 -264.000000 -40.000011 -128.000000 1.000000 0.000000 0.000000 0.656300 -1.380900 1 0 1.000000 
METALTRUSS022D
0 -296.000000 -40.000011 212.000000 -1.000000 -0.000000 0.000000 0.656300 1.306600 1 0 1.000000 
0 -296.000000 -40.000011 -128.000000 -1.000000 -0.000000 0.000000 0.656300 -1.349600 1 0 1.000000 
0 -296.000000 -56.000011 212.000000 -1.000000 -0.000000 0.000000 0.906300 1.306600 1 0 1.000000 
METALTRUSS022D
0 -296.000000 -56.000011 212.000000 -1.000000 -0.000000 0.000000 0.906300 1.306600 1 0 1.000000 
0 -296.000000 -40.000011 -128.000000 -1.000000 -0.000000 0.000000 0.656300 -1.349600 1 0 1.000000 
0 -296.000000 -56.000011 -128.000000 -1.000000 -0.000000 0.000000 0.906300 -1.349600 1 0 1.000000 
METALTRUSS022D
0 -264.000000 -48.000011 -81.000000 -1.000000 -0.000000 0.000000 0.437500 0.750000 1 0 1.000000 
0 -264.000000 -56.000011 -97.000000 -1.000000 -0.000000 0.000000 0.500000 0.765600 1 0 1.000000 
0 -264.000000 -56.000011 -81.000000 -1.000000 -0.000000 0.000000 0.437500 0.765600 1 0 1.000000 
METALTRUSS022D
0 -264.000000 -48.000011 -97.000000 -1.000000 -0.000000 0.000000 0.500000 0.750000 1 0 1.000000 
0 -264.000000 -56.000011 -97.000000 -1.000000 -0.000000 0.000000 0.500000 0.765600 1 0 1.000000 
0 -264.000000 -48.000011 -81.000000 -1.000000 -0.000000 0.000000 0.437500 0.750000 1 0 1.000000 
METALTRUSS022D
0 -264.000000 -39.999813 -81.000000 -1.000000 -0.000000 0.000000 0.437500 0.734400 1 0 1.000000 
0 -264.000000 -48.000011 -97.000000 -1.000000 -0.000000 0.000000 0.500000 0.750000 1 0 1.000000 
0 -264.000000 -48.000011 -81.000000 -1.000000 -0.000000 0.000000 0.437500 0.750000 1 0 1.000000 
METALTRUSS022D
0 -264.000000 -39.999813 -97.000000 -1.000000 -0.000000 0.000000 0.500000 0.734400 1 0 1.000000 
0 -264.000000 -48.000011 -97.000000 -1.000000 -0.000000 0.000000 0.500000 0.750000 1 0 1.000000 
0 -264.000000 -39.999813 -81.000000 -1.000000 -0.000000 0.000000 0.437500 0.734400 1 0 1.000000 
METALTRUSS022D
0 -105.000000 9.469995 111.000000 -0.770201 -0.000000 0.637801 -1.415100 -0.974400 1 0 1.000000 
0 -264.000000 -40.000011 -80.999901 -0.770201 -0.000000 0.637801 -1.305000 0.956000 1 0 1.000000 
0 -105.000000 1.469895 111.000000 -0.770201 -0.000000 0.637801 -1.336900 -0.974600 1 0 1.000000 
METALTRUSS022D
0 -105.000000 1.469895 111.000000 -0.770201 -0.000000 0.637801 -1.336900 -0.974600 1 0 1.000000 
0 -264.000000 -40.000011 -80.999901 -0.770201 -0.000000 0.637801 -1.305000 0.956000 1 0 1.000000 
0 -264.000000 -48.000011 -80.999901 -0.770201 -0.000000 0.637801 -1.226800 0.955700 1 0 1.000000 
METALTRUSS022D
0 -104.999992 -97.470009 111.000000 -0.770201 -0.000000 0.637801 0.620600 -0.879000 1 0 1.000000 
0 -264.000000 -48.000011 -80.999901 -0.770201 -0.000000 0.637801 0.656800 0.973900 1 0 1.000000 
0 -104.999992 -105.470009 111.000000 -0.770201 -0.000000 0.637801 0.743000 -0.890900 1 0 1.000000 
METALTRUSS022D
0 -104.999992 -105.470009 111.000000 -0.770201 -0.000000 0.637801 0.743000 -0.890900 1 0 1.000000 
0 -264.000000 -48.000011 -80.999901 -0.770201 -0.000000 0.637801 0.656800 0.973900 1 0 1.000000 
0 -264.000000 -56.000011 -80.999901 -0.770201 -0.000000 0.637801 0.779100 0.962000 1 0 1.000000 
METALTRUSS022D
0 -83.999893 -112.000000 111.000000 0.000000 0.000000 1.000000 1.780000 -0.061700 1 0 1.000000 
0 -83.999893 -104.000000 111.000000 0.000000 0.000000 1.000000 1.657600 -0.049800 1 0 1.000000 
0 -104.999992 -105.470009 111.000000 0.000000 0.000000 1.000000 1.743000 0.109100 1 0 1.000000 
METALTRUSS022D
0 -104.999992 -105.470009 111.000000 0.000000 0.000000 1.000000 1.743000 0.109100 1 0 1.000000 
0 -83.999893 -104.000000 111.000000 0.000000 0.000000 1.000000 1.657600 -0.049800 1 0 1.000000 
0 -104.999992 -97.470009 111.000000 0.000000 0.000000 1.000000 1.620600 0.121000 1 0 1.000000 
METALTRUSS022D
0 -188.000000 -20.000008 1.000000 -0.294093 0.955777 0.000000 0.062500 0.839800 1 0 1.000000 
0 -188.000000 -20.000008 5.000000 -0.294093 0.955777 0.000000 0.000000 0.839800 1 0 1.000000 
0 -136.000000 -4.000006 1.000000 -0.294093 0.955777 0.000000 0.062500 0.433600 1 0 1.000000 
METALTRUSS022D
0 -136.000000 -4.000006 1.000000 -0.294093 0.955777 0.000000 0.062500 0.433600 1 0 1.000000 
0 -188.000000 -20.000008 5.000000 -0.294093 0.955777 0.000000 0.000000 0.839800 1 0 1.000000 
0 -136.000000 -4.000006 5.000000 -0.294093 0.955777 0.000000 0.000000 0.433600 1 0 1.000000 
METALTRUSS022D
0 -136.000000 -8.000006 5.000000 0.000000 -0.999425 0.033901 -0.078100 1.031300 1 0 1.000000 
0 -132.000000 -8.000006 5.000000 0.000000 -0.999425 0.033901 -0.078100 1.000000 1 0 1.000000 
0 -136.000000 -6.000006 64.000000 0.000000 -0.999425 0.033901 -1.000000 1.031300 1 0 1.000000 
METALTRUSS022D
0 -136.000000 -6.000006 64.000000 0.000000 -0.999425 0.033901 -1.000000 1.031300 1 0 1.000000 
0 -132.000000 -8.000006 5.000000 0.000000 -0.999425 0.033901 -0.078100 1.000000 1 0 1.000000 
0 -132.000000 -6.000006 64.000000 0.000000 -0.999425 0.033901 -1.000000 1.000000 1 0 1.000000 
METALTRUSS022D
0 -132.000000 -3.999906 5.000000 0.000000 0.000000 -1.000000 1.992100 0.433600 1 0 1.000000 
0 -132.000000 -8.000006 5.000000 0.000000 0.000000 -1.000000 1.992100 0.464800 1 0 1.000000 
0 -136.000000 -3.999906 5.000000 0.000000 0.000000 -1.000000 2.054600 0.433600 1 0 1.000000 
METALTRUSS022D
0 -136.000000 -3.999906 5.000000 0.000000 0.000000 -1.000000 2.054600 0.433600 1 0 1.000000 
0 -132.000000 -8.000006 5.000000 0.000000 0.000000 -1.000000 1.992100 0.464800 1 0 1.000000 
0 -136.000000 -8.000006 5.000000 0.000000 0.000000 -1.000000 2.054600 0.464800 1 0 1.000000 
METALTRUSS022D
0 -188.000000 -72.000008 1.000000 -1.000000 -0.000000 0.000000 0.062500 0.589800 1 0 1.000000 
0 -188.000000 -76.000008 1.000000 -1.000000 -0.000000 0.000000 0.062500 0.621100 1 0 1.000000 
0 -188.000000 -72.000008 5.000000 -1.000000 -0.000000 0.000000 0.000000 0.589800 1 0 1.000000 
METALTRUSS022D
0 -188.000000 -72.000008 5.000000 -1.000000 -0.000000 0.000000 0.000000 0.589800 1 0 1.000000 
0 -188.000000 -76.000008 1.000000 -1.000000 -0.000000 0.000000 0.062500 0.621100 1 0 1.000000 
0 -188.000000 -76.000008 5.000000 -1.000000 -0.000000 0.000000 0.000000 0.621100 1 0 1.000000 
METALTRUSS022D
0 -136.000000 -7.999906 1.000000 0.294093 -0.955777 0.000000 0.062500 0.433600 1 0 1.000000 
0 -136.000000 -7.999906 5.000000 0.294093 -0.955777 0.000000 0.000000 0.433600 1 0 1.000000 
0 -188.000000 -23.999908 1.000000 0.294093 -0.955777 0.000000 0.062500 0.839800 1 0 1.000000 
METALTRUSS022D
0 -188.000000 -23.999908 1.000000 0.294093 -0.955777 0.000000 0.062500 0.839800 1 0 1.000000 
0 -136.000000 -7.999906 5.000000 0.294093 -0.955777 0.000000 0.000000 0.433600 1 0 1.000000 
0 -188.000000 -23.999908 5.000000 0.294093 -0.955777 0.000000 0.000000 0.839800 1 0 1.000000 
METALTRUSS022D
0 -132.000000 -4.000006 5.000000 1.000000 0.000000 0.000000 -0.078100 0.433600 1 0 1.000000 
0 -132.000000 -2.000006 64.000000 1.000000 0.000000 0.000000 -1.000000 0.417900 1 0 1.000000 
0 -132.000000 -8.000006 5.000000 1.000000 0.000000 0.000000 -0.078100 0.464800 1 0 1.000000 
METALTRUSS022D
0 -132.000000 -8.000006 5.000000 1.000000 0.000000 0.000000 -0.078100 0.464800 1 0 1.000000 
0 -132.000000 -2.000006 64.000000 1.000000 0.000000 0.000000 -1.000000 0.417900 1 0 1.000000 
0 -132.000000 -6.000006 64.000000 1.000000 0.000000 0.000000 -1.000000 0.449200 1 0 1.000000 
METALTRUSS022D
0 -136.000000 -4.000006 5.000000 -1.000000 -0.000000 0.000000 -0.078100 0.433600 1 0 1.000000 
0 -136.000000 -8.000006 5.000000 -1.000000 -0.000000 0.000000 -0.078100 0.464800 1 0 1.000000 
0 -136.000000 -2.000006 64.000000 -1.000000 -0.000000 0.000000 -1.000000 0.417900 1 0 1.000000 
METALTRUSS022D
0 -136.000000 -2.000006 64.000000 -1.000000 -0.000000 0.000000 -1.000000 0.417900 1 0 1.000000 
0 -136.000000 -8.000006 5.000000 -1.000000 -0.000000 0.000000 -0.078100 0.464800 1 0 1.000000 
0 -136.000000 -6.000006 64.000000 -1.000000 -0.000000 0.000000 -1.000000 0.449200 1 0 1.000000 
METALTRUSS022D
0 -188.000000 -76.000008 1.000000 0.000000 0.000000 -1.000000 1.242100 0.839800 1 0 1.000000 
0 -188.000000 -72.000008 1.000000 0.000000 0.000000 -1.000000 1.179600 0.839800 1 0 1.000000 
0 -136.000000 -88.000008 1.000000 0.000000 0.000000 -1.000000 1.429600 0.433600 1 0 1.000000 
METALTRUSS022D
0 -136.000000 -88.000008 1.000000 0.000000 0.000000 -1.000000 1.429600 0.433600 1 0 1.000000 
0 -188.000000 -72.000008 1.000000 0.000000 0.000000 -1.000000 1.179600 0.839800 1 0 1.000000 
0 -136.000000 -84.000008 1.000000 0.000000 0.000000 -1.000000 1.367100 0.433600 1 0 1.000000 
METALTRUSS022D
0 -136.000000 -8.000006 5.000000 0.000000 0.000000 1.000000 -0.132900 0.433600 1 0 1.000000 
0 -136.000000 -4.000006 5.000000 0.000000 0.000000 1.000000 -0.070400 0.433600 1 0 1.000000 
0 -188.000000 -24.000008 5.000000 0.000000 0.000000 1.000000 -0.382900 0.839800 1 0 1.000000 
METALTRUSS022D
0 -188.000000 -24.000008 5.000000 0.000000 0.000000 1.000000 -0.382900 0.839800 1 0 1.000000 
0 -136.000000 -4.000006 5.000000 0.000000 0.000000 1.000000 -0.070400 0.433600 1 0 1.000000 
0 -188.000000 -20.000008 5.000000 0.000000 0.000000 1.000000 -0.320400 0.839800 1 0 1.000000 
METALTRUSS022D
0 166.000000 -111.999992 -47.000000 -1.000000 -0.000000 0.000000 -1.755900 -0.582900 1 0 1.000000 
0 166.000000 -113.999992 -47.000000 -1.000000 -0.000000 0.000000 -1.787100 -0.582900 1 0 1.000000 
0 166.000000 -111.999992 -3.000000 -1.000000 -0.000000 0.000000 -1.755900 -0.239100 1 0 1.000000 
METALTRUSS022D
0 166.000000 -111.999992 -3.000000 -1.000000 -0.000000 0.000000 -1.755900 -0.239100 1 0 1.000000 
0 166.000000 -113.999992 -47.000000 -1.000000 -0.000000 0.000000 -1.787100 -0.582900 1 0 1.000000 
0 166.000000 -113.999992 -3.000000 -1.000000 -0.000000 0.000000 -1.787100 -0.239100 1 0 1.000000 
METALTRUSS022D
0 -296.000000 -40.000011 -128.000000 -0.000000 1.000000 0.000000 4.500000 -1.656300 1 0 1.000000 
0 -296.000000 -40.000011 212.000000 -0.000000 1.000000 0.000000 4.500000 1.000000 1 0 1.000000 
0 -264.000000 -40.000011 -128.000000 -0.000000 1.000000 0.000000 4.000000 -1.656300 1 0 1.000000 
METALTRUSS022D
0 -264.000000 -40.000011 -128.000000 -0.000000 1.000000 0.000000 4.000000 -1.656300 1 0 1.000000 
0 -296.000000 -40.000011 212.000000 -0.000000 1.000000 0.000000 4.500000 1.000000 1 0 1.000000 
0 -264.000000 -40.000011 212.000000 -0.000000 1.000000 0.000000 4.000000 1.000000 1 0 1.000000 
METALTRUSS022D
0 -264.000000 -56.000011 -128.000000 0.000000 -1.000000 0.000000 4.000000 -1.656300 1 0 1.000000 
0 -264.000000 -56.000011 212.000000 0.000000 -1.000000 0.000000 4.000000 1.000000 1 0 1.000000 
0 -296.000000 -56.000011 -128.000000 0.000000 -1.000000 0.000000 4.500000 -1.656300 1 0 1.000000 
METALTRUSS022D
0 -296.000000 -56.000011 -128.000000 0.000000 -1.000000 0.000000 4.500000 -1.656300 1 0 1.000000 
0 -264.000000 -56.000011 212.000000 0.000000 -1.000000 0.000000 4.000000 1.000000 1 0 1.000000 
0 -296.000000 -56.000011 212.000000 0.000000 -1.000000 0.000000 4.500000 1.000000 1 0 1.000000 
METALTRUSS022D
0 -224.000000 15.999990 -79.000000 0.000000 -1.000000 0.000000 -1.000000 -1.101600 1 0 1.000000 
0 166.000000 16.000008 -79.000000 0.000000 -1.000000 0.000000 -1.000000 1.945300 1 0 1.000000 
0 -224.000000 15.999990 -47.000000 0.000000 -1.000000 0.000000 -0.500000 -1.101600 1 0 1.000000 
METALTRUSS022D
0 -224.000000 15.999990 -47.000000 0.000000 -1.000000 0.000000 -0.500000 -1.101600 1 0 1.000000 
0 166.000000 16.000008 -79.000000 0.000000 -1.000000 0.000000 -1.000000 1.945300 1 0 1.000000 
0 166.000000 16.000008 -47.000000 0.000000 -1.000000 0.000000 -0.500000 1.945300 1 0 1.000000 
METALTRUSS022D
0 168.000000 18.000008 -79.000000 -0.000000 1.000000 0.000000 -1.000000 1.960900 1 0 1.000000 
0 -222.000000 17.999990 -79.000000 -0.000000 1.000000 0.000000 -1.000000 -1.085900 1 0 1.000000 
0 168.000000 18.000008 -47.000000 -0.000000 1.000000 0.000000 -0.500000 1.960900 1 0 1.000000 
METALTRUSS022D
0 168.000000 18.000008 -47.000000 -0.000000 1.000000 0.000000 -0.500000 1.960900 1 0 1.000000 
0 -222.000000 17.999990 -79.000000 -0.000000 1.000000 0.000000 -1.000000 -1.085900 1 0 1.000000 
0 -222.000000 17.999990 -47.000000 -0.000000 1.000000 0.000000 -0.500000 -1.085900 1 0 1.000000 
METALTRUSS022D
0 232.000000 80.000008 -79.000000 -0.000000 1.000000 0.000000 -1.000000 2.460900 1 0 1.000000 
0 -224.000000 79.999992 -79.000000 -0.000000 1.000000 0.000000 -1.000000 -1.101600 1 0 1.000000 
0 232.000000 80.000008 -47.000000 -0.000000 1.000000 0.000000 -0.500000 2.460900 1 0 1.000000 
METALTRUSS022D
0 232.000000 80.000008 -47.000000 -0.000000 1.000000 0.000000 -0.500000 2.460900 1 0 1.000000 
0 -224.000000 79.999992 -79.000000 -0.000000 1.000000 0.000000 -1.000000 -1.101600 1 0 1.000000 
0 -224.000000 79.999992 -47.000000 -0.000000 1.000000 0.000000 -0.500000 -1.101600 1 0 1.000000 
METALTRUSS022D
0 -222.000000 77.999992 -47.000000 0.000000 0.000000 1.000000 -0.992200 -1.085900 1 0 1.000000 
0 230.000000 78.000008 -47.000000 0.000000 0.000000 1.000000 -0.992200 2.445300 1 0 1.000000 
0 -224.000000 79.999992 -47.000000 0.000000 0.000000 1.000000 -1.023400 -1.101600 1 0 1.000000 
METALTRUSS022D
0 230.000000 78.000008 -47.000000 0.000000 0.000000 1.000000 3.945300 -0.484400 1 0 1.000000 
0 232.000000 -9.999990 -47.000000 0.000000 0.000000 1.000000 3.976600 0.203100 1 0 1.000000 
0 232.000000 80.000008 -47.000000 0.000000 0.000000 1.000000 3.976600 -0.500000 1 0 1.000000 
METALTRUSS022D
0 -222.000000 77.999992 -3.000000 0.000000 0.000000 -1.000000 0.882800 -1.085900 1 0 1.000000 
0 -224.000000 79.999992 -3.000000 0.000000 0.000000 -1.000000 0.914100 -1.101600 1 0 1.000000 
0 230.000000 78.000008 -3.000000 0.000000 0.000000 -1.000000 0.882800 2.445300 1 0 1.000000 
METALTRUSS022D
0 232.000000 80.000008 -79.000000 0.000000 0.000000 -1.000000 -1.085900 2.531300 1 0 1.000000 
0 230.000000 -9.999990 -79.000000 0.000000 0.000000 -1.000000 0.320300 2.515600 1 0 1.000000 
0 230.000000 78.000008 -79.000000 0.000000 0.000000 -1.000000 -1.054700 2.515600 1 0 1.000000 
METALTRUSS022D
0 -222.000000 77.999992 27.000000 0.000000 0.000000 1.000000 -0.992200 -1.085900 1 0 1.000000 
0 230.000000 78.000008 27.000000 0.000000 0.000000 1.000000 -0.992200 2.445300 1 0 1.000000 
0 -224.000000 79.999992 27.000000 0.000000 0.000000 1.000000 -1.023400 -1.101600 1 0 1.000000 
METALTRUSS022D
0 230.000000 78.000008 27.000000 0.000000 0.000000 1.000000 3.945300 -0.484400 1 0 1.000000 
0 230.000000 -9.999990 27.000000 0.000000 0.000000 1.000000 3.945300 0.203100 1 0 1.000000 
0 232.000000 80.000008 27.000000 0.000000 0.000000 1.000000 3.976600 -0.500000 1 0 1.000000 
METALTRUSS022D
0 232.000000 80.000008 27.000000 0.000000 0.000000 1.000000 3.976600 -0.500000 1 0 1.000000 
0 230.000000 -9.999990 27.000000 0.000000 0.000000 1.000000 3.945300 0.203100 1 0 1.000000 
0 232.000000 -9.999990 27.000000 0.000000 0.000000 1.000000 3.976600 0.203100 1 0 1.000000 
METALTRUSS022D
0 232.000000 80.000008 -3.000000 0.000000 0.000000 -1.000000 3.976600 -0.500000 1 0 1.000000 
0 232.000000 -9.999990 -3.000000 0.000000 0.000000 -1.000000 3.976600 0.203100 1 0 1.000000 
0 230.000000 78.000008 -3.000000 0.000000 0.000000 -1.000000 3.945300 -0.484400 1 0 1.000000 
METALTRUSS022D
0 230.000000 78.000008 -3.000000 0.000000 0.000000 -1.000000 3.945300 -0.484400 1 0 1.000000 
0 232.000000 -9.999990 -3.000000 0.000000 0.000000 -1.000000 3.976600 0.203100 1 0 1.000000 
0 230.000000 -9.999990 -3.000000 0.000000 0.000000 -1.000000 3.945300 0.203100 1 0 1.000000 
end
