version 1
nodes
  0 "static_prop" -1
end
skeleton
time 0
0 0.000000 0.000000 0.000000 0.000000 0.000000 0.000000
end
triangles
rockcliff01a
0 -340.204987 -112.108215 178.885803 -0.772979 -0.625783 0.104397 0.492800 -0.179100 1 0 1.000000 
0 -346.381104 -94.788818 265.063812 -0.772979 -0.625783 0.104397 0.470900 -0.050800 1 0 1.000000 
0 -364.454590 -76.888512 255.192993 -0.784215 -0.619512 0.034801 0.406800 -0.052100 1 0 1.000000 
rockcliff01a
0 -324.271088 -121.851418 -260.684998 -0.808834 -0.588025 -0.003700 0.549400 -0.944800 1 0 1.000000 
0 -340.962891 -103.861115 100.572403 -0.811098 -0.580399 -0.072500 0.490100 -0.315500 1 0 1.000000 
0 -364.454590 -76.888512 255.192993 -0.784215 -0.619512 0.034801 0.406800 -0.052100 1 0 1.000000 
rockcliff01a
0 -352.229797 -92.730415 -260.216888 -0.772090 -0.635492 0.005100 0.450200 -0.944000 1 0 1.000000 
0 -324.271088 -121.851418 -260.684998 -0.808834 -0.588025 -0.003700 0.549400 -0.944800 1 0 1.000000 
0 -364.454590 -76.888512 255.192993 -0.784215 -0.619512 0.034801 0.406800 -0.052100 1 0 1.000000 
rockcliff01a
0 -340.962891 -103.861115 100.572403 0.003400 -0.990357 -0.138494 0.490100 -0.315500 1 0 1.000000 
0 -275.283905 -103.670013 100.572403 0.003400 -0.990357 -0.138494 0.723200 -0.315500 1 0 1.000000 
0 -286.967010 -111.917114 178.885803 0.003400 -0.990357 -0.138494 0.681700 -0.179100 1 0 1.000000 
rockcliff01a
0 -286.967010 -111.917114 178.885803 0.003400 -0.990357 -0.138494 0.681700 -0.179100 1 0 1.000000 
0 -340.204987 -112.108215 178.885803 0.004100 -0.990270 -0.139096 0.492800 -0.179100 1 0 1.000000 
0 -340.962891 -103.861115 100.572403 0.003400 -0.990357 -0.138494 0.490100 -0.315500 1 0 1.000000 
rockcliff01a
0 208.376404 -94.082291 12.476600 0.230701 -0.963303 0.137200 0.780800 -0.467200 1 0 1.000000 
0 148.162994 -79.857292 261.359985 0.230701 -0.963303 0.137200 0.645900 -0.061000 1 0 1.000000 
0 131.014694 -103.857193 108.817398 0.309304 -0.937913 0.157002 0.556200 -0.304500 1 0 1.000000 
rockcliff01a
0 201.351303 -71.358490 238.697098 0.230701 -0.963303 0.137200 0.691300 -0.054900 1 0 1.000000 
0 148.162994 -79.857292 261.359985 0.230701 -0.963303 0.137200 0.645900 -0.061000 1 0 1.000000 
0 208.376404 -94.082291 12.476600 0.230701 -0.963303 0.137200 0.780800 -0.467200 1 0 1.000000 
rockcliff01a
0 -213.018494 -82.510406 -231.715393 -0.487807 -0.872213 -0.035901 0.286400 -0.893500 1 0 1.000000 
0 -173.691803 -103.099411 -231.499298 -0.520898 -0.852996 -0.032600 0.441900 -0.893100 1 0 1.000000 
0 -193.342407 -104.428909 173.271896 -0.487807 -0.872213 -0.035901 0.364200 -0.182100 1 0 1.000000 
rockcliff01a
0 -193.342407 -104.428909 173.271896 -0.487807 -0.872213 -0.035901 0.364200 -0.182100 1 0 1.000000 
0 -255.336197 -78.962006 223.072006 -0.454019 -0.890138 -0.039002 0.119000 -0.074900 1 0 1.000000 
0 -213.018494 -82.510406 -231.715393 -0.487807 -0.872213 -0.035901 0.286400 -0.893500 1 0 1.000000 
rockcliff01a
0 -407.385895 127.319588 183.277893 -0.913543 -0.040502 0.404719 0.907300 -0.166400 1 0 1.000000 
0 -389.066803 -64.680412 204.890900 -0.913543 -0.040502 0.404719 0.098400 -0.128400 1 0 1.000000 
0 -364.454590 -76.888512 255.192993 -0.876645 -0.031202 0.480125 0.047000 -0.046100 1 0 1.000000 
rockcliff01a
0 -398.770294 -69.924316 179.160706 -0.913543 -0.040502 0.404719 0.076400 -0.173600 1 0 1.000000 
0 -389.066803 -64.680412 204.890900 -0.913543 -0.040502 0.404719 0.098400 -0.128400 1 0 1.000000 
0 -407.385895 127.319588 183.277893 -0.913543 -0.040502 0.404719 0.907300 -0.166400 1 0 1.000000 
rockcliff01a
0 402.767609 126.990318 -260.216888 -0.004700 0.999988 -0.001400 0.053100 -0.898000 1 0 1.000000 
0 -481.052307 127.051575 -260.719208 0.000100 1.000000 -0.000700 0.053100 -0.170200 1 0 1.000000 
0 -352.229797 127.319588 251.783096 -0.000000 1.000000 0.000000 0.947000 -0.170200 1 0 1.000000 
rockcliff01a
0 -352.229797 127.319588 251.783096 -0.000000 1.000000 0.000000 0.947000 -0.170200 1 0 1.000000 
0 -251.328903 127.319595 251.783096 -0.000000 1.000000 0.000000 0.947000 -0.267500 1 0 1.000000 
0 402.767609 126.990318 -260.216888 -0.004700 0.999988 -0.001400 0.053100 -0.898000 1 0 1.000000 
rockcliff01a
0 -251.328903 127.319595 251.783096 -0.000000 1.000000 0.000000 0.947000 -0.267500 1 0 1.000000 
0 -49.527103 127.319603 251.783096 -0.000000 1.000000 0.000000 0.947000 -0.462000 1 0 1.000000 
0 402.767609 126.990318 -260.216888 -0.004700 0.999988 -0.001400 0.053100 -0.898000 1 0 1.000000 
rockcliff01a
0 -49.527103 127.319603 251.783096 -0.000000 1.000000 0.000000 0.947000 -0.462000 1 0 1.000000 
0 152.274704 127.319611 251.783096 -0.000000 1.000000 0.000000 0.947000 -0.656500 1 0 1.000000 
0 402.767609 126.990318 -260.216888 -0.004700 0.999988 -0.001400 0.053100 -0.898000 1 0 1.000000 
rockcliff01a
0 152.274704 127.319611 251.783096 -0.000000 1.000000 0.000000 0.947000 -0.656500 1 0 1.000000 
0 196.383408 127.319611 251.783096 -0.000000 1.000000 0.000000 0.947000 -0.699000 1 0 1.000000 
0 402.767609 126.990318 -260.216888 -0.004700 0.999988 -0.001400 0.053100 -0.898000 1 0 1.000000 
rockcliff01a
0 196.383408 127.319611 251.783096 -0.000000 1.000000 0.000000 0.947000 -0.699000 1 0 1.000000 
0 354.076508 127.319618 251.783096 0.012000 0.998915 0.045001 0.947000 -0.851000 1 0 1.000000 
0 402.767609 126.990318 -260.216888 -0.004700 0.999988 -0.001400 0.053100 -0.898000 1 0 1.000000 
rockcliff01a
0 354.076508 127.319618 251.783096 0.012000 0.998915 0.045001 0.947000 -0.851000 1 0 1.000000 
0 452.641205 128.248718 -4.355800 -0.212296 0.973181 -0.088598 0.499800 -0.946100 1 0 1.000000 
0 402.767609 126.990318 -260.216888 -0.004700 0.999988 -0.001400 0.053100 -0.898000 1 0 1.000000 
rockcliff01a
0 354.076508 127.319618 251.783096 0.012000 0.998915 0.045001 0.947000 -0.851000 1 0 1.000000 
0 418.076813 135.718109 140.437393 0.038400 0.991413 0.125002 0.752600 -0.912700 1 0 1.000000 
0 452.641205 128.248718 -4.355800 -0.212296 0.973181 -0.088598 0.499800 -0.946100 1 0 1.000000 
rockcliff01a
0 -481.052307 127.051575 -260.719208 0.001100 0.999999 -0.001000 0.052300 -0.046100 1 0 1.000000 
0 -407.385895 127.319588 183.277893 0.009200 0.999917 -0.009000 0.827400 -0.117100 1 0 1.000000 
0 -352.229797 127.319588 251.783096 -0.000000 1.000000 0.000000 0.947000 -0.170200 1 0 1.000000 
rockcliff01a
0 -481.052307 127.051575 -260.719208 0.103096 0.994464 -0.020299 0.052300 -0.046100 1 0 1.000000 
0 -478.355103 129.682480 54.640202 0.057299 0.998288 -0.011700 0.602800 -0.048700 1 0 1.000000 
0 -407.385895 127.319588 183.277893 0.009200 0.999917 -0.009000 0.827400 -0.117100 1 0 1.000000 
rockcliff01a
0 -411.390686 -84.093414 -55.901199 -0.226809 -0.971139 0.073803 0.240300 -0.588100 1 0 1.000000 
0 -402.885315 -104.145416 -260.204987 -0.251205 -0.961220 0.113802 0.270400 -0.943900 1 0 1.000000 
0 -389.357697 -87.564217 -39.414001 -0.177396 -0.979377 0.096698 0.318400 -0.559300 1 0 1.000000 
rockcliff01a
0 361.644714 -75.439285 -260.216888 0.495705 -0.847408 0.190202 0.580800 -0.912100 1 0 1.000000 
0 431.348114 -64.160088 -260.216888 0.177906 -0.942232 0.283810 0.818100 -0.912100 1 0 1.000000 
0 450.282898 -3.171080 -3.809700 0.191909 -0.941242 0.277912 0.882600 -0.493700 1 0 1.000000 
rockcliff01a
0 361.644714 -75.439285 -260.216888 0.495705 -0.847408 0.190202 0.580800 -0.912100 1 0 1.000000 
0 450.282898 -3.171080 -3.809700 0.191909 -0.941242 0.277912 0.882600 -0.493700 1 0 1.000000 
0 424.239410 4.798819 55.463100 0.418905 -0.884609 0.204902 0.820100 -0.370800 1 0 1.000000 
rockcliff01a
0 361.644714 -75.439285 -260.216888 0.495705 -0.847408 0.190202 0.580800 -0.912100 1 0 1.000000 
0 424.239410 4.798819 55.463100 0.418905 -0.884609 0.204902 0.820100 -0.370800 1 0 1.000000 
0 405.206085 6.778118 176.185806 0.749742 -0.656937 0.079504 0.757600 -0.247800 1 0 1.000000 
rockcliff01a
0 405.206085 6.778118 176.185806 0.749742 -0.656937 0.079504 0.757600 -0.247800 1 0 1.000000 
0 346.548615 -75.722687 245.382996 0.861582 -0.506789 0.028999 0.555100 -0.156500 1 0 1.000000 
0 361.644714 -75.439285 -260.216888 0.495705 -0.847408 0.190202 0.580800 -0.912100 1 0 1.000000 
rockcliff01a
0 -119.454292 -128.708603 -259.358612 -0.340489 -0.937269 0.074797 0.656500 -0.942100 1 0 1.000000 
0 -78.525795 -123.913902 31.897600 -0.264008 -0.962428 0.063502 0.818300 -0.430400 1 0 1.000000 
0 -96.657295 -112.637009 83.116096 -0.431423 -0.897748 0.089005 0.746600 -0.340500 1 0 1.000000 
rockcliff01a
0 -119.454292 -128.708603 -259.358612 -0.340489 -0.937269 0.074797 0.656500 -0.942100 1 0 1.000000 
0 -71.927292 -132.301605 -259.358612 -0.087604 -0.993041 0.078703 0.844400 -0.942100 1 0 1.000000 
0 -78.525795 -123.913902 31.897600 -0.264008 -0.962428 0.063502 0.818300 -0.430400 1 0 1.000000 
rockcliff01a
0 -286.967010 -111.917114 178.885803 0.640887 -0.731485 0.232795 0.681700 -0.179100 1 0 1.000000 
0 -267.021393 -80.127014 249.317093 0.640887 -0.731485 0.232795 0.752500 -0.051600 1 0 1.000000 
0 -292.156097 -94.845917 266.730194 0.640887 -0.731485 0.232795 0.663300 -0.050000 1 0 1.000000 
rockcliff01a
0 -286.967010 -111.917114 178.885803 0.640887 -0.731485 0.232795 0.681700 -0.179100 1 0 1.000000 
0 -255.336197 -78.962006 223.072006 0.600296 -0.756095 0.260698 0.794000 -0.082600 1 0 1.000000 
0 -267.021393 -80.127014 249.317093 0.640887 -0.731485 0.232795 0.752500 -0.051600 1 0 1.000000 
rockcliff01a
0 272.683014 -112.122383 212.972900 -0.102997 -0.994270 -0.028599 0.362700 -0.186800 1 0 1.000000 
0 249.113495 -108.303192 160.733597 -0.104599 -0.993589 -0.042900 0.245100 -0.240400 1 0 1.000000 
0 262.891388 -101.028587 -260.216888 -0.102997 -0.994270 -0.028599 0.244600 -0.912100 1 0 1.000000 
rockcliff01a
0 262.891388 -101.028587 -260.216888 -0.102997 -0.994270 -0.028599 0.244600 -0.912100 1 0 1.000000 
0 327.259613 -105.049881 -260.216888 -0.072701 -0.996920 -0.029401 0.463800 -0.912100 1 0 1.000000 
0 272.683014 -112.122383 212.972900 -0.102997 -0.994270 -0.028599 0.362700 -0.186800 1 0 1.000000 
rockcliff01a
0 -275.283905 -103.670013 100.572403 -0.020001 -0.997652 0.065503 0.723200 -0.315500 1 0 1.000000 
0 -340.962891 -103.861115 100.572403 0.003400 -0.998589 0.052999 0.490100 -0.315500 1 0 1.000000 
0 -324.271088 -121.851418 -260.684998 -0.031800 -0.996912 0.071801 0.549400 -0.944800 1 0 1.000000 
rockcliff01a
0 -324.271088 -121.851418 -260.684998 -0.031800 -0.996912 0.071801 0.549400 -0.944800 1 0 1.000000 
0 -279.226013 -121.851418 -260.684998 0.000000 -0.997753 0.066997 0.709200 -0.944800 1 0 1.000000 
0 -275.283905 -103.670013 100.572403 -0.020001 -0.997652 0.065503 0.723200 -0.315500 1 0 1.000000 
rockcliff01a
0 -340.204987 -112.108215 178.885803 0.004100 -0.967955 0.251088 0.492800 -0.179100 1 0 1.000000 
0 -286.967010 -111.917114 178.885803 0.004100 -0.967955 0.251088 0.681700 -0.179100 1 0 1.000000 
0 -292.156097 -94.845917 266.730194 0.041301 -0.979813 0.195603 0.663300 -0.050000 1 0 1.000000 
rockcliff01a
0 -292.156097 -94.845917 266.730194 0.041301 -0.979813 0.195603 0.663300 -0.050000 1 0 1.000000 
0 -346.381104 -94.788818 265.063812 -0.008100 -0.966060 0.258189 0.470900 -0.050800 1 0 1.000000 
0 -340.204987 -112.108215 178.885803 0.004100 -0.967955 0.251088 0.492800 -0.179100 1 0 1.000000 
rockcliff01a
0 -421.613708 48.346680 193.893997 -0.844374 0.181194 0.504184 0.574600 -0.147700 1 0 1.000000 
0 -407.385895 127.319588 183.277893 -0.844374 0.181194 0.504184 0.907300 -0.166400 1 0 1.000000 
0 -478.355103 129.682480 54.640202 -0.796460 0.270386 0.540873 0.917300 -0.392300 1 0 1.000000 
rockcliff01a
0 -478.355103 129.682480 54.640202 -0.796460 0.270386 0.540873 0.917300 -0.392300 1 0 1.000000 
0 -499.469910 69.019775 53.358200 -0.824743 0.237912 0.513027 0.661700 -0.394500 1 0 1.000000 
0 -421.613708 48.346680 193.893997 -0.844374 0.181194 0.504184 0.574600 -0.147700 1 0 1.000000 
rockcliff01a
0 -512.389587 71.525780 -260.719208 -0.932039 0.361415 0.026101 0.672300 -0.946100 1 0 1.000000 
0 -478.355103 129.682480 54.640202 -0.958236 0.285711 0.012400 0.917300 -0.392300 1 0 1.000000 
0 -481.052307 127.051575 -260.719208 -0.918111 0.395905 0.018200 0.906200 -0.946100 1 0 1.000000 
rockcliff01a
0 -499.469910 69.019775 53.358200 -0.957358 0.284888 0.047998 0.661700 -0.394500 1 0 1.000000 
0 -478.355103 129.682480 54.640202 -0.958236 0.285711 0.012400 0.917300 -0.392300 1 0 1.000000 
0 -512.389587 71.525780 -260.719208 -0.932039 0.361415 0.026101 0.672300 -0.946100 1 0 1.000000 
rockcliff01a
0 -147.085999 -101.586311 -260.216888 -0.757703 -0.645603 0.095300 0.547200 -0.943600 1 0 1.000000 
0 -116.123795 -92.117111 106.650398 -0.757703 -0.645603 0.095300 0.669600 -0.299100 1 0 1.000000 
0 -128.559906 -71.793411 177.241501 -0.757703 -0.645603 0.095300 0.620400 -0.175100 1 0 1.000000 
rockcliff01a
0 -116.123795 -92.117111 106.650398 -0.757703 -0.645603 0.095300 0.669600 -0.299100 1 0 1.000000 
0 -147.085999 -101.586311 -260.216888 -0.757703 -0.645603 0.095300 0.547200 -0.943600 1 0 1.000000 
0 -119.454292 -128.708603 -259.358612 -0.750930 -0.653526 0.094904 0.656500 -0.942100 1 0 1.000000 
rockcliff01a
0 -119.454292 -128.708603 -259.358612 -0.750930 -0.653526 0.094904 0.656500 -0.942100 1 0 1.000000 
0 -96.657295 -112.637009 83.116096 -0.729277 -0.677179 0.097897 0.746600 -0.340500 1 0 1.000000 
0 -116.123795 -92.117111 106.650398 -0.757703 -0.645603 0.095300 0.669600 -0.299100 1 0 1.000000 
rockcliff01a
0 -434.147797 -40.402920 166.395294 -0.306607 -0.928920 0.207604 0.159500 -0.200800 1 0 1.000000 
0 -411.390686 -84.093414 -55.901199 -0.306607 -0.928920 0.207604 0.240300 -0.588100 1 0 1.000000 
0 -389.357697 -87.564217 -39.414001 -0.306607 -0.928920 0.207604 0.318400 -0.559300 1 0 1.000000 
rockcliff01a
0 413.038086 57.745621 162.455399 0.821720 -0.109803 0.559213 0.767600 -0.191100 1 0 1.000000 
0 424.239410 4.798819 55.463100 0.880424 -0.340509 0.330009 0.519200 -0.377900 1 0 1.000000 
0 450.282898 -3.171080 -3.809700 0.900309 -0.241202 0.362304 0.481800 -0.481400 1 0 1.000000 
rockcliff01a
0 413.038086 57.745621 162.455399 0.821720 -0.109803 0.559213 0.767600 -0.191100 1 0 1.000000 
0 405.206085 6.778118 176.185806 0.851812 -0.006400 0.523808 0.528500 -0.167200 1 0 1.000000 
0 424.239410 4.798819 55.463100 0.880424 -0.340509 0.330009 0.519200 -0.377900 1 0 1.000000 
rockcliff01a
0 368.517914 83.654816 197.521896 0.523316 -0.089503 0.847425 0.889200 -0.129900 1 0 1.000000 
0 405.206085 6.778118 176.185806 0.851812 -0.006400 0.523808 0.528500 -0.167200 1 0 1.000000 
0 413.038086 57.745621 162.455399 0.821720 -0.109803 0.559213 0.767600 -0.191100 1 0 1.000000 
rockcliff01a
0 392.140686 126.637115 201.267593 0.704060 -0.113194 0.701061 1.090900 -0.123400 1 0 1.000000 
0 368.517914 83.654816 197.521896 0.523316 -0.089503 0.847425 0.889200 -0.129900 1 0 1.000000 
0 413.038086 57.745621 162.455399 0.821720 -0.109803 0.559213 0.767600 -0.191100 1 0 1.000000 
rockcliff01a
0 413.038086 57.745621 162.455399 0.821720 -0.109803 0.559213 0.767600 -0.191100 1 0 1.000000 
0 418.076813 135.718109 140.437393 0.948010 0.078901 0.308303 1.133500 -0.229600 1 0 1.000000 
0 392.140686 126.637115 201.267593 0.704060 -0.113194 0.701061 1.090900 -0.123400 1 0 1.000000 
rockcliff01a
0 452.641205 128.248718 -4.355800 0.964233 0.054902 0.259309 1.098500 -0.482400 1 0 1.000000 
0 418.076813 135.718109 140.437393 0.948010 0.078901 0.308303 1.133500 -0.229600 1 0 1.000000 
0 413.038086 57.745621 162.455399 0.821720 -0.109803 0.559213 0.767600 -0.191100 1 0 1.000000 
rockcliff01a
0 450.282898 -3.171080 -3.809700 0.900309 -0.241202 0.362304 0.481800 -0.481400 1 0 1.000000 
0 452.641205 128.248718 -4.355800 0.964233 0.054902 0.259309 1.098500 -0.482400 1 0 1.000000 
0 413.038086 57.745621 162.455399 0.821720 -0.109803 0.559213 0.767600 -0.191100 1 0 1.000000 
rockcliff01a
0 346.548615 -75.722687 245.382996 0.256399 -0.041100 0.965697 0.218100 -0.462400 1 0 1.000000 
0 354.076508 127.319618 251.783096 0.755924 0.007000 0.654621 0.624100 -0.471300 1 0 1.000000 
0 196.383408 127.319611 251.783096 -0.013999 -0.041098 0.999057 0.624100 -0.378200 1 0 1.000000 
rockcliff01a
0 196.383408 127.319611 251.783096 -0.013999 -0.041098 0.999057 0.624100 -0.378200 1 0 1.000000 
0 201.351303 -71.358490 238.697098 0.102200 -0.093100 0.990398 0.260000 -0.393900 1 0 1.000000 
0 346.548615 -75.722687 245.382996 0.256399 -0.041100 0.965697 0.218100 -0.462400 1 0 1.000000 
rockcliff01a
0 201.351303 -71.358490 238.697098 0.102200 -0.093100 0.990398 0.260000 -0.393900 1 0 1.000000 
0 196.383408 127.319611 251.783096 -0.013999 -0.041098 0.999057 0.624100 -0.378200 1 0 1.000000 
0 152.274704 127.319611 251.783096 0.116597 0.004000 0.993171 0.624100 -0.352100 1 0 1.000000 
rockcliff01a
0 152.274704 127.319611 251.783096 0.116597 0.004000 0.993171 0.624100 -0.352100 1 0 1.000000 
0 148.162994 -79.857292 261.359985 0.131901 0.038600 0.990511 0.224600 -0.359000 1 0 1.000000 
0 201.351303 -71.358490 238.697098 0.102200 -0.093100 0.990398 0.260000 -0.393900 1 0 1.000000 
rockcliff01a
0 148.162994 -79.857292 261.359985 0.131901 0.038600 0.990511 0.224600 -0.359000 1 0 1.000000 
0 152.274704 127.319611 251.783096 0.116597 0.004000 0.993171 0.624100 -0.352100 1 0 1.000000 
0 -49.527103 127.319603 251.783096 0.045300 0.011300 0.998909 0.624100 -0.233000 1 0 1.000000 
rockcliff01a
0 -49.527103 127.319603 251.783096 0.045300 0.011300 0.998909 0.624100 -0.233000 1 0 1.000000 
0 96.024399 -68.182693 263.286011 -0.158705 -0.057802 0.985632 0.260000 -0.309700 1 0 1.000000 
0 148.162994 -79.857292 261.359985 0.131901 0.038600 0.990511 0.224600 -0.359000 1 0 1.000000 
rockcliff01a
0 -49.527103 127.319603 251.783096 0.045300 0.011300 0.998909 0.624100 -0.233000 1 0 1.000000 
0 51.373798 -37.080395 251.783096 -0.183896 -0.096698 0.978178 0.312400 -0.292600 1 0 1.000000 
0 96.024399 -68.182693 263.286011 -0.158705 -0.057802 0.985632 0.260000 -0.309700 1 0 1.000000 
rockcliff01a
0 -49.527103 127.319603 251.783096 0.045300 0.011300 0.998909 0.624100 -0.233000 1 0 1.000000 
0 18.168001 -64.680397 251.783096 0.042301 0.012800 0.999023 0.260000 -0.273000 1 0 1.000000 
0 51.373798 -37.080395 251.783096 -0.183896 -0.096698 0.978178 0.312400 -0.292600 1 0 1.000000 
rockcliff01a
0 -49.527103 127.319603 251.783096 0.045300 0.011300 0.998909 0.624100 -0.233000 1 0 1.000000 
0 -26.666698 -64.680397 251.783096 -0.056798 -0.005800 0.998369 0.260000 -0.246500 1 0 1.000000 
0 18.168001 -64.680397 251.783096 0.042301 0.012800 0.999023 0.260000 -0.273000 1 0 1.000000 
rockcliff01a
0 -49.527103 127.319603 251.783096 0.045300 0.011300 0.998909 0.624100 -0.233000 1 0 1.000000 
0 -45.516102 -39.225704 251.236893 0.065902 -0.001100 0.997825 0.308300 -0.235400 1 0 1.000000 
0 -26.666698 -64.680397 251.783096 -0.056798 -0.005800 0.998369 0.260000 -0.246500 1 0 1.000000 
rockcliff01a
0 -49.527103 127.319603 251.783096 0.045300 0.011300 0.998909 0.624100 -0.233000 1 0 1.000000 
0 -115.823097 -30.338705 264.362091 -0.026901 0.034501 0.999042 0.325100 -0.193900 1 0 1.000000 
0 -45.516102 -39.225704 251.236893 0.065902 -0.001100 0.997825 0.308300 -0.235400 1 0 1.000000 
rockcliff01a
0 -115.823097 -30.338705 264.362091 -0.026901 0.034501 0.999042 0.325100 -0.193900 1 0 1.000000 
0 -49.527103 127.319603 251.783096 0.045300 0.011300 0.998909 0.624100 -0.233000 1 0 1.000000 
0 -251.328903 127.319595 251.783096 -0.086500 -0.036000 0.995601 0.624100 -0.113900 1 0 1.000000 
rockcliff01a
0 -251.328903 127.319595 251.783096 -0.086500 -0.036000 0.995601 0.624100 -0.113900 1 0 1.000000 
0 -165.813293 -70.773705 240.464005 -0.100100 -0.079500 0.991796 0.248500 -0.164400 1 0 1.000000 
0 -115.823097 -30.338705 264.362091 -0.026901 0.034501 0.999042 0.325100 -0.193900 1 0 1.000000 
rockcliff01a
0 -251.328903 127.319595 251.783096 -0.086500 -0.036000 0.995601 0.624100 -0.113900 1 0 1.000000 
0 -234.173798 -74.991508 245.860992 -0.081101 -0.027801 0.996318 0.240500 -0.124100 1 0 1.000000 
0 -165.813293 -70.773705 240.464005 -0.100100 -0.079500 0.991796 0.248500 -0.164400 1 0 1.000000 
rockcliff01a
0 -251.328903 127.319595 251.783096 -0.086500 -0.036000 0.995601 0.624100 -0.113900 1 0 1.000000 
0 -254.983002 -65.701309 240.711197 0.055202 0.016601 0.998337 0.258100 -0.111800 1 0 1.000000 
0 -234.173798 -74.991508 245.860992 -0.081101 -0.027801 0.996318 0.240500 -0.124100 1 0 1.000000 
rockcliff01a
0 -254.983002 -65.701309 240.711197 0.055202 0.016601 0.998337 0.258100 -0.111800 1 0 1.000000 
0 -251.328903 127.319595 251.783096 -0.086500 -0.036000 0.995601 0.624100 -0.113900 1 0 1.000000 
0 -352.229797 127.319588 251.783096 0.150398 0.032600 0.988088 0.624100 -0.054400 1 0 1.000000 
rockcliff01a
0 -352.229797 127.319588 251.783096 0.150398 0.032600 0.988088 0.624100 -0.054400 1 0 1.000000 
0 -267.021393 -80.127014 249.317093 0.225305 0.070701 0.971720 0.230700 -0.104700 1 0 1.000000 
0 -254.983002 -65.701309 240.711197 0.055202 0.016601 0.998337 0.258100 -0.111800 1 0 1.000000 
rockcliff01a
0 -352.229797 127.319588 251.783096 0.150398 0.032600 0.988088 0.624100 -0.054400 1 0 1.000000 
0 -364.454590 -76.888512 255.192993 0.053102 0.009800 0.998541 0.236900 -0.047200 1 0 1.000000 
0 -267.021393 -80.127014 249.317093 0.225305 0.070701 0.971720 0.230700 -0.104700 1 0 1.000000 
rockcliff01a
0 -254.983002 -65.701309 240.711197 0.821861 -0.411680 0.393781 0.120400 -0.043900 1 0 1.000000 
0 -267.021393 -80.127014 249.317093 0.821861 -0.411680 0.393781 0.072800 -0.043600 1 0 1.000000 
0 -255.336197 -78.962006 223.072006 0.821861 -0.411680 0.393781 0.119000 -0.074900 1 0 1.000000 
rockcliff01a
0 1.162204 -92.130402 -260.216888 -0.135805 -0.990334 -0.028201 0.223900 -0.548700 1 0 1.000000 
0 32.926605 -92.130402 -260.216888 0.016499 -0.999856 -0.004000 0.286200 -0.938600 1 0 1.000000 
0 11.559104 -89.987099 202.647095 0.563538 -0.825356 0.034802 0.211000 -0.148200 1 0 1.000000 
rockcliff01a
0 1.162204 -92.130402 -260.216888 -0.135805 -0.990334 -0.028201 0.223900 -0.548700 1 0 1.000000 
0 11.559104 -89.987099 202.647095 0.563538 -0.825356 0.034802 0.211000 -0.148200 1 0 1.000000 
0 0.791904 -102.247704 -0.992900 0.207290 -0.978254 -0.007100 0.186300 -0.492100 1 0 1.000000 
rockcliff01a
0 0.791904 -102.247704 -0.992900 0.207290 -0.978254 -0.007100 0.186300 -0.492100 1 0 1.000000 
0 11.559104 -89.987099 202.647095 0.563538 -0.825356 0.034802 0.211000 -0.148200 1 0 1.000000 
0 -2.740396 -95.979500 231.926804 0.155500 -0.987101 0.038100 0.169100 -0.098300 1 0 1.000000 
rockcliff01a
0 -2.740396 -95.979500 231.926804 0.155500 -0.987101 0.038100 0.169100 -0.098300 1 0 1.000000 
0 -20.004696 -93.053596 224.920700 -0.519986 -0.854077 -0.012900 0.119800 -0.111300 1 0 1.000000 
0 0.791904 -102.247704 -0.992900 0.207290 -0.978254 -0.007100 0.186300 -0.492100 1 0 1.000000 
rockcliff01a
0 -20.004696 -93.053596 224.920700 -0.519986 -0.854077 -0.012900 0.119800 -0.111300 1 0 1.000000 
0 1.162204 -92.130402 -260.216888 -0.187403 -0.981315 -0.043601 0.195100 -0.948900 1 0 1.000000 
0 0.791904 -102.247704 -0.992900 0.207290 -0.978254 -0.007100 0.186300 -0.492100 1 0 1.000000 
rockcliff01a
0 -20.004696 -93.053596 224.920700 -0.519986 -0.854077 -0.012900 0.119800 -0.111300 1 0 1.000000 
0 -36.249695 -80.827003 155.947006 -0.590801 -0.806202 -0.031500 0.075400 -0.231400 1 0 1.000000 
0 1.162204 -92.130402 -260.216888 -0.187403 -0.981315 -0.043601 0.195100 -0.948900 1 0 1.000000 
rockcliff01a
0 11.559104 -89.987099 202.647095 0.563538 -0.825356 0.034802 0.211000 -0.148200 1 0 1.000000 
0 32.926605 -92.130402 -260.216888 0.563919 -0.825828 0.002000 0.286200 -0.947300 1 0 1.000000 
0 51.373802 -81.334000 -260.216888 0.563919 -0.825828 0.002000 0.339000 -0.946400 1 0 1.000000 
rockcliff01a
0 361.644714 -75.439285 -260.216888 0.493692 -0.869486 0.016200 0.580800 -0.912100 1 0 1.000000 
0 346.548615 -75.722687 245.382996 0.493692 -0.869486 0.016200 0.516500 -0.119000 1 0 1.000000 
0 272.683014 -112.122383 212.972900 0.493692 -0.869486 0.016200 0.362700 -0.186800 1 0 1.000000 
rockcliff01a
0 249.113495 -108.303192 160.733597 -0.506125 -0.843742 0.178709 0.764900 -0.177000 1 0 1.000000 
0 272.683014 -112.122383 212.972900 -0.506125 -0.843742 0.178709 0.886800 -0.069100 1 0 1.000000 
0 201.351303 -71.358490 238.697098 -0.506125 -0.843742 0.178709 0.691300 -0.054900 1 0 1.000000 
rockcliff01a
0 450.282898 -3.171080 -3.809700 0.978530 -0.180605 0.099303 0.481800 -0.481400 1 0 1.000000 
0 468.983185 -23.539379 -263.726410 0.978530 -0.180605 0.099303 0.386200 -0.935200 1 0 1.000000 
0 474.731110 57.864517 -131.052399 0.978530 -0.180605 0.099303 0.768200 -0.703500 1 0 1.000000 
rockcliff01a
0 -255.336197 -78.962006 223.072006 0.753522 -0.656419 0.036301 0.794000 -0.082600 1 0 1.000000 
0 -286.967010 -111.917114 178.885803 0.753522 -0.656419 0.036301 0.681700 -0.179100 1 0 1.000000 
0 -275.283905 -103.670013 100.572403 0.753522 -0.656419 0.036301 0.723200 -0.315500 1 0 1.000000 
rockcliff01a
0 -432.390503 -61.778618 -50.267502 -0.615909 -0.776612 0.132402 0.165800 -0.578200 1 0 1.000000 
0 -466.628113 -65.341820 -260.204987 -0.615909 -0.776612 0.132402 0.044300 -0.943900 1 0 1.000000 
0 -402.885315 -104.145416 -260.204987 -0.574473 -0.808862 0.125394 0.270400 -0.943900 1 0 1.000000 
rockcliff01a
0 -432.390503 -61.778618 -50.267502 -0.944462 -0.273489 0.182193 0.110700 -0.576500 1 0 1.000000 
0 -482.828003 -17.400122 -260.216888 -0.944462 -0.273489 0.182193 0.297600 -0.945200 1 0 1.000000 
0 -466.628113 -65.341820 -260.204987 -0.944462 -0.273489 0.182193 0.095700 -0.945200 1 0 1.000000 
rockcliff01a
0 69.048004 -97.548698 163.976303 -0.785606 -0.618605 -0.012300 0.376900 -0.212200 1 0 1.000000 
0 51.373802 -81.334000 -260.216888 -0.734600 -0.678500 0.000400 0.339000 -0.946400 1 0 1.000000 
0 109.867905 -135.622894 -261.313599 -0.785606 -0.618605 -0.012300 0.506700 -0.945400 1 0 1.000000 
rockcliff01a
0 -254.983002 -65.701309 240.711197 -0.460897 -0.621496 0.633496 0.120400 -0.043900 1 0 1.000000 
0 -255.336197 -78.962006 223.072006 -0.460897 -0.621496 0.633496 0.119000 -0.074900 1 0 1.000000 
0 -234.173798 -74.991508 245.860992 -0.460897 -0.621496 0.633496 0.202700 -0.043900 1 0 1.000000 
rockcliff01a
0 -421.613708 48.346680 193.893997 -0.846560 -0.021099 0.531875 0.574600 -0.147700 1 0 1.000000 
0 -499.469910 69.019775 53.358200 -0.846560 -0.021099 0.531875 0.661700 -0.394500 1 0 1.000000 
0 -434.147797 -40.402920 166.395294 -0.846560 -0.021099 0.531875 0.200700 -0.196000 1 0 1.000000 
rockcliff01a
0 -234.173798 -74.991508 245.860992 0.080897 -0.986368 0.143295 0.202700 -0.043900 1 0 1.000000 
0 -255.336197 -78.962006 223.072006 0.080897 -0.986368 0.143295 0.119000 -0.074900 1 0 1.000000 
0 -165.813293 -70.773705 240.464005 0.095198 -0.991780 0.085498 0.497800 -0.084000 1 0 1.000000 
rockcliff01a
0 -147.085999 -101.586311 -260.216888 0.095198 -0.991780 0.085498 0.547200 -0.943600 1 0 1.000000 
0 -128.559906 -71.793411 177.241501 0.095198 -0.991780 0.085498 0.620400 -0.175100 1 0 1.000000 
0 -165.813293 -70.773705 240.464005 0.095198 -0.991780 0.085498 0.497800 -0.084000 1 0 1.000000 
rockcliff01a
0 436.380615 130.213516 -263.726410 0.762903 0.646503 -0.003500 1.107700 -0.935200 1 0 1.000000 
0 448.659698 118.126526 -182.066605 0.762903 0.646503 -0.003500 1.051000 -0.792600 1 0 1.000000 
0 512.389587 53.337124 -263.726410 0.762903 0.646503 -0.003500 0.747000 -0.935200 1 0 1.000000 
rockcliff01a
0 51.373802 -81.334000 -260.216888 -0.146005 -0.988434 -0.041001 0.339000 -0.946400 1 0 1.000000 
0 69.048004 -97.548698 163.976303 -0.173696 -0.984776 -0.006800 0.376900 -0.212200 1 0 1.000000 
0 11.559104 -89.987099 202.647095 -0.175499 -0.983592 -0.041800 0.211000 -0.148200 1 0 1.000000 
rockcliff01a
0 448.659698 118.126526 -182.066605 -0.090004 0.974041 0.207709 0.189600 -0.942200 1 0 1.000000 
0 436.380615 130.213516 -263.726410 -0.090004 0.974041 0.207709 0.047000 -0.930400 1 0 1.000000 
0 402.767609 126.990318 -260.216888 -0.090004 0.974041 0.207709 0.053100 -0.898000 1 0 1.000000 
rockcliff01a
0 -213.018494 -82.510406 -231.715393 0.660320 -0.746922 0.078002 0.944100 -0.894300 1 0 1.000000 
0 -255.336197 -78.962006 223.072006 0.660320 -0.746922 0.078002 0.794000 -0.082600 1 0 1.000000 
0 -275.283905 -103.670013 100.572403 0.660320 -0.746922 0.078002 0.723200 -0.315500 1 0 1.000000 
rockcliff01a
0 -8.145396 -76.452301 -260.463501 -0.132400 -0.990903 -0.024100 0.111500 -0.607900 1 0 1.000000 
0 -36.249695 -80.827003 155.947006 -0.132903 -0.990824 -0.024601 0.075400 -0.231400 1 0 1.000000 
0 -48.357796 -79.695999 169.958603 -0.132903 -0.990824 -0.024601 0.032400 -0.207900 1 0 1.000000 
rockcliff01a
0 450.282898 -3.171080 -3.809700 0.984474 -0.083498 0.154396 0.481800 -0.481400 1 0 1.000000 
0 474.731110 57.864517 -131.052399 0.986306 0.055800 0.155201 0.768200 -0.703500 1 0 1.000000 
0 452.641205 128.248718 -4.355800 0.986306 0.055800 0.155201 1.098500 -0.482400 1 0 1.000000 
rockcliff01a
0 -26.666698 -64.680397 251.783096 0.103302 -0.972914 0.206803 0.099900 -0.065200 1 0 1.000000 
0 -48.357796 -79.695999 169.958603 0.087896 -0.977453 0.191991 0.032400 -0.207900 1 0 1.000000 
0 -36.249695 -80.827003 155.947006 0.087896 -0.977453 0.191991 0.075400 -0.231400 1 0 1.000000 
rockcliff01a
0 -48.357796 -79.695999 169.958603 -0.058899 -0.818284 0.571789 0.926800 -0.187900 1 0 1.000000 
0 -45.516102 -39.225704 251.236893 -0.079302 -0.838620 0.538913 0.948900 -0.045100 1 0 1.000000 
0 -128.559906 -71.793411 177.241501 -0.030798 -0.834353 0.550369 0.620400 -0.175100 1 0 1.000000 
rockcliff01a
0 -45.516102 -39.225704 251.236893 -0.079302 -0.838620 0.538913 0.948900 -0.045100 1 0 1.000000 
0 -115.823097 -30.338705 264.362091 0.000000 -0.840580 0.541687 0.670800 -0.044200 1 0 1.000000 
0 -94.707397 -54.770504 213.816605 -0.031000 -0.834394 0.550296 0.754300 -0.110800 1 0 1.000000 
rockcliff01a
0 -482.828003 -17.400122 -260.216888 -0.962658 -0.260889 0.072297 0.297600 -0.945200 1 0 1.000000 
0 -434.147797 -40.402920 166.395294 -0.913266 -0.397185 0.090497 0.200700 -0.196000 1 0 1.000000 
0 -499.469910 69.019775 53.358200 -0.919110 -0.392504 0.034300 0.661700 -0.394500 1 0 1.000000 
rockcliff01a
0 -499.469910 69.019775 53.358200 -0.960912 -0.273603 0.042301 0.661700 -0.394500 1 0 1.000000 
0 -512.389587 71.525780 -260.719208 -0.960912 -0.273603 0.042301 0.672300 -0.946100 1 0 1.000000 
0 -482.828003 -17.400122 -260.216888 -0.962658 -0.260889 0.072297 0.297600 -0.945200 1 0 1.000000 
rockcliff01a
0 -57.976997 -97.528503 -260.216888 0.464386 -0.885374 -0.021399 0.556000 -0.933500 1 0 1.000000 
0 -8.145396 -76.452301 -260.463501 0.442409 -0.896618 -0.018700 0.747400 -0.938500 1 0 1.000000 
0 -62.655197 -104.057999 31.039301 0.442409 -0.896618 -0.018700 0.550600 -0.420700 1 0 1.000000 
rockcliff01a
0 -92.856689 -97.343010 104.126099 -0.122602 -0.716514 0.686714 0.761600 -0.303500 1 0 1.000000 
0 -116.123795 -92.117111 106.650398 -0.122602 -0.716514 0.686714 0.669600 -0.299100 1 0 1.000000 
0 -96.657295 -112.637009 83.116096 -0.116704 -0.700523 0.704023 0.746600 -0.340500 1 0 1.000000 
rockcliff01a
0 208.376404 -94.082291 12.476600 0.197994 -0.978968 0.049198 0.780800 -0.467200 1 0 1.000000 
0 131.014694 -103.857193 108.817398 0.260794 -0.964377 0.044299 0.556200 -0.304500 1 0 1.000000 
0 237.362106 -99.590996 -266.730103 0.197994 -0.978968 0.049198 0.872300 -0.948400 1 0 1.000000 
rockcliff01a
0 354.076508 127.319618 251.783096 0.012000 0.998915 0.045001 0.046600 -0.946500 1 0 1.000000 
0 392.140686 126.637115 201.267593 0.463396 0.798293 0.384697 0.046600 -0.946500 1 0 1.000000 
0 418.076813 135.718109 140.437393 0.038400 0.991413 0.125002 0.046600 -0.946500 1 0 1.000000 
rockcliff01a
0 148.162994 -79.857292 261.359985 -0.217293 -0.883170 0.415686 0.645900 -0.061000 1 0 1.000000 
0 96.024399 -68.182693 263.286011 -0.217293 -0.883170 0.415686 0.406700 -0.059900 1 0 1.000000 
0 69.048004 -97.548698 163.976303 -0.217293 -0.883170 0.415686 0.376900 -0.212200 1 0 1.000000 
rockcliff01a
0 -364.454590 -76.888512 255.192993 -0.894936 -0.443118 -0.052302 0.406800 -0.052100 1 0 1.000000 
0 -340.962891 -103.861115 100.572403 -0.861925 -0.502414 -0.068302 0.490100 -0.315500 1 0 1.000000 
0 -340.204987 -112.108215 178.885803 -0.894936 -0.443118 -0.052302 0.492800 -0.179100 1 0 1.000000 
rockcliff01a
0 -26.666698 -64.680397 251.783096 -0.932953 -0.313484 0.176991 0.099900 -0.065200 1 0 1.000000 
0 -36.249695 -80.827003 155.947006 -0.932953 -0.313484 0.176991 0.075400 -0.231400 1 0 1.000000 
0 -20.004696 -93.053596 224.920700 -0.932953 -0.313484 0.176991 0.119800 -0.111300 1 0 1.000000 
rockcliff01a
0 -434.147797 -40.402920 166.395294 -0.822551 -0.564766 0.066696 0.200700 -0.196000 1 0 1.000000 
0 -482.828003 -17.400122 -260.216888 -0.822551 -0.564766 0.066696 0.297600 -0.945200 1 0 1.000000 
0 -432.390503 -61.778618 -50.267502 -0.822551 -0.564766 0.066696 0.110700 -0.576500 1 0 1.000000 
rockcliff01a
0 69.048004 -97.548698 163.976303 0.189201 -0.822806 0.535904 0.376900 -0.212200 1 0 1.000000 
0 18.168001 -64.680397 251.783096 0.189201 -0.822806 0.535904 0.228400 -0.063000 1 0 1.000000 
0 11.559104 -89.987099 202.647095 0.189201 -0.822806 0.535904 0.211000 -0.148200 1 0 1.000000 
rockcliff01a
0 -275.283905 -103.670013 100.572403 0.525587 -0.849780 0.040399 0.723200 -0.315500 1 0 1.000000 
0 -279.226013 -121.851418 -260.684998 0.580379 -0.812971 0.047298 0.709200 -0.944800 1 0 1.000000 
0 -237.783401 -95.686104 -260.216888 0.603724 -0.796832 0.024001 0.856200 -0.944000 1 0 1.000000 
rockcliff01a
0 -275.283905 -103.670013 100.572403 0.525587 -0.849780 0.040399 0.723200 -0.315500 1 0 1.000000 
0 -237.783401 -95.686104 -260.216888 0.526109 -0.850415 0.001700 0.856200 -0.944000 1 0 1.000000 
0 -213.018494 -82.510406 -231.715393 0.525587 -0.849780 0.040399 0.944100 -0.894300 1 0 1.000000 
rockcliff01a
0 -389.357697 -87.564217 -39.414001 0.321191 -0.939772 0.116897 0.318400 -0.559300 1 0 1.000000 
0 -389.066803 -64.680412 204.890900 0.272510 -0.951735 0.141205 0.319500 -0.133800 1 0 1.000000 
0 -398.770294 -69.924316 179.160706 0.272510 -0.951735 0.141205 0.285000 -0.178600 1 0 1.000000 
rockcliff01a
0 -147.085999 -101.586311 -260.216888 0.750816 -0.654914 0.085802 0.547200 -0.943600 1 0 1.000000 
0 -165.813293 -70.773705 240.464005 0.750816 -0.654914 0.085802 0.448400 -0.044100 1 0 1.000000 
0 -193.342407 -104.428909 173.271896 0.750816 -0.654914 0.085802 0.364200 -0.182100 1 0 1.000000 
rockcliff01a
0 51.373802 -81.334000 -260.216888 0.106096 0.976462 -0.187793 0.046600 -0.946500 1 0 1.000000 
0 262.891388 -101.028587 -260.216888 0.106096 0.976462 -0.187793 0.046600 -0.946500 1 0 1.000000 
0 237.362106 -99.590996 -266.730103 0.106096 0.976462 -0.187793 0.046600 -0.946500 1 0 1.000000 
rockcliff01a
0 -48.357796 -79.695999 169.958603 -0.080297 -0.935865 0.343087 0.926800 -0.187900 1 0 1.000000 
0 -128.559906 -71.793411 177.241501 -0.080297 -0.935865 0.343087 0.620400 -0.175100 1 0 1.000000 
0 -116.123795 -92.117111 106.650398 -0.080297 -0.935865 0.343087 0.669600 -0.299100 1 0 1.000000 
rockcliff01a
0 262.891388 -101.028587 -260.216888 -0.042101 -0.998818 0.024300 0.945300 -0.935800 1 0 1.000000 
0 208.376404 -94.082291 12.476600 -0.042101 -0.998818 0.024300 0.780800 -0.467200 1 0 1.000000 
0 237.362106 -99.590996 -266.730103 -0.068299 -0.997586 0.012500 0.872300 -0.948400 1 0 1.000000 
rockcliff01a
0 354.076508 127.319618 251.783096 0.755924 0.007000 0.654621 0.874500 -0.076300 1 0 1.000000 
0 346.548615 -75.722687 245.382996 0.256399 -0.041100 0.965697 0.092600 -0.076300 1 0 1.000000 
0 405.206085 6.778118 176.185806 0.940906 0.221601 0.256102 0.308900 -0.208300 1 0 1.000000 
rockcliff01a
0 -346.381104 -94.788818 265.063812 -0.000600 0.629112 0.777314 0.202900 -0.057800 1 0 1.000000 
0 -292.156097 -94.845917 266.730194 -0.028899 0.686786 0.726285 0.202800 -0.089800 1 0 1.000000 
0 -267.021393 -80.127014 249.317093 -0.028899 0.686786 0.726285 0.230700 -0.104700 1 0 1.000000 
rockcliff01a
0 262.891388 -101.028587 -260.216888 -0.766899 -0.640299 -0.043400 0.244600 -0.912100 1 0 1.000000 
0 249.113495 -108.303192 160.733597 -0.766899 -0.640299 -0.043400 0.245100 -0.240400 1 0 1.000000 
0 229.798798 -79.061493 -24.274500 -0.766899 -0.640299 -0.043400 0.132000 -0.527100 1 0 1.000000 
rockcliff01a
0 450.282898 -3.171080 -3.809700 0.780669 -0.611676 0.128095 0.882600 -0.493700 1 0 1.000000 
0 431.348114 -64.160088 -260.216888 0.783415 -0.617712 0.068501 0.818100 -0.912100 1 0 1.000000 
0 468.983185 -23.539379 -263.726410 0.783415 -0.617712 0.068501 0.946200 -0.917800 1 0 1.000000 
rockcliff01a
0 346.548615 -75.722687 245.382996 -0.052197 -0.490177 0.870059 0.398600 -0.068000 1 0 1.000000 
0 201.351303 -71.358490 238.697098 -0.052197 -0.490177 0.870059 0.108900 -0.076700 1 0 1.000000 
0 272.683014 -112.122383 212.972900 -0.052197 -0.490177 0.870059 0.301700 -0.192000 1 0 1.000000 
rockcliff01a
0 272.683014 -112.122383 212.972900 0.706539 -0.703239 0.079104 0.362700 -0.186800 1 0 1.000000 
0 327.259613 -105.049881 -260.216888 0.706539 -0.703239 0.079104 0.463800 -0.912100 1 0 1.000000 
0 361.644714 -75.439285 -260.216888 0.706539 -0.703239 0.079104 0.580800 -0.912100 1 0 1.000000 
rockcliff01a
0 -45.516102 -39.225704 251.236893 -0.790096 -0.495698 0.360598 0.948900 -0.045100 1 0 1.000000 
0 -48.357796 -79.695999 169.958603 -0.790096 -0.495698 0.360598 0.926800 -0.187900 1 0 1.000000 
0 -26.666698 -64.680397 251.783096 -0.790096 -0.495698 0.360598 0.972800 -0.085800 1 0 1.000000 
rockcliff01a
0 -45.516102 -39.225704 251.236893 -0.117503 -0.783318 0.610414 0.948900 -0.045100 1 0 1.000000 
0 -94.707397 -54.770504 213.816605 -0.117503 -0.783318 0.610414 0.754300 -0.110800 1 0 1.000000 
0 -128.559906 -71.793411 177.241501 -0.117503 -0.783318 0.610414 0.620400 -0.175100 1 0 1.000000 
rockcliff01a
0 448.659698 118.126526 -182.066605 0.946178 0.319993 -0.048499 1.051000 -0.792600 1 0 1.000000 
0 452.641205 128.248718 -4.355800 0.946178 0.319993 -0.048499 1.098500 -0.482400 1 0 1.000000 
0 474.731110 57.864517 -131.052399 0.946178 0.319993 -0.048499 0.768200 -0.703500 1 0 1.000000 
rockcliff01a
0 -165.813293 -70.773705 240.464005 0.317906 -0.918817 0.233904 0.448400 -0.044100 1 0 1.000000 
0 -128.559906 -71.793411 177.241501 0.317906 -0.918817 0.233904 0.620400 -0.175100 1 0 1.000000 
0 -94.707397 -54.770504 213.816605 0.317906 -0.918817 0.233904 0.754300 -0.110800 1 0 1.000000 
rockcliff01a
0 -364.454590 -76.888512 255.192993 -0.741379 0.046399 0.669481 0.047000 -0.046100 1 0 1.000000 
0 -352.229797 127.319588 251.783096 -0.741379 0.046399 0.669481 0.907300 -0.046100 1 0 1.000000 
0 -407.385895 127.319588 183.277893 -0.713131 0.000900 0.701030 0.907300 -0.166400 1 0 1.000000 
rockcliff01a
0 452.641205 128.248718 -4.355800 0.330893 0.940280 -0.079898 0.499800 -0.946100 1 0 1.000000 
0 448.659698 118.126526 -182.066605 0.330893 0.940280 -0.079898 0.189600 -0.942200 1 0 1.000000 
0 402.767609 126.990318 -260.216888 0.330893 0.940280 -0.079898 0.053100 -0.898000 1 0 1.000000 
rockcliff01a
0 -92.856689 -97.343010 104.126099 0.353694 -0.909985 0.216396 0.761600 -0.303500 1 0 1.000000 
0 -62.655197 -104.057999 31.039301 0.318810 -0.910828 0.262208 0.881100 -0.431900 1 0 1.000000 
0 -50.559196 -80.031799 125.531303 0.344413 -0.915234 0.209108 0.850000 -0.252300 1 0 1.000000 
rockcliff01a
0 -8.145396 -76.452301 -260.463501 0.122200 -0.992501 0.003100 0.747400 -0.938500 1 0 1.000000 
0 -48.357796 -79.695999 169.958603 0.113602 -0.993520 0.003600 0.603500 -0.177600 1 0 1.000000 
0 -50.559196 -80.031799 125.531303 0.113602 -0.993520 0.003600 0.603600 -0.255800 1 0 1.000000 
rockcliff01a
0 -62.655197 -104.057999 31.039301 0.802418 -0.596514 0.017200 0.550600 -0.420700 1 0 1.000000 
0 -8.145396 -76.452301 -260.463501 0.787586 -0.609389 0.091398 0.747400 -0.938500 1 0 1.000000 
0 -50.559196 -80.031799 125.531303 0.787586 -0.609389 0.091398 0.603600 -0.255800 1 0 1.000000 
rockcliff01a
0 -62.655197 -104.057999 31.039301 0.802418 -0.596514 0.017200 0.550600 -0.420700 1 0 1.000000 
0 -78.525795 -123.913902 31.897600 0.798592 -0.600994 0.032500 0.486800 -0.417500 1 0 1.000000 
0 -71.927292 -132.301605 -259.358612 0.824840 -0.563728 0.043002 0.507100 -0.716100 1 0 1.000000 
rockcliff01a
0 -364.454590 -76.888512 255.192993 -0.594579 -0.803172 0.037299 0.406800 -0.052100 1 0 1.000000 
0 -389.066803 -64.680412 204.890900 -0.623607 -0.775609 0.097701 0.319500 -0.133800 1 0 1.000000 
0 -389.357697 -87.564217 -39.414001 -0.623607 -0.775609 0.097701 0.318400 -0.559300 1 0 1.000000 
rockcliff01a
0 -116.123795 -92.117111 106.650398 0.182291 -0.982653 0.034098 0.669600 -0.299100 1 0 1.000000 
0 -50.559196 -80.031799 125.531303 0.210710 -0.977546 -0.002100 0.850000 -0.252300 1 0 1.000000 
0 -48.357796 -79.695999 169.958603 0.182291 -0.982653 0.034098 0.926800 -0.187900 1 0 1.000000 
rockcliff01a
0 -193.342407 -104.428909 173.271896 0.065497 -0.997852 -0.000700 0.364200 -0.182100 1 0 1.000000 
0 -173.691803 -103.099411 -231.499298 0.065497 -0.997852 -0.000700 0.441900 -0.893100 1 0 1.000000 
0 -147.085999 -101.586311 -260.216888 0.065497 -0.997852 -0.000700 0.547200 -0.943600 1 0 1.000000 
rockcliff01a
0 -389.357697 -87.564217 -39.414001 0.232311 -0.971945 0.036802 0.318400 -0.559300 1 0 1.000000 
0 -402.885315 -104.145416 -260.204987 0.292798 -0.946193 0.137799 0.270400 -0.943900 1 0 1.000000 
0 -352.229797 -92.730415 -260.216888 0.253505 -0.964119 0.078802 0.365500 -0.944000 1 0 1.000000 
rockcliff01a
0 172.645493 -136.746902 -260.765289 0.596703 -0.783103 0.175201 0.686600 -0.941300 1 0 1.000000 
0 237.362106 -99.590996 -266.730103 0.557210 -0.809614 0.184503 0.872300 -0.948400 1 0 1.000000 
0 131.014694 -103.857193 108.817398 0.554376 -0.818064 0.153093 0.556200 -0.304500 1 0 1.000000 
rockcliff01a
0 -434.147797 -40.402920 166.395294 -0.768984 -0.634687 0.076398 0.159500 -0.200800 1 0 1.000000 
0 -432.390503 -61.778618 -50.267502 -0.767812 -0.635210 0.083501 0.165800 -0.578200 1 0 1.000000 
0 -411.390686 -84.093414 -55.901199 -0.767812 -0.635210 0.083501 0.240300 -0.588100 1 0 1.000000 
rockcliff01a
0 -432.390503 -61.778618 -50.267502 -0.767812 -0.635210 0.083501 0.165800 -0.578200 1 0 1.000000 
0 -402.885315 -104.145416 -260.204987 -0.773285 -0.632388 0.045999 0.270400 -0.943900 1 0 1.000000 
0 -411.390686 -84.093414 -55.901199 -0.767812 -0.635210 0.083501 0.240300 -0.588100 1 0 1.000000 
rockcliff01a
0 229.798798 -79.061493 -24.274500 0.380700 -0.894601 -0.234000 0.843300 -0.529600 1 0 1.000000 
0 249.113495 -108.303192 160.733597 0.380700 -0.894601 -0.234000 0.764900 -0.177000 1 0 1.000000 
0 208.376404 -94.082291 12.476600 0.380700 -0.894601 -0.234000 0.780800 -0.467200 1 0 1.000000 
rockcliff01a
0 -352.229797 -92.730415 -260.216888 0.059103 -0.997347 0.042502 0.365500 -0.944000 1 0 1.000000 
0 -364.454590 -76.888512 255.192993 0.059103 -0.997347 0.042502 0.406800 -0.052100 1 0 1.000000 
0 -389.357697 -87.564217 -39.414001 0.059103 -0.997347 0.042502 0.318400 -0.559300 1 0 1.000000 
rockcliff01a
0 262.891388 -101.028587 -260.216888 0.781764 -0.591073 0.198691 0.945300 -0.935800 1 0 1.000000 
0 229.798798 -79.061493 -24.274500 0.781764 -0.591073 0.198691 0.843300 -0.529600 1 0 1.000000 
0 208.376404 -94.082291 12.476600 0.781764 -0.591073 0.198691 0.780800 -0.467200 1 0 1.000000 
rockcliff01a
0 -193.342407 -104.428909 173.271896 -0.006100 -0.830246 0.557364 0.364200 -0.182100 1 0 1.000000 
0 -165.813293 -70.773705 240.464005 -0.006100 -0.830246 0.557364 0.448400 -0.044100 1 0 1.000000 
0 -255.336197 -78.962006 223.072006 -0.006100 -0.830246 0.557364 0.119000 -0.074900 1 0 1.000000 
rockcliff01a
0 -116.123795 -92.117111 106.650398 -0.077101 -0.586308 0.806411 0.669600 -0.299100 1 0 1.000000 
0 -92.856689 -97.343010 104.126099 -0.077101 -0.586308 0.806411 0.761600 -0.303500 1 0 1.000000 
0 -50.559196 -80.031799 125.531303 -0.077101 -0.586308 0.806411 0.850000 -0.252300 1 0 1.000000 
rockcliff01a
0 1.162204 -92.130402 -260.216888 -0.886988 -0.452494 -0.092199 0.195100 -0.940200 1 0 1.000000 
0 -36.249695 -80.827003 155.947006 -0.888407 -0.452904 -0.074901 0.075400 -0.231400 1 0 1.000000 
0 -8.145396 -76.452301 -260.463501 -0.888407 -0.452904 -0.074901 0.111500 -0.607900 1 0 1.000000 
rockcliff01a
0 -96.657295 -112.637009 83.116096 0.664624 -0.600122 0.445116 0.746600 -0.340500 1 0 1.000000 
0 -78.525795 -123.913902 31.897600 0.664624 -0.600122 0.445116 0.818300 -0.430400 1 0 1.000000 
0 -92.856689 -97.343010 104.126099 0.664624 -0.600122 0.445116 0.761600 -0.303500 1 0 1.000000 
rockcliff01a
0 208.376404 -94.082291 12.476600 -0.597317 -0.797423 0.085603 0.780800 -0.467200 1 0 1.000000 
0 249.113495 -108.303192 160.733597 -0.597317 -0.797423 0.085603 0.764900 -0.177000 1 0 1.000000 
0 201.351303 -71.358490 238.697098 -0.597317 -0.797423 0.085603 0.691300 -0.054900 1 0 1.000000 
rockcliff01a
0 51.373798 -37.080395 251.783096 0.538488 -0.555288 0.633786 0.323600 -0.061300 1 0 1.000000 
0 18.168001 -64.680397 251.783096 0.538488 -0.555288 0.633786 0.228400 -0.063000 1 0 1.000000 
0 69.048004 -97.548698 163.976303 0.538488 -0.555288 0.633786 0.376900 -0.212200 1 0 1.000000 
rockcliff01a
0 18.168001 -64.680397 251.783096 0.000000 -0.429607 0.903016 0.228400 -0.063000 1 0 1.000000 
0 -26.666698 -64.680397 251.783096 0.000000 -0.429607 0.903016 0.099900 -0.065200 1 0 1.000000 
0 -2.740396 -95.979500 231.926804 0.000000 -0.429607 0.903016 0.169100 -0.098300 1 0 1.000000 
rockcliff01a
0 -20.004696 -93.053596 224.920700 -0.371573 -0.586058 0.720048 0.119800 -0.111300 1 0 1.000000 
0 -2.740396 -95.979500 231.926804 -0.371573 -0.586058 0.720048 0.169100 -0.098300 1 0 1.000000 
0 -26.666698 -64.680397 251.783096 -0.371573 -0.586058 0.720048 0.099900 -0.065200 1 0 1.000000 
rockcliff01a
0 -165.813293 -70.773705 240.464005 0.367097 -0.673495 0.641595 0.448400 -0.044100 1 0 1.000000 
0 -94.707397 -54.770504 213.816605 0.435397 -0.699894 0.566196 0.754300 -0.110800 1 0 1.000000 
0 -115.823097 -30.338705 264.362091 0.367097 -0.673495 0.641595 0.670800 -0.044200 1 0 1.000000 
rockcliff01a
0 405.206085 6.778118 176.185806 0.940906 0.221601 0.256102 0.528500 -0.167200 1 0 1.000000 
0 368.517914 83.654816 197.521896 0.962056 0.018999 0.272188 0.889200 -0.129900 1 0 1.000000 
0 354.076508 127.319618 251.783096 0.755924 0.007000 0.654621 1.094100 -0.035200 1 0 1.000000 
rockcliff01a
0 368.517914 83.654816 197.521896 0.962056 0.018999 0.272188 0.889200 -0.129900 1 0 1.000000 
0 392.140686 126.637115 201.267593 0.700664 -0.369981 0.610069 1.090900 -0.123400 1 0 1.000000 
0 354.076508 127.319618 251.783096 0.755924 0.007000 0.654621 1.094100 -0.035200 1 0 1.000000 
rockcliff01a
0 448.659698 118.126526 -182.066605 0.844067 0.473181 0.252290 1.051000 -0.792600 1 0 1.000000 
0 474.731110 57.864517 -131.052399 0.844067 0.473181 0.252290 0.768200 -0.703500 1 0 1.000000 
0 512.389587 53.337124 -263.726410 0.844067 0.473181 0.252290 0.747000 -0.935200 1 0 1.000000 
rockcliff01a
0 -267.021393 -80.127014 249.317093 0.064197 0.428282 0.901362 0.230700 -0.104700 1 0 1.000000 
0 -364.454590 -76.888512 255.192993 0.064197 0.428282 0.901362 0.236900 -0.047200 1 0 1.000000 
0 -346.381104 -94.788818 265.063812 0.064197 0.428282 0.901362 0.202900 -0.057800 1 0 1.000000 
rockcliff01a
0 512.389587 53.337124 -263.726410 0.859302 -0.415901 0.297701 0.747000 -0.935200 1 0 1.000000 
0 474.731110 57.864517 -131.052399 0.859302 -0.415901 0.297701 0.768200 -0.703500 1 0 1.000000 
0 468.983185 -23.539379 -263.726410 0.859302 -0.415901 0.297701 0.386200 -0.935200 1 0 1.000000 
rockcliff01a
0 109.867905 -135.622894 -261.313599 -0.024800 -0.993021 0.115302 0.506700 -0.945400 1 0 1.000000 
0 172.645493 -136.746902 -260.765289 -0.021399 -0.996677 0.078598 0.686600 -0.941300 1 0 1.000000 
0 131.014694 -103.857193 108.817398 0.013200 -0.985817 0.167303 0.556200 -0.304500 1 0 1.000000 
rockcliff01a
0 131.014694 -103.857193 108.817398 0.013200 -0.985817 0.167303 0.556200 -0.304500 1 0 1.000000 
0 69.048004 -97.548698 163.976303 0.013200 -0.985817 0.167303 0.376900 -0.212200 1 0 1.000000 
0 109.867905 -135.622894 -261.313599 -0.024800 -0.993021 0.115302 0.506700 -0.945400 1 0 1.000000 
rockcliff01a
0 69.048004 -97.548698 163.976303 0.013200 -0.985817 0.167303 0.376900 -0.212200 1 0 1.000000 
0 131.014694 -103.857193 108.817398 0.013200 -0.985817 0.167303 0.556200 -0.304500 1 0 1.000000 
0 148.162994 -79.857292 261.359985 0.021700 -0.976086 0.216297 0.645900 -0.061000 1 0 1.000000 
rockcliff01a
0 -2.740396 -95.979500 231.926804 0.772213 -0.572909 0.274704 0.169100 -0.098300 1 0 1.000000 
0 11.559104 -89.987099 202.647095 0.772213 -0.572909 0.274704 0.211000 -0.148200 1 0 1.000000 
0 18.168001 -64.680397 251.783096 0.772213 -0.572909 0.274704 0.228400 -0.063000 1 0 1.000000 
rockcliff01a
0 -213.018494 -82.510406 -231.715393 -0.443187 -0.729779 -0.520585 0.286400 -0.893500 1 0 1.000000 
0 -147.085999 -101.586311 -260.216888 -0.443187 -0.729779 -0.520585 0.547200 -0.943600 1 0 1.000000 
0 -173.691803 -103.099411 -231.499298 -0.443187 -0.729779 -0.520585 0.441900 -0.893100 1 0 1.000000 
rockcliff01a
0 51.373798 -37.080395 251.783096 -0.622797 -0.642397 0.446598 0.323600 -0.061300 1 0 1.000000 
0 69.048004 -97.548698 163.976303 -0.622797 -0.642397 0.446598 0.376900 -0.212200 1 0 1.000000 
0 96.024399 -68.182693 263.286011 -0.622797 -0.642397 0.446598 0.406700 -0.059900 1 0 1.000000 
rockcliff01a
0 -147.085999 -101.586311 -260.216888 -0.062300 -0.820804 0.567803 0.547200 -0.943600 1 0 1.000000 
0 -213.018494 -82.510406 -231.715393 -0.062300 -0.820804 0.567803 0.286400 -0.893500 1 0 1.000000 
0 -237.783401 -95.686104 -260.216888 -0.062300 -0.820804 0.567803 0.286600 -0.943400 1 0 1.000000 
rockcliff01a
0 -92.856689 -97.343010 104.126099 0.755523 -0.504015 0.418513 0.761600 -0.303500 1 0 1.000000 
0 -78.525795 -123.913902 31.897600 0.755523 -0.504015 0.418513 0.818300 -0.430400 1 0 1.000000 
0 -62.655197 -104.057999 31.039301 0.755523 -0.504015 0.418513 0.881100 -0.431900 1 0 1.000000 
rockcliff01a
0 -421.613708 48.346680 193.893997 0.518906 0.006000 0.854810 0.574600 -0.147700 1 0 1.000000 
0 -398.770294 -69.924316 179.160706 0.518906 0.006000 0.854810 0.076400 -0.173600 1 0 1.000000 
0 -407.385895 127.319588 183.277893 0.518906 0.006000 0.854810 0.907300 -0.166400 1 0 1.000000 
rockcliff01a
0 -389.357697 -87.564217 -39.414001 -0.703686 -0.709286 0.041699 0.318400 -0.559300 1 0 1.000000 
0 -398.770294 -69.924316 179.160706 -0.703686 -0.709286 0.041699 0.285000 -0.178600 1 0 1.000000 
0 -434.147797 -40.402920 166.395294 -0.703686 -0.709286 0.041699 0.159500 -0.200800 1 0 1.000000 
rockcliff01a
0 -57.976997 -97.528503 -260.216888 0.926085 -0.377294 0.003900 0.556000 -0.933500 1 0 1.000000 
0 -62.655197 -104.057999 31.039301 0.945685 -0.324995 0.007600 0.550600 -0.420700 1 0 1.000000 
0 -71.927292 -132.301605 -259.358612 0.945685 -0.324995 0.007600 0.507100 -0.716100 1 0 1.000000 
rockcliff01a
0 -434.147797 -40.402920 166.395294 -0.431017 -0.154406 0.889035 0.200700 -0.196000 1 0 1.000000 
0 -398.770294 -69.924316 179.160706 -0.431017 -0.154406 0.889035 0.076400 -0.173600 1 0 1.000000 
0 -421.613708 48.346680 193.893997 -0.431017 -0.154406 0.889035 0.574600 -0.147700 1 0 1.000000 
end
