version 1
nodes
  0 "static_prop" -1
end
skeleton
time 0
0 0.000000 0.000000 0.000000 0.000000 0.000000 0.000000
end
triangles
rockcliff01a
0 466.434906 -15.211180 -130.189499 0.994890 -0.096499 0.029700 0.425300 -0.702000 1 0 1.000000 
0 468.983185 -23.539379 -263.726410 0.994890 -0.096499 0.029700 0.386200 -0.935200 1 0 1.000000 
0 474.731110 57.864517 -131.052399 0.994890 -0.096499 0.029700 0.768200 -0.703500 1 0 1.000000 
rockcliff01a
0 354.076508 127.319618 251.783096 0.012000 0.998915 0.045001 0.947000 -0.851000 1 0 1.000000 
0 418.076813 135.718109 140.437393 0.038400 0.991413 0.125002 0.752600 -0.912700 1 0 1.000000 
0 452.641205 128.248718 -4.355800 -0.212296 0.973181 -0.088598 0.499800 -0.946100 1 0 1.000000 
rockcliff01a
0 354.076508 127.319618 251.783096 0.012000 0.998915 0.045001 0.947000 -0.851000 1 0 1.000000 
0 452.641205 128.248718 -4.355800 -0.212296 0.973181 -0.088598 0.499800 -0.946100 1 0 1.000000 
0 402.767609 126.990318 -260.216888 -0.004700 0.999988 -0.001400 0.053100 -0.898000 1 0 1.000000 
rockcliff01a
0 196.383408 127.319611 251.783096 -0.000000 1.000000 0.000000 0.947000 -0.699000 1 0 1.000000 
0 354.076508 127.319618 251.783096 0.012000 0.998915 0.045001 0.947000 -0.851000 1 0 1.000000 
0 402.767609 126.990318 -260.216888 -0.004700 0.999988 -0.001400 0.053100 -0.898000 1 0 1.000000 
rockcliff01a
0 152.274704 127.319611 251.783096 -0.000000 1.000000 0.000000 0.947000 -0.656500 1 0 1.000000 
0 196.383408 127.319611 251.783096 -0.000000 1.000000 0.000000 0.947000 -0.699000 1 0 1.000000 
0 402.767609 126.990318 -260.216888 -0.004700 0.999988 -0.001400 0.053100 -0.898000 1 0 1.000000 
rockcliff01a
0 51.373795 127.319603 251.783096 -0.000000 1.000000 0.000000 0.947000 -0.559300 1 0 1.000000 
0 152.274704 127.319611 251.783096 -0.000000 1.000000 0.000000 0.947000 -0.656500 1 0 1.000000 
0 402.767609 126.990318 -260.216888 -0.004700 0.999988 -0.001400 0.053100 -0.898000 1 0 1.000000 
rockcliff01a
0 -49.527103 127.319603 251.783096 -0.000000 1.000000 0.000000 0.947000 -0.462000 1 0 1.000000 
0 51.373795 127.319603 251.783096 -0.000000 1.000000 0.000000 0.947000 -0.559300 1 0 1.000000 
0 402.767609 126.990318 -260.216888 -0.004700 0.999988 -0.001400 0.053100 -0.898000 1 0 1.000000 
rockcliff01a
0 -251.328903 127.319595 251.783096 -0.000000 1.000000 0.000000 0.947000 -0.267500 1 0 1.000000 
0 -49.527103 127.319603 251.783096 -0.000000 1.000000 0.000000 0.947000 -0.462000 1 0 1.000000 
0 402.767609 126.990318 -260.216888 -0.004700 0.999988 -0.001400 0.053100 -0.898000 1 0 1.000000 
rockcliff01a
0 -352.229797 127.319588 251.783096 -0.000000 1.000000 0.000000 0.947000 -0.170200 1 0 1.000000 
0 -251.328903 127.319595 251.783096 -0.000000 1.000000 0.000000 0.947000 -0.267500 1 0 1.000000 
0 402.767609 126.990318 -260.216888 -0.004700 0.999988 -0.001400 0.053100 -0.898000 1 0 1.000000 
rockcliff01a
0 402.767609 126.990318 -260.216888 -0.004700 0.999988 -0.001400 0.053100 -0.898000 1 0 1.000000 
0 -481.052307 127.051575 -260.719208 0.000100 1.000000 -0.000700 0.053100 -0.170200 1 0 1.000000 
0 -352.229797 127.319588 251.783096 -0.000000 1.000000 0.000000 0.947000 -0.170200 1 0 1.000000 
rockcliff01a
0 -481.052307 127.051575 -260.719208 0.001100 0.999999 -0.001000 0.052300 -0.046100 1 0 1.000000 
0 -394.766815 127.319588 197.948395 0.010100 0.999907 -0.009200 0.853000 -0.129200 1 0 1.000000 
0 -352.229797 127.319588 251.783096 -0.000000 1.000000 0.000000 0.947000 -0.170200 1 0 1.000000 
rockcliff01a
0 -481.052307 127.051575 -260.719208 0.001100 0.999999 -0.001000 0.052300 -0.046100 1 0 1.000000 
0 -407.385895 127.319588 183.277893 0.009200 0.999917 -0.009000 0.827400 -0.117100 1 0 1.000000 
0 -394.766815 127.319588 197.948395 0.010100 0.999907 -0.009200 0.853000 -0.129200 1 0 1.000000 
rockcliff01a
0 196.543106 -95.540390 -90.854301 -0.042101 -0.998818 0.024300 0.750000 -0.646400 1 0 1.000000 
0 237.362106 -99.590996 -266.730103 -0.068299 -0.997586 0.012500 0.872300 -0.948400 1 0 1.000000 
0 262.891388 -101.028587 -260.216888 -0.042101 -0.998818 0.024300 0.945300 -0.935800 1 0 1.000000 
rockcliff01a
0 262.891388 -101.028587 -260.216888 -0.042101 -0.998818 0.024300 0.945300 -0.935800 1 0 1.000000 
0 208.376404 -94.082291 12.476600 -0.042101 -0.998818 0.024300 0.780800 -0.467200 1 0 1.000000 
0 196.543106 -95.540390 -90.854301 -0.042101 -0.998818 0.024300 0.750000 -0.646400 1 0 1.000000 
rockcliff01a
0 -62.655197 -104.057999 31.039301 0.906006 -0.254902 0.337902 0.881100 -0.431900 1 0 1.000000 
0 -75.121292 -96.257698 77.078201 0.906006 -0.254902 0.337902 0.831800 -0.351100 1 0 1.000000 
0 -79.765694 -110.026100 77.462601 0.906006 -0.254902 0.337902 0.813400 -0.350400 1 0 1.000000 
rockcliff01a
0 -79.765694 -110.026100 77.462601 0.906006 -0.254902 0.337902 0.813400 -0.350400 1 0 1.000000 
0 -70.242790 -114.011902 43.396500 0.900939 -0.280012 0.331514 0.851100 -0.410200 1 0 1.000000 
0 -62.655197 -104.057999 31.039301 0.906006 -0.254902 0.337902 0.881100 -0.431900 1 0 1.000000 
rockcliff01a
0 69.048004 -97.548698 163.976303 0.013200 -0.985817 0.167303 0.376900 -0.212200 1 0 1.000000 
0 147.816193 -98.589294 148.681900 0.013200 -0.985817 0.167303 0.603100 -0.234700 1 0 1.000000 
0 148.162994 -79.857292 261.359985 0.021700 -0.976086 0.216297 0.645900 -0.061000 1 0 1.000000 
rockcliff01a
0 69.048004 -97.548698 163.976303 0.013200 -0.985817 0.167303 0.376900 -0.212200 1 0 1.000000 
0 131.014694 -103.857193 108.817398 0.013200 -0.985817 0.167303 0.556200 -0.304500 1 0 1.000000 
0 147.816193 -98.589294 148.681900 0.013200 -0.985817 0.167303 0.603100 -0.234700 1 0 1.000000 
rockcliff01a
0 109.867905 -135.622894 -261.313599 -0.151005 -0.985134 0.081903 0.506700 -0.945400 1 0 1.000000 
0 172.645493 -136.746902 -260.765289 -0.021399 -0.996677 0.078598 0.686600 -0.941300 1 0 1.000000 
0 119.150208 -116.188393 70.064301 -0.151005 -0.985134 0.081903 0.523300 -0.372100 1 0 1.000000 
rockcliff01a
0 119.150208 -116.188393 70.064301 -0.151005 -0.985134 0.081903 0.523300 -0.372100 1 0 1.000000 
0 69.048004 -97.548698 163.976303 -0.278007 -0.956925 0.083702 0.376900 -0.212200 1 0 1.000000 
0 109.867905 -135.622894 -261.313599 -0.151005 -0.985134 0.081903 0.506700 -0.945400 1 0 1.000000 
rockcliff01a
0 -213.018494 -82.510406 -231.715393 -0.487807 -0.872213 -0.035901 0.286400 -0.893500 1 0 1.000000 
0 -173.691803 -103.099411 -231.499298 -0.520898 -0.852996 -0.032600 0.441900 -0.893100 1 0 1.000000 
0 -193.342407 -104.428909 173.271896 -0.487807 -0.872213 -0.035901 0.364200 -0.182100 1 0 1.000000 
rockcliff01a
0 -193.342407 -104.428909 173.271896 -0.487807 -0.872213 -0.035901 0.364200 -0.182100 1 0 1.000000 
0 -255.336197 -78.962006 223.072006 -0.454019 -0.890138 -0.039002 0.119000 -0.074900 1 0 1.000000 
0 -213.018494 -82.510406 -231.715393 -0.487807 -0.872213 -0.035901 0.286400 -0.893500 1 0 1.000000 
rockcliff01a
0 -453.080902 49.010983 150.955597 -0.796460 0.270386 0.540873 0.577400 -0.223100 1 0 1.000000 
0 -444.103485 131.869583 110.825897 -0.796460 0.270386 0.540873 0.926500 -0.293600 1 0 1.000000 
0 -478.355103 129.682480 54.640202 -0.796460 0.270386 0.540873 0.917300 -0.392300 1 0 1.000000 
rockcliff01a
0 -478.355103 129.682480 54.640202 -0.796460 0.270386 0.540873 0.917300 -0.392300 1 0 1.000000 
0 -499.469910 69.019775 53.358200 -0.824743 0.237912 0.513027 0.661700 -0.394500 1 0 1.000000 
0 -453.080902 49.010983 150.955597 -0.796460 0.270386 0.540873 0.577400 -0.223100 1 0 1.000000 
rockcliff01a
0 196.543106 -95.540390 -90.854301 0.562805 -0.808708 0.171002 0.750000 -0.646400 1 0 1.000000 
0 131.014694 -103.857193 108.817398 0.479809 -0.867416 0.131802 0.556200 -0.304500 1 0 1.000000 
0 119.150208 -116.188393 70.064301 0.596703 -0.783103 0.175201 0.523300 -0.372100 1 0 1.000000 
rockcliff01a
0 172.645493 -136.746902 -260.765289 0.596703 -0.783103 0.175201 0.686600 -0.941300 1 0 1.000000 
0 196.543106 -95.540390 -90.854301 0.562805 -0.808708 0.171002 0.750000 -0.646400 1 0 1.000000 
0 119.150208 -116.188393 70.064301 0.596703 -0.783103 0.175201 0.523300 -0.372100 1 0 1.000000 
rockcliff01a
0 196.543106 -95.540390 -90.854301 0.562805 -0.808708 0.171002 0.750000 -0.646400 1 0 1.000000 
0 172.645493 -136.746902 -260.765289 0.596703 -0.783103 0.175201 0.686600 -0.941300 1 0 1.000000 
0 237.362106 -99.590996 -266.730103 0.557210 -0.809614 0.184503 0.872300 -0.948400 1 0 1.000000 
rockcliff01a
0 361.644714 -75.439285 -260.216888 0.493692 -0.869486 0.016200 0.580800 -0.912100 1 0 1.000000 
0 346.548615 -75.722687 245.382996 0.493692 -0.869486 0.016200 0.516500 -0.119000 1 0 1.000000 
0 272.683014 -112.122383 212.972900 0.493692 -0.869486 0.016200 0.362700 -0.186800 1 0 1.000000 
rockcliff01a
0 -119.454292 -128.708603 -259.358612 -0.156300 -0.985799 0.061400 0.656500 -0.942100 1 0 1.000000 
0 -78.525795 -123.913902 31.897600 -0.137295 -0.989561 0.043798 0.818300 -0.430400 1 0 1.000000 
0 -96.657295 -112.637009 83.116096 -0.431423 -0.897748 0.089005 0.746600 -0.340500 1 0 1.000000 
rockcliff01a
0 -119.454292 -128.708603 -259.358612 -0.156300 -0.985799 0.061400 0.656500 -0.942100 1 0 1.000000 
0 -71.528191 -125.085098 -137.463196 -0.013300 -0.998871 0.045599 0.846000 -0.728000 1 0 1.000000 
0 -78.525795 -123.913902 31.897600 -0.137295 -0.989561 0.043798 0.818300 -0.430400 1 0 1.000000 
rockcliff01a
0 -119.454292 -128.708603 -259.358612 -0.156300 -0.985799 0.061400 0.656500 -0.942100 1 0 1.000000 
0 -71.927292 -132.301605 -259.358612 -0.087604 -0.993041 0.078703 0.844400 -0.942100 1 0 1.000000 
0 -71.528191 -125.085098 -137.463196 -0.013300 -0.998871 0.045599 0.846000 -0.728000 1 0 1.000000 
rockcliff01a
0 -368.791595 -83.515717 -13.861900 -0.646032 -0.763138 0.016201 0.409500 -0.509900 1 0 1.000000 
0 -340.962891 -103.861115 100.572403 -0.716096 -0.697896 0.012100 0.490100 -0.315500 1 0 1.000000 
0 -364.454590 -76.888512 255.192993 -0.720412 -0.692611 0.036001 0.406800 -0.052100 1 0 1.000000 
rockcliff01a
0 -340.744202 -109.459213 -263.697815 -0.692387 -0.721286 0.018600 0.490900 -0.950000 1 0 1.000000 
0 -340.962891 -103.861115 100.572403 -0.716096 -0.697896 0.012100 0.490100 -0.315500 1 0 1.000000 
0 -368.791595 -83.515717 -13.861900 -0.646032 -0.763138 0.016201 0.409500 -0.509900 1 0 1.000000 
rockcliff01a
0 -340.962891 -103.861115 100.572403 -0.716096 -0.697896 0.012100 0.490100 -0.315500 1 0 1.000000 
0 -340.744202 -109.459213 -263.697815 -0.692387 -0.721286 0.018600 0.490900 -0.950000 1 0 1.000000 
0 -324.271088 -121.851418 -260.684998 -0.661104 -0.750104 0.016900 0.549400 -0.944800 1 0 1.000000 
rockcliff01a
0 -368.791595 -83.515717 -13.861900 -0.646032 -0.763138 0.016201 0.409500 -0.509900 1 0 1.000000 
0 -364.454590 -76.888512 255.192993 -0.594579 -0.803172 0.037299 0.406800 -0.052100 1 0 1.000000 
0 -377.401703 -70.240318 210.237106 -0.594579 -0.803172 0.037299 0.360900 -0.124500 1 0 1.000000 
rockcliff01a
0 -286.967010 -111.917114 178.885803 0.640887 -0.731485 0.232795 0.681700 -0.179100 1 0 1.000000 
0 -267.021393 -80.127014 249.317093 0.640887 -0.731485 0.232795 0.752500 -0.051600 1 0 1.000000 
0 -292.156097 -94.845917 266.730194 0.640887 -0.731485 0.232795 0.663300 -0.050000 1 0 1.000000 
rockcliff01a
0 -286.967010 -111.917114 178.885803 0.640887 -0.731485 0.232795 0.681700 -0.179100 1 0 1.000000 
0 -255.336197 -78.962006 223.072006 0.600296 -0.756095 0.260698 0.794000 -0.082600 1 0 1.000000 
0 -267.021393 -80.127014 249.317093 0.640887 -0.731485 0.232795 0.752500 -0.051600 1 0 1.000000 
rockcliff01a
0 272.683014 -112.122383 212.972900 -0.102997 -0.994270 -0.028599 0.362700 -0.186800 1 0 1.000000 
0 249.113495 -108.303192 160.733597 -0.104599 -0.993589 -0.042900 0.245100 -0.240400 1 0 1.000000 
0 262.891388 -101.028587 -260.216888 -0.102997 -0.994270 -0.028599 0.244600 -0.912100 1 0 1.000000 
rockcliff01a
0 262.891388 -101.028587 -260.216888 -0.102997 -0.994270 -0.028599 0.244600 -0.912100 1 0 1.000000 
0 327.259613 -105.049881 -260.216888 -0.072701 -0.996920 -0.029401 0.463800 -0.912100 1 0 1.000000 
0 272.683014 -112.122383 212.972900 -0.102997 -0.994270 -0.028599 0.362700 -0.186800 1 0 1.000000 
rockcliff01a
0 -12.135096 -103.277100 169.277802 -0.384208 -0.922120 0.045601 0.144100 -0.207100 1 0 1.000000 
0 -36.249695 -80.827003 155.947006 -0.731812 -0.680211 -0.042001 0.075400 -0.231400 1 0 1.000000 
0 1.162204 -92.130402 -260.216888 -0.187403 -0.981315 -0.043601 0.195100 -0.948900 1 0 1.000000 
rockcliff01a
0 -12.135096 -103.277100 169.277802 -0.384208 -0.922120 0.045601 0.144100 -0.207100 1 0 1.000000 
0 -20.004696 -93.053596 224.920700 -0.522589 -0.843782 0.122197 0.119800 -0.111300 1 0 1.000000 
0 -36.249695 -80.827003 155.947006 -0.731812 -0.680211 -0.042001 0.075400 -0.231400 1 0 1.000000 
rockcliff01a
0 -2.740396 -95.979500 231.926804 0.278293 -0.955576 0.097098 0.169100 -0.098300 1 0 1.000000 
0 -20.004696 -93.053596 224.920700 -0.522589 -0.843782 0.122197 0.119800 -0.111300 1 0 1.000000 
0 -12.135096 -103.277100 169.277802 -0.384208 -0.922120 0.045601 0.144100 -0.207100 1 0 1.000000 
rockcliff01a
0 -2.740396 -95.979500 231.926804 0.278293 -0.955576 0.097098 0.169100 -0.098300 1 0 1.000000 
0 -12.135096 -103.277100 169.277802 -0.384208 -0.922120 0.045601 0.144100 -0.207100 1 0 1.000000 
0 0.791904 -102.247704 -0.992900 0.375592 -0.926779 0.003300 0.186300 -0.500800 1 0 1.000000 
rockcliff01a
0 0.791904 -102.247704 -0.992900 0.375592 -0.926779 0.003300 0.186300 -0.500800 1 0 1.000000 
0 11.559104 -89.987099 202.647095 0.328284 -0.944054 0.031498 0.211000 -0.148200 1 0 1.000000 
0 -2.740396 -95.979500 231.926804 0.278293 -0.955576 0.097098 0.169100 -0.098300 1 0 1.000000 
rockcliff01a
0 13.638304 -94.312500 -29.063400 0.198096 -0.980181 -0.001700 0.223900 -0.540000 1 0 1.000000 
0 11.559104 -89.987099 202.647095 0.328284 -0.944054 0.031498 0.211000 -0.148200 1 0 1.000000 
0 0.791904 -102.247704 -0.992900 0.375592 -0.926779 0.003300 0.186300 -0.500800 1 0 1.000000 
rockcliff01a
0 13.638304 -94.312500 -29.063400 0.198096 -0.980181 -0.001700 0.223900 -0.540000 1 0 1.000000 
0 23.775805 -92.130402 199.593399 -0.040499 -0.999070 0.014800 0.246100 -0.152900 1 0 1.000000 
0 11.559104 -89.987099 202.647095 0.328284 -0.944054 0.031498 0.211000 -0.148200 1 0 1.000000 
rockcliff01a
0 13.638304 -94.312500 -29.063400 0.198096 -0.980181 -0.001700 0.223900 -0.540000 1 0 1.000000 
0 32.926605 -92.130402 -260.216888 0.016499 -0.999856 -0.004000 0.286200 -0.938600 1 0 1.000000 
0 23.775805 -92.130402 199.593399 -0.040499 -0.999070 0.014800 0.246100 -0.152900 1 0 1.000000 
rockcliff01a
0 1.162204 -92.130402 -260.216888 -0.187403 -0.981315 -0.043601 0.195100 -0.948900 1 0 1.000000 
0 32.926605 -92.130402 -260.216888 0.016499 -0.999856 -0.004000 0.286200 -0.938600 1 0 1.000000 
0 13.638304 -94.312500 -29.063400 0.198096 -0.980181 -0.001700 0.223900 -0.540000 1 0 1.000000 
rockcliff01a
0 1.162204 -92.130402 -260.216888 -0.187403 -0.981315 -0.043601 0.195100 -0.948900 1 0 1.000000 
0 13.638304 -94.312500 -29.063400 0.198096 -0.980181 -0.001700 0.223900 -0.540000 1 0 1.000000 
0 0.791904 -102.247704 -0.992900 0.375592 -0.926779 0.003300 0.186300 -0.500800 1 0 1.000000 
rockcliff01a
0 -12.135096 -103.277100 169.277802 -0.384208 -0.922120 0.045601 0.144100 -0.207100 1 0 1.000000 
0 1.162204 -92.130402 -260.216888 -0.187403 -0.981315 -0.043601 0.195100 -0.948900 1 0 1.000000 
0 0.791904 -102.247704 -0.992900 0.375592 -0.926779 0.003300 0.186300 -0.500800 1 0 1.000000 
rockcliff01a
0 196.543106 -95.540390 -90.854301 0.260794 -0.964377 0.044299 0.750000 -0.646400 1 0 1.000000 
0 147.816193 -98.589294 148.681900 0.260794 -0.964377 0.044299 0.603100 -0.234700 1 0 1.000000 
0 131.014694 -103.857193 108.817398 0.260794 -0.964377 0.044299 0.556200 -0.304500 1 0 1.000000 
rockcliff01a
0 -275.283905 -103.670013 100.572403 -0.020001 -0.997652 0.065503 0.723200 -0.315500 1 0 1.000000 
0 -340.962891 -103.861115 100.572403 0.003400 -0.998589 0.052999 0.490100 -0.315500 1 0 1.000000 
0 -324.271088 -121.851418 -260.684998 -0.031800 -0.996912 0.071801 0.549400 -0.944800 1 0 1.000000 
rockcliff01a
0 -324.271088 -121.851418 -260.684998 -0.031800 -0.996912 0.071801 0.549400 -0.944800 1 0 1.000000 
0 -279.226013 -121.851418 -260.684998 0.000000 -0.997753 0.066997 0.709200 -0.944800 1 0 1.000000 
0 -275.283905 -103.670013 100.572403 -0.020001 -0.997652 0.065503 0.723200 -0.315500 1 0 1.000000 
rockcliff01a
0 -340.962891 -103.861115 100.572403 0.003400 -0.990357 -0.138494 0.490100 -0.315500 1 0 1.000000 
0 -275.283905 -103.670013 100.572403 0.003400 -0.990357 -0.138494 0.723200 -0.315500 1 0 1.000000 
0 -286.967010 -111.917114 178.885803 0.003400 -0.990357 -0.138494 0.681700 -0.179100 1 0 1.000000 
rockcliff01a
0 -286.967010 -111.917114 178.885803 0.003400 -0.990357 -0.138494 0.681700 -0.179100 1 0 1.000000 
0 -340.204987 -112.108215 178.885803 0.004100 -0.990270 -0.139096 0.492800 -0.179100 1 0 1.000000 
0 -340.962891 -103.861115 100.572403 0.003400 -0.990357 -0.138494 0.490100 -0.315500 1 0 1.000000 
rockcliff01a
0 -340.204987 -112.108215 178.885803 0.004100 -0.967955 0.251088 0.492800 -0.179100 1 0 1.000000 
0 -286.967010 -111.917114 178.885803 0.004100 -0.967955 0.251088 0.681700 -0.179100 1 0 1.000000 
0 -292.156097 -94.845917 266.730194 0.041301 -0.979813 0.195603 0.663300 -0.050000 1 0 1.000000 
rockcliff01a
0 -292.156097 -94.845917 266.730194 0.041301 -0.979813 0.195603 0.663300 -0.050000 1 0 1.000000 
0 -346.381104 -94.788818 265.063812 -0.008100 -0.966060 0.258189 0.470900 -0.050800 1 0 1.000000 
0 -340.204987 -112.108215 178.885803 0.004100 -0.967955 0.251088 0.492800 -0.179100 1 0 1.000000 
rockcliff01a
0 -147.085999 -101.586311 -260.216888 -0.757703 -0.645603 0.095300 0.547200 -0.943600 1 0 1.000000 
0 -116.123795 -92.117111 106.650398 -0.757703 -0.645603 0.095300 0.669600 -0.299100 1 0 1.000000 
0 -128.559906 -71.793411 177.241501 -0.757703 -0.645603 0.095300 0.620400 -0.175100 1 0 1.000000 
rockcliff01a
0 -116.123795 -92.117111 106.650398 -0.757703 -0.645603 0.095300 0.669600 -0.299100 1 0 1.000000 
0 -147.085999 -101.586311 -260.216888 -0.757703 -0.645603 0.095300 0.547200 -0.943600 1 0 1.000000 
0 -119.454292 -128.708603 -259.358612 -0.750930 -0.653526 0.094904 0.656500 -0.942100 1 0 1.000000 
rockcliff01a
0 -119.454292 -128.708603 -259.358612 -0.750930 -0.653526 0.094904 0.656500 -0.942100 1 0 1.000000 
0 -96.657295 -112.637009 83.116096 -0.729277 -0.677179 0.097897 0.746600 -0.340500 1 0 1.000000 
0 -116.123795 -92.117111 106.650398 -0.757703 -0.645603 0.095300 0.669600 -0.299100 1 0 1.000000 
rockcliff01a
0 -56.962097 -96.725403 66.490601 0.802418 -0.596514 0.017200 0.575100 -0.358900 1 0 1.000000 
0 -62.655197 -104.057999 31.039301 0.802418 -0.596514 0.017200 0.550600 -0.420700 1 0 1.000000 
0 -60.206196 -101.112602 -117.780403 0.837713 -0.546109 0.001300 0.553600 -0.682700 1 0 1.000000 
rockcliff01a
0 -60.206196 -101.112602 -117.780403 0.837713 -0.546109 0.001300 0.553600 -0.682700 1 0 1.000000 
0 -62.655197 -104.057999 31.039301 0.802418 -0.596514 0.017200 0.550600 -0.420700 1 0 1.000000 
0 -70.242790 -114.011902 43.396500 0.837713 -0.546109 0.001300 0.520600 -0.398200 1 0 1.000000 
rockcliff01a
0 -71.528191 -125.085098 -137.463196 0.840214 -0.540409 0.044701 0.507100 -0.716100 1 0 1.000000 
0 -70.242790 -114.011902 43.396500 0.837713 -0.546109 0.001300 0.520600 -0.398200 1 0 1.000000 
0 -78.525795 -123.913902 31.897600 0.798592 -0.600994 0.032500 0.486800 -0.417500 1 0 1.000000 
rockcliff01a
0 -56.962097 -96.725403 66.490601 0.802418 -0.596514 0.017200 0.575100 -0.358900 1 0 1.000000 
0 -24.083397 -82.265900 -261.490509 0.819700 -0.569600 0.060400 0.692200 -0.939300 1 0 1.000000 
0 -30.512796 -76.329903 -87.224197 0.752927 -0.655224 0.061502 0.674800 -0.632100 1 0 1.000000 
rockcliff01a
0 -394.766815 127.319588 197.948395 -0.741379 0.046399 0.669481 0.907300 -0.140600 1 0 1.000000 
0 -407.385895 127.319588 183.277893 -0.713131 0.000900 0.701030 0.907300 -0.166400 1 0 1.000000 
0 -389.066803 -64.680412 204.890900 -0.713131 0.000900 0.701030 0.098400 -0.128400 1 0 1.000000 
rockcliff01a
0 -364.454590 -76.888512 255.192993 -0.741379 0.046399 0.669481 0.047000 -0.046100 1 0 1.000000 
0 -352.229797 127.319588 251.783096 -0.741379 0.046399 0.669481 0.907300 -0.046100 1 0 1.000000 
0 -394.766815 127.319588 197.948395 -0.741379 0.046399 0.669481 0.907300 -0.140600 1 0 1.000000 
rockcliff01a
0 -78.525795 -123.913902 31.897600 0.623124 -0.717627 0.311012 0.818300 -0.430400 1 0 1.000000 
0 -70.242790 -114.011902 43.396500 0.623124 -0.717627 0.311012 0.851100 -0.410200 1 0 1.000000 
0 -79.765694 -110.026100 77.462601 0.623124 -0.717627 0.311012 0.813400 -0.350400 1 0 1.000000 
rockcliff01a
0 346.548615 -75.722687 245.382996 0.256399 -0.041100 0.965697 0.218100 -0.462400 1 0 1.000000 
0 354.076508 127.319618 251.783096 0.755924 0.007000 0.654621 0.624100 -0.471300 1 0 1.000000 
0 196.383408 127.319611 251.783096 0.174199 -0.031900 0.984194 0.624100 -0.378200 1 0 1.000000 
rockcliff01a
0 196.383408 127.319611 251.783096 0.174199 -0.031900 0.984194 0.624100 -0.378200 1 0 1.000000 
0 201.351303 -71.358490 238.697098 0.102200 -0.093100 0.990398 0.260000 -0.393900 1 0 1.000000 
0 346.548615 -75.722687 245.382996 0.256399 -0.041100 0.965697 0.218100 -0.462400 1 0 1.000000 
rockcliff01a
0 -352.229797 127.319588 251.783096 0.150398 0.032600 0.988088 0.624100 -0.054400 1 0 1.000000 
0 -364.454590 -76.888512 255.192993 0.053102 0.009800 0.998541 0.236900 -0.047200 1 0 1.000000 
0 -267.021393 -80.127014 249.317093 0.225305 0.070701 0.971720 0.230700 -0.104700 1 0 1.000000 
rockcliff01a
0 -352.229797 127.319588 251.783096 0.150398 0.032600 0.988088 0.624100 -0.054400 1 0 1.000000 
0 -267.021393 -80.127014 249.317093 0.225305 0.070701 0.971720 0.230700 -0.104700 1 0 1.000000 
0 -254.983002 -65.701309 240.711197 0.055202 0.016601 0.998337 0.258100 -0.111800 1 0 1.000000 
rockcliff01a
0 -254.983002 -65.701309 240.711197 0.055202 0.016601 0.998337 0.258100 -0.111800 1 0 1.000000 
0 -251.328903 127.319595 251.783096 -0.086500 -0.036000 0.995601 0.624100 -0.113900 1 0 1.000000 
0 -352.229797 127.319588 251.783096 0.150398 0.032600 0.988088 0.624100 -0.054400 1 0 1.000000 
rockcliff01a
0 -251.328903 127.319595 251.783096 -0.086500 -0.036000 0.995601 0.624100 -0.113900 1 0 1.000000 
0 -254.983002 -65.701309 240.711197 0.055202 0.016601 0.998337 0.258100 -0.111800 1 0 1.000000 
0 -234.173798 -74.991508 245.860992 -0.081101 -0.027801 0.996318 0.240500 -0.124100 1 0 1.000000 
rockcliff01a
0 -251.328903 127.319595 251.783096 -0.086500 -0.036000 0.995601 0.624100 -0.113900 1 0 1.000000 
0 -234.173798 -74.991508 245.860992 -0.081101 -0.027801 0.996318 0.240500 -0.124100 1 0 1.000000 
0 -165.813293 -70.773705 240.464005 -0.100100 -0.079500 0.991796 0.248500 -0.164400 1 0 1.000000 
rockcliff01a
0 -251.328903 127.319595 251.783096 -0.086500 -0.036000 0.995601 0.624100 -0.113900 1 0 1.000000 
0 -165.813293 -70.773705 240.464005 -0.100100 -0.079500 0.991796 0.248500 -0.164400 1 0 1.000000 
0 -115.823097 -30.338705 264.362091 -0.135493 -0.040498 0.989950 0.325100 -0.193900 1 0 1.000000 
rockcliff01a
0 -251.328903 127.319595 251.783096 -0.086500 -0.036000 0.995601 0.624100 -0.113900 1 0 1.000000 
0 -115.823097 -30.338705 264.362091 -0.135493 -0.040498 0.989950 0.325100 -0.193900 1 0 1.000000 
0 -77.114998 -30.338703 264.362091 0.088798 0.018300 0.995881 0.325100 -0.216800 1 0 1.000000 
rockcliff01a
0 -77.114998 -30.338703 264.362091 0.088798 0.018300 0.995881 0.325100 -0.216800 1 0 1.000000 
0 -49.527103 127.319603 251.783096 0.045300 0.011300 0.998909 0.624100 -0.233000 1 0 1.000000 
0 -251.328903 127.319595 251.783096 -0.086500 -0.036000 0.995601 0.624100 -0.113900 1 0 1.000000 
rockcliff01a
0 -49.527103 127.319603 251.783096 0.045300 0.011300 0.998909 0.624100 -0.233000 1 0 1.000000 
0 -77.114998 -30.338703 264.362091 0.088798 0.018300 0.995881 0.325100 -0.216800 1 0 1.000000 
0 -45.516102 -39.225704 251.236893 0.159305 0.000900 0.987229 0.308300 -0.235400 1 0 1.000000 
rockcliff01a
0 -49.527103 127.319603 251.783096 0.045300 0.011300 0.998909 0.624100 -0.233000 1 0 1.000000 
0 -45.516102 -39.225704 251.236893 0.159305 0.000900 0.987229 0.308300 -0.235400 1 0 1.000000 
0 -26.666698 -64.680397 251.783096 -0.056798 -0.005800 0.998369 0.260000 -0.246500 1 0 1.000000 
rockcliff01a
0 -49.527103 127.319603 251.783096 0.045300 0.011300 0.998909 0.624100 -0.233000 1 0 1.000000 
0 -26.666698 -64.680397 251.783096 -0.056798 -0.005800 0.998369 0.260000 -0.246500 1 0 1.000000 
0 18.168001 -64.680397 251.783096 0.042301 0.012800 0.999023 0.260000 -0.273000 1 0 1.000000 
rockcliff01a
0 -49.527103 127.319603 251.783096 0.045300 0.011300 0.998909 0.624100 -0.233000 1 0 1.000000 
0 18.168001 -64.680397 251.783096 0.042301 0.012800 0.999023 0.260000 -0.273000 1 0 1.000000 
0 51.373798 -37.080395 251.783096 -0.073699 -0.000000 0.997280 0.312400 -0.292600 1 0 1.000000 
rockcliff01a
0 51.373798 -37.080395 251.783096 -0.073699 -0.000000 0.997280 0.312400 -0.292600 1 0 1.000000 
0 51.373795 127.319603 251.783096 -0.043700 0.022000 0.998802 0.624100 -0.292600 1 0 1.000000 
0 -49.527103 127.319603 251.783096 0.045300 0.011300 0.998909 0.624100 -0.233000 1 0 1.000000 
rockcliff01a
0 51.373795 127.319603 251.783096 -0.043700 0.022000 0.998802 0.624100 -0.292600 1 0 1.000000 
0 51.373798 -37.080395 251.783096 -0.073699 -0.000000 0.997280 0.312400 -0.292600 1 0 1.000000 
0 96.024399 -68.182693 263.286011 -0.087699 0.026800 0.995786 0.260000 -0.309700 1 0 1.000000 
rockcliff01a
0 51.373795 127.319603 251.783096 -0.043700 0.022000 0.998802 0.624100 -0.292600 1 0 1.000000 
0 96.024399 -68.182693 263.286011 -0.087699 0.026800 0.995786 0.260000 -0.309700 1 0 1.000000 
0 148.162994 -79.857292 261.359985 0.131901 0.038600 0.990511 0.224600 -0.359000 1 0 1.000000 
rockcliff01a
0 148.162994 -79.857292 261.359985 0.131901 0.038600 0.990511 0.224600 -0.359000 1 0 1.000000 
0 152.274704 127.319611 251.783096 -0.194106 -0.047501 0.979830 0.624100 -0.352100 1 0 1.000000 
0 51.373795 127.319603 251.783096 -0.043700 0.022000 0.998802 0.624100 -0.292600 1 0 1.000000 
rockcliff01a
0 152.274704 127.319611 251.783096 -0.194106 -0.047501 0.979830 0.624100 -0.352100 1 0 1.000000 
0 148.162994 -79.857292 261.359985 0.131901 0.038600 0.990511 0.224600 -0.359000 1 0 1.000000 
0 201.351303 -71.358490 238.697098 0.102200 -0.093100 0.990398 0.260000 -0.393900 1 0 1.000000 
rockcliff01a
0 152.274704 127.319611 251.783096 -0.194106 -0.047501 0.979830 0.624100 -0.352100 1 0 1.000000 
0 201.351303 -71.358490 238.697098 0.102200 -0.093100 0.990398 0.260000 -0.393900 1 0 1.000000 
0 196.383408 -43.980392 251.783096 -0.027801 -0.133704 0.990631 0.299300 -0.378200 1 0 1.000000 
rockcliff01a
0 196.383408 127.319611 251.783096 0.174199 -0.031900 0.984194 0.624100 -0.378200 1 0 1.000000 
0 196.383408 -43.980392 251.783096 -0.027801 -0.133704 0.990631 0.299300 -0.378200 1 0 1.000000 
0 201.351303 -71.358490 238.697098 0.102200 -0.093100 0.990398 0.260000 -0.393900 1 0 1.000000 
rockcliff01a
0 196.383408 -43.980392 251.783096 -0.027801 -0.133704 0.990631 0.299300 -0.378200 1 0 1.000000 
0 196.383408 127.319611 251.783096 0.174199 -0.031900 0.984194 0.624100 -0.378200 1 0 1.000000 
0 152.274704 127.319611 251.783096 -0.194106 -0.047501 0.979830 0.624100 -0.352100 1 0 1.000000 
rockcliff01a
0 -411.390686 -84.093414 -55.901199 0.292798 -0.946193 0.137799 0.240300 -0.588100 1 0 1.000000 
0 -402.885315 -104.145416 -260.204987 0.292798 -0.946193 0.137799 0.270400 -0.943900 1 0 1.000000 
0 -388.407410 -100.376419 -260.860596 0.292798 -0.946193 0.137799 0.321800 -0.945100 1 0 1.000000 
rockcliff01a
0 -77.114998 -30.338703 264.362091 -0.079302 -0.838620 0.538913 0.823900 -0.044200 1 0 1.000000 
0 -64.248299 -55.887905 213.518097 -0.079302 -0.838620 0.538913 0.874800 -0.111400 1 0 1.000000 
0 -45.516102 -39.225704 251.236893 -0.079302 -0.838620 0.538913 0.948900 -0.045100 1 0 1.000000 
rockcliff01a
0 -64.248299 -55.887905 213.518097 -0.079302 -0.838620 0.538913 0.874800 -0.111400 1 0 1.000000 
0 -77.114998 -30.338703 264.362091 -0.079302 -0.838620 0.538913 0.823900 -0.044200 1 0 1.000000 
0 -94.707397 -54.770504 213.816605 -0.031000 -0.834394 0.550296 0.754300 -0.110800 1 0 1.000000 
rockcliff01a
0 -64.248299 -55.887905 213.518097 -0.079302 -0.838620 0.538913 0.874800 -0.111400 1 0 1.000000 
0 -94.707397 -54.770504 213.816605 -0.031000 -0.834394 0.550296 0.754300 -0.110800 1 0 1.000000 
0 -128.559906 -71.793411 177.241501 -0.030798 -0.834353 0.550369 0.620400 -0.175100 1 0 1.000000 
rockcliff01a
0 -48.357796 -79.695999 169.958603 -0.058899 -0.818284 0.571789 0.926800 -0.187900 1 0 1.000000 
0 -64.248299 -55.887905 213.518097 -0.079302 -0.838620 0.538913 0.874800 -0.111400 1 0 1.000000 
0 -128.559906 -71.793411 177.241501 -0.030798 -0.834353 0.550369 0.620400 -0.175100 1 0 1.000000 
rockcliff01a
0 -115.823097 -30.338705 264.362091 0.000000 -0.840580 0.541687 0.670800 -0.044200 1 0 1.000000 
0 -94.707397 -54.770504 213.816605 -0.031000 -0.834394 0.550296 0.754300 -0.110800 1 0 1.000000 
0 -77.114998 -30.338703 264.362091 -0.079302 -0.838620 0.538913 0.823900 -0.044200 1 0 1.000000 
rockcliff01a
0 405.206085 6.778118 176.185806 0.749742 -0.656937 0.079504 0.757600 -0.247800 1 0 1.000000 
0 346.548615 -75.722687 245.382996 0.861582 -0.506789 0.028999 0.555100 -0.156500 1 0 1.000000 
0 361.644714 -75.439285 -260.216888 0.495705 -0.847408 0.190202 0.580800 -0.912100 1 0 1.000000 
rockcliff01a
0 361.644714 -75.439285 -260.216888 0.495705 -0.847408 0.190202 0.580800 -0.912100 1 0 1.000000 
0 424.239410 4.798819 55.463100 0.418905 -0.884609 0.204902 0.820100 -0.370800 1 0 1.000000 
0 405.206085 6.778118 176.185806 0.749742 -0.656937 0.079504 0.757600 -0.247800 1 0 1.000000 
rockcliff01a
0 361.644714 -75.439285 -260.216888 0.495705 -0.847408 0.190202 0.580800 -0.912100 1 0 1.000000 
0 450.282898 -3.171080 -3.809700 0.191909 -0.941242 0.277912 0.882600 -0.493700 1 0 1.000000 
0 424.239410 4.798819 55.463100 0.418905 -0.884609 0.204902 0.820100 -0.370800 1 0 1.000000 
rockcliff01a
0 361.644714 -75.439285 -260.216888 0.495705 -0.847408 0.190202 0.580800 -0.912100 1 0 1.000000 
0 431.348114 -64.160088 -260.216888 0.177906 -0.942232 0.283810 0.818100 -0.912100 1 0 1.000000 
0 450.282898 -3.171080 -3.809700 0.191909 -0.941242 0.277912 0.882600 -0.493700 1 0 1.000000 
rockcliff01a
0 11.559104 -89.987099 202.647095 -0.043198 -0.820459 0.570071 0.211000 -0.148200 1 0 1.000000 
0 23.775805 -92.130402 199.593399 -0.043198 -0.820459 0.570071 0.246100 -0.152900 1 0 1.000000 
0 18.168001 -64.680397 251.783096 -0.043198 -0.820459 0.570071 0.228400 -0.063000 1 0 1.000000 
rockcliff01a
0 -432.390503 -61.778618 -50.267502 -0.615909 -0.776612 0.132402 0.165800 -0.578200 1 0 1.000000 
0 -466.628113 -65.341820 -260.204987 -0.615909 -0.776612 0.132402 0.044300 -0.943900 1 0 1.000000 
0 -402.885315 -104.145416 -260.204987 -0.574473 -0.808862 0.125394 0.270400 -0.943900 1 0 1.000000 
rockcliff01a
0 -234.173798 -74.991508 245.860992 0.094502 -0.895114 0.435707 0.202700 -0.043900 1 0 1.000000 
0 -171.029404 -84.603806 203.871597 0.094502 -0.895114 0.435707 0.452500 -0.128300 1 0 1.000000 
0 -165.813293 -70.773705 240.464005 0.094502 -0.895114 0.435707 0.448400 -0.044100 1 0 1.000000 
rockcliff01a
0 69.048004 -97.548698 163.976303 -0.785606 -0.618605 -0.012300 0.376900 -0.212200 1 0 1.000000 
0 73.481308 -96.030403 -260.216888 -0.785606 -0.618605 -0.012300 0.402400 -0.945300 1 0 1.000000 
0 109.867905 -135.622894 -261.313599 -0.785606 -0.618605 -0.012300 0.506700 -0.945400 1 0 1.000000 
rockcliff01a
0 -147.085999 -101.586311 -260.216888 0.896397 -0.436998 0.074200 0.547200 -0.943600 1 0 1.000000 
0 -165.813293 -70.773705 240.464005 0.896397 -0.436998 0.074200 0.497800 -0.084000 1 0 1.000000 
0 -171.029404 -84.603806 203.871597 0.896397 -0.436998 0.074200 0.452500 -0.128300 1 0 1.000000 
rockcliff01a
0 -453.080902 49.010983 150.955597 -0.929455 -0.123694 0.347583 0.577400 -0.223100 1 0 1.000000 
0 -457.053894 -12.426120 109.668503 -0.929455 -0.123694 0.347583 0.318600 -0.295600 1 0 1.000000 
0 -434.147797 -40.402920 166.395294 -0.929455 -0.123694 0.347583 0.200700 -0.196000 1 0 1.000000 
rockcliff01a
0 -394.766815 127.319588 197.948395 -0.364488 0.015999 0.931070 0.907300 -0.140600 1 0 1.000000 
0 -389.066803 -64.680412 204.890900 -0.364488 0.015999 0.931070 0.098400 -0.128400 1 0 1.000000 
0 -377.401703 -70.240318 210.237106 -0.364488 0.015999 0.931070 0.075000 -0.119000 1 0 1.000000 
rockcliff01a
0 51.373802 -81.334000 -260.216888 -0.146005 -0.988434 -0.041001 0.339000 -0.946400 1 0 1.000000 
0 47.765705 -94.384102 174.367294 -0.146005 -0.988434 -0.041001 0.315600 -0.195300 1 0 1.000000 
0 23.775805 -92.130402 199.593399 -0.146005 -0.988434 -0.041001 0.246100 -0.152900 1 0 1.000000 
rockcliff01a
0 73.481308 -96.030403 -260.216888 -0.173696 -0.984776 -0.006800 0.402400 -0.945300 1 0 1.000000 
0 69.048004 -97.548698 163.976303 -0.173696 -0.984776 -0.006800 0.376900 -0.212200 1 0 1.000000 
0 47.765705 -94.384102 174.367294 -0.146005 -0.988434 -0.041001 0.315600 -0.195300 1 0 1.000000 
rockcliff01a
0 -213.018494 -82.510406 -231.715393 0.660320 -0.746922 0.078002 0.944100 -0.894300 1 0 1.000000 
0 -255.336197 -78.962006 223.072006 0.660320 -0.746922 0.078002 0.794000 -0.082600 1 0 1.000000 
0 -275.283905 -103.670013 100.572403 0.660320 -0.746922 0.078002 0.723200 -0.315500 1 0 1.000000 
rockcliff01a
0 -389.357697 -87.564217 -39.414001 -0.515615 -0.850125 0.106903 0.318400 -0.559300 1 0 1.000000 
0 -377.401703 -70.240318 210.237106 -0.513799 -0.852098 0.099700 0.360900 -0.124500 1 0 1.000000 
0 -389.066803 -64.680412 204.890900 -0.513799 -0.852098 0.099700 0.319500 -0.133800 1 0 1.000000 
rockcliff01a
0 450.282898 -3.171080 -3.809700 0.984474 -0.083498 0.154396 0.481800 -0.481400 1 0 1.000000 
0 466.434906 -15.211180 -130.189499 0.982127 -0.094103 0.163005 0.425300 -0.702000 1 0 1.000000 
0 456.892090 63.259621 -4.062500 0.982127 -0.094103 0.163005 0.793500 -0.481800 1 0 1.000000 
rockcliff01a
0 466.434906 -15.211180 -130.189499 0.982127 -0.094103 0.163005 0.425300 -0.702000 1 0 1.000000 
0 474.731110 57.864517 -131.052399 0.982127 -0.094103 0.163005 0.768200 -0.703500 1 0 1.000000 
0 456.892090 63.259621 -4.062500 0.982127 -0.094103 0.163005 0.793500 -0.481800 1 0 1.000000 
rockcliff01a
0 -482.828003 -17.400122 -260.216888 -0.867897 -0.490598 0.077900 0.297600 -0.945200 1 0 1.000000 
0 -434.147797 -40.402920 166.395294 -0.867897 -0.490598 0.077900 0.200700 -0.196000 1 0 1.000000 
0 -457.053894 -12.426120 109.668503 -0.867897 -0.490598 0.077900 0.318600 -0.295600 1 0 1.000000 
rockcliff01a
0 -8.145396 -76.452301 -260.463501 -0.516409 -0.853016 -0.075401 0.747400 -0.938500 1 0 1.000000 
0 -50.559196 -80.031799 125.531303 -0.516409 -0.853016 -0.075401 0.603600 -0.255800 1 0 1.000000 
0 -30.512796 -76.329903 -87.224197 -0.516409 -0.853016 -0.075401 0.674800 -0.632100 1 0 1.000000 
rockcliff01a
0 -481.052307 127.051575 -260.719208 0.506498 0.859196 -0.072400 0.052300 -0.046100 1 0 1.000000 
0 -477.398987 136.746887 -78.139702 0.506498 0.859196 -0.072400 0.371000 -0.049600 1 0 1.000000 
0 -444.103485 131.869583 110.825897 0.506498 0.859196 -0.072400 0.700900 -0.081700 1 0 1.000000 
rockcliff01a
0 -30.512796 -76.329903 -87.224197 0.862605 -0.499303 0.081300 0.674800 -0.632100 1 0 1.000000 
0 -50.559196 -80.031799 125.531303 0.862605 -0.499303 0.081300 0.603600 -0.255800 1 0 1.000000 
0 -56.962097 -96.725403 66.490601 0.862605 -0.499303 0.081300 0.575100 -0.358900 1 0 1.000000 
rockcliff01a
0 -57.976997 -97.528503 -260.216888 0.464386 -0.885374 -0.021399 0.556000 -0.933500 1 0 1.000000 
0 -24.083397 -82.265900 -261.490509 0.464386 -0.885374 -0.021399 0.692200 -0.939300 1 0 1.000000 
0 -60.206196 -101.112602 -117.780403 0.464386 -0.885374 -0.021399 0.553600 -0.682700 1 0 1.000000 
rockcliff01a
0 3.946304 -84.575996 247.470795 -0.180399 -0.680497 0.710197 0.187800 -0.071100 1 0 1.000000 
0 -16.018597 -85.499199 240.494797 -0.180399 -0.680497 0.710197 0.130800 -0.084200 1 0 1.000000 
0 -2.740396 -95.979500 231.926804 -0.222887 -0.639863 0.735457 0.169100 -0.098300 1 0 1.000000 
rockcliff01a
0 208.376404 -94.082291 12.476600 0.097997 -0.995169 0.005900 0.780800 -0.467200 1 0 1.000000 
0 147.816193 -98.589294 148.681900 0.097997 -0.995169 0.005900 0.603100 -0.234700 1 0 1.000000 
0 196.543106 -95.540390 -90.854301 0.097997 -0.995169 0.005900 0.750000 -0.646400 1 0 1.000000 
rockcliff01a
0 -20.004696 -93.053596 224.920700 -0.423997 -0.698895 0.575996 0.119800 -0.111300 1 0 1.000000 
0 -2.740396 -95.979500 231.926804 -0.351011 -0.736123 0.578718 0.169100 -0.098300 1 0 1.000000 
0 -16.018597 -85.499199 240.494797 -0.423997 -0.698895 0.575996 0.130800 -0.084200 1 0 1.000000 
rockcliff01a
0 148.162994 -79.857292 261.359985 -0.217293 -0.883170 0.415686 0.645900 -0.061000 1 0 1.000000 
0 96.024399 -68.182693 263.286011 -0.217293 -0.883170 0.415686 0.406700 -0.059900 1 0 1.000000 
0 69.048004 -97.548698 163.976303 -0.217293 -0.883170 0.415686 0.376900 -0.212200 1 0 1.000000 
rockcliff01a
0 -71.528191 -125.085098 -137.463196 0.815508 -0.574606 -0.069101 0.507100 -0.716100 1 0 1.000000 
0 -70.175591 -112.427299 -259.543701 0.817227 -0.574919 -0.040101 0.507000 -0.931000 1 0 1.000000 
0 -57.976997 -97.528503 -260.216888 0.817227 -0.574919 -0.040101 0.556000 -0.933500 1 0 1.000000 
rockcliff01a
0 -457.053894 -12.426120 109.668503 -0.940169 -0.330989 0.080797 0.318600 -0.295600 1 0 1.000000 
0 -505.031097 74.256981 -112.070099 -0.951773 -0.295892 0.081098 0.683800 -0.685000 1 0 1.000000 
0 -482.828003 -17.400122 -260.216888 -0.962658 -0.260889 0.072297 0.297600 -0.945200 1 0 1.000000 
rockcliff01a
0 -457.053894 -12.426120 109.668503 -0.940169 -0.330989 0.080797 0.318600 -0.295600 1 0 1.000000 
0 -499.469910 69.019775 53.358200 -0.996306 0.080900 0.028800 0.661700 -0.394500 1 0 1.000000 
0 -505.031097 74.256981 -112.070099 -0.998823 0.023901 0.042201 0.683800 -0.685000 1 0 1.000000 
rockcliff01a
0 -512.389587 71.525780 -260.719208 -0.994768 0.086597 0.054198 0.672300 -0.946100 1 0 1.000000 
0 -482.828003 -17.400122 -260.216888 -0.962658 -0.260889 0.072297 0.297600 -0.945200 1 0 1.000000 
0 -505.031097 74.256981 -112.070099 -0.998823 0.023901 0.042201 0.683800 -0.685000 1 0 1.000000 
rockcliff01a
0 -481.052307 127.051575 -260.719208 -0.918111 0.395905 0.018200 0.906200 -0.946100 1 0 1.000000 
0 -512.389587 71.525780 -260.719208 -0.994768 0.086597 0.054198 0.672300 -0.946100 1 0 1.000000 
0 -505.031097 74.256981 -112.070099 -0.998823 0.023901 0.042201 0.683800 -0.685000 1 0 1.000000 
rockcliff01a
0 -505.031097 74.256981 -112.070099 -0.998823 0.023901 0.042201 0.683800 -0.685000 1 0 1.000000 
0 -477.398987 136.746887 -78.139702 -0.945129 0.326110 0.019601 0.947000 -0.625400 1 0 1.000000 
0 -481.052307 127.051575 -260.719208 -0.918111 0.395905 0.018200 0.906200 -0.946100 1 0 1.000000 
rockcliff01a
0 -499.469910 69.019775 53.358200 -0.996306 0.080900 0.028800 0.661700 -0.394500 1 0 1.000000 
0 -477.398987 136.746887 -78.139702 -0.945129 0.326110 0.019601 0.947000 -0.625400 1 0 1.000000 
0 -505.031097 74.256981 -112.070099 -0.998823 0.023901 0.042201 0.683800 -0.685000 1 0 1.000000 
rockcliff01a
0 -499.469910 69.019775 53.358200 -0.996306 0.080900 0.028800 0.661700 -0.394500 1 0 1.000000 
0 -478.355103 129.682480 54.640202 -0.958236 0.285711 0.012400 0.917300 -0.392300 1 0 1.000000 
0 -477.398987 136.746887 -78.139702 -0.945129 0.326110 0.019601 0.947000 -0.625400 1 0 1.000000 
rockcliff01a
0 -39.458694 -70.453300 228.049103 -0.798819 -0.597014 0.073902 0.064000 -0.106900 1 0 1.000000 
0 -36.249695 -80.827003 155.947006 -0.831498 -0.543599 0.114500 0.075400 -0.231400 1 0 1.000000 
0 -20.004696 -93.053596 224.920700 -0.798819 -0.597014 0.073902 0.119800 -0.111300 1 0 1.000000 
rockcliff01a
0 47.765705 -94.384102 174.367294 -0.612430 -0.789639 -0.037402 0.315600 -0.195300 1 0 1.000000 
0 51.373802 -81.334000 -260.216888 -0.612430 -0.789639 -0.037402 0.339000 -0.946400 1 0 1.000000 
0 73.481308 -96.030403 -260.216888 -0.612430 -0.789639 -0.037402 0.402400 -0.945300 1 0 1.000000 
rockcliff01a
0 47.765705 -94.384102 174.367294 0.430707 -0.713212 0.553009 0.315600 -0.195300 1 0 1.000000 
0 18.168001 -64.680397 251.783096 0.430707 -0.713212 0.553009 0.228400 -0.063000 1 0 1.000000 
0 23.775805 -92.130402 199.593399 0.430707 -0.713212 0.553009 0.246100 -0.152900 1 0 1.000000 
rockcliff01a
0 -56.962097 -96.725403 66.490601 -0.825816 -0.486210 0.285706 0.903600 -0.369700 1 0 1.000000 
0 -50.559196 -80.031799 125.531303 -0.825816 -0.486210 0.285706 0.928900 -0.265900 1 0 1.000000 
0 -62.655197 -104.057999 31.039301 -0.825816 -0.486210 0.285706 0.881100 -0.431900 1 0 1.000000 
rockcliff01a
0 -147.085999 -101.586311 -260.216888 0.672513 -0.736214 0.075601 0.547200 -0.943600 1 0 1.000000 
0 -171.029404 -84.603806 203.871597 0.672513 -0.736214 0.075601 0.452500 -0.128300 1 0 1.000000 
0 -193.342407 -104.428909 173.271896 0.672513 -0.736214 0.075601 0.364200 -0.182100 1 0 1.000000 
rockcliff01a
0 -56.962097 -96.725403 66.490601 0.579771 -0.814759 0.005700 0.575100 -0.358900 1 0 1.000000 
0 -60.206196 -101.112602 -117.780403 0.547688 -0.836482 -0.018300 0.553600 -0.682700 1 0 1.000000 
0 -24.083397 -82.265900 -261.490509 0.567012 -0.823118 0.031201 0.692200 -0.939300 1 0 1.000000 
rockcliff01a
0 -48.357796 -79.695999 169.958603 -0.080297 -0.935865 0.343087 0.926800 -0.187900 1 0 1.000000 
0 -128.559906 -71.793411 177.241501 -0.080297 -0.935865 0.343087 0.620400 -0.175100 1 0 1.000000 
0 -116.123795 -92.117111 106.650398 -0.080297 -0.935865 0.343087 0.669600 -0.299100 1 0 1.000000 
rockcliff01a
0 51.373798 -37.080395 251.783096 0.171202 -0.705806 0.687406 0.323600 -0.061300 1 0 1.000000 
0 47.765705 -94.384102 174.367294 0.171202 -0.705806 0.687406 0.315600 -0.195300 1 0 1.000000 
0 69.048004 -97.548698 163.976303 0.171202 -0.705806 0.687406 0.376900 -0.212200 1 0 1.000000 
rockcliff01a
0 354.076508 127.319618 251.783096 0.755924 0.007000 0.654621 0.874500 -0.076300 1 0 1.000000 
0 346.548615 -75.722687 245.382996 0.256399 -0.041100 0.965697 0.092600 -0.076300 1 0 1.000000 
0 405.206085 6.778118 176.185806 0.940906 0.221601 0.256102 0.308900 -0.208300 1 0 1.000000 
rockcliff01a
0 -368.791595 -83.515717 -13.861900 -0.180393 -0.982964 0.035199 0.409500 -0.509900 1 0 1.000000 
0 -370.178711 -89.920113 -260.707306 -0.180393 -0.982964 0.035199 0.407500 -0.945700 1 0 1.000000 
0 -352.229797 -92.730415 -260.216888 -0.180393 -0.982964 0.035199 0.450200 -0.944000 1 0 1.000000 
rockcliff01a
0 -275.283905 -103.670013 100.572403 0.525587 -0.849780 0.040399 0.723200 -0.315500 1 0 1.000000 
0 -237.783401 -95.686104 -260.216888 0.526109 -0.850415 0.001700 0.856200 -0.944000 1 0 1.000000 
0 -213.018494 -82.510406 -231.715393 0.525587 -0.849780 0.040399 0.944100 -0.894300 1 0 1.000000 
rockcliff01a
0 -275.283905 -103.670013 100.572403 0.525587 -0.849780 0.040399 0.723200 -0.315500 1 0 1.000000 
0 -279.226013 -121.851418 -260.684998 0.580379 -0.812971 0.047298 0.709200 -0.944800 1 0 1.000000 
0 -237.783401 -95.686104 -260.216888 0.603724 -0.796832 0.024001 0.856200 -0.944000 1 0 1.000000 
rockcliff01a
0 430.916199 75.456917 120.980103 0.927582 -0.090898 0.362393 0.850700 -0.263500 1 0 1.000000 
0 418.076813 135.718109 140.437393 0.948010 0.078901 0.308303 1.133500 -0.229600 1 0 1.000000 
0 392.140686 126.637115 201.267593 0.778039 -0.058003 0.625532 1.090900 -0.123400 1 0 1.000000 
rockcliff01a
0 392.140686 126.637115 201.267593 0.778039 -0.058003 0.625532 1.090900 -0.123400 1 0 1.000000 
0 413.038086 57.745621 162.455399 0.821720 -0.109803 0.559213 0.767600 -0.191100 1 0 1.000000 
0 430.916199 75.456917 120.980103 0.927582 -0.090898 0.362393 0.850700 -0.263500 1 0 1.000000 
rockcliff01a
0 392.140686 126.637115 201.267593 0.778039 -0.058003 0.625532 1.090900 -0.123400 1 0 1.000000 
0 368.517914 83.654816 197.521896 0.523316 -0.089503 0.847425 0.889200 -0.129900 1 0 1.000000 
0 413.038086 57.745621 162.455399 0.821720 -0.109803 0.559213 0.767600 -0.191100 1 0 1.000000 
rockcliff01a
0 368.517914 83.654816 197.521896 0.523316 -0.089503 0.847425 0.889200 -0.129900 1 0 1.000000 
0 405.206085 6.778118 176.185806 0.851812 -0.006400 0.523808 0.528500 -0.167200 1 0 1.000000 
0 413.038086 57.745621 162.455399 0.821720 -0.109803 0.559213 0.767600 -0.191100 1 0 1.000000 
rockcliff01a
0 413.038086 57.745621 162.455399 0.821720 -0.109803 0.559213 0.767600 -0.191100 1 0 1.000000 
0 405.206085 6.778118 176.185806 0.851812 -0.006400 0.523808 0.528500 -0.167200 1 0 1.000000 
0 424.239410 4.798819 55.463100 0.912027 -0.258007 0.318809 0.519200 -0.377900 1 0 1.000000 
rockcliff01a
0 413.038086 57.745621 162.455399 0.821720 -0.109803 0.559213 0.767600 -0.191100 1 0 1.000000 
0 424.239410 4.798819 55.463100 0.912027 -0.258007 0.318809 0.519200 -0.377900 1 0 1.000000 
0 430.916199 75.456917 120.980103 0.927582 -0.090898 0.362393 0.850700 -0.263500 1 0 1.000000 
rockcliff01a
0 430.916199 75.456917 120.980103 0.927582 -0.090898 0.362393 0.850700 -0.263500 1 0 1.000000 
0 424.239410 4.798819 55.463100 0.912027 -0.258007 0.318809 0.519200 -0.377900 1 0 1.000000 
0 450.282898 -3.171080 -3.809700 0.900309 -0.241202 0.362304 0.481800 -0.481400 1 0 1.000000 
rockcliff01a
0 450.282898 -3.171080 -3.809700 0.900309 -0.241202 0.362304 0.481800 -0.481400 1 0 1.000000 
0 456.892090 63.259621 -4.062500 0.970534 0.032901 0.238708 0.793500 -0.481800 1 0 1.000000 
0 430.916199 75.456917 120.980103 0.927582 -0.090898 0.362393 0.850700 -0.263500 1 0 1.000000 
rockcliff01a
0 456.892090 63.259621 -4.062500 0.970534 0.032901 0.238708 0.793500 -0.481800 1 0 1.000000 
0 418.076813 135.718109 140.437393 0.948010 0.078901 0.308303 1.133500 -0.229600 1 0 1.000000 
0 430.916199 75.456917 120.980103 0.927582 -0.090898 0.362393 0.850700 -0.263500 1 0 1.000000 
rockcliff01a
0 456.892090 63.259621 -4.062500 0.970534 0.032901 0.238708 0.793500 -0.481800 1 0 1.000000 
0 452.641205 128.248718 -4.355800 0.964233 0.054902 0.259309 1.098500 -0.482400 1 0 1.000000 
0 418.076813 135.718109 140.437393 0.948010 0.078901 0.308303 1.133500 -0.229600 1 0 1.000000 
rockcliff01a
0 -45.516102 -39.225704 251.236893 -0.697636 -0.433622 0.570329 0.045900 -0.067100 1 0 1.000000 
0 -39.458694 -70.453300 228.049103 -0.697636 -0.433622 0.570329 0.064000 -0.106900 1 0 1.000000 
0 -26.666698 -64.680397 251.783096 -0.697636 -0.433622 0.570329 0.099900 -0.065200 1 0 1.000000 
rockcliff01a
0 262.891388 -101.028587 -260.216888 -0.766899 -0.640299 -0.043400 0.244600 -0.912100 1 0 1.000000 
0 249.113495 -108.303192 160.733597 -0.766899 -0.640299 -0.043400 0.245100 -0.240400 1 0 1.000000 
0 229.798798 -79.061493 -24.274500 -0.766899 -0.640299 -0.043400 0.132000 -0.527100 1 0 1.000000 
rockcliff01a
0 -26.666698 -64.680397 251.783096 -0.636117 -0.527714 0.562915 0.099900 -0.065200 1 0 1.000000 
0 -39.458694 -70.453300 228.049103 -0.636117 -0.527714 0.562915 0.064000 -0.106900 1 0 1.000000 
0 -20.004696 -93.053596 224.920700 -0.636117 -0.527714 0.562915 0.119800 -0.111300 1 0 1.000000 
rockcliff01a
0 346.548615 -75.722687 245.382996 -0.052197 -0.490177 0.870059 0.398600 -0.068000 1 0 1.000000 
0 201.351303 -71.358490 238.697098 -0.052197 -0.490177 0.870059 0.108900 -0.076700 1 0 1.000000 
0 272.683014 -112.122383 212.972900 -0.052197 -0.490177 0.870059 0.301700 -0.192000 1 0 1.000000 
rockcliff01a
0 -477.398987 136.746887 -78.139702 -0.171291 0.982850 0.068297 0.371000 -0.049600 1 0 1.000000 
0 -478.355103 129.682480 54.640202 -0.171291 0.982850 0.068297 0.602800 -0.048700 1 0 1.000000 
0 -444.103485 131.869583 110.825897 -0.171291 0.982850 0.068297 0.700900 -0.081700 1 0 1.000000 
rockcliff01a
0 -64.248299 -55.887905 213.518097 -0.633988 -0.726487 0.265095 0.874800 -0.111400 1 0 1.000000 
0 -48.357796 -79.695999 169.958603 -0.633988 -0.726487 0.265095 0.926800 -0.187900 1 0 1.000000 
0 -39.458694 -70.453300 228.049103 -0.633988 -0.726487 0.265095 0.972800 -0.085800 1 0 1.000000 
rockcliff01a
0 -64.248299 -55.887905 213.518097 -0.632974 -0.454282 0.626875 0.874800 -0.111400 1 0 1.000000 
0 -39.458694 -70.453300 228.049103 -0.632974 -0.454282 0.626875 0.972800 -0.085800 1 0 1.000000 
0 -45.516102 -39.225704 251.236893 -0.632974 -0.454282 0.626875 0.948900 -0.045100 1 0 1.000000 
rockcliff01a
0 448.659698 118.126526 -182.066605 0.946178 0.319993 -0.048499 1.051000 -0.792600 1 0 1.000000 
0 452.641205 128.248718 -4.355800 0.946178 0.319993 -0.048499 1.098500 -0.482400 1 0 1.000000 
0 474.731110 57.864517 -131.052399 0.946178 0.319993 -0.048499 0.768200 -0.703500 1 0 1.000000 
rockcliff01a
0 -340.204987 -112.108215 178.885803 -0.474916 -0.856129 0.203707 0.492800 -0.179100 1 0 1.000000 
0 -346.381104 -94.788818 265.063812 -0.479411 -0.859719 0.176204 0.470900 -0.050800 1 0 1.000000 
0 -357.940704 -95.276314 225.960602 -0.479411 -0.859719 0.176204 0.429900 -0.097100 1 0 1.000000 
rockcliff01a
0 -92.856689 -97.343010 104.126099 0.353694 -0.909985 0.216396 0.761600 -0.303500 1 0 1.000000 
0 -75.121292 -96.257698 77.078201 0.353694 -0.909985 0.216396 0.831800 -0.351100 1 0 1.000000 
0 -50.559196 -80.031799 125.531303 0.344413 -0.915234 0.209108 0.850000 -0.252300 1 0 1.000000 
rockcliff01a
0 -340.962891 -103.861115 100.572403 -0.811098 -0.580399 -0.072500 0.490100 -0.315500 1 0 1.000000 
0 -340.204987 -112.108215 178.885803 -0.809551 -0.582765 -0.070796 0.492800 -0.179100 1 0 1.000000 
0 -357.940704 -95.276314 225.960602 -0.809551 -0.582765 -0.070796 0.429900 -0.097100 1 0 1.000000 
rockcliff01a
0 -368.791595 -83.515717 -13.861900 0.157803 -0.986916 0.033101 0.373300 -0.519700 1 0 1.000000 
0 -377.401703 -70.240318 210.237106 0.135503 -0.987218 0.083902 0.360900 -0.124500 1 0 1.000000 
0 -389.357697 -87.564217 -39.414001 0.135503 -0.987218 0.083902 0.318400 -0.559300 1 0 1.000000 
rockcliff01a
0 -75.121292 -96.257698 77.078201 0.786930 -0.215408 0.578222 0.831800 -0.351100 1 0 1.000000 
0 -92.856689 -97.343010 104.126099 0.786930 -0.215408 0.578222 0.761600 -0.303500 1 0 1.000000 
0 -79.765694 -110.026100 77.462601 0.786930 -0.215408 0.578222 0.813400 -0.350400 1 0 1.000000 
rockcliff01a
0 -394.766815 127.319588 197.948395 -0.951598 -0.057600 0.301899 0.907300 -0.140600 1 0 1.000000 
0 -377.401703 -70.240318 210.237106 -0.951598 -0.057600 0.301899 0.075000 -0.119000 1 0 1.000000 
0 -364.454590 -76.888512 255.192993 -0.951598 -0.057600 0.301899 0.047000 -0.046100 1 0 1.000000 
rockcliff01a
0 -79.765694 -110.026100 77.462601 0.312402 -0.713104 0.627604 0.813400 -0.350400 1 0 1.000000 
0 -92.856689 -97.343010 104.126099 0.312402 -0.713104 0.627604 0.761600 -0.303500 1 0 1.000000 
0 -96.657295 -112.637009 83.116096 0.312402 -0.713104 0.627604 0.746600 -0.340500 1 0 1.000000 
rockcliff01a
0 -193.342407 -104.428909 173.271896 0.065497 -0.997852 -0.000700 0.364200 -0.182100 1 0 1.000000 
0 -173.691803 -103.099411 -231.499298 0.065497 -0.997852 -0.000700 0.441900 -0.893100 1 0 1.000000 
0 -147.085999 -101.586311 -260.216888 0.065497 -0.997852 -0.000700 0.547200 -0.943600 1 0 1.000000 
rockcliff01a
0 3.946304 -84.575996 247.470795 0.839821 -0.532113 0.107503 0.046600 -0.946500 1 0 1.000000 
0 -2.740396 -95.979500 231.926804 0.839821 -0.532113 0.107503 0.046600 -0.946500 1 0 1.000000 
0 18.168001 -64.680397 251.783096 0.839821 -0.532113 0.107503 0.046600 -0.946500 1 0 1.000000 
rockcliff01a
0 -370.178711 -89.920113 -260.707306 0.157803 -0.986916 0.033101 0.365500 -0.944000 1 0 1.000000 
0 -368.791595 -83.515717 -13.861900 0.234791 -0.968163 0.086797 0.373300 -0.519700 1 0 1.000000 
0 -389.357697 -87.564217 -39.414001 0.232311 -0.971945 0.036802 0.318400 -0.559300 1 0 1.000000 
rockcliff01a
0 -26.666698 -64.680397 251.783096 -0.238102 -0.453604 0.858808 0.099900 -0.065200 1 0 1.000000 
0 -16.018597 -85.499199 240.494797 -0.238102 -0.453604 0.858808 0.130800 -0.084200 1 0 1.000000 
0 3.946304 -84.575996 247.470795 -0.238102 -0.453604 0.858808 0.187800 -0.071100 1 0 1.000000 
rockcliff01a
0 -193.342407 -104.428909 173.271896 0.063002 -0.780623 0.621818 0.364200 -0.182100 1 0 1.000000 
0 -171.029404 -84.603806 203.871597 0.063002 -0.780623 0.621818 0.452500 -0.128300 1 0 1.000000 
0 -255.336197 -78.962006 223.072006 0.063002 -0.780623 0.621818 0.119000 -0.074900 1 0 1.000000 
rockcliff01a
0 -75.121292 -96.257698 77.078201 0.180198 -0.945991 0.269497 0.831800 -0.351100 1 0 1.000000 
0 -62.655197 -104.057999 31.039301 0.180198 -0.945991 0.269497 0.881100 -0.431900 1 0 1.000000 
0 -50.559196 -80.031799 125.531303 0.231099 -0.931196 0.281899 0.928900 -0.265900 1 0 1.000000 
rockcliff01a
0 1.162204 -92.130402 -260.216888 -0.886988 -0.452494 -0.092199 0.195100 -0.940200 1 0 1.000000 
0 -36.249695 -80.827003 155.947006 -0.888407 -0.452904 -0.074901 0.075400 -0.231400 1 0 1.000000 
0 -8.145396 -76.452301 -260.463501 -0.888407 -0.452904 -0.074901 0.111500 -0.607900 1 0 1.000000 
rockcliff01a
0 456.892090 63.259621 -4.062500 0.986306 0.055800 0.155201 0.793500 -0.481800 1 0 1.000000 
0 474.731110 57.864517 -131.052399 0.986306 0.055800 0.155201 0.768200 -0.703500 1 0 1.000000 
0 452.641205 128.248718 -4.355800 0.986306 0.055800 0.155201 1.098500 -0.482400 1 0 1.000000 
rockcliff01a
0 208.376404 -94.082291 12.476600 0.452405 -0.871009 0.191502 0.780800 -0.467200 1 0 1.000000 
0 148.162994 -79.857292 261.359985 0.452405 -0.871009 0.191502 0.645900 -0.061000 1 0 1.000000 
0 147.816193 -98.589294 148.681900 0.452405 -0.871009 0.191502 0.603100 -0.234700 1 0 1.000000 
rockcliff01a
0 450.282898 -3.171080 -3.809700 0.625095 -0.757694 0.187499 0.882600 -0.493700 1 0 1.000000 
0 431.348114 -64.160088 -260.216888 0.625095 -0.757694 0.187499 0.818100 -0.912100 1 0 1.000000 
0 466.434906 -15.211180 -130.189499 0.625095 -0.757694 0.187499 0.914400 -0.705800 1 0 1.000000 
rockcliff01a
0 208.376404 -94.082291 12.476600 -0.597317 -0.797423 0.085603 0.780800 -0.467200 1 0 1.000000 
0 249.113495 -108.303192 160.733597 -0.597317 -0.797423 0.085603 0.764900 -0.177000 1 0 1.000000 
0 201.351303 -71.358490 238.697098 -0.597317 -0.797423 0.085603 0.691300 -0.054900 1 0 1.000000 
rockcliff01a
0 -421.613708 48.346680 193.893997 -0.844374 0.181194 0.504184 0.574600 -0.147700 1 0 1.000000 
0 -407.385895 127.319588 183.277893 -0.844374 0.181194 0.504184 0.907300 -0.166400 1 0 1.000000 
0 -444.103485 131.869583 110.825897 -0.844374 0.181194 0.504184 0.926500 -0.293600 1 0 1.000000 
rockcliff01a
0 18.168001 -64.680397 251.783096 -0.015300 -0.151295 0.988370 0.228400 -0.063000 1 0 1.000000 
0 -26.666698 -64.680397 251.783096 0.000000 -0.160506 0.987035 0.099900 -0.065200 1 0 1.000000 
0 3.946304 -84.575996 247.470795 -0.015300 -0.151295 0.988370 0.187800 -0.071100 1 0 1.000000 
rockcliff01a
0 -481.052307 127.051575 -260.719208 0.211906 0.976429 -0.041001 0.052300 -0.046100 1 0 1.000000 
0 -444.103485 131.869583 110.825897 0.211906 0.976429 -0.041001 0.700900 -0.081700 1 0 1.000000 
0 -407.385895 127.319588 183.277893 0.211906 0.976429 -0.041001 0.827400 -0.117100 1 0 1.000000 
rockcliff01a
0 -165.813293 -70.773705 240.464005 0.367097 -0.673495 0.641595 0.448400 -0.044100 1 0 1.000000 
0 -94.707397 -54.770504 213.816605 0.435397 -0.699894 0.566196 0.754300 -0.110800 1 0 1.000000 
0 -115.823097 -30.338705 264.362091 0.367097 -0.673495 0.641595 0.670800 -0.044200 1 0 1.000000 
rockcliff01a
0 -71.528191 -125.085098 -137.463196 0.997159 -0.075297 0.002200 0.484000 -0.714000 1 0 1.000000 
0 -71.927292 -132.301605 -259.358612 0.997159 -0.075297 0.002200 0.418100 -0.932700 1 0 1.000000 
0 -70.175591 -112.427299 -259.543701 0.997159 -0.075297 0.002200 0.507000 -0.931000 1 0 1.000000 
rockcliff01a
0 -147.085999 -101.586311 -260.216888 0.095198 -0.991780 0.085498 0.547200 -0.943600 1 0 1.000000 
0 -128.559906 -71.793411 177.241501 0.095198 -0.991780 0.085498 0.620400 -0.175100 1 0 1.000000 
0 -165.813293 -70.773705 240.464005 0.095198 -0.991780 0.085498 0.497800 -0.084000 1 0 1.000000 
rockcliff01a
0 69.048004 -97.548698 163.976303 0.154304 -0.927823 0.339609 0.376900 -0.212200 1 0 1.000000 
0 119.150208 -116.188393 70.064301 0.154304 -0.927823 0.339609 0.523300 -0.372100 1 0 1.000000 
0 131.014694 -103.857193 108.817398 0.154304 -0.927823 0.339609 0.556200 -0.304500 1 0 1.000000 
rockcliff01a
0 23.775805 -92.130402 199.593399 0.563806 -0.825808 0.012800 0.246100 -0.152900 1 0 1.000000 
0 32.926605 -92.130402 -260.216888 0.563919 -0.825828 0.002000 0.286200 -0.947300 1 0 1.000000 
0 51.373802 -81.334000 -260.216888 0.563919 -0.825828 0.002000 0.339000 -0.946400 1 0 1.000000 
rockcliff01a
0 -421.613708 48.346680 193.893997 -0.730199 0.292200 0.617599 0.574600 -0.147700 1 0 1.000000 
0 -444.103485 131.869583 110.825897 -0.730199 0.292200 0.617599 0.926500 -0.293600 1 0 1.000000 
0 -453.080902 49.010983 150.955597 -0.730199 0.292200 0.617599 0.577400 -0.223100 1 0 1.000000 
rockcliff01a
0 -357.940704 -95.276314 225.960602 -0.780416 -0.562511 0.273006 0.429900 -0.097100 1 0 1.000000 
0 -346.381104 -94.788818 265.063812 -0.780416 -0.562511 0.273006 0.470900 -0.050800 1 0 1.000000 
0 -364.454590 -76.888512 255.192993 -0.780416 -0.562511 0.273006 0.406800 -0.052100 1 0 1.000000 
rockcliff01a
0 -434.147797 -40.402920 166.395294 -0.765994 -0.056100 0.640395 0.200700 -0.196000 1 0 1.000000 
0 -421.613708 48.346680 193.893997 -0.765994 -0.056100 0.640395 0.574600 -0.147700 1 0 1.000000 
0 -453.080902 49.010983 150.955597 -0.765994 -0.056100 0.640395 0.577400 -0.223100 1 0 1.000000 
rockcliff01a
0 -267.021393 -80.127014 249.317093 0.064197 0.428282 0.901362 0.230700 -0.104700 1 0 1.000000 
0 -364.454590 -76.888512 255.192993 0.064197 0.428282 0.901362 0.236900 -0.047200 1 0 1.000000 
0 -346.381104 -94.788818 265.063812 0.064197 0.428282 0.901362 0.202900 -0.057800 1 0 1.000000 
rockcliff01a
0 -499.469910 69.019775 53.358200 -0.884675 -0.169795 0.434188 0.661700 -0.394500 1 0 1.000000 
0 -457.053894 -12.426120 109.668503 -0.884675 -0.169795 0.434188 0.318600 -0.295600 1 0 1.000000 
0 -453.080902 49.010983 150.955597 -0.884675 -0.169795 0.434188 0.577400 -0.223100 1 0 1.000000 
rockcliff01a
0 -213.018494 -82.510406 -231.715393 -0.443187 -0.729779 -0.520585 0.286400 -0.893500 1 0 1.000000 
0 -147.085999 -101.586311 -260.216888 -0.443187 -0.729779 -0.520585 0.547200 -0.943600 1 0 1.000000 
0 -173.691803 -103.099411 -231.499298 -0.443187 -0.729779 -0.520585 0.441900 -0.893100 1 0 1.000000 
rockcliff01a
0 -30.512796 -76.329903 -87.224197 0.388094 -0.919786 0.058099 0.674800 -0.632100 1 0 1.000000 
0 -24.083397 -82.265900 -261.490509 0.388094 -0.919786 0.058099 0.692200 -0.939300 1 0 1.000000 
0 -8.145396 -76.452301 -260.463501 0.388094 -0.919786 0.058099 0.747400 -0.938500 1 0 1.000000 
rockcliff01a
0 -147.085999 -101.586311 -260.216888 -0.062300 -0.820804 0.567803 0.547200 -0.943600 1 0 1.000000 
0 -213.018494 -82.510406 -231.715393 -0.062300 -0.820804 0.567803 0.286400 -0.893500 1 0 1.000000 
0 -237.783401 -95.686104 -260.216888 -0.062300 -0.820804 0.567803 0.286600 -0.943400 1 0 1.000000 
rockcliff01a
0 -57.976997 -97.528503 -260.216888 -0.309700 0.633900 0.708700 0.046600 -0.946500 1 0 1.000000 
0 -8.145396 -76.452301 -260.463501 -0.309700 0.633900 0.708700 0.046600 -0.946500 1 0 1.000000 
0 -24.083397 -82.265900 -261.490509 -0.309700 0.633900 0.708700 0.046600 -0.946500 1 0 1.000000 
rockcliff01a
0 -421.613708 48.346680 193.893997 0.518906 0.006000 0.854810 0.574600 -0.147700 1 0 1.000000 
0 -398.770294 -69.924316 179.160706 0.518906 0.006000 0.854810 0.076400 -0.173600 1 0 1.000000 
0 -407.385895 127.319588 183.277893 0.518906 0.006000 0.854810 0.907300 -0.166400 1 0 1.000000 
rockcliff01a
0 -411.390686 -84.093414 -55.901199 -0.226809 -0.971139 0.073803 0.240300 -0.588100 1 0 1.000000 
0 -388.407410 -100.376419 -260.860596 -0.226809 -0.971139 0.073803 0.321800 -0.945100 1 0 1.000000 
0 -389.357697 -87.564217 -39.414001 -0.177396 -0.979377 0.096698 0.318400 -0.559300 1 0 1.000000 
rockcliff01a
0 -57.976997 -97.528503 -260.216888 0.926085 -0.377294 0.003900 0.556000 -0.933500 1 0 1.000000 
0 -60.206196 -101.112602 -117.780403 0.926085 -0.377294 0.003900 0.553600 -0.682700 1 0 1.000000 
0 -71.528191 -125.085098 -137.463196 0.911233 -0.409415 -0.045102 0.507100 -0.716100 1 0 1.000000 
rockcliff01a
0 -60.206196 -101.112602 -117.780403 0.926085 -0.377294 0.003900 0.553600 -0.682700 1 0 1.000000 
0 -70.242790 -114.011902 43.396500 0.921386 -0.387894 0.024200 0.520600 -0.398200 1 0 1.000000 
0 -71.528191 -125.085098 -137.463196 0.911233 -0.409415 -0.045102 0.507100 -0.716100 1 0 1.000000 
rockcliff01a
0 -352.229797 -92.730415 -260.216888 -0.862421 -0.506112 -0.009000 0.450200 -0.944000 1 0 1.000000 
0 -340.744202 -109.459213 -263.697815 -0.862421 -0.506112 -0.009000 0.490900 -0.950000 1 0 1.000000 
0 -368.791595 -83.515717 -13.861900 -0.863886 -0.501992 -0.041299 0.409500 -0.509900 1 0 1.000000 
rockcliff01a
0 -434.147797 -40.402920 166.395294 -0.306607 -0.928920 0.207604 0.159500 -0.200800 1 0 1.000000 
0 -411.390686 -84.093414 -55.901199 -0.306607 -0.928920 0.207604 0.240300 -0.588100 1 0 1.000000 
0 -389.357697 -87.564217 -39.414001 -0.306607 -0.928920 0.207604 0.318400 -0.559300 1 0 1.000000 
rockcliff01a
0 -434.147797 -40.402920 166.395294 -0.431017 -0.154406 0.889035 0.200700 -0.196000 1 0 1.000000 
0 -398.770294 -69.924316 179.160706 -0.431017 -0.154406 0.889035 0.076400 -0.173600 1 0 1.000000 
0 -421.613708 48.346680 193.893997 -0.431017 -0.154406 0.889035 0.574600 -0.147700 1 0 1.000000 
rockcliff01a
0 -254.983002 -65.701309 240.711197 0.821861 -0.411680 0.393781 0.120400 -0.043900 1 0 1.000000 
0 -267.021393 -80.127014 249.317093 0.821861 -0.411680 0.393781 0.072800 -0.043600 1 0 1.000000 
0 -255.336197 -78.962006 223.072006 0.821861 -0.411680 0.393781 0.119000 -0.074900 1 0 1.000000 
rockcliff01a
0 -389.357697 -87.564217 -39.414001 -0.703686 -0.709286 0.041699 0.318400 -0.559300 1 0 1.000000 
0 -398.770294 -69.924316 179.160706 -0.703686 -0.709286 0.041699 0.285000 -0.178600 1 0 1.000000 
0 -434.147797 -40.402920 166.395294 -0.703686 -0.709286 0.041699 0.159500 -0.200800 1 0 1.000000 
rockcliff01a
0 249.113495 -108.303192 160.733597 -0.506125 -0.843742 0.178709 0.764900 -0.177000 1 0 1.000000 
0 272.683014 -112.122383 212.972900 -0.506125 -0.843742 0.178709 0.886800 -0.069100 1 0 1.000000 
0 201.351303 -71.358490 238.697098 -0.506125 -0.843742 0.178709 0.691300 -0.054900 1 0 1.000000 
rockcliff01a
0 51.373798 -37.080395 251.783096 -0.622797 -0.642397 0.446598 0.323600 -0.061300 1 0 1.000000 
0 69.048004 -97.548698 163.976303 -0.622797 -0.642397 0.446598 0.376900 -0.212200 1 0 1.000000 
0 96.024399 -68.182693 263.286011 -0.622797 -0.642397 0.446598 0.406700 -0.059900 1 0 1.000000 
rockcliff01a
0 -255.336197 -78.962006 223.072006 0.753522 -0.656419 0.036301 0.794000 -0.082600 1 0 1.000000 
0 -286.967010 -111.917114 178.885803 0.753522 -0.656419 0.036301 0.681700 -0.179100 1 0 1.000000 
0 -275.283905 -103.670013 100.572403 0.753522 -0.656419 0.036301 0.723200 -0.315500 1 0 1.000000 
rockcliff01a
0 -2.740396 -95.979500 231.926804 0.772213 -0.572909 0.274704 0.169100 -0.098300 1 0 1.000000 
0 11.559104 -89.987099 202.647095 0.772213 -0.572909 0.274704 0.211000 -0.148200 1 0 1.000000 
0 18.168001 -64.680397 251.783096 0.772213 -0.572909 0.274704 0.228400 -0.063000 1 0 1.000000 
rockcliff01a
0 -432.390503 -61.778618 -50.267502 -0.944462 -0.273489 0.182193 0.110700 -0.576500 1 0 1.000000 
0 -482.828003 -17.400122 -260.216888 -0.944462 -0.273489 0.182193 0.297600 -0.945200 1 0 1.000000 
0 -466.628113 -65.341820 -260.204987 -0.944462 -0.273489 0.182193 0.095700 -0.945200 1 0 1.000000 
rockcliff01a
0 512.389587 53.337124 -263.726410 0.859302 -0.415901 0.297701 0.747000 -0.935200 1 0 1.000000 
0 474.731110 57.864517 -131.052399 0.859302 -0.415901 0.297701 0.768200 -0.703500 1 0 1.000000 
0 468.983185 -23.539379 -263.726410 0.859302 -0.415901 0.297701 0.386200 -0.935200 1 0 1.000000 
rockcliff01a
0 -254.983002 -65.701309 240.711197 -0.460897 -0.621496 0.633496 0.120400 -0.043900 1 0 1.000000 
0 -255.336197 -78.962006 223.072006 -0.460897 -0.621496 0.633496 0.119000 -0.074900 1 0 1.000000 
0 -234.173798 -74.991508 245.860992 -0.460897 -0.621496 0.633496 0.202700 -0.043900 1 0 1.000000 
rockcliff01a
0 448.659698 118.126526 -182.066605 0.844067 0.473181 0.252290 1.051000 -0.792600 1 0 1.000000 
0 474.731110 57.864517 -131.052399 0.844067 0.473181 0.252290 0.768200 -0.703500 1 0 1.000000 
0 512.389587 53.337124 -263.726410 0.844067 0.473181 0.252290 0.747000 -0.935200 1 0 1.000000 
rockcliff01a
0 -234.173798 -74.991508 245.860992 -0.025399 -0.967474 0.251693 0.202700 -0.043900 1 0 1.000000 
0 -255.336197 -78.962006 223.072006 -0.025399 -0.967474 0.251693 0.119000 -0.074900 1 0 1.000000 
0 -171.029404 -84.603806 203.871597 -0.025399 -0.967474 0.251693 0.452500 -0.128300 1 0 1.000000 
rockcliff01a
0 405.206085 6.778118 176.185806 0.940906 0.221601 0.256102 0.528500 -0.167200 1 0 1.000000 
0 368.517914 83.654816 197.521896 0.962056 0.018999 0.272188 0.889200 -0.129900 1 0 1.000000 
0 354.076508 127.319618 251.783096 0.755924 0.007000 0.654621 1.094100 -0.035200 1 0 1.000000 
rockcliff01a
0 368.517914 83.654816 197.521896 0.962056 0.018999 0.272188 0.889200 -0.129900 1 0 1.000000 
0 392.140686 126.637115 201.267593 0.700664 -0.369981 0.610069 1.090900 -0.123400 1 0 1.000000 
0 354.076508 127.319618 251.783096 0.755924 0.007000 0.654621 1.094100 -0.035200 1 0 1.000000 
rockcliff01a
0 -20.004696 -93.053596 224.920700 -0.730990 -0.455294 0.508293 0.119800 -0.111300 1 0 1.000000 
0 -16.018597 -85.499199 240.494797 -0.730990 -0.455294 0.508293 0.130800 -0.084200 1 0 1.000000 
0 -26.666698 -64.680397 251.783096 -0.721905 -0.507703 0.470203 0.099900 -0.065200 1 0 1.000000 
rockcliff01a
0 436.380615 130.213516 -263.726410 0.762903 0.646503 -0.003500 1.107700 -0.935200 1 0 1.000000 
0 448.659698 118.126526 -182.066605 0.762903 0.646503 -0.003500 1.051000 -0.792600 1 0 1.000000 
0 512.389587 53.337124 -263.726410 0.762903 0.646503 -0.003500 0.747000 -0.935200 1 0 1.000000 
rockcliff01a
0 51.373798 -37.080395 251.783096 0.578001 -0.596002 0.557401 0.323600 -0.061300 1 0 1.000000 
0 18.168001 -64.680397 251.783096 0.578001 -0.596002 0.557401 0.228400 -0.063000 1 0 1.000000 
0 47.765705 -94.384102 174.367294 0.578001 -0.596002 0.557401 0.315600 -0.195300 1 0 1.000000 
rockcliff01a
0 448.659698 118.126526 -182.066605 -0.090004 0.974041 0.207709 0.189600 -0.942200 1 0 1.000000 
0 436.380615 130.213516 -263.726410 -0.090004 0.974041 0.207709 0.047000 -0.930400 1 0 1.000000 
0 402.767609 126.990318 -260.216888 -0.090004 0.974041 0.207709 0.053100 -0.898000 1 0 1.000000 
rockcliff01a
0 201.351303 -71.358490 238.697098 0.230701 -0.963303 0.137200 0.691300 -0.054900 1 0 1.000000 
0 148.162994 -79.857292 261.359985 0.230701 -0.963303 0.137200 0.645900 -0.061000 1 0 1.000000 
0 208.376404 -94.082291 12.476600 0.230701 -0.963303 0.137200 0.780800 -0.467200 1 0 1.000000 
rockcliff01a
0 -8.145396 -76.452301 -260.463501 -0.132400 -0.990903 -0.024100 0.111500 -0.607900 1 0 1.000000 
0 -36.249695 -80.827003 155.947006 -0.132903 -0.990824 -0.024601 0.075400 -0.231400 1 0 1.000000 
0 -48.357796 -79.695999 169.958603 -0.132903 -0.990824 -0.024601 0.032400 -0.207900 1 0 1.000000 
rockcliff01a
0 -96.657295 -112.637009 83.116096 0.265109 -0.897431 0.352612 0.746600 -0.340500 1 0 1.000000 
0 -78.525795 -123.913902 31.897600 0.268702 -0.889407 0.369803 0.818300 -0.430400 1 0 1.000000 
0 -79.765694 -110.026100 77.462601 0.265109 -0.897431 0.352612 0.813400 -0.350400 1 0 1.000000 
rockcliff01a
0 -39.458694 -70.453300 228.049103 0.087896 -0.977453 0.191991 0.064000 -0.106900 1 0 1.000000 
0 -48.357796 -79.695999 169.958603 0.087896 -0.977453 0.191991 0.032400 -0.207900 1 0 1.000000 
0 -36.249695 -80.827003 155.947006 0.087896 -0.977453 0.191991 0.075400 -0.231400 1 0 1.000000 
rockcliff01a
0 -116.123795 -92.117111 106.650398 -0.077101 -0.586308 0.806411 0.669600 -0.299100 1 0 1.000000 
0 -92.856689 -97.343010 104.126099 -0.077101 -0.586308 0.806411 0.761600 -0.303500 1 0 1.000000 
0 -50.559196 -80.031799 125.531303 -0.077101 -0.586308 0.806411 0.850000 -0.252300 1 0 1.000000 
rockcliff01a
0 -92.856689 -97.343010 104.126099 -0.122602 -0.716514 0.686714 0.761600 -0.303500 1 0 1.000000 
0 -116.123795 -92.117111 106.650398 -0.122602 -0.716514 0.686714 0.669600 -0.299100 1 0 1.000000 
0 -96.657295 -112.637009 83.116096 -0.116704 -0.700523 0.704023 0.746600 -0.340500 1 0 1.000000 
rockcliff01a
0 262.891388 -101.028587 -260.216888 0.781764 -0.591073 0.198691 0.945300 -0.935800 1 0 1.000000 
0 229.798798 -79.061493 -24.274500 0.781764 -0.591073 0.198691 0.843300 -0.529600 1 0 1.000000 
0 208.376404 -94.082291 12.476600 0.781764 -0.591073 0.198691 0.780800 -0.467200 1 0 1.000000 
rockcliff01a
0 354.076508 127.319618 251.783096 0.012000 0.998915 0.045001 0.046600 -0.946500 1 0 1.000000 
0 392.140686 126.637115 201.267593 0.463396 0.798293 0.384697 0.046600 -0.946500 1 0 1.000000 
0 418.076813 135.718109 140.437393 0.038400 0.991413 0.125002 0.046600 -0.946500 1 0 1.000000 
rockcliff01a
0 229.798798 -79.061493 -24.274500 0.380700 -0.894601 -0.234000 0.843300 -0.529600 1 0 1.000000 
0 249.113495 -108.303192 160.733597 0.380700 -0.894601 -0.234000 0.764900 -0.177000 1 0 1.000000 
0 208.376404 -94.082291 12.476600 0.380700 -0.894601 -0.234000 0.780800 -0.467200 1 0 1.000000 
rockcliff01a
0 -364.454590 -76.888512 255.192993 -0.976877 -0.196695 -0.083798 0.406800 -0.052100 1 0 1.000000 
0 -340.962891 -103.861115 100.572403 -0.981434 -0.131205 -0.139905 0.490100 -0.315500 1 0 1.000000 
0 -357.940704 -95.276314 225.960602 -0.976877 -0.196695 -0.083798 0.429900 -0.097100 1 0 1.000000 
rockcliff01a
0 -434.147797 -40.402920 166.395294 -0.768984 -0.634687 0.076398 0.159500 -0.200800 1 0 1.000000 
0 -432.390503 -61.778618 -50.267502 -0.767812 -0.635210 0.083501 0.165800 -0.578200 1 0 1.000000 
0 -411.390686 -84.093414 -55.901199 -0.767812 -0.635210 0.083501 0.240300 -0.588100 1 0 1.000000 
rockcliff01a
0 -432.390503 -61.778618 -50.267502 -0.767812 -0.635210 0.083501 0.165800 -0.578200 1 0 1.000000 
0 -402.885315 -104.145416 -260.204987 -0.773285 -0.632388 0.045999 0.270400 -0.943900 1 0 1.000000 
0 -411.390686 -84.093414 -55.901199 -0.767812 -0.635210 0.083501 0.240300 -0.588100 1 0 1.000000 
rockcliff01a
0 -389.357697 -87.564217 -39.414001 0.554618 -0.829427 0.066702 0.318400 -0.559300 1 0 1.000000 
0 -388.407410 -100.376419 -260.860596 0.554618 -0.829427 0.066702 0.321800 -0.945100 1 0 1.000000 
0 -370.178711 -89.920113 -260.707306 0.554618 -0.829427 0.066702 0.365500 -0.944000 1 0 1.000000 
rockcliff01a
0 -434.147797 -40.402920 166.395294 -0.822551 -0.564766 0.066696 0.200700 -0.196000 1 0 1.000000 
0 -482.828003 -17.400122 -260.216888 -0.822551 -0.564766 0.066696 0.297600 -0.945200 1 0 1.000000 
0 -432.390503 -61.778618 -50.267502 -0.822551 -0.564766 0.066696 0.110700 -0.576500 1 0 1.000000 
rockcliff01a
0 -116.123795 -92.117111 106.650398 0.182291 -0.982653 0.034098 0.669600 -0.299100 1 0 1.000000 
0 -50.559196 -80.031799 125.531303 0.210710 -0.977546 -0.002100 0.850000 -0.252300 1 0 1.000000 
0 -48.357796 -79.695999 169.958603 0.182291 -0.982653 0.034098 0.926800 -0.187900 1 0 1.000000 
rockcliff01a
0 -398.770294 -69.924316 179.160706 -0.913543 -0.040502 0.404719 0.076400 -0.173600 1 0 1.000000 
0 -389.066803 -64.680412 204.890900 -0.913543 -0.040502 0.404719 0.098400 -0.128400 1 0 1.000000 
0 -407.385895 127.319588 183.277893 -0.913543 -0.040502 0.404719 0.907300 -0.166400 1 0 1.000000 
rockcliff01a
0 -8.145396 -76.452301 -260.463501 0.122200 -0.992501 0.003100 0.747400 -0.938500 1 0 1.000000 
0 -48.357796 -79.695999 169.958603 0.113602 -0.993520 0.003600 0.603500 -0.177600 1 0 1.000000 
0 -50.559196 -80.031799 125.531303 0.113602 -0.993520 0.003600 0.603600 -0.255800 1 0 1.000000 
rockcliff01a
0 -389.357697 -87.564217 -39.414001 0.321191 -0.939772 0.116897 0.318400 -0.559300 1 0 1.000000 
0 -389.066803 -64.680412 204.890900 0.272510 -0.951735 0.141205 0.319500 -0.133800 1 0 1.000000 
0 -398.770294 -69.924316 179.160706 0.272510 -0.951735 0.141205 0.285000 -0.178600 1 0 1.000000 
rockcliff01a
0 452.641205 128.248718 -4.355800 0.330893 0.940280 -0.079898 0.499800 -0.946100 1 0 1.000000 
0 448.659698 118.126526 -182.066605 0.330893 0.940280 -0.079898 0.189600 -0.942200 1 0 1.000000 
0 402.767609 126.990318 -260.216888 0.330893 0.940280 -0.079898 0.053100 -0.898000 1 0 1.000000 
rockcliff01a
0 51.373802 -81.334000 -260.216888 0.106096 0.976462 -0.187793 0.046600 -0.946500 1 0 1.000000 
0 262.891388 -101.028587 -260.216888 0.106096 0.976462 -0.187793 0.046600 -0.946500 1 0 1.000000 
0 237.362106 -99.590996 -266.730103 0.106096 0.976462 -0.187793 0.046600 -0.946500 1 0 1.000000 
rockcliff01a
0 -165.813293 -70.773705 240.464005 0.317906 -0.918817 0.233904 0.448400 -0.044100 1 0 1.000000 
0 -128.559906 -71.793411 177.241501 0.317906 -0.918817 0.233904 0.620400 -0.175100 1 0 1.000000 
0 -94.707397 -54.770504 213.816605 0.317906 -0.918817 0.233904 0.754300 -0.110800 1 0 1.000000 
rockcliff01a
0 -346.381104 -94.788818 265.063812 -0.000600 0.629112 0.777314 0.202900 -0.057800 1 0 1.000000 
0 -292.156097 -94.845917 266.730194 -0.028899 0.686786 0.726285 0.202800 -0.089800 1 0 1.000000 
0 -267.021393 -80.127014 249.317093 -0.028899 0.686786 0.726285 0.230700 -0.104700 1 0 1.000000 
rockcliff01a
0 272.683014 -112.122383 212.972900 0.706539 -0.703239 0.079104 0.362700 -0.186800 1 0 1.000000 
0 327.259613 -105.049881 -260.216888 0.706539 -0.703239 0.079104 0.463800 -0.912100 1 0 1.000000 
0 361.644714 -75.439285 -260.216888 0.706539 -0.703239 0.079104 0.580800 -0.912100 1 0 1.000000 
rockcliff01a
0 466.434906 -15.211180 -130.189499 0.783415 -0.617712 0.068501 0.882600 -0.493700 1 0 1.000000 
0 431.348114 -64.160088 -260.216888 0.783415 -0.617712 0.068501 0.818100 -0.912100 1 0 1.000000 
0 468.983185 -23.539379 -263.726410 0.783415 -0.617712 0.068501 0.946200 -0.917800 1 0 1.000000 
end
