version 1
nodes
  0 "static_prop" -1
end
skeleton
time 0
0 0.000000 0.000000 0.000000 0.000000 0.000000 0.000000
end
triangles
rockcliff02a
0 -66.615303 14.514597 42.047401 -0.974703 0.201501 -0.096700 0.450000 -0.289900 1 0 1.000000 
0 -43.445602 50.739899 -115.964401 -0.974703 0.201501 -0.096700 0.591500 -0.907100 1 0 1.000000 
0 -61.152599 -34.941505 -116.012398 -0.974703 0.201501 -0.096700 0.256800 -0.907300 1 0 1.000000 
rockcliff02a
0 -24.405298 -40.713402 13.273800 0.019099 -0.997663 0.065598 0.666400 -0.451500 1 0 1.000000 
0 -61.152599 -34.941505 -116.012398 -0.177095 -0.984173 0.006400 0.646100 -0.959900 1 0 1.000000 
0 14.064202 -48.472500 -115.964302 0.019099 -0.997663 0.065598 0.857700 -0.959900 1 0 1.000000 
rockcliff02a
0 14.064202 -48.472500 -115.964302 0.019099 -0.997663 0.065598 0.857700 -0.959900 1 0 1.000000 
0 32.760502 -30.584198 103.061302 0.056199 -0.995484 0.076499 0.878600 -0.434700 1 0 1.000000 
0 -24.405298 -40.713402 13.273800 0.019099 -0.997663 0.065598 0.666400 -0.451500 1 0 1.000000 
rockcliff02a
0 66.615303 -13.923597 -116.185997 0.935488 0.280196 0.215297 0.445600 -0.901100 1 0 1.000000 
0 57.673199 40.089005 -116.733002 0.953982 0.160497 0.253295 0.656600 -0.903200 1 0 1.000000 
0 17.492998 28.689400 41.814999 0.935488 0.280196 0.215297 0.612100 -0.283900 1 0 1.000000 
rockcliff02a
0 17.492998 28.689400 41.814999 0.935488 0.280196 0.215297 0.612100 -0.283900 1 0 1.000000 
0 40.365200 -22.733198 40.112301 0.904049 0.396878 0.158691 0.411200 -0.290500 1 0 1.000000 
0 66.615303 -13.923597 -116.185997 0.935488 0.280196 0.215297 0.445600 -0.901100 1 0 1.000000 
rockcliff02a
0 32.760502 -30.584198 103.061302 0.904049 0.396878 0.158691 0.380500 -0.044600 1 0 1.000000 
0 40.365200 -22.733198 40.112301 0.904049 0.396878 0.158691 0.411200 -0.290500 1 0 1.000000 
0 17.492998 28.689400 41.814999 0.904049 0.396878 0.158691 0.612100 -0.283900 1 0 1.000000 
rockcliff02a
0 -66.615303 14.514597 42.047401 -0.894378 -0.434789 0.105097 0.450000 -0.289900 1 0 1.000000 
0 -61.152599 -34.941505 -116.012398 -0.894378 -0.434789 0.105097 0.317900 -0.372600 1 0 1.000000 
0 -44.467201 -15.074402 108.097801 -0.894378 -0.434789 0.105097 0.334400 -0.031900 1 0 1.000000 
rockcliff02a
0 17.492998 28.689400 41.814999 0.042300 0.991603 0.122200 0.559100 -0.266200 1 0 1.000000 
0 57.673199 40.089005 -116.733002 0.104897 0.993870 0.034899 0.716000 -0.885600 1 0 1.000000 
0 -43.445602 50.739899 -115.964401 0.004200 0.993240 0.116005 0.321000 -0.882600 1 0 1.000000 
rockcliff02a
0 -43.445602 50.739899 -115.964401 0.004200 0.993240 0.116005 0.321000 -0.882600 1 0 1.000000 
0 -43.584499 27.381699 42.095402 -0.020499 0.989058 0.146094 0.320500 -0.265100 1 0 1.000000 
0 17.492998 28.689400 41.814999 0.042300 0.991603 0.122200 0.559100 -0.266200 1 0 1.000000 
rockcliff02a
0 -43.445602 50.739899 -115.964401 -0.006600 0.009500 -0.999933 0.661700 -0.950800 1 0 1.000000 
0 14.064202 -48.472500 -115.964302 -0.002300 -0.002900 -0.999993 0.339400 -0.806400 1 0 1.000000 
0 -61.152599 -34.941505 -116.012398 0.001400 0.000100 -0.999999 0.383300 -0.995300 1 0 1.000000 
rockcliff02a
0 -43.445602 50.739899 -115.964401 -0.006600 0.009500 -0.999933 0.661700 -0.950800 1 0 1.000000 
0 66.615303 -13.923597 -116.185997 -0.005100 -0.011000 -0.999926 0.451600 -0.674400 1 0 1.000000 
0 14.064202 -48.472500 -115.964302 -0.002300 -0.002900 -0.999993 0.339400 -0.806400 1 0 1.000000 
rockcliff02a
0 -43.445602 50.739899 -115.964401 -0.006600 0.009500 -0.999933 0.661700 -0.950800 1 0 1.000000 
0 57.673199 40.089005 -116.733002 -0.006600 0.009500 -0.999933 0.627100 -0.696900 1 0 1.000000 
0 66.615303 -13.923597 -116.185997 -0.005100 -0.011000 -0.999926 0.451600 -0.674400 1 0 1.000000 
rockcliff02a
0 -44.467201 -15.074402 108.097801 -0.888366 0.226491 0.399385 0.334400 -0.031900 1 0 1.000000 
0 -44.266701 11.832398 93.282997 -0.904365 0.143294 0.401984 0.439500 -0.089700 1 0 1.000000 
0 -66.615303 14.514597 42.047401 -0.888366 0.226491 0.399385 0.450000 -0.289900 1 0 1.000000 
rockcliff02a
0 14.064202 -48.472500 -115.964302 0.549105 -0.835007 0.035300 0.857700 -0.959900 1 0 1.000000 
0 66.615303 -13.923597 -116.185997 0.549105 -0.835007 0.035300 1.129800 -0.960900 1 0 1.000000 
0 32.760502 -30.584198 103.061302 0.549279 -0.835368 0.021299 0.962400 -0.066400 1 0 1.000000 
rockcliff02a
0 -44.266701 11.832398 93.282997 -0.472582 0.844968 0.250390 0.439500 -0.089700 1 0 1.000000 
0 -43.584499 27.381699 42.095402 -0.479381 0.857367 0.187393 0.500200 -0.289700 1 0 1.000000 
0 -66.615303 14.514597 42.047401 -0.479381 0.857367 0.187393 0.450000 -0.289900 1 0 1.000000 
rockcliff02a
0 -44.266701 11.832398 93.282997 -0.073302 0.481413 0.873423 0.317800 -0.065200 1 0 1.000000 
0 -44.467201 -15.074402 108.097801 -0.073302 0.481413 0.873423 0.317000 -0.017100 1 0 1.000000 
0 10.241200 3.090801 102.675697 -0.073302 0.481413 0.873423 0.530700 -0.028500 1 0 1.000000 
rockcliff02a
0 40.365200 -22.733198 40.112301 0.811519 0.559713 0.167804 1.001800 -0.336400 1 0 1.000000 
0 32.760502 -30.584198 103.061302 0.811519 0.559713 0.167804 0.962400 -0.066400 1 0 1.000000 
0 66.615303 -13.923597 -116.185997 0.811519 0.559713 0.167804 1.129800 -0.960900 1 0 1.000000 
rockcliff02a
0 -28.739498 -36.744301 113.674599 0.107098 -0.993279 0.043899 0.644000 -0.020900 1 0 1.000000 
0 -24.405298 -40.713402 13.273800 0.107098 -0.993279 0.043899 0.666400 -0.451500 1 0 1.000000 
0 32.760502 -30.584198 103.061302 0.107098 -0.993279 0.043899 0.931500 -0.043700 1 0 1.000000 
rockcliff02a
0 -44.467201 -15.074402 108.097801 -0.532812 -0.838519 0.114003 0.562600 -0.044800 1 0 1.000000 
0 -61.152599 -34.941505 -116.012398 -0.532812 -0.838519 0.114003 0.458100 -0.419000 1 0 1.000000 
0 -24.405298 -40.713402 13.273800 -0.532812 -0.838519 0.114003 0.666400 -0.451500 1 0 1.000000 
rockcliff02a
0 10.241200 3.090801 102.675697 0.157502 0.116601 0.980611 0.587000 -0.097300 1 0 1.000000 
0 -28.739498 -36.744301 113.674599 0.157502 0.116601 0.980611 0.431400 -0.249600 1 0 1.000000 
0 32.760502 -30.584198 103.061302 0.157502 0.116601 0.980611 0.455400 -0.009400 1 0 1.000000 
rockcliff02a
0 -44.467201 -15.074402 108.097801 0.010600 0.256497 0.966487 0.516000 -0.311000 1 0 1.000000 
0 -28.739498 -36.744301 113.674599 0.010600 0.256497 0.966487 0.431400 -0.249600 1 0 1.000000 
0 10.241200 3.090801 102.675697 0.037399 0.195594 0.979971 0.587000 -0.097300 1 0 1.000000 
rockcliff02a
0 17.492998 28.689400 41.814999 0.786809 0.529806 0.316603 0.612100 -0.283900 1 0 1.000000 
0 10.241200 3.090801 102.675697 0.786809 0.529806 0.316603 0.512100 -0.046100 1 0 1.000000 
0 32.760502 -30.584198 103.061302 0.786809 0.529806 0.316603 0.380500 -0.044600 1 0 1.000000 
rockcliff02a
0 -28.739498 -36.744301 113.674599 -0.807820 -0.589315 -0.011600 0.644000 -0.020900 1 0 1.000000 
0 -44.467201 -15.074402 108.097801 -0.807820 -0.589315 -0.011600 0.562600 -0.044800 1 0 1.000000 
0 -24.405298 -40.713402 13.273800 -0.807820 -0.589315 -0.011600 0.666400 -0.451500 1 0 1.000000 
rockcliff02a
0 -44.266701 11.832398 93.282997 0.059701 0.925219 0.374708 0.317800 -0.065200 1 0 1.000000 
0 10.241200 3.090801 102.675697 0.073101 0.905313 0.418406 0.530700 -0.028500 1 0 1.000000 
0 17.492998 28.689400 41.814999 0.078801 0.915509 0.394504 0.559100 -0.266200 1 0 1.000000 
rockcliff02a
0 17.492998 28.689400 41.814999 -0.018600 0.940388 0.339595 0.559100 -0.266200 1 0 1.000000 
0 -43.584499 27.381699 42.095402 -0.018600 0.940388 0.339595 0.320500 -0.265100 1 0 1.000000 
0 -44.266701 11.832398 93.282997 0.032500 0.958096 0.284599 0.317800 -0.065200 1 0 1.000000 
rockcliff02a
0 -43.445602 50.739899 -115.964401 -0.483970 0.865747 0.127492 0.591500 -0.907100 1 0 1.000000 
0 -66.615303 14.514597 42.047401 -0.486120 0.869835 0.084103 0.450000 -0.289900 1 0 1.000000 
0 -43.584499 27.381699 42.095402 -0.486120 0.869835 0.084103 0.500200 -0.289700 1 0 1.000000 
end
