version 1
nodes
  0 "static_prop" -1
end
skeleton
time 0
0 0.000000 0.000000 0.000000 0.000000 0.000000 0.000000
end
triangles
composite_building001a
0 10.284300 10.751100 48.216400 -1.000000 -0.000000 0.000000 0.455100 -0.620600 1 0 1.000000 
0 10.271699 12.338300 41.554199 -0.994686 0.099999 0.024500 0.485200 -0.680300 1 0 1.000000 
0 9.523299 11.699600 13.750400 -0.994686 0.099999 0.024500 0.473100 -0.933700 1 0 1.000000 
composite_building001a
0 10.284300 6.112600 37.106300 -1.000000 -0.000000 0.000000 0.367200 -0.720800 1 0 1.000000 
0 10.284300 10.751100 48.216400 -1.000000 -0.000000 0.000000 0.455100 -0.620600 1 0 1.000000 
0 9.523299 11.699600 13.750400 -0.996432 -0.004000 0.084303 0.473100 -0.933700 1 0 1.000000 
composite_building001a
0 10.284300 3.767101 31.525700 -1.000000 -0.000000 0.000000 0.322700 -0.771700 1 0 1.000000 
0 10.284300 6.112600 37.106300 -1.000000 -0.000000 0.000000 0.367200 -0.720800 1 0 1.000000 
0 9.523299 11.699600 13.750400 -0.996432 -0.004000 0.084303 0.473100 -0.933700 1 0 1.000000 
composite_building001a
0 9.523299 11.699600 13.750400 -0.996432 -0.004000 0.084303 0.473100 -0.933700 1 0 1.000000 
0 10.284300 -2.527299 25.914301 -1.000000 -0.000000 0.000000 0.203500 -0.822800 1 0 1.000000 
0 10.284300 3.767101 31.525700 -1.000000 -0.000000 0.000000 0.322700 -0.771700 1 0 1.000000 
composite_building001a
0 10.284300 -2.527299 25.914301 -1.000000 -0.000000 0.000000 0.203500 -0.822800 1 0 1.000000 
0 10.284300 1.155200 29.263599 -1.000000 -0.000000 0.000000 0.273200 -0.792300 1 0 1.000000 
0 10.284300 3.767101 31.525700 -1.000000 -0.000000 0.000000 0.322700 -0.771700 1 0 1.000000 
composite_building001a
0 10.284300 -2.527299 25.914301 -1.000000 -0.000000 0.000000 0.203500 -0.822800 1 0 1.000000 
0 10.284300 -2.114399 28.620501 -1.000000 -0.000000 0.000000 0.211300 -0.798200 1 0 1.000000 
0 10.284300 1.155200 29.263599 -1.000000 -0.000000 0.000000 0.273200 -0.792300 1 0 1.000000 
composite_building001a
0 9.523299 11.699600 13.750400 -0.996432 -0.004000 0.084303 0.473100 -0.933700 1 0 1.000000 
0 10.231000 -9.251100 21.128700 -0.996432 -0.004000 0.084303 0.076000 -0.866400 1 0 1.000000 
0 10.284300 -2.527299 25.914301 -1.000000 -0.000000 0.000000 0.203500 -0.822800 1 0 1.000000 
composite_building001a
0 9.523299 11.699600 13.750400 -0.996432 -0.004000 0.084303 0.473100 -0.933700 1 0 1.000000 
0 9.596500 -8.647000 13.656300 -0.996432 -0.004000 0.084303 0.087500 -0.934500 1 0 1.000000 
0 10.231000 -9.251100 21.128700 -0.996432 -0.004000 0.084303 0.076000 -0.866400 1 0 1.000000 
composite_building001a
0 11.054700 -5.265399 23.059900 0.982446 -0.180809 -0.045902 0.606800 -0.259600 1 0 1.000000 
0 10.231000 -9.251100 21.128700 0.982446 -0.180809 -0.045902 0.505100 -0.288800 1 0 1.000000 
0 11.044199 12.876001 -48.684601 0.982446 -0.180809 -0.045902 0.993800 -0.355500 1 0 1.000000 
composite_building001a
0 -11.627400 -8.686501 13.666800 0.999793 0.011500 0.016800 0.471300 -0.932500 1 0 1.000000 
0 -12.432201 12.310299 47.131802 0.999793 0.011500 0.016800 0.073400 -0.619900 1 0 1.000000 
0 -13.018900 -4.364700 42.450500 0.997148 -0.050802 0.055803 0.393200 -0.662500 1 0 1.000000 
composite_building001a
0 -11.627400 -8.686501 13.666800 0.999793 0.011500 0.016800 0.471300 -0.932500 1 0 1.000000 
0 -11.861201 11.721399 13.645700 0.999793 0.011500 0.016800 0.084600 -0.932700 1 0 1.000000 
0 -12.432201 12.310299 47.131802 0.999793 0.011500 0.016800 0.073400 -0.619900 1 0 1.000000 
composite_building001a
0 9.062199 12.381600 47.309502 -0.000000 1.000000 0.000000 0.003700 -0.264800 1 0 1.000000 
0 10.312899 11.214200 47.309502 0.682089 0.730888 0.023600 0.045000 -0.264800 1 0 1.000000 
0 10.312899 12.381600 11.179700 -0.000000 1.000000 0.000000 0.045000 -0.948500 1 0 1.000000 
composite_building001a
0 10.312899 12.381600 11.179700 -0.000000 1.000000 0.000000 0.045000 -0.948500 1 0 1.000000 
0 9.062199 11.214200 11.179700 -0.682089 0.730888 -0.023600 0.003900 -0.948500 1 0 1.000000 
0 9.062199 12.381600 47.309502 -0.000000 1.000000 0.000000 0.003700 -0.264800 1 0 1.000000 
composite_building001a
0 10.312899 11.214200 47.309502 0.000000 -1.000000 0.000000 0.043800 -0.266600 1 0 1.000000 
0 9.062199 12.381600 47.309502 -0.682089 -0.730888 0.023600 0.002200 -0.266600 1 0 1.000000 
0 9.062199 11.214200 11.179700 0.000000 -1.000000 0.000000 0.002400 -0.957700 1 0 1.000000 
composite_building001a
0 9.062199 11.214200 11.179700 0.000000 -1.000000 0.000000 0.002400 -0.957700 1 0 1.000000 
0 10.312899 12.381600 11.179700 0.682089 -0.730888 -0.023600 0.043800 -0.957700 1 0 1.000000 
0 10.312899 11.214200 47.309502 0.000000 -1.000000 0.000000 0.043800 -0.266600 1 0 1.000000 
composite_building001a
0 -11.178000 -8.330501 10.185000 -0.503423 0.864040 -0.000200 0.050500 -0.999500 1 0 1.000000 
0 -12.342500 -9.349201 10.185000 -0.658266 0.752561 -0.018399 0.001600 -0.999500 1 0 1.000000 
0 -12.260300 -8.951701 45.404800 -0.503423 0.864040 -0.000200 0.001400 -0.101600 1 0 1.000000 
composite_building001a
0 -12.260300 -8.951701 45.404800 -0.503423 0.864040 -0.000200 0.001400 -0.101600 1 0 1.000000 
0 -11.158900 -8.562801 44.883900 -0.330196 0.943890 0.006500 0.050500 -0.101600 1 0 1.000000 
0 -11.178000 -8.330501 10.185000 -0.503423 0.864040 -0.000200 0.050500 -0.999500 1 0 1.000000 
composite_building001a
0 -0.642900 -9.940600 28.912701 -0.344797 -0.787594 -0.510696 0.000500 -0.386000 1 0 1.000000 
0 0.388900 -10.323800 28.912701 -0.295388 -0.795168 -0.529579 0.043500 -0.386000 1 0 1.000000 
0 0.388901 -12.925000 32.818401 -0.344797 -0.787594 -0.510696 0.043500 -0.264200 1 0 1.000000 
composite_building001a
0 0.388901 -12.925000 32.818401 -0.344797 -0.787594 -0.510696 0.043500 -0.264200 1 0 1.000000 
0 -0.642899 -12.637900 33.072399 -0.344797 -0.787594 -0.510696 0.000500 -0.258000 1 0 1.000000 
0 -0.642900 -9.940600 28.912701 -0.344797 -0.787594 -0.510696 0.000500 -0.386000 1 0 1.000000 
composite_building001a
0 0.388900 -10.323800 28.912701 0.345307 0.781117 0.520211 0.043500 -0.386000 1 0 1.000000 
0 -0.642900 -9.940600 28.912701 0.297517 0.801047 0.519430 0.000500 -0.386000 1 0 1.000000 
0 -0.642899 -12.637900 33.072399 0.345307 0.781117 0.520211 0.000500 -0.258000 1 0 1.000000 
composite_building001a
0 -0.642899 -12.637900 33.072399 0.345307 0.781117 0.520211 0.000500 -0.258000 1 0 1.000000 
0 0.388901 -12.925000 32.818401 0.345307 0.781117 0.520211 0.043500 -0.264200 1 0 1.000000 
0 0.388900 -10.323800 28.912701 0.345307 0.781117 0.520211 0.043500 -0.386000 1 0 1.000000 
composite_building001a
0 9.766299 11.739700 19.708300 0.000000 0.000000 -1.000000 0.464300 -0.230400 1 0 1.000000 
0 9.766300 -8.838100 19.708300 0.000000 0.000000 -1.000000 0.021100 -0.230400 1 0 1.000000 
0 -11.385500 -8.838101 19.708300 0.000000 0.000000 -1.000000 0.021100 -0.004400 1 0 1.000000 
composite_building001a
0 -11.385500 -8.838101 19.708300 0.000000 0.000000 -1.000000 0.021100 -0.004400 1 0 1.000000 
0 -11.385501 11.739699 19.708300 0.000000 0.000000 -1.000000 0.464300 -0.004400 1 0 1.000000 
0 9.766299 11.739700 19.708300 0.000000 0.000000 -1.000000 0.464300 -0.230400 1 0 1.000000 
composite_building001a
0 -11.385501 11.739699 20.325899 0.000000 0.000000 1.000000 0.464300 -0.230400 1 0 1.000000 
0 -11.385500 -8.838101 19.708300 0.000000 -0.030001 0.999550 0.021100 -0.230400 1 0 1.000000 
0 9.766400 -8.838100 19.708300 0.000000 -0.030001 0.999550 0.021100 -0.004400 1 0 1.000000 
composite_building001a
0 9.766400 -8.838100 19.708300 0.000000 -0.030001 0.999550 0.021100 -0.004400 1 0 1.000000 
0 9.766399 11.739700 20.325899 0.000000 0.000000 1.000000 0.464300 -0.004400 1 0 1.000000 
0 -11.385501 11.739699 20.325899 0.000000 0.000000 1.000000 0.464300 -0.230400 1 0 1.000000 
composite_building001a
0 10.271699 12.338300 41.554199 -0.001100 -0.999735 0.023001 0.072600 -0.676600 1 0 1.000000 
0 2.834000 12.367200 44.034801 0.005400 -0.999953 0.008000 0.207400 -0.653900 1 0 1.000000 
0 -12.432201 12.310299 47.131802 0.005400 -0.999953 0.008000 0.484200 -0.620900 1 0 1.000000 
composite_building001a
0 -12.432201 12.310299 47.131802 0.005400 -0.999953 0.008000 0.484200 -0.620900 1 0 1.000000 
0 -11.861201 11.721399 13.645700 -0.001100 -0.999735 0.023001 0.473800 -0.932100 1 0 1.000000 
0 10.271699 12.338300 41.554199 -0.001100 -0.999735 0.023001 0.072600 -0.676600 1 0 1.000000 
composite_building001a
0 -11.861201 11.721399 13.645700 -0.001100 -0.999735 0.023001 0.473800 -0.932100 1 0 1.000000 
0 9.523299 11.699600 13.750400 -0.001100 -0.999735 0.023001 0.086200 -0.931100 1 0 1.000000 
0 10.271699 12.338300 41.554199 -0.001100 -0.999735 0.023001 0.072600 -0.676600 1 0 1.000000 
composite_building001a
0 -5.446499 -10.059700 22.057899 -0.177105 -0.984031 0.017801 0.662300 -0.266600 1 0 1.000000 
0 -8.689000 -9.311300 31.174999 -0.177105 -0.984031 0.017801 0.587000 -0.175000 1 0 1.000000 
0 -12.930500 -9.991301 -48.771999 -0.235888 -0.970952 0.040098 0.506300 -0.353500 1 0 1.000000 
composite_building001a
0 -9.082700 -10.059700 41.096500 -0.228807 -0.973429 0.009100 0.587000 -0.069700 1 0 1.000000 
0 -12.253200 -9.292901 43.412498 -0.228807 -0.973429 0.009100 0.506300 -0.054500 1 0 1.000000 
0 -12.930500 -9.991301 -48.771999 -0.235888 -0.970952 0.040098 0.506300 -0.353500 1 0 1.000000 
composite_building001a
0 -1.525300 -10.059700 16.713699 -0.235888 -0.970952 0.040098 0.741900 -0.321900 1 0 1.000000 
0 -4.298100 -9.311300 18.523600 -0.235888 -0.970952 0.040098 0.681700 -0.306300 1 0 1.000000 
0 -12.930500 -9.991301 -48.771999 -0.235888 -0.970952 0.040098 0.506300 -0.353500 1 0 1.000000 
composite_building001a
0 -12.342500 -9.349201 10.185000 0.506590 -0.862184 0.002300 0.001600 -0.999500 1 0 1.000000 
0 -11.178000 -8.330501 10.185000 0.658375 -0.752671 -0.005400 0.050500 -0.999500 1 0 1.000000 
0 -11.158900 -8.562801 44.883900 0.506590 -0.862184 0.002300 0.050500 -0.088100 1 0 1.000000 
composite_building001a
0 -11.158900 -8.562801 44.883900 0.506590 -0.862184 0.002300 0.050500 -0.088100 1 0 1.000000 
0 -12.260300 -8.951701 45.404800 0.325493 -0.945380 -0.017600 0.001400 -0.088100 1 0 1.000000 
0 -12.342500 -9.349201 10.185000 0.506590 -0.862184 0.002300 0.001600 -0.999500 1 0 1.000000 
composite_building001a
0 -10.959600 -9.342601 39.332001 -0.615457 0.492366 -0.615457 0.416600 -0.023000 1 0 1.000000 
0 -6.931799 -6.576601 39.918201 -0.000000 1.000000 0.000000 0.317700 -0.051100 1 0 1.000000 
0 -4.455400 -2.095500 39.918201 -0.662294 0.529795 -0.529795 0.257000 -0.096500 1 0 1.000000 
composite_building001a
0 -1.035700 2.326600 39.918201 -0.690670 0.540476 -0.480479 0.173000 -0.141400 1 0 1.000000 
0 -10.959600 -9.342601 39.332001 -0.615457 0.492366 -0.615457 0.416600 -0.023000 1 0 1.000000 
0 -4.455400 -2.095500 39.918201 -0.662294 0.529795 -0.529795 0.257000 -0.096500 1 0 1.000000 
composite_building001a
0 -1.035700 2.326600 39.918201 -0.690670 0.540476 -0.480479 0.173000 -0.141400 1 0 1.000000 
0 -12.613100 -9.363001 39.332001 0.805935 -0.591525 -0.023801 0.457200 -0.022800 1 0 1.000000 
0 -10.959600 -9.342601 39.332001 -0.615457 0.492366 -0.615457 0.416600 -0.023000 1 0 1.000000 
composite_building001a
0 -1.035700 2.326600 39.918201 -0.690670 0.540476 -0.480479 0.173000 -0.141400 1 0 1.000000 
0 -0.917800 6.571800 39.332001 0.755900 -0.653300 -0.042600 0.170100 -0.184400 1 0 1.000000 
0 -12.613100 -9.363001 39.332001 0.805935 -0.591525 -0.023801 0.457200 -0.022800 1 0 1.000000 
composite_building001a
0 -0.917800 6.571800 39.332001 0.755900 -0.653300 -0.042600 0.170100 -0.184400 1 0 1.000000 
0 -12.620101 11.406699 39.918201 0.000000 0.000000 1.000000 0.457300 -0.233500 1 0 1.000000 
0 -12.613100 -9.363001 39.332001 0.805935 -0.591525 -0.023801 0.457200 -0.022800 1 0 1.000000 
composite_building001a
0 -0.917800 6.571800 39.332001 0.755900 -0.653300 -0.042600 0.170100 -0.184400 1 0 1.000000 
0 4.058499 11.465600 39.918201 0.703516 -0.708116 -0.060301 0.048000 -0.234100 1 0 1.000000 
0 -12.620101 11.406699 39.918201 0.000000 0.000000 1.000000 0.457300 -0.233500 1 0 1.000000 
composite_building001a
0 -4.455400 -2.095500 39.918201 -0.662294 0.529795 -0.529795 0.257000 -0.096500 1 0 1.000000 
0 -2.568700 -1.152100 39.918201 -0.000000 1.000000 0.000000 0.186700 -0.133000 1 0 1.000000 
0 -1.035700 2.326600 39.918201 -0.690670 0.540476 -0.480479 0.173000 -0.141400 1 0 1.000000 
composite_building001a
0 -4.455400 -2.095500 39.918201 -0.662294 0.529795 -0.529795 0.175200 -0.147500 1 0 1.000000 
0 -1.035700 2.326600 39.918201 -0.690670 0.540476 -0.480479 0.261600 -0.116700 1 0 1.000000 
0 -2.568700 -1.152100 39.918201 -0.000000 1.000000 0.000000 0.186700 -0.133000 1 0 1.000000 
composite_building001a
0 -10.959600 -9.342601 39.332001 -0.615457 0.492366 -0.615457 0.010300 -0.222700 1 0 1.000000 
0 -4.455400 -2.095500 39.918201 -0.662294 0.529795 -0.529795 0.175200 -0.147500 1 0 1.000000 
0 -6.931799 -6.576601 39.918201 -0.000000 1.000000 0.000000 0.069800 -0.179700 1 0 1.000000 
composite_building001a
0 -1.035700 2.326600 39.918201 -0.690670 0.540476 -0.480479 0.261600 -0.116700 1 0 1.000000 
0 -4.455400 -2.095500 39.918201 -0.662294 0.529795 -0.529795 0.175200 -0.147500 1 0 1.000000 
0 -10.959600 -9.342601 39.332001 -0.615457 0.492366 -0.615457 0.010300 -0.222700 1 0 1.000000 
composite_building001a
0 -1.035700 2.326600 39.918201 -0.690670 0.540476 -0.480479 0.261600 -0.116700 1 0 1.000000 
0 -10.959600 -9.342601 39.332001 -0.615457 0.492366 -0.615457 0.010300 -0.222700 1 0 1.000000 
0 -12.613100 -9.363001 39.332001 0.805935 -0.591525 -0.023801 0.009800 -0.240400 1 0 1.000000 
composite_building001a
0 -1.035700 2.326600 39.918201 -0.690670 0.540476 -0.480479 0.261600 -0.116700 1 0 1.000000 
0 -12.613100 -9.363001 39.332001 0.805935 -0.591525 -0.023801 0.009800 -0.240400 1 0 1.000000 
0 -0.917800 6.571800 39.332001 0.755900 -0.653300 -0.042600 0.353000 -0.115400 1 0 1.000000 
composite_building001a
0 -0.917800 6.571800 39.332001 0.755900 -0.653300 -0.042600 0.353000 -0.115400 1 0 1.000000 
0 -12.613100 -9.363001 39.332001 0.805935 -0.591525 -0.023801 0.009800 -0.240400 1 0 1.000000 
0 -12.620101 11.406699 39.332001 0.000000 0.000000 -1.000000 0.457100 -0.240500 1 0 1.000000 
composite_building001a
0 -0.917800 6.571800 39.332001 0.755900 -0.653300 -0.042600 0.353000 -0.115400 1 0 1.000000 
0 -12.620101 11.406699 39.332001 0.000000 0.000000 -1.000000 0.457100 -0.240500 1 0 1.000000 
0 4.058499 11.465600 39.918201 0.703516 -0.708116 -0.060301 0.458400 -0.062200 1 0 1.000000 
composite_building001a
0 2.244400 7.225200 43.787102 -0.383913 0.384013 -0.839729 0.367100 -0.081600 1 0 1.000000 
0 -10.977200 -1.974100 45.623901 -0.383913 0.384013 -0.839729 0.164100 -0.226500 1 0 1.000000 
0 4.687600 10.109600 43.989399 -0.383913 0.384013 -0.839729 0.429200 -0.055500 1 0 1.000000 
composite_building001a
0 2.244400 7.225200 43.787102 -0.383913 0.384013 -0.839729 0.367100 -0.081600 1 0 1.000000 
0 -4.435700 0.639400 43.703400 -0.406679 0.422778 -0.809858 0.225200 -0.153000 1 0 1.000000 
0 -10.977200 -1.974100 45.623901 -0.383913 0.384013 -0.839729 0.164100 -0.226500 1 0 1.000000 
composite_building001a
0 9.471200 -8.838100 14.731600 0.000000 0.000000 1.000000 0.018400 -0.243300 1 0 1.000000 
0 9.471199 11.739700 14.731600 0.000000 0.000000 1.000000 0.018400 0.000200 1 0 1.000000 
0 -11.680701 11.739699 14.731600 0.000000 0.000000 1.000000 0.475100 0.000200 1 0 1.000000 
composite_building001a
0 -11.680701 11.739699 14.731600 0.000000 0.000000 1.000000 0.475100 0.000200 1 0 1.000000 
0 -11.680700 -8.838101 14.731600 0.000000 0.000000 1.000000 0.475100 -0.243300 1 0 1.000000 
0 9.471200 -8.838100 14.731600 0.000000 0.000000 1.000000 0.018400 -0.243300 1 0 1.000000 
composite_building001a
0 1.146801 -10.059700 17.214701 0.001600 -0.999961 -0.008700 0.796600 -0.316700 1 0 1.000000 
0 11.097200 -9.945299 -48.778500 0.001900 -0.999997 -0.001400 0.998500 -0.353600 1 0 1.000000 
0 5.439500 -10.059700 18.709200 0.000000 -1.000000 0.000000 0.884500 -0.301300 1 0 1.000000 
composite_building001a
0 1.146801 -10.059700 17.214701 0.001600 -0.999961 -0.008700 0.796600 -0.316700 1 0 1.000000 
0 -1.525300 -10.059700 16.713699 -0.000100 -1.000000 -0.000100 0.741900 -0.321900 1 0 1.000000 
0 11.097200 -9.945299 -48.778500 0.001900 -0.999997 -0.001400 0.998500 -0.353600 1 0 1.000000 
composite_building001a
0 -1.525300 -10.059700 16.713699 -0.000100 -1.000000 -0.000100 0.741900 -0.321900 1 0 1.000000 
0 -12.930500 -9.991301 -48.771999 0.025199 -0.999656 0.007200 0.506300 -0.353500 1 0 1.000000 
0 11.097200 -9.945299 -48.778500 0.001900 -0.999997 -0.001400 0.998500 -0.353600 1 0 1.000000 
composite_building001a
0 -11.947500 -8.994701 28.748400 0.097802 -0.448107 -0.888614 0.477400 -0.240500 1 0 1.000000 
0 6.980700 -5.492599 29.287500 0.332493 -0.444691 0.831684 0.382300 -0.035800 1 0 1.000000 
0 7.064100 -9.578400 29.287500 -0.000000 1.000000 0.000000 0.461300 -0.031400 1 0 1.000000 
composite_building001a
0 8.648400 -4.742099 28.748400 0.403221 -0.757839 -0.512926 0.385800 -0.020400 1 0 1.000000 
0 6.980700 -5.492599 29.287500 0.332493 -0.444691 0.831684 0.382300 -0.035800 1 0 1.000000 
0 -11.947500 -8.994701 28.748400 0.097802 -0.448107 -0.888614 0.477400 -0.240500 1 0 1.000000 
composite_building001a
0 6.980700 -5.492599 29.287500 0.332493 -0.444691 0.831684 0.382300 -0.035800 1 0 1.000000 
0 8.648400 -4.742099 28.748400 0.403221 -0.757839 -0.512926 0.385800 -0.020400 1 0 1.000000 
0 9.232100 -3.908299 28.748400 0.362891 0.205995 0.908777 0.367900 -0.014200 1 0 1.000000 
composite_building001a
0 8.648400 -4.742099 28.748400 0.403221 -0.757839 -0.512926 0.385800 -0.020400 1 0 1.000000 
0 -11.947500 -8.994701 28.748400 0.097802 -0.448107 -0.888614 0.477400 -0.240500 1 0 1.000000 
0 9.232100 -3.908299 28.748400 0.362891 0.205995 0.908777 0.367900 -0.014200 1 0 1.000000 
composite_building001a
0 9.232100 -3.908299 28.748400 0.362891 0.205995 0.908777 0.367900 -0.014200 1 0 1.000000 
0 -11.947500 -8.994701 28.748400 0.097802 -0.448107 -0.888614 0.477400 -0.240500 1 0 1.000000 
0 9.565599 11.351000 29.287500 0.687131 -0.726533 -0.001000 0.039200 -0.010600 1 0 1.000000 
composite_building001a
0 9.232100 -3.908299 28.748400 0.362891 0.205995 0.908777 0.367900 -0.014200 1 0 1.000000 
0 9.565599 11.351000 29.287500 0.687131 -0.726533 -0.001000 0.039200 -0.010600 1 0 1.000000 
0 -11.947500 -8.994701 28.748400 0.097802 -0.448107 -0.888614 0.477400 -0.240500 1 0 1.000000 
composite_building001a
0 -11.947500 -8.994701 28.748400 0.097802 -0.448107 -0.888614 0.477400 -0.240500 1 0 1.000000 
0 7.064100 -9.578400 29.287500 -0.000000 1.000000 0.000000 0.461300 -0.031400 1 0 1.000000 
0 6.980700 -5.492599 29.287500 0.332493 -0.444691 0.831684 0.382300 -0.035800 1 0 1.000000 
composite_building001a
0 6.980700 -5.492599 29.287500 0.332493 -0.444691 0.831684 0.382300 -0.035800 1 0 1.000000 
0 9.232100 -3.908299 28.748400 0.362891 0.205995 0.908777 0.367900 -0.014200 1 0 1.000000 
0 -11.947500 -8.994701 28.748400 0.097802 -0.448107 -0.888614 0.477400 -0.240500 1 0 1.000000 
composite_building001a
0 9.565599 11.351000 29.287500 0.687131 -0.726533 -0.001000 0.039200 -0.010600 1 0 1.000000 
0 -11.947501 11.350999 29.287500 0.000000 0.000000 1.000000 0.039200 -0.240500 1 0 1.000000 
0 -11.947500 -8.994701 28.748400 0.097802 -0.448107 -0.888614 0.477400 -0.240500 1 0 1.000000 
composite_building001a
0 9.565599 11.351000 29.287500 0.687131 -0.726533 -0.001000 0.039200 -0.010600 1 0 1.000000 
0 -11.947500 -8.994701 28.748400 0.097802 -0.448107 -0.888614 0.477400 -0.240500 1 0 1.000000 
0 -11.947501 11.350999 28.748400 0.000000 0.000000 -1.000000 0.019500 -0.238100 1 0 1.000000 
composite_building001a
0 2.179600 7.498900 44.526501 0.141207 -0.008000 0.989948 0.373000 -0.082300 1 0 1.000000 
0 6.993000 8.392600 43.196899 0.277593 -0.069598 0.958174 0.392200 -0.030900 1 0 1.000000 
0 4.687600 10.109600 43.989399 0.206901 -0.076000 0.975405 0.420900 -0.059000 1 0 1.000000 
composite_building001a
0 2.179600 7.498900 44.526501 0.141207 -0.008000 0.989948 0.373000 -0.082300 1 0 1.000000 
0 4.687600 10.109600 43.989399 0.206901 -0.076000 0.975405 0.420900 -0.059000 1 0 1.000000 
0 -10.977200 -1.974100 45.623901 0.322095 -0.299495 0.898085 0.169000 -0.222900 1 0 1.000000 
composite_building001a
0 2.179600 7.498900 44.526501 0.141207 -0.008000 0.989948 0.373000 -0.082300 1 0 1.000000 
0 -10.977200 -1.974100 45.623901 0.322095 -0.299495 0.898085 0.169000 -0.222900 1 0 1.000000 
0 -3.886500 2.841700 44.927898 0.378216 -0.391116 0.839035 0.272700 -0.147100 1 0 1.000000 
composite_building001a
0 -10.977200 -1.974100 45.623901 0.322095 -0.299495 0.898085 0.169000 -0.222900 1 0 1.000000 
0 -8.188400 -1.552000 44.819000 0.403694 -0.345895 0.846987 0.178100 -0.193100 1 0 1.000000 
0 -3.886500 2.841700 44.927898 0.378216 -0.391116 0.839035 0.272700 -0.147100 1 0 1.000000 
composite_building001a
0 -8.188400 -1.552000 44.819000 0.403694 -0.345895 0.846987 0.178100 -0.193100 1 0 1.000000 
0 -4.435700 0.639400 43.703400 0.467010 -0.397608 0.789816 0.236100 -0.157700 1 0 1.000000 
0 -3.886500 2.841700 44.927898 0.378216 -0.391116 0.839035 0.272700 -0.147100 1 0 1.000000 
composite_building001a
0 -8.188400 -1.552000 44.819000 0.403694 -0.345895 0.846987 0.178100 -0.193100 1 0 1.000000 
0 -4.695600 -3.165200 43.037998 0.377515 -0.184507 0.907436 0.143300 -0.155800 1 0 1.000000 
0 -4.435700 0.639400 43.703400 0.467010 -0.397608 0.789816 0.236100 -0.157700 1 0 1.000000 
composite_building001a
0 4.687600 10.109600 43.989399 0.206901 -0.076000 0.975405 0.420900 -0.059000 1 0 1.000000 
0 1.784799 12.931300 47.782799 0.504875 0.324784 0.799760 0.490000 -0.086500 1 0 1.000000 
0 -10.977200 -1.974100 45.623901 0.322095 -0.299495 0.898085 0.169000 -0.222900 1 0 1.000000 
composite_building001a
0 1.784799 12.931300 47.782799 0.504875 0.324784 0.799760 0.490000 -0.086500 1 0 1.000000 
0 -12.426400 -1.803801 47.121498 0.308805 -0.337806 0.889115 0.196800 -0.244700 1 0 1.000000 
0 -10.977200 -1.974100 45.623901 0.322095 -0.299495 0.898085 0.169000 -0.222900 1 0 1.000000 
composite_building001a
0 1.784799 12.931300 47.782799 0.504875 0.324784 0.799760 0.490000 -0.086500 1 0 1.000000 
0 -13.007701 12.895599 47.754700 -0.003000 0.704097 0.710097 0.489200 -0.244600 1 0 1.000000 
0 -12.426400 -1.803801 47.121498 0.308805 -0.337806 0.889115 0.196800 -0.244700 1 0 1.000000 
composite_building001a
0 10.128200 -8.915300 31.285801 -0.418880 0.889658 0.181791 0.001500 -0.441100 1 0 1.000000 
0 11.601800 -9.311099 31.137800 0.508675 0.854458 0.105595 0.042000 -0.453700 1 0 1.000000 
0 10.739800 -8.187100 18.552700 0.608919 0.789525 -0.076602 0.042000 -0.783000 1 0 1.000000 
composite_building001a
0 11.601800 -9.311099 31.137800 0.508675 0.854458 0.105595 0.042000 -0.453700 1 0 1.000000 
0 13.026301 -11.635599 38.439098 0.988409 0.101601 0.112801 0.044300 -0.288800 1 0 1.000000 
0 10.739800 -8.187100 18.552700 0.608919 0.789525 -0.076602 0.042000 -0.783000 1 0 1.000000 
composite_building001a
0 11.601800 -9.311099 31.137800 0.508675 0.854458 0.105595 0.042000 -0.453700 1 0 1.000000 
0 10.128200 -8.915300 31.285801 -0.418880 0.889658 0.181791 0.001500 -0.441100 1 0 1.000000 
0 13.026301 -11.635599 38.439098 0.988409 0.101601 0.112801 0.044300 -0.288800 1 0 1.000000 
composite_building001a
0 12.090501 -12.566999 39.377399 -0.000000 1.000000 0.000000 0.001600 -0.264500 1 0 1.000000 
0 13.026301 -11.635599 38.439098 0.988409 0.101601 0.112801 0.044300 -0.288800 1 0 1.000000 
0 10.128200 -8.915300 31.285801 -0.418880 0.889658 0.181791 0.001500 -0.441100 1 0 1.000000 
composite_building001a
0 10.128200 -8.915300 31.285801 -0.418880 0.889658 0.181791 0.001500 -0.441100 1 0 1.000000 
0 13.026301 -11.635599 38.439098 0.988409 0.101601 0.112801 0.044300 -0.444900 1 0 1.000000 
0 12.090501 -12.566999 39.377399 -0.000000 1.000000 0.000000 0.001600 -0.264500 1 0 1.000000 
composite_building001a
0 13.026301 -11.635599 38.439098 0.988409 0.101601 0.112801 0.044300 -0.444900 1 0 1.000000 
0 10.128200 -8.915300 31.285801 -0.418880 0.889658 0.181791 0.001500 -0.441100 1 0 1.000000 
0 9.206800 -9.661100 18.552700 -0.804814 -0.585110 -0.099602 0.001600 -0.757700 1 0 1.000000 
composite_building001a
0 9.206800 -9.661100 18.552700 -0.804814 -0.585110 -0.099602 0.001600 -0.757700 1 0 1.000000 
0 10.739800 -8.187100 18.552700 0.608919 0.789525 -0.076602 0.042000 -0.783000 1 0 1.000000 
0 13.026301 -11.635599 38.439098 0.988409 0.101601 0.112801 0.044300 -0.444900 1 0 1.000000 
composite_building001a
0 10.739800 -8.187100 18.552700 0.608919 0.789525 -0.076602 0.042000 -0.783000 1 0 1.000000 
0 9.206800 -9.661100 18.552700 -0.804814 -0.585110 -0.099602 0.001600 -0.757700 1 0 1.000000 
0 10.128200 -8.915300 31.285801 -0.418880 0.889658 0.181791 0.001500 -0.441100 1 0 1.000000 
composite_building001a
0 -3.886500 2.841700 44.927898 0.589294 -0.739493 0.325397 0.233900 -0.291700 1 0 1.000000 
0 2.244400 7.225200 43.787102 0.653016 -0.689817 0.312607 0.384900 -0.269600 1 0 1.000000 
0 2.179600 7.498900 44.526501 0.653016 -0.689817 0.312607 0.378300 -0.291300 1 0 1.000000 
composite_building001a
0 10.271699 12.338300 41.554199 0.054001 0.998225 -0.025101 0.503700 -0.076300 1 0 1.000000 
0 11.044199 12.876001 -48.684601 0.003600 0.999975 0.006000 0.503700 -0.352600 1 0 1.000000 
0 -12.911901 12.962799 -48.790199 0.042300 0.999098 -0.003800 0.994400 -0.353700 1 0 1.000000 
composite_building001a
0 4.790900 12.931300 41.817101 -0.000400 1.000000 -0.000600 0.629800 -0.062200 1 0 1.000000 
0 10.271699 12.338300 41.554199 0.054001 0.998225 -0.025101 0.503700 -0.076300 1 0 1.000000 
0 -12.911901 12.962799 -48.790199 0.042300 0.999098 -0.003800 0.994400 -0.353700 1 0 1.000000 
composite_building001a
0 -12.911901 12.962799 -48.790199 0.042300 0.999098 -0.003800 0.994400 -0.353700 1 0 1.000000 
0 2.834000 12.367200 44.034801 0.019800 0.999779 0.007100 0.670900 -0.043200 1 0 1.000000 
0 4.790900 12.931300 41.817101 -0.000400 1.000000 -0.000600 0.629800 -0.062200 1 0 1.000000 
composite_building001a
0 -12.911901 12.962799 -48.790199 0.042300 0.999098 -0.003800 0.994400 -0.353700 1 0 1.000000 
0 1.784799 12.931300 47.782799 0.504875 0.324784 0.799760 0.691400 -0.001700 1 0 1.000000 
0 2.834000 12.367200 44.034801 0.019800 0.999779 0.007100 0.670900 -0.043200 1 0 1.000000 
composite_building001a
0 -12.911901 12.962799 -48.790199 0.042300 0.999098 -0.003800 0.994400 -0.353700 1 0 1.000000 
0 -13.007701 12.895599 47.754700 -0.003000 0.704097 0.710097 0.994400 -0.001700 1 0 1.000000 
0 1.784799 12.931300 47.782799 0.504875 0.324784 0.799760 0.691400 -0.001700 1 0 1.000000 
composite_building001a
0 2.244400 7.225200 43.787102 0.264600 -0.896600 0.355100 0.479800 -0.273500 1 0 1.000000 
0 6.993000 8.392600 43.196899 0.264600 -0.896600 0.355100 0.238900 -0.297800 1 0 1.000000 
0 2.179600 7.498900 44.526501 0.264600 -0.896600 0.355100 0.488100 -0.297800 1 0 1.000000 
composite_building001a
0 -12.930500 -9.991301 -48.771999 -0.999999 -0.001200 -0.000800 0.997500 -0.354300 1 0 1.000000 
0 -12.426400 -1.803801 47.121498 -0.999986 0.000800 0.005200 0.796700 -0.000300 1 0 1.000000 
0 -12.911901 12.962799 -48.790199 -0.999986 0.000800 0.005200 0.505900 -0.354400 1 0 1.000000 
composite_building001a
0 -12.911901 12.962799 -48.790199 -0.999986 0.000800 0.005200 0.505900 -0.354400 1 0 1.000000 
0 -12.426400 -1.803801 47.121498 -0.999986 0.000800 0.005200 0.796700 -0.000300 1 0 1.000000 
0 -13.007701 12.895599 47.754700 -1.000000 0.000800 0.000000 0.505900 -0.000100 1 0 1.000000 
composite_building001a
0 11.054700 -5.265399 23.059900 0.999976 0.002600 -0.006400 0.606800 -0.259600 1 0 1.000000 
0 11.044199 12.876001 -48.684601 0.996484 0.083299 0.009000 0.993800 -0.355500 1 0 1.000000 
0 11.054700 1.080801 28.404100 0.999984 0.003900 -0.004100 0.742700 -0.204500 1 0 1.000000 
composite_building001a
0 11.044199 12.876001 -48.684601 0.996484 0.083299 0.009000 0.993800 -0.355500 1 0 1.000000 
0 11.054700 4.086901 31.243200 0.999954 0.009500 -0.001300 0.807000 -0.175300 1 0 1.000000 
0 11.054700 1.080801 28.404100 0.999984 0.003900 -0.004100 0.742700 -0.204500 1 0 1.000000 
composite_building001a
0 11.044199 12.876001 -48.684601 0.996484 0.083299 0.009000 0.993800 -0.355500 1 0 1.000000 
0 10.271699 12.338300 41.554199 0.997693 0.063000 0.025300 0.993800 -0.080400 1 0 1.000000 
0 11.054700 4.086901 31.243200 0.999954 0.009500 -0.001300 0.807000 -0.175300 1 0 1.000000 
composite_building001a
0 10.231000 -9.251100 21.128700 0.999920 0.002300 0.012400 0.505100 -0.288800 1 0 1.000000 
0 11.097200 -9.945299 -48.778500 0.999995 0.002700 0.001400 0.505100 -0.356500 1 0 1.000000 
0 11.044199 12.876001 -48.684601 0.996484 0.083299 0.009000 0.993800 -0.355500 1 0 1.000000 
composite_building001a
0 10.231000 -9.251100 21.128700 -0.001800 0.996736 0.080703 0.841600 -0.108100 1 0 1.000000 
0 9.596500 -8.647000 13.656300 -0.001800 0.996736 0.080703 0.810000 -0.132600 1 0 1.000000 
0 -11.627400 -8.686501 13.666800 -0.001800 0.996736 0.080703 0.810000 -0.950400 1 0 1.000000 
composite_building001a
0 -10.977200 -1.974100 45.623901 -0.274591 -0.019199 -0.961369 0.164100 -0.226500 1 0 1.000000 
0 -4.435700 0.639400 43.703400 -0.274591 -0.019199 -0.961369 0.225200 -0.153000 1 0 1.000000 
0 -8.188400 -1.552000 44.819000 -0.274591 -0.019199 -0.961369 0.167200 -0.191200 1 0 1.000000 
composite_building001a
0 -13.018900 -4.364700 42.450500 0.987146 0.158007 0.024001 0.393200 -0.662500 1 0 1.000000 
0 -12.253200 -9.292901 43.412498 0.992156 0.122795 0.023399 0.482800 -0.661500 1 0 1.000000 
0 -11.627400 -8.686501 13.666800 0.992156 0.122795 0.023399 0.471300 -0.932500 1 0 1.000000 
composite_building001a
0 0.388900 -10.323800 28.912701 -0.347900 -0.936699 -0.039500 0.043500 -0.386000 1 0 1.000000 
0 -0.642900 -9.940600 28.912701 -0.348202 -0.937406 -0.005000 0.000500 -0.386000 1 0 1.000000 
0 -0.544500 -9.100100 8.126000 -0.347900 -0.936699 -0.039500 0.044500 -0.890900 1 0 1.000000 
composite_building001a
0 -12.253200 -9.292901 43.412498 -0.988361 -0.151894 0.008400 0.997400 -0.056600 1 0 1.000000 
0 -13.018900 -4.364700 42.450500 -0.988361 -0.151894 0.008400 0.875500 -0.057700 1 0 1.000000 
0 -12.930500 -9.991301 -48.771999 -0.988361 -0.151894 0.008400 0.997500 -0.354300 1 0 1.000000 
composite_building001a
0 -0.642900 -9.940600 28.912701 0.347900 0.936699 0.039500 0.000500 -0.386000 1 0 1.000000 
0 0.388900 -10.323800 28.912701 0.347900 0.936699 0.039500 0.043500 -0.386000 1 0 1.000000 
0 -0.544500 -9.100100 8.126000 0.347900 0.936699 0.039500 0.044500 -0.890900 1 0 1.000000 
composite_building001a
0 10.271699 12.338300 41.554199 0.982617 0.174003 -0.064701 0.993800 -0.080400 1 0 1.000000 
0 11.054700 9.943401 47.006699 0.982617 0.174003 -0.064701 0.932400 -0.003200 1 0 1.000000 
0 11.054700 4.086901 31.243200 0.982617 0.174003 -0.064701 0.807000 -0.175300 1 0 1.000000 
composite_building001a
0 10.284300 3.767101 31.525700 0.483002 -0.601203 0.636603 0.225600 -0.280500 1 0 1.000000 
0 11.054700 1.080801 28.404100 0.483002 -0.601203 0.636603 0.373800 -0.261800 1 0 1.000000 
0 11.054700 4.086901 31.243200 0.483002 -0.601203 0.636603 0.245800 -0.261500 1 0 1.000000 
composite_building001a
0 1.784799 12.931300 47.782799 0.045698 0.000800 -0.998955 0.476600 -0.084300 1 0 1.000000 
0 -12.426400 -1.803801 47.121498 0.045698 0.000800 -0.998955 0.172600 -0.238400 1 0 1.000000 
0 -12.432201 12.310299 47.131802 0.045698 0.000800 -0.998955 0.476600 -0.238500 1 0 1.000000 
composite_building001a
0 10.284300 3.767101 31.525700 0.464619 -0.816334 0.343114 0.819300 -0.162700 1 0 1.000000 
0 11.054700 4.086901 31.243200 0.464619 -0.816334 0.343114 0.819200 -0.176500 1 0 1.000000 
0 10.284300 6.112600 37.106300 0.464619 -0.816334 0.343114 0.848100 -0.131600 1 0 1.000000 
composite_building001a
0 -11.627400 -8.686501 13.666800 0.219502 0.975610 -0.002000 0.088000 -0.931900 1 0 1.000000 
0 -8.689000 -9.311300 31.174999 0.219502 0.975610 -0.002000 0.141300 -0.771600 1 0 1.000000 
0 -5.446499 -10.059700 22.057899 0.219502 0.975610 -0.002000 0.225100 -0.850400 1 0 1.000000 
composite_building001a
0 -11.627400 -8.686501 13.666800 0.219502 0.975610 -0.002000 0.088000 -0.931900 1 0 1.000000 
0 -12.253200 -9.292901 43.412498 0.252213 0.967349 0.025001 0.076600 -0.659600 1 0 1.000000 
0 -9.082700 -10.059700 41.096500 0.252213 0.967349 0.025001 0.134600 -0.673700 1 0 1.000000 
composite_building001a
0 4.687600 10.109600 43.989399 -0.447092 0.519191 -0.728388 0.429200 -0.055500 1 0 1.000000 
0 -10.977200 -1.974100 45.623901 -0.464015 0.502916 -0.729223 0.164100 -0.226500 1 0 1.000000 
0 1.784799 12.931300 47.782799 -0.447092 0.519191 -0.728388 0.476600 -0.084300 1 0 1.000000 
composite_building001a
0 10.271699 12.338300 41.554199 0.809872 0.570980 0.134495 0.155000 -0.274900 1 0 1.000000 
0 10.284300 10.751100 48.216400 0.809872 0.570980 0.134495 0.258500 -0.275500 1 0 1.000000 
0 11.054700 9.943401 47.006699 0.809872 0.570980 0.134495 0.311800 -0.259100 1 0 1.000000 
composite_building001a
0 11.097200 -9.945299 -48.778500 0.160608 -0.986948 0.011801 0.998500 -0.353600 1 0 1.000000 
0 10.231000 -9.251100 21.128700 0.160608 -0.986948 0.011801 0.998500 -0.285600 1 0 1.000000 
0 5.439500 -10.059700 18.709200 0.160608 -0.986948 0.011801 0.884500 -0.301300 1 0 1.000000 
composite_building001a
0 10.284300 6.112600 37.106300 -0.340789 -0.867572 0.362188 0.367200 -0.720800 1 0 1.000000 
0 11.054700 9.943401 47.006699 -0.340789 -0.867572 0.362188 0.436100 -0.620900 1 0 1.000000 
0 10.284300 10.751100 48.216400 -0.340789 -0.867572 0.362188 0.455100 -0.620600 1 0 1.000000 
composite_building001a
0 -11.627400 -8.686501 13.666800 0.008600 0.986770 0.161895 0.088000 -0.931900 1 0 1.000000 
0 -5.446499 -10.059700 22.057899 -0.044399 0.980175 0.193095 0.225100 -0.850400 1 0 1.000000 
0 -4.298100 -9.311300 18.523600 -0.044399 0.980175 0.193095 0.240500 -0.887400 1 0 1.000000 
composite_building001a
0 10.284300 -2.527299 25.914301 0.680010 -0.428706 0.594809 0.427300 -0.281400 1 0 1.000000 
0 10.231000 -9.251100 21.128700 0.680010 -0.428706 0.594809 0.127900 -0.257200 1 0 1.000000 
0 11.054700 -5.265399 23.059900 0.680010 -0.428706 0.594809 0.316100 -0.263100 1 0 1.000000 
composite_building001a
0 -4.298100 -9.311300 18.523600 0.439178 -0.897154 -0.047298 0.681700 -0.306300 1 0 1.000000 
0 -5.446499 -10.059700 22.057899 0.439178 -0.897154 -0.047298 0.662300 -0.266600 1 0 1.000000 
0 -12.930500 -9.991301 -48.771999 0.439178 -0.897154 -0.047298 0.506300 -0.353500 1 0 1.000000 
composite_building001a
0 10.284300 -2.527299 25.914301 0.478308 -0.565709 0.671711 0.667600 -0.230300 1 0 1.000000 
0 11.054700 -5.265399 23.059900 0.478308 -0.565709 0.671711 0.606800 -0.259600 1 0 1.000000 
0 11.054700 1.080801 28.404100 0.478308 -0.565709 0.671711 0.742700 -0.204500 1 0 1.000000 
composite_building001a
0 10.284300 6.112600 37.106300 0.182493 -0.921665 0.342387 0.363700 -0.292700 1 0 1.000000 
0 11.054700 4.086901 31.243200 0.182493 -0.921665 0.342387 0.375600 -0.250600 1 0 1.000000 
0 11.054700 9.943401 47.006699 0.182493 -0.921665 0.342387 0.260000 -0.256300 1 0 1.000000 
composite_building001a
0 -10.858701 11.955400 47.484901 0.682286 -0.731085 0.000000 0.041400 -0.268700 1 0 1.000000 
0 -12.109500 10.787999 47.484901 0.682286 -0.731085 0.000000 0.003700 -0.268700 1 0 1.000000 
0 -10.858701 11.955400 11.653700 0.682286 -0.731085 0.000000 0.041400 -0.990500 1 0 1.000000 
composite_building001a
0 -12.109500 10.787999 11.653700 0.682286 -0.731085 0.000000 0.004900 -0.999500 1 0 1.000000 
0 -10.858701 11.955400 11.653700 0.682286 -0.731085 0.000000 0.041400 -0.990500 1 0 1.000000 
0 -12.109500 10.787999 47.484901 0.682286 -0.731085 0.000000 0.003700 -0.268700 1 0 1.000000 
composite_building001a
0 -11.158900 -8.562801 44.883900 -0.435411 0.854722 -0.282607 0.050500 -0.101600 1 0 1.000000 
0 -12.260300 -8.951701 45.404800 -0.435411 0.854722 -0.282607 0.001400 -0.101600 1 0 1.000000 
0 -11.632600 -7.685000 48.269299 -0.435411 0.854722 -0.282607 0.001600 -0.014000 1 0 1.000000 
composite_building001a
0 -1.525300 -10.059700 16.713699 -0.142106 0.636428 0.758133 0.268100 -0.901900 1 0 1.000000 
0 1.146801 -10.059700 17.214701 -0.142106 0.636428 0.758133 0.318900 -0.903200 1 0 1.000000 
0 -11.627400 -8.686501 13.666800 -0.142106 0.636428 0.758133 0.088000 -0.931900 1 0 1.000000 
composite_building001a
0 -12.260300 -8.951701 45.404800 0.435411 -0.854722 0.282607 0.001400 -0.088100 1 0 1.000000 
0 -11.158900 -8.562801 44.883900 0.435411 -0.854722 0.282607 0.050500 -0.088100 1 0 1.000000 
0 -11.632600 -7.685000 48.269299 0.435411 -0.854722 0.282607 0.001500 -0.000500 1 0 1.000000 
composite_building001a
0 1.784799 12.931300 47.782799 -0.505002 0.556802 -0.659503 0.476600 -0.084300 1 0 1.000000 
0 -10.977200 -1.974100 45.623901 -0.559091 0.566391 -0.605490 0.164100 -0.226500 1 0 1.000000 
0 -12.426400 -1.803801 47.121498 -0.559091 0.566391 -0.605490 0.172600 -0.238400 1 0 1.000000 
composite_building001a
0 2.834000 12.367200 44.034801 0.135602 0.925015 0.354906 0.441400 -0.258800 1 0 1.000000 
0 10.271699 12.338300 41.554199 0.117500 0.914900 0.386200 0.155000 -0.274900 1 0 1.000000 
0 4.790900 12.931300 41.817101 0.117500 0.914900 0.386200 0.387700 -0.276900 1 0 1.000000 
composite_building001a
0 2.244400 7.225200 43.787102 -0.171898 0.213098 -0.961790 0.367100 -0.081600 1 0 1.000000 
0 4.687600 10.109600 43.989399 -0.171898 0.213098 -0.961790 0.429200 -0.055500 1 0 1.000000 
0 6.993000 8.392600 43.196899 -0.171898 0.213098 -0.961790 0.396800 -0.023200 1 0 1.000000 
composite_building001a
0 2.244400 7.225200 43.787102 0.497000 -0.513100 0.699800 0.367100 -0.081600 1 0 1.000000 
0 -3.886500 2.841700 44.927898 0.497000 -0.513100 0.699800 0.290900 -0.123700 1 0 1.000000 
0 -4.435700 0.639400 43.703400 0.497000 -0.513100 0.699800 0.225200 -0.153000 1 0 1.000000 
composite_building001a
0 -8.188400 -1.552000 44.819000 -0.297406 0.175304 -0.938519 0.167200 -0.191200 1 0 1.000000 
0 -4.435700 0.639400 43.703400 -0.377515 0.184507 -0.907436 0.225200 -0.153000 1 0 1.000000 
0 -4.695600 -3.165200 43.037998 -0.377515 0.184507 -0.907436 0.129500 -0.149700 1 0 1.000000 
composite_building001a
0 10.284300 3.767101 31.525700 0.615092 -0.516193 0.595992 0.225600 -0.280500 1 0 1.000000 
0 10.284300 1.155200 29.263599 0.615092 -0.516193 0.595992 0.368900 -0.280600 1 0 1.000000 
0 11.054700 1.080801 28.404100 0.615092 -0.516193 0.595992 0.373800 -0.261800 1 0 1.000000 
composite_building001a
0 2.834000 12.367200 44.034801 0.035800 -0.986709 0.158502 0.207400 -0.653900 1 0 1.000000 
0 1.784799 12.931300 47.782799 0.035800 -0.986709 0.158502 0.222700 -0.620900 1 0 1.000000 
0 -12.432201 12.310299 47.131802 0.035800 -0.986709 0.158502 0.484200 -0.620900 1 0 1.000000 
composite_building001a
0 -11.627400 -8.686501 13.666800 0.173900 0.975201 -0.136900 0.088000 -0.931900 1 0 1.000000 
0 -4.298100 -9.311300 18.523600 0.173900 0.975201 -0.136900 0.240500 -0.887400 1 0 1.000000 
0 -1.525300 -10.059700 16.713699 0.173900 0.975201 -0.136900 0.268100 -0.901900 1 0 1.000000 
composite_building001a
0 10.284300 1.155200 29.263599 0.732483 -0.131397 0.667984 0.339900 -0.280700 1 0 1.000000 
0 10.284300 -2.114399 28.620501 0.732483 -0.131397 0.667984 0.457800 -0.279600 1 0 1.000000 
0 11.054700 1.080801 28.404100 0.732483 -0.131397 0.667984 0.344800 -0.261900 1 0 1.000000 
composite_building001a
0 -8.689000 -9.311300 31.174999 0.670725 -0.741127 -0.029301 0.587000 -0.175000 1 0 1.000000 
0 -9.082700 -10.059700 41.096500 0.670725 -0.741127 -0.029301 0.587000 -0.069700 1 0 1.000000 
0 -12.930500 -9.991301 -48.771999 0.670725 -0.741127 -0.029301 0.506300 -0.353500 1 0 1.000000 
composite_building001a
0 1.146801 -10.059700 17.214701 0.076603 0.972440 -0.220209 0.823300 -0.459500 1 0 1.000000 
0 3.164300 -9.311300 21.222500 0.076603 0.972440 -0.220209 0.842000 -0.380400 1 0 1.000000 
0 5.439500 -10.059700 18.709200 0.076603 0.972440 -0.220209 0.833200 -0.285800 1 0 1.000000 
composite_building001a
0 -11.627400 -8.686501 13.666800 -0.187695 0.979974 0.066498 0.088000 -0.931900 1 0 1.000000 
0 -9.082700 -10.059700 41.096500 -0.187695 0.979974 0.066498 0.134600 -0.673700 1 0 1.000000 
0 -8.689000 -9.311300 31.174999 -0.187695 0.979974 0.066498 0.141300 -0.771600 1 0 1.000000 
composite_building001a
0 1.146801 -10.059700 17.214701 -0.076603 -0.972440 0.220209 0.796600 -0.316700 1 0 1.000000 
0 5.439500 -10.059700 18.709200 -0.076603 -0.972440 0.220209 0.884500 -0.301300 1 0 1.000000 
0 3.164300 -9.311300 21.222500 -0.076603 -0.972440 0.220209 0.836600 -0.284000 1 0 1.000000 
composite_building001a
0 -12.930500 -9.991301 -48.771999 -0.967064 0.253991 -0.016599 0.997500 -0.354300 1 0 1.000000 
0 -13.018900 -4.364700 42.450500 -0.967064 0.253991 -0.016599 0.875500 -0.057700 1 0 1.000000 
0 -12.426400 -1.803801 47.121498 -0.967064 0.253991 -0.016599 0.796700 -0.000300 1 0 1.000000 
composite_building001a
0 10.284300 -2.114399 28.620501 0.972073 -0.231993 0.035399 0.678300 -0.209700 1 0 1.000000 
0 10.284300 -2.527299 25.914301 0.972073 -0.231993 0.035399 0.667600 -0.230300 1 0 1.000000 
0 11.054700 1.080801 28.404100 0.972073 -0.231993 0.035399 0.742700 -0.204500 1 0 1.000000 
composite_building001a
0 -12.432201 12.310299 47.131802 0.992017 0.000500 -0.126102 0.073400 -0.619900 1 0 1.000000 
0 -12.426400 -1.803801 47.121498 0.992017 0.000500 -0.126102 0.340900 -0.619900 1 0 1.000000 
0 -13.018900 -4.364700 42.450500 0.992017 0.000500 -0.126102 0.393200 -0.662500 1 0 1.000000 
end
