$cd ".\"
$modelname "props_c17/train_wheelset01a.mdl"
$model "Body" "train_wheelset01a_reference.smd"
$cdmaterials "models/props_c17/"
$surfaceprop "metal"
$eyeposition 0.000 0.000 0.000
$illumposition 0.000 0.000 0.000
$sequence idle "idle" ACT_IDLE 1 fps 30.000000
$keyvalues
{
	prop_data
	{
		base	Metal.Medium
	}
}	