version 1
nodes
  0 "static_prop" -1
end
skeleton
time 0
0 0.000000 0.000000 0.000000 0.000000 0.000000 0.000000
end
triangles
pipe_cap001
0 2.000000 0.000000 2.222300 1.000000 0.000000 0.000000 0.062600 -0.876300 1 0 1.000000 
0 2.000000 1.571400 1.571400 1.000000 0.000000 0.000000 0.106000 -0.894200 1 0 1.000000 
0 2.000000 0.850400 2.053100 1.000000 0.000000 0.000000 0.086100 -0.880900 1 0 1.000000 
pipe_cap001
0 2.000000 0.000000 2.222300 1.000000 0.000000 0.000000 0.062600 -0.876300 1 0 1.000000 
0 2.000000 2.053100 0.850400 1.000000 0.000000 0.000000 0.119300 -0.914100 1 0 1.000000 
0 2.000000 1.571400 1.571400 1.000000 0.000000 0.000000 0.106000 -0.894200 1 0 1.000000 
pipe_cap001
0 2.000000 0.000000 2.222300 1.000000 0.000000 0.000000 0.062600 -0.876300 1 0 1.000000 
0 2.000000 2.222300 0.000000 1.000000 0.000000 0.000000 0.124000 -0.937600 1 0 1.000000 
0 2.000000 2.053100 0.850400 1.000000 0.000000 0.000000 0.119300 -0.914100 1 0 1.000000 
pipe_cap001
0 2.000000 0.000000 2.222300 1.000000 0.000000 0.000000 0.062600 -0.876300 1 0 1.000000 
0 2.000000 2.053100 -0.850400 1.000000 0.000000 0.000000 0.119300 -0.961100 1 0 1.000000 
0 2.000000 2.222300 0.000000 1.000000 0.000000 0.000000 0.124000 -0.937600 1 0 1.000000 
pipe_cap001
0 2.000000 0.000000 2.222300 1.000000 0.000000 0.000000 0.062600 -0.876300 1 0 1.000000 
0 2.000000 1.571400 -1.571400 1.000000 0.000000 0.000000 0.106000 -0.981000 1 0 1.000000 
0 2.000000 2.053100 -0.850400 1.000000 0.000000 0.000000 0.119300 -0.961100 1 0 1.000000 
pipe_cap001
0 2.000000 0.000000 2.222300 1.000000 0.000000 0.000000 0.062600 -0.876300 1 0 1.000000 
0 2.000000 0.850400 -2.053100 1.000000 0.000000 0.000000 0.086100 -0.994300 1 0 1.000000 
0 2.000000 1.571400 -1.571400 1.000000 0.000000 0.000000 0.106000 -0.981000 1 0 1.000000 
pipe_cap001
0 2.000000 0.000000 2.222300 1.000000 0.000000 0.000000 0.062600 -0.876300 1 0 1.000000 
0 2.000000 0.000000 -2.222300 1.000000 0.000000 0.000000 0.062600 -0.999000 1 0 1.000000 
0 2.000000 0.850400 -2.053100 1.000000 0.000000 0.000000 0.086100 -0.994300 1 0 1.000000 
pipe_cap001
0 2.000000 0.000000 2.222300 1.000000 0.000000 0.000000 0.062600 -0.876300 1 0 1.000000 
0 2.000000 -0.850400 -2.053100 1.000000 0.000000 0.000000 0.039100 -0.994300 1 0 1.000000 
0 2.000000 0.000000 -2.222300 1.000000 0.000000 0.000000 0.062600 -0.999000 1 0 1.000000 
pipe_cap001
0 2.000000 0.000000 2.222300 1.000000 0.000000 0.000000 0.062600 -0.876300 1 0 1.000000 
0 2.000000 -1.571400 -1.571400 1.000000 0.000000 0.000000 0.019200 -0.981000 1 0 1.000000 
0 2.000000 -0.850400 -2.053100 1.000000 0.000000 0.000000 0.039100 -0.994300 1 0 1.000000 
pipe_cap001
0 2.000000 0.000000 2.222300 1.000000 0.000000 0.000000 0.062600 -0.876300 1 0 1.000000 
0 2.000000 -2.053100 -0.850400 1.000000 0.000000 0.000000 0.005900 -0.961100 1 0 1.000000 
0 2.000000 -1.571400 -1.571400 1.000000 0.000000 0.000000 0.019200 -0.981000 1 0 1.000000 
pipe_cap001
0 2.000000 0.000000 2.222300 1.000000 0.000000 0.000000 0.062600 -0.876300 1 0 1.000000 
0 2.000000 -2.222300 0.000000 1.000000 0.000000 0.000000 0.001300 -0.937600 1 0 1.000000 
0 2.000000 -2.053100 -0.850400 1.000000 0.000000 0.000000 0.005900 -0.961100 1 0 1.000000 
pipe_cap001
0 2.000000 0.000000 2.222300 1.000000 0.000000 0.000000 0.062600 -0.876300 1 0 1.000000 
0 2.000000 -2.053100 0.850400 1.000000 0.000000 0.000000 0.005900 -0.914100 1 0 1.000000 
0 2.000000 -2.222300 0.000000 1.000000 0.000000 0.000000 0.001300 -0.937600 1 0 1.000000 
pipe_cap001
0 2.000000 0.000000 2.222300 1.000000 0.000000 0.000000 0.062600 -0.876300 1 0 1.000000 
0 2.000000 -1.571400 1.571400 1.000000 0.000000 0.000000 0.019200 -0.894200 1 0 1.000000 
0 2.000000 -2.053100 0.850400 1.000000 0.000000 0.000000 0.005900 -0.914100 1 0 1.000000 
pipe_cap001
0 2.000000 0.000000 2.222300 1.000000 0.000000 0.000000 0.062600 -0.876300 1 0 1.000000 
0 2.000000 -0.850400 2.053100 1.000000 0.000000 0.000000 0.039100 -0.880900 1 0 1.000000 
0 2.000000 -1.571400 1.571400 1.000000 0.000000 0.000000 0.019200 -0.894200 1 0 1.000000 
pipe_cap001
0 0.585300 0.000000 -3.923100 0.254798 -0.002100 -0.966992 0.253400 -0.681300 1 0 1.000000 
0 1.148100 1.414200 -3.414200 0.481188 0.332091 -0.811279 0.345200 -0.635000 1 0 1.000000 
0 1.148100 0.000000 -3.695500 0.481201 -0.003700 -0.876602 0.252900 -0.656200 1 0 1.000000 
pipe_cap001
0 0.585300 0.000000 -3.923100 0.254798 -0.002100 -0.966992 0.253400 -0.681300 1 0 1.000000 
0 0.585300 1.501300 -3.624500 0.254798 0.368097 -0.894194 0.373200 -0.652800 1 0 1.000000 
0 1.148100 1.414200 -3.414200 0.481188 0.332091 -0.811279 0.345200 -0.635000 1 0 1.000000 
pipe_cap001
0 0.585300 1.501300 -3.624500 0.254798 0.368097 -0.894194 0.373200 -0.652800 1 0 1.000000 
0 1.148100 2.613100 -2.613100 0.481201 0.617302 -0.622402 0.392600 -0.588900 1 0 1.000000 
0 1.148100 1.414200 -3.414200 0.481188 0.332091 -0.811279 0.345200 -0.635000 1 0 1.000000 
pipe_cap001
0 1.148100 1.414200 -3.414200 0.481188 0.332091 -0.811279 0.345200 -0.635000 1 0 1.000000 
0 1.148100 2.613100 -2.613100 0.481201 0.617302 -0.622402 0.392600 -0.588900 1 0 1.000000 
0 1.666700 2.351800 -2.351800 0.663122 0.526017 -0.532518 0.367100 -0.576500 1 0 1.000000 
pipe_cap001
0 1.148100 2.613100 -2.613100 0.481201 0.617302 -0.622402 0.392600 -0.588900 1 0 1.000000 
0 1.666700 3.072700 -1.272800 0.663108 0.689809 -0.290604 0.388200 -0.530000 1 0 1.000000 
0 1.666700 2.351800 -2.351800 0.663122 0.526017 -0.532518 0.367100 -0.576500 1 0 1.000000 
pipe_cap001
0 1.666700 2.351800 -2.351800 0.663122 0.526017 -0.532518 0.367100 -0.576500 1 0 1.000000 
0 1.666700 3.072700 -1.272800 0.663108 0.689809 -0.290604 0.388200 -0.530000 1 0 1.000000 
0 2.121300 2.613100 -1.082400 0.798533 0.554223 -0.234910 0.362900 -0.522800 1 0 1.000000 
pipe_cap001
0 1.666700 3.072700 -1.272800 0.663108 0.689809 -0.290604 0.388200 -0.530000 1 0 1.000000 
0 2.121300 2.828400 0.000000 0.798536 0.601927 -0.004900 0.369000 -0.481300 1 0 1.000000 
0 2.121300 2.613100 -1.082400 0.798533 0.554223 -0.234910 0.362900 -0.522800 1 0 1.000000 
pipe_cap001
0 1.148000 -3.414200 -1.414200 0.481188 -0.811279 -0.332091 0.091300 -0.536700 1 0 1.000000 
0 1.148100 -2.613100 -2.613100 0.481201 -0.622402 -0.617302 0.111600 -0.590000 1 0 1.000000 
0 1.666700 -2.351800 -2.351800 0.663122 -0.532518 -0.526017 0.137100 -0.577500 1 0 1.000000 
pipe_cap001
0 1.148100 -2.613100 -2.613100 0.481201 -0.622402 -0.617302 0.111600 -0.590000 1 0 1.000000 
0 1.666700 -1.272800 -3.072700 0.663109 -0.290604 -0.689809 0.181500 -0.614800 1 0 1.000000 
0 1.666700 -2.351800 -2.351800 0.663122 -0.532518 -0.526017 0.137100 -0.577500 1 0 1.000000 
pipe_cap001
0 1.148100 -2.613100 -2.613100 0.481201 -0.622402 -0.617302 0.111600 -0.590000 1 0 1.000000 
0 1.148100 -1.414200 -3.414200 0.481197 -0.338798 -0.808495 0.159800 -0.635700 1 0 1.000000 
0 1.666700 -1.272800 -3.072700 0.663109 -0.290604 -0.689809 0.181500 -0.614800 1 0 1.000000 
pipe_cap001
0 1.148100 -1.414200 -3.414200 0.481197 -0.338798 -0.808495 0.159800 -0.635700 1 0 1.000000 
0 1.666700 0.000000 -3.325900 0.663108 -0.004600 -0.748509 0.252600 -0.630100 1 0 1.000000 
0 1.666700 -1.272800 -3.072700 0.663109 -0.290604 -0.689809 0.181500 -0.614800 1 0 1.000000 
pipe_cap001
0 1.148100 -1.414200 -3.414200 0.481197 -0.338798 -0.808495 0.159800 -0.635700 1 0 1.000000 
0 1.148100 0.000000 -3.695500 0.481201 -0.003700 -0.876602 0.252900 -0.656200 1 0 1.000000 
0 1.666700 0.000000 -3.325900 0.663108 -0.004600 -0.748509 0.252600 -0.630100 1 0 1.000000 
pipe_cap001
0 1.148100 0.000000 -3.695500 0.481201 -0.003700 -0.876602 0.252900 -0.656200 1 0 1.000000 
0 1.666700 1.272800 -3.072700 0.663099 0.282200 -0.693299 0.323300 -0.614200 1 0 1.000000 
0 1.666700 0.000000 -3.325900 0.663108 -0.004600 -0.748509 0.252600 -0.630100 1 0 1.000000 
pipe_cap001
0 1.148100 0.000000 -3.695500 0.481201 -0.003700 -0.876602 0.252900 -0.656200 1 0 1.000000 
0 1.148100 1.414200 -3.414200 0.481188 0.332091 -0.811279 0.345200 -0.635000 1 0 1.000000 
0 1.666700 1.272800 -3.072700 0.663099 0.282200 -0.693299 0.323300 -0.614200 1 0 1.000000 
pipe_cap001
0 1.148100 1.414200 -3.414200 0.481188 0.332091 -0.811279 0.345200 -0.635000 1 0 1.000000 
0 1.666700 2.351800 -2.351800 0.663122 0.526017 -0.532518 0.367100 -0.576500 1 0 1.000000 
0 1.666700 1.272800 -3.072700 0.663099 0.282200 -0.693299 0.323300 -0.614200 1 0 1.000000 
pipe_cap001
0 1.666700 1.272800 -3.072700 0.663099 0.282200 -0.693299 0.323300 -0.614200 1 0 1.000000 
0 1.666700 2.351800 -2.351800 0.663122 0.526017 -0.532518 0.367100 -0.576500 1 0 1.000000 
0 2.121300 2.000000 -2.000000 0.798541 0.422122 -0.429122 0.342800 -0.561400 1 0 1.000000 
pipe_cap001
0 1.666700 2.351800 -2.351800 0.663122 0.526017 -0.532518 0.367100 -0.576500 1 0 1.000000 
0 2.121300 2.613100 -1.082400 0.798533 0.554223 -0.234910 0.362900 -0.522800 1 0 1.000000 
0 2.121300 2.000000 -2.000000 0.798541 0.422122 -0.429122 0.342800 -0.561400 1 0 1.000000 
pipe_cap001
0 0.000000 -2.828400 2.828400 0.129896 -0.745977 0.653180 0.055700 -0.367800 1 0 1.000000 
0 0.000000 -3.695500 1.530700 0.129906 -0.939144 0.318015 0.043800 -0.423600 1 0 1.000000 
0 0.585300 -3.624500 1.501300 0.254795 -0.892581 0.371992 0.067300 -0.426600 1 0 1.000000 
pipe_cap001
0 0.000000 -3.695500 1.530700 0.129906 -0.939144 0.318015 0.043800 -0.423600 1 0 1.000000 
0 0.585300 -3.923100 0.000000 0.254798 -0.966992 0.002100 0.062900 -0.482500 1 0 1.000000 
0 0.585300 -3.624500 1.501300 0.254795 -0.892581 0.371992 0.067300 -0.426600 1 0 1.000000 
pipe_cap001
0 0.000000 -3.695500 1.530700 0.129906 -0.939144 0.318015 0.043800 -0.423600 1 0 1.000000 
0 0.000000 -4.000000 0.000000 0.129894 -0.989356 -0.065597 0.040800 -0.482100 1 0 1.000000 
0 0.585300 -3.923100 0.000000 0.254798 -0.966992 0.002100 0.062900 -0.482500 1 0 1.000000 
pipe_cap001
0 0.000000 -4.000000 0.000000 0.129894 -0.989356 -0.065597 0.040800 -0.482100 1 0 1.000000 
0 0.585300 -3.624500 -1.501300 0.254798 -0.894194 -0.368097 0.067500 -0.540700 1 0 1.000000 
0 0.585300 -3.923100 0.000000 0.254798 -0.966992 0.002100 0.062900 -0.482500 1 0 1.000000 
pipe_cap001
0 0.000000 -4.000000 0.000000 0.129894 -0.989356 -0.065597 0.040800 -0.482100 1 0 1.000000 
0 0.000000 -3.695500 -1.530700 0.129906 -0.888938 -0.439219 0.044000 -0.543200 1 0 1.000000 
0 0.585300 -3.624500 -1.501300 0.254798 -0.894194 -0.368097 0.067500 -0.540700 1 0 1.000000 
pipe_cap001
0 0.000000 -3.695500 -1.530700 0.129906 -0.888938 -0.439219 0.044000 -0.543200 1 0 1.000000 
0 0.585300 -2.774100 -2.774100 0.254806 -0.685215 -0.682315 0.084700 -0.599600 1 0 1.000000 
0 0.585300 -3.624500 -1.501300 0.254798 -0.894194 -0.368097 0.067500 -0.540700 1 0 1.000000 
pipe_cap001
0 0.000000 -3.695500 -1.530700 0.129906 -0.888938 -0.439219 0.044000 -0.543200 1 0 1.000000 
0 0.000000 -2.828400 -2.828400 0.129896 -0.653180 -0.745977 0.056100 -0.606200 1 0 1.000000 
0 0.585300 -2.774100 -2.774100 0.254806 -0.685215 -0.682315 0.084700 -0.599600 1 0 1.000000 
pipe_cap001
0 0.000000 -2.828400 -2.828400 0.129896 -0.653180 -0.745977 0.056100 -0.606200 1 0 1.000000 
0 0.585300 -1.501300 -3.624500 0.254795 -0.371992 -0.892581 0.131900 -0.653800 1 0 1.000000 
0 0.585300 -2.774100 -2.774100 0.254806 -0.685215 -0.682315 0.084700 -0.599600 1 0 1.000000 
pipe_cap001
0 0.000000 -2.828400 -2.828400 0.129896 -0.653180 -0.745977 0.056100 -0.606200 1 0 1.000000 
0 0.000000 -1.530700 -3.695500 0.129906 -0.318015 -0.939144 0.094600 -0.668200 1 0 1.000000 
0 0.585300 -1.501300 -3.624500 0.254795 -0.371992 -0.892581 0.131900 -0.653800 1 0 1.000000 
pipe_cap001
0 0.000000 -1.530700 -3.695500 0.129906 -0.318015 -0.939144 0.094600 -0.668200 1 0 1.000000 
0 0.585300 0.000000 -3.923100 0.254798 -0.002100 -0.966992 0.253400 -0.681300 1 0 1.000000 
0 0.585300 -1.501300 -3.624500 0.254795 -0.371992 -0.892581 0.131900 -0.653800 1 0 1.000000 
pipe_cap001
0 0.000000 -1.530700 -3.695500 0.129906 -0.318015 -0.939144 0.094600 -0.668200 1 0 1.000000 
0 0.000000 0.000000 -4.000000 0.129894 0.065597 -0.989356 0.254300 -0.705900 1 0 1.000000 
0 0.585300 0.000000 -3.923100 0.254798 -0.002100 -0.966992 0.253400 -0.681300 1 0 1.000000 
pipe_cap001
0 0.000000 0.000000 -4.000000 0.129894 0.065597 -0.989356 0.254300 -0.705900 1 0 1.000000 
0 0.585300 1.501300 -3.624500 0.254798 0.368097 -0.894194 0.373200 -0.652800 1 0 1.000000 
0 0.585300 0.000000 -3.923100 0.254798 -0.002100 -0.966992 0.253400 -0.681300 1 0 1.000000 
pipe_cap001
0 0.000000 0.000000 -4.000000 0.129894 0.065597 -0.989356 0.254300 -0.705900 1 0 1.000000 
0 -0.000000 1.530700 -3.695500 0.129906 0.439219 -0.888938 0.410400 -0.667100 1 0 1.000000 
0 0.585300 1.501300 -3.624500 0.254798 0.368097 -0.894194 0.373200 -0.652800 1 0 1.000000 
pipe_cap001
0 -0.000000 1.530700 -3.695500 0.129906 0.439219 -0.888938 0.410400 -0.667100 1 0 1.000000 
0 0.585300 2.774100 -2.774100 0.254806 0.682315 -0.685215 0.419500 -0.598400 1 0 1.000000 
0 0.585300 1.501300 -3.624500 0.254798 0.368097 -0.894194 0.373200 -0.652800 1 0 1.000000 
pipe_cap001
0 0.585300 1.501300 -3.624500 0.254798 0.368097 -0.894194 0.373200 -0.652800 1 0 1.000000 
0 0.585300 2.774100 -2.774100 0.254806 0.682315 -0.685215 0.419500 -0.598400 1 0 1.000000 
0 1.148100 2.613100 -2.613100 0.481201 0.617302 -0.622402 0.392600 -0.588900 1 0 1.000000 
pipe_cap001
0 0.585300 2.774100 -2.774100 0.254806 0.682315 -0.685215 0.419500 -0.598400 1 0 1.000000 
0 1.148000 3.414200 -1.414200 0.481197 0.808495 -0.338798 0.412600 -0.535500 1 0 1.000000 
0 1.148100 2.613100 -2.613100 0.481201 0.617302 -0.622402 0.392600 -0.588900 1 0 1.000000 
pipe_cap001
0 1.148100 2.613100 -2.613100 0.481201 0.617302 -0.622402 0.392600 -0.588900 1 0 1.000000 
0 1.148000 3.414200 -1.414200 0.481197 0.808495 -0.338798 0.412600 -0.535500 1 0 1.000000 
0 1.666700 3.072700 -1.272800 0.663108 0.689809 -0.290604 0.388200 -0.530000 1 0 1.000000 
pipe_cap001
0 1.148000 3.414200 -1.414200 0.481197 0.808495 -0.338798 0.412600 -0.535500 1 0 1.000000 
0 1.666700 3.325900 0.000000 0.663108 0.748509 -0.004600 0.394200 -0.481500 1 0 1.000000 
0 1.666700 3.072700 -1.272800 0.663108 0.689809 -0.290604 0.388200 -0.530000 1 0 1.000000 
pipe_cap001
0 0.585300 2.774100 -2.774100 0.254806 0.682315 -0.685215 0.419500 -0.598400 1 0 1.000000 
0 0.585300 3.624500 -1.501300 0.254795 0.892581 -0.371992 0.436300 -0.539400 1 0 1.000000 
0 1.148000 3.414200 -1.414200 0.481197 0.808495 -0.338798 0.412600 -0.535500 1 0 1.000000 
pipe_cap001
0 0.585300 1.501300 3.624500 0.254795 0.371992 0.892581 0.371600 -0.327300 1 0 1.000000 
0 1.148000 0.000000 3.695500 0.481201 0.003700 0.876602 0.250500 -0.325600 1 0 1.000000 
0 1.148000 1.414200 3.414200 0.481197 0.338798 0.808495 0.343600 -0.342400 1 0 1.000000 
pipe_cap001
0 0.585300 1.501300 3.624500 0.254795 0.371992 0.892581 0.371600 -0.327300 1 0 1.000000 
0 0.585300 0.000000 3.923100 0.254798 0.002100 0.966992 0.249900 -0.305000 1 0 1.000000 
0 1.148000 0.000000 3.695500 0.481201 0.003700 0.876602 0.250500 -0.325600 1 0 1.000000 
pipe_cap001
0 0.585300 0.000000 3.923100 0.254798 0.002100 0.966992 0.249900 -0.305000 1 0 1.000000 
0 1.148000 -1.414200 3.414200 0.481188 -0.332091 0.811279 0.158300 -0.343200 1 0 1.000000 
0 1.148000 0.000000 3.695500 0.481201 0.003700 0.876602 0.250500 -0.325600 1 0 1.000000 
pipe_cap001
0 0.585300 0.000000 3.923100 0.254798 0.002100 0.966992 0.249900 -0.305000 1 0 1.000000 
0 0.585300 -1.501300 3.624500 0.254798 -0.368097 0.894194 0.130200 -0.328200 1 0 1.000000 
0 1.148000 -1.414200 3.414200 0.481188 -0.332091 0.811279 0.158300 -0.343200 1 0 1.000000 
pipe_cap001
0 0.585300 -1.501300 3.624500 0.254798 -0.368097 0.894194 0.130200 -0.328200 1 0 1.000000 
0 1.148000 -2.613100 2.613100 0.481201 -0.617302 0.622402 0.110900 -0.382600 1 0 1.000000 
0 1.148000 -1.414200 3.414200 0.481188 -0.332091 0.811279 0.158300 -0.343200 1 0 1.000000 
pipe_cap001
0 0.585300 -1.501300 3.624500 0.254798 -0.368097 0.894194 0.130200 -0.328200 1 0 1.000000 
0 0.585300 -2.774100 2.774100 0.254806 -0.682315 0.685215 0.084100 -0.374100 1 0 1.000000 
0 1.148000 -2.613100 2.613100 0.481201 -0.617302 0.622402 0.110900 -0.382600 1 0 1.000000 
pipe_cap001
0 0.585300 -2.774100 2.774100 0.254806 -0.682315 0.685215 0.084100 -0.374100 1 0 1.000000 
0 1.148000 -3.414200 1.414200 0.481197 -0.808495 0.338798 0.091100 -0.430600 1 0 1.000000 
0 1.148000 -2.613100 2.613100 0.481201 -0.617302 0.622402 0.110900 -0.382600 1 0 1.000000 
pipe_cap001
0 0.585300 -2.774100 2.774100 0.254806 -0.682315 0.685215 0.084100 -0.374100 1 0 1.000000 
0 0.585300 -3.624500 1.501300 0.254795 -0.892581 0.371992 0.067300 -0.426600 1 0 1.000000 
0 1.148000 -3.414200 1.414200 0.481197 -0.808495 0.338798 0.091100 -0.430600 1 0 1.000000 
pipe_cap001
0 0.585300 -3.624500 1.501300 0.254795 -0.892581 0.371992 0.067300 -0.426600 1 0 1.000000 
0 1.148000 -3.695500 0.000000 0.481201 -0.876602 0.003700 0.085600 -0.482700 1 0 1.000000 
0 1.148000 -3.414200 1.414200 0.481197 -0.808495 0.338798 0.091100 -0.430600 1 0 1.000000 
pipe_cap001
0 0.585300 -3.624500 1.501300 0.254795 -0.892581 0.371992 0.067300 -0.426600 1 0 1.000000 
0 0.585300 -3.923100 0.000000 0.254798 -0.966992 0.002100 0.062900 -0.482500 1 0 1.000000 
0 1.148000 -3.695500 0.000000 0.481201 -0.876602 0.003700 0.085600 -0.482700 1 0 1.000000 
pipe_cap001
0 0.585300 -3.923100 0.000000 0.254798 -0.966992 0.002100 0.062900 -0.482500 1 0 1.000000 
0 1.148000 -3.414200 -1.414200 0.481188 -0.811279 -0.332091 0.091300 -0.536700 1 0 1.000000 
0 1.148000 -3.695500 0.000000 0.481201 -0.876602 0.003700 0.085600 -0.482700 1 0 1.000000 
pipe_cap001
0 0.585300 -3.923100 0.000000 0.254798 -0.966992 0.002100 0.062900 -0.482500 1 0 1.000000 
0 0.585300 -3.624500 -1.501300 0.254798 -0.894194 -0.368097 0.067500 -0.540700 1 0 1.000000 
0 1.148000 -3.414200 -1.414200 0.481188 -0.811279 -0.332091 0.091300 -0.536700 1 0 1.000000 
pipe_cap001
0 0.585300 -3.624500 -1.501300 0.254798 -0.894194 -0.368097 0.067500 -0.540700 1 0 1.000000 
0 1.148100 -2.613100 -2.613100 0.481201 -0.622402 -0.617302 0.111600 -0.590000 1 0 1.000000 
0 1.148000 -3.414200 -1.414200 0.481188 -0.811279 -0.332091 0.091300 -0.536700 1 0 1.000000 
pipe_cap001
0 0.585300 -3.624500 -1.501300 0.254798 -0.894194 -0.368097 0.067500 -0.540700 1 0 1.000000 
0 0.585300 -2.774100 -2.774100 0.254806 -0.685215 -0.682315 0.084700 -0.599600 1 0 1.000000 
0 1.148100 -2.613100 -2.613100 0.481201 -0.622402 -0.617302 0.111600 -0.590000 1 0 1.000000 
pipe_cap001
0 0.585300 -2.774100 -2.774100 0.254806 -0.685215 -0.682315 0.084700 -0.599600 1 0 1.000000 
0 1.148100 -1.414200 -3.414200 0.481197 -0.338798 -0.808495 0.159800 -0.635700 1 0 1.000000 
0 1.148100 -2.613100 -2.613100 0.481201 -0.622402 -0.617302 0.111600 -0.590000 1 0 1.000000 
pipe_cap001
0 0.585300 -2.774100 -2.774100 0.254806 -0.685215 -0.682315 0.084700 -0.599600 1 0 1.000000 
0 0.585300 -1.501300 -3.624500 0.254795 -0.371992 -0.892581 0.131900 -0.653800 1 0 1.000000 
0 1.148100 -1.414200 -3.414200 0.481197 -0.338798 -0.808495 0.159800 -0.635700 1 0 1.000000 
pipe_cap001
0 0.585300 -1.501300 -3.624500 0.254795 -0.371992 -0.892581 0.131900 -0.653800 1 0 1.000000 
0 1.148100 0.000000 -3.695500 0.481201 -0.003700 -0.876602 0.252900 -0.656200 1 0 1.000000 
0 1.148100 -1.414200 -3.414200 0.481197 -0.338798 -0.808495 0.159800 -0.635700 1 0 1.000000 
pipe_cap001
0 0.585300 -1.501300 -3.624500 0.254795 -0.371992 -0.892581 0.131900 -0.653800 1 0 1.000000 
0 0.585300 0.000000 -3.923100 0.254798 -0.002100 -0.966992 0.253400 -0.681300 1 0 1.000000 
0 1.148100 0.000000 -3.695500 0.481201 -0.003700 -0.876602 0.252900 -0.656200 1 0 1.000000 
pipe_cap001
0 1.148000 3.695500 0.000000 0.481201 0.876602 -0.003700 0.418000 -0.481500 1 0 1.000000 
0 1.148000 3.414200 1.414200 0.481188 0.811279 0.332091 0.412300 -0.429400 1 0 1.000000 
0 1.666700 3.072700 1.272800 0.663099 0.693299 0.282200 0.387900 -0.434600 1 0 1.000000 
pipe_cap001
0 1.148000 3.414200 1.414200 0.481188 0.811279 0.332091 0.412300 -0.429400 1 0 1.000000 
0 1.666700 2.351800 2.351800 0.663122 0.532518 0.526017 0.366500 -0.392400 1 0 1.000000 
0 1.666700 3.072700 1.272800 0.663099 0.693299 0.282200 0.387900 -0.434600 1 0 1.000000 
pipe_cap001
0 1.148000 3.414200 1.414200 0.481188 0.811279 0.332091 0.412300 -0.429400 1 0 1.000000 
0 1.148000 2.613100 2.613100 0.481201 0.622402 0.617302 0.391900 -0.381500 1 0 1.000000 
0 1.666700 2.351800 2.351800 0.663122 0.532518 0.526017 0.366500 -0.392400 1 0 1.000000 
pipe_cap001
0 1.148000 2.613100 2.613100 0.481201 0.622402 0.617302 0.391900 -0.381500 1 0 1.000000 
0 1.666700 1.272800 3.072700 0.663109 0.290604 0.689809 0.322000 -0.360000 1 0 1.000000 
0 1.666700 2.351800 2.351800 0.663122 0.532518 0.526017 0.366500 -0.392400 1 0 1.000000 
pipe_cap001
0 1.148000 2.613100 2.613100 0.481201 0.622402 0.617302 0.391900 -0.381500 1 0 1.000000 
0 1.148000 1.414200 3.414200 0.481197 0.338798 0.808495 0.343600 -0.342400 1 0 1.000000 
0 1.666700 1.272800 3.072700 0.663109 0.290604 0.689809 0.322000 -0.360000 1 0 1.000000 
pipe_cap001
0 1.148000 1.414200 3.414200 0.481197 0.338798 0.808495 0.343600 -0.342400 1 0 1.000000 
0 1.666700 0.000000 3.325900 0.663108 0.004600 0.748509 0.250900 -0.347200 1 0 1.000000 
0 1.666700 1.272800 3.072700 0.663109 0.290604 0.689809 0.322000 -0.360000 1 0 1.000000 
pipe_cap001
0 1.148000 1.414200 3.414200 0.481197 0.338798 0.808495 0.343600 -0.342400 1 0 1.000000 
0 1.148000 0.000000 3.695500 0.481201 0.003700 0.876602 0.250500 -0.325600 1 0 1.000000 
0 1.666700 0.000000 3.325900 0.663108 0.004600 0.748509 0.250900 -0.347200 1 0 1.000000 
pipe_cap001
0 1.148000 0.000000 3.695500 0.481201 0.003700 0.876602 0.250500 -0.325600 1 0 1.000000 
0 1.666700 -1.272800 3.072700 0.663099 -0.282199 0.693299 0.180200 -0.360600 1 0 1.000000 
0 1.666700 0.000000 3.325900 0.663108 0.004600 0.748509 0.250900 -0.347200 1 0 1.000000 
pipe_cap001
0 1.148000 0.000000 3.695500 0.481201 0.003700 0.876602 0.250500 -0.325600 1 0 1.000000 
0 1.148000 -1.414200 3.414200 0.481188 -0.332091 0.811279 0.158300 -0.343200 1 0 1.000000 
0 1.666700 -1.272800 3.072700 0.663099 -0.282199 0.693299 0.180200 -0.360600 1 0 1.000000 
pipe_cap001
0 1.148000 -1.414200 3.414200 0.481188 -0.332091 0.811279 0.158300 -0.343200 1 0 1.000000 
0 1.666700 -2.351800 2.351800 0.663122 -0.526017 0.532518 0.136400 -0.393300 1 0 1.000000 
0 1.666700 -1.272800 3.072700 0.663099 -0.282199 0.693299 0.180200 -0.360600 1 0 1.000000 
pipe_cap001
0 1.148000 -1.414200 3.414200 0.481188 -0.332091 0.811279 0.158300 -0.343200 1 0 1.000000 
0 1.148000 -2.613100 2.613100 0.481201 -0.617302 0.622402 0.110900 -0.382600 1 0 1.000000 
0 1.666700 -2.351800 2.351800 0.663122 -0.526017 0.532518 0.136400 -0.393300 1 0 1.000000 
pipe_cap001
0 1.148000 -2.613100 2.613100 0.481201 -0.617302 0.622402 0.110900 -0.382600 1 0 1.000000 
0 1.666700 -3.072700 1.272800 0.663109 -0.689809 0.290604 0.115400 -0.435700 1 0 1.000000 
0 1.666700 -2.351800 2.351800 0.663122 -0.526017 0.532518 0.136400 -0.393300 1 0 1.000000 
pipe_cap001
0 1.148000 -2.613100 2.613100 0.481201 -0.617302 0.622402 0.110900 -0.382600 1 0 1.000000 
0 1.148000 -3.414200 1.414200 0.481197 -0.808495 0.338798 0.091100 -0.430600 1 0 1.000000 
0 1.666700 -3.072700 1.272800 0.663109 -0.689809 0.290604 0.115400 -0.435700 1 0 1.000000 
pipe_cap001
0 1.148000 -3.414200 1.414200 0.481197 -0.808495 0.338798 0.091100 -0.430600 1 0 1.000000 
0 1.666700 -3.325900 0.000000 0.663108 -0.748509 0.004600 0.109400 -0.482600 1 0 1.000000 
0 1.666700 -3.072700 1.272800 0.663109 -0.689809 0.290604 0.115400 -0.435700 1 0 1.000000 
pipe_cap001
0 1.148000 -3.414200 1.414200 0.481197 -0.808495 0.338798 0.091100 -0.430600 1 0 1.000000 
0 1.148000 -3.695500 0.000000 0.481201 -0.876602 0.003700 0.085600 -0.482700 1 0 1.000000 
0 1.666700 -3.325900 0.000000 0.663108 -0.748509 0.004600 0.109400 -0.482600 1 0 1.000000 
pipe_cap001
0 1.148000 -3.695500 0.000000 0.481201 -0.876602 0.003700 0.085600 -0.482700 1 0 1.000000 
0 1.666700 -3.072700 -1.272800 0.663099 -0.693299 -0.282200 0.115700 -0.531000 1 0 1.000000 
0 1.666700 -3.325900 0.000000 0.663108 -0.748509 0.004600 0.109400 -0.482600 1 0 1.000000 
pipe_cap001
0 1.148000 -3.695500 0.000000 0.481201 -0.876602 0.003700 0.085600 -0.482700 1 0 1.000000 
0 1.148000 -3.414200 -1.414200 0.481188 -0.811279 -0.332091 0.091300 -0.536700 1 0 1.000000 
0 1.666700 -3.072700 -1.272800 0.663099 -0.693299 -0.282200 0.115700 -0.531000 1 0 1.000000 
pipe_cap001
0 1.148000 -3.414200 -1.414200 0.481188 -0.811279 -0.332091 0.091300 -0.536700 1 0 1.000000 
0 1.666700 -2.351800 -2.351800 0.663122 -0.532518 -0.526017 0.137100 -0.577500 1 0 1.000000 
0 1.666700 -3.072700 -1.272800 0.663099 -0.693299 -0.282200 0.115700 -0.531000 1 0 1.000000 
pipe_cap001
0 1.666700 1.272800 -3.072700 0.663099 0.282200 -0.693299 0.323300 -0.614200 1 0 1.000000 
0 2.121300 2.000000 -2.000000 0.798541 0.422122 -0.429122 0.342800 -0.561400 1 0 1.000000 
0 2.121300 1.082400 -2.613100 0.798519 0.225805 -0.558013 0.305400 -0.590900 1 0 1.000000 
pipe_cap001
0 1.666700 0.000000 -3.325900 0.663108 -0.004600 -0.748509 0.252600 -0.630100 1 0 1.000000 
0 1.666700 1.272800 -3.072700 0.663099 0.282200 -0.693299 0.323300 -0.614200 1 0 1.000000 
0 2.121300 1.082400 -2.613100 0.798519 0.225805 -0.558013 0.305400 -0.590900 1 0 1.000000 
pipe_cap001
0 1.666700 0.000000 -3.325900 0.663108 -0.004600 -0.748509 0.252600 -0.630100 1 0 1.000000 
0 2.121300 1.082400 -2.613100 0.798519 0.225805 -0.558013 0.305400 -0.590900 1 0 1.000000 
0 2.121300 0.000000 -2.828400 0.798536 -0.004900 -0.601927 0.252400 -0.602500 1 0 1.000000 
pipe_cap001
0 1.666700 -1.272800 -3.072700 0.663109 -0.290604 -0.689809 0.181500 -0.614800 1 0 1.000000 
0 1.666700 0.000000 -3.325900 0.663108 -0.004600 -0.748509 0.252600 -0.630100 1 0 1.000000 
0 2.121300 0.000000 -2.828400 0.798536 -0.004900 -0.601927 0.252400 -0.602500 1 0 1.000000 
pipe_cap001
0 1.666700 -1.272800 -3.072700 0.663109 -0.290604 -0.689809 0.181500 -0.614800 1 0 1.000000 
0 2.121300 0.000000 -2.828400 0.798536 -0.004900 -0.601927 0.252400 -0.602500 1 0 1.000000 
0 2.121300 -1.082400 -2.613100 0.798533 -0.234910 -0.554223 0.199100 -0.591400 1 0 1.000000 
pipe_cap001
0 1.666700 -2.351800 -2.351800 0.663122 -0.532518 -0.526017 0.137100 -0.577500 1 0 1.000000 
0 1.666700 -1.272800 -3.072700 0.663109 -0.290604 -0.689809 0.181500 -0.614800 1 0 1.000000 
0 2.121300 -1.082400 -2.613100 0.798533 -0.234910 -0.554223 0.199100 -0.591400 1 0 1.000000 
pipe_cap001
0 1.666700 -2.351800 -2.351800 0.663122 -0.532518 -0.526017 0.137100 -0.577500 1 0 1.000000 
0 2.121300 -1.082400 -2.613100 0.798533 -0.234910 -0.554223 0.199100 -0.591400 1 0 1.000000 
0 2.121300 -2.000000 -2.000000 0.798541 -0.429122 -0.422122 0.161400 -0.562200 1 0 1.000000 
pipe_cap001
0 1.666700 -3.072700 -1.272800 0.663099 -0.693299 -0.282200 0.115700 -0.531000 1 0 1.000000 
0 1.666700 -2.351800 -2.351800 0.663122 -0.532518 -0.526017 0.137100 -0.577500 1 0 1.000000 
0 2.121300 -2.000000 -2.000000 0.798541 -0.429122 -0.422122 0.161400 -0.562200 1 0 1.000000 
pipe_cap001
0 1.666700 -3.072700 -1.272800 0.663099 -0.693299 -0.282200 0.115700 -0.531000 1 0 1.000000 
0 2.121300 -2.000000 -2.000000 0.798541 -0.429122 -0.422122 0.161400 -0.562200 1 0 1.000000 
0 2.121300 -2.613100 -1.082400 0.798519 -0.558013 -0.225805 0.141000 -0.523700 1 0 1.000000 
pipe_cap001
0 1.666700 -3.325900 0.000000 0.663108 -0.748509 0.004600 0.109400 -0.482600 1 0 1.000000 
0 1.666700 -3.072700 -1.272800 0.663099 -0.693299 -0.282200 0.115700 -0.531000 1 0 1.000000 
0 2.121300 -2.613100 -1.082400 0.798519 -0.558013 -0.225805 0.141000 -0.523700 1 0 1.000000 
pipe_cap001
0 1.666700 -3.325900 0.000000 0.663108 -0.748509 0.004600 0.109400 -0.482600 1 0 1.000000 
0 2.121300 -2.613100 -1.082400 0.798519 -0.558013 -0.225805 0.141000 -0.523700 1 0 1.000000 
0 2.121300 -2.828400 0.000000 0.798536 -0.601927 0.004900 0.134600 -0.482300 1 0 1.000000 
pipe_cap001
0 1.666700 -3.072700 1.272800 0.663109 -0.689809 0.290604 0.115400 -0.435700 1 0 1.000000 
0 1.666700 -3.325900 0.000000 0.663108 -0.748509 0.004600 0.109400 -0.482600 1 0 1.000000 
0 2.121300 -2.828400 0.000000 0.798536 -0.601927 0.004900 0.134600 -0.482300 1 0 1.000000 
pipe_cap001
0 1.666700 -3.072700 1.272800 0.663109 -0.689809 0.290604 0.115400 -0.435700 1 0 1.000000 
0 2.121300 -2.828400 0.000000 0.798536 -0.601927 0.004900 0.134600 -0.482300 1 0 1.000000 
0 2.121300 -2.613100 1.082400 0.798533 -0.554223 0.234910 0.140700 -0.442000 1 0 1.000000 
pipe_cap001
0 1.666700 -2.351800 2.351800 0.663122 -0.526017 0.532518 0.136400 -0.393300 1 0 1.000000 
0 1.666700 -3.072700 1.272800 0.663109 -0.689809 0.290604 0.115400 -0.435700 1 0 1.000000 
0 2.121300 -2.613100 1.082400 0.798533 -0.554223 0.234910 0.140700 -0.442000 1 0 1.000000 
pipe_cap001
0 1.666700 -2.351800 2.351800 0.663122 -0.526017 0.532518 0.136400 -0.393300 1 0 1.000000 
0 2.121300 -2.613100 1.082400 0.798533 -0.554223 0.234910 0.140700 -0.442000 1 0 1.000000 
0 2.121300 -2.000000 2.000000 0.798541 -0.422122 0.429122 0.160800 -0.406400 1 0 1.000000 
pipe_cap001
0 1.666700 -1.272800 3.072700 0.663099 -0.282199 0.693299 0.180200 -0.360600 1 0 1.000000 
0 1.666700 -2.351800 2.351800 0.663122 -0.526017 0.532518 0.136400 -0.393300 1 0 1.000000 
0 2.121300 -2.000000 2.000000 0.798541 -0.422122 0.429122 0.160800 -0.406400 1 0 1.000000 
pipe_cap001
0 1.666700 -1.272800 3.072700 0.663099 -0.282199 0.693299 0.180200 -0.360600 1 0 1.000000 
0 2.121300 -2.000000 2.000000 0.798541 -0.422122 0.429122 0.160800 -0.406400 1 0 1.000000 
0 2.121300 -1.082400 2.613100 0.798519 -0.225805 0.558013 0.198100 -0.380400 1 0 1.000000 
pipe_cap001
0 1.666700 0.000000 3.325900 0.663108 0.004600 0.748509 0.250900 -0.347200 1 0 1.000000 
0 1.666700 -1.272800 3.072700 0.663099 -0.282199 0.693299 0.180200 -0.360600 1 0 1.000000 
0 2.121300 -1.082400 2.613100 0.798519 -0.225805 0.558013 0.198100 -0.380400 1 0 1.000000 
pipe_cap001
0 2.121300 -2.828400 0.000000 0.798536 -0.601927 0.004900 0.134600 -0.482300 1 0 1.000000 
0 2.121300 -2.613100 -1.082400 0.798519 -0.558013 -0.225805 0.141000 -0.523700 1 0 1.000000 
0 2.494400 -2.053100 -0.850400 0.851084 -0.497291 -0.168397 0.167400 -0.514700 1 0 1.000000 
pipe_cap001
0 2.121300 -2.613100 -1.082400 0.798519 -0.558013 -0.225805 0.141000 -0.523700 1 0 1.000000 
0 2.494400 -1.571400 -1.571400 0.851082 -0.394991 -0.345893 0.184800 -0.544300 1 0 1.000000 
0 2.494400 -2.053100 -0.850400 0.851084 -0.497291 -0.168397 0.167400 -0.514700 1 0 1.000000 
pipe_cap001
0 2.121300 -2.613100 -1.082400 0.798519 -0.558013 -0.225805 0.141000 -0.523700 1 0 1.000000 
0 2.121300 -2.000000 -2.000000 0.798541 -0.429122 -0.422122 0.161400 -0.562200 1 0 1.000000 
0 2.494400 -1.571400 -1.571400 0.851082 -0.394991 -0.345893 0.184800 -0.544300 1 0 1.000000 
pipe_cap001
0 2.121300 -2.000000 -2.000000 0.798541 -0.429122 -0.422122 0.161400 -0.562200 1 0 1.000000 
0 2.494400 -0.850400 -2.053100 0.851086 -0.232596 -0.470692 0.214100 -0.565700 1 0 1.000000 
0 2.494400 -1.571400 -1.571400 0.851082 -0.394991 -0.345893 0.184800 -0.544300 1 0 1.000000 
pipe_cap001
0 2.121300 -2.000000 -2.000000 0.798541 -0.429122 -0.422122 0.161400 -0.562200 1 0 1.000000 
0 2.121300 -1.082400 -2.613100 0.798533 -0.234910 -0.554223 0.199100 -0.591400 1 0 1.000000 
0 2.494400 -0.850400 -2.053100 0.851086 -0.232596 -0.470692 0.214100 -0.565700 1 0 1.000000 
pipe_cap001
0 2.121300 -1.082400 -2.613100 0.798533 -0.234910 -0.554223 0.199100 -0.591400 1 0 1.000000 
0 2.494400 0.000000 -2.222300 0.851080 -0.034699 -0.523888 0.252200 -0.573500 1 0 1.000000 
0 2.494400 -0.850400 -2.053100 0.851086 -0.232596 -0.470692 0.214100 -0.565700 1 0 1.000000 
pipe_cap001
0 2.121300 -1.082400 -2.613100 0.798533 -0.234910 -0.554223 0.199100 -0.591400 1 0 1.000000 
0 2.121300 0.000000 -2.828400 0.798536 -0.004900 -0.601927 0.252400 -0.602500 1 0 1.000000 
0 2.494400 0.000000 -2.222300 0.851080 -0.034699 -0.523888 0.252200 -0.573500 1 0 1.000000 
pipe_cap001
0 2.121300 0.000000 -2.828400 0.798536 -0.004900 -0.601927 0.252400 -0.602500 1 0 1.000000 
0 2.494400 0.850400 -2.053100 0.851084 0.168397 -0.497291 0.290100 -0.565300 1 0 1.000000 
0 2.494400 0.000000 -2.222300 0.851080 -0.034699 -0.523888 0.252200 -0.573500 1 0 1.000000 
pipe_cap001
0 2.121300 0.000000 -2.828400 0.798536 -0.004900 -0.601927 0.252400 -0.602500 1 0 1.000000 
0 2.121300 1.082400 -2.613100 0.798519 0.225805 -0.558013 0.305400 -0.590900 1 0 1.000000 
0 2.494400 0.850400 -2.053100 0.851084 0.168397 -0.497291 0.290100 -0.565300 1 0 1.000000 
pipe_cap001
0 2.121300 1.082400 -2.613100 0.798519 0.225805 -0.558013 0.305400 -0.590900 1 0 1.000000 
0 2.494400 1.571400 -1.571400 0.851082 0.345893 -0.394991 0.319300 -0.543700 1 0 1.000000 
0 2.494400 0.850400 -2.053100 0.851084 0.168397 -0.497291 0.290100 -0.565300 1 0 1.000000 
pipe_cap001
0 2.121300 1.082400 -2.613100 0.798519 0.225805 -0.558013 0.305400 -0.590900 1 0 1.000000 
0 2.121300 2.000000 -2.000000 0.798541 0.422122 -0.429122 0.342800 -0.561400 1 0 1.000000 
0 2.494400 1.571400 -1.571400 0.851082 0.345893 -0.394991 0.319300 -0.543700 1 0 1.000000 
pipe_cap001
0 2.121300 2.000000 -2.000000 0.798541 0.422122 -0.429122 0.342800 -0.561400 1 0 1.000000 
0 2.494400 2.053100 -0.850400 0.851086 0.470692 -0.232596 0.336400 -0.514000 1 0 1.000000 
0 2.494400 1.571400 -1.571400 0.851082 0.345893 -0.394991 0.319300 -0.543700 1 0 1.000000 
pipe_cap001
0 2.121300 2.000000 -2.000000 0.798541 0.422122 -0.429122 0.342800 -0.561400 1 0 1.000000 
0 2.121300 2.613100 -1.082400 0.798533 0.554223 -0.234910 0.362900 -0.522800 1 0 1.000000 
0 2.494400 2.053100 -0.850400 0.851086 0.470692 -0.232596 0.336400 -0.514000 1 0 1.000000 
pipe_cap001
0 2.121300 2.613100 -1.082400 0.798533 0.554223 -0.234910 0.362900 -0.522800 1 0 1.000000 
0 2.494400 2.222300 0.000000 0.851080 0.523888 -0.034699 0.341900 -0.481100 1 0 1.000000 
0 2.494400 2.053100 -0.850400 0.851086 0.470692 -0.232596 0.336400 -0.514000 1 0 1.000000 
pipe_cap001
0 2.121300 2.613100 -1.082400 0.798533 0.554223 -0.234910 0.362900 -0.522800 1 0 1.000000 
0 2.121300 2.828400 0.000000 0.798536 0.601927 -0.004900 0.369000 -0.481300 1 0 1.000000 
0 2.494400 2.222300 0.000000 0.851080 0.523888 -0.034699 0.341900 -0.481100 1 0 1.000000 
pipe_cap001
0 2.121300 2.828400 0.000000 0.798536 0.601927 -0.004900 0.369000 -0.481300 1 0 1.000000 
0 2.494400 2.053100 0.850400 0.851084 0.497291 0.168397 0.336200 -0.449000 1 0 1.000000 
0 2.494400 2.222300 0.000000 0.851080 0.523888 -0.034699 0.341900 -0.481100 1 0 1.000000 
pipe_cap001
0 1.666700 3.072700 -1.272800 0.663108 0.689809 -0.290604 0.388200 -0.530000 1 0 1.000000 
0 1.666700 3.325900 0.000000 0.663108 0.748509 -0.004600 0.394200 -0.481500 1 0 1.000000 
0 2.121300 2.828400 0.000000 0.798536 0.601927 -0.004900 0.369000 -0.481300 1 0 1.000000 
pipe_cap001
0 1.666700 3.325900 0.000000 0.663108 0.748509 -0.004600 0.394200 -0.481500 1 0 1.000000 
0 2.121300 2.613100 1.082400 0.798519 0.558013 0.225805 0.362600 -0.441100 1 0 1.000000 
0 2.121300 2.828400 0.000000 0.798536 0.601927 -0.004900 0.369000 -0.481300 1 0 1.000000 
pipe_cap001
0 2.121300 2.828400 0.000000 0.798536 0.601927 -0.004900 0.369000 -0.481300 1 0 1.000000 
0 2.121300 2.613100 1.082400 0.798519 0.558013 0.225805 0.362600 -0.441100 1 0 1.000000 
0 2.494400 2.053100 0.850400 0.851084 0.497291 0.168397 0.336200 -0.449000 1 0 1.000000 
pipe_cap001
0 2.121300 2.613100 1.082400 0.798519 0.558013 0.225805 0.362600 -0.441100 1 0 1.000000 
0 2.494400 1.571400 1.571400 0.851082 0.394991 0.345893 0.318800 -0.421400 1 0 1.000000 
0 2.494400 2.053100 0.850400 0.851084 0.497291 0.168397 0.336200 -0.449000 1 0 1.000000 
pipe_cap001
0 2.121300 2.613100 1.082400 0.798519 0.558013 0.225805 0.362600 -0.441100 1 0 1.000000 
0 2.121300 2.000000 2.000000 0.798541 0.429122 0.422122 0.342100 -0.405700 1 0 1.000000 
0 2.494400 1.571400 1.571400 0.851082 0.394991 0.345893 0.318800 -0.421400 1 0 1.000000 
pipe_cap001
0 2.121300 2.000000 2.000000 0.798541 0.429122 0.422122 0.342100 -0.405700 1 0 1.000000 
0 2.494400 0.850400 2.053100 0.851086 0.232596 0.470692 0.289400 -0.402100 1 0 1.000000 
0 2.494400 1.571400 1.571400 0.851082 0.394991 0.345893 0.318800 -0.421400 1 0 1.000000 
pipe_cap001
0 2.121300 2.000000 2.000000 0.798541 0.429122 0.422122 0.342100 -0.405700 1 0 1.000000 
0 2.121300 1.082400 2.613100 0.798533 0.234910 0.554223 0.304400 -0.379900 1 0 1.000000 
0 2.494400 0.850400 2.053100 0.851086 0.232596 0.470692 0.289400 -0.402100 1 0 1.000000 
pipe_cap001
0 2.121300 1.082400 2.613100 0.798533 0.234910 0.554223 0.304400 -0.379900 1 0 1.000000 
0 2.494400 0.000000 2.222300 0.851080 0.034699 0.523888 0.251300 -0.395100 1 0 1.000000 
0 2.494400 0.850400 2.053100 0.851086 0.232596 0.470692 0.289400 -0.402100 1 0 1.000000 
pipe_cap001
0 2.121300 1.082400 2.613100 0.798533 0.234910 0.554223 0.304400 -0.379900 1 0 1.000000 
0 2.121300 0.000000 2.828400 0.798536 0.004900 0.601927 0.251100 -0.370300 1 0 1.000000 
0 2.494400 0.000000 2.222300 0.851080 0.034699 0.523888 0.251300 -0.395100 1 0 1.000000 
pipe_cap001
0 2.121300 0.000000 2.828400 0.798536 0.004900 0.601927 0.251100 -0.370300 1 0 1.000000 
0 2.494400 -0.850400 2.053100 0.851084 -0.168397 0.497291 0.213400 -0.402400 1 0 1.000000 
0 2.494400 0.000000 2.222300 0.851080 0.034699 0.523888 0.251300 -0.395100 1 0 1.000000 
pipe_cap001
0 2.121300 0.000000 2.828400 0.798536 0.004900 0.601927 0.251100 -0.370300 1 0 1.000000 
0 2.121300 -1.082400 2.613100 0.798519 -0.225805 0.558013 0.198100 -0.380400 1 0 1.000000 
0 2.494400 -0.850400 2.053100 0.851084 -0.168397 0.497291 0.213400 -0.402400 1 0 1.000000 
pipe_cap001
0 2.121300 -1.082400 2.613100 0.798519 -0.225805 0.558013 0.198100 -0.380400 1 0 1.000000 
0 2.494400 -1.571400 1.571400 0.851082 -0.345892 0.394991 0.184200 -0.421900 1 0 1.000000 
0 2.494400 -0.850400 2.053100 0.851084 -0.168397 0.497291 0.213400 -0.402400 1 0 1.000000 
pipe_cap001
0 2.121300 -1.082400 2.613100 0.798519 -0.225805 0.558013 0.198100 -0.380400 1 0 1.000000 
0 2.121300 -2.000000 2.000000 0.798541 -0.422122 0.429122 0.160800 -0.406400 1 0 1.000000 
0 2.494400 -1.571400 1.571400 0.851082 -0.345892 0.394991 0.184200 -0.421900 1 0 1.000000 
pipe_cap001
0 2.121300 -2.000000 2.000000 0.798541 -0.422122 0.429122 0.160800 -0.406400 1 0 1.000000 
0 2.494400 -2.053100 0.850400 0.851086 -0.470692 0.232596 0.167100 -0.449700 1 0 1.000000 
0 2.494400 -1.571400 1.571400 0.851082 -0.345892 0.394991 0.184200 -0.421900 1 0 1.000000 
pipe_cap001
0 2.121300 -2.000000 2.000000 0.798541 -0.422122 0.429122 0.160800 -0.406400 1 0 1.000000 
0 2.121300 -2.613100 1.082400 0.798533 -0.554223 0.234910 0.140700 -0.442000 1 0 1.000000 
0 2.494400 -2.053100 0.850400 0.851086 -0.470692 0.232596 0.167100 -0.449700 1 0 1.000000 
pipe_cap001
0 2.121300 -2.613100 1.082400 0.798533 -0.554223 0.234910 0.140700 -0.442000 1 0 1.000000 
0 2.494400 -2.222300 0.000000 0.851080 -0.523888 0.034699 0.161600 -0.481900 1 0 1.000000 
0 2.494400 -2.053100 0.850400 0.851086 -0.470692 0.232596 0.167100 -0.449700 1 0 1.000000 
pipe_cap001
0 2.121300 -2.613100 1.082400 0.798533 -0.554223 0.234910 0.140700 -0.442000 1 0 1.000000 
0 2.121300 -2.828400 0.000000 0.798536 -0.601927 0.004900 0.134600 -0.482300 1 0 1.000000 
0 2.494400 -2.222300 0.000000 0.851080 -0.523888 0.034699 0.161600 -0.481900 1 0 1.000000 
pipe_cap001
0 2.121300 -2.828400 0.000000 0.798536 -0.601927 0.004900 0.134600 -0.482300 1 0 1.000000 
0 2.494400 -2.053100 -0.850400 0.851084 -0.497291 -0.168397 0.167400 -0.514700 1 0 1.000000 
0 2.494400 -2.222300 0.000000 0.851080 -0.523888 0.034699 0.161600 -0.481900 1 0 1.000000 
pipe_cap001
0 1.666700 0.000000 3.325900 0.663108 0.004600 0.748509 0.250900 -0.347200 1 0 1.000000 
0 2.121300 -1.082400 2.613100 0.798519 -0.225805 0.558013 0.198100 -0.380400 1 0 1.000000 
0 2.121300 0.000000 2.828400 0.798536 0.004900 0.601927 0.251100 -0.370300 1 0 1.000000 
pipe_cap001
0 1.666700 1.272800 3.072700 0.663109 0.290604 0.689809 0.322000 -0.360000 1 0 1.000000 
0 1.666700 0.000000 3.325900 0.663108 0.004600 0.748509 0.250900 -0.347200 1 0 1.000000 
0 2.121300 0.000000 2.828400 0.798536 0.004900 0.601927 0.251100 -0.370300 1 0 1.000000 
pipe_cap001
0 1.666700 1.272800 3.072700 0.663109 0.290604 0.689809 0.322000 -0.360000 1 0 1.000000 
0 2.121300 0.000000 2.828400 0.798536 0.004900 0.601927 0.251100 -0.370300 1 0 1.000000 
0 2.121300 1.082400 2.613100 0.798533 0.234910 0.554223 0.304400 -0.379900 1 0 1.000000 
pipe_cap001
0 1.666700 2.351800 2.351800 0.663122 0.532518 0.526017 0.366500 -0.392400 1 0 1.000000 
0 1.666700 1.272800 3.072700 0.663109 0.290604 0.689809 0.322000 -0.360000 1 0 1.000000 
0 2.121300 1.082400 2.613100 0.798533 0.234910 0.554223 0.304400 -0.379900 1 0 1.000000 
pipe_cap001
0 1.666700 2.351800 2.351800 0.663122 0.532518 0.526017 0.366500 -0.392400 1 0 1.000000 
0 2.121300 1.082400 2.613100 0.798533 0.234910 0.554223 0.304400 -0.379900 1 0 1.000000 
0 2.121300 2.000000 2.000000 0.798541 0.429122 0.422122 0.342100 -0.405700 1 0 1.000000 
pipe_cap001
0 1.666700 3.072700 1.272800 0.663099 0.693299 0.282200 0.387900 -0.434600 1 0 1.000000 
0 1.666700 2.351800 2.351800 0.663122 0.532518 0.526017 0.366500 -0.392400 1 0 1.000000 
0 2.121300 2.000000 2.000000 0.798541 0.429122 0.422122 0.342100 -0.405700 1 0 1.000000 
pipe_cap001
0 1.666700 3.072700 1.272800 0.663099 0.693299 0.282200 0.387900 -0.434600 1 0 1.000000 
0 2.121300 2.000000 2.000000 0.798541 0.429122 0.422122 0.342100 -0.405700 1 0 1.000000 
0 2.121300 2.613100 1.082400 0.798519 0.558013 0.225805 0.362600 -0.441100 1 0 1.000000 
pipe_cap001
0 1.666700 3.325900 0.000000 0.663108 0.748509 -0.004600 0.394200 -0.481500 1 0 1.000000 
0 1.666700 3.072700 1.272800 0.663099 0.693299 0.282200 0.387900 -0.434600 1 0 1.000000 
0 2.121300 2.613100 1.082400 0.798519 0.558013 0.225805 0.362600 -0.441100 1 0 1.000000 
pipe_cap001
0 1.148000 3.695500 0.000000 0.481201 0.876602 -0.003700 0.418000 -0.481500 1 0 1.000000 
0 1.666700 3.072700 1.272800 0.663099 0.693299 0.282200 0.387900 -0.434600 1 0 1.000000 
0 1.666700 3.325900 0.000000 0.663108 0.748509 -0.004600 0.394200 -0.481500 1 0 1.000000 
pipe_cap001
0 1.148000 3.414200 -1.414200 0.481197 0.808495 -0.338798 0.412600 -0.535500 1 0 1.000000 
0 1.148000 3.695500 0.000000 0.481201 0.876602 -0.003700 0.418000 -0.481500 1 0 1.000000 
0 1.666700 3.325900 0.000000 0.663108 0.748509 -0.004600 0.394200 -0.481500 1 0 1.000000 
pipe_cap001
0 0.585300 3.624500 -1.501300 0.254795 0.892581 -0.371992 0.436300 -0.539400 1 0 1.000000 
0 1.148000 3.695500 0.000000 0.481201 0.876602 -0.003700 0.418000 -0.481500 1 0 1.000000 
0 1.148000 3.414200 -1.414200 0.481197 0.808495 -0.338798 0.412600 -0.535500 1 0 1.000000 
pipe_cap001
0 0.585300 3.624500 -1.501300 0.254795 0.892581 -0.371992 0.436300 -0.539400 1 0 1.000000 
0 0.585300 3.923100 0.000000 0.254798 0.966992 -0.002100 0.440700 -0.481200 1 0 1.000000 
0 1.148000 3.695500 0.000000 0.481201 0.876602 -0.003700 0.418000 -0.481500 1 0 1.000000 
pipe_cap001
0 0.585300 3.923100 0.000000 0.254798 0.966992 -0.002100 0.440700 -0.481200 1 0 1.000000 
0 1.148000 3.414200 1.414200 0.481188 0.811279 0.332091 0.412300 -0.429400 1 0 1.000000 
0 1.148000 3.695500 0.000000 0.481201 0.876602 -0.003700 0.418000 -0.481500 1 0 1.000000 
pipe_cap001
0 0.585300 3.923100 0.000000 0.254798 0.966992 -0.002100 0.440700 -0.481200 1 0 1.000000 
0 0.585300 3.624500 1.501300 0.254798 0.894194 0.368097 0.436100 -0.425400 1 0 1.000000 
0 1.148000 3.414200 1.414200 0.481188 0.811279 0.332091 0.412300 -0.429400 1 0 1.000000 
pipe_cap001
0 0.585300 3.624500 1.501300 0.254798 0.894194 0.368097 0.436100 -0.425400 1 0 1.000000 
0 1.148000 2.613100 2.613100 0.481201 0.622402 0.617302 0.391900 -0.381500 1 0 1.000000 
0 1.148000 3.414200 1.414200 0.481188 0.811279 0.332091 0.412300 -0.429400 1 0 1.000000 
pipe_cap001
0 0.585300 3.624500 1.501300 0.254798 0.894194 0.368097 0.436100 -0.425400 1 0 1.000000 
0 0.585300 2.774100 2.774100 0.254806 0.685215 0.682315 0.418900 -0.372900 1 0 1.000000 
0 1.148000 2.613100 2.613100 0.481201 0.622402 0.617302 0.391900 -0.381500 1 0 1.000000 
pipe_cap001
0 0.585300 2.774100 2.774100 0.254806 0.685215 0.682315 0.418900 -0.372900 1 0 1.000000 
0 1.148000 1.414200 3.414200 0.481197 0.338798 0.808495 0.343600 -0.342400 1 0 1.000000 
0 1.148000 2.613100 2.613100 0.481201 0.622402 0.617302 0.391900 -0.381500 1 0 1.000000 
pipe_cap001
0 0.585300 2.774100 2.774100 0.254806 0.685215 0.682315 0.418900 -0.372900 1 0 1.000000 
0 0.585300 1.501300 3.624500 0.254795 0.371992 0.892581 0.371600 -0.327300 1 0 1.000000 
0 1.148000 1.414200 3.414200 0.481197 0.338798 0.808495 0.343600 -0.342400 1 0 1.000000 
pipe_cap001
0 -0.000000 1.530700 -3.695500 0.129906 0.439219 -0.888938 0.410400 -0.667100 1 0 1.000000 
0 -0.000000 2.828400 -2.828400 0.129896 0.745977 -0.653180 0.447900 -0.604900 1 0 1.000000 
0 0.585300 2.774100 -2.774100 0.254806 0.682315 -0.685215 0.419500 -0.598400 1 0 1.000000 
pipe_cap001
0 -0.000000 2.828400 -2.828400 0.129896 0.745977 -0.653180 0.447900 -0.604900 1 0 1.000000 
0 0.585300 3.624500 -1.501300 0.254795 0.892581 -0.371992 0.436300 -0.539400 1 0 1.000000 
0 0.585300 2.774100 -2.774100 0.254806 0.682315 -0.685215 0.419500 -0.598400 1 0 1.000000 
pipe_cap001
0 -0.000000 2.828400 -2.828400 0.129896 0.745977 -0.653180 0.447900 -0.604900 1 0 1.000000 
0 -0.000000 3.695500 -1.530700 0.129906 0.939144 -0.318015 0.459800 -0.541800 1 0 1.000000 
0 0.585300 3.624500 -1.501300 0.254795 0.892581 -0.371992 0.436300 -0.539400 1 0 1.000000 
pipe_cap001
0 -0.000000 3.695500 -1.530700 0.129906 0.939144 -0.318015 0.459800 -0.541800 1 0 1.000000 
0 0.585300 3.923100 0.000000 0.254798 0.966992 -0.002100 0.440700 -0.481200 1 0 1.000000 
0 0.585300 3.624500 -1.501300 0.254795 0.892581 -0.371992 0.436300 -0.539400 1 0 1.000000 
pipe_cap001
0 -0.000000 3.695500 -1.530700 0.129906 0.939144 -0.318015 0.459800 -0.541800 1 0 1.000000 
0 -0.000000 4.000000 0.000000 0.129894 0.989356 0.065597 0.462800 -0.480700 1 0 1.000000 
0 0.585300 3.923100 0.000000 0.254798 0.966992 -0.002100 0.440700 -0.481200 1 0 1.000000 
pipe_cap001
0 -0.000000 4.000000 0.000000 0.129894 0.989356 0.065597 0.462800 -0.480700 1 0 1.000000 
0 0.585300 3.624500 1.501300 0.254798 0.894194 0.368097 0.436100 -0.425400 1 0 1.000000 
0 0.585300 3.923100 0.000000 0.254798 0.966992 -0.002100 0.440700 -0.481200 1 0 1.000000 
pipe_cap001
0 -0.000000 4.000000 0.000000 0.129894 0.989356 0.065597 0.462800 -0.480700 1 0 1.000000 
0 -0.000000 3.695500 1.530700 0.129906 0.888938 0.439219 0.459700 -0.422200 1 0 1.000000 
0 0.585300 3.624500 1.501300 0.254798 0.894194 0.368097 0.436100 -0.425400 1 0 1.000000 
pipe_cap001
0 -0.000000 3.695500 1.530700 0.129906 0.888938 0.439219 0.459700 -0.422200 1 0 1.000000 
0 0.585300 2.774100 2.774100 0.254806 0.685215 0.682315 0.418900 -0.372900 1 0 1.000000 
0 0.585300 3.624500 1.501300 0.254798 0.894194 0.368097 0.436100 -0.425400 1 0 1.000000 
pipe_cap001
0 -0.000000 3.695500 1.530700 0.129906 0.888938 0.439219 0.459700 -0.422200 1 0 1.000000 
0 -0.000000 2.828400 2.828400 0.129896 0.653180 0.745977 0.447500 -0.366500 1 0 1.000000 
0 0.585300 2.774100 2.774100 0.254806 0.685215 0.682315 0.418900 -0.372900 1 0 1.000000 
pipe_cap001
0 -0.000000 2.828400 2.828400 0.129896 0.653180 0.745977 0.447500 -0.366500 1 0 1.000000 
0 0.585300 1.501300 3.624500 0.254795 0.371992 0.892581 0.371600 -0.327300 1 0 1.000000 
0 0.585300 2.774100 2.774100 0.254806 0.685215 0.682315 0.418900 -0.372900 1 0 1.000000 
pipe_cap001
0 -0.000000 2.828400 2.828400 0.129896 0.653180 0.745977 0.447500 -0.366500 1 0 1.000000 
0 -0.000000 1.530700 3.695500 0.129906 0.318015 0.939144 0.408900 -0.315100 1 0 1.000000 
0 0.585300 1.501300 3.624500 0.254795 0.371992 0.892581 0.371600 -0.327300 1 0 1.000000 
pipe_cap001
0 -0.000000 1.530700 3.695500 0.129906 0.318015 0.939144 0.408900 -0.315100 1 0 1.000000 
0 0.585300 0.000000 3.923100 0.254798 0.002100 0.966992 0.249900 -0.305000 1 0 1.000000 
0 0.585300 1.501300 3.624500 0.254795 0.371992 0.892581 0.371600 -0.327300 1 0 1.000000 
pipe_cap001
0 -0.000000 1.530700 3.695500 0.129906 0.318015 0.939144 0.408900 -0.315100 1 0 1.000000 
0 0.000000 0.000000 4.000000 0.129894 -0.065597 0.989356 0.248700 -0.284900 1 0 1.000000 
0 0.585300 0.000000 3.923100 0.254798 0.002100 0.966992 0.249900 -0.305000 1 0 1.000000 
pipe_cap001
0 0.000000 0.000000 4.000000 0.129894 -0.065597 0.989356 0.248700 -0.284900 1 0 1.000000 
0 0.585300 -1.501300 3.624500 0.254798 -0.368097 0.894194 0.130200 -0.328200 1 0 1.000000 
0 0.585300 0.000000 3.923100 0.254798 0.002100 0.966992 0.249900 -0.305000 1 0 1.000000 
pipe_cap001
0 0.000000 0.000000 4.000000 0.129894 -0.065597 0.989356 0.248700 -0.284900 1 0 1.000000 
0 0.000000 -1.530700 3.695500 0.129906 -0.439219 0.888938 0.093100 -0.316200 1 0 1.000000 
0 0.585300 -1.501300 3.624500 0.254798 -0.368097 0.894194 0.130200 -0.328200 1 0 1.000000 
pipe_cap001
0 0.000000 -1.530700 3.695500 0.129906 -0.439219 0.888938 0.093100 -0.316200 1 0 1.000000 
0 0.585300 -2.774100 2.774100 0.254806 -0.682315 0.685215 0.084100 -0.374100 1 0 1.000000 
0 0.585300 -1.501300 3.624500 0.254798 -0.368097 0.894194 0.130200 -0.328200 1 0 1.000000 
pipe_cap001
0 0.000000 -1.530700 3.695500 0.129906 -0.439219 0.888938 0.093100 -0.316200 1 0 1.000000 
0 0.000000 -2.828400 2.828400 0.129896 -0.745977 0.653180 0.055700 -0.367800 1 0 1.000000 
0 0.585300 -2.774100 2.774100 0.254806 -0.682315 0.685215 0.084100 -0.374100 1 0 1.000000 
pipe_cap001
0 0.000000 -2.828400 2.828400 0.129896 -0.745977 0.653180 0.055700 -0.367800 1 0 1.000000 
0 0.585300 -3.624500 1.501300 0.254795 -0.892581 0.371992 0.067300 -0.426600 1 0 1.000000 
0 0.585300 -2.774100 2.774100 0.254806 -0.682315 0.685215 0.084100 -0.374100 1 0 1.000000 
pipe_cap001
0 2.494400 1.571400 -1.571400 0.000000 -0.658809 0.752310 0.403200 -0.625000 1 0 1.000000 
0 2.000000 0.850400 -2.053100 0.000000 -0.443009 0.896517 0.353100 -0.562500 1 0 1.000000 
0 2.494400 0.850400 -2.053100 0.000000 -0.320694 0.947183 0.403200 -0.562500 1 0 1.000000 
pipe_cap001
0 2.494400 1.571400 -1.571400 0.000000 -0.658809 0.752310 0.403200 -0.625000 1 0 1.000000 
0 2.000000 1.571400 -1.571400 0.000000 -0.752310 0.658809 0.353100 -0.625000 1 0 1.000000 
0 2.000000 0.850400 -2.053100 0.000000 -0.443009 0.896517 0.353100 -0.562500 1 0 1.000000 
pipe_cap001
0 2.494400 2.053100 -0.850400 0.000000 -0.896517 0.443009 0.403200 -0.687500 1 0 1.000000 
0 2.000000 1.571400 -1.571400 0.000000 -0.752310 0.658809 0.353100 -0.625000 1 0 1.000000 
0 2.494400 1.571400 -1.571400 0.000000 -0.658809 0.752310 0.403200 -0.625000 1 0 1.000000 
pipe_cap001
0 2.494400 2.053100 -0.850400 0.000000 -0.896517 0.443009 0.403200 -0.687500 1 0 1.000000 
0 2.000000 2.053100 -0.850400 0.000000 -0.947183 0.320694 0.353100 -0.687500 1 0 1.000000 
0 2.000000 1.571400 -1.571400 0.000000 -0.752310 0.658809 0.353100 -0.625000 1 0 1.000000 
pipe_cap001
0 2.494400 2.222300 0.000000 0.000000 -0.997806 0.066200 0.403200 -0.750000 1 0 1.000000 
0 2.000000 2.053100 -0.850400 0.000000 -0.947183 0.320694 0.353100 -0.687500 1 0 1.000000 
0 2.494400 2.053100 -0.850400 0.000000 -0.896517 0.443009 0.403200 -0.687500 1 0 1.000000 
pipe_cap001
0 2.494400 2.222300 0.000000 0.000000 -0.997806 0.066200 0.403200 -0.750000 1 0 1.000000 
0 2.000000 2.222300 0.000000 0.000000 -0.997806 -0.066200 0.353100 -0.750000 1 0 1.000000 
0 2.000000 2.053100 -0.850400 0.000000 -0.947183 0.320694 0.353100 -0.687500 1 0 1.000000 
pipe_cap001
0 2.494400 2.053100 0.850400 0.000000 -0.947183 -0.320694 0.403200 -0.812500 1 0 1.000000 
0 2.000000 2.222300 0.000000 0.000000 -0.997806 -0.066200 0.353100 -0.750000 1 0 1.000000 
0 2.494400 2.222300 0.000000 0.000000 -0.997806 0.066200 0.403200 -0.750000 1 0 1.000000 
pipe_cap001
0 2.494400 2.053100 0.850400 0.000000 -0.947183 -0.320694 0.403200 -0.812500 1 0 1.000000 
0 2.000000 2.053100 0.850400 0.000000 -0.896517 -0.443009 0.353100 -0.812500 1 0 1.000000 
0 2.000000 2.222300 0.000000 0.000000 -0.997806 -0.066200 0.353100 -0.750000 1 0 1.000000 
pipe_cap001
0 2.494400 1.571400 1.571400 0.000000 -0.752310 -0.658809 0.403200 -0.875000 1 0 1.000000 
0 2.000000 2.053100 0.850400 0.000000 -0.896517 -0.443009 0.353100 -0.812500 1 0 1.000000 
0 2.494400 2.053100 0.850400 0.000000 -0.947183 -0.320694 0.403200 -0.812500 1 0 1.000000 
pipe_cap001
0 2.494400 1.571400 1.571400 0.000000 -0.752310 -0.658809 0.403200 -0.875000 1 0 1.000000 
0 2.000000 1.571400 1.571400 0.000000 -0.658809 -0.752310 0.353100 -0.875000 1 0 1.000000 
0 2.000000 2.053100 0.850400 0.000000 -0.896517 -0.443009 0.353100 -0.812500 1 0 1.000000 
pipe_cap001
0 2.494400 0.850400 2.053100 0.000000 -0.443009 -0.896517 0.403200 -0.937500 1 0 1.000000 
0 2.000000 1.571400 1.571400 0.000000 -0.658809 -0.752310 0.353100 -0.875000 1 0 1.000000 
0 2.494400 1.571400 1.571400 0.000000 -0.752310 -0.658809 0.403200 -0.875000 1 0 1.000000 
pipe_cap001
0 2.494400 0.850400 2.053100 0.000000 -0.443009 -0.896517 0.403200 -0.937500 1 0 1.000000 
0 2.000000 0.850400 2.053100 0.000000 -0.320694 -0.947183 0.353100 -0.937500 1 0 1.000000 
0 2.000000 1.571400 1.571400 0.000000 -0.658809 -0.752310 0.353100 -0.875000 1 0 1.000000 
pipe_cap001
0 2.494400 0.000000 2.222300 0.000000 -0.066200 -0.997806 0.403200 -1.000000 1 0 1.000000 
0 2.000000 0.850400 2.053100 0.000000 -0.320694 -0.947183 0.353100 -0.937500 1 0 1.000000 
0 2.494400 0.850400 2.053100 0.000000 -0.443009 -0.896517 0.403200 -0.937500 1 0 1.000000 
pipe_cap001
0 2.494400 0.000000 2.222300 0.000000 -0.066200 -0.997806 0.403200 -1.000000 1 0 1.000000 
0 2.000000 0.000000 2.222300 -0.000000 0.066200 -0.997806 0.353100 -1.000000 1 0 1.000000 
0 2.000000 0.850400 2.053100 0.000000 -0.320694 -0.947183 0.353100 -0.937500 1 0 1.000000 
pipe_cap001
0 2.494400 -0.850400 2.053100 -0.000000 0.320694 -0.947183 0.403200 -0.062500 1 0 1.000000 
0 2.000000 0.000000 2.222300 -0.000000 0.066200 -0.997806 0.353100 -0.000000 1 0 1.000000 
0 2.494400 0.000000 2.222300 0.000000 -0.066200 -0.997806 0.403200 -0.000000 1 0 1.000000 
pipe_cap001
0 2.494400 -0.850400 2.053100 -0.000000 0.320694 -0.947183 0.403200 -0.062500 1 0 1.000000 
0 2.000000 -0.850400 2.053100 -0.000000 0.443009 -0.896517 0.353100 -0.062500 1 0 1.000000 
0 2.000000 0.000000 2.222300 -0.000000 0.066200 -0.997806 0.353100 -0.000000 1 0 1.000000 
pipe_cap001
0 2.494400 -1.571400 1.571400 -0.000000 0.658809 -0.752310 0.403200 -0.125000 1 0 1.000000 
0 2.000000 -0.850400 2.053100 -0.000000 0.443009 -0.896517 0.353100 -0.062500 1 0 1.000000 
0 2.494400 -0.850400 2.053100 -0.000000 0.320694 -0.947183 0.403200 -0.062500 1 0 1.000000 
pipe_cap001
0 2.494400 -1.571400 1.571400 -0.000000 0.658809 -0.752310 0.403200 -0.125000 1 0 1.000000 
0 2.000000 -1.571400 1.571400 -0.000000 0.752310 -0.658809 0.353100 -0.125000 1 0 1.000000 
0 2.000000 -0.850400 2.053100 -0.000000 0.443009 -0.896517 0.353100 -0.062500 1 0 1.000000 
pipe_cap001
0 2.494400 -2.053100 0.850400 -0.000000 0.896517 -0.443009 0.403200 -0.187500 1 0 1.000000 
0 2.000000 -1.571400 1.571400 -0.000000 0.752310 -0.658809 0.353100 -0.125000 1 0 1.000000 
0 2.494400 -1.571400 1.571400 -0.000000 0.658809 -0.752310 0.403200 -0.125000 1 0 1.000000 
pipe_cap001
0 2.494400 -2.053100 0.850400 -0.000000 0.896517 -0.443009 0.403200 -0.187500 1 0 1.000000 
0 2.000000 -2.053100 0.850400 -0.000000 0.947183 -0.320694 0.353100 -0.187500 1 0 1.000000 
0 2.000000 -1.571400 1.571400 -0.000000 0.752310 -0.658809 0.353100 -0.125000 1 0 1.000000 
pipe_cap001
0 2.494400 -2.222300 0.000000 -0.000000 0.997806 -0.066200 0.403200 -0.250000 1 0 1.000000 
0 2.000000 -2.053100 0.850400 -0.000000 0.947183 -0.320694 0.353100 -0.187500 1 0 1.000000 
0 2.494400 -2.053100 0.850400 -0.000000 0.896517 -0.443009 0.403200 -0.187500 1 0 1.000000 
pipe_cap001
0 2.494400 -2.222300 0.000000 -0.000000 0.997806 -0.066200 0.403200 -0.250000 1 0 1.000000 
0 2.000000 -2.222300 0.000000 -0.000000 0.997806 0.066200 0.353100 -0.250000 1 0 1.000000 
0 2.000000 -2.053100 0.850400 -0.000000 0.947183 -0.320694 0.353100 -0.187500 1 0 1.000000 
pipe_cap001
0 2.494400 -2.053100 -0.850400 -0.000000 0.947183 0.320694 0.403200 -0.312500 1 0 1.000000 
0 2.000000 -2.222300 0.000000 -0.000000 0.997806 0.066200 0.353100 -0.250000 1 0 1.000000 
0 2.494400 -2.222300 0.000000 -0.000000 0.997806 -0.066200 0.403200 -0.250000 1 0 1.000000 
pipe_cap001
0 2.494400 -2.053100 -0.850400 -0.000000 0.947183 0.320694 0.403200 -0.312500 1 0 1.000000 
0 2.000000 -2.053100 -0.850400 -0.000000 0.896517 0.443009 0.353100 -0.312500 1 0 1.000000 
0 2.000000 -2.222300 0.000000 -0.000000 0.997806 0.066200 0.353100 -0.250000 1 0 1.000000 
pipe_cap001
0 2.494400 -1.571400 -1.571400 -0.000000 0.752310 0.658809 0.403200 -0.375000 1 0 1.000000 
0 2.000000 -2.053100 -0.850400 -0.000000 0.896517 0.443009 0.353100 -0.312500 1 0 1.000000 
0 2.494400 -2.053100 -0.850400 -0.000000 0.947183 0.320694 0.403200 -0.312500 1 0 1.000000 
pipe_cap001
0 2.494400 -1.571400 -1.571400 -0.000000 0.752310 0.658809 0.403200 -0.375000 1 0 1.000000 
0 2.000000 -1.571400 -1.571400 -0.000000 0.658809 0.752310 0.353100 -0.375000 1 0 1.000000 
0 2.000000 -2.053100 -0.850400 -0.000000 0.896517 0.443009 0.353100 -0.312500 1 0 1.000000 
pipe_cap001
0 2.494400 -0.850400 -2.053100 -0.000000 0.443009 0.896517 0.403200 -0.437500 1 0 1.000000 
0 2.000000 -1.571400 -1.571400 -0.000000 0.658809 0.752310 0.353100 -0.375000 1 0 1.000000 
0 2.494400 -1.571400 -1.571400 -0.000000 0.752310 0.658809 0.403200 -0.375000 1 0 1.000000 
pipe_cap001
0 2.494400 -0.850400 -2.053100 -0.000000 0.443009 0.896517 0.403200 -0.437500 1 0 1.000000 
0 2.000000 -0.850400 -2.053100 -0.000000 0.320694 0.947183 0.353100 -0.437500 1 0 1.000000 
0 2.000000 -1.571400 -1.571400 -0.000000 0.658809 0.752310 0.353100 -0.375000 1 0 1.000000 
pipe_cap001
0 2.494400 0.000000 -2.222300 -0.000000 0.066200 0.997806 0.403200 -0.500000 1 0 1.000000 
0 2.000000 -0.850400 -2.053100 -0.000000 0.320694 0.947183 0.353100 -0.437500 1 0 1.000000 
0 2.494400 -0.850400 -2.053100 -0.000000 0.443009 0.896517 0.403200 -0.437500 1 0 1.000000 
pipe_cap001
0 2.494400 0.000000 -2.222300 -0.000000 0.066200 0.997806 0.403200 -0.500000 1 0 1.000000 
0 2.000000 0.000000 -2.222300 0.000000 -0.066200 0.997806 0.353100 -0.500000 1 0 1.000000 
0 2.000000 -0.850400 -2.053100 -0.000000 0.320694 0.947183 0.353100 -0.437500 1 0 1.000000 
pipe_cap001
0 2.494400 0.850400 -2.053100 0.000000 -0.320694 0.947183 0.403200 -0.562500 1 0 1.000000 
0 2.000000 0.000000 -2.222300 0.000000 -0.066200 0.997806 0.353100 -0.500000 1 0 1.000000 
0 2.494400 0.000000 -2.222300 -0.000000 0.066200 0.997806 0.403200 -0.500000 1 0 1.000000 
pipe_cap001
0 2.494400 0.850400 -2.053100 0.000000 -0.320694 0.947183 0.403200 -0.562500 1 0 1.000000 
0 2.000000 0.850400 -2.053100 0.000000 -0.443009 0.896517 0.353100 -0.562500 1 0 1.000000 
0 2.000000 0.000000 -2.222300 0.000000 -0.066200 0.997806 0.353100 -0.500000 1 0 1.000000 
end
