version 1
nodes
  0 "static_prop" -1
end
skeleton
time 0
0 0.000000 0.000000 0.000000 0.000000 0.000000 0.000000
end
triangles
ROOF_COMP01
0 -7.883101 7.947199 128.096603 -0.999742 -0.000000 0.022701 0.356800 -5.562100 1 0 1.000000 
0 -7.883100 -8.052700 128.096603 -0.999742 -0.000000 0.022701 0.294300 -5.563300 1 0 1.000000 
0 0.116900 -0.052800 480.096985 -0.999742 -0.000000 0.022701 0.298700 -4.192700 1 0 1.000000 
ROOF_COMP01
0 -10.983400 6.345799 128.096603 -0.424506 0.297904 0.855013 0.106500 -4.812500 1 0 1.000000 
0 -45.969402 79.865997 80.096603 -0.297996 0.424494 0.854987 0.000000 -5.000000 1 0 1.000000 
0 -79.800797 46.033695 80.096603 -0.470783 0.217692 0.854970 0.186900 -5.000000 1 0 1.000000 
ROOF_COMP01
0 -6.281600 11.048700 128.096603 -0.217692 0.470783 0.854970 0.080500 -4.812500 1 0 1.000000 
0 -45.969402 79.865997 80.096603 -0.297996 0.424494 0.854987 0.000000 -5.000000 1 0 1.000000 
0 -10.983400 6.345799 128.096603 -0.424506 0.297904 0.855013 0.106500 -4.812500 1 0 1.000000 
ROOF_COMP01
0 0.121199 12.749000 128.096603 0.045998 0.516977 0.854762 0.106800 -4.812500 1 0 1.000000 
0 46.237995 79.831100 80.096603 0.136494 0.512677 0.847662 0.000000 -5.000000 1 0 1.000000 
0 0.121096 92.109001 80.096603 -0.045699 0.516984 0.854774 0.186400 -5.000000 1 0 1.000000 
ROOF_COMP01
0 6.527200 11.042000 128.096603 0.136599 0.512596 0.847694 0.080900 -4.812500 1 0 1.000000 
0 46.237995 79.831100 80.096603 0.136494 0.512677 0.847662 0.000000 -5.000000 1 0 1.000000 
0 0.121199 12.749000 128.096603 0.045998 0.516977 0.854762 0.106800 -4.812500 1 0 1.000000 
ROOF_COMP01
0 0.121199 12.749000 128.096603 0.045998 0.516977 0.854762 0.079600 -4.812500 1 0 1.000000 
0 0.121096 92.109001 80.096603 -0.045699 0.516984 0.854774 0.000000 -5.000000 1 0 1.000000 
0 -6.281600 11.048700 128.096603 -0.217692 0.470783 0.854970 0.105500 -4.812500 1 0 1.000000 
ROOF_COMP01
0 -6.281600 11.048700 128.096603 -0.217692 0.470783 0.854970 0.105500 -4.812500 1 0 1.000000 
0 0.121096 92.109001 80.096603 -0.045699 0.516984 0.854774 0.000000 -5.000000 1 0 1.000000 
0 -45.969402 79.865997 80.096603 -0.297996 0.424494 0.854987 0.186400 -5.000000 1 0 1.000000 
ROOF_COMP01
0 11.209500 6.361701 128.096603 0.470597 0.217999 0.854994 0.080200 -4.812500 1 0 1.000000 
0 80.002701 46.142704 80.096603 0.424092 0.298294 0.855083 0.000000 -5.000000 1 0 1.000000 
0 6.515699 11.038900 128.096603 0.374397 0.375597 0.847793 0.106000 -4.812500 1 0 1.000000 
ROOF_COMP01
0 6.515699 11.038900 128.096603 0.374397 0.375597 0.847793 0.106000 -4.812500 1 0 1.000000 
0 80.002701 46.142704 80.096603 0.424092 0.298294 0.855083 0.000000 -5.000000 1 0 1.000000 
0 46.226696 79.828003 80.096603 0.374425 0.375425 0.847857 0.186300 -5.000000 1 0 1.000000 
ROOF_COMP01
0 12.917000 -0.054699 128.096603 0.516984 -0.045699 0.854774 0.079600 -4.812500 1 0 1.000000 
0 92.275299 -0.060796 80.096603 0.516980 0.045898 0.854766 0.000000 -5.000000 1 0 1.000000 
0 11.209500 6.361701 128.096603 0.470597 0.217999 0.854994 0.105600 -4.812500 1 0 1.000000 
ROOF_COMP01
0 11.209500 6.361701 128.096603 0.470597 0.217999 0.854994 0.105600 -4.812500 1 0 1.000000 
0 92.275299 -0.060796 80.096603 0.516980 0.045898 0.854766 0.000000 -5.000000 1 0 1.000000 
0 80.002701 46.142704 80.096603 0.424092 0.298294 0.855083 0.186800 -5.000000 1 0 1.000000 
ROOF_COMP01
0 11.217400 -6.453899 128.096603 0.424494 -0.297996 0.854987 0.080800 -4.812500 1 0 1.000000 
0 80.041199 -46.125797 80.096603 0.470783 -0.217692 0.854970 -0.000000 -5.000000 1 0 1.000000 
0 12.917000 -0.054699 128.096603 0.516984 -0.045699 0.854774 0.106600 -4.812500 1 0 1.000000 
ROOF_COMP01
0 12.917000 -0.054699 128.096603 0.516984 -0.045699 0.854774 0.106600 -4.812500 1 0 1.000000 
0 80.041199 -46.125797 80.096603 0.470783 -0.217692 0.854970 -0.000000 -5.000000 1 0 1.000000 
0 92.275299 -0.060796 80.096603 0.516980 0.045898 0.854766 0.186200 -5.000000 1 0 1.000000 
ROOF_COMP01
0 6.514300 -11.154300 128.096603 0.217597 -0.470793 0.854988 0.080500 -4.812500 1 0 1.000000 
0 46.174805 -79.979401 80.096603 0.297892 -0.424588 0.854977 -0.000000 -5.000000 1 0 1.000000 
0 11.217400 -6.453899 128.096603 0.424494 -0.297996 0.854987 0.106500 -4.812500 1 0 1.000000 
ROOF_COMP01
0 11.217400 -6.453899 128.096603 0.424494 -0.297996 0.854987 0.106500 -4.812500 1 0 1.000000 
0 46.174805 -79.979401 80.096603 0.297892 -0.424588 0.854977 -0.000000 -5.000000 1 0 1.000000 
0 80.041199 -46.125797 80.096603 0.470783 -0.217692 0.854970 0.187100 -5.000000 1 0 1.000000 
ROOF_COMP01
0 0.117601 -12.853700 128.096603 -0.045798 -0.516982 0.854770 0.079500 -4.812500 1 0 1.000000 
0 0.131104 -92.216400 80.096603 0.045798 -0.516982 0.854770 0.000000 -5.000000 1 0 1.000000 
0 6.514300 -11.154300 128.096603 0.217597 -0.470793 0.854988 0.105400 -4.812500 1 0 1.000000 
ROOF_COMP01
0 6.514300 -11.154300 128.096603 0.217597 -0.470793 0.854988 0.105400 -4.812500 1 0 1.000000 
0 0.131104 -92.216400 80.096603 0.045798 -0.516982 0.854770 0.000000 -5.000000 1 0 1.000000 
0 46.174805 -79.979401 80.096603 0.297892 -0.424588 0.854977 0.186100 -5.000000 1 0 1.000000 
ROOF_COMP01
0 -6.283299 -11.153600 128.096603 -0.297996 -0.424494 0.854987 -0.919200 -4.812500 1 0 1.000000 
0 -45.963295 -79.972603 80.096603 -0.217692 -0.470783 0.854970 -1.000000 -5.000000 1 0 1.000000 
0 0.117601 -12.853700 128.096603 -0.045798 -0.516982 0.854770 -0.893300 -4.812500 1 0 1.000000 
ROOF_COMP01
0 0.117601 -12.853700 128.096603 -0.045798 -0.516982 0.854770 -0.893300 -4.812500 1 0 1.000000 
0 -45.963295 -79.972603 80.096603 -0.217692 -0.470783 0.854970 -1.000000 -5.000000 1 0 1.000000 
0 0.131104 -92.216400 80.096603 0.045798 -0.516982 0.854770 -0.813700 -5.000000 1 0 1.000000 
ROOF_COMP01
0 -10.983800 -6.449800 128.096603 -0.470823 -0.217711 0.854943 0.080600 -4.812500 1 0 1.000000 
0 -79.809097 -46.111202 80.096603 -0.424588 -0.297892 0.854977 0.000000 -5.000000 1 0 1.000000 
0 -6.283299 -11.153600 128.096603 -0.297996 -0.424494 0.854987 0.106500 -4.812500 1 0 1.000000 
ROOF_COMP01
0 -6.283299 -11.153600 128.096603 -0.297996 -0.424494 0.854987 0.106500 -4.812500 1 0 1.000000 
0 -79.809097 -46.111202 80.096603 -0.424588 -0.297892 0.854977 0.000000 -5.000000 1 0 1.000000 
0 -45.963295 -79.972603 80.096603 -0.217692 -0.470783 0.854970 0.187000 -5.000000 1 0 1.000000 
ROOF_COMP01
0 -12.683900 -0.055801 128.096603 -0.516984 0.045699 0.854774 0.079600 -4.812500 1 0 1.000000 
0 -92.044800 -0.059404 80.096603 -0.516982 -0.045798 0.854770 0.000000 -5.000000 1 0 1.000000 
0 -10.983800 -6.449800 128.096603 -0.470823 -0.217711 0.854943 0.105400 -4.812500 1 0 1.000000 
ROOF_COMP01
0 -10.983800 -6.449800 128.096603 -0.470823 -0.217711 0.854943 0.105400 -4.812500 1 0 1.000000 
0 -92.044800 -0.059404 80.096603 -0.516982 -0.045798 0.854770 0.000000 -5.000000 1 0 1.000000 
0 -79.809097 -46.111202 80.096603 -0.424588 -0.297892 0.854977 0.186100 -5.000000 1 0 1.000000 
ROOF_COMP01
0 -79.800797 46.033695 80.096603 -0.663986 0.465990 0.584787 0.029400 -4.809400 1 0 1.000000 
0 -104.883102 60.494396 40.096600 -0.736300 0.340400 0.584800 0.000000 -5.000000 1 0 1.000000 
0 -92.072098 -0.160904 80.096603 -0.792158 0.210489 0.572870 0.216200 -4.809400 1 0 1.000000 
ROOF_COMP01
0 -92.072098 -0.160904 80.096603 -0.792158 0.210489 0.572870 0.216200 -4.809400 1 0 1.000000 
0 -104.883102 60.494396 40.096600 -0.736300 0.340400 0.584800 0.000000 -5.000000 1 0 1.000000 
0 -121.003700 -0.166905 40.096600 -0.792121 0.210506 0.572915 0.245200 -5.000000 1 0 1.000000 
ROOF_COMP01
0 -104.883102 60.494396 40.096600 -0.736300 0.340400 0.584800 0.245600 -5.000000 1 0 1.000000 
0 -79.800797 46.033695 80.096603 -0.663986 0.465990 0.584787 0.216200 -4.809400 1 0 1.000000 
0 -60.423805 104.947304 40.096600 -0.465990 0.663986 0.584787 -0.000000 -5.000000 1 0 1.000000 
ROOF_COMP01
0 -60.423805 104.947304 40.096600 -0.465990 0.663986 0.584787 -0.000000 -5.000000 1 0 1.000000 
0 -79.800797 46.033695 80.096603 -0.663986 0.465990 0.584787 0.216200 -4.809400 1 0 1.000000 
0 -45.969402 79.865997 80.096603 -0.340400 0.736300 0.584800 0.029300 -4.809400 1 0 1.000000 
ROOF_COMP01
0 -60.423805 104.947304 40.096600 -0.465990 0.663986 0.584787 0.244700 -5.000000 1 0 1.000000 
0 -45.969402 79.865997 80.096603 -0.340400 0.736300 0.584800 0.215300 -4.809400 1 0 1.000000 
0 0.062695 121.020599 40.096600 -0.210501 0.792203 0.572802 0.000200 -5.000000 1 0 1.000000 
ROOF_COMP01
0 0.062695 121.020599 40.096600 -0.210501 0.792203 0.572802 0.000200 -5.000000 1 0 1.000000 
0 -45.969402 79.865997 80.096603 -0.340400 0.736300 0.584800 0.215300 -4.809400 1 0 1.000000 
0 0.059696 92.091797 80.096603 -0.210393 0.792175 0.572882 0.029200 -4.809400 1 0 1.000000 
ROOF_COMP01
0 0.097795 121.040901 40.096600 0.210393 0.792175 0.572882 0.244800 -5.000000 1 0 1.000000 
0 0.094996 92.112198 80.096603 0.210393 0.792175 0.572882 0.215800 -4.809400 1 0 1.000000 
0 60.623695 104.964600 40.096600 0.210393 0.792175 0.572882 0.000200 -5.000000 1 0 1.000000 
ROOF_COMP01
0 60.623695 104.964600 40.096600 0.210393 0.792175 0.572882 0.000200 -5.000000 1 0 1.000000 
0 0.094996 92.112198 80.096603 0.210393 0.792175 0.572882 0.215800 -4.809400 1 0 1.000000 
0 46.155197 79.878197 80.096603 0.210393 0.792175 0.572882 0.029600 -4.809400 1 0 1.000000 
ROOF_COMP01
0 80.000504 46.058002 80.096603 0.579509 0.579509 0.573009 0.029500 -3.809300 1 0 1.000000 
0 105.090698 60.522804 40.096600 0.579509 0.579509 0.573009 0.000100 -4.000000 1 0 1.000000 
0 46.174496 79.883202 80.096603 0.579509 0.579509 0.573009 0.216300 -3.809300 1 0 1.000000 
ROOF_COMP01
0 46.174496 79.883202 80.096603 0.579509 0.579509 0.573009 0.216300 -3.809300 1 0 1.000000 
0 105.090698 60.522804 40.096600 0.579509 0.579509 0.573009 0.000100 -4.000000 1 0 1.000000 
0 60.642998 104.969498 40.096600 0.579509 0.579509 0.573009 0.245700 -4.000000 1 0 1.000000 
ROOF_COMP01
0 92.263199 0.011304 80.096603 0.792075 0.210494 0.572982 0.029200 -3.809400 1 0 1.000000 
0 121.194901 0.019105 40.096600 0.792075 0.210494 0.572982 0.000200 -4.000000 1 0 1.000000 
0 80.027199 46.058403 80.096603 0.792075 0.210494 0.572982 0.215300 -3.809400 1 0 1.000000 
ROOF_COMP01
0 80.027199 46.058403 80.096603 0.792075 0.210494 0.572982 0.215300 -3.809400 1 0 1.000000 
0 121.194901 0.019105 40.096600 0.792075 0.210494 0.572982 0.000200 -4.000000 1 0 1.000000 
0 105.117203 60.523205 40.096600 0.792075 0.210494 0.572982 0.244800 -4.000000 1 0 1.000000 
ROOF_COMP01
0 80.031700 -46.131798 80.096603 0.663883 -0.465888 0.584985 0.029500 -3.809400 1 0 1.000000 
0 105.117798 -60.607098 40.096600 0.736211 -0.340405 0.584909 -0.000000 -4.000000 1 0 1.000000 
0 92.288803 0.004304 80.096603 0.792138 -0.210410 0.572927 0.215900 -3.809400 1 0 1.000000 
ROOF_COMP01
0 92.288803 0.004304 80.096603 0.792138 -0.210410 0.572927 0.215900 -3.809400 1 0 1.000000 
0 105.117798 -60.607098 40.096600 0.736211 -0.340405 0.584909 -0.000000 -4.000000 1 0 1.000000 
0 121.220497 0.012305 40.096600 0.792138 -0.210410 0.572927 0.245000 -4.000000 1 0 1.000000 
ROOF_COMP01
0 46.240402 -79.929298 80.096603 0.579509 -0.579409 0.573109 0.029500 -3.809300 1 0 1.000000 
0 60.718002 -105.014900 40.096600 0.579509 -0.579409 0.573109 0.000200 -4.000000 1 0 1.000000 
0 80.031700 -46.131798 80.096603 0.663883 -0.465888 0.584985 0.216200 -3.809300 1 0 1.000000 
ROOF_COMP01
0 80.031700 -46.131798 80.096603 0.663883 -0.465888 0.584985 0.216200 -3.809300 1 0 1.000000 
0 60.718002 -105.014900 40.096600 0.579509 -0.579409 0.573109 0.000200 -4.000000 1 0 1.000000 
0 105.117798 -60.607098 40.096600 0.736211 -0.340405 0.584909 0.245500 -4.000000 1 0 1.000000 
ROOF_COMP01
0 0.143904 -92.205399 80.096603 0.210410 -0.792138 0.572927 -0.970900 -4.809400 1 0 1.000000 
0 0.145505 -121.135902 40.096600 0.210410 -0.792138 0.572927 -0.999900 -5.000000 1 0 1.000000 
0 46.266003 -79.954201 80.096603 0.210410 -0.792138 0.572927 -0.784500 -4.809400 1 0 1.000000 
ROOF_COMP01
0 46.266003 -79.954201 80.096603 0.210410 -0.792138 0.572927 -0.784500 -4.809400 1 0 1.000000 
0 0.145505 -121.135902 40.096600 0.210410 -0.792138 0.572927 -0.999900 -5.000000 1 0 1.000000 
0 60.743404 -105.039597 40.096600 0.210410 -0.792138 0.572927 -0.755000 -5.000000 1 0 1.000000 
ROOF_COMP01
0 -45.975697 -79.969398 80.096603 -0.210393 -0.792175 0.572882 -0.970500 -4.809400 1 0 1.000000 
0 -60.450497 -105.052696 40.096600 -0.210410 -0.792138 0.572927 -1.000000 -5.000000 1 0 1.000000 
0 0.154104 -92.222702 80.096603 -0.210410 -0.792138 0.572927 -0.784100 -4.809400 1 0 1.000000 
ROOF_COMP01
0 0.154104 -92.222702 80.096603 -0.210410 -0.792138 0.572927 -0.784100 -4.809400 1 0 1.000000 
0 -60.450497 -105.052696 40.096600 -0.210410 -0.792138 0.572927 -1.000000 -5.000000 1 0 1.000000 
0 0.152505 -121.152199 40.096600 -0.210410 -0.792138 0.572927 -0.755100 -5.000000 1 0 1.000000 
ROOF_COMP01
0 -79.802299 -46.134705 80.096603 -0.736300 -0.340400 0.584800 0.029400 -4.809300 1 0 1.000000 
0 -104.883102 -60.605804 40.096600 -0.811534 -0.394617 0.430918 0.000100 -5.000000 1 0 1.000000 
0 -45.979595 -79.956497 80.096603 -0.579509 -0.579509 0.573009 0.216200 -4.809300 1 0 1.000000 
ROOF_COMP01
0 -45.979595 -79.956497 80.096603 -0.579509 -0.579509 0.573009 0.216200 -4.809300 1 0 1.000000 
0 -104.883102 -60.605804 40.096600 -0.811534 -0.394617 0.430918 0.000100 -5.000000 1 0 1.000000 
0 -60.454296 -105.041702 40.096600 -0.579509 -0.579409 0.573109 0.245500 -5.000000 1 0 1.000000 
ROOF_COMP01
0 -92.043098 -0.052904 80.096603 -0.792138 -0.210410 0.572927 0.029000 -4.809400 1 0 1.000000 
0 -120.973999 -0.056105 40.096600 -0.864740 -0.229784 0.446569 0.000000 -5.000000 1 0 1.000000 
0 -79.802299 -46.134705 80.096603 -0.736300 -0.340400 0.584800 0.215300 -4.809400 1 0 1.000000 
ROOF_COMP01
0 -79.802299 -46.134705 80.096603 -0.736300 -0.340400 0.584800 0.215300 -4.809400 1 0 1.000000 
0 -120.973999 -0.056105 40.096600 -0.864740 -0.229784 0.446569 0.000000 -5.000000 1 0 1.000000 
0 -104.883102 -60.605804 40.096600 -0.811534 -0.394617 0.430918 0.244800 -5.000000 1 0 1.000000 
ROOF_COMP01
0 -63.883102 110.947197 0.096600 -0.566117 0.806625 0.169905 0.258700 -6.000000 1 0 1.000000 
0 -60.423805 104.947304 40.096600 -0.413504 0.894509 0.169902 0.251600 -5.841600 1 0 1.000000 
0 0.271394 127.988197 0.096600 -0.253287 0.953252 0.164792 -0.000600 -6.000000 1 0 1.000000 
ROOF_COMP01
0 0.271394 127.988197 0.096600 -0.253287 0.953252 0.164792 -0.000600 -6.000000 1 0 1.000000 
0 -60.423805 104.947304 40.096600 -0.413504 0.894509 0.169902 0.251600 -5.841600 1 0 1.000000 
0 0.274095 121.076897 40.096600 -0.253291 0.953268 0.164694 0.006300 -5.841600 1 0 1.000000 
ROOF_COMP01
0 0.173894 127.932098 0.096600 0.253198 0.953292 0.164699 0.258400 -6.000000 1 0 1.000000 
0 0.175995 121.020401 40.096600 0.253287 0.953252 0.164792 0.251500 -5.841600 1 0 1.000000 
0 64.116989 110.947197 0.096600 0.253287 0.953252 0.164792 0.000000 -6.000000 1 0 1.000000 
ROOF_COMP01
0 64.116989 110.947197 0.096600 0.253287 0.953252 0.164792 0.000000 -6.000000 1 0 1.000000 
0 0.175995 121.020401 40.096600 0.253287 0.953252 0.164792 0.251500 -5.841600 1 0 1.000000 
0 60.657898 104.947304 40.096600 0.253307 0.953227 0.164905 0.007000 -5.841600 1 0 1.000000 
ROOF_COMP01
0 64.206993 110.857399 0.096600 0.697489 0.697389 0.164797 0.259100 -6.000000 1 0 1.000000 
0 60.748898 104.864502 40.096600 0.697489 0.697389 0.164797 0.252100 -5.841600 1 0 1.000000 
0 111.121498 63.940205 0.096600 0.697489 0.697389 0.164797 -0.000000 -6.000000 1 0 1.000000 
ROOF_COMP01
0 111.121498 63.940205 0.096600 0.697489 0.697389 0.164797 -0.000000 -6.000000 1 0 1.000000 
0 60.748898 104.864502 40.096600 0.697489 0.697389 0.164797 0.252100 -5.841600 1 0 1.000000 
0 105.134201 60.479202 40.096600 0.697449 0.697449 0.164712 0.006900 -5.841600 1 0 1.000000 
ROOF_COMP01
0 111.121498 63.940205 0.096600 0.953292 0.253198 0.164699 0.258600 -6.000000 1 0 1.000000 
0 105.127502 60.483902 40.096600 0.953292 0.253198 0.164699 0.251500 -5.841600 1 0 1.000000 
0 128.157501 -0.193394 0.096600 0.953292 0.253198 0.164699 -0.000600 -6.000000 1 0 1.000000 
ROOF_COMP01
0 128.157501 -0.193394 0.096600 0.953292 0.253198 0.164699 -0.000600 -6.000000 1 0 1.000000 
0 105.127502 60.483902 40.096600 0.953292 0.253198 0.164699 0.251500 -5.841600 1 0 1.000000 
0 121.248001 -0.193395 40.096600 0.953268 0.253291 0.164694 0.006300 -5.841600 1 0 1.000000 
ROOF_COMP01
0 105.083603 -60.755997 40.096600 0.953316 -0.253104 0.164703 0.006400 -5.841600 1 0 1.000000 
0 111.075500 -64.213394 0.096600 0.953316 -0.253104 0.164703 -0.000700 -6.000000 1 0 1.000000 
0 121.220497 0.012305 40.096600 0.953316 -0.253104 0.164703 0.252000 -5.841600 1 0 1.000000 
ROOF_COMP01
0 121.220497 0.012305 40.096600 0.953316 -0.253104 0.164703 0.252000 -5.841600 1 0 1.000000 
0 111.075500 -64.213394 0.096600 0.953316 -0.253104 0.164703 -0.000700 -6.000000 1 0 1.000000 
0 128.130203 0.011306 0.096600 0.953316 -0.253104 0.164703 0.258900 -6.000000 1 0 1.000000 
ROOF_COMP01
0 60.649803 -105.069901 40.096600 0.697437 -0.697437 0.164809 0.006900 -5.841600 1 0 1.000000 
0 64.116905 -111.052696 0.096600 0.697437 -0.697437 0.164809 0.000000 -6.000000 1 0 1.000000 
0 105.104202 -60.615498 40.096600 0.697437 -0.697437 0.164809 0.252500 -5.841600 1 0 1.000000 
ROOF_COMP01
0 105.104202 -60.615498 40.096600 0.697437 -0.697437 0.164809 0.252500 -5.841600 1 0 1.000000 
0 64.116905 -111.052696 0.096600 0.697437 -0.697437 0.164809 0.000000 -6.000000 1 0 1.000000 
0 111.096001 -64.073792 0.096600 0.697437 -0.697437 0.164809 0.259500 -6.000000 1 0 1.000000 
ROOF_COMP01
0 0.016905 -121.169403 40.096600 0.253198 -0.953292 0.164699 -0.993500 -5.841600 1 0 1.000000 
0 0.015606 -128.078705 0.096600 0.253198 -0.953292 0.164699 -1.000400 -6.000000 1 0 1.000000 
0 60.770203 -105.032700 40.096600 0.253198 -0.953292 0.164699 -0.747900 -5.841600 1 0 1.000000 
ROOF_COMP01
0 60.770203 -105.032700 40.096600 0.253198 -0.953292 0.164699 -0.747900 -5.841600 1 0 1.000000 
0 0.015606 -128.078705 0.096600 0.253198 -0.953292 0.164699 -1.000400 -6.000000 1 0 1.000000 
0 64.229607 -111.022903 0.096600 0.253198 -0.953292 0.164699 -0.740900 -6.000000 1 0 1.000000 
ROOF_COMP01
0 -60.329697 -105.090202 40.096600 -0.253198 -0.953292 0.164699 -0.992600 -5.841600 1 0 1.000000 
0 -63.775097 -111.085297 0.096600 -0.253108 -0.953332 0.164605 -0.999600 -6.000000 1 0 1.000000 
0 0.152505 -121.152199 40.096600 -0.253108 -0.953332 0.164605 -0.748100 -5.841600 1 0 1.000000 
ROOF_COMP01
0 0.152505 -121.152199 40.096600 -0.253108 -0.953332 0.164605 -0.748100 -5.841600 1 0 1.000000 
0 -63.775097 -111.085297 0.096600 -0.253108 -0.953332 0.164605 -0.999600 -6.000000 1 0 1.000000 
0 0.147306 -128.052704 0.096600 -0.253088 -0.953356 0.164492 -0.741200 -6.000000 1 0 1.000000 
ROOF_COMP01
0 -104.931099 -60.564804 40.096600 -0.697412 -0.697512 0.164603 0.006800 -5.841600 1 0 1.000000 
0 -110.920898 -64.015007 0.096600 -0.697412 -0.697512 0.164603 -0.000200 -6.000000 1 0 1.000000 
0 -60.435596 -105.052696 40.096600 -0.697412 -0.697512 0.164603 0.252600 -5.841600 1 0 1.000000 
ROOF_COMP01
0 -60.435596 -105.052696 40.096600 -0.697412 -0.697512 0.164603 0.252600 -5.841600 1 0 1.000000 
0 -110.920898 -64.015007 0.096600 -0.697412 -0.697512 0.164603 -0.000200 -6.000000 1 0 1.000000 
0 -63.877895 -111.052696 0.096600 -0.697412 -0.697512 0.164603 0.259700 -6.000000 1 0 1.000000 
ROOF_COMP01
0 -120.973999 -0.056105 40.096600 -0.864740 -0.229784 0.446569 0.006900 -5.841600 1 0 1.000000 
0 -127.881104 -0.052706 0.096600 -0.953268 -0.253291 0.164694 0.000000 -6.000000 1 0 1.000000 
0 -104.883102 -60.605804 40.096600 -0.811534 -0.394617 0.430918 0.251700 -5.841600 1 0 1.000000 
ROOF_COMP01
0 -104.883102 -60.605804 40.096600 -0.811534 -0.394617 0.430918 0.251700 -5.841600 1 0 1.000000 
0 -127.881104 -0.052706 0.096600 -0.953268 -0.253291 0.164694 0.000000 -6.000000 1 0 1.000000 
0 -110.882599 -64.052704 0.096600 -0.953276 -0.253194 0.164796 0.258700 -6.000000 1 0 1.000000 
ROOF_COMP01
0 -10.983400 6.345799 128.096603 -0.424506 0.297904 0.855013 0.080800 -4.812500 1 0 1.000000 
0 -79.800797 46.033695 80.096603 -0.470783 0.217692 0.854970 -0.000000 -5.000000 1 0 1.000000 
0 -12.683900 -0.055801 128.096603 -0.516984 0.045699 0.854774 0.106700 -4.812500 1 0 1.000000 
ROOF_COMP01
0 -12.683900 -0.055801 128.096603 -0.516984 0.045699 0.854774 0.106700 -4.812500 1 0 1.000000 
0 -79.800797 46.033695 80.096603 -0.470783 0.217692 0.854970 -0.000000 -5.000000 1 0 1.000000 
0 -92.044800 -0.059404 80.096603 -0.516982 -0.045798 0.854770 0.186300 -5.000000 1 0 1.000000 
ROOF_COMP01
0 -7.883101 7.947199 128.096603 -0.000000 0.999742 0.022701 0.418300 -5.563700 1 0 1.000000 
0 0.116900 -0.052800 480.096985 -0.000000 0.999742 0.022701 0.297900 -4.192700 1 0 1.000000 
0 8.116900 7.947200 128.096603 -0.000000 0.999742 0.022701 0.356000 -5.567800 1 0 1.000000 
ROOF_COMP01
0 -110.883102 63.944195 0.096600 -0.894540 0.413518 0.169708 0.259600 -6.000000 1 0 1.000000 
0 -104.895599 60.482697 40.096600 -0.806638 0.566127 0.169808 0.252700 -5.841600 1 0 1.000000 
0 -63.883102 110.947197 0.096600 -0.566117 0.806625 0.169905 0.000000 -6.000000 1 0 1.000000 
ROOF_COMP01
0 -63.883102 110.947197 0.096600 -0.566117 0.806625 0.169905 0.000000 -6.000000 1 0 1.000000 
0 -104.895599 60.482697 40.096600 -0.806638 0.566127 0.169808 0.252700 -5.841600 1 0 1.000000 
0 -60.423805 104.947304 40.096600 -0.413504 0.894509 0.169902 0.007000 -5.841600 1 0 1.000000 
ROOF_COMP01
0 -104.895599 60.482697 40.096600 -0.806638 0.566127 0.169808 0.007100 -5.841600 1 0 1.000000 
0 -110.883102 63.944195 0.096600 -0.894540 0.413518 0.169708 0.000000 -6.000000 1 0 1.000000 
0 -120.965401 -0.024005 40.096600 -0.953307 0.253202 0.164601 0.251600 -5.841600 1 0 1.000000 
ROOF_COMP01
0 -120.965401 -0.024005 40.096600 -0.953307 0.253202 0.164601 0.251600 -5.841600 1 0 1.000000 
0 -110.883102 63.944195 0.096600 -0.894540 0.413518 0.169708 0.000000 -6.000000 1 0 1.000000 
0 -127.873596 -0.017006 0.096600 -0.953292 0.253198 0.164699 0.258500 -6.000000 1 0 1.000000 
ROOF_COMP01
0 -7.883100 -8.052700 128.096603 0.000000 -0.999742 0.022701 -0.769100 -5.568100 1 0 1.000000 
0 8.116900 -8.052700 128.096603 0.000000 -0.999742 0.022701 -0.706600 -5.569700 1 0 1.000000 
0 0.116900 -0.052800 480.096985 0.000000 -0.999742 0.022701 -0.702200 -4.193200 1 0 1.000000 
ROOF_COMP01
0 8.116900 -8.052700 128.096603 0.999742 0.000000 0.022701 0.293500 -5.569000 1 0 1.000000 
0 8.116900 7.947200 128.096603 0.999742 0.000000 0.022701 0.356000 -5.567800 1 0 1.000000 
0 0.116900 -0.052800 480.096985 0.999742 0.000000 0.022701 0.297900 -4.192700 1 0 1.000000 
end
