version 1
nodes
  0 "static_prop" -1
end
skeleton
time 0
0 0.000000 0.000000 0.000000 0.000000 0.000000 0.000000
end
triangles
Handrail003
0 0.500003 -32.000000 39.000000 0.923880 0.000000 -0.382683 0.866236 -1.000000 1 0 1.000000 
0 0.353555 0.000000 38.646446 0.923880 0.000000 -0.382683 0.874913 -0.000000 1 0 1.000000 
0 0.500002 0.000000 39.000000 0.923880 0.000000 -0.382683 0.866236 -0.000000 1 0 1.000000 
Handrail003
0 0.500003 -32.000000 39.000000 0.923880 0.000000 -0.382683 0.866236 -1.000000 1 0 1.000000 
0 0.353556 -32.000000 38.646446 0.923880 0.000000 -0.382683 0.874913 -1.000000 1 0 1.000000 
0 0.353555 0.000000 38.646446 0.923880 0.000000 -0.382683 0.874913 -0.000000 1 0 1.000000 
Handrail003
0 0.000001 -4.000000 25.500000 0.378875 -0.140721 0.914686 0.029607 -0.987436 1 0 1.000000 
0 0.353554 -4.000000 25.353554 0.378875 -0.140721 0.914686 0.042127 -0.987436 1 0 1.000000 
0 0.707108 -0.750000 25.707108 0.381730 -0.070536 0.921578 0.042127 -0.914167 1 0 1.000000 
Handrail003
0 0.000001 -4.000000 25.500000 0.378875 -0.140721 0.914686 0.029607 -0.987436 1 0 1.000000 
0 0.707108 -0.750000 25.707108 0.381730 -0.070536 0.921578 0.042127 -0.914167 1 0 1.000000 
0 0.000001 -0.750000 26.000000 0.381730 -0.070536 0.921578 0.029607 -0.914167 1 0 1.000000 
Handrail003
0 0.707108 0.750000 25.707108 0.381730 0.070536 0.921578 0.042127 -0.880350 1 0 1.000000 
0 0.000001 -0.750000 26.000000 0.381730 -0.070536 0.921578 0.029607 -0.914167 1 0 1.000000 
0 0.707108 -0.750000 25.707108 0.381730 -0.070536 0.921578 0.042127 -0.914167 1 0 1.000000 
Handrail003
0 0.707108 0.750000 25.707108 0.381730 0.070536 0.921578 0.042127 -0.880350 1 0 1.000000 
0 0.000001 0.750000 26.000000 0.381730 0.070536 0.921578 0.029607 -0.880350 1 0 1.000000 
0 0.000001 -0.750000 26.000000 0.381730 -0.070536 0.921578 0.029607 -0.914167 1 0 1.000000 
Handrail003
0 0.353554 4.000000 25.353554 0.378875 0.140721 0.914686 0.042127 -0.807081 1 0 1.000000 
0 0.000001 0.750000 26.000000 0.381730 0.070536 0.921578 0.029607 -0.880350 1 0 1.000000 
0 0.707108 0.750000 25.707108 0.381730 0.070536 0.921578 0.042127 -0.880350 1 0 1.000000 
Handrail003
0 0.353554 4.000000 25.353554 0.378875 0.140721 0.914686 0.042127 -0.807081 1 0 1.000000 
0 0.000001 4.000000 25.500000 0.378875 0.140721 0.914686 0.029607 -0.807081 1 0 1.000000 
0 0.000001 0.750000 26.000000 0.381730 0.070536 0.921578 0.029607 -0.880350 1 0 1.000000 
Handrail003
0 0.500000 -2.000000 11.000000 0.908501 -0.181700 -0.376313 0.348267 -0.987436 1 0 1.000000 
0 0.353553 -2.000000 10.646446 0.908501 -0.181700 -0.376313 0.367047 -0.987436 1 0 1.000000 
0 0.530330 -0.750000 10.469670 0.920027 -0.091231 -0.381088 0.367047 -0.931075 1 0 1.000000 
Handrail003
0 0.500000 -2.000000 11.000000 0.908501 -0.181700 -0.376313 0.348267 -0.987436 1 0 1.000000 
0 0.530330 -0.750000 10.469670 0.920027 -0.091231 -0.381088 0.367047 -0.931075 1 0 1.000000 
0 0.750000 -0.750000 11.000000 0.920027 -0.091231 -0.381088 0.348267 -0.931075 1 0 1.000000 
Handrail003
0 0.530330 0.750000 10.469670 0.920026 0.091231 -0.381088 0.367047 -0.863442 1 0 1.000000 
0 0.750000 -0.750000 11.000000 0.920027 -0.091231 -0.381088 0.348267 -0.931075 1 0 1.000000 
0 0.530330 -0.750000 10.469670 0.920027 -0.091231 -0.381088 0.367047 -0.931075 1 0 1.000000 
Handrail003
0 0.530330 0.750000 10.469670 0.920026 0.091231 -0.381088 0.367047 -0.863442 1 0 1.000000 
0 0.750000 0.750000 11.000000 0.920026 0.091231 -0.381088 0.348267 -0.863442 1 0 1.000000 
0 0.750000 -0.750000 11.000000 0.920027 -0.091231 -0.381088 0.348267 -0.931075 1 0 1.000000 
Handrail003
0 0.353553 2.000000 10.646446 0.908501 0.181700 -0.376313 0.367047 -0.807081 1 0 1.000000 
0 0.750000 0.750000 11.000000 0.920026 0.091231 -0.381088 0.348267 -0.863442 1 0 1.000000 
0 0.530330 0.750000 10.469670 0.920026 0.091231 -0.381088 0.367047 -0.863442 1 0 1.000000 
Handrail003
0 0.353553 2.000000 10.646446 0.908501 0.181700 -0.376313 0.367047 -0.807081 1 0 1.000000 
0 0.500000 2.000000 11.000000 0.908501 0.181700 -0.376313 0.348267 -0.807081 1 0 1.000000 
0 0.750000 0.750000 11.000000 0.920026 0.091231 -0.381088 0.348267 -0.863442 1 0 1.000000 
Handrail003
0 0.353554 -2.000000 11.353554 0.908501 -0.181700 0.376313 0.329487 -0.987436 1 0 1.000000 
0 0.500000 -2.000000 11.000000 0.908501 -0.181700 0.376313 0.348267 -0.987436 1 0 1.000000 
0 0.750000 -0.750000 11.000000 0.920027 -0.091231 0.381088 0.348267 -0.931075 1 0 1.000000 
Handrail003
0 0.353554 -2.000000 11.353554 0.908501 -0.181700 0.376313 0.329487 -0.987436 1 0 1.000000 
0 0.750000 -0.750000 11.000000 0.920027 -0.091231 0.381088 0.348267 -0.931075 1 0 1.000000 
0 0.530330 -0.750000 11.530330 0.920027 -0.091231 0.381088 0.329487 -0.931075 1 0 1.000000 
Handrail003
0 0.750000 0.750000 11.000000 0.920026 0.091231 0.381088 0.348267 -0.863442 1 0 1.000000 
0 0.530330 -0.750000 11.530330 0.920027 -0.091231 0.381088 0.329487 -0.931075 1 0 1.000000 
0 0.750000 -0.750000 11.000000 0.920027 -0.091231 0.381088 0.348267 -0.931075 1 0 1.000000 
Handrail003
0 0.750000 0.750000 11.000000 0.920026 0.091231 0.381088 0.348267 -0.863442 1 0 1.000000 
0 0.530330 0.750000 11.530330 0.920026 0.091231 0.381088 0.329487 -0.863442 1 0 1.000000 
0 0.530330 -0.750000 11.530330 0.920027 -0.091231 0.381088 0.329487 -0.931075 1 0 1.000000 
Handrail003
0 0.500000 2.000000 11.000000 0.908501 0.181700 0.376313 0.348267 -0.807081 1 0 1.000000 
0 0.530330 0.750000 11.530330 0.920026 0.091231 0.381088 0.329487 -0.863442 1 0 1.000000 
0 0.750000 0.750000 11.000000 0.920026 0.091231 0.381088 0.348267 -0.863442 1 0 1.000000 
Handrail003
0 0.500000 2.000000 11.000000 0.908501 0.181700 0.376313 0.348267 -0.807081 1 0 1.000000 
0 0.353554 2.000000 11.353554 0.908501 0.181700 0.376313 0.329487 -0.807081 1 0 1.000000 
0 0.530330 0.750000 11.530330 0.920026 0.091231 0.381088 0.329487 -0.863442 1 0 1.000000 
Handrail003
0 0.000001 -2.000000 11.500000 0.376313 -0.181700 0.908501 0.310707 -0.987436 1 0 1.000000 
0 0.353554 -2.000000 11.353554 0.376313 -0.181700 0.908501 0.329487 -0.987436 1 0 1.000000 
0 0.530330 -0.750000 11.530330 0.381088 -0.091231 0.920027 0.329487 -0.931075 1 0 1.000000 
Handrail003
0 0.000001 -2.000000 11.500000 0.376313 -0.181700 0.908501 0.310707 -0.987436 1 0 1.000000 
0 0.530330 -0.750000 11.530330 0.381088 -0.091231 0.920027 0.329487 -0.931075 1 0 1.000000 
0 0.000001 -0.750000 11.750000 0.381088 -0.091231 0.920027 0.310707 -0.931075 1 0 1.000000 
Handrail003
0 0.530330 0.750000 11.530330 0.381088 0.091231 0.920026 0.329487 -0.863442 1 0 1.000000 
0 0.000001 -0.750000 11.750000 0.381088 -0.091231 0.920027 0.310707 -0.931075 1 0 1.000000 
0 0.530330 -0.750000 11.530330 0.381088 -0.091231 0.920027 0.329487 -0.931075 1 0 1.000000 
Handrail003
0 0.530330 0.750000 11.530330 0.381088 0.091231 0.920026 0.329487 -0.863442 1 0 1.000000 
0 0.000001 0.750000 11.750000 0.381088 0.091231 0.920026 0.310707 -0.863442 1 0 1.000000 
0 0.000001 -0.750000 11.750000 0.381088 -0.091231 0.920027 0.310707 -0.931075 1 0 1.000000 
Handrail003
0 0.353554 2.000000 11.353554 0.376313 0.181700 0.908501 0.329487 -0.807081 1 0 1.000000 
0 0.000001 0.750000 11.750000 0.381088 0.091231 0.920026 0.310707 -0.863442 1 0 1.000000 
0 0.530330 0.750000 11.530330 0.381088 0.091231 0.920026 0.329487 -0.863442 1 0 1.000000 
Handrail003
0 0.353554 2.000000 11.353554 0.376313 0.181700 0.908501 0.329487 -0.807081 1 0 1.000000 
0 0.000001 2.000000 11.500000 0.376313 0.181700 0.908501 0.310707 -0.807081 1 0 1.000000 
0 0.000001 0.750000 11.750000 0.381088 0.091231 0.920026 0.310707 -0.863442 1 0 1.000000 
Handrail003
0 -0.353552 -4.000000 25.353554 -0.378875 -0.140721 0.914686 0.017087 -0.987436 1 0 1.000000 
0 0.000001 -4.000000 25.500000 -0.378875 -0.140721 0.914686 0.029607 -0.987436 1 0 1.000000 
0 0.000001 -0.750000 26.000000 -0.381730 -0.070536 0.921578 0.029607 -0.914167 1 0 1.000000 
Handrail003
0 -0.353552 -4.000000 25.353554 -0.378875 -0.140721 0.914686 0.017087 -0.987436 1 0 1.000000 
0 0.000001 -0.750000 26.000000 -0.381730 -0.070536 0.921578 0.029607 -0.914167 1 0 1.000000 
0 -0.707106 -0.750000 25.707108 -0.381730 -0.070536 0.921578 0.017087 -0.914167 1 0 1.000000 
Handrail003
0 0.000001 0.750000 26.000000 -0.381730 0.070536 0.921578 0.029607 -0.880350 1 0 1.000000 
0 -0.707106 -0.750000 25.707108 -0.381730 -0.070536 0.921578 0.017087 -0.914167 1 0 1.000000 
0 0.000001 -0.750000 26.000000 -0.381730 -0.070536 0.921578 0.029607 -0.914167 1 0 1.000000 
Handrail003
0 0.000001 0.750000 26.000000 -0.381730 0.070536 0.921578 0.029607 -0.880350 1 0 1.000000 
0 -0.707106 0.750000 25.707108 -0.381730 0.070536 0.921578 0.017087 -0.880350 1 0 1.000000 
0 -0.707106 -0.750000 25.707108 -0.381730 -0.070536 0.921578 0.017087 -0.914167 1 0 1.000000 
Handrail003
0 0.000001 4.000000 25.500000 -0.378875 0.140721 0.914686 0.029607 -0.807081 1 0 1.000000 
0 -0.707106 0.750000 25.707108 -0.381730 0.070536 0.921578 0.017087 -0.880350 1 0 1.000000 
0 0.000001 0.750000 26.000000 -0.381730 0.070536 0.921578 0.029607 -0.880350 1 0 1.000000 
Handrail003
0 0.000001 4.000000 25.500000 -0.378875 0.140721 0.914686 0.029607 -0.807081 1 0 1.000000 
0 -0.353552 4.000000 25.353554 -0.378875 0.140721 0.914686 0.017087 -0.807081 1 0 1.000000 
0 -0.707106 0.750000 25.707108 -0.381730 0.070536 0.921578 0.017087 -0.880350 1 0 1.000000 
Handrail003
0 -0.353550 -32.000000 39.353554 -0.382683 -0.000000 0.923880 0.840203 -1.000000 1 0 1.000000 
0 0.000002 0.000000 39.500000 -0.382683 -0.000000 0.923880 0.848881 -0.000000 1 0 1.000000 
0 -0.353551 -0.000000 39.353554 -0.382683 -0.000000 0.923880 0.840203 -0.000000 1 0 1.000000 
Handrail003
0 -0.353550 -32.000000 39.353554 -0.382683 -0.000000 0.923880 0.840203 -1.000000 1 0 1.000000 
0 0.000003 -32.000000 39.500000 -0.382683 -0.000000 0.923880 0.848881 -1.000000 1 0 1.000000 
0 0.000002 0.000000 39.500000 -0.382683 -0.000000 0.923880 0.848881 -0.000000 1 0 1.000000 
Handrail003
0 0.353556 -32.000000 39.353554 0.923880 0.000000 0.382683 0.857558 -1.000000 1 0 1.000000 
0 0.500002 0.000000 39.000000 0.923880 0.000000 0.382683 0.866236 -0.000000 1 0 1.000000 
0 0.353555 0.000000 39.353554 0.923880 0.000000 0.382683 0.857558 -0.000000 1 0 1.000000 
Handrail003
0 0.353556 -32.000000 39.353554 0.923880 0.000000 0.382683 0.857558 -1.000000 1 0 1.000000 
0 0.500003 -32.000000 39.000000 0.923880 0.000000 0.382683 0.866236 -1.000000 1 0 1.000000 
0 0.500002 0.000000 39.000000 0.923880 0.000000 0.382683 0.866236 -0.000000 1 0 1.000000 
Handrail003
0 0.000003 -32.000000 39.500000 0.382683 0.000000 0.923880 0.848881 -1.000000 1 0 1.000000 
0 0.353555 0.000000 39.353554 0.382683 0.000000 0.923880 0.857558 -0.000000 1 0 1.000000 
0 0.000002 0.000000 39.500000 0.382683 0.000000 0.923880 0.848881 -0.000000 1 0 1.000000 
Handrail003
0 0.000003 -32.000000 39.500000 0.382683 0.000000 0.923880 0.848881 -1.000000 1 0 1.000000 
0 0.353556 -32.000000 39.353554 0.382683 0.000000 0.923880 0.857558 -1.000000 1 0 1.000000 
0 0.353555 0.000000 39.353554 0.382683 0.000000 0.923880 0.857558 -0.000000 1 0 1.000000 
Handrail003
0 -0.353550 -32.000000 38.646446 -0.923880 -0.000000 -0.382683 0.892268 -1.000000 1 0 1.000000 
0 -0.499998 -0.000000 39.000000 -0.923880 -0.000000 -0.382683 0.900946 -0.000000 1 0 1.000000 
0 -0.353551 -0.000000 38.646446 -0.923880 -0.000000 -0.382683 0.892268 -0.000000 1 0 1.000000 
Handrail003
0 -0.353550 -32.000000 38.646446 -0.923880 -0.000000 -0.382683 0.892268 -1.000000 1 0 1.000000 
0 -0.499997 -32.000000 39.000000 -0.923880 -0.000000 -0.382683 0.900946 -1.000000 1 0 1.000000 
0 -0.499998 -0.000000 39.000000 -0.923880 -0.000000 -0.382683 0.900946 -0.000000 1 0 1.000000 
Handrail003
0 -0.353553 32.000000 24.646446 -0.382683 -0.000000 -0.923880 0.807752 -0.000000 1 0 1.000000 
0 0.000001 0.000000 24.500000 -0.382683 -0.000000 -0.923880 0.799075 -1.000000 1 0 1.000000 
0 -0.353552 -0.000000 24.646446 -0.382683 -0.000000 -0.923880 0.807752 -1.000000 1 0 1.000000 
Handrail003
0 -0.353553 32.000000 24.646446 -0.382683 -0.000000 -0.923880 0.807752 -0.000000 1 0 1.000000 
0 -0.000000 32.000000 24.500000 -0.382683 -0.000000 -0.923880 0.799075 -0.000000 1 0 1.000000 
0 0.000001 0.000000 24.500000 -0.382683 -0.000000 -0.923880 0.799075 -1.000000 1 0 1.000000 
Handrail003
0 -0.000000 32.000000 24.500000 0.382683 0.000000 -0.923880 0.799075 -0.000000 1 0 1.000000 
0 0.353554 0.000000 24.646446 0.382683 0.000000 -0.923880 0.790397 -1.000000 1 0 1.000000 
0 0.000001 0.000000 24.500000 0.382683 0.000000 -0.923880 0.799075 -1.000000 1 0 1.000000 
Handrail003
0 -0.000000 32.000000 24.500000 0.382683 0.000000 -0.923880 0.799075 -0.000000 1 0 1.000000 
0 0.353553 32.000000 24.646446 0.382683 0.000000 -0.923880 0.790397 -0.000000 1 0 1.000000 
0 0.353554 0.000000 24.646446 0.382683 0.000000 -0.923880 0.790397 -1.000000 1 0 1.000000 
Handrail003
0 -0.353553 32.000000 25.353554 -0.923880 -0.000000 0.382683 0.755687 -0.000000 1 0 1.000000 
0 -0.499999 -0.000000 25.000000 -0.923880 -0.000000 0.382683 0.747010 -1.000000 1 0 1.000000 
0 -0.353552 -0.000000 25.353554 -0.923880 -0.000000 0.382683 0.755687 -1.000000 1 0 1.000000 
Handrail003
0 -0.353553 32.000000 25.353554 -0.923880 -0.000000 0.382683 0.755687 -0.000000 1 0 1.000000 
0 -0.500000 32.000000 25.000000 -0.923880 -0.000000 0.382683 0.747010 -0.000000 1 0 1.000000 
0 -0.499999 -0.000000 25.000000 -0.923880 -0.000000 0.382683 0.747010 -1.000000 1 0 1.000000 
Handrail003
0 0.353553 32.000000 24.646446 0.923880 0.000000 -0.382683 0.790397 -0.000000 1 0 1.000000 
0 0.500001 0.000000 25.000000 0.923880 0.000000 -0.382683 0.781720 -1.000000 1 0 1.000000 
0 0.353554 0.000000 24.646446 0.923880 0.000000 -0.382683 0.790397 -1.000000 1 0 1.000000 
Handrail003
0 0.353553 32.000000 24.646446 0.923880 0.000000 -0.382683 0.790397 -0.000000 1 0 1.000000 
0 0.500000 32.000000 25.000000 0.923880 0.000000 -0.382683 0.781720 -0.000000 1 0 1.000000 
0 0.500001 0.000000 25.000000 0.923880 0.000000 -0.382683 0.781720 -1.000000 1 0 1.000000 
Handrail003
0 -0.000000 32.000000 25.500000 -0.382683 -0.000000 0.923880 0.764365 -0.000000 1 0 1.000000 
0 -0.353552 -0.000000 25.353554 -0.382683 -0.000000 0.923880 0.755687 -1.000000 1 0 1.000000 
0 0.000001 0.000000 25.500000 -0.382683 -0.000000 0.923880 0.764365 -1.000000 1 0 1.000000 
Handrail003
0 -0.000000 32.000000 25.500000 -0.382683 -0.000000 0.923880 0.764365 -0.000000 1 0 1.000000 
0 -0.353553 32.000000 25.353554 -0.382683 -0.000000 0.923880 0.755687 -0.000000 1 0 1.000000 
0 -0.353552 -0.000000 25.353554 -0.382683 -0.000000 0.923880 0.755687 -1.000000 1 0 1.000000 
Handrail003
0 0.500000 32.000000 25.000000 0.923880 0.000000 0.382683 0.781720 -0.000000 1 0 1.000000 
0 0.353554 0.000000 25.353554 0.923880 0.000000 0.382683 0.773042 -1.000000 1 0 1.000000 
0 0.500001 0.000000 25.000000 0.923880 0.000000 0.382683 0.781720 -1.000000 1 0 1.000000 
Handrail003
0 0.500000 32.000000 25.000000 0.923880 0.000000 0.382683 0.781720 -0.000000 1 0 1.000000 
0 0.353553 32.000000 25.353554 0.923880 0.000000 0.382683 0.773042 -0.000000 1 0 1.000000 
0 0.353554 0.000000 25.353554 0.923880 0.000000 0.382683 0.773042 -1.000000 1 0 1.000000 
Handrail003
0 0.353553 32.000000 25.353554 0.382683 0.000000 0.923880 0.773042 -0.000000 1 0 1.000000 
0 0.000001 0.000000 25.500000 0.382683 0.000000 0.923880 0.764365 -1.000000 1 0 1.000000 
0 0.353554 0.000000 25.353554 0.382683 0.000000 0.923880 0.773042 -1.000000 1 0 1.000000 
Handrail003
0 0.353553 32.000000 25.353554 0.382683 0.000000 0.923880 0.773042 -0.000000 1 0 1.000000 
0 -0.000000 32.000000 25.500000 0.382683 0.000000 0.923880 0.764365 -0.000000 1 0 1.000000 
0 0.000001 0.000000 25.500000 0.382683 0.000000 0.923880 0.764365 -1.000000 1 0 1.000000 
Handrail003
0 -0.500000 32.000000 25.000000 -0.923880 -0.000000 -0.382683 0.816430 -0.000000 1 0 1.000000 
0 -0.353552 -0.000000 24.646446 -0.923880 -0.000000 -0.382683 0.807752 -1.000000 1 0 1.000000 
0 -0.499999 -0.000000 25.000000 -0.923880 -0.000000 -0.382683 0.816430 -1.000000 1 0 1.000000 
Handrail003
0 -0.500000 32.000000 25.000000 -0.923880 -0.000000 -0.382683 0.816430 -0.000000 1 0 1.000000 
0 -0.353553 32.000000 24.646446 -0.923880 -0.000000 -0.382683 0.807752 -0.000000 1 0 1.000000 
0 -0.353552 -0.000000 24.646446 -0.923880 -0.000000 -0.382683 0.807752 -1.000000 1 0 1.000000 
Handrail003
0 -0.353554 32.000000 10.646446 -0.382683 -0.000000 -0.923880 0.587683 -0.000000 1 0 1.000000 
0 0.000000 0.000000 10.500000 -0.382683 -0.000000 -0.923880 0.579006 -1.000000 1 0 1.000000 
0 -0.353553 -0.000000 10.646446 -0.382683 -0.000000 -0.923880 0.587683 -1.000000 1 0 1.000000 
Handrail003
0 -0.353554 32.000000 10.646446 -0.382683 -0.000000 -0.923880 0.587683 -0.000000 1 0 1.000000 
0 -0.000001 32.000000 10.500000 -0.382683 -0.000000 -0.923880 0.579006 -0.000000 1 0 1.000000 
0 0.000000 0.000000 10.500000 -0.382683 -0.000000 -0.923880 0.579006 -1.000000 1 0 1.000000 
Handrail003
0 -0.000001 32.000000 10.500000 0.382683 0.000000 -0.923880 0.579006 -0.000000 1 0 1.000000 
0 0.353553 0.000000 10.646446 0.382683 0.000000 -0.923880 0.570328 -1.000000 1 0 1.000000 
0 0.000000 0.000000 10.500000 0.382683 0.000000 -0.923880 0.579006 -1.000000 1 0 1.000000 
Handrail003
0 -0.000001 32.000000 10.500000 0.382683 0.000000 -0.923880 0.579006 -0.000000 1 0 1.000000 
0 0.353552 32.000000 10.646446 0.382683 0.000000 -0.923880 0.570328 -0.000000 1 0 1.000000 
0 0.353553 0.000000 10.646446 0.382683 0.000000 -0.923880 0.570328 -1.000000 1 0 1.000000 
Handrail003
0 -0.353553 32.000000 11.353554 -0.923880 -0.000000 0.382683 0.535618 -0.000000 1 0 1.000000 
0 -0.500000 -0.000000 11.000000 -0.923880 -0.000000 0.382683 0.526940 -1.000000 1 0 1.000000 
0 -0.353552 -0.000000 11.353554 -0.923880 -0.000000 0.382683 0.535618 -1.000000 1 0 1.000000 
Handrail003
0 -0.353553 32.000000 11.353554 -0.923880 -0.000000 0.382683 0.535618 -0.000000 1 0 1.000000 
0 -0.500001 32.000000 11.000000 -0.923880 -0.000000 0.382683 0.526940 -0.000000 1 0 1.000000 
0 -0.500000 -0.000000 11.000000 -0.923880 -0.000000 0.382683 0.526940 -1.000000 1 0 1.000000 
Handrail003
0 0.353552 32.000000 10.646446 0.923880 0.000000 -0.382683 0.570328 -0.000000 1 0 1.000000 
0 0.500000 0.000000 11.000000 0.923880 0.000000 -0.382683 0.561651 -1.000000 1 0 1.000000 
0 0.353553 0.000000 10.646446 0.923880 0.000000 -0.382683 0.570328 -1.000000 1 0 1.000000 
Handrail003
0 0.353552 32.000000 10.646446 0.923880 0.000000 -0.382683 0.570328 -0.000000 1 0 1.000000 
0 0.499999 32.000000 11.000000 0.923880 0.000000 -0.382683 0.561651 -0.000000 1 0 1.000000 
0 0.500000 0.000000 11.000000 0.923880 0.000000 -0.382683 0.561651 -1.000000 1 0 1.000000 
Handrail003
0 -0.000000 32.000000 11.500000 -0.382683 -0.000000 0.923880 0.544295 -0.000000 1 0 1.000000 
0 -0.353552 -0.000000 11.353554 -0.382683 -0.000000 0.923880 0.535618 -1.000000 1 0 1.000000 
0 0.000001 0.000000 11.500000 -0.382683 -0.000000 0.923880 0.544295 -1.000000 1 0 1.000000 
Handrail003
0 -0.000000 32.000000 11.500000 -0.382683 -0.000000 0.923880 0.544295 -0.000000 1 0 1.000000 
0 -0.353553 32.000000 11.353554 -0.382683 -0.000000 0.923880 0.535618 -0.000000 1 0 1.000000 
0 -0.353552 -0.000000 11.353554 -0.382683 -0.000000 0.923880 0.535618 -1.000000 1 0 1.000000 
Handrail003
0 0.499999 32.000000 11.000000 0.923880 0.000000 0.382683 0.561651 -0.000000 1 0 1.000000 
0 0.353554 0.000000 11.353554 0.923880 0.000000 0.382683 0.552973 -1.000000 1 0 1.000000 
0 0.500000 0.000000 11.000000 0.923880 0.000000 0.382683 0.561651 -1.000000 1 0 1.000000 
Handrail003
0 0.499999 32.000000 11.000000 0.923880 0.000000 0.382683 0.561651 -0.000000 1 0 1.000000 
0 0.353553 32.000000 11.353554 0.923880 0.000000 0.382683 0.552973 -0.000000 1 0 1.000000 
0 0.353554 0.000000 11.353554 0.923880 0.000000 0.382683 0.552973 -1.000000 1 0 1.000000 
Handrail003
0 0.353553 32.000000 11.353554 0.382683 0.000000 0.923880 0.552973 -0.000000 1 0 1.000000 
0 0.000001 0.000000 11.500000 0.382683 0.000000 0.923880 0.544295 -1.000000 1 0 1.000000 
0 0.353554 0.000000 11.353554 0.382683 0.000000 0.923880 0.552973 -1.000000 1 0 1.000000 
Handrail003
0 0.353553 32.000000 11.353554 0.382683 0.000000 0.923880 0.552973 -0.000000 1 0 1.000000 
0 -0.000000 32.000000 11.500000 0.382683 0.000000 0.923880 0.544295 -0.000000 1 0 1.000000 
0 0.000001 0.000000 11.500000 0.382683 0.000000 0.923880 0.544295 -1.000000 1 0 1.000000 
Handrail003
0 -0.500001 32.000000 11.000000 -0.923880 -0.000000 -0.382683 0.596361 -0.000000 1 0 1.000000 
0 -0.353553 -0.000000 10.646446 -0.923880 -0.000000 -0.382683 0.587683 -1.000000 1 0 1.000000 
0 -0.500000 -0.000000 11.000000 -0.923880 -0.000000 -0.382683 0.596361 -1.000000 1 0 1.000000 
Handrail003
0 -0.500001 32.000000 11.000000 -0.923880 -0.000000 -0.382683 0.596361 -0.000000 1 0 1.000000 
0 -0.353554 32.000000 10.646446 -0.923880 -0.000000 -0.382683 0.587683 -0.000000 1 0 1.000000 
0 -0.353553 -0.000000 10.646446 -0.923880 -0.000000 -0.382683 0.587683 -1.000000 1 0 1.000000 
Handrail003
0 -0.353552 32.000000 38.646446 -0.382683 -0.000000 -0.923880 0.976784 -0.000000 1 0 1.000000 
0 0.000002 0.000000 38.500000 -0.382683 -0.000000 -0.923880 0.968107 -1.000000 1 0 1.000000 
0 -0.353551 -0.000000 38.646446 -0.382683 -0.000000 -0.923880 0.976784 -1.000000 1 0 1.000000 
Handrail003
0 -0.353552 32.000000 38.646446 -0.382683 -0.000000 -0.923880 0.976784 -0.000000 1 0 1.000000 
0 0.000001 32.000000 38.500000 -0.382683 -0.000000 -0.923880 0.968107 -0.000000 1 0 1.000000 
0 0.000002 0.000000 38.500000 -0.382683 -0.000000 -0.923880 0.968107 -1.000000 1 0 1.000000 
Handrail003
0 0.000001 32.000000 38.500000 0.382683 0.000000 -0.923880 0.968107 -0.000000 1 0 1.000000 
0 0.353555 0.000000 38.646446 0.382683 0.000000 -0.923880 0.959429 -1.000000 1 0 1.000000 
0 0.000002 0.000000 38.500000 0.382683 0.000000 -0.923880 0.968107 -1.000000 1 0 1.000000 
Handrail003
0 0.000001 32.000000 38.500000 0.382683 0.000000 -0.923880 0.968107 -0.000000 1 0 1.000000 
0 0.353554 32.000000 38.646446 0.382683 0.000000 -0.923880 0.959429 -0.000000 1 0 1.000000 
0 0.353555 0.000000 38.646446 0.382683 0.000000 -0.923880 0.959429 -1.000000 1 0 1.000000 
Handrail003
0 -0.353552 32.000000 39.353554 -0.923880 -0.000000 0.382683 0.924719 -0.000000 1 0 1.000000 
0 -0.499998 -0.000000 39.000000 -0.923880 -0.000000 0.382683 0.916042 -1.000000 1 0 1.000000 
0 -0.353551 -0.000000 39.353554 -0.923880 -0.000000 0.382683 0.924719 -1.000000 1 0 1.000000 
Handrail003
0 -0.353552 32.000000 39.353554 -0.923880 -0.000000 0.382683 0.924719 -0.000000 1 0 1.000000 
0 -0.499999 32.000000 39.000000 -0.923880 -0.000000 0.382683 0.916042 -0.000000 1 0 1.000000 
0 -0.499998 -0.000000 39.000000 -0.923880 -0.000000 0.382683 0.916042 -1.000000 1 0 1.000000 
Handrail003
0 0.353554 32.000000 38.646446 0.923880 0.000000 -0.382683 0.959429 -0.000000 1 0 1.000000 
0 0.500002 0.000000 39.000000 0.923880 0.000000 -0.382683 0.950752 -1.000000 1 0 1.000000 
0 0.353555 0.000000 38.646446 0.923880 0.000000 -0.382683 0.959429 -1.000000 1 0 1.000000 
Handrail003
0 0.353554 32.000000 38.646446 0.923880 0.000000 -0.382683 0.959429 -0.000000 1 0 1.000000 
0 0.500001 32.000000 39.000000 0.923880 0.000000 -0.382683 0.950752 -0.000000 1 0 1.000000 
0 0.500002 0.000000 39.000000 0.923880 0.000000 -0.382683 0.950752 -1.000000 1 0 1.000000 
Handrail003
0 0.000001 32.000000 39.500000 -0.382683 -0.000000 0.923880 0.933397 -0.000000 1 0 1.000000 
0 -0.353551 -0.000000 39.353554 -0.382683 -0.000000 0.923880 0.924719 -1.000000 1 0 1.000000 
0 0.000002 0.000000 39.500000 -0.382683 -0.000000 0.923880 0.933397 -1.000000 1 0 1.000000 
Handrail003
0 0.000001 32.000000 39.500000 -0.382683 -0.000000 0.923880 0.933397 -0.000000 1 0 1.000000 
0 -0.353552 32.000000 39.353554 -0.382683 -0.000000 0.923880 0.924719 -0.000000 1 0 1.000000 
0 -0.353551 -0.000000 39.353554 -0.382683 -0.000000 0.923880 0.924719 -1.000000 1 0 1.000000 
Handrail003
0 0.500001 32.000000 39.000000 0.923880 0.000000 0.382683 0.950752 -0.000000 1 0 1.000000 
0 0.353555 0.000000 39.353554 0.923880 0.000000 0.382683 0.942074 -1.000000 1 0 1.000000 
0 0.500002 0.000000 39.000000 0.923880 0.000000 0.382683 0.950752 -1.000000 1 0 1.000000 
Handrail003
0 0.500001 32.000000 39.000000 0.923880 0.000000 0.382683 0.950752 -0.000000 1 0 1.000000 
0 0.353554 32.000000 39.353554 0.923880 0.000000 0.382683 0.942074 -0.000000 1 0 1.000000 
0 0.353555 0.000000 39.353554 0.923880 0.000000 0.382683 0.942074 -1.000000 1 0 1.000000 
Handrail003
0 0.353554 32.000000 39.353554 0.382683 0.000000 0.923880 0.942074 -0.000000 1 0 1.000000 
0 0.000002 0.000000 39.500000 0.382683 0.000000 0.923880 0.933397 -1.000000 1 0 1.000000 
0 0.353555 0.000000 39.353554 0.382683 0.000000 0.923880 0.942074 -1.000000 1 0 1.000000 
Handrail003
0 0.353554 32.000000 39.353554 0.382683 0.000000 0.923880 0.942074 -0.000000 1 0 1.000000 
0 0.000001 32.000000 39.500000 0.382683 0.000000 0.923880 0.933397 -0.000000 1 0 1.000000 
0 0.000002 0.000000 39.500000 0.382683 0.000000 0.923880 0.933397 -1.000000 1 0 1.000000 
Handrail003
0 -0.499999 32.000000 39.000000 -0.923880 -0.000000 -0.382683 0.985462 -0.000000 1 0 1.000000 
0 -0.353551 -0.000000 38.646446 -0.923880 -0.000000 -0.382683 0.976784 -1.000000 1 0 1.000000 
0 -0.499998 -0.000000 39.000000 -0.923880 -0.000000 -0.382683 0.985462 -1.000000 1 0 1.000000 
Handrail003
0 -0.499999 32.000000 39.000000 -0.923880 -0.000000 -0.382683 0.985462 -0.000000 1 0 1.000000 
0 -0.353552 32.000000 38.646446 -0.923880 -0.000000 -0.382683 0.976784 -0.000000 1 0 1.000000 
0 -0.353551 -0.000000 38.646446 -0.923880 -0.000000 -0.382683 0.976784 -1.000000 1 0 1.000000 
Handrail003
0 0.500002 0.000000 39.000000 0.923880 -0.382683 0.000000 0.478558 -0.002738 1 0 1.000000 
0 0.353553 -0.353553 11.000000 0.923880 -0.382683 0.000000 0.466932 -0.834560 1 0 1.000000 
0 0.500000 0.000000 11.000000 0.923880 -0.382683 0.000000 0.475692 -0.834606 1 0 1.000000 
Handrail003
0 0.500002 0.000000 39.000000 0.923880 -0.382683 0.000000 0.478558 -0.002738 1 0 1.000000 
0 0.353555 -0.353553 39.000000 0.923880 -0.382683 0.000000 0.468979 -0.002692 1 0 1.000000 
0 0.353553 -0.353553 11.000000 0.923880 -0.382683 0.000000 0.466932 -0.834560 1 0 1.000000 
Handrail003
0 -0.353551 -0.353553 39.000000 -0.923880 -0.382683 0.000000 0.448241 -0.002692 1 0 1.000000 
0 -0.500000 -0.000000 11.000000 -0.923880 -0.382683 0.000000 0.441527 -0.834606 1 0 1.000000 
0 -0.353553 -0.353553 11.000000 -0.923880 -0.382683 0.000000 0.450287 -0.834560 1 0 1.000000 
Handrail003
0 -0.353551 -0.353553 39.000000 -0.923880 -0.382683 0.000000 0.448241 -0.002692 1 0 1.000000 
0 -0.499998 -0.000000 39.000000 -0.923880 -0.382683 0.000000 0.438661 -0.002738 1 0 1.000000 
0 -0.500000 -0.000000 11.000000 -0.923880 -0.382683 0.000000 0.441527 -0.834606 1 0 1.000000 
Handrail003
0 -0.353551 0.353553 39.000000 -0.382683 0.923880 0.000000 0.503963 -0.002783 1 0 1.000000 
0 -0.000000 0.500000 11.000000 -0.382683 0.923880 0.000000 0.495640 -0.834671 1 0 1.000000 
0 -0.353553 0.353553 11.000000 -0.382683 0.923880 0.000000 0.506009 -0.834652 1 0 1.000000 
Handrail003
0 -0.353551 0.353553 39.000000 -0.382683 0.923880 0.000000 0.503963 -0.002783 1 0 1.000000 
0 0.000002 0.500000 39.000000 -0.382683 0.923880 0.000000 0.495640 -0.002802 1 0 1.000000 
0 -0.000000 0.500000 11.000000 -0.382683 0.923880 0.000000 0.495640 -0.834671 1 0 1.000000 
Handrail003
0 0.353555 0.353553 39.000000 0.923880 0.382683 0.000000 0.487318 -0.002783 1 0 1.000000 
0 0.500000 0.000000 11.000000 0.923880 0.382683 0.000000 0.475692 -0.834606 1 0 1.000000 
0 0.353553 0.353553 11.000000 0.923880 0.382683 0.000000 0.485271 -0.834652 1 0 1.000000 
Handrail003
0 0.353555 0.353553 39.000000 0.923880 0.382683 0.000000 0.487318 -0.002783 1 0 1.000000 
0 0.500002 0.000000 39.000000 0.923880 0.382683 0.000000 0.478558 -0.002738 1 0 1.000000 
0 0.500000 0.000000 11.000000 0.923880 0.382683 0.000000 0.475692 -0.834606 1 0 1.000000 
Handrail003
0 0.353555 -0.353553 39.000000 0.382683 -0.923880 0.000000 0.468979 -0.002692 1 0 1.000000 
0 0.000000 -0.500000 11.000000 0.382683 -0.923880 0.000000 0.458610 -0.834541 1 0 1.000000 
0 0.353553 -0.353553 11.000000 0.382683 -0.923880 0.000000 0.466932 -0.834560 1 0 1.000000 
Handrail003
0 0.353555 -0.353553 39.000000 0.382683 -0.923880 0.000000 0.468979 -0.002692 1 0 1.000000 
0 0.000002 -0.500000 39.000000 0.382683 -0.923880 0.000000 0.458610 -0.002673 1 0 1.000000 
0 0.000000 -0.500000 11.000000 0.382683 -0.923880 0.000000 0.458610 -0.834541 1 0 1.000000 
Handrail003
0 -0.499998 -0.000000 39.000000 -0.923880 0.382683 0.000000 0.512723 -0.002738 1 0 1.000000 
0 -0.353553 0.353553 11.000000 -0.923880 0.382683 0.000000 0.506009 -0.834652 1 0 1.000000 
0 -0.500000 -0.000000 11.000000 -0.923880 0.382683 0.000000 0.515589 -0.834606 1 0 1.000000 
Handrail003
0 -0.499998 -0.000000 39.000000 -0.923880 0.382683 0.000000 0.512723 -0.002738 1 0 1.000000 
0 -0.353551 0.353553 39.000000 -0.923880 0.382683 0.000000 0.503963 -0.002783 1 0 1.000000 
0 -0.353553 0.353553 11.000000 -0.923880 0.382683 0.000000 0.506009 -0.834652 1 0 1.000000 
Handrail003
0 0.000002 0.500000 39.000000 0.382683 0.923880 0.000000 0.495640 -0.002802 1 0 1.000000 
0 0.353553 0.353553 11.000000 0.382683 0.923880 0.000000 0.485271 -0.834652 1 0 1.000000 
0 -0.000000 0.500000 11.000000 0.382683 0.923880 0.000000 0.495640 -0.834671 1 0 1.000000 
Handrail003
0 0.000002 0.500000 39.000000 0.382683 0.923880 0.000000 0.495640 -0.002802 1 0 1.000000 
0 0.353555 0.353553 39.000000 0.382683 0.923880 0.000000 0.487318 -0.002783 1 0 1.000000 
0 0.353553 0.353553 11.000000 0.382683 0.923880 0.000000 0.485271 -0.834652 1 0 1.000000 
Handrail003
0 0.000002 -0.500000 39.000000 -0.382683 -0.923880 0.000000 0.458610 -0.002673 1 0 1.000000 
0 -0.353553 -0.353553 11.000000 -0.382683 -0.923880 0.000000 0.450287 -0.834560 1 0 1.000000 
0 0.000000 -0.500000 11.000000 -0.382683 -0.923880 0.000000 0.458610 -0.834541 1 0 1.000000 
Handrail003
0 0.000002 -0.500000 39.000000 -0.382683 -0.923880 0.000000 0.458610 -0.002673 1 0 1.000000 
0 -0.353551 -0.353553 39.000000 -0.382683 -0.923880 0.000000 0.448241 -0.002692 1 0 1.000000 
0 -0.353553 -0.353553 11.000000 -0.382683 -0.923880 0.000000 0.450287 -0.834560 1 0 1.000000 
Handrail003
0 0.000002 -32.000000 24.500000 -0.382683 -0.000000 -0.923880 0.727447 -1.000000 1 0 1.000000 
0 -0.353552 -0.000000 24.646446 -0.382683 -0.000000 -0.923880 0.736124 -0.000000 1 0 1.000000 
0 0.000001 0.000000 24.500000 -0.382683 -0.000000 -0.923880 0.727447 -0.000000 1 0 1.000000 
Handrail003
0 0.000002 -32.000000 24.500000 -0.382683 -0.000000 -0.923880 0.727447 -1.000000 1 0 1.000000 
0 -0.353551 -32.000000 24.646446 -0.382683 -0.000000 -0.923880 0.736124 -1.000000 1 0 1.000000 
0 -0.353552 -0.000000 24.646446 -0.382683 -0.000000 -0.923880 0.736124 -0.000000 1 0 1.000000 
Handrail003
0 0.353555 -32.000000 24.646446 0.382683 0.000000 -0.923880 0.718769 -1.000000 1 0 1.000000 
0 0.000001 0.000000 24.500000 0.382683 0.000000 -0.923880 0.727447 -0.000000 1 0 1.000000 
0 0.353554 0.000000 24.646446 0.382683 0.000000 -0.923880 0.718769 -0.000000 1 0 1.000000 
Handrail003
0 0.353555 -32.000000 24.646446 0.382683 0.000000 -0.923880 0.718769 -1.000000 1 0 1.000000 
0 0.000002 -32.000000 24.500000 0.382683 0.000000 -0.923880 0.727447 -1.000000 1 0 1.000000 
0 0.000001 0.000000 24.500000 0.382683 0.000000 -0.923880 0.727447 -0.000000 1 0 1.000000 
Handrail003
0 -0.499998 -32.000000 25.000000 -0.923880 -0.000000 0.382683 0.675382 -1.000000 1 0 1.000000 
0 -0.353552 -0.000000 25.353554 -0.923880 -0.000000 0.382683 0.684059 -0.000000 1 0 1.000000 
0 -0.499999 -0.000000 25.000000 -0.923880 -0.000000 0.382683 0.675382 -0.000000 1 0 1.000000 
Handrail003
0 -0.499998 -32.000000 25.000000 -0.923880 -0.000000 0.382683 0.675382 -1.000000 1 0 1.000000 
0 -0.353551 -32.000000 25.353554 -0.923880 -0.000000 0.382683 0.684059 -1.000000 1 0 1.000000 
0 -0.353552 -0.000000 25.353554 -0.923880 -0.000000 0.382683 0.684059 -0.000000 1 0 1.000000 
Handrail003
0 0.500002 -32.000000 25.000000 0.923880 0.000000 -0.382683 0.710092 -1.000000 1 0 1.000000 
0 0.353554 0.000000 24.646446 0.923880 0.000000 -0.382683 0.718769 -0.000000 1 0 1.000000 
0 0.500001 0.000000 25.000000 0.923880 0.000000 -0.382683 0.710092 -0.000000 1 0 1.000000 
Handrail003
0 0.500002 -32.000000 25.000000 0.923880 0.000000 -0.382683 0.710092 -1.000000 1 0 1.000000 
0 0.353555 -32.000000 24.646446 0.923880 0.000000 -0.382683 0.718769 -1.000000 1 0 1.000000 
0 0.353554 0.000000 24.646446 0.923880 0.000000 -0.382683 0.718769 -0.000000 1 0 1.000000 
Handrail003
0 -0.353551 -32.000000 25.353554 -0.382683 -0.000000 0.923880 0.684059 -1.000000 1 0 1.000000 
0 0.000001 0.000000 25.500000 -0.382683 -0.000000 0.923880 0.692737 -0.000000 1 0 1.000000 
0 -0.353552 -0.000000 25.353554 -0.382683 -0.000000 0.923880 0.684059 -0.000000 1 0 1.000000 
Handrail003
0 -0.353551 -32.000000 25.353554 -0.382683 -0.000000 0.923880 0.684059 -1.000000 1 0 1.000000 
0 0.000002 -32.000000 25.500000 -0.382683 -0.000000 0.923880 0.692737 -1.000000 1 0 1.000000 
0 0.000001 0.000000 25.500000 -0.382683 -0.000000 0.923880 0.692737 -0.000000 1 0 1.000000 
Handrail003
0 0.353555 -32.000000 25.353554 0.923880 0.000000 0.382683 0.701414 -1.000000 1 0 1.000000 
0 0.500001 0.000000 25.000000 0.923880 0.000000 0.382683 0.710092 -0.000000 1 0 1.000000 
0 0.353554 0.000000 25.353554 0.923880 0.000000 0.382683 0.701414 -0.000000 1 0 1.000000 
Handrail003
0 0.353555 -32.000000 25.353554 0.923880 0.000000 0.382683 0.701414 -1.000000 1 0 1.000000 
0 0.500002 -32.000000 25.000000 0.923880 0.000000 0.382683 0.710092 -1.000000 1 0 1.000000 
0 0.500001 0.000000 25.000000 0.923880 0.000000 0.382683 0.710092 -0.000000 1 0 1.000000 
Handrail003
0 0.000002 -32.000000 25.500000 0.382683 0.000000 0.923880 0.692737 -1.000000 1 0 1.000000 
0 0.353554 0.000000 25.353554 0.382683 0.000000 0.923880 0.701414 -0.000000 1 0 1.000000 
0 0.000001 0.000000 25.500000 0.382683 0.000000 0.923880 0.692737 -0.000000 1 0 1.000000 
Handrail003
0 0.000002 -32.000000 25.500000 0.382683 0.000000 0.923880 0.692737 -1.000000 1 0 1.000000 
0 0.353555 -32.000000 25.353554 0.382683 0.000000 0.923880 0.701414 -1.000000 1 0 1.000000 
0 0.353554 0.000000 25.353554 0.382683 0.000000 0.923880 0.701414 -0.000000 1 0 1.000000 
Handrail003
0 -0.353551 -32.000000 24.646446 -0.923880 -0.000000 -0.382683 0.736124 -1.000000 1 0 1.000000 
0 -0.499999 -0.000000 25.000000 -0.923880 -0.000000 -0.382683 0.744802 -0.000000 1 0 1.000000 
0 -0.353552 -0.000000 24.646446 -0.923880 -0.000000 -0.382683 0.736124 -0.000000 1 0 1.000000 
Handrail003
0 -0.353551 -32.000000 24.646446 -0.923880 -0.000000 -0.382683 0.736124 -1.000000 1 0 1.000000 
0 -0.499998 -32.000000 25.000000 -0.923880 -0.000000 -0.382683 0.744802 -1.000000 1 0 1.000000 
0 -0.499999 -0.000000 25.000000 -0.923880 -0.000000 -0.382683 0.744802 -0.000000 1 0 1.000000 
Handrail003
0 0.000001 -32.000000 10.500000 -0.382683 -0.000000 -0.923880 0.655684 -1.000000 1 0 1.000000 
0 -0.353553 -0.000000 10.646446 -0.382683 -0.000000 -0.923880 0.664362 -0.000000 1 0 1.000000 
0 0.000000 0.000000 10.500000 -0.382683 -0.000000 -0.923880 0.655684 -0.000000 1 0 1.000000 
Handrail003
0 0.000001 -32.000000 10.500000 -0.382683 -0.000000 -0.923880 0.655684 -1.000000 1 0 1.000000 
0 -0.353552 -32.000000 10.646446 -0.382683 -0.000000 -0.923880 0.664362 -1.000000 1 0 1.000000 
0 -0.353553 -0.000000 10.646446 -0.382683 -0.000000 -0.923880 0.664362 -0.000000 1 0 1.000000 
Handrail003
0 0.353554 -32.000000 10.646446 0.382683 0.000000 -0.923880 0.647007 -1.000000 1 0 1.000000 
0 0.000000 0.000000 10.500000 0.382683 0.000000 -0.923880 0.655684 -0.000000 1 0 1.000000 
0 0.353553 0.000000 10.646446 0.382683 0.000000 -0.923880 0.647007 -0.000000 1 0 1.000000 
Handrail003
0 0.353554 -32.000000 10.646446 0.382683 0.000000 -0.923880 0.647007 -1.000000 1 0 1.000000 
0 0.000001 -32.000000 10.500000 0.382683 0.000000 -0.923880 0.655684 -1.000000 1 0 1.000000 
0 0.000000 0.000000 10.500000 0.382683 0.000000 -0.923880 0.655684 -0.000000 1 0 1.000000 
Handrail003
0 -0.499999 -32.000000 11.000000 -0.923880 -0.000000 0.382683 0.603619 -1.000000 1 0 1.000000 
0 -0.353552 -0.000000 11.353554 -0.923880 -0.000000 0.382683 0.612297 -0.000000 1 0 1.000000 
0 -0.500000 -0.000000 11.000000 -0.923880 -0.000000 0.382683 0.603619 -0.000000 1 0 1.000000 
Handrail003
0 -0.499999 -32.000000 11.000000 -0.923880 -0.000000 0.382683 0.603619 -1.000000 1 0 1.000000 
0 -0.353551 -32.000000 11.353554 -0.923880 -0.000000 0.382683 0.612297 -1.000000 1 0 1.000000 
0 -0.353552 -0.000000 11.353554 -0.923880 -0.000000 0.382683 0.612297 -0.000000 1 0 1.000000 
Handrail003
0 0.500001 -32.000000 11.000000 0.923880 0.000000 -0.382683 0.638329 -1.000000 1 0 1.000000 
0 0.353553 0.000000 10.646446 0.923880 0.000000 -0.382683 0.647007 -0.000000 1 0 1.000000 
0 0.500000 0.000000 11.000000 0.923880 0.000000 -0.382683 0.638329 -0.000000 1 0 1.000000 
Handrail003
0 0.500001 -32.000000 11.000000 0.923880 0.000000 -0.382683 0.638329 -1.000000 1 0 1.000000 
0 0.353554 -32.000000 10.646446 0.923880 0.000000 -0.382683 0.647007 -1.000000 1 0 1.000000 
0 0.353553 0.000000 10.646446 0.923880 0.000000 -0.382683 0.647007 -0.000000 1 0 1.000000 
Handrail003
0 -0.353551 -32.000000 11.353554 -0.382683 -0.000000 0.923880 0.612297 -1.000000 1 0 1.000000 
0 0.000001 0.000000 11.500000 -0.382683 -0.000000 0.923880 0.620974 -0.000000 1 0 1.000000 
0 -0.353552 -0.000000 11.353554 -0.382683 -0.000000 0.923880 0.612297 -0.000000 1 0 1.000000 
Handrail003
0 -0.353551 -32.000000 11.353554 -0.382683 -0.000000 0.923880 0.612297 -1.000000 1 0 1.000000 
0 0.000002 -32.000000 11.500000 -0.382683 -0.000000 0.923880 0.620974 -1.000000 1 0 1.000000 
0 0.000001 0.000000 11.500000 -0.382683 -0.000000 0.923880 0.620974 -0.000000 1 0 1.000000 
Handrail003
0 0.353555 -32.000000 11.353554 0.923880 0.000000 0.382683 0.629652 -1.000000 1 0 1.000000 
0 0.500000 0.000000 11.000000 0.923880 0.000000 0.382683 0.638329 -0.000000 1 0 1.000000 
0 0.353554 0.000000 11.353554 0.923880 0.000000 0.382683 0.629652 -0.000000 1 0 1.000000 
Handrail003
0 0.353555 -32.000000 11.353554 0.923880 0.000000 0.382683 0.629652 -1.000000 1 0 1.000000 
0 0.500001 -32.000000 11.000000 0.923880 0.000000 0.382683 0.638329 -1.000000 1 0 1.000000 
0 0.500000 0.000000 11.000000 0.923880 0.000000 0.382683 0.638329 -0.000000 1 0 1.000000 
Handrail003
0 0.000002 -32.000000 11.500000 0.382683 0.000000 0.923880 0.620974 -1.000000 1 0 1.000000 
0 0.353554 0.000000 11.353554 0.382683 0.000000 0.923880 0.629652 -0.000000 1 0 1.000000 
0 0.000001 0.000000 11.500000 0.382683 0.000000 0.923880 0.620974 -0.000000 1 0 1.000000 
Handrail003
0 0.000002 -32.000000 11.500000 0.382683 0.000000 0.923880 0.620974 -1.000000 1 0 1.000000 
0 0.353555 -32.000000 11.353554 0.382683 0.000000 0.923880 0.629652 -1.000000 1 0 1.000000 
0 0.353554 0.000000 11.353554 0.382683 0.000000 0.923880 0.629652 -0.000000 1 0 1.000000 
Handrail003
0 -0.353552 -32.000000 10.646446 -0.923880 -0.000000 -0.382683 0.664362 -1.000000 1 0 1.000000 
0 -0.500000 -0.000000 11.000000 -0.923880 -0.000000 -0.382683 0.673039 -0.000000 1 0 1.000000 
0 -0.353553 -0.000000 10.646446 -0.923880 -0.000000 -0.382683 0.664362 -0.000000 1 0 1.000000 
Handrail003
0 -0.353552 -32.000000 10.646446 -0.923880 -0.000000 -0.382683 0.664362 -1.000000 1 0 1.000000 
0 -0.499999 -32.000000 11.000000 -0.923880 -0.000000 -0.382683 0.673039 -1.000000 1 0 1.000000 
0 -0.500000 -0.000000 11.000000 -0.923880 -0.000000 -0.382683 0.673039 -0.000000 1 0 1.000000 
Handrail003
0 0.000003 -32.000000 38.500000 -0.382683 -0.000000 -0.923880 0.883591 -1.000000 1 0 1.000000 
0 -0.353551 -0.000000 38.646446 -0.382683 -0.000000 -0.923880 0.892268 -0.000000 1 0 1.000000 
0 0.000002 0.000000 38.500000 -0.382683 -0.000000 -0.923880 0.883591 -0.000000 1 0 1.000000 
Handrail003
0 0.000003 -32.000000 38.500000 -0.382683 -0.000000 -0.923880 0.883591 -1.000000 1 0 1.000000 
0 -0.353550 -32.000000 38.646446 -0.382683 -0.000000 -0.923880 0.892268 -1.000000 1 0 1.000000 
0 -0.353551 -0.000000 38.646446 -0.382683 -0.000000 -0.923880 0.892268 -0.000000 1 0 1.000000 
Handrail003
0 0.353556 -32.000000 38.646446 0.382683 0.000000 -0.923880 0.874913 -1.000000 1 0 1.000000 
0 0.000002 0.000000 38.500000 0.382683 0.000000 -0.923880 0.883591 -0.000000 1 0 1.000000 
0 0.353555 0.000000 38.646446 0.382683 0.000000 -0.923880 0.874913 -0.000000 1 0 1.000000 
Handrail003
0 0.353556 -32.000000 38.646446 0.382683 0.000000 -0.923880 0.874913 -1.000000 1 0 1.000000 
0 0.000003 -32.000000 38.500000 0.382683 0.000000 -0.923880 0.883591 -1.000000 1 0 1.000000 
0 0.000002 0.000000 38.500000 0.382683 0.000000 -0.923880 0.883591 -0.000000 1 0 1.000000 
Handrail003
0 -0.499997 -32.000000 39.000000 -0.923880 -0.000000 0.382683 0.831526 -1.000000 1 0 1.000000 
0 -0.353551 -0.000000 39.353554 -0.923880 -0.000000 0.382683 0.840203 -0.000000 1 0 1.000000 
0 -0.499998 -0.000000 39.000000 -0.923880 -0.000000 0.382683 0.831526 -0.000000 1 0 1.000000 
Handrail003
0 -0.499997 -32.000000 39.000000 -0.923880 -0.000000 0.382683 0.831526 -1.000000 1 0 1.000000 
0 -0.353550 -32.000000 39.353554 -0.923880 -0.000000 0.382683 0.840203 -1.000000 1 0 1.000000 
0 -0.353551 -0.000000 39.353554 -0.923880 -0.000000 0.382683 0.840203 -0.000000 1 0 1.000000 
Handrail003
0 0.500001 -4.000000 25.000000 0.914686 -0.140721 -0.378875 0.054648 -0.987436 1 0 1.000000 
0 0.353554 -4.000000 24.646446 0.914686 -0.140721 -0.378875 0.067168 -0.987436 1 0 1.000000 
0 0.707108 -0.750000 24.292892 0.921578 -0.070536 -0.381730 0.067168 -0.914167 1 0 1.000000 
Handrail003
0 0.500001 -4.000000 25.000000 0.914686 -0.140721 -0.378875 0.054648 -0.987436 1 0 1.000000 
0 0.707108 -0.750000 24.292892 0.921578 -0.070536 -0.381730 0.067168 -0.914167 1 0 1.000000 
0 1.000001 -0.750000 25.000000 0.921578 -0.070536 -0.381730 0.054648 -0.914167 1 0 1.000000 
Handrail003
0 0.707108 0.750000 24.292892 0.921578 0.070536 -0.381730 0.067168 -0.880350 1 0 1.000000 
0 1.000001 -0.750000 25.000000 0.921578 -0.070536 -0.381730 0.054648 -0.914167 1 0 1.000000 
0 0.707108 -0.750000 24.292892 0.921578 -0.070536 -0.381730 0.067168 -0.914167 1 0 1.000000 
Handrail003
0 0.707108 0.750000 24.292892 0.921578 0.070536 -0.381730 0.067168 -0.880350 1 0 1.000000 
0 1.000001 0.750000 25.000000 0.921578 0.070536 -0.381730 0.054648 -0.880350 1 0 1.000000 
0 1.000001 -0.750000 25.000000 0.921578 -0.070536 -0.381730 0.054648 -0.914167 1 0 1.000000 
Handrail003
0 0.353554 4.000000 24.646446 0.914686 0.140721 -0.378875 0.067168 -0.807081 1 0 1.000000 
0 1.000001 0.750000 25.000000 0.921578 0.070536 -0.381730 0.054648 -0.880350 1 0 1.000000 
0 0.707108 0.750000 24.292892 0.921578 0.070536 -0.381730 0.067168 -0.880350 1 0 1.000000 
Handrail003
0 0.353554 4.000000 24.646446 0.914686 0.140721 -0.378875 0.067168 -0.807081 1 0 1.000000 
0 0.500001 4.000000 25.000000 0.914686 0.140721 -0.378875 0.054648 -0.807081 1 0 1.000000 
0 1.000001 0.750000 25.000000 0.921578 0.070536 -0.381730 0.054648 -0.880350 1 0 1.000000 
Handrail003
0 0.353554 -4.000000 24.646446 0.378875 -0.140721 -0.914686 0.067168 -0.987436 1 0 1.000000 
0 0.000001 -4.000000 24.500000 0.378875 -0.140721 -0.914686 0.079688 -0.987436 1 0 1.000000 
0 0.000001 -0.750000 24.000000 0.381730 -0.070536 -0.921578 0.079688 -0.914167 1 0 1.000000 
Handrail003
0 0.353554 -4.000000 24.646446 0.378875 -0.140721 -0.914686 0.067168 -0.987436 1 0 1.000000 
0 0.000001 -0.750000 24.000000 0.381730 -0.070536 -0.921578 0.079688 -0.914167 1 0 1.000000 
0 0.707108 -0.750000 24.292892 0.381730 -0.070536 -0.921578 0.067168 -0.914167 1 0 1.000000 
Handrail003
0 0.000001 0.750000 24.000000 0.381730 0.070536 -0.921578 0.079688 -0.880350 1 0 1.000000 
0 0.707108 -0.750000 24.292892 0.381730 -0.070536 -0.921578 0.067168 -0.914167 1 0 1.000000 
0 0.000001 -0.750000 24.000000 0.381730 -0.070536 -0.921578 0.079688 -0.914167 1 0 1.000000 
Handrail003
0 0.000001 0.750000 24.000000 0.381730 0.070536 -0.921578 0.079688 -0.880350 1 0 1.000000 
0 0.707108 0.750000 24.292892 0.381730 0.070536 -0.921578 0.067168 -0.880350 1 0 1.000000 
0 0.707108 -0.750000 24.292892 0.381730 -0.070536 -0.921578 0.067168 -0.914167 1 0 1.000000 
Handrail003
0 0.000001 4.000000 24.500000 0.378875 0.140721 -0.914686 0.079688 -0.807081 1 0 1.000000 
0 0.707108 0.750000 24.292892 0.381730 0.070536 -0.921578 0.067168 -0.880350 1 0 1.000000 
0 0.000001 0.750000 24.000000 0.381730 0.070536 -0.921578 0.079688 -0.880350 1 0 1.000000 
Handrail003
0 0.000001 4.000000 24.500000 0.378875 0.140721 -0.914686 0.079688 -0.807081 1 0 1.000000 
0 0.353554 4.000000 24.646446 0.378875 0.140721 -0.914686 0.067168 -0.807081 1 0 1.000000 
0 0.707108 0.750000 24.292892 0.381730 0.070536 -0.921578 0.067168 -0.880350 1 0 1.000000 
Handrail003
0 0.353553 -2.000000 10.646446 0.376313 -0.181700 -0.908501 0.367047 -0.987436 1 0 1.000000 
0 0.000000 -2.000000 10.500000 0.376313 -0.181700 -0.908501 0.385828 -0.987436 1 0 1.000000 
0 0.000000 -0.750000 10.250000 0.381088 -0.091231 -0.920027 0.385828 -0.931075 1 0 1.000000 
Handrail003
0 0.353553 -2.000000 10.646446 0.376313 -0.181700 -0.908501 0.367047 -0.987436 1 0 1.000000 
0 0.000000 -0.750000 10.250000 0.381088 -0.091231 -0.920027 0.385828 -0.931075 1 0 1.000000 
0 0.530330 -0.750000 10.469670 0.381088 -0.091231 -0.920027 0.367047 -0.931075 1 0 1.000000 
Handrail003
0 -0.000000 0.750000 10.250000 0.381088 0.091231 -0.920026 0.385828 -0.863442 1 0 1.000000 
0 0.530330 -0.750000 10.469670 0.381088 -0.091231 -0.920027 0.367047 -0.931075 1 0 1.000000 
0 0.000000 -0.750000 10.250000 0.381088 -0.091231 -0.920027 0.385828 -0.931075 1 0 1.000000 
Handrail003
0 -0.000000 0.750000 10.250000 0.381088 0.091231 -0.920026 0.385828 -0.863442 1 0 1.000000 
0 0.530330 0.750000 10.469670 0.381088 0.091231 -0.920026 0.367047 -0.863442 1 0 1.000000 
0 0.530330 -0.750000 10.469670 0.381088 -0.091231 -0.920027 0.367047 -0.931075 1 0 1.000000 
Handrail003
0 -0.000000 2.000000 10.500000 0.376313 0.181700 -0.908501 0.385828 -0.807081 1 0 1.000000 
0 0.530330 0.750000 10.469670 0.381088 0.091231 -0.920026 0.367047 -0.863442 1 0 1.000000 
0 -0.000000 0.750000 10.250000 0.381088 0.091231 -0.920026 0.385828 -0.863442 1 0 1.000000 
Handrail003
0 -0.000000 2.000000 10.500000 0.376313 0.181700 -0.908501 0.385828 -0.807081 1 0 1.000000 
0 0.353553 2.000000 10.646446 0.376313 0.181700 -0.908501 0.367047 -0.807081 1 0 1.000000 
0 0.530330 0.750000 10.469670 0.381088 0.091231 -0.920026 0.367047 -0.863442 1 0 1.000000 
Handrail003
0 0.000000 -2.000000 10.500000 -0.376313 -0.181700 -0.908501 0.385828 -0.987436 1 0 1.000000 
0 -0.353553 -2.000000 10.646446 -0.376313 -0.181700 -0.908501 0.404608 -0.987436 1 0 1.000000 
0 -0.530330 -0.750000 10.469670 -0.381088 -0.091231 -0.920026 0.404608 -0.931075 1 0 1.000000 
Handrail003
0 0.000000 -2.000000 10.500000 -0.376313 -0.181700 -0.908501 0.385828 -0.987436 1 0 1.000000 
0 -0.530330 -0.750000 10.469670 -0.381088 -0.091231 -0.920026 0.404608 -0.931075 1 0 1.000000 
0 0.000000 -0.750000 10.250000 -0.381088 -0.091231 -0.920026 0.385828 -0.931075 1 0 1.000000 
Handrail003
0 -0.530330 0.750000 10.469670 -0.381088 0.091231 -0.920027 0.404608 -0.863442 1 0 1.000000 
0 0.000000 -0.750000 10.250000 -0.381088 -0.091231 -0.920026 0.385828 -0.931075 1 0 1.000000 
0 -0.530330 -0.750000 10.469670 -0.381088 -0.091231 -0.920026 0.404608 -0.931075 1 0 1.000000 
Handrail003
0 -0.530330 0.750000 10.469670 -0.381088 0.091231 -0.920027 0.404608 -0.863442 1 0 1.000000 
0 -0.000000 0.750000 10.250000 -0.381088 0.091231 -0.920027 0.385828 -0.863442 1 0 1.000000 
0 0.000000 -0.750000 10.250000 -0.381088 -0.091231 -0.920026 0.385828 -0.931075 1 0 1.000000 
Handrail003
0 -0.353553 2.000000 10.646446 -0.376313 0.181700 -0.908501 0.404608 -0.807081 1 0 1.000000 
0 -0.000000 0.750000 10.250000 -0.381088 0.091231 -0.920027 0.385828 -0.863442 1 0 1.000000 
0 -0.530330 0.750000 10.469670 -0.381088 0.091231 -0.920027 0.404608 -0.863442 1 0 1.000000 
Handrail003
0 -0.353553 2.000000 10.646446 -0.376313 0.181700 -0.908501 0.404608 -0.807081 1 0 1.000000 
0 -0.000000 2.000000 10.500000 -0.376313 0.181700 -0.908501 0.385828 -0.807081 1 0 1.000000 
0 -0.000000 0.750000 10.250000 -0.381088 0.091231 -0.920027 0.385828 -0.863442 1 0 1.000000 
Handrail003
0 -0.353553 -2.000000 10.646446 -0.908501 -0.181700 -0.376313 0.404608 -0.987436 1 0 1.000000 
0 -0.500000 -2.000000 11.000000 -0.908501 -0.181700 -0.376313 0.423388 -0.987436 1 0 1.000000 
0 -0.750000 -0.750000 11.000000 -0.920026 -0.091231 -0.381088 0.423388 -0.931075 1 0 1.000000 
Handrail003
0 -0.353553 -2.000000 10.646446 -0.908501 -0.181700 -0.376313 0.404608 -0.987436 1 0 1.000000 
0 -0.750000 -0.750000 11.000000 -0.920026 -0.091231 -0.381088 0.423388 -0.931075 1 0 1.000000 
0 -0.530330 -0.750000 10.469670 -0.920026 -0.091231 -0.381088 0.404608 -0.931075 1 0 1.000000 
Handrail003
0 -0.750000 0.750000 11.000000 -0.920027 0.091231 -0.381088 0.423388 -0.863442 1 0 1.000000 
0 -0.530330 -0.750000 10.469670 -0.920026 -0.091231 -0.381088 0.404608 -0.931075 1 0 1.000000 
0 -0.750000 -0.750000 11.000000 -0.920026 -0.091231 -0.381088 0.423388 -0.931075 1 0 1.000000 
Handrail003
0 -0.750000 0.750000 11.000000 -0.920027 0.091231 -0.381088 0.423388 -0.863442 1 0 1.000000 
0 -0.530330 0.750000 10.469670 -0.920027 0.091231 -0.381088 0.404608 -0.863442 1 0 1.000000 
0 -0.530330 -0.750000 10.469670 -0.920026 -0.091231 -0.381088 0.404608 -0.931075 1 0 1.000000 
Handrail003
0 -0.500000 2.000000 11.000000 -0.908501 0.181700 -0.376313 0.423388 -0.807081 1 0 1.000000 
0 -0.530330 0.750000 10.469670 -0.920027 0.091231 -0.381088 0.404608 -0.863442 1 0 1.000000 
0 -0.750000 0.750000 11.000000 -0.920027 0.091231 -0.381088 0.423388 -0.863442 1 0 1.000000 
Handrail003
0 -0.500000 2.000000 11.000000 -0.908501 0.181700 -0.376313 0.423388 -0.807081 1 0 1.000000 
0 -0.353553 2.000000 10.646446 -0.908501 0.181700 -0.376313 0.404608 -0.807081 1 0 1.000000 
0 -0.530330 0.750000 10.469670 -0.920027 0.091231 -0.381088 0.404608 -0.863442 1 0 1.000000 
Handrail003
0 -0.500000 -2.000000 11.000000 -0.908501 -0.181700 0.376313 0.273146 -0.987436 1 0 1.000000 
0 -0.353552 -2.000000 11.353554 -0.908501 -0.181700 0.376313 0.291926 -0.987436 1 0 1.000000 
0 -0.530330 -0.750000 11.530330 -0.920026 -0.091231 0.381088 0.291926 -0.931075 1 0 1.000000 
Handrail003
0 -0.500000 -2.000000 11.000000 -0.908501 -0.181700 0.376313 0.273146 -0.987436 1 0 1.000000 
0 -0.530330 -0.750000 11.530330 -0.920026 -0.091231 0.381088 0.291926 -0.931075 1 0 1.000000 
0 -0.750000 -0.750000 11.000000 -0.920026 -0.091231 0.381088 0.273146 -0.931075 1 0 1.000000 
Handrail003
0 -0.530330 0.750000 11.530330 -0.920027 0.091231 0.381088 0.291926 -0.863442 1 0 1.000000 
0 -0.750000 -0.750000 11.000000 -0.920026 -0.091231 0.381088 0.273146 -0.931075 1 0 1.000000 
0 -0.530330 -0.750000 11.530330 -0.920026 -0.091231 0.381088 0.291926 -0.931075 1 0 1.000000 
Handrail003
0 -0.530330 0.750000 11.530330 -0.920027 0.091231 0.381088 0.291926 -0.863442 1 0 1.000000 
0 -0.750000 0.750000 11.000000 -0.920027 0.091231 0.381088 0.273146 -0.863442 1 0 1.000000 
0 -0.750000 -0.750000 11.000000 -0.920026 -0.091231 0.381088 0.273146 -0.931075 1 0 1.000000 
Handrail003
0 -0.353552 2.000000 11.353554 -0.908501 0.181700 0.376313 0.291926 -0.807081 1 0 1.000000 
0 -0.750000 0.750000 11.000000 -0.920027 0.091231 0.381088 0.273146 -0.863442 1 0 1.000000 
0 -0.530330 0.750000 11.530330 -0.920027 0.091231 0.381088 0.291926 -0.863442 1 0 1.000000 
Handrail003
0 -0.353552 2.000000 11.353554 -0.908501 0.181700 0.376313 0.291926 -0.807081 1 0 1.000000 
0 -0.500000 2.000000 11.000000 -0.908501 0.181700 0.376313 0.273146 -0.807081 1 0 1.000000 
0 -0.750000 0.750000 11.000000 -0.920027 0.091231 0.381088 0.273146 -0.863442 1 0 1.000000 
Handrail003
0 -0.353552 -2.000000 11.353554 -0.376313 -0.181700 0.908501 0.291926 -0.987436 1 0 1.000000 
0 0.000001 -2.000000 11.500000 -0.376313 -0.181700 0.908501 0.310707 -0.987436 1 0 1.000000 
0 0.000001 -0.750000 11.750000 -0.381088 -0.091231 0.920026 0.310707 -0.931075 1 0 1.000000 
Handrail003
0 -0.353552 -2.000000 11.353554 -0.376313 -0.181700 0.908501 0.291926 -0.987436 1 0 1.000000 
0 0.000001 -0.750000 11.750000 -0.381088 -0.091231 0.920026 0.310707 -0.931075 1 0 1.000000 
0 -0.530330 -0.750000 11.530330 -0.381088 -0.091231 0.920026 0.291926 -0.931075 1 0 1.000000 
Handrail003
0 0.000001 0.750000 11.750000 -0.381088 0.091231 0.920027 0.310707 -0.863442 1 0 1.000000 
0 -0.530330 -0.750000 11.530330 -0.381088 -0.091231 0.920026 0.291926 -0.931075 1 0 1.000000 
0 0.000001 -0.750000 11.750000 -0.381088 -0.091231 0.920026 0.310707 -0.931075 1 0 1.000000 
Handrail003
0 0.000001 0.750000 11.750000 -0.381088 0.091231 0.920027 0.310707 -0.863442 1 0 1.000000 
0 -0.530330 0.750000 11.530330 -0.381088 0.091231 0.920027 0.291926 -0.863442 1 0 1.000000 
0 -0.530330 -0.750000 11.530330 -0.381088 -0.091231 0.920026 0.291926 -0.931075 1 0 1.000000 
Handrail003
0 0.000001 2.000000 11.500000 -0.376313 0.181700 0.908501 0.310707 -0.807081 1 0 1.000000 
0 -0.530330 0.750000 11.530330 -0.381088 0.091231 0.920027 0.291926 -0.863442 1 0 1.000000 
0 0.000001 0.750000 11.750000 -0.381088 0.091231 0.920027 0.310707 -0.863442 1 0 1.000000 
Handrail003
0 0.000001 2.000000 11.500000 -0.376313 0.181700 0.908501 0.310707 -0.807081 1 0 1.000000 
0 -0.353552 2.000000 11.353554 -0.376313 0.181700 0.908501 0.291926 -0.807081 1 0 1.000000 
0 -0.530330 0.750000 11.530330 -0.381088 0.091231 0.920027 0.291926 -0.863442 1 0 1.000000 
Handrail003
0 -0.499999 -4.000000 25.000000 -0.914686 -0.140721 0.378875 0.004567 -0.987436 1 0 1.000000 
0 -0.353552 -4.000000 25.353554 -0.914686 -0.140721 0.378875 0.017087 -0.987436 1 0 1.000000 
0 -0.707106 -0.750000 25.707108 -0.921578 -0.070536 0.381730 0.017087 -0.914167 1 0 1.000000 
Handrail003
0 -0.499999 -4.000000 25.000000 -0.914686 -0.140721 0.378875 0.004567 -0.987436 1 0 1.000000 
0 -0.707106 -0.750000 25.707108 -0.921578 -0.070536 0.381730 0.017087 -0.914167 1 0 1.000000 
0 -0.999999 -0.750000 25.000000 -0.921578 -0.070536 0.381730 0.004567 -0.914167 1 0 1.000000 
Handrail003
0 -0.707106 0.750000 25.707108 -0.921578 0.070536 0.381730 0.017087 -0.880350 1 0 1.000000 
0 -0.999999 -0.750000 25.000000 -0.921578 -0.070536 0.381730 0.004567 -0.914167 1 0 1.000000 
0 -0.707106 -0.750000 25.707108 -0.921578 -0.070536 0.381730 0.017087 -0.914167 1 0 1.000000 
Handrail003
0 -0.707106 0.750000 25.707108 -0.921578 0.070536 0.381730 0.017087 -0.880350 1 0 1.000000 
0 -0.999999 0.750000 25.000000 -0.921578 0.070536 0.381730 0.004567 -0.880350 1 0 1.000000 
0 -0.999999 -0.750000 25.000000 -0.921578 -0.070536 0.381730 0.004567 -0.914167 1 0 1.000000 
Handrail003
0 -0.353552 4.000000 25.353554 -0.914686 0.140721 0.378875 0.017087 -0.807081 1 0 1.000000 
0 -0.999999 0.750000 25.000000 -0.921578 0.070536 0.381730 0.004567 -0.880350 1 0 1.000000 
0 -0.707106 0.750000 25.707108 -0.921578 0.070536 0.381730 0.017087 -0.880350 1 0 1.000000 
Handrail003
0 -0.353552 4.000000 25.353554 -0.914686 0.140721 0.378875 0.017087 -0.807081 1 0 1.000000 
0 -0.499999 4.000000 25.000000 -0.914686 0.140721 0.378875 0.004567 -0.807081 1 0 1.000000 
0 -0.999999 0.750000 25.000000 -0.921578 0.070536 0.381730 0.004567 -0.880350 1 0 1.000000 
Handrail003
0 -0.353552 -4.000000 24.646446 -0.914686 -0.140721 -0.378875 0.092208 -0.987436 1 0 1.000000 
0 -0.499999 -4.000000 25.000000 -0.914686 -0.140721 -0.378875 0.104728 -0.987436 1 0 1.000000 
0 -0.999999 -0.750000 25.000000 -0.921578 -0.070536 -0.381730 0.104728 -0.914167 1 0 1.000000 
Handrail003
0 -0.353552 -4.000000 24.646446 -0.914686 -0.140721 -0.378875 0.092208 -0.987436 1 0 1.000000 
0 -0.999999 -0.750000 25.000000 -0.921578 -0.070536 -0.381730 0.104728 -0.914167 1 0 1.000000 
0 -0.707106 -0.750000 24.292892 -0.921578 -0.070536 -0.381730 0.092208 -0.914167 1 0 1.000000 
Handrail003
0 -0.999999 0.750000 25.000000 -0.921578 0.070536 -0.381730 0.104728 -0.880350 1 0 1.000000 
0 -0.707106 -0.750000 24.292892 -0.921578 -0.070536 -0.381730 0.092208 -0.914167 1 0 1.000000 
0 -0.999999 -0.750000 25.000000 -0.921578 -0.070536 -0.381730 0.104728 -0.914167 1 0 1.000000 
Handrail003
0 -0.999999 0.750000 25.000000 -0.921578 0.070536 -0.381730 0.104728 -0.880350 1 0 1.000000 
0 -0.707106 0.750000 24.292892 -0.921578 0.070536 -0.381730 0.092208 -0.880350 1 0 1.000000 
0 -0.707106 -0.750000 24.292892 -0.921578 -0.070536 -0.381730 0.092208 -0.914167 1 0 1.000000 
Handrail003
0 -0.499999 4.000000 25.000000 -0.914686 0.140721 -0.378875 0.104728 -0.807081 1 0 1.000000 
0 -0.707106 0.750000 24.292892 -0.921578 0.070536 -0.381730 0.092208 -0.880350 1 0 1.000000 
0 -0.999999 0.750000 25.000000 -0.921578 0.070536 -0.381730 0.104728 -0.880350 1 0 1.000000 
Handrail003
0 -0.499999 4.000000 25.000000 -0.914686 0.140721 -0.378875 0.104728 -0.807081 1 0 1.000000 
0 -0.353552 4.000000 24.646446 -0.914686 0.140721 -0.378875 0.092208 -0.807081 1 0 1.000000 
0 -0.707106 0.750000 24.292892 -0.921578 0.070536 -0.381730 0.092208 -0.880350 1 0 1.000000 
Handrail003
0 0.000001 -4.000000 24.500000 -0.378875 -0.140721 -0.914686 0.079688 -0.987436 1 0 1.000000 
0 -0.353552 -4.000000 24.646446 -0.378875 -0.140721 -0.914686 0.092208 -0.987436 1 0 1.000000 
0 -0.707106 -0.750000 24.292892 -0.381730 -0.070536 -0.921578 0.092208 -0.914167 1 0 1.000000 
Handrail003
0 0.000001 -4.000000 24.500000 -0.378875 -0.140721 -0.914686 0.079688 -0.987436 1 0 1.000000 
0 -0.707106 -0.750000 24.292892 -0.381730 -0.070536 -0.921578 0.092208 -0.914167 1 0 1.000000 
0 0.000001 -0.750000 24.000000 -0.381730 -0.070536 -0.921578 0.079688 -0.914167 1 0 1.000000 
Handrail003
0 -0.707106 0.750000 24.292892 -0.381730 0.070536 -0.921578 0.092208 -0.880350 1 0 1.000000 
0 0.000001 -0.750000 24.000000 -0.381730 -0.070536 -0.921578 0.079688 -0.914167 1 0 1.000000 
0 -0.707106 -0.750000 24.292892 -0.381730 -0.070536 -0.921578 0.092208 -0.914167 1 0 1.000000 
Handrail003
0 -0.707106 0.750000 24.292892 -0.381730 0.070536 -0.921578 0.092208 -0.880350 1 0 1.000000 
0 0.000001 0.750000 24.000000 -0.381730 0.070536 -0.921578 0.079688 -0.880350 1 0 1.000000 
0 0.000001 -0.750000 24.000000 -0.381730 -0.070536 -0.921578 0.079688 -0.914167 1 0 1.000000 
Handrail003
0 -0.353552 4.000000 24.646446 -0.378875 0.140721 -0.914686 0.092208 -0.807081 1 0 1.000000 
0 0.000001 0.750000 24.000000 -0.381730 0.070536 -0.921578 0.079688 -0.880350 1 0 1.000000 
0 -0.707106 0.750000 24.292892 -0.381730 0.070536 -0.921578 0.092208 -0.880350 1 0 1.000000 
Handrail003
0 -0.353552 4.000000 24.646446 -0.378875 0.140721 -0.914686 0.092208 -0.807081 1 0 1.000000 
0 0.000001 4.000000 24.500000 -0.378875 0.140721 -0.914686 0.079688 -0.807081 1 0 1.000000 
0 0.000001 0.750000 24.000000 -0.381730 0.070536 -0.921578 0.079688 -0.880350 1 0 1.000000 
Handrail003
0 0.353554 -4.000000 25.353554 0.914686 -0.140721 0.378875 0.042127 -0.987436 1 0 1.000000 
0 0.500001 -4.000000 25.000000 0.914686 -0.140721 0.378875 0.054648 -0.987436 1 0 1.000000 
0 1.000001 -0.750000 25.000000 0.921578 -0.070536 0.381730 0.054648 -0.914167 1 0 1.000000 
Handrail003
0 0.353554 -4.000000 25.353554 0.914686 -0.140721 0.378875 0.042127 -0.987436 1 0 1.000000 
0 1.000001 -0.750000 25.000000 0.921578 -0.070536 0.381730 0.054648 -0.914167 1 0 1.000000 
0 0.707108 -0.750000 25.707108 0.921578 -0.070536 0.381730 0.042127 -0.914167 1 0 1.000000 
Handrail003
0 1.000001 0.750000 25.000000 0.921578 0.070536 0.381730 0.054648 -0.880350 1 0 1.000000 
0 0.707108 -0.750000 25.707108 0.921578 -0.070536 0.381730 0.042127 -0.914167 1 0 1.000000 
0 1.000001 -0.750000 25.000000 0.921578 -0.070536 0.381730 0.054648 -0.914167 1 0 1.000000 
Handrail003
0 1.000001 0.750000 25.000000 0.921578 0.070536 0.381730 0.054648 -0.880350 1 0 1.000000 
0 0.707108 0.750000 25.707108 0.921578 0.070536 0.381730 0.042127 -0.880350 1 0 1.000000 
0 0.707108 -0.750000 25.707108 0.921578 -0.070536 0.381730 0.042127 -0.914167 1 0 1.000000 
Handrail003
0 0.500001 4.000000 25.000000 0.914686 0.140721 0.378875 0.054648 -0.807081 1 0 1.000000 
0 0.707108 0.750000 25.707108 0.921578 0.070536 0.381730 0.042127 -0.880350 1 0 1.000000 
0 1.000001 0.750000 25.000000 0.921578 0.070536 0.381730 0.054648 -0.880350 1 0 1.000000 
Handrail003
0 0.500001 4.000000 25.000000 0.914686 0.140721 0.378875 0.054648 -0.807081 1 0 1.000000 
0 0.353554 4.000000 25.353554 0.914686 0.140721 0.378875 0.042127 -0.807081 1 0 1.000000 
0 0.707108 0.750000 25.707108 0.921578 0.070536 0.381730 0.042127 -0.880350 1 0 1.000000 
Handrail003
0 -0.000000 32.000000 11.500000 -0.000000 1.000000 0.000000 0.135451 -0.184781 1 0 1.000000 
0 -0.500001 32.000000 11.000000 -0.000000 1.000000 0.000000 0.152693 -0.202023 1 0 1.000000 
0 -0.353553 32.000000 11.353554 -0.000000 1.000000 0.000000 0.147643 -0.189831 1 0 1.000000 
Handrail003
0 -0.000000 32.000000 11.500000 -0.000000 1.000000 0.000000 0.135451 -0.184781 1 0 1.000000 
0 -0.353554 32.000000 10.646446 -0.000000 1.000000 0.000000 0.147643 -0.214214 1 0 1.000000 
0 -0.500001 32.000000 11.000000 -0.000000 1.000000 0.000000 0.152693 -0.202023 1 0 1.000000 
Handrail003
0 -0.000000 32.000000 11.500000 -0.000000 1.000000 0.000000 0.135451 -0.184781 1 0 1.000000 
0 -0.000001 32.000000 10.500000 -0.000000 1.000000 0.000000 0.135451 -0.219264 1 0 1.000000 
0 -0.353554 32.000000 10.646446 -0.000000 1.000000 0.000000 0.147643 -0.214214 1 0 1.000000 
Handrail003
0 -0.000000 32.000000 11.500000 -0.000000 1.000000 0.000000 0.135451 -0.184781 1 0 1.000000 
0 0.353552 32.000000 10.646446 -0.000000 1.000000 0.000000 0.123260 -0.214214 1 0 1.000000 
0 -0.000001 32.000000 10.500000 -0.000000 1.000000 0.000000 0.135451 -0.219264 1 0 1.000000 
Handrail003
0 -0.000000 32.000000 11.500000 -0.000000 1.000000 0.000000 0.135451 -0.184781 1 0 1.000000 
0 0.499999 32.000000 11.000000 -0.000000 1.000000 0.000000 0.118210 -0.202023 1 0 1.000000 
0 0.353552 32.000000 10.646446 -0.000000 1.000000 0.000000 0.123260 -0.214214 1 0 1.000000 
Handrail003
0 -0.000000 32.000000 11.500000 -0.000000 1.000000 0.000000 0.135451 -0.184781 1 0 1.000000 
0 0.353553 32.000000 11.353554 -0.000000 1.000000 0.000000 0.123260 -0.189831 1 0 1.000000 
0 0.499999 32.000000 11.000000 -0.000000 1.000000 0.000000 0.118210 -0.202023 1 0 1.000000 
Handrail003
0 0.000002 -2.000000 39.500000 0.376313 -0.181700 0.908501 0.154804 -0.987436 1 0 1.000000 
0 0.353555 -2.000000 39.353554 0.376313 -0.181700 0.908501 0.173584 -0.987436 1 0 1.000000 
0 0.530332 -0.750000 39.530331 0.381088 -0.091231 0.920027 0.173584 -0.931075 1 0 1.000000 
Handrail003
0 0.000002 -2.000000 39.500000 0.376313 -0.181700 0.908501 0.154804 -0.987436 1 0 1.000000 
0 0.530332 -0.750000 39.530331 0.381088 -0.091231 0.920027 0.173584 -0.931075 1 0 1.000000 
0 0.000002 -0.750000 39.750000 0.381088 -0.091231 0.920027 0.154804 -0.931075 1 0 1.000000 
Handrail003
0 0.530332 0.750000 39.530331 0.381088 0.091231 0.920026 0.173584 -0.863442 1 0 1.000000 
0 0.000002 -0.750000 39.750000 0.381088 -0.091231 0.920027 0.154804 -0.931075 1 0 1.000000 
0 0.530332 -0.750000 39.530331 0.381088 -0.091231 0.920027 0.173584 -0.931075 1 0 1.000000 
Handrail003
0 0.530332 0.750000 39.530331 0.381088 0.091231 0.920026 0.173584 -0.863442 1 0 1.000000 
0 0.000002 0.750000 39.750000 0.381088 0.091231 0.920026 0.154804 -0.863442 1 0 1.000000 
0 0.000002 -0.750000 39.750000 0.381088 -0.091231 0.920027 0.154804 -0.931075 1 0 1.000000 
Handrail003
0 0.353555 2.000000 39.353554 0.376313 0.181700 0.908501 0.173584 -0.807081 1 0 1.000000 
0 0.000002 0.750000 39.750000 0.381088 0.091231 0.920026 0.154804 -0.863442 1 0 1.000000 
0 0.530332 0.750000 39.530331 0.381088 0.091231 0.920026 0.173584 -0.863442 1 0 1.000000 
Handrail003
0 0.353555 2.000000 39.353554 0.376313 0.181700 0.908501 0.173584 -0.807081 1 0 1.000000 
0 0.000002 2.000000 39.500000 0.376313 0.181700 0.908501 0.154804 -0.807081 1 0 1.000000 
0 0.000002 0.750000 39.750000 0.381088 0.091231 0.920026 0.154804 -0.863442 1 0 1.000000 
Handrail003
0 0.353555 -2.000000 39.353554 0.908501 -0.181700 0.376313 0.173584 -0.987436 1 0 1.000000 
0 0.500002 -2.000000 39.000000 0.908501 -0.181700 0.376313 0.192364 -0.987436 1 0 1.000000 
0 0.750002 -0.750000 39.000000 0.920027 -0.091231 0.381088 0.192364 -0.931075 1 0 1.000000 
Handrail003
0 0.353555 -2.000000 39.353554 0.908501 -0.181700 0.376313 0.173584 -0.987436 1 0 1.000000 
0 0.750002 -0.750000 39.000000 0.920027 -0.091231 0.381088 0.192364 -0.931075 1 0 1.000000 
0 0.530332 -0.750000 39.530331 0.920027 -0.091231 0.381088 0.173584 -0.931075 1 0 1.000000 
Handrail003
0 0.750002 0.750000 39.000000 0.920026 0.091231 0.381088 0.192364 -0.863442 1 0 1.000000 
0 0.530332 -0.750000 39.530331 0.920027 -0.091231 0.381088 0.173584 -0.931075 1 0 1.000000 
0 0.750002 -0.750000 39.000000 0.920027 -0.091231 0.381088 0.192364 -0.931075 1 0 1.000000 
Handrail003
0 0.750002 0.750000 39.000000 0.920026 0.091231 0.381088 0.192364 -0.863442 1 0 1.000000 
0 0.530332 0.750000 39.530331 0.920026 0.091231 0.381088 0.173584 -0.863442 1 0 1.000000 
0 0.530332 -0.750000 39.530331 0.920027 -0.091231 0.381088 0.173584 -0.931075 1 0 1.000000 
Handrail003
0 0.500002 2.000000 39.000000 0.908501 0.181700 0.376313 0.192364 -0.807081 1 0 1.000000 
0 0.530332 0.750000 39.530331 0.920026 0.091231 0.381088 0.173584 -0.863442 1 0 1.000000 
0 0.750002 0.750000 39.000000 0.920026 0.091231 0.381088 0.192364 -0.863442 1 0 1.000000 
Handrail003
0 0.500002 2.000000 39.000000 0.908501 0.181700 0.376313 0.192364 -0.807081 1 0 1.000000 
0 0.353555 2.000000 39.353554 0.908501 0.181700 0.376313 0.173584 -0.807081 1 0 1.000000 
0 0.530332 0.750000 39.530331 0.920026 0.091231 0.381088 0.173584 -0.863442 1 0 1.000000 
Handrail003
0 0.500002 -2.000000 39.000000 0.908501 -0.181700 -0.376313 0.192364 -0.987436 1 0 1.000000 
0 0.353555 -2.000000 38.646446 0.908501 -0.181700 -0.376313 0.211144 -0.987436 1 0 1.000000 
0 0.530332 -0.750000 38.469669 0.920027 -0.091231 -0.381088 0.211144 -0.931075 1 0 1.000000 
Handrail003
0 0.500002 -2.000000 39.000000 0.908501 -0.181700 -0.376313 0.192364 -0.987436 1 0 1.000000 
0 0.530332 -0.750000 38.469669 0.920027 -0.091231 -0.381088 0.211144 -0.931075 1 0 1.000000 
0 0.750002 -0.750000 39.000000 0.920027 -0.091231 -0.381088 0.192364 -0.931075 1 0 1.000000 
Handrail003
0 0.530332 0.750000 38.469669 0.920026 0.091231 -0.381088 0.211144 -0.863442 1 0 1.000000 
0 0.750002 -0.750000 39.000000 0.920027 -0.091231 -0.381088 0.192364 -0.931075 1 0 1.000000 
0 0.530332 -0.750000 38.469669 0.920027 -0.091231 -0.381088 0.211144 -0.931075 1 0 1.000000 
Handrail003
0 0.530332 0.750000 38.469669 0.920026 0.091231 -0.381088 0.211144 -0.863442 1 0 1.000000 
0 0.750002 0.750000 39.000000 0.920026 0.091231 -0.381088 0.192364 -0.863442 1 0 1.000000 
0 0.750002 -0.750000 39.000000 0.920027 -0.091231 -0.381088 0.192364 -0.931075 1 0 1.000000 
Handrail003
0 0.353555 2.000000 38.646446 0.908501 0.181700 -0.376313 0.211144 -0.807081 1 0 1.000000 
0 0.750002 0.750000 39.000000 0.920026 0.091231 -0.381088 0.192364 -0.863442 1 0 1.000000 
0 0.530332 0.750000 38.469669 0.920026 0.091231 -0.381088 0.211144 -0.863442 1 0 1.000000 
Handrail003
0 0.353555 2.000000 38.646446 0.908501 0.181700 -0.376313 0.211144 -0.807081 1 0 1.000000 
0 0.500002 2.000000 39.000000 0.908501 0.181700 -0.376313 0.192364 -0.807081 1 0 1.000000 
0 0.750002 0.750000 39.000000 0.920026 0.091231 -0.381088 0.192364 -0.863442 1 0 1.000000 
Handrail003
0 0.353555 -2.000000 38.646446 0.376313 -0.181700 -0.908501 0.211144 -0.987436 1 0 1.000000 
0 0.000002 -2.000000 38.500000 0.376313 -0.181700 -0.908501 0.229925 -0.987436 1 0 1.000000 
0 0.000002 -0.750000 38.250000 0.381088 -0.091231 -0.920027 0.229925 -0.931075 1 0 1.000000 
Handrail003
0 0.353555 -2.000000 38.646446 0.376313 -0.181700 -0.908501 0.211144 -0.987436 1 0 1.000000 
0 0.000002 -0.750000 38.250000 0.381088 -0.091231 -0.920027 0.229925 -0.931075 1 0 1.000000 
0 0.530332 -0.750000 38.469669 0.381088 -0.091231 -0.920027 0.211144 -0.931075 1 0 1.000000 
Handrail003
0 0.000002 0.750000 38.250000 0.381088 0.091231 -0.920026 0.229925 -0.863442 1 0 1.000000 
0 0.530332 -0.750000 38.469669 0.381088 -0.091231 -0.920027 0.211144 -0.931075 1 0 1.000000 
0 0.000002 -0.750000 38.250000 0.381088 -0.091231 -0.920027 0.229925 -0.931075 1 0 1.000000 
Handrail003
0 0.000002 0.750000 38.250000 0.381088 0.091231 -0.920026 0.229925 -0.863442 1 0 1.000000 
0 0.530332 0.750000 38.469669 0.381088 0.091231 -0.920026 0.211144 -0.863442 1 0 1.000000 
0 0.530332 -0.750000 38.469669 0.381088 -0.091231 -0.920027 0.211144 -0.931075 1 0 1.000000 
Handrail003
0 0.000002 2.000000 38.500000 0.376313 0.181700 -0.908501 0.229925 -0.807081 1 0 1.000000 
0 0.530332 0.750000 38.469669 0.381088 0.091231 -0.920026 0.211144 -0.863442 1 0 1.000000 
0 0.000002 0.750000 38.250000 0.381088 0.091231 -0.920026 0.229925 -0.863442 1 0 1.000000 
Handrail003
0 0.000002 2.000000 38.500000 0.376313 0.181700 -0.908501 0.229925 -0.807081 1 0 1.000000 
0 0.353555 2.000000 38.646446 0.376313 0.181700 -0.908501 0.211144 -0.807081 1 0 1.000000 
0 0.530332 0.750000 38.469669 0.381088 0.091231 -0.920026 0.211144 -0.863442 1 0 1.000000 
Handrail003
0 0.000002 -2.000000 38.500000 -0.376313 -0.181700 -0.908501 0.229925 -0.987436 1 0 1.000000 
0 -0.353551 -2.000000 38.646446 -0.376313 -0.181700 -0.908501 0.248705 -0.987436 1 0 1.000000 
0 -0.530328 -0.750000 38.469669 -0.381088 -0.091231 -0.920026 0.248705 -0.931075 1 0 1.000000 
Handrail003
0 0.000002 -2.000000 38.500000 -0.376313 -0.181700 -0.908501 0.229925 -0.987436 1 0 1.000000 
0 -0.530328 -0.750000 38.469669 -0.381088 -0.091231 -0.920026 0.248705 -0.931075 1 0 1.000000 
0 0.000002 -0.750000 38.250000 -0.381088 -0.091231 -0.920026 0.229925 -0.931075 1 0 1.000000 
Handrail003
0 -0.530328 0.750000 38.469669 -0.381088 0.091231 -0.920027 0.248705 -0.863442 1 0 1.000000 
0 0.000002 -0.750000 38.250000 -0.381088 -0.091231 -0.920026 0.229925 -0.931075 1 0 1.000000 
0 -0.530328 -0.750000 38.469669 -0.381088 -0.091231 -0.920026 0.248705 -0.931075 1 0 1.000000 
Handrail003
0 -0.530328 0.750000 38.469669 -0.381088 0.091231 -0.920027 0.248705 -0.863442 1 0 1.000000 
0 0.000002 0.750000 38.250000 -0.381088 0.091231 -0.920027 0.229925 -0.863442 1 0 1.000000 
0 0.000002 -0.750000 38.250000 -0.381088 -0.091231 -0.920026 0.229925 -0.931075 1 0 1.000000 
Handrail003
0 -0.353551 2.000000 38.646446 -0.376313 0.181700 -0.908501 0.248705 -0.807081 1 0 1.000000 
0 0.000002 0.750000 38.250000 -0.381088 0.091231 -0.920027 0.229925 -0.863442 1 0 1.000000 
0 -0.530328 0.750000 38.469669 -0.381088 0.091231 -0.920027 0.248705 -0.863442 1 0 1.000000 
Handrail003
0 -0.353551 2.000000 38.646446 -0.376313 0.181700 -0.908501 0.248705 -0.807081 1 0 1.000000 
0 0.000002 2.000000 38.500000 -0.376313 0.181700 -0.908501 0.229925 -0.807081 1 0 1.000000 
0 0.000002 0.750000 38.250000 -0.381088 0.091231 -0.920027 0.229925 -0.863442 1 0 1.000000 
Handrail003
0 -0.353551 -2.000000 38.646446 -0.908501 -0.181700 -0.376313 0.248705 -0.987436 1 0 1.000000 
0 -0.499998 -2.000000 39.000000 -0.908501 -0.181700 -0.376313 0.267485 -0.987436 1 0 1.000000 
0 -0.749998 -0.750000 39.000000 -0.920026 -0.091231 -0.381088 0.267485 -0.931075 1 0 1.000000 
Handrail003
0 -0.353551 -2.000000 38.646446 -0.908501 -0.181700 -0.376313 0.248705 -0.987436 1 0 1.000000 
0 -0.749998 -0.750000 39.000000 -0.920026 -0.091231 -0.381088 0.267485 -0.931075 1 0 1.000000 
0 -0.530328 -0.750000 38.469669 -0.920026 -0.091231 -0.381088 0.248705 -0.931075 1 0 1.000000 
Handrail003
0 -0.749998 0.750000 39.000000 -0.920027 0.091231 -0.381088 0.267485 -0.863442 1 0 1.000000 
0 -0.530328 -0.750000 38.469669 -0.920026 -0.091231 -0.381088 0.248705 -0.931075 1 0 1.000000 
0 -0.749998 -0.750000 39.000000 -0.920026 -0.091231 -0.381088 0.267485 -0.931075 1 0 1.000000 
Handrail003
0 -0.749998 0.750000 39.000000 -0.920027 0.091231 -0.381088 0.267485 -0.863442 1 0 1.000000 
0 -0.530328 0.750000 38.469669 -0.920027 0.091231 -0.381088 0.248705 -0.863442 1 0 1.000000 
0 -0.530328 -0.750000 38.469669 -0.920026 -0.091231 -0.381088 0.248705 -0.931075 1 0 1.000000 
Handrail003
0 -0.499998 2.000000 39.000000 -0.908501 0.181700 -0.376313 0.267485 -0.807081 1 0 1.000000 
0 -0.530328 0.750000 38.469669 -0.920027 0.091231 -0.381088 0.248705 -0.863442 1 0 1.000000 
0 -0.749998 0.750000 39.000000 -0.920027 0.091231 -0.381088 0.267485 -0.863442 1 0 1.000000 
Handrail003
0 -0.499998 2.000000 39.000000 -0.908501 0.181700 -0.376313 0.267485 -0.807081 1 0 1.000000 
0 -0.353551 2.000000 38.646446 -0.908501 0.181700 -0.376313 0.248705 -0.807081 1 0 1.000000 
0 -0.530328 0.750000 38.469669 -0.920027 0.091231 -0.381088 0.248705 -0.863442 1 0 1.000000 
Handrail003
0 -0.499998 -2.000000 39.000000 -0.908501 -0.181700 0.376313 0.117243 -0.987436 1 0 1.000000 
0 -0.353551 -2.000000 39.353554 -0.908501 -0.181700 0.376313 0.136023 -0.987436 1 0 1.000000 
0 -0.530328 -0.750000 39.530331 -0.920026 -0.091231 0.381088 0.136023 -0.931075 1 0 1.000000 
Handrail003
0 -0.499998 -2.000000 39.000000 -0.908501 -0.181700 0.376313 0.117243 -0.987436 1 0 1.000000 
0 -0.530328 -0.750000 39.530331 -0.920026 -0.091231 0.381088 0.136023 -0.931075 1 0 1.000000 
0 -0.749998 -0.750000 39.000000 -0.920026 -0.091231 0.381088 0.117243 -0.931075 1 0 1.000000 
Handrail003
0 -0.530328 0.750000 39.530331 -0.920027 0.091231 0.381088 0.136023 -0.863442 1 0 1.000000 
0 -0.749998 -0.750000 39.000000 -0.920026 -0.091231 0.381088 0.117243 -0.931075 1 0 1.000000 
0 -0.530328 -0.750000 39.530331 -0.920026 -0.091231 0.381088 0.136023 -0.931075 1 0 1.000000 
Handrail003
0 -0.530328 0.750000 39.530331 -0.920027 0.091231 0.381088 0.136023 -0.863442 1 0 1.000000 
0 -0.749998 0.750000 39.000000 -0.920027 0.091231 0.381088 0.117243 -0.863442 1 0 1.000000 
0 -0.749998 -0.750000 39.000000 -0.920026 -0.091231 0.381088 0.117243 -0.931075 1 0 1.000000 
Handrail003
0 -0.353551 2.000000 39.353554 -0.908501 0.181700 0.376313 0.136023 -0.807081 1 0 1.000000 
0 -0.749998 0.750000 39.000000 -0.920027 0.091231 0.381088 0.117243 -0.863442 1 0 1.000000 
0 -0.530328 0.750000 39.530331 -0.920027 0.091231 0.381088 0.136023 -0.863442 1 0 1.000000 
Handrail003
0 -0.353551 2.000000 39.353554 -0.908501 0.181700 0.376313 0.136023 -0.807081 1 0 1.000000 
0 -0.499998 2.000000 39.000000 -0.908501 0.181700 0.376313 0.117243 -0.807081 1 0 1.000000 
0 -0.749998 0.750000 39.000000 -0.920027 0.091231 0.381088 0.117243 -0.863442 1 0 1.000000 
Handrail003
0 -0.353551 -2.000000 39.353554 -0.376313 -0.181700 0.908501 0.136023 -0.987436 1 0 1.000000 
0 0.000002 -2.000000 39.500000 -0.376313 -0.181700 0.908501 0.154804 -0.987436 1 0 1.000000 
0 0.000002 -0.750000 39.750000 -0.381088 -0.091231 0.920026 0.154804 -0.931075 1 0 1.000000 
Handrail003
0 -0.353551 -2.000000 39.353554 -0.376313 -0.181700 0.908501 0.136023 -0.987436 1 0 1.000000 
0 0.000002 -0.750000 39.750000 -0.381088 -0.091231 0.920026 0.154804 -0.931075 1 0 1.000000 
0 -0.530328 -0.750000 39.530331 -0.381088 -0.091231 0.920026 0.136023 -0.931075 1 0 1.000000 
Handrail003
0 0.000002 0.750000 39.750000 -0.381088 0.091231 0.920027 0.154804 -0.863442 1 0 1.000000 
0 -0.530328 -0.750000 39.530331 -0.381088 -0.091231 0.920026 0.136023 -0.931075 1 0 1.000000 
0 0.000002 -0.750000 39.750000 -0.381088 -0.091231 0.920026 0.154804 -0.931075 1 0 1.000000 
Handrail003
0 0.000002 0.750000 39.750000 -0.381088 0.091231 0.920027 0.154804 -0.863442 1 0 1.000000 
0 -0.530328 0.750000 39.530331 -0.381088 0.091231 0.920027 0.136023 -0.863442 1 0 1.000000 
0 -0.530328 -0.750000 39.530331 -0.381088 -0.091231 0.920026 0.136023 -0.931075 1 0 1.000000 
Handrail003
0 0.000002 2.000000 39.500000 -0.376313 0.181700 0.908501 0.154804 -0.807081 1 0 1.000000 
0 -0.530328 0.750000 39.530331 -0.381088 0.091231 0.920027 0.136023 -0.863442 1 0 1.000000 
0 0.000002 0.750000 39.750000 -0.381088 0.091231 0.920027 0.154804 -0.863442 1 0 1.000000 
Handrail003
0 0.000002 2.000000 39.500000 -0.376313 0.181700 0.908501 0.154804 -0.807081 1 0 1.000000 
0 -0.353551 2.000000 39.353554 -0.376313 0.181700 0.908501 0.136023 -0.807081 1 0 1.000000 
0 -0.530328 0.750000 39.530331 -0.381088 0.091231 0.920027 0.136023 -0.863442 1 0 1.000000 
Handrail003
0 -0.000000 32.000000 25.500000 -0.000000 1.000000 0.000000 0.135451 -0.147761 1 0 1.000000 
0 -0.500000 32.000000 25.000000 -0.000000 1.000000 0.000000 0.152693 -0.165003 1 0 1.000000 
0 -0.353553 32.000000 25.353554 -0.000000 1.000000 0.000000 0.147643 -0.152811 1 0 1.000000 
Handrail003
0 -0.000000 32.000000 25.500000 -0.000000 1.000000 0.000000 0.135451 -0.147761 1 0 1.000000 
0 -0.353553 32.000000 24.646446 -0.000000 1.000000 0.000000 0.147643 -0.177194 1 0 1.000000 
0 -0.500000 32.000000 25.000000 -0.000000 1.000000 0.000000 0.152693 -0.165003 1 0 1.000000 
Handrail003
0 -0.000000 32.000000 25.500000 -0.000000 1.000000 0.000000 0.135451 -0.147761 1 0 1.000000 
0 -0.000000 32.000000 24.500000 -0.000000 1.000000 0.000000 0.135451 -0.182244 1 0 1.000000 
0 -0.353553 32.000000 24.646446 -0.000000 1.000000 0.000000 0.147643 -0.177194 1 0 1.000000 
Handrail003
0 -0.000000 32.000000 25.500000 -0.000000 1.000000 0.000000 0.135451 -0.147761 1 0 1.000000 
0 0.353553 32.000000 24.646446 -0.000000 1.000000 0.000000 0.123260 -0.177194 1 0 1.000000 
0 -0.000000 32.000000 24.500000 -0.000000 1.000000 0.000000 0.135451 -0.182244 1 0 1.000000 
Handrail003
0 -0.000000 32.000000 25.500000 -0.000000 1.000000 0.000000 0.135451 -0.147761 1 0 1.000000 
0 0.500000 32.000000 25.000000 -0.000000 1.000000 0.000000 0.118210 -0.165003 1 0 1.000000 
0 0.353553 32.000000 24.646446 -0.000000 1.000000 0.000000 0.123260 -0.177194 1 0 1.000000 
Handrail003
0 -0.000000 32.000000 25.500000 -0.000000 1.000000 0.000000 0.135451 -0.147761 1 0 1.000000 
0 0.353553 32.000000 25.353554 -0.000000 1.000000 0.000000 0.123260 -0.152811 1 0 1.000000 
0 0.500000 32.000000 25.000000 -0.000000 1.000000 0.000000 0.118210 -0.165003 1 0 1.000000 
Handrail003
0 0.353556 -32.000000 39.353554 0.000000 -1.000000 0.000000 0.184858 -0.116957 1 0 1.000000 
0 0.353556 -32.000000 38.646446 0.000000 -1.000000 0.000000 0.184858 -0.141340 1 0 1.000000 
0 0.500003 -32.000000 39.000000 0.000000 -1.000000 0.000000 0.189908 -0.129148 1 0 1.000000 
Handrail003
0 0.353556 -32.000000 39.353554 0.000000 -1.000000 0.000000 0.184858 -0.116957 1 0 1.000000 
0 0.000003 -32.000000 38.500000 0.000000 -1.000000 0.000000 0.172667 -0.146390 1 0 1.000000 
0 0.353556 -32.000000 38.646446 0.000000 -1.000000 0.000000 0.184858 -0.141340 1 0 1.000000 
Handrail003
0 0.353556 -32.000000 39.353554 0.000000 -1.000000 0.000000 0.184858 -0.116957 1 0 1.000000 
0 -0.353550 -32.000000 38.646446 0.000000 -1.000000 0.000000 0.160475 -0.141340 1 0 1.000000 
0 0.000003 -32.000000 38.500000 0.000000 -1.000000 0.000000 0.172667 -0.146390 1 0 1.000000 
Handrail003
0 0.353556 -32.000000 39.353554 0.000000 -1.000000 0.000000 0.184858 -0.116957 1 0 1.000000 
0 -0.499997 -32.000000 39.000000 0.000000 -1.000000 0.000000 0.155425 -0.129148 1 0 1.000000 
0 -0.353550 -32.000000 38.646446 0.000000 -1.000000 0.000000 0.160475 -0.141340 1 0 1.000000 
Handrail003
0 0.353556 -32.000000 39.353554 0.000000 -1.000000 0.000000 0.184858 -0.116957 1 0 1.000000 
0 -0.353550 -32.000000 39.353554 0.000000 -1.000000 0.000000 0.160475 -0.116957 1 0 1.000000 
0 -0.499997 -32.000000 39.000000 0.000000 -1.000000 0.000000 0.155425 -0.129148 1 0 1.000000 
Handrail003
0 0.353556 -32.000000 39.353554 0.000000 -1.000000 0.000000 0.184858 -0.116957 1 0 1.000000 
0 0.000003 -32.000000 39.500000 0.000000 -1.000000 0.000000 0.172667 -0.111907 1 0 1.000000 
0 -0.353550 -32.000000 39.353554 0.000000 -1.000000 0.000000 0.160475 -0.116957 1 0 1.000000 
Handrail003
0 0.000001 32.000000 39.500000 -0.000000 1.000000 0.000000 0.135451 -0.111907 1 0 1.000000 
0 -0.499999 32.000000 39.000000 -0.000000 1.000000 0.000000 0.152693 -0.129148 1 0 1.000000 
0 -0.353552 32.000000 39.353554 -0.000000 1.000000 0.000000 0.147643 -0.116957 1 0 1.000000 
Handrail003
0 0.000001 32.000000 39.500000 -0.000000 1.000000 0.000000 0.135451 -0.111907 1 0 1.000000 
0 -0.353552 32.000000 38.646446 -0.000000 1.000000 0.000000 0.147643 -0.141340 1 0 1.000000 
0 -0.499999 32.000000 39.000000 -0.000000 1.000000 0.000000 0.152693 -0.129148 1 0 1.000000 
Handrail003
0 0.000001 32.000000 39.500000 -0.000000 1.000000 0.000000 0.135451 -0.111907 1 0 1.000000 
0 0.000001 32.000000 38.500000 -0.000000 1.000000 0.000000 0.135451 -0.146390 1 0 1.000000 
0 -0.353552 32.000000 38.646446 -0.000000 1.000000 0.000000 0.147643 -0.141340 1 0 1.000000 
Handrail003
0 0.000001 32.000000 39.500000 -0.000000 1.000000 0.000000 0.135451 -0.111907 1 0 1.000000 
0 0.353554 32.000000 38.646446 -0.000000 1.000000 0.000000 0.123260 -0.141340 1 0 1.000000 
0 0.000001 32.000000 38.500000 -0.000000 1.000000 0.000000 0.135451 -0.146390 1 0 1.000000 
Handrail003
0 0.000001 32.000000 39.500000 -0.000000 1.000000 0.000000 0.135451 -0.111907 1 0 1.000000 
0 0.500001 32.000000 39.000000 -0.000000 1.000000 0.000000 0.118210 -0.129148 1 0 1.000000 
0 0.353554 32.000000 38.646446 -0.000000 1.000000 0.000000 0.123260 -0.141340 1 0 1.000000 
Handrail003
0 0.000001 32.000000 39.500000 -0.000000 1.000000 0.000000 0.135451 -0.111907 1 0 1.000000 
0 0.353554 32.000000 39.353554 -0.000000 1.000000 0.000000 0.123260 -0.116957 1 0 1.000000 
0 0.500001 32.000000 39.000000 -0.000000 1.000000 0.000000 0.118210 -0.129148 1 0 1.000000 
Handrail003
0 0.353555 -32.000000 25.353554 0.000000 -1.000000 0.000000 0.184858 -0.152811 1 0 1.000000 
0 0.353555 -32.000000 24.646446 0.000000 -1.000000 0.000000 0.184858 -0.177194 1 0 1.000000 
0 0.500002 -32.000000 25.000000 0.000000 -1.000000 0.000000 0.189908 -0.165003 1 0 1.000000 
Handrail003
0 0.353555 -32.000000 25.353554 0.000000 -1.000000 0.000000 0.184858 -0.152811 1 0 1.000000 
0 0.000002 -32.000000 24.500000 0.000000 -1.000000 0.000000 0.172667 -0.182244 1 0 1.000000 
0 0.353555 -32.000000 24.646446 0.000000 -1.000000 0.000000 0.184858 -0.177194 1 0 1.000000 
Handrail003
0 0.353555 -32.000000 25.353554 0.000000 -1.000000 0.000000 0.184858 -0.152811 1 0 1.000000 
0 -0.353551 -32.000000 24.646446 0.000000 -1.000000 0.000000 0.160475 -0.177194 1 0 1.000000 
0 0.000002 -32.000000 24.500000 0.000000 -1.000000 0.000000 0.172667 -0.182244 1 0 1.000000 
Handrail003
0 0.353555 -32.000000 25.353554 0.000000 -1.000000 0.000000 0.184858 -0.152811 1 0 1.000000 
0 -0.499998 -32.000000 25.000000 0.000000 -1.000000 0.000000 0.155425 -0.165003 1 0 1.000000 
0 -0.353551 -32.000000 24.646446 0.000000 -1.000000 0.000000 0.160475 -0.177194 1 0 1.000000 
Handrail003
0 0.353555 -32.000000 25.353554 0.000000 -1.000000 0.000000 0.184858 -0.152811 1 0 1.000000 
0 -0.353551 -32.000000 25.353554 0.000000 -1.000000 0.000000 0.160475 -0.152811 1 0 1.000000 
0 -0.499998 -32.000000 25.000000 0.000000 -1.000000 0.000000 0.155425 -0.165003 1 0 1.000000 
Handrail003
0 0.353555 -32.000000 25.353554 0.000000 -1.000000 0.000000 0.184858 -0.152811 1 0 1.000000 
0 0.000002 -32.000000 25.500000 0.000000 -1.000000 0.000000 0.172667 -0.147761 1 0 1.000000 
0 -0.353551 -32.000000 25.353554 0.000000 -1.000000 0.000000 0.160475 -0.152811 1 0 1.000000 
Handrail003
0 0.353555 -32.000000 11.353554 0.000000 -1.000000 0.000000 0.184858 -0.189831 1 0 1.000000 
0 0.353554 -32.000000 10.646446 0.000000 -1.000000 0.000000 0.184858 -0.214214 1 0 1.000000 
0 0.500001 -32.000000 11.000000 0.000000 -1.000000 0.000000 0.189908 -0.202023 1 0 1.000000 
Handrail003
0 0.353555 -32.000000 11.353554 0.000000 -1.000000 0.000000 0.184858 -0.189831 1 0 1.000000 
0 0.000001 -32.000000 10.500000 0.000000 -1.000000 0.000000 0.172667 -0.219264 1 0 1.000000 
0 0.353554 -32.000000 10.646446 0.000000 -1.000000 0.000000 0.184858 -0.214214 1 0 1.000000 
Handrail003
0 0.353555 -32.000000 11.353554 0.000000 -1.000000 0.000000 0.184858 -0.189831 1 0 1.000000 
0 -0.353552 -32.000000 10.646446 0.000000 -1.000000 0.000000 0.160475 -0.214214 1 0 1.000000 
0 0.000001 -32.000000 10.500000 0.000000 -1.000000 0.000000 0.172667 -0.219264 1 0 1.000000 
Handrail003
0 0.353555 -32.000000 11.353554 0.000000 -1.000000 0.000000 0.184858 -0.189831 1 0 1.000000 
0 -0.499999 -32.000000 11.000000 0.000000 -1.000000 0.000000 0.155425 -0.202023 1 0 1.000000 
0 -0.353552 -32.000000 10.646446 0.000000 -1.000000 0.000000 0.160475 -0.214214 1 0 1.000000 
Handrail003
0 0.353555 -32.000000 11.353554 0.000000 -1.000000 0.000000 0.184858 -0.189831 1 0 1.000000 
0 -0.353551 -32.000000 11.353554 0.000000 -1.000000 0.000000 0.160475 -0.189831 1 0 1.000000 
0 -0.499999 -32.000000 11.000000 0.000000 -1.000000 0.000000 0.155425 -0.202023 1 0 1.000000 
Handrail003
0 0.353555 -32.000000 11.353554 0.000000 -1.000000 0.000000 0.184858 -0.189831 1 0 1.000000 
0 0.000002 -32.000000 11.500000 0.000000 -1.000000 0.000000 0.172667 -0.184781 1 0 1.000000 
0 -0.353551 -32.000000 11.353554 0.000000 -1.000000 0.000000 0.160475 -0.189831 1 0 1.000000 
end
