version 1
nodes
  0 "static_prop" -1
end
skeleton
time 0
0 0.000000 0.000000 0.000000 0.000000 0.000000 0.000000
end
triangles
Oil_Drum001a
0 -5.758201 20.915701 12.486500 0.355199 0.927198 0.118900 0.998000 -0.154400 1 0 1.000000 
0 -8.864701 20.915701 21.770800 0.355199 0.927198 0.118900 0.998000 -0.004000 1 0 1.000000 
0 -8.466801 20.711800 22.172100 0.355199 0.927198 0.118900 0.998000 -0.004000 1 0 1.000000 
Oil_Drum001a
0 7.553900 1.537900 21.047199 0.042402 -0.997942 -0.048102 0.556100 -0.002300 1 0 1.000000 
0 11.607100 2.177500 11.332900 0.042902 -0.997935 -0.047802 0.556100 -0.152800 1 0 1.000000 
0 12.163900 2.177901 11.823700 0.042402 -0.997942 -0.048102 0.556100 -0.152800 1 0 1.000000 
Oil_Drum001a
0 12.163900 2.177901 11.823700 0.042402 -0.997942 -0.048102 0.556100 -0.152800 1 0 1.000000 
0 8.135300 1.550300 21.301600 0.042402 -0.997942 -0.048102 0.556100 -0.002300 1 0 1.000000 
0 7.553900 1.537900 21.047199 0.042402 -0.997942 -0.048102 0.556100 -0.002300 1 0 1.000000 
Oil_Drum001a
0 -5.411101 20.721701 13.120100 0.365478 -0.910445 0.193688 0.998000 -0.154400 1 0 1.000000 
0 -9.640100 18.463699 10.485900 0.806484 -0.201696 -0.555789 0.943000 -0.161200 1 0 1.000000 
0 -4.877501 20.695000 12.833400 0.550115 -0.707519 -0.443612 0.998000 -0.161300 1 0 1.000000 
Oil_Drum001a
0 -5.411101 20.721701 13.120100 0.365478 -0.910445 0.193688 0.998000 -0.154400 1 0 1.000000 
0 -9.982100 18.226601 10.927200 0.737177 0.137896 0.661479 0.943000 -0.154400 1 0 1.000000 
0 -9.640100 18.463699 10.485900 0.806484 -0.201696 -0.555789 0.943000 -0.161200 1 0 1.000000 
Oil_Drum001a
0 -9.982100 18.226601 10.927200 0.737177 0.137896 0.661479 0.943000 -0.154400 1 0 1.000000 
0 -6.526700 15.462400 10.852000 0.517406 0.760209 -0.392904 0.887900 -0.161000 1 0 1.000000 
0 -9.640100 18.463699 10.485900 0.806484 -0.201696 -0.555789 0.943000 -0.161200 1 0 1.000000 
Oil_Drum001a
0 -9.982100 18.226601 10.927200 0.737177 0.137896 0.661479 0.943000 -0.154400 1 0 1.000000 
0 -6.773601 15.122100 11.293200 0.258313 0.677435 0.688735 0.887900 -0.154200 1 0 1.000000 
0 -6.526700 15.462400 10.852000 0.517406 0.760209 -0.392904 0.887900 -0.161000 1 0 1.000000 
Oil_Drum001a
0 -6.773601 15.122100 11.293200 0.258313 0.677435 0.688735 0.887900 -0.154200 1 0 1.000000 
0 -2.560901 14.652700 10.852000 0.454898 0.829396 -0.324299 0.832700 -0.160800 1 0 1.000000 
0 -6.526700 15.462400 10.852000 0.517406 0.760209 -0.392904 0.887900 -0.161000 1 0 1.000000 
Oil_Drum001a
0 -6.773601 15.122100 11.293200 0.258313 0.677435 0.688735 0.887900 -0.154200 1 0 1.000000 
0 -2.706001 14.250300 11.293200 0.289007 0.681616 0.672216 0.832800 -0.153900 1 0 1.000000 
0 -2.560901 14.652700 10.852000 0.454898 0.829396 -0.324299 0.832700 -0.160800 1 0 1.000000 
Oil_Drum001a
0 -2.706001 14.250300 11.293200 0.289007 0.681616 0.672216 0.832800 -0.153900 1 0 1.000000 
0 1.038400 9.955400 13.610600 0.585295 0.787393 -0.193498 0.777500 -0.160400 1 0 1.000000 
0 -2.560901 14.652700 10.852000 0.454898 0.829396 -0.324299 0.832700 -0.160800 1 0 1.000000 
Oil_Drum001a
0 -2.706001 14.250300 11.293200 0.289007 0.681616 0.672216 0.832800 -0.153900 1 0 1.000000 
0 1.093800 9.521900 14.051800 0.145898 0.722790 0.675491 0.777600 -0.153600 1 0 1.000000 
0 1.038400 9.955400 13.610600 0.585295 0.787393 -0.193498 0.777500 -0.160400 1 0 1.000000 
Oil_Drum001a
0 1.093800 9.521900 14.051800 0.145898 0.722790 0.675491 0.777600 -0.153600 1 0 1.000000 
0 5.625299 11.640800 11.702800 -0.244109 0.872331 -0.423615 0.722200 -0.160100 1 0 1.000000 
0 1.038400 9.955400 13.610600 0.585295 0.787393 -0.193498 0.777500 -0.160400 1 0 1.000000 
Oil_Drum001a
0 1.093800 9.521900 14.051800 0.145898 0.722790 0.675491 0.777600 -0.153600 1 0 1.000000 
0 5.432199 11.238000 12.144000 0.364500 0.589199 0.721099 0.722300 -0.153300 1 0 1.000000 
0 5.625299 11.640800 11.702800 -0.244109 0.872331 -0.423615 0.722200 -0.160100 1 0 1.000000 
Oil_Drum001a
0 5.432199 11.238000 12.144000 0.364500 0.589199 0.721099 0.722300 -0.153300 1 0 1.000000 
0 10.197000 8.908500 10.191600 0.484409 0.824315 -0.293005 0.666900 -0.159800 1 0 1.000000 
0 5.625299 11.640800 11.702800 -0.244109 0.872331 -0.423615 0.722200 -0.160100 1 0 1.000000 
Oil_Drum001a
0 5.432199 11.238000 12.144000 0.364500 0.589199 0.721099 0.722300 -0.153300 1 0 1.000000 
0 9.861000 8.601200 10.632800 0.503884 0.493984 0.708577 0.666900 -0.153000 1 0 1.000000 
0 10.197000 8.908500 10.191600 0.484409 0.824315 -0.293005 0.666900 -0.159800 1 0 1.000000 
Oil_Drum001a
0 9.861000 8.601200 10.632800 0.503884 0.493984 0.708577 0.666900 -0.153000 1 0 1.000000 
0 12.929200 4.819400 11.211200 0.895925 0.258407 -0.361310 0.611500 -0.159600 1 0 1.000000 
0 10.197000 8.908500 10.191600 0.484409 0.824315 -0.293005 0.666900 -0.159800 1 0 1.000000 
Oil_Drum001a
0 9.861000 8.601200 10.632800 0.503884 0.493984 0.708577 0.666900 -0.153000 1 0 1.000000 
0 12.497800 4.654901 11.652400 0.665280 0.151896 0.730978 0.611500 -0.152800 1 0 1.000000 
0 12.929200 4.819400 11.211200 0.895925 0.258407 -0.361310 0.611500 -0.159600 1 0 1.000000 
Oil_Drum001a
0 12.497800 4.654901 11.652400 0.665280 0.151896 0.730978 0.611500 -0.152800 1 0 1.000000 
0 12.628900 2.173800 11.382400 0.927564 -0.142594 -0.345387 0.556100 -0.159600 1 0 1.000000 
0 12.929200 4.819400 11.211200 0.895925 0.258407 -0.361310 0.611500 -0.159600 1 0 1.000000 
Oil_Drum001a
0 12.497800 4.654901 11.652400 0.665280 0.151896 0.730978 0.611500 -0.152800 1 0 1.000000 
0 12.163900 2.177901 11.823700 0.687517 -0.042601 0.724918 0.556100 -0.152800 1 0 1.000000 
0 12.628900 2.173800 11.382400 0.927564 -0.142594 -0.345387 0.556100 -0.159600 1 0 1.000000 
Oil_Drum001a
0 12.163900 2.177901 11.823700 0.919602 -0.123300 0.373001 0.556100 -0.152800 1 0 1.000000 
0 9.365300 4.667000 19.545601 0.920992 0.119199 0.370897 0.611700 -0.002400 1 0 1.000000 
0 8.135300 1.550300 21.301600 0.913753 -0.147309 0.378622 0.556100 -0.002300 1 0 1.000000 
Oil_Drum001a
0 12.163900 2.177901 11.823700 0.919602 -0.123300 0.373001 0.556100 -0.152800 1 0 1.000000 
0 12.497800 4.654901 11.652400 0.861238 0.376617 0.341215 0.611500 -0.152800 1 0 1.000000 
0 9.365300 4.667000 19.545601 0.920992 0.119199 0.370897 0.611700 -0.002400 1 0 1.000000 
Oil_Drum001a
0 12.497800 4.654901 11.652400 0.861238 0.376617 0.341215 0.611500 -0.152800 1 0 1.000000 
0 6.728499 8.613200 18.525999 0.849316 0.406808 0.336406 0.667300 -0.002600 1 0 1.000000 
0 9.365300 4.667000 19.545601 0.920992 0.119199 0.370897 0.611700 -0.002400 1 0 1.000000 
Oil_Drum001a
0 12.497800 4.654901 11.652400 0.861238 0.376617 0.341215 0.611500 -0.152800 1 0 1.000000 
0 9.861000 8.601200 10.632800 0.809630 0.533220 0.245309 0.666900 -0.153000 1 0 1.000000 
0 6.728499 8.613200 18.525999 0.849316 0.406808 0.336406 0.667300 -0.002600 1 0 1.000000 
Oil_Drum001a
0 9.861000 8.601200 10.632800 0.809630 0.533220 0.245309 0.666900 -0.153000 1 0 1.000000 
0 5.456800 11.250000 21.697800 0.505695 0.845291 0.172498 0.722700 -0.002800 1 0 1.000000 
0 6.728499 8.613200 18.525999 0.849316 0.406808 0.336406 0.667300 -0.002600 1 0 1.000000 
Oil_Drum001a
0 9.861000 8.601200 10.632800 0.809630 0.533220 0.245309 0.666900 -0.153000 1 0 1.000000 
0 5.432199 11.238000 12.144000 -0.082102 0.996623 -0.001200 0.722300 -0.153300 1 0 1.000000 
0 5.456800 11.250000 21.697800 0.505695 0.845291 0.172498 0.722700 -0.002800 1 0 1.000000 
Oil_Drum001a
0 5.432199 11.238000 12.144000 -0.082102 0.996623 -0.001200 0.722300 -0.153300 1 0 1.000000 
0 1.115700 9.538200 23.605600 0.017801 0.999840 -0.001500 0.778000 -0.003200 1 0 1.000000 
0 5.456800 11.250000 21.697800 0.505695 0.845291 0.172498 0.722700 -0.002800 1 0 1.000000 
Oil_Drum001a
0 5.432199 11.238000 12.144000 -0.082102 0.996623 -0.001200 0.722300 -0.153300 1 0 1.000000 
0 1.093800 9.521900 14.051800 0.479082 0.877767 -0.002200 0.777600 -0.153600 1 0 1.000000 
0 1.115700 9.538200 23.605600 0.017801 0.999840 -0.001500 0.778000 -0.003200 1 0 1.000000 
Oil_Drum001a
0 1.093800 9.521900 14.051800 0.479082 0.877767 -0.002200 0.777600 -0.153600 1 0 1.000000 
0 -2.679401 14.244000 20.847099 0.620392 0.784290 -0.001600 0.833200 -0.003500 1 0 1.000000 
0 1.115700 9.538200 23.605600 0.017801 0.999840 -0.001500 0.778000 -0.003200 1 0 1.000000 
Oil_Drum001a
0 1.093800 9.521900 14.051800 0.479082 0.877767 -0.002200 0.777600 -0.153600 1 0 1.000000 
0 -2.706001 14.250300 11.293200 0.420009 0.907520 0.000100 0.832800 -0.153900 1 0 1.000000 
0 -2.679401 14.244000 20.847099 0.620392 0.784290 -0.001600 0.833200 -0.003500 1 0 1.000000 
Oil_Drum001a
0 -2.706001 14.250300 11.293200 0.420009 0.907520 0.000100 0.832800 -0.153900 1 0 1.000000 
0 -6.757101 15.100300 20.847099 0.382193 0.924082 0.000800 0.888200 -0.003700 1 0 1.000000 
0 -2.679401 14.244000 20.847099 0.620392 0.784290 -0.001600 0.833200 -0.003500 1 0 1.000000 
Oil_Drum001a
0 -2.706001 14.250300 11.293200 0.420009 0.907520 0.000100 0.832800 -0.153900 1 0 1.000000 
0 -6.773601 15.122100 11.293200 0.551187 0.834380 0.001600 0.887900 -0.154200 1 0 1.000000 
0 -6.757101 15.100300 20.847099 0.382193 0.924082 0.000800 0.888200 -0.003700 1 0 1.000000 
Oil_Drum001a
0 -6.773601 15.122100 11.293200 0.551187 0.834380 0.001600 0.887900 -0.154200 1 0 1.000000 
0 -9.984901 18.199400 20.481001 0.924734 0.380614 0.000600 0.943200 -0.003900 1 0 1.000000 
0 -6.757101 15.100300 20.847099 0.382193 0.924082 0.000800 0.888200 -0.003700 1 0 1.000000 
Oil_Drum001a
0 -6.773601 15.122100 11.293200 0.551187 0.834380 0.001600 0.887900 -0.154200 1 0 1.000000 
0 -9.982100 18.226601 10.927200 0.941186 -0.330995 0.067899 0.943000 -0.154400 1 0 1.000000 
0 -9.984901 18.199400 20.481001 0.924734 0.380614 0.000600 0.943200 -0.003900 1 0 1.000000 
Oil_Drum001a
0 -9.982100 18.226601 10.927200 0.941186 -0.330995 0.067899 0.943000 -0.154400 1 0 1.000000 
0 -8.466801 20.711800 22.172100 0.668970 -0.739667 0.073297 0.998000 -0.004000 1 0 1.000000 
0 -9.984901 18.199400 20.481001 0.924734 0.380614 0.000600 0.943200 -0.003900 1 0 1.000000 
Oil_Drum001a
0 -9.982100 18.226601 10.927200 0.941186 -0.330995 0.067899 0.943000 -0.154400 1 0 1.000000 
0 -5.411101 20.721701 13.120100 0.421203 -0.895907 0.141201 0.998000 -0.154400 1 0 1.000000 
0 -8.466801 20.711800 22.172100 0.668970 -0.739667 0.073297 0.998000 -0.004000 1 0 1.000000 
Oil_Drum001a
0 -5.758201 20.915701 12.486500 -0.483297 0.860394 -0.161699 0.998000 -0.154400 1 0 1.000000 
0 -10.437401 17.901899 10.436400 -0.957041 0.280112 -0.074903 0.943000 -0.154400 1 0 1.000000 
0 -8.864701 20.915701 21.770800 -0.716715 0.692215 -0.084602 0.998000 -0.004000 1 0 1.000000 
Oil_Drum001a
0 -8.864701 20.915701 21.770800 -0.716715 0.692215 -0.084602 0.998000 -0.004000 1 0 1.000000 
0 -10.437401 17.901899 10.436400 -0.957041 0.280112 -0.074903 0.943000 -0.154400 1 0 1.000000 
0 -10.437401 17.901899 20.226601 -0.919372 -0.393388 0.000000 0.943200 -0.003900 1 0 1.000000 
Oil_Drum001a
0 -10.437401 17.901899 10.436400 -0.957041 0.280112 -0.074903 0.943000 -0.154400 1 0 1.000000 
0 -7.085801 14.658300 10.802500 -0.554792 -0.831989 0.000000 0.887900 -0.154200 1 0 1.000000 
0 -10.437401 17.901899 20.226601 -0.919372 -0.393388 0.000000 0.943200 -0.003900 1 0 1.000000 
Oil_Drum001a
0 -10.437401 17.901899 20.226601 -0.919372 -0.393388 0.000000 0.943200 -0.003900 1 0 1.000000 
0 -7.085801 14.658300 10.802500 -0.554792 -0.831989 0.000000 0.887900 -0.154200 1 0 1.000000 
0 -7.085801 14.658300 20.592699 -0.390211 -0.920725 0.000000 0.888200 -0.003700 1 0 1.000000 
Oil_Drum001a
0 -7.085801 14.658300 10.802500 -0.554792 -0.831989 0.000000 0.887900 -0.154200 1 0 1.000000 
0 -2.868501 13.715600 10.802500 -0.417409 -0.908719 0.000000 0.832800 -0.153900 1 0 1.000000 
0 -7.085801 14.658300 20.592699 -0.390211 -0.920725 0.000000 0.888200 -0.003700 1 0 1.000000 
Oil_Drum001a
0 -7.085801 14.658300 20.592699 -0.390211 -0.920725 0.000000 0.888200 -0.003700 1 0 1.000000 
0 -2.868501 13.715600 10.802500 -0.417409 -0.908719 0.000000 0.832800 -0.153900 1 0 1.000000 
0 -2.868501 13.715600 20.592699 -0.606317 -0.795223 0.000000 0.833200 -0.003500 1 0 1.000000 
Oil_Drum001a
0 -2.868501 13.715600 10.802500 -0.417409 -0.908719 0.000000 0.832800 -0.153900 1 0 1.000000 
0 1.196700 8.973100 13.561100 -0.553823 -0.832634 0.000000 0.777600 -0.153600 1 0 1.000000 
0 -2.868501 13.715600 20.592699 -0.606317 -0.795223 0.000000 0.833200 -0.003500 1 0 1.000000 
Oil_Drum001a
0 -2.868501 13.715600 20.592699 -0.606317 -0.795223 0.000000 0.833200 -0.003500 1 0 1.000000 
0 1.196700 8.973100 13.561100 -0.553823 -0.832634 0.000000 0.777600 -0.153600 1 0 1.000000 
0 1.196700 8.973100 23.351299 -0.129396 -0.990673 0.042699 0.778000 -0.003200 1 0 1.000000 
Oil_Drum001a
0 1.196700 8.973100 13.561100 -0.553823 -0.832634 0.000000 0.777600 -0.153600 1 0 1.000000 
0 3.684900 8.942100 13.124200 0.141300 -0.983803 0.110300 0.722300 -0.153300 1 0 1.000000 
0 1.196700 8.973100 23.351299 -0.129396 -0.990673 0.042699 0.778000 -0.003200 1 0 1.000000 
Oil_Drum001a
0 1.196700 8.973100 23.351299 -0.129396 -0.990673 0.042699 0.778000 -0.003200 1 0 1.000000 
0 3.684900 8.942100 13.124200 0.141300 -0.983803 0.110300 0.722300 -0.153300 1 0 1.000000 
0 5.219900 10.722100 21.443501 -0.268512 -0.963043 -0.021201 0.722700 -0.002800 1 0 1.000000 
Oil_Drum001a
0 3.684900 8.942100 13.124200 0.141300 -0.983803 0.110300 0.722300 -0.153300 1 0 1.000000 
0 9.467600 8.206200 10.142000 -0.734320 -0.651318 -0.191205 0.666900 -0.153000 1 0 1.000000 
0 5.219900 10.722100 21.443501 -0.268512 -0.963043 -0.021201 0.722700 -0.002800 1 0 1.000000 
Oil_Drum001a
0 5.219900 10.722100 21.443501 -0.268512 -0.963043 -0.021201 0.722700 -0.002800 1 0 1.000000 
0 9.467600 8.206200 10.142000 -0.734320 -0.651318 -0.191205 0.666900 -0.153000 1 0 1.000000 
0 6.310500 8.206200 18.271601 -0.857493 -0.392197 -0.332997 0.667300 -0.002600 1 0 1.000000 
Oil_Drum001a
0 9.467600 8.206200 10.142000 -0.734320 -0.651318 -0.191205 0.666900 -0.153000 1 0 1.000000 
0 11.983500 4.441000 11.161700 -0.865839 -0.370517 -0.336215 0.611500 -0.152800 1 0 1.000000 
0 6.310500 8.206200 18.271601 -0.857493 -0.392197 -0.332997 0.667300 -0.002600 1 0 1.000000 
Oil_Drum001a
0 6.310500 8.206200 18.271601 -0.857493 -0.392197 -0.332997 0.667300 -0.002600 1 0 1.000000 
0 11.983500 4.441000 11.161700 -0.865839 -0.370517 -0.336215 0.611500 -0.152800 1 0 1.000000 
0 8.826400 4.441000 19.291300 -0.925687 -0.100499 -0.364695 0.611700 -0.002400 1 0 1.000000 
Oil_Drum001a
0 11.983500 4.441000 11.161700 -0.865839 -0.370517 -0.336215 0.611500 -0.152800 1 0 1.000000 
0 11.607100 2.177500 11.332900 -0.918885 0.151698 -0.364194 0.556100 -0.152800 1 0 1.000000 
0 8.826400 4.441000 19.291300 -0.925687 -0.100499 -0.364695 0.611700 -0.002400 1 0 1.000000 
Oil_Drum001a
0 8.826400 4.441000 19.291300 -0.925687 -0.100499 -0.364695 0.611700 -0.002400 1 0 1.000000 
0 11.607100 2.177500 11.332900 -0.918885 0.151698 -0.364194 0.556100 -0.152800 1 0 1.000000 
0 7.553900 1.537900 21.047199 -0.912431 0.176706 -0.369113 0.556100 -0.002300 1 0 1.000000 
Oil_Drum001a
0 8.135300 1.550300 21.301600 -0.342097 0.560096 0.754494 0.556100 -0.002300 1 0 1.000000 
0 9.365300 4.667000 19.545601 -0.454489 0.393790 0.798980 0.611700 -0.002400 1 0 1.000000 
0 7.553900 1.537900 21.047199 -0.441123 0.582831 0.682436 0.556100 -0.002300 1 0 1.000000 
Oil_Drum001a
0 8.826400 4.441000 19.291300 -0.500801 0.171500 0.848402 0.611700 -0.002400 1 0 1.000000 
0 7.553900 1.537900 21.047199 -0.441123 0.582831 0.682436 0.556100 -0.002300 1 0 1.000000 
0 9.365300 4.667000 19.545601 -0.454489 0.393790 0.798980 0.611700 -0.002400 1 0 1.000000 
Oil_Drum001a
0 9.365300 4.667000 19.545601 -0.454489 0.393790 0.798980 0.611700 -0.002400 1 0 1.000000 
0 6.728499 8.613200 18.525999 -0.232095 -0.300594 0.925081 0.667300 -0.002600 1 0 1.000000 
0 8.826400 4.441000 19.291300 -0.500801 0.171500 0.848402 0.611700 -0.002400 1 0 1.000000 
Oil_Drum001a
0 6.310500 8.206200 18.271601 0.134597 -0.509990 0.849584 0.667300 -0.002600 1 0 1.000000 
0 8.826400 4.441000 19.291300 -0.500801 0.171500 0.848402 0.611700 -0.002400 1 0 1.000000 
0 6.728499 8.613200 18.525999 -0.232095 -0.300594 0.925081 0.667300 -0.002600 1 0 1.000000 
Oil_Drum001a
0 6.728499 8.613200 18.525999 -0.232095 -0.300594 0.925081 0.667300 -0.002600 1 0 1.000000 
0 5.456800 11.250000 21.697800 0.444896 -0.602195 0.662894 0.722700 -0.002800 1 0 1.000000 
0 6.310500 8.206200 18.271601 0.134597 -0.509990 0.849584 0.667300 -0.002600 1 0 1.000000 
Oil_Drum001a
0 5.219900 10.722100 21.443501 0.529513 -0.468011 0.707517 0.722700 -0.002800 1 0 1.000000 
0 6.310500 8.206200 18.271601 0.134597 -0.509990 0.849584 0.667300 -0.002600 1 0 1.000000 
0 5.456800 11.250000 21.697800 0.444896 -0.602195 0.662894 0.722700 -0.002800 1 0 1.000000 
Oil_Drum001a
0 5.456800 11.250000 21.697800 0.444896 -0.602195 0.662894 0.722700 -0.002800 1 0 1.000000 
0 1.115700 9.538200 23.605600 0.097902 -0.509610 0.854817 0.778000 -0.003200 1 0 1.000000 
0 5.219900 10.722100 21.443501 0.529513 -0.468011 0.707517 0.722700 -0.002800 1 0 1.000000 
Oil_Drum001a
0 1.196700 8.973100 23.351299 -0.391404 -0.317504 0.863709 0.778000 -0.003200 1 0 1.000000 
0 5.219900 10.722100 21.443501 0.529513 -0.468011 0.707517 0.722700 -0.002800 1 0 1.000000 
0 1.115700 9.538200 23.605600 0.097902 -0.509610 0.854817 0.778000 -0.003200 1 0 1.000000 
Oil_Drum001a
0 1.115700 9.538200 23.605600 0.097902 -0.509610 0.854817 0.778000 -0.003200 1 0 1.000000 
0 -2.679401 14.244000 20.847099 -0.548568 -0.313382 0.775155 0.833200 -0.003500 1 0 1.000000 
0 1.196700 8.973100 23.351299 -0.391404 -0.317504 0.863709 0.778000 -0.003200 1 0 1.000000 
Oil_Drum001a
0 -2.868501 13.715600 20.592699 -0.293391 -0.341090 0.893073 0.833200 -0.003500 1 0 1.000000 
0 1.196700 8.973100 23.351299 -0.391404 -0.317504 0.863709 0.778000 -0.003200 1 0 1.000000 
0 -2.679401 14.244000 20.847099 -0.548568 -0.313382 0.775155 0.833200 -0.003500 1 0 1.000000 
Oil_Drum001a
0 -2.679401 14.244000 20.847099 -0.548568 -0.313382 0.775155 0.833200 -0.003500 1 0 1.000000 
0 -6.757101 15.100300 20.847099 -0.179905 -0.372510 0.910423 0.888200 -0.003700 1 0 1.000000 
0 -2.868501 13.715600 20.592699 -0.293391 -0.341090 0.893073 0.833200 -0.003500 1 0 1.000000 
Oil_Drum001a
0 -7.085801 14.658300 20.592699 -0.266607 -0.320308 0.909023 0.888200 -0.003700 1 0 1.000000 
0 -2.868501 13.715600 20.592699 -0.293391 -0.341090 0.893073 0.833200 -0.003500 1 0 1.000000 
0 -6.757101 15.100300 20.847099 -0.179905 -0.372510 0.910423 0.888200 -0.003700 1 0 1.000000 
Oil_Drum001a
0 -6.757101 15.100300 20.847099 -0.179905 -0.372510 0.910423 0.888200 -0.003700 1 0 1.000000 
0 -9.984901 18.199400 20.481001 -0.290590 -0.332089 0.897371 0.943200 -0.003900 1 0 1.000000 
0 -7.085801 14.658300 20.592699 -0.266607 -0.320308 0.909023 0.888200 -0.003700 1 0 1.000000 
Oil_Drum001a
0 -10.437401 17.901899 20.226601 -0.428581 -0.252989 0.867361 0.943200 -0.003900 1 0 1.000000 
0 -7.085801 14.658300 20.592699 -0.266607 -0.320308 0.909023 0.888200 -0.003700 1 0 1.000000 
0 -9.984901 18.199400 20.481001 -0.290590 -0.332089 0.897371 0.943200 -0.003900 1 0 1.000000 
Oil_Drum001a
0 -9.984901 18.199400 20.481001 -0.290590 -0.332089 0.897371 0.943200 -0.003900 1 0 1.000000 
0 -8.466801 20.711800 22.172100 -0.473197 -0.252499 0.843995 0.998000 -0.004000 1 0 1.000000 
0 -10.437401 17.901899 20.226601 -0.428581 -0.252989 0.867361 0.943200 -0.003900 1 0 1.000000 
Oil_Drum001a
0 -8.864701 20.915701 21.770800 -0.708184 0.007800 0.705984 0.998000 -0.004000 1 0 1.000000 
0 -10.437401 17.901899 20.226601 -0.428581 -0.252989 0.867361 0.943200 -0.003900 1 0 1.000000 
0 -8.466801 20.711800 22.172100 -0.473197 -0.252499 0.843995 0.998000 -0.004000 1 0 1.000000 
Oil_Drum001a
0 -4.877501 20.695000 12.833400 0.550115 -0.707519 -0.443612 0.998000 -0.154400 1 0 1.000000 
0 -9.640100 18.463699 10.485900 0.806484 -0.201696 -0.555789 0.943000 -0.154400 1 0 1.000000 
0 -5.758201 20.915701 12.486500 -0.150995 0.757376 -0.635280 0.998000 -0.154400 1 0 1.000000 
Oil_Drum001a
0 -10.437401 17.901899 10.436400 -0.190796 0.373293 -0.907882 0.943000 -0.154400 1 0 1.000000 
0 -5.758201 20.915701 12.486500 -0.150995 0.757376 -0.635280 0.998000 -0.154400 1 0 1.000000 
0 -9.640100 18.463699 10.485900 0.806484 -0.201696 -0.555789 0.943000 -0.154400 1 0 1.000000 
Oil_Drum001a
0 -9.640100 18.463699 10.485900 0.806484 -0.201696 -0.555789 0.943000 -0.154400 1 0 1.000000 
0 -6.526700 15.462400 10.852000 0.517406 0.760209 -0.392904 0.887900 -0.154200 1 0 1.000000 
0 -10.437401 17.901899 10.436400 -0.190796 0.373293 -0.907882 0.943000 -0.154400 1 0 1.000000 
Oil_Drum001a
0 -7.085801 14.658300 10.802500 0.040898 0.031599 -0.998663 0.887900 -0.154200 1 0 1.000000 
0 -10.437401 17.901899 10.436400 -0.190796 0.373293 -0.907882 0.943000 -0.154400 1 0 1.000000 
0 -6.526700 15.462400 10.852000 0.517406 0.760209 -0.392904 0.887900 -0.154200 1 0 1.000000 
Oil_Drum001a
0 -6.526700 15.462400 10.852000 0.517406 0.760209 -0.392904 0.887900 -0.154200 1 0 1.000000 
0 -2.560901 14.652700 10.852000 0.454898 0.829396 -0.324299 0.832800 -0.153900 1 0 1.000000 
0 -7.085801 14.658300 10.802500 0.040898 0.031599 -0.998663 0.887900 -0.154200 1 0 1.000000 
Oil_Drum001a
0 -2.868501 13.715600 10.802500 0.413919 0.026001 -0.909942 0.832800 -0.153900 1 0 1.000000 
0 -7.085801 14.658300 10.802500 0.040898 0.031599 -0.998663 0.887900 -0.154200 1 0 1.000000 
0 -2.560901 14.652700 10.852000 0.454898 0.829396 -0.324299 0.832800 -0.153900 1 0 1.000000 
Oil_Drum001a
0 -2.560901 14.652700 10.852000 0.454898 0.829396 -0.324299 0.832800 -0.153900 1 0 1.000000 
0 1.038400 9.955400 13.610600 0.585295 0.787393 -0.193498 0.777600 -0.153600 1 0 1.000000 
0 -2.868501 13.715600 10.802500 0.413919 0.026001 -0.909942 0.832800 -0.153900 1 0 1.000000 
Oil_Drum001a
0 1.196700 8.973100 13.561100 0.046500 -0.090501 -0.994810 0.777600 -0.153600 1 0 1.000000 
0 -2.868501 13.715600 10.802500 0.413919 0.026001 -0.909942 0.832800 -0.153900 1 0 1.000000 
0 1.038400 9.955400 13.610600 0.585295 0.787393 -0.193498 0.777600 -0.153600 1 0 1.000000 
Oil_Drum001a
0 1.038400 9.955400 13.610600 0.585295 0.787393 -0.193498 0.777600 -0.153600 1 0 1.000000 
0 5.625299 11.640800 11.702800 -0.244109 0.872331 -0.423615 0.722300 -0.153300 1 0 1.000000 
0 1.196700 8.973100 13.561100 0.046500 -0.090501 -0.994810 0.777600 -0.153600 1 0 1.000000 
Oil_Drum001a
0 3.684900 8.942100 13.124200 -0.335106 -0.037901 -0.941418 0.722300 -0.153300 1 0 1.000000 
0 1.196700 8.973100 13.561100 0.046500 -0.090501 -0.994810 0.777600 -0.153600 1 0 1.000000 
0 5.625299 11.640800 11.702800 -0.244109 0.872331 -0.423615 0.722300 -0.153300 1 0 1.000000 
Oil_Drum001a
0 5.625299 11.640800 11.702800 -0.244109 0.872331 -0.423615 0.722300 -0.153300 1 0 1.000000 
0 10.197000 8.908500 10.191600 0.484409 0.824315 -0.293005 0.666900 -0.153000 1 0 1.000000 
0 3.684900 8.942100 13.124200 -0.335106 -0.037901 -0.941418 0.722300 -0.153300 1 0 1.000000 
Oil_Drum001a
0 9.467600 8.206200 10.142000 -0.021799 0.049198 -0.998551 0.666900 -0.153000 1 0 1.000000 
0 3.684900 8.942100 13.124200 -0.335106 -0.037901 -0.941418 0.722300 -0.153300 1 0 1.000000 
0 10.197000 8.908500 10.191600 0.484409 0.824315 -0.293005 0.666900 -0.153000 1 0 1.000000 
Oil_Drum001a
0 10.197000 8.908500 10.191600 0.484409 0.824315 -0.293005 0.666900 -0.153000 1 0 1.000000 
0 12.929200 4.819400 11.211200 0.895925 0.258407 -0.361310 0.611500 -0.152800 1 0 1.000000 
0 9.467600 8.206200 10.142000 -0.021799 0.049198 -0.998551 0.666900 -0.153000 1 0 1.000000 
Oil_Drum001a
0 11.983500 4.441000 11.161700 0.084500 -0.112999 -0.989995 0.611500 -0.152800 1 0 1.000000 
0 9.467600 8.206200 10.142000 -0.021799 0.049198 -0.998551 0.666900 -0.153000 1 0 1.000000 
0 12.929200 4.819400 11.211200 0.895925 0.258407 -0.361310 0.611500 -0.152800 1 0 1.000000 
Oil_Drum001a
0 12.929200 4.819400 11.211200 0.895925 0.258407 -0.361310 0.611500 -0.152800 1 0 1.000000 
0 12.628900 2.173800 11.382400 0.927564 -0.142594 -0.345387 0.556100 -0.152800 1 0 1.000000 
0 11.983500 4.441000 11.161700 0.084500 -0.112999 -0.989995 0.611500 -0.152800 1 0 1.000000 
Oil_Drum001a
0 11.607100 2.177500 11.332900 0.047998 -0.083297 -0.995368 0.556100 -0.152800 1 0 1.000000 
0 11.983500 4.441000 11.161700 0.084500 -0.112999 -0.989995 0.611500 -0.152800 1 0 1.000000 
0 12.628900 2.173800 11.382400 0.927564 -0.142594 -0.345387 0.556100 -0.152800 1 0 1.000000 
Oil_Drum001a
0 -5.411101 20.721701 13.120100 0.159899 0.964992 0.207898 0.998000 -0.154400 1 0 1.000000 
0 -4.877501 20.695000 12.833400 0.159899 0.964992 0.207898 0.998000 -0.161300 1 0 1.000000 
0 -5.758201 20.915701 12.486500 0.159899 0.964992 0.207898 0.998000 -0.154400 1 0 1.000000 
Oil_Drum001a
0 11.607100 2.177500 11.332900 -0.003800 -0.999979 0.005200 0.556100 -0.152800 1 0 1.000000 
0 12.628900 2.173800 11.382400 -0.003800 -0.999979 0.005200 0.556100 -0.159600 1 0 1.000000 
0 12.163900 2.177901 11.823700 -0.003800 -0.999979 0.005200 0.556100 -0.152800 1 0 1.000000 
Oil_Drum001a
0 -8.466801 20.711800 22.172100 0.323908 0.939625 0.110403 0.998000 -0.004000 1 0 1.000000 
0 -5.411101 20.721701 13.120100 0.323908 0.939625 0.110403 0.998000 -0.154400 1 0 1.000000 
0 -5.758201 20.915701 12.486500 0.323908 0.939625 0.110403 0.998000 -0.154400 1 0 1.000000 
end
