version 1
nodes
  0 "static_prop" -1
end
skeleton
time 0
0 0.000000 0.000000 0.000000 0.000000 0.000000 0.000000
end
triangles
computer01
0 -2.271900 0.140600 0.280900 1.000000 0.000000 0.000000 0.525500 -0.015800 1 0 1.000000 
0 -2.271900 -0.131900 0.280900 1.000000 0.000000 0.000000 0.508000 -0.015800 1 0 1.000000 
0 -2.271900 -0.131900 0.082500 1.000000 0.000000 0.000000 0.508000 -0.033400 1 0 1.000000 
computer01
0 -2.680800 0.140600 0.082500 -1.000000 -0.000000 0.000000 0.508000 -0.033400 1 0 1.000000 
0 -2.680800 -0.131900 0.082500 -1.000000 -0.000000 0.000000 0.525500 -0.033400 1 0 1.000000 
0 -2.680800 -0.131900 0.280900 -1.000000 -0.000000 0.000000 0.525500 -0.015800 1 0 1.000000 
computer01
0 -2.680800 -0.131900 0.280900 -1.000000 -0.000000 0.000000 0.525500 -0.015800 1 0 1.000000 
0 -2.680800 0.140600 0.280900 -1.000000 -0.000000 0.000000 0.508000 -0.015800 1 0 1.000000 
0 -2.680800 0.140600 0.082500 -1.000000 -0.000000 0.000000 0.508000 -0.033400 1 0 1.000000 
computer01
0 -2.680800 -0.131900 0.082500 0.000000 -1.000000 0.000000 0.508000 -0.033400 1 0 1.000000 
0 -2.271900 -0.131900 0.082500 0.000000 -1.000000 0.000000 0.525500 -0.033400 1 0 1.000000 
0 -2.271900 -0.131900 0.280900 0.000000 -1.000000 0.000000 0.525500 -0.015800 1 0 1.000000 
computer01
0 -2.271900 -0.131900 0.280900 0.000000 -1.000000 0.000000 0.525500 -0.015800 1 0 1.000000 
0 -2.680800 -0.131900 0.280900 0.000000 -1.000000 0.000000 0.508000 -0.015800 1 0 1.000000 
0 -2.680800 -0.131900 0.082500 0.000000 -1.000000 0.000000 0.508000 -0.033400 1 0 1.000000 
computer01
0 -2.271900 -0.131900 0.082500 0.195104 0.292606 -0.936118 0.525500 -0.033400 1 0 1.000000 
0 -2.680800 -0.131900 0.082500 0.000000 0.000000 -1.000000 0.525500 -0.015800 1 0 1.000000 
0 -2.680800 0.140600 0.082500 0.195104 0.292606 -0.936118 0.508000 -0.015800 1 0 1.000000 
computer01
0 -2.680800 0.140600 0.082500 0.195104 0.292606 -0.936118 0.508000 -0.015800 1 0 1.000000 
0 -2.271900 0.140600 0.280900 0.365198 0.547796 -0.752695 0.508000 -0.015800 1 0 1.000000 
0 -2.271900 -0.131900 0.082500 0.195104 0.292606 -0.936118 0.525500 -0.033400 1 0 1.000000 
computer01
0 -2.680800 0.140600 0.280900 0.000000 0.000000 1.000000 0.525500 -0.015800 1 0 1.000000 
0 -2.680800 -0.131900 0.280900 0.000000 0.000000 1.000000 0.508000 -0.015800 1 0 1.000000 
0 -2.271900 -0.131900 0.280900 0.000000 0.000000 1.000000 0.508000 -0.033400 1 0 1.000000 
computer01
0 -2.271900 -0.131900 0.280900 0.000000 0.000000 1.000000 0.508000 -0.033400 1 0 1.000000 
0 -2.271900 0.140600 0.280900 0.000000 0.000000 1.000000 0.525500 -0.033400 1 0 1.000000 
0 -2.680800 0.140600 0.280900 0.000000 0.000000 1.000000 0.525500 -0.015800 1 0 1.000000 
computer01
0 -2.456900 1.000700 0.051900 0.000300 0.042699 -0.999088 0.547200 -0.044200 1 0 1.000000 
0 -1.896100 1.320400 0.076800 0.000300 0.076903 -0.997038 0.556600 -0.058600 1 0 1.000000 
0 2.153500 1.520200 0.093500 -0.000600 0.085296 -0.996355 0.562400 -0.162700 1 0 1.000000 
computer01
0 -2.456900 1.000700 0.051900 0.000300 0.042699 -0.999088 0.547200 -0.044200 1 0 1.000000 
0 2.153500 1.520200 0.093500 -0.000600 0.085296 -0.996355 0.562400 -0.162700 1 0 1.000000 
0 2.698200 1.152600 0.058100 -0.000200 0.046800 -0.998904 0.551700 -0.176700 1 0 1.000000 
computer01
0 2.698200 -1.175800 0.058100 0.000200 -0.043702 -0.999044 0.483600 -0.176700 1 0 1.000000 
0 -2.456900 1.000700 0.051900 0.000300 0.042699 -0.999088 0.547200 -0.044200 1 0 1.000000 
0 2.698200 1.152600 0.058100 -0.000200 0.046800 -0.998904 0.551700 -0.176700 1 0 1.000000 
computer01
0 2.698200 -1.175800 0.058100 0.000200 -0.043702 -0.999044 0.483600 -0.176700 1 0 1.000000 
0 -2.456900 -1.024000 0.051900 0.000000 -0.039800 -0.999208 0.488100 -0.044200 1 0 1.000000 
0 -2.456900 1.000700 0.051900 0.000300 0.042699 -0.999088 0.547200 -0.044200 1 0 1.000000 
computer01
0 -1.896100 -1.343600 0.076800 -0.000900 -0.087298 -0.996182 0.478700 -0.058600 1 0 1.000000 
0 -2.456900 -1.024000 0.051900 0.000000 -0.039800 -0.999208 0.488100 -0.044200 1 0 1.000000 
0 2.698200 -1.175800 0.058100 0.000200 -0.043702 -0.999044 0.483600 -0.176700 1 0 1.000000 
computer01
0 -1.896100 -1.343600 0.076800 -0.000900 -0.087298 -0.996182 0.478700 -0.058600 1 0 1.000000 
0 2.698200 -1.175800 0.058100 0.000200 -0.043702 -0.999044 0.483600 -0.176700 1 0 1.000000 
0 2.153500 -1.543500 0.093500 -0.000600 -0.094998 -0.995477 0.472900 -0.162700 1 0 1.000000 
computer01
0 2.010200 1.542800 0.525000 0.478696 0.647095 0.593395 0.563100 -0.159000 1 0 1.000000 
0 2.698200 1.152600 0.058100 0.573391 0.800088 0.176297 0.551700 -0.176700 1 0 1.000000 
0 2.153500 1.520200 0.093500 0.560109 0.815913 0.143402 0.562400 -0.162700 1 0 1.000000 
computer01
0 2.010200 1.542800 0.525000 0.478696 0.647095 0.593395 0.563100 -0.159000 1 0 1.000000 
0 2.564900 1.152600 0.431800 0.532593 0.619492 0.576692 0.551700 -0.173300 1 0 1.000000 
0 2.698200 1.152600 0.058100 0.573391 0.800088 0.176297 0.551700 -0.176700 1 0 1.000000 
computer01
0 2.564900 1.152600 0.431800 0.532593 0.619492 0.576692 0.551700 -0.173300 1 0 1.000000 
0 2.010200 1.542800 0.525000 0.478696 0.647095 0.593395 0.563100 -0.159000 1 0 1.000000 
0 2.048200 1.141300 0.674600 0.246804 0.359005 0.900113 0.551400 -0.160000 1 0 1.000000 
computer01
0 0.782200 1.508900 0.768800 0.065398 0.418890 0.905679 0.562100 -0.127400 1 0 1.000000 
0 2.048200 1.141300 0.674600 0.246804 0.359005 0.900113 0.551400 -0.160000 1 0 1.000000 
0 2.010200 1.542800 0.525000 0.478696 0.647095 0.593395 0.563100 -0.159000 1 0 1.000000 
computer01
0 0.574500 1.175100 0.938100 -0.055298 0.407186 0.911669 0.552300 -0.122100 1 0 1.000000 
0 2.048200 1.141300 0.674600 0.246804 0.359005 0.900113 0.551400 -0.160000 1 0 1.000000 
0 0.782200 1.508900 0.768800 0.065398 0.418890 0.905679 0.562100 -0.127400 1 0 1.000000 
computer01
0 -1.685400 1.320400 0.440800 -0.283783 0.541067 0.791652 0.556600 -0.064000 1 0 1.000000 
0 0.574500 1.175100 0.938100 -0.055298 0.407186 0.911669 0.552300 -0.122100 1 0 1.000000 
0 0.782200 1.508900 0.768800 0.065398 0.418890 0.905679 0.562100 -0.127400 1 0 1.000000 
computer01
0 -1.685400 1.320400 0.440800 -0.283783 0.541067 0.791652 0.556600 -0.064000 1 0 1.000000 
0 -2.246200 1.000700 0.415900 -0.437392 0.725986 0.530690 0.547200 -0.049600 1 0 1.000000 
0 0.574500 1.175100 0.938100 -0.055298 0.407186 0.911669 0.552300 -0.122100 1 0 1.000000 
computer01
0 -1.896100 1.320400 0.076800 -0.484720 0.828434 0.280612 0.556600 -0.058600 1 0 1.000000 
0 -2.246200 1.000700 0.415900 -0.437392 0.725986 0.530690 0.547200 -0.049600 1 0 1.000000 
0 -1.685400 1.320400 0.440800 -0.283783 0.541067 0.791652 0.556600 -0.064000 1 0 1.000000 
computer01
0 -1.896100 1.320400 0.076800 -0.484720 0.828434 0.280612 0.556600 -0.058600 1 0 1.000000 
0 -2.456900 1.000700 0.051900 -0.484720 0.828434 0.280612 0.547200 -0.044200 1 0 1.000000 
0 -2.246200 1.000700 0.415900 -0.437392 0.725986 0.530690 0.547200 -0.049600 1 0 1.000000 
computer01
0 -2.271900 0.140600 0.280900 -0.000000 1.000000 0.000000 0.508000 -0.015800 1 0 1.000000 
0 -2.680800 0.140600 0.082500 -0.000000 1.000000 0.000000 0.525500 -0.033400 1 0 1.000000 
0 -2.680800 0.140600 0.280900 -0.000000 1.000000 0.000000 0.525500 -0.015800 1 0 1.000000 
computer01
0 2.564900 -1.175800 0.431800 0.706188 -0.013900 0.707888 0.483600 -0.173300 1 0 1.000000 
0 2.698200 -1.175800 0.058100 0.941929 0.000000 0.335810 0.483600 -0.176700 1 0 1.000000 
0 2.698200 1.152600 0.058100 0.941929 0.000000 0.335810 0.551700 -0.176700 1 0 1.000000 
computer01
0 2.564900 -1.175800 0.431800 0.706188 -0.013900 0.707888 0.483600 -0.173300 1 0 1.000000 
0 2.698200 1.152600 0.058100 0.941929 0.000000 0.335810 0.551700 -0.176700 1 0 1.000000 
0 2.564900 1.152600 0.431800 0.740528 0.000000 0.672025 0.551700 -0.173300 1 0 1.000000 
computer01
0 2.564900 -1.175800 0.431800 0.706188 -0.013900 0.707888 0.483600 -0.173300 1 0 1.000000 
0 2.564900 1.152600 0.431800 0.740528 0.000000 0.672025 0.551700 -0.173300 1 0 1.000000 
0 2.048200 1.141300 0.674600 0.261201 -0.012600 0.965202 0.551400 -0.160000 1 0 1.000000 
computer01
0 2.048200 1.141300 0.674600 0.261201 -0.012600 0.965202 0.551400 -0.160000 1 0 1.000000 
0 0.569100 -1.187100 0.909300 0.064602 -0.012500 0.997833 0.483300 -0.122000 1 0 1.000000 
0 2.564900 -1.175800 0.431800 0.706188 -0.013900 0.707888 0.483600 -0.173300 1 0 1.000000 
computer01
0 0.574500 1.175100 0.938100 -0.052599 -0.008200 0.998582 0.552300 -0.122100 1 0 1.000000 
0 0.569100 -1.187100 0.909300 0.064602 -0.012500 0.997833 0.483300 -0.122000 1 0 1.000000 
0 2.048200 1.141300 0.674600 0.261201 -0.012600 0.965202 0.551400 -0.160000 1 0 1.000000 
computer01
0 -2.246200 -1.024000 0.415900 -0.492192 -0.000000 0.870486 0.488100 -0.049600 1 0 1.000000 
0 0.569100 -1.187100 0.909300 0.064602 -0.012500 0.997833 0.483300 -0.122000 1 0 1.000000 
0 0.574500 1.175100 0.938100 -0.052599 -0.008200 0.998582 0.552300 -0.122100 1 0 1.000000 
computer01
0 -2.246200 -1.024000 0.415900 -0.492192 -0.000000 0.870486 0.488100 -0.049600 1 0 1.000000 
0 0.574500 1.175100 0.938100 -0.052599 -0.008200 0.998582 0.552300 -0.122100 1 0 1.000000 
0 -2.246200 1.000700 0.415900 -0.710299 -0.000000 0.703899 0.547200 -0.049600 1 0 1.000000 
computer01
0 -2.456900 -1.024000 0.051900 -0.865435 -0.000000 0.501020 0.488100 -0.044200 1 0 1.000000 
0 -2.246200 -1.024000 0.415900 -0.492192 -0.000000 0.870486 0.488100 -0.049600 1 0 1.000000 
0 -2.246200 1.000700 0.415900 -0.710299 -0.000000 0.703899 0.547200 -0.049600 1 0 1.000000 
computer01
0 -2.456900 -1.024000 0.051900 -0.865435 -0.000000 0.501020 0.488100 -0.044200 1 0 1.000000 
0 -2.246200 1.000700 0.415900 -0.710299 -0.000000 0.703899 0.547200 -0.049600 1 0 1.000000 
0 -2.456900 1.000700 0.051900 -0.865435 -0.000000 0.501020 0.547200 -0.044200 1 0 1.000000 
computer01
0 2.564900 -1.175800 0.431800 0.531365 -0.714153 0.455670 0.483600 -0.173300 1 0 1.000000 
0 2.153500 -1.543500 0.093500 0.561124 -0.805034 0.192508 0.472900 -0.162700 1 0 1.000000 
0 2.698200 -1.175800 0.058100 0.557191 -0.806286 0.198597 0.483600 -0.176700 1 0 1.000000 
computer01
0 2.564900 -1.175800 0.431800 0.531365 -0.714153 0.455670 0.483600 -0.173300 1 0 1.000000 
0 2.004800 -1.554700 0.496100 0.341106 -0.511909 0.788414 0.472600 -0.158900 1 0 1.000000 
0 2.153500 -1.543500 0.093500 0.561124 -0.805034 0.192508 0.472900 -0.162700 1 0 1.000000 
computer01
0 2.564900 -1.175800 0.431800 0.531365 -0.714153 0.455670 0.483600 -0.173300 1 0 1.000000 
0 0.569100 -1.187100 0.909300 0.059198 -0.422188 0.904573 0.483300 -0.122000 1 0 1.000000 
0 2.004800 -1.554700 0.496100 0.341106 -0.511909 0.788414 0.472600 -0.158900 1 0 1.000000 
computer01
0 2.004800 -1.554700 0.496100 0.341106 -0.511909 0.788414 0.472600 -0.158900 1 0 1.000000 
0 0.569100 -1.187100 0.909300 0.059198 -0.422188 0.904573 0.483300 -0.122000 1 0 1.000000 
0 0.776800 -1.520900 0.739900 -0.045401 -0.401308 0.914817 0.473500 -0.127300 1 0 1.000000 
computer01
0 -2.246200 -1.024000 0.415900 -0.293201 -0.560102 0.774803 0.488100 -0.049600 1 0 1.000000 
0 0.776800 -1.520900 0.739900 -0.045401 -0.401308 0.914817 0.473500 -0.127300 1 0 1.000000 
0 0.569100 -1.187100 0.909300 0.059198 -0.422188 0.904573 0.483300 -0.122000 1 0 1.000000 
computer01
0 -2.246200 -1.024000 0.415900 -0.293201 -0.560102 0.774803 0.488100 -0.049600 1 0 1.000000 
0 -1.685400 -1.343600 0.440800 -0.419906 -0.690810 0.588609 0.478700 -0.064000 1 0 1.000000 
0 0.776800 -1.520900 0.739900 -0.045401 -0.401308 0.914817 0.473500 -0.127300 1 0 1.000000 
computer01
0 -2.456900 -1.024000 0.051900 -0.484720 -0.828434 0.280612 0.488100 -0.044200 1 0 1.000000 
0 -1.685400 -1.343600 0.440800 -0.419906 -0.690810 0.588609 0.478700 -0.064000 1 0 1.000000 
0 -2.246200 -1.024000 0.415900 -0.293201 -0.560102 0.774803 0.488100 -0.049600 1 0 1.000000 
computer01
0 -2.456900 -1.024000 0.051900 -0.484720 -0.828434 0.280612 0.488100 -0.044200 1 0 1.000000 
0 -1.896100 -1.343600 0.076800 -0.484720 -0.828434 0.280612 0.478700 -0.058600 1 0 1.000000 
0 -1.685400 -1.343600 0.440800 -0.419906 -0.690810 0.588609 0.478700 -0.064000 1 0 1.000000 
computer01
0 2.153500 -1.543500 0.093500 -0.048500 -0.998196 -0.035400 0.472900 -0.162700 1 0 1.000000 
0 -1.685400 -1.343600 0.440800 -0.054898 -0.997963 -0.032499 0.478700 -0.064000 1 0 1.000000 
0 -1.896100 -1.343600 0.076800 -0.049398 -0.998370 0.028599 0.478700 -0.058600 1 0 1.000000 
computer01
0 2.153500 -1.543500 0.093500 -0.048500 -0.998196 -0.035400 0.472900 -0.162700 1 0 1.000000 
0 0.776800 -1.520900 0.739900 -0.047999 -0.996571 -0.067398 0.473500 -0.127300 1 0 1.000000 
0 -1.685400 -1.343600 0.440800 -0.054898 -0.997963 -0.032499 0.478700 -0.064000 1 0 1.000000 
computer01
0 2.153500 -1.543500 0.093500 -0.048500 -0.998196 -0.035400 0.472900 -0.162700 1 0 1.000000 
0 2.004800 -1.554700 0.496100 -0.035700 -0.998513 -0.041201 0.472600 -0.158900 1 0 1.000000 
0 0.776800 -1.520900 0.739900 -0.047999 -0.996571 -0.067398 0.473500 -0.127300 1 0 1.000000 
computer01
0 2.153500 1.520200 0.093500 -0.050502 0.997545 -0.048502 0.562400 -0.162700 1 0 1.000000 
0 0.782200 1.508900 0.768800 -0.051001 0.994911 -0.086901 0.562100 -0.127400 1 0 1.000000 
0 2.010200 1.542800 0.525000 -0.040501 0.997024 -0.065602 0.563100 -0.159000 1 0 1.000000 
computer01
0 2.153500 1.520200 0.093500 -0.050502 0.997545 -0.048502 0.562400 -0.162700 1 0 1.000000 
0 -1.685400 1.320400 0.440800 -0.055498 0.997661 -0.039898 0.556600 -0.064000 1 0 1.000000 
0 0.782200 1.508900 0.768800 -0.051001 0.994911 -0.086901 0.562100 -0.127400 1 0 1.000000 
computer01
0 2.153500 1.520200 0.093500 -0.050502 0.997545 -0.048502 0.562400 -0.162700 1 0 1.000000 
0 -1.896100 1.320400 0.076800 -0.049399 0.998370 0.028599 0.556600 -0.058600 1 0 1.000000 
0 -1.685400 1.320400 0.440800 -0.055498 0.997661 -0.039898 0.556600 -0.064000 1 0 1.000000 
end
