$cd ".\"
$modelname "props_junk/cardboard_box004a_old.mdl"
$model "Body" "cardboard_box004a_reference.smd"
$cdmaterials "models/props_junk/"
$surfaceprop "cardboard"
$eyeposition 0.000 0.000 0.000
$illumposition 0.000 0.000 0.000
$sequence idle "idle" fps 30.000000
$staticprop
$origin 0 0 0 270
$keyvalues
{
	prop_data
	{
		"base"			"Cardboard.Small"
		"health"		"0"
	}
	fire_interactions 
	{
		"flammable" "yes"
	}
}