version 1
nodes
  0 "10" -1
end
skeleton
time 0
0 0.000000 0.000000 20.045120 1.570796 0.000000 0.000000
end
triangles
Oil_Drum001a
0 -12.222600 -6.026800 65.101898 -0.490314 -0.056302 0.869725 0.262300 -0.884000 1 0 1.000000 
0 -11.958700 4.488500 65.930901 -0.490314 -0.056302 0.869725 0.262300 -0.738400 1 0 1.000000 
0 -13.695000 0.217500 64.675797 -0.490314 -0.056302 0.869725 0.247800 -0.811200 1 0 1.000000 
Oil_Drum001a
0 -12.222600 -6.026800 65.101898 0.039500 0.038200 0.998489 0.262300 -0.884000 1 0 1.000000 
0 -8.871300 9.088400 65.251801 0.281490 -0.071897 0.956867 0.303500 -0.676700 1 0 1.000000 
0 -11.958700 4.488500 65.930901 0.329695 -0.082399 0.940485 0.262300 -0.738400 1 0 1.000000 
Oil_Drum001a
0 -12.222600 -6.026800 65.101898 0.039500 0.038200 0.998489 0.262300 -0.884000 1 0 1.000000 
0 -5.088600 12.551900 64.563904 0.104199 -0.011200 0.994493 0.365200 -0.635500 1 0 1.000000 
0 -8.871300 9.088400 65.251801 0.281490 -0.071897 0.956867 0.303500 -0.676700 1 0 1.000000 
Oil_Drum001a
0 -12.222600 -6.026800 65.101898 0.039500 0.038200 0.998489 0.262300 -0.884000 1 0 1.000000 
0 -1.222500 12.915500 64.650803 0.041502 -0.000300 0.999138 0.438000 -0.621000 1 0 1.000000 
0 -5.088600 12.551900 64.563904 0.104199 -0.011200 0.994493 0.365200 -0.635500 1 0 1.000000 
Oil_Drum001a
0 -12.222600 -6.026800 65.101898 0.039500 0.038200 0.998489 0.262300 -0.884000 1 0 1.000000 
0 4.791400 12.603700 63.979599 0.046199 0.017899 0.998772 0.510800 -0.635500 1 0 1.000000 
0 -1.222500 12.915500 64.650803 0.041502 -0.000300 0.999138 0.438000 -0.621000 1 0 1.000000 
Oil_Drum001a
0 -12.222600 -6.026800 65.101898 0.039500 0.038200 0.998489 0.262300 -0.884000 1 0 1.000000 
0 9.174000 10.256700 64.230003 -0.029000 0.091399 0.995392 0.572500 -0.676700 1 0 1.000000 
0 4.791400 12.603700 63.979599 0.046199 0.017899 0.998772 0.510800 -0.635500 1 0 1.000000 
Oil_Drum001a
0 -12.222600 -6.026800 65.101898 0.039500 0.038200 0.998489 0.262300 -0.884000 1 0 1.000000 
0 12.025000 5.444500 64.868797 0.004000 0.011900 0.999921 0.613800 -0.738400 1 0 1.000000 
0 9.174000 10.256700 64.230003 -0.029000 0.091399 0.995392 0.572500 -0.676700 1 0 1.000000 
Oil_Drum001a
0 -12.222600 -6.026800 65.101898 0.039500 0.038200 0.998489 0.262300 -0.884000 1 0 1.000000 
0 13.795100 -0.416900 64.288002 0.051801 -0.096102 0.994023 0.628200 -0.811200 1 0 1.000000 
0 12.025000 5.444500 64.868797 0.004000 0.011900 0.999921 0.613800 -0.738400 1 0 1.000000 
Oil_Drum001a
0 -12.222600 -6.026800 65.101898 0.039500 0.038200 0.998489 0.262300 -0.884000 1 0 1.000000 
0 12.903200 -5.358300 63.797001 0.050801 0.039501 0.997927 0.613800 -0.884000 1 0 1.000000 
0 13.795100 -0.416900 64.288002 0.051801 -0.096102 0.994023 0.628200 -0.811200 1 0 1.000000 
Oil_Drum001a
0 -12.222600 -6.026800 65.101898 0.039500 0.038200 0.998489 0.262300 -0.884000 1 0 1.000000 
0 10.378000 -9.804300 64.760696 0.048800 0.203799 0.977796 0.572500 -0.945700 1 0 1.000000 
0 12.903200 -5.358300 63.797001 0.050801 0.039501 0.997927 0.613800 -0.884000 1 0 1.000000 
Oil_Drum001a
0 -12.222600 -6.026800 65.101898 0.039500 0.038200 0.998489 0.262300 -0.884000 1 0 1.000000 
0 6.083200 -13.401900 65.804199 0.077500 0.283299 0.955895 0.510800 -0.986900 1 0 1.000000 
0 10.378000 -9.804300 64.760696 0.048800 0.203799 0.977796 0.572500 -0.945700 1 0 1.000000 
Oil_Drum001a
0 -12.222600 -6.026800 65.101898 0.039500 0.038200 0.998489 0.262300 -0.884000 1 0 1.000000 
0 0.877000 -13.935500 66.575600 0.020701 0.216111 0.976149 0.438000 -1.001400 1 0 1.000000 
0 6.083200 -13.401900 65.804199 0.077500 0.283299 0.955895 0.510800 -0.986900 1 0 1.000000 
Oil_Drum001a
0 -12.222600 -6.026800 65.101898 0.039500 0.038200 0.998489 0.262300 -0.884000 1 0 1.000000 
0 -4.762300 -13.406100 66.179497 -0.198100 -0.057400 0.978500 0.365200 -0.986900 1 0 1.000000 
0 0.877000 -13.935500 66.575600 0.020701 0.216111 0.976149 0.438000 -1.001400 1 0 1.000000 
Oil_Drum001a
0 -12.222600 -6.026800 65.101898 0.039500 0.038200 0.998489 0.262300 -0.884000 1 0 1.000000 
0 -9.659400 -10.345800 65.095901 -0.326602 -0.195101 0.924806 0.303500 -0.945700 1 0 1.000000 
0 -4.762300 -13.406100 66.179497 -0.198100 -0.057400 0.978500 0.365200 -0.986900 1 0 1.000000 
Oil_Drum001a
0 -8.963100 9.180700 64.207199 -0.718494 0.685994 0.114799 0.303500 -0.676700 1 0 1.000000 
0 -5.088600 12.551900 64.563904 -0.658209 0.744711 0.110302 0.365200 -0.635500 1 0 1.000000 
0 -5.171900 12.605800 63.585999 -0.658383 0.746381 0.097197 0.365200 -0.635500 1 0 1.000000 
Oil_Drum001a
0 -8.963100 9.180700 64.207199 -0.718494 0.685994 0.114799 0.303500 -0.676700 1 0 1.000000 
0 -8.871300 9.088400 65.251801 -0.774988 0.624190 0.098898 0.303500 -0.676700 1 0 1.000000 
0 -5.088600 12.551900 64.563904 -0.658209 0.744711 0.110302 0.365200 -0.635500 1 0 1.000000 
Oil_Drum001a
0 -11.961700 4.579800 64.851501 -0.867290 0.493095 0.068299 0.262300 -0.738400 1 0 1.000000 
0 -8.871300 9.088400 65.251801 -0.774988 0.624190 0.098898 0.303500 -0.676700 1 0 1.000000 
0 -8.963100 9.180700 64.207199 -0.718494 0.685994 0.114799 0.303500 -0.676700 1 0 1.000000 
Oil_Drum001a
0 -11.961700 4.579800 64.851501 -0.867290 0.493095 0.068299 0.262300 -0.738400 1 0 1.000000 
0 -11.958700 4.488500 65.930901 -0.899760 0.436081 0.016299 0.262300 -0.738400 1 0 1.000000 
0 -8.871300 9.088400 65.251801 -0.774988 0.624190 0.098898 0.303500 -0.676700 1 0 1.000000 
Oil_Drum001a
0 -13.679900 0.157700 63.576698 -0.929192 0.369597 -0.000500 0.247800 -0.811200 1 0 1.000000 
0 -11.958700 4.488500 65.930901 -0.899760 0.436081 0.016299 0.262300 -0.738400 1 0 1.000000 
0 -11.961700 4.579800 64.851501 -0.867290 0.493095 0.068299 0.262300 -0.738400 1 0 1.000000 
Oil_Drum001a
0 -13.679900 0.157700 63.576698 -0.929192 0.369597 -0.000500 0.247800 -0.811200 1 0 1.000000 
0 -13.695000 0.217500 64.675797 -0.922354 0.384881 -0.033598 0.247800 -0.811200 1 0 1.000000 
0 -11.958700 4.488500 65.930901 -0.899760 0.436081 0.016299 0.262300 -0.738400 1 0 1.000000 
Oil_Drum001a
0 -12.315700 -6.028800 64.004303 -0.944419 -0.324606 0.052001 0.262300 -0.884000 1 0 1.000000 
0 -13.695000 0.217500 64.675797 -0.974742 -0.219610 0.040602 0.247800 -0.811200 1 0 1.000000 
0 -13.679900 0.157700 63.576698 -0.976523 -0.215405 -0.001700 0.247800 -0.811200 1 0 1.000000 
Oil_Drum001a
0 -12.315700 -6.028800 64.004303 -0.944419 -0.324606 0.052001 0.262300 -0.884000 1 0 1.000000 
0 -12.222600 -6.026800 65.101898 -0.904240 -0.423772 0.052597 0.262300 -0.884000 1 0 1.000000 
0 -13.695000 0.217500 64.675797 -0.974742 -0.219610 0.040602 0.247800 -0.811200 1 0 1.000000 
Oil_Drum001a
0 -9.697300 -10.282000 64.033302 -0.766223 -0.642420 0.014100 0.303500 -0.945700 1 0 1.000000 
0 -12.222600 -6.026800 65.101898 -0.904240 -0.423772 0.052597 0.262300 -0.884000 1 0 1.000000 
0 -12.315700 -6.028800 64.004303 -0.944419 -0.324606 0.052001 0.262300 -0.884000 1 0 1.000000 
Oil_Drum001a
0 -9.697300 -10.282000 64.033302 -0.766223 -0.642420 0.014100 0.303500 -0.945700 1 0 1.000000 
0 -9.659400 -10.345800 65.095901 -0.657617 -0.753320 -0.007000 0.303500 -0.945700 1 0 1.000000 
0 -12.222600 -6.026800 65.101898 -0.904240 -0.423772 0.052597 0.262300 -0.884000 1 0 1.000000 
Oil_Drum001a
0 -4.869900 -13.353700 65.054398 -0.400908 -0.915919 -0.019100 0.365200 -0.986900 1 0 1.000000 
0 -9.659400 -10.345800 65.095901 -0.657617 -0.753320 -0.007000 0.303500 -0.945700 1 0 1.000000 
0 -9.697300 -10.282000 64.033302 -0.766223 -0.642420 0.014100 0.303500 -0.945700 1 0 1.000000 
Oil_Drum001a
0 -4.869900 -13.353700 65.054398 -0.400908 -0.915919 -0.019100 0.365200 -0.986900 1 0 1.000000 
0 -4.762300 -13.406100 66.179497 -0.253090 -0.967363 0.012400 0.365200 -0.986900 1 0 1.000000 
0 -9.659400 -10.345800 65.095901 -0.657617 -0.753320 -0.007000 0.303500 -0.945700 1 0 1.000000 
Oil_Drum001a
0 0.707900 -13.994000 65.341499 -0.031601 -0.999324 0.018800 0.438000 -1.001400 1 0 1.000000 
0 -4.762300 -13.406100 66.179497 -0.253090 -0.967363 0.012400 0.365200 -0.986900 1 0 1.000000 
0 -4.869900 -13.353700 65.054398 -0.400908 -0.915919 -0.019100 0.365200 -0.986900 1 0 1.000000 
Oil_Drum001a
0 0.707900 -13.994000 65.341499 -0.031601 -0.999324 0.018800 0.438000 -1.001400 1 0 1.000000 
0 0.877000 -13.935500 66.575600 0.039702 -0.998844 0.027101 0.438000 -1.001400 1 0 1.000000 
0 -4.762300 -13.406100 66.179497 -0.253090 -0.967363 0.012400 0.365200 -0.986900 1 0 1.000000 
Oil_Drum001a
0 6.048200 -13.393200 64.680603 0.108000 -0.994098 0.010200 0.510800 -0.986900 1 0 1.000000 
0 0.877000 -13.935500 66.575600 0.039702 -0.998844 0.027101 0.438000 -1.001400 1 0 1.000000 
0 0.707900 -13.994000 65.341499 -0.031601 -0.999324 0.018800 0.438000 -1.001400 1 0 1.000000 
Oil_Drum001a
0 6.048200 -13.393200 64.680603 0.108000 -0.994098 0.010200 0.510800 -0.986900 1 0 1.000000 
0 6.083200 -13.401900 65.804199 0.100399 -0.994889 -0.010800 0.510800 -0.986900 1 0 1.000000 
0 0.877000 -13.935500 66.575600 0.039702 -0.998844 0.027101 0.438000 -1.001400 1 0 1.000000 
Oil_Drum001a
0 6.048200 -13.393200 64.680603 1.000000 0.000000 0.000000 0.510800 -0.986900 1 0 1.000000 
0 10.368700 -9.789300 63.790401 1.000000 0.000000 0.000000 0.572500 -0.945700 1 0 1.000000 
0 10.368700 -9.789300 63.790401 0.722683 -0.690884 -0.020200 0.572500 -0.945700 1 0 1.000000 
Oil_Drum001a
0 10.368700 -9.789300 63.790401 0.722683 -0.690884 -0.020200 0.572500 -0.945700 1 0 1.000000 
0 10.368700 -9.789300 63.790401 1.000000 0.000000 0.000000 0.572500 -0.945700 1 0 1.000000 
0 12.967800 -5.332000 62.911301 0.918354 -0.394323 0.033702 0.613800 -0.884000 1 0 1.000000 
Oil_Drum001a
0 10.368700 -9.789300 63.790401 1.000000 0.000000 0.000000 0.572500 -0.945700 1 0 1.000000 
0 12.967800 -5.332000 62.911301 1.000000 0.000000 0.000000 0.613800 -0.884000 1 0 1.000000 
0 12.967800 -5.332000 62.911301 0.918354 -0.394323 0.033702 0.613800 -0.884000 1 0 1.000000 
Oil_Drum001a
0 12.967800 -5.332000 62.911301 0.918354 -0.394323 0.033702 0.613800 -0.884000 1 0 1.000000 
0 12.967800 -5.332000 62.911301 1.000000 0.000000 0.000000 0.613800 -0.884000 1 0 1.000000 
0 13.821800 -0.428800 63.253700 0.998908 -0.025100 0.039400 0.628200 -0.811200 1 0 1.000000 
Oil_Drum001a
0 12.967800 -5.332000 62.911301 1.000000 0.000000 0.000000 0.613800 -0.884000 1 0 1.000000 
0 13.821800 -0.428800 63.253700 1.000000 0.000000 0.000000 0.628200 -0.811200 1 0 1.000000 
0 13.821800 -0.428800 63.253700 0.998908 -0.025100 0.039400 0.628200 -0.811200 1 0 1.000000 
Oil_Drum001a
0 13.821800 -0.428800 63.253700 0.998908 -0.025100 0.039400 0.628200 -0.811200 1 0 1.000000 
0 13.821800 -0.428800 63.253700 1.000000 0.000000 0.000000 0.628200 -0.811200 1 0 1.000000 
0 12.092000 5.399900 63.890701 0.930909 0.363403 0.036700 0.613800 -0.738400 1 0 1.000000 
Oil_Drum001a
0 13.821800 -0.428800 63.253700 1.000000 0.000000 0.000000 0.628200 -0.811200 1 0 1.000000 
0 12.092000 5.399900 63.890701 1.000000 0.000000 0.000000 0.613800 -0.738400 1 0 1.000000 
0 12.092000 5.399900 63.890701 0.930909 0.363403 0.036700 0.613800 -0.738400 1 0 1.000000 
Oil_Drum001a
0 12.092000 5.399900 63.890701 0.930909 0.363403 0.036700 0.613800 -0.738400 1 0 1.000000 
0 12.092000 5.399900 63.890701 1.000000 0.000000 0.000000 0.613800 -0.738400 1 0 1.000000 
0 9.197800 10.242900 63.262901 1.000000 0.000000 0.000000 0.572500 -0.676700 1 0 1.000000 
Oil_Drum001a
0 9.197800 10.242900 63.262901 0.857685 0.513591 0.024500 0.572500 -0.676700 1 0 1.000000 
0 9.174000 10.256700 64.230003 0.859478 0.510987 0.013800 0.572500 -0.676700 1 0 1.000000 
0 12.025000 5.444500 64.868797 0.897301 0.440100 0.034100 0.613800 -0.738400 1 0 1.000000 
Oil_Drum001a
0 9.197800 10.242900 63.262901 0.857685 0.513591 0.024500 0.572500 -0.676700 1 0 1.000000 
0 12.025000 5.444500 64.868797 0.897301 0.440100 0.034100 0.613800 -0.738400 1 0 1.000000 
0 12.092000 5.399900 63.890701 0.930909 0.363403 0.036700 0.613800 -0.738400 1 0 1.000000 
Oil_Drum001a
0 12.092000 5.399900 63.890701 0.930909 0.363403 0.036700 0.613800 -0.738400 1 0 1.000000 
0 12.025000 5.444500 64.868797 0.897301 0.440100 0.034100 0.613800 -0.738400 1 0 1.000000 
0 13.795100 -0.416900 64.288002 0.990656 0.131894 0.034698 0.628200 -0.811200 1 0 1.000000 
Oil_Drum001a
0 12.092000 5.399900 63.890701 0.930909 0.363403 0.036700 0.613800 -0.738400 1 0 1.000000 
0 13.795100 -0.416900 64.288002 0.990656 0.131894 0.034698 0.628200 -0.811200 1 0 1.000000 
0 13.821800 -0.428800 63.253700 0.998908 -0.025100 0.039400 0.628200 -0.811200 1 0 1.000000 
Oil_Drum001a
0 13.821800 -0.428800 63.253700 0.998908 -0.025100 0.039400 0.628200 -0.811200 1 0 1.000000 
0 13.795100 -0.416900 64.288002 0.990656 0.131894 0.034698 0.628200 -0.811200 1 0 1.000000 
0 12.903200 -5.358300 63.797001 0.957669 -0.283791 0.048298 0.613800 -0.884000 1 0 1.000000 
Oil_Drum001a
0 13.821800 -0.428800 63.253700 0.998908 -0.025100 0.039400 0.628200 -0.811200 1 0 1.000000 
0 12.903200 -5.358300 63.797001 0.957669 -0.283791 0.048298 0.613800 -0.884000 1 0 1.000000 
0 12.967800 -5.332000 62.911301 0.918354 -0.394323 0.033702 0.613800 -0.884000 1 0 1.000000 
Oil_Drum001a
0 12.967800 -5.332000 62.911301 0.918354 -0.394323 0.033702 0.613800 -0.884000 1 0 1.000000 
0 12.903200 -5.358300 63.797001 0.957669 -0.283791 0.048298 0.613800 -0.884000 1 0 1.000000 
0 10.378000 -9.804300 64.760696 0.803408 -0.595406 0.005100 0.572500 -0.945700 1 0 1.000000 
Oil_Drum001a
0 12.967800 -5.332000 62.911301 0.918354 -0.394323 0.033702 0.613800 -0.884000 1 0 1.000000 
0 10.378000 -9.804300 64.760696 0.803408 -0.595406 0.005100 0.572500 -0.945700 1 0 1.000000 
0 10.368700 -9.789300 63.790401 0.722683 -0.690884 -0.020200 0.572500 -0.945700 1 0 1.000000 
Oil_Drum001a
0 10.368700 -9.789300 63.790401 0.722683 -0.690884 -0.020200 0.572500 -0.945700 1 0 1.000000 
0 10.378000 -9.804300 64.760696 0.803408 -0.595406 0.005100 0.572500 -0.945700 1 0 1.000000 
0 6.083200 -13.401900 65.804199 0.638337 -0.769445 -0.021901 0.510800 -0.986900 1 0 1.000000 
Oil_Drum001a
0 10.368700 -9.789300 63.790401 0.722683 -0.690884 -0.020200 0.572500 -0.945700 1 0 1.000000 
0 6.083200 -13.401900 65.804199 0.638337 -0.769445 -0.021901 0.510800 -0.986900 1 0 1.000000 
0 6.048200 -13.393200 64.680603 0.637183 -0.770280 -0.025799 0.510800 -0.986900 1 0 1.000000 
Oil_Drum001a
0 4.766400 12.624000 63.002300 0.338420 0.940957 0.008501 0.510800 -0.635500 1 0 1.000000 
0 9.174000 10.256700 64.230003 0.472589 0.881279 0.002700 0.572500 -0.676700 1 0 1.000000 
0 9.197800 10.242900 63.262901 0.473378 0.880859 -0.000900 0.572500 -0.676700 1 0 1.000000 
Oil_Drum001a
0 4.766400 12.624000 63.002300 0.338420 0.940957 0.008501 0.510800 -0.635500 1 0 1.000000 
0 4.791400 12.603700 63.979599 0.194191 0.980956 0.003900 0.510800 -0.635500 1 0 1.000000 
0 9.174000 10.256700 64.230003 0.472589 0.881279 0.002700 0.572500 -0.676700 1 0 1.000000 
Oil_Drum001a
0 -1.144900 12.896400 63.590698 0.008700 0.999944 -0.006000 0.438000 -0.621000 1 0 1.000000 
0 4.791400 12.603700 63.979599 0.194191 0.980956 0.003900 0.510800 -0.635500 1 0 1.000000 
0 4.766400 12.624000 63.002300 0.338420 0.940957 0.008501 0.510800 -0.635500 1 0 1.000000 
Oil_Drum001a
0 -1.144900 12.896400 63.590698 0.008700 0.999944 -0.006000 0.438000 -0.621000 1 0 1.000000 
0 -1.222500 12.915500 64.650803 -0.039000 0.999203 0.008500 0.438000 -0.621000 1 0 1.000000 
0 4.791400 12.603700 63.979599 0.194191 0.980956 0.003900 0.510800 -0.635500 1 0 1.000000 
Oil_Drum001a
0 -5.171900 12.605800 63.585999 -0.083501 0.996311 0.019800 0.365200 -0.635500 1 0 1.000000 
0 -1.222500 12.915500 64.650803 -0.039000 0.999203 0.008500 0.438000 -0.621000 1 0 1.000000 
0 -1.144900 12.896400 63.590698 0.008700 0.999944 -0.006000 0.438000 -0.621000 1 0 1.000000 
Oil_Drum001a
0 -5.171900 12.605800 63.585999 -0.083501 0.996311 0.019800 0.365200 -0.635500 1 0 1.000000 
0 -5.088600 12.551900 64.563904 -0.094801 0.993513 0.062801 0.365200 -0.635500 1 0 1.000000 
0 -1.222500 12.915500 64.650803 -0.039000 0.999203 0.008500 0.438000 -0.621000 1 0 1.000000 
end
