$cd ".\"
$modelname "Items/healthKit_old.mdl"
$model "Body" "healthKit_reference.smd"
$cdmaterials "models/items/"
$surfaceprop "metal"
$eyeposition 0.000 0.000 0.000
$illumposition 5.272 -0.187 2.131
$sequence idle "idle" ACT_IDLE 1 fps 30.000000
$staticprop
$origin 0 0 0 270
$keyvalues
{
	prop_data
	{
		base Item.Medium
		allowstatic 1
	}
}