$cd ".\"
$modelname "props_c17/oscilloscope01.mdl"
$model "Body" "oscilloscope01_reference.smd"
$cdmaterials "models/props_c17/"
$surfaceprop "metalpanel"
$eyeposition 0.000 0.000 0.000
$illumposition -4.467 -0.024 7.500
$sequence idle "idle" ACT_IDLE 1 fps 30.000000
$keyvalues
{
	prop_data
	{
		base Metal.Medium
	}
}