version 1
nodes
  0 "static_prop" -1
end
skeleton
time 0
0 0.000000 0.000000 0.000000 0.000000 0.000000 0.000000
end
triangles
maptube01
0 -1.286900 1.414200 2.198700 -0.112599 0.133799 0.984591 0.426600 -0.387300 1 0 1.000000 
0 -1.847800 0.765400 2.120600 -0.177902 0.035400 0.983411 0.345600 -0.370400 1 0 1.000000 
0 -2.000000 -0.000000 2.120600 -0.177902 0.035400 0.983411 0.250000 -0.365900 1 0 1.000000 
maptube01
0 -0.000000 2.000000 2.120600 -0.045797 0.230287 0.972044 0.499800 -0.425800 1 0 1.000000 
0 -0.765400 1.847800 2.120600 -0.045797 0.230287 0.972044 0.480700 -0.402900 1 0 1.000000 
0 -1.286900 1.414200 2.198700 -0.112599 0.133799 0.984591 0.426600 -0.387300 1 0 1.000000 
maptube01
0 1.681400 0.696500 33.828701 0.103995 0.051397 -0.993249 0.337000 -0.476200 1 0 1.000000 
0 0.696500 1.681400 33.828701 0.037198 0.109795 -0.993258 0.460000 -0.446700 1 0 1.000000 
0 0.765400 1.847800 33.849602 0.051397 0.103995 -0.993249 0.480700 -0.448800 1 0 1.000000 
maptube01
0 0.696500 1.681400 33.828701 0.037198 0.109795 -0.993258 0.460000 -0.446700 1 0 1.000000 
0 -0.765400 1.847800 33.849602 -0.037198 0.109795 -0.993258 0.480700 -0.402900 1 0 1.000000 
0 0.765400 1.847800 33.849602 0.051397 0.103995 -0.993249 0.480700 -0.448800 1 0 1.000000 
maptube01
0 0.696500 1.681400 33.828701 0.037198 0.109795 -0.993258 0.460000 -0.446700 1 0 1.000000 
0 -0.696500 1.681400 33.828701 -0.051397 0.103995 -0.993249 0.460000 -0.404900 1 0 1.000000 
0 -0.765400 1.847800 33.849602 -0.037198 0.109795 -0.993258 0.480700 -0.402900 1 0 1.000000 
maptube01
0 -0.696500 1.681400 33.828701 -0.051397 0.103995 -0.993249 0.460000 -0.404900 1 0 1.000000 
0 -1.286900 1.286900 33.828701 -0.087196 0.076397 -0.993257 0.410700 -0.387300 1 0 1.000000 
0 -0.765400 1.847800 33.849602 -0.037198 0.109795 -0.993258 0.480700 -0.402900 1 0 1.000000 
maptube01
0 -1.286900 1.286900 33.828701 -0.087196 0.076397 -0.993257 0.410700 -0.387300 1 0 1.000000 
0 -1.681400 0.696500 33.828701 -0.109795 0.037198 -0.993258 0.337000 -0.375400 1 0 1.000000 
0 -1.847800 0.765400 33.849602 -0.103995 0.051397 -0.993249 0.345600 -0.370400 1 0 1.000000 
maptube01
0 -1.681400 0.696500 33.828701 -0.109795 0.037198 -0.993258 0.337000 -0.375400 1 0 1.000000 
0 -1.847800 -0.765400 33.849602 -0.109795 -0.037198 -0.993258 0.154400 -0.370400 1 0 1.000000 
0 -1.847800 0.765400 33.849602 -0.103995 0.051397 -0.993249 0.345600 -0.370400 1 0 1.000000 
maptube01
0 -1.681400 0.696500 33.828701 -0.109795 0.037198 -0.993258 0.337000 -0.375400 1 0 1.000000 
0 -1.681400 -0.696500 33.828701 -0.103995 -0.051397 -0.993249 0.163000 -0.375400 1 0 1.000000 
0 -1.847800 -0.765400 33.849602 -0.109795 -0.037198 -0.993258 0.154400 -0.370400 1 0 1.000000 
maptube01
0 -1.681400 -0.696500 33.828701 -0.103995 -0.051397 -0.993249 0.163000 -0.375400 1 0 1.000000 
0 -0.765400 -1.847800 33.849602 -0.051397 -0.103995 -0.993249 0.019300 -0.402900 1 0 1.000000 
0 -1.847800 -0.765400 33.849602 -0.109795 -0.037198 -0.993258 0.154400 -0.370400 1 0 1.000000 
maptube01
0 -1.681400 -0.696500 33.828701 -0.103995 -0.051397 -0.993249 0.163000 -0.375400 1 0 1.000000 
0 -0.696500 -1.681400 33.828701 -0.037198 -0.109795 -0.993258 0.040000 -0.404900 1 0 1.000000 
0 -0.765400 -1.847800 33.849602 -0.051397 -0.103995 -0.993249 0.019300 -0.402900 1 0 1.000000 
maptube01
0 -0.696500 -1.681400 33.828701 -0.037198 -0.109795 -0.993258 0.040000 -0.404900 1 0 1.000000 
0 0.765400 -1.847800 33.849602 0.037198 -0.109795 -0.993258 0.019300 -0.448800 1 0 1.000000 
0 -0.765400 -1.847800 33.849602 -0.051397 -0.103995 -0.993249 0.019300 -0.402900 1 0 1.000000 
maptube01
0 -0.696500 -1.681400 33.828701 -0.037198 -0.109795 -0.993258 0.040000 -0.404900 1 0 1.000000 
0 0.696500 -1.681400 33.828701 0.051397 -0.103995 -0.993249 0.040000 -0.446700 1 0 1.000000 
0 0.765400 -1.847800 33.849602 0.037198 -0.109795 -0.993258 0.019300 -0.448800 1 0 1.000000 
maptube01
0 0.696500 -1.681400 33.828701 0.051397 -0.103995 -0.993249 0.040000 -0.446700 1 0 1.000000 
0 1.414200 -1.414200 33.849602 0.076397 -0.087196 -0.993257 0.073400 -0.468200 1 0 1.000000 
0 0.765400 -1.847800 33.849602 0.037198 -0.109795 -0.993258 0.019300 -0.448800 1 0 1.000000 
maptube01
0 0.696500 -1.681400 33.828701 0.051397 -0.103995 -0.993249 0.040000 -0.446700 1 0 1.000000 
0 1.847800 -0.765400 33.849602 0.103995 -0.051397 -0.993249 0.154400 -0.481200 1 0 1.000000 
0 1.414200 -1.414200 33.849602 0.076397 -0.087196 -0.993257 0.073400 -0.468200 1 0 1.000000 
maptube01
0 0.696500 -1.681400 33.828701 0.051397 -0.103995 -0.993249 0.040000 -0.446700 1 0 1.000000 
0 1.681400 -0.696500 33.828701 0.109795 -0.037198 -0.993258 0.163000 -0.476200 1 0 1.000000 
0 1.847800 -0.765400 33.849602 0.103995 -0.051397 -0.993249 0.154400 -0.481200 1 0 1.000000 
maptube01
0 1.681400 -0.696500 33.828701 0.109795 -0.037198 -0.993258 0.163000 -0.476200 1 0 1.000000 
0 1.681400 0.696500 33.828701 0.103995 0.051397 -0.993249 0.337000 -0.476200 1 0 1.000000 
0 1.847800 -0.765400 33.849602 0.103995 -0.051397 -0.993249 0.154400 -0.481200 1 0 1.000000 
maptube01
0 2.000000 0.000000 36.045200 0.000000 0.000000 1.000000 0.250000 -0.485800 1 0 1.000000 
0 0.000000 -2.000000 36.045200 0.000000 0.000000 1.000000 0.000300 -0.425800 1 0 1.000000 
0 1.414200 -1.414200 36.045200 0.000000 0.000000 1.000000 0.073400 -0.468200 1 0 1.000000 
maptube01
0 2.000000 0.000000 36.045200 0.000000 0.000000 1.000000 0.250000 -0.485800 1 0 1.000000 
0 -1.414200 -1.414200 36.045200 0.000000 0.000000 1.000000 0.073400 -0.383400 1 0 1.000000 
0 0.000000 -2.000000 36.045200 0.000000 0.000000 1.000000 0.000300 -0.425800 1 0 1.000000 
maptube01
0 2.000000 0.000000 36.045200 0.000000 0.000000 1.000000 0.250000 -0.485800 1 0 1.000000 
0 -2.000000 -0.000000 36.045200 0.000000 0.000000 1.000000 0.250000 -0.365900 1 0 1.000000 
0 -1.414200 -1.414200 36.045200 0.000000 0.000000 1.000000 0.073400 -0.383400 1 0 1.000000 
maptube01
0 2.000000 0.000000 36.045200 0.000000 0.000000 1.000000 0.250000 -0.485800 1 0 1.000000 
0 -1.414200 1.414200 36.045200 0.000000 0.000000 1.000000 0.426600 -0.383400 1 0 1.000000 
0 -2.000000 -0.000000 36.045200 0.000000 0.000000 1.000000 0.250000 -0.365900 1 0 1.000000 
maptube01
0 2.000000 0.000000 36.045200 0.000000 0.000000 1.000000 0.250000 -0.485800 1 0 1.000000 
0 -0.000000 2.000000 36.045200 0.000000 0.000000 1.000000 0.499800 -0.425800 1 0 1.000000 
0 -1.414200 1.414200 36.045200 0.000000 0.000000 1.000000 0.426600 -0.383400 1 0 1.000000 
maptube01
0 2.000000 0.000000 36.045200 0.000000 0.000000 1.000000 0.250000 -0.485800 1 0 1.000000 
0 1.414200 1.414200 36.045200 0.000000 0.000000 1.000000 0.426600 -0.468200 1 0 1.000000 
0 -0.000000 2.000000 36.045200 0.000000 0.000000 1.000000 0.499800 -0.425800 1 0 1.000000 
maptube01
0 -0.000000 2.000000 2.120600 -0.075602 0.997123 0.005400 0.993400 -0.628200 1 0 1.000000 
0 -0.696500 1.681400 33.828701 -0.320694 0.947183 0.000000 0.005000 -0.597700 1 0 1.000000 
0 0.696500 1.681400 33.828701 0.443009 0.896517 0.000000 0.005000 -0.658700 1 0 1.000000 
maptube01
0 -0.000000 2.000000 2.120600 -0.075602 0.997123 0.005400 0.993400 -0.628200 1 0 1.000000 
0 -1.286900 1.414200 2.198700 -0.736326 0.676624 0.002100 0.993400 -0.567200 1 0 1.000000 
0 -0.696500 1.681400 33.828701 -0.320694 0.947183 0.000000 0.005000 -0.597700 1 0 1.000000 
maptube01
0 -1.286900 1.414200 2.198700 -0.736326 0.676624 0.002100 0.993400 -0.567200 1 0 1.000000 
0 -1.286900 1.286900 33.828701 -0.707104 0.707104 0.002800 0.005000 -0.567200 1 0 1.000000 
0 -0.696500 1.681400 33.828701 -0.320694 0.947183 0.000000 0.005000 -0.597700 1 0 1.000000 
maptube01
0 -1.286900 1.414200 2.198700 -0.736326 0.676624 0.002100 0.993400 -0.567200 1 0 1.000000 
0 -1.681400 0.696500 33.828701 -0.909053 0.416679 0.000800 0.005000 -0.536800 1 0 1.000000 
0 -1.286900 1.286900 33.828701 -0.707104 0.707104 0.002800 0.005000 -0.567200 1 0 1.000000 
maptube01
0 -1.286900 1.414200 2.198700 -0.736326 0.676624 0.002100 0.993400 -0.567200 1 0 1.000000 
0 -2.000000 -0.000000 2.120600 -0.997806 0.066200 0.000000 1.000000 -0.468200 1 0 1.000000 
0 -1.681400 0.696500 33.828701 -0.909053 0.416679 0.000800 0.005000 -0.536800 1 0 1.000000 
maptube01
0 -2.000000 -0.000000 2.120600 -0.996063 0.088497 0.005100 0.993400 -0.994100 1 0 1.000000 
0 -1.681400 -0.696500 33.828701 -0.947183 -0.320694 0.000000 0.005000 -0.963600 1 0 1.000000 
0 -1.681400 0.696500 33.828701 -0.950113 0.311904 0.001000 0.005000 -0.994100 1 0 1.000000 
maptube01
0 -2.000000 -0.000000 2.120600 -0.996063 0.088497 0.005100 0.993400 -0.994100 1 0 1.000000 
0 -1.847800 -0.765400 2.120600 -0.923862 -0.382684 0.005700 0.993400 -0.963600 1 0 1.000000 
0 -1.681400 -0.696500 33.828701 -0.947183 -0.320694 0.000000 0.005000 -0.963600 1 0 1.000000 
maptube01
0 -1.847800 -0.765400 2.120600 -0.923862 -0.382684 0.005700 0.993400 -0.963600 1 0 1.000000 
0 -1.414200 -1.414200 2.120600 -0.707088 -0.707088 0.007200 0.993400 -0.933100 1 0 1.000000 
0 -1.681400 -0.696500 33.828701 -0.947183 -0.320694 0.000000 0.005000 -0.963600 1 0 1.000000 
maptube01
0 -1.414200 -1.414200 2.120600 -0.707088 -0.707088 0.007200 0.993400 -0.933100 1 0 1.000000 
0 -0.696500 -1.681400 33.828701 -0.443009 -0.896517 0.000000 0.005000 -0.902600 1 0 1.000000 
0 -1.681400 -0.696500 33.828701 -0.947183 -0.320694 0.000000 0.005000 -0.963600 1 0 1.000000 
maptube01
0 -1.414200 -1.414200 2.120600 -0.707088 -0.707088 0.007200 0.993400 -0.933100 1 0 1.000000 
0 -0.765400 -1.847800 2.120600 -0.382684 -0.923862 0.005700 0.993400 -0.902600 1 0 1.000000 
0 -0.696500 -1.681400 33.828701 -0.443009 -0.896517 0.000000 0.005000 -0.902600 1 0 1.000000 
maptube01
0 -0.765400 -1.847800 2.120600 -0.382684 -0.923862 0.005700 0.993400 -0.902600 1 0 1.000000 
0 0.000000 -2.000000 2.120600 0.000000 -0.999974 0.007200 0.993400 -0.872100 1 0 1.000000 
0 -0.696500 -1.681400 33.828701 -0.443009 -0.896517 0.000000 0.005000 -0.902600 1 0 1.000000 
maptube01
0 0.000000 -2.000000 2.120600 0.000000 -0.999974 0.007200 0.993400 -0.872100 1 0 1.000000 
0 0.696500 -1.681400 33.828701 0.320694 -0.947183 0.000000 0.005000 -0.841600 1 0 1.000000 
0 -0.696500 -1.681400 33.828701 -0.443009 -0.896517 0.000000 0.005000 -0.902600 1 0 1.000000 
maptube01
0 0.000000 -2.000000 2.120600 0.000000 -0.999974 0.007200 0.993400 -0.872100 1 0 1.000000 
0 0.765400 -1.847800 2.120600 0.382684 -0.923862 0.005700 0.993400 -0.841600 1 0 1.000000 
0 0.696500 -1.681400 33.828701 0.320694 -0.947183 0.000000 0.005000 -0.841600 1 0 1.000000 
maptube01
0 0.765400 -1.847800 2.120600 0.382684 -0.923862 0.005700 0.993400 -0.841600 1 0 1.000000 
0 1.414200 -1.414200 2.120600 0.707088 -0.707088 0.007200 0.993400 -0.811100 1 0 1.000000 
0 0.696500 -1.681400 33.828701 0.320694 -0.947183 0.000000 0.005000 -0.841600 1 0 1.000000 
maptube01
0 1.414200 -1.414200 2.120600 0.707088 -0.707088 0.007200 0.993400 -0.811100 1 0 1.000000 
0 1.681400 -0.696500 33.828701 0.944793 -0.327598 0.006700 0.005000 -0.780700 1 0 1.000000 
0 0.696500 -1.681400 33.828701 0.320694 -0.947183 0.000000 0.005000 -0.841600 1 0 1.000000 
maptube01
0 1.414200 -1.414200 2.120600 0.707088 -0.707088 0.007200 0.993400 -0.811100 1 0 1.000000 
0 1.847800 -0.765400 2.120600 0.961972 -0.273092 0.005600 0.993400 -0.780700 1 0 1.000000 
0 1.681400 -0.696500 33.828701 0.944793 -0.327598 0.006700 0.005000 -0.780700 1 0 1.000000 
maptube01
0 1.847800 -0.765400 2.120600 0.961972 -0.273092 0.005600 0.993400 -0.780700 1 0 1.000000 
0 1.819900 0.000000 2.198700 0.997806 0.066200 0.000000 0.993400 -0.750200 1 0 1.000000 
0 1.681400 -0.696500 33.828701 0.944793 -0.327598 0.006700 0.005000 -0.780700 1 0 1.000000 
maptube01
0 1.819900 0.000000 2.198700 0.997806 0.066200 0.000000 0.993400 -0.750200 1 0 1.000000 
0 1.681400 0.696500 33.828701 0.947183 0.320694 0.000000 0.005000 -0.719700 1 0 1.000000 
0 1.681400 -0.696500 33.828701 0.944793 -0.327598 0.006700 0.005000 -0.780700 1 0 1.000000 
maptube01
0 1.819900 0.000000 2.198700 0.997806 0.066200 0.000000 0.993400 -0.750200 1 0 1.000000 
0 1.847800 0.765400 2.120600 0.923862 0.382684 0.005700 0.993400 -0.719700 1 0 1.000000 
0 1.681400 0.696500 33.828701 0.947183 0.320694 0.000000 0.005000 -0.719700 1 0 1.000000 
maptube01
0 1.847800 0.765400 2.120600 0.923862 0.382684 0.005700 0.993400 -0.719700 1 0 1.000000 
0 1.286900 1.286900 2.198700 0.658809 0.752310 0.000000 0.993400 -0.689200 1 0 1.000000 
0 1.681400 0.696500 33.828701 0.947183 0.320694 0.000000 0.005000 -0.719700 1 0 1.000000 
maptube01
0 1.286900 1.286900 2.198700 0.658809 0.752310 0.000000 0.993400 -0.689200 1 0 1.000000 
0 0.696500 1.681400 33.828701 0.443009 0.896517 0.000000 0.005000 -0.658700 1 0 1.000000 
0 1.681400 0.696500 33.828701 0.947183 0.320694 0.000000 0.005000 -0.719700 1 0 1.000000 
maptube01
0 1.286900 1.286900 2.198700 0.658809 0.752310 0.000000 0.993400 -0.689200 1 0 1.000000 
0 0.765400 1.847800 2.120600 0.487112 0.873321 0.005600 0.993400 -0.658700 1 0 1.000000 
0 0.696500 1.681400 33.828701 0.443009 0.896517 0.000000 0.005000 -0.658700 1 0 1.000000 
maptube01
0 0.765400 1.847800 2.120600 0.487112 0.873321 0.005600 0.993400 -0.658700 1 0 1.000000 
0 -0.000000 2.000000 2.120600 -0.075602 0.997123 0.005400 0.993400 -0.628200 1 0 1.000000 
0 0.696500 1.681400 33.828701 0.443009 0.896517 0.000000 0.005000 -0.658700 1 0 1.000000 
maptube01
0 -1.847800 -0.765400 0.017600 -0.896517 -0.443009 0.000000 0.062500 -0.496700 1 0 1.000000 
0 -1.847800 -0.765400 2.120600 -0.947183 -0.320694 0.000000 0.062500 -0.468200 1 0 1.000000 
0 -2.000000 -0.000000 2.120600 -0.997806 0.066200 0.000000 -0.000000 -0.468200 1 0 1.000000 
maptube01
0 -1.847800 -0.765400 0.017600 -0.896517 -0.443009 0.000000 0.062500 -0.496700 1 0 1.000000 
0 -1.414200 -1.414200 2.120600 -0.752310 -0.658809 0.000000 0.125000 -0.468200 1 0 1.000000 
0 -1.847800 -0.765400 2.120600 -0.947183 -0.320694 0.000000 0.062500 -0.468200 1 0 1.000000 
maptube01
0 -1.847800 -0.765400 0.017600 -0.896517 -0.443009 0.000000 0.062500 -0.496700 1 0 1.000000 
0 -0.765400 -1.847800 0.017600 -0.320694 -0.947183 0.000000 0.187500 -0.496700 1 0 1.000000 
0 -1.414200 -1.414200 2.120600 -0.752310 -0.658809 0.000000 0.125000 -0.468200 1 0 1.000000 
maptube01
0 -0.765400 -1.847800 0.017600 -0.320694 -0.947183 0.000000 0.187500 -0.496700 1 0 1.000000 
0 -0.765400 -1.847800 2.120600 -0.443009 -0.896517 0.000000 0.187500 -0.468200 1 0 1.000000 
0 -1.414200 -1.414200 2.120600 -0.752310 -0.658809 0.000000 0.125000 -0.468200 1 0 1.000000 
maptube01
0 -0.765400 -1.847800 0.017600 -0.320694 -0.947183 0.000000 0.187500 -0.496700 1 0 1.000000 
0 0.000000 -2.000000 2.120600 -0.066200 -0.997806 0.000000 0.250000 -0.468200 1 0 1.000000 
0 -0.765400 -1.847800 2.120600 -0.443009 -0.896517 0.000000 0.187500 -0.468200 1 0 1.000000 
maptube01
0 -0.765400 -1.847800 0.017600 -0.320694 -0.947183 0.000000 0.187500 -0.496700 1 0 1.000000 
0 0.765400 -1.847800 0.017600 0.443009 -0.896517 0.000000 0.312500 -0.496700 1 0 1.000000 
0 0.000000 -2.000000 2.120600 -0.066200 -0.997806 0.000000 0.250000 -0.468200 1 0 1.000000 
maptube01
0 0.765400 -1.847800 0.017600 0.443009 -0.896517 0.000000 0.312500 -0.496700 1 0 1.000000 
0 0.765400 -1.847800 2.120600 0.320694 -0.947183 0.000000 0.312500 -0.468200 1 0 1.000000 
0 0.000000 -2.000000 2.120600 -0.066200 -0.997806 0.000000 0.250000 -0.468200 1 0 1.000000 
maptube01
0 0.765400 -1.847800 0.017600 0.443009 -0.896517 0.000000 0.312500 -0.496700 1 0 1.000000 
0 1.414200 -1.414200 2.120600 0.658809 -0.752310 0.000000 0.375000 -0.468200 1 0 1.000000 
0 0.765400 -1.847800 2.120600 0.320694 -0.947183 0.000000 0.312500 -0.468200 1 0 1.000000 
maptube01
0 0.765400 -1.847800 0.017600 0.443009 -0.896517 0.000000 0.312500 -0.496700 1 0 1.000000 
0 1.847800 -0.765400 0.017600 0.947183 -0.320694 0.000000 0.437500 -0.496700 1 0 1.000000 
0 1.414200 -1.414200 2.120600 0.658809 -0.752310 0.000000 0.375000 -0.468200 1 0 1.000000 
maptube01
0 1.847800 -0.765400 0.017600 0.947183 -0.320694 0.000000 0.437500 -0.496700 1 0 1.000000 
0 1.847800 -0.765400 2.120600 0.962047 -0.272885 0.000000 0.437500 -0.468200 1 0 1.000000 
0 1.414200 -1.414200 2.120600 0.658809 -0.752310 0.000000 0.375000 -0.468200 1 0 1.000000 
maptube01
0 1.847800 -0.765400 0.017600 0.947183 -0.320694 0.000000 0.437500 -0.496700 1 0 1.000000 
0 1.819900 0.000000 2.198700 0.996563 -0.062298 0.054598 0.500000 -0.468200 1 0 1.000000 
0 1.847800 -0.765400 2.120600 0.962047 -0.272885 0.000000 0.437500 -0.468200 1 0 1.000000 
maptube01
0 1.847800 -0.765400 0.017600 0.947183 -0.320694 0.000000 0.437500 -0.496700 1 0 1.000000 
0 2.000000 0.000000 0.017600 0.997806 0.066200 0.000000 0.500000 -0.496700 1 0 1.000000 
0 1.819900 0.000000 2.198700 0.996563 -0.062298 0.054598 0.500000 -0.468200 1 0 1.000000 
maptube01
0 2.000000 0.000000 0.017600 0.997806 0.066200 0.000000 0.500000 -0.496700 1 0 1.000000 
0 1.847800 0.765400 2.120600 0.947183 0.320694 0.000000 0.562500 -0.468200 1 0 1.000000 
0 1.819900 0.000000 2.198700 0.996563 -0.062298 0.054598 0.500000 -0.468200 1 0 1.000000 
maptube01
0 2.000000 0.000000 0.017600 0.997806 0.066200 0.000000 0.500000 -0.496700 1 0 1.000000 
0 1.414200 1.414200 0.017600 0.740258 0.672062 -0.018699 0.625000 -0.496700 1 0 1.000000 
0 1.847800 0.765400 2.120600 0.947183 0.320694 0.000000 0.562500 -0.468200 1 0 1.000000 
maptube01
0 1.414200 1.414200 0.017600 0.740258 0.672062 -0.018699 0.625000 -0.496700 1 0 1.000000 
0 1.286900 1.286900 2.198700 0.704708 0.704708 0.082301 0.625000 -0.468200 1 0 1.000000 
0 1.847800 0.765400 2.120600 0.947183 0.320694 0.000000 0.562500 -0.468200 1 0 1.000000 
maptube01
0 1.414200 1.414200 0.017600 0.740258 0.672062 -0.018699 0.625000 -0.496700 1 0 1.000000 
0 0.765400 1.847800 2.120600 0.443009 0.896517 0.000000 0.687500 -0.468200 1 0 1.000000 
0 1.286900 1.286900 2.198700 0.704708 0.704708 0.082301 0.625000 -0.468200 1 0 1.000000 
maptube01
0 1.414200 1.414200 0.017600 0.740258 0.672062 -0.018699 0.625000 -0.496700 1 0 1.000000 
0 0.765400 1.847800 0.017600 0.320694 0.947183 0.000000 0.687500 -0.496700 1 0 1.000000 
0 0.765400 1.847800 2.120600 0.443009 0.896517 0.000000 0.687500 -0.468200 1 0 1.000000 
maptube01
0 0.765400 1.847800 0.017600 0.320694 0.947183 0.000000 0.687500 -0.496700 1 0 1.000000 
0 -0.000000 2.000000 2.120600 0.066200 0.997806 0.000000 0.750000 -0.468200 1 0 1.000000 
0 0.765400 1.847800 2.120600 0.443009 0.896517 0.000000 0.687500 -0.468200 1 0 1.000000 
maptube01
0 0.765400 1.847800 0.017600 0.320694 0.947183 0.000000 0.687500 -0.496700 1 0 1.000000 
0 -0.765400 1.847800 0.017600 -0.443009 0.896517 0.000000 0.812500 -0.496700 1 0 1.000000 
0 -0.000000 2.000000 2.120600 0.066200 0.997806 0.000000 0.750000 -0.468200 1 0 1.000000 
maptube01
0 -0.765400 1.847800 0.017600 -0.443009 0.896517 0.000000 0.812500 -0.496700 1 0 1.000000 
0 -0.765400 1.847800 2.120600 -0.430415 0.902631 0.000000 0.812500 -0.468200 1 0 1.000000 
0 -0.000000 2.000000 2.120600 0.066200 0.997806 0.000000 0.750000 -0.468200 1 0 1.000000 
maptube01
0 -0.765400 1.847800 0.017600 -0.443009 0.896517 0.000000 0.812500 -0.496700 1 0 1.000000 
0 -1.286900 1.414200 2.198700 -0.702510 0.711610 -0.009500 0.875000 -0.468200 1 0 1.000000 
0 -0.765400 1.847800 2.120600 -0.430415 0.902631 0.000000 0.812500 -0.468200 1 0 1.000000 
maptube01
0 -0.765400 1.847800 0.017600 -0.443009 0.896517 0.000000 0.812500 -0.496700 1 0 1.000000 
0 -1.847800 0.765400 0.017600 -0.910886 0.411794 -0.026700 0.937500 -0.496700 1 0 1.000000 
0 -1.286900 1.414200 2.198700 -0.702510 0.711610 -0.009500 0.875000 -0.468200 1 0 1.000000 
maptube01
0 -1.847800 0.765400 0.017600 -0.910886 0.411794 -0.026700 0.937500 -0.496700 1 0 1.000000 
0 -1.847800 0.765400 2.120600 -0.896517 0.443009 0.000000 0.937500 -0.468200 1 0 1.000000 
0 -1.286900 1.414200 2.198700 -0.702510 0.711610 -0.009500 0.875000 -0.468200 1 0 1.000000 
maptube01
0 -1.847800 0.765400 0.017600 -0.910886 0.411794 -0.026700 0.937500 -0.496700 1 0 1.000000 
0 -2.000000 -0.000000 2.120600 -0.997806 0.066200 0.000000 1.000000 -0.468200 1 0 1.000000 
0 -1.847800 0.765400 2.120600 -0.896517 0.443009 0.000000 0.937500 -0.468200 1 0 1.000000 
maptube01
0 -1.847800 0.765400 0.017600 -0.910886 0.411794 -0.026700 0.937500 -0.496700 1 0 1.000000 
0 -1.847800 -0.765400 0.017600 -0.923216 -0.382407 -0.037901 1.000000 -0.496700 1 0 1.000000 
0 -2.000000 -0.000000 2.120600 -0.997806 0.066200 0.000000 1.000000 -0.468200 1 0 1.000000 
maptube01
0 -0.765400 1.847800 0.017600 0.000000 0.000000 -1.000000 0.480700 -0.402900 1 0 1.000000 
0 -1.847800 -0.765400 0.017600 0.000000 0.000000 -1.000000 0.154400 -0.370400 1 0 1.000000 
0 -1.847800 0.765400 0.017600 0.000000 0.000000 -1.000000 0.345600 -0.370400 1 0 1.000000 
maptube01
0 -0.765400 1.847800 0.017600 0.000000 0.000000 -1.000000 0.480700 -0.402900 1 0 1.000000 
0 -0.765400 -1.847800 0.017600 0.000000 0.000000 -1.000000 0.019300 -0.402900 1 0 1.000000 
0 -1.847800 -0.765400 0.017600 0.000000 0.000000 -1.000000 0.154400 -0.370400 1 0 1.000000 
maptube01
0 -0.765400 1.847800 0.017600 0.000000 0.000000 -1.000000 0.480700 -0.402900 1 0 1.000000 
0 0.765400 -1.847800 0.017600 0.000000 0.000000 -1.000000 0.019300 -0.448800 1 0 1.000000 
0 -0.765400 -1.847800 0.017600 0.000000 0.000000 -1.000000 0.019300 -0.402900 1 0 1.000000 
maptube01
0 -0.765400 1.847800 0.017600 0.000000 0.000000 -1.000000 0.480700 -0.402900 1 0 1.000000 
0 1.847800 -0.765400 0.017600 0.000000 0.000000 -1.000000 0.154400 -0.481200 1 0 1.000000 
0 0.765400 -1.847800 0.017600 0.000000 0.000000 -1.000000 0.019300 -0.448800 1 0 1.000000 
maptube01
0 -0.765400 1.847800 0.017600 0.000000 0.000000 -1.000000 0.480700 -0.402900 1 0 1.000000 
0 2.000000 0.000000 0.017600 0.000000 0.000000 -1.000000 0.250000 -0.485800 1 0 1.000000 
0 1.847800 -0.765400 0.017600 0.000000 0.000000 -1.000000 0.154400 -0.481200 1 0 1.000000 
maptube01
0 -0.765400 1.847800 0.017600 0.000000 0.000000 -1.000000 0.480700 -0.402900 1 0 1.000000 
0 1.414200 1.414200 0.017600 0.000000 0.000000 -1.000000 0.426600 -0.468200 1 0 1.000000 
0 2.000000 0.000000 0.017600 0.000000 0.000000 -1.000000 0.250000 -0.485800 1 0 1.000000 
maptube01
0 -0.765400 1.847800 0.017600 0.000000 0.000000 -1.000000 0.480700 -0.402900 1 0 1.000000 
0 0.765400 1.847800 0.017600 0.000000 0.000000 -1.000000 0.480700 -0.448800 1 0 1.000000 
0 1.414200 1.414200 0.017600 0.000000 0.000000 -1.000000 0.426600 -0.468200 1 0 1.000000 
maptube01
0 -1.847800 0.765400 33.849602 -0.919270 0.392587 -0.028599 -0.000000 -0.037100 1 0 1.000000 
0 -1.847800 -0.765400 33.849602 -0.896517 -0.443009 0.000000 0.062500 -0.037100 1 0 1.000000 
0 -2.000000 -0.000000 36.045200 -0.997806 0.066200 0.000000 -0.000000 -0.007200 1 0 1.000000 
maptube01
0 -1.847800 -0.765400 33.849602 -0.896517 -0.443009 0.000000 0.062500 -0.037100 1 0 1.000000 
0 -1.414200 -1.414200 36.045200 -0.752310 -0.658809 0.000000 0.125000 -0.007200 1 0 1.000000 
0 -2.000000 -0.000000 36.045200 -0.997806 0.066200 0.000000 -0.000000 -0.007200 1 0 1.000000 
maptube01
0 -1.847800 -0.765400 33.849602 -0.896517 -0.443009 0.000000 0.062500 -0.037100 1 0 1.000000 
0 -0.765400 -1.847800 33.849602 -0.320694 -0.947183 0.000000 0.187500 -0.037100 1 0 1.000000 
0 -1.414200 -1.414200 36.045200 -0.752310 -0.658809 0.000000 0.125000 -0.007200 1 0 1.000000 
maptube01
0 -0.765400 -1.847800 33.849602 -0.320694 -0.947183 0.000000 0.187500 -0.037100 1 0 1.000000 
0 0.000000 -2.000000 36.045200 -0.066200 -0.997806 0.000000 0.250000 -0.007200 1 0 1.000000 
0 -1.414200 -1.414200 36.045200 -0.752310 -0.658809 0.000000 0.125000 -0.007200 1 0 1.000000 
maptube01
0 -0.765400 -1.847800 33.849602 -0.320694 -0.947183 0.000000 0.187500 -0.037100 1 0 1.000000 
0 0.765400 -1.847800 33.849602 0.322491 -0.946573 0.000000 0.312500 -0.037100 1 0 1.000000 
0 0.000000 -2.000000 36.045200 -0.066200 -0.997806 0.000000 0.250000 -0.007200 1 0 1.000000 
maptube01
0 0.765400 -1.847800 33.849602 0.322491 -0.946573 0.000000 0.312500 -0.037100 1 0 1.000000 
0 1.414200 -1.414200 36.045200 0.658809 -0.752310 0.000000 0.375000 -0.007200 1 0 1.000000 
0 0.000000 -2.000000 36.045200 -0.066200 -0.997806 0.000000 0.250000 -0.007200 1 0 1.000000 
maptube01
0 0.765400 -1.847800 33.849602 0.322491 -0.946573 0.000000 0.312500 -0.037100 1 0 1.000000 
0 1.414200 -1.414200 33.849602 0.752310 -0.658809 0.000000 0.375000 -0.037100 1 0 1.000000 
0 1.414200 -1.414200 36.045200 0.658809 -0.752310 0.000000 0.375000 -0.007200 1 0 1.000000 
maptube01
0 1.414200 -1.414200 33.849602 0.752310 -0.658809 0.000000 0.375000 -0.037100 1 0 1.000000 
0 1.847800 -0.765400 33.849602 0.947183 -0.320694 0.000000 0.437500 -0.037100 1 0 1.000000 
0 1.414200 -1.414200 36.045200 0.658809 -0.752310 0.000000 0.375000 -0.007200 1 0 1.000000 
maptube01
0 1.847800 -0.765400 33.849602 0.947183 -0.320694 0.000000 0.437500 -0.037100 1 0 1.000000 
0 2.000000 0.000000 36.045200 0.998677 0.048199 0.017900 0.500000 -0.007200 1 0 1.000000 
0 1.414200 -1.414200 36.045200 0.658809 -0.752310 0.000000 0.375000 -0.007200 1 0 1.000000 
maptube01
0 1.847800 -0.765400 33.849602 0.947183 -0.320694 0.000000 0.437500 -0.037100 1 0 1.000000 
0 1.681400 0.696500 33.828701 0.921098 0.381499 -0.077700 0.562500 -0.037100 1 0 1.000000 
0 2.000000 0.000000 36.045200 0.998677 0.048199 0.017900 0.500000 -0.007200 1 0 1.000000 
maptube01
0 1.681400 0.696500 33.828701 0.921098 0.381499 -0.077700 0.562500 -0.037100 1 0 1.000000 
0 1.414200 1.414200 36.045200 0.752310 0.658809 0.000000 0.625000 -0.007200 1 0 1.000000 
0 2.000000 0.000000 36.045200 0.998677 0.048199 0.017900 0.500000 -0.007200 1 0 1.000000 
maptube01
0 1.681400 0.696500 33.828701 0.921098 0.381499 -0.077700 0.562500 -0.037100 1 0 1.000000 
0 0.765400 1.847800 33.849602 0.414801 0.909102 -0.038400 0.687500 -0.037100 1 0 1.000000 
0 1.414200 1.414200 36.045200 0.752310 0.658809 0.000000 0.625000 -0.007200 1 0 1.000000 
maptube01
0 0.765400 1.847800 33.849602 0.414801 0.909102 -0.038400 0.687500 -0.037100 1 0 1.000000 
0 -0.000000 2.000000 36.045200 0.066200 0.997806 0.000000 0.750000 -0.007200 1 0 1.000000 
0 1.414200 1.414200 36.045200 0.752310 0.658809 0.000000 0.625000 -0.007200 1 0 1.000000 
maptube01
0 0.765400 1.847800 33.849602 0.414801 0.909102 -0.038400 0.687500 -0.037100 1 0 1.000000 
0 -0.765400 1.847800 33.849602 -0.443009 0.896517 0.000000 0.812500 -0.037100 1 0 1.000000 
0 -0.000000 2.000000 36.045200 0.066200 0.997806 0.000000 0.750000 -0.007200 1 0 1.000000 
maptube01
0 -0.765400 1.847800 33.849602 -0.443009 0.896517 0.000000 0.812500 -0.037100 1 0 1.000000 
0 -1.414200 1.414200 36.045200 -0.658809 0.752310 0.000000 0.875000 -0.007200 1 0 1.000000 
0 -0.000000 2.000000 36.045200 0.066200 0.997806 0.000000 0.750000 -0.007200 1 0 1.000000 
maptube01
0 -0.765400 1.847800 33.849602 -0.443009 0.896517 0.000000 0.812500 -0.037100 1 0 1.000000 
0 -1.286900 1.286900 33.828701 -0.704783 0.704783 -0.080998 0.875000 -0.037100 1 0 1.000000 
0 -1.414200 1.414200 36.045200 -0.658809 0.752310 0.000000 0.875000 -0.007200 1 0 1.000000 
maptube01
0 -1.286900 1.286900 33.828701 -0.704783 0.704783 -0.080998 0.875000 -0.037100 1 0 1.000000 
0 -1.847800 0.765400 33.849602 -0.947183 0.320694 0.000000 0.937500 -0.037100 1 0 1.000000 
0 -1.414200 1.414200 36.045200 -0.658809 0.752310 0.000000 0.875000 -0.007200 1 0 1.000000 
maptube01
0 -1.847800 0.765400 33.849602 -0.947183 0.320694 0.000000 0.937500 -0.037100 1 0 1.000000 
0 -2.000000 -0.000000 36.045200 -0.997806 0.066200 0.000000 1.000000 -0.007200 1 0 1.000000 
0 -1.414200 1.414200 36.045200 -0.658809 0.752310 0.000000 0.875000 -0.007200 1 0 1.000000 
end
