$cd ".\"
$modelname "props_borealis/borealis_monitor002.mdl"
$model "Body" "borealis_monitor002_reference.smd"
$cdmaterials "models/props_borealis/"
$surfaceprop "plastic"
$eyeposition 0.000 0.000 0.000
$illumposition 0.000 -0.000 0.000
$sequence idle "idle" ACT_IDLE 1 fps 30.000000
$keyvalues
{
prop_data
{
base Plastic.Medium
}
}