version 1
nodes
  0 "static_prop" -1
end
skeleton
time 0
0 0.000000 0.000000 0.000000 0.000000 0.000000 0.000000
end
triangles
rockgranite02a
0 25.657402 -31.285398 -9.514200 -0.276996 -0.874388 -0.398395 0.428500 -0.701900 1 0 1.000000 
0 -17.262300 -12.242201 -21.463499 -0.276996 -0.874388 -0.398395 0.093200 -0.795300 1 0 1.000000 
0 22.363201 -26.344698 -18.067200 -0.276996 -0.874388 -0.398395 0.417500 -0.812100 1 0 1.000000 
rockgranite02a
0 -5.806699 -24.378500 10.350800 -0.276601 -0.868802 0.410701 0.182700 -0.546700 1 0 1.000000 
0 -37.882301 -11.722301 15.526200 -0.276601 -0.868802 0.410701 -0.067900 -0.506300 1 0 1.000000 
0 -34.073502 -21.307302 -1.968800 -0.275202 -0.867105 0.415202 -0.054700 -0.660800 1 0 1.000000 
rockgranite02a
0 -5.806699 -24.378500 10.350800 -0.276601 -0.868802 0.410701 0.182700 -0.546700 1 0 1.000000 
0 8.607100 -25.287600 18.134600 -0.276601 -0.868802 0.410701 0.295300 -0.485900 1 0 1.000000 
0 -37.882301 -11.722301 15.526200 -0.276601 -0.868802 0.410701 -0.067900 -0.506300 1 0 1.000000 
rockgranite02a
0 -32.889599 9.831998 -25.144699 0.099805 0.560027 -0.822440 0.452100 0.028900 1 0 1.000000 
0 38.955799 27.477001 -4.414900 0.099805 0.560027 -0.822440 0.314300 -0.532400 1 0 1.000000 
0 46.545502 14.387902 -12.406900 0.099805 0.560027 -0.822440 0.416500 -0.591700 1 0 1.000000 
rockgranite02a
0 -32.889599 9.831998 -25.144699 0.099805 0.560027 -0.822440 0.452100 0.028900 1 0 1.000000 
0 -27.533302 29.421398 -11.486100 0.104197 0.549487 -0.828980 0.299100 -0.012900 1 0 1.000000 
0 38.955799 27.477001 -4.414900 0.099805 0.560027 -0.822440 0.314300 -0.532400 1 0 1.000000 
rockgranite02a
0 39.151001 -24.124199 9.851100 0.934903 -0.294201 -0.198501 0.282600 -0.550600 1 0 1.000000 
0 46.545502 14.387902 -12.406900 0.934903 -0.294201 -0.198501 0.583500 -0.724500 1 0 1.000000 
0 44.181400 -10.217299 12.931500 0.934903 -0.294201 -0.198501 0.391200 -0.526600 1 0 1.000000 
rockgranite02a
0 26.693003 -29.167599 9.312100 -0.139703 -0.979622 0.144303 0.436600 -0.554900 1 0 1.000000 
0 8.607100 -25.287600 18.134600 -0.139703 -0.979622 0.144303 0.295300 -0.485900 1 0 1.000000 
0 -5.806699 -24.378500 10.350800 -0.139703 -0.979622 0.144303 0.182700 -0.546700 1 0 1.000000 
rockgranite02a
0 8.607100 -25.287600 18.134600 0.076900 -0.080300 0.993800 0.273500 -0.295300 1 0 1.000000 
0 25.437599 10.665301 19.735100 0.076900 -0.080300 0.993800 0.554400 -0.426800 1 0 1.000000 
0 -1.732100 -0.996400 20.896601 0.076900 -0.080300 0.993800 0.463300 -0.214500 1 0 1.000000 
rockgranite02a
0 26.693003 -29.167599 9.312100 -0.147102 -0.988013 -0.046801 0.436600 -0.554900 1 0 1.000000 
0 -5.806699 -24.378500 10.350800 -0.147102 -0.988013 -0.046801 0.182700 -0.546700 1 0 1.000000 
0 -37.182201 -18.916002 -6.358600 -0.147102 -0.988013 -0.046801 -0.062400 -0.677300 1 0 1.000000 
rockgranite02a
0 -40.661201 -14.290602 -14.076400 -0.991292 -0.085199 0.100399 0.640600 -0.737600 1 0 1.000000 
0 -37.882301 -11.722301 15.526200 -0.991292 -0.085199 0.100399 0.620500 -0.506300 1 0 1.000000 
0 -42.790901 16.173399 -9.261900 -0.991292 -0.085199 0.100399 0.402600 -0.700000 1 0 1.000000 
rockgranite02a
0 -17.262300 -12.242201 -21.463499 -0.257191 -0.333288 -0.907068 0.624600 -0.093200 1 0 1.000000 
0 -40.661201 -14.290602 -14.076400 -0.257191 -0.333288 -0.907068 0.640600 0.089600 1 0 1.000000 
0 -32.889599 9.831998 -25.144699 -0.257191 -0.333288 -0.907068 0.452100 0.028900 1 0 1.000000 
rockgranite02a
0 22.363201 -26.344698 -18.067200 0.155699 0.044700 -0.986793 0.756200 -0.417500 1 0 1.000000 
0 -32.889599 9.831998 -25.144699 0.155699 0.044700 -0.986793 0.452100 0.028900 1 0 1.000000 
0 46.545502 14.387902 -12.406900 0.155699 0.044700 -0.986793 0.416500 -0.591700 1 0 1.000000 
rockgranite02a
0 -17.262300 -12.242201 -21.463499 -0.035301 -0.896118 -0.442409 0.093200 -0.795300 1 0 1.000000 
0 26.693003 -29.167599 9.312100 -0.035301 -0.896118 -0.442409 0.436600 -0.554900 1 0 1.000000 
0 -37.182201 -18.916002 -6.358600 -0.035301 -0.896118 -0.442409 -0.062400 -0.677300 1 0 1.000000 
rockgranite02a
0 25.437599 10.665301 19.735100 0.388689 -0.221794 0.894275 0.554400 -0.426800 1 0 1.000000 
0 8.607100 -25.287600 18.134600 0.388689 -0.221794 0.894275 0.273500 -0.295300 1 0 1.000000 
0 26.693003 -29.167599 9.312100 0.388689 -0.221794 0.894275 0.243200 -0.436600 1 0 1.000000 
rockgranite02a
0 38.955799 27.477001 -4.414900 0.965281 0.207096 0.159197 0.685700 -0.662100 1 0 1.000000 
0 38.018799 17.625402 14.077100 0.965281 0.207096 0.159197 0.608800 -0.517600 1 0 1.000000 
0 44.181400 -10.217299 12.931500 0.965281 0.207096 0.159197 0.391200 -0.526600 1 0 1.000000 
rockgranite02a
0 -2.228100 -2.784400 28.500799 -0.189301 -0.484603 0.854005 0.449300 -0.210600 1 0 1.000000 
0 -37.882301 -11.722301 15.526200 -0.189301 -0.484603 0.854005 0.379500 0.067900 1 0 1.000000 
0 8.607100 -25.287600 18.134600 -0.189301 -0.484603 0.854005 0.273500 -0.295300 1 0 1.000000 
rockgranite02a
0 44.181400 -10.217299 12.931500 -0.293914 -0.104105 0.950145 0.391200 -0.573200 1 0 1.000000 
0 38.018799 17.625402 14.077100 -0.293914 -0.104105 0.950145 0.608800 -0.525100 1 0 1.000000 
0 39.151001 -24.124199 9.851100 -0.293914 -0.104105 0.950145 0.282600 -0.533900 1 0 1.000000 
rockgranite02a
0 -32.889599 9.831998 -25.144699 0.034900 -0.140299 -0.989494 0.452100 0.028900 1 0 1.000000 
0 22.363201 -26.344698 -18.067200 0.034900 -0.140299 -0.989494 0.756200 -0.417500 1 0 1.000000 
0 -17.262300 -12.242201 -21.463499 0.034900 -0.140299 -0.989494 0.624600 -0.093200 1 0 1.000000 
rockgranite02a
0 -34.778999 24.911398 5.145400 -0.010900 0.966272 0.257293 1.043700 -0.587400 1 0 1.000000 
0 -31.775803 22.595299 13.971500 -0.010900 0.966272 0.257293 1.020200 -0.518500 1 0 1.000000 
0 -27.533302 29.421398 -11.486100 -0.010900 0.966272 0.257293 0.987100 -0.717300 1 0 1.000000 
rockgranite02a
0 46.545502 14.387902 -12.406900 0.765996 -0.382998 -0.516297 0.583500 -0.724500 1 0 1.000000 
0 25.657402 -31.285398 -9.514200 0.765996 -0.382998 -0.516297 0.226600 -0.701900 1 0 1.000000 
0 22.363201 -26.344698 -18.067200 0.765996 -0.382998 -0.516297 0.243800 -0.812100 1 0 1.000000 
rockgranite02a
0 -34.778999 24.911398 5.145400 -0.903099 0.224300 0.366199 0.334300 -0.587400 1 0 1.000000 
0 -42.790901 16.173399 -9.261900 -0.903099 0.224300 0.366199 0.402600 -0.700000 1 0 1.000000 
0 -31.775803 22.595299 13.971500 -0.903099 0.224300 0.366199 0.352400 -0.518500 1 0 1.000000 
rockgranite02a
0 -27.533302 29.421398 -11.486100 -0.107303 0.964623 0.240806 0.987100 -0.717300 1 0 1.000000 
0 -31.775803 22.595299 13.971500 -0.107303 0.964623 0.240806 1.020200 -0.518500 1 0 1.000000 
0 25.374699 29.222202 12.898600 -0.107303 0.964623 0.240806 0.573700 -0.526800 1 0 1.000000 
rockgranite02a
0 -40.661201 -14.290602 -14.076400 -0.843697 0.025800 -0.536198 0.640600 -0.737600 1 0 1.000000 
0 -42.790901 16.173399 -9.261900 -0.843697 0.025800 -0.536198 0.402600 -0.700000 1 0 1.000000 
0 -32.889599 9.831998 -25.144699 -0.843697 0.025800 -0.536198 0.452100 -0.824000 1 0 1.000000 
rockgranite02a
0 -42.790901 16.173399 -9.261900 -0.907273 0.178695 0.380689 0.402600 -0.700000 1 0 1.000000 
0 -37.882301 -11.722301 15.526200 -0.907273 0.178695 0.380689 0.620500 -0.506300 1 0 1.000000 
0 -31.775803 22.595299 13.971500 -0.907273 0.178695 0.380689 0.352400 -0.518500 1 0 1.000000 
rockgranite02a
0 -32.889599 9.831998 -25.144699 -0.154706 0.880537 -0.448019 1.028900 -0.824000 1 0 1.000000 
0 -42.790901 16.173399 -9.261900 -0.154706 0.880537 -0.448019 1.106300 -0.700000 1 0 1.000000 
0 -34.778999 24.911398 5.145400 -0.154706 0.880537 -0.448019 1.043700 -0.587400 1 0 1.000000 
rockgranite02a
0 38.018799 17.625402 14.077100 0.224397 0.337496 0.914189 0.608800 -0.525100 1 0 1.000000 
0 25.374699 29.222202 12.898600 0.224397 0.337496 0.914189 0.699400 -0.426300 1 0 1.000000 
0 25.437599 10.665301 19.735100 0.224397 0.337496 0.914189 0.554400 -0.426800 1 0 1.000000 
rockgranite02a
0 -37.182201 -18.916002 -6.358600 -0.749754 -0.635361 0.184889 0.676700 -0.677300 1 0 1.000000 
0 -34.073502 -21.307302 -1.968800 -0.749754 -0.635361 0.184889 0.728200 -0.660800 1 0 1.000000 
0 -37.882301 -11.722301 15.526200 -0.749754 -0.635361 0.184889 0.620500 -0.506300 1 0 1.000000 
rockgranite02a
0 38.955799 27.477001 -4.414900 0.599018 0.693721 0.399912 0.467600 -0.662100 1 0 1.000000 
0 25.374699 29.222202 12.898600 0.599018 0.693721 0.399912 0.573700 -0.526800 1 0 1.000000 
0 38.018799 17.625402 14.077100 0.599018 0.693721 0.399912 0.474900 -0.517600 1 0 1.000000 
rockgranite02a
0 -5.806699 -24.378500 10.350800 0.152410 -0.818556 -0.553838 0.719400 -0.182700 1 0 1.000000 
0 -34.073502 -21.307302 -1.968800 0.152410 -0.818556 -0.553838 0.728200 0.054700 1 0 1.000000 
0 -37.182201 -18.916002 -6.358600 0.152410 -0.818556 -0.553838 0.676700 0.062400 1 0 1.000000 
rockgranite02a
0 -31.775803 22.595299 13.971500 0.677109 0.728410 -0.104601 1.020200 -0.518500 1 0 1.000000 
0 -25.251600 18.043798 24.510700 0.677109 0.728410 -0.104601 0.969200 -0.436100 1 0 1.000000 
0 -2.228100 -2.784400 28.500799 0.677109 0.728410 -0.104601 0.789400 -0.404900 1 0 1.000000 
rockgranite02a
0 -17.262300 -12.242201 -21.463499 -0.077399 -0.870192 -0.486595 0.093200 -0.795300 1 0 1.000000 
0 -37.182201 -18.916002 -6.358600 -0.077399 -0.870192 -0.486595 -0.062400 -0.677300 1 0 1.000000 
0 -40.661201 -14.290602 -14.076400 -0.077399 -0.870192 -0.486595 -0.089600 -0.737600 1 0 1.000000 
rockgranite02a
0 -31.775803 22.595299 13.971500 0.569696 0.790995 0.223099 1.020200 -0.518500 1 0 1.000000 
0 -2.228100 -2.784400 28.500799 0.569696 0.790995 0.223099 0.789400 -0.404900 1 0 1.000000 
0 -1.732100 -0.996400 20.896601 0.569696 0.790995 0.223099 0.785500 -0.464300 1 0 1.000000 
rockgranite02a
0 -40.661201 -14.290602 -14.076400 -0.880488 -0.457994 0.122398 0.640600 -0.737600 1 0 1.000000 
0 -37.182201 -18.916002 -6.358600 -0.880488 -0.457994 0.122398 0.676700 -0.677300 1 0 1.000000 
0 -37.882301 -11.722301 15.526200 -0.880488 -0.457994 0.122398 0.620500 -0.506300 1 0 1.000000 
rockgranite02a
0 44.181400 -10.217299 12.931500 0.884718 0.290406 0.364607 0.391200 -0.526600 1 0 1.000000 
0 46.545502 14.387902 -12.406900 0.884718 0.290406 0.364607 0.583500 -0.724500 1 0 1.000000 
0 38.955799 27.477001 -4.414900 0.884718 0.290406 0.364607 0.685700 -0.662100 1 0 1.000000 
rockgranite02a
0 -32.889599 9.831998 -25.144699 -0.867742 0.421220 -0.263813 0.452100 -0.824000 1 0 1.000000 
0 -34.778999 24.911398 5.145400 -0.867742 0.421220 -0.263813 0.334300 -0.587400 1 0 1.000000 
0 -27.533302 29.421398 -11.486100 -0.867742 0.421220 -0.263813 0.299100 -0.717300 1 0 1.000000 
rockgranite02a
0 -37.882301 -11.722301 15.526200 -0.303296 -0.155098 0.940189 0.379500 0.067900 1 0 1.000000 
0 -2.228100 -2.784400 28.500799 -0.303296 -0.155098 0.940189 0.449300 -0.210600 1 0 1.000000 
0 -25.251600 18.043798 24.510700 -0.303296 -0.155098 0.940189 0.612000 -0.030800 1 0 1.000000 
rockgranite02a
0 25.437599 10.665301 19.735100 0.059798 -0.250891 0.966166 0.554400 -0.426800 1 0 1.000000 
0 26.693003 -29.167599 9.312100 0.059798 -0.250891 0.966166 0.243200 -0.436600 1 0 1.000000 
0 39.151001 -24.124199 9.851100 0.059798 -0.250891 0.966166 0.282600 -0.533900 1 0 1.000000 
rockgranite02a
0 38.018799 17.625402 14.077100 0.444600 -0.078300 0.892300 0.608800 -0.525100 1 0 1.000000 
0 25.437599 10.665301 19.735100 0.444600 -0.078300 0.892300 0.554400 -0.426800 1 0 1.000000 
0 39.151001 -24.124199 9.851100 0.444600 -0.078300 0.892300 0.282600 -0.533900 1 0 1.000000 
rockgranite02a
0 25.657402 -31.285398 -9.514200 -0.431106 -0.893712 0.124202 0.428500 -0.701900 1 0 1.000000 
0 26.693003 -29.167599 9.312100 -0.431106 -0.893712 0.124202 0.436600 -0.554900 1 0 1.000000 
0 -17.262300 -12.242201 -21.463499 -0.431106 -0.893712 0.124202 0.093200 -0.795300 1 0 1.000000 
rockgranite02a
0 -1.732100 -0.996400 20.896601 0.915993 0.373097 0.147499 0.463300 -0.464300 1 0 1.000000 
0 -2.228100 -2.784400 28.500799 0.915993 0.373097 0.147499 0.449300 -0.404900 1 0 1.000000 
0 8.607100 -25.287600 18.134600 0.915993 0.373097 0.147499 0.273500 -0.485900 1 0 1.000000 
rockgranite02a
0 46.545502 14.387902 -12.406900 0.814871 -0.399286 -0.420185 0.583500 -0.724500 1 0 1.000000 
0 39.151001 -24.124199 9.851100 0.814871 -0.399286 -0.420185 0.282600 -0.550600 1 0 1.000000 
0 25.657402 -31.285398 -9.514200 0.814871 -0.399286 -0.420185 0.226600 -0.701900 1 0 1.000000 
rockgranite02a
0 -31.775803 22.595299 13.971500 -0.803763 0.168892 0.570474 0.352400 -0.518500 1 0 1.000000 
0 -37.882301 -11.722301 15.526200 -0.803763 0.168892 0.570474 0.620500 -0.506300 1 0 1.000000 
0 -25.251600 18.043798 24.510700 -0.803763 0.168892 0.570474 0.388000 -0.436100 1 0 1.000000 
rockgranite02a
0 26.693003 -29.167599 9.312100 0.370815 -0.924936 0.083603 0.436600 -0.554900 1 0 1.000000 
0 25.657402 -31.285398 -9.514200 0.370815 -0.924936 0.083603 0.428500 -0.701900 1 0 1.000000 
0 39.151001 -24.124199 9.851100 0.370815 -0.924936 0.083603 0.533900 -0.550600 1 0 1.000000 
rockgranite02a
0 -27.533302 29.421398 -11.486100 0.036798 0.996755 -0.071597 0.987100 -0.717300 1 0 1.000000 
0 25.374699 29.222202 12.898600 0.036798 0.996755 -0.071597 0.573700 -0.526800 1 0 1.000000 
0 38.955799 27.477001 -4.414900 0.036798 0.996755 -0.071597 0.467600 -0.662100 1 0 1.000000 
rockgranite02a
0 -31.775803 22.595299 13.971500 -0.012800 0.266606 0.963721 0.647600 0.020200 1 0 1.000000 
0 -1.732100 -0.996400 20.896601 -0.012800 0.266606 0.963721 0.463300 -0.214500 1 0 1.000000 
0 25.374699 29.222202 12.898600 -0.012800 0.266606 0.963721 0.699400 -0.426300 1 0 1.000000 
rockgranite02a
0 25.437599 10.665301 19.735100 -0.107502 0.343405 0.933014 0.554400 -0.426800 1 0 1.000000 
0 25.374699 29.222202 12.898600 -0.107502 0.343405 0.933014 0.699400 -0.426300 1 0 1.000000 
0 -1.732100 -0.996400 20.896601 -0.107502 0.343405 0.933014 0.463300 -0.214500 1 0 1.000000 
end
