$cd ".\"
$modelname "props_wasteland/laundry_blade001.mdl"
$model "Body" "laundry_blade001_reference.smd"
$cdmaterials "models/props_wasteland/"
$surfaceprop "metal"
$eyeposition 0.000 0.000 0.000
$illumposition 0.189 0.423 -16.832
$sequence idle "idle" ACT_IDLE  1 fps 5.000000
$keyvalues
{
	prop_data
	{
		base	Metal.Medium
	}
}