version 1
nodes
  0 "static_prop" -1
end
skeleton
time 0
0 0.000000 0.000000 0.000000 0.000000 0.000000 0.000000
end
triangles
METALPIPE011A
0 -42.885700 -4.358402 -165.711502 0.000000 -1.000000 0.000000 -0.290800 -0.947200 1 0 1.000000 
0 -41.161400 -4.358402 -164.674500 0.000000 -1.000000 0.000000 -0.286600 -0.954100 1 0 1.000000 
0 -43.366299 -4.358402 -165.049194 0.000000 -1.000000 0.000000 -0.288100 -0.945300 1 0 1.000000 
METALPIPE011A
0 10.322300 -4.358399 161.000900 0.000000 -1.000000 0.000000 1.016100 -1.160100 1 0 1.000000 
0 -1.037200 -4.358400 152.215393 0.000000 -1.000000 0.000000 0.980900 -1.114600 1 0 1.000000 
0 3.746500 -4.358400 145.656494 0.000000 -1.000000 0.000000 0.954700 -1.133800 1 0 1.000000 
METALPIPE011A
0 10.322300 -4.358399 161.000900 0.000000 -1.000000 0.000000 1.016100 -1.160100 1 0 1.000000 
0 3.746500 -4.358400 145.656494 0.000000 -1.000000 0.000000 0.954700 -1.133800 1 0 1.000000 
0 21.356001 -4.358399 108.584900 0.000000 -1.000000 0.000000 0.806400 -1.204200 1 0 1.000000 
METALPIPE011A
0 21.356001 -4.358399 108.584900 0.000000 -1.000000 0.000000 0.806400 -1.204200 1 0 1.000000 
0 15.221200 -4.358399 154.283997 0.000000 -1.000000 0.000000 0.989200 -1.179700 1 0 1.000000 
0 10.322300 -4.358399 161.000900 0.000000 -1.000000 0.000000 1.016100 -1.160100 1 0 1.000000 
METALPIPE011A
0 21.356001 -4.358399 108.584900 0.000000 -1.000000 0.000000 0.806400 -1.204200 1 0 1.000000 
0 34.105999 -4.358398 114.527603 0.000000 -1.000000 0.000000 0.830200 -1.255200 1 0 1.000000 
0 15.221200 -4.358399 154.283997 0.000000 -1.000000 0.000000 0.989200 -1.179700 1 0 1.000000 
METALPIPE011A
0 45.735199 -4.358398 71.389397 0.000000 -1.000000 0.000000 0.657600 -1.301700 1 0 1.000000 
0 34.105999 -4.358398 114.527603 0.000000 -1.000000 0.000000 0.830200 -1.255200 1 0 1.000000 
0 21.356001 -4.358399 108.584900 0.000000 -1.000000 0.000000 0.806400 -1.204200 1 0 1.000000 
METALPIPE011A
0 45.735199 -4.358398 71.389397 0.000000 -1.000000 0.000000 0.657600 -1.301700 1 0 1.000000 
0 21.356001 -4.358399 108.584900 0.000000 -1.000000 0.000000 0.806400 -1.204200 1 0 1.000000 
0 32.199902 -4.358398 68.359802 0.000000 -1.000000 0.000000 0.645500 -1.247600 1 0 1.000000 
METALPIPE011A
0 45.735199 -4.358398 71.389397 0.000000 -1.000000 0.000000 0.657600 -1.301700 1 0 1.000000 
0 32.199902 -4.358398 68.359802 0.000000 -1.000000 0.000000 0.645500 -1.247600 1 0 1.000000 
0 35.861401 -4.358398 26.527100 0.000000 -1.000000 0.000000 0.478200 -1.262200 1 0 1.000000 
METALPIPE011A
0 45.735199 -4.358398 71.389397 0.000000 -1.000000 0.000000 0.657600 -1.301700 1 0 1.000000 
0 35.861401 -4.358398 26.527100 0.000000 -1.000000 0.000000 0.478200 -1.262200 1 0 1.000000 
0 32.199902 -4.358398 -15.305500 0.000000 -1.000000 0.000000 0.310800 -1.247600 1 0 1.000000 
METALPIPE011A
0 32.199902 -4.358398 -15.305500 0.000000 -1.000000 0.000000 0.310800 -1.247600 1 0 1.000000 
0 49.661900 -4.358397 26.527201 0.000000 -1.000000 0.000000 0.478200 -1.317400 1 0 1.000000 
0 45.735199 -4.358398 71.389397 0.000000 -1.000000 0.000000 0.657600 -1.301700 1 0 1.000000 
METALPIPE011A
0 32.199902 -4.358398 -15.305500 0.000000 -1.000000 0.000000 0.310800 -1.247600 1 0 1.000000 
0 45.735199 -4.358398 -18.335100 0.000000 -1.000000 0.000000 0.298700 -1.301700 1 0 1.000000 
0 49.661900 -4.358397 26.527201 0.000000 -1.000000 0.000000 0.478200 -1.317400 1 0 1.000000 
METALPIPE011A
0 32.199902 -4.358398 -15.305500 0.000000 -1.000000 0.000000 0.310800 -1.247600 1 0 1.000000 
0 34.105999 -4.358398 -61.473301 0.000000 -1.000000 0.000000 0.126200 -1.255200 1 0 1.000000 
0 45.735199 -4.358398 -18.335100 0.000000 -1.000000 0.000000 0.298700 -1.301700 1 0 1.000000 
METALPIPE011A
0 32.199902 -4.358398 -15.305500 0.000000 -1.000000 0.000000 0.310800 -1.247600 1 0 1.000000 
0 21.356001 -4.358399 -55.530602 0.000000 -1.000000 0.000000 0.149900 -1.204200 1 0 1.000000 
0 34.105999 -4.358398 -61.473301 0.000000 -1.000000 0.000000 0.126200 -1.255200 1 0 1.000000 
METALPIPE011A
0 21.356001 -4.358399 -55.530602 0.000000 -1.000000 0.000000 0.149900 -1.204200 1 0 1.000000 
0 3.746500 -4.358400 -92.602203 0.000000 -1.000000 0.000000 0.001600 -1.133800 1 0 1.000000 
0 34.105999 -4.358398 -61.473301 0.000000 -1.000000 0.000000 0.126200 -1.255200 1 0 1.000000 
METALPIPE011A
0 3.746500 -4.358400 -92.602203 0.000000 -1.000000 0.000000 0.001600 -1.133800 1 0 1.000000 
0 15.221200 -4.358399 -101.229698 0.000000 -1.000000 0.000000 -0.032900 -1.179700 1 0 1.000000 
0 34.105999 -4.358398 -61.473301 0.000000 -1.000000 0.000000 0.126200 -1.255200 1 0 1.000000 
METALPIPE011A
0 3.746500 -4.358400 -92.602203 0.000000 -1.000000 0.000000 0.001600 -1.133800 1 0 1.000000 
0 -10.193500 -4.358400 -136.076401 0.000000 -1.000000 0.000000 -0.172300 -1.078000 1 0 1.000000 
0 15.221200 -4.358399 -101.229698 0.000000 -1.000000 0.000000 -0.032900 -1.179700 1 0 1.000000 
METALPIPE011A
0 3.746500 -4.358400 -92.602203 0.000000 -1.000000 0.000000 0.001600 -1.133800 1 0 1.000000 
0 -41.161400 -4.358402 -164.674500 0.000000 -1.000000 0.000000 -0.286600 -0.954100 1 0 1.000000 
0 -10.193500 -4.358400 -136.076401 0.000000 -1.000000 0.000000 -0.172300 -1.078000 1 0 1.000000 
METALPIPE011A
0 3.746500 -4.358400 -92.602203 0.000000 -1.000000 0.000000 0.001600 -1.133800 1 0 1.000000 
0 -19.951900 -4.358401 -125.095703 0.000000 -1.000000 0.000000 -0.128300 -1.039000 1 0 1.000000 
0 -41.161400 -4.358402 -164.674500 0.000000 -1.000000 0.000000 -0.286600 -0.954100 1 0 1.000000 
METALPIPE011A
0 -43.366299 -4.358402 -165.049194 0.000000 -1.000000 0.000000 -0.288100 -0.945300 1 0 1.000000 
0 -41.161400 -4.358402 -164.674500 0.000000 -1.000000 0.000000 -0.286600 -0.954100 1 0 1.000000 
0 -19.951900 -4.358401 -125.095703 0.000000 -1.000000 0.000000 -0.128300 -1.039000 1 0 1.000000 
METALPIPE011A
0 -43.366299 -4.358402 -165.049194 0.000000 -1.000000 0.000000 -0.288100 -0.945300 1 0 1.000000 
0 -19.951900 -4.358401 -125.095703 0.000000 -1.000000 0.000000 -0.128300 -1.039000 1 0 1.000000 
0 -48.828602 -4.358402 -151.762497 0.000000 -1.000000 0.000000 -0.235000 -0.923500 1 0 1.000000 
METALPIPE011A
0 -43.366299 -4.358402 -165.049194 0.000000 -1.000000 0.000000 -0.288100 -0.945300 1 0 1.000000 
0 -48.828602 -4.358402 -151.762497 0.000000 -1.000000 0.000000 -0.235000 -0.923500 1 0 1.000000 
0 -51.737900 -4.358402 -153.512299 0.000000 -1.000000 0.000000 -0.242000 -0.911800 1 0 1.000000 
METALPIPE011A
0 -43.742100 4.408298 -164.531403 -0.809380 -0.000000 -0.587285 1.247800 -0.722400 1 0 1.000000 
0 -51.737900 -4.358402 -153.512299 -0.809380 -0.000000 -0.587285 1.244000 -0.683300 1 0 1.000000 
0 -52.505001 4.408298 -152.455093 -0.809380 -0.000000 -0.587285 1.243600 -0.722400 1 0 1.000000 
METALPIPE011A
0 -43.742100 4.408298 -164.531403 -0.809380 -0.000000 -0.587285 1.247800 -0.722400 1 0 1.000000 
0 -43.366299 -4.358402 -165.049194 -0.809380 -0.000000 -0.587285 1.248000 -0.683300 1 0 1.000000 
0 -51.737900 -4.358402 -153.512299 -0.809380 -0.000000 -0.587285 1.244000 -0.683300 1 0 1.000000 
METALPIPE011A
0 -43.742100 4.408298 -164.531403 -0.809380 -0.000000 -0.587285 1.247800 -0.722400 1 0 1.000000 
0 -42.885700 -4.358402 -165.711502 -0.809380 -0.000000 -0.587285 1.248200 -0.683300 1 0 1.000000 
0 -43.366299 -4.358402 -165.049194 -0.809380 -0.000000 -0.587285 1.248000 -0.683300 1 0 1.000000 
METALPIPE011A
0 10.322300 -4.358399 161.000900 -0.611806 -0.000000 0.791008 2.523300 -0.683300 1 0 1.000000 
0 -2.021600 4.408300 151.454102 -0.611806 -0.000000 0.791008 2.523600 -0.722400 1 0 1.000000 
0 -1.037200 -4.358400 152.215393 -0.611806 -0.000000 0.791008 2.523600 -0.683300 1 0 1.000000 
METALPIPE011A
0 10.322300 -4.358399 161.000900 -0.611806 -0.000000 0.791008 2.523300 -0.683300 1 0 1.000000 
0 9.223300 4.408300 160.151001 -0.611806 -0.000000 0.791008 2.523400 -0.722400 1 0 1.000000 
0 -2.021600 4.408300 151.454102 -0.611806 -0.000000 0.791008 2.523600 -0.722400 1 0 1.000000 
METALPIPE011A
0 2.752000 4.408300 144.908798 -0.000000 1.000000 0.000000 0.951700 -1.129800 1 0 1.000000 
0 -2.021600 4.408300 151.454102 -0.000000 1.000000 0.000000 0.977900 -1.110700 1 0 1.000000 
0 9.223300 4.408300 160.151001 -0.000000 1.000000 0.000000 1.012700 -1.155700 1 0 1.000000 
METALPIPE011A
0 2.752000 4.408300 144.908798 -0.000000 1.000000 0.000000 0.951700 -1.129800 1 0 1.000000 
0 9.223300 4.408300 160.151001 -0.000000 1.000000 0.000000 1.012700 -1.155700 1 0 1.000000 
0 14.111100 4.408300 153.449295 -0.000000 1.000000 0.000000 0.985800 -1.175200 1 0 1.000000 
METALPIPE011A
0 32.872501 4.408301 113.952698 -0.000000 1.000000 0.000000 0.827900 -1.250300 1 0 1.000000 
0 2.752000 4.408300 144.908798 -0.000000 1.000000 0.000000 0.951700 -1.129800 1 0 1.000000 
0 14.111100 4.408300 153.449295 -0.000000 1.000000 0.000000 0.985800 -1.175200 1 0 1.000000 
METALPIPE011A
0 32.872501 4.408301 113.952698 -0.000000 1.000000 0.000000 0.827900 -1.250300 1 0 1.000000 
0 20.250999 4.408301 108.069801 -0.000000 1.000000 0.000000 0.804300 -1.199800 1 0 1.000000 
0 2.752000 4.408300 144.908798 -0.000000 1.000000 0.000000 0.951700 -1.129800 1 0 1.000000 
METALPIPE011A
0 44.425800 4.408302 71.096298 -0.000000 1.000000 0.000000 0.656400 -1.296500 1 0 1.000000 
0 20.250999 4.408301 108.069801 -0.000000 1.000000 0.000000 0.804300 -1.199800 1 0 1.000000 
0 32.872501 4.408301 113.952698 -0.000000 1.000000 0.000000 0.827900 -1.250300 1 0 1.000000 
METALPIPE011A
0 44.425800 4.408302 71.096298 -0.000000 1.000000 0.000000 0.656400 -1.296500 1 0 1.000000 
0 31.026899 4.408301 68.097298 -0.000000 1.000000 0.000000 0.644400 -1.242900 1 0 1.000000 
0 20.250999 4.408301 108.069801 -0.000000 1.000000 0.000000 0.804300 -1.199800 1 0 1.000000 
METALPIPE011A
0 48.326900 4.408302 26.527201 -0.000000 1.000000 0.000000 0.478200 -1.312100 1 0 1.000000 
0 31.026899 4.408301 68.097298 -0.000000 1.000000 0.000000 0.644400 -1.242900 1 0 1.000000 
0 44.425800 4.408302 71.096298 -0.000000 1.000000 0.000000 0.656400 -1.296500 1 0 1.000000 
METALPIPE011A
0 48.326900 4.408302 26.527201 -0.000000 1.000000 0.000000 0.478200 -1.312100 1 0 1.000000 
0 34.665401 4.408301 26.527100 -0.000000 1.000000 0.000000 0.478200 -1.257500 1 0 1.000000 
0 31.026899 4.408301 68.097298 -0.000000 1.000000 0.000000 0.644400 -1.242900 1 0 1.000000 
METALPIPE011A
0 44.425800 4.408302 -18.042000 -0.000000 1.000000 0.000000 0.299900 -1.296500 1 0 1.000000 
0 34.665401 4.408301 26.527100 -0.000000 1.000000 0.000000 0.478200 -1.257500 1 0 1.000000 
0 48.326900 4.408302 26.527201 -0.000000 1.000000 0.000000 0.478200 -1.312100 1 0 1.000000 
METALPIPE011A
0 44.425800 4.408302 -18.042000 -0.000000 1.000000 0.000000 0.299900 -1.296500 1 0 1.000000 
0 31.026899 4.408301 -15.043000 -0.000000 1.000000 0.000000 0.311900 -1.242900 1 0 1.000000 
0 34.665401 4.408301 26.527100 -0.000000 1.000000 0.000000 0.478200 -1.257500 1 0 1.000000 
METALPIPE011A
0 32.872601 4.408301 -60.898399 -0.000000 1.000000 0.000000 0.128500 -1.250300 1 0 1.000000 
0 31.026899 4.408301 -15.043000 -0.000000 1.000000 0.000000 0.311900 -1.242900 1 0 1.000000 
0 44.425800 4.408302 -18.042000 -0.000000 1.000000 0.000000 0.299900 -1.296500 1 0 1.000000 
METALPIPE011A
0 32.872601 4.408301 -60.898399 -0.000000 1.000000 0.000000 0.128500 -1.250300 1 0 1.000000 
0 20.251101 4.408301 -55.015499 -0.000000 1.000000 0.000000 0.152000 -1.199800 1 0 1.000000 
0 31.026899 4.408301 -15.043000 -0.000000 1.000000 0.000000 0.311900 -1.242900 1 0 1.000000 
METALPIPE011A
0 14.111100 4.408300 -100.394997 -0.000000 1.000000 0.000000 -0.029500 -1.175200 1 0 1.000000 
0 20.251101 4.408301 -55.015499 -0.000000 1.000000 0.000000 0.152000 -1.199800 1 0 1.000000 
0 32.872601 4.408301 -60.898399 -0.000000 1.000000 0.000000 0.128500 -1.250300 1 0 1.000000 
METALPIPE011A
0 14.111100 4.408300 -100.394997 -0.000000 1.000000 0.000000 -0.029500 -1.175200 1 0 1.000000 
0 2.752100 4.408300 -91.854500 -0.000000 1.000000 0.000000 0.004600 -1.129800 1 0 1.000000 
0 20.251101 4.408301 -55.015499 -0.000000 1.000000 0.000000 0.152000 -1.199800 1 0 1.000000 
METALPIPE011A
0 -11.137600 4.408299 -135.014099 -0.000000 1.000000 0.000000 -0.168000 -1.074200 1 0 1.000000 
0 2.752100 4.408300 -91.854500 -0.000000 1.000000 0.000000 0.004600 -1.129800 1 0 1.000000 
0 14.111100 4.408300 -100.394997 -0.000000 1.000000 0.000000 -0.029500 -1.175200 1 0 1.000000 
METALPIPE011A
0 -11.137600 4.408299 -135.014099 -0.000000 1.000000 0.000000 -0.168000 -1.074200 1 0 1.000000 
0 -20.797600 4.408299 -124.144096 -0.000000 1.000000 0.000000 -0.124500 -1.035600 1 0 1.000000 
0 2.752100 4.408300 -91.854500 -0.000000 1.000000 0.000000 0.004600 -1.129800 1 0 1.000000 
METALPIPE011A
0 -41.903099 4.408298 -163.425293 -0.000000 1.000000 0.000000 -0.281700 -0.951200 1 0 1.000000 
0 -20.797600 4.408299 -124.144096 -0.000000 1.000000 0.000000 -0.124500 -1.035600 1 0 1.000000 
0 -11.137600 4.408299 -135.014099 -0.000000 1.000000 0.000000 -0.168000 -1.074200 1 0 1.000000 
METALPIPE011A
0 -41.903099 4.408298 -163.425293 -0.000000 1.000000 0.000000 -0.281700 -0.951200 1 0 1.000000 
0 -49.493000 4.408298 -150.643494 -0.000000 1.000000 0.000000 -0.230500 -0.920800 1 0 1.000000 
0 -20.797600 4.408299 -124.144096 -0.000000 1.000000 0.000000 -0.124500 -1.035600 1 0 1.000000 
METALPIPE011A
0 -52.505001 4.408298 -152.455093 -0.000000 1.000000 0.000000 -0.237800 -0.908800 1 0 1.000000 
0 -49.493000 4.408298 -150.643494 -0.000000 1.000000 0.000000 -0.230500 -0.920800 1 0 1.000000 
0 -41.903099 4.408298 -163.425293 -0.000000 1.000000 0.000000 -0.281700 -0.951200 1 0 1.000000 
METALPIPE011A
0 -52.505001 4.408298 -152.455093 -0.000000 1.000000 0.000000 -0.237800 -0.908800 1 0 1.000000 
0 -41.903099 4.408298 -163.425293 -0.000000 1.000000 0.000000 -0.281700 -0.951200 1 0 1.000000 
0 -43.742100 4.408298 -164.531403 -0.000000 1.000000 0.000000 -0.286100 -0.943800 1 0 1.000000 
METALPIPE011A
0 -51.737900 -4.358402 -153.512299 -0.509789 -0.146797 0.847682 1.244000 -0.683300 1 0 1.000000 
0 -49.493000 4.408298 -150.643494 -0.593603 -0.146001 0.791404 1.252300 -0.722400 1 0 1.000000 
0 -52.505001 4.408298 -152.455093 -0.509789 -0.146797 0.847682 1.243600 -0.722400 1 0 1.000000 
METALPIPE011A
0 -51.737900 -4.358402 -153.512299 -0.509789 -0.146797 0.847682 1.244000 -0.683300 1 0 1.000000 
0 -48.828602 -4.358402 -151.762497 -0.593603 -0.146001 0.791404 1.252400 -0.683300 1 0 1.000000 
0 -49.493000 4.408298 -150.643494 -0.593603 -0.146001 0.791404 1.252300 -0.722400 1 0 1.000000 
METALPIPE011A
0 -19.951900 -4.358401 -125.095703 -0.717198 -0.143200 0.681998 1.354800 -0.683300 1 0 1.000000 
0 -49.493000 4.408298 -150.643494 -0.593603 -0.146001 0.791404 1.252300 -0.722400 1 0 1.000000 
0 -48.828602 -4.358402 -151.762497 -0.593603 -0.146001 0.791404 1.252400 -0.683300 1 0 1.000000 
METALPIPE011A
0 -19.951900 -4.358401 -125.095703 -0.717198 -0.143200 0.681998 1.354800 -0.683300 1 0 1.000000 
0 -20.797600 4.408299 -124.144096 -0.760228 -0.142105 0.633923 1.354700 -0.722400 1 0 1.000000 
0 -49.493000 4.408298 -150.643494 -0.593603 -0.146001 0.791404 1.252300 -0.722400 1 0 1.000000 
METALPIPE011A
0 3.746500 -4.358400 -92.602203 -0.834694 -0.140099 0.532596 1.474800 -0.683300 1 0 1.000000 
0 -20.797600 4.408299 -124.144096 -0.760228 -0.142105 0.633923 1.354700 -0.722400 1 0 1.000000 
0 -19.951900 -4.358401 -125.095703 -0.717198 -0.143200 0.681998 1.354800 -0.683300 1 0 1.000000 
METALPIPE011A
0 3.746500 -4.358400 -92.602203 -0.834694 -0.140099 0.532596 1.474800 -0.683300 1 0 1.000000 
0 2.752100 4.408300 -91.854500 -0.866382 -0.139197 0.479590 1.474700 -0.722400 1 0 1.000000 
0 -20.797600 4.408299 -124.144096 -0.760228 -0.142105 0.633923 1.354700 -0.722400 1 0 1.000000 
METALPIPE011A
0 21.356001 -4.358399 -55.530602 -0.918565 -0.137495 0.370586 1.618000 -0.683300 1 0 1.000000 
0 2.752100 4.408300 -91.854500 -0.866382 -0.139197 0.479590 1.474700 -0.722400 1 0 1.000000 
0 3.746500 -4.358400 -92.602203 -0.834694 -0.140099 0.532596 1.474800 -0.683300 1 0 1.000000 
METALPIPE011A
0 21.356001 -4.358399 -55.530602 -0.918565 -0.137495 0.370586 1.618000 -0.683300 1 0 1.000000 
0 20.251101 4.408301 -55.015499 -0.939271 -0.136896 0.314690 1.617800 -0.722400 1 0 1.000000 
0 2.752100 4.408300 -91.854500 -0.866382 -0.139197 0.479590 1.474700 -0.722400 1 0 1.000000 
METALPIPE011A
0 32.199902 -4.358398 -15.305500 -0.970047 -0.135807 0.201410 1.786600 -0.683300 1 0 1.000000 
0 20.251101 4.408301 -55.015499 -0.939271 -0.136896 0.314690 1.617800 -0.722400 1 0 1.000000 
0 21.356001 -4.358399 -55.530602 -0.918565 -0.137495 0.370586 1.618000 -0.683300 1 0 1.000000 
METALPIPE011A
0 32.199902 -4.358398 -15.305500 -0.970047 -0.135807 0.201410 1.786600 -0.683300 1 0 1.000000 
0 31.026899 4.408301 -15.043000 -0.980259 -0.135494 0.143994 1.786500 -0.722400 1 0 1.000000 
0 20.251101 4.408301 -55.015499 -0.939271 -0.136896 0.314690 1.617800 -0.722400 1 0 1.000000 
METALPIPE011A
0 35.861401 -4.358398 26.527100 -0.990410 -0.135101 0.028900 1.974900 -0.683300 1 0 1.000000 
0 31.026899 4.408301 -15.043000 -0.980259 -0.135494 0.143994 1.786500 -0.722400 1 0 1.000000 
0 32.199902 -4.358398 -15.305500 -0.970047 -0.135807 0.201410 1.786600 -0.683300 1 0 1.000000 
METALPIPE011A
0 35.861401 -4.358398 26.527100 -0.990410 -0.135101 0.028900 1.974900 -0.683300 1 0 1.000000 
0 34.665401 4.408301 26.527100 -0.990410 -0.135101 -0.028900 1.974700 -0.722400 1 0 1.000000 
0 31.026899 4.408301 -15.043000 -0.980259 -0.135494 0.143994 1.786500 -0.722400 1 0 1.000000 
METALPIPE011A
0 32.199902 -4.358398 68.359802 -0.980259 -0.135494 -0.143994 2.166600 -0.683300 1 0 1.000000 
0 34.665401 4.408301 26.527100 -0.990410 -0.135101 -0.028900 1.974700 -0.722400 1 0 1.000000 
0 35.861401 -4.358398 26.527100 -0.990410 -0.135101 0.028900 1.974900 -0.683300 1 0 1.000000 
METALPIPE011A
0 32.199902 -4.358398 68.359802 -0.980259 -0.135494 -0.143994 2.166600 -0.683300 1 0 1.000000 
0 31.026899 4.408301 68.097298 -0.970047 -0.135807 -0.201410 2.166500 -0.722400 1 0 1.000000 
0 34.665401 4.408301 26.527100 -0.990410 -0.135101 -0.028900 1.974700 -0.722400 1 0 1.000000 
METALPIPE011A
0 21.356001 -4.358399 108.584900 -0.939271 -0.136896 -0.314690 2.343500 -0.683300 1 0 1.000000 
0 31.026899 4.408301 68.097298 -0.970047 -0.135807 -0.201410 2.166500 -0.722400 1 0 1.000000 
0 32.199902 -4.358398 68.359802 -0.980259 -0.135494 -0.143994 2.166600 -0.683300 1 0 1.000000 
METALPIPE011A
0 21.356001 -4.358399 108.584900 -0.939271 -0.136896 -0.314690 2.343500 -0.683300 1 0 1.000000 
0 20.250999 4.408301 108.069801 -0.918565 -0.137495 -0.370586 2.343400 -0.722400 1 0 1.000000 
0 31.026899 4.408301 68.097298 -0.970047 -0.135807 -0.201410 2.166500 -0.722400 1 0 1.000000 
METALPIPE011A
0 3.746500 -4.358400 145.656494 -0.850905 -0.139701 -0.506403 2.496000 -0.683300 1 0 1.000000 
0 20.250999 4.408301 108.069801 -0.918565 -0.137495 -0.370586 2.343400 -0.722400 1 0 1.000000 
0 21.356001 -4.358399 108.584900 -0.939271 -0.136896 -0.314690 2.343500 -0.683300 1 0 1.000000 
METALPIPE011A
0 3.746500 -4.358400 145.656494 -0.850905 -0.139701 -0.506403 2.496000 -0.683300 1 0 1.000000 
0 2.752000 4.408300 144.908798 -0.850905 -0.139701 -0.506403 2.495900 -0.722400 1 0 1.000000 
0 20.250999 4.408301 108.069801 -0.918565 -0.137495 -0.370586 2.343400 -0.722400 1 0 1.000000 
METALPIPE011A
0 3.746500 -4.358400 145.656494 -0.850905 -0.139701 -0.506403 2.496000 -0.683300 1 0 1.000000 
0 -2.021600 4.408300 151.454102 -0.799926 -0.140505 -0.583419 2.523600 -0.722400 1 0 1.000000 
0 2.752000 4.408300 144.908798 -0.850905 -0.139701 -0.506403 2.495900 -0.722400 1 0 1.000000 
METALPIPE011A
0 3.746500 -4.358400 145.656494 -0.850905 -0.139701 -0.506403 2.496000 -0.683300 1 0 1.000000 
0 -1.037200 -4.358400 152.215393 -0.799926 -0.140505 -0.583419 2.523600 -0.683300 1 0 1.000000 
0 -2.021600 4.408300 151.454102 -0.799926 -0.140505 -0.583419 2.523600 -0.722400 1 0 1.000000 
METALPIPE011A
0 14.111100 4.408300 153.449295 0.848913 0.155602 0.505108 2.496900 -0.722400 1 0 1.000000 
0 9.223300 4.408300 160.151001 0.797992 0.156498 0.581994 2.523400 -0.722400 1 0 1.000000 
0 10.322300 -4.358399 161.000900 0.797992 0.156498 0.581994 2.523300 -0.683300 1 0 1.000000 
METALPIPE011A
0 14.111100 4.408300 153.449295 0.848913 0.155602 0.505108 2.496900 -0.722400 1 0 1.000000 
0 10.322300 -4.358399 161.000900 0.797992 0.156498 0.581994 2.523300 -0.683300 1 0 1.000000 
0 15.221200 -4.358399 154.283997 0.848913 0.155602 0.505108 2.497000 -0.683300 1 0 1.000000 
METALPIPE011A
0 34.105999 -4.358398 114.527603 0.916429 0.153205 0.369712 2.344900 -0.683300 1 0 1.000000 
0 14.111100 4.408300 153.449295 0.848913 0.155602 0.505108 2.496900 -0.722400 1 0 1.000000 
0 15.221200 -4.358399 154.283997 0.848913 0.155602 0.505108 2.497000 -0.683300 1 0 1.000000 
METALPIPE011A
0 34.105999 -4.358398 114.527603 0.916429 0.153205 0.369712 2.344900 -0.683300 1 0 1.000000 
0 32.872501 4.408301 113.952698 0.937110 0.152402 0.314003 2.344800 -0.722400 1 0 1.000000 
0 14.111100 4.408300 153.449295 0.848913 0.155602 0.505108 2.496900 -0.722400 1 0 1.000000 
METALPIPE011A
0 45.735199 -4.358398 71.389397 0.967860 0.151294 0.200892 2.168200 -0.683300 1 0 1.000000 
0 32.872501 4.408301 113.952698 0.937110 0.152402 0.314003 2.344800 -0.722400 1 0 1.000000 
0 34.105999 -4.358398 114.527603 0.916429 0.153205 0.369712 2.344900 -0.683300 1 0 1.000000 
METALPIPE011A
0 45.735199 -4.358398 71.389397 0.967860 0.151294 0.200892 2.168200 -0.683300 1 0 1.000000 
0 44.425800 4.408302 71.096298 0.978047 0.150907 0.143707 2.168100 -0.722400 1 0 1.000000 
0 32.872501 4.408301 113.952698 0.937110 0.152402 0.314003 2.344800 -0.722400 1 0 1.000000 
METALPIPE011A
0 49.661900 -4.358397 26.527201 0.988191 0.150499 0.028800 1.976600 -0.683300 1 0 1.000000 
0 44.425800 4.408302 71.096298 0.978047 0.150907 0.143707 2.168100 -0.722400 1 0 1.000000 
0 45.735199 -4.358398 71.389397 0.967860 0.151294 0.200892 2.168200 -0.683300 1 0 1.000000 
METALPIPE011A
0 49.661900 -4.358397 26.527201 0.988191 0.150499 0.028800 1.976600 -0.683300 1 0 1.000000 
0 48.326900 4.408302 26.527201 0.988191 0.150499 -0.028800 1.976400 -0.722400 1 0 1.000000 
0 44.425800 4.408302 71.096298 0.978047 0.150907 0.143707 2.168100 -0.722400 1 0 1.000000 
METALPIPE011A
0 45.735199 -4.358398 -18.335100 0.978047 0.150907 -0.143707 1.788200 -0.683300 1 0 1.000000 
0 48.326900 4.408302 26.527201 0.988191 0.150499 -0.028800 1.976400 -0.722400 1 0 1.000000 
0 49.661900 -4.358397 26.527201 0.988191 0.150499 0.028800 1.976600 -0.683300 1 0 1.000000 
METALPIPE011A
0 45.735199 -4.358398 -18.335100 0.978047 0.150907 -0.143707 1.788200 -0.683300 1 0 1.000000 
0 44.425800 4.408302 -18.042000 0.967860 0.151294 -0.200892 1.788000 -0.722400 1 0 1.000000 
0 48.326900 4.408302 26.527201 0.988191 0.150499 -0.028800 1.976400 -0.722400 1 0 1.000000 
METALPIPE011A
0 34.105999 -4.358398 -61.473301 0.937110 0.152402 -0.314003 1.619200 -0.683300 1 0 1.000000 
0 44.425800 4.408302 -18.042000 0.967860 0.151294 -0.200892 1.788000 -0.722400 1 0 1.000000 
0 45.735199 -4.358398 -18.335100 0.978047 0.150907 -0.143707 1.788200 -0.683300 1 0 1.000000 
METALPIPE011A
0 34.105999 -4.358398 -61.473301 0.937110 0.152402 -0.314003 1.619200 -0.683300 1 0 1.000000 
0 32.872601 4.408301 -60.898399 0.916429 0.153205 -0.369712 1.619100 -0.722400 1 0 1.000000 
0 44.425800 4.408302 -18.042000 0.967860 0.151294 -0.200892 1.788000 -0.722400 1 0 1.000000 
METALPIPE011A
0 15.221200 -4.358399 -101.229698 0.864299 0.155000 -0.478500 1.475800 -0.683300 1 0 1.000000 
0 32.872601 4.408301 -60.898399 0.916429 0.153205 -0.369712 1.619100 -0.722400 1 0 1.000000 
0 34.105999 -4.358398 -61.473301 0.937110 0.152402 -0.314003 1.619200 -0.683300 1 0 1.000000 
METALPIPE011A
0 15.221200 -4.358399 -101.229698 0.864299 0.155000 -0.478500 1.475800 -0.683300 1 0 1.000000 
0 14.111100 4.408300 -100.394997 0.832698 0.156000 -0.531299 1.475700 -0.722400 1 0 1.000000 
0 32.872601 4.408301 -60.898399 0.916429 0.153205 -0.369712 1.619100 -0.722400 1 0 1.000000 
METALPIPE011A
0 -10.193500 -4.358400 -136.076401 0.758388 0.158297 -0.632290 1.355400 -0.683300 1 0 1.000000 
0 14.111100 4.408300 -100.394997 0.832698 0.156000 -0.531299 1.475700 -0.722400 1 0 1.000000 
0 15.221200 -4.358399 -101.229698 0.864299 0.155000 -0.478500 1.475800 -0.683300 1 0 1.000000 
METALPIPE011A
0 -10.193500 -4.358400 -136.076401 0.758388 0.158297 -0.632290 1.355400 -0.683300 1 0 1.000000 
0 -11.137600 4.408299 -135.014099 0.715384 0.159496 -0.680284 1.355400 -0.722400 1 0 1.000000 
0 14.111100 4.408300 -100.394997 0.832698 0.156000 -0.531299 1.475700 -0.722400 1 0 1.000000 
METALPIPE011A
0 -41.161400 -4.358402 -164.674500 0.592095 0.162599 -0.789294 1.252800 -0.683300 1 0 1.000000 
0 -11.137600 4.408299 -135.014099 0.715384 0.159496 -0.680284 1.355400 -0.722400 1 0 1.000000 
0 -10.193500 -4.358400 -136.076401 0.758388 0.158297 -0.632290 1.355400 -0.683300 1 0 1.000000 
METALPIPE011A
0 -41.161400 -4.358402 -164.674500 0.592095 0.162599 -0.789294 1.252800 -0.683300 1 0 1.000000 
0 -41.903099 4.408298 -163.425293 0.592095 0.162599 -0.789294 1.252800 -0.722400 1 0 1.000000 
0 -11.137600 4.408299 -135.014099 0.715384 0.159496 -0.680284 1.355400 -0.722400 1 0 1.000000 
METALPIPE011A
0 -43.742100 4.408298 -164.531403 0.508498 0.163500 -0.845398 1.247800 -0.722400 1 0 1.000000 
0 -41.903099 4.408298 -163.425293 0.592095 0.162599 -0.789294 1.252800 -0.722400 1 0 1.000000 
0 -41.161400 -4.358402 -164.674500 0.592095 0.162599 -0.789294 1.252800 -0.683300 1 0 1.000000 
METALPIPE011A
0 -43.742100 4.408298 -164.531403 0.508498 0.163500 -0.845398 1.247800 -0.722400 1 0 1.000000 
0 -41.161400 -4.358402 -164.674500 0.592095 0.162599 -0.789294 1.252800 -0.683300 1 0 1.000000 
0 -42.885700 -4.358402 -165.711502 0.508498 0.163500 -0.845398 1.248200 -0.683300 1 0 1.000000 
end
