version 1
nodes
  0 "static_prop" -1
end
skeleton
time 0
0 0.000000 0.000000 0.000000 0.000000 0.000000 0.000000
end
triangles
awning01
0 -31.999998 -24.491701 27.128300 0.074798 -0.500188 0.862680 0.343400 -0.057100 1 0 1.000000 
0 -31.999998 -59.128300 -7.508300 0.280593 -0.819378 0.499887 0.099100 -0.305100 1 0 1.000000 
0 -14.681698 -45.254799 9.810000 0.261898 -0.707593 0.656294 0.210600 -0.318600 1 0 1.000000 
awning01
0 -14.681698 -45.254799 9.810000 0.261898 -0.707593 0.656294 0.210600 -0.318600 1 0 1.000000 
0 -31.999998 -59.128300 -7.508300 0.280593 -0.819378 0.499887 0.099100 -0.305100 1 0 1.000000 
0 12.367802 -44.250301 -31.999901 0.587567 -0.739459 0.328582 0.210600 -0.854300 1 0 1.000000 
awning01
0 -31.999998 -59.128300 -7.508300 0.280593 -0.819378 0.499887 0.099100 -0.305100 1 0 1.000000 
0 -7.988098 -57.851700 -31.999901 0.496603 -0.743304 0.448202 0.099100 -0.748800 1 0 1.000000 
0 12.367802 -44.250301 -31.999901 0.587567 -0.739459 0.328582 0.210600 -0.854300 1 0 1.000000 
awning01
0 -14.681698 -45.254799 9.810000 0.261898 -0.707593 0.656294 0.210600 -0.318600 1 0 1.000000 
0 12.367802 -44.250301 -31.999901 0.587567 -0.739459 0.328582 0.210600 -0.854300 1 0 1.000000 
0 9.810001 -24.491699 9.810000 0.649675 -0.383185 0.656575 0.343400 -0.487300 1 0 1.000000 
awning01
0 -9.372599 -24.491699 22.627399 0.348998 -0.383198 0.855196 0.343400 -0.250000 1 0 1.000000 
0 -14.681698 -45.254799 9.810000 0.261898 -0.707593 0.656294 0.210600 -0.318600 1 0 1.000000 
0 9.810001 -24.491699 9.810000 0.649675 -0.383185 0.656575 0.343400 -0.487300 1 0 1.000000 
awning01
0 -31.999998 -24.491701 27.128300 0.074798 -0.500188 0.862680 0.343400 -0.057100 1 0 1.000000 
0 -14.681698 -45.254799 9.810000 0.261898 -0.707593 0.656294 0.210600 -0.318600 1 0 1.000000 
0 -9.372599 -24.491699 22.627399 0.348998 -0.383198 0.855196 0.343400 -0.250000 1 0 1.000000 
awning01
0 -31.999998 -24.491701 27.128300 0.074798 -0.500188 0.862680 0.343400 -0.057100 1 0 1.000000 
0 -9.372599 -24.491699 22.627399 0.348998 -0.383198 0.855196 0.343400 -0.250000 1 0 1.000000 
0 -32.000000 -0.000001 32.000000 0.195097 0.000000 0.980784 0.500100 -0.017100 1 0 1.000000 
awning01
0 -32.000000 -0.000001 32.000000 0.195097 0.000000 0.980784 0.500100 -0.017100 1 0 1.000000 
0 -9.372599 -24.491699 22.627399 0.348998 -0.383198 0.855196 0.343400 -0.250000 1 0 1.000000 
0 -7.508300 -0.000000 27.128300 0.443009 0.000000 0.896517 0.500100 -0.225800 1 0 1.000000 
awning01
0 -9.372599 -24.491699 22.627399 0.348998 -0.383198 0.855196 0.343400 -0.250000 1 0 1.000000 
0 9.810001 -24.491699 9.810000 0.649675 -0.383185 0.656575 0.343400 -0.487300 1 0 1.000000 
0 -7.508300 -0.000000 27.128300 0.443009 0.000000 0.896517 0.500100 -0.225800 1 0 1.000000 
awning01
0 -7.508300 -0.000000 27.128300 0.443009 0.000000 0.896517 0.500100 -0.225800 1 0 1.000000 
0 9.810001 -24.491699 9.810000 0.649675 -0.383185 0.656575 0.343400 -0.487300 1 0 1.000000 
0 13.254800 0.000001 13.254800 0.752310 0.000000 0.658809 0.500100 -0.482800 1 0 1.000000 
awning01
0 9.810001 -24.491699 9.810000 0.649675 -0.383185 0.656575 0.343400 -0.487300 1 0 1.000000 
0 22.627401 -24.491697 -9.372600 0.851475 -0.383189 0.357990 0.343400 -0.733100 1 0 1.000000 
0 13.254800 0.000001 13.254800 0.752310 0.000000 0.658809 0.500100 -0.482800 1 0 1.000000 
awning01
0 13.254800 0.000001 13.254800 0.752310 0.000000 0.658809 0.500100 -0.482800 1 0 1.000000 
0 22.627401 -24.491697 -9.372600 0.851475 -0.383189 0.357990 0.343400 -0.733100 1 0 1.000000 
0 27.128300 0.000001 -7.508200 0.947183 0.000000 0.320694 0.500100 -0.748800 1 0 1.000000 
awning01
0 27.128300 0.000001 -7.508200 0.947183 0.000000 0.320694 0.500100 -0.748800 1 0 1.000000 
0 22.627398 24.491701 -9.372600 0.851475 0.383189 0.357989 0.656800 -0.733100 1 0 1.000000 
0 13.254800 0.000001 13.254800 0.752310 0.000000 0.658809 0.500100 -0.482800 1 0 1.000000 
awning01
0 13.254800 0.000001 13.254800 0.752310 0.000000 0.658809 0.500100 -0.482800 1 0 1.000000 
0 22.627398 24.491701 -9.372600 0.851475 0.383189 0.357989 0.656800 -0.733100 1 0 1.000000 
0 9.809999 24.491699 9.810000 0.649675 0.383185 0.656575 0.656800 -0.487300 1 0 1.000000 
awning01
0 13.254800 0.000001 13.254800 0.752310 0.000000 0.658809 0.500100 -0.482800 1 0 1.000000 
0 9.809999 24.491699 9.810000 0.649675 0.383185 0.656575 0.656800 -0.487300 1 0 1.000000 
0 -7.508300 -0.000000 27.128300 0.443009 0.000000 0.896517 0.500100 -0.225800 1 0 1.000000 
awning01
0 -7.508300 -0.000000 27.128300 0.443009 0.000000 0.896517 0.500100 -0.225800 1 0 1.000000 
0 9.809999 24.491699 9.810000 0.649675 0.383185 0.656575 0.656800 -0.487300 1 0 1.000000 
0 -9.372601 24.491699 22.627399 0.348998 0.383198 0.855196 0.656800 -0.250000 1 0 1.000000 
awning01
0 -7.508300 -0.000000 27.128300 0.443009 0.000000 0.896517 0.500100 -0.225800 1 0 1.000000 
0 -9.372601 24.491699 22.627399 0.348998 0.383198 0.855196 0.656800 -0.250000 1 0 1.000000 
0 -32.000000 -0.000001 32.000000 0.195097 0.000000 0.980784 0.500100 -0.017100 1 0 1.000000 
awning01
0 -32.000000 -0.000001 32.000000 0.195097 0.000000 0.980784 0.500100 -0.017100 1 0 1.000000 
0 -9.372601 24.491699 22.627399 0.348998 0.383198 0.855196 0.656800 -0.250000 1 0 1.000000 
0 -32.000000 24.491697 27.128300 0.074798 0.500188 0.862680 0.656800 -0.057100 1 0 1.000000 
awning01
0 -9.372601 24.491699 22.627399 0.348998 0.383198 0.855196 0.656800 -0.250000 1 0 1.000000 
0 -14.681702 45.254799 9.810000 0.352100 0.738200 0.575400 0.789600 -0.318600 1 0 1.000000 
0 -32.000000 24.491697 27.128300 0.074798 0.500188 0.862680 0.656800 -0.057100 1 0 1.000000 
awning01
0 -14.681702 45.254799 9.810000 0.352100 0.738200 0.575400 0.789600 -0.318600 1 0 1.000000 
0 -32.000004 59.128300 -7.508300 0.122301 0.830709 0.543106 0.901000 -0.305100 1 0 1.000000 
0 -32.000000 24.491697 27.128300 0.074798 0.500188 0.862680 0.656800 -0.057100 1 0 1.000000 
awning01
0 -14.681702 45.254799 9.810000 0.352100 0.738200 0.575400 0.789600 -0.318600 1 0 1.000000 
0 -7.988102 58.086102 -31.999901 0.449594 0.831188 0.327095 0.901000 -0.748800 1 0 1.000000 
0 -32.000004 59.128300 -7.508300 0.122301 0.830709 0.543106 0.901000 -0.305100 1 0 1.000000 
awning01
0 12.367798 44.484699 -31.999901 0.630388 0.709987 0.313894 0.789600 -0.854300 1 0 1.000000 
0 -7.988102 58.086102 -31.999901 0.449594 0.831188 0.327095 0.901000 -0.748800 1 0 1.000000 
0 -14.681702 45.254799 9.810000 0.352100 0.738200 0.575400 0.789600 -0.318600 1 0 1.000000 
awning01
0 9.809999 24.491699 9.810000 0.649675 0.383185 0.656575 0.656800 -0.487300 1 0 1.000000 
0 12.367798 44.484699 -31.999901 0.630388 0.709987 0.313894 0.789600 -0.854300 1 0 1.000000 
0 -14.681702 45.254799 9.810000 0.352100 0.738200 0.575400 0.789600 -0.318600 1 0 1.000000 
awning01
0 22.627398 24.491701 -9.372600 0.851475 0.383189 0.357989 0.656800 -0.733100 1 0 1.000000 
0 12.367798 44.484699 -31.999901 0.630388 0.709987 0.313894 0.789600 -0.854300 1 0 1.000000 
0 9.809999 24.491699 9.810000 0.649675 0.383185 0.656575 0.656800 -0.487300 1 0 1.000000 
awning01
0 27.128298 24.491701 -32.000000 0.930668 0.315589 0.185094 0.656800 -0.949800 1 0 1.000000 
0 12.367798 44.484699 -31.999901 0.630388 0.709987 0.313894 0.789600 -0.854300 1 0 1.000000 
0 22.627398 24.491701 -9.372600 0.851475 0.383189 0.357989 0.656800 -0.733100 1 0 1.000000 
awning01
0 27.128300 0.000001 -7.508200 0.947183 0.000000 0.320694 0.500100 -0.748800 1 0 1.000000 
0 27.128298 24.491701 -32.000000 0.930668 0.315589 0.185094 0.656800 -0.949800 1 0 1.000000 
0 22.627398 24.491701 -9.372600 0.851475 0.383189 0.357989 0.656800 -0.733100 1 0 1.000000 
awning01
0 27.128300 0.000001 -7.508200 0.947183 0.000000 0.320694 0.500100 -0.748800 1 0 1.000000 
0 27.128302 -24.491697 -32.000000 0.930668 -0.315589 0.185094 0.343400 -0.949800 1 0 1.000000 
0 27.128298 24.491701 -32.000000 0.930668 0.315589 0.185094 0.656800 -0.949800 1 0 1.000000 
awning01
0 22.627401 -24.491697 -9.372600 0.851475 -0.383189 0.357990 0.343400 -0.733100 1 0 1.000000 
0 27.128302 -24.491697 -32.000000 0.930668 -0.315589 0.185094 0.343400 -0.949800 1 0 1.000000 
0 27.128300 0.000001 -7.508200 0.947183 0.000000 0.320694 0.500100 -0.748800 1 0 1.000000 
awning01
0 22.627401 -24.491697 -9.372600 0.851475 -0.383189 0.357990 0.343400 -0.733100 1 0 1.000000 
0 12.367802 -44.250301 -31.999901 0.587567 -0.739459 0.328582 0.210600 -0.854300 1 0 1.000000 
0 27.128302 -24.491697 -32.000000 0.930668 -0.315589 0.185094 0.343400 -0.949800 1 0 1.000000 
awning01
0 9.810001 -24.491699 9.810000 0.649675 -0.383185 0.656575 0.343400 -0.487300 1 0 1.000000 
0 12.367802 -44.250301 -31.999901 0.587567 -0.739459 0.328582 0.210600 -0.854300 1 0 1.000000 
0 22.627401 -24.491697 -9.372600 0.851475 -0.383189 0.357990 0.343400 -0.733100 1 0 1.000000 
awning01
0 9.809999 24.491699 9.810000 0.649675 0.383185 0.656575 0.656800 -0.487300 1 0 1.000000 
0 -14.681702 45.254799 9.810000 0.352100 0.738200 0.575400 0.789600 -0.318600 1 0 1.000000 
0 -9.372601 24.491699 22.627399 0.348998 0.383198 0.855196 0.656800 -0.250000 1 0 1.000000 
awning01
0 8.990599 24.128700 8.990300 -0.714496 -0.380698 -0.586996 0.654400 -0.488400 1 0 1.000000 
0 25.969299 0.117201 -7.988400 -0.947183 -0.000000 -0.320694 0.500800 -0.744700 1 0 1.000000 
0 12.367800 0.117201 12.367500 -0.718832 0.156107 -0.677430 0.500800 -0.483900 1 0 1.000000 
awning01
0 8.990599 24.128700 8.990300 -0.714496 -0.380698 -0.586996 0.654400 -0.488400 1 0 1.000000 
0 12.367800 0.117201 12.367500 -0.718832 0.156107 -0.677430 0.500800 -0.483900 1 0 1.000000 
0 -7.988100 0.117200 25.969000 -0.443009 -0.000000 -0.896517 0.500800 -0.232100 1 0 1.000000 
awning01
0 8.990599 24.128700 8.990300 -0.714496 -0.380698 -0.586996 0.654400 -0.488400 1 0 1.000000 
0 -7.988100 0.117200 25.969000 -0.443009 -0.000000 -0.896517 0.500800 -0.232100 1 0 1.000000 
0 -9.815901 24.128700 21.556299 -0.348998 -0.383198 -0.855196 0.654400 -0.255700 1 0 1.000000 
awning01
0 -9.815901 24.128700 21.556299 -0.348998 -0.383198 -0.855196 0.654400 -0.255700 1 0 1.000000 
0 -7.988100 0.117200 25.969000 -0.443009 -0.000000 -0.896517 0.500800 -0.232100 1 0 1.000000 
0 -31.999599 0.117199 30.745100 -0.195097 -0.000000 -0.980784 0.500800 -0.027500 1 0 1.000000 
awning01
0 -31.999601 44.484699 12.367500 -0.172998 -0.623194 -0.762693 0.784700 -0.178300 1 0 1.000000 
0 -9.815901 24.128700 21.556299 -0.348998 -0.383198 -0.855196 0.654400 -0.255700 1 0 1.000000 
0 -31.999599 0.117199 30.745100 -0.195097 -0.000000 -0.980784 0.500800 -0.027500 1 0 1.000000 
awning01
0 -0.627102 44.484699 -0.627400 -0.493104 -0.707606 -0.506104 0.768400 -0.501100 1 0 1.000000 
0 -9.815901 24.128700 21.556299 -0.348998 -0.383198 -0.855196 0.654400 -0.255700 1 0 1.000000 
0 -31.999601 44.484699 12.367500 -0.172998 -0.623194 -0.762693 0.784700 -0.178300 1 0 1.000000 
awning01
0 -32.000004 59.128300 -7.508300 -0.296804 -0.844912 -0.445006 0.893900 -0.309900 1 0 1.000000 
0 -0.627102 44.484699 -0.627400 -0.493104 -0.707606 -0.506104 0.768400 -0.501100 1 0 1.000000 
0 -31.999601 44.484699 12.367500 -0.172998 -0.623194 -0.762693 0.784700 -0.178300 1 0 1.000000 
awning01
0 -7.988102 58.086102 -31.999901 -0.447311 -0.854122 -0.265307 0.893900 -0.744900 1 0 1.000000 
0 -0.627102 44.484699 -0.627400 -0.493104 -0.707606 -0.506104 0.768400 -0.501100 1 0 1.000000 
0 -32.000004 59.128300 -7.508300 -0.296804 -0.844912 -0.445006 0.893900 -0.309900 1 0 1.000000 
awning01
0 -7.988102 58.086102 -31.999901 -0.447311 -0.854122 -0.265307 0.893900 -0.744900 1 0 1.000000 
0 12.367798 44.484699 -31.999901 -0.686712 -0.684612 -0.244404 0.784700 -0.848200 1 0 1.000000 
0 -0.627102 44.484699 -0.627400 -0.493104 -0.707606 -0.506104 0.768400 -0.501100 1 0 1.000000 
awning01
0 12.367798 44.484699 -31.999901 -0.686712 -0.684612 -0.244404 0.784700 -0.848200 1 0 1.000000 
0 8.990599 24.128700 8.990300 -0.714496 -0.380698 -0.586996 0.654400 -0.488400 1 0 1.000000 
0 -0.627102 44.484699 -0.627400 -0.493104 -0.707606 -0.506104 0.768400 -0.501100 1 0 1.000000 
awning01
0 12.367798 44.484699 -31.999901 -0.686712 -0.684612 -0.244404 0.784700 -0.848200 1 0 1.000000 
0 27.128298 24.491701 -32.000000 -0.924029 -0.313310 -0.219107 0.654400 -0.941900 1 0 1.000000 
0 8.990599 24.128700 8.990300 -0.714496 -0.380698 -0.586996 0.654400 -0.488400 1 0 1.000000 
awning01
0 27.128298 24.491701 -32.000000 -0.924029 -0.313310 -0.219107 0.654400 -0.941900 1 0 1.000000 
0 25.969299 0.117201 -7.988400 -0.947183 -0.000000 -0.320694 0.500800 -0.744700 1 0 1.000000 
0 8.990599 24.128700 8.990300 -0.714496 -0.380698 -0.586996 0.654400 -0.488400 1 0 1.000000 
awning01
0 27.128302 -24.491697 -32.000000 -0.851482 0.372292 -0.369292 0.347200 -0.941900 1 0 1.000000 
0 25.969299 0.117201 -7.988400 -0.947183 -0.000000 -0.320694 0.500800 -0.744700 1 0 1.000000 
0 27.128298 24.491701 -32.000000 -0.924029 -0.313310 -0.219107 0.654400 -0.941900 1 0 1.000000 
awning01
0 27.128302 -24.491697 -32.000000 -0.851482 0.372292 -0.369292 0.347200 -0.941900 1 0 1.000000 
0 12.367800 0.117201 12.367500 -0.718832 0.156107 -0.677430 0.500800 -0.483900 1 0 1.000000 
0 25.969299 0.117201 -7.988400 -0.947183 -0.000000 -0.320694 0.500800 -0.744700 1 0 1.000000 
awning01
0 27.128302 -24.491697 -32.000000 -0.851482 0.372292 -0.369292 0.347200 -0.941900 1 0 1.000000 
0 -9.815899 -23.894300 21.556299 -0.488414 0.361910 -0.794023 0.347200 -0.255700 1 0 1.000000 
0 12.367800 0.117201 12.367500 -0.718832 0.156107 -0.677430 0.500800 -0.483900 1 0 1.000000 
awning01
0 -9.815899 -23.894300 21.556299 -0.488414 0.361910 -0.794023 0.347200 -0.255700 1 0 1.000000 
0 -7.988100 0.117200 25.969000 -0.443009 -0.000000 -0.896517 0.500800 -0.232100 1 0 1.000000 
0 12.367800 0.117201 12.367500 -0.718832 0.156107 -0.677430 0.500800 -0.483900 1 0 1.000000 
awning01
0 -9.815899 -23.894300 21.556299 -0.488414 0.361910 -0.794023 0.347200 -0.255700 1 0 1.000000 
0 -31.999599 0.117199 30.745100 -0.195097 -0.000000 -0.980784 0.500800 -0.027500 1 0 1.000000 
0 -7.988100 0.117200 25.969000 -0.443009 -0.000000 -0.896517 0.500800 -0.232100 1 0 1.000000 
awning01
0 -9.815899 -23.894300 21.556299 -0.488414 0.361910 -0.794023 0.347200 -0.255700 1 0 1.000000 
0 -31.999598 -23.894302 25.969000 -0.087900 0.492602 -0.865804 0.347200 -0.066700 1 0 1.000000 
0 -31.999599 0.117199 30.745100 -0.195097 -0.000000 -0.980784 0.500800 -0.027500 1 0 1.000000 
awning01
0 -0.627102 44.484699 -0.627400 -0.493104 -0.707606 -0.506104 0.768400 -0.501100 1 0 1.000000 
0 8.990599 24.128700 8.990300 -0.714496 -0.380698 -0.586996 0.654400 -0.488400 1 0 1.000000 
0 -9.815901 24.128700 21.556299 -0.348998 -0.383198 -0.855196 0.654400 -0.255700 1 0 1.000000 
awning01
0 -15.020898 -44.250301 8.990300 -0.261898 0.707593 -0.656294 0.217000 -0.323000 1 0 1.000000 
0 -31.999598 -23.894302 25.969000 -0.087900 0.492602 -0.865804 0.347200 -0.066700 1 0 1.000000 
0 -9.815899 -23.894300 21.556299 -0.488414 0.361910 -0.794023 0.347200 -0.255700 1 0 1.000000 
awning01
0 -31.999998 -59.128300 -7.508300 -0.159191 0.809053 -0.565767 0.107800 -0.309900 1 0 1.000000 
0 -31.999598 -23.894302 25.969000 -0.087900 0.492602 -0.865804 0.347200 -0.066700 1 0 1.000000 
0 -15.020898 -44.250301 8.990300 -0.261898 0.707593 -0.656294 0.217000 -0.323000 1 0 1.000000 
awning01
0 -7.988098 -57.851700 -31.999901 -0.438706 0.856412 -0.272204 0.107800 -0.744900 1 0 1.000000 
0 -31.999998 -59.128300 -7.508300 -0.159191 0.809053 -0.565767 0.107800 -0.309900 1 0 1.000000 
0 -15.020898 -44.250301 8.990300 -0.261898 0.707593 -0.656294 0.217000 -0.323000 1 0 1.000000 
awning01
0 -7.988098 -57.851700 -31.999901 -0.438706 0.856412 -0.272204 0.107800 -0.744900 1 0 1.000000 
0 -15.020898 -44.250301 8.990300 -0.261898 0.707593 -0.656294 0.217000 -0.323000 1 0 1.000000 
0 8.990602 -44.250301 -15.021200 -0.657182 0.653083 -0.376290 0.227900 -0.685500 1 0 1.000000 
awning01
0 -7.988098 -57.851700 -31.999901 -0.438706 0.856412 -0.272204 0.107800 -0.744900 1 0 1.000000 
0 8.990602 -44.250301 -15.021200 -0.657182 0.653083 -0.376290 0.227900 -0.685500 1 0 1.000000 
0 12.367802 -44.250301 -31.999901 -0.681522 0.719123 -0.135604 0.217000 -0.848200 1 0 1.000000 
awning01
0 12.367802 -44.250301 -31.999901 -0.681522 0.719123 -0.135604 0.217000 -0.848200 1 0 1.000000 
0 8.990602 -44.250301 -15.021200 -0.657182 0.653083 -0.376290 0.227900 -0.685500 1 0 1.000000 
0 27.128302 -24.491697 -32.000000 -0.851482 0.372292 -0.369292 0.347200 -0.941900 1 0 1.000000 
awning01
0 8.990602 -44.250301 -15.021200 -0.657182 0.653083 -0.376290 0.227900 -0.685500 1 0 1.000000 
0 -9.815899 -23.894300 21.556299 -0.488414 0.361910 -0.794023 0.347200 -0.255700 1 0 1.000000 
0 27.128302 -24.491697 -32.000000 -0.851482 0.372292 -0.369292 0.347200 -0.941900 1 0 1.000000 
awning01
0 8.990602 -44.250301 -15.021200 -0.657182 0.653083 -0.376290 0.227900 -0.685500 1 0 1.000000 
0 -15.020898 -44.250301 8.990300 -0.261898 0.707593 -0.656294 0.217000 -0.323000 1 0 1.000000 
0 -9.815899 -23.894300 21.556299 -0.488414 0.361910 -0.794023 0.347200 -0.255700 1 0 1.000000 
end
