version 1
nodes
  0 "static_prop" -1
end
skeleton
time 0
0 0.000000 0.000000 0.000000 0.000000 0.000000 0.000000
end
triangles
Traintrack001a
0 128.000000 -67.999992 -0.000006 0.010416 -0.999946 0.000000 0.088067 -0.673601 1 0 1.000000 
0 128.000000 -63.999996 7.999994 0.010416 -0.999946 0.000000 0.093133 -1.329674 1 0 1.000000 
0 128.000000 -67.999992 7.999994 0.000000 -1.000000 0.000000 0.934248 -1.494051 1 0 1.000000 
Traintrack001a
0 128.000000 -67.999992 -0.000006 0.010416 -0.999946 0.000000 0.088067 -0.673601 1 0 1.000000 
0 128.000000 -63.999996 -0.000006 0.000000 -1.000000 0.000000 0.060165 -1.494295 1 0 1.000000 
0 128.000000 -63.999996 7.999994 0.010416 -0.999946 0.000000 0.093133 -1.329674 1 0 1.000000 
Traintrack001a
0 -128.000000 -64.000008 8.000006 0.000000 -1.000000 0.000000 0.005837 0.494295 1 0 1.000000 
0 128.000000 -63.999996 -0.000006 0.000000 -1.000000 0.000000 0.060165 -1.494295 1 0 1.000000 
0 -128.000000 -64.000008 0.000006 0.000000 -1.000000 0.000000 0.067973 0.494051 1 0 1.000000 
Traintrack001a
0 -128.000000 -64.000008 8.000006 0.000000 -1.000000 0.000000 0.005837 0.494295 1 0 1.000000 
0 128.000000 -63.999996 7.999994 0.000000 -1.000000 0.000000 -0.001971 -1.494051 1 0 1.000000 
0 128.000000 -63.999996 -0.000006 0.000000 -1.000000 0.000000 0.060165 -1.494295 1 0 1.000000 
Traintrack001a
0 128.000000 -67.999992 -0.000006 0.000000 -1.000000 0.000000 0.996384 -1.494295 1 0 1.000000 
0 -128.000000 -68.000008 8.000006 0.000000 -1.000000 0.000000 0.942056 0.494295 1 0 1.000000 
0 -128.000000 -68.000008 0.000006 0.000000 -1.000000 0.000000 1.004192 0.494051 1 0 1.000000 
Traintrack001a
0 128.000000 -67.999992 -0.000006 0.000000 -1.000000 0.000000 0.996384 -1.494295 1 0 1.000000 
0 128.000000 -67.999992 7.999994 0.000000 -1.000000 0.000000 0.934248 -1.494051 1 0 1.000000 
0 -128.000000 -68.000008 8.000006 0.000000 -1.000000 0.000000 0.942056 0.494295 1 0 1.000000 
Traintrack001a
0 128.000000 -63.999996 -0.000006 0.000000 -0.999946 -0.010416 0.077666 -0.673601 1 0 1.000000 
0 128.000000 -67.999992 -0.000006 0.010416 -0.999946 0.000000 0.088067 -0.673601 1 0 1.000000 
0 -128.000000 -68.000008 0.000006 0.000000 -0.999946 -0.010416 0.088067 -0.673601 1 0 1.000000 
Traintrack001a
0 128.000000 -63.999996 -0.000006 0.000000 -0.999946 -0.010416 0.077666 -0.673601 1 0 1.000000 
0 -128.000000 -68.000008 0.000006 0.000000 -0.999946 -0.010416 0.088067 -0.673601 1 0 1.000000 
0 -128.000000 -64.000008 0.000006 0.000000 -0.999946 -0.010416 0.077666 -0.673601 1 0 1.000000 
Traintrack001a
0 -128.000000 -68.000008 0.000006 0.000000 -0.999946 -0.010416 0.088067 -0.673601 1 0 1.000000 
0 -128.000000 -64.000008 8.000006 -0.010416 -0.999946 0.000000 0.093133 0.329674 1 0 1.000000 
0 -128.000000 -64.000008 0.000006 0.000000 -0.999946 -0.010416 0.077666 -0.673601 1 0 1.000000 
Traintrack001a
0 -128.000000 -68.000008 0.000006 0.000000 -0.999946 -0.010416 0.088067 -0.673601 1 0 1.000000 
0 -128.000000 -68.000008 8.000006 -0.010416 -0.999946 0.000000 0.067206 0.329674 1 0 1.000000 
0 -128.000000 -64.000008 8.000006 -0.010416 -0.999946 0.000000 0.093133 0.329674 1 0 1.000000 
Traintrack001a
0 128.000000 -63.999996 7.999994 0.010416 -0.999946 0.000000 0.093133 -1.329674 1 0 1.000000 
0 -128.000000 -64.000008 8.000006 -0.010416 -0.999946 0.000000 0.093133 0.329674 1 0 1.000000 
0 -128.000000 -68.000008 8.000006 -0.010416 -0.999946 0.000000 0.067206 0.329674 1 0 1.000000 
Traintrack001a
0 128.000000 -63.999996 7.999994 0.010416 -0.999946 0.000000 0.093133 -1.329674 1 0 1.000000 
0 -128.000000 -68.000008 8.000006 -0.010416 -0.999946 0.000000 0.067206 0.329674 1 0 1.000000 
0 128.000000 -67.999992 7.999994 0.000000 -0.999946 0.010416 0.067206 -1.329674 1 0 1.000000 
Traintrack001a
0 128.000000 48.000004 -8.000006 0.000000 -0.999946 -0.010416 0.827135 0.366173 1 0 1.000000 
0 -128.000000 144.000000 -7.999994 0.000000 -0.999946 -0.010416 0.177511 -1.366173 1 0 1.000000 
0 127.999992 144.000000 -8.000006 0.000000 -0.999946 -0.010416 0.177511 0.366173 1 0 1.000000 
Traintrack001a
0 128.000000 48.000004 -8.000006 0.000000 -0.999946 -0.010416 0.827135 0.366173 1 0 1.000000 
0 -128.000000 47.999996 -7.999994 0.000000 -0.999946 -0.010416 0.827135 -1.366173 1 0 1.000000 
0 -128.000000 144.000000 -7.999994 0.000000 -0.999946 -0.010416 0.177511 -1.366173 1 0 1.000000 
Traintrack001a
0 127.999992 144.000000 -8.000006 0.000000 -1.000000 0.000000 0.901358 -1.000434 1 0 1.000000 
0 128.000000 48.000004 -0.000006 0.000000 -1.000000 0.000000 0.870081 -1.000434 1 0 1.000000 
0 128.000000 48.000004 -8.000006 0.000000 -0.999946 -0.010416 0.827135 0.366173 1 0 1.000000 
Traintrack001a
0 127.999992 144.000000 -8.000006 0.000000 -1.000000 0.000000 0.901358 -1.000434 1 0 1.000000 
0 127.999992 144.000000 -0.000006 0.010416 -0.999946 0.000000 0.177748 0.366173 1 0 1.000000 
0 128.000000 48.000004 -0.000006 0.000000 -1.000000 0.000000 0.870081 -1.000434 1 0 1.000000 
Traintrack001a
0 127.999992 144.000000 -0.000006 0.000000 -1.000000 0.000000 0.870080 -1.000434 1 0 1.000000 
0 -128.000000 144.000000 -7.999994 -0.010416 -0.999946 0.000000 0.901358 0.000434 1 0 1.000000 
0 -128.000000 144.000000 0.000006 0.000000 -1.000000 0.000000 0.870081 0.000434 1 0 1.000000 
Traintrack001a
0 127.999992 144.000000 -0.000006 0.000000 -1.000000 0.000000 0.870080 -1.000434 1 0 1.000000 
0 127.999992 144.000000 -8.000006 0.000000 -1.000000 0.000000 0.901358 -1.000434 1 0 1.000000 
0 -128.000000 144.000000 -7.999994 -0.010416 -0.999946 0.000000 0.901358 0.000434 1 0 1.000000 
Traintrack001a
0 128.000000 48.000004 -8.000006 0.000000 -1.000000 0.000000 0.901358 -1.000434 1 0 1.000000 
0 -128.000000 47.999996 0.000006 0.000000 -1.000000 0.000000 0.870080 0.000434 1 0 1.000000 
0 -128.000000 47.999996 -7.999994 -0.010416 -0.999946 0.000000 0.901358 0.000434 1 0 1.000000 
Traintrack001a
0 128.000000 48.000004 -8.000006 0.000000 -1.000000 0.000000 0.901358 -1.000434 1 0 1.000000 
0 128.000000 48.000004 -0.000006 0.000000 -1.000000 0.000000 0.870081 -1.000434 1 0 1.000000 
0 -128.000000 47.999996 0.000006 0.000000 -1.000000 0.000000 0.870080 0.000434 1 0 1.000000 
Traintrack001a
0 -128.000000 47.999996 -7.999994 -0.010416 -0.999946 0.000000 0.901358 0.000434 1 0 1.000000 
0 -128.000000 144.000000 0.000006 -0.010416 -0.999946 0.000000 0.177748 -1.366173 1 0 1.000000 
0 -128.000000 144.000000 -7.999994 -0.010416 -0.999946 0.000000 0.901358 0.000434 1 0 1.000000 
Traintrack001a
0 -128.000000 47.999996 -7.999994 -0.010416 -0.999946 0.000000 0.901358 0.000434 1 0 1.000000 
0 -128.000000 47.999996 0.000006 -0.010416 -0.999946 0.000000 0.827371 -1.366173 1 0 1.000000 
0 -128.000000 144.000000 0.000006 -0.010416 -0.999946 0.000000 0.177748 -1.366173 1 0 1.000000 
Traintrack001a
0 -128.000000 144.000000 0.000006 -0.010416 -0.999946 0.000000 0.177748 -1.366173 1 0 1.000000 
0 -128.000000 47.999996 0.000006 -0.010416 -0.999946 0.000000 0.827371 -1.366173 1 0 1.000000 
0 128.000000 48.000004 -0.000006 0.000000 -0.999946 0.010416 0.827371 0.366173 1 0 1.000000 
Traintrack001a
0 -128.000000 144.000000 0.000006 -0.010416 -0.999946 0.000000 0.177748 -1.366173 1 0 1.000000 
0 128.000000 48.000004 -0.000006 0.000000 -0.999946 0.010416 0.827371 0.366173 1 0 1.000000 
0 127.999992 144.000000 -0.000006 0.010416 -0.999946 0.000000 0.177748 0.366173 1 0 1.000000 
Traintrack001a
0 128.000000 -144.000000 -8.000006 0.000000 -1.000000 0.000000 0.901358 -1.000434 1 0 1.000000 
0 128.000000 -144.000000 -0.000006 0.000000 -1.000000 0.000000 0.870081 -1.000434 1 0 1.000000 
0 -127.999992 -144.000000 0.000006 0.000000 -1.000000 0.000000 0.870080 0.000434 1 0 1.000000 
Traintrack001a
0 128.000000 -144.000000 -8.000006 0.000000 -1.000000 0.000000 0.901358 -1.000434 1 0 1.000000 
0 -127.999992 -144.000000 0.000006 0.000000 -1.000000 0.000000 0.870080 0.000434 1 0 1.000000 
0 -127.999992 -144.000000 -7.999994 -0.010416 -0.999946 0.000000 0.901358 0.000434 1 0 1.000000 
Traintrack001a
0 128.000000 -47.999996 -8.000006 0.000000 -1.000000 0.000000 0.901358 -1.000434 1 0 1.000000 
0 128.000000 -144.000000 -0.000006 0.000000 -1.000000 0.000000 0.870081 -1.000434 1 0 1.000000 
0 128.000000 -144.000000 -8.000006 0.000000 -0.999946 -0.010416 0.827135 0.366173 1 0 1.000000 
Traintrack001a
0 128.000000 -47.999996 -8.000006 0.000000 -1.000000 0.000000 0.901358 -1.000434 1 0 1.000000 
0 128.000000 -47.999996 -0.000006 0.010416 -0.999946 0.000000 0.177748 0.366173 1 0 1.000000 
0 128.000000 -144.000000 -0.000006 0.000000 -1.000000 0.000000 0.870081 -1.000434 1 0 1.000000 
Traintrack001a
0 128.000000 -144.000000 -8.000006 0.000000 -0.999946 -0.010416 0.827135 0.366173 1 0 1.000000 
0 -128.000000 -48.000004 -7.999994 0.000000 -0.999946 -0.010416 0.177511 -1.366173 1 0 1.000000 
0 128.000000 -47.999996 -8.000006 0.000000 -0.999946 -0.010416 0.177511 0.366173 1 0 1.000000 
Traintrack001a
0 128.000000 -144.000000 -8.000006 0.000000 -0.999946 -0.010416 0.827135 0.366173 1 0 1.000000 
0 -127.999992 -144.000000 -7.999994 0.000000 -0.999946 -0.010416 0.827135 -1.366173 1 0 1.000000 
0 -128.000000 -48.000004 -7.999994 0.000000 -0.999946 -0.010416 0.177511 -1.366173 1 0 1.000000 
Traintrack001a
0 -128.000000 -48.000004 0.000006 -0.010416 -0.999946 0.000000 0.177748 -1.366173 1 0 1.000000 
0 128.000000 -144.000000 -0.000006 0.000000 -0.999946 0.010416 0.827371 0.366173 1 0 1.000000 
0 128.000000 -47.999996 -0.000006 0.010416 -0.999946 0.000000 0.177748 0.366173 1 0 1.000000 
Traintrack001a
0 -128.000000 -48.000004 0.000006 -0.010416 -0.999946 0.000000 0.177748 -1.366173 1 0 1.000000 
0 -127.999992 -144.000000 0.000006 -0.010416 -0.999946 0.000000 0.827371 -1.366173 1 0 1.000000 
0 128.000000 -144.000000 -0.000006 0.000000 -0.999946 0.010416 0.827371 0.366173 1 0 1.000000 
Traintrack001a
0 -127.999992 -144.000000 -7.999994 -0.010416 -0.999946 0.000000 0.901358 0.000434 1 0 1.000000 
0 -127.999992 -144.000000 0.000006 -0.010416 -0.999946 0.000000 0.827371 -1.366173 1 0 1.000000 
0 -128.000000 -48.000004 0.000006 -0.010416 -0.999946 0.000000 0.177748 -1.366173 1 0 1.000000 
Traintrack001a
0 -127.999992 -144.000000 -7.999994 -0.010416 -0.999946 0.000000 0.901358 0.000434 1 0 1.000000 
0 -128.000000 -48.000004 0.000006 -0.010416 -0.999946 0.000000 0.177748 -1.366173 1 0 1.000000 
0 -128.000000 -48.000004 -7.999994 -0.010416 -0.999946 0.000000 0.901358 0.000434 1 0 1.000000 
Traintrack001a
0 128.000000 -47.999996 -0.000006 0.000000 -1.000000 0.000000 0.870080 -1.000434 1 0 1.000000 
0 -128.000000 -48.000004 -7.999994 -0.010416 -0.999946 0.000000 0.901358 0.000434 1 0 1.000000 
0 -128.000000 -48.000004 0.000006 0.000000 -1.000000 0.000000 0.870081 0.000434 1 0 1.000000 
Traintrack001a
0 128.000000 -47.999996 -0.000006 0.000000 -1.000000 0.000000 0.870080 -1.000434 1 0 1.000000 
0 128.000000 -47.999996 -8.000006 0.000000 -1.000000 0.000000 0.901358 -1.000434 1 0 1.000000 
0 -128.000000 -48.000004 -7.999994 -0.010416 -0.999946 0.000000 0.901358 0.000434 1 0 1.000000 
Traintrack001a
0 128.000000 -127.999992 -0.000006 0.010416 -0.999946 0.000000 0.244087 -0.673601 1 0 1.000000 
0 128.000000 -123.999992 7.999994 0.010416 -0.999946 0.000000 0.936862 -1.329674 1 0 1.000000 
0 128.000000 -127.999992 7.999994 0.000000 -1.000000 0.000000 0.934248 -1.494051 1 0 1.000000 
Traintrack001a
0 128.000000 -127.999992 -0.000006 0.010416 -0.999946 0.000000 0.244087 -0.673601 1 0 1.000000 
0 128.000000 -123.999992 -0.000006 0.000000 -1.000000 0.000000 0.060165 -1.494295 1 0 1.000000 
0 128.000000 -123.999992 7.999994 0.010416 -0.999946 0.000000 0.936862 -1.329674 1 0 1.000000 
Traintrack001a
0 -127.999992 -124.000008 8.000006 0.000000 -1.000000 0.000000 0.005837 0.494295 1 0 1.000000 
0 128.000000 -123.999992 -0.000006 0.000000 -1.000000 0.000000 0.060165 -1.494295 1 0 1.000000 
0 -127.999992 -124.000008 0.000006 0.000000 -1.000000 0.000000 0.067973 0.494051 1 0 1.000000 
Traintrack001a
0 -127.999992 -124.000008 8.000006 0.000000 -1.000000 0.000000 0.005837 0.494295 1 0 1.000000 
0 128.000000 -123.999992 7.999994 0.000000 -1.000000 0.000000 -0.001971 -1.494051 1 0 1.000000 
0 128.000000 -123.999992 -0.000006 0.000000 -1.000000 0.000000 0.060165 -1.494295 1 0 1.000000 
Traintrack001a
0 128.000000 -127.999992 -0.000006 0.000000 -1.000000 0.000000 0.996384 -1.494295 1 0 1.000000 
0 -127.999992 -128.000000 8.000006 0.000000 -1.000000 0.000000 0.942056 0.494295 1 0 1.000000 
0 -127.999992 -128.000000 0.000006 0.000000 -1.000000 0.000000 1.004192 0.494051 1 0 1.000000 
Traintrack001a
0 128.000000 -127.999992 -0.000006 0.000000 -1.000000 0.000000 0.996384 -1.494295 1 0 1.000000 
0 128.000000 -127.999992 7.999994 0.000000 -1.000000 0.000000 0.934248 -1.494051 1 0 1.000000 
0 -127.999992 -128.000000 8.000006 0.000000 -1.000000 0.000000 0.942056 0.494295 1 0 1.000000 
Traintrack001a
0 128.000000 -123.999992 7.999994 0.010416 -0.999946 0.000000 0.936862 -1.329674 1 0 1.000000 
0 -127.999992 -128.000000 8.000006 -0.010416 -0.999946 0.000000 0.910934 0.329674 1 0 1.000000 
0 128.000000 -127.999992 7.999994 0.000000 -0.999946 0.010416 0.910934 -1.329674 1 0 1.000000 
Traintrack001a
0 128.000000 -123.999992 7.999994 0.010416 -0.999946 0.000000 0.936862 -1.329674 1 0 1.000000 
0 -127.999992 -124.000008 8.000006 -0.010416 -0.999946 0.000000 0.936862 0.329674 1 0 1.000000 
0 -127.999992 -128.000000 8.000006 -0.010416 -0.999946 0.000000 0.910934 0.329674 1 0 1.000000 
Traintrack001a
0 -127.999992 -128.000000 0.000006 0.000000 -0.999946 -0.010416 0.244087 -0.673601 1 0 1.000000 
0 -127.999992 -128.000000 8.000006 -0.010416 -0.999946 0.000000 0.910934 0.329674 1 0 1.000000 
0 -127.999992 -124.000008 8.000006 -0.010416 -0.999946 0.000000 0.936862 0.329674 1 0 1.000000 
Traintrack001a
0 -127.999992 -128.000000 0.000006 0.000000 -0.999946 -0.010416 0.244087 -0.673601 1 0 1.000000 
0 -127.999992 -124.000008 8.000006 -0.010416 -0.999946 0.000000 0.936862 0.329674 1 0 1.000000 
0 -127.999992 -124.000008 0.000006 0.000000 -0.999946 -0.010416 0.233685 -0.673601 1 0 1.000000 
Traintrack001a
0 128.000000 -123.999992 -0.000006 0.000000 -0.999946 -0.010416 0.233685 -0.673601 1 0 1.000000 
0 -127.999992 -128.000000 0.000006 0.000000 -0.999946 -0.010416 0.244087 -0.673601 1 0 1.000000 
0 -127.999992 -124.000008 0.000006 0.000000 -0.999946 -0.010416 0.233685 -0.673601 1 0 1.000000 
Traintrack001a
0 128.000000 -123.999992 -0.000006 0.000000 -0.999946 -0.010416 0.233685 -0.673601 1 0 1.000000 
0 128.000000 -127.999992 -0.000006 0.010416 -0.999946 0.000000 0.244087 -0.673601 1 0 1.000000 
0 -127.999992 -128.000000 0.000006 0.000000 -0.999946 -0.010416 0.244087 -0.673601 1 0 1.000000 
Traintrack001a
0 127.999992 128.000000 -0.000006 0.000000 -0.999946 -0.010416 0.077666 -0.673601 1 0 1.000000 
0 127.999992 124.000008 -0.000006 0.010416 -0.999946 0.000000 0.088067 -0.673601 1 0 1.000000 
0 -128.000000 123.999992 0.000006 0.000000 -0.999946 -0.010416 0.088067 -0.673601 1 0 1.000000 
Traintrack001a
0 127.999992 128.000000 -0.000006 0.000000 -0.999946 -0.010416 0.077666 -0.673601 1 0 1.000000 
0 -128.000000 123.999992 0.000006 0.000000 -0.999946 -0.010416 0.088067 -0.673601 1 0 1.000000 
0 -128.000000 127.999992 0.000006 0.000000 -0.999946 -0.010416 0.077666 -0.673601 1 0 1.000000 
Traintrack001a
0 -128.000000 123.999992 0.000006 0.000000 -0.999946 -0.010416 0.088067 -0.673601 1 0 1.000000 
0 -128.000000 127.999992 8.000006 -0.010416 -0.999946 0.000000 0.093133 0.329674 1 0 1.000000 
0 -128.000000 127.999992 0.000006 0.000000 -0.999946 -0.010416 0.077666 -0.673601 1 0 1.000000 
Traintrack001a
0 -128.000000 123.999992 0.000006 0.000000 -0.999946 -0.010416 0.088067 -0.673601 1 0 1.000000 
0 -128.000000 123.999992 8.000006 -0.010416 -0.999946 0.000000 0.067206 0.329674 1 0 1.000000 
0 -128.000000 127.999992 8.000006 -0.010416 -0.999946 0.000000 0.093133 0.329674 1 0 1.000000 
Traintrack001a
0 127.999992 128.000000 7.999994 0.010416 -0.999946 0.000000 0.093133 -1.329674 1 0 1.000000 
0 -128.000000 127.999992 8.000006 -0.010416 -0.999946 0.000000 0.093133 0.329674 1 0 1.000000 
0 -128.000000 123.999992 8.000006 -0.010416 -0.999946 0.000000 0.067206 0.329674 1 0 1.000000 
Traintrack001a
0 127.999992 128.000000 7.999994 0.010416 -0.999946 0.000000 0.093133 -1.329674 1 0 1.000000 
0 -128.000000 123.999992 8.000006 -0.010416 -0.999946 0.000000 0.067206 0.329674 1 0 1.000000 
0 127.999992 124.000008 7.999994 0.000000 -0.999946 0.010416 0.067206 -1.329674 1 0 1.000000 
Traintrack001a
0 127.999992 124.000008 -0.000006 0.010416 -0.999946 0.000000 0.088067 -0.673601 1 0 1.000000 
0 127.999992 128.000000 7.999994 0.010416 -0.999946 0.000000 0.093133 -1.329674 1 0 1.000000 
0 127.999992 124.000008 7.999994 0.000000 -1.000000 0.000000 0.934248 -1.494051 1 0 1.000000 
Traintrack001a
0 127.999992 124.000008 -0.000006 0.010416 -0.999946 0.000000 0.088067 -0.673601 1 0 1.000000 
0 127.999992 128.000000 -0.000006 0.000000 -1.000000 0.000000 0.060165 -1.494295 1 0 1.000000 
0 127.999992 128.000000 7.999994 0.010416 -0.999946 0.000000 0.093133 -1.329674 1 0 1.000000 
Traintrack001a
0 -128.000000 127.999992 8.000006 0.000000 -1.000000 0.000000 0.005837 0.494295 1 0 1.000000 
0 127.999992 128.000000 -0.000006 0.000000 -1.000000 0.000000 0.060165 -1.494295 1 0 1.000000 
0 -128.000000 127.999992 0.000006 0.000000 -1.000000 0.000000 0.067973 0.494051 1 0 1.000000 
Traintrack001a
0 -128.000000 127.999992 8.000006 0.000000 -1.000000 0.000000 0.005837 0.494295 1 0 1.000000 
0 127.999992 128.000000 7.999994 0.000000 -1.000000 0.000000 -0.001971 -1.494051 1 0 1.000000 
0 127.999992 128.000000 -0.000006 0.000000 -1.000000 0.000000 0.060165 -1.494295 1 0 1.000000 
Traintrack001a
0 127.999992 124.000008 -0.000006 0.000000 -1.000000 0.000000 0.996384 -1.494295 1 0 1.000000 
0 -128.000000 123.999992 8.000006 0.000000 -1.000000 0.000000 0.942056 0.494295 1 0 1.000000 
0 -128.000000 123.999992 0.000006 0.000000 -1.000000 0.000000 1.004192 0.494051 1 0 1.000000 
Traintrack001a
0 127.999992 124.000008 -0.000006 0.000000 -1.000000 0.000000 0.996384 -1.494295 1 0 1.000000 
0 127.999992 124.000008 7.999994 0.000000 -1.000000 0.000000 0.934248 -1.494051 1 0 1.000000 
0 -128.000000 123.999992 8.000006 0.000000 -1.000000 0.000000 0.942056 0.494295 1 0 1.000000 
Traintrack001a
0 128.000000 64.000008 -0.000006 0.010416 -0.999946 0.000000 0.244087 -0.673601 1 0 1.000000 
0 128.000000 68.000008 7.999994 0.010416 -0.999946 0.000000 0.936862 -1.329674 1 0 1.000000 
0 128.000000 64.000008 7.999994 0.000000 -1.000000 0.000000 0.934248 -1.494051 1 0 1.000000 
Traintrack001a
0 128.000000 64.000008 -0.000006 0.010416 -0.999946 0.000000 0.244087 -0.673601 1 0 1.000000 
0 128.000000 68.000008 -0.000006 0.000000 -1.000000 0.000000 0.060165 -1.494295 1 0 1.000000 
0 128.000000 68.000008 7.999994 0.010416 -0.999946 0.000000 0.936862 -1.329674 1 0 1.000000 
Traintrack001a
0 -128.000000 67.999992 8.000006 0.000000 -1.000000 0.000000 0.005837 0.494295 1 0 1.000000 
0 128.000000 68.000008 -0.000006 0.000000 -1.000000 0.000000 0.060165 -1.494295 1 0 1.000000 
0 -128.000000 67.999992 0.000006 0.000000 -1.000000 0.000000 0.067973 0.494051 1 0 1.000000 
Traintrack001a
0 -128.000000 67.999992 8.000006 0.000000 -1.000000 0.000000 0.005837 0.494295 1 0 1.000000 
0 128.000000 68.000008 7.999994 0.000000 -1.000000 0.000000 -0.001971 -1.494051 1 0 1.000000 
0 128.000000 68.000008 -0.000006 0.000000 -1.000000 0.000000 0.060165 -1.494295 1 0 1.000000 
Traintrack001a
0 128.000000 64.000008 -0.000006 0.000000 -1.000000 0.000000 0.996384 -1.494295 1 0 1.000000 
0 -128.000000 63.999996 8.000006 0.000000 -1.000000 0.000000 0.942056 0.494295 1 0 1.000000 
0 -128.000000 63.999996 0.000006 0.000000 -1.000000 0.000000 1.004192 0.494051 1 0 1.000000 
Traintrack001a
0 128.000000 64.000008 -0.000006 0.000000 -1.000000 0.000000 0.996384 -1.494295 1 0 1.000000 
0 128.000000 64.000008 7.999994 0.000000 -1.000000 0.000000 0.934248 -1.494051 1 0 1.000000 
0 -128.000000 63.999996 8.000006 0.000000 -1.000000 0.000000 0.942056 0.494295 1 0 1.000000 
Traintrack001a
0 128.000000 68.000008 7.999994 0.010416 -0.999946 0.000000 0.936862 -1.329674 1 0 1.000000 
0 -128.000000 63.999996 8.000006 -0.010416 -0.999946 0.000000 0.910934 0.329674 1 0 1.000000 
0 128.000000 64.000008 7.999994 0.000000 -0.999946 0.010416 0.910934 -1.329674 1 0 1.000000 
Traintrack001a
0 128.000000 68.000008 7.999994 0.010416 -0.999946 0.000000 0.936862 -1.329674 1 0 1.000000 
0 -128.000000 67.999992 8.000006 -0.010416 -0.999946 0.000000 0.936862 0.329674 1 0 1.000000 
0 -128.000000 63.999996 8.000006 -0.010416 -0.999946 0.000000 0.910934 0.329674 1 0 1.000000 
Traintrack001a
0 -128.000000 63.999996 0.000006 0.000000 -0.999946 -0.010416 0.244087 -0.673601 1 0 1.000000 
0 -128.000000 63.999996 8.000006 -0.010416 -0.999946 0.000000 0.910934 0.329674 1 0 1.000000 
0 -128.000000 67.999992 8.000006 -0.010416 -0.999946 0.000000 0.936862 0.329674 1 0 1.000000 
Traintrack001a
0 -128.000000 63.999996 0.000006 0.000000 -0.999946 -0.010416 0.244087 -0.673601 1 0 1.000000 
0 -128.000000 67.999992 8.000006 -0.010416 -0.999946 0.000000 0.936862 0.329674 1 0 1.000000 
0 -128.000000 67.999992 0.000006 0.000000 -0.999946 -0.010416 0.233685 -0.673601 1 0 1.000000 
Traintrack001a
0 128.000000 68.000008 -0.000006 0.000000 -0.999946 -0.010416 0.233685 -0.673601 1 0 1.000000 
0 -128.000000 63.999996 0.000006 0.000000 -0.999946 -0.010416 0.244087 -0.673601 1 0 1.000000 
0 -128.000000 67.999992 0.000006 0.000000 -0.999946 -0.010416 0.233685 -0.673601 1 0 1.000000 
Traintrack001a
0 128.000000 68.000008 -0.000006 0.000000 -0.999946 -0.010416 0.233685 -0.673601 1 0 1.000000 
0 128.000000 64.000008 -0.000006 0.010416 -0.999946 0.000000 0.244087 -0.673601 1 0 1.000000 
0 -128.000000 63.999996 0.000006 0.000000 -0.999946 -0.010416 0.244087 -0.673601 1 0 1.000000 
end
