version 1
nodes
  0 "static_prop" -1
end
skeleton
time 0
0 0.000000 0.000000 0.000000 0.000000 0.000000 0.000000
end
triangles
borealis_objects01
0 -0.080199 -22.582600 48.995300 0.287491 -0.581082 -0.761376 0.847600 -0.887700 1 0 1.000000 
0 2.401001 -13.794500 43.224701 0.287491 -0.581082 -0.761376 0.663100 -0.926500 1 0 1.000000 
0 2.401001 -24.333401 51.268398 0.287491 -0.581082 -0.761376 0.901500 -0.926500 1 0 1.000000 
borealis_objects01
0 -1.268301 22.549700 -51.392399 0.442797 -0.866594 -0.230098 0.702000 -0.892000 1 0 1.000000 
0 -2.401001 22.331699 -49.843201 0.287498 -0.751894 0.593296 0.677700 -0.880900 1 0 1.000000 
0 -2.401001 22.239901 -51.593601 0.258096 -0.784986 -0.563190 0.704100 -0.880900 1 0 1.000000 
borealis_objects01
0 -1.268301 22.549700 -51.392399 0.442797 -0.866594 -0.230098 0.702000 -0.892000 1 0 1.000000 
0 -1.268301 23.200100 -49.698101 0.442795 -0.091999 0.891890 0.664700 -0.892000 1 0 1.000000 
0 -2.401001 22.331699 -49.843201 0.287498 -0.751894 0.593296 0.677700 -0.880900 1 0 1.000000 
borealis_objects01
0 -1.268301 23.200100 -49.698101 0.442795 -0.091999 0.891890 0.664700 -0.892000 1 0 1.000000 
0 -2.401001 24.740999 -49.969398 -0.172495 0.702680 0.690280 0.652900 -0.880900 1 0 1.000000 
0 -2.401001 22.331699 -49.843201 0.287498 -0.751894 0.593296 0.677700 -0.880900 1 0 1.000000 
borealis_objects01
0 -1.268301 23.200100 -49.698101 0.442795 -0.091999 0.891890 0.664700 -0.892000 1 0 1.000000 
0 -1.494301 24.841999 -50.852402 -0.088004 0.995840 0.023601 0.664700 -0.892000 1 0 1.000000 
0 -2.401001 24.740999 -49.969398 -0.172495 0.702680 0.690280 0.652900 -0.880900 1 0 1.000000 
borealis_objects01
0 -1.494301 24.841999 -50.852402 -0.088004 0.995840 0.023601 0.664700 -0.892000 1 0 1.000000 
0 -1.268301 23.780701 -51.865002 -0.250509 0.064902 -0.965936 0.690700 -0.892000 1 0 1.000000 
0 -2.401001 24.740999 -49.969398 -0.172495 0.702680 0.690280 0.652900 -0.880900 1 0 1.000000 
borealis_objects01
0 -1.268301 23.780701 -51.865002 -0.250509 0.064902 -0.965936 0.690700 -0.892000 1 0 1.000000 
0 -1.268301 22.549700 -51.392399 0.442797 -0.866594 -0.230098 0.702000 -0.892000 1 0 1.000000 
0 -2.401001 22.239901 -51.593601 0.258096 -0.784986 -0.563190 0.704100 -0.880900 1 0 1.000000 
borealis_objects01
0 -1.494301 26.415800 -20.973600 -0.366684 0.040598 0.929459 0.655100 -0.892000 1 0 1.000000 
0 -1.268301 27.437599 -22.025900 0.120704 0.970929 0.206706 0.677700 -0.892000 1 0 1.000000 
0 -2.401001 27.753401 -22.847900 -0.040301 0.935917 -0.349906 0.692000 -0.880900 1 0 1.000000 
borealis_objects01
0 -1.268301 27.437599 -22.025900 0.120704 0.970929 0.206706 0.677700 -0.892000 1 0 1.000000 
0 -1.268301 26.975800 -23.261000 0.120696 0.597180 -0.792974 0.702000 -0.892000 1 0 1.000000 
0 -2.401001 27.753401 -22.847900 -0.040301 0.935917 -0.349906 0.692000 -0.880900 1 0 1.000000 
borealis_objects01
0 -1.268301 26.975800 -23.261000 0.120696 0.597180 -0.792974 0.702000 -0.892000 1 0 1.000000 
0 -1.494301 25.514200 -23.384899 0.122596 -0.545684 -0.828975 0.690700 -0.892000 1 0 1.000000 
0 -2.401001 27.753401 -22.847900 -0.040301 0.935917 -0.349906 0.692000 -0.880900 1 0 1.000000 
borealis_objects01
0 -1.494301 25.514200 -23.384899 0.122596 -0.545684 -0.828975 0.690700 -0.892000 1 0 1.000000 
0 -1.268301 25.306101 -21.932899 0.104304 -0.944434 0.311711 0.664700 -0.892000 1 0 1.000000 
0 -2.401001 24.919901 -22.724100 0.104304 -0.944434 0.311711 0.677700 -0.880900 1 0 1.000000 
borealis_objects01
0 -1.268301 25.306101 -21.932899 0.104304 -0.944434 0.311711 0.664700 -0.892000 1 0 1.000000 
0 -1.494301 26.415800 -20.973600 -0.366684 0.040598 0.929459 0.655100 -0.892000 1 0 1.000000 
0 -2.401001 24.919901 -22.724100 0.104304 -0.944434 0.311711 0.677700 -0.880900 1 0 1.000000 
borealis_objects01
0 -1.268301 25.859699 28.329800 0.984928 0.004500 0.172905 0.691500 -0.937200 1 0 1.000000 
0 -1.494301 27.432800 29.576200 0.984928 0.004500 0.172905 0.671600 -0.937200 1 0 1.000000 
0 -1.494301 26.596600 29.598101 0.984928 0.004500 0.172905 0.677800 -0.941600 1 0 1.000000 
borealis_objects01
0 -1.268301 25.859699 28.329800 0.984928 0.004500 0.172905 0.691500 -0.937200 1 0 1.000000 
0 -1.268301 28.102301 28.271099 0.984928 0.004500 0.172905 0.671600 -0.922700 1 0 1.000000 
0 -1.494301 27.432800 29.576200 0.984928 0.004500 0.172905 0.671600 -0.937200 1 0 1.000000 
borealis_objects01
0 -2.400999 -23.790100 -52.396000 -1.000000 -0.000000 0.000000 0.668400 -0.920400 1 0 1.000000 
0 -2.400999 -23.018200 -49.515499 -1.000000 -0.000000 0.000000 0.694800 -0.939500 1 0 1.000000 
0 -2.400999 -21.915100 -50.877701 -1.000000 -0.000000 0.000000 0.694800 -0.920400 1 0 1.000000 
borealis_objects01
0 -2.400999 -23.790100 -52.396000 -1.000000 -0.000000 0.000000 0.668400 -0.920400 1 0 1.000000 
0 -2.400999 -24.893200 -51.033798 -1.000000 -0.000000 0.000000 0.668400 -0.939500 1 0 1.000000 
0 -2.400999 -23.018200 -49.515499 -1.000000 -0.000000 0.000000 0.694800 -0.939500 1 0 1.000000 
borealis_objects01
0 -0.207699 -23.069799 -51.922100 -0.000000 0.658703 -0.752403 0.888400 -0.993900 1 0 1.000000 
0 2.401001 -13.794500 -43.332699 -0.000000 0.679488 -0.733687 0.657700 -0.952000 1 0 1.000000 
0 2.140201 -23.069799 -51.922100 -0.018599 0.653876 -0.756373 0.888400 -0.952000 1 0 1.000000 
borealis_objects01
0 1.432801 -13.562900 -43.126701 0.006000 0.678488 -0.734587 0.657700 -0.964600 1 0 1.000000 
0 2.401001 -13.794500 -43.332699 -0.000000 0.679488 -0.733687 0.657700 -0.952000 1 0 1.000000 
0 -0.207699 -23.069799 -51.922100 -0.000000 0.658703 -0.752403 0.888400 -0.993900 1 0 1.000000 
borealis_objects01
0 -0.080199 -22.582600 -49.103298 0.000000 -0.595012 0.803716 0.847600 -0.887700 1 0 1.000000 
0 2.401001 -13.794500 -43.332699 0.029699 -0.554479 0.831668 0.659200 -0.926500 1 0 1.000000 
0 1.432801 -13.562900 -43.126701 0.043298 -0.556877 0.829466 0.659200 -0.914100 1 0 1.000000 
borealis_objects01
0 -0.080199 -22.582600 -49.103298 0.000000 -0.595012 0.803716 0.847600 -0.887700 1 0 1.000000 
0 2.140201 -23.659100 -49.900200 0.000000 -0.595012 0.803716 0.871000 -0.926500 1 0 1.000000 
0 2.401001 -13.794500 -43.332699 0.029699 -0.554479 0.831668 0.659200 -0.926500 1 0 1.000000 
borealis_objects01
0 0.714701 -25.603500 26.316000 0.469886 0.833175 0.291591 0.894700 -0.838600 1 0 1.000000 
0 -1.585699 -26.507700 25.048300 0.035099 0.223991 -0.973959 0.859200 -0.860900 1 0 1.000000 
0 -1.585699 -25.603500 26.316000 -0.000000 0.935128 0.354310 0.859200 -0.838600 1 0 1.000000 
borealis_objects01
0 0.714701 -25.603500 26.316000 0.469886 0.833175 0.291591 0.894700 -0.838600 1 0 1.000000 
0 0.714701 -27.032801 25.422899 0.381383 -0.907159 -0.177792 0.894700 -0.857000 1 0 1.000000 
0 -1.585699 -26.507700 25.048300 0.035099 0.223991 -0.973959 0.859200 -0.860900 1 0 1.000000 
borealis_objects01
0 0.714701 -27.032801 25.422899 0.381383 -0.907159 -0.177792 0.894700 -0.857000 1 0 1.000000 
0 -1.585699 -26.764700 26.584101 0.000000 -0.640912 0.767614 0.859200 -0.838600 1 0 1.000000 
0 -1.585699 -26.507700 25.048300 0.035099 0.223991 -0.973959 0.859200 -0.860900 1 0 1.000000 
borealis_objects01
0 0.714701 -27.032801 25.422899 0.381383 -0.907159 -0.177792 0.894700 -0.857000 1 0 1.000000 
0 0.714701 -25.603500 26.316000 0.469886 0.833175 0.291591 0.894700 -0.838600 1 0 1.000000 
0 -1.585699 -26.764700 26.584101 0.000000 -0.640912 0.767614 0.859200 -0.838600 1 0 1.000000 
borealis_objects01
0 0.714701 -25.603500 26.316000 0.469886 0.833175 0.291591 0.894700 -0.838600 1 0 1.000000 
0 -1.585699 -25.603500 26.316000 -0.000000 0.935128 0.354310 0.859200 -0.838600 1 0 1.000000 
0 -1.585699 -26.764700 26.584101 0.000000 -0.640912 0.767614 0.859200 -0.838600 1 0 1.000000 
borealis_objects01
0 -0.207699 -23.069799 51.813999 -0.000000 0.658703 0.752403 0.888400 -0.993900 1 0 1.000000 
0 2.140201 -23.069799 51.813999 0.033200 0.666693 0.744592 0.888400 -0.952000 1 0 1.000000 
0 1.432801 -13.562900 43.018700 -0.000000 0.679123 0.734025 0.657700 -0.964600 1 0 1.000000 
borealis_objects01
0 2.401001 -13.794500 43.224701 0.006400 0.679316 0.733818 0.662300 -0.936700 1 0 1.000000 
0 1.432801 -13.562900 43.018700 -0.000000 0.679123 0.734025 0.657700 -0.964600 1 0 1.000000 
0 2.140201 -23.069799 51.813999 0.033200 0.666693 0.744592 0.888400 -0.952000 1 0 1.000000 
borealis_objects01
0 -0.080199 -24.778900 24.567101 0.287486 -0.188491 -0.939054 0.710500 -0.886100 1 0 1.000000 
0 2.401001 -14.350600 23.233000 0.287486 -0.188491 -0.939054 0.895000 -0.924900 1 0 1.000000 
0 2.401001 -27.349100 25.842699 0.287486 -0.188491 -0.939054 0.656600 -0.924900 1 0 1.000000 
borealis_objects01
0 -1.494301 27.432800 29.576200 0.268893 0.837279 0.476088 0.664700 -0.892000 1 0 1.000000 
0 -1.268301 28.102301 28.271099 0.309792 0.948476 -0.066498 0.690700 -0.892000 1 0 1.000000 
0 -2.401001 28.471600 28.261400 0.009700 0.891304 -0.453302 0.692000 -0.880900 1 0 1.000000 
borealis_objects01
0 -1.268301 28.102301 28.271099 0.309792 0.948476 -0.066498 0.690700 -0.892000 1 0 1.000000 
0 -1.268301 27.299601 27.225000 0.142495 0.234692 -0.961569 0.702000 -0.892000 1 0 1.000000 
0 -2.401001 28.471600 28.261400 0.009700 0.891304 -0.453302 0.692000 -0.880900 1 0 1.000000 
borealis_objects01
0 -1.268301 27.299601 27.225000 0.142495 0.234692 -0.961569 0.702000 -0.892000 1 0 1.000000 
0 -2.401001 25.752199 27.455900 -0.138199 -0.724393 -0.675393 0.677700 -0.880900 1 0 1.000000 
0 -2.401001 28.471600 28.261400 0.009700 0.891304 -0.453302 0.692000 -0.880900 1 0 1.000000 
borealis_objects01
0 -1.268301 27.299601 27.225000 0.142495 0.234692 -0.961569 0.702000 -0.892000 1 0 1.000000 
0 -1.268301 25.859699 28.329800 0.207291 -0.966758 -0.149694 0.664700 -0.892000 1 0 1.000000 
0 -2.401001 25.752199 27.455900 -0.138199 -0.724393 -0.675393 0.677700 -0.880900 1 0 1.000000 
borealis_objects01
0 -1.268301 25.859699 28.329800 0.207291 -0.966758 -0.149694 0.664700 -0.892000 1 0 1.000000 
0 -1.494301 26.596600 29.598101 -0.265102 -0.853508 0.448604 0.655100 -0.892000 1 0 1.000000 
0 -2.401001 25.752199 27.455900 -0.138199 -0.724393 -0.675393 0.677700 -0.880900 1 0 1.000000 
borealis_objects01
0 -0.207699 -26.452499 26.886999 -0.000000 0.262203 0.965012 0.669700 -0.992300 1 0 1.000000 
0 2.140201 -26.452499 26.886999 0.033200 0.272799 0.961498 0.669700 -0.950400 1 0 1.000000 
0 1.432801 -14.052100 23.149401 -0.000000 0.288586 0.957454 0.900400 -0.963000 1 0 1.000000 
borealis_objects01
0 2.401001 -14.350600 23.233000 0.006400 0.288910 0.957335 0.895700 -0.935100 1 0 1.000000 
0 1.432801 -14.052100 23.149401 -0.000000 0.288586 0.957454 0.900400 -0.963000 1 0 1.000000 
0 2.140201 -26.452499 26.886999 0.033200 0.272799 0.961498 0.669700 -0.950400 1 0 1.000000 
borealis_objects01
0 1.432799 16.679300 21.087999 -0.000000 0.510918 -0.859630 0.657700 -0.964600 1 0 1.000000 
0 -0.207701 27.812599 27.705400 -0.000000 0.534298 -0.845296 0.888400 -0.993900 1 0 1.000000 
0 2.140199 16.679300 21.087999 -0.000000 0.510918 -0.859630 0.657700 -0.952000 1 0 1.000000 
borealis_objects01
0 -0.207701 27.812599 27.705400 -0.000000 0.534298 -0.845296 0.888400 -0.993900 1 0 1.000000 
0 2.140199 27.812599 27.705400 0.033200 0.524601 -0.850701 0.888400 -0.952000 1 0 1.000000 
0 2.140199 16.679300 21.087999 -0.000000 0.510918 -0.859630 0.657700 -0.952000 1 0 1.000000 
borealis_objects01
0 -0.207701 26.793400 29.291000 0.253297 -0.573192 0.779289 0.886200 -0.885500 1 0 1.000000 
0 2.140199 16.679300 21.087999 0.253297 -0.573192 0.779289 0.659200 -0.926500 1 0 1.000000 
0 2.400999 27.648300 29.071899 0.253297 -0.573192 0.779289 0.901500 -0.926500 1 0 1.000000 
borealis_objects01
0 -1.268301 24.609600 50.874599 0.307287 0.938359 0.158293 0.690700 -0.892000 1 0 1.000000 
0 -2.401001 24.978901 50.884300 0.306086 0.942356 -0.135194 0.692000 -0.880900 1 0 1.000000 
0 -1.494301 23.036501 52.120998 0.343092 -0.180596 0.921777 0.655100 -0.892000 1 0 1.000000 
borealis_objects01
0 -1.268301 24.609600 50.874599 0.307287 0.938359 0.158293 0.690700 -0.892000 1 0 1.000000 
0 -1.268301 23.862700 49.787998 0.306304 0.166202 -0.937312 0.702000 -0.892000 1 0 1.000000 
0 -2.401001 24.978901 50.884300 0.306086 0.942356 -0.135194 0.692000 -0.880900 1 0 1.000000 
borealis_objects01
0 -1.268301 23.862700 49.787998 0.306304 0.166202 -0.937312 0.702000 -0.892000 1 0 1.000000 
0 -2.401001 23.986000 49.439701 0.306304 0.166202 -0.937312 0.704100 -0.880900 1 0 1.000000 
0 -2.401001 24.978901 50.884300 0.306086 0.942356 -0.135194 0.692000 -0.880900 1 0 1.000000 
borealis_objects01
0 -1.268301 23.862700 49.787998 0.306304 0.166202 -0.937312 0.702000 -0.892000 1 0 1.000000 
0 -2.401001 21.997700 50.806198 0.274596 -0.829587 -0.486192 0.663400 -0.880900 1 0 1.000000 
0 -2.401001 23.986000 49.439701 0.306304 0.166202 -0.937312 0.704100 -0.880900 1 0 1.000000 
borealis_objects01
0 -1.268301 23.862700 49.787998 0.306304 0.166202 -0.937312 0.702000 -0.892000 1 0 1.000000 
0 -1.268301 22.367001 50.815899 0.304011 -0.926535 -0.221608 0.664700 -0.892000 1 0 1.000000 
0 -2.401001 21.997700 50.806198 0.274596 -0.829587 -0.486192 0.663400 -0.880900 1 0 1.000000 
borealis_objects01
0 -1.268301 22.367001 50.815899 0.304011 -0.926535 -0.221608 0.664700 -0.892000 1 0 1.000000 
0 -1.494301 23.036501 52.120998 0.343092 -0.180596 0.921777 0.655100 -0.892000 1 0 1.000000 
0 -2.401001 21.997700 50.806198 0.274596 -0.829587 -0.486192 0.663400 -0.880900 1 0 1.000000 
borealis_objects01
0 -0.207701 26.949301 -23.159000 0.098198 0.252594 -0.962576 0.888400 -0.883800 1 0 1.000000 
0 2.400999 26.831400 -22.923901 0.098198 0.252594 -0.962576 0.851000 -0.925700 1 0 1.000000 
0 1.432799 14.268200 -25.791300 0.097301 0.214302 -0.971909 0.657700 -0.913000 1 0 1.000000 
borealis_objects01
0 0.714701 -24.050100 -51.478901 0.469896 -0.546896 -0.692894 0.894700 -0.847800 1 0 1.000000 
0 -1.585799 -22.557100 -51.036598 0.035099 0.847970 -0.528881 0.859200 -0.838600 1 0 1.000000 
0 0.714701 -22.740299 -50.418201 0.381391 0.463389 0.799882 0.894700 -0.847800 1 0 1.000000 
borealis_objects01
0 0.714701 -24.050100 -51.478901 0.469896 -0.546896 -0.692894 0.894700 -0.847800 1 0 1.000000 
0 -1.585799 -24.050100 -51.478901 0.000000 -0.639436 -0.768844 0.859200 -0.847800 1 0 1.000000 
0 -1.585799 -22.557100 -51.036598 0.035099 0.847970 -0.528881 0.859200 -0.838600 1 0 1.000000 
borealis_objects01
0 0.714701 -24.050100 -51.478901 0.469896 -0.546896 -0.692894 0.894700 -0.847800 1 0 1.000000 
0 -1.585799 -23.925501 -50.293701 0.000000 -0.517111 0.855918 0.859200 -0.860900 1 0 1.000000 
0 -1.585799 -24.050100 -51.478901 0.000000 -0.639436 -0.768844 0.859200 -0.847800 1 0 1.000000 
borealis_objects01
0 0.714701 -22.740299 -50.418201 0.381391 0.463389 0.799882 0.894700 -0.847800 1 0 1.000000 
0 -1.585799 -23.925501 -50.293701 0.000000 -0.517111 0.855918 0.859200 -0.860900 1 0 1.000000 
0 0.714701 -24.050100 -51.478901 0.469896 -0.546896 -0.692894 0.894700 -0.847800 1 0 1.000000 
borealis_objects01
0 0.714701 -22.740299 -50.418201 0.381391 0.463389 0.799882 0.894700 -0.847800 1 0 1.000000 
0 -1.585799 -22.557100 -51.036598 0.035099 0.847970 -0.528881 0.859200 -0.838600 1 0 1.000000 
0 -1.585799 -23.925501 -50.293701 0.000000 -0.517111 0.855918 0.859200 -0.860900 1 0 1.000000 
borealis_objects01
0 -0.207701 26.501900 -21.327999 0.252589 -0.285287 0.924559 0.886200 -0.992200 1 0 1.000000 
0 2.400999 14.570400 -25.722300 0.252589 -0.285287 0.924559 0.663100 -0.951100 1 0 1.000000 
0 2.400999 27.238899 -21.813499 0.252589 -0.285287 0.924559 0.901500 -0.951100 1 0 1.000000 
borealis_objects01
0 -1.268299 -23.002199 51.894901 0.120706 0.298815 0.946647 0.702000 -0.892000 1 0 1.000000 
0 -1.494299 -22.052601 50.776901 0.122595 0.991763 0.037099 0.690700 -0.892000 1 0 1.000000 
0 -2.400999 -23.790100 52.287998 0.014200 -0.230799 0.972898 0.692000 -0.880900 1 0 1.000000 
borealis_objects01
0 -1.268299 -24.275801 51.553600 0.157297 -0.830086 0.534991 0.677700 -0.892000 1 0 1.000000 
0 -1.268299 -23.002199 51.894901 0.120706 0.298815 0.946647 0.702000 -0.892000 1 0 1.000000 
0 -2.400999 -23.790100 52.287998 0.014200 -0.230799 0.972898 0.692000 -0.880900 1 0 1.000000 
borealis_objects01
0 -1.268299 -24.275801 51.553600 0.157297 -0.830086 0.534991 0.677700 -0.892000 1 0 1.000000 
0 -2.400999 -23.790100 52.287998 0.014200 -0.230799 0.972898 0.692000 -0.880900 1 0 1.000000 
0 -2.400999 -24.654699 50.035599 -0.041198 -0.837960 -0.544174 0.652900 -0.880900 1 0 1.000000 
borealis_objects01
0 -1.494299 -24.539200 50.110600 0.150094 -0.829165 -0.538477 0.655100 -0.892000 1 0 1.000000 
0 -1.268299 -24.275801 51.553600 0.157297 -0.830086 0.534991 0.677700 -0.892000 1 0 1.000000 
0 -2.400999 -24.654699 50.035599 -0.041198 -0.837960 -0.544174 0.652900 -0.880900 1 0 1.000000 
borealis_objects01
0 -1.268299 -23.113899 49.764301 0.146304 0.140404 -0.979225 0.664700 -0.892000 1 0 1.000000 
0 -1.494299 -24.539200 50.110600 0.150094 -0.829165 -0.538477 0.655100 -0.892000 1 0 1.000000 
0 -2.400999 -24.654699 50.035599 -0.041198 -0.837960 -0.544174 0.652900 -0.880900 1 0 1.000000 
borealis_objects01
0 -1.268299 -23.113899 49.764301 0.146304 0.140404 -0.979225 0.664700 -0.892000 1 0 1.000000 
0 -2.400999 -24.654699 50.035599 -0.041198 -0.837960 -0.544174 0.652900 -0.880900 1 0 1.000000 
0 -2.400999 -22.245399 49.909401 0.156208 0.357519 -0.920749 0.677700 -0.880900 1 0 1.000000 
borealis_objects01
0 -1.494299 -22.052601 50.776901 0.122595 0.991763 0.037099 0.690700 -0.892000 1 0 1.000000 
0 -1.268299 -23.113899 49.764301 0.146304 0.140404 -0.979225 0.664700 -0.892000 1 0 1.000000 
0 -2.400999 -22.245399 49.909401 0.156208 0.357519 -0.920749 0.677700 -0.880900 1 0 1.000000 
borealis_objects01
0 -0.207699 -24.612700 -51.495899 -1.000000 -0.000000 0.000000 0.894100 -0.943200 1 0 1.000000 
0 -0.080199 -22.582600 -49.103298 -0.995500 0.075400 0.057400 0.844000 -0.952700 1 0 1.000000 
0 -0.207699 -23.069799 -51.922100 -1.000000 -0.000000 0.000000 0.879000 -0.922100 1 0 1.000000 
borealis_objects01
0 -1.268299 -23.694500 -52.039200 0.309802 -0.205601 -0.928305 0.690700 -0.892000 1 0 1.000000 
0 -2.400999 -23.790100 -52.396000 0.157894 -0.163893 -0.973760 0.692000 -0.880900 1 0 1.000000 
0 -1.268299 -22.463499 -51.566601 0.279702 0.754507 -0.593705 0.702000 -0.892000 1 0 1.000000 
borealis_objects01
0 -1.268299 -22.463499 -51.566601 0.279702 0.754507 -0.593705 0.702000 -0.892000 1 0 1.000000 
0 -2.400999 -23.790100 -52.396000 0.157894 -0.163893 -0.973760 0.692000 -0.880900 1 0 1.000000 
0 -2.400999 -21.915100 -50.877701 0.287489 0.955762 0.062198 0.692000 -0.880900 1 0 1.000000 
borealis_objects01
0 -1.268299 -22.463499 -51.566601 0.279702 0.754507 -0.593705 0.702000 -0.892000 1 0 1.000000 
0 -2.400999 -21.915100 -50.877701 0.287489 0.955762 0.062198 0.692000 -0.880900 1 0 1.000000 
0 -1.268299 -23.113899 -49.872299 0.462019 0.432018 0.774532 0.664700 -0.892000 1 0 1.000000 
borealis_objects01
0 -1.268299 -23.113899 -49.872299 0.462019 0.432018 0.774532 0.664700 -0.892000 1 0 1.000000 
0 -2.400999 -21.915100 -50.877701 0.287489 0.955762 0.062198 0.692000 -0.880900 1 0 1.000000 
0 -2.400999 -23.018200 -49.515499 0.237890 -0.200091 0.950459 0.663400 -0.880900 1 0 1.000000 
borealis_objects01
0 -1.268299 -23.113899 -49.872299 0.462019 0.432018 0.774532 0.664700 -0.892000 1 0 1.000000 
0 -2.400999 -23.018200 -49.515499 0.237890 -0.200091 0.950459 0.663400 -0.880900 1 0 1.000000 
0 -1.494299 -24.755699 -51.026600 0.244908 -0.964631 0.097503 0.664700 -0.892000 1 0 1.000000 
borealis_objects01
0 -1.494299 -24.755699 -51.026600 0.244908 -0.964631 0.097503 0.664700 -0.892000 1 0 1.000000 
0 -2.400999 -23.018200 -49.515499 0.237890 -0.200091 0.950459 0.663400 -0.880900 1 0 1.000000 
0 -2.400999 -24.893200 -51.033798 0.149295 -0.987267 0.054898 0.663400 -0.880900 1 0 1.000000 
borealis_objects01
0 -1.494299 -24.755699 -51.026600 0.244908 -0.964631 0.097503 0.664700 -0.892000 1 0 1.000000 
0 -2.400999 -24.893200 -51.033798 0.149295 -0.987267 0.054898 0.663400 -0.880900 1 0 1.000000 
0 -2.400999 -23.790100 -52.396000 0.157894 -0.163893 -0.973760 0.692000 -0.880900 1 0 1.000000 
borealis_objects01
0 -1.494299 -24.755699 -51.026600 0.244908 -0.964631 0.097503 0.664700 -0.892000 1 0 1.000000 
0 -2.400999 -23.790100 -52.396000 0.157894 -0.163893 -0.973760 0.692000 -0.880900 1 0 1.000000 
0 -1.268299 -23.694500 -52.039200 0.309802 -0.205601 -0.928305 0.690700 -0.892000 1 0 1.000000 
borealis_objects01
0 -1.268299 -25.593599 25.025400 0.310105 0.623709 -0.717511 0.664700 -0.892000 1 0 1.000000 
0 -1.494299 -27.026501 24.711800 0.124702 -0.379105 -0.916912 0.655100 -0.892000 1 0 1.000000 
0 -2.400999 -25.351200 24.746599 0.049599 0.401794 -0.914386 0.663400 -0.880900 1 0 1.000000 
borealis_objects01
0 -1.494299 -27.026501 24.711800 0.124702 -0.379105 -0.916912 0.655100 -0.892000 1 0 1.000000 
0 -2.400999 -27.702000 25.289301 -0.070802 -0.937933 -0.339512 0.663400 -0.880900 1 0 1.000000 
0 -2.400999 -25.351200 24.746599 0.049599 0.401794 -0.914386 0.663400 -0.880900 1 0 1.000000 
borealis_objects01
0 -1.494299 -27.026501 24.711800 0.124702 -0.379105 -0.916912 0.655100 -0.892000 1 0 1.000000 
0 -1.268299 -27.422300 26.124300 0.204908 -0.908734 0.363614 0.677700 -0.892000 1 0 1.000000 
0 -2.400999 -27.702000 25.289301 -0.070802 -0.937933 -0.339512 0.663400 -0.880900 1 0 1.000000 
borealis_objects01
0 -1.268299 -27.422300 26.124300 0.204908 -0.908734 0.363614 0.677700 -0.892000 1 0 1.000000 
0 -2.400999 -26.459400 27.357300 0.150597 -0.443593 0.883485 0.704100 -0.880900 1 0 1.000000 
0 -2.400999 -27.702000 25.289301 -0.070802 -0.937933 -0.339512 0.663400 -0.880900 1 0 1.000000 
borealis_objects01
0 -1.268299 -27.422300 26.124300 0.204908 -0.908734 0.363614 0.677700 -0.892000 1 0 1.000000 
0 -1.268299 -26.427200 26.989300 0.309812 -0.124305 0.942637 0.702000 -0.892000 1 0 1.000000 
0 -2.400999 -26.459400 27.357300 0.150597 -0.443593 0.883485 0.704100 -0.880900 1 0 1.000000 
borealis_objects01
0 -1.268299 -26.427200 26.989300 0.309812 -0.124305 0.942637 0.702000 -0.892000 1 0 1.000000 
0 -1.494299 -25.083599 26.400801 0.346409 0.863523 0.366510 0.690700 -0.892000 1 0 1.000000 
0 -2.400999 -26.459400 27.357300 0.150597 -0.443593 0.883485 0.704100 -0.880900 1 0 1.000000 
borealis_objects01
0 -1.268299 -25.593599 25.025400 0.310105 0.623709 -0.717511 0.664700 -0.892000 1 0 1.000000 
0 -2.400999 -25.351200 24.746599 0.049599 0.401794 -0.914386 0.663400 -0.880900 1 0 1.000000 
0 -1.494299 -25.083599 26.400801 0.346409 0.863523 0.366510 0.690700 -0.892000 1 0 1.000000 
borealis_objects01
0 -0.207699 -24.612700 -51.495899 -0.133104 -0.752225 0.645322 0.901500 -0.885500 1 0 1.000000 
0 2.140201 -23.659100 -49.900200 -0.133104 -0.752225 0.645322 0.871000 -0.926500 1 0 1.000000 
0 -0.080199 -22.582600 -49.103298 -0.133104 -0.752225 0.645322 0.847600 -0.887700 1 0 1.000000 
borealis_objects01
0 0.714701 -27.154100 -23.824200 -0.215496 -0.456591 0.863183 0.894700 -0.847800 1 0 1.000000 
0 0.714701 -25.633900 -23.487200 -0.148503 0.700815 0.697715 0.894700 -0.838600 1 0 1.000000 
0 -1.585799 -25.494301 -24.116800 -0.348394 0.653288 0.672188 0.859200 -0.847800 1 0 1.000000 
borealis_objects01
0 0.714701 -25.633900 -23.487200 -0.148503 0.700815 0.697715 0.894700 -0.838600 1 0 1.000000 
0 0.714701 -25.840799 -24.660801 -0.072299 0.137298 -0.987888 0.894700 -0.857000 1 0 1.000000 
0 -1.585799 -25.494301 -24.116800 -0.348394 0.653288 0.672188 0.859200 -0.847800 1 0 1.000000 
borealis_objects01
0 0.714701 -25.840799 -24.660801 -0.072299 0.137298 -0.987888 0.894700 -0.857000 1 0 1.000000 
0 -1.585799 -27.154100 -23.824200 -0.250090 -0.530479 -0.809967 0.859200 -0.847800 1 0 1.000000 
0 -1.585799 -25.494301 -24.116800 -0.348394 0.653288 0.672188 0.859200 -0.847800 1 0 1.000000 
borealis_objects01
0 0.714701 -25.840799 -24.660801 -0.072299 0.137298 -0.987888 0.894700 -0.857000 1 0 1.000000 
0 0.714701 -27.154100 -23.824200 -0.215496 -0.456591 0.863183 0.894700 -0.847800 1 0 1.000000 
0 -1.585799 -27.154100 -23.824200 -0.250090 -0.530479 -0.809967 0.859200 -0.847800 1 0 1.000000 
borealis_objects01
0 0.714701 -27.154100 -23.824200 -0.215496 -0.456591 0.863183 0.894700 -0.847800 1 0 1.000000 
0 -1.585799 -25.494301 -24.116800 -0.348394 0.653288 0.672188 0.859200 -0.847800 1 0 1.000000 
0 -1.585799 -27.154100 -23.824200 -0.250090 -0.530479 -0.809967 0.859200 -0.847800 1 0 1.000000 
borealis_objects01
0 0.714699 24.319500 -50.686199 0.344007 0.933818 0.098202 0.894700 -0.857000 1 0 1.000000 
0 0.714699 22.643400 -50.862400 0.344010 -0.933827 -0.098103 0.894700 -0.838600 1 0 1.000000 
0 -1.585801 23.569500 -51.612400 -0.344010 0.098103 -0.933827 0.859200 -0.838600 1 0 1.000000 
borealis_objects01
0 0.714699 22.643400 -50.862400 0.344010 -0.933827 -0.098103 0.894700 -0.838600 1 0 1.000000 
0 -1.585801 23.393400 -49.936298 -0.344010 -0.098103 0.933827 0.859200 -0.857000 1 0 1.000000 
0 -1.585801 23.569500 -51.612400 -0.344010 0.098103 -0.933827 0.859200 -0.838600 1 0 1.000000 
borealis_objects01
0 0.714699 22.643400 -50.862400 0.344010 -0.933827 -0.098103 0.894700 -0.838600 1 0 1.000000 
0 0.714699 24.319500 -50.686199 0.344007 0.933818 0.098202 0.894700 -0.857000 1 0 1.000000 
0 -1.585801 23.393400 -49.936298 -0.344010 -0.098103 0.933827 0.859200 -0.857000 1 0 1.000000 
borealis_objects01
0 0.714699 24.319500 -50.686199 0.344007 0.933818 0.098202 0.894700 -0.857000 1 0 1.000000 
0 -1.585801 23.569500 -51.612400 -0.344010 0.098103 -0.933827 0.859200 -0.838600 1 0 1.000000 
0 -1.585801 23.393400 -49.936298 -0.344010 -0.098103 0.933827 0.859200 -0.857000 1 0 1.000000 
borealis_objects01
0 0.714699 27.448799 27.599400 0.381376 0.217187 -0.898544 0.894700 -0.834800 1 0 1.000000 
0 0.714699 26.494200 28.988300 0.469892 -0.327594 0.819685 0.894700 -0.860900 1 0 1.000000 
0 -1.585701 26.277100 27.816601 0.000000 -0.738907 -0.673807 0.859200 -0.847800 1 0 1.000000 
borealis_objects01
0 0.714699 26.494200 28.988300 0.469892 -0.327594 0.819685 0.894700 -0.860900 1 0 1.000000 
0 -1.585701 26.494200 28.988300 0.000000 -0.394704 0.918808 0.859200 -0.860900 1 0 1.000000 
0 -1.585701 26.277100 27.816601 0.000000 -0.738907 -0.673807 0.859200 -0.847800 1 0 1.000000 
borealis_objects01
0 0.714699 26.494200 28.988300 0.469892 -0.327594 0.819685 0.894700 -0.860900 1 0 1.000000 
0 -1.585701 27.800100 28.140301 0.035098 0.963254 0.266287 0.859200 -0.838600 1 0 1.000000 
0 -1.585701 26.494200 28.988300 0.000000 -0.394704 0.918808 0.859200 -0.860900 1 0 1.000000 
borealis_objects01
0 0.714699 26.494200 28.988300 0.469892 -0.327594 0.819685 0.894700 -0.860900 1 0 1.000000 
0 0.714699 27.448799 27.599400 0.381376 0.217187 -0.898544 0.894700 -0.834800 1 0 1.000000 
0 -1.585701 27.800100 28.140301 0.035098 0.963254 0.266287 0.859200 -0.838600 1 0 1.000000 
borealis_objects01
0 0.714699 27.448799 27.599400 0.381376 0.217187 -0.898544 0.894700 -0.834800 1 0 1.000000 
0 -1.585701 26.277100 27.816601 0.000000 -0.738907 -0.673807 0.859200 -0.847800 1 0 1.000000 
0 -1.585701 27.800100 28.140301 0.035098 0.963254 0.266287 0.859200 -0.838600 1 0 1.000000 
borealis_objects01
0 0.714699 22.643700 50.948200 -0.215491 -0.493779 0.842464 0.894700 -0.857000 1 0 1.000000 
0 0.714699 24.147699 51.351200 -0.148504 0.669716 0.727617 0.894700 -0.847800 1 0 1.000000 
0 -1.585701 24.314699 50.728199 -0.348396 0.623292 0.700091 0.859200 -0.838600 1 0 1.000000 
borealis_objects01
0 0.714699 24.147699 51.351200 -0.148504 0.669716 0.727617 0.894700 -0.847800 1 0 1.000000 
0 0.714699 23.992201 50.169701 -0.072297 0.180291 -0.980953 0.894700 -0.834800 1 0 1.000000 
0 -1.585701 24.314699 50.728199 -0.348396 0.623292 0.700091 0.859200 -0.838600 1 0 1.000000 
borealis_objects01
0 0.714699 23.992201 50.169701 -0.072297 0.180291 -0.980953 0.894700 -0.834800 1 0 1.000000 
0 -1.585701 22.643700 50.948200 -0.250112 -0.494624 -0.832340 0.859200 -0.857000 1 0 1.000000 
0 -1.585701 24.314699 50.728199 -0.348396 0.623292 0.700091 0.859200 -0.838600 1 0 1.000000 
borealis_objects01
0 0.714699 23.992201 50.169701 -0.072297 0.180291 -0.980953 0.894700 -0.834800 1 0 1.000000 
0 0.714699 22.643700 50.948200 -0.215491 -0.493779 0.842464 0.894700 -0.857000 1 0 1.000000 
0 -1.585701 22.643700 50.948200 -0.250112 -0.494624 -0.832340 0.859200 -0.857000 1 0 1.000000 
borealis_objects01
0 0.714699 22.643700 50.948200 -0.215491 -0.493779 0.842464 0.894700 -0.857000 1 0 1.000000 
0 -1.585701 24.314699 50.728199 -0.348396 0.623292 0.700091 0.859200 -0.838600 1 0 1.000000 
0 -1.585701 22.643700 50.948200 -0.250112 -0.494624 -0.832340 0.859200 -0.857000 1 0 1.000000 
borealis_objects01
0 1.432799 13.578200 43.103600 -0.000000 0.555208 -0.831712 0.901600 -0.962200 1 0 1.000000 
0 -0.207701 24.349800 50.294601 -0.000000 0.577790 -0.816186 0.671000 -0.991500 1 0 1.000000 
0 2.140199 13.578200 43.103600 -0.000000 0.555208 -0.831712 0.901600 -0.949600 1 0 1.000000 
borealis_objects01
0 -0.207701 24.349800 50.294601 -0.000000 0.577790 -0.816186 0.671000 -0.991500 1 0 1.000000 
0 2.140199 24.349800 50.294601 0.033199 0.568392 -0.822088 0.671000 -0.949600 1 0 1.000000 
0 2.140199 13.578200 43.103600 -0.000000 0.555208 -0.831712 0.901600 -0.949600 1 0 1.000000 
borealis_objects01
0 -0.080201 21.495199 50.478802 0.291502 -0.607004 0.739305 0.711800 -0.885300 1 0 1.000000 
0 2.140199 13.578200 43.103600 0.291502 -0.607004 0.739305 0.900100 -0.924100 1 0 1.000000 
0 2.400999 24.114300 51.650600 0.291502 -0.607004 0.739305 0.657800 -0.924100 1 0 1.000000 
borealis_objects01
0 -0.207699 -24.612700 51.387901 -1.000000 -0.000000 0.000000 0.894100 -0.943200 1 0 1.000000 
0 -0.207699 -23.069799 51.813999 -1.000000 -0.000000 0.000000 0.879000 -0.922100 1 0 1.000000 
0 -0.080199 -22.582600 48.995300 -0.995500 0.075400 -0.057400 0.844000 -0.952700 1 0 1.000000 
borealis_objects01
0 -0.207699 -26.896000 -24.806601 0.253299 -0.137299 -0.957595 0.673200 -0.990600 1 0 1.000000 
0 2.140201 -13.932600 -26.044901 0.253299 -0.137299 -0.957595 0.900200 -0.949500 1 0 1.000000 
0 2.401001 -27.352200 -24.051100 0.253299 -0.137299 -0.957595 0.657900 -0.949500 1 0 1.000000 
borealis_objects01
0 -0.207699 -24.612700 51.387901 0.052201 -0.762812 -0.644510 0.901500 -0.885500 1 0 1.000000 
0 -0.080199 -22.582600 48.995300 0.052201 -0.762812 -0.644510 0.847600 -0.887700 1 0 1.000000 
0 2.401001 -24.333401 51.268398 0.052201 -0.762812 -0.644510 0.901500 -0.926500 1 0 1.000000 
borealis_objects01
0 -0.207699 -26.511600 -22.961399 0.157600 0.207300 0.965499 0.671000 -0.882100 1 0 1.000000 
0 2.401001 -26.958401 -23.291300 0.157600 0.207300 0.965499 0.661700 -0.924100 1 0 1.000000 
0 2.140201 -13.932600 -26.044901 0.157600 0.207300 0.965499 0.901700 -0.924100 1 0 1.000000 
borealis_objects01
0 -0.207701 24.295601 51.894299 -1.000000 -0.000000 0.000000 0.665300 -0.940800 1 0 1.000000 
0 -0.207701 24.349800 50.294601 -1.000000 -0.000000 0.000000 0.680400 -0.919700 1 0 1.000000 
0 -0.080201 21.495199 50.478802 -0.995502 -0.073400 -0.059900 0.715300 -0.950300 1 0 1.000000 
borealis_objects01
0 -0.207701 23.156099 -51.747799 0.157200 -0.646898 -0.746198 0.671000 -0.882100 1 0 1.000000 
0 2.400999 23.706900 -51.675800 0.157200 -0.646898 -0.746198 0.661700 -0.924100 1 0 1.000000 
0 2.400999 13.880800 -43.158501 0.157200 -0.646898 -0.746198 0.901700 -0.924100 1 0 1.000000 
borealis_objects01
0 -0.207701 24.295601 51.894299 0.052200 -0.448603 0.892205 0.657800 -0.883000 1 0 1.000000 
0 -0.080201 21.495199 50.478802 0.052200 -0.448603 0.892205 0.711800 -0.885300 1 0 1.000000 
0 2.400999 24.114300 51.650600 0.052200 -0.448603 0.892205 0.657800 -0.924100 1 0 1.000000 
borealis_objects01
0 2.400999 13.880800 -43.158501 0.287491 0.581082 0.761376 0.818300 -0.932900 1 0 1.000000 
0 2.400999 24.419701 -51.202202 0.287491 0.581082 0.761376 0.660000 -0.932500 1 0 1.000000 
0 -0.080201 22.668800 -48.929100 0.287491 0.581082 0.761376 0.686000 -0.919600 1 0 1.000000 
borealis_objects01
0 -0.207699 -27.652399 25.827600 -1.000000 -0.000000 0.000000 0.664000 -0.941600 1 0 1.000000 
0 -0.207699 -26.452499 26.886999 -1.000000 -0.000000 0.000000 0.679100 -0.920500 1 0 1.000000 
0 -0.080199 -24.778900 24.567101 -0.995503 0.092900 -0.018500 0.714100 -0.951100 1 0 1.000000 
borealis_objects01
0 -2.401001 28.471600 28.261400 -0.894481 -0.126997 0.428691 0.668400 -0.920400 1 0 1.000000 
0 -2.401001 25.752199 27.455900 -0.894481 -0.126997 0.428691 0.697900 -0.930000 1 0 1.000000 
0 -1.494301 26.596600 29.598101 -0.894481 -0.126997 0.428691 0.686600 -0.945500 1 0 1.000000 
borealis_objects01
0 -0.207699 -27.652399 25.827600 0.052198 -0.403087 -0.913671 0.656600 -0.883800 1 0 1.000000 
0 -0.080199 -24.778900 24.567101 0.052198 -0.403087 -0.913671 0.710500 -0.886100 1 0 1.000000 
0 2.401001 -27.349100 25.842699 0.052198 -0.403087 -0.913671 0.656600 -0.924900 1 0 1.000000 
borealis_objects01
0 -1.268301 25.859699 28.329800 1.000000 0.000000 0.000000 0.691500 -0.937200 1 0 1.000000 
0 -1.268301 27.299601 27.225000 1.000000 0.000000 0.000000 0.685400 -0.918300 1 0 1.000000 
0 -1.268301 28.102301 28.271099 1.000000 0.000000 0.000000 0.671600 -0.922700 1 0 1.000000 
borealis_objects01
0 -0.207701 27.812599 27.705400 -0.000000 0.899175 -0.437588 0.888400 -0.993900 1 0 1.000000 
0 -0.207701 28.277201 28.660101 -0.000000 0.899175 -0.437588 0.904900 -0.993900 1 0 1.000000 
0 2.140199 27.812599 27.705400 -0.000000 0.899175 -0.437588 0.888400 -0.952000 1 0 1.000000 
borealis_objects01
0 -2.400999 -25.635500 -22.652000 -1.000000 -0.000000 0.000000 0.686600 -0.914400 1 0 1.000000 
0 -2.400999 -25.299700 -25.041201 -1.000000 -0.000000 0.000000 0.694800 -0.939500 1 0 1.000000 
0 -2.400999 -27.675699 -24.622200 -1.000000 -0.000000 0.000000 0.668400 -0.939500 1 0 1.000000 
borealis_objects01
0 -0.207701 26.793400 29.291000 -1.000000 -0.000000 0.000000 0.879900 -0.952700 1 0 1.000000 
0 -0.207701 28.277201 28.660101 -1.000000 -0.000000 0.000000 0.894000 -0.930600 1 0 1.000000 
0 -0.207701 27.812599 27.705400 -1.000000 -0.000000 0.000000 0.879000 -0.922100 1 0 1.000000 
borealis_objects01
0 -1.268299 -25.556400 -24.775400 0.984936 -0.124404 -0.120104 0.691500 -0.937200 1 0 1.000000 
0 -1.268299 -27.114700 -23.161699 0.984936 -0.124404 -0.120104 0.671600 -0.922700 1 0 1.000000 
0 -1.494299 -27.552000 -24.561899 0.984936 -0.124404 -0.120104 0.671600 -0.937200 1 0 1.000000 
borealis_objects01
0 -0.207699 -26.511600 -22.961399 0.061797 -0.333983 0.940551 0.671000 -0.882100 1 0 1.000000 
0 -0.207699 -27.512100 -23.316601 0.061797 -0.333983 0.940551 0.654500 -0.882100 1 0 1.000000 
0 2.401001 -26.958401 -23.291300 0.061797 -0.333983 0.940551 0.661700 -0.924100 1 0 1.000000 
borealis_objects01
0 -1.268299 -23.113899 -49.872299 0.984937 -0.167006 0.044802 0.691500 -0.937200 1 0 1.000000 
0 -1.494299 -24.755699 -51.026600 0.984937 -0.167006 0.044802 0.671600 -0.937200 1 0 1.000000 
0 -1.268299 -23.694500 -52.039200 0.984937 -0.167006 0.044802 0.671600 -0.922700 1 0 1.000000 
borealis_objects01
0 -0.207699 -26.896000 -24.806601 -1.000000 -0.000000 0.000000 0.679500 -0.923300 1 0 1.000000 
0 -0.207699 -27.512100 -23.316601 -1.000000 -0.000000 0.000000 0.665400 -0.945400 1 0 1.000000 
0 -0.207699 -26.511600 -22.961399 -1.000000 -0.000000 0.000000 0.680400 -0.953900 1 0 1.000000 
borealis_objects01
0 -2.400999 -23.790100 52.287998 -1.000000 -0.000000 0.000000 0.668400 -0.920400 1 0 1.000000 
0 -2.400999 -22.245399 49.909401 -1.000000 -0.000000 0.000000 0.697900 -0.930000 1 0 1.000000 
0 -2.400999 -24.654699 50.035599 -1.000000 -0.000000 0.000000 0.676500 -0.945500 1 0 1.000000 
borealis_objects01
0 -0.207701 26.949301 -23.159000 0.095199 0.704495 -0.703295 0.888400 -0.883800 1 0 1.000000 
0 -0.207701 27.699400 -22.407600 0.095199 0.704495 -0.703295 0.904900 -0.883800 1 0 1.000000 
0 2.400999 26.831400 -22.923901 0.095199 0.704495 -0.703295 0.851000 -0.925700 1 0 1.000000 
borealis_objects01
0 -1.268299 -23.113899 49.764301 0.975715 -0.183703 -0.119302 0.691500 -0.937200 1 0 1.000000 
0 -1.268299 -24.275801 51.553600 0.975715 -0.183703 -0.119302 0.669300 -0.930000 1 0 1.000000 
0 -1.494299 -24.539200 50.110600 0.975715 -0.183703 -0.119302 0.677800 -0.941600 1 0 1.000000 
borealis_objects01
0 -0.207701 26.501900 -21.327999 -1.000000 -0.000000 0.000000 0.879900 -0.924900 1 0 1.000000 
0 -0.207701 27.699400 -22.407600 -1.000000 -0.000000 0.000000 0.894000 -0.947000 1 0 1.000000 
0 -0.207701 26.949301 -23.159000 -1.000000 -0.000000 0.000000 0.879000 -0.955500 1 0 1.000000 
borealis_objects01
0 -2.401001 27.753401 -22.847900 -0.894517 0.019500 0.446608 0.668400 -0.920400 1 0 1.000000 
0 -2.401001 24.919901 -22.724100 -0.894517 0.019500 0.446608 0.697900 -0.930000 1 0 1.000000 
0 -1.494301 26.415800 -20.973600 -0.894517 0.019500 0.446608 0.686600 -0.945500 1 0 1.000000 
borealis_objects01
0 -1.268301 25.306101 -21.932899 1.000000 0.000000 0.000000 0.691500 -0.937200 1 0 1.000000 
0 -1.268301 26.975800 -23.261000 1.000000 0.000000 0.000000 0.677800 -0.918300 1 0 1.000000 
0 -1.268301 27.437599 -22.025900 1.000000 0.000000 0.000000 0.669300 -0.930000 1 0 1.000000 
borealis_objects01
0 -1.268301 25.306101 -21.932899 0.975721 0.009600 0.218805 0.691500 -0.937200 1 0 1.000000 
0 -1.268301 27.437599 -22.025900 0.975721 0.009600 0.218805 0.669300 -0.930000 1 0 1.000000 
0 -1.494301 26.415800 -20.973600 0.975721 0.009600 0.218805 0.677800 -0.941600 1 0 1.000000 
borealis_objects01
0 -1.268299 -25.593599 25.025400 1.000000 0.000000 0.000000 0.691500 -0.937200 1 0 1.000000 
0 -1.268299 -26.427200 26.989300 1.000000 0.000000 0.000000 0.677800 -0.918300 1 0 1.000000 
0 -1.268299 -27.422300 26.124300 1.000000 0.000000 0.000000 0.669300 -0.930000 1 0 1.000000 
borealis_objects01
0 -2.400999 -26.459400 27.357300 -1.000000 -0.000000 0.000000 0.676500 -0.914400 1 0 1.000000 
0 -2.400999 -25.351200 24.746599 -1.000000 -0.000000 0.000000 0.694800 -0.939500 1 0 1.000000 
0 -2.400999 -27.702000 25.289301 -1.000000 -0.000000 0.000000 0.668400 -0.939500 1 0 1.000000 
borealis_objects01
0 -1.268299 -23.113899 49.764301 1.000000 0.000000 0.000000 0.691500 -0.937200 1 0 1.000000 
0 -1.268299 -23.002199 51.894901 1.000000 0.000000 0.000000 0.677800 -0.918300 1 0 1.000000 
0 -1.268299 -24.275801 51.553600 1.000000 0.000000 0.000000 0.669300 -0.930000 1 0 1.000000 
borealis_objects01
0 -1.268299 -25.593599 25.025400 0.975726 -0.112803 -0.187705 0.691500 -0.937200 1 0 1.000000 
0 -1.268299 -27.422300 26.124300 0.975726 -0.112803 -0.187705 0.669300 -0.930000 1 0 1.000000 
0 -1.494299 -27.026501 24.711800 0.975726 -0.112803 -0.187705 0.677800 -0.941600 1 0 1.000000 
borealis_objects01
0 -1.268299 -25.556400 -24.775400 1.000000 0.000000 0.000000 0.691500 -0.937200 1 0 1.000000 
0 -1.268299 -25.809000 -22.978201 1.000000 0.000000 0.000000 0.685400 -0.918300 1 0 1.000000 
0 -1.268299 -27.114700 -23.161699 1.000000 0.000000 0.000000 0.671600 -0.922700 1 0 1.000000 
borealis_objects01
0 -2.401001 24.978901 50.884300 -1.000000 -0.000000 0.000000 0.668400 -0.920400 1 0 1.000000 
0 -2.401001 23.986000 49.439701 -1.000000 -0.000000 0.000000 0.686600 -0.914400 1 0 1.000000 
0 -2.401001 21.997700 50.806198 -1.000000 -0.000000 0.000000 0.694800 -0.939500 1 0 1.000000 
borealis_objects01
0 1.432799 13.649200 -42.952499 0.006000 -0.678488 -0.734587 0.901700 -0.911400 1 0 1.000000 
0 -0.207701 23.156099 -51.747799 -0.070200 -0.666601 -0.742101 0.671000 -0.882100 1 0 1.000000 
0 2.400999 13.880800 -43.158501 0.006000 -0.678488 -0.734587 0.901700 -0.924100 1 0 1.000000 
borealis_objects01
0 -1.268301 22.367001 50.815899 1.000000 0.000000 0.000000 0.691500 -0.937200 1 0 1.000000 
0 -1.268301 23.862700 49.787998 1.000000 0.000000 0.000000 0.685400 -0.918300 1 0 1.000000 
0 -1.268301 24.609600 50.874599 1.000000 0.000000 0.000000 0.671600 -0.922700 1 0 1.000000 
borealis_objects01
0 -0.080201 22.668800 -48.929100 -0.000000 0.595012 0.803716 0.711800 -0.988300 1 0 1.000000 
0 1.432799 13.649200 -42.952499 0.043298 0.556877 0.829466 0.900200 -0.961900 1 0 1.000000 
0 2.400999 13.880800 -43.158501 0.043298 0.556877 0.829466 0.900200 -0.949500 1 0 1.000000 
borealis_objects01
0 -2.401001 22.239901 -51.593601 -1.000000 -0.000000 0.000000 0.686600 -0.914400 1 0 1.000000 
0 -2.401001 22.331699 -49.843201 -1.000000 -0.000000 0.000000 0.697900 -0.930000 1 0 1.000000 
0 -2.401001 24.740999 -49.969398 -1.000000 -0.000000 0.000000 0.676500 -0.945500 1 0 1.000000 
borealis_objects01
0 2.400999 24.419701 -51.202202 1.000000 0.000000 0.000000 0.660000 -0.932500 1 0 1.000000 
0 2.400999 13.880800 -43.158501 1.000000 0.000000 0.000000 0.897000 -0.939300 1 0 1.000000 
0 2.400999 23.706900 -51.675800 1.000000 0.000000 0.000000 0.664500 -0.947100 1 0 1.000000 
borealis_objects01
0 -1.268301 23.200100 -49.698101 1.000000 0.000000 0.000000 0.691500 -0.937200 1 0 1.000000 
0 -1.268301 22.549700 -51.392399 1.000000 0.000000 0.000000 0.685400 -0.918300 1 0 1.000000 
0 -1.268301 23.780701 -51.865002 1.000000 0.000000 0.000000 0.671600 -0.922700 1 0 1.000000 
borealis_objects01
0 -0.207701 24.698999 -51.321701 0.096899 0.550797 -0.828995 0.711500 -0.922800 1 0 1.000000 
0 2.400999 24.419701 -51.202202 0.096899 0.550797 -0.828995 0.673100 -0.922800 1 0 1.000000 
0 2.400999 23.706900 -51.675800 0.096899 0.550797 -0.828995 0.673100 -0.935500 1 0 1.000000 
borealis_objects01
0 -0.207699 -24.612700 -51.495899 0.082901 -0.380606 -0.921014 0.847900 -0.953200 1 0 1.000000 
0 2.140201 -23.069799 -51.922100 0.082901 -0.380606 -0.921014 0.886200 -0.940500 1 0 1.000000 
0 2.401001 -24.333401 -51.376499 0.082901 -0.380606 -0.921014 0.886200 -0.953200 1 0 1.000000 
borealis_objects01
0 2.401001 -24.333401 -51.376499 0.946383 -0.195996 0.256795 0.899400 -0.943500 1 0 1.000000 
0 2.401001 -13.794500 -43.332699 0.946383 -0.195996 0.256795 0.741100 -0.943100 1 0 1.000000 
0 2.140201 -23.659100 -49.900200 0.946383 -0.195996 0.256795 0.873400 -0.956400 1 0 1.000000 
borealis_objects01
0 2.401001 -24.333401 -51.376499 0.977199 0.128800 -0.168800 0.899400 -0.943500 1 0 1.000000 
0 2.140201 -23.069799 -51.922100 0.977199 0.128800 -0.168800 0.894900 -0.928900 1 0 1.000000 
0 2.401001 -13.794500 -43.332699 0.977199 0.128800 -0.168800 0.662300 -0.936700 1 0 1.000000 
borealis_objects01
0 -0.207699 -24.612700 -51.495899 0.076998 -0.901681 0.425491 0.901500 -0.885500 1 0 1.000000 
0 2.401001 -24.333401 -51.376499 0.076998 -0.901681 0.425491 0.901500 -0.926500 1 0 1.000000 
0 2.140201 -23.659100 -49.900200 0.076998 -0.901681 0.425491 0.871000 -0.926500 1 0 1.000000 
borealis_objects01
0 -0.080201 22.668800 -48.929100 -0.973022 -0.230705 0.001700 0.715400 -0.923300 1 0 1.000000 
0 -0.207701 23.156099 -51.747799 -0.973065 -0.230492 0.004200 0.680400 -0.953900 1 0 1.000000 
0 1.432799 13.649200 -42.952499 -0.987950 -0.153708 0.018101 0.890300 -0.940100 1 0 1.000000 
borealis_objects01
0 -0.207701 26.793400 29.291000 0.000000 -0.629888 0.776686 0.886200 -0.885500 1 0 1.000000 
0 1.432799 16.679300 21.087999 0.000000 -0.629888 0.776686 0.659200 -0.914100 1 0 1.000000 
0 2.140199 16.679300 21.087999 0.000000 -0.629888 0.776686 0.659200 -0.926500 1 0 1.000000 
borealis_objects01
0 -0.207701 23.156099 -51.747799 -0.029600 0.266098 -0.963491 0.671000 -0.882100 1 0 1.000000 
0 -0.207701 24.698999 -51.321701 -0.029600 0.266098 -0.963491 0.654500 -0.882100 1 0 1.000000 
0 2.400999 23.706900 -51.675800 -0.029600 0.266098 -0.963491 0.661700 -0.924100 1 0 1.000000 
borealis_objects01
0 -0.080201 21.495199 50.478802 0.000000 -0.642601 0.766201 0.711800 -0.885300 1 0 1.000000 
0 1.432799 13.578200 43.103600 0.000000 -0.681612 0.731713 0.900100 -0.911700 1 0 1.000000 
0 2.140199 13.578200 43.103600 0.027899 -0.677185 0.735284 0.900100 -0.924100 1 0 1.000000 
borealis_objects01
0 -1.268299 -23.113899 -49.872299 1.000000 0.000000 0.000000 0.691500 -0.937200 1 0 1.000000 
0 -1.268299 -23.694500 -52.039200 1.000000 0.000000 0.000000 0.671600 -0.922700 1 0 1.000000 
0 -1.268299 -22.463499 -51.566601 1.000000 0.000000 0.000000 0.685400 -0.918300 1 0 1.000000 
borealis_objects01
0 1.432801 -13.932600 -26.044901 -0.000000 0.238109 0.971238 0.901700 -0.911400 1 0 1.000000 
0 -0.207699 -26.511600 -22.961399 -0.070201 0.223304 0.972218 0.671000 -0.882100 1 0 1.000000 
0 2.140201 -13.932600 -26.044901 -0.000000 0.238109 0.971238 0.901700 -0.924100 1 0 1.000000 
borealis_objects01
0 -2.401001 24.978901 50.884300 -0.817514 -0.015100 0.575710 0.668400 -0.920400 1 0 1.000000 
0 -2.401001 21.997700 50.806198 -0.817514 -0.015100 0.575710 0.694800 -0.939500 1 0 1.000000 
0 -1.494301 23.036501 52.120998 -0.817514 -0.015100 0.575710 0.676500 -0.945500 1 0 1.000000 
borealis_objects01
0 -0.207699 -26.896000 -24.806601 0.000000 -0.095097 -0.995468 0.673200 -0.990600 1 0 1.000000 
0 1.432801 -13.932600 -26.044901 0.000000 -0.095097 -0.995468 0.900200 -0.961900 1 0 1.000000 
0 2.140201 -13.932600 -26.044901 0.000000 -0.095097 -0.995468 0.900200 -0.949500 1 0 1.000000 
borealis_objects01
0 -1.268301 22.367001 50.815899 0.984928 -0.004500 0.172905 0.691500 -0.937200 1 0 1.000000 
0 -1.268301 24.609600 50.874599 0.984928 -0.004500 0.172905 0.671600 -0.922700 1 0 1.000000 
0 -1.494301 23.036501 52.120998 0.984928 -0.004500 0.172905 0.677800 -0.941600 1 0 1.000000 
borealis_objects01
0 -0.207701 24.698999 -51.321701 -1.000000 -0.000000 0.000000 0.665300 -0.932800 1 0 1.000000 
0 -0.207701 23.156099 -51.747799 -1.000000 -0.000000 0.000000 0.680400 -0.953900 1 0 1.000000 
0 -0.080201 22.668800 -48.929100 -0.995500 -0.075400 0.057400 0.715400 -0.923300 1 0 1.000000 
borealis_objects01
0 -1.494299 -27.552000 -24.561899 -0.190099 -0.855696 -0.481297 0.664700 -0.892000 1 0 1.000000 
0 -1.268299 -27.114700 -23.161699 -0.285291 -0.500183 0.817573 0.690700 -0.892000 1 0 1.000000 
0 -2.400999 -25.635500 -22.652000 -0.094996 -0.227390 0.969159 0.704100 -0.880900 1 0 1.000000 
borealis_objects01
0 -1.268299 -27.114700 -23.161699 -0.285291 -0.500183 0.817573 0.690700 -0.892000 1 0 1.000000 
0 -1.268299 -25.809000 -22.978201 0.277194 0.794582 0.540188 0.702000 -0.892000 1 0 1.000000 
0 -2.400999 -25.635500 -22.652000 -0.094996 -0.227390 0.969159 0.704100 -0.880900 1 0 1.000000 
borealis_objects01
0 -1.268299 -25.809000 -22.978201 0.277194 0.794582 0.540188 0.702000 -0.892000 1 0 1.000000 
0 -2.400999 -25.299700 -25.041201 0.258086 0.702663 -0.663065 0.663400 -0.880900 1 0 1.000000 
0 -2.400999 -25.635500 -22.652000 -0.094996 -0.227390 0.969159 0.704100 -0.880900 1 0 1.000000 
borealis_objects01
0 -1.268299 -25.809000 -22.978201 0.277194 0.794582 0.540188 0.702000 -0.892000 1 0 1.000000 
0 -1.268299 -25.556400 -24.775400 0.310003 0.676607 -0.667907 0.664700 -0.892000 1 0 1.000000 
0 -2.400999 -25.299700 -25.041201 0.258086 0.702663 -0.663065 0.663400 -0.880900 1 0 1.000000 
borealis_objects01
0 -1.268299 -25.556400 -24.775400 0.310003 0.676607 -0.667907 0.664700 -0.892000 1 0 1.000000 
0 -1.494299 -27.552000 -24.561899 -0.190099 -0.855696 -0.481297 0.664700 -0.892000 1 0 1.000000 
0 -2.400999 -25.299700 -25.041201 0.258086 0.702663 -0.663065 0.663400 -0.880900 1 0 1.000000 
borealis_objects01
0 -1.494299 -27.552000 -24.561899 -0.190099 -0.855696 -0.481297 0.664700 -0.892000 1 0 1.000000 
0 -2.400999 -27.675699 -24.622200 0.148207 -0.946544 -0.286513 0.663400 -0.880900 1 0 1.000000 
0 -2.400999 -25.299700 -25.041201 0.258086 0.702663 -0.663065 0.663400 -0.880900 1 0 1.000000 
borealis_objects01
0 -1.494299 -27.552000 -24.561899 -0.190099 -0.855696 -0.481297 0.664700 -0.892000 1 0 1.000000 
0 -2.400999 -25.635500 -22.652000 -0.094996 -0.227390 0.969159 0.704100 -0.880900 1 0 1.000000 
0 -2.400999 -27.675699 -24.622200 0.148207 -0.946544 -0.286513 0.663400 -0.880900 1 0 1.000000 
borealis_objects01
0 -0.207701 24.698999 -51.321701 0.052201 0.762812 0.644510 0.657900 -0.990600 1 0 1.000000 
0 -0.080201 22.668800 -48.929100 0.052201 0.762812 0.644510 0.711800 -0.988300 1 0 1.000000 
0 2.400999 24.419701 -51.202202 0.052201 0.762812 0.644510 0.657900 -0.949500 1 0 1.000000 
borealis_objects01
0 -2.401001 28.471600 28.261400 -0.817514 0.015100 0.575710 0.668400 -0.920400 1 0 1.000000 
0 -1.494301 26.596600 29.598101 -0.817514 0.015100 0.575710 0.686600 -0.945500 1 0 1.000000 
0 -1.494301 27.432800 29.576200 -0.817514 0.015100 0.575710 0.668400 -0.939500 1 0 1.000000 
borealis_objects01
0 -1.268301 25.306101 -21.932899 0.957283 -0.179997 -0.226296 0.691500 -0.937200 1 0 1.000000 
0 -1.494301 25.514200 -23.384899 0.984927 -0.060602 -0.162004 0.691500 -0.922700 1 0 1.000000 
0 -1.268301 26.975800 -23.261000 0.957283 -0.179997 -0.226296 0.677800 -0.918300 1 0 1.000000 
borealis_objects01
0 -0.080199 -24.778900 24.567101 -0.973022 0.208105 0.099602 0.714100 -0.951100 1 0 1.000000 
0 -0.207699 -26.452499 26.886999 -0.973065 0.208992 0.097296 0.679100 -0.920500 1 0 1.000000 
0 1.432801 -14.052100 23.149401 -0.987948 0.146107 0.051102 0.889000 -0.934300 1 0 1.000000 
borealis_objects01
0 -2.401001 27.753401 -22.847900 -0.573103 -0.035700 -0.818705 0.668400 -0.920400 1 0 1.000000 
0 -1.494301 25.514200 -23.384899 -0.573103 -0.035700 -0.818705 0.686600 -0.914400 1 0 1.000000 
0 -2.401001 24.919901 -22.724100 -0.573103 -0.035700 -0.818705 0.697900 -0.930000 1 0 1.000000 
borealis_objects01
0 -0.207699 -26.452499 26.886999 0.000000 -0.661840 0.749645 0.669700 -0.992300 1 0 1.000000 
0 -0.207699 -27.652399 25.827600 0.000000 -0.661840 0.749645 0.653200 -0.992300 1 0 1.000000 
0 2.140201 -26.452499 26.886999 0.000000 -0.661840 0.749645 0.669700 -0.950400 1 0 1.000000 
borealis_objects01
0 -1.268299 -23.113899 49.764301 0.957300 0.288700 -0.015100 0.691500 -0.937200 1 0 1.000000 
0 -1.494299 -22.052601 50.776901 0.984937 0.167006 0.044802 0.691500 -0.922700 1 0 1.000000 
0 -1.268299 -23.002199 51.894901 0.957300 0.288700 -0.015100 0.677800 -0.918300 1 0 1.000000 
borealis_objects01
0 -0.080199 -22.582600 48.995300 -0.973022 0.230705 -0.001700 0.844000 -0.952700 1 0 1.000000 
0 -0.207699 -23.069799 51.813999 -0.973065 0.230492 -0.004200 0.879000 -0.922100 1 0 1.000000 
0 1.432801 -13.562900 43.018700 -0.987950 0.153708 -0.018101 0.669100 -0.935900 1 0 1.000000 
borealis_objects01
0 -2.400999 -23.790100 52.287998 -0.573097 0.687297 0.446298 0.668400 -0.920400 1 0 1.000000 
0 -1.494299 -22.052601 50.776901 -0.573097 0.687297 0.446298 0.686600 -0.914400 1 0 1.000000 
0 -2.400999 -22.245399 49.909401 -0.573097 0.687297 0.446298 0.697900 -0.930000 1 0 1.000000 
borealis_objects01
0 -0.207699 -23.069799 51.813999 0.000000 -0.266205 0.963916 0.888400 -0.993900 1 0 1.000000 
0 -0.207699 -24.612700 51.387901 0.000000 -0.266205 0.963916 0.904900 -0.993900 1 0 1.000000 
0 2.140201 -23.069799 51.813999 0.000000 -0.266205 0.963916 0.888400 -0.952000 1 0 1.000000 
borealis_objects01
0 -0.080199 -24.778900 24.567101 0.000000 -0.182404 -0.983223 0.710500 -0.886100 1 0 1.000000 
0 1.432801 -14.052100 23.149401 0.043302 -0.136905 -0.989637 0.898900 -0.912500 1 0 1.000000 
0 2.401001 -14.350600 23.233000 0.029699 -0.133795 -0.990564 0.895000 -0.924900 1 0 1.000000 
borealis_objects01
0 -0.080201 21.495199 50.478802 -0.973029 -0.055502 -0.223907 0.715300 -0.950300 1 0 1.000000 
0 -0.207701 24.349800 50.294601 -0.973054 -0.057897 -0.223189 0.680400 -0.919700 1 0 1.000000 
0 1.432799 13.578200 43.103600 -0.987939 -0.053502 -0.145306 0.890300 -0.933500 1 0 1.000000 
borealis_objects01
0 -0.080199 -22.582600 48.995300 0.000000 -0.595012 -0.803716 0.847600 -0.887700 1 0 1.000000 
0 1.432801 -13.562900 43.018700 0.043298 -0.556877 -0.829466 0.659200 -0.914100 1 0 1.000000 
0 2.401001 -13.794500 43.224701 0.029699 -0.554479 -0.831668 0.663100 -0.926500 1 0 1.000000 
borealis_objects01
0 -0.207701 24.349800 50.294601 -0.000000 0.999425 0.033901 0.671000 -0.991500 1 0 1.000000 
0 -0.207701 24.295601 51.894299 -0.000000 0.999425 0.033901 0.654500 -0.991500 1 0 1.000000 
0 2.140199 24.349800 50.294601 -0.000000 0.999425 0.033901 0.671000 -0.949600 1 0 1.000000 
borealis_objects01
0 -0.207701 26.501900 -21.327999 0.000000 -0.345594 0.938384 0.886200 -0.992200 1 0 1.000000 
0 1.432799 14.268200 -25.791300 0.038500 -0.337898 0.940395 0.659200 -0.963500 1 0 1.000000 
0 2.400999 14.570400 -25.722300 0.000000 -0.345594 0.938384 0.663100 -0.951100 1 0 1.000000 
borealis_objects01
0 -0.080199 -22.582600 -49.103298 -0.973022 0.230705 0.001700 0.844000 -0.952700 1 0 1.000000 
0 1.432801 -13.562900 -43.126701 -0.987950 0.153708 0.018101 0.669100 -0.935900 1 0 1.000000 
0 -0.207699 -23.069799 -51.922100 -0.973065 0.230492 0.004200 0.879000 -0.922100 1 0 1.000000 
borealis_objects01
0 2.400999 14.570400 -25.722300 -0.000000 0.222507 -0.974931 0.662300 -0.941000 1 0 1.000000 
0 1.432799 14.268200 -25.791300 -0.000000 0.222507 -0.974931 0.661800 -0.948700 1 0 1.000000 
0 2.400999 26.831400 -22.923901 -0.000000 0.222507 -0.974931 0.887100 -0.951300 1 0 1.000000 
borealis_objects01
0 -0.207699 -23.069799 -51.922100 0.000000 -0.266205 -0.963916 0.888400 -0.993900 1 0 1.000000 
0 2.140201 -23.069799 -51.922100 0.000000 -0.266205 -0.963916 0.888400 -0.952000 1 0 1.000000 
0 -0.207699 -24.612700 -51.495899 0.000000 -0.266205 -0.963916 0.904900 -0.993900 1 0 1.000000 
borealis_objects01
0 0.714699 27.157700 -22.103600 -0.215507 0.783726 -0.582520 0.894700 -0.847800 1 0 1.000000 
0 0.714699 25.930700 -23.062300 -0.148492 -0.332183 -0.931453 0.894700 -0.838600 1 0 1.000000 
0 -1.585801 25.533600 -22.554001 -0.348392 -0.300193 -0.887979 0.859200 -0.847800 1 0 1.000000 
borealis_objects01
0 0.714699 25.930700 -23.062300 -0.148492 -0.332183 -0.931453 0.894700 -0.838600 1 0 1.000000 
0 0.714699 25.612200 -21.913900 -0.072299 -0.549296 0.832494 0.894700 -0.857000 1 0 1.000000 
0 -1.585801 25.533600 -22.554001 -0.348392 -0.300193 -0.887979 0.859200 -0.847800 1 0 1.000000 
borealis_objects01
0 0.714699 25.612200 -21.913900 -0.072299 -0.549296 0.832494 0.894700 -0.857000 1 0 1.000000 
0 -1.585801 27.157700 -22.103600 -0.250109 0.130105 0.959436 0.859200 -0.847800 1 0 1.000000 
0 -1.585801 25.533600 -22.554001 -0.348392 -0.300193 -0.887979 0.859200 -0.847800 1 0 1.000000 
borealis_objects01
0 0.714699 25.612200 -21.913900 -0.072299 -0.549296 0.832494 0.894700 -0.857000 1 0 1.000000 
0 0.714699 27.157700 -22.103600 -0.215507 0.783726 -0.582520 0.894700 -0.847800 1 0 1.000000 
0 -1.585801 27.157700 -22.103600 -0.250109 0.130105 0.959436 0.859200 -0.847800 1 0 1.000000 
borealis_objects01
0 0.714699 27.157700 -22.103600 -0.215507 0.783726 -0.582520 0.894700 -0.847800 1 0 1.000000 
0 -1.585801 25.533600 -22.554001 -0.348392 -0.300193 -0.887979 0.859200 -0.847800 1 0 1.000000 
0 -1.585801 27.157700 -22.103600 -0.250109 0.130105 0.959436 0.859200 -0.847800 1 0 1.000000 
borealis_objects01
0 0.714701 -23.307100 50.002499 0.026599 0.104497 -0.994169 0.894700 -0.857000 1 0 1.000000 
0 0.714701 -24.049999 51.370899 -0.167706 -0.581422 0.796130 0.894700 -0.847800 1 0 1.000000 
0 -1.585699 -24.233200 50.752499 -0.381401 -0.824302 -0.418401 0.859200 -0.857000 1 0 1.000000 
borealis_objects01
0 0.714701 -24.049999 51.370899 -0.167706 -0.581422 0.796130 0.894700 -0.847800 1 0 1.000000 
0 -1.585699 -22.557100 50.928600 -0.509623 0.654729 0.558225 0.859200 -0.838600 1 0 1.000000 
0 -1.585699 -24.233200 50.752499 -0.381401 -0.824302 -0.418401 0.859200 -0.857000 1 0 1.000000 
borealis_objects01
0 0.714701 -24.049999 51.370899 -0.167706 -0.581422 0.796130 0.894700 -0.847800 1 0 1.000000 
0 0.714701 -22.864799 51.495399 -0.000000 0.729684 0.683785 0.894700 -0.834800 1 0 1.000000 
0 -1.585699 -22.557100 50.928600 -0.509623 0.654729 0.558225 0.859200 -0.838600 1 0 1.000000 
borealis_objects01
0 0.714701 -22.864799 51.495399 -0.000000 0.729684 0.683785 0.894700 -0.834800 1 0 1.000000 
0 0.714701 -23.307100 50.002499 0.026599 0.104497 -0.994169 0.894700 -0.857000 1 0 1.000000 
0 -1.585699 -22.557100 50.928600 -0.509623 0.654729 0.558225 0.859200 -0.838600 1 0 1.000000 
borealis_objects01
0 0.714701 -23.307100 50.002499 0.026599 0.104497 -0.994169 0.894700 -0.857000 1 0 1.000000 
0 -1.585699 -24.233200 50.752499 -0.381401 -0.824302 -0.418401 0.859200 -0.857000 1 0 1.000000 
0 -1.585699 -22.557100 50.928600 -0.509623 0.654729 0.558225 0.859200 -0.838600 1 0 1.000000 
borealis_objects01
0 2.401001 -27.349100 25.842699 0.977193 0.041800 0.208198 0.658600 -0.941900 1 0 1.000000 
0 2.401001 -14.350600 23.233000 0.977193 0.041800 0.208198 0.895700 -0.935100 1 0 1.000000 
0 2.140201 -26.452499 26.886999 0.977193 0.041800 0.208198 0.671000 -0.924700 1 0 1.000000 
borealis_objects01
0 -0.207701 26.501900 -21.327999 -0.992071 -0.122096 -0.029799 0.879900 -0.924900 1 0 1.000000 
0 -0.207701 26.949301 -23.159000 -0.992071 -0.122096 -0.029799 0.879000 -0.955500 1 0 1.000000 
0 1.432799 14.268200 -25.791300 -0.994883 -0.100498 0.010400 0.669100 -0.941700 1 0 1.000000 
borealis_objects01
0 -0.207699 -27.652399 25.827600 0.082900 -0.745796 0.660996 0.710200 -0.951600 1 0 1.000000 
0 2.401001 -27.349100 25.842699 0.082900 -0.745796 0.660996 0.671800 -0.951600 1 0 1.000000 
0 2.140201 -26.452499 26.886999 0.082900 -0.745796 0.660996 0.671800 -0.938900 1 0 1.000000 
borealis_objects01
0 -0.207701 27.699400 -22.407600 -0.050900 0.668694 0.741793 0.901500 -0.992200 1 0 1.000000 
0 -0.207701 26.501900 -21.327999 -0.050900 0.668694 0.741793 0.886200 -0.992200 1 0 1.000000 
0 2.400999 27.238899 -21.813499 -0.050900 0.668694 0.741793 0.901500 -0.951100 1 0 1.000000 
borealis_objects01
0 2.401001 -24.333401 51.268398 0.977186 0.128898 0.168798 0.899400 -0.943500 1 0 1.000000 
0 2.401001 -13.794500 43.224701 0.977186 0.128898 0.168798 0.662300 -0.936700 1 0 1.000000 
0 2.140201 -23.069799 51.813999 0.977186 0.128898 0.168798 0.887100 -0.926300 1 0 1.000000 
borealis_objects01
0 -0.207701 26.793400 29.291000 -0.992060 -0.105796 -0.067997 0.879900 -0.952700 1 0 1.000000 
0 -0.207701 27.812599 27.705400 -0.992060 -0.105796 -0.067997 0.879000 -0.922100 1 0 1.000000 
0 1.432799 16.679300 21.087999 -0.994883 -0.098398 -0.022900 0.669100 -0.935900 1 0 1.000000 
borealis_objects01
0 -0.207699 -24.612700 51.387901 0.082901 -0.380606 0.921014 0.847900 -0.953200 1 0 1.000000 
0 2.401001 -24.333401 51.268398 0.082901 -0.380606 0.921014 0.886200 -0.953200 1 0 1.000000 
0 2.140201 -23.069799 51.813999 0.082901 -0.380606 0.921014 0.886200 -0.940500 1 0 1.000000 
borealis_objects01
0 -0.207701 28.277201 28.660101 -0.050898 0.390788 0.919072 0.901500 -0.885500 1 0 1.000000 
0 -0.207701 26.793400 29.291000 -0.050898 0.390788 0.919072 0.886200 -0.885500 1 0 1.000000 
0 2.400999 27.648300 29.071899 -0.050898 0.390788 0.919072 0.901500 -0.926500 1 0 1.000000 
borealis_objects01
0 -1.268299 -25.593599 25.025400 0.957299 0.266100 0.113000 0.691500 -0.937200 1 0 1.000000 
0 -1.494299 -25.083599 26.400801 0.984929 0.130504 0.113503 0.691500 -0.922700 1 0 1.000000 
0 -1.268299 -26.427200 26.989300 0.957299 0.266100 0.113000 0.677800 -0.918300 1 0 1.000000 
borealis_objects01
0 -0.207699 -26.896000 -24.806601 -0.992064 0.123096 -0.025599 0.679500 -0.923300 1 0 1.000000 
0 -0.207699 -26.511600 -22.961399 -0.992064 0.123096 -0.025599 0.680400 -0.953900 1 0 1.000000 
0 1.432801 -13.932600 -26.044901 -0.994880 0.086298 -0.052599 0.890300 -0.940100 1 0 1.000000 
borealis_objects01
0 -2.400999 -26.459400 27.357300 -0.701519 0.656018 0.278408 0.676500 -0.914400 1 0 1.000000 
0 -1.494299 -25.083599 26.400801 -0.701519 0.656018 0.278408 0.694800 -0.920400 1 0 1.000000 
0 -2.400999 -25.351200 24.746599 -0.701519 0.656018 0.278408 0.694800 -0.939500 1 0 1.000000 
borealis_objects01
0 -0.207699 -27.512100 -23.316601 -0.050901 -0.922921 -0.381609 0.657900 -0.990600 1 0 1.000000 
0 -0.207699 -26.896000 -24.806601 -0.050901 -0.922921 -0.381609 0.673200 -0.990600 1 0 1.000000 
0 2.401001 -27.352200 -24.051100 -0.050901 -0.922921 -0.381609 0.657900 -0.949500 1 0 1.000000 
borealis_objects01
0 2.400999 24.114300 51.650600 0.979186 0.112698 -0.168798 0.659900 -0.941100 1 0 1.000000 
0 2.140199 13.578200 43.103600 0.979186 0.112698 -0.168798 0.895700 -0.939300 1 0 1.000000 
0 2.140199 24.349800 50.294601 0.979186 0.112698 -0.168798 0.672200 -0.923900 1 0 1.000000 
borealis_objects01
0 -0.207701 28.277201 28.660101 0.222594 0.972076 0.074298 0.847900 -0.940500 1 0 1.000000 
0 2.400999 27.648300 29.071899 0.222594 0.972076 0.074298 0.886200 -0.953200 1 0 1.000000 
0 2.140199 27.812599 27.705400 0.222594 0.972076 0.074298 0.886200 -0.940500 1 0 1.000000 
borealis_objects01
0 -0.207701 24.295601 51.894299 0.082902 0.984429 0.155005 0.711400 -0.950800 1 0 1.000000 
0 2.400999 24.114300 51.650600 0.082902 0.984429 0.155005 0.673100 -0.950800 1 0 1.000000 
0 2.140199 24.349800 50.294601 0.082902 0.984429 0.155005 0.673100 -0.938100 1 0 1.000000 
borealis_objects01
0 2.400999 27.648300 29.071899 0.979182 0.103698 -0.174497 0.899400 -0.943500 1 0 1.000000 
0 2.140199 16.679300 21.087999 0.979182 0.103698 -0.174497 0.663600 -0.941700 1 0 1.000000 
0 2.140199 27.812599 27.705400 0.979182 0.103698 -0.174497 0.887100 -0.926300 1 0 1.000000 
borealis_objects01
0 2.401001 -27.352200 -24.051100 1.000000 0.000000 0.000000 0.660000 -0.932500 1 0 1.000000 
0 2.140201 -13.932600 -26.044901 0.999794 0.018000 -0.009400 0.895700 -0.934300 1 0 1.000000 
0 2.401001 -26.958401 -23.291300 1.000000 0.000000 0.000000 0.664500 -0.947100 1 0 1.000000 
borealis_objects01
0 -2.401001 22.239901 -51.593601 -0.685610 0.396506 -0.610509 0.686600 -0.914400 1 0 1.000000 
0 -2.401001 24.740999 -49.969398 -0.685610 0.396506 -0.610509 0.676500 -0.945500 1 0 1.000000 
0 -1.268301 23.780701 -51.865002 -0.685610 0.396506 -0.610509 0.665300 -0.930000 1 0 1.000000 
borealis_objects01
0 -0.207699 -27.512100 -23.316601 0.109098 -0.862080 0.494889 0.711500 -0.935500 1 0 1.000000 
0 2.401001 -27.352200 -24.051100 0.181008 -0.873139 0.452620 0.673100 -0.922800 1 0 1.000000 
0 2.401001 -26.958401 -23.291300 0.181008 -0.873139 0.452620 0.673100 -0.935500 1 0 1.000000 
borealis_objects01
0 -1.268301 23.200100 -49.698101 0.984937 0.167006 0.044802 0.691500 -0.937200 1 0 1.000000 
0 -1.268301 23.780701 -51.865002 0.984937 0.167006 0.044802 0.671600 -0.922700 1 0 1.000000 
0 -1.494301 24.841999 -50.852402 0.984937 0.167006 0.044802 0.671600 -0.937200 1 0 1.000000 
borealis_objects01
0 2.400999 27.238899 -21.813499 1.000000 0.000000 0.000000 0.899400 -0.934100 1 0 1.000000 
0 2.400999 14.570400 -25.722300 1.000000 0.000000 0.000000 0.662300 -0.941000 1 0 1.000000 
0 2.400999 26.831400 -22.923901 1.000000 0.000000 0.000000 0.887100 -0.951300 1 0 1.000000 
borealis_objects01
0 -0.207701 27.699400 -22.407600 0.237196 0.911985 -0.334695 0.847900 -0.937100 1 0 1.000000 
0 2.400999 27.238899 -21.813499 0.237196 0.911985 -0.334695 0.886200 -0.924400 1 0 1.000000 
0 2.400999 26.831400 -22.923901 0.237196 0.911985 -0.334695 0.886200 -0.937100 1 0 1.000000 
end
