version 1
nodes
  0 "static_prop" -1
end
skeleton
time 0
0 0.000000 0.000000 0.000000 0.000000 0.000000 0.000000
end
triangles
control_button01
0 0.319400 1.013800 -0.161800 0.065703 0.965439 0.252210 0.997700 -0.415400 1 0 1.000000 
0 -0.344600 1.013800 0.010900 0.065598 0.965477 0.252094 0.999500 -0.171600 1 0 1.000000 
0 -0.039100 0.851900 0.551200 0.065703 0.965439 0.252210 0.789000 -0.226600 1 0 1.000000 
control_button01
0 -0.039100 0.851900 0.551200 0.065703 0.965439 0.252210 0.789000 -0.226600 1 0 1.000000 
0 0.314200 0.851900 0.458900 0.065900 0.965402 0.252301 0.789300 -0.356400 1 0 1.000000 
0 0.319400 1.013800 -0.161800 0.065703 0.965439 0.252210 0.997700 -0.415400 1 0 1.000000 
control_button01
0 -0.325200 0.628500 -0.427600 -0.967829 -0.001000 0.251607 0.636300 -0.993000 1 0 1.000000 
0 -0.324100 -0.628500 -0.428400 -0.967829 -0.001000 0.251607 0.211400 -0.993000 1 0 1.000000 
0 -0.219500 0.628500 -0.021100 -0.967829 -0.001000 0.251607 0.637000 -0.843700 1 0 1.000000 
control_button01
0 -0.218400 -0.628500 -0.021900 -0.967829 -0.001000 0.251607 0.211700 -0.843700 1 0 1.000000 
0 -0.219500 0.628500 -0.021100 -0.967829 -0.001000 0.251607 0.637000 -0.843700 1 0 1.000000 
0 -0.324100 -0.628500 -0.428400 -0.967829 -0.001000 0.251607 0.211400 -0.993000 1 0 1.000000 
control_button01
0 -0.218400 -0.628500 -0.021900 -0.251608 -0.000000 -0.967829 0.288200 -0.785100 1 0 1.000000 
0 0.193200 -0.628500 -0.129000 -0.251608 -0.000000 -0.967829 0.288500 -0.634000 1 0 1.000000 
0 0.319400 -1.013800 -0.161800 -0.251608 -0.000000 -0.967829 0.158400 -0.587600 1 0 1.000000 
control_button01
0 0.319400 1.013800 -0.161800 -0.251608 -0.000000 -0.967829 0.843700 -0.587600 1 0 1.000000 
0 0.319400 -1.013800 -0.161800 -0.251608 -0.000000 -0.967829 0.158400 -0.587600 1 0 1.000000 
0 0.193200 -0.628500 -0.129000 -0.251608 -0.000000 -0.967829 0.288500 -0.634000 1 0 1.000000 
control_button01
0 0.193200 -0.628500 -0.129000 -0.251608 -0.000000 -0.967829 0.288500 -0.634000 1 0 1.000000 
0 0.193200 0.628500 -0.129000 -0.251608 -0.000000 -0.967829 0.713400 -0.634000 1 0 1.000000 
0 0.319400 1.013800 -0.161800 -0.251608 -0.000000 -0.967829 0.843700 -0.587600 1 0 1.000000 
control_button01
0 -0.344600 1.013800 0.010900 -0.251608 -0.000000 -0.967829 0.843200 -0.831400 1 0 1.000000 
0 0.319400 1.013800 -0.161800 -0.251608 -0.000000 -0.967829 0.843700 -0.587600 1 0 1.000000 
0 0.193200 0.628500 -0.129000 -0.251608 -0.000000 -0.967829 0.713400 -0.634000 1 0 1.000000 
control_button01
0 0.193200 0.628500 -0.129000 -0.251608 -0.000000 -0.967829 0.713400 -0.634000 1 0 1.000000 
0 -0.219500 0.628500 -0.021100 -0.252898 -0.001800 -0.967491 0.713100 -0.785100 1 0 1.000000 
0 -0.344600 1.013800 0.010900 -0.251608 -0.000000 -0.967829 0.843200 -0.831400 1 0 1.000000 
control_button01
0 -0.344600 -1.013800 0.010900 -0.251608 -0.000000 -0.967829 0.157900 -0.831400 1 0 1.000000 
0 -0.344600 1.013800 0.010900 -0.251608 -0.000000 -0.967829 0.843200 -0.831400 1 0 1.000000 
0 -0.219500 0.628500 -0.021100 -0.252898 -0.001800 -0.967491 0.713100 -0.785100 1 0 1.000000 
control_button01
0 -0.219500 0.628500 -0.021100 -0.252898 -0.001800 -0.967491 0.713100 -0.785100 1 0 1.000000 
0 -0.218400 -0.628500 -0.021900 -0.251608 -0.000000 -0.967829 0.288200 -0.785100 1 0 1.000000 
0 -0.344600 -1.013800 0.010900 -0.251608 -0.000000 -0.967829 0.157900 -0.831400 1 0 1.000000 
control_button01
0 0.319400 -1.013800 -0.161800 -0.251608 -0.000000 -0.967829 0.158400 -0.587600 1 0 1.000000 
0 -0.344600 -1.013800 0.010900 -0.251608 -0.000000 -0.967829 0.157900 -0.831400 1 0 1.000000 
0 -0.218400 -0.628500 -0.021900 -0.251608 -0.000000 -0.967829 0.288200 -0.785100 1 0 1.000000 
control_button01
0 -0.039100 0.851900 0.551200 -0.870529 -0.000000 0.492117 0.789000 -0.226600 1 0 1.000000 
0 -0.344600 1.013800 0.010900 -0.870529 -0.000000 0.492117 0.843100 -0.005900 1 0 1.000000 
0 -0.344600 -1.013800 0.010900 -0.870529 -0.000000 0.492117 0.157800 -0.005900 1 0 1.000000 
control_button01
0 -0.344600 -1.013800 0.010900 -0.870529 -0.000000 0.492117 0.157800 -0.005900 1 0 1.000000 
0 -0.039100 -0.851900 0.551200 -0.870529 -0.000000 0.492117 0.212600 -0.226800 1 0 1.000000 
0 -0.039100 0.851900 0.551200 -0.870529 -0.000000 0.492117 0.789000 -0.226600 1 0 1.000000 
control_button01
0 0.314200 0.851900 0.458900 0.252805 0.000000 0.967517 0.789300 -0.356400 1 0 1.000000 
0 -0.039100 0.851900 0.551200 0.252805 0.000000 0.967517 0.789000 -0.226600 1 0 1.000000 
0 -0.039100 -0.851900 0.551200 0.252805 0.000000 0.967517 0.212600 -0.226800 1 0 1.000000 
control_button01
0 -0.039100 -0.851900 0.551200 0.252805 0.000000 0.967517 0.212600 -0.226800 1 0 1.000000 
0 0.314200 -0.851900 0.458900 0.252805 0.000000 0.967517 0.212900 -0.356600 1 0 1.000000 
0 0.314200 0.851900 0.458900 0.252805 0.000000 0.967517 0.789300 -0.356400 1 0 1.000000 
control_button01
0 0.193200 0.628500 -0.129000 0.967829 0.000000 -0.251608 0.637000 -0.843700 1 0 1.000000 
0 0.193200 -0.628500 -0.129000 0.967829 0.000000 -0.251608 0.211700 -0.843700 1 0 1.000000 
0 0.087600 -0.628500 -0.535500 0.967829 0.000000 -0.251608 0.211400 -0.993000 1 0 1.000000 
control_button01
0 0.087600 -0.628500 -0.535500 0.967829 0.000000 -0.251608 0.211400 -0.993000 1 0 1.000000 
0 0.087600 0.628500 -0.535500 0.967829 0.000000 -0.251608 0.636300 -0.993000 1 0 1.000000 
0 0.193200 0.628500 -0.129000 0.967829 0.000000 -0.251608 0.637000 -0.843700 1 0 1.000000 
control_button01
0 0.314200 -0.851900 0.458900 0.999965 0.000000 0.008400 0.212900 -0.356600 1 0 1.000000 
0 0.319400 -1.013800 -0.161800 0.999965 0.000000 0.008400 0.159700 -0.576900 1 0 1.000000 
0 0.319400 1.013800 -0.161800 0.999965 0.000000 0.008400 0.844900 -0.576900 1 0 1.000000 
control_button01
0 0.319400 1.013800 -0.161800 0.999965 0.000000 0.008400 0.844900 -0.576900 1 0 1.000000 
0 0.314200 0.851900 0.458900 0.999965 0.000000 0.008400 0.789300 -0.356400 1 0 1.000000 
0 0.314200 -0.851900 0.458900 0.999965 0.000000 0.008400 0.212900 -0.356600 1 0 1.000000 
control_button01
0 0.314200 -0.851900 0.458900 0.065696 -0.965446 0.252186 0.212900 -0.356600 1 0 1.000000 
0 -0.039100 -0.851900 0.551200 0.065799 -0.965488 0.251997 0.212600 -0.226800 1 0 1.000000 
0 -0.344600 -1.013800 0.010900 0.065696 -0.965446 0.252186 0.002000 -0.168400 1 0 1.000000 
control_button01
0 -0.344600 -1.013800 0.010900 0.065696 -0.965446 0.252186 0.002000 -0.168400 1 0 1.000000 
0 0.319400 -1.013800 -0.161800 0.065601 -0.965421 0.252306 0.000500 -0.412200 1 0 1.000000 
0 0.314200 -0.851900 0.458900 0.065696 -0.965446 0.252186 0.212900 -0.356600 1 0 1.000000 
control_button01
0 0.193200 -0.628500 -0.129000 0.000000 -1.000000 0.000000 0.212900 -0.356600 1 0 1.000000 
0 -0.218400 -0.628500 -0.021900 0.000000 -1.000000 0.000000 0.212600 -0.226800 1 0 1.000000 
0 -0.324100 -0.628500 -0.428400 0.000000 -1.000000 0.000000 0.002000 -0.168400 1 0 1.000000 
control_button01
0 -0.324100 -0.628500 -0.428400 0.000000 -1.000000 0.000000 0.002000 -0.168400 1 0 1.000000 
0 0.087600 -0.628500 -0.535500 0.000000 -1.000000 0.000000 0.000500 -0.412200 1 0 1.000000 
0 0.193200 -0.628500 -0.129000 0.000000 -1.000000 0.000000 0.212900 -0.356600 1 0 1.000000 
control_button01
0 -0.219500 0.628500 -0.021100 -0.000000 1.000000 0.000000 0.789000 -0.226600 1 0 1.000000 
0 0.193200 0.628500 -0.129000 -0.000000 1.000000 0.000000 0.789300 -0.356400 1 0 1.000000 
0 0.087600 0.628500 -0.535500 -0.000000 1.000000 0.000000 0.997700 -0.415400 1 0 1.000000 
control_button01
0 0.087600 0.628500 -0.535500 -0.000000 1.000000 0.000000 0.997700 -0.415400 1 0 1.000000 
0 -0.325200 0.628500 -0.427600 -0.000000 1.000000 0.000000 0.999500 -0.171600 1 0 1.000000 
0 -0.219500 0.628500 -0.021100 -0.000000 1.000000 0.000000 0.789000 -0.226600 1 0 1.000000 
end
