version 1
nodes
  0 "static_prop" -1
end
skeleton
time 0
0 0.000000 0.000000 0.000000 0.000000 0.000000 0.000000
end
triangles
rockcliff02a
0 -6.482099 -31.501499 30.496700 -0.847130 -0.016801 0.531119 0.367100 -0.600700 1 0 1.000000 
0 5.900599 15.492100 51.733200 -0.847130 -0.016801 0.531119 0.550600 -0.517800 1 0 1.000000 
0 -20.678602 62.339298 10.817900 -0.847130 -0.016801 0.531119 0.733600 -0.677600 1 0 1.000000 
rockcliff02a
0 31.999998 49.294800 -71.422699 -0.000000 0.979917 -0.199404 0.340300 -0.993500 1 0 1.000000 
0 -32.000004 49.294800 -71.422699 -0.000000 0.979917 -0.199404 0.090300 -0.995700 1 0 1.000000 
0 -20.678602 62.339298 10.817900 -0.034302 0.983449 -0.177909 0.131800 -0.674100 1 0 1.000000 
rockcliff02a
0 -20.678602 62.339298 10.817900 -0.034302 0.983449 -0.177909 0.131800 -0.674100 1 0 1.000000 
0 31.999998 63.449699 -1.854000 -0.000000 0.979917 -0.199404 0.338000 -0.721800 1 0 1.000000 
0 31.999998 49.294800 -71.422699 -0.000000 0.979917 -0.199404 0.340300 -0.993500 1 0 1.000000 
rockcliff02a
0 -32.000004 49.294800 -71.422699 0.000000 0.000000 -1.000000 0.708400 -0.836400 1 0 1.000000 
0 31.999998 49.294800 -71.422699 0.000000 0.000000 -1.000000 0.714300 -0.994600 1 0 1.000000 
0 3.890203 -63.449699 -71.428200 0.000100 0.000300 -1.000000 0.260100 -0.993500 1 0 1.000000 
rockcliff02a
0 3.890203 -63.449699 -71.428200 0.000100 0.000300 -1.000000 0.260100 -0.993500 1 0 1.000000 
0 -13.004297 -58.386600 -71.428200 0.000100 0.000300 -1.000000 0.279800 -0.958900 1 0 1.000000 
0 -32.000004 49.294800 -71.422699 0.000000 0.000000 -1.000000 0.708400 -0.836400 1 0 1.000000 
rockcliff02a
0 -8.062799 -33.444698 -19.984100 -0.970804 -0.182901 0.155201 0.359500 -0.797900 1 0 1.000000 
0 -20.678602 62.339298 10.817900 -0.965447 -0.165608 0.201210 0.733600 -0.677600 1 0 1.000000 
0 -32.000004 49.294800 -71.422699 -0.969960 -0.154994 0.187492 0.682700 -0.998900 1 0 1.000000 
rockcliff02a
0 -32.000004 49.294800 -71.422699 -0.969960 -0.154994 0.187492 0.682700 -0.998900 1 0 1.000000 
0 -13.004297 -58.386600 -71.428200 -0.983484 -0.106698 0.146198 0.262000 -0.998900 1 0 1.000000 
0 -8.062799 -33.444698 -19.984100 -0.970804 -0.182901 0.155201 0.359500 -0.797900 1 0 1.000000 
rockcliff02a
0 31.999998 63.449699 -1.854000 0.968733 -0.233308 0.084403 0.747900 -0.721300 1 0 1.000000 
0 7.678901 -36.167599 -20.704500 0.957956 -0.257715 0.126107 0.358700 -0.794900 1 0 1.000000 
0 3.890203 -63.449699 -71.428200 0.968060 -0.244590 0.055098 0.318100 -0.993000 1 0 1.000000 
rockcliff02a
0 3.890203 -63.449699 -71.428200 0.968060 -0.244590 0.055098 0.318100 -0.993000 1 0 1.000000 
0 31.999998 49.294800 -71.422699 0.977123 -0.208405 0.042401 0.692600 -0.993000 1 0 1.000000 
0 31.999998 63.449699 -1.854000 0.968733 -0.233308 0.084403 0.747900 -0.721300 1 0 1.000000 
rockcliff02a
0 -6.482099 -31.501499 30.496700 0.932278 -0.320992 0.166796 0.399000 -0.594900 1 0 1.000000 
0 31.999998 63.449699 -1.854000 0.968733 -0.233308 0.084403 0.747900 -0.721300 1 0 1.000000 
0 5.900599 15.492100 51.733200 0.932278 -0.320992 0.166796 0.560500 -0.511900 1 0 1.000000 
rockcliff02a
0 -13.004297 -58.386600 -71.428200 -0.253003 -0.844009 0.472905 0.520800 -0.997500 1 0 1.000000 
0 3.890203 -63.449699 -71.428200 -0.253003 -0.844009 0.472905 0.624300 -0.994800 1 0 1.000000 
0 7.678901 -36.167599 -20.704500 -0.253003 -0.844009 0.472905 0.639400 -0.683200 1 0 1.000000 
rockcliff02a
0 31.999998 63.449699 -1.854000 -0.000000 0.996182 0.087298 0.338000 -0.721800 1 0 1.000000 
0 -20.678602 62.339298 10.817900 -0.000000 0.996182 0.087298 0.131800 -0.674100 1 0 1.000000 
0 12.267297 59.813599 59.292702 -0.000000 0.998647 0.052002 0.258800 -0.483600 1 0 1.000000 
rockcliff02a
0 12.267297 59.813599 59.292702 0.924273 -0.189295 0.331490 0.733600 -0.482400 1 0 1.000000 
0 1.309999 32.896198 71.428200 0.903014 -0.195003 0.382806 0.628500 -0.435000 1 0 1.000000 
0 5.900599 15.492100 51.733200 0.924273 -0.189295 0.331490 0.560500 -0.511900 1 0 1.000000 
rockcliff02a
0 5.900599 15.492100 51.733200 0.931243 -0.255812 0.259512 0.560500 -0.511900 1 0 1.000000 
0 31.999998 63.449699 -1.854000 0.939887 -0.238397 0.244497 0.747900 -0.721300 1 0 1.000000 
0 12.267297 59.813599 59.292702 0.924273 -0.189295 0.331490 0.733600 -0.482400 1 0 1.000000 
rockcliff02a
0 31.999998 63.449699 -1.854000 0.939887 -0.238397 0.244497 0.747900 -0.721300 1 0 1.000000 
0 -6.482099 -31.501499 30.496700 0.919226 -0.277308 0.279508 0.399000 -0.594900 1 0 1.000000 
0 7.678901 -36.167599 -20.704500 0.920322 -0.317407 0.228605 0.358700 -0.794900 1 0 1.000000 
rockcliff02a
0 -20.678602 62.339298 10.817900 -0.992963 -0.107396 0.049898 0.733600 -0.677600 1 0 1.000000 
0 -8.062799 -33.444698 -19.984100 -0.987794 -0.153099 -0.028700 0.359500 -0.797900 1 0 1.000000 
0 -6.482099 -31.501499 30.496700 -0.989197 -0.142000 0.036400 0.367100 -0.600700 1 0 1.000000 
rockcliff02a
0 -20.678602 62.339298 10.817900 -0.908238 -0.395216 0.137506 0.733600 -0.677600 1 0 1.000000 
0 5.900599 15.492100 51.733200 -0.908238 -0.395216 0.137506 0.550600 -0.517800 1 0 1.000000 
0 1.309999 32.896198 71.428200 -0.908238 -0.395216 0.137506 0.618600 -0.440900 1 0 1.000000 
rockcliff02a
0 1.309999 32.896198 71.428200 -0.698617 0.510412 0.501412 0.618600 -0.440900 1 0 1.000000 
0 12.267297 59.813599 59.292702 -0.698617 0.510412 0.501412 0.723800 -0.488300 1 0 1.000000 
0 -20.678602 62.339298 10.817900 -0.698617 0.510412 0.501412 0.733600 -0.677600 1 0 1.000000 
rockcliff02a
0 7.678901 -36.167599 -20.704500 -0.133104 -0.886728 0.442714 0.639400 -0.683200 1 0 1.000000 
0 -8.062799 -33.444698 -19.984100 -0.133104 -0.886728 0.442714 0.542800 -0.681300 1 0 1.000000 
0 -13.004297 -58.386600 -71.428200 -0.133104 -0.886728 0.442714 0.520800 -0.997500 1 0 1.000000 
rockcliff02a
0 -6.482099 -31.501499 30.496700 -0.168395 -0.984772 0.043199 0.399000 -0.594900 1 0 1.000000 
0 -8.062799 -33.444698 -19.984100 -0.168395 -0.984772 0.043199 0.323300 -0.704800 1 0 1.000000 
0 7.678901 -36.167599 -20.704500 -0.168395 -0.984772 0.043199 0.358700 -0.794900 1 0 1.000000 
end
