version 1
nodes
  0 "static_prop" -1
end
skeleton
time 0
0 0.000000 0.000000 0.000000 0.000000 0.000000 0.000000
end
triangles
plasterwall034a
0 1.120900 3.186400 2.583700 0.495111 0.868620 0.019100 0.153100 -0.952300 1 0 1.000000 
0 2.409900 2.468600 1.810000 0.495111 0.868620 0.019100 0.163100 -0.958300 1 0 1.000000 
0 2.035400 2.735200 -0.605800 0.495111 0.868620 0.019100 0.160200 -0.977200 1 0 1.000000 
plasterwall034a
0 4.919500 -1.830200 -0.176300 0.898026 -0.411012 -0.156904 0.643000 -0.967300 1 0 1.000000 
0 4.257400 -3.413200 -0.036300 0.903989 -0.392995 -0.168398 0.630600 -0.966300 1 0 1.000000 
0 3.797300 -3.224100 -2.947800 0.898026 -0.411012 -0.156904 0.632100 -0.989000 1 0 1.000000 
plasterwall034a
0 3.797300 -3.224100 -2.947800 0.898026 -0.411012 -0.156904 0.632100 -0.989000 1 0 1.000000 
0 4.443800 -1.749600 -3.110600 0.898026 -0.411012 -0.156904 0.643600 -0.990300 1 0 1.000000 
0 4.919500 -1.830200 -0.176300 0.898026 -0.411012 -0.156904 0.643000 -0.967300 1 0 1.000000 
plasterwall034a
0 0.607200 -3.076100 1.946700 -0.108201 -0.807609 0.579707 0.465200 -0.955000 1 0 1.000000 
0 -0.858200 -3.458000 1.141200 -0.108201 -0.807609 0.579707 0.453700 -0.961300 1 0 1.000000 
0 2.210400 -3.859900 1.153900 -0.108201 -0.807609 0.579707 0.477700 -0.961200 1 0 1.000000 
plasterwall034a
0 -0.858200 -3.458000 1.141200 -0.108201 -0.807609 0.579707 0.453700 -0.961300 1 0 1.000000 
0 0.607200 -3.076100 1.946700 -0.108201 -0.807609 0.579707 0.465200 -0.955000 1 0 1.000000 
0 -3.797400 -1.830300 2.840500 -0.109801 -0.805809 0.581907 0.430700 -0.948000 1 0 1.000000 
plasterwall034a
0 0.681200 -4.174000 -2.875800 -0.042700 -0.061400 -0.997199 0.388100 -0.118400 1 0 1.000000 
0 0.866100 -2.606700 -2.980200 -0.042700 -0.061400 -0.997199 0.400400 -0.117000 1 0 1.000000 
0 2.964600 -4.580700 -2.948600 -0.042700 -0.061400 -0.997199 0.384900 -0.100600 1 0 1.000000 
plasterwall034a
0 -1.577800 -3.616000 -2.786600 -0.054201 -0.060002 -0.996726 0.392500 -0.136100 1 0 1.000000 
0 0.866100 -2.606700 -2.980200 -0.042700 -0.061400 -0.997199 0.400400 -0.117000 1 0 1.000000 
0 0.681200 -4.174000 -2.875800 -0.042700 -0.061400 -0.997199 0.388100 -0.118400 1 0 1.000000 
plasterwall034a
0 4.257400 -3.413200 -0.036300 0.477087 -0.122497 0.870277 0.327000 -0.201700 1 0 1.000000 
0 4.038800 -0.824400 0.448100 0.477087 -0.122497 0.870277 0.347300 -0.203400 1 0 1.000000 
0 3.051000 0.100300 1.130100 0.484724 -0.121106 0.866242 0.354500 -0.211100 1 0 1.000000 
plasterwall034a
0 4.257400 -3.413200 -0.036300 0.477087 -0.122497 0.870277 0.327000 -0.201700 1 0 1.000000 
0 4.919500 -1.830200 -0.176300 0.477087 -0.122497 0.870277 0.339400 -0.196500 1 0 1.000000 
0 4.038800 -0.824400 0.448100 0.477087 -0.122497 0.870277 0.347300 -0.203400 1 0 1.000000 
plasterwall034a
0 2.159600 1.850300 -3.260100 0.801704 0.588603 -0.104001 0.161200 -0.997900 1 0 1.000000 
0 2.569200 1.645500 -1.262100 0.801704 0.588603 -0.104001 0.164400 -0.982300 1 0 1.000000 
0 2.977800 0.740900 -3.231700 0.801704 0.588603 -0.104001 0.167600 -0.997700 1 0 1.000000 
plasterwall034a
0 2.159600 1.850300 -3.260100 0.801704 0.588603 -0.104001 0.161200 -0.997900 1 0 1.000000 
0 1.557400 2.618600 -3.351800 0.788898 0.606399 -0.099600 0.156500 -0.998600 1 0 1.000000 
0 2.569200 1.645500 -1.262100 0.801704 0.588603 -0.104001 0.164400 -0.982300 1 0 1.000000 
plasterwall034a
0 1.557400 2.618600 -3.351800 0.462487 0.885175 -0.050699 0.156500 -0.998600 1 0 1.000000 
0 -1.791500 4.577300 0.299400 0.462487 0.885175 -0.050699 0.130300 -0.970100 1 0 1.000000 
0 1.120900 3.186400 2.583700 0.462487 0.885175 -0.050699 0.153100 -0.952300 1 0 1.000000 
plasterwall034a
0 1.557400 2.618600 -3.351800 0.462487 0.885175 -0.050699 0.156500 -0.998600 1 0 1.000000 
0 -2.280000 4.663200 -2.658700 0.462487 0.885175 -0.050699 0.126500 -0.993200 1 0 1.000000 
0 -1.791500 4.577300 0.299400 0.462487 0.885175 -0.050699 0.130300 -0.970100 1 0 1.000000 
plasterwall034a
0 -0.062400 2.889700 3.104400 0.364903 -0.137701 0.920806 0.376300 -0.235400 1 0 1.000000 
0 0.607200 -3.076100 1.946700 0.364903 -0.137701 0.920806 0.329700 -0.230200 1 0 1.000000 
0 2.210400 -3.859900 1.153900 0.385895 -0.133798 0.912788 0.323500 -0.217600 1 0 1.000000 
plasterwall034a
0 -0.062400 2.889700 3.104400 0.364903 -0.137701 0.920806 0.376300 -0.235400 1 0 1.000000 
0 -2.313700 -1.420000 3.351800 0.364903 -0.137701 0.920806 0.342600 -0.253000 1 0 1.000000 
0 0.607200 -3.076100 1.946700 0.364903 -0.137701 0.920806 0.329700 -0.230200 1 0 1.000000 
plasterwall034a
0 -4.142900 -0.525300 2.332800 -0.871520 0.464411 0.157404 0.379100 -0.177200 1 0 1.000000 
0 -2.189800 3.213000 2.118800 -0.871520 0.464411 0.157404 0.408300 -0.175600 1 0 1.000000 
0 -1.791500 4.577300 0.299400 -0.871520 0.464411 0.157404 0.418900 -0.161400 1 0 1.000000 
plasterwall034a
0 -4.142900 -0.525300 2.332800 -0.871520 0.464411 0.157404 0.379100 -0.177200 1 0 1.000000 
0 -1.791500 4.577300 0.299400 -0.871520 0.464411 0.157404 0.418900 -0.161400 1 0 1.000000 
0 -2.280000 4.663200 -2.658700 -0.871520 0.464411 0.157404 0.419600 -0.138200 1 0 1.000000 
plasterwall034a
0 -2.280000 4.663200 -2.658700 -0.871520 0.464411 0.157404 0.419600 -0.138200 1 0 1.000000 
0 -4.919500 -0.388700 -2.369500 -0.871520 0.464411 0.157404 0.380100 -0.140500 1 0 1.000000 
0 -4.142900 -0.525300 2.332800 -0.871520 0.464411 0.157404 0.379100 -0.177200 1 0 1.000000 
plasterwall034a
0 4.257400 -3.413200 -0.036300 0.840409 -0.515806 -0.166302 0.630600 -0.966300 1 0 1.000000 
0 2.964600 -4.580700 -2.948600 0.840409 -0.515806 -0.166302 0.621500 -0.989000 1 0 1.000000 
0 3.797300 -3.224100 -2.947800 0.840409 -0.515806 -0.166302 0.632100 -0.989000 1 0 1.000000 
plasterwall034a
0 4.257400 -3.413200 -0.036300 0.840409 -0.515806 -0.166302 0.630600 -0.966300 1 0 1.000000 
0 3.433700 -4.663200 -0.107900 0.829284 -0.537589 -0.152597 0.620800 -0.966800 1 0 1.000000 
0 2.964600 -4.580700 -2.948600 0.840409 -0.515806 -0.166302 0.621500 -0.989000 1 0 1.000000 
plasterwall034a
0 -0.062400 2.889700 3.104400 -0.376000 0.247700 0.892899 0.376300 -0.235400 1 0 1.000000 
0 -2.189800 3.213000 2.118800 -0.376000 0.247700 0.892899 0.378800 -0.252000 1 0 1.000000 
0 -2.313700 -1.420000 3.351800 -0.376000 0.247700 0.892899 0.342600 -0.253000 1 0 1.000000 
plasterwall034a
0 -2.189800 3.213000 2.118800 -0.376000 0.247700 0.892899 0.378800 -0.252000 1 0 1.000000 
0 -3.797400 -1.830300 2.840500 -0.376205 0.247703 0.892812 0.339400 -0.264600 1 0 1.000000 
0 -2.313700 -1.420000 3.351800 -0.376000 0.247700 0.892899 0.342600 -0.253000 1 0 1.000000 
plasterwall034a
0 -4.142900 -0.525300 2.332800 -0.376291 0.247694 0.892778 0.349600 -0.267300 1 0 1.000000 
0 -3.797400 -1.830300 2.840500 -0.376205 0.247703 0.892812 0.339400 -0.264600 1 0 1.000000 
0 -2.189800 3.213000 2.118800 -0.376000 0.247700 0.892899 0.378800 -0.252000 1 0 1.000000 
plasterwall034a
0 2.210400 -3.859900 1.153900 0.467796 -0.105699 0.877493 0.323500 -0.217600 1 0 1.000000 
0 2.409900 2.468600 1.810000 0.467796 -0.105699 0.877493 0.373000 -0.216100 1 0 1.000000 
0 1.120900 3.186400 2.583700 0.467796 -0.105699 0.877493 0.378600 -0.226200 1 0 1.000000 
plasterwall034a
0 -3.797400 -1.830300 2.840500 -0.385395 -0.878188 0.283296 0.430700 -0.948000 1 0 1.000000 
0 -4.570000 -2.282000 0.389400 -0.385395 -0.878188 0.283296 0.424700 -0.967100 1 0 1.000000 
0 -3.249200 -3.190700 -0.630800 -0.385395 -0.878188 0.283296 0.435000 -0.975100 1 0 1.000000 
plasterwall034a
0 -2.280000 4.663200 -2.658700 -0.118899 0.005300 -0.992892 0.457200 -0.141600 1 0 1.000000 
0 2.977800 0.740900 -3.231700 -0.111495 -0.004300 -0.993756 0.426500 -0.100500 1 0 1.000000 
0 0.866100 -2.606700 -2.980200 -0.111495 -0.004300 -0.993756 0.400400 -0.117000 1 0 1.000000 
plasterwall034a
0 -2.280000 4.663200 -2.658700 -0.082397 0.008400 -0.996564 0.457200 -0.141600 1 0 1.000000 
0 0.866100 -2.606700 -2.980200 -0.111495 -0.004300 -0.993756 0.400400 -0.117000 1 0 1.000000 
0 -1.577800 -3.616000 -2.786600 -0.082397 0.008400 -0.996564 0.392500 -0.136100 1 0 1.000000 
plasterwall034a
0 -1.577800 -3.616000 -2.786600 -0.118899 0.005300 -0.992892 0.392500 -0.136100 1 0 1.000000 
0 -4.919500 -0.388700 -2.369500 -0.118899 0.005300 -0.992892 0.417700 -0.162200 1 0 1.000000 
0 -2.280000 4.663200 -2.658700 -0.118899 0.005300 -0.992892 0.457200 -0.141600 1 0 1.000000 
plasterwall034a
0 -2.280000 4.663200 -2.658700 -0.357384 -0.381782 -0.852361 0.457200 -0.141600 1 0 1.000000 
0 1.557400 2.618600 -3.351800 -0.357384 -0.381782 -0.852361 0.441200 -0.111600 1 0 1.000000 
0 2.159600 1.850300 -3.260100 -0.357384 -0.381782 -0.852361 0.435200 -0.106900 1 0 1.000000 
plasterwall034a
0 -0.062400 2.889700 3.104400 -0.049800 0.912203 0.406701 0.143800 -0.948200 1 0 1.000000 
0 1.120900 3.186400 2.583700 -0.049800 0.912203 0.406701 0.153100 -0.952300 1 0 1.000000 
0 -2.189800 3.213000 2.118800 -0.049800 0.912203 0.406701 0.127200 -0.955900 1 0 1.000000 
plasterwall034a
0 2.210400 -3.859900 1.153900 0.306205 -0.059301 0.950117 0.323500 -0.217600 1 0 1.000000 
0 3.051000 0.100300 1.130100 0.306205 -0.059301 0.950117 0.354500 -0.211100 1 0 1.000000 
0 2.745900 1.174500 1.295500 0.306205 -0.059301 0.950117 0.362900 -0.213500 1 0 1.000000 
plasterwall034a
0 -1.791500 4.577300 0.299400 -0.075997 0.805666 0.587475 0.130300 -0.970100 1 0 1.000000 
0 -2.189800 3.213000 2.118800 -0.075997 0.805666 0.587475 0.127200 -0.955900 1 0 1.000000 
0 1.120900 3.186400 2.583700 -0.075997 0.805666 0.587475 0.153100 -0.952300 1 0 1.000000 
plasterwall034a
0 2.745900 1.174500 1.295500 0.901958 0.431480 0.017199 0.165800 -0.962300 1 0 1.000000 
0 2.569200 1.645500 -1.262100 0.901958 0.431480 0.017199 0.164400 -0.982300 1 0 1.000000 
0 2.035400 2.735200 -0.605800 0.901958 0.431480 0.017199 0.160200 -0.977200 1 0 1.000000 
plasterwall034a
0 2.210400 -3.859900 1.153900 0.424294 -0.116598 0.897986 0.323500 -0.217600 1 0 1.000000 
0 1.120900 3.186400 2.583700 0.424294 -0.116598 0.897986 0.378600 -0.226200 1 0 1.000000 
0 -0.062400 2.889700 3.104400 0.424294 -0.116598 0.897986 0.376300 -0.235400 1 0 1.000000 
plasterwall034a
0 0.681200 -4.174000 -2.875800 -0.241492 -0.937569 -0.250292 0.465700 -0.992600 1 0 1.000000 
0 0.788200 -4.614900 -1.327900 -0.241492 -0.937569 -0.250292 0.466600 -0.980500 1 0 1.000000 
0 -1.577800 -3.616000 -2.786600 -0.241492 -0.937569 -0.250292 0.448100 -0.991900 1 0 1.000000 
plasterwall034a
0 -3.797400 -1.830300 2.840500 -0.939495 -0.124599 0.319098 0.430700 -0.948000 1 0 1.000000 
0 -4.142900 -0.525300 2.332800 -0.939495 -0.124599 0.319098 0.428000 -0.951900 1 0 1.000000 
0 -4.570000 -2.282000 0.389400 -0.939495 -0.124599 0.319098 0.424700 -0.967100 1 0 1.000000 
plasterwall034a
0 1.342300 -4.181500 0.418600 0.157102 -0.969015 0.190603 0.470900 -0.966900 1 0 1.000000 
0 0.788200 -4.614900 -1.327900 0.157102 -0.969015 0.190603 0.466600 -0.980500 1 0 1.000000 
0 2.964600 -4.580700 -2.948600 0.157102 -0.969015 0.190603 0.483600 -0.993200 1 0 1.000000 
plasterwall034a
0 -1.577800 -3.616000 -2.786600 -0.068099 0.058199 -0.995980 0.392500 -0.136100 1 0 1.000000 
0 -4.500800 -1.766900 -2.478700 -0.068099 0.058199 -0.995980 0.406900 -0.158900 1 0 1.000000 
0 -4.919500 -0.388700 -2.369500 -0.068099 0.058199 -0.995980 0.417700 -0.162200 1 0 1.000000 
plasterwall034a
0 0.866100 -2.606700 -2.980200 0.122405 -0.150906 -0.980940 0.400400 -0.117000 1 0 1.000000 
0 2.977800 0.740900 -3.231700 0.122405 -0.150906 -0.980940 0.426500 -0.100500 1 0 1.000000 
0 3.871000 -0.623000 -2.910400 0.122405 -0.150906 -0.980940 0.415900 -0.093500 1 0 1.000000 
plasterwall034a
0 3.433700 -4.663200 -0.107900 -0.081100 -0.874499 0.478199 0.487200 -0.971000 1 0 1.000000 
0 2.210400 -3.859900 1.153900 -0.081100 -0.874499 0.478199 0.477700 -0.961200 1 0 1.000000 
0 1.342300 -4.181500 0.418600 -0.081100 -0.874499 0.478199 0.470900 -0.966900 1 0 1.000000 
plasterwall034a
0 4.443800 -1.749600 -3.110600 -0.011100 -0.104902 -0.994420 0.407100 -0.089000 1 0 1.000000 
0 3.797300 -3.224100 -2.947800 -0.011100 -0.104902 -0.994420 0.395500 -0.094100 1 0 1.000000 
0 0.866100 -2.606700 -2.980200 -0.011100 -0.104902 -0.994420 0.400400 -0.117000 1 0 1.000000 
plasterwall034a
0 4.919500 -1.830200 -0.176300 0.874534 0.467518 -0.128905 0.182800 -0.973800 1 0 1.000000 
0 4.443800 -1.749600 -3.110600 0.874534 0.467518 -0.128905 0.179000 -0.996800 1 0 1.000000 
0 3.871000 -0.623000 -2.910400 0.874534 0.467518 -0.128905 0.174600 -0.995200 1 0 1.000000 
plasterwall034a
0 2.977800 0.740900 -3.231700 0.837482 0.546389 -0.009100 0.167600 -0.997700 1 0 1.000000 
0 4.038800 -0.824400 0.448100 0.837482 0.546389 -0.009100 0.175900 -0.969000 1 0 1.000000 
0 3.871000 -0.623000 -2.910400 0.837482 0.546389 -0.009100 0.174600 -0.995200 1 0 1.000000 
plasterwall034a
0 3.871000 -0.623000 -2.910400 0.752916 0.658114 0.001900 0.174600 -0.995200 1 0 1.000000 
0 4.038800 -0.824400 0.448100 0.752916 0.658114 0.001900 0.175900 -0.969000 1 0 1.000000 
0 4.919500 -1.830200 -0.176300 0.752916 0.658114 0.001900 0.182800 -0.973800 1 0 1.000000 
plasterwall034a
0 4.257400 -3.413200 -0.036300 0.524980 -0.389285 0.756871 0.327000 -0.201700 1 0 1.000000 
0 2.210400 -3.859900 1.153900 0.524980 -0.389285 0.756871 0.323500 -0.217600 1 0 1.000000 
0 3.433700 -4.663200 -0.107900 0.524980 -0.389285 0.756871 0.317300 -0.208100 1 0 1.000000 
plasterwall034a
0 2.977800 0.740900 -3.231700 0.713074 0.695275 0.090097 0.167600 -0.997700 1 0 1.000000 
0 3.051000 0.100300 1.130100 0.713074 0.695275 0.090097 0.168200 -0.963600 1 0 1.000000 
0 4.038800 -0.824400 0.448100 0.713074 0.695275 0.090097 0.175900 -0.969000 1 0 1.000000 
plasterwall034a
0 -2.313700 -1.420000 3.351800 -0.052802 -0.698530 0.713630 0.442300 -0.944000 1 0 1.000000 
0 -3.797400 -1.830300 2.840500 -0.052802 -0.698530 0.713630 0.430700 -0.948000 1 0 1.000000 
0 0.607200 -3.076100 1.946700 -0.052802 -0.698530 0.713630 0.465200 -0.955000 1 0 1.000000 
plasterwall034a
0 3.797300 -3.224100 -2.947800 0.009900 -0.005500 -0.999936 0.395500 -0.094100 1 0 1.000000 
0 2.964600 -4.580700 -2.948600 0.009900 -0.005500 -0.999936 0.384900 -0.100600 1 0 1.000000 
0 0.866100 -2.606700 -2.980200 0.009900 -0.005500 -0.999936 0.400400 -0.117000 1 0 1.000000 
plasterwall034a
0 1.342300 -4.181500 0.418600 -0.113895 -0.853865 0.507879 0.470900 -0.966900 1 0 1.000000 
0 2.210400 -3.859900 1.153900 -0.113895 -0.853865 0.507879 0.477700 -0.961200 1 0 1.000000 
0 -0.858200 -3.458000 1.141200 -0.113895 -0.853865 0.507879 0.453700 -0.961300 1 0 1.000000 
plasterwall034a
0 0.866100 -2.606700 -2.980200 -0.069598 0.140196 -0.987674 0.400400 -0.117000 1 0 1.000000 
0 3.871000 -0.623000 -2.910400 -0.069598 0.140196 -0.987674 0.415900 -0.093500 1 0 1.000000 
0 4.443800 -1.749600 -3.110600 -0.069598 0.140196 -0.987674 0.407100 -0.089000 1 0 1.000000 
plasterwall034a
0 3.051000 0.100300 1.130100 0.516796 -0.104599 0.849694 0.354500 -0.211100 1 0 1.000000 
0 2.210400 -3.859900 1.153900 0.516796 -0.104599 0.849694 0.323500 -0.217600 1 0 1.000000 
0 4.257400 -3.413200 -0.036300 0.516796 -0.104599 0.849694 0.327000 -0.201700 1 0 1.000000 
plasterwall034a
0 1.342300 -4.181500 0.418600 -0.208597 -0.931688 0.297396 0.470900 -0.966900 1 0 1.000000 
0 -0.858200 -3.458000 1.141200 -0.208597 -0.931688 0.297396 0.453700 -0.961300 1 0 1.000000 
0 0.788200 -4.614900 -1.327900 -0.208597 -0.931688 0.297396 0.466600 -0.980500 1 0 1.000000 
plasterwall034a
0 -4.919500 -0.388700 -2.369500 -0.943100 -0.298200 0.147100 0.422000 -0.988700 1 0 1.000000 
0 -4.500800 -1.766900 -2.478700 -0.943100 -0.298200 0.147100 0.425200 -0.989500 1 0 1.000000 
0 -4.142900 -0.525300 2.332800 -0.943100 -0.298200 0.147100 0.428000 -0.951900 1 0 1.000000 
plasterwall034a
0 3.433700 -4.663200 -0.107900 -0.222499 -0.974897 0.008400 0.487200 -0.971000 1 0 1.000000 
0 1.342300 -4.181500 0.418600 -0.222499 -0.974897 0.008400 0.470900 -0.966900 1 0 1.000000 
0 2.964600 -4.580700 -2.948600 -0.222499 -0.974897 0.008400 0.483600 -0.993200 1 0 1.000000 
plasterwall034a
0 -4.570000 -2.282000 0.389400 -0.975484 0.219496 0.015900 0.424700 -0.967100 1 0 1.000000 
0 -4.142900 -0.525300 2.332800 -0.975484 0.219496 0.015900 0.428000 -0.951900 1 0 1.000000 
0 -4.500800 -1.766900 -2.478700 -0.975484 0.219496 0.015900 0.425200 -0.989500 1 0 1.000000 
plasterwall034a
0 -1.577800 -3.616000 -2.786600 -0.446913 -0.886826 0.117504 0.448100 -0.991900 1 0 1.000000 
0 0.788200 -4.614900 -1.327900 -0.446913 -0.886826 0.117504 0.466600 -0.980500 1 0 1.000000 
0 -0.858200 -3.458000 1.141200 -0.446913 -0.886826 0.117504 0.453700 -0.961300 1 0 1.000000 
plasterwall034a
0 1.120900 3.186400 2.583700 0.209406 0.974729 -0.077802 0.153100 -0.952300 1 0 1.000000 
0 2.035400 2.735200 -0.605800 0.209406 0.974729 -0.077802 0.160200 -0.977200 1 0 1.000000 
0 1.557400 2.618600 -3.351800 0.209406 0.974729 -0.077802 0.156500 -0.998600 1 0 1.000000 
plasterwall034a
0 0.681200 -4.174000 -2.875800 -0.177394 -0.949668 -0.258191 0.465700 -0.992600 1 0 1.000000 
0 2.964600 -4.580700 -2.948600 -0.177394 -0.949668 -0.258191 0.483600 -0.993200 1 0 1.000000 
0 0.788200 -4.614900 -1.327900 -0.177394 -0.949668 -0.258191 0.466600 -0.980500 1 0 1.000000 
plasterwall034a
0 -4.500800 -1.766900 -2.478700 -0.535891 -0.804286 -0.256796 0.425200 -0.989500 1 0 1.000000 
0 -1.577800 -3.616000 -2.786600 -0.535891 -0.804286 -0.256796 0.448100 -0.991900 1 0 1.000000 
0 -3.249200 -3.190700 -0.630800 -0.535891 -0.804286 -0.256796 0.435000 -0.975100 1 0 1.000000 
plasterwall034a
0 2.035400 2.735200 -0.605800 0.841416 0.513510 -0.168303 0.160200 -0.977200 1 0 1.000000 
0 2.569200 1.645500 -1.262100 0.841416 0.513510 -0.168303 0.164400 -0.982300 1 0 1.000000 
0 1.557400 2.618600 -3.351800 0.841416 0.513510 -0.168303 0.156500 -0.998600 1 0 1.000000 
plasterwall034a
0 -3.249200 -3.190700 -0.630800 -0.161296 -0.984477 0.069198 0.435000 -0.975100 1 0 1.000000 
0 -1.577800 -3.616000 -2.786600 -0.161296 -0.984477 0.069198 0.448100 -0.991900 1 0 1.000000 
0 -0.858200 -3.458000 1.141200 -0.161296 -0.984477 0.069198 0.453700 -0.961300 1 0 1.000000 
plasterwall034a
0 2.745900 1.174500 1.295500 0.961201 0.275400 -0.015700 0.165800 -0.962300 1 0 1.000000 
0 3.051000 0.100300 1.130100 0.961201 0.275400 -0.015700 0.168200 -0.963600 1 0 1.000000 
0 2.569200 1.645500 -1.262100 0.961201 0.275400 -0.015700 0.164400 -0.982300 1 0 1.000000 
plasterwall034a
0 -0.858200 -3.458000 1.141200 -0.323116 -0.897344 0.300615 0.453700 -0.961300 1 0 1.000000 
0 -3.797400 -1.830300 2.840500 -0.323116 -0.897344 0.300615 0.430700 -0.948000 1 0 1.000000 
0 -3.249200 -3.190700 -0.630800 -0.323116 -0.897344 0.300615 0.435000 -0.975100 1 0 1.000000 
plasterwall034a
0 2.409900 2.468600 1.810000 0.949427 0.292208 -0.114903 0.163100 -0.958300 1 0 1.000000 
0 2.745900 1.174500 1.295500 0.949427 0.292208 -0.114903 0.165800 -0.962300 1 0 1.000000 
0 2.035400 2.735200 -0.605800 0.949427 0.292208 -0.114903 0.160200 -0.977200 1 0 1.000000 
plasterwall034a
0 -3.249200 -3.190700 -0.630800 -0.636897 -0.755997 -0.151099 0.435000 -0.975100 1 0 1.000000 
0 -4.570000 -2.282000 0.389400 -0.636897 -0.755997 -0.151099 0.424700 -0.967100 1 0 1.000000 
0 -4.500800 -1.766900 -2.478700 -0.636897 -0.755997 -0.151099 0.425200 -0.989500 1 0 1.000000 
plasterwall034a
0 2.977800 0.740900 -3.231700 0.937313 0.346705 0.035200 0.167600 -0.997700 1 0 1.000000 
0 2.569200 1.645500 -1.262100 0.937313 0.346705 0.035200 0.164400 -0.982300 1 0 1.000000 
0 3.051000 0.100300 1.130100 0.937313 0.346705 0.035200 0.168200 -0.963600 1 0 1.000000 
plasterwall034a
0 -2.280000 4.663200 -2.658700 -0.267096 -0.220997 -0.937987 0.457200 -0.141600 1 0 1.000000 
0 2.159600 1.850300 -3.260100 -0.267096 -0.220997 -0.937987 0.435200 -0.106900 1 0 1.000000 
0 2.977800 0.740900 -3.231700 -0.267096 -0.220997 -0.937987 0.426500 -0.100500 1 0 1.000000 
plasterwall034a
0 2.210400 -3.859900 1.153900 0.707258 -0.094894 0.700558 0.323500 -0.217600 1 0 1.000000 
0 2.745900 1.174500 1.295500 0.707258 -0.094894 0.700558 0.362900 -0.213500 1 0 1.000000 
0 2.409900 2.468600 1.810000 0.707258 -0.094894 0.700558 0.373000 -0.216100 1 0 1.000000 
end
