version 1
nodes
  0 "static_prop" -1
end
skeleton
time 0
0 0.000000 0.000000 0.000000 0.000000 0.000000 0.000000
end
triangles
iceberg
0 100.161201 82.582504 25.238100 0.886411 -0.146202 -0.439205 0.705200 -0.068400 1 0 1.000000 
0 98.839302 75.220108 25.020000 0.886411 -0.146202 -0.439205 0.676600 -0.073000 1 0 1.000000 
0 96.894402 66.547409 23.980600 0.886411 -0.146202 -0.439205 0.643000 -0.079900 1 0 1.000000 
iceberg
0 73.163193 124.360100 21.210501 0.301092 0.312391 0.900975 0.867400 -0.163000 1 0 1.000000 
0 100.161201 82.582504 25.238100 0.407004 0.206802 0.889708 0.705200 -0.068400 1 0 1.000000 
0 98.519089 104.195305 12.911000 0.638687 0.414492 0.648287 0.789100 -0.074200 1 0 1.000000 
iceberg
0 73.163193 124.360100 21.210501 0.301092 0.312391 0.900975 0.867400 -0.163000 1 0 1.000000 
0 98.519089 104.195305 12.911000 0.638687 0.414492 0.648287 0.789100 -0.074200 1 0 1.000000 
0 81.786789 127.367203 14.673800 0.574807 0.508506 0.641107 0.879100 -0.132800 1 0 1.000000 
iceberg
0 63.162891 134.847900 20.251301 0.198798 0.336696 0.920389 0.908100 -0.198000 1 0 1.000000 
0 73.163193 124.360100 21.210501 0.301092 0.312391 0.900975 0.867400 -0.163000 1 0 1.000000 
0 81.786789 127.367203 14.673800 0.574807 0.508506 0.641107 0.879100 -0.132800 1 0 1.000000 
iceberg
0 81.786789 127.367203 14.673800 0.574807 0.508506 0.641107 0.879100 -0.132800 1 0 1.000000 
0 60.877491 137.060394 19.827499 0.333892 0.608985 0.719482 0.916700 -0.206100 1 0 1.000000 
0 63.162891 134.847900 20.251301 0.198798 0.336696 0.920389 0.908100 -0.198000 1 0 1.000000 
iceberg
0 81.786789 127.367203 14.673800 0.574807 0.508506 0.641107 0.879100 -0.132800 1 0 1.000000 
0 87.346092 132.330307 2.973800 0.597286 0.680484 0.424490 0.898300 -0.113300 1 0 1.000000 
0 60.877491 137.060394 19.827499 0.333892 0.608985 0.719482 0.916700 -0.206100 1 0 1.000000 
iceberg
0 87.346092 132.330307 2.973800 0.597286 0.680484 0.424490 0.898300 -0.113300 1 0 1.000000 
0 81.786789 127.367203 14.673800 0.574807 0.508506 0.641107 0.879100 -0.132800 1 0 1.000000 
0 93.307793 124.423309 2.106000 0.773692 0.542594 0.327097 0.867700 -0.092400 1 0 1.000000 
iceberg
0 93.307793 124.423309 2.106000 0.773692 0.542594 0.327097 0.867700 -0.092400 1 0 1.000000 
0 81.786789 127.367203 14.673800 0.574807 0.508506 0.641107 0.879100 -0.132800 1 0 1.000000 
0 115.501091 93.688705 -0.232200 0.792478 0.439288 0.423088 0.748300 -0.014700 1 0 1.000000 
iceberg
0 98.519089 104.195305 12.911000 0.638687 0.414492 0.648287 0.789100 -0.074200 1 0 1.000000 
0 115.501091 93.688705 -0.232200 0.792478 0.439288 0.423088 0.748300 -0.014700 1 0 1.000000 
0 81.786789 127.367203 14.673800 0.574807 0.508506 0.641107 0.879100 -0.132800 1 0 1.000000 
iceberg
0 98.839302 75.220108 25.020000 0.283813 -0.144407 0.947943 0.676600 -0.073000 1 0 1.000000 
0 100.161201 82.582504 25.238100 0.407004 0.206802 0.889708 0.705200 -0.068400 1 0 1.000000 
0 62.624397 59.541103 33.474201 0.321791 -0.066498 0.944473 0.615800 -0.199900 1 0 1.000000 
iceberg
0 56.635098 73.093300 34.090599 0.188997 0.194197 0.962584 0.668400 -0.220900 1 0 1.000000 
0 62.624397 59.541103 33.474201 0.321791 -0.066498 0.944473 0.615800 -0.199900 1 0 1.000000 
0 100.161201 82.582504 25.238100 0.407004 0.206802 0.889708 0.705200 -0.068400 1 0 1.000000 
iceberg
0 56.635098 73.093300 34.090599 0.188997 0.194197 0.962584 0.668400 -0.220900 1 0 1.000000 
0 100.161201 82.582504 25.238100 0.407004 0.206802 0.889708 0.705200 -0.068400 1 0 1.000000 
0 73.163193 124.360100 21.210501 0.301092 0.312391 0.900975 0.867400 -0.163000 1 0 1.000000 
iceberg
0 35.359398 101.430298 27.377501 0.157206 0.307612 0.938435 0.778400 -0.295500 1 0 1.000000 
0 56.635098 73.093300 34.090599 0.188997 0.194197 0.962584 0.668400 -0.220900 1 0 1.000000 
0 73.163193 124.360100 21.210501 0.301092 0.312391 0.900975 0.867400 -0.163000 1 0 1.000000 
iceberg
0 35.359398 101.430298 27.377501 0.157206 0.307612 0.938435 0.778400 -0.295500 1 0 1.000000 
0 73.163193 124.360100 21.210501 0.301092 0.312391 0.900975 0.867400 -0.163000 1 0 1.000000 
0 63.162891 134.847900 20.251301 0.198798 0.336696 0.920389 0.908100 -0.198000 1 0 1.000000 
iceberg
0 35.359398 101.430298 27.377501 0.157206 0.307612 0.938435 0.778400 -0.295500 1 0 1.000000 
0 63.162891 134.847900 20.251301 0.198798 0.336696 0.920389 0.908100 -0.198000 1 0 1.000000 
0 45.600292 142.696793 18.858000 0.031501 0.447711 0.893623 0.938600 -0.259600 1 0 1.000000 
iceberg
0 45.600292 142.696793 18.858000 0.031501 0.447711 0.893623 0.938600 -0.259600 1 0 1.000000 
0 63.162891 134.847900 20.251301 0.198798 0.336696 0.920389 0.908100 -0.198000 1 0 1.000000 
0 60.877491 137.060394 19.827499 0.333892 0.608985 0.719482 0.916700 -0.206100 1 0 1.000000 
iceberg
0 60.877491 137.060394 19.827499 0.333892 0.608985 0.719482 0.916700 -0.206100 1 0 1.000000 
0 53.667694 149.049103 10.226000 0.212109 0.864535 0.455619 0.963300 -0.231300 1 0 1.000000 
0 45.600292 142.696793 18.858000 0.031501 0.447711 0.893623 0.938600 -0.259600 1 0 1.000000 
iceberg
0 53.667694 149.049103 10.226000 0.212109 0.864535 0.455619 0.963300 -0.231300 1 0 1.000000 
0 60.877491 137.060394 19.827499 0.333892 0.608985 0.719482 0.916700 -0.206100 1 0 1.000000 
0 87.346092 132.330307 2.973800 0.597286 0.680484 0.424490 0.898300 -0.113300 1 0 1.000000 
iceberg
0 87.346092 132.330307 2.973800 0.597286 0.680484 0.424490 0.898300 -0.113300 1 0 1.000000 
0 85.228195 143.845596 -25.750000 0.594509 0.784612 0.175903 0.943100 -0.120700 1 0 1.000000 
0 53.667694 149.049103 10.226000 0.212109 0.864535 0.455619 0.963300 -0.231300 1 0 1.000000 
iceberg
0 87.346092 132.330307 2.973800 0.597286 0.680484 0.424490 0.898300 -0.113300 1 0 1.000000 
0 93.307793 124.423309 2.106000 0.773692 0.542594 0.327097 0.867700 -0.092400 1 0 1.000000 
0 85.228195 143.845596 -25.750000 0.594509 0.784612 0.175903 0.943100 -0.120700 1 0 1.000000 
iceberg
0 93.307793 124.423309 2.106000 0.773692 0.542594 0.327097 0.867700 -0.092400 1 0 1.000000 
0 112.346893 106.694008 -25.749901 0.866708 0.481005 0.132101 0.798800 -0.025700 1 0 1.000000 
0 85.228195 143.845596 -25.750000 0.594509 0.784612 0.175903 0.943100 -0.120700 1 0 1.000000 
iceberg
0 115.501091 93.688705 -0.232200 0.792478 0.439288 0.423088 0.748300 -0.014700 1 0 1.000000 
0 112.346893 106.694008 -25.749901 0.866708 0.481005 0.132101 0.798800 -0.025700 1 0 1.000000 
0 93.307793 124.423309 2.106000 0.773692 0.542594 0.327097 0.867700 -0.092400 1 0 1.000000 
iceberg
0 115.501091 93.688705 -0.232200 0.792478 0.439288 0.423088 0.748300 -0.014700 1 0 1.000000 
0 117.129196 89.822708 -0.538000 0.906105 0.308202 0.289802 0.733300 -0.009000 1 0 1.000000 
0 112.346893 106.694008 -25.749901 0.866708 0.481005 0.132101 0.798800 -0.025700 1 0 1.000000 
iceberg
0 117.129196 89.822708 -0.538000 0.906105 0.308202 0.289802 0.733300 -0.009000 1 0 1.000000 
0 115.501091 93.688705 -0.232200 0.792478 0.439288 0.423088 0.748300 -0.014700 1 0 1.000000 
0 98.519089 104.195305 12.911000 0.638687 0.414492 0.648287 0.789100 -0.074200 1 0 1.000000 
iceberg
0 117.129196 89.822708 -0.538000 0.906105 0.308202 0.289802 0.733300 -0.009000 1 0 1.000000 
0 98.519089 104.195305 12.911000 0.638687 0.414492 0.648287 0.789100 -0.074200 1 0 1.000000 
0 111.536591 87.759209 12.504200 0.633924 0.545321 0.548421 0.725300 -0.028600 1 0 1.000000 
iceberg
0 98.519089 104.195305 12.911000 0.638687 0.414492 0.648287 0.789100 -0.074200 1 0 1.000000 
0 100.161201 82.582504 25.238100 0.407004 0.206802 0.889708 0.705200 -0.068400 1 0 1.000000 
0 111.536591 87.759209 12.504200 0.633924 0.545321 0.548421 0.725300 -0.028600 1 0 1.000000 
iceberg
0 100.161201 82.582504 25.238100 0.407004 0.206802 0.889708 0.705200 -0.068400 1 0 1.000000 
0 114.728798 84.648605 12.262300 0.785944 0.299117 0.541130 0.713200 -0.017400 1 0 1.000000 
0 111.536591 87.759209 12.504200 0.633924 0.545321 0.548421 0.725300 -0.028600 1 0 1.000000 
iceberg
0 106.235199 -10.747995 3.495000 0.933550 -0.133693 0.332582 0.342900 -0.047100 1 0 1.000000 
0 117.129196 89.822708 -0.538000 0.906105 0.308202 0.289802 0.733300 -0.009000 1 0 1.000000 
0 114.728798 84.648605 12.262300 0.785944 0.299117 0.541130 0.713200 -0.017400 1 0 1.000000 
iceberg
0 117.129196 89.822708 -0.538000 0.906105 0.308202 0.289802 0.733300 -0.009000 1 0 1.000000 
0 111.536591 87.759209 12.504200 0.633924 0.545321 0.548421 0.725300 -0.028600 1 0 1.000000 
0 114.728798 84.648605 12.262300 0.785944 0.299117 0.541130 0.713200 -0.017400 1 0 1.000000 
iceberg
0 53.667694 149.049103 10.226000 0.212109 0.864535 0.455619 0.963300 -0.231300 1 0 1.000000 
0 85.228195 143.845596 -25.750000 0.594509 0.784612 0.175903 0.943100 -0.120700 1 0 1.000000 
0 7.856593 158.386703 -20.549801 0.028000 0.991609 0.126201 0.999500 -0.391800 1 0 1.000000 
iceberg
0 103.461197 -27.728197 2.164900 0.932378 -0.284193 0.223395 0.277000 -0.056800 1 0 1.000000 
0 106.460800 -31.161695 -16.421301 0.761198 -0.611598 0.215699 0.263700 -0.046300 1 0 1.000000 
0 119.542389 89.322609 -25.750000 0.997515 0.007900 0.070001 0.731400 -0.000500 1 0 1.000000 
iceberg
0 106.460800 -31.161695 -16.421301 0.761198 -0.611598 0.215699 0.263700 -0.046300 1 0 1.000000 
0 103.461197 -27.728197 2.164900 0.932378 -0.284193 0.223395 0.277000 -0.056800 1 0 1.000000 
0 96.457603 -31.858295 12.187500 0.781109 -0.354204 0.514206 0.261000 -0.081400 1 0 1.000000 
iceberg
0 96.457603 -31.858295 12.187500 0.781109 -0.354204 0.514206 0.261000 -0.081400 1 0 1.000000 
0 103.461197 -27.728197 2.164900 0.932378 -0.284193 0.223395 0.277000 -0.056800 1 0 1.000000 
0 106.235199 -10.747995 3.495000 0.933550 -0.133693 0.332582 0.342900 -0.047100 1 0 1.000000 
iceberg
0 106.235199 -10.747995 3.495000 0.933550 -0.133693 0.332582 0.342900 -0.047100 1 0 1.000000 
0 103.461197 -27.728197 2.164900 0.932378 -0.284193 0.223395 0.277000 -0.056800 1 0 1.000000 
0 119.542389 89.322609 -25.750000 0.997515 0.007900 0.070001 0.731400 -0.000500 1 0 1.000000 
iceberg
0 106.235199 -10.747995 3.495000 0.933550 -0.133693 0.332582 0.342900 -0.047100 1 0 1.000000 
0 119.542389 89.322609 -25.750000 0.997515 0.007900 0.070001 0.731400 -0.000500 1 0 1.000000 
0 117.129196 89.822708 -0.538000 0.906105 0.308202 0.289802 0.733300 -0.009000 1 0 1.000000 
iceberg
0 117.129196 89.822708 -0.538000 0.906105 0.308202 0.289802 0.733300 -0.009000 1 0 1.000000 
0 119.542389 89.322609 -25.750000 0.997515 0.007900 0.070001 0.731400 -0.000500 1 0 1.000000 
0 112.346893 106.694008 -25.749901 0.866708 0.481005 0.132101 0.798800 -0.025700 1 0 1.000000 
iceberg
0 35.359398 101.430298 27.377501 0.157206 0.307612 0.938435 0.778400 -0.295500 1 0 1.000000 
0 8.606793 144.308304 15.842400 0.060398 0.600982 0.796977 0.944800 -0.389200 1 0 1.000000 
0 -0.715806 145.134598 17.416100 0.053201 0.662218 0.747420 0.948100 -0.421900 1 0 1.000000 
iceberg
0 35.359398 101.430298 27.377501 0.157206 0.307612 0.938435 0.778400 -0.295500 1 0 1.000000 
0 45.600292 142.696793 18.858000 0.031501 0.447711 0.893623 0.938600 -0.259600 1 0 1.000000 
0 8.606793 144.308304 15.842400 0.060398 0.600982 0.796977 0.944800 -0.389200 1 0 1.000000 
iceberg
0 45.600292 142.696793 18.858000 0.031501 0.447711 0.893623 0.938600 -0.259600 1 0 1.000000 
0 53.667694 149.049103 10.226000 0.212109 0.864535 0.455619 0.963300 -0.231300 1 0 1.000000 
0 8.606793 144.308304 15.842400 0.060398 0.600982 0.796977 0.944800 -0.389200 1 0 1.000000 
iceberg
0 4.698293 153.368896 6.324200 -0.046801 0.909615 0.412807 0.980000 -0.402900 1 0 1.000000 
0 8.606793 144.308304 15.842400 0.060398 0.600982 0.796977 0.944800 -0.389200 1 0 1.000000 
0 53.667694 149.049103 10.226000 0.212109 0.864535 0.455619 0.963300 -0.231300 1 0 1.000000 
iceberg
0 7.856593 158.386703 -20.549801 0.028000 0.991609 0.126201 0.999500 -0.391800 1 0 1.000000 
0 4.698293 153.368896 6.324200 -0.046801 0.909615 0.412807 0.980000 -0.402900 1 0 1.000000 
0 53.667694 149.049103 10.226000 0.212109 0.864535 0.455619 0.963300 -0.231300 1 0 1.000000 
iceberg
0 -43.284706 150.252396 -26.825500 -0.268994 0.956977 0.108797 0.967900 -0.571000 1 0 1.000000 
0 4.698293 153.368896 6.324200 -0.046801 0.909615 0.412807 0.980000 -0.402900 1 0 1.000000 
0 7.856593 158.386703 -20.549801 0.028000 0.991609 0.126201 0.999500 -0.391800 1 0 1.000000 
iceberg
0 -43.284706 150.252396 -26.825500 -0.268994 0.956977 0.108797 0.967900 -0.571000 1 0 1.000000 
0 -5.627407 151.630997 5.634100 -0.116093 0.927446 0.355479 0.973300 -0.439100 1 0 1.000000 
0 4.698293 153.368896 6.324200 -0.046801 0.909615 0.412807 0.980000 -0.402900 1 0 1.000000 
iceberg
0 -43.284706 150.252396 -26.825500 -0.268994 0.956977 0.108797 0.967900 -0.571000 1 0 1.000000 
0 -40.628407 149.564697 3.758900 -0.340283 0.903754 0.259687 0.965300 -0.561700 1 0 1.000000 
0 -5.627407 151.630997 5.634100 -0.116093 0.927446 0.355479 0.973300 -0.439100 1 0 1.000000 
iceberg
0 -40.628407 149.564697 3.758900 -0.340283 0.903754 0.259687 0.965300 -0.561700 1 0 1.000000 
0 -35.366207 143.089005 15.559600 -0.161598 0.725491 0.668991 0.940100 -0.543300 1 0 1.000000 
0 -5.627407 151.630997 5.634100 -0.116093 0.927446 0.355479 0.973300 -0.439100 1 0 1.000000 
iceberg
0 -45.711506 144.859497 9.279700 -0.481503 0.747805 0.457103 0.947000 -0.579500 1 0 1.000000 
0 -35.366207 143.089005 15.559600 -0.161598 0.725491 0.668991 0.940100 -0.543300 1 0 1.000000 
0 -40.628407 149.564697 3.758900 -0.340283 0.903754 0.259687 0.965300 -0.561700 1 0 1.000000 
iceberg
0 -45.711506 144.859497 9.279700 -0.481503 0.747805 0.457103 0.947000 -0.579500 1 0 1.000000 
0 -40.628407 149.564697 3.758900 -0.340283 0.903754 0.259687 0.965300 -0.561700 1 0 1.000000 
0 -161.176605 53.836391 -33.974400 -0.774084 0.617387 0.140097 0.593600 -0.984100 1 0 1.000000 
iceberg
0 -45.711506 144.859497 9.279700 -0.481503 0.747805 0.457103 0.947000 -0.579500 1 0 1.000000 
0 -161.176605 53.836391 -33.974400 -0.774084 0.617387 0.140097 0.593600 -0.984100 1 0 1.000000 
0 -154.430496 48.676392 5.540600 -0.792840 0.508426 0.336017 0.573600 -0.960500 1 0 1.000000 
iceberg
0 -154.430496 48.676392 5.540600 -0.792840 0.508426 0.336017 0.573600 -0.960500 1 0 1.000000 
0 -161.176605 53.836391 -33.974400 -0.774084 0.617387 0.140097 0.593600 -0.984100 1 0 1.000000 
0 -161.999207 26.386192 -31.233000 -0.980674 0.173095 0.091198 0.487100 -0.987000 1 0 1.000000 
iceberg
0 -40.628407 149.564697 3.758900 -0.340283 0.903754 0.259687 0.965300 -0.561700 1 0 1.000000 
0 -43.284706 150.252396 -26.825500 -0.268994 0.956977 0.108797 0.967900 -0.571000 1 0 1.000000 
0 -161.176605 53.836391 -33.974400 -0.774084 0.617387 0.140097 0.593600 -0.984100 1 0 1.000000 
iceberg
0 -0.715806 145.134598 17.416100 0.053201 0.662218 0.747420 0.948100 -0.421900 1 0 1.000000 
0 -5.627407 151.630997 5.634100 -0.116093 0.927446 0.355479 0.973300 -0.439100 1 0 1.000000 
0 -35.366207 143.089005 15.559600 -0.161598 0.725491 0.668991 0.940100 -0.543300 1 0 1.000000 
iceberg
0 -0.715806 145.134598 17.416100 0.053201 0.662218 0.747420 0.948100 -0.421900 1 0 1.000000 
0 4.698293 153.368896 6.324200 -0.046801 0.909615 0.412807 0.980000 -0.402900 1 0 1.000000 
0 -5.627407 151.630997 5.634100 -0.116093 0.927446 0.355479 0.973300 -0.439100 1 0 1.000000 
iceberg
0 -0.715806 145.134598 17.416100 0.053201 0.662218 0.747420 0.948100 -0.421900 1 0 1.000000 
0 8.606793 144.308304 15.842400 0.060398 0.600982 0.796977 0.944800 -0.389200 1 0 1.000000 
0 4.698293 153.368896 6.324200 -0.046801 0.909615 0.412807 0.980000 -0.402900 1 0 1.000000 
iceberg
0 -156.947601 -42.062008 -29.149099 -0.604105 -0.716806 0.348203 0.221400 -0.969300 1 0 1.000000 
0 -98.206398 -59.643402 20.296101 -0.300092 -0.839977 0.452088 0.153100 -0.763500 1 0 1.000000 
0 -114.426003 -46.010403 33.449799 -0.521800 -0.599800 0.606600 0.206000 -0.820300 1 0 1.000000 
iceberg
0 -156.947601 -42.062008 -29.149099 -0.604105 -0.716806 0.348203 0.221400 -0.969300 1 0 1.000000 
0 -114.426003 -46.010403 33.449799 -0.521800 -0.599800 0.606600 0.206000 -0.820300 1 0 1.000000 
0 -162.227295 -28.429108 -29.662300 -0.810345 -0.477168 0.340077 0.274300 -0.987800 1 0 1.000000 
iceberg
0 -156.642105 -19.851208 9.715900 -0.825063 -0.433781 0.362084 0.307600 -0.968200 1 0 1.000000 
0 -162.227295 -28.429108 -29.662300 -0.810345 -0.477168 0.340077 0.274300 -0.987800 1 0 1.000000 
0 -114.426003 -46.010403 33.449799 -0.521800 -0.599800 0.606600 0.206000 -0.820300 1 0 1.000000 
iceberg
0 -156.642105 -19.851208 9.715900 -0.825063 -0.433781 0.362084 0.307600 -0.968200 1 0 1.000000 
0 -165.147003 -20.092707 -29.441000 -0.967391 -0.187398 0.170398 0.306600 -0.998000 1 0 1.000000 
0 -162.227295 -28.429108 -29.662300 -0.810345 -0.477168 0.340077 0.274300 -0.987800 1 0 1.000000 
iceberg
0 -165.147003 -20.092707 -29.441000 -0.967391 -0.187398 0.170398 0.306600 -0.998000 1 0 1.000000 
0 -156.642105 -19.851208 9.715900 -0.825063 -0.433781 0.362084 0.307600 -0.968200 1 0 1.000000 
0 -161.634705 5.583593 12.392800 -0.936705 -0.049500 0.346602 0.406300 -0.985700 1 0 1.000000 
iceberg
0 -165.147003 -20.092707 -29.441000 -0.967391 -0.187398 0.170398 0.306600 -0.998000 1 0 1.000000 
0 -161.634705 5.583593 12.392800 -0.936705 -0.049500 0.346602 0.406300 -0.985700 1 0 1.000000 
0 -165.573807 5.341793 -28.929501 -0.989290 0.111999 0.093599 0.405400 -0.999500 1 0 1.000000 
iceberg
0 -165.573807 5.341793 -28.929501 -0.989290 0.111999 0.093599 0.405400 -0.999500 1 0 1.000000 
0 -161.634705 5.583593 12.392800 -0.936705 -0.049500 0.346602 0.406300 -0.985700 1 0 1.000000 
0 -158.059601 26.628092 10.093900 -0.936118 0.182204 0.300806 0.488000 -0.973200 1 0 1.000000 
iceberg
0 -165.573807 5.341793 -28.929501 -0.989290 0.111999 0.093599 0.405400 -0.999500 1 0 1.000000 
0 -158.059601 26.628092 10.093900 -0.936118 0.182204 0.300806 0.488000 -0.973200 1 0 1.000000 
0 -161.999207 26.386192 -31.233000 -0.980674 0.173095 0.091198 0.487100 -0.987000 1 0 1.000000 
iceberg
0 -155.412201 45.721691 7.992600 -0.799060 0.352782 0.486876 0.562100 -0.963900 1 0 1.000000 
0 -161.999207 26.386192 -31.233000 -0.980674 0.173095 0.091198 0.487100 -0.987000 1 0 1.000000 
0 -158.059601 26.628092 10.093900 -0.936118 0.182204 0.300806 0.488000 -0.973200 1 0 1.000000 
iceberg
0 -155.412201 45.721691 7.992600 -0.799060 0.352782 0.486876 0.562100 -0.963900 1 0 1.000000 
0 -154.430496 48.676392 5.540600 -0.792840 0.508426 0.336017 0.573600 -0.960500 1 0 1.000000 
0 -161.999207 26.386192 -31.233000 -0.980674 0.173095 0.091198 0.487100 -0.987000 1 0 1.000000 
iceberg
0 -155.412201 45.721691 7.992600 -0.799060 0.352782 0.486876 0.562100 -0.963900 1 0 1.000000 
0 -149.015503 46.215191 13.104300 -0.448078 0.583671 0.677166 0.564000 -0.941500 1 0 1.000000 
0 -154.430496 48.676392 5.540600 -0.792840 0.508426 0.336017 0.573600 -0.960500 1 0 1.000000 
iceberg
0 -154.430496 48.676392 5.540600 -0.792840 0.508426 0.336017 0.573600 -0.960500 1 0 1.000000 
0 -149.015503 46.215191 13.104300 -0.448078 0.583671 0.677166 0.564000 -0.941500 1 0 1.000000 
0 -45.711506 144.859497 9.279700 -0.481503 0.747805 0.457103 0.947000 -0.579500 1 0 1.000000 
iceberg
0 -43.570107 142.819595 12.856600 -0.346421 0.503431 0.791549 0.939100 -0.572000 1 0 1.000000 
0 -45.711506 144.859497 9.279700 -0.481503 0.747805 0.457103 0.947000 -0.579500 1 0 1.000000 
0 -149.015503 46.215191 13.104300 -0.448078 0.583671 0.677166 0.564000 -0.941500 1 0 1.000000 
iceberg
0 -45.711506 144.859497 9.279700 -0.481503 0.747805 0.457103 0.947000 -0.579500 1 0 1.000000 
0 -43.570107 142.819595 12.856600 -0.346421 0.503431 0.791549 0.939100 -0.572000 1 0 1.000000 
0 -35.366207 143.089005 15.559600 -0.161598 0.725491 0.668991 0.940100 -0.543300 1 0 1.000000 
iceberg
0 -43.570107 142.819595 12.856600 -0.346421 0.503431 0.791549 0.939100 -0.572000 1 0 1.000000 
0 -17.931606 119.176804 31.212700 -0.137893 0.294184 0.945749 0.847300 -0.482200 1 0 1.000000 
0 -35.366207 143.089005 15.559600 -0.161598 0.725491 0.668991 0.940100 -0.543300 1 0 1.000000 
iceberg
0 -0.715806 145.134598 17.416100 0.053201 0.662218 0.747420 0.948100 -0.421900 1 0 1.000000 
0 -35.366207 143.089005 15.559600 -0.161598 0.725491 0.668991 0.940100 -0.543300 1 0 1.000000 
0 -17.931606 119.176804 31.212700 -0.137893 0.294184 0.945749 0.847300 -0.482200 1 0 1.000000 
iceberg
0 -0.715806 145.134598 17.416100 0.053201 0.662218 0.747420 0.948100 -0.421900 1 0 1.000000 
0 -17.931606 119.176804 31.212700 -0.137893 0.294184 0.945749 0.847300 -0.482200 1 0 1.000000 
0 2.933495 122.908501 32.667599 0.024701 0.246507 0.968826 0.861800 -0.409100 1 0 1.000000 
iceberg
0 35.359398 101.430298 27.377501 0.157206 0.307612 0.938435 0.778400 -0.295500 1 0 1.000000 
0 -0.715806 145.134598 17.416100 0.053201 0.662218 0.747420 0.948100 -0.421900 1 0 1.000000 
0 2.933495 122.908501 32.667599 0.024701 0.246507 0.968826 0.861800 -0.409100 1 0 1.000000 
iceberg
0 -158.059601 26.628092 10.093900 -0.936118 0.182204 0.300806 0.488000 -0.973200 1 0 1.000000 
0 -156.920303 26.470892 12.104100 -0.751053 0.195088 0.630761 0.487400 -0.969200 1 0 1.000000 
0 -155.412201 45.721691 7.992600 -0.799060 0.352782 0.486876 0.562100 -0.963900 1 0 1.000000 
iceberg
0 -13.983599 -18.805099 30.346201 0.001600 -0.082698 0.996573 0.311600 -0.468400 1 0 1.000000 
0 -87.186401 11.250997 49.330898 0.017901 0.144506 0.989342 0.428300 -0.724800 1 0 1.000000 
0 -86.759598 -14.183504 48.819500 0.007100 -0.142202 0.989812 0.329600 -0.723300 1 0 1.000000 
iceberg
0 -86.759598 -14.183504 48.819500 0.007100 -0.142202 0.989812 0.329600 -0.723300 1 0 1.000000 
0 -87.186401 11.250997 49.330898 0.017901 0.144506 0.989342 0.428300 -0.724800 1 0 1.000000 
0 -116.611900 11.355895 42.097198 -0.311090 0.014600 0.950268 0.428700 -0.827900 1 0 1.000000 
iceberg
0 -106.189003 23.827097 42.397900 -0.085102 0.401907 0.911717 0.477100 -0.791400 1 0 1.000000 
0 -116.611900 11.355895 42.097198 -0.311090 0.014600 0.950268 0.428700 -0.827900 1 0 1.000000 
0 -87.186401 11.250997 49.330898 0.017901 0.144506 0.989342 0.428300 -0.724800 1 0 1.000000 
iceberg
0 -106.189003 23.827097 42.397900 -0.085102 0.401907 0.911717 0.477100 -0.791400 1 0 1.000000 
0 -126.121101 20.802395 39.643299 -0.467789 0.242294 0.849980 0.465400 -0.861300 1 0 1.000000 
0 -116.611900 11.355895 42.097198 -0.311090 0.014600 0.950268 0.428700 -0.827900 1 0 1.000000 
iceberg
0 -126.121101 20.802395 39.643299 -0.467789 0.242294 0.849980 0.465400 -0.861300 1 0 1.000000 
0 -106.189003 23.827097 42.397900 -0.085102 0.401907 0.911717 0.477100 -0.791400 1 0 1.000000 
0 -105.979797 29.140797 37.468899 -0.187504 0.476911 0.858719 0.497800 -0.790700 1 0 1.000000 
iceberg
0 -126.121101 20.802395 39.643299 -0.467789 0.242294 0.849980 0.465400 -0.861300 1 0 1.000000 
0 -105.979797 29.140797 37.468899 -0.187504 0.476911 0.858719 0.497800 -0.790700 1 0 1.000000 
0 -150.343002 45.249893 13.294300 -0.433810 0.512112 0.741317 0.560300 -0.946100 1 0 1.000000 
iceberg
0 -150.343002 45.249893 13.294300 -0.433810 0.512112 0.741317 0.560300 -0.946100 1 0 1.000000 
0 -105.979797 29.140797 37.468899 -0.187504 0.476911 0.858719 0.497800 -0.790700 1 0 1.000000 
0 -149.015503 46.215191 13.104300 -0.448078 0.583671 0.677166 0.564000 -0.941500 1 0 1.000000 
iceberg
0 -155.412201 45.721691 7.992600 -0.799060 0.352782 0.486876 0.562100 -0.963900 1 0 1.000000 
0 -150.343002 45.249893 13.294300 -0.433810 0.512112 0.741317 0.560300 -0.946100 1 0 1.000000 
0 -149.015503 46.215191 13.104300 -0.448078 0.583671 0.677166 0.564000 -0.941500 1 0 1.000000 
iceberg
0 -126.121101 20.802395 39.643299 -0.467789 0.242294 0.849980 0.465400 -0.861300 1 0 1.000000 
0 -150.343002 45.249893 13.294300 -0.433810 0.512112 0.741317 0.560300 -0.946100 1 0 1.000000 
0 -155.412201 45.721691 7.992600 -0.799060 0.352782 0.486876 0.562100 -0.963900 1 0 1.000000 
iceberg
0 -126.121101 20.802395 39.643299 -0.467789 0.242294 0.849980 0.465400 -0.861300 1 0 1.000000 
0 -155.412201 45.721691 7.992600 -0.799060 0.352782 0.486876 0.562100 -0.963900 1 0 1.000000 
0 -156.920303 26.470892 12.104100 -0.751053 0.195088 0.630761 0.487400 -0.969200 1 0 1.000000 
iceberg
0 -126.121101 20.802395 39.643299 -0.467789 0.242294 0.849980 0.465400 -0.861300 1 0 1.000000 
0 -156.920303 26.470892 12.104100 -0.751053 0.195088 0.630761 0.487400 -0.969200 1 0 1.000000 
0 -160.392395 6.020893 14.343600 -0.708979 -0.008500 0.705179 0.408000 -0.981300 1 0 1.000000 
iceberg
0 -156.920303 26.470892 12.104100 -0.751053 0.195088 0.630761 0.487400 -0.969200 1 0 1.000000 
0 -158.059601 26.628092 10.093900 -0.936118 0.182204 0.300806 0.488000 -0.973200 1 0 1.000000 
0 -160.392395 6.020893 14.343600 -0.708979 -0.008500 0.705179 0.408000 -0.981300 1 0 1.000000 
iceberg
0 -161.634705 5.583593 12.392800 -0.936705 -0.049500 0.346602 0.406300 -0.985700 1 0 1.000000 
0 -160.392395 6.020893 14.343600 -0.708979 -0.008500 0.705179 0.408000 -0.981300 1 0 1.000000 
0 -158.059601 26.628092 10.093900 -0.936118 0.182204 0.300806 0.488000 -0.973200 1 0 1.000000 
iceberg
0 -160.392395 6.020893 14.343600 -0.708979 -0.008500 0.705179 0.408000 -0.981300 1 0 1.000000 
0 -161.634705 5.583593 12.392800 -0.936705 -0.049500 0.346602 0.406300 -0.985700 1 0 1.000000 
0 -155.392593 -19.378008 11.761900 -0.683133 -0.298214 0.666632 0.309400 -0.963800 1 0 1.000000 
iceberg
0 -156.642105 -19.851208 9.715900 -0.825063 -0.433781 0.362084 0.307600 -0.968200 1 0 1.000000 
0 -155.392593 -19.378008 11.761900 -0.683133 -0.298214 0.666632 0.309400 -0.963800 1 0 1.000000 
0 -161.634705 5.583593 12.392800 -0.936705 -0.049500 0.346602 0.406300 -0.985700 1 0 1.000000 
iceberg
0 -155.392593 -19.378008 11.761900 -0.683133 -0.298214 0.666632 0.309400 -0.963800 1 0 1.000000 
0 -156.642105 -19.851208 9.715900 -0.825063 -0.433781 0.362084 0.307600 -0.968200 1 0 1.000000 
0 -114.426003 -46.010403 33.449799 -0.521800 -0.599800 0.606600 0.206000 -0.820300 1 0 1.000000 
iceberg
0 -110.360802 -28.093105 42.842098 -0.282396 -0.274496 0.919187 0.275600 -0.806000 1 0 1.000000 
0 -155.392593 -19.378008 11.761900 -0.683133 -0.298214 0.666632 0.309400 -0.963800 1 0 1.000000 
0 -114.426003 -46.010403 33.449799 -0.521800 -0.599800 0.606600 0.206000 -0.820300 1 0 1.000000 
iceberg
0 -85.177101 -40.028706 42.486301 -0.035702 -0.502324 0.863942 0.229200 -0.717800 1 0 1.000000 
0 -110.360802 -28.093105 42.842098 -0.282396 -0.274496 0.919187 0.275600 -0.806000 1 0 1.000000 
0 -114.426003 -46.010403 33.449799 -0.521800 -0.599800 0.606600 0.206000 -0.820300 1 0 1.000000 
iceberg
0 -86.759598 -14.183504 48.819500 0.007100 -0.142202 0.989812 0.329600 -0.723300 1 0 1.000000 
0 -116.611900 11.355895 42.097198 -0.311090 0.014600 0.950268 0.428700 -0.827900 1 0 1.000000 
0 -116.185097 -14.078505 43.820301 -0.426505 -0.107201 0.898110 0.330000 -0.826500 1 0 1.000000 
iceberg
0 -126.121101 20.802395 39.643299 -0.467789 0.242294 0.849980 0.465400 -0.861300 1 0 1.000000 
0 -160.392395 6.020893 14.343600 -0.708979 -0.008500 0.705179 0.408000 -0.981300 1 0 1.000000 
0 -116.611900 11.355895 42.097198 -0.311090 0.014600 0.950268 0.428700 -0.827900 1 0 1.000000 
iceberg
0 -160.392395 6.020893 14.343600 -0.708979 -0.008500 0.705179 0.408000 -0.981300 1 0 1.000000 
0 -116.185097 -14.078505 43.820301 -0.426505 -0.107201 0.898110 0.330000 -0.826500 1 0 1.000000 
0 -116.611900 11.355895 42.097198 -0.311090 0.014600 0.950268 0.428700 -0.827900 1 0 1.000000 
iceberg
0 -160.392395 6.020893 14.343600 -0.708979 -0.008500 0.705179 0.408000 -0.981300 1 0 1.000000 
0 -155.392593 -19.378008 11.761900 -0.683133 -0.298214 0.666632 0.309400 -0.963800 1 0 1.000000 
0 -116.185097 -14.078505 43.820301 -0.426505 -0.107201 0.898110 0.330000 -0.826500 1 0 1.000000 
iceberg
0 -110.360802 -28.093105 42.842098 -0.282396 -0.274496 0.919187 0.275600 -0.806000 1 0 1.000000 
0 -116.185097 -14.078505 43.820301 -0.426505 -0.107201 0.898110 0.330000 -0.826500 1 0 1.000000 
0 -155.392593 -19.378008 11.761900 -0.683133 -0.298214 0.666632 0.309400 -0.963800 1 0 1.000000 
iceberg
0 -110.360802 -28.093105 42.842098 -0.282396 -0.274496 0.919187 0.275600 -0.806000 1 0 1.000000 
0 -86.759598 -14.183504 48.819500 0.007100 -0.142202 0.989812 0.329600 -0.723300 1 0 1.000000 
0 -116.185097 -14.078505 43.820301 -0.426505 -0.107201 0.898110 0.330000 -0.826500 1 0 1.000000 
iceberg
0 -110.360802 -28.093105 42.842098 -0.282396 -0.274496 0.919187 0.275600 -0.806000 1 0 1.000000 
0 -85.568298 -28.125004 44.361000 0.123297 -0.215095 0.968778 0.275500 -0.719200 1 0 1.000000 
0 -86.759598 -14.183504 48.819500 0.007100 -0.142202 0.989812 0.329600 -0.723300 1 0 1.000000 
iceberg
0 -86.759598 -14.183504 48.819500 0.007100 -0.142202 0.989812 0.329600 -0.723300 1 0 1.000000 
0 -85.568298 -28.125004 44.361000 0.123297 -0.215095 0.968778 0.275500 -0.719200 1 0 1.000000 
0 -17.156199 -46.048401 23.438999 0.104995 -0.254888 0.961253 0.205900 -0.479500 1 0 1.000000 
iceberg
0 -85.177101 -40.028706 42.486301 -0.035702 -0.502324 0.863942 0.229200 -0.717800 1 0 1.000000 
0 -85.568298 -28.125004 44.361000 0.123297 -0.215095 0.968778 0.275500 -0.719200 1 0 1.000000 
0 -110.360802 -28.093105 42.842098 -0.282396 -0.274496 0.919187 0.275600 -0.806000 1 0 1.000000 
iceberg
0 -85.568298 -28.125004 44.361000 0.123297 -0.215095 0.968778 0.275500 -0.719200 1 0 1.000000 
0 -85.177101 -40.028706 42.486301 -0.035702 -0.502324 0.863942 0.229200 -0.717800 1 0 1.000000 
0 -21.713495 -73.080200 19.730000 0.146805 -0.349313 0.925434 0.100900 -0.495400 1 0 1.000000 
iceberg
0 -85.568298 -28.125004 44.361000 0.123297 -0.215095 0.968778 0.275500 -0.719200 1 0 1.000000 
0 -21.713495 -73.080200 19.730000 0.146805 -0.349313 0.925434 0.100900 -0.495400 1 0 1.000000 
0 -17.156199 -46.048401 23.438999 0.104995 -0.254888 0.961253 0.205900 -0.479500 1 0 1.000000 
iceberg
0 14.780302 -41.352501 22.606899 -0.001300 -0.352416 0.935842 0.224100 -0.367600 1 0 1.000000 
0 -17.156199 -46.048401 23.438999 0.104995 -0.254888 0.961253 0.205900 -0.479500 1 0 1.000000 
0 -21.713495 -73.080200 19.730000 0.146805 -0.349313 0.925434 0.100900 -0.495400 1 0 1.000000 
iceberg
0 14.780302 -41.352501 22.606899 -0.001300 -0.352416 0.935842 0.224100 -0.367600 1 0 1.000000 
0 -21.713495 -73.080200 19.730000 0.146805 -0.349313 0.925434 0.100900 -0.495400 1 0 1.000000 
0 14.974603 -68.360802 14.763900 0.190598 -0.420196 0.887191 0.119300 -0.366900 1 0 1.000000 
iceberg
0 29.037205 -68.565102 10.433200 0.174809 -0.709638 0.682536 0.118500 -0.317600 1 0 1.000000 
0 14.780302 -41.352501 22.606899 -0.001300 -0.352416 0.935842 0.224100 -0.367600 1 0 1.000000 
0 14.974603 -68.360802 14.763900 0.190598 -0.420196 0.887191 0.119300 -0.366900 1 0 1.000000 
iceberg
0 29.037205 -68.565102 10.433200 0.174809 -0.709638 0.682536 0.118500 -0.317600 1 0 1.000000 
0 14.974603 -68.360802 14.763900 0.190598 -0.420196 0.887191 0.119300 -0.366900 1 0 1.000000 
0 17.491003 -79.951500 8.489300 0.357299 -0.751798 0.554199 0.074300 -0.358100 1 0 1.000000 
iceberg
0 -23.321396 -89.933296 5.447500 0.074298 -0.732979 0.676181 0.035500 -0.501100 1 0 1.000000 
0 17.491003 -79.951500 8.489300 0.357299 -0.751798 0.554199 0.074300 -0.358100 1 0 1.000000 
0 14.974603 -68.360802 14.763900 0.190598 -0.420196 0.887191 0.119300 -0.366900 1 0 1.000000 
iceberg
0 -23.321396 -89.933296 5.447500 0.074298 -0.732979 0.676181 0.035500 -0.501100 1 0 1.000000 
0 14.974603 -68.360802 14.763900 0.190598 -0.420196 0.887191 0.119300 -0.366900 1 0 1.000000 
0 -21.713495 -73.080200 19.730000 0.146805 -0.349313 0.925434 0.100900 -0.495400 1 0 1.000000 
iceberg
0 -85.177101 -40.028706 42.486301 -0.035702 -0.502324 0.863942 0.229200 -0.717800 1 0 1.000000 
0 -23.321396 -89.933296 5.447500 0.074298 -0.732979 0.676181 0.035500 -0.501100 1 0 1.000000 
0 -21.713495 -73.080200 19.730000 0.146805 -0.349313 0.925434 0.100900 -0.495400 1 0 1.000000 
iceberg
0 100.161201 82.582504 25.238100 0.407004 0.206802 0.889708 0.705200 -0.068400 1 0 1.000000 
0 107.520302 78.635208 21.813200 0.710295 0.031600 0.703195 0.689900 -0.042600 1 0 1.000000 
0 114.728798 84.648605 12.262300 0.785944 0.299117 0.541130 0.713200 -0.017400 1 0 1.000000 
iceberg
0 114.728798 84.648605 12.262300 0.785944 0.299117 0.541130 0.713200 -0.017400 1 0 1.000000 
0 107.520302 78.635208 21.813200 0.710295 0.031600 0.703195 0.689900 -0.042600 1 0 1.000000 
0 106.235199 -10.747995 3.495000 0.933550 -0.133693 0.332582 0.342900 -0.047100 1 0 1.000000 
iceberg
0 105.134003 51.571606 20.120199 0.546123 -0.120905 0.828934 0.584800 -0.051000 1 0 1.000000 
0 106.235199 -10.747995 3.495000 0.933550 -0.133693 0.332582 0.342900 -0.047100 1 0 1.000000 
0 107.520302 78.635208 21.813200 0.710295 0.031600 0.703195 0.689900 -0.042600 1 0 1.000000 
iceberg
0 96.457603 -31.858295 12.187500 0.781109 -0.354204 0.514206 0.261000 -0.081400 1 0 1.000000 
0 106.235199 -10.747995 3.495000 0.933550 -0.133693 0.332582 0.342900 -0.047100 1 0 1.000000 
0 105.134003 51.571606 20.120199 0.546123 -0.120905 0.828934 0.584800 -0.051000 1 0 1.000000 
iceberg
0 88.000000 -41.816597 15.901200 0.540210 -0.406907 0.736613 0.222300 -0.111000 1 0 1.000000 
0 96.457603 -31.858295 12.187500 0.781109 -0.354204 0.514206 0.261000 -0.081400 1 0 1.000000 
0 105.134003 51.571606 20.120199 0.546123 -0.120905 0.828934 0.584800 -0.051000 1 0 1.000000 
iceberg
0 106.460800 -31.161695 -16.421301 0.761198 -0.611598 0.215699 0.263700 -0.046300 1 0 1.000000 
0 96.457603 -31.858295 12.187500 0.781109 -0.354204 0.514206 0.261000 -0.081400 1 0 1.000000 
0 88.000000 -41.816597 15.901200 0.540210 -0.406907 0.736613 0.222300 -0.111000 1 0 1.000000 
iceberg
0 106.460800 -31.161695 -16.421301 0.761198 -0.611598 0.215699 0.263700 -0.046300 1 0 1.000000 
0 88.000000 -41.816597 15.901200 0.540210 -0.406907 0.736613 0.222300 -0.111000 1 0 1.000000 
0 54.407005 -60.280598 17.319599 0.376796 -0.820392 0.430096 0.150600 -0.228700 1 0 1.000000 
iceberg
0 106.460800 -31.161695 -16.421301 0.761198 -0.611598 0.215699 0.263700 -0.046300 1 0 1.000000 
0 54.407005 -60.280598 17.319599 0.376796 -0.820392 0.430096 0.150600 -0.228700 1 0 1.000000 
0 66.510300 -64.190903 -11.221100 0.384412 -0.875928 0.291509 0.135400 -0.186300 1 0 1.000000 
iceberg
0 66.510300 -64.190903 -11.221100 0.384412 -0.875928 0.291509 0.135400 -0.186300 1 0 1.000000 
0 54.407005 -60.280598 17.319599 0.376796 -0.820392 0.430096 0.150600 -0.228700 1 0 1.000000 
0 29.037205 -68.565102 10.433200 0.174809 -0.709638 0.682536 0.118500 -0.317600 1 0 1.000000 
iceberg
0 66.510300 -64.190903 -11.221100 0.384412 -0.875928 0.291509 0.135400 -0.186300 1 0 1.000000 
0 29.037205 -68.565102 10.433200 0.174809 -0.709638 0.682536 0.118500 -0.317600 1 0 1.000000 
0 34.829903 -74.526604 -16.421301 0.527313 -0.798719 0.289807 0.095300 -0.297300 1 0 1.000000 
iceberg
0 17.491003 -79.951500 8.489300 0.357299 -0.751798 0.554199 0.074300 -0.358100 1 0 1.000000 
0 34.829903 -74.526604 -16.421301 0.527313 -0.798719 0.289807 0.095300 -0.297300 1 0 1.000000 
0 29.037205 -68.565102 10.433200 0.174809 -0.709638 0.682536 0.118500 -0.317600 1 0 1.000000 
iceberg
0 17.491003 -79.951500 8.489300 0.357299 -0.751798 0.554199 0.074300 -0.358100 1 0 1.000000 
0 17.458405 -90.383301 -16.761101 0.417507 -0.840013 0.346505 0.033800 -0.358200 1 0 1.000000 
0 34.829903 -74.526604 -16.421301 0.527313 -0.798719 0.289807 0.095300 -0.297300 1 0 1.000000 
iceberg
0 -24.972696 -98.952698 -19.035101 0.090797 -0.933872 0.345889 0.000500 -0.506900 1 0 1.000000 
0 17.458405 -90.383301 -16.761101 0.417507 -0.840013 0.346505 0.033800 -0.358200 1 0 1.000000 
0 17.491003 -79.951500 8.489300 0.357299 -0.751798 0.554199 0.074300 -0.358100 1 0 1.000000 
iceberg
0 -24.972696 -98.952698 -19.035101 0.090797 -0.933872 0.345889 0.000500 -0.506900 1 0 1.000000 
0 17.491003 -79.951500 8.489300 0.357299 -0.751798 0.554199 0.074300 -0.358100 1 0 1.000000 
0 -23.321396 -89.933296 5.447500 0.074298 -0.732979 0.676181 0.035500 -0.501100 1 0 1.000000 
iceberg
0 -23.321396 -89.933296 5.447500 0.074298 -0.732979 0.676181 0.035500 -0.501100 1 0 1.000000 
0 -30.101896 -90.183296 5.426600 -0.097502 -0.844121 0.527213 0.034500 -0.524800 1 0 1.000000 
0 -24.972696 -98.952698 -19.035101 0.090797 -0.933872 0.345889 0.000500 -0.506900 1 0 1.000000 
iceberg
0 -85.177101 -40.028706 42.486301 -0.035702 -0.502324 0.863942 0.229200 -0.717800 1 0 1.000000 
0 -30.101896 -90.183296 5.426600 -0.097502 -0.844121 0.527213 0.034500 -0.524800 1 0 1.000000 
0 -23.321396 -89.933296 5.447500 0.074298 -0.732979 0.676181 0.035500 -0.501100 1 0 1.000000 
iceberg
0 -85.177101 -40.028706 42.486301 -0.035702 -0.502324 0.863942 0.229200 -0.717800 1 0 1.000000 
0 -98.206398 -59.643402 20.296101 -0.300092 -0.839977 0.452088 0.153100 -0.763500 1 0 1.000000 
0 -30.101896 -90.183296 5.426600 -0.097502 -0.844121 0.527213 0.034500 -0.524800 1 0 1.000000 
iceberg
0 -85.177101 -40.028706 42.486301 -0.035702 -0.502324 0.863942 0.229200 -0.717800 1 0 1.000000 
0 -114.426003 -46.010403 33.449799 -0.521800 -0.599800 0.606600 0.206000 -0.820300 1 0 1.000000 
0 -98.206398 -59.643402 20.296101 -0.300092 -0.839977 0.452088 0.153100 -0.763500 1 0 1.000000 
iceberg
0 100.161201 82.582504 25.238100 0.407004 0.206802 0.889708 0.705200 -0.068400 1 0 1.000000 
0 105.134003 51.571606 20.120199 0.546123 -0.120905 0.828934 0.584800 -0.051000 1 0 1.000000 
0 107.520302 78.635208 21.813200 0.710295 0.031600 0.703195 0.689900 -0.042600 1 0 1.000000 
iceberg
0 100.161201 82.582504 25.238100 0.407004 0.206802 0.889708 0.705200 -0.068400 1 0 1.000000 
0 96.894402 66.547409 23.980600 0.335112 -0.117404 0.934835 0.643000 -0.079900 1 0 1.000000 
0 105.134003 51.571606 20.120199 0.546123 -0.120905 0.828934 0.584800 -0.051000 1 0 1.000000 
iceberg
0 105.134003 51.571606 20.120199 0.546123 -0.120905 0.828934 0.584800 -0.051000 1 0 1.000000 
0 96.894402 66.547409 23.980600 0.335112 -0.117404 0.934835 0.643000 -0.079900 1 0 1.000000 
0 88.000000 -41.816597 15.901200 0.540210 -0.406907 0.736613 0.222300 -0.111000 1 0 1.000000 
iceberg
0 -31.968096 -98.820396 -19.458099 -0.264497 -0.921189 0.285397 0.001000 -0.531400 1 0 1.000000 
0 -98.206398 -59.643402 20.296101 -0.300092 -0.839977 0.452088 0.153100 -0.763500 1 0 1.000000 
0 -156.947601 -42.062008 -29.149099 -0.604105 -0.716806 0.348203 0.221400 -0.969300 1 0 1.000000 
iceberg
0 -31.968096 -98.820396 -19.458099 -0.264497 -0.921189 0.285397 0.001000 -0.531400 1 0 1.000000 
0 -30.101896 -90.183296 5.426600 -0.097502 -0.844121 0.527213 0.034500 -0.524800 1 0 1.000000 
0 -98.206398 -59.643402 20.296101 -0.300092 -0.839977 0.452088 0.153100 -0.763500 1 0 1.000000 
iceberg
0 -31.968096 -98.820396 -19.458099 -0.264497 -0.921189 0.285397 0.001000 -0.531400 1 0 1.000000 
0 -24.972696 -98.952698 -19.035101 0.090797 -0.933872 0.345889 0.000500 -0.506900 1 0 1.000000 
0 -30.101896 -90.183296 5.426600 -0.097502 -0.844121 0.527213 0.034500 -0.524800 1 0 1.000000 
iceberg
0 29.395796 70.324898 40.801201 -0.000700 0.152095 0.988366 0.657600 -0.316400 1 0 1.000000 
0 35.359398 101.430298 27.377501 0.157206 0.307612 0.938435 0.778400 -0.295500 1 0 1.000000 
0 2.933495 122.908501 32.667599 0.024701 0.246507 0.968826 0.861800 -0.409100 1 0 1.000000 
iceberg
0 29.395796 70.324898 40.801201 -0.000700 0.152095 0.988366 0.657600 -0.316400 1 0 1.000000 
0 56.635098 73.093300 34.090599 0.188997 0.194197 0.962584 0.668400 -0.220900 1 0 1.000000 
0 35.359398 101.430298 27.377501 0.157206 0.307612 0.938435 0.778400 -0.295500 1 0 1.000000 
iceberg
0 56.635098 73.093300 34.090599 0.188997 0.194197 0.962584 0.668400 -0.220900 1 0 1.000000 
0 29.395796 70.324898 40.801201 -0.000700 0.152095 0.988366 0.657600 -0.316400 1 0 1.000000 
0 45.298298 51.776302 41.205502 0.229904 -0.044001 0.972218 0.585600 -0.260600 1 0 1.000000 
iceberg
0 56.635098 73.093300 34.090599 0.188997 0.194197 0.962584 0.668400 -0.220900 1 0 1.000000 
0 45.298298 51.776302 41.205502 0.229904 -0.044001 0.972218 0.585600 -0.260600 1 0 1.000000 
0 62.624397 59.541103 33.474201 0.321791 -0.066498 0.944473 0.615800 -0.199900 1 0 1.000000 
iceberg
0 40.763302 -7.742598 27.550501 0.339096 -0.144498 0.929588 0.354600 -0.276500 1 0 1.000000 
0 62.624397 59.541103 33.474201 0.321791 -0.066498 0.944473 0.615800 -0.199900 1 0 1.000000 
0 45.298298 51.776302 41.205502 0.229904 -0.044001 0.972218 0.585600 -0.260600 1 0 1.000000 
iceberg
0 98.839302 75.220108 25.020000 0.283813 -0.144407 0.947943 0.676600 -0.073000 1 0 1.000000 
0 62.624397 59.541103 33.474201 0.321791 -0.066498 0.944473 0.615800 -0.199900 1 0 1.000000 
0 40.763302 -7.742598 27.550501 0.339096 -0.144498 0.929588 0.354600 -0.276500 1 0 1.000000 
iceberg
0 96.894402 66.547409 23.980600 0.335112 -0.117404 0.934835 0.643000 -0.079900 1 0 1.000000 
0 98.839302 75.220108 25.020000 0.283813 -0.144407 0.947943 0.676600 -0.073000 1 0 1.000000 
0 40.763302 -7.742598 27.550501 0.339096 -0.144498 0.929588 0.354600 -0.276500 1 0 1.000000 
iceberg
0 96.894402 66.547409 23.980600 0.335112 -0.117404 0.934835 0.643000 -0.079900 1 0 1.000000 
0 40.763302 -7.742598 27.550501 0.339096 -0.144498 0.929588 0.354600 -0.276500 1 0 1.000000 
0 87.126099 -26.771397 19.007601 0.316401 -0.110200 0.942203 0.280700 -0.114100 1 0 1.000000 
iceberg
0 87.126099 -26.771397 19.007601 0.316401 -0.110200 0.942203 0.280700 -0.114100 1 0 1.000000 
0 88.000000 -41.816597 15.901200 0.540210 -0.406907 0.736613 0.222300 -0.111000 1 0 1.000000 
0 96.894402 66.547409 23.980600 0.335112 -0.117404 0.934835 0.643000 -0.079900 1 0 1.000000 
iceberg
0 46.054405 -56.065697 23.532801 0.148000 -0.374599 0.915298 0.167000 -0.258000 1 0 1.000000 
0 88.000000 -41.816597 15.901200 0.540210 -0.406907 0.736613 0.222300 -0.111000 1 0 1.000000 
0 87.126099 -26.771397 19.007601 0.316401 -0.110200 0.942203 0.280700 -0.114100 1 0 1.000000 
iceberg
0 46.054405 -56.065697 23.532801 0.148000 -0.374599 0.915298 0.167000 -0.258000 1 0 1.000000 
0 54.407005 -60.280598 17.319599 0.376796 -0.820392 0.430096 0.150600 -0.228700 1 0 1.000000 
0 88.000000 -41.816597 15.901200 0.540210 -0.406907 0.736613 0.222300 -0.111000 1 0 1.000000 
iceberg
0 46.054405 -56.065697 23.532801 0.148000 -0.374599 0.915298 0.167000 -0.258000 1 0 1.000000 
0 29.037205 -68.565102 10.433200 0.174809 -0.709638 0.682536 0.118500 -0.317600 1 0 1.000000 
0 54.407005 -60.280598 17.319599 0.376796 -0.820392 0.430096 0.150600 -0.228700 1 0 1.000000 
iceberg
0 29.037205 -68.565102 10.433200 0.174809 -0.709638 0.682536 0.118500 -0.317600 1 0 1.000000 
0 46.054405 -56.065697 23.532801 0.148000 -0.374599 0.915298 0.167000 -0.258000 1 0 1.000000 
0 28.818502 -37.364700 29.771500 0.019401 -0.328412 0.944335 0.239600 -0.318400 1 0 1.000000 
iceberg
0 29.037205 -68.565102 10.433200 0.174809 -0.709638 0.682536 0.118500 -0.317600 1 0 1.000000 
0 28.818502 -37.364700 29.771500 0.019401 -0.328412 0.944335 0.239600 -0.318400 1 0 1.000000 
0 14.780302 -41.352501 22.606899 -0.001300 -0.352416 0.935842 0.224100 -0.367600 1 0 1.000000 
iceberg
0 28.818502 -37.364700 29.771500 0.019401 -0.328412 0.944335 0.239600 -0.318400 1 0 1.000000 
0 12.407400 -9.421799 37.840401 -0.081802 -0.202204 0.975921 0.348100 -0.375900 1 0 1.000000 
0 14.780302 -41.352501 22.606899 -0.001300 -0.352416 0.935842 0.224100 -0.367600 1 0 1.000000 
iceberg
0 12.407400 -9.421799 37.840401 -0.081802 -0.202204 0.975921 0.348100 -0.375900 1 0 1.000000 
0 -17.156199 -46.048401 23.438999 0.104995 -0.254888 0.961253 0.205900 -0.479500 1 0 1.000000 
0 14.780302 -41.352501 22.606899 -0.001300 -0.352416 0.935842 0.224100 -0.367600 1 0 1.000000 
iceberg
0 12.407400 -9.421799 37.840401 -0.081802 -0.202204 0.975921 0.348100 -0.375900 1 0 1.000000 
0 -13.983599 -18.805099 30.346201 0.001600 -0.082698 0.996573 0.311600 -0.468400 1 0 1.000000 
0 -17.156199 -46.048401 23.438999 0.104995 -0.254888 0.961253 0.205900 -0.479500 1 0 1.000000 
iceberg
0 -86.759598 -14.183504 48.819500 0.007100 -0.142202 0.989812 0.329600 -0.723300 1 0 1.000000 
0 -17.156199 -46.048401 23.438999 0.104995 -0.254888 0.961253 0.205900 -0.479500 1 0 1.000000 
0 -13.983599 -18.805099 30.346201 0.001600 -0.082698 0.996573 0.311600 -0.468400 1 0 1.000000 
iceberg
0 29.395796 70.324898 40.801201 -0.000700 0.152095 0.988366 0.657600 -0.316400 1 0 1.000000 
0 2.933495 122.908501 32.667599 0.024701 0.246507 0.968826 0.861800 -0.409100 1 0 1.000000 
0 2.512798 52.234901 32.131100 -0.245289 0.041598 0.968557 0.587400 -0.410600 1 0 1.000000 
iceberg
0 40.763302 -7.742598 27.550501 0.339096 -0.144498 0.929588 0.354600 -0.276500 1 0 1.000000 
0 45.298298 51.776302 41.205502 0.229904 -0.044001 0.972218 0.585600 -0.260600 1 0 1.000000 
0 26.445499 -5.919499 36.423599 0.229095 -0.109898 0.967180 0.361700 -0.326700 1 0 1.000000 
iceberg
0 6.530398 28.645300 35.308998 -0.178599 0.021200 0.983693 0.495800 -0.396500 1 0 1.000000 
0 26.445499 -5.919499 36.423599 0.229095 -0.109898 0.967180 0.361700 -0.326700 1 0 1.000000 
0 45.298298 51.776302 41.205502 0.229904 -0.044001 0.972218 0.585600 -0.260600 1 0 1.000000 
iceberg
0 29.395796 70.324898 40.801201 -0.000700 0.152095 0.988366 0.657600 -0.316400 1 0 1.000000 
0 6.530398 28.645300 35.308998 -0.178599 0.021200 0.983693 0.495800 -0.396500 1 0 1.000000 
0 45.298298 51.776302 41.205502 0.229904 -0.044001 0.972218 0.585600 -0.260600 1 0 1.000000 
iceberg
0 29.395796 70.324898 40.801201 -0.000700 0.152095 0.988366 0.657600 -0.316400 1 0 1.000000 
0 2.512798 52.234901 32.131100 -0.245289 0.041598 0.968557 0.587400 -0.410600 1 0 1.000000 
0 6.530398 28.645300 35.308998 -0.178599 0.021200 0.983693 0.495800 -0.396500 1 0 1.000000 
iceberg
0 -13.983601 31.618099 30.346201 -0.035402 0.141907 0.989247 0.507400 -0.468400 1 0 1.000000 
0 6.530398 28.645300 35.308998 -0.178599 0.021200 0.983693 0.495800 -0.396500 1 0 1.000000 
0 2.512798 52.234901 32.131100 -0.245289 0.041598 0.968557 0.587400 -0.410600 1 0 1.000000 
iceberg
0 -13.983601 31.618099 30.346201 -0.035402 0.141907 0.989247 0.507400 -0.468400 1 0 1.000000 
0 2.512798 52.234901 32.131100 -0.245289 0.041598 0.968557 0.587400 -0.410600 1 0 1.000000 
0 -17.156202 48.989498 28.713800 -0.046899 0.135397 0.989681 0.574800 -0.479500 1 0 1.000000 
iceberg
0 -17.156202 48.989498 28.713800 -0.046899 0.135397 0.989681 0.574800 -0.479500 1 0 1.000000 
0 2.512798 52.234901 32.131100 -0.245289 0.041598 0.968557 0.587400 -0.410600 1 0 1.000000 
0 2.933495 122.908501 32.667599 0.024701 0.246507 0.968826 0.861800 -0.409100 1 0 1.000000 
iceberg
0 -17.156202 48.989498 28.713800 -0.046899 0.135397 0.989681 0.574800 -0.479500 1 0 1.000000 
0 2.933495 122.908501 32.667599 0.024701 0.246507 0.968826 0.861800 -0.409100 1 0 1.000000 
0 -17.931606 119.176804 31.212700 -0.137893 0.294184 0.945749 0.847300 -0.482200 1 0 1.000000 
iceberg
0 -105.979797 29.140797 37.468899 -0.187504 0.476911 0.858719 0.497800 -0.790700 1 0 1.000000 
0 -43.570107 142.819595 12.856600 -0.346421 0.503431 0.791549 0.939100 -0.572000 1 0 1.000000 
0 -149.015503 46.215191 13.104300 -0.448078 0.583671 0.677166 0.564000 -0.941500 1 0 1.000000 
iceberg
0 -105.979797 29.140797 37.468899 -0.187504 0.476911 0.858719 0.497800 -0.790700 1 0 1.000000 
0 -17.931606 119.176804 31.212700 -0.137893 0.294184 0.945749 0.847300 -0.482200 1 0 1.000000 
0 -43.570107 142.819595 12.856600 -0.346421 0.503431 0.791549 0.939100 -0.572000 1 0 1.000000 
iceberg
0 -105.979797 29.140797 37.468899 -0.187504 0.476911 0.858719 0.497800 -0.790700 1 0 1.000000 
0 -17.156202 48.989498 28.713800 -0.046899 0.135397 0.989681 0.574800 -0.479500 1 0 1.000000 
0 -17.931606 119.176804 31.212700 -0.137893 0.294184 0.945749 0.847300 -0.482200 1 0 1.000000 
iceberg
0 -105.979797 29.140797 37.468899 -0.187504 0.476911 0.858719 0.497800 -0.790700 1 0 1.000000 
0 -106.189003 23.827097 42.397900 -0.085102 0.401907 0.911717 0.477100 -0.791400 1 0 1.000000 
0 -17.156202 48.989498 28.713800 -0.046899 0.135397 0.989681 0.574800 -0.479500 1 0 1.000000 
iceberg
0 -106.189003 23.827097 42.397900 -0.085102 0.401907 0.911717 0.477100 -0.791400 1 0 1.000000 
0 -13.983601 31.618099 30.346201 -0.035402 0.141907 0.989247 0.507400 -0.468400 1 0 1.000000 
0 -17.156202 48.989498 28.713800 -0.046899 0.135397 0.989681 0.574800 -0.479500 1 0 1.000000 
iceberg
0 -106.189003 23.827097 42.397900 -0.085102 0.401907 0.911717 0.477100 -0.791400 1 0 1.000000 
0 -87.186401 11.250997 49.330898 0.017901 0.144506 0.989342 0.428300 -0.724800 1 0 1.000000 
0 -13.983601 31.618099 30.346201 -0.035402 0.141907 0.989247 0.507400 -0.468400 1 0 1.000000 
iceberg
0 -13.983599 -18.805099 30.346201 0.001600 -0.082698 0.996573 0.311600 -0.468400 1 0 1.000000 
0 -13.983601 31.618099 30.346201 -0.035402 0.141907 0.989247 0.507400 -0.468400 1 0 1.000000 
0 -87.186401 11.250997 49.330898 0.017901 0.144506 0.989342 0.428300 -0.724800 1 0 1.000000 
iceberg
0 -13.983599 -18.805099 30.346201 0.001600 -0.082698 0.996573 0.311600 -0.468400 1 0 1.000000 
0 6.530398 28.645300 35.308998 -0.178599 0.021200 0.983693 0.495800 -0.396500 1 0 1.000000 
0 -13.983601 31.618099 30.346201 -0.035402 0.141907 0.989247 0.507400 -0.468400 1 0 1.000000 
iceberg
0 -13.983599 -18.805099 30.346201 0.001600 -0.082698 0.996573 0.311600 -0.468400 1 0 1.000000 
0 12.407400 -9.421799 37.840401 -0.081802 -0.202204 0.975921 0.348100 -0.375900 1 0 1.000000 
0 6.530398 28.645300 35.308998 -0.178599 0.021200 0.983693 0.495800 -0.396500 1 0 1.000000 
iceberg
0 6.530398 28.645300 35.308998 -0.178599 0.021200 0.983693 0.495800 -0.396500 1 0 1.000000 
0 12.407400 -9.421799 37.840401 -0.081802 -0.202204 0.975921 0.348100 -0.375900 1 0 1.000000 
0 26.445499 -5.919499 36.423599 0.229095 -0.109898 0.967180 0.361700 -0.326700 1 0 1.000000 
iceberg
0 28.818502 -37.364700 29.771500 0.019401 -0.328412 0.944335 0.239600 -0.318400 1 0 1.000000 
0 26.445499 -5.919499 36.423599 0.229095 -0.109898 0.967180 0.361700 -0.326700 1 0 1.000000 
0 12.407400 -9.421799 37.840401 -0.081802 -0.202204 0.975921 0.348100 -0.375900 1 0 1.000000 
iceberg
0 28.818502 -37.364700 29.771500 0.019401 -0.328412 0.944335 0.239600 -0.318400 1 0 1.000000 
0 40.763302 -7.742598 27.550501 0.339096 -0.144498 0.929588 0.354600 -0.276500 1 0 1.000000 
0 26.445499 -5.919499 36.423599 0.229095 -0.109898 0.967180 0.361700 -0.326700 1 0 1.000000 
iceberg
0 28.818502 -37.364700 29.771500 0.019401 -0.328412 0.944335 0.239600 -0.318400 1 0 1.000000 
0 46.054405 -56.065697 23.532801 0.148000 -0.374599 0.915298 0.167000 -0.258000 1 0 1.000000 
0 40.763302 -7.742598 27.550501 0.339096 -0.144498 0.929588 0.354600 -0.276500 1 0 1.000000 
iceberg
0 46.054405 -56.065697 23.532801 0.148000 -0.374599 0.915298 0.167000 -0.258000 1 0 1.000000 
0 87.126099 -26.771397 19.007601 0.316401 -0.110200 0.942203 0.280700 -0.114100 1 0 1.000000 
0 40.763302 -7.742598 27.550501 0.339096 -0.144498 0.929588 0.354600 -0.276500 1 0 1.000000 
iceberg
0 34.829903 -74.526604 -16.421301 0.054099 -0.063999 -0.996482 0.095300 -0.297300 1 0 1.000000 
0 106.460800 -31.161695 -16.421301 0.177299 -0.292798 -0.939593 0.263700 -0.046300 1 0 1.000000 
0 66.510300 -64.190903 -11.221100 0.293391 -0.484585 -0.824075 0.135400 -0.186300 1 0 1.000000 
iceberg
0 34.829903 -74.526604 -16.421301 0.054099 -0.063999 -0.996482 0.095300 -0.297300 1 0 1.000000 
0 119.542389 89.322609 -25.750000 -0.005500 -0.054001 -0.998526 0.731400 -0.000500 1 0 1.000000 
0 106.460800 -31.161695 -16.421301 0.177299 -0.292798 -0.939593 0.263700 -0.046300 1 0 1.000000 
iceberg
0 34.829903 -74.526604 -16.421301 0.054099 -0.063999 -0.996482 0.095300 -0.297300 1 0 1.000000 
0 112.346893 106.694008 -25.749901 -0.052700 -0.028800 -0.998195 0.798800 -0.025700 1 0 1.000000 
0 119.542389 89.322609 -25.750000 -0.005500 -0.054001 -0.998526 0.731400 -0.000500 1 0 1.000000 
iceberg
0 34.829903 -74.526604 -16.421301 0.054099 -0.063999 -0.996482 0.095300 -0.297300 1 0 1.000000 
0 85.228195 143.845596 -25.750000 -0.058199 -0.029199 -0.997878 0.943100 -0.120700 1 0 1.000000 
0 112.346893 106.694008 -25.749901 -0.052700 -0.028800 -0.998195 0.798800 -0.025700 1 0 1.000000 
iceberg
0 34.829903 -74.526604 -16.421301 0.054099 -0.063999 -0.996482 0.095300 -0.297300 1 0 1.000000 
0 7.856593 158.386703 -20.549801 0.025299 -0.014800 -0.999570 0.999500 -0.391800 1 0 1.000000 
0 85.228195 143.845596 -25.750000 -0.058199 -0.029199 -0.997878 0.943100 -0.120700 1 0 1.000000 
iceberg
0 34.829903 -74.526604 -16.421301 0.054099 -0.063999 -0.996482 0.095300 -0.297300 1 0 1.000000 
0 -43.284706 150.252396 -26.825500 0.099398 -0.011500 -0.994981 0.967900 -0.571000 1 0 1.000000 
0 7.856593 158.386703 -20.549801 0.025299 -0.014800 -0.999570 0.999500 -0.391800 1 0 1.000000 
iceberg
0 34.829903 -74.526604 -16.421301 0.054099 -0.063999 -0.996482 0.095300 -0.297300 1 0 1.000000 
0 -161.176605 53.836391 -33.974400 0.050102 -0.059903 -0.996946 0.593600 -0.984100 1 0 1.000000 
0 -43.284706 150.252396 -26.825500 0.099398 -0.011500 -0.994981 0.967900 -0.571000 1 0 1.000000 
iceberg
0 34.829903 -74.526604 -16.421301 0.054099 -0.063999 -0.996482 0.095300 -0.297300 1 0 1.000000 
0 -161.999207 26.386192 -31.233000 0.020499 -0.105896 -0.994166 0.487100 -0.987000 1 0 1.000000 
0 -161.176605 53.836391 -33.974400 0.050102 -0.059903 -0.996946 0.593600 -0.984100 1 0 1.000000 
iceberg
0 34.829903 -74.526604 -16.421301 0.054099 -0.063999 -0.996482 0.095300 -0.297300 1 0 1.000000 
0 -165.573807 5.341793 -28.929501 0.044200 -0.045400 -0.997990 0.405400 -0.999500 1 0 1.000000 
0 -161.999207 26.386192 -31.233000 0.020499 -0.105896 -0.994166 0.487100 -0.987000 1 0 1.000000 
iceberg
0 34.829903 -74.526604 -16.421301 0.054099 -0.063999 -0.996482 0.095300 -0.297300 1 0 1.000000 
0 -165.147003 -20.092707 -29.441000 0.075196 0.037798 -0.996452 0.306600 -0.998000 1 0 1.000000 
0 -165.573807 5.341793 -28.929501 0.044200 -0.045400 -0.997990 0.405400 -0.999500 1 0 1.000000 
iceberg
0 34.829903 -74.526604 -16.421301 0.054099 -0.063999 -0.996482 0.095300 -0.297300 1 0 1.000000 
0 -162.227295 -28.429108 -29.662300 0.071900 0.020800 -0.997195 0.274300 -0.987800 1 0 1.000000 
0 -165.147003 -20.092707 -29.441000 0.075196 0.037798 -0.996452 0.306600 -0.998000 1 0 1.000000 
iceberg
0 34.829903 -74.526604 -16.421301 0.054099 -0.063999 -0.996482 0.095300 -0.297300 1 0 1.000000 
0 -156.947601 -42.062008 -29.149099 0.061803 -0.025901 -0.997752 0.221400 -0.969300 1 0 1.000000 
0 -162.227295 -28.429108 -29.662300 0.071900 0.020800 -0.997195 0.274300 -0.987800 1 0 1.000000 
iceberg
0 34.829903 -74.526604 -16.421301 0.054099 -0.063999 -0.996482 0.095300 -0.297300 1 0 1.000000 
0 -31.968096 -98.820396 -19.458099 0.059597 -0.039098 -0.997456 0.001000 -0.531400 1 0 1.000000 
0 -156.947601 -42.062008 -29.149099 0.061803 -0.025901 -0.997752 0.221400 -0.969300 1 0 1.000000 
iceberg
0 34.829903 -74.526604 -16.421301 0.054099 -0.063999 -0.996482 0.095300 -0.297300 1 0 1.000000 
0 -24.972696 -98.952698 -19.035101 0.061298 -0.043399 -0.997175 0.000500 -0.506900 1 0 1.000000 
0 -31.968096 -98.820396 -19.458099 0.059597 -0.039098 -0.997456 0.001000 -0.531400 1 0 1.000000 
iceberg
0 34.829903 -74.526604 -16.421301 0.054099 -0.063999 -0.996482 0.095300 -0.297300 1 0 1.000000 
0 17.458405 -90.383301 -16.761101 0.063098 -0.047698 -0.996867 0.033800 -0.358200 1 0 1.000000 
0 -24.972696 -98.952698 -19.035101 0.061298 -0.043399 -0.997175 0.000500 -0.506900 1 0 1.000000 
end
