version 1
nodes
  0 "static_prop" -1
end
skeleton
time 0
0 0.000000 0.000000 0.000000 0.000000 0.000000 0.000000
end
triangles
dockpole01
0 -0.813597 -77.018303 104.426804 0.604424 -0.455318 0.653726 0.285500 -0.140700 1 0 1.000000 
0 7.074604 -74.816902 98.700302 0.599512 -0.457509 0.656713 0.293200 -0.192900 1 0 1.000000 
0 4.110303 -71.984299 103.380096 0.604424 -0.455318 0.653726 0.319200 -0.162100 1 0 1.000000 
dockpole01
0 -6.527603 68.303299 89.648804 -0.000000 1.000000 0.000000 0.896900 -0.491400 1 0 1.000000 
0 -6.527603 68.303299 78.469002 -0.000000 1.000000 0.000000 0.809600 -0.491400 1 0 1.000000 
0 -10.498103 68.303299 78.469002 -0.000000 1.000000 0.000000 0.809600 -0.460300 1 0 1.000000 
dockpole01
0 -10.498103 68.303299 78.469002 -0.000000 1.000000 0.000000 0.809600 -0.460300 1 0 1.000000 
0 -10.498103 68.303299 89.648804 -0.000000 1.000000 0.000000 0.896900 -0.460300 1 0 1.000000 
0 -6.527603 68.303299 89.648804 -0.000000 1.000000 0.000000 0.896900 -0.491400 1 0 1.000000 
dockpole01
0 1.334197 71.841698 5.879700 -0.000000 0.447893 0.894087 0.870200 -0.042100 1 0 1.000000 
0 -2.636303 71.841698 5.879700 -0.000000 0.447893 0.894087 0.909400 -0.042100 1 0 1.000000 
0 -2.636297 -67.096802 75.486397 -0.000000 0.447893 0.894087 0.911400 -0.938600 1 0 1.000000 
dockpole01
0 -2.636297 -67.096802 75.486397 -0.000000 0.447893 0.894087 0.911400 -0.938600 1 0 1.000000 
0 1.334203 -67.096802 75.486397 -0.000000 0.447893 0.894087 0.872100 -0.938600 1 0 1.000000 
0 1.334197 71.841698 5.879700 -0.000000 0.447893 0.894087 0.870200 -0.042100 1 0 1.000000 
dockpole01
0 -2.636303 69.966904 -7.875200 0.000000 -0.473497 -0.880795 0.832500 -0.956900 1 0 1.000000 
0 1.334197 69.966797 -7.875200 0.000000 -0.473497 -0.880795 0.875500 -0.956500 1 0 1.000000 
0 1.334203 -70.644203 67.721603 0.000000 -0.473497 -0.880795 0.874000 -0.105900 1 0 1.000000 
dockpole01
0 1.334203 -70.644203 67.721603 0.000000 -0.473497 -0.880795 0.874000 -0.105900 1 0 1.000000 
0 -2.636297 -70.644203 67.721603 0.000000 -0.473497 -0.880795 0.831100 -0.106300 1 0 1.000000 
0 -2.636303 69.966904 -7.875200 0.000000 -0.473497 -0.880795 0.832500 -0.956900 1 0 1.000000 
dockpole01
0 4.110303 -71.984299 103.380096 0.233195 0.100898 0.967181 0.319200 -0.162100 1 0 1.000000 
0 -0.813597 -61.137798 103.435600 0.233195 0.100898 0.967181 0.370400 -0.140700 1 0 1.000000 
0 -7.539797 -65.107903 104.865303 0.156404 0.052001 0.986323 0.349200 -0.104700 1 0 1.000000 
dockpole01
0 4.110303 -71.984299 103.380096 0.233195 0.100898 0.967181 0.319200 -0.162100 1 0 1.000000 
0 3.069803 -62.201599 102.610100 0.233195 0.100898 0.967181 0.364800 -0.161500 1 0 1.000000 
0 -0.813597 -61.137798 103.435600 0.233195 0.100898 0.967181 0.370400 -0.140700 1 0 1.000000 
dockpole01
0 4.110303 -71.984299 103.380096 0.186293 0.079597 0.979264 0.319200 -0.162100 1 0 1.000000 
0 -7.539797 -65.107903 104.865303 0.156404 0.052001 0.986323 0.349200 -0.104700 1 0 1.000000 
0 -7.539797 -73.048103 104.865303 0.128398 -0.021600 0.991487 0.306700 -0.104700 1 0 1.000000 
dockpole01
0 4.110303 -71.984299 103.380096 0.233195 0.100898 0.967181 0.319200 -0.162100 1 0 1.000000 
0 -7.539797 -73.048103 104.865303 0.118106 0.087404 0.989147 0.306700 -0.104700 1 0 1.000000 
0 -0.813597 -77.018303 104.426804 0.115897 0.092197 0.988973 0.285500 -0.140700 1 0 1.000000 
dockpole01
0 -2.636297 -70.644203 67.721603 -1.000000 -0.000000 0.000000 0.901100 -0.976300 1 0 1.000000 
0 -2.636297 -67.096802 75.486397 -1.000000 -0.000000 0.000000 0.829000 -0.971600 1 0 1.000000 
0 -2.636303 71.841698 5.879700 -1.000000 -0.000000 0.000000 0.791900 -0.032500 1 0 1.000000 
dockpole01
0 -2.636303 71.841698 5.879700 -1.000000 -0.000000 0.000000 0.791900 -0.032500 1 0 1.000000 
0 -2.636303 69.966904 -7.875200 -1.000000 -0.000000 0.000000 0.901900 -0.023900 1 0 1.000000 
0 -2.636297 -70.644203 67.721603 -1.000000 -0.000000 0.000000 0.901100 -0.976300 1 0 1.000000 
dockpole01
0 -3.022697 -64.616798 -111.371902 -0.198994 0.979868 -0.016099 0.343500 -0.231700 1 0 1.000000 
0 -8.098197 -69.078003 55.520100 -0.986985 0.160798 -0.002100 0.370200 -0.231700 1 0 1.000000 
0 -7.539797 -65.107903 104.865303 -0.894071 0.447886 -0.005900 0.356500 -0.003900 1 0 1.000000 
dockpole01
0 -7.539797 -65.107903 104.865303 -0.894071 0.447886 -0.005900 0.356500 -0.003900 1 0 1.000000 
0 -0.813597 -61.137798 103.435600 -0.016200 0.999769 -0.014100 0.330400 -0.010500 1 0 1.000000 
0 -3.022697 -64.616798 -111.371902 -0.198994 0.979868 -0.016099 0.343500 -0.231700 1 0 1.000000 
dockpole01
0 -8.461197 -67.756699 -111.371902 -0.989890 0.141799 0.003300 0.365900 -1.001900 1 0 1.000000 
0 -8.098197 -69.078003 55.520100 -0.986985 0.160798 -0.002100 0.370200 -0.231700 1 0 1.000000 
0 -3.022697 -64.616798 -111.371902 -0.198994 0.979868 -0.016099 0.341700 -1.001900 1 0 1.000000 
dockpole01
0 0.117203 -76.335098 -111.371902 0.433288 -0.900975 -0.022499 0.241500 -1.001900 1 0 1.000000 
0 3.257203 -70.896599 -111.371902 0.965300 0.259100 -0.032600 0.278400 -1.001900 1 0 1.000000 
0 7.484303 -75.551498 48.920898 0.942177 -0.334992 -0.009100 0.266900 -0.262100 1 0 1.000000 
dockpole01
0 3.257203 -70.896599 -111.371902 0.965300 0.259100 -0.032600 0.278400 -1.001900 1 0 1.000000 
0 6.471003 -68.293404 60.805000 0.935604 0.352801 0.013300 0.291600 -0.207300 1 0 1.000000 
0 7.484303 -75.551498 48.920898 0.942177 -0.334992 -0.009100 0.266900 -0.262100 1 0 1.000000 
dockpole01
0 3.257203 -70.896599 -111.371902 0.965300 0.259100 -0.032600 0.278400 -1.001900 1 0 1.000000 
0 2.828703 -62.769299 55.520100 0.607919 0.793724 -0.020901 0.317200 -0.231700 1 0 1.000000 
0 6.471003 -68.293404 60.805000 0.935604 0.352801 0.013300 0.291600 -0.207300 1 0 1.000000 
dockpole01
0 3.257203 -70.896599 -111.371902 0.965300 0.259100 -0.032600 0.278400 -1.001900 1 0 1.000000 
0 -3.022697 -64.616798 -111.371902 -0.198994 0.979868 -0.016099 0.341700 -1.001900 1 0 1.000000 
0 2.828703 -62.769299 55.520100 0.607919 0.793724 -0.020901 0.317200 -0.231700 1 0 1.000000 
dockpole01
0 -3.022697 -64.616798 -111.371902 -0.198994 0.979868 -0.016099 0.341700 -1.001900 1 0 1.000000 
0 -0.813597 -61.137798 103.435600 -0.016200 0.999769 -0.014100 0.330500 -0.231700 1 0 1.000000 
0 2.828703 -62.769299 55.520100 0.607919 0.793724 -0.020901 0.317200 -0.231700 1 0 1.000000 
dockpole01
0 -7.539797 -73.048103 104.865303 -0.909398 -0.415799 -0.010300 0.205000 -0.003900 1 0 1.000000 
0 -7.539797 -65.107903 104.865303 -0.894071 0.447886 -0.005900 0.190200 -0.002900 1 0 1.000000 
0 -8.098197 -69.078003 55.520100 -0.986985 0.160798 -0.002100 0.189900 -0.231700 1 0 1.000000 
dockpole01
0 -8.098197 -69.078003 55.520100 -0.986985 0.160798 -0.002100 0.189900 -0.231700 1 0 1.000000 
0 -7.122297 -72.720299 55.520100 -0.866960 -0.498377 -0.000200 0.204400 -0.231700 1 0 1.000000 
0 -7.539797 -73.048103 104.865303 -0.909398 -0.415799 -0.010300 0.205000 -0.003900 1 0 1.000000 
dockpole01
0 -8.461197 -67.756699 -111.371902 -0.989890 0.141799 0.003300 0.185600 -1.001900 1 0 1.000000 
0 -7.122297 -72.720299 55.520100 -0.866960 -0.498377 -0.000200 0.204400 -0.231700 1 0 1.000000 
0 -8.098197 -69.078003 55.520100 -0.986985 0.160798 -0.002100 0.189900 -0.231700 1 0 1.000000 
dockpole01
0 -8.461197 -67.756699 -111.371902 -0.989890 0.141799 0.003300 0.185600 -1.001900 1 0 1.000000 
0 -6.162597 -76.335098 -111.371902 -0.639387 -0.768885 -0.000400 0.217500 -1.001900 1 0 1.000000 
0 -7.122297 -72.720299 55.520100 -0.866960 -0.498377 -0.000200 0.204400 -0.231700 1 0 1.000000 
dockpole01
0 -6.162597 -76.335098 -111.371902 -0.639387 -0.768885 -0.000400 0.217500 -1.001900 1 0 1.000000 
0 -0.813597 -78.565002 61.853298 -0.152695 -0.987970 0.024499 0.237700 -0.202400 1 0 1.000000 
0 -7.122297 -72.720299 55.520100 -0.866960 -0.498377 -0.000200 0.204400 -0.231700 1 0 1.000000 
dockpole01
0 -6.162597 -76.335098 -111.371902 -0.639387 -0.768885 -0.000400 0.217500 -1.001900 1 0 1.000000 
0 0.117203 -76.335098 -111.371902 0.433288 -0.900975 -0.022499 0.241500 -1.001900 1 0 1.000000 
0 -0.813597 -78.565002 61.853298 -0.152695 -0.987970 0.024499 0.237700 -0.202400 1 0 1.000000 
dockpole01
0 0.117203 -76.335098 -111.371902 0.433288 -0.900975 -0.022499 0.241500 -1.001900 1 0 1.000000 
0 5.242203 -77.522400 68.784103 0.539190 -0.841985 0.018300 0.257800 -0.170500 1 0 1.000000 
0 -0.813597 -78.565002 61.853298 -0.152695 -0.987970 0.024499 0.237700 -0.202400 1 0 1.000000 
dockpole01
0 0.117203 -76.335098 -111.371902 0.433288 -0.900975 -0.022499 0.241500 -1.001900 1 0 1.000000 
0 7.484303 -75.551498 48.920898 0.942177 -0.334992 -0.009100 0.266900 -0.262100 1 0 1.000000 
0 5.242203 -77.522400 68.784103 0.539190 -0.841985 0.018300 0.257800 -0.170500 1 0 1.000000 
dockpole01
0 7.484303 -75.551498 48.920898 0.942177 -0.334992 -0.009100 0.266900 -0.262100 1 0 1.000000 
0 7.401603 -73.797699 68.784103 0.992952 -0.118106 0.009901 0.271600 -0.170500 1 0 1.000000 
0 5.242203 -77.522400 68.784103 0.539190 -0.841985 0.018300 0.257800 -0.170500 1 0 1.000000 
dockpole01
0 7.401603 -73.797699 68.784103 0.992952 -0.118106 0.009901 0.271600 -0.170500 1 0 1.000000 
0 7.484303 -75.551498 48.920898 0.942177 -0.334992 -0.009100 0.266900 -0.262100 1 0 1.000000 
0 6.471003 -68.293404 60.805000 0.935604 0.352801 0.013300 0.291600 -0.207300 1 0 1.000000 
dockpole01
0 7.401603 -73.797699 68.784103 0.992952 -0.118106 0.009901 0.271600 -0.170500 1 0 1.000000 
0 6.471003 -68.293404 60.805000 0.935604 0.352801 0.013300 0.291600 -0.207300 1 0 1.000000 
0 5.882903 -65.131203 98.700401 0.901584 0.432492 -0.009800 0.303400 -0.032400 1 0 1.000000 
dockpole01
0 3.069803 -62.201599 102.610100 0.578380 0.815672 -0.012500 0.317200 -0.014300 1 0 1.000000 
0 5.882903 -65.131203 98.700401 0.901584 0.432492 -0.009800 0.303400 -0.032400 1 0 1.000000 
0 6.471003 -68.293404 60.805000 0.935604 0.352801 0.013300 0.291600 -0.207300 1 0 1.000000 
dockpole01
0 6.471003 -68.293404 60.805000 0.935604 0.352801 0.013300 0.291600 -0.207300 1 0 1.000000 
0 2.828703 -62.769299 55.520100 0.607919 0.793724 -0.020901 0.317200 -0.231700 1 0 1.000000 
0 3.069803 -62.201599 102.610100 0.578380 0.815672 -0.012500 0.317200 -0.014300 1 0 1.000000 
dockpole01
0 -0.813597 -61.137798 103.435600 -0.016200 0.999769 -0.014100 0.330400 -0.010500 1 0 1.000000 
0 3.069803 -62.201599 102.610100 0.578380 0.815672 -0.012500 0.317200 -0.014300 1 0 1.000000 
0 2.828703 -62.769299 55.520100 0.607919 0.793724 -0.020901 0.317200 -0.231700 1 0 1.000000 
dockpole01
0 5.882903 -65.131203 98.700401 0.901584 0.432492 -0.009800 0.303400 -0.032400 1 0 1.000000 
0 7.074604 -74.816902 98.700302 0.689910 -0.722811 0.039601 0.268100 -0.032400 1 0 1.000000 
0 7.401603 -73.797699 68.784103 0.992952 -0.118106 0.009901 0.271600 -0.170500 1 0 1.000000 
dockpole01
0 5.242203 -77.522400 68.784103 0.539190 -0.841985 0.018300 0.257800 -0.170500 1 0 1.000000 
0 7.401603 -73.797699 68.784103 0.992952 -0.118106 0.009901 0.271600 -0.170500 1 0 1.000000 
0 7.074604 -74.816902 98.700302 0.689910 -0.722811 0.039601 0.268100 -0.032400 1 0 1.000000 
dockpole01
0 -0.813597 -78.565002 61.853298 -0.152695 -0.987970 0.024499 0.237700 -0.202400 1 0 1.000000 
0 5.242203 -77.522400 68.784103 0.539190 -0.841985 0.018300 0.257800 -0.170500 1 0 1.000000 
0 7.074604 -74.816902 98.700302 0.689910 -0.722811 0.039601 0.268100 -0.032400 1 0 1.000000 
dockpole01
0 -0.813597 -78.565002 61.853298 -0.152695 -0.987970 0.024499 0.237700 -0.202400 1 0 1.000000 
0 7.074604 -74.816902 98.700302 0.689910 -0.722811 0.039601 0.268100 -0.032400 1 0 1.000000 
0 -0.813597 -77.018303 104.426804 -0.362300 -0.931899 0.017400 0.237400 -0.006000 1 0 1.000000 
dockpole01
0 -7.122297 -72.720299 55.520100 -0.866960 -0.498377 -0.000200 0.204400 -0.231700 1 0 1.000000 
0 -0.813597 -78.565002 61.853298 -0.152695 -0.987970 0.024499 0.237700 -0.202400 1 0 1.000000 
0 -0.813597 -77.018303 104.426804 -0.362300 -0.931899 0.017400 0.237400 -0.006000 1 0 1.000000 
dockpole01
0 -0.813597 -77.018303 104.426804 -0.362300 -0.931899 0.017400 0.237400 -0.006000 1 0 1.000000 
0 -7.539797 -73.048103 104.865303 -0.909398 -0.415799 -0.010300 0.205000 -0.003900 1 0 1.000000 
0 -7.122297 -72.720299 55.520100 -0.866960 -0.498377 -0.000200 0.204400 -0.231700 1 0 1.000000 
dockpole01
0 1.334203 -68.601501 -2.726700 0.000000 -0.503691 0.863884 0.870200 -0.042100 1 0 1.000000 
0 -2.636303 70.162102 78.188202 0.000000 -0.503691 0.863884 0.911400 -0.938600 1 0 1.000000 
0 -2.636297 -68.601501 -2.726700 0.000000 -0.503691 0.863884 0.909400 -0.042100 1 0 1.000000 
dockpole01
0 -2.636303 70.162102 78.188202 0.000000 -0.503691 0.863884 0.911400 -0.938600 1 0 1.000000 
0 1.334203 -68.601501 -2.726700 0.000000 -0.503691 0.863884 0.870200 -0.042100 1 0 1.000000 
0 1.334197 70.162102 78.188202 0.000000 -0.503691 0.863884 0.872100 -0.938600 1 0 1.000000 
dockpole01
0 1.334197 70.162102 78.188202 0.989698 0.079000 -0.119400 0.827500 -0.987800 1 0 1.000000 
0 1.334203 -64.489899 -10.888100 0.989698 0.079000 -0.119400 0.904900 -0.047600 1 0 1.000000 
0 -2.636303 74.368401 64.864098 0.958987 0.156398 -0.236397 0.914100 -0.987800 1 0 1.000000 
dockpole01
0 1.334203 -64.489899 -10.888100 0.989698 0.079000 -0.119400 0.904900 -0.047600 1 0 1.000000 
0 1.334197 70.162102 78.188202 0.989698 0.079000 -0.119400 0.827500 -0.987800 1 0 1.000000 
0 1.334203 -68.601501 -2.726700 1.000000 0.000000 0.000000 0.801000 -0.046400 1 0 1.000000 
dockpole01
0 -2.636303 74.368401 64.864098 -0.979070 0.086997 -0.183994 0.901100 -0.976300 1 0 1.000000 
0 -2.636297 -68.601501 -2.726700 -0.979070 0.086997 -0.183994 0.791900 -0.032500 1 0 1.000000 
0 -2.636303 70.162102 78.188202 -1.000000 -0.000000 0.000000 0.829000 -0.971600 1 0 1.000000 
dockpole01
0 -2.636297 -68.601501 -2.726700 -0.979070 0.086997 -0.183994 0.791900 -0.032500 1 0 1.000000 
0 -2.636303 74.368401 64.864098 -0.979070 0.086997 -0.183994 0.901100 -0.976300 1 0 1.000000 
0 1.334203 -64.489899 -10.888100 -0.917101 0.170400 -0.360401 0.901900 -0.023900 1 0 1.000000 
dockpole01
0 1.334203 -67.096802 75.486397 1.000000 0.000000 0.000000 0.827500 -0.987800 1 0 1.000000 
0 1.334203 -70.644203 67.721603 1.000000 0.000000 0.000000 0.914100 -0.987800 1 0 1.000000 
0 1.334197 69.966797 -7.875200 1.000000 0.000000 0.000000 0.904900 -0.047600 1 0 1.000000 
dockpole01
0 1.334197 69.966797 -7.875200 1.000000 0.000000 0.000000 0.904900 -0.047600 1 0 1.000000 
0 1.334197 71.841698 5.879700 1.000000 0.000000 0.000000 0.801000 -0.046400 1 0 1.000000 
0 1.334203 -67.096802 75.486397 1.000000 0.000000 0.000000 0.827500 -0.987800 1 0 1.000000 
dockpole01
0 -6.527596 -71.783096 88.558998 0.985319 -0.018600 -0.169703 0.788600 -0.956000 1 0 1.000000 
0 -10.498097 -71.783096 77.379204 0.941714 -0.036701 -0.334405 0.902800 -0.959400 1 0 1.000000 
0 -6.527601 34.603298 76.879799 0.985319 -0.018600 -0.169703 0.915100 -0.239600 1 0 1.000000 
dockpole01
0 -6.527601 34.603298 76.879799 0.985319 -0.018600 -0.169703 0.915100 -0.239600 1 0 1.000000 
0 -6.527601 34.603298 88.059601 1.000000 0.000000 0.000000 0.801000 -0.236100 1 0 1.000000 
0 -6.527596 -71.783096 88.558998 0.985319 -0.018600 -0.169703 0.788600 -0.956000 1 0 1.000000 
dockpole01
0 -6.527603 68.303299 78.469002 1.000000 0.000000 0.000000 0.901200 -0.011000 1 0 1.000000 
0 -6.527603 68.303299 89.648804 1.000000 0.000000 0.000000 0.787000 -0.007600 1 0 1.000000 
0 -6.527601 34.603298 88.059601 1.000000 0.000000 0.000000 0.801000 -0.236100 1 0 1.000000 
dockpole01
0 -6.527601 34.603298 88.059601 1.000000 0.000000 0.000000 0.801000 -0.236100 1 0 1.000000 
0 -6.527601 34.603298 76.879799 1.000000 0.000000 0.000000 0.915100 -0.239600 1 0 1.000000 
0 -6.527603 68.303299 78.469002 1.000000 0.000000 0.000000 0.901200 -0.011000 1 0 1.000000 
dockpole01
0 8.199898 53.064602 80.708099 0.971060 0.008300 -0.238690 0.894500 -0.209900 1 0 1.000000 
0 8.199897 54.975498 92.024002 0.999812 0.019100 -0.003200 0.785700 -0.198400 1 0 1.000000 
0 10.603403 -71.601097 86.161400 0.971060 0.008300 -0.238690 0.842000 -0.959800 1 0 1.000000 
dockpole01
0 10.603403 -71.601097 86.161400 0.971060 0.008300 -0.238690 0.842000 -0.959800 1 0 1.000000 
0 6.632904 -71.816902 78.511803 0.887602 -0.003000 -0.460601 0.915600 -0.961100 1 0 1.000000 
0 8.199898 53.064602 80.708099 0.971060 0.008300 -0.238690 0.894500 -0.209900 1 0 1.000000 
dockpole01
0 8.199897 54.975498 92.024002 0.999812 0.019100 -0.003200 0.785700 -0.198400 1 0 1.000000 
0 8.199898 53.064602 80.708099 0.999814 0.019200 -0.001900 0.894500 -0.209900 1 0 1.000000 
0 8.199897 73.833603 80.131798 1.000000 0.000000 0.000000 0.900000 -0.085000 1 0 1.000000 
dockpole01
0 6.632904 -71.816902 78.511803 0.000000 -0.999602 0.028200 0.817500 -0.704300 1 0 1.000000 
0 10.603403 -71.601097 86.161400 0.000000 -0.999602 0.028200 0.877200 -0.735300 1 0 1.000000 
0 6.632904 -71.601097 86.161400 0.000000 -0.999602 0.028200 0.877200 -0.704300 1 0 1.000000 
dockpole01
0 4.229398 54.975498 92.024002 0.000000 -0.046301 0.998927 0.809600 -0.242200 1 0 1.000000 
0 8.199897 54.975498 92.024002 0.000000 -0.046301 0.998927 0.856800 -0.240700 1 0 1.000000 
0 4.229397 75.744499 91.447601 -0.000000 0.027700 0.999616 0.809400 -0.127000 1 0 1.000000 
dockpole01
0 8.199897 54.975498 92.024002 0.000000 -0.046301 0.998927 0.856800 -0.240700 1 0 1.000000 
0 4.229398 54.975498 92.024002 0.000000 -0.046301 0.998927 0.809600 -0.242200 1 0 1.000000 
0 6.632904 -71.601097 86.161400 0.000000 -0.046301 0.998927 0.839800 -0.943400 1 0 1.000000 
dockpole01
0 6.632904 -71.601097 86.161400 0.000000 -0.046301 0.998927 0.839800 -0.943400 1 0 1.000000 
0 10.603403 -71.601097 86.161400 0.000000 -0.046301 0.998927 0.887000 -0.941800 1 0 1.000000 
0 8.199897 54.975498 92.024002 0.000000 -0.046301 0.998927 0.856800 -0.240700 1 0 1.000000 
dockpole01
0 8.199897 73.833603 80.131798 -0.000000 0.986040 -0.166507 0.803100 -0.392300 1 0 1.000000 
0 4.229397 73.833603 80.131798 -0.000000 0.986040 -0.166507 0.803100 -0.361300 1 0 1.000000 
0 4.229397 75.744499 91.447601 -0.000000 0.986040 -0.166507 0.891500 -0.361300 1 0 1.000000 
dockpole01
0 -8.660502 72.019096 -111.371902 -0.991036 0.133005 -0.012500 0.188300 -0.999500 1 0 1.000000 
0 -9.580503 67.806702 104.731598 -0.867909 -0.496605 -0.010800 0.203600 -0.030300 1 0 1.000000 
0 -10.603403 71.595802 107.681099 -0.995731 0.091903 -0.008600 0.190400 -0.017100 1 0 1.000000 
dockpole01
0 -8.660502 72.019096 -111.371902 -0.991036 0.133005 -0.012500 0.188300 -0.999500 1 0 1.000000 
0 -5.445003 66.449600 -111.371902 -0.201799 -0.979296 -0.016000 0.218400 -0.999500 1 0 1.000000 
0 -9.580503 67.806702 104.731598 -0.867909 -0.496605 -0.010800 0.203600 -0.030300 1 0 1.000000 
dockpole01
0 -5.445003 66.449600 -111.371902 -0.201799 -0.979296 -0.016000 0.218400 -0.999500 1 0 1.000000 
0 -2.292503 63.357498 100.106796 -0.049302 -0.998734 -0.010000 0.235100 -0.051000 1 0 1.000000 
0 -9.580503 67.806702 104.731598 -0.867909 -0.496605 -0.010800 0.203600 -0.030300 1 0 1.000000 
dockpole01
0 -5.445003 66.449600 -111.371902 -0.201799 -0.979296 -0.016000 0.218400 -0.999500 1 0 1.000000 
0 0.849197 65.032898 100.231400 0.489101 -0.872201 -0.006700 0.248400 -0.050500 1 0 1.000000 
0 -2.292503 63.357498 100.106796 -0.049302 -0.998734 -0.010000 0.235100 -0.051000 1 0 1.000000 
dockpole01
0 -5.445003 66.449600 -111.371902 -0.201799 -0.979296 -0.016000 0.218400 -0.999500 1 0 1.000000 
0 3.340197 68.803596 -111.371902 0.787235 -0.616528 -0.012401 0.268800 -0.999500 1 0 1.000000 
0 0.849197 65.032898 100.231400 0.489101 -0.872201 -0.006700 0.248400 -0.050500 1 0 1.000000 
dockpole01
0 3.340197 68.803596 -111.371902 0.787235 -0.616528 -0.012401 0.268800 -0.999500 1 0 1.000000 
0 6.721497 72.290604 101.037300 0.987993 -0.154199 -0.009600 0.284600 -0.046900 1 0 1.000000 
0 0.849197 65.032898 100.231400 0.489101 -0.872201 -0.006700 0.248400 -0.050500 1 0 1.000000 
dockpole01
0 3.340197 68.803596 -111.371902 0.787235 -0.616528 -0.012401 0.268800 -0.999500 1 0 1.000000 
0 3.340197 75.234703 -111.371902 0.885321 0.464811 -0.012500 0.299700 -0.999500 1 0 1.000000 
0 6.721497 72.290604 101.037300 0.987993 -0.154199 -0.009600 0.284600 -0.046900 1 0 1.000000 
dockpole01
0 3.340197 75.234703 -111.371902 0.885321 0.464811 -0.012500 0.299700 -0.999500 1 0 1.000000 
0 4.817297 76.637901 101.502502 0.608400 0.793600 -0.007000 0.300500 -0.044800 1 0 1.000000 
0 6.721497 72.290604 101.037300 0.987993 -0.154199 -0.009600 0.284600 -0.046900 1 0 1.000000 
dockpole01
0 3.340197 75.234703 -111.371902 0.885321 0.464811 -0.012500 0.299700 -0.999500 1 0 1.000000 
0 -2.229403 78.450302 -111.371902 -0.089201 0.996007 -0.003600 0.327300 -0.999500 1 0 1.000000 
0 4.817297 76.637901 101.502502 0.608400 0.793600 -0.007000 0.300500 -0.044800 1 0 1.000000 
dockpole01
0 -2.229403 78.450302 -111.371902 -0.089201 0.996007 -0.003600 0.327300 -0.999500 1 0 1.000000 
0 -2.229403 78.788399 111.371902 0.078799 0.996889 -0.001500 0.329900 -0.022100 1 0 1.000000 
0 4.817297 76.637901 101.502502 0.608400 0.793600 -0.007000 0.300500 -0.044800 1 0 1.000000 
dockpole01
0 -2.229403 78.450302 -111.371902 -0.089201 0.996007 -0.003600 0.327300 -0.999500 1 0 1.000000 
0 -6.785903 78.158699 108.968498 -0.612688 0.790285 -0.007900 0.343700 -0.011300 1 0 1.000000 
0 -2.229403 78.788399 111.371902 0.078799 0.996889 -0.001500 0.329900 -0.022100 1 0 1.000000 
dockpole01
0 -2.229403 78.450302 -111.371902 -0.089201 0.996007 -0.003600 0.327300 -0.999500 1 0 1.000000 
0 -8.660502 72.019096 -111.371902 -0.991036 0.133005 -0.012500 0.367900 -0.999500 1 0 1.000000 
0 -6.785903 78.158699 108.968498 -0.612688 0.790285 -0.007900 0.343700 -0.011300 1 0 1.000000 
dockpole01
0 -8.660502 72.019096 -111.371902 -0.991036 0.133005 -0.012500 0.367900 -0.999500 1 0 1.000000 
0 -10.603403 71.595802 107.681099 -0.995731 0.091903 -0.008600 0.370000 -0.017100 1 0 1.000000 
0 -6.785903 78.158699 108.968498 -0.612688 0.790285 -0.007900 0.343700 -0.011300 1 0 1.000000 
dockpole01
0 -6.527596 -71.783096 88.558998 0.000000 -1.000000 0.000000 0.893000 -0.730500 1 0 1.000000 
0 -10.498097 -71.783096 88.559097 0.000000 -1.000000 0.000000 0.893000 -0.699500 1 0 1.000000 
0 -10.498097 -71.783096 77.379204 0.000000 -1.000000 0.000000 0.805600 -0.699500 1 0 1.000000 
dockpole01
0 4.355297 73.246201 110.894203 -0.003700 -0.153604 0.988125 0.279600 -0.332700 1 0 1.000000 
0 -7.946203 68.453499 110.102898 0.000000 -0.121905 0.992542 0.258800 -0.279300 1 0 1.000000 
0 0.402697 67.497299 109.985497 0.000000 -0.121905 0.992542 0.254700 -0.315600 1 0 1.000000 
dockpole01
0 4.355297 73.246201 110.894203 -0.003700 -0.153604 0.988125 0.279600 -0.332700 1 0 1.000000 
0 -5.637903 77.881897 111.260597 0.000000 -0.121905 0.992542 0.299700 -0.289300 1 0 1.000000 
0 -7.946203 68.453499 110.102898 0.000000 -0.121905 0.992542 0.258800 -0.279300 1 0 1.000000 
dockpole01
0 4.355297 73.246201 110.894203 -0.003700 -0.153604 0.988125 0.279600 -0.332700 1 0 1.000000 
0 -2.229403 78.788399 111.371902 0.000000 -0.121905 0.992542 0.303700 -0.304100 1 0 1.000000 
0 -5.637903 77.881897 111.260597 0.000000 -0.121905 0.992542 0.299700 -0.289300 1 0 1.000000 
dockpole01
0 4.110303 -71.984299 103.380096 0.867909 0.106801 0.485105 0.319200 -0.162100 1 0 1.000000 
0 5.882903 -65.131203 98.700401 0.860490 0.202498 0.467495 0.349100 -0.189800 1 0 1.000000 
0 3.069803 -62.201599 102.610100 0.858894 0.198799 0.471996 0.364800 -0.161500 1 0 1.000000 
dockpole01
0 5.882903 -65.131203 98.700401 0.867909 0.106801 0.485105 0.349100 -0.189800 1 0 1.000000 
0 4.110303 -71.984299 103.380096 0.867909 0.106801 0.485105 0.319200 -0.162100 1 0 1.000000 
0 7.074604 -74.816902 98.700302 0.842744 -0.007299 0.538264 0.293200 -0.192900 1 0 1.000000 
dockpole01
0 1.127697 65.986298 107.833702 -0.007900 -0.819591 0.572894 0.251400 -0.016400 1 0 1.000000 
0 0.402697 67.497299 109.985497 -0.007900 -0.819591 0.572894 0.252300 -0.006700 1 0 1.000000 
0 -6.085503 64.914902 106.200996 -0.007900 -0.819591 0.572894 0.219800 -0.023700 1 0 1.000000 
dockpole01
0 -10.498103 68.303299 78.469002 -0.000000 0.047100 -0.998890 0.870200 -0.085700 1 0 1.000000 
0 -6.527603 68.303299 78.469002 -0.000000 0.047100 -0.998890 0.829600 -0.084000 1 0 1.000000 
0 -6.527601 34.603298 76.879799 0.000000 -0.004700 -0.999989 0.829300 -0.294600 1 0 1.000000 
dockpole01
0 -6.527601 34.603298 76.879799 0.000000 -0.004700 -0.999989 0.829300 -0.294600 1 0 1.000000 
0 -10.498102 34.603298 76.879799 0.000000 -0.004700 -0.999989 0.869800 -0.296300 1 0 1.000000 
0 -10.498103 68.303299 78.469002 -0.000000 0.047100 -0.998890 0.870200 -0.085700 1 0 1.000000 
dockpole01
0 -10.498102 34.603298 76.879799 0.000000 -0.004700 -0.999989 0.869800 -0.296300 1 0 1.000000 
0 -6.527601 34.603298 76.879799 0.000000 -0.004700 -0.999989 0.829300 -0.294600 1 0 1.000000 
0 -10.498097 -71.783096 77.379204 0.000000 -0.004700 -0.999989 0.868600 -0.961200 1 0 1.000000 
dockpole01
0 0.402697 67.497299 109.985497 0.626903 -0.522403 0.578003 0.252300 -0.006700 1 0 1.000000 
0 1.127697 65.986298 107.833702 0.608487 -0.586388 0.534689 0.251400 -0.016400 1 0 1.000000 
0 4.355297 73.246201 110.894203 0.626903 -0.522403 0.578003 0.290000 -0.002600 1 0 1.000000 
dockpole01
0 4.229397 73.833603 80.131798 0.000000 -0.027700 -0.999616 0.803300 -0.119500 1 0 1.000000 
0 8.199897 73.833603 80.131798 0.000000 -0.027700 -0.999616 0.862700 -0.121100 1 0 1.000000 
0 8.199898 53.064602 80.708099 -0.000000 0.017601 -0.999845 0.862300 -0.240400 1 0 1.000000 
dockpole01
0 8.199898 53.064602 80.708099 -0.000000 0.017601 -0.999845 0.862300 -0.240400 1 0 1.000000 
0 4.229398 53.064602 80.708099 -0.000000 0.017601 -0.999845 0.803000 -0.238800 1 0 1.000000 
0 4.229397 73.833603 80.131798 0.000000 -0.027700 -0.999616 0.803300 -0.119500 1 0 1.000000 
dockpole01
0 4.229398 53.064602 80.708099 -0.000000 0.017601 -0.999845 0.803000 -0.238800 1 0 1.000000 
0 8.199898 53.064602 80.708099 -0.000000 0.017601 -0.999845 0.862300 -0.240400 1 0 1.000000 
0 6.632904 -71.816902 78.511803 -0.000000 0.017601 -0.999845 0.836900 -0.956800 1 0 1.000000 
dockpole01
0 -2.292503 63.357498 100.106796 0.465626 -0.880049 0.093305 0.235100 -0.051000 1 0 1.000000 
0 0.849197 65.032898 100.231400 0.465626 -0.880049 0.093305 0.248400 -0.050500 1 0 1.000000 
0 1.127697 65.986298 107.833702 0.465626 -0.880049 0.093305 0.251400 -0.016400 1 0 1.000000 
dockpole01
0 -10.498103 68.303299 89.648804 -1.000000 -0.000000 0.000000 0.793700 -0.025200 1 0 1.000000 
0 -10.498103 68.303299 78.469002 -1.000000 -0.000000 0.000000 0.886100 -0.021900 1 0 1.000000 
0 -10.498102 34.603298 76.879799 -1.000000 -0.000000 0.000000 0.903800 -0.153100 1 0 1.000000 
dockpole01
0 -10.498102 34.603298 76.879799 -1.000000 -0.000000 0.000000 0.903800 -0.153100 1 0 1.000000 
0 -10.498102 34.603298 88.059601 -1.000000 -0.000000 0.000000 0.811500 -0.156300 1 0 1.000000 
0 -10.498103 68.303299 89.648804 -1.000000 -0.000000 0.000000 0.793700 -0.025200 1 0 1.000000 
dockpole01
0 -10.498102 34.603298 88.059601 -1.000000 -0.000000 0.000000 0.811500 -0.156300 1 0 1.000000 
0 -10.498102 34.603298 76.879799 -1.000000 -0.000000 0.000000 0.903800 -0.153100 1 0 1.000000 
0 -10.498097 -71.783096 77.379204 -1.000000 -0.000000 0.000000 0.898400 -0.979100 1 0 1.000000 
dockpole01
0 -10.498097 -71.783096 77.379204 -1.000000 -0.000000 0.000000 0.898400 -0.979100 1 0 1.000000 
0 -10.498097 -71.783096 88.559097 -1.000000 -0.000000 0.000000 0.806000 -0.982400 1 0 1.000000 
0 -10.498102 34.603298 88.059601 -1.000000 -0.000000 0.000000 0.811500 -0.156300 1 0 1.000000 
dockpole01
0 4.229397 75.744499 91.447601 -1.000000 -0.000000 0.000000 0.791200 -0.073500 1 0 1.000000 
0 4.229397 73.833603 80.131798 -1.000000 -0.000000 0.000000 0.900000 -0.085000 1 0 1.000000 
0 4.229398 53.064602 80.708099 -0.999808 -0.019300 0.003300 0.894500 -0.209900 1 0 1.000000 
dockpole01
0 4.229398 53.064602 80.708099 -0.999808 -0.019300 0.003300 0.894500 -0.209900 1 0 1.000000 
0 4.229398 54.975498 92.024002 -0.999814 -0.019200 0.001900 0.785700 -0.198400 1 0 1.000000 
0 4.229397 75.744499 91.447601 -1.000000 -0.000000 0.000000 0.791200 -0.073500 1 0 1.000000 
dockpole01
0 4.229398 54.975498 92.024002 -0.999814 -0.019200 0.001900 0.785700 -0.198400 1 0 1.000000 
0 4.229398 53.064602 80.708099 -0.999808 -0.019300 0.003300 0.894500 -0.209900 1 0 1.000000 
0 6.632904 -71.816902 78.511803 -0.999814 -0.019200 0.001900 0.915600 -0.961100 1 0 1.000000 
dockpole01
0 6.632904 -71.816902 78.511803 -0.999814 -0.019200 0.001900 0.915600 -0.961100 1 0 1.000000 
0 6.632904 -71.601097 86.161400 -0.999819 -0.019000 0.000500 0.842000 -0.959800 1 0 1.000000 
0 4.229398 54.975498 92.024002 -0.999814 -0.019200 0.001900 0.785700 -0.198400 1 0 1.000000 
dockpole01
0 1.127697 65.986298 107.833702 0.075803 -0.953742 0.290913 0.251400 -0.016400 1 0 1.000000 
0 -6.085503 64.914902 106.200996 0.075803 -0.953742 0.290913 0.219800 -0.023700 1 0 1.000000 
0 -2.292503 63.357498 100.106796 0.075803 -0.953742 0.290913 0.235100 -0.051000 1 0 1.000000 
dockpole01
0 6.721497 72.290604 101.037300 0.910408 0.381603 0.159801 0.284600 -0.046900 1 0 1.000000 
0 4.817297 76.637901 101.502502 0.910408 0.381603 0.159801 0.300500 -0.044800 1 0 1.000000 
0 4.355297 73.246201 110.894203 0.907814 0.378206 0.181203 0.290000 -0.002600 1 0 1.000000 
dockpole01
0 -2.229403 78.788399 111.371902 0.628316 0.721318 0.291407 0.327300 -0.000500 1 0 1.000000 
0 4.355297 73.246201 110.894203 0.628316 0.721318 0.291407 0.290000 -0.002600 1 0 1.000000 
0 4.817297 76.637901 101.502502 0.628316 0.721318 0.291407 0.300500 -0.044800 1 0 1.000000 
dockpole01
0 6.721497 72.290604 101.037300 0.841864 -0.479080 0.248489 0.284600 -0.046900 1 0 1.000000 
0 4.355297 73.246201 110.894203 0.841864 -0.479080 0.248489 0.290000 -0.002600 1 0 1.000000 
0 1.127697 65.986298 107.833702 0.841864 -0.479080 0.248489 0.251400 -0.016400 1 0 1.000000 
dockpole01
0 -7.946203 68.453499 110.102898 -0.077503 -0.756634 0.649229 0.204000 -0.006200 1 0 1.000000 
0 -6.085503 64.914902 106.200996 -0.077503 -0.756634 0.649229 0.219800 -0.023700 1 0 1.000000 
0 0.402697 67.497299 109.985497 -0.077503 -0.756634 0.649229 0.252300 -0.006700 1 0 1.000000 
dockpole01
0 -2.229403 78.788399 111.371902 -0.256795 0.935782 0.241595 0.327300 -0.000500 1 0 1.000000 
0 -6.785903 78.158699 108.968498 -0.256795 0.935782 0.241595 0.343700 -0.011300 1 0 1.000000 
0 -5.637903 77.881897 111.260597 -0.256795 0.935782 0.241595 0.340700 -0.001000 1 0 1.000000 
dockpole01
0 8.199897 73.833603 80.131798 0.936382 0.187196 0.296894 0.900000 -0.085000 1 0 1.000000 
0 4.229397 75.744499 91.447601 0.936382 0.187196 0.296894 0.791200 -0.073500 1 0 1.000000 
0 8.199897 54.975498 92.024002 0.936382 0.187196 0.296894 0.785700 -0.198400 1 0 1.000000 
dockpole01
0 -10.603403 71.595802 107.681099 -0.830209 -0.464305 0.308503 0.190400 -0.017100 1 0 1.000000 
0 -9.580503 67.806702 104.731598 -0.830209 -0.464305 0.308503 0.203600 -0.030300 1 0 1.000000 
0 -7.946203 68.453499 110.102898 -0.830209 -0.464305 0.308503 0.204000 -0.006200 1 0 1.000000 
dockpole01
0 6.721497 72.290604 101.037300 0.817104 -0.569903 0.086900 0.284600 -0.046900 1 0 1.000000 
0 1.127697 65.986298 107.833702 0.773613 -0.631611 0.050901 0.251400 -0.016400 1 0 1.000000 
0 0.849197 65.032898 100.231400 0.773613 -0.631611 0.050901 0.248400 -0.050500 1 0 1.000000 
dockpole01
0 -6.785903 78.158699 108.968498 -0.553500 0.161700 0.817001 0.356900 -0.012500 1 0 1.000000 
0 -10.603403 71.595802 107.681099 -0.553500 0.161700 0.817001 0.370000 -0.017100 1 0 1.000000 
0 -7.946203 68.453499 110.102898 -0.553500 0.161700 0.817001 0.368100 -0.004200 1 0 1.000000 
dockpole01
0 -9.580503 67.806702 104.731598 -0.587405 -0.792707 -0.163002 0.203600 -0.030300 1 0 1.000000 
0 -2.292503 63.357498 100.106796 -0.587405 -0.792707 -0.163002 0.235100 -0.051000 1 0 1.000000 
0 -6.085503 64.914902 106.200996 -0.587405 -0.792707 -0.163002 0.219800 -0.023700 1 0 1.000000 
dockpole01
0 -6.527603 68.303299 89.648804 0.000000 -0.047100 0.998890 0.848400 -0.017000 1 0 1.000000 
0 -10.498103 68.303299 89.648804 0.000000 -0.047100 0.998890 0.887600 -0.017000 1 0 1.000000 
0 -10.498102 34.603298 88.059601 -0.000000 0.004700 0.999989 0.887600 -0.247400 1 0 1.000000 
dockpole01
0 -10.498102 34.603298 88.059601 -0.000000 0.004700 0.999989 0.887600 -0.247400 1 0 1.000000 
0 -6.527601 34.603298 88.059601 -0.000000 0.004700 0.999989 0.848400 -0.247400 1 0 1.000000 
0 -6.527603 68.303299 89.648804 0.000000 -0.047100 0.998890 0.848400 -0.017000 1 0 1.000000 
dockpole01
0 -6.527601 34.603298 88.059601 -0.000000 0.004700 0.999989 0.848400 -0.247400 1 0 1.000000 
0 -10.498102 34.603298 88.059601 -0.000000 0.004700 0.999989 0.887600 -0.247400 1 0 1.000000 
0 -10.498097 -71.783096 88.559097 -0.000000 0.004700 0.999989 0.887600 -0.974700 1 0 1.000000 
dockpole01
0 -10.498097 -71.783096 88.559097 -0.000000 0.004700 0.999989 0.887600 -0.974700 1 0 1.000000 
0 -6.527596 -71.783096 88.558998 -0.000000 0.004700 0.999989 0.848400 -0.974700 1 0 1.000000 
0 -6.527601 34.603298 88.059601 -0.000000 0.004700 0.999989 0.848400 -0.247400 1 0 1.000000 
dockpole01
0 -7.946203 68.453499 110.102898 -0.875095 0.158099 0.457398 0.368100 -0.004200 1 0 1.000000 
0 -5.637903 77.881897 111.260597 -0.875095 0.158099 0.457398 0.354200 -0.002400 1 0 1.000000 
0 -6.785903 78.158699 108.968498 -0.875095 0.158099 0.457398 0.356900 -0.012500 1 0 1.000000 
dockpole01
0 -9.580503 67.806702 104.731598 -0.679493 -0.674793 0.287997 0.203600 -0.030300 1 0 1.000000 
0 -6.085503 64.914902 106.200996 -0.679493 -0.674793 0.287997 0.219800 -0.023700 1 0 1.000000 
0 -7.946203 68.453499 110.102898 -0.679493 -0.674793 0.287997 0.204000 -0.006200 1 0 1.000000 
end
