version 1
nodes
  0 "static_prop" -1
end
skeleton
time 0
0 0.000000 0.000000 0.000000 0.000000 0.000000 0.000000
end
triangles
sink01_dirty
0 -5.071900 -1.401400 1.325900 0.410699 -0.899197 0.150900 0.091200 -0.420500 1 0 1.000000 
0 -5.184100 -1.611700 0.377700 0.410699 -0.899197 0.150900 0.087200 -0.458800 1 0 1.000000 
0 -4.529900 -1.312600 0.380000 0.410699 -0.899197 0.150900 0.101600 -0.458900 1 0 1.000000 
sink01_dirty
0 -5.452100 1.056600 3.357500 0.342000 0.939700 0.000000 0.157200 -0.720300 1 0 1.000000 
0 -6.303900 1.366700 4.277900 0.120403 0.992725 0.000000 0.175300 -0.683400 1 0 1.000000 
0 -5.452100 1.056600 4.277900 0.342000 0.939700 0.000000 0.157200 -0.683400 1 0 1.000000 
sink01_dirty
0 -5.452100 1.056600 3.357500 0.342000 0.939700 0.000000 0.157200 -0.720300 1 0 1.000000 
0 -6.303900 1.366700 3.357500 -0.120403 0.992725 0.000000 0.175300 -0.720300 1 0 1.000000 
0 -6.303900 1.366700 4.277900 0.120403 0.992725 0.000000 0.175300 -0.683400 1 0 1.000000 
sink01_dirty
0 -6.303900 1.366700 3.357500 -0.120403 0.992725 0.000000 0.175300 -0.720300 1 0 1.000000 
0 -7.155700 1.056600 4.277900 -0.549312 0.835617 0.000000 0.193400 -0.683400 1 0 1.000000 
0 -6.303900 1.366700 4.277900 0.120403 0.992725 0.000000 0.175300 -0.683400 1 0 1.000000 
sink01_dirty
0 -6.303900 1.366700 3.357500 -0.120403 0.992725 0.000000 0.175300 -0.720300 1 0 1.000000 
0 -7.155700 1.056600 3.357500 -0.736614 0.676313 0.000000 0.193400 -0.720300 1 0 1.000000 
0 -7.155700 1.056600 4.277900 -0.549312 0.835617 0.000000 0.193400 -0.683400 1 0 1.000000 
sink01_dirty
0 -7.155700 1.056600 3.357500 -0.736614 0.676313 0.000000 0.193400 -0.720300 1 0 1.000000 
0 -7.585000 0.289800 4.277900 -0.956537 0.291611 0.000000 0.211500 -0.683400 1 0 1.000000 
0 -7.155700 1.056600 4.277900 -0.549312 0.835617 0.000000 0.193400 -0.683400 1 0 1.000000 
sink01_dirty
0 -7.155700 1.056600 3.357500 -0.736614 0.676313 0.000000 0.193400 -0.720300 1 0 1.000000 
0 -7.585000 0.289800 3.357500 -0.997490 0.070799 0.000000 0.211500 -0.720300 1 0 1.000000 
0 -7.585000 0.289800 4.277900 -0.956537 0.291611 0.000000 0.211500 -0.683400 1 0 1.000000 
sink01_dirty
0 -7.585000 0.289800 3.357500 -0.997490 0.070799 0.000000 0.211500 -0.720300 1 0 1.000000 
0 -7.480800 -0.431300 4.277900 -0.962863 -0.269990 0.000000 0.229600 -0.683400 1 0 1.000000 
0 -7.585000 0.289800 4.277900 -0.956537 0.291611 0.000000 0.211500 -0.683400 1 0 1.000000 
sink01_dirty
0 -7.585000 0.289800 3.357500 -0.997490 0.070799 0.000000 0.211500 -0.720300 1 0 1.000000 
0 -7.480800 -0.431300 3.357500 -0.918860 -0.394583 0.000000 0.229600 -0.720300 1 0 1.000000 
0 -7.480800 -0.431300 4.277900 -0.962863 -0.269990 0.000000 0.229600 -0.683400 1 0 1.000000 
sink01_dirty
0 -7.480800 -0.431300 3.357500 -0.918860 -0.394583 0.000000 0.229600 -0.720300 1 0 1.000000 
0 -7.131700 -1.019600 4.277900 -0.716000 -0.698100 0.000000 0.247700 -0.683400 1 0 1.000000 
0 -7.480800 -0.431300 4.277900 -0.962863 -0.269990 0.000000 0.229600 -0.683400 1 0 1.000000 
sink01_dirty
0 -7.480800 -0.431300 3.357500 -0.918860 -0.394583 0.000000 0.229600 -0.720300 1 0 1.000000 
0 -7.131700 -1.019600 3.357500 -0.519296 -0.854594 0.000000 0.247700 -0.720300 1 0 1.000000 
0 -7.131700 -1.019600 4.277900 -0.716000 -0.698100 0.000000 0.247700 -0.683400 1 0 1.000000 
sink01_dirty
0 -7.131700 -1.019600 3.357500 -0.519296 -0.854594 0.000000 0.247700 -0.720300 1 0 1.000000 
0 -6.303900 -1.283700 4.277900 -0.092997 -0.995666 0.000000 0.265800 -0.683400 1 0 1.000000 
0 -7.131700 -1.019600 4.277900 -0.716000 -0.698100 0.000000 0.247700 -0.683400 1 0 1.000000 
sink01_dirty
0 -7.131700 -1.019600 3.357500 -0.519296 -0.854594 0.000000 0.247700 -0.720300 1 0 1.000000 
0 -6.303900 -1.283700 3.357500 0.133002 -0.991116 0.000000 0.265800 -0.720300 1 0 1.000000 
0 -6.303900 -1.283700 4.277900 -0.092997 -0.995666 0.000000 0.265800 -0.683400 1 0 1.000000 
sink01_dirty
0 -6.303900 -1.283700 3.357500 0.133002 -0.991116 0.000000 0.265800 -0.720300 1 0 1.000000 
0 -5.452100 -0.973600 4.277900 0.545807 -0.837911 0.000000 0.283900 -0.683400 1 0 1.000000 
0 -6.303900 -1.283700 4.277900 -0.092997 -0.995666 0.000000 0.265800 -0.683400 1 0 1.000000 
sink01_dirty
0 -6.303900 -1.283700 3.357500 0.133002 -0.991116 0.000000 0.265800 -0.720300 1 0 1.000000 
0 -5.452100 -0.973600 3.357500 0.730360 -0.683062 0.000000 0.283900 -0.720300 1 0 1.000000 
0 -5.452100 -0.973600 4.277900 0.545807 -0.837911 0.000000 0.283900 -0.683400 1 0 1.000000 
sink01_dirty
0 -5.452100 -0.973600 3.357500 0.730360 -0.683062 0.000000 0.283900 -0.720300 1 0 1.000000 
0 -4.998900 -0.188600 4.277900 0.866019 -0.500011 0.000000 0.302000 -0.683400 1 0 1.000000 
0 -5.452100 -0.973600 4.277900 0.545807 -0.837911 0.000000 0.283900 -0.683400 1 0 1.000000 
sink01_dirty
0 -5.452100 -0.973600 3.357500 0.730360 -0.683062 0.000000 0.283900 -0.720300 1 0 1.000000 
0 -4.998900 -0.188600 3.357500 0.866019 -0.500011 0.000000 0.302000 -0.720300 1 0 1.000000 
0 -4.998900 -0.188600 4.277900 0.866019 -0.500011 0.000000 0.302000 -0.683400 1 0 1.000000 
sink01_dirty
0 -4.904900 1.364300 1.738600 0.398320 0.001600 -0.917245 0.270100 -0.680700 1 0 1.000000 
0 -1.674000 1.061000 3.137600 0.397380 0.000000 -0.917654 0.264100 -0.539900 1 0 1.000000 
0 -1.674000 -0.941300 3.137600 0.398320 0.001600 -0.917245 0.224000 -0.539900 1 0 1.000000 
sink01_dirty
0 -1.674000 -0.941300 3.137600 0.398320 0.001600 -0.917245 0.224000 -0.539900 1 0 1.000000 
0 -4.895200 -1.205200 1.733900 0.399305 0.003200 -0.916812 0.218700 -0.680400 1 0 1.000000 
0 -4.904900 1.364300 1.738600 0.398320 0.001600 -0.917245 0.270100 -0.680700 1 0 1.000000 
sink01_dirty
0 -1.871000 0.689300 3.680500 -0.255010 0.000700 0.966938 0.221400 -0.299300 1 0 1.000000 
0 -7.486900 -1.196600 2.200700 -0.255010 0.000700 0.966938 0.261000 -0.530700 1 0 1.000000 
0 -1.871000 -0.569600 3.680500 -0.254798 -0.000000 0.966994 0.246500 -0.299300 1 0 1.000000 
sink01_dirty
0 -1.871000 0.689300 3.680500 -0.255010 0.000700 0.966938 0.221400 -0.299300 1 0 1.000000 
0 -7.466500 1.412200 2.202400 -0.255197 0.001400 0.966888 0.208800 -0.531500 1 0 1.000000 
0 -7.486900 -1.196600 2.200700 -0.255010 0.000700 0.966938 0.261000 -0.530700 1 0 1.000000 
sink01_dirty
0 -4.529900 -1.312600 0.380000 0.867627 -0.000800 0.497215 0.104700 -0.504600 1 0 1.000000 
0 -4.532300 1.470600 0.388900 0.867516 -0.000900 0.497409 0.160300 -0.504300 1 0 1.000000 
0 -5.071900 1.559100 1.330200 0.867627 -0.000800 0.497215 0.162100 -0.460300 1 0 1.000000 
sink01_dirty
0 -5.071900 1.559100 1.330200 0.867627 -0.000800 0.497215 0.162100 -0.460300 1 0 1.000000 
0 -5.071900 -1.401400 1.325900 0.867695 -0.000700 0.497097 0.102900 -0.460400 1 0 1.000000 
0 -4.529900 -1.312600 0.380000 0.867627 -0.000800 0.497215 0.104700 -0.504600 1 0 1.000000 
sink01_dirty
0 -5.682800 0.049400 3.287500 0.975487 -0.219497 -0.015700 0.158900 -0.528700 1 0 1.000000 
0 -6.068800 -0.511100 2.441300 0.572576 -0.819765 -0.011899 0.144700 -0.561600 1 0 1.000000 
0 -5.697300 0.050600 2.497800 0.978133 0.207407 -0.015401 0.158800 -0.561600 1 0 1.000000 
sink01_dirty
0 -6.062500 -0.516400 3.287500 0.163404 -0.986525 -0.008200 0.144700 -0.528700 1 0 1.000000 
0 -6.068800 -0.511100 2.441300 0.572576 -0.819765 -0.011899 0.144700 -0.561600 1 0 1.000000 
0 -5.682800 0.049400 3.287500 0.975487 -0.219497 -0.015700 0.158900 -0.528700 1 0 1.000000 
sink01_dirty
0 -6.062500 -0.516400 3.287500 0.163404 -0.986525 -0.008200 0.144700 -0.528700 1 0 1.000000 
0 -6.793000 -0.356300 2.314400 -0.585686 -0.810480 -0.009700 0.130500 -0.561600 1 0 1.000000 
0 -6.068800 -0.511100 2.441300 0.572576 -0.819765 -0.011899 0.144700 -0.561600 1 0 1.000000 
sink01_dirty
0 -6.805000 -0.360300 3.287500 -0.914003 -0.405501 -0.012900 0.130600 -0.528700 1 0 1.000000 
0 -6.793000 -0.356300 2.314400 -0.585686 -0.810480 -0.009700 0.130500 -0.561600 1 0 1.000000 
0 -6.062500 -0.516400 3.287500 0.163404 -0.986525 -0.008200 0.144700 -0.528700 1 0 1.000000 
sink01_dirty
0 -6.805000 -0.360300 3.287500 -0.914003 -0.405501 -0.012900 0.130600 -0.528700 1 0 1.000000 
0 -6.793000 0.434100 2.314400 -0.928018 0.372307 -0.013000 0.116400 -0.561600 1 0 1.000000 
0 -6.793000 -0.356300 2.314400 -0.585686 -0.810480 -0.009700 0.130500 -0.561600 1 0 1.000000 
sink01_dirty
0 -6.805000 0.438000 3.287500 -0.666205 0.745705 -0.009700 0.116400 -0.528700 1 0 1.000000 
0 -6.793000 0.434100 2.314400 -0.928018 0.372307 -0.013000 0.116400 -0.561600 1 0 1.000000 
0 -6.805000 -0.360300 3.287500 -0.914003 -0.405501 -0.012900 0.130600 -0.528700 1 0 1.000000 
sink01_dirty
0 -6.805000 0.438000 3.287500 -0.666205 0.745705 -0.009700 0.116400 -0.528700 1 0 1.000000 
0 -6.104900 0.685800 2.435200 0.066603 0.997742 -0.008700 0.102300 -0.561600 1 0 1.000000 
0 -6.793000 0.434100 2.314400 -0.928018 0.372307 -0.013000 0.116400 -0.561600 1 0 1.000000 
sink01_dirty
0 -6.099500 0.691500 3.287500 0.552585 0.833378 -0.011400 0.102300 -0.528700 1 0 1.000000 
0 -6.104900 0.685800 2.435200 0.066603 0.997742 -0.008700 0.102300 -0.561600 1 0 1.000000 
0 -6.805000 0.438000 3.287500 -0.666205 0.745705 -0.009700 0.116400 -0.528700 1 0 1.000000 
sink01_dirty
0 -6.099500 0.691500 3.287500 0.552585 0.833378 -0.011400 0.102300 -0.528700 1 0 1.000000 
0 -5.697300 0.050600 2.497800 0.978133 0.207407 -0.015401 0.088300 -0.561600 1 0 1.000000 
0 -6.104900 0.685800 2.435200 0.066603 0.997742 -0.008700 0.102300 -0.561600 1 0 1.000000 
sink01_dirty
0 -5.682800 0.049400 3.287500 0.975487 -0.219497 -0.015700 0.088200 -0.528700 1 0 1.000000 
0 -5.697300 0.050600 2.497800 0.978133 0.207407 -0.015401 0.088300 -0.561600 1 0 1.000000 
0 -6.099500 0.691500 3.287500 0.552585 0.833378 -0.011400 0.102300 -0.528700 1 0 1.000000 
sink01_dirty
0 -7.423600 -3.448700 0.377700 0.120998 -0.908584 0.399793 0.077400 -0.344600 1 0 1.000000 
0 -5.729100 -3.259800 0.377700 0.099501 -0.892810 0.439305 0.081600 -0.412900 1 0 1.000000 
0 -5.883100 -2.960900 1.020000 0.120998 -0.908584 0.399793 0.097500 -0.411900 1 0 1.000000 
sink01_dirty
0 -5.883100 -2.960900 1.020000 0.120998 -0.908584 0.399793 0.097500 -0.411900 1 0 1.000000 
0 -7.275600 -3.174700 1.022200 0.142198 -0.922288 0.359395 0.094000 -0.343500 1 0 1.000000 
0 -7.423600 -3.448700 0.377700 0.120998 -0.908584 0.399793 0.077400 -0.344600 1 0 1.000000 
sink01_dirty
0 -7.275600 -3.174700 1.022200 0.016200 -0.188296 0.981979 0.094000 -0.343500 1 0 1.000000 
0 -5.883100 -2.960900 1.020000 0.033700 -0.209198 0.977292 0.097500 -0.411900 1 0 1.000000 
0 -5.071900 -1.401400 1.325900 0.016200 -0.188296 0.981979 0.127500 -0.440200 1 0 1.000000 
sink01_dirty
0 -5.071900 -1.401400 1.325900 0.016200 -0.188296 0.981979 0.127500 -0.440200 1 0 1.000000 
0 -7.928800 -1.445400 1.314600 -0.001300 -0.167204 0.985921 0.127500 -0.325700 1 0 1.000000 
0 -7.275600 -3.174700 1.022200 0.016200 -0.188296 0.981979 0.094000 -0.343500 1 0 1.000000 
sink01_dirty
0 -3.056700 1.221300 4.277900 0.000000 0.000000 1.000000 0.424500 -0.795200 1 0 1.000000 
0 -3.364300 1.398700 4.277900 0.000000 0.000000 1.000000 0.430000 -0.786100 1 0 1.000000 
0 -5.452100 1.056600 4.277900 0.062900 0.080100 0.994800 0.437800 -0.703000 1 0 1.000000 
sink01_dirty
0 -5.452100 1.056600 4.277900 0.062900 0.080100 0.994800 0.437800 -0.703000 1 0 1.000000 
0 -5.077600 0.487800 4.277900 0.077698 0.028299 0.996575 0.424600 -0.709300 1 0 1.000000 
0 -3.056700 1.221300 4.277900 0.000000 0.000000 1.000000 0.424500 -0.795200 1 0 1.000000 
sink01_dirty
0 -3.175500 0.881400 4.277900 0.000000 0.000000 1.000000 0.419000 -0.786100 1 0 1.000000 
0 -3.056700 1.221300 4.277900 0.000000 0.000000 1.000000 0.424500 -0.795200 1 0 1.000000 
0 -5.077600 0.487800 4.277900 0.077698 0.028299 0.996575 0.424600 -0.709300 1 0 1.000000 
sink01_dirty
0 -5.077600 0.487800 4.277900 0.077698 0.028299 0.996575 0.424600 -0.709300 1 0 1.000000 
0 -4.998900 -0.188600 4.277900 0.132807 -0.027901 0.990749 0.411300 -0.703000 1 0 1.000000 
0 -3.175500 0.881400 4.277900 0.000000 0.000000 1.000000 0.419000 -0.786100 1 0 1.000000 
sink01_dirty
0 -2.881000 0.983500 3.808600 0.494101 -0.867001 0.064600 0.484200 -0.753100 1 0 1.000000 
0 -3.175500 0.881400 4.277900 0.501886 -0.855276 0.128896 0.478100 -0.734300 1 0 1.000000 
0 -4.998900 -0.188600 4.277900 0.494101 -0.867001 0.064600 0.435800 -0.734300 1 0 1.000000 
sink01_dirty
0 -4.998900 -0.188600 4.277900 0.494101 -0.867001 0.064600 0.435800 -0.734300 1 0 1.000000 
0 -4.998900 -0.188600 3.357500 0.484224 -0.874944 0.000000 0.435800 -0.771100 1 0 1.000000 
0 -2.881000 0.983500 3.808600 0.494101 -0.867001 0.064600 0.484200 -0.753100 1 0 1.000000 
sink01_dirty
0 -3.069900 1.500800 3.808600 0.174193 0.063498 -0.982662 0.514000 -0.713400 1 0 1.000000 
0 -2.881000 0.983500 3.808600 0.174096 0.063499 -0.982679 0.503000 -0.713400 1 0 1.000000 
0 -4.998900 -0.188600 3.357500 0.125697 0.013600 -0.991975 0.495400 -0.810700 1 0 1.000000 
sink01_dirty
0 -4.998900 -0.188600 3.357500 0.125697 0.013600 -0.991975 0.495400 -0.810700 1 0 1.000000 
0 -5.452100 1.056600 3.357500 0.103004 0.068203 -0.992340 0.521900 -0.810700 1 0 1.000000 
0 -3.069900 1.500800 3.808600 0.174193 0.063498 -0.982662 0.514000 -0.713400 1 0 1.000000 
sink01_dirty
0 -1.871000 0.689300 3.680500 -0.039201 0.831118 0.554712 0.287000 -0.402000 1 0 1.000000 
0 -1.674000 1.061000 3.137600 0.000700 0.937572 0.347790 0.283200 -0.427300 1 0 1.000000 
0 -7.466500 1.412200 2.202400 0.032501 0.939717 0.340406 0.399000 -0.467400 1 0 1.000000 
sink01_dirty
0 -1.674000 1.061000 3.137600 0.000700 0.937572 0.347790 0.283200 -0.427300 1 0 1.000000 
0 -4.904900 1.364300 1.738600 0.065598 0.962566 0.262991 0.347700 -0.484300 1 0 1.000000 
0 -7.466500 1.412200 2.202400 0.032501 0.939717 0.340406 0.399000 -0.467400 1 0 1.000000 
sink01_dirty
0 -5.071900 1.559100 1.330200 0.063601 0.940813 0.332905 0.351100 -0.502300 1 0 1.000000 
0 -7.466500 1.412200 2.202400 0.032501 0.939717 0.340406 0.399000 -0.467400 1 0 1.000000 
0 -4.904900 1.364300 1.738600 0.065598 0.962566 0.262991 0.347700 -0.484300 1 0 1.000000 
sink01_dirty
0 -5.071900 1.559100 1.330200 0.063601 0.940813 0.332905 0.351100 -0.502300 1 0 1.000000 
0 -7.932300 1.674700 1.313900 0.037401 0.963521 0.265006 0.408300 -0.504400 1 0 1.000000 
0 -7.466500 1.412200 2.202400 0.032501 0.939717 0.340406 0.399000 -0.467400 1 0 1.000000 
sink01_dirty
0 -7.932300 1.674700 1.313900 -0.956136 0.163706 0.242909 0.295800 -0.358100 1 0 1.000000 
0 -7.430700 3.242600 1.035800 -0.913252 0.333619 0.233813 0.261100 -0.362600 1 0 1.000000 
0 -7.423600 3.723300 0.377700 -0.926056 0.320785 0.198791 0.255600 -0.389000 1 0 1.000000 
sink01_dirty
0 -7.423600 3.723300 0.377700 -0.926056 0.320785 0.198791 0.255600 -0.389000 1 0 1.000000 
0 -8.014200 1.922400 0.377700 -0.987969 0.103297 0.115096 0.289400 -0.395100 1 0 1.000000 
0 -7.932300 1.674700 1.313900 -0.956136 0.163706 0.242909 0.295800 -0.358100 1 0 1.000000 
sink01_dirty
0 -7.928800 -1.445400 1.314600 -0.960802 -0.076400 0.266501 0.358200 -0.358200 1 0 1.000000 
0 -7.932300 1.674700 1.313900 -0.956136 0.163706 0.242909 0.295800 -0.358100 1 0 1.000000 
0 -8.014200 1.922400 0.377700 -0.987969 0.103297 0.115096 0.289400 -0.395100 1 0 1.000000 
sink01_dirty
0 -8.014200 1.922400 0.377700 -0.987969 0.103297 0.115096 0.289400 -0.395100 1 0 1.000000 
0 -8.014200 -1.764700 0.377700 -0.947709 -0.234002 0.217002 0.363100 -0.395200 1 0 1.000000 
0 -7.928800 -1.445400 1.314600 -0.960802 -0.076400 0.266501 0.358200 -0.358200 1 0 1.000000 
sink01_dirty
0 -7.275600 -3.174700 1.022200 -0.897697 -0.344899 0.274199 0.389500 -0.363700 1 0 1.000000 
0 -7.928800 -1.445400 1.314600 -0.960802 -0.076400 0.266501 0.358200 -0.358200 1 0 1.000000 
0 -8.014200 -1.764700 0.377700 -0.947709 -0.234002 0.217002 0.363100 -0.395200 1 0 1.000000 
sink01_dirty
0 -8.014200 -1.764700 0.377700 -0.947709 -0.234002 0.217002 0.363100 -0.395200 1 0 1.000000 
0 -7.423600 -3.448700 0.377700 -0.888600 -0.311700 0.336500 0.399100 -0.389100 1 0 1.000000 
0 -7.275600 -3.174700 1.022200 -0.897697 -0.344899 0.274199 0.389500 -0.363700 1 0 1.000000 
sink01_dirty
0 -7.932300 1.674700 1.313900 -0.956136 0.163706 0.242909 0.295800 -0.358100 1 0 1.000000 
0 -7.928800 -1.445400 1.314600 -0.960802 -0.076400 0.266501 0.358200 -0.358200 1 0 1.000000 
0 -7.466500 1.412200 2.202400 -0.890794 0.002900 0.454397 0.300800 -0.319300 1 0 1.000000 
sink01_dirty
0 -7.486900 -1.196600 2.200700 -0.895644 0.006700 0.444722 0.352900 -0.319000 1 0 1.000000 
0 -7.466500 1.412200 2.202400 -0.890794 0.002900 0.454397 0.300800 -0.319300 1 0 1.000000 
0 -7.928800 -1.445400 1.314600 -0.960802 -0.076400 0.266501 0.358200 -0.358200 1 0 1.000000 
sink01_dirty
0 -6.303900 0.041500 4.552200 -0.000600 -0.000200 1.000000 0.135500 -0.621600 1 0 1.000000 
0 -6.303900 1.366700 4.277900 -0.000000 0.202708 0.979239 0.162000 -0.621600 1 0 1.000000 
0 -7.155700 1.056600 4.277900 -0.131504 0.154305 0.979232 0.155800 -0.587500 1 0 1.000000 
sink01_dirty
0 -6.303900 0.041500 4.552200 -0.000600 -0.000200 1.000000 0.135500 -0.621600 1 0 1.000000 
0 -5.452100 1.056600 4.277900 0.062900 0.080100 0.994800 0.155800 -0.655700 1 0 1.000000 
0 -6.303900 1.366700 4.277900 -0.000000 0.202708 0.979239 0.162000 -0.621600 1 0 1.000000 
sink01_dirty
0 -6.303900 0.041500 4.552200 -0.000600 -0.000200 1.000000 0.135500 -0.621600 1 0 1.000000 
0 -5.077600 0.487800 4.277900 0.077698 0.028299 0.996575 0.144400 -0.670700 1 0 1.000000 
0 -5.452100 1.056600 4.277900 0.062900 0.080100 0.994800 0.155800 -0.655700 1 0 1.000000 
sink01_dirty
0 -6.303900 0.041500 4.552200 -0.000600 -0.000200 1.000000 0.135500 -0.621600 1 0 1.000000 
0 -4.998900 -0.188600 4.277900 0.132807 -0.027901 0.990749 0.130900 -0.673800 1 0 1.000000 
0 -5.077600 0.487800 4.277900 0.077698 0.028299 0.996575 0.144400 -0.670700 1 0 1.000000 
sink01_dirty
0 -6.303900 0.041500 4.552200 -0.000600 -0.000200 1.000000 0.135500 -0.621600 1 0 1.000000 
0 -5.452100 -0.973600 4.277900 0.130305 -0.155306 0.979235 0.115200 -0.655700 1 0 1.000000 
0 -4.998900 -0.188600 4.277900 0.132807 -0.027901 0.990749 0.130900 -0.673800 1 0 1.000000 
sink01_dirty
0 -6.303900 0.041500 4.552200 -0.000600 -0.000200 1.000000 0.135500 -0.621600 1 0 1.000000 
0 -6.303900 -1.283700 4.277900 0.004500 -0.202706 0.979229 0.109000 -0.621600 1 0 1.000000 
0 -5.452100 -0.973600 4.277900 0.130305 -0.155306 0.979235 0.115200 -0.655700 1 0 1.000000 
sink01_dirty
0 -6.303900 0.041500 4.552200 -0.000600 -0.000200 1.000000 0.135500 -0.621600 1 0 1.000000 
0 -7.131700 -1.019600 4.277900 -0.124496 -0.156094 0.979865 0.114300 -0.588500 1 0 1.000000 
0 -6.303900 -1.283700 4.277900 0.004500 -0.202706 0.979229 0.109000 -0.621600 1 0 1.000000 
sink01_dirty
0 -6.303900 0.041500 4.552200 -0.000600 -0.000200 1.000000 0.135500 -0.621600 1 0 1.000000 
0 -7.480800 -0.431300 4.277900 -0.199593 -0.070098 0.977368 0.126000 -0.574500 1 0 1.000000 
0 -7.131700 -1.019600 4.277900 -0.124496 -0.156094 0.979865 0.114300 -0.588500 1 0 1.000000 
sink01_dirty
0 -6.303900 0.041500 4.552200 -0.000600 -0.000200 1.000000 0.135500 -0.621600 1 0 1.000000 
0 -7.585000 0.289800 4.277900 -0.202303 0.037300 0.978612 0.140400 -0.570400 1 0 1.000000 
0 -7.480800 -0.431300 4.277900 -0.199593 -0.070098 0.977368 0.126000 -0.574500 1 0 1.000000 
sink01_dirty
0 -6.303900 0.041500 4.552200 -0.000600 -0.000200 1.000000 0.135500 -0.621600 1 0 1.000000 
0 -7.155700 1.056600 4.277900 -0.131504 0.154305 0.979232 0.155800 -0.587500 1 0 1.000000 
0 -7.585000 0.289800 4.277900 -0.202303 0.037300 0.978612 0.140400 -0.570400 1 0 1.000000 
sink01_dirty
0 -1.828400 0.059000 3.155700 0.926512 -0.233303 0.295204 0.158900 -0.528700 1 0 1.000000 
0 -1.888800 -0.397900 2.262100 0.528474 -0.843158 0.098995 0.144700 -0.561600 1 0 1.000000 
0 -1.590700 0.058600 2.407500 0.926417 0.233804 0.295105 0.158800 -0.561600 1 0 1.000000 
sink01_dirty
0 -2.207200 -0.511700 2.987100 0.129296 -0.986870 -0.096797 0.144700 -0.528700 1 0 1.000000 
0 -1.888800 -0.397900 2.262100 0.528474 -0.843158 0.098995 0.144700 -0.561600 1 0 1.000000 
0 -1.828400 0.059000 3.155700 0.926512 -0.233303 0.295204 0.158900 -0.528700 1 0 1.000000 
sink01_dirty
0 -2.207200 -0.511700 2.987100 0.129296 -0.986870 -0.096797 0.144700 -0.528700 1 0 1.000000 
0 -2.371100 -0.223500 2.026900 -0.512696 -0.752494 -0.413396 0.130500 -0.561600 1 0 1.000000 
0 -1.888800 -0.397900 2.262100 0.528474 -0.843158 0.098995 0.144700 -0.561600 1 0 1.000000 
sink01_dirty
0 -2.820000 -0.293700 2.714200 -0.757840 -0.375820 -0.533328 0.130600 -0.528700 1 0 1.000000 
0 -2.371100 -0.223500 2.026900 -0.512696 -0.752494 -0.413396 0.130500 -0.561600 1 0 1.000000 
0 -2.207200 -0.511700 2.987100 0.129296 -0.986870 -0.096797 0.144700 -0.528700 1 0 1.000000 
sink01_dirty
0 -2.820000 -0.293700 2.714200 -0.757840 -0.375820 -0.533328 0.130600 -0.528700 1 0 1.000000 
0 -2.371100 0.340800 2.026900 -0.757301 0.376800 -0.533401 0.116400 -0.561600 1 0 1.000000 
0 -2.371100 -0.223500 2.026900 -0.512696 -0.752494 -0.413396 0.130500 -0.561600 1 0 1.000000 
sink01_dirty
0 -2.820000 0.411600 2.714200 -0.512523 0.752434 -0.413719 0.116400 -0.528700 1 0 1.000000 
0 -2.371100 0.340800 2.026900 -0.757301 0.376800 -0.533401 0.116400 -0.561600 1 0 1.000000 
0 -2.820000 -0.293700 2.714200 -0.757840 -0.375820 -0.533328 0.130600 -0.528700 1 0 1.000000 
sink01_dirty
0 -2.820000 0.411600 2.714200 -0.512523 0.752434 -0.413719 0.116400 -0.528700 1 0 1.000000 
0 -1.888800 0.515100 2.262100 0.130006 0.986747 -0.097105 0.102300 -0.561600 1 0 1.000000 
0 -2.371100 0.340800 2.026900 -0.757301 0.376800 -0.533401 0.116400 -0.561600 1 0 1.000000 
sink01_dirty
0 -2.207200 0.629600 2.987100 0.527798 0.843697 0.098000 0.102300 -0.528700 1 0 1.000000 
0 -1.888800 0.515100 2.262100 0.130006 0.986747 -0.097105 0.102300 -0.561600 1 0 1.000000 
0 -2.820000 0.411600 2.714200 -0.512523 0.752434 -0.413719 0.116400 -0.528700 1 0 1.000000 
sink01_dirty
0 -2.207200 0.629600 2.987100 0.527798 0.843697 0.098000 0.102300 -0.528700 1 0 1.000000 
0 -1.590700 0.058600 2.407500 0.926417 0.233804 0.295105 0.088300 -0.561600 1 0 1.000000 
0 -1.888800 0.515100 2.262100 0.130006 0.986747 -0.097105 0.102300 -0.561600 1 0 1.000000 
sink01_dirty
0 -1.828400 0.059000 3.155700 0.926512 -0.233303 0.295204 0.088200 -0.528700 1 0 1.000000 
0 -1.590700 0.058600 2.407500 0.926417 0.233804 0.295105 0.088300 -0.561600 1 0 1.000000 
0 -2.207200 0.629600 2.987100 0.527798 0.843697 0.098000 0.102300 -0.528700 1 0 1.000000 
sink01_dirty
0 -9.212100 -0.000000 0.442000 -0.953907 -0.000000 0.300102 0.039300 -0.878800 1 0 1.000000 
0 -9.458900 -0.000000 -0.342300 -0.948353 -0.000000 0.317218 0.039300 -0.912100 1 0 1.000000 
0 -8.861200 -2.894300 0.442000 -0.918905 -0.213201 0.331902 0.097700 -0.879100 1 0 1.000000 
sink01_dirty
0 -8.861200 -2.894300 0.442000 -0.918905 -0.213201 0.331902 0.097700 -0.879100 1 0 1.000000 
0 -9.458900 -0.000000 -0.342300 -0.948353 -0.000000 0.317218 0.039300 -0.912100 1 0 1.000000 
0 -9.136600 -2.919000 -0.342300 -0.920702 -0.208501 0.329901 0.097700 -0.912400 1 0 1.000000 
sink01_dirty
0 -9.136600 -2.919000 -0.342300 -0.920702 -0.208501 0.329901 0.097700 -0.912400 1 0 1.000000 
0 -8.191600 -5.633700 -0.342300 -0.835829 -0.412015 0.362813 0.156100 -0.912100 1 0 1.000000 
0 -8.861200 -2.894300 0.442000 -0.918905 -0.213201 0.331902 0.097700 -0.879100 1 0 1.000000 
sink01_dirty
0 -8.861200 -2.894300 0.442000 -0.918905 -0.213201 0.331902 0.097700 -0.879100 1 0 1.000000 
0 -8.191600 -5.633700 -0.342300 -0.835829 -0.412015 0.362813 0.156100 -0.912100 1 0 1.000000 
0 -7.919899 -5.480501 0.442000 -0.831262 -0.415581 0.369183 0.156000 -0.878800 1 0 1.000000 
sink01_dirty
0 -7.919899 -5.480501 0.442000 -0.831262 -0.415581 0.369183 0.156000 -0.878800 1 0 1.000000 
0 -8.191600 -5.633700 -0.342300 -0.835829 -0.412015 0.362813 0.156100 -0.912100 1 0 1.000000 
0 -6.422900 -7.773901 0.442000 -0.705109 -0.598108 0.380905 0.214500 -0.879100 1 0 1.000000 
sink01_dirty
0 -6.422900 -7.773901 0.442000 -0.705109 -0.598108 0.380905 0.214500 -0.879100 1 0 1.000000 
0 -8.191600 -5.633700 -0.342300 -0.835829 -0.412015 0.362813 0.156100 -0.912100 1 0 1.000000 
0 -6.688399 -7.964900 -0.342300 -0.705100 -0.596200 0.383900 0.214500 -0.912400 1 0 1.000000 
sink01_dirty
0 -6.688399 -7.964900 -0.342300 -0.705100 -0.596200 0.383900 0.214500 -0.912400 1 0 1.000000 
0 -4.729400 -9.753700 -0.342300 -0.524407 -0.763010 0.377905 0.272900 -0.912100 1 0 1.000000 
0 -6.422900 -7.773901 0.442000 -0.705109 -0.598108 0.380905 0.214500 -0.879100 1 0 1.000000 
sink01_dirty
0 -6.422900 -7.773901 0.442000 -0.705109 -0.598108 0.380905 0.214500 -0.879100 1 0 1.000000 
0 -4.729400 -9.753700 -0.342300 -0.524407 -0.763010 0.377905 0.272900 -0.912100 1 0 1.000000 
0 -4.562799 -9.467500 0.442000 -0.525006 -0.757509 0.388005 0.272900 -0.878800 1 0 1.000000 
sink01_dirty
0 -4.562799 -9.467500 0.442000 -0.525006 -0.757509 0.388005 0.272900 -0.878800 1 0 1.000000 
0 -4.729400 -9.753700 -0.342300 -0.524407 -0.763010 0.377905 0.272900 -0.912100 1 0 1.000000 
0 -2.443399 -10.552700 0.442000 -0.282402 -0.880606 0.380503 0.331300 -0.879100 1 0 1.000000 
sink01_dirty
0 -2.443399 -10.552700 0.442000 -0.282402 -0.880606 0.380503 0.331300 -0.879100 1 0 1.000000 
0 -4.729400 -9.753700 -0.342300 -0.524407 -0.763010 0.377905 0.272900 -0.912100 1 0 1.000000 
0 -2.448100 -10.878200 -0.342300 -0.281395 -0.885685 0.369294 0.330800 -0.912400 1 0 1.000000 
sink01_dirty
0 -2.448100 -10.878200 -0.342300 -0.281395 -0.885685 0.369294 0.330800 -0.912400 1 0 1.000000 
0 0.000000 -11.261800 -0.342300 -0.004200 -0.927333 0.374213 0.389700 -0.912100 1 0 1.000000 
0 -2.443399 -10.552700 0.442000 -0.282402 -0.880606 0.380503 0.331300 -0.879100 1 0 1.000000 
sink01_dirty
0 -2.443399 -10.552700 0.442000 -0.282402 -0.880606 0.380503 0.331300 -0.879100 1 0 1.000000 
0 0.000000 -11.261800 -0.342300 -0.004200 -0.927333 0.374213 0.389700 -0.912100 1 0 1.000000 
0 -0.001600 -10.929300 0.442000 -0.009900 -0.920680 0.390192 0.389600 -0.878800 1 0 1.000000 
sink01_dirty
0 -0.001600 -10.929300 0.442000 -0.009900 -0.920680 0.390192 0.389600 -0.878800 1 0 1.000000 
0 0.000000 -11.261800 -0.342300 -0.004200 -0.927333 0.374213 0.389700 -0.912100 1 0 1.000000 
0 2.345100 -10.618700 0.442000 0.278284 -0.894350 0.350280 0.448100 -0.879100 1 0 1.000000 
sink01_dirty
0 2.345100 -10.618700 0.442000 0.278284 -0.894350 0.350280 0.448100 -0.879100 1 0 1.000000 
0 0.000000 -11.261800 -0.342300 -0.004200 -0.927333 0.374213 0.389700 -0.912100 1 0 1.000000 
0 2.448101 -10.878200 -0.342300 0.284304 -0.898412 0.334704 0.448100 -0.912400 1 0 1.000000 
sink01_dirty
0 2.448101 -10.878200 -0.342300 0.284304 -0.898412 0.334704 0.448100 -0.912400 1 0 1.000000 
0 4.729401 -9.753700 -0.342300 0.530094 -0.776790 0.339996 0.506500 -0.912100 1 0 1.000000 
0 2.345100 -10.618700 0.442000 0.278284 -0.894350 0.350280 0.448100 -0.879100 1 0 1.000000 
sink01_dirty
0 2.345100 -10.618700 0.442000 0.278284 -0.894350 0.350280 0.448100 -0.879100 1 0 1.000000 
0 4.729401 -9.753700 -0.342300 0.530094 -0.776790 0.339996 0.506500 -0.912100 1 0 1.000000 
0 4.556901 -9.527700 0.442000 0.529991 -0.776686 0.340394 0.506500 -0.878800 1 0 1.000000 
sink01_dirty
0 4.556901 -9.527700 0.442000 0.529991 -0.776686 0.340394 0.506500 -0.878800 1 0 1.000000 
0 4.729401 -9.753700 -0.342300 0.530094 -0.776790 0.339996 0.506500 -0.912100 1 0 1.000000 
0 6.478001 -7.774700 0.442000 0.717916 -0.605814 0.342908 0.565000 -0.879100 1 0 1.000000 
sink01_dirty
0 6.478001 -7.774700 0.442000 0.717916 -0.605814 0.342908 0.565000 -0.879100 1 0 1.000000 
0 4.729401 -9.753700 -0.342300 0.530094 -0.776790 0.339996 0.506500 -0.912100 1 0 1.000000 
0 6.688400 -7.964900 -0.342300 0.718279 -0.607082 0.339890 0.565000 -0.912400 1 0 1.000000 
sink01_dirty
0 6.688400 -7.964900 -0.342300 0.718279 -0.607082 0.339890 0.565000 -0.912400 1 0 1.000000 
0 8.191600 -5.633699 -0.342300 0.843697 -0.408999 0.347699 0.623400 -0.912100 1 0 1.000000 
0 6.478001 -7.774700 0.442000 0.717916 -0.605814 0.342908 0.565000 -0.879100 1 0 1.000000 
sink01_dirty
0 6.478001 -7.774700 0.442000 0.717916 -0.605814 0.342908 0.565000 -0.879100 1 0 1.000000 
0 8.191600 -5.633699 -0.342300 0.843697 -0.408999 0.347699 0.623400 -0.912100 1 0 1.000000 
0 7.945500 -5.480100 0.442000 0.845818 -0.406808 0.345107 0.623300 -0.878800 1 0 1.000000 
sink01_dirty
0 7.945500 -5.480100 0.442000 0.845818 -0.406808 0.345107 0.623300 -0.878800 1 0 1.000000 
0 8.191600 -5.633699 -0.342300 0.843697 -0.408999 0.347699 0.623400 -0.912100 1 0 1.000000 
0 8.856100 -2.803800 0.442000 0.914709 -0.206102 0.347604 0.681800 -0.879100 1 0 1.000000 
sink01_dirty
0 8.856100 -2.803800 0.442000 0.914709 -0.206102 0.347604 0.681800 -0.879100 1 0 1.000000 
0 8.191600 -5.633699 -0.342300 0.843697 -0.408999 0.347699 0.623400 -0.912100 1 0 1.000000 
0 9.136600 -2.918999 -0.342300 0.911435 -0.205908 0.356214 0.681800 -0.912400 1 0 1.000000 
sink01_dirty
0 9.136600 -2.918999 -0.342300 0.911435 -0.205908 0.356214 0.681800 -0.912400 1 0 1.000000 
0 9.458900 0.000000 -0.342300 0.939005 0.000000 0.343902 0.740200 -0.912100 1 0 1.000000 
0 8.856100 -2.803800 0.442000 0.914709 -0.206102 0.347604 0.681800 -0.879100 1 0 1.000000 
sink01_dirty
0 8.856100 -2.803800 0.442000 0.914709 -0.206102 0.347604 0.681800 -0.879100 1 0 1.000000 
0 9.458900 0.000000 -0.342300 0.939005 0.000000 0.343902 0.740200 -0.912100 1 0 1.000000 
0 9.177500 0.000000 0.442000 0.941259 0.000000 0.337685 0.740200 -0.878800 1 0 1.000000 
sink01_dirty
0 9.177500 0.000000 0.442000 0.941259 0.000000 0.337685 0.039300 -0.834100 1 0 1.000000 
0 9.458900 0.000000 -0.342300 0.939005 0.000000 0.343902 0.039300 -0.867300 1 0 1.000000 
0 8.856100 2.803801 0.442000 0.914709 0.206102 0.347604 0.097700 -0.834300 1 0 1.000000 
sink01_dirty
0 8.856100 2.803801 0.442000 0.914709 0.206102 0.347604 0.097700 -0.834300 1 0 1.000000 
0 9.458900 0.000000 -0.342300 0.939005 0.000000 0.343902 0.039300 -0.867300 1 0 1.000000 
0 9.136600 2.919000 -0.342300 0.911435 0.205908 0.356214 0.097700 -0.867600 1 0 1.000000 
sink01_dirty
0 9.136600 2.919000 -0.342300 0.911435 0.205908 0.356214 0.097700 -0.867600 1 0 1.000000 
0 8.191600 5.633700 -0.342300 0.843697 0.408999 0.347699 0.156100 -0.867300 1 0 1.000000 
0 8.856100 2.803801 0.442000 0.914709 0.206102 0.347604 0.097700 -0.834300 1 0 1.000000 
sink01_dirty
0 8.856100 2.803801 0.442000 0.914709 0.206102 0.347604 0.097700 -0.834300 1 0 1.000000 
0 8.191600 5.633700 -0.342300 0.843697 0.408999 0.347699 0.156100 -0.867300 1 0 1.000000 
0 7.945499 5.480101 0.442000 0.845818 0.406809 0.345107 0.156000 -0.834100 1 0 1.000000 
sink01_dirty
0 7.945499 5.480101 0.442000 0.845818 0.406809 0.345107 0.156000 -0.834100 1 0 1.000000 
0 8.191600 5.633700 -0.342300 0.843697 0.408999 0.347699 0.156100 -0.867300 1 0 1.000000 
0 6.478000 7.774701 0.442000 0.717916 0.605814 0.342908 0.214500 -0.834300 1 0 1.000000 
sink01_dirty
0 6.478000 7.774701 0.442000 0.717916 0.605814 0.342908 0.214500 -0.834300 1 0 1.000000 
0 8.191600 5.633700 -0.342300 0.843697 0.408999 0.347699 0.156100 -0.867300 1 0 1.000000 
0 6.688399 7.964900 -0.342300 0.718279 0.607083 0.339890 0.214500 -0.867600 1 0 1.000000 
sink01_dirty
0 6.688399 7.964900 -0.342300 0.718279 0.607083 0.339890 0.214500 -0.867600 1 0 1.000000 
0 4.729400 9.753700 -0.342300 0.530093 0.776790 0.339996 0.272900 -0.867300 1 0 1.000000 
0 6.478000 7.774701 0.442000 0.717916 0.605814 0.342908 0.214500 -0.834300 1 0 1.000000 
sink01_dirty
0 6.478000 7.774701 0.442000 0.717916 0.605814 0.342908 0.214500 -0.834300 1 0 1.000000 
0 4.729400 9.753700 -0.342300 0.530093 0.776790 0.339996 0.272900 -0.867300 1 0 1.000000 
0 4.556900 9.527700 0.442000 0.529991 0.776686 0.340394 0.272900 -0.834100 1 0 1.000000 
sink01_dirty
0 4.556900 9.527700 0.442000 0.529991 0.776686 0.340394 0.272900 -0.834100 1 0 1.000000 
0 4.729400 9.753700 -0.342300 0.530093 0.776790 0.339996 0.272900 -0.867300 1 0 1.000000 
0 2.345099 10.618700 0.442000 0.278284 0.894350 0.350280 0.331300 -0.834300 1 0 1.000000 
sink01_dirty
0 2.345099 10.618700 0.442000 0.278284 0.894350 0.350280 0.331300 -0.834300 1 0 1.000000 
0 4.729400 9.753700 -0.342300 0.530093 0.776790 0.339996 0.272900 -0.867300 1 0 1.000000 
0 2.448100 10.878200 -0.342300 0.284304 0.898412 0.334704 0.330800 -0.867600 1 0 1.000000 
sink01_dirty
0 2.448100 10.878200 -0.342300 0.284304 0.898412 0.334704 0.330800 -0.867600 1 0 1.000000 
0 -0.000000 11.261800 -0.342300 -0.004200 0.927333 0.374213 0.389700 -0.867300 1 0 1.000000 
0 2.345099 10.618700 0.442000 0.278284 0.894350 0.350280 0.331300 -0.834300 1 0 1.000000 
sink01_dirty
0 2.345099 10.618700 0.442000 0.278284 0.894350 0.350280 0.331300 -0.834300 1 0 1.000000 
0 -0.000000 11.261800 -0.342300 -0.004200 0.927333 0.374213 0.389700 -0.867300 1 0 1.000000 
0 -0.001600 10.929300 0.442000 -0.009900 0.920680 0.390192 0.389600 -0.834100 1 0 1.000000 
sink01_dirty
0 -0.001600 10.929300 0.442000 -0.009900 0.920680 0.390192 0.389600 -0.834100 1 0 1.000000 
0 -0.000000 11.261800 -0.342300 -0.004200 0.927333 0.374213 0.389700 -0.867300 1 0 1.000000 
0 -2.443400 10.552700 0.442000 -0.282402 0.880606 0.380503 0.448100 -0.834300 1 0 1.000000 
sink01_dirty
0 -2.443400 10.552700 0.442000 -0.282402 0.880606 0.380503 0.448100 -0.834300 1 0 1.000000 
0 -0.000000 11.261800 -0.342300 -0.004200 0.927333 0.374213 0.389700 -0.867300 1 0 1.000000 
0 -2.448101 10.878200 -0.342300 -0.281395 0.885685 0.369294 0.448100 -0.867600 1 0 1.000000 
sink01_dirty
0 -2.448101 10.878200 -0.342300 -0.281395 0.885685 0.369294 0.448100 -0.867600 1 0 1.000000 
0 -4.729401 9.753700 -0.342300 -0.524407 0.763010 0.377905 0.506500 -0.867300 1 0 1.000000 
0 -2.443400 10.552700 0.442000 -0.282402 0.880606 0.380503 0.448100 -0.834300 1 0 1.000000 
sink01_dirty
0 -2.443400 10.552700 0.442000 -0.282402 0.880606 0.380503 0.448100 -0.834300 1 0 1.000000 
0 -4.729401 9.753700 -0.342300 -0.524407 0.763010 0.377905 0.506500 -0.867300 1 0 1.000000 
0 -4.562800 9.467500 0.442000 -0.525006 0.757509 0.388005 0.506500 -0.834100 1 0 1.000000 
sink01_dirty
0 -4.562800 9.467500 0.442000 -0.525006 0.757509 0.388005 0.506500 -0.834100 1 0 1.000000 
0 -4.729401 9.753700 -0.342300 -0.524407 0.763010 0.377905 0.506500 -0.867300 1 0 1.000000 
0 -6.422901 7.773900 0.442000 -0.705109 0.598108 0.380905 0.565000 -0.834300 1 0 1.000000 
sink01_dirty
0 -6.422901 7.773900 0.442000 -0.705109 0.598108 0.380905 0.565000 -0.834300 1 0 1.000000 
0 -4.729401 9.753700 -0.342300 -0.524407 0.763010 0.377905 0.506500 -0.867300 1 0 1.000000 
0 -6.688400 7.964900 -0.342300 -0.705100 0.596200 0.383900 0.565000 -0.867600 1 0 1.000000 
sink01_dirty
0 -6.688400 7.964900 -0.342300 -0.705100 0.596200 0.383900 0.565000 -0.867600 1 0 1.000000 
0 -8.191600 5.633699 -0.342300 -0.835829 0.412014 0.362813 0.623400 -0.867300 1 0 1.000000 
0 -6.422901 7.773900 0.442000 -0.705109 0.598108 0.380905 0.565000 -0.834300 1 0 1.000000 
sink01_dirty
0 -6.422901 7.773900 0.442000 -0.705109 0.598108 0.380905 0.565000 -0.834300 1 0 1.000000 
0 -8.191600 5.633699 -0.342300 -0.835829 0.412014 0.362813 0.623400 -0.867300 1 0 1.000000 
0 -7.919900 5.480500 0.442000 -0.831262 0.415581 0.369183 0.623300 -0.834100 1 0 1.000000 
sink01_dirty
0 -7.919900 5.480500 0.442000 -0.831262 0.415581 0.369183 0.623300 -0.834100 1 0 1.000000 
0 -8.191600 5.633699 -0.342300 -0.835829 0.412014 0.362813 0.623400 -0.867300 1 0 1.000000 
0 -8.861200 2.894300 0.442000 -0.918905 0.213201 0.331902 0.681800 -0.834300 1 0 1.000000 
sink01_dirty
0 -8.861200 2.894300 0.442000 -0.918905 0.213201 0.331902 0.681800 -0.834300 1 0 1.000000 
0 -8.191600 5.633699 -0.342300 -0.835829 0.412014 0.362813 0.623400 -0.867300 1 0 1.000000 
0 -9.136600 2.918999 -0.342300 -0.920702 0.208500 0.329901 0.681800 -0.867600 1 0 1.000000 
sink01_dirty
0 -9.136600 2.918999 -0.342300 -0.920702 0.208500 0.329901 0.681800 -0.867600 1 0 1.000000 
0 -9.458900 -0.000000 -0.342300 -0.948353 -0.000000 0.317218 0.740200 -0.867300 1 0 1.000000 
0 -8.861200 2.894300 0.442000 -0.918905 0.213201 0.331902 0.681800 -0.834300 1 0 1.000000 
sink01_dirty
0 -8.861200 2.894300 0.442000 -0.918905 0.213201 0.331902 0.681800 -0.834300 1 0 1.000000 
0 -9.458900 -0.000000 -0.342300 -0.948353 -0.000000 0.317218 0.740200 -0.867300 1 0 1.000000 
0 -9.212100 -0.000000 0.442000 -0.953907 -0.000000 0.300102 0.740200 -0.834100 1 0 1.000000 
sink01_dirty
0 6.268200 -4.575600 0.442000 -0.713303 0.397102 0.577502 0.586200 -0.753300 1 0 1.000000 
0 7.160900 -2.327400 0.442000 -0.803907 0.242202 0.543205 0.651400 -0.805100 1 0 1.000000 
0 3.763400 -4.134500 -2.954700 -0.498693 0.438993 0.747389 0.636200 -0.561400 1 0 1.000000 
sink01_dirty
0 4.847600 -6.506600 0.442000 -0.592685 0.559186 0.579685 0.530200 -0.670900 1 0 1.000000 
0 6.268200 -4.575600 0.442000 -0.713303 0.397102 0.577502 0.586200 -0.753300 1 0 1.000000 
0 3.763400 -4.134500 -2.954700 -0.498693 0.438993 0.747389 0.636200 -0.561400 1 0 1.000000 
sink01_dirty
0 3.106500 -7.938300 0.442000 -0.413512 0.645118 0.642518 0.488600 -0.569900 1 0 1.000000 
0 4.847600 -6.506600 0.442000 -0.592685 0.559186 0.579685 0.530200 -0.670900 1 0 1.000000 
0 3.763400 -4.134500 -2.954700 -0.498693 0.438993 0.747389 0.636200 -0.561400 1 0 1.000000 
sink01_dirty
0 1.235800 -8.819600 0.442000 -0.254210 0.683728 0.684027 0.463100 -0.461400 1 0 1.000000 
0 3.106500 -7.938300 0.442000 -0.413512 0.645118 0.642518 0.488600 -0.569900 1 0 1.000000 
0 3.763400 -4.134500 -2.954700 -0.498693 0.438993 0.747389 0.636200 -0.561400 1 0 1.000000 
sink01_dirty
0 1.235800 -8.819600 0.442000 -0.254210 0.683728 0.684027 0.463100 -0.461400 1 0 1.000000 
0 3.763400 -4.134500 -2.954700 -0.498693 0.438993 0.747389 0.636200 -0.561400 1 0 1.000000 
0 0.282900 -5.139100 -3.600700 -0.022699 0.500785 0.865274 0.616100 -0.422100 1 0 1.000000 
sink01_dirty
0 -0.582800 -9.150100 0.442000 0.032302 0.706037 0.707437 0.453500 -0.355900 1 0 1.000000 
0 1.235800 -8.819600 0.442000 -0.254210 0.683728 0.684027 0.463100 -0.461400 1 0 1.000000 
0 0.282900 -5.139100 -3.600700 -0.022699 0.500785 0.865274 0.616100 -0.422100 1 0 1.000000 
sink01_dirty
0 -2.090400 -8.716500 0.442000 0.270702 0.681405 0.680005 0.466100 -0.268500 1 0 1.000000 
0 -0.582800 -9.150100 0.442000 0.032302 0.706037 0.707437 0.453500 -0.355900 1 0 1.000000 
0 0.282900 -5.139100 -3.600700 -0.022699 0.500785 0.865274 0.616100 -0.422100 1 0 1.000000 
sink01_dirty
0 -2.090400 -8.716500 0.442000 0.270702 0.681405 0.680005 0.466100 -0.268500 1 0 1.000000 
0 0.282900 -5.139100 -3.600700 -0.022699 0.500785 0.865274 0.616100 -0.422100 1 0 1.000000 
0 -2.523700 -4.813800 -3.380400 0.609936 0.385722 0.692240 0.622600 -0.309900 1 0 1.000000 
sink01_dirty
0 -3.273800 -7.848800 0.442000 0.712881 0.474387 0.516486 0.491200 -0.199800 1 0 1.000000 
0 -2.090400 -8.716500 0.442000 0.270702 0.681405 0.680005 0.466100 -0.268500 1 0 1.000000 
0 -2.523700 -4.813800 -3.380400 0.609936 0.385722 0.692240 0.622600 -0.309900 1 0 1.000000 
sink01_dirty
0 -3.999500 -5.381300 0.442000 0.951130 0.184506 0.247608 0.562800 -0.157700 1 0 1.000000 
0 -3.273800 -7.848800 0.442000 0.712881 0.474387 0.516486 0.491200 -0.199800 1 0 1.000000 
0 -2.523700 -4.813800 -3.380400 0.609936 0.385722 0.692240 0.622600 -0.309900 1 0 1.000000 
sink01_dirty
0 -3.999500 -5.381300 0.442000 0.951130 0.184506 0.247608 0.562800 -0.157700 1 0 1.000000 
0 -2.523700 -4.813800 -3.380400 0.609936 0.385722 0.692240 0.622600 -0.309900 1 0 1.000000 
0 -3.789500 -3.253800 -2.295200 0.896164 0.195192 0.398484 0.653800 -0.259200 1 0 1.000000 
sink01_dirty
0 -3.789500 -0.000000 -2.937000 0.927021 -0.000100 0.375009 0.718900 -0.259200 1 0 1.000000 
0 -3.999500 -5.381300 0.442000 0.951130 0.184506 0.247608 0.562800 -0.157700 1 0 1.000000 
0 -3.789500 -3.253800 -2.295200 0.896164 0.195192 0.398484 0.653800 -0.259200 1 0 1.000000 
sink01_dirty
0 -3.789500 -3.253800 -2.295200 0.896164 0.195192 0.398484 0.653800 -0.259200 1 0 1.000000 
0 -2.523700 -4.813800 -3.380400 0.609936 0.385722 0.692240 0.622600 -0.309900 1 0 1.000000 
0 -3.789500 -0.000000 -2.937000 0.927021 -0.000100 0.375009 0.718900 -0.259200 1 0 1.000000 
sink01_dirty
0 -2.523700 -4.813800 -3.380400 0.609936 0.385722 0.692240 0.622600 -0.309900 1 0 1.000000 
0 -2.524600 0.026300 -4.267000 0.327814 -0.000700 0.944742 0.719400 -0.309800 1 0 1.000000 
0 -3.789500 -0.000000 -2.937000 0.927021 -0.000100 0.375009 0.718900 -0.259200 1 0 1.000000 
sink01_dirty
0 -2.523700 -4.813800 -3.380400 0.609936 0.385722 0.692240 0.622600 -0.309900 1 0 1.000000 
0 0.282900 -5.139100 -3.600700 -0.022699 0.500785 0.865274 0.616100 -0.422100 1 0 1.000000 
0 -2.524600 0.026300 -4.267000 0.327814 -0.000700 0.944742 0.719400 -0.309800 1 0 1.000000 
sink01_dirty
0 0.282900 -5.139100 -3.600700 -0.022699 0.500785 0.865274 0.616100 -0.422100 1 0 1.000000 
0 0.293500 0.026300 -4.552200 -0.087199 0.001400 0.996190 0.719400 -0.422600 1 0 1.000000 
0 -2.524600 0.026300 -4.267000 0.327814 -0.000700 0.944742 0.719400 -0.309800 1 0 1.000000 
sink01_dirty
0 0.282900 -5.139100 -3.600700 -0.022699 0.500785 0.865274 0.616100 -0.422100 1 0 1.000000 
0 3.763400 -4.134500 -2.954700 -0.498693 0.438993 0.747389 0.636200 -0.561400 1 0 1.000000 
0 0.293500 0.026300 -4.552200 -0.087199 0.001400 0.996190 0.719400 -0.422600 1 0 1.000000 
sink01_dirty
0 3.763400 -4.134500 -2.954700 -0.498693 0.438993 0.747389 0.636200 -0.561400 1 0 1.000000 
0 3.818700 -0.079200 -4.099100 -0.380611 0.004200 0.924726 0.718900 -0.562100 1 0 1.000000 
0 0.293500 0.026300 -4.552200 -0.087199 0.001400 0.996190 0.719400 -0.422600 1 0 1.000000 
sink01_dirty
0 3.763400 -4.134500 -2.954700 -0.498693 0.438993 0.747389 0.636200 -0.561400 1 0 1.000000 
0 5.927200 0.000000 -2.496200 -0.778296 0.001100 0.627897 0.718900 -0.647900 1 0 1.000000 
0 3.818700 -0.079200 -4.099100 -0.380611 0.004200 0.924726 0.718900 -0.562100 1 0 1.000000 
sink01_dirty
0 3.818700 -0.079200 -4.099100 -0.380611 0.004200 0.924726 0.718900 -0.562100 1 0 1.000000 
0 5.927200 0.000000 -2.496200 -0.778296 0.001100 0.627897 0.718900 -0.647900 1 0 1.000000 
0 3.763400 4.134500 -2.954700 -0.499881 -0.436984 0.747772 0.801500 -0.561400 1 0 1.000000 
sink01_dirty
0 0.293500 0.026300 -4.552200 -0.087199 0.001400 0.996190 0.719400 -0.422600 1 0 1.000000 
0 3.818700 -0.079200 -4.099100 -0.380611 0.004200 0.924726 0.718900 -0.562100 1 0 1.000000 
0 3.763400 4.134500 -2.954700 -0.499881 -0.436984 0.747772 0.801500 -0.561400 1 0 1.000000 
sink01_dirty
0 0.293500 0.026300 -4.552200 -0.087199 0.001400 0.996190 0.719400 -0.422600 1 0 1.000000 
0 3.763400 4.134500 -2.954700 -0.499881 -0.436984 0.747772 0.801500 -0.561400 1 0 1.000000 
0 0.285500 5.165400 -3.600700 -0.022501 -0.502418 0.864332 0.822200 -0.422200 1 0 1.000000 
sink01_dirty
0 -2.524600 0.026300 -4.267000 0.327814 -0.000700 0.944742 0.719400 -0.309800 1 0 1.000000 
0 0.293500 0.026300 -4.552200 -0.087199 0.001400 0.996190 0.719400 -0.422600 1 0 1.000000 
0 0.285500 5.165400 -3.600700 -0.022501 -0.502418 0.864332 0.822200 -0.422200 1 0 1.000000 
sink01_dirty
0 -2.524600 0.026300 -4.267000 0.327814 -0.000700 0.944742 0.719400 -0.309800 1 0 1.000000 
0 0.285500 5.165400 -3.600700 -0.022501 -0.502418 0.864332 0.822200 -0.422200 1 0 1.000000 
0 -2.523700 4.813800 -3.380400 0.611192 -0.385795 0.691091 0.815100 -0.309900 1 0 1.000000 
sink01_dirty
0 -3.789500 -0.000000 -2.937000 0.927021 -0.000100 0.375009 0.718900 -0.259200 1 0 1.000000 
0 -2.524600 0.026300 -4.267000 0.327814 -0.000700 0.944742 0.719400 -0.309800 1 0 1.000000 
0 -2.523700 4.813800 -3.380400 0.611192 -0.385795 0.691091 0.815100 -0.309900 1 0 1.000000 
sink01_dirty
0 -3.999500 -5.381300 0.442000 0.951130 0.184506 0.247608 0.562800 -0.157700 1 0 1.000000 
0 -3.789500 -0.000000 -2.937000 0.927021 -0.000100 0.375009 0.718900 -0.259200 1 0 1.000000 
0 -4.066800 -3.284500 0.442000 0.995137 0.015901 0.097204 0.623600 -0.153800 1 0 1.000000 
sink01_dirty
0 -4.066800 -3.284500 0.442000 0.995137 0.015901 0.097204 0.623600 -0.153800 1 0 1.000000 
0 -3.789500 -0.000000 -2.937000 0.927021 -0.000100 0.375009 0.718900 -0.259200 1 0 1.000000 
0 -4.066800 3.284500 0.442000 0.995137 -0.015901 0.097204 0.814100 -0.153800 1 0 1.000000 
sink01_dirty
0 -4.066800 3.284500 0.442000 0.995137 -0.015901 0.097204 0.814100 -0.153800 1 0 1.000000 
0 -3.789500 -0.000000 -2.937000 0.927021 -0.000100 0.375009 0.718900 -0.259200 1 0 1.000000 
0 -3.999500 5.381300 0.442000 0.951130 -0.184506 0.247608 0.874900 -0.157700 1 0 1.000000 
sink01_dirty
0 -3.789500 3.253800 -2.295200 0.896164 -0.195192 0.398484 0.783900 -0.259200 1 0 1.000000 
0 -3.999500 5.381300 0.442000 0.951130 -0.184506 0.247608 0.874900 -0.157700 1 0 1.000000 
0 -3.789500 -0.000000 -2.937000 0.927021 -0.000100 0.375009 0.718900 -0.259200 1 0 1.000000 
sink01_dirty
0 -3.789500 -0.000000 -2.937000 0.927021 -0.000100 0.375009 0.718900 -0.259200 1 0 1.000000 
0 -2.523700 4.813800 -3.380400 0.611192 -0.385795 0.691091 0.815100 -0.309900 1 0 1.000000 
0 -3.789500 3.253800 -2.295200 0.896164 -0.195192 0.398484 0.783900 -0.259200 1 0 1.000000 
sink01_dirty
0 -3.789500 3.253800 -2.295200 0.896164 -0.195192 0.398484 0.783900 -0.259200 1 0 1.000000 
0 -2.523700 4.813800 -3.380400 0.611192 -0.385795 0.691091 0.815100 -0.309900 1 0 1.000000 
0 -3.999500 5.381300 0.442000 0.951130 -0.184506 0.247608 0.874900 -0.157700 1 0 1.000000 
sink01_dirty
0 -2.523700 4.813800 -3.380400 0.611192 -0.385795 0.691091 0.815100 -0.309900 1 0 1.000000 
0 -3.273800 7.848800 0.442000 0.712881 -0.474387 0.516486 0.946500 -0.199800 1 0 1.000000 
0 -3.999500 5.381300 0.442000 0.951130 -0.184506 0.247608 0.874900 -0.157700 1 0 1.000000 
sink01_dirty
0 -2.523700 4.813800 -3.380400 0.611192 -0.385795 0.691091 0.815100 -0.309900 1 0 1.000000 
0 -2.090400 8.716500 0.442000 0.272906 -0.681814 0.678714 0.971600 -0.268500 1 0 1.000000 
0 -3.273800 7.848800 0.442000 0.712881 -0.474387 0.516486 0.946500 -0.199800 1 0 1.000000 
sink01_dirty
0 -2.523700 4.813800 -3.380400 0.611192 -0.385795 0.691091 0.815100 -0.309900 1 0 1.000000 
0 0.285500 5.165400 -3.600700 -0.022501 -0.502418 0.864332 0.822200 -0.422200 1 0 1.000000 
0 -2.090400 8.716500 0.442000 0.272906 -0.681814 0.678714 0.971600 -0.268500 1 0 1.000000 
sink01_dirty
0 0.285500 5.165400 -3.600700 -0.022501 -0.502418 0.864332 0.822200 -0.422200 1 0 1.000000 
0 -0.582800 9.150100 0.442000 0.032402 -0.708334 0.705134 0.984200 -0.355900 1 0 1.000000 
0 -2.090400 8.716500 0.442000 0.272906 -0.681814 0.678714 0.971600 -0.268500 1 0 1.000000 
sink01_dirty
0 0.285500 5.165400 -3.600700 -0.022501 -0.502418 0.864332 0.822200 -0.422200 1 0 1.000000 
0 1.235800 8.819600 0.442000 -0.256091 -0.684775 0.682275 0.974600 -0.461400 1 0 1.000000 
0 -0.582800 9.150100 0.442000 0.032402 -0.708334 0.705134 0.984200 -0.355900 1 0 1.000000 
sink01_dirty
0 0.285500 5.165400 -3.600700 -0.022501 -0.502418 0.864332 0.822200 -0.422200 1 0 1.000000 
0 3.763400 4.134500 -2.954700 -0.499881 -0.436984 0.747772 0.801500 -0.561400 1 0 1.000000 
0 1.235800 8.819600 0.442000 -0.256091 -0.684775 0.682275 0.974600 -0.461400 1 0 1.000000 
sink01_dirty
0 3.763400 4.134500 -2.954700 -0.499881 -0.436984 0.747772 0.801500 -0.561400 1 0 1.000000 
0 3.106500 7.938300 0.442000 -0.413512 -0.645118 0.642518 0.949100 -0.569900 1 0 1.000000 
0 1.235800 8.819600 0.442000 -0.256091 -0.684775 0.682275 0.974600 -0.461400 1 0 1.000000 
sink01_dirty
0 3.763400 4.134500 -2.954700 -0.499881 -0.436984 0.747772 0.801500 -0.561400 1 0 1.000000 
0 4.847600 6.506600 0.442000 -0.592685 -0.559186 0.579685 0.907500 -0.670900 1 0 1.000000 
0 3.106500 7.938300 0.442000 -0.413512 -0.645118 0.642518 0.949100 -0.569900 1 0 1.000000 
sink01_dirty
0 3.763400 4.134500 -2.954700 -0.499881 -0.436984 0.747772 0.801500 -0.561400 1 0 1.000000 
0 6.268200 4.575601 0.442000 -0.713303 -0.397102 0.577502 0.851500 -0.753300 1 0 1.000000 
0 4.847600 6.506600 0.442000 -0.592685 -0.559186 0.579685 0.907500 -0.670900 1 0 1.000000 
sink01_dirty
0 3.763400 4.134500 -2.954700 -0.499881 -0.436984 0.747772 0.801500 -0.561400 1 0 1.000000 
0 7.160900 2.327400 0.442000 -0.803907 -0.242202 0.543205 0.786400 -0.805100 1 0 1.000000 
0 6.268200 4.575601 0.442000 -0.713303 -0.397102 0.577502 0.851500 -0.753300 1 0 1.000000 
sink01_dirty
0 5.927200 0.000000 -2.496200 -0.778296 0.001100 0.627897 0.718900 -0.647900 1 0 1.000000 
0 7.160900 2.327400 0.442000 -0.803907 -0.242202 0.543205 0.786400 -0.805100 1 0 1.000000 
0 3.763400 4.134500 -2.954700 -0.499881 -0.436984 0.747772 0.801500 -0.561400 1 0 1.000000 
sink01_dirty
0 5.927200 0.000000 -2.496200 -0.778296 0.001100 0.627897 0.718900 -0.647900 1 0 1.000000 
0 7.405600 0.000000 0.442000 -0.893284 -0.000000 0.449492 0.718900 -0.819200 1 0 1.000000 
0 7.160900 2.327400 0.442000 -0.803907 -0.242202 0.543205 0.786400 -0.805100 1 0 1.000000 
sink01_dirty
0 7.160900 -2.327400 0.442000 -0.803907 0.242202 0.543205 0.651400 -0.805100 1 0 1.000000 
0 7.405600 0.000000 0.442000 -0.893284 -0.000000 0.449492 0.718900 -0.819200 1 0 1.000000 
0 5.927200 0.000000 -2.496200 -0.778296 0.001100 0.627897 0.718900 -0.647900 1 0 1.000000 
sink01_dirty
0 3.763400 -4.134500 -2.954700 -0.498693 0.438993 0.747389 0.636200 -0.561400 1 0 1.000000 
0 7.160900 -2.327400 0.442000 -0.803907 0.242202 0.543205 0.651400 -0.805100 1 0 1.000000 
0 5.927200 0.000000 -2.496200 -0.778296 0.001100 0.627897 0.718900 -0.647900 1 0 1.000000 
sink01_dirty
0 4.847600 6.506600 0.442000 0.000000 0.000000 1.000000 0.364500 -0.650000 1 0 1.000000 
0 6.268200 4.575601 0.442000 0.000000 0.000000 1.000000 0.325900 -0.706800 1 0 1.000000 
0 6.478000 7.774701 0.442000 0.000000 0.000000 1.000000 0.389900 -0.715200 1 0 1.000000 
sink01_dirty
0 3.106500 7.938300 0.442000 0.000000 0.000000 1.000000 0.393100 -0.580300 1 0 1.000000 
0 4.847600 6.506600 0.442000 0.000000 0.000000 1.000000 0.364500 -0.650000 1 0 1.000000 
0 6.478000 7.774701 0.442000 0.000000 0.000000 1.000000 0.389900 -0.715200 1 0 1.000000 
sink01_dirty
0 6.478000 7.774701 0.442000 0.000000 0.000000 1.000000 0.389900 -0.715200 1 0 1.000000 
0 4.556900 9.527700 0.442000 0.000000 0.000000 1.000000 0.424900 -0.638300 1 0 1.000000 
0 3.106500 7.938300 0.442000 0.000000 0.000000 1.000000 0.393100 -0.580300 1 0 1.000000 
sink01_dirty
0 4.556900 9.527700 0.442000 0.000000 0.000000 1.000000 0.424900 -0.638300 1 0 1.000000 
0 2.345099 10.618700 0.442000 0.000000 0.000000 1.000000 0.446700 -0.549900 1 0 1.000000 
0 3.106500 7.938300 0.442000 0.000000 0.000000 1.000000 0.393100 -0.580300 1 0 1.000000 
sink01_dirty
0 1.235800 8.819600 0.442000 0.000000 0.000000 1.000000 0.410800 -0.505500 1 0 1.000000 
0 3.106500 7.938300 0.442000 0.000000 0.000000 1.000000 0.393100 -0.580300 1 0 1.000000 
0 2.345099 10.618700 0.442000 0.000000 0.000000 1.000000 0.446700 -0.549900 1 0 1.000000 
sink01_dirty
0 2.345099 10.618700 0.442000 0.000000 0.000000 1.000000 0.446700 -0.549900 1 0 1.000000 
0 -0.001600 10.929300 0.442000 0.000000 0.000000 1.000000 0.453000 -0.456000 1 0 1.000000 
0 1.235800 8.819600 0.442000 0.000000 0.000000 1.000000 0.410800 -0.505500 1 0 1.000000 
sink01_dirty
0 -0.582800 9.150100 0.442000 0.000000 0.000000 1.000000 0.417400 -0.432800 1 0 1.000000 
0 1.235800 8.819600 0.442000 0.000000 0.000000 1.000000 0.410800 -0.505500 1 0 1.000000 
0 -0.001600 10.929300 0.442000 0.000000 0.000000 1.000000 0.453000 -0.456000 1 0 1.000000 
sink01_dirty
0 -0.001600 10.929300 0.442000 0.000000 0.000000 1.000000 0.453000 -0.456000 1 0 1.000000 
0 -2.443400 10.552700 0.442000 0.000000 0.000000 1.000000 0.445400 -0.358300 1 0 1.000000 
0 -0.582800 9.150100 0.442000 0.000000 0.000000 1.000000 0.417400 -0.432800 1 0 1.000000 
sink01_dirty
0 -2.090400 8.716500 0.442000 0.000000 0.000000 1.000000 0.408700 -0.372500 1 0 1.000000 
0 -0.582800 9.150100 0.442000 0.000000 0.000000 1.000000 0.417400 -0.432800 1 0 1.000000 
0 -2.443400 10.552700 0.442000 0.000000 0.000000 1.000000 0.445400 -0.358300 1 0 1.000000 
sink01_dirty
0 -2.090400 8.716500 0.442000 0.000000 0.000000 1.000000 0.408700 -0.372500 1 0 1.000000 
0 -2.443400 10.552700 0.442000 0.000000 0.000000 1.000000 0.445400 -0.358300 1 0 1.000000 
0 -3.273800 7.848800 0.442000 0.000000 0.000000 1.000000 0.391400 -0.325100 1 0 1.000000 
sink01_dirty
0 -2.443400 10.552700 0.442000 0.000000 0.000000 1.000000 0.445400 -0.358300 1 0 1.000000 
0 -4.562800 9.467500 0.442000 0.000000 0.000000 1.000000 0.423700 -0.273600 1 0 1.000000 
0 -3.273800 7.848800 0.442000 0.000000 0.000000 1.000000 0.391400 -0.325100 1 0 1.000000 
sink01_dirty
0 -4.562800 9.467500 0.442000 0.000000 0.000000 1.000000 0.423700 -0.273600 1 0 1.000000 
0 -6.422901 7.773900 0.442000 0.000000 0.000000 1.000000 0.389900 -0.199200 1 0 1.000000 
0 -3.273800 7.848800 0.442000 0.000000 0.000000 1.000000 0.391400 -0.325100 1 0 1.000000 
sink01_dirty
0 -3.999500 5.381300 0.442000 0.000000 0.000000 1.000000 0.342000 -0.296100 1 0 1.000000 
0 -3.273800 7.848800 0.442000 0.000000 0.000000 1.000000 0.391400 -0.325100 1 0 1.000000 
0 -6.422901 7.773900 0.442000 0.000000 0.000000 1.000000 0.389900 -0.199200 1 0 1.000000 
sink01_dirty
0 -3.999500 5.381300 0.442000 0.000000 0.000000 1.000000 0.342000 -0.296100 1 0 1.000000 
0 -6.422901 7.773900 0.442000 0.000000 0.000000 1.000000 0.389900 -0.199200 1 0 1.000000 
0 -4.066800 3.284500 0.442000 0.000000 0.000000 1.000000 0.300100 -0.293400 1 0 1.000000 
sink01_dirty
0 -6.422901 7.773900 0.442000 0.000000 0.000000 1.000000 0.389900 -0.199200 1 0 1.000000 
0 -7.919900 5.480500 0.442000 0.000000 0.000000 1.000000 0.344000 -0.139300 1 0 1.000000 
0 -4.066800 3.284500 0.442000 0.000000 0.000000 1.000000 0.300100 -0.293400 1 0 1.000000 
sink01_dirty
0 -7.919900 5.480500 0.442000 0.000000 0.000000 1.000000 0.344000 -0.139300 1 0 1.000000 
0 -8.861200 2.894300 0.442000 0.000000 0.000000 1.000000 0.292300 -0.101600 1 0 1.000000 
0 -4.066800 3.284500 0.442000 0.000000 0.000000 1.000000 0.300100 -0.293400 1 0 1.000000 
sink01_dirty
0 -8.861200 2.894300 0.442000 0.000000 0.000000 1.000000 0.292300 -0.101600 1 0 1.000000 
0 -9.212100 -0.000000 0.442000 0.000000 0.000000 1.000000 0.234400 -0.087600 1 0 1.000000 
0 -4.066800 3.284500 0.442000 0.000000 0.000000 1.000000 0.300100 -0.293400 1 0 1.000000 
sink01_dirty
0 -4.066800 3.284500 0.442000 0.000000 0.000000 1.000000 0.300100 -0.293400 1 0 1.000000 
0 -9.212100 -0.000000 0.442000 0.000000 0.000000 1.000000 0.234400 -0.087600 1 0 1.000000 
0 -8.861200 -2.894300 0.442000 0.000000 0.000000 1.000000 0.176500 -0.101600 1 0 1.000000 
sink01_dirty
0 -4.066800 3.284500 0.442000 0.000000 0.000000 1.000000 0.300100 -0.293400 1 0 1.000000 
0 -8.861200 -2.894300 0.442000 0.000000 0.000000 1.000000 0.176500 -0.101600 1 0 1.000000 
0 -4.066800 -3.284500 0.442000 0.000000 0.000000 1.000000 0.168700 -0.293400 1 0 1.000000 
sink01_dirty
0 -4.066800 -3.284500 0.442000 0.000000 0.000000 1.000000 0.168700 -0.293400 1 0 1.000000 
0 -8.861200 -2.894300 0.442000 0.000000 0.000000 1.000000 0.176500 -0.101600 1 0 1.000000 
0 -7.919899 -5.480501 0.442000 0.000000 0.000000 1.000000 0.124800 -0.139300 1 0 1.000000 
sink01_dirty
0 -4.066800 -3.284500 0.442000 0.000000 0.000000 1.000000 0.168700 -0.293400 1 0 1.000000 
0 -7.919899 -5.480501 0.442000 0.000000 0.000000 1.000000 0.124800 -0.139300 1 0 1.000000 
0 -6.422900 -7.773901 0.442000 0.000000 0.000000 1.000000 0.078900 -0.199200 1 0 1.000000 
sink01_dirty
0 -4.066800 -3.284500 0.442000 0.000000 0.000000 1.000000 0.168700 -0.293400 1 0 1.000000 
0 -6.422900 -7.773901 0.442000 0.000000 0.000000 1.000000 0.078900 -0.199200 1 0 1.000000 
0 -3.999500 -5.381300 0.442000 0.000000 0.000000 1.000000 0.126700 -0.296100 1 0 1.000000 
sink01_dirty
0 -6.422900 -7.773901 0.442000 0.000000 0.000000 1.000000 0.078900 -0.199200 1 0 1.000000 
0 -3.273800 -7.848800 0.442000 0.000000 0.000000 1.000000 0.077400 -0.325100 1 0 1.000000 
0 -3.999500 -5.381300 0.442000 0.000000 0.000000 1.000000 0.126700 -0.296100 1 0 1.000000 
sink01_dirty
0 -3.273800 -7.848800 0.442000 0.000000 0.000000 1.000000 0.077400 -0.325100 1 0 1.000000 
0 -6.422900 -7.773901 0.442000 0.000000 0.000000 1.000000 0.078900 -0.199200 1 0 1.000000 
0 -4.562799 -9.467500 0.442000 0.000000 0.000000 1.000000 0.045000 -0.273600 1 0 1.000000 
sink01_dirty
0 -3.273800 -7.848800 0.442000 0.000000 0.000000 1.000000 0.077400 -0.325100 1 0 1.000000 
0 -4.562799 -9.467500 0.442000 0.000000 0.000000 1.000000 0.045000 -0.273600 1 0 1.000000 
0 -2.443399 -10.552700 0.442000 0.000000 0.000000 1.000000 0.023300 -0.358300 1 0 1.000000 
sink01_dirty
0 -3.273800 -7.848800 0.442000 0.000000 0.000000 1.000000 0.077400 -0.325100 1 0 1.000000 
0 -2.443399 -10.552700 0.442000 0.000000 0.000000 1.000000 0.023300 -0.358300 1 0 1.000000 
0 -2.090400 -8.716500 0.442000 0.000000 0.000000 1.000000 0.060000 -0.372500 1 0 1.000000 
sink01_dirty
0 -2.443399 -10.552700 0.442000 0.000000 0.000000 1.000000 0.023300 -0.358300 1 0 1.000000 
0 -0.582800 -9.150100 0.442000 0.000000 0.000000 1.000000 0.051400 -0.432800 1 0 1.000000 
0 -2.090400 -8.716500 0.442000 0.000000 0.000000 1.000000 0.060000 -0.372500 1 0 1.000000 
sink01_dirty
0 -0.582800 -9.150100 0.442000 0.000000 0.000000 1.000000 0.051400 -0.432800 1 0 1.000000 
0 -2.443399 -10.552700 0.442000 0.000000 0.000000 1.000000 0.023300 -0.358300 1 0 1.000000 
0 -0.001600 -10.929300 0.442000 0.000000 0.000000 1.000000 0.015800 -0.456000 1 0 1.000000 
sink01_dirty
0 -0.001600 -10.929300 0.442000 0.000000 0.000000 1.000000 0.015800 -0.456000 1 0 1.000000 
0 1.235800 -8.819600 0.442000 0.000000 0.000000 1.000000 0.058000 -0.505500 1 0 1.000000 
0 -0.582800 -9.150100 0.442000 0.000000 0.000000 1.000000 0.051400 -0.432800 1 0 1.000000 
sink01_dirty
0 1.235800 -8.819600 0.442000 0.000000 0.000000 1.000000 0.058000 -0.505500 1 0 1.000000 
0 -0.001600 -10.929300 0.442000 0.000000 0.000000 1.000000 0.015800 -0.456000 1 0 1.000000 
0 2.345100 -10.618700 0.442000 0.000000 0.000000 1.000000 0.022000 -0.549900 1 0 1.000000 
sink01_dirty
0 2.345100 -10.618700 0.442000 0.000000 0.000000 1.000000 0.022000 -0.549900 1 0 1.000000 
0 3.106500 -7.938300 0.442000 0.000000 0.000000 1.000000 0.075600 -0.580300 1 0 1.000000 
0 1.235800 -8.819600 0.442000 0.000000 0.000000 1.000000 0.058000 -0.505500 1 0 1.000000 
sink01_dirty
0 3.106500 -7.938300 0.442000 0.000000 0.000000 1.000000 0.075600 -0.580300 1 0 1.000000 
0 2.345100 -10.618700 0.442000 0.000000 0.000000 1.000000 0.022000 -0.549900 1 0 1.000000 
0 4.556901 -9.527700 0.442000 0.000000 0.000000 1.000000 0.043800 -0.638300 1 0 1.000000 
sink01_dirty
0 3.106500 -7.938300 0.442000 0.000000 0.000000 1.000000 0.075600 -0.580300 1 0 1.000000 
0 4.556901 -9.527700 0.442000 0.000000 0.000000 1.000000 0.043800 -0.638300 1 0 1.000000 
0 6.478001 -7.774700 0.442000 0.000000 0.000000 1.000000 0.078900 -0.715200 1 0 1.000000 
sink01_dirty
0 6.478001 -7.774700 0.442000 0.000000 0.000000 1.000000 0.078900 -0.715200 1 0 1.000000 
0 4.847600 -6.506600 0.442000 0.000000 0.000000 1.000000 0.104200 -0.650000 1 0 1.000000 
0 3.106500 -7.938300 0.442000 0.000000 0.000000 1.000000 0.075600 -0.580300 1 0 1.000000 
sink01_dirty
0 6.478001 -7.774700 0.442000 0.000000 0.000000 1.000000 0.078900 -0.715200 1 0 1.000000 
0 6.268200 -4.575600 0.442000 0.000000 0.000000 1.000000 0.142900 -0.706800 1 0 1.000000 
0 4.847600 -6.506600 0.442000 0.000000 0.000000 1.000000 0.104200 -0.650000 1 0 1.000000 
sink01_dirty
0 7.945500 -5.480100 0.442000 0.000000 0.000000 1.000000 0.124800 -0.773900 1 0 1.000000 
0 6.268200 -4.575600 0.442000 0.000000 0.000000 1.000000 0.142900 -0.706800 1 0 1.000000 
0 6.478001 -7.774700 0.442000 0.000000 0.000000 1.000000 0.078900 -0.715200 1 0 1.000000 
sink01_dirty
0 7.945500 -5.480100 0.442000 0.000000 0.000000 1.000000 0.124800 -0.773900 1 0 1.000000 
0 7.160900 -2.327400 0.442000 0.000000 0.000000 1.000000 0.187800 -0.742500 1 0 1.000000 
0 6.268200 -4.575600 0.442000 0.000000 0.000000 1.000000 0.142900 -0.706800 1 0 1.000000 
sink01_dirty
0 8.856100 -2.803800 0.442000 0.000000 0.000000 1.000000 0.178300 -0.810300 1 0 1.000000 
0 7.160900 -2.327400 0.442000 0.000000 0.000000 1.000000 0.187800 -0.742500 1 0 1.000000 
0 7.945500 -5.480100 0.442000 0.000000 0.000000 1.000000 0.124800 -0.773900 1 0 1.000000 
sink01_dirty
0 8.856100 -2.803800 0.442000 0.000000 0.000000 1.000000 0.178300 -0.810300 1 0 1.000000 
0 7.405600 0.000000 0.442000 0.000000 0.000000 1.000000 0.234400 -0.752300 1 0 1.000000 
0 7.160900 -2.327400 0.442000 0.000000 0.000000 1.000000 0.187800 -0.742500 1 0 1.000000 
sink01_dirty
0 9.177500 0.000000 0.442000 0.000000 0.000000 1.000000 0.234400 -0.823200 1 0 1.000000 
0 7.405600 0.000000 0.442000 0.000000 0.000000 1.000000 0.234400 -0.752300 1 0 1.000000 
0 8.856100 -2.803800 0.442000 0.000000 0.000000 1.000000 0.178300 -0.810300 1 0 1.000000 
sink01_dirty
0 8.856100 2.803801 0.442000 0.000000 0.000000 1.000000 0.290500 -0.810300 1 0 1.000000 
0 7.405600 0.000000 0.442000 0.000000 0.000000 1.000000 0.234400 -0.752300 1 0 1.000000 
0 9.177500 0.000000 0.442000 0.000000 0.000000 1.000000 0.234400 -0.823200 1 0 1.000000 
sink01_dirty
0 7.160900 2.327400 0.442000 0.000000 0.000000 1.000000 0.280900 -0.742500 1 0 1.000000 
0 7.405600 0.000000 0.442000 0.000000 0.000000 1.000000 0.234400 -0.752300 1 0 1.000000 
0 8.856100 2.803801 0.442000 0.000000 0.000000 1.000000 0.290500 -0.810300 1 0 1.000000 
sink01_dirty
0 7.945499 5.480101 0.442000 0.000000 0.000000 1.000000 0.344000 -0.773900 1 0 1.000000 
0 7.160900 2.327400 0.442000 0.000000 0.000000 1.000000 0.280900 -0.742500 1 0 1.000000 
0 8.856100 2.803801 0.442000 0.000000 0.000000 1.000000 0.290500 -0.810300 1 0 1.000000 
sink01_dirty
0 6.268200 4.575601 0.442000 0.000000 0.000000 1.000000 0.325900 -0.706800 1 0 1.000000 
0 7.160900 2.327400 0.442000 0.000000 0.000000 1.000000 0.280900 -0.742500 1 0 1.000000 
0 7.945499 5.480101 0.442000 0.000000 0.000000 1.000000 0.344000 -0.773900 1 0 1.000000 
sink01_dirty
0 6.478000 7.774701 0.442000 0.000000 0.000000 1.000000 0.389900 -0.715200 1 0 1.000000 
0 6.268200 4.575601 0.442000 0.000000 0.000000 1.000000 0.325900 -0.706800 1 0 1.000000 
0 7.945499 5.480101 0.442000 0.000000 0.000000 1.000000 0.344000 -0.773900 1 0 1.000000 
sink01_dirty
0 -5.452100 -0.973600 3.357500 0.058501 -0.074301 -0.995518 0.169600 -0.590500 1 0 1.000000 
0 -6.303900 -1.283700 3.357500 -0.003300 -0.092996 -0.995661 0.163400 -0.624600 1 0 1.000000 
0 -6.062500 -0.516400 3.287500 0.045502 -0.072403 -0.996337 0.178700 -0.615000 1 0 1.000000 
sink01_dirty
0 -6.805000 -0.360300 3.287500 -0.061798 -0.058598 -0.996367 0.181800 -0.644700 1 0 1.000000 
0 -6.062500 -0.516400 3.287500 0.045502 -0.072403 -0.996337 0.178700 -0.615000 1 0 1.000000 
0 -6.303900 -1.283700 3.357500 -0.003300 -0.092996 -0.995661 0.163400 -0.624600 1 0 1.000000 
sink01_dirty
0 -6.303900 -1.283700 3.357500 -0.003300 -0.092996 -0.995661 0.163400 -0.624600 1 0 1.000000 
0 -7.131700 -1.019600 3.357500 -0.063002 -0.074403 -0.995236 0.168600 -0.657700 1 0 1.000000 
0 -6.805000 -0.360300 3.287500 -0.061798 -0.058598 -0.996367 0.181800 -0.644700 1 0 1.000000 
sink01_dirty
0 -7.131700 -1.019600 3.357500 -0.063002 -0.074403 -0.995236 0.168600 -0.657700 1 0 1.000000 
0 -7.480800 -0.431300 3.357500 -0.095703 -0.023401 -0.995135 0.180400 -0.671700 1 0 1.000000 
0 -6.805000 -0.360300 3.287500 -0.061798 -0.058598 -0.996367 0.181800 -0.644700 1 0 1.000000 
sink01_dirty
0 -6.805000 0.438000 3.287500 -0.081002 0.034301 -0.996123 0.197800 -0.644700 1 0 1.000000 
0 -6.805000 -0.360300 3.287500 -0.061798 -0.058598 -0.996367 0.181800 -0.644700 1 0 1.000000 
0 -7.480800 -0.431300 3.357500 -0.095703 -0.023401 -0.995135 0.180400 -0.671700 1 0 1.000000 
sink01_dirty
0 -7.480800 -0.431300 3.357500 -0.095703 -0.023401 -0.995135 0.180400 -0.671700 1 0 1.000000 
0 -7.585000 0.289800 3.357500 -0.093498 0.021700 -0.995383 0.194800 -0.675800 1 0 1.000000 
0 -6.805000 0.438000 3.287500 -0.081002 0.034301 -0.996123 0.197800 -0.644700 1 0 1.000000 
sink01_dirty
0 -7.585000 0.289800 3.357500 -0.093498 0.021700 -0.995383 0.194800 -0.675800 1 0 1.000000 
0 -7.155700 1.056600 3.357500 -0.055798 0.080797 -0.995167 0.210200 -0.658700 1 0 1.000000 
0 -6.805000 0.438000 3.287500 -0.081002 0.034301 -0.996123 0.197800 -0.644700 1 0 1.000000 
sink01_dirty
0 -6.099500 0.691500 3.287500 0.013400 0.088400 -0.995995 0.202900 -0.616400 1 0 1.000000 
0 -6.805000 0.438000 3.287500 -0.081002 0.034301 -0.996123 0.197800 -0.644700 1 0 1.000000 
0 -7.155700 1.056600 3.357500 -0.055798 0.080797 -0.995167 0.210200 -0.658700 1 0 1.000000 
sink01_dirty
0 -7.155700 1.056600 3.357500 -0.055798 0.080797 -0.995167 0.210200 -0.658700 1 0 1.000000 
0 -6.303900 1.366700 3.357500 0.004100 0.104403 -0.994527 0.216400 -0.624600 1 0 1.000000 
0 -6.099500 0.691500 3.287500 0.013400 0.088400 -0.995995 0.202900 -0.616400 1 0 1.000000 
sink01_dirty
0 -6.303900 1.366700 3.357500 0.004100 0.104403 -0.994527 0.216400 -0.624600 1 0 1.000000 
0 -5.452100 1.056600 3.357500 0.103004 0.068203 -0.992340 0.210200 -0.590500 1 0 1.000000 
0 -6.099500 0.691500 3.287500 0.013400 0.088400 -0.995995 0.202900 -0.616400 1 0 1.000000 
sink01_dirty
0 -5.682800 0.049400 3.287500 0.092701 0.012700 -0.995613 0.190000 -0.599800 1 0 1.000000 
0 -6.099500 0.691500 3.287500 0.013400 0.088400 -0.995995 0.202900 -0.616400 1 0 1.000000 
0 -5.452100 1.056600 3.357500 0.103004 0.068203 -0.992340 0.210200 -0.590500 1 0 1.000000 
sink01_dirty
0 -5.452100 1.056600 3.357500 0.103004 0.068203 -0.992340 0.210200 -0.590500 1 0 1.000000 
0 -4.998900 -0.188600 3.357500 0.125697 0.013600 -0.991975 0.185300 -0.572400 1 0 1.000000 
0 -5.682800 0.049400 3.287500 0.092701 0.012700 -0.995613 0.190000 -0.599800 1 0 1.000000 
sink01_dirty
0 -6.062500 -0.516400 3.287500 0.045502 -0.072403 -0.996337 0.178700 -0.615000 1 0 1.000000 
0 -5.682800 0.049400 3.287500 0.092701 0.012700 -0.995613 0.190000 -0.599800 1 0 1.000000 
0 -4.998900 -0.188600 3.357500 0.125697 0.013600 -0.991975 0.185300 -0.572400 1 0 1.000000 
sink01_dirty
0 -4.998900 -0.188600 3.357500 0.125697 0.013600 -0.991975 0.185300 -0.572400 1 0 1.000000 
0 -5.452100 -0.973600 3.357500 0.058501 -0.074301 -0.995518 0.169600 -0.590500 1 0 1.000000 
0 -6.062500 -0.516400 3.287500 0.045502 -0.072403 -0.996337 0.178700 -0.615000 1 0 1.000000 
sink01_dirty
0 -7.928800 -1.445400 1.314600 0.013801 -0.964448 0.263913 0.275600 -0.612900 1 0 1.000000 
0 -5.071900 -1.401400 1.325900 0.042201 -0.940627 0.336809 0.332800 -0.610700 1 0 1.000000 
0 -7.486900 -1.196600 2.200700 0.013500 -0.938505 0.345002 0.284900 -0.575900 1 0 1.000000 
sink01_dirty
0 -7.486900 -1.196600 2.200700 0.013500 -0.938505 0.345002 0.284900 -0.575900 1 0 1.000000 
0 -5.071900 -1.401400 1.325900 0.042201 -0.940627 0.336809 0.332800 -0.610700 1 0 1.000000 
0 -4.895200 -1.205200 1.733900 0.046400 -0.960296 0.275099 0.336200 -0.592800 1 0 1.000000 
sink01_dirty
0 -4.895200 -1.205200 1.733900 0.046400 -0.960296 0.275099 0.336200 -0.592800 1 0 1.000000 
0 -1.674000 -0.941300 3.137600 -0.015799 -0.935458 0.353084 0.400700 -0.535800 1 0 1.000000 
0 -7.486900 -1.196600 2.200700 0.013500 -0.938505 0.345002 0.284900 -0.575900 1 0 1.000000 
sink01_dirty
0 -1.674000 -0.941300 3.137600 -0.015799 -0.935458 0.353084 0.400700 -0.535800 1 0 1.000000 
0 -1.871000 -0.569600 3.680500 -0.052200 -0.832803 0.551102 0.396800 -0.510500 1 0 1.000000 
0 -7.486900 -1.196600 2.200700 0.013500 -0.938505 0.345002 0.284900 -0.575900 1 0 1.000000 
sink01_dirty
0 -5.184100 1.769400 0.377700 0.409797 0.899693 0.150399 0.182000 -0.458800 1 0 1.000000 
0 -5.071900 1.559100 1.330200 0.409797 0.899693 0.150399 0.178100 -0.420500 1 0 1.000000 
0 -4.532300 1.470600 0.388900 0.409797 0.899693 0.150399 0.167600 -0.458900 1 0 1.000000 
sink01_dirty
0 -5.452100 1.056600 3.357500 -0.183292 0.983058 0.000000 0.482200 -0.809800 1 0 1.000000 
0 -5.452100 1.056600 4.277900 -0.172306 0.983433 0.056302 0.482200 -0.773000 1 0 1.000000 
0 -3.069900 1.500800 3.808600 0.036699 0.978986 0.200597 0.433800 -0.791700 1 0 1.000000 
sink01_dirty
0 -3.364300 1.398700 4.277900 0.153308 0.941247 0.300915 0.439900 -0.773000 1 0 1.000000 
0 -3.069900 1.500800 3.808600 0.036699 0.978986 0.200597 0.433800 -0.791700 1 0 1.000000 
0 -5.452100 1.056600 4.277900 -0.172306 0.983433 0.056302 0.482200 -0.773000 1 0 1.000000 
sink01_dirty
0 -5.071900 -1.401400 1.325900 0.917565 0.000600 -0.397585 24.188499 2.727400 1 0 1.000000 
0 -5.071900 1.559100 1.330200 0.921994 0.002400 -0.387197 27.149000 2.727400 1 0 1.000000 
0 -4.895200 -1.205200 1.733900 0.921994 0.002400 -0.387197 24.384800 2.550700 1 0 1.000000 
sink01_dirty
0 -4.895200 -1.205200 1.733900 0.921994 0.002400 -0.387197 24.384800 2.550700 1 0 1.000000 
0 -5.071900 1.559100 1.330200 0.921994 0.002400 -0.387197 27.149000 2.727400 1 0 1.000000 
0 -4.904900 1.364300 1.738600 0.926287 0.004200 -0.376795 26.954300 2.560400 1 0 1.000000 
sink01_dirty
0 -7.932300 1.674700 1.313900 0.001400 0.174202 0.984709 0.131600 -0.325700 1 0 1.000000 
0 -5.071900 1.559100 1.330200 0.015501 0.193207 0.981035 0.131600 -0.440200 1 0 1.000000 
0 -7.430700 3.242600 1.035800 0.015501 0.193207 0.981035 0.165000 -0.343500 1 0 1.000000 
sink01_dirty
0 -5.726500 3.011400 1.034600 0.029499 0.212196 0.976782 0.161600 -0.411900 1 0 1.000000 
0 -7.430700 3.242600 1.035800 0.015501 0.193207 0.981035 0.165000 -0.343500 1 0 1.000000 
0 -5.071900 1.559100 1.330200 0.015501 0.193207 0.981035 0.131600 -0.440200 1 0 1.000000 
sink01_dirty
0 -5.071900 -1.401400 1.325900 0.887356 -0.461077 -0.002700 0.102900 -0.460400 1 0 1.000000 
0 -5.883100 -2.960900 1.020000 0.905771 -0.384988 0.177094 0.071700 -0.474000 1 0 1.000000 
0 -5.184100 -1.611700 0.377700 0.905771 -0.384988 0.177094 0.098700 -0.498300 1 0 1.000000 
sink01_dirty
0 -5.729100 -3.259800 0.377700 0.889336 -0.294112 0.350114 0.065700 -0.498600 1 0 1.000000 
0 -5.184100 -1.611700 0.377700 0.905771 -0.384988 0.177094 0.098700 -0.498300 1 0 1.000000 
0 -5.883100 -2.960900 1.020000 0.905771 -0.384988 0.177094 0.071700 -0.474000 1 0 1.000000 
sink01_dirty
0 -5.726500 3.011400 1.034600 0.856290 0.440795 0.269197 0.191100 -0.472800 1 0 1.000000 
0 -5.071900 1.559100 1.330200 0.916506 0.383103 0.115101 0.162100 -0.460300 1 0 1.000000 
0 -5.729100 3.417400 0.377700 0.916506 0.383103 0.115101 0.199300 -0.498800 1 0 1.000000 
sink01_dirty
0 -5.184100 1.769400 0.377700 0.948573 0.313691 -0.042499 0.166300 -0.498600 1 0 1.000000 
0 -5.729100 3.417400 0.377700 0.916506 0.383103 0.115101 0.199300 -0.498800 1 0 1.000000 
0 -5.071900 1.559100 1.330200 0.916506 0.383103 0.115101 0.162100 -0.460300 1 0 1.000000 
sink01_dirty
0 -7.430700 3.242600 1.035800 0.109307 0.802148 0.587035 0.165000 -0.343500 1 0 1.000000 
0 -5.726500 3.011400 1.034600 0.130699 0.822397 0.553698 0.161600 -0.411900 1 0 1.000000 
0 -7.423600 3.723300 0.377700 0.130699 0.822397 0.553698 0.181500 -0.344600 1 0 1.000000 
sink01_dirty
0 -5.729100 3.417400 0.377700 0.151800 0.841001 0.519301 0.177500 -0.412900 1 0 1.000000 
0 -7.423600 3.723300 0.377700 0.130699 0.822397 0.553698 0.181500 -0.344600 1 0 1.000000 
0 -5.726500 3.011400 1.034600 0.130699 0.822397 0.553698 0.161600 -0.411900 1 0 1.000000 
sink01_dirty
0 -5.071900 -1.401400 1.325900 0.917565 0.000600 -0.397585 0.102900 -0.460400 1 0 1.000000 
0 -5.071900 1.559100 1.330200 0.921994 0.002400 -0.387197 0.162100 -0.460300 1 0 1.000000 
0 -4.895200 -1.205200 1.733900 0.921994 0.002400 -0.387197 0.106800 -0.443300 1 0 1.000000 
sink01_dirty
0 -4.895200 -1.205200 1.733900 0.921994 0.002400 -0.387197 0.106800 -0.443300 1 0 1.000000 
0 -5.071900 1.559100 1.330200 0.921994 0.002400 -0.387197 0.162100 -0.460300 1 0 1.000000 
0 -4.904900 1.364300 1.738600 0.926287 0.004200 -0.376795 0.158200 -0.443200 1 0 1.000000 
sink01_dirty
0 -1.871000 0.689300 3.680500 0.940067 0.000000 0.340988 0.293300 -0.445600 1 0 1.000000 
0 -1.871000 -0.569600 3.680500 0.940067 0.000000 0.340988 0.268100 -0.445600 1 0 1.000000 
0 -1.674000 1.061000 3.137600 0.940067 0.000000 0.340988 0.300700 -0.468600 1 0 1.000000 
sink01_dirty
0 -1.871000 -0.569600 3.680500 0.940067 0.000000 0.340988 0.268100 -0.445600 1 0 1.000000 
0 -1.674000 -0.941300 3.137600 0.940067 0.000000 0.340988 0.260700 -0.468600 1 0 1.000000 
0 -1.674000 1.061000 3.137600 0.940067 0.000000 0.340988 0.300700 -0.468600 1 0 1.000000 
sink01_dirty
0 -1.590700 0.058600 2.407500 0.438392 0.000000 -0.898784 0.173500 -0.524300 1 0 1.000000 
0 -2.371100 0.340800 2.026900 0.438392 0.000000 -0.898784 0.179100 -0.559000 1 0 1.000000 
0 -1.888800 0.515100 2.262100 0.438392 0.000000 -0.898784 0.182600 -0.537500 1 0 1.000000 
sink01_dirty
0 -1.590700 0.058600 2.407500 0.438392 0.000000 -0.898784 0.173500 -0.524300 1 0 1.000000 
0 -2.371100 -0.223500 2.026900 0.438392 0.000000 -0.898784 0.167900 -0.559000 1 0 1.000000 
0 -2.371100 0.340800 2.026900 0.438392 0.000000 -0.898784 0.179100 -0.559000 1 0 1.000000 
sink01_dirty
0 -1.590700 0.058600 2.407500 0.438392 0.000000 -0.898784 0.173500 -0.524300 1 0 1.000000 
0 -1.888800 -0.397900 2.262100 0.438392 0.000000 -0.898784 0.164400 -0.537500 1 0 1.000000 
0 -2.371100 -0.223500 2.026900 0.438392 0.000000 -0.898784 0.167900 -0.559000 1 0 1.000000 
sink01_dirty
0 -3.069900 1.500800 3.808600 0.036699 0.978986 0.200597 0.497200 -0.753700 1 0 1.000000 
0 -3.364300 1.398700 4.277900 0.153308 0.941247 0.300915 0.498300 -0.731600 1 0 1.000000 
0 -3.056700 1.221300 4.277900 0.446502 0.774204 0.448602 0.491900 -0.735200 1 0 1.000000 
sink01_dirty
0 -2.881000 0.983500 3.808600 0.837367 -0.292688 0.461682 0.486200 -0.753800 1 0 1.000000 
0 -3.056700 1.221300 4.277900 0.837367 -0.292688 0.461682 0.491900 -0.735200 1 0 1.000000 
0 -3.175500 0.881400 4.277900 0.837367 -0.292688 0.461682 0.485200 -0.731600 1 0 1.000000 
sink01_dirty
0 -2.881000 0.983500 3.808600 0.924866 0.337588 0.175094 0.486200 -0.753800 1 0 1.000000 
0 -3.069900 1.500800 3.808600 0.924866 0.337588 0.175094 0.497200 -0.753700 1 0 1.000000 
0 -3.056700 1.221300 4.277900 0.924866 0.337588 0.175094 0.491900 -0.735200 1 0 1.000000 
end
