$cd ".\"
$modelname "junk/W_Rock4.mdl"
$model "Body" "W_Rock4.smd"
$cdmaterials "models/junk/w_rock4/"
$surfaceprop "concrete"
$eyeposition 0.000 0.000 0.000
$illumposition 0.029 0.143 2.511
$sequence idle "idle" ACT_IDLE 1 fps 30.000000
$keyvalues
{
	prop_data
	{
		base	Stone.Small
	}
}	