$cd ".\"
$modelname "props_junk/glassjug01_old_smallgibs.mdl"
$model "Body" "glassjug01_reference.smd"
$cdmaterials "models/props_junk/old"
$surfaceprop "glassbottle"
$eyeposition 0.000 0.000 0.000
$illumposition -0.003 0.000 5.877
$sequence idle "idle" ACT_IDLE 1 fps 30.000000
$MostlyOpaque
$StaticProp
$collisionmodel "glassjug01_reference.smd"
{
	$mass 8
	$inertia 1
	$damping 0
	$rotdamping 0
}

$collisiontext
{
break {"model" "props_junk/glassjug_chunk01a" "health" "1" "fadetime" "1"  }
break {"model" "props_junk/glassjug_chunk01b" "health" "1" "fadetime" "2"  }
break {"model" "props_junk/glassjug_chunk01c" "health" "1" "fadetime" "3"  }
break {"model" "props_junk/glassjugtop_chunk01a" "health" "1" "fadetime" "1"  }
break {"model" "props_junk/glassjugtop_chunk01b" "health" "1" "fadetime" "2"  }
break {"model" "props_junk/glassjugtop_chunk01c" "health" "1" "fadetime" "3"  }
break {"model" "props_junk/glassjugtop_chunk01d" "health" "1" "fadetime" "4"  }
break {"model" "props_junk/glassjugtop_chunk01e" "health" "1" "fadetime" "5"  }
break {"model" "props_junk/glassjugbottom_chunk01a" "health" "1" "fadetime" "1"  }
break {"model" "props_junk/glassjugbottom_chunk01b" "health" "1" "fadetime" "2"  }
break {"model" "props_junk/glassjugbottom_chunk01c" "health" "1" "fadetime" "3"  }
break {"model" "props_junk/glassjugbottom_chunk01d" "health" "1" "fadetime" "4"  }
break {"model" "props_junk/glassjugbottom_chunk01e" "health" "1" "fadetime" "5"  }
}

$keyvalues
{
	prop_data 
	{
		"base"		"Glass.Small"
	}
	physgun_interactions 
	{
		"onfirstimpact" "break"
	}
}

$LOD 30
{
	replacemodel "glassjug01_reference.smd" "glassjug01_reference_lod1.smd"
}
$LOD 60
{
	replacemodel "glassjug01_reference.smd" "glassjug01_reference_lod2.smd"
}
$LOD 80
{
	replacemodel "glassjug01_reference.smd" "glassjug01_reference_lod3.smd"
}