version 1
nodes
  0 "static_prop" -1
end
skeleton
time 0
0 0.000000 0.000000 0.000000 0.000000 0.000000 0.000000
end
triangles
arch02a
0 4.000002 -40.283901 58.191200 1.000000 0.000000 0.000000 0.319300 -0.064200 1 0 1.000000 
0 4.000001 -27.113199 58.191200 1.000000 0.000000 0.000000 0.422100 -0.064200 1 0 1.000000 
0 3.999998 45.886799 64.000000 1.000000 0.000000 0.000000 0.991900 -0.018900 1 0 1.000000 
arch02a
0 3.999998 45.886799 64.000000 0.447214 0.894427 0.000000 0.991900 -0.018900 1 0 1.000000 
0 4.000002 -45.886799 64.000000 1.000000 0.000000 0.000000 0.275600 -0.018900 1 0 1.000000 
0 4.000002 -40.283901 58.191200 1.000000 0.000000 0.000000 0.319300 -0.064200 1 0 1.000000 
arch02a
0 3.999998 45.886700 -64.000000 -0.000000 1.000000 0.000000 0.991900 -1.017900 1 0 1.000000 
0 -4.000002 45.886700 -64.000000 -0.000000 1.000000 0.000000 0.991900 -1.017900 1 0 1.000000 
0 3.999998 45.886799 64.000000 0.447214 0.894427 0.000000 0.991900 -0.018900 1 0 1.000000 
arch02a
0 3.999998 45.886799 64.000000 0.447214 0.894427 0.000000 0.991900 -0.018900 1 0 1.000000 
0 -4.000002 45.886700 -64.000000 -0.000000 1.000000 0.000000 0.991900 -1.017900 1 0 1.000000 
0 -4.000002 45.886799 64.000000 -0.707107 0.707107 0.000000 0.991900 -0.018900 1 0 1.000000 
arch02a
0 -3.999998 -40.283901 58.191200 -1.000000 -0.000000 0.000000 0.319300 -0.064200 1 0 1.000000 
0 -3.999998 -45.886799 64.000000 -1.000000 -0.000000 0.000000 0.275600 -0.018900 1 0 1.000000 
0 -4.000002 45.886799 64.000000 -0.707107 0.707107 0.000000 0.991900 -0.018900 1 0 1.000000 
arch02a
0 -4.000002 45.886799 64.000000 -1.000000 -0.000000 0.000000 0.991900 -0.018900 1 0 1.000000 
0 -3.999999 -27.113199 58.191200 -1.000000 -0.000000 0.000000 0.422100 -0.064200 1 0 1.000000 
0 -3.999998 -40.283901 58.191200 -1.000000 -0.000000 0.000000 0.319300 -0.064200 1 0 1.000000 
arch02a
0 -4.000002 39.722198 29.171700 -1.000000 -0.000000 0.000000 0.943700 -0.290700 1 0 1.000000 
0 -4.000002 39.722198 24.782200 -1.000000 -0.000000 0.000000 0.943700 -0.325000 1 0 1.000000 
0 -3.999999 -18.993401 52.809502 -1.000000 -0.000000 0.000000 0.485500 -0.106200 1 0 1.000000 
arch02a
0 -3.999999 -18.993401 52.809502 -1.000000 -0.000000 0.000000 0.485500 -0.106200 1 0 1.000000 
0 -3.999999 -18.993401 57.052898 -1.000000 -0.000000 0.000000 0.485500 -0.073100 1 0 1.000000 
0 -4.000002 39.722198 29.171700 -1.000000 -0.000000 0.000000 0.943700 -0.290700 1 0 1.000000 
arch02a
0 -3.999999 -27.113199 58.191200 -1.000000 -0.000000 0.000000 0.422100 -0.064200 1 0 1.000000 
0 -3.999999 -18.993401 57.052898 -1.000000 -0.000000 0.000000 0.485500 -0.073100 1 0 1.000000 
0 -3.999999 -18.993401 52.809502 -1.000000 -0.000000 0.000000 0.485500 -0.106200 1 0 1.000000 
arch02a
0 -3.999999 -27.113199 58.191200 -1.000000 -0.000000 0.000000 0.422100 -0.064200 1 0 1.000000 
0 -4.000002 45.886799 64.000000 -0.961528 -0.000000 0.274708 0.991900 -0.018900 1 0 1.000000 
0 -3.999999 -18.993401 57.052898 -1.000000 -0.000000 0.000000 0.485500 -0.073100 1 0 1.000000 
arch02a
0 -3.999999 -18.993401 57.052898 -1.000000 -0.000000 0.000000 0.485500 -0.073100 1 0 1.000000 
0 -4.000002 45.886799 64.000000 -0.961528 -0.000000 0.274708 0.991900 -0.018900 1 0 1.000000 
0 -4.000001 33.122200 57.082500 -1.000000 -0.000000 0.000000 0.892200 -0.072900 1 0 1.000000 
arch02a
0 -4.000001 33.122200 57.082500 -1.000000 -0.000000 0.000000 0.892200 -0.072900 1 0 1.000000 
0 -4.000002 45.886799 64.000000 -0.961528 -0.000000 0.274708 0.991900 -0.018900 1 0 1.000000 
0 -4.000002 38.378300 53.729401 -1.000000 -0.000000 0.000000 0.933300 -0.099100 1 0 1.000000 
arch02a
0 -4.000002 45.886799 64.000000 -0.961528 -0.000000 0.274708 0.991900 -0.018900 1 0 1.000000 
0 -4.000002 39.722198 50.486301 -1.000000 -0.000000 0.000000 0.943700 -0.124400 1 0 1.000000 
0 -4.000002 38.378300 53.729401 -1.000000 -0.000000 0.000000 0.933300 -0.099100 1 0 1.000000 
arch02a
0 -4.000002 39.722198 50.486301 -1.000000 -0.000000 0.000000 0.943700 -0.124400 1 0 1.000000 
0 -4.000002 45.886799 64.000000 -0.961528 -0.000000 0.274708 0.991900 -0.018900 1 0 1.000000 
0 -4.000002 39.722198 29.171700 -1.000000 -0.000000 0.000000 0.943700 -0.290700 1 0 1.000000 
arch02a
0 -4.000002 45.886799 64.000000 -0.961528 -0.000000 0.274708 0.991900 -0.018900 1 0 1.000000 
0 -4.000002 45.886700 -64.000000 -1.000000 -0.000000 0.000000 0.991900 -1.017900 1 0 1.000000 
0 -4.000002 39.722198 29.171700 -1.000000 -0.000000 0.000000 0.943700 -0.290700 1 0 1.000000 
arch02a
0 -4.000002 39.722198 29.171700 -1.000000 -0.000000 0.000000 0.943700 -0.290700 1 0 1.000000 
0 -4.000002 45.886700 -64.000000 -1.000000 -0.000000 0.000000 0.991900 -1.017900 1 0 1.000000 
0 -4.000002 39.722198 24.782200 -1.000000 -0.000000 0.000000 0.943700 -0.325000 1 0 1.000000 
arch02a
0 -4.000002 39.722198 24.782200 -1.000000 -0.000000 0.000000 0.943700 -0.325000 1 0 1.000000 
0 -4.000002 45.886700 -64.000000 -1.000000 -0.000000 0.000000 0.991900 -1.017900 1 0 1.000000 
0 -4.000002 39.722198 -29.361099 -1.000000 -0.000000 0.000000 0.943700 -0.747500 1 0 1.000000 
arch02a
0 -4.000002 39.722198 -29.361099 -1.000000 -0.000000 0.000000 0.943700 -0.747500 1 0 1.000000 
0 -4.000002 45.886700 -64.000000 -1.000000 -0.000000 0.000000 0.991900 -1.017900 1 0 1.000000 
0 -4.000001 37.886700 -46.130798 -1.000000 -0.000000 0.000000 0.929400 -0.878400 1 0 1.000000 
arch02a
0 -4.000001 37.886700 -46.130798 -1.000000 -0.000000 0.000000 0.929400 -0.878400 1 0 1.000000 
0 -4.000001 37.886700 -36.000000 -1.000000 -0.000000 0.000000 0.929400 -0.799400 1 0 1.000000 
0 -4.000002 39.722198 -29.361099 -1.000000 -0.000000 0.000000 0.943700 -0.747500 1 0 1.000000 
arch02a
0 -4.000002 39.722198 -29.361099 -1.000000 -0.000000 0.000000 0.943700 -0.747500 1 0 1.000000 
0 -4.000001 37.886700 -36.000000 -1.000000 -0.000000 0.000000 0.929400 -0.799400 1 0 1.000000 
0 -3.999999 -18.993401 52.809502 -1.000000 -0.000000 0.000000 0.485500 -0.106200 1 0 1.000000 
arch02a
0 -3.999999 -27.113199 58.191200 -1.000000 -0.000000 0.000000 0.422100 -0.064200 1 0 1.000000 
0 -3.999999 -18.993401 52.809502 -1.000000 -0.000000 0.000000 0.485500 -0.106200 1 0 1.000000 
0 -4.000001 37.886700 -36.000000 -1.000000 -0.000000 0.000000 0.929400 -0.799400 1 0 1.000000 
arch02a
0 3.999998 45.886799 64.000000 0.989951 0.000000 0.141407 0.991900 -0.018900 1 0 1.000000 
0 -4.000002 45.886799 64.000000 -0.961528 -0.000000 0.274708 0.991900 -0.018900 1 0 1.000000 
0 4.000002 -45.886799 64.000000 0.000000 0.000000 1.000000 0.275600 -0.018900 1 0 1.000000 
arch02a
0 4.000002 -45.886799 64.000000 0.000000 0.000000 1.000000 0.275600 -0.018900 1 0 1.000000 
0 -4.000002 45.886799 64.000000 -0.961528 -0.000000 0.274708 0.991900 -0.018900 1 0 1.000000 
0 -3.999998 -45.886799 64.000000 0.000000 0.000000 1.000000 0.275600 -0.018900 1 0 1.000000 
arch02a
0 3.999998 45.886799 64.000000 0.989951 0.000000 0.141407 0.991900 -0.018900 1 0 1.000000 
0 4.000001 -27.113199 58.191200 1.000000 0.000000 0.000000 0.422100 -0.064200 1 0 1.000000 
0 4.000001 -18.993401 57.052898 1.000000 0.000000 0.000000 0.485500 -0.073100 1 0 1.000000 
arch02a
0 3.999999 33.122200 57.082500 1.000000 0.000000 0.000000 0.892200 -0.072900 1 0 1.000000 
0 3.999998 45.886799 64.000000 0.989951 0.000000 0.141407 0.991900 -0.018900 1 0 1.000000 
0 4.000001 -18.993401 57.052898 1.000000 0.000000 0.000000 0.485500 -0.073100 1 0 1.000000 
arch02a
0 3.999998 45.886799 64.000000 0.989951 0.000000 0.141407 0.991900 -0.018900 1 0 1.000000 
0 3.999999 33.122200 57.082500 1.000000 0.000000 0.000000 0.892200 -0.072900 1 0 1.000000 
0 3.999998 38.378300 53.729401 1.000000 0.000000 0.000000 0.933300 -0.099100 1 0 1.000000 
arch02a
0 3.999998 39.722198 50.486301 1.000000 0.000000 0.000000 0.943700 -0.124400 1 0 1.000000 
0 3.999998 45.886799 64.000000 0.989951 0.000000 0.141407 0.991900 -0.018900 1 0 1.000000 
0 3.999998 38.378300 53.729401 1.000000 0.000000 0.000000 0.933300 -0.099100 1 0 1.000000 
arch02a
0 3.999998 39.722198 29.171700 1.000000 0.000000 0.000000 0.943700 -0.290700 1 0 1.000000 
0 3.999998 45.886799 64.000000 0.989951 0.000000 0.141407 0.991900 -0.018900 1 0 1.000000 
0 3.999998 39.722198 50.486301 1.000000 0.000000 0.000000 0.943700 -0.124400 1 0 1.000000 
arch02a
0 3.999998 45.886700 -64.000000 1.000000 0.000000 0.000000 0.991900 -1.017900 1 0 1.000000 
0 3.999998 45.886799 64.000000 0.989951 0.000000 0.141407 0.991900 -0.018900 1 0 1.000000 
0 3.999998 39.722198 29.171700 1.000000 0.000000 0.000000 0.943700 -0.290700 1 0 1.000000 
arch02a
0 3.999998 39.722198 29.171700 1.000000 0.000000 0.000000 0.943700 -0.290700 1 0 1.000000 
0 3.999998 39.722198 24.782200 1.000000 0.000000 0.000000 0.943700 -0.325000 1 0 1.000000 
0 3.999998 45.886700 -64.000000 1.000000 0.000000 0.000000 0.991900 -1.017900 1 0 1.000000 
arch02a
0 3.999998 45.886700 -64.000000 1.000000 0.000000 0.000000 0.991900 -1.017900 1 0 1.000000 
0 3.999998 39.722198 24.782200 1.000000 0.000000 0.000000 0.943700 -0.325000 1 0 1.000000 
0 3.999998 39.722198 -29.361099 1.000000 0.000000 0.000000 0.943700 -0.747500 1 0 1.000000 
arch02a
0 3.999998 37.886700 -46.130798 1.000000 0.000000 0.000000 0.929400 -0.878400 1 0 1.000000 
0 3.999998 45.886700 -64.000000 1.000000 0.000000 0.000000 0.991900 -1.017900 1 0 1.000000 
0 3.999998 39.722198 -29.361099 1.000000 0.000000 0.000000 0.943700 -0.747500 1 0 1.000000 
arch02a
0 3.999998 37.886700 -46.130798 1.000000 0.000000 0.000000 0.929400 -0.878400 1 0 1.000000 
0 3.999998 39.722198 -29.361099 1.000000 0.000000 0.000000 0.943700 -0.747500 1 0 1.000000 
0 3.999998 37.886700 -36.000000 1.000000 0.000000 0.000000 0.929400 -0.799400 1 0 1.000000 
arch02a
0 3.999998 37.886700 -36.000000 1.000000 0.000000 0.000000 0.929400 -0.799400 1 0 1.000000 
0 3.999998 39.722198 -29.361099 1.000000 0.000000 0.000000 0.943700 -0.747500 1 0 1.000000 
0 4.000001 -18.993401 52.809502 1.000000 0.000000 0.000000 0.485500 -0.106200 1 0 1.000000 
arch02a
0 4.000001 -18.993401 52.809502 1.000000 0.000000 0.000000 0.485500 -0.106200 1 0 1.000000 
0 4.000001 -27.113199 58.191200 1.000000 0.000000 0.000000 0.422100 -0.064200 1 0 1.000000 
0 3.999998 37.886700 -36.000000 1.000000 0.000000 0.000000 0.929400 -0.799400 1 0 1.000000 
arch02a
0 4.000001 -18.993401 57.052898 1.000000 0.000000 0.000000 0.485500 -0.073100 1 0 1.000000 
0 4.000001 -27.113199 58.191200 1.000000 0.000000 0.000000 0.422100 -0.064200 1 0 1.000000 
0 4.000001 -18.993401 52.809502 1.000000 0.000000 0.000000 0.485500 -0.106200 1 0 1.000000 
arch02a
0 4.000001 -18.993401 57.052898 1.000000 0.000000 0.000000 0.485500 -0.073100 1 0 1.000000 
0 4.000001 -18.993401 52.809502 1.000000 0.000000 0.000000 0.485500 -0.106200 1 0 1.000000 
0 3.999998 39.722198 29.171700 1.000000 0.000000 0.000000 0.943700 -0.290700 1 0 1.000000 
arch02a
0 3.999998 39.722198 24.782200 1.000000 0.000000 0.000000 0.943700 -0.325000 1 0 1.000000 
0 3.999998 39.722198 29.171700 1.000000 0.000000 0.000000 0.943700 -0.290700 1 0 1.000000 
0 4.000001 -18.993401 52.809502 1.000000 0.000000 0.000000 0.485500 -0.106200 1 0 1.000000 
arch02a
0 3.999998 39.722198 50.486301 0.000000 -0.923827 -0.382811 0.943700 -0.124400 1 0 1.000000 
0 3.999998 38.378300 53.729401 0.000000 -0.923827 -0.382811 0.933300 -0.099100 1 0 1.000000 
0 -4.000002 38.378300 53.729401 0.000000 -0.923827 -0.382811 0.933300 -0.099100 1 0 1.000000 
arch02a
0 -1.267002 41.194500 -26.916901 0.000000 -0.792706 -0.609604 0.955200 -0.728500 1 0 1.000000 
0 1.114098 42.163502 -27.219400 0.236092 -0.766574 -0.597180 0.962800 -0.730800 1 0 1.000000 
0 1.114101 -15.416800 46.691200 0.000000 -0.792706 -0.609604 0.513400 -0.154000 1 0 1.000000 
arch02a
0 1.114101 -15.416800 46.691200 0.000000 -0.792706 -0.609604 0.513400 -0.154000 1 0 1.000000 
0 -1.266999 -14.447800 46.388699 -0.240107 -0.773224 -0.586918 0.521000 -0.156300 1 0 1.000000 
0 -1.267002 41.194500 -26.916901 0.000000 -0.792706 -0.609604 0.955200 -0.728500 1 0 1.000000 
arch02a
0 1.114098 42.163502 -27.219400 -0.000000 0.792706 0.609604 0.962800 -0.730800 1 0 1.000000 
0 -1.267002 41.194500 -26.916901 -0.240107 0.773224 0.586918 0.955200 -0.728500 1 0 1.000000 
0 -1.266999 -14.447800 46.388699 -0.000000 0.792706 0.609604 0.521000 -0.156300 1 0 1.000000 
arch02a
0 -1.266999 -14.447800 46.388699 -0.000000 0.792706 0.609604 0.521000 -0.156300 1 0 1.000000 
0 1.114101 -15.416800 46.691200 0.236092 0.766574 0.597180 0.513400 -0.154000 1 0 1.000000 
0 1.114098 42.163502 -27.219400 -0.000000 0.792706 0.609604 0.962800 -0.730800 1 0 1.000000 
arch02a
0 -4.000001 33.122200 57.082500 0.000000 -0.537787 -0.843080 0.892200 -0.072900 1 0 1.000000 
0 3.999998 38.378300 53.729401 0.000000 -0.537787 -0.843080 0.933300 -0.099100 1 0 1.000000 
0 3.999999 33.122200 57.082500 0.000000 -0.537787 -0.843080 0.892200 -0.072900 1 0 1.000000 
arch02a
0 -4.000002 38.378300 53.729401 0.000000 -0.537787 -0.843080 0.933300 -0.099100 1 0 1.000000 
0 3.999998 38.378300 53.729401 0.000000 -0.537787 -0.843080 0.933300 -0.099100 1 0 1.000000 
0 -4.000001 33.122200 57.082500 0.000000 -0.537787 -0.843080 0.892200 -0.072900 1 0 1.000000 
arch02a
0 -1.267002 42.573502 54.127300 0.000000 -0.032999 -0.999455 0.966000 -0.095900 1 0 1.000000 
0 1.114098 42.617599 54.843899 0.288487 -0.020899 -0.957256 0.966300 -0.090400 1 0 1.000000 
0 1.114101 -21.597401 56.248199 0.000000 -0.032999 -0.999455 0.465200 -0.079400 1 0 1.000000 
arch02a
0 1.114101 -21.597401 56.248199 0.000000 -0.032999 -0.999455 0.465200 -0.079400 1 0 1.000000 
0 -1.266999 -21.553400 56.964802 -0.288604 -0.042301 -0.956514 0.465500 -0.073800 1 0 1.000000 
0 -1.267002 42.573502 54.127300 0.000000 -0.032999 -0.999455 0.966000 -0.095900 1 0 1.000000 
arch02a
0 1.114098 42.617599 54.843899 -0.000000 0.032999 0.999455 0.966300 -0.090400 1 0 1.000000 
0 -1.267002 42.573502 54.127300 -0.288604 0.042301 0.956514 0.966000 -0.095900 1 0 1.000000 
0 -1.266999 -21.553400 56.964802 -0.000000 0.032999 0.999455 0.465500 -0.073800 1 0 1.000000 
arch02a
0 -1.266999 -21.553400 56.964802 -0.000000 0.032999 0.999455 0.465500 -0.073800 1 0 1.000000 
0 1.114101 -21.597401 56.248199 0.288487 0.020899 0.957256 0.465200 -0.079400 1 0 1.000000 
0 1.114098 42.617599 54.843899 -0.000000 0.032999 0.999455 0.966300 -0.090400 1 0 1.000000 
arch02a
0 4.000002 -40.283901 58.191200 0.000000 -0.719742 -0.694241 0.319300 -0.064200 1 0 1.000000 
0 -3.999998 -45.886799 64.000000 0.000000 -0.719742 -0.694241 0.275600 -0.018900 1 0 1.000000 
0 -3.999998 -40.283901 58.191200 0.000000 -0.719742 -0.694241 0.319300 -0.064200 1 0 1.000000 
arch02a
0 4.000002 -45.886799 64.000000 0.000000 -0.719742 -0.694241 0.275600 -0.018900 1 0 1.000000 
0 -3.999998 -45.886799 64.000000 0.000000 -0.719742 -0.694241 0.275600 -0.018900 1 0 1.000000 
0 4.000002 -40.283901 58.191200 0.000000 -0.719742 -0.694241 0.319300 -0.064200 1 0 1.000000 
arch02a
0 -4.000001 37.886700 -36.000000 -0.000000 0.963832 -0.266509 0.929400 -0.799400 1 0 1.000000 
0 3.999998 39.722198 -29.361099 -0.000000 0.963832 -0.266509 0.943700 -0.747500 1 0 1.000000 
0 3.999998 37.886700 -36.000000 -0.000000 0.963832 -0.266509 0.929400 -0.799400 1 0 1.000000 
arch02a
0 3.999998 39.722198 -29.361099 -0.000000 0.963832 -0.266509 0.943700 -0.747500 1 0 1.000000 
0 -4.000001 37.886700 -36.000000 -0.000000 0.963832 -0.266509 0.929400 -0.799400 1 0 1.000000 
0 -4.000002 39.722198 -29.361099 -0.000000 0.963832 -0.266509 0.943700 -0.747500 1 0 1.000000 
arch02a
0 -4.000001 37.886700 -46.130798 0.000000 -1.000000 0.000000 0.929400 -0.878400 1 0 1.000000 
0 3.999998 37.886700 -36.000000 0.000000 -1.000000 0.000000 0.929400 -0.799400 1 0 1.000000 
0 -4.000001 37.886700 -36.000000 0.000000 -1.000000 0.000000 0.929400 -0.799400 1 0 1.000000 
arch02a
0 -4.000001 37.886700 -46.130798 0.000000 -1.000000 0.000000 0.929400 -0.878400 1 0 1.000000 
0 3.999998 37.886700 -46.130798 0.000000 -1.000000 0.000000 0.929400 -0.878400 1 0 1.000000 
0 3.999998 37.886700 -36.000000 0.000000 -1.000000 0.000000 0.929400 -0.799400 1 0 1.000000 
arch02a
0 -3.999998 -40.283901 58.191200 0.000000 0.000000 -1.000000 0.319300 -0.064200 1 0 1.000000 
0 4.000001 -27.113199 58.191200 0.000000 0.000000 -1.000000 0.422100 -0.064200 1 0 1.000000 
0 4.000002 -40.283901 58.191200 0.000000 0.000000 -1.000000 0.319300 -0.064200 1 0 1.000000 
arch02a
0 -3.999998 -40.283901 58.191200 0.000000 0.000000 -1.000000 0.319300 -0.064200 1 0 1.000000 
0 -3.999999 -27.113199 58.191200 0.000000 0.000000 -1.000000 0.422100 -0.064200 1 0 1.000000 
0 4.000001 -27.113199 58.191200 0.000000 0.000000 -1.000000 0.422100 -0.064200 1 0 1.000000 
arch02a
0 -3.999999 -27.113199 58.191200 0.000000 -0.823019 -0.568013 0.422100 -0.064200 1 0 1.000000 
0 3.999998 37.886700 -36.000000 0.000000 -0.823019 -0.568013 0.929400 -0.799400 1 0 1.000000 
0 4.000001 -27.113199 58.191200 0.000000 -0.823019 -0.568013 0.422100 -0.064200 1 0 1.000000 
arch02a
0 -4.000001 37.886700 -36.000000 0.000000 -0.823019 -0.568013 0.929400 -0.799400 1 0 1.000000 
0 3.999998 37.886700 -36.000000 0.000000 -0.823019 -0.568013 0.929400 -0.799400 1 0 1.000000 
0 -3.999999 -27.113199 58.191200 0.000000 -0.823019 -0.568013 0.422100 -0.064200 1 0 1.000000 
arch02a
0 -3.999999 -18.993401 52.809502 0.000000 -0.430780 -0.902457 0.485500 -0.106200 1 0 1.000000 
0 3.999998 39.722198 24.782200 0.000000 -0.430780 -0.902457 0.943700 -0.325000 1 0 1.000000 
0 4.000001 -18.993401 52.809502 0.000000 -0.430780 -0.902457 0.485500 -0.106200 1 0 1.000000 
arch02a
0 -3.999999 -18.993401 52.809502 0.000000 -0.430780 -0.902457 0.485500 -0.106200 1 0 1.000000 
0 -4.000002 39.722198 24.782200 0.000000 -0.430780 -0.902457 0.943700 -0.325000 1 0 1.000000 
0 3.999998 39.722198 24.782200 0.000000 -0.430780 -0.902457 0.943700 -0.325000 1 0 1.000000 
arch02a
0 -3.999999 -18.993401 57.052898 -0.000000 0.000600 -1.000000 0.485500 -0.073100 1 0 1.000000 
0 3.999999 33.122200 57.082500 -0.000000 0.000600 -1.000000 0.892200 -0.072900 1 0 1.000000 
0 4.000001 -18.993401 57.052898 -0.000000 0.000600 -1.000000 0.485500 -0.073100 1 0 1.000000 
arch02a
0 -3.999999 -18.993401 57.052898 -0.000000 0.000600 -1.000000 0.485500 -0.073100 1 0 1.000000 
0 -4.000001 33.122200 57.082500 -0.000000 0.000600 -1.000000 0.892200 -0.072900 1 0 1.000000 
0 3.999999 33.122200 57.082500 -0.000000 0.000600 -1.000000 0.892200 -0.072900 1 0 1.000000 
arch02a
0 -4.000002 39.722198 -29.361099 -0.000000 0.813612 0.581408 0.943700 -0.747500 1 0 1.000000 
0 -3.999999 -18.993401 52.809502 -0.000000 0.813612 0.581408 0.485500 -0.106200 1 0 1.000000 
0 3.999998 39.722198 -29.361099 -0.000000 0.813612 0.581408 0.943700 -0.747500 1 0 1.000000 
arch02a
0 4.000001 -18.993401 52.809502 -0.000000 0.813612 0.581408 0.485500 -0.106200 1 0 1.000000 
0 3.999998 39.722198 -29.361099 -0.000000 0.813612 0.581408 0.943700 -0.747500 1 0 1.000000 
0 -3.999999 -18.993401 52.809502 -0.000000 0.813612 0.581408 0.485500 -0.106200 1 0 1.000000 
arch02a
0 4.000001 -18.993401 57.052898 -0.000000 0.428920 0.903342 0.485500 -0.073100 1 0 1.000000 
0 3.999998 39.722198 29.171700 -0.000000 0.428920 0.903342 0.943700 -0.290700 1 0 1.000000 
0 -3.999999 -18.993401 57.052898 -0.000000 0.428920 0.903342 0.485500 -0.073100 1 0 1.000000 
arch02a
0 -4.000002 39.722198 29.171700 -0.000000 0.428920 0.903342 0.943700 -0.290700 1 0 1.000000 
0 -3.999999 -18.993401 57.052898 -0.000000 0.428920 0.903342 0.485500 -0.073100 1 0 1.000000 
0 3.999998 39.722198 29.171700 -0.000000 0.428920 0.903342 0.943700 -0.290700 1 0 1.000000 
arch02a
0 3.999998 39.722198 -29.361099 0.000000 -1.000000 0.000000 0.943700 -0.747500 1 0 1.000000 
0 3.999998 39.722198 24.782200 0.000000 -1.000000 0.000000 0.943700 -0.325000 1 0 1.000000 
0 -4.000002 39.722198 -29.361099 0.000000 -1.000000 0.000000 0.943700 -0.747500 1 0 1.000000 
arch02a
0 -4.000002 39.722198 24.782200 0.000000 -1.000000 0.000000 0.943700 -0.325000 1 0 1.000000 
0 -4.000002 39.722198 -29.361099 0.000000 -1.000000 0.000000 0.943700 -0.747500 1 0 1.000000 
0 3.999998 39.722198 24.782200 0.000000 -1.000000 0.000000 0.943700 -0.325000 1 0 1.000000 
arch02a
0 3.999998 39.722198 29.171700 0.000000 -1.000000 0.000000 0.943700 -0.290700 1 0 1.000000 
0 3.999998 39.722198 50.486301 0.000000 -1.000000 0.000000 0.943700 -0.124400 1 0 1.000000 
0 -4.000002 39.722198 29.171700 0.000000 -1.000000 0.000000 0.943700 -0.290700 1 0 1.000000 
arch02a
0 -4.000002 38.378300 53.729401 0.144098 -0.988083 -0.054099 0.933300 -0.099100 1 0 1.000000 
0 -4.000002 39.722198 29.171700 0.000000 -1.000000 0.000000 0.943700 -0.290700 1 0 1.000000 
0 3.999998 39.722198 50.486301 0.000000 -1.000000 0.000000 0.943700 -0.124400 1 0 1.000000 
arch02a
0 3.999998 37.886700 -46.130798 0.000000 -0.912711 -0.408605 0.929400 -0.878400 1 0 1.000000 
0 -4.000001 37.886700 -46.130798 0.000000 -0.912711 -0.408605 0.929400 -0.878400 1 0 1.000000 
0 3.999998 45.886700 -64.000000 0.000000 -0.912711 -0.408605 0.991900 -1.017900 1 0 1.000000 
arch02a
0 3.999998 45.886700 -64.000000 0.000000 -0.912711 -0.408605 0.991900 -1.017900 1 0 1.000000 
0 -4.000001 37.886700 -46.130798 0.000000 -0.912711 -0.408605 0.929400 -0.878400 1 0 1.000000 
0 -4.000002 45.886700 -64.000000 0.000000 -0.912711 -0.408605 0.991900 -1.017900 1 0 1.000000 
end
