version 1
nodes
  0 "static_prop" -1
end
skeleton
time 0
0 0.000000 0.000000 0.000000 0.000000 0.000000 0.000000
end
triangles
HandrailMetal002a
0 -0.500499 -31.579201 4.014200 -0.500003 -0.005700 -0.866005 0.280300 -0.815700 1 0 1.000000 
0 -1.000501 32.443901 4.880200 -0.988241 -0.000000 0.152906 -0.976100 -0.879600 1 0 1.000000 
0 -0.500501 32.443901 4.014200 -0.500011 -0.000000 -0.866019 -0.976100 -0.940200 1 0 1.000000 
HandrailMetal002a
0 -0.500499 -31.579201 4.014200 -0.500003 -0.005700 -0.866005 0.280300 -0.815700 1 0 1.000000 
0 -0.500499 -31.579201 5.746300 -0.500003 -0.005700 0.866005 0.280300 -0.694400 1 0 1.000000 
0 -1.000501 32.443901 4.880200 -0.988241 -0.000000 0.152906 -0.976100 -0.879600 1 0 1.000000 
HandrailMetal002a
0 -0.500499 -31.579201 5.746300 -0.500003 -0.005700 0.866005 0.280300 -0.694400 1 0 1.000000 
0 0.499499 32.443901 5.746300 0.500009 -0.002900 0.866015 -0.976100 -0.758300 1 0 1.000000 
0 -1.000501 32.443901 4.880200 -0.988241 -0.000000 0.152906 -0.976100 -0.879600 1 0 1.000000 
HandrailMetal002a
0 -0.500499 -31.579201 5.746300 -0.500003 -0.005700 0.866005 0.280300 -0.694400 1 0 1.000000 
0 0.999501 -31.579201 4.880200 0.999984 -0.005700 0.000000 0.280300 -0.573200 1 0 1.000000 
0 0.499499 32.443901 5.746300 0.500009 -0.002900 0.866015 -0.976100 -0.758300 1 0 1.000000 
HandrailMetal002a
0 0.999501 -31.579201 4.880200 0.999984 -0.005700 0.000000 0.280300 -0.573200 1 0 1.000000 
0 0.499499 32.443901 4.014200 0.654694 0.000000 -0.755894 -0.976100 -0.637000 1 0 1.000000 
0 0.499499 32.443901 5.746300 0.500009 -0.002900 0.866015 -0.976100 -0.758300 1 0 1.000000 
HandrailMetal002a
0 0.999501 -31.579201 4.880200 0.999984 -0.005700 0.000000 0.280300 -0.573200 1 0 1.000000 
0 -0.500499 -31.579201 4.014200 -0.500003 -0.005700 -0.866005 0.280300 -0.451900 1 0 1.000000 
0 0.499499 32.443901 4.014200 0.654694 0.000000 -0.755894 -0.976100 -0.637000 1 0 1.000000 
HandrailMetal002a
0 -0.500499 -31.579201 4.014200 -0.500003 -0.005700 -0.866005 0.280300 -0.451900 1 0 1.000000 
0 -0.500501 32.443901 4.014200 -0.500011 -0.000000 -0.866019 -0.976100 -0.576400 1 0 1.000000 
0 0.499499 32.443901 4.014200 0.654694 0.000000 -0.755894 -0.976100 -0.637000 1 0 1.000000 
HandrailMetal002a
0 -0.500499 -31.579201 11.553400 -0.500003 -0.005700 -0.866005 -1.124300 -0.552100 1 0 1.000000 
0 -1.000501 32.443901 12.419400 -0.988241 -0.000000 0.152906 0.132100 -0.487400 1 0 1.000000 
0 -0.500501 32.443901 11.553400 -0.500011 -0.000000 -0.866019 0.132100 -0.426700 1 0 1.000000 
HandrailMetal002a
0 -0.500499 -31.579201 11.553400 -0.500003 -0.005700 -0.866005 -1.124300 -0.552100 1 0 1.000000 
0 -0.500499 -31.579201 13.285400 -0.500003 -0.005700 0.866005 -1.124300 -0.673400 1 0 1.000000 
0 -1.000501 32.443901 12.419400 -0.988241 -0.000000 0.152906 0.132100 -0.487400 1 0 1.000000 
HandrailMetal002a
0 -0.500499 -31.579201 13.285400 -0.500003 -0.005700 0.866005 -1.124300 -0.673400 1 0 1.000000 
0 0.499499 32.443901 13.285400 0.500009 -0.002900 0.866015 0.132100 -0.608600 1 0 1.000000 
0 -1.000501 32.443901 12.419400 -0.988241 -0.000000 0.152906 0.132100 -0.487400 1 0 1.000000 
HandrailMetal002a
0 -0.500499 -31.579201 13.285400 -0.500003 -0.005700 0.866005 -1.124300 -0.673400 1 0 1.000000 
0 0.999501 -31.579201 12.419400 0.999984 -0.005700 0.000000 -1.124300 -0.794700 1 0 1.000000 
0 0.499499 32.443901 13.285400 0.500009 -0.002900 0.866015 0.132100 -0.608600 1 0 1.000000 
HandrailMetal002a
0 0.999501 -31.579201 12.419400 0.999984 -0.005700 0.000000 -1.124300 -0.794700 1 0 1.000000 
0 0.499499 32.443901 11.553400 0.654694 0.000000 -0.755894 0.132100 -0.729900 1 0 1.000000 
0 0.499499 32.443901 13.285400 0.500009 -0.002900 0.866015 0.132100 -0.608600 1 0 1.000000 
HandrailMetal002a
0 0.999501 -31.579201 12.419400 0.999984 -0.005700 0.000000 -1.124300 -0.794700 1 0 1.000000 
0 -0.500499 -31.579201 11.553400 -0.500003 -0.005700 -0.866005 -1.124300 -0.916000 1 0 1.000000 
0 0.499499 32.443901 11.553400 0.654694 0.000000 -0.755894 0.132100 -0.729900 1 0 1.000000 
HandrailMetal002a
0 -0.500499 -31.579201 11.553400 -0.500003 -0.005700 -0.866005 -1.124300 -0.916000 1 0 1.000000 
0 -0.500501 32.443901 11.553400 -0.500011 -0.000000 -0.866019 0.132100 -0.790600 1 0 1.000000 
0 0.499499 32.443901 11.553400 0.654694 0.000000 -0.755894 0.132100 -0.729900 1 0 1.000000 
HandrailMetal002a
0 -0.500499 -31.578199 18.274799 -0.500011 -0.000000 -0.866019 0.307300 -0.400900 1 0 1.000000 
0 -1.000499 -31.578199 19.140800 -0.981978 -0.000000 0.188996 0.307300 -0.339900 1 0 1.000000 
0 -0.500501 32.444199 18.274799 -0.500003 0.005700 -0.866005 -1.973700 -0.400900 1 0 1.000000 
HandrailMetal002a
0 -1.000499 -31.578199 19.140800 -0.981978 -0.000000 0.188996 0.307300 -0.339900 1 0 1.000000 
0 -0.500501 32.444199 20.006800 -0.500009 -0.002900 0.866015 -1.973700 -0.278900 1 0 1.000000 
0 -0.500501 32.444199 18.274799 -0.500003 0.005700 -0.866005 -1.973700 -0.400900 1 0 1.000000 
HandrailMetal002a
0 -1.000499 -31.578199 19.140800 -0.981978 -0.000000 0.188996 0.307300 -0.339900 1 0 1.000000 
0 0.499501 -31.578199 20.006800 0.500003 -0.005700 0.866005 0.307300 -0.217900 1 0 1.000000 
0 -0.500501 32.444199 20.006800 -0.500009 -0.002900 0.866015 -1.973700 -0.278900 1 0 1.000000 
HandrailMetal002a
0 0.499501 -31.578199 20.006800 0.500003 -0.005700 0.866005 0.307300 -0.217900 1 0 1.000000 
0 0.999499 32.444199 19.140800 0.999996 -0.002900 0.000000 -1.973700 -0.156900 1 0 1.000000 
0 -0.500501 32.444199 20.006800 -0.500009 -0.002900 0.866015 -1.973700 -0.278900 1 0 1.000000 
HandrailMetal002a
0 0.499501 -31.578199 20.006800 0.500003 -0.005700 0.866005 0.307300 -0.217900 1 0 1.000000 
0 0.499501 -31.578199 18.274799 0.598108 -0.002500 -0.801411 0.307300 -0.095900 1 0 1.000000 
0 0.999499 32.444199 19.140800 0.999996 -0.002900 0.000000 -1.973700 -0.156900 1 0 1.000000 
HandrailMetal002a
0 0.499501 -31.578199 18.274799 0.598108 -0.002500 -0.801411 0.307300 -0.095900 1 0 1.000000 
0 -0.500501 32.444199 18.274799 -0.500003 0.005700 -0.866005 -1.973700 -0.034900 1 0 1.000000 
0 0.999499 32.444199 19.140800 0.999996 -0.002900 0.000000 -1.973700 -0.156900 1 0 1.000000 
HandrailMetal002a
0 0.499501 -31.578199 18.274799 0.598108 -0.002500 -0.801411 0.307300 -0.095900 1 0 1.000000 
0 -0.500499 -31.578199 18.274799 -0.500011 -0.000000 -0.866019 0.307300 -0.034900 1 0 1.000000 
0 -0.500501 32.444199 18.274799 -0.500003 0.005700 -0.866005 -1.973700 -0.034900 1 0 1.000000 
HandrailMetal002a
0 -0.499500 -1.315900 -20.006800 -0.500011 -0.866019 0.000000 0.462300 -0.946700 1 0 1.000000 
0 0.500500 -1.315900 -20.006800 0.500005 -0.866009 0.004700 0.462300 -0.862900 1 0 1.000000 
0 -0.499500 -1.315900 19.144300 -0.394990 -0.918676 0.004100 -0.139000 -0.946700 1 0 1.000000 
HandrailMetal002a
0 0.500500 -1.315900 -20.006800 0.500005 -0.866009 0.004700 0.462300 -0.862900 1 0 1.000000 
0 1.000500 -0.449900 19.144300 0.988227 0.152904 0.005300 -0.139000 -0.792900 1 0 1.000000 
0 -0.499500 -1.315900 19.144300 -0.394990 -0.918676 0.004100 -0.139000 -0.946700 1 0 1.000000 
HandrailMetal002a
0 0.500500 -1.315900 -20.006800 0.500005 -0.866009 0.004700 0.462300 -0.862900 1 0 1.000000 
0 1.000500 -0.449900 -20.006800 0.981978 0.188996 0.000000 0.462300 -0.792900 1 0 1.000000 
0 1.000500 -0.449900 19.144300 0.988227 0.152904 0.005300 -0.139000 -0.792900 1 0 1.000000 
HandrailMetal002a
0 1.000500 -0.449900 -20.006800 0.981978 0.188996 0.000000 0.462300 -0.792900 1 0 1.000000 
0 -0.499500 0.416100 -20.006800 -0.258808 0.965929 0.000000 0.462300 -0.639100 1 0 1.000000 
0 1.000500 -0.449900 19.144300 0.988227 0.152904 0.005300 -0.139000 -0.792900 1 0 1.000000 
HandrailMetal002a
0 -0.499500 0.416100 -20.006800 -0.258808 0.965929 0.000000 0.462300 -0.639100 1 0 1.000000 
0 -0.499500 0.416100 19.144300 -0.327306 0.944918 0.000000 -0.139000 -0.639100 1 0 1.000000 
0 1.000500 -0.449900 19.144300 0.988227 0.152904 0.005300 -0.139000 -0.792900 1 0 1.000000 
HandrailMetal002a
0 -0.499500 0.416100 -20.006800 -0.258808 0.965929 0.000000 0.462300 -0.639100 1 0 1.000000 
0 -0.999500 -0.449900 19.144300 -0.981978 0.188996 0.000000 -0.139000 -0.569100 1 0 1.000000 
0 -0.499500 0.416100 19.144300 -0.327306 0.944918 0.000000 -0.139000 -0.639100 1 0 1.000000 
HandrailMetal002a
0 -0.499500 0.416100 -20.006800 -0.258808 0.965929 0.000000 0.462300 -0.639100 1 0 1.000000 
0 -0.999500 -0.449900 -20.006800 -0.981978 -0.188996 0.000000 0.462300 -0.569100 1 0 1.000000 
0 -0.999500 -0.449900 19.144300 -0.981978 0.188996 0.000000 -0.139000 -0.569100 1 0 1.000000 
HandrailMetal002a
0 -0.999500 -0.449900 -20.006800 -0.981978 -0.188996 0.000000 0.462300 -0.569100 1 0 1.000000 
0 -0.499500 -1.315900 19.144300 -0.394990 -0.918676 0.004100 -0.139000 -0.499100 1 0 1.000000 
0 -0.999500 -0.449900 19.144300 -0.981978 0.188996 0.000000 -0.139000 -0.569100 1 0 1.000000 
HandrailMetal002a
0 -0.999500 -0.449900 -20.006800 -0.981978 -0.188996 0.000000 0.462300 -0.569100 1 0 1.000000 
0 -0.499500 -1.315900 -20.006800 -0.500011 -0.866019 0.000000 0.462300 -0.499100 1 0 1.000000 
0 -0.499500 -1.315900 19.144300 -0.394990 -0.918676 0.004100 -0.139000 -0.499100 1 0 1.000000 
HandrailMetal002a
0 -0.499499 -32.444199 -20.006800 -0.779402 -0.626502 -0.005300 0.013800 -0.392700 1 0 1.000000 
0 0.500501 -32.444199 -20.006800 0.654694 -0.755894 0.000000 0.013800 -0.486300 1 0 1.000000 
0 -0.499499 -32.444199 19.144300 -0.152904 -0.988227 0.005300 0.983000 -0.392700 1 0 1.000000 
HandrailMetal002a
0 0.500501 -32.444199 -20.006800 0.654694 -0.755894 0.000000 0.013800 -0.486300 1 0 1.000000 
0 1.000501 -31.578100 19.144300 0.981978 -0.188996 0.000000 0.983000 -0.579900 1 0 1.000000 
0 -0.499499 -32.444199 19.144300 -0.152904 -0.988227 0.005300 0.983000 -0.392700 1 0 1.000000 
HandrailMetal002a
0 0.500501 -32.444199 -20.006800 0.654694 -0.755894 0.000000 0.013800 -0.486300 1 0 1.000000 
0 0.500501 -30.712099 -20.006800 0.779402 0.626502 -0.005300 0.013800 -0.673500 1 0 1.000000 
0 1.000501 -31.578100 19.144300 0.981978 -0.188996 0.000000 0.983000 -0.579900 1 0 1.000000 
HandrailMetal002a
0 0.500501 -30.712099 -20.006800 0.779402 0.626502 -0.005300 0.013800 -0.673500 1 0 1.000000 
0 0.500501 -30.712099 19.144300 0.152904 0.988227 0.005300 0.983000 -0.673500 1 0 1.000000 
0 1.000501 -31.578100 19.144300 0.981978 -0.188996 0.000000 0.983000 -0.579900 1 0 1.000000 
HandrailMetal002a
0 0.500501 -30.712099 -20.006800 0.779402 0.626502 -0.005300 0.013800 -0.673500 1 0 1.000000 
0 -0.499499 -30.712099 -20.006800 -0.654694 0.755894 0.000000 0.013800 -0.767000 1 0 1.000000 
0 0.500501 -30.712099 19.144300 0.152904 0.988227 0.005300 0.983000 -0.673500 1 0 1.000000 
HandrailMetal002a
0 -0.499499 -30.712099 -20.006800 -0.654694 0.755894 0.000000 0.013800 -0.767000 1 0 1.000000 
0 -0.999499 -31.578100 19.144300 -0.981978 0.188996 0.000000 0.983000 -0.860600 1 0 1.000000 
0 0.500501 -30.712099 19.144300 0.152904 0.988227 0.005300 0.983000 -0.673500 1 0 1.000000 
HandrailMetal002a
0 -0.499499 -30.712099 -20.006800 -0.654694 0.755894 0.000000 0.013800 -0.767000 1 0 1.000000 
0 -0.499499 -32.444199 -20.006800 -0.779402 -0.626502 -0.005300 0.013800 -0.954200 1 0 1.000000 
0 -0.999499 -31.578100 19.144300 -0.981978 0.188996 0.000000 0.983000 -0.860600 1 0 1.000000 
HandrailMetal002a
0 -0.499499 -32.444199 -20.006800 -0.779402 -0.626502 -0.005300 0.013800 -0.954200 1 0 1.000000 
0 -0.499499 -32.444199 19.144300 -0.152904 -0.988227 0.005300 0.983000 -0.954200 1 0 1.000000 
0 -0.999499 -31.578100 19.144300 -0.981978 0.188996 0.000000 0.983000 -0.860600 1 0 1.000000 
end
