version 1
nodes
  0 "static_prop" -1
end
skeleton
time 0
0 0.000000 0.000000 0.000000 0.000000 0.000000 0.000000
end
triangles
light_chandelier01_on
0 -21.464800 -12.392701 72.984001 0.768644 0.199611 0.607735 0.078100 -0.445600 1 0 1.000000 
0 -19.513500 -11.266101 69.024002 -0.836993 -0.520496 -0.168899 0.000500 -0.420400 1 0 1.000000 
0 -22.532200 -0.000001 69.024002 -0.974606 0.012100 0.223601 0.000500 -0.445600 1 0 1.000000 
light_chandelier01_on
0 -19.513500 -11.266101 69.024002 -0.836993 -0.520496 -0.168899 0.078100 -0.445600 1 0 1.000000 
0 -25.790701 -0.000001 72.984001 -0.836214 -0.230504 -0.497608 0.000500 -0.420400 1 0 1.000000 
0 -22.532200 -0.000001 69.024002 -0.974606 0.012100 0.223601 0.000500 -0.445600 1 0 1.000000 
light_chandelier01_on
0 -19.513500 -11.266101 69.024002 -0.836993 -0.520496 -0.168899 0.078100 -0.445600 1 0 1.000000 
0 -21.464800 -12.392701 72.984001 0.768644 0.199611 0.607735 0.078100 -0.445600 1 0 1.000000 
0 -25.790701 -0.000001 72.984001 -0.836214 -0.230504 -0.497608 0.000500 -0.420400 1 0 1.000000 
light_chandelier01_on
0 -11.266099 -19.513500 69.024002 -0.449789 -0.891378 0.055999 0.156300 -0.420400 1 0 1.000000 
0 -21.464800 -12.392701 72.984001 0.768644 0.199611 0.607735 0.078100 -0.445600 1 0 1.000000 
0 -19.513500 -11.266101 69.024002 -0.836993 -0.520496 -0.168899 0.078100 -0.445600 1 0 1.000000 
light_chandelier01_on
0 0.000001 -24.785400 72.984001 -0.000000 1.000000 0.000000 0.156300 -0.445600 1 0 1.000000 
0 -11.266099 -19.513500 69.024002 -0.449789 -0.891378 0.055999 0.156300 -0.420400 1 0 1.000000 
0 -21.464800 -12.392701 72.984001 0.768644 0.199611 0.607735 0.078100 -0.445600 1 0 1.000000 
light_chandelier01_on
0 -11.266099 -19.513500 69.024002 -0.449789 -0.891378 0.055999 0.156300 -0.420400 1 0 1.000000 
0 0.000001 -24.785400 72.984001 -0.000000 1.000000 0.000000 0.234400 -0.445600 1 0 1.000000 
0 -21.464800 -12.392701 72.984001 0.768644 0.199611 0.607735 0.078100 -0.445600 1 0 1.000000 
light_chandelier01_on
0 0.000001 -24.785400 72.984001 -0.000000 1.000000 0.000000 0.234400 -0.445600 1 0 1.000000 
0 0.000001 -22.532200 69.024002 0.089003 -0.996031 0.000000 0.156300 -0.420400 1 0 1.000000 
0 -11.266099 -19.513500 69.024002 -0.449789 -0.891378 0.055999 0.156300 -0.420400 1 0 1.000000 
light_chandelier01_on
0 0.000001 -22.532200 69.024002 0.089003 -0.996031 0.000000 0.234400 -0.445600 1 0 1.000000 
0 0.000001 -24.785400 72.984001 -0.000000 1.000000 0.000000 0.234400 -0.445600 1 0 1.000000 
0 -11.266099 -19.513500 69.024002 -0.449789 -0.891378 0.055999 0.156300 -0.420400 1 0 1.000000 
light_chandelier01_on
0 11.266101 -19.513500 69.024002 0.566694 -0.821392 0.064599 0.312700 -0.445600 1 0 1.000000 
0 0.000001 -24.785400 72.984001 -0.000000 1.000000 0.000000 0.234400 -0.445600 1 0 1.000000 
0 0.000001 -22.532200 69.024002 0.089003 -0.996031 0.000000 0.234400 -0.445600 1 0 1.000000 
light_chandelier01_on
0 11.266101 -19.513500 69.024002 0.566694 -0.821392 0.064599 0.312700 -0.445600 1 0 1.000000 
0 12.392701 -21.464800 72.984001 1.000000 0.000000 0.000000 0.312700 -0.420400 1 0 1.000000 
0 0.000001 -24.785400 72.984001 -0.000000 1.000000 0.000000 0.234400 -0.445600 1 0 1.000000 
light_chandelier01_on
0 12.392701 -21.464800 72.984001 1.000000 0.000000 0.000000 0.312700 -0.420400 1 0 1.000000 
0 11.266101 -19.513500 69.024002 0.566694 -0.821392 0.064599 0.312700 -0.445600 1 0 1.000000 
0 0.000001 -24.785400 72.984001 -0.000000 1.000000 0.000000 0.234400 -0.445600 1 0 1.000000 
light_chandelier01_on
0 19.513500 -11.266099 69.024002 0.907068 -0.420985 0.000000 0.390900 -0.420400 1 0 1.000000 
0 12.392701 -21.464800 72.984001 1.000000 0.000000 0.000000 0.312700 -0.420400 1 0 1.000000 
0 11.266101 -19.513500 69.024002 0.566694 -0.821392 0.064599 0.312700 -0.445600 1 0 1.000000 
light_chandelier01_on
0 0.000001 -24.785400 72.984001 -0.000000 1.000000 0.000000 0.312700 -0.445600 1 0 1.000000 
0 11.266101 -19.513500 69.024002 0.566694 -0.821392 0.064599 0.234400 -0.420400 1 0 1.000000 
0 0.000001 -22.532200 69.024002 0.089003 -0.996031 0.000000 0.234400 -0.445600 1 0 1.000000 
light_chandelier01_on
0 12.392701 -21.464800 72.984001 1.000000 0.000000 0.000000 0.390900 -0.445600 1 0 1.000000 
0 19.513500 -11.266099 69.024002 0.907068 -0.420985 0.000000 0.312700 -0.420400 1 0 1.000000 
0 11.266101 -19.513500 69.024002 0.566694 -0.821392 0.064599 0.312700 -0.445600 1 0 1.000000 
light_chandelier01_on
0 24.785500 0.000001 72.984001 -0.000000 1.000000 0.000000 0.469100 -0.445600 1 0 1.000000 
0 22.532200 0.000001 69.024002 0.996031 0.089003 0.000000 0.390900 -0.420400 1 0 1.000000 
0 19.513500 -11.266099 69.024002 0.907068 -0.420985 0.000000 0.390900 -0.420400 1 0 1.000000 
light_chandelier01_on
0 -21.464800 -12.392701 72.984001 0.768644 0.199611 0.607735 0.156300 -0.445600 1 0 1.000000 
0 -11.266099 -19.513500 69.024002 -0.449789 -0.891378 0.055999 0.078100 -0.420400 1 0 1.000000 
0 -19.513500 -11.266101 69.024002 -0.836993 -0.520496 -0.168899 0.078100 -0.445600 1 0 1.000000 
light_chandelier01_on
0 12.392699 21.464899 72.984001 -0.000000 1.000000 0.000000 0.547300 -0.445600 1 0 1.000000 
0 19.513500 11.266101 69.024002 0.818089 0.575092 0.000000 0.547300 -0.420400 1 0 1.000000 
0 24.785500 0.000001 72.984001 -0.000000 1.000000 0.000000 0.469100 -0.445600 1 0 1.000000 
light_chandelier01_on
0 12.392699 21.464899 72.984001 -0.000000 1.000000 0.000000 0.625700 -0.420400 1 0 1.000000 
0 11.266099 19.513500 69.024002 0.420985 0.907068 0.000000 0.547300 -0.420400 1 0 1.000000 
0 19.513500 11.266101 69.024002 0.818089 0.575092 0.000000 0.547300 -0.420400 1 0 1.000000 
light_chandelier01_on
0 24.785500 0.000001 72.984001 -0.000000 1.000000 0.000000 0.390900 -0.445600 1 0 1.000000 
0 19.513500 -11.266099 69.024002 0.907068 -0.420985 0.000000 0.390900 -0.420400 1 0 1.000000 
0 12.392701 -21.464800 72.984001 1.000000 0.000000 0.000000 0.312700 -0.420400 1 0 1.000000 
light_chandelier01_on
0 19.513500 -11.266099 69.024002 0.907068 -0.420985 0.000000 0.390900 -0.420400 1 0 1.000000 
0 24.785500 0.000001 72.984001 -0.000000 1.000000 0.000000 0.469100 -0.445600 1 0 1.000000 
0 12.392701 -21.464800 72.984001 1.000000 0.000000 0.000000 0.312700 -0.420400 1 0 1.000000 
light_chandelier01_on
0 22.532200 0.000001 69.024002 0.996031 0.089003 0.000000 0.514000 -0.455400 1 0 1.000000 
0 24.785500 0.000001 72.984001 -0.000000 1.000000 0.000000 0.469100 -0.445600 1 0 1.000000 
0 19.513500 -11.266099 69.024002 0.907068 -0.420985 0.000000 0.390900 -0.420400 1 0 1.000000 
light_chandelier01_on
0 19.513500 11.266101 69.024002 0.818089 0.575092 0.000000 0.547300 -0.420400 1 0 1.000000 
0 24.785500 0.000001 72.984001 -0.000000 1.000000 0.000000 0.469100 -0.445600 1 0 1.000000 
0 22.532200 0.000001 69.024002 0.996031 0.089003 0.000000 0.514000 -0.455400 1 0 1.000000 
light_chandelier01_on
0 19.513500 11.266101 69.024002 0.818089 0.575092 0.000000 0.547300 -0.420400 1 0 1.000000 
0 12.392699 21.464899 72.984001 -0.000000 1.000000 0.000000 0.625700 -0.420400 1 0 1.000000 
0 24.785500 0.000001 72.984001 -0.000000 1.000000 0.000000 0.469100 -0.445600 1 0 1.000000 
light_chandelier01_on
0 11.266099 19.513500 69.024002 0.420985 0.907068 0.000000 0.655000 -0.455400 1 0 1.000000 
0 12.392699 21.464899 72.984001 -0.000000 1.000000 0.000000 0.625700 -0.420400 1 0 1.000000 
0 19.513500 11.266101 69.024002 0.818089 0.575092 0.000000 0.547300 -0.420400 1 0 1.000000 
light_chandelier01_on
0 -0.000001 22.532200 69.024002 -0.041900 0.999101 -0.006400 0.704000 -0.420400 1 0 1.000000 
0 12.392699 21.464899 72.984001 -0.000000 1.000000 0.000000 0.625700 -0.420400 1 0 1.000000 
0 11.266099 19.513500 69.024002 0.420985 0.907068 0.000000 0.655000 -0.455400 1 0 1.000000 
light_chandelier01_on
0 -0.000001 22.532200 69.024002 -0.041900 0.999101 -0.006400 0.704000 -0.420400 1 0 1.000000 
0 -12.392701 21.464899 72.984001 -0.000000 1.000000 0.000000 0.782200 -0.420400 1 0 1.000000 
0 12.392699 21.464899 72.984001 -0.000000 1.000000 0.000000 0.625700 -0.420400 1 0 1.000000 
light_chandelier01_on
0 -11.266101 19.513500 69.024002 -0.575092 0.818089 0.000000 0.796100 -0.455400 1 0 1.000000 
0 -12.392701 21.464899 72.984001 -0.000000 1.000000 0.000000 0.782200 -0.420400 1 0 1.000000 
0 -0.000001 22.532200 69.024002 -0.041900 0.999101 -0.006400 0.704000 -0.420400 1 0 1.000000 
light_chandelier01_on
0 -19.513500 11.266099 69.024002 -0.901473 0.427987 0.064598 0.860400 -0.420400 1 0 1.000000 
0 -12.392701 21.464899 72.984001 -0.000000 1.000000 0.000000 0.782200 -0.420400 1 0 1.000000 
0 -11.266101 19.513500 69.024002 -0.575092 0.818089 0.000000 0.796100 -0.455400 1 0 1.000000 
light_chandelier01_on
0 -19.513500 11.266099 69.024002 -0.901473 0.427987 0.064598 0.860400 -0.420400 1 0 1.000000 
0 -25.790701 -0.000001 72.984001 -0.836214 -0.230504 -0.497608 0.938000 -0.420400 1 0 1.000000 
0 -12.392701 21.464899 72.984001 -0.000000 1.000000 0.000000 0.782200 -0.420400 1 0 1.000000 
light_chandelier01_on
0 -12.392701 21.464899 72.984001 -0.000000 1.000000 0.000000 0.704000 -0.445600 1 0 1.000000 
0 -0.000001 22.532200 69.024002 -0.041900 0.999101 -0.006400 0.704000 -0.420400 1 0 1.000000 
0 12.392699 21.464899 72.984001 -0.000000 1.000000 0.000000 0.625700 -0.420400 1 0 1.000000 
light_chandelier01_on
0 -25.790701 -0.000001 72.984001 -0.836214 -0.230504 -0.497608 0.938000 -0.420400 1 0 1.000000 
0 -22.532200 -0.000001 69.024002 -0.974606 0.012100 0.223601 0.860400 -0.420400 1 0 1.000000 
0 -19.513500 11.266099 69.024002 -0.901473 0.427987 0.064598 0.860400 -0.420400 1 0 1.000000 
light_chandelier01_on
0 -25.790701 -0.000001 72.984001 -0.836214 -0.230504 -0.497608 0.860400 -0.445600 1 0 1.000000 
0 -19.513500 11.266099 69.024002 -0.901473 0.427987 0.064598 0.860400 -0.420400 1 0 1.000000 
0 -12.392701 21.464899 72.984001 -0.000000 1.000000 0.000000 0.782200 -0.420400 1 0 1.000000 
light_chandelier01_on
0 -12.392701 21.464899 72.984001 -0.000000 1.000000 0.000000 0.782200 -0.420400 1 0 1.000000 
0 -11.266101 19.513500 69.024002 -0.575092 0.818089 0.000000 0.704000 -0.420400 1 0 1.000000 
0 -0.000001 22.532200 69.024002 -0.041900 0.999101 -0.006400 0.704000 -0.420400 1 0 1.000000 
light_chandelier01_on
0 -0.000001 22.532200 0.000000 0.041900 0.999101 0.006400 0.765600 -0.879600 1 0 1.000000 
0 11.266099 19.513500 69.024002 0.420985 0.907068 0.000000 0.655000 -0.455400 1 0 1.000000 
0 11.266099 19.513500 0.000000 0.575092 0.818089 0.000000 0.687200 -0.879600 1 0 1.000000 
light_chandelier01_on
0 -0.000001 22.532200 0.000000 0.041900 0.999101 0.006400 0.765600 -0.879600 1 0 1.000000 
0 -0.000001 22.532200 69.024002 -0.041900 0.999101 -0.006400 0.704000 -0.420400 1 0 1.000000 
0 11.266099 19.513500 69.024002 0.420985 0.907068 0.000000 0.655000 -0.455400 1 0 1.000000 
light_chandelier01_on
0 -11.266101 19.513500 0.000000 -0.420985 0.907067 0.000000 0.843800 -0.879600 1 0 1.000000 
0 -0.000001 22.532200 69.024002 -0.041900 0.999101 -0.006400 0.704000 -0.420400 1 0 1.000000 
0 -0.000001 22.532200 0.000000 0.041900 0.999101 0.006400 0.765600 -0.879600 1 0 1.000000 
light_chandelier01_on
0 -11.266101 19.513500 0.000000 -0.420985 0.907067 0.000000 0.843800 -0.879600 1 0 1.000000 
0 -11.266101 19.513500 69.024002 -0.575092 0.818089 0.000000 0.796100 -0.455400 1 0 1.000000 
0 -0.000001 22.532200 69.024002 -0.041900 0.999101 -0.006400 0.704000 -0.420400 1 0 1.000000 
light_chandelier01_on
0 -19.513500 11.266099 0.000000 -0.818089 0.575092 0.000000 0.866500 -0.849500 1 0 1.000000 
0 -11.266101 19.513500 69.024002 -0.575092 0.818089 0.000000 0.796100 -0.455400 1 0 1.000000 
0 -11.266101 19.513500 0.000000 -0.420985 0.907067 0.000000 0.843800 -0.879600 1 0 1.000000 
light_chandelier01_on
0 -19.513500 11.266099 0.000000 -0.818089 0.575092 0.000000 0.866500 -0.849500 1 0 1.000000 
0 -19.513500 11.266099 69.024002 -0.901473 0.427987 0.064598 0.860400 -0.420400 1 0 1.000000 
0 -11.266101 19.513500 69.024002 -0.575092 0.818089 0.000000 0.796100 -0.455400 1 0 1.000000 
light_chandelier01_on
0 -22.532200 -0.000001 0.000000 -0.996031 0.089003 0.000000 0.936400 -0.849500 1 0 1.000000 
0 -19.513500 11.266099 69.024002 -0.901473 0.427987 0.064598 0.860400 -0.420400 1 0 1.000000 
0 -19.513500 11.266099 0.000000 -0.818089 0.575092 0.000000 0.866500 -0.849500 1 0 1.000000 
light_chandelier01_on
0 -22.532200 -0.000001 0.000000 -0.996031 0.089003 0.000000 0.936400 -0.849500 1 0 1.000000 
0 -22.532200 -0.000001 69.024002 -0.974606 0.012100 0.223601 0.938000 -0.420400 1 0 1.000000 
0 -19.513500 11.266099 69.024002 -0.901473 0.427987 0.064598 0.860400 -0.420400 1 0 1.000000 
light_chandelier01_on
0 -22.532200 -0.000001 69.024002 -0.974606 0.012100 0.223601 0.938000 -0.420400 1 0 1.000000 
0 -25.790701 -0.000001 72.984001 -0.836214 -0.230504 -0.497608 0.938000 -0.420400 1 0 1.000000 
0 -19.513500 11.266099 69.024002 -0.901473 0.427987 0.064598 0.860400 -0.420400 1 0 1.000000 
light_chandelier01_on
0 -21.464800 -12.392701 72.984001 0.768644 0.199611 0.607735 0.938000 -0.445600 1 0 1.000000 
0 -22.532200 -0.000001 69.024002 -0.974606 0.012100 0.223601 0.938000 -0.420400 1 0 1.000000 
0 -25.790701 -0.000001 72.984001 -0.836214 -0.230504 -0.497608 0.938000 -0.420400 1 0 1.000000 
light_chandelier01_on
0 -0.000001 22.532200 0.000000 0.041900 0.999101 0.006400 0.765600 -0.879600 1 0 1.000000 
0 12.392699 21.464800 -3.960000 -0.000000 1.000000 0.000000 0.765600 -0.854400 1 0 1.000000 
0 11.266099 19.513500 0.000000 0.575092 0.818089 0.000000 0.687200 -0.879600 1 0 1.000000 
light_chandelier01_on
0 12.392699 21.464800 -3.960000 -0.000000 1.000000 0.000000 0.687200 -0.854400 1 0 1.000000 
0 11.266099 19.513500 0.000000 0.575092 0.818089 0.000000 0.687200 -0.879600 1 0 1.000000 
0 19.513500 11.266101 0.000000 0.907067 0.420985 0.000000 0.584400 -0.849500 1 0 1.000000 
light_chandelier01_on
0 19.513500 11.266101 0.000000 0.907067 0.420985 0.000000 0.584400 -0.849500 1 0 1.000000 
0 21.464800 12.392701 -3.960000 0.816530 0.408215 0.408215 0.608800 -0.879600 1 0 1.000000 
0 22.532200 0.000001 0.000000 0.996031 -0.089003 0.000000 0.530700 -0.879600 1 0 1.000000 
light_chandelier01_on
0 0.000001 -22.532200 0.000000 -0.089003 -0.996031 0.000000 0.296000 -0.879600 1 0 1.000000 
0 0.000001 -24.785400 -3.960000 -0.218199 -0.872895 -0.436398 0.296000 -0.854400 1 0 1.000000 
0 -11.266099 -19.513500 0.000000 -0.547096 -0.835194 -0.056000 0.232100 -0.849500 1 0 1.000000 
light_chandelier01_on
0 0.000001 -24.785400 -3.960000 -0.218199 -0.872895 -0.436398 0.296000 -0.854400 1 0 1.000000 
0 0.000001 -22.532200 0.000000 -0.089003 -0.996031 0.000000 0.296000 -0.879600 1 0 1.000000 
0 -11.266099 -19.513500 0.000000 -0.547096 -0.835194 -0.056000 0.232100 -0.849500 1 0 1.000000 
light_chandelier01_on
0 0.000001 -24.785400 -3.960000 -0.218199 -0.872895 -0.436398 0.296000 -0.854400 1 0 1.000000 
0 11.266101 -19.513500 0.000000 0.420985 -0.907067 0.000000 0.374200 -0.879600 1 0 1.000000 
0 0.000001 -22.532200 0.000000 -0.089003 -0.996031 0.000000 0.296000 -0.879600 1 0 1.000000 
light_chandelier01_on
0 21.464800 -12.392699 -3.960000 -0.000000 1.000000 0.000000 0.452500 -0.854400 1 0 1.000000 
0 11.266101 -19.513500 0.000000 0.420985 -0.907067 0.000000 0.374200 -0.879600 1 0 1.000000 
0 0.000001 -24.785400 -3.960000 -0.218199 -0.872895 -0.436398 0.296000 -0.854400 1 0 1.000000 
light_chandelier01_on
0 21.464800 -12.392699 -3.960000 -0.000000 1.000000 0.000000 0.452500 -0.854400 1 0 1.000000 
0 19.513500 -11.266099 0.000000 0.818089 -0.575092 0.000000 0.452500 -0.879600 1 0 1.000000 
0 11.266101 -19.513500 0.000000 0.420985 -0.907067 0.000000 0.374200 -0.879600 1 0 1.000000 
light_chandelier01_on
0 21.464800 -12.392699 -3.960000 -0.000000 1.000000 0.000000 0.452500 -0.854400 1 0 1.000000 
0 22.532200 0.000001 0.000000 0.996031 -0.089003 0.000000 0.530700 -0.879600 1 0 1.000000 
0 19.513500 -11.266099 0.000000 0.818089 -0.575092 0.000000 0.452500 -0.879600 1 0 1.000000 
light_chandelier01_on
0 21.464800 12.392701 -3.960000 0.816530 0.408215 0.408215 0.608800 -0.879600 1 0 1.000000 
0 22.532200 0.000001 0.000000 0.996031 -0.089003 0.000000 0.530700 -0.879600 1 0 1.000000 
0 21.464800 -12.392699 -3.960000 -0.000000 1.000000 0.000000 0.452500 -0.854400 1 0 1.000000 
light_chandelier01_on
0 21.464800 12.392701 -3.960000 0.816530 0.408215 0.408215 0.608800 -0.879600 1 0 1.000000 
0 19.513500 11.266101 0.000000 0.907067 0.420985 0.000000 0.584400 -0.849500 1 0 1.000000 
0 22.532200 0.000001 0.000000 0.996031 -0.089003 0.000000 0.530700 -0.879600 1 0 1.000000 
light_chandelier01_on
0 12.392699 21.464800 -3.960000 -0.000000 1.000000 0.000000 0.687200 -0.854400 1 0 1.000000 
0 19.513500 11.266101 0.000000 0.907067 0.420985 0.000000 0.584400 -0.849500 1 0 1.000000 
0 21.464800 12.392701 -3.960000 0.816530 0.408215 0.408215 0.608800 -0.879600 1 0 1.000000 
light_chandelier01_on
0 11.266099 19.513500 0.000000 0.575092 0.818089 0.000000 0.687200 -0.879600 1 0 1.000000 
0 12.392699 21.464800 -3.960000 -0.000000 1.000000 0.000000 0.687200 -0.854400 1 0 1.000000 
0 19.513500 11.266101 0.000000 0.907067 0.420985 0.000000 0.584400 -0.849500 1 0 1.000000 
light_chandelier01_on
0 12.392699 21.464800 -3.960000 -0.000000 1.000000 0.000000 0.687200 -0.854400 1 0 1.000000 
0 -0.000001 22.532200 0.000000 0.041900 0.999101 0.006400 0.765600 -0.879600 1 0 1.000000 
0 11.266099 19.513500 0.000000 0.575092 0.818089 0.000000 0.687200 -0.879600 1 0 1.000000 
light_chandelier01_on
0 -12.392701 21.464800 -3.960000 -0.000000 1.000000 0.000000 0.843800 -0.854400 1 0 1.000000 
0 -0.000001 22.532200 0.000000 0.041900 0.999101 0.006400 0.765600 -0.879600 1 0 1.000000 
0 12.392699 21.464800 -3.960000 -0.000000 1.000000 0.000000 0.687200 -0.854400 1 0 1.000000 
light_chandelier01_on
0 -12.392701 21.464800 -3.960000 -0.000000 1.000000 0.000000 0.843800 -0.854400 1 0 1.000000 
0 -11.266101 19.513500 0.000000 -0.420985 0.907067 0.000000 0.843800 -0.879600 1 0 1.000000 
0 -0.000001 22.532200 0.000000 0.041900 0.999101 0.006400 0.765600 -0.879600 1 0 1.000000 
light_chandelier01_on
0 -11.266101 19.513500 0.000000 -0.420985 0.907067 0.000000 0.843800 -0.879600 1 0 1.000000 
0 -12.392701 21.464800 -3.960000 -0.000000 1.000000 0.000000 0.843800 -0.854400 1 0 1.000000 
0 -0.000001 22.532200 0.000000 0.041900 0.999101 0.006400 0.765600 -0.879600 1 0 1.000000 
light_chandelier01_on
0 19.513500 -11.266099 0.000000 0.818089 -0.575092 0.000000 0.452500 -0.879600 1 0 1.000000 
0 21.464800 -12.392699 -3.960000 -0.000000 1.000000 0.000000 0.452500 -0.854400 1 0 1.000000 
0 11.266101 -19.513500 0.000000 0.420985 -0.907067 0.000000 0.374200 -0.879600 1 0 1.000000 
light_chandelier01_on
0 22.532200 0.000001 0.000000 0.996031 -0.089003 0.000000 0.530700 -0.879600 1 0 1.000000 
0 21.464800 -12.392699 -3.960000 -0.000000 1.000000 0.000000 0.530700 -0.854400 1 0 1.000000 
0 19.513500 -11.266099 0.000000 0.818089 -0.575092 0.000000 0.452500 -0.879600 1 0 1.000000 
light_chandelier01_on
0 11.266101 -19.513500 0.000000 0.420985 -0.907067 0.000000 0.374200 -0.879600 1 0 1.000000 
0 0.000001 -24.785400 -3.960000 -0.218199 -0.872895 -0.436398 0.374200 -0.854400 1 0 1.000000 
0 0.000001 -22.532200 0.000000 -0.089003 -0.996031 0.000000 0.296000 -0.879600 1 0 1.000000 
light_chandelier01_on
0 -12.392699 -21.464800 -3.960000 0.000000 -1.000000 0.000000 0.217800 -0.879600 1 0 1.000000 
0 -11.266099 -19.513500 0.000000 -0.547096 -0.835194 -0.056000 0.232100 -0.849500 1 0 1.000000 
0 -19.513500 -11.266101 0.000000 -0.907067 -0.420985 0.000000 0.161700 -0.849500 1 0 1.000000 
light_chandelier01_on
0 0.000001 -24.785400 -3.960000 -0.218199 -0.872895 -0.436398 0.296000 -0.854400 1 0 1.000000 
0 -11.266099 -19.513500 0.000000 -0.547096 -0.835194 -0.056000 0.232100 -0.849500 1 0 1.000000 
0 -12.392699 -21.464800 -3.960000 0.000000 -1.000000 0.000000 0.217800 -0.879600 1 0 1.000000 
light_chandelier01_on
0 -11.266099 -19.513500 0.000000 -0.547096 -0.835194 -0.056000 0.232100 -0.849500 1 0 1.000000 
0 -12.392699 -21.464800 -3.960000 0.000000 -1.000000 0.000000 0.217800 -0.879600 1 0 1.000000 
0 -19.513500 -11.266101 0.000000 -0.907067 -0.420985 0.000000 0.161700 -0.849500 1 0 1.000000 
light_chandelier01_on
0 -12.392699 -21.464800 -3.960000 0.000000 -1.000000 0.000000 0.217800 -0.879600 1 0 1.000000 
0 -19.513500 -11.266101 0.000000 -0.907067 -0.420985 0.000000 0.161700 -0.849500 1 0 1.000000 
0 -24.785400 -0.000001 -3.960000 -0.000000 1.000000 0.000000 0.062000 -0.879600 1 0 1.000000 
light_chandelier01_on
0 -24.785400 -0.000001 -3.960000 -0.000000 1.000000 0.000000 0.062000 -0.879600 1 0 1.000000 
0 -19.513500 -11.266101 0.000000 -0.907067 -0.420985 0.000000 0.161700 -0.849500 1 0 1.000000 
0 -22.532200 -0.000001 0.000000 -0.996031 0.089003 0.000000 0.091800 -0.849500 1 0 1.000000 
light_chandelier01_on
0 -19.513500 -11.266101 0.000000 -0.907067 -0.420985 0.000000 0.161700 -0.849500 1 0 1.000000 
0 -22.532200 -0.000001 69.024002 -0.974606 0.012100 0.223601 0.091800 -0.455400 1 0 1.000000 
0 -22.532200 -0.000001 0.000000 -0.996031 0.089003 0.000000 0.091800 -0.849500 1 0 1.000000 
light_chandelier01_on
0 -19.513500 -11.266101 0.000000 -0.907067 -0.420985 0.000000 0.161700 -0.849500 1 0 1.000000 
0 -19.513500 -11.266101 69.024002 -0.836993 -0.520496 -0.168899 0.161700 -0.455400 1 0 1.000000 
0 -22.532200 -0.000001 69.024002 -0.974606 0.012100 0.223601 0.091800 -0.455400 1 0 1.000000 
light_chandelier01_on
0 -11.266099 -19.513500 0.000000 -0.547096 -0.835194 -0.056000 0.232100 -0.849500 1 0 1.000000 
0 -19.513500 -11.266101 69.024002 -0.836993 -0.520496 -0.168899 0.161700 -0.455400 1 0 1.000000 
0 -19.513500 -11.266101 0.000000 -0.907067 -0.420985 0.000000 0.161700 -0.849500 1 0 1.000000 
light_chandelier01_on
0 -11.266099 -19.513500 0.000000 -0.547096 -0.835194 -0.056000 0.232100 -0.849500 1 0 1.000000 
0 -11.266099 -19.513500 69.024002 -0.449789 -0.891378 0.055999 0.232100 -0.455400 1 0 1.000000 
0 -19.513500 -11.266101 69.024002 -0.836993 -0.520496 -0.168899 0.161700 -0.455400 1 0 1.000000 
light_chandelier01_on
0 0.000001 -22.532200 0.000000 -0.089003 -0.996031 0.000000 0.296000 -0.879600 1 0 1.000000 
0 -11.266099 -19.513500 69.024002 -0.449789 -0.891378 0.055999 0.232100 -0.455400 1 0 1.000000 
0 -11.266099 -19.513500 0.000000 -0.547096 -0.835194 -0.056000 0.232100 -0.849500 1 0 1.000000 
light_chandelier01_on
0 0.000001 -22.532200 0.000000 -0.089003 -0.996031 0.000000 0.296000 -0.879600 1 0 1.000000 
0 0.000001 -22.532200 69.024002 0.089003 -0.996031 0.000000 0.302600 -0.455400 1 0 1.000000 
0 -11.266099 -19.513500 69.024002 -0.449789 -0.891378 0.055999 0.232100 -0.455400 1 0 1.000000 
light_chandelier01_on
0 11.266101 -19.513500 0.000000 0.420985 -0.907067 0.000000 0.374200 -0.879600 1 0 1.000000 
0 0.000001 -22.532200 69.024002 0.089003 -0.996031 0.000000 0.302600 -0.455400 1 0 1.000000 
0 0.000001 -22.532200 0.000000 -0.089003 -0.996031 0.000000 0.296000 -0.879600 1 0 1.000000 
light_chandelier01_on
0 11.266101 -19.513500 0.000000 0.420985 -0.907067 0.000000 0.374200 -0.879600 1 0 1.000000 
0 11.266101 -19.513500 69.024002 0.566694 -0.821392 0.064599 0.373000 -0.455400 1 0 1.000000 
0 0.000001 -22.532200 69.024002 0.089003 -0.996031 0.000000 0.302600 -0.455400 1 0 1.000000 
light_chandelier01_on
0 19.513500 -11.266099 0.000000 0.818089 -0.575092 0.000000 0.452500 -0.879600 1 0 1.000000 
0 11.266101 -19.513500 69.024002 0.566694 -0.821392 0.064599 0.373000 -0.455400 1 0 1.000000 
0 11.266101 -19.513500 0.000000 0.420985 -0.907067 0.000000 0.374200 -0.879600 1 0 1.000000 
light_chandelier01_on
0 19.513500 -11.266099 0.000000 0.818089 -0.575092 0.000000 0.452500 -0.879600 1 0 1.000000 
0 19.513500 -11.266099 69.024002 0.907068 -0.420985 0.000000 0.443500 -0.455400 1 0 1.000000 
0 11.266101 -19.513500 69.024002 0.566694 -0.821392 0.064599 0.373000 -0.455400 1 0 1.000000 
light_chandelier01_on
0 22.532200 0.000001 0.000000 0.996031 -0.089003 0.000000 0.530700 -0.879600 1 0 1.000000 
0 19.513500 -11.266099 69.024002 0.907068 -0.420985 0.000000 0.443500 -0.455400 1 0 1.000000 
0 19.513500 -11.266099 0.000000 0.818089 -0.575092 0.000000 0.452500 -0.879600 1 0 1.000000 
light_chandelier01_on
0 22.532200 0.000001 0.000000 0.996031 -0.089003 0.000000 0.530700 -0.879600 1 0 1.000000 
0 22.532200 0.000001 69.024002 0.996031 0.089003 0.000000 0.514000 -0.455400 1 0 1.000000 
0 19.513500 -11.266099 69.024002 0.907068 -0.420985 0.000000 0.443500 -0.455400 1 0 1.000000 
light_chandelier01_on
0 19.513500 11.266101 0.000000 0.907067 0.420985 0.000000 0.584400 -0.849500 1 0 1.000000 
0 22.532200 0.000001 69.024002 0.996031 0.089003 0.000000 0.514000 -0.455400 1 0 1.000000 
0 22.532200 0.000001 0.000000 0.996031 -0.089003 0.000000 0.530700 -0.879600 1 0 1.000000 
light_chandelier01_on
0 19.513500 11.266101 0.000000 0.907067 0.420985 0.000000 0.584400 -0.849500 1 0 1.000000 
0 19.513500 11.266101 69.024002 0.818089 0.575092 0.000000 0.547300 -0.420400 1 0 1.000000 
0 22.532200 0.000001 69.024002 0.996031 0.089003 0.000000 0.514000 -0.455400 1 0 1.000000 
light_chandelier01_on
0 11.266099 19.513500 0.000000 0.575092 0.818089 0.000000 0.687200 -0.879600 1 0 1.000000 
0 19.513500 11.266101 69.024002 0.818089 0.575092 0.000000 0.547300 -0.420400 1 0 1.000000 
0 19.513500 11.266101 0.000000 0.907067 0.420985 0.000000 0.584400 -0.849500 1 0 1.000000 
light_chandelier01_on
0 11.266099 19.513500 0.000000 0.575092 0.818089 0.000000 0.687200 -0.879600 1 0 1.000000 
0 11.266099 19.513500 69.024002 0.420985 0.907068 0.000000 0.655000 -0.455400 1 0 1.000000 
0 19.513500 11.266101 69.024002 0.818089 0.575092 0.000000 0.547300 -0.420400 1 0 1.000000 
light_chandelier01_on
0 -19.513500 -11.266101 0.000000 -0.907067 -0.420985 0.000000 0.161700 -0.849500 1 0 1.000000 
0 -24.785400 -0.000001 -3.960000 -0.000000 1.000000 0.000000 0.139600 -0.854400 1 0 1.000000 
0 -22.532200 -0.000001 0.000000 -0.996031 0.089003 0.000000 0.091800 -0.849500 1 0 1.000000 
light_chandelier01_on
0 -11.266099 -19.513500 0.000000 -0.547096 -0.835194 -0.056000 0.296000 -0.879600 1 0 1.000000 
0 0.000001 -24.785400 -3.960000 -0.218199 -0.872895 -0.436398 0.217800 -0.854400 1 0 1.000000 
0 -12.392699 -21.464800 -3.960000 0.000000 -1.000000 0.000000 0.217800 -0.879600 1 0 1.000000 
light_chandelier01_on
0 -19.513500 -11.266101 0.000000 -0.907067 -0.420985 0.000000 0.217800 -0.879600 1 0 1.000000 
0 -12.392699 -21.464800 -3.960000 0.000000 -1.000000 0.000000 0.139600 -0.854400 1 0 1.000000 
0 -24.785400 -0.000001 -3.960000 -0.000000 1.000000 0.000000 0.062000 -0.879600 1 0 1.000000 
light_chandelier01_on
0 12.392699 21.464899 72.984001 -0.000000 1.000000 0.000000 0.704000 -0.445600 1 0 1.000000 
0 -0.000001 22.532200 69.024002 -0.041900 0.999101 -0.006400 0.625700 -0.420400 1 0 1.000000 
0 11.266099 19.513500 69.024002 0.420985 0.907068 0.000000 0.655000 -0.455400 1 0 1.000000 
light_chandelier01_on
0 24.785500 0.000001 72.984001 -0.000000 1.000000 0.000000 0.547300 -0.445600 1 0 1.000000 
0 19.513500 11.266101 69.024002 0.818089 0.575092 0.000000 0.469100 -0.420400 1 0 1.000000 
0 22.532200 0.000001 69.024002 0.996031 0.089003 0.000000 0.514000 -0.455400 1 0 1.000000 
light_chandelier01_on
0 19.513500 11.266101 0.000000 0.907067 0.420985 0.000000 0.687200 -0.879600 1 0 1.000000 
0 12.392699 21.464800 -3.960000 -0.000000 1.000000 0.000000 0.608800 -0.854400 1 0 1.000000 
0 21.464800 12.392701 -3.960000 0.816530 0.408215 0.408215 0.608800 -0.879600 1 0 1.000000 
light_chandelier01_on
0 14.818000 0.098001 99.252296 0.008700 -0.999960 -0.002200 0.510400 -0.236400 1 0 1.000000 
0 -14.830300 -0.160701 99.252296 0.008700 -0.999960 -0.002200 0.341100 -0.236400 1 0 1.000000 
0 -23.189501 -0.166201 69.051498 0.008700 -0.999960 -0.002200 0.293400 -0.408800 1 0 1.000000 
light_chandelier01_on
0 -23.189501 -0.166201 69.051498 0.008700 -0.999960 -0.002200 0.293400 -0.408800 1 0 1.000000 
0 23.192699 0.238501 69.051498 0.008700 -0.999960 -0.002200 0.558200 -0.408800 1 0 1.000000 
0 14.818000 0.098001 99.252296 0.008700 -0.999960 -0.002200 0.510400 -0.236400 1 0 1.000000 
light_chandelier01_on
0 -0.160801 14.817600 99.252296 0.999960 0.008700 0.002200 0.510400 -0.236400 1 0 1.000000 
0 0.098001 -14.830600 99.252296 0.999960 0.008700 0.002200 0.341100 -0.236400 1 0 1.000000 
0 0.238301 -23.188801 69.051498 0.999960 0.008700 0.002200 0.293400 -0.408800 1 0 1.000000 
light_chandelier01_on
0 0.238301 -23.188801 69.051498 0.999960 0.008700 0.002200 0.293400 -0.408800 1 0 1.000000 
0 -0.166401 23.193501 69.051498 0.999960 0.008700 0.002200 0.558200 -0.408800 1 0 1.000000 
0 -0.160801 14.817600 99.252296 0.999960 0.008700 0.002200 0.510400 -0.236400 1 0 1.000000 
light_chandelier01_on
0 1.032900 -1.789000 105.447304 0.438101 -0.389201 -0.810302 0.600900 -0.267300 1 0 1.000000 
0 5.976000 3.450300 110.490799 0.737300 0.227800 -0.636000 0.630700 -0.239000 1 0 1.000000 
0 0.000000 -6.900500 110.490799 -0.455126 -0.493528 -0.741142 0.571600 -0.273200 1 0 1.000000 
light_chandelier01_on
0 1.032900 -1.789000 105.447304 0.438101 -0.389201 -0.810302 0.600900 -0.267300 1 0 1.000000 
0 1.032900 1.789000 105.447304 -0.393105 0.273704 -0.877812 0.621200 -0.267300 1 0 1.000000 
0 5.976000 3.450300 110.490799 0.737300 0.227800 -0.636000 0.630700 -0.239000 1 0 1.000000 
light_chandelier01_on
0 1.032900 1.789000 105.447304 -0.393105 0.273704 -0.877812 0.621200 -0.267300 1 0 1.000000 
0 -5.976000 3.450300 110.490799 -0.448675 0.450475 -0.771857 0.630700 -0.307300 1 0 1.000000 
0 5.976000 3.450300 110.490799 0.737300 0.227800 -0.636000 0.630700 -0.239000 1 0 1.000000 
light_chandelier01_on
0 1.032900 1.789000 105.447304 -0.393105 0.273704 -0.877812 0.621200 -0.267300 1 0 1.000000 
0 0.000000 -6.900500 110.490799 -0.455126 -0.493528 -0.741142 0.571600 -0.273200 1 0 1.000000 
0 -5.976000 3.450300 110.490799 -0.448675 0.450475 -0.771857 0.630700 -0.307300 1 0 1.000000 
light_chandelier01_on
0 1.032900 1.789000 105.447304 -0.393105 0.273704 -0.877812 0.621200 -0.267300 1 0 1.000000 
0 1.032900 -1.789000 105.447304 0.438101 -0.389201 -0.810302 0.600900 -0.267300 1 0 1.000000 
0 0.000000 -6.900500 110.490799 -0.455126 -0.493528 -0.741142 0.571600 -0.273200 1 0 1.000000 
light_chandelier01_on
0 7.218400 -1.465400 5.056600 0.775908 -0.272603 -0.568906 0.093000 -0.288100 1 0 1.000000 
0 10.766000 0.000000 9.192700 0.775908 -0.272603 -0.568906 0.102400 -0.301700 1 0 1.000000 
0 8.228600 -1.465000 9.214800 0.495591 -0.860185 -0.120298 0.098500 -0.265200 1 0 1.000000 
light_chandelier01_on
0 7.218400 -1.465400 5.056600 0.775908 -0.272603 -0.568906 0.093000 -0.288100 1 0 1.000000 
0 0.004800 0.000000 -0.093700 0.268409 0.242308 -0.932332 0.084700 -0.318100 1 0 1.000000 
0 10.766000 0.000000 9.192700 0.775908 -0.272603 -0.568906 0.102400 -0.301700 1 0 1.000000 
light_chandelier01_on
0 -2.340100 6.984000 5.056600 0.066403 0.762031 -0.644126 0.093000 -0.288100 1 0 1.000000 
0 -5.383000 9.323600 9.192700 -0.151907 0.808237 -0.568926 0.102400 -0.301700 1 0 1.000000 
0 -2.845500 7.858700 9.214800 0.497106 0.859310 -0.120301 0.098500 -0.265200 1 0 1.000000 
light_chandelier01_on
0 -2.340100 6.984000 5.056600 0.066403 0.762031 -0.644126 0.093000 -0.288100 1 0 1.000000 
0 -0.002400 0.004200 -0.093700 -0.187193 -0.148295 -0.971065 0.084700 -0.318100 1 0 1.000000 
0 -5.383000 9.323600 9.192700 -0.151907 0.808237 -0.568926 0.102400 -0.301700 1 0 1.000000 
light_chandelier01_on
0 0.004800 0.000000 -0.093700 0.268409 0.242308 -0.932332 0.084700 -0.318100 1 0 1.000000 
0 -0.002400 0.004200 -0.093700 -0.187193 -0.148295 -0.971065 0.084700 -0.318100 1 0 1.000000 
0 -2.340100 6.984000 5.056600 0.066403 0.762031 -0.644126 0.093000 -0.288100 1 0 1.000000 
light_chandelier01_on
0 -4.878300 -5.518600 5.056600 -0.623427 -0.536023 -0.569225 0.093000 -0.288100 1 0 1.000000 
0 -5.382999 -9.323700 9.192700 -0.505403 -0.557503 -0.658603 0.102400 -0.301700 1 0 1.000000 
0 -5.382999 -6.393700 9.214800 -0.992737 0.000900 -0.120304 0.098500 -0.265200 1 0 1.000000 
light_chandelier01_on
0 -4.878300 -5.518600 5.056600 -0.623427 -0.536023 -0.569225 0.093000 -0.288100 1 0 1.000000 
0 -0.002400 0.004200 -0.093700 -0.187193 -0.148295 -0.971065 0.084700 -0.318100 1 0 1.000000 
0 -5.382999 -9.323700 9.192700 -0.505403 -0.557503 -0.658603 0.102400 -0.301700 1 0 1.000000 
light_chandelier01_on
0 -0.002400 0.004200 -0.093700 -0.187193 -0.148295 -0.971065 0.164100 -0.318100 1 0 1.000000 
0 0.004800 0.000000 -0.093700 0.268409 0.242308 -0.932332 0.189100 -0.306100 1 0 1.000000 
0 -5.382999 -9.323700 9.192700 -0.505403 -0.557503 -0.658603 0.102400 -0.301700 1 0 1.000000 
light_chandelier01_on
0 -5.383000 6.393700 9.214800 -0.330094 -0.870485 -0.365094 0.132800 -0.262800 1 0 1.000000 
0 -2.340100 6.984000 5.056600 0.012400 -0.866219 0.499511 0.132800 -0.312300 1 0 1.000000 
0 -2.845500 7.858700 9.214800 0.485909 -0.841515 0.236104 0.116000 -0.262800 1 0 1.000000 
light_chandelier01_on
0 -5.383000 9.323600 9.192700 -0.353993 -0.901383 0.249395 0.132800 -0.287300 1 0 1.000000 
0 -2.340100 6.984000 5.056600 0.012400 -0.866219 0.499511 0.132800 -0.312300 1 0 1.000000 
0 -5.383000 6.393700 9.214800 -0.330094 -0.870485 -0.365094 0.132800 -0.262800 1 0 1.000000 
light_chandelier01_on
0 -0.002400 0.004200 -0.093700 0.277404 -0.164802 0.946513 0.116000 -0.312300 1 0 1.000000 
0 -2.340100 6.984000 5.056600 0.012400 -0.866219 0.499511 0.132800 -0.312300 1 0 1.000000 
0 -5.383000 9.323600 9.192700 -0.353993 -0.901383 0.249395 0.132800 -0.287300 1 0 1.000000 
light_chandelier01_on
0 -0.002400 0.004200 -0.093700 0.277404 -0.164802 0.946513 0.116000 -0.312300 1 0 1.000000 
0 0.004800 0.000000 -0.093700 -0.265205 0.043301 0.963219 0.116000 -0.312300 1 0 1.000000 
0 -2.340100 6.984000 5.056600 0.012400 -0.866219 0.499511 0.132800 -0.312300 1 0 1.000000 
light_chandelier01_on
0 0.004800 0.000000 -0.093700 -0.265205 0.043301 0.963219 0.116000 -0.312300 1 0 1.000000 
0 -0.002400 0.004200 -0.093700 0.277404 -0.164802 0.946513 0.116000 -0.312300 1 0 1.000000 
0 -4.878300 -5.518600 5.056600 0.506294 0.670592 0.542193 0.132800 -0.312300 1 0 1.000000 
light_chandelier01_on
0 0.004800 0.000000 -0.093700 -0.265205 0.043301 0.963219 0.116000 -0.312300 1 0 1.000000 
0 -4.878300 -5.518600 5.056600 0.506294 0.670592 0.542193 0.132800 -0.312300 1 0 1.000000 
0 -5.382999 -9.323700 9.192700 0.957566 0.144295 0.249491 0.132800 -0.287300 1 0 1.000000 
light_chandelier01_on
0 -5.382999 -9.323700 9.192700 0.957566 0.144295 0.249491 0.132800 -0.287300 1 0 1.000000 
0 -4.878300 -5.518600 5.056600 0.506294 0.670592 0.542193 0.132800 -0.312300 1 0 1.000000 
0 -2.845500 -7.858700 9.214800 0.918902 0.149400 -0.365101 0.132800 -0.262800 1 0 1.000000 
light_chandelier01_on
0 -2.845500 -7.858700 9.214800 0.918902 0.149400 -0.365101 0.132800 -0.262800 1 0 1.000000 
0 -4.878300 -5.518600 5.056600 0.506294 0.670592 0.542193 0.132800 -0.312300 1 0 1.000000 
0 -5.382999 -6.393700 9.214800 0.485909 0.841515 0.236104 0.116000 -0.262800 1 0 1.000000 
light_chandelier01_on
0 0.004800 0.000000 -0.093700 -0.265205 0.043301 0.963219 0.116000 -0.312300 1 0 1.000000 
0 7.218400 -1.465400 5.056600 -0.950201 0.179000 0.255100 0.132800 -0.312300 1 0 1.000000 
0 10.766000 0.000000 9.192700 -0.603589 0.757286 0.249395 0.132800 -0.287300 1 0 1.000000 
light_chandelier01_on
0 10.766000 0.000000 9.192700 -0.603589 0.757286 0.249395 0.132800 -0.287300 1 0 1.000000 
0 7.218400 -1.465400 5.056600 -0.950201 0.179000 0.255100 0.132800 -0.312300 1 0 1.000000 
0 8.228600 1.465100 9.214800 -0.588788 0.721085 -0.365192 0.132800 -0.262800 1 0 1.000000 
light_chandelier01_on
0 8.228600 1.465100 9.214800 -0.588788 0.721085 -0.365192 0.132800 -0.262800 1 0 1.000000 
0 7.218400 -1.465400 5.056600 -0.950201 0.179000 0.255100 0.132800 -0.312300 1 0 1.000000 
0 8.228600 -1.465000 9.214800 -0.971727 -0.000000 0.236107 0.116000 -0.262800 1 0 1.000000 
light_chandelier01_on
0 -0.023201 25.743099 -3.908700 0.999979 0.000000 0.006400 0.299100 -0.342700 1 0 1.000000 
0 -0.023199 -25.743099 -3.908700 0.999979 0.000000 0.006400 0.005100 -0.342700 1 0 1.000000 
0 0.052499 22.385300 -15.756200 0.999979 0.000000 0.006400 0.279900 -0.410400 1 0 1.000000 
light_chandelier01_on
0 0.052501 -22.385300 -15.756200 0.999979 0.000000 0.006400 0.024300 -0.410400 1 0 1.000000 
0 0.052499 22.385300 -15.756200 0.999979 0.000000 0.006400 0.279900 -0.410400 1 0 1.000000 
0 -0.023199 -25.743099 -3.908700 0.999979 0.000000 0.006400 0.005100 -0.342700 1 0 1.000000 
light_chandelier01_on
0 25.742901 0.023401 -3.908700 0.000000 -0.999979 0.006400 0.299100 -0.342700 1 0 1.000000 
0 -25.743299 0.023399 -3.908700 0.000000 -0.999979 0.006400 0.005100 -0.342700 1 0 1.000000 
0 22.385099 -0.052299 -15.756200 0.000000 -0.999979 0.006400 0.279900 -0.410400 1 0 1.000000 
light_chandelier01_on
0 -22.385500 -0.052301 -15.756200 0.000000 -0.999979 0.006400 0.024300 -0.410400 1 0 1.000000 
0 22.385099 -0.052299 -15.756200 0.000000 -0.999979 0.006400 0.279900 -0.410400 1 0 1.000000 
0 -25.743299 0.023399 -3.908700 0.000000 -0.999979 0.006400 0.005100 -0.342700 1 0 1.000000 
light_chandelier01_on
0 -19.513500 11.266099 0.000000 -0.818089 0.575092 0.000000 0.999500 -0.879600 1 0 1.000000 
0 -24.785400 -0.000001 -3.960000 -0.000000 1.000000 0.000000 0.922000 -0.854400 1 0 1.000000 
0 -12.392701 21.464800 -3.960000 -0.000000 1.000000 0.000000 0.843800 -0.854400 1 0 1.000000 
light_chandelier01_on
0 -24.785400 -0.000001 -3.960000 -0.000000 1.000000 0.000000 0.999500 -0.854400 1 0 1.000000 
0 -19.513500 11.266099 0.000000 -0.818089 0.575092 0.000000 0.922000 -0.879600 1 0 1.000000 
0 -12.392701 21.464800 -3.960000 -0.000000 1.000000 0.000000 0.843800 -0.854400 1 0 1.000000 
light_chandelier01_on
0 -12.392701 21.464800 -3.960000 -0.000000 1.000000 0.000000 0.843800 -0.854400 1 0 1.000000 
0 -19.513500 11.266099 0.000000 -0.818089 0.575092 0.000000 0.922000 -0.879600 1 0 1.000000 
0 -11.266101 19.513500 0.000000 -0.420985 0.907067 0.000000 0.843800 -0.879600 1 0 1.000000 
light_chandelier01_on
0 -19.513500 11.266099 0.000000 -0.818089 0.575092 0.000000 0.922000 -0.879600 1 0 1.000000 
0 -12.392701 21.464800 -3.960000 -0.000000 1.000000 0.000000 0.922000 -0.854400 1 0 1.000000 
0 -11.266101 19.513500 0.000000 -0.420985 0.907067 0.000000 0.843800 -0.879600 1 0 1.000000 
light_chandelier01_on
0 -24.785400 -0.000001 -3.960000 -0.000000 1.000000 0.000000 0.999500 -0.854400 1 0 1.000000 
0 -22.532200 -0.000001 0.000000 -0.996031 0.089003 0.000000 0.999500 -0.879600 1 0 1.000000 
0 -19.513500 11.266099 0.000000 -0.818089 0.575092 0.000000 0.922000 -0.879600 1 0 1.000000 
light_chandelier01_on
0 -22.532200 -0.000001 0.000000 -0.996031 0.089003 0.000000 0.999500 -0.879600 1 0 1.000000 
0 -24.785400 -0.000001 -3.960000 -0.000000 1.000000 0.000000 0.999500 -0.854400 1 0 1.000000 
0 -19.513500 11.266099 0.000000 -0.818089 0.575092 0.000000 0.922000 -0.879600 1 0 1.000000 
light_chandelier01_on
0 1.032900 1.789000 102.547203 -0.341695 0.591790 0.730088 0.626600 -0.322100 1 0 1.000000 
0 1.032900 -1.789000 105.447304 -0.733492 -0.238997 0.636293 0.605500 -0.346700 1 0 1.000000 
0 1.032900 1.789000 105.447304 1.000000 0.000000 0.000000 0.626000 -0.346700 1 0 1.000000 
light_chandelier01_on
0 1.032900 -1.789000 105.447304 -0.733492 -0.238997 0.636293 0.605500 -0.346700 1 0 1.000000 
0 1.032900 1.789000 102.547203 -0.341695 0.591790 0.730088 0.626600 -0.322100 1 0 1.000000 
0 -2.065800 -0.000100 102.547203 -0.733492 -0.238997 0.636293 0.615700 -0.329000 1 0 1.000000 
light_chandelier01_on
0 1.032900 -1.789000 105.447304 -0.733492 -0.238997 0.636293 0.605500 -0.346700 1 0 1.000000 
0 -2.065800 -0.000100 102.547203 -0.733492 -0.238997 0.636293 0.615700 -0.329000 1 0 1.000000 
0 1.032900 -1.789000 102.547203 0.866019 -0.500011 0.000000 0.626000 -0.346700 1 0 1.000000 
light_chandelier01_on
0 1.032900 1.789000 105.447304 1.000000 0.000000 0.000000 0.626000 -0.346700 1 0 1.000000 
0 1.032900 -1.789000 105.447304 -0.733492 -0.238997 0.636293 0.605500 -0.346700 1 0 1.000000 
0 1.032900 -1.789000 102.547203 0.866019 -0.500011 0.000000 0.626000 -0.346700 1 0 1.000000 
light_chandelier01_on
0 1.032900 1.789000 105.447304 1.000000 0.000000 0.000000 0.626000 -0.346700 1 0 1.000000 
0 1.032900 -1.789000 102.547203 0.866019 -0.500011 0.000000 0.626000 -0.346700 1 0 1.000000 
0 1.032900 1.789000 102.547203 -0.341695 0.591790 0.730088 0.626600 -0.322100 1 0 1.000000 
light_chandelier01_on
0 0.000000 0.000000 -27.211399 0.000000 0.000000 -1.000000 0.684900 -0.374300 1 0 1.000000 
0 -4.036200 2.330300 -18.898701 -0.733292 0.423396 0.531995 0.671600 -0.326800 1 0 1.000000 
0 4.036200 2.330300 -18.898701 0.733292 0.423396 0.531995 0.696200 -0.322400 1 0 1.000000 
light_chandelier01_on
0 0.000000 0.000000 -27.211399 0.000000 0.000000 -1.000000 0.684900 -0.374300 1 0 1.000000 
0 0.000000 -4.660600 -18.898701 0.000000 -0.846760 0.531975 0.698200 -0.326800 1 0 1.000000 
0 -4.036200 2.330300 -18.898701 -0.733292 0.423396 0.531995 0.671600 -0.326800 1 0 1.000000 
light_chandelier01_on
0 0.000000 0.000000 -27.211399 0.000000 0.000000 -1.000000 0.684900 -0.374300 1 0 1.000000 
0 4.036200 2.330300 -18.898701 0.733292 0.423396 0.531995 0.696200 -0.322400 1 0 1.000000 
0 0.000000 -4.660600 -18.898701 0.000000 -0.846760 0.531975 0.698200 -0.326800 1 0 1.000000 
light_chandelier01_on
0 0.000000 -4.660600 -18.898701 0.000000 -0.846760 0.531975 0.698200 -0.326800 1 0 1.000000 
0 4.036200 2.330300 -18.898701 0.733292 0.423396 0.531995 0.696200 -0.322400 1 0 1.000000 
0 1.553200 -0.896800 -17.848101 0.720825 -0.324011 0.612721 0.677800 -0.308300 1 0 1.000000 
light_chandelier01_on
0 4.036200 2.330300 -18.898701 0.733292 0.423396 0.531995 0.696200 -0.322400 1 0 1.000000 
0 -0.000000 1.793500 -17.848101 -0.079805 0.786247 0.612737 0.693200 -0.299400 1 0 1.000000 
0 1.553200 -0.896800 -17.848101 0.720825 -0.324011 0.612721 0.677800 -0.308300 1 0 1.000000 
light_chandelier01_on
0 4.036200 2.330300 -18.898701 0.733292 0.423396 0.531995 0.696200 -0.322400 1 0 1.000000 
0 -4.036200 2.330300 -18.898701 -0.733292 0.423396 0.531995 0.696200 -0.276400 1 0 1.000000 
0 -0.000000 1.793500 -17.848101 -0.079805 0.786247 0.612737 0.693200 -0.299400 1 0 1.000000 
light_chandelier01_on
0 -4.036200 2.330300 -18.898701 -0.733292 0.423396 0.531995 0.696200 -0.276400 1 0 1.000000 
0 -1.553200 -0.896800 -17.848101 -0.641028 -0.462221 0.612727 0.677800 -0.290500 1 0 1.000000 
0 -0.000000 1.793500 -17.848101 -0.079805 0.786247 0.612737 0.693200 -0.299400 1 0 1.000000 
light_chandelier01_on
0 -4.036200 2.330300 -18.898701 -0.733292 0.423396 0.531995 0.696200 -0.276400 1 0 1.000000 
0 0.000000 -4.660600 -18.898701 0.000000 -0.846760 0.531975 0.698200 -0.326800 1 0 1.000000 
0 -1.553200 -0.896800 -17.848101 -0.641028 -0.462221 0.612727 0.677800 -0.290500 1 0 1.000000 
light_chandelier01_on
0 0.000000 -4.660600 -18.898701 0.000000 -0.846760 0.531975 0.698200 -0.326800 1 0 1.000000 
0 1.553200 -0.896800 -17.848101 0.720825 -0.324011 0.612721 0.677800 -0.308300 1 0 1.000000 
0 -1.553200 -0.896800 -17.848101 -0.641028 -0.462221 0.612727 0.677800 -0.290500 1 0 1.000000 
light_chandelier01_on
0 -12.392701 21.464899 72.984001 -0.000000 1.000000 0.000000 0.860400 -0.445600 1 0 1.000000 
0 -19.513500 11.266099 69.024002 -0.901473 0.427987 0.064598 0.782200 -0.420400 1 0 1.000000 
0 -11.266101 19.513500 69.024002 -0.575092 0.818089 0.000000 0.796100 -0.455400 1 0 1.000000 
light_chandelier01_on
0 -0.000000 1.793500 -17.848101 -0.129000 0.780501 0.611700 0.963100 -0.845100 1 0 1.000000 
0 -1.553200 -0.896800 -17.848101 -0.611465 -0.501972 0.611665 0.978700 -0.845100 1 0 1.000000 
0 -2.065800 -0.000100 102.547203 -0.965929 0.258808 0.000600 0.978700 -0.219400 1 0 1.000000 
light_chandelier01_on
0 -1.553200 -0.896800 -17.848101 -0.611465 -0.501972 0.611665 0.978700 -0.845100 1 0 1.000000 
0 1.032900 -1.789000 102.547203 0.258808 -0.965929 0.000600 0.947600 -0.219400 1 0 1.000000 
0 -2.065800 -0.000100 102.547203 -0.965929 0.258808 0.000600 0.978700 -0.219400 1 0 1.000000 
light_chandelier01_on
0 -1.553200 -0.896800 -17.848101 -0.611465 -0.501972 0.611665 0.978700 -0.845100 1 0 1.000000 
0 1.553200 -0.896800 -17.848101 0.740450 -0.278581 0.611659 0.947600 -0.845100 1 0 1.000000 
0 1.032900 -1.789000 102.547203 0.258808 -0.965929 0.000600 0.947600 -0.219400 1 0 1.000000 
light_chandelier01_on
0 1.553200 -0.896800 -17.848101 0.740450 -0.278581 0.611659 0.947600 -0.845100 1 0 1.000000 
0 1.032900 1.789000 102.547203 0.707107 0.707107 0.000600 0.963100 -0.219400 1 0 1.000000 
0 1.032900 -1.789000 102.547203 0.258808 -0.965929 0.000600 0.947600 -0.219400 1 0 1.000000 
light_chandelier01_on
0 1.553200 -0.896800 -17.848101 0.740450 -0.278581 0.611659 0.947600 -0.845100 1 0 1.000000 
0 -0.000000 1.793500 -17.848101 -0.129000 0.780501 0.611700 0.963100 -0.845100 1 0 1.000000 
0 1.032900 1.789000 102.547203 0.707107 0.707107 0.000600 0.963100 -0.219400 1 0 1.000000 
light_chandelier01_on
0 -0.000000 1.793500 -17.848101 -0.129000 0.780501 0.611700 0.963100 -0.845100 1 0 1.000000 
0 -2.065800 -0.000100 102.547203 -0.965929 0.258808 0.000600 0.978700 -0.219400 1 0 1.000000 
0 1.032900 1.789000 102.547203 0.707107 0.707107 0.000600 0.963100 -0.219400 1 0 1.000000 
light_chandelier01_on
0 0.000000 -6.900500 110.490799 0.169094 -0.878669 0.446484 0.571500 -0.204700 1 0 1.000000 
0 5.976000 3.450300 110.490799 0.772101 0.445701 0.453001 0.630600 -0.238800 1 0 1.000000 
0 3.494700 2.017700 116.128899 0.385911 0.222806 0.895226 0.622400 -0.224600 1 0 1.000000 
light_chandelier01_on
0 5.976000 3.450300 110.490799 0.772101 0.445701 0.453001 0.630600 -0.238800 1 0 1.000000 
0 -5.976000 3.450300 110.490799 -0.658598 0.582898 0.475898 0.630600 -0.170600 1 0 1.000000 
0 3.494700 2.017700 116.128899 0.385911 0.222806 0.895226 0.622400 -0.224600 1 0 1.000000 
light_chandelier01_on
0 -5.976000 3.450300 110.490799 -0.658598 0.582898 0.475898 0.630600 -0.170600 1 0 1.000000 
0 -3.494700 -2.017700 116.128899 -0.513300 -0.296400 0.805400 0.599300 -0.184700 1 0 1.000000 
0 3.494700 2.017700 116.128899 0.385911 0.222806 0.895226 0.622400 -0.224600 1 0 1.000000 
light_chandelier01_on
0 -5.976000 3.450300 110.490799 -0.658598 0.582898 0.475898 0.630600 -0.170600 1 0 1.000000 
0 0.000000 -6.900500 110.490799 0.169094 -0.878669 0.446484 0.571500 -0.204700 1 0 1.000000 
0 -3.494700 -2.017700 116.128899 -0.513300 -0.296400 0.805400 0.599300 -0.184700 1 0 1.000000 
light_chandelier01_on
0 0.000000 -6.900500 110.490799 0.169094 -0.878669 0.446484 0.571500 -0.204700 1 0 1.000000 
0 3.494700 2.017700 116.128899 0.385911 0.222806 0.895226 0.622400 -0.224600 1 0 1.000000 
0 -3.494700 -2.017700 116.128899 -0.513300 -0.296400 0.805400 0.599300 -0.184700 1 0 1.000000 
light_chandelier01_on
0 11.266101 -19.513500 0.000000 0.420985 -0.907067 0.000000 0.452500 -0.879600 1 0 1.000000 
0 21.464800 -12.392699 -3.960000 -0.000000 1.000000 0.000000 0.374200 -0.854400 1 0 1.000000 
0 0.000001 -24.785400 -3.960000 -0.218199 -0.872895 -0.436398 0.296000 -0.854400 1 0 1.000000 
light_chandelier01_on
0 22.532200 0.000001 0.000000 0.996031 -0.089003 0.000000 0.608800 -0.879600 1 0 1.000000 
0 21.464800 12.392701 -3.960000 0.816530 0.408215 0.408215 0.530700 -0.854400 1 0 1.000000 
0 21.464800 -12.392699 -3.960000 -0.000000 1.000000 0.000000 0.452500 -0.854400 1 0 1.000000 
light_chandelier01_on
0 -0.000001 22.532200 0.000000 0.041900 0.999101 0.006400 0.843800 -0.879600 1 0 1.000000 
0 -12.392701 21.464800 -3.960000 -0.000000 1.000000 0.000000 0.765600 -0.854400 1 0 1.000000 
0 12.392699 21.464800 -3.960000 -0.000000 1.000000 0.000000 0.687200 -0.854400 1 0 1.000000 
light_chandelier01a_bulb
0 -2.845500 -7.858700 9.214800 0.844576 -0.527385 0.092497 0.332800 -0.727800 1 0 1.000000 
0 -7.011499 -9.784400 13.300900 -0.472307 -0.873213 0.120102 0.000500 -0.566900 1 0 1.000000 
0 -5.382999 -9.323700 9.192700 -0.433414 -0.860327 -0.268308 0.000500 -0.728500 1 0 1.000000 
light_chandelier01a_bulb
0 -2.845500 -7.858700 9.214800 0.844576 -0.527385 0.092497 0.470200 -0.555700 1 0 1.000000 
0 -5.382999 -6.393700 9.214800 -0.524904 0.850707 0.027800 0.697800 -0.381500 1 0 1.000000 
0 -3.208300 -7.885900 15.192900 0.415494 0.768689 0.486293 0.533200 -0.474100 1 0 1.000000 
light_chandelier01a_bulb
0 -7.011499 -9.784400 13.300900 -0.472307 -0.873213 0.120102 0.431700 -0.273500 1 0 1.000000 
0 -3.208300 -7.885900 15.192900 0.415494 0.768689 0.486293 0.533200 -0.474100 1 0 1.000000 
0 -5.382999 -6.393700 9.214800 -0.524904 0.850707 0.027800 0.697800 -0.381500 1 0 1.000000 
light_chandelier01a_bulb
0 -7.011499 -9.784400 13.300900 -0.472307 -0.873213 0.120102 0.431700 -0.273500 1 0 1.000000 
0 -2.845500 -7.858700 9.214800 0.844576 -0.527385 0.092497 0.470200 -0.555700 1 0 1.000000 
0 -3.208300 -7.885900 15.192900 0.415494 0.768689 0.486293 0.533200 -0.474100 1 0 1.000000 
light_chandelier01a_bulb
0 8.228600 -1.465000 9.214800 -0.399686 -0.902368 0.161194 0.431700 -0.273500 1 0 1.000000 
0 10.469200 0.000000 15.192900 -0.688006 -0.106101 0.717906 0.533200 -0.474100 1 0 1.000000 
0 8.228600 1.465100 9.214800 0.088896 0.965060 0.246490 0.697800 -0.381500 1 0 1.000000 
light_chandelier01a_bulb
0 11.991800 -1.176499 13.254400 0.999240 -0.031601 0.022801 0.470200 -0.555700 1 0 1.000000 
0 8.228600 1.465100 9.214800 0.088896 0.965060 0.246490 0.697800 -0.381500 1 0 1.000000 
0 10.469200 0.000000 15.192900 -0.688006 -0.106101 0.717906 0.533200 -0.474100 1 0 1.000000 
light_chandelier01a_bulb
0 8.228600 -1.465000 9.214800 -0.399686 -0.902368 0.161194 0.431700 -0.273500 1 0 1.000000 
0 11.991800 -1.176499 13.254400 0.999240 -0.031601 0.022801 0.470200 -0.555700 1 0 1.000000 
0 10.469200 0.000000 15.192900 -0.688006 -0.106101 0.717906 0.533200 -0.474100 1 0 1.000000 
light_chandelier01a_bulb
0 -5.382999 -6.393700 9.214800 -0.524904 0.850707 0.027800 0.666500 -0.727800 1 0 1.000000 
0 -5.382999 -9.323700 9.192700 -0.433414 -0.860327 -0.268308 0.999500 -0.727000 1 0 1.000000 
0 -7.011499 -9.784400 13.300900 -0.472307 -0.873213 0.120102 0.996700 -0.565400 1 0 1.000000 
light_chandelier01a_bulb
0 -2.845500 7.858700 9.214800 0.958699 0.241900 -0.149600 0.470200 -0.555700 1 0 1.000000 
0 -4.973900 10.953500 13.283100 -0.461431 0.876059 0.140009 0.697800 -0.381500 1 0 1.000000 
0 -3.208300 7.878500 15.192900 0.519883 -0.676978 0.520983 0.533200 -0.474100 1 0 1.000000 
light_chandelier01a_bulb
0 -5.383000 6.393700 9.214800 -0.742099 -0.609099 0.279799 0.431700 -0.273500 1 0 1.000000 
0 -3.208300 7.878500 15.192900 0.519883 -0.676978 0.520983 0.533200 -0.474100 1 0 1.000000 
0 -4.973900 10.953500 13.283100 -0.461431 0.876059 0.140009 0.697800 -0.381500 1 0 1.000000 
light_chandelier01a_bulb
0 -5.383000 6.393700 9.214800 -0.742099 -0.609099 0.279799 0.431700 -0.273500 1 0 1.000000 
0 -2.845500 7.858700 9.214800 0.958699 0.241900 -0.149600 0.470200 -0.555700 1 0 1.000000 
0 -3.208300 7.878500 15.192900 0.519883 -0.676978 0.520983 0.533200 -0.474100 1 0 1.000000 
light_chandelier01a_bulb
0 -5.383000 6.393700 9.214800 -0.742099 -0.609099 0.279799 0.999500 -0.727000 1 0 1.000000 
0 -4.973900 10.953500 13.283100 -0.461431 0.876059 0.140009 0.665100 -0.566200 1 0 1.000000 
0 -5.383000 9.323600 9.192700 -0.528107 0.805711 -0.268204 0.666500 -0.727800 1 0 1.000000 
light_chandelier01a_bulb
0 -2.845500 7.858700 9.214800 0.958699 0.241900 -0.149600 0.332800 -0.727800 1 0 1.000000 
0 -5.383000 9.323600 9.192700 -0.528107 0.805711 -0.268204 0.666500 -0.727800 1 0 1.000000 
0 -4.973900 10.953500 13.283100 -0.461431 0.876059 0.140009 0.665100 -0.566200 1 0 1.000000 
light_chandelier01a_bulb
0 8.228600 1.465100 9.214800 0.088896 0.965060 0.246490 0.666500 -0.727800 1 0 1.000000 
0 11.991800 -1.176499 13.254400 0.999240 -0.031601 0.022801 0.331400 -0.566200 1 0 1.000000 
0 10.766000 0.000000 9.192700 0.960221 0.056301 -0.273506 0.332800 -0.727800 1 0 1.000000 
light_chandelier01a_bulb
0 8.228600 -1.465000 9.214800 -0.399686 -0.902368 0.161194 0.000500 -0.728500 1 0 1.000000 
0 10.766000 0.000000 9.192700 0.960221 0.056301 -0.273506 0.332800 -0.727800 1 0 1.000000 
0 11.991800 -1.176499 13.254400 0.999240 -0.031601 0.022801 0.331400 -0.566200 1 0 1.000000 
end
