version 1
nodes
  0 "Cylinder25" -1
end
skeleton
time 0
0 0.000000 0.000000 0.000000 -1.570797 0.000000 3.141593
end
triangles
test
0 -4.410600 -3.068201 4.932100 -1.000000 -0.000000 0.000000 0.750000 -0.999500 1 0 1.000000 
0 -4.410600 -1.380301 3.244200 -1.000000 -0.000000 0.000000 1.000000 -0.999500 1 0 1.000000 
0 -4.410600 -2.573801 3.738600 -1.000000 -0.000000 0.000000 0.875000 -0.999500 1 0 1.000000 
test
0 -4.410600 -3.068201 4.932100 -1.000000 -0.000000 0.000000 0.750000 -0.999500 1 0 1.000000 
0 -4.410600 -2.573801 6.125600 -1.000000 -0.000000 0.000000 0.625000 -0.999500 1 0 1.000000 
0 -4.410600 -1.380301 6.620000 -1.000000 -0.000000 0.000000 0.500000 -0.999500 1 0 1.000000 
test
0 -4.410600 -3.068201 4.932100 -1.000000 -0.000000 0.000000 0.750000 -0.999500 1 0 1.000000 
0 -4.410600 -1.380301 6.620000 -1.000000 -0.000000 0.000000 0.500000 -0.999500 1 0 1.000000 
0 -4.410600 -0.186801 6.125600 -1.000000 -0.000000 0.000000 0.375000 -0.999500 1 0 1.000000 
test
0 -4.410600 -3.068201 4.932100 -1.000000 -0.000000 0.000000 0.750000 -0.999500 1 0 1.000000 
0 -4.410600 -0.186801 6.125600 -1.000000 -0.000000 0.000000 0.375000 -0.999500 1 0 1.000000 
0 -4.410600 0.307599 4.932100 -1.000000 -0.000000 0.000000 0.250000 -0.999500 1 0 1.000000 
test
0 -4.410600 -3.068201 4.932100 -1.000000 -0.000000 0.000000 -0.250000 -0.999500 1 0 1.000000 
0 -4.410600 -0.186801 3.738600 -1.000000 -0.000000 0.000000 0.125000 -0.999500 1 0 1.000000 
0 -4.410600 -1.380301 3.244200 -1.000000 -0.000000 0.000000 -0.000000 -0.999500 1 0 1.000000 
test
0 -4.410600 -3.068201 4.932100 -1.000000 -0.000000 0.000000 -0.250000 -0.999500 1 0 1.000000 
0 -4.410600 0.307599 4.932100 -1.000000 -0.000000 0.000000 0.250000 -0.999500 1 0 1.000000 
0 -4.410600 -0.186801 3.738600 -1.000000 -0.000000 0.000000 0.125000 -0.999500 1 0 1.000000 
test
0 -1.294799 -3.186000 2.031600 0.000000 0.000000 1.000000 0.472700 -0.098800 1 0 1.000000 
0 -1.294800 0.486900 2.031600 0.000000 0.000000 1.000000 0.472700 -0.645100 1 0 1.000000 
0 -2.277100 0.486900 2.031600 0.000000 0.000000 1.000000 0.581100 -0.645100 1 0 1.000000 
test
0 -2.277100 0.486900 2.031600 0.000000 0.000000 1.000000 0.581100 -0.645100 1 0 1.000000 
0 -2.277100 -3.186000 2.031600 0.000000 0.000000 1.000000 0.581100 -0.098800 1 0 1.000000 
0 -1.294799 -3.186000 2.031600 0.000000 0.000000 1.000000 0.472700 -0.098800 1 0 1.000000 
test
0 -6.068100 0.178499 2.031600 -0.000000 0.382690 0.923877 0.999500 -0.599200 1 0 1.000000 
0 -6.068099 -2.877701 2.031600 0.000000 -0.382690 0.923877 0.999500 -0.144700 1 0 1.000000 
0 -2.941600 -2.877701 2.031600 0.000000 -0.382690 0.923877 0.654400 -0.144700 1 0 1.000000 
test
0 -2.941600 -2.877701 2.031600 0.000000 -0.382690 0.923877 0.654400 -0.144700 1 0 1.000000 
0 -2.941600 0.178499 2.031600 -0.000000 0.382690 0.923877 0.654400 -0.599200 1 0 1.000000 
0 -6.068100 0.178499 2.031600 -0.000000 0.382690 0.923877 0.999500 -0.599200 1 0 1.000000 
test
0 -6.068099 -2.503301 -0.496200 0.000000 -0.382690 -0.923877 0.000500 -0.200400 1 0 1.000000 
0 -6.068100 -0.195901 -0.496200 -0.000000 0.382690 -0.923877 0.000500 -0.543500 1 0 1.000000 
0 -1.294800 -0.195900 -0.496200 -0.000000 0.382690 -0.923877 0.527300 -0.543500 1 0 1.000000 
test
0 -1.294800 -0.195900 -0.496200 -0.000000 0.382690 -0.923877 0.527300 -0.543500 1 0 1.000000 
0 -1.294800 -2.503300 -0.496200 0.000000 -0.382690 -0.923877 0.527300 -0.200400 1 0 1.000000 
0 -6.068099 -2.503301 -0.496200 0.000000 -0.382690 -0.923877 0.000500 -0.200400 1 0 1.000000 
test
0 -2.277100 1.148000 8.216100 0.999998 0.000000 -0.001900 0.918100 -0.743400 1 0 1.000000 
0 -2.277099 -3.847100 8.216100 0.999999 0.001100 0.000000 0.918100 -0.000500 1 0 1.000000 
0 -2.282800 1.148000 5.283900 0.999999 0.001100 0.000000 0.609300 -0.743400 1 0 1.000000 
test
0 -2.277099 -3.847100 8.216100 0.999999 0.001100 0.000000 0.918100 -0.000500 1 0 1.000000 
0 -2.277099 -3.847100 5.328200 0.999999 0.001100 0.000000 0.613900 -0.000500 1 0 1.000000 
0 -2.282800 1.148000 5.283900 0.999999 0.001100 0.000000 0.609300 -0.743400 1 0 1.000000 
test
0 -2.282800 1.148000 5.283900 0.999999 0.001100 0.000000 0.609300 -0.743400 1 0 1.000000 
0 -2.277099 -3.847100 5.328200 0.999999 0.001100 0.000000 0.613900 -0.000500 1 0 1.000000 
0 -2.277099 -3.186001 2.656400 0.999999 0.001100 0.000300 0.332500 -0.098800 1 0 1.000000 
test
0 -2.277099 -3.186001 2.656400 0.999999 0.001100 0.000300 0.332500 -0.098800 1 0 1.000000 
0 -2.277100 0.486900 2.656400 0.999997 0.000000 0.002200 0.332500 -0.645100 1 0 1.000000 
0 -2.282800 1.148000 5.283900 0.999999 0.001100 0.000000 0.609300 -0.743400 1 0 1.000000 
test
0 -2.277100 0.486900 2.656400 0.707124 0.685724 -0.172506 0.332500 -0.645100 1 0 1.000000 
0 -2.277099 -3.186001 2.656400 0.999999 0.001100 0.000300 0.332500 -0.098800 1 0 1.000000 
0 -2.277100 -3.186000 2.031600 1.000000 0.000000 -0.000000 0.266700 -0.098800 1 0 1.000000 
test
0 -2.277100 -3.186000 2.031600 1.000000 0.000000 -0.000000 0.266700 -0.098800 1 0 1.000000 
0 -2.277100 0.486900 2.031600 1.000000 0.000000 -0.000000 0.266700 -0.645100 1 0 1.000000 
0 -2.277100 0.486900 2.656400 0.707124 0.685724 -0.172506 0.332500 -0.645100 1 0 1.000000 
test
0 -1.294800 0.486900 0.186500 -0.000000 0.988897 -0.148600 0.527300 -0.072400 1 0 1.000000 
0 -2.277100 0.486900 2.031600 -0.000000 1.000000 -0.000000 0.418900 -0.266700 1 0 1.000000 
0 -1.294800 0.486900 2.031600 -0.000000 1.000000 -0.000000 0.527300 -0.266700 1 0 1.000000 
test
0 -2.941600 0.178499 2.031600 -0.000000 0.382690 0.923877 0.345600 -0.266700 1 0 1.000000 
0 -2.941200 0.486899 1.723300 -0.000000 0.952318 0.305106 0.345600 -0.234300 1 0 1.000000 
0 -6.068100 0.178499 2.031600 -0.000000 0.382690 0.923877 0.000500 -0.266700 1 0 1.000000 
test
0 -6.068100 0.486899 1.723300 -0.000000 0.923877 0.382690 0.000500 -0.234300 1 0 1.000000 
0 -6.068100 0.178499 2.031600 -0.000000 0.382690 0.923877 0.000500 -0.266700 1 0 1.000000 
0 -2.941200 0.486899 1.723300 -0.000000 0.952318 0.305106 0.345600 -0.234300 1 0 1.000000 
test
0 -6.068100 0.486899 0.186500 -0.000000 0.923877 -0.382690 0.000500 -0.072400 1 0 1.000000 
0 -6.068100 0.486899 1.723300 -0.000000 0.923877 0.382690 0.000500 -0.234300 1 0 1.000000 
0 -2.941200 0.486899 1.723300 -0.000000 0.952318 0.305106 0.345600 -0.234300 1 0 1.000000 
test
0 -2.941200 0.486899 1.723300 -0.000000 0.952318 0.305106 0.345600 -0.234300 1 0 1.000000 
0 -1.294800 0.486900 0.186500 -0.000000 0.988897 -0.148600 0.527300 -0.072400 1 0 1.000000 
0 -6.068100 0.486899 0.186500 -0.000000 0.923877 -0.382690 0.000500 -0.072400 1 0 1.000000 
test
0 -2.941200 0.486899 1.723300 -0.000000 0.952318 0.305106 0.345600 -0.234300 1 0 1.000000 
0 -2.941600 0.486899 2.656400 -0.000000 1.000000 -0.000000 0.345600 -0.332500 1 0 1.000000 
0 -1.294800 0.486900 0.186500 -0.000000 0.988897 -0.148600 0.527300 -0.072400 1 0 1.000000 
test
0 -2.941600 0.486899 2.656400 -0.000000 1.000000 -0.000000 0.345600 -0.332500 1 0 1.000000 
0 -2.277100 0.486900 2.031600 -0.000000 1.000000 -0.000000 0.418900 -0.266700 1 0 1.000000 
0 -1.294800 0.486900 0.186500 -0.000000 0.988897 -0.148600 0.527300 -0.072400 1 0 1.000000 
test
0 -2.941600 0.486899 2.656400 -0.000000 1.000000 -0.000000 0.345600 -0.332500 1 0 1.000000 
0 -2.277100 0.486900 2.656400 -0.000000 1.000000 -0.000000 0.418900 -0.332500 1 0 1.000000 
0 -2.277100 0.486900 2.031600 -0.000000 1.000000 -0.000000 0.418900 -0.266700 1 0 1.000000 
test
0 -1.294800 0.486900 0.186500 -0.000000 0.988897 -0.148600 0.527300 -0.072400 1 0 1.000000 
0 -1.294800 -0.195900 -0.496200 -0.000000 0.382690 -0.923877 0.527300 -0.000500 1 0 1.000000 
0 -6.068100 0.486899 0.186500 -0.000000 0.923877 -0.382690 0.000500 -0.072400 1 0 1.000000 
test
0 -6.068100 -0.195901 -0.496200 -0.000000 0.382690 -0.923877 0.000500 -0.000500 1 0 1.000000 
0 -6.068100 0.486899 0.186500 -0.000000 0.923877 -0.382690 0.000500 -0.072400 1 0 1.000000 
0 -1.294800 -0.195900 -0.496200 -0.000000 0.382690 -0.923877 0.527300 -0.000500 1 0 1.000000 
test
0 -1.294799 -3.186000 0.186500 0.000000 -0.967542 -0.252711 0.472700 -0.072400 1 0 1.000000 
0 -1.294799 -3.186000 2.031600 0.000000 -1.000000 0.000000 0.472700 -0.266700 1 0 1.000000 
0 -2.277100 -3.186000 2.031600 0.000000 -1.000000 0.000000 0.581100 -0.266700 1 0 1.000000 
test
0 2.319301 -3.186000 2.656400 0.000000 -0.970722 -0.240205 0.073800 -0.332500 1 0 1.000000 
0 2.983801 -3.186000 2.656400 0.000000 -0.970722 -0.240205 0.000500 -0.332500 1 0 1.000000 
0 2.983801 -3.847100 5.328200 0.000000 -0.992653 -0.120994 0.000500 -0.613900 1 0 1.000000 
test
0 2.983801 -3.847100 5.328200 0.000000 -0.992653 -0.120994 0.000500 -0.613900 1 0 1.000000 
0 2.319301 -3.847100 5.328200 0.000000 -0.992653 -0.120994 0.073800 -0.613900 1 0 1.000000 
0 2.319301 -3.186000 2.656400 0.000000 -0.970722 -0.240205 0.073800 -0.332500 1 0 1.000000 
test
0 2.319301 -3.847100 8.216100 0.000000 -1.000000 0.000000 0.073800 -0.918100 1 0 1.000000 
0 2.319301 -3.847100 5.328200 0.000000 -0.992653 -0.120994 0.073800 -0.613900 1 0 1.000000 
0 2.983801 -3.847100 5.328200 0.000000 -0.992653 -0.120994 0.000500 -0.613900 1 0 1.000000 
test
0 2.983801 -3.847100 8.989100 0.000000 -1.000000 0.000000 0.000500 -0.999500 1 0 1.000000 
0 2.319301 -3.847100 8.216100 0.000000 -1.000000 0.000000 0.073800 -0.918100 1 0 1.000000 
0 2.983801 -3.847100 5.328200 0.000000 -0.992653 -0.120994 0.000500 -0.613900 1 0 1.000000 
test
0 -2.277099 -3.847100 8.216100 0.000000 -1.000000 0.000000 0.581100 -0.918100 1 0 1.000000 
0 2.319301 -3.847100 8.216100 0.000000 -1.000000 0.000000 0.073800 -0.918100 1 0 1.000000 
0 2.983801 -3.847100 8.989100 0.000000 -1.000000 0.000000 0.000500 -0.999500 1 0 1.000000 
test
0 -2.941599 -3.847100 8.989100 0.000000 -1.000000 0.000000 0.654400 -0.999500 1 0 1.000000 
0 -2.277099 -3.847100 8.216100 0.000000 -1.000000 0.000000 0.581100 -0.918100 1 0 1.000000 
0 2.983801 -3.847100 8.989100 0.000000 -1.000000 0.000000 0.000500 -0.999500 1 0 1.000000 
test
0 -2.277099 -3.847100 5.328200 0.000000 -0.992653 -0.120994 0.581100 -0.613900 1 0 1.000000 
0 -2.277099 -3.847100 8.216100 0.000000 -1.000000 0.000000 0.581100 -0.918100 1 0 1.000000 
0 -2.941599 -3.847100 8.989100 0.000000 -1.000000 0.000000 0.654400 -0.999500 1 0 1.000000 
test
0 -2.941599 -3.847100 5.328200 0.000000 -0.992653 -0.120994 0.654400 -0.613900 1 0 1.000000 
0 -2.277099 -3.847100 5.328200 0.000000 -0.992653 -0.120994 0.581100 -0.613900 1 0 1.000000 
0 -2.941599 -3.847100 8.989100 0.000000 -1.000000 0.000000 0.654400 -0.999500 1 0 1.000000 
test
0 -2.277099 -3.847100 5.328200 0.000000 -0.992653 -0.120994 0.581100 -0.613900 1 0 1.000000 
0 -2.941599 -3.847100 5.328200 0.000000 -0.992653 -0.120994 0.654400 -0.613900 1 0 1.000000 
0 -2.941599 -3.186001 2.656400 0.000000 -0.992653 -0.120994 0.654400 -0.332500 1 0 1.000000 
test
0 -2.941599 -3.186001 2.656400 0.000000 -0.992653 -0.120994 0.654400 -0.332500 1 0 1.000000 
0 -2.277099 -3.186001 2.656400 0.000000 -0.992653 -0.120994 0.581100 -0.332500 1 0 1.000000 
0 -2.277099 -3.847100 5.328200 0.000000 -0.992653 -0.120994 0.581100 -0.613900 1 0 1.000000 
test
0 -2.941599 -3.186001 2.656400 0.000000 -0.992653 -0.120994 0.654400 -0.332500 1 0 1.000000 
0 -2.277100 -3.186000 2.031600 0.000000 -1.000000 0.000000 0.581100 -0.266700 1 0 1.000000 
0 -2.277099 -3.186001 2.656400 0.000000 -0.992653 -0.120994 0.581100 -0.332500 1 0 1.000000 
test
0 -2.277100 -3.186000 2.031600 0.000000 -1.000000 0.000000 0.581100 -0.266700 1 0 1.000000 
0 -2.941599 -3.186001 2.656400 0.000000 -0.992653 -0.120994 0.654400 -0.332500 1 0 1.000000 
0 -2.941199 -3.186001 1.723300 0.000000 -0.982284 0.187397 0.654400 -0.234300 1 0 1.000000 
test
0 -2.277100 -3.186000 2.031600 0.000000 -1.000000 0.000000 0.581100 -0.266700 1 0 1.000000 
0 -2.941199 -3.186001 1.723300 0.000000 -0.982284 0.187397 0.654400 -0.234300 1 0 1.000000 
0 -1.294799 -3.186000 0.186500 0.000000 -0.967542 -0.252711 0.472700 -0.072400 1 0 1.000000 
test
0 -1.294799 -3.186000 0.186500 0.000000 -0.967542 -0.252711 0.472700 -0.072400 1 0 1.000000 
0 -2.941199 -3.186001 1.723300 0.000000 -0.982284 0.187397 0.654400 -0.234300 1 0 1.000000 
0 -6.068099 -3.186001 1.723300 0.000000 -0.923877 0.382690 0.999500 -0.234300 1 0 1.000000 
test
0 -6.068099 -3.186001 1.723300 0.000000 -0.923877 0.382690 0.999500 -0.234300 1 0 1.000000 
0 -6.068099 -3.186001 0.186500 0.000000 -0.923877 -0.382690 0.999500 -0.072400 1 0 1.000000 
0 -1.294799 -3.186000 0.186500 0.000000 -0.967542 -0.252711 0.472700 -0.072400 1 0 1.000000 
test
0 -6.068099 -3.186001 0.186500 0.000000 -0.923877 -0.382690 0.999500 -0.072400 1 0 1.000000 
0 -6.068099 -2.503301 -0.496200 0.000000 -0.382690 -0.923877 0.999500 -0.000500 1 0 1.000000 
0 -1.294799 -3.186000 0.186500 0.000000 -0.967542 -0.252711 0.472700 -0.072400 1 0 1.000000 
test
0 -1.294800 -2.503300 -0.496200 0.000000 -0.382690 -0.923877 0.472700 -0.000500 1 0 1.000000 
0 -1.294799 -3.186000 0.186500 0.000000 -0.967542 -0.252711 0.472700 -0.072400 1 0 1.000000 
0 -6.068099 -2.503301 -0.496200 0.000000 -0.382690 -0.923877 0.999500 -0.000500 1 0 1.000000 
test
0 -6.068099 -2.877701 2.031600 0.000000 -0.382690 0.923877 0.999500 -0.266700 1 0 1.000000 
0 -6.068099 -3.186001 1.723300 0.000000 -0.923877 0.382690 0.999500 -0.234300 1 0 1.000000 
0 -2.941600 -2.877701 2.031600 0.000000 -0.382690 0.923877 0.654400 -0.266700 1 0 1.000000 
test
0 -2.941199 -3.186001 1.723300 0.000000 -0.982284 0.187397 0.654400 -0.234300 1 0 1.000000 
0 -2.941600 -2.877701 2.031600 0.000000 -0.382690 0.923877 0.654400 -0.266700 1 0 1.000000 
0 -6.068099 -3.186001 1.723300 0.000000 -0.923877 0.382690 0.999500 -0.234300 1 0 1.000000 
test
0 -2.941601 2.869800 8.989100 -0.758303 -0.000000 -0.651902 0.000500 -0.999500 1 0 1.000000 
0 -2.277101 2.869800 8.216100 -0.274893 -0.000000 -0.961475 0.081900 -0.999500 1 0 1.000000 
0 -2.277100 1.148000 8.216100 -0.332292 -0.000000 -0.943177 0.081900 -0.743400 1 0 1.000000 
test
0 -2.277100 1.148000 8.216100 -0.332292 -0.000000 -0.943177 0.081900 -0.743400 1 0 1.000000 
0 -2.941600 1.148000 8.989100 -0.758303 -0.000000 -0.651902 0.000500 -0.743400 1 0 1.000000 
0 -2.941601 2.869800 8.989100 -0.758303 -0.000000 -0.651902 0.000500 -0.999500 1 0 1.000000 
test
0 2.319299 2.869801 8.216100 0.549798 0.000000 -0.835297 0.918100 -0.999500 1 0 1.000000 
0 2.983799 2.869801 8.989100 0.758303 0.000000 -0.651902 0.999500 -0.999500 1 0 1.000000 
0 2.983800 1.148000 8.989100 0.758303 0.000000 -0.651902 0.999500 -0.743400 1 0 1.000000 
test
0 2.983800 1.148000 8.989100 0.758303 0.000000 -0.651902 0.999500 -0.743400 1 0 1.000000 
0 2.319300 1.148000 8.216100 0.203303 0.000000 -0.979116 0.918100 -0.743400 1 0 1.000000 
0 2.319299 2.869801 8.216100 0.549798 0.000000 -0.835297 0.918100 -0.999500 1 0 1.000000 
test
0 1.382800 2.387700 8.977500 -0.000000 1.000000 -0.000000 0.166700 -0.000500 1 0 1.000000 
0 -1.324600 2.387700 13.634000 -0.000000 1.000000 -0.000000 -0.166700 -0.999500 1 0 1.000000 
0 1.382800 2.387700 13.634000 -0.000000 1.000000 -0.000000 0.166700 -0.999500 1 0 1.000000 
test
0 1.382800 2.387700 8.977500 -0.000000 1.000000 -0.000000 0.166700 -0.000500 1 0 1.000000 
0 -1.324600 2.387700 8.977500 -0.000000 1.000000 -0.000000 -0.166700 -0.000500 1 0 1.000000 
0 -1.324600 2.387700 13.634000 -0.000000 1.000000 -0.000000 -0.166700 -0.999500 1 0 1.000000 
test
0 -1.324600 2.387700 8.977500 -0.866019 0.500011 -0.000000 1.833300 -0.000500 1 0 1.000000 
0 -2.678300 0.043000 13.634000 -0.981978 0.188996 0.000000 1.500000 -0.999500 1 0 1.000000 
0 -1.324600 2.387700 13.634000 -0.866019 0.500011 -0.000000 1.833300 -0.999500 1 0 1.000000 
test
0 -1.324600 2.387700 8.977500 -0.866019 0.500011 -0.000000 1.833300 -0.000500 1 0 1.000000 
0 -2.678300 0.043000 8.977500 -0.981978 -0.188996 -0.000000 1.500000 -0.000500 1 0 1.000000 
0 -2.678300 0.043000 13.634000 -0.981978 0.188996 0.000000 1.500000 -0.999500 1 0 1.000000 
test
0 -2.678300 0.043000 8.977500 -0.981978 -0.188996 -0.000000 1.500000 -0.000500 1 0 1.000000 
0 -1.324600 -2.301600 13.634000 -0.654694 -0.755894 -0.000000 1.166700 -0.999500 1 0 1.000000 
0 -2.678300 0.043000 13.634000 -0.981978 0.188996 0.000000 1.500000 -0.999500 1 0 1.000000 
test
0 -2.678300 0.043000 8.977500 -0.981978 -0.188996 -0.000000 1.500000 -0.000500 1 0 1.000000 
0 -1.324600 -2.301600 8.977500 -0.327306 -0.944918 0.000000 1.166700 -0.000500 1 0 1.000000 
0 -1.324600 -2.301600 13.634000 -0.654694 -0.755894 -0.000000 1.166700 -0.999500 1 0 1.000000 
test
0 -1.324600 -2.301600 8.977500 -0.327306 -0.944918 0.000000 1.166700 -0.000500 1 0 1.000000 
0 1.382800 -2.301600 13.634000 0.327306 -0.944918 -0.000000 0.833300 -0.999500 1 0 1.000000 
0 -1.324600 -2.301600 13.634000 -0.654694 -0.755894 -0.000000 1.166700 -0.999500 1 0 1.000000 
test
0 -1.324600 -2.301600 8.977500 -0.327306 -0.944918 0.000000 1.166700 -0.000500 1 0 1.000000 
0 1.382800 -2.301600 8.977500 0.654694 -0.755893 -0.000000 0.833300 -0.000500 1 0 1.000000 
0 1.382800 -2.301600 13.634000 0.327306 -0.944918 -0.000000 0.833300 -0.999500 1 0 1.000000 
test
0 1.382800 -2.301600 8.977500 0.654694 -0.755893 -0.000000 0.833300 -0.000500 1 0 1.000000 
0 2.736500 0.043000 13.634000 0.981978 -0.188996 -0.000000 0.500000 -0.999500 1 0 1.000000 
0 1.382800 -2.301600 13.634000 0.327306 -0.944918 -0.000000 0.833300 -0.999500 1 0 1.000000 
test
0 1.382800 -2.301600 8.977500 0.654694 -0.755893 -0.000000 0.833300 -0.000500 1 0 1.000000 
0 2.736500 0.043000 8.977500 0.981978 0.188996 0.000000 0.500000 -0.000500 1 0 1.000000 
0 2.736500 0.043000 13.634000 0.981978 -0.188996 -0.000000 0.500000 -0.999500 1 0 1.000000 
test
0 2.736500 0.043000 8.977500 0.981978 0.188996 0.000000 0.500000 -0.000500 1 0 1.000000 
0 1.382800 2.387700 13.634000 0.866019 0.500011 -0.000000 0.166700 -0.999500 1 0 1.000000 
0 2.736500 0.043000 13.634000 0.981978 -0.188996 -0.000000 0.500000 -0.999500 1 0 1.000000 
test
0 2.736500 0.043000 8.977500 0.981978 0.188996 0.000000 0.500000 -0.000500 1 0 1.000000 
0 1.382800 2.387700 8.977500 0.866019 0.500011 -0.000000 0.166700 -0.000500 1 0 1.000000 
0 1.382800 2.387700 13.634000 0.866019 0.500011 -0.000000 0.166700 -0.999500 1 0 1.000000 
test
0 2.983800 1.148000 8.989100 1.000000 0.000000 -0.000000 0.999500 -0.743400 1 0 1.000000 
0 2.983801 -3.847100 8.989100 1.000000 0.000000 -0.000000 0.999500 -0.000500 1 0 1.000000 
0 2.983800 1.148001 5.328200 1.000000 0.000000 -0.000000 0.613900 -0.743400 1 0 1.000000 
test
0 2.983801 -3.847100 8.989100 1.000000 0.000000 -0.000000 0.999500 -0.000500 1 0 1.000000 
0 2.983801 -3.847100 5.328200 1.000000 0.000000 -0.000000 0.613900 -0.000500 1 0 1.000000 
0 2.983800 1.148001 5.328200 1.000000 0.000000 -0.000000 0.613900 -0.743400 1 0 1.000000 
test
0 2.983800 1.148001 5.328200 1.000000 0.000000 -0.000000 0.613900 -0.743400 1 0 1.000000 
0 2.983801 -3.847100 5.328200 1.000000 0.000000 -0.000000 0.613900 -0.000500 1 0 1.000000 
0 2.983801 -3.186000 2.656400 1.000000 0.000000 -0.000000 0.332500 -0.098800 1 0 1.000000 
test
0 2.983801 -3.186000 2.656400 1.000000 0.000000 -0.000000 0.332500 -0.098800 1 0 1.000000 
0 2.983800 0.486901 2.656400 1.000000 0.000000 -0.000000 0.332500 -0.645100 1 0 1.000000 
0 2.983800 1.148001 5.328200 1.000000 0.000000 -0.000000 0.613900 -0.743400 1 0 1.000000 
test
0 -2.277101 2.869800 8.216100 -0.274893 -0.000000 -0.961475 0.418900 -0.999500 1 0 1.000000 
0 2.319299 2.869801 8.216100 0.549798 0.000000 -0.835297 0.926200 -0.999500 1 0 1.000000 
0 2.319300 1.148000 8.216100 0.203303 0.000000 -0.979116 0.926200 -0.743400 1 0 1.000000 
test
0 2.319300 1.148000 8.216100 0.203303 0.000000 -0.979116 0.926200 -0.743400 1 0 1.000000 
0 -2.277100 1.148000 8.216100 -0.332292 -0.000000 -0.943177 0.418900 -0.743400 1 0 1.000000 
0 -2.277101 2.869800 8.216100 -0.274893 -0.000000 -0.961475 0.418900 -0.999500 1 0 1.000000 
test
0 2.319300 1.148000 8.216100 0.203303 0.000000 -0.979116 0.926200 -0.743400 1 0 1.000000 
0 2.319301 -3.847100 8.216100 -0.000000 -0.000000 -1.000000 0.926200 -0.000500 1 0 1.000000 
0 -2.277100 1.148000 8.216100 -0.332292 -0.000000 -0.943177 0.418900 -0.743400 1 0 1.000000 
test
0 2.319301 -3.847100 8.216100 -0.000000 -0.000000 -1.000000 0.926200 -0.000500 1 0 1.000000 
0 -2.277099 -3.847100 8.216100 -0.000000 -0.000000 -1.000000 0.418900 -0.000500 1 0 1.000000 
0 -2.277100 1.148000 8.216100 -0.332292 -0.000000 -0.943177 0.418900 -0.743400 1 0 1.000000 
test
0 -1.294800 -2.503300 -0.496200 1.000000 0.000000 -0.000000 0.000500 -0.200400 1 0 1.000000 
0 -1.294800 -0.195900 -0.496200 1.000000 0.000000 -0.000000 0.000500 -0.543500 1 0 1.000000 
0 -1.294800 0.486900 0.186500 1.000000 0.000000 -0.000000 0.072400 -0.645100 1 0 1.000000 
test
0 -1.294800 -2.503300 -0.496200 1.000000 0.000000 -0.000000 0.000500 -0.200400 1 0 1.000000 
0 -1.294800 0.486900 0.186500 1.000000 0.000000 -0.000000 0.072400 -0.645100 1 0 1.000000 
0 -1.294800 0.486900 2.031600 1.000000 0.000000 -0.000000 0.266700 -0.645100 1 0 1.000000 
test
0 -1.294800 0.486900 2.031600 1.000000 0.000000 -0.000000 0.266700 -0.645100 1 0 1.000000 
0 -1.294799 -3.186000 0.186500 1.000000 0.000000 -0.000000 0.072400 -0.098800 1 0 1.000000 
0 -1.294800 -2.503300 -0.496200 1.000000 0.000000 -0.000000 0.000500 -0.200400 1 0 1.000000 
test
0 -1.294800 0.486900 2.031600 1.000000 0.000000 -0.000000 0.266700 -0.645100 1 0 1.000000 
0 -1.294799 -3.186000 2.031600 1.000000 0.000000 -0.000000 0.266700 -0.098800 1 0 1.000000 
0 -1.294799 -3.186000 0.186500 1.000000 0.000000 -0.000000 0.072400 -0.098800 1 0 1.000000 
test
0 2.319301 -3.847100 5.328200 -1.000000 -0.000000 0.000000 0.386100 -0.000500 1 0 1.000000 
0 2.319301 -3.847100 8.216100 -1.000000 -0.000000 0.000000 0.081900 -0.000500 1 0 1.000000 
0 2.319300 1.148000 8.216100 -1.000000 -0.000000 0.000000 0.081900 -0.743400 1 0 1.000000 
test
0 2.319300 1.148000 5.328200 -1.000000 -0.000000 0.000000 0.386100 -0.743400 1 0 1.000000 
0 2.319301 -3.847100 5.328200 -1.000000 -0.000000 0.000000 0.386100 -0.000500 1 0 1.000000 
0 2.319300 1.148000 8.216100 -1.000000 -0.000000 0.000000 0.081900 -0.743400 1 0 1.000000 
test
0 2.319301 -3.847100 5.328200 -1.000000 -0.000000 0.000000 0.386100 -0.000500 1 0 1.000000 
0 2.319300 1.148000 5.328200 -1.000000 -0.000000 0.000000 0.386100 -0.743400 1 0 1.000000 
0 2.319300 0.486900 2.656400 -1.000000 -0.000000 0.000000 0.667500 -0.645100 1 0 1.000000 
test
0 2.319300 0.486900 2.656400 -1.000000 -0.000000 0.000000 0.667500 -0.645100 1 0 1.000000 
0 2.319301 -3.186000 2.656400 -1.000000 -0.000000 0.000000 0.667500 -0.098800 1 0 1.000000 
0 2.319301 -3.847100 5.328200 -1.000000 -0.000000 0.000000 0.386100 -0.000500 1 0 1.000000 
test
0 -2.941600 0.486899 2.656400 -0.999997 0.001200 0.001900 0.667500 -0.645100 1 0 1.000000 
0 -2.941200 0.486899 1.723300 -0.999999 0.000800 -0.000400 0.765700 -0.645100 1 0 1.000000 
0 -2.941600 0.178499 2.031600 -0.999999 0.000800 -0.000400 0.733300 -0.599200 1 0 1.000000 
test
0 -2.941599 -3.186001 2.656400 -1.000000 -0.000000 0.000000 0.667500 -0.098800 1 0 1.000000 
0 -2.941600 -2.877701 2.031600 -0.999999 -0.000800 -0.000400 0.733300 -0.144700 1 0 1.000000 
0 -2.941199 -3.186001 1.723300 -0.999999 -0.000800 -0.000400 0.765700 -0.098800 1 0 1.000000 
test
0 -2.941600 0.178499 2.031600 -0.999999 0.000800 -0.000400 0.733300 -0.599200 1 0 1.000000 
0 -2.941600 -2.877701 2.031600 -0.999999 -0.000800 -0.000400 0.733300 -0.144700 1 0 1.000000 
0 -2.941599 -3.186001 2.656400 -1.000000 -0.000000 0.000000 0.667500 -0.098800 1 0 1.000000 
test
0 -2.941599 -3.186001 2.656400 -1.000000 -0.000000 0.000000 0.667500 -0.098800 1 0 1.000000 
0 -2.941600 0.486899 2.656400 -0.999997 0.001200 0.001900 0.667500 -0.645100 1 0 1.000000 
0 -2.941600 0.178499 2.031600 -0.999999 0.000800 -0.000400 0.733300 -0.599200 1 0 1.000000 
test
0 -2.941600 0.486899 2.656400 -0.999997 0.001200 0.001900 0.667500 -0.645100 1 0 1.000000 
0 -2.941599 -3.186001 2.656400 -1.000000 -0.000000 0.000000 0.667500 -0.098800 1 0 1.000000 
0 -2.941599 -3.847100 5.328200 -1.000000 -0.000000 0.000000 0.386100 -0.000500 1 0 1.000000 
test
0 -2.941599 -3.847100 5.328200 -1.000000 -0.000000 0.000000 0.386100 -0.000500 1 0 1.000000 
0 -2.935900 1.147999 5.283900 -0.999998 0.001100 -0.001500 0.390700 -0.743400 1 0 1.000000 
0 -2.941600 0.486899 2.656400 -0.999997 0.001200 0.001900 0.667500 -0.645100 1 0 1.000000 
test
0 -2.935900 1.147999 5.283900 -0.999998 0.001100 -0.001500 0.390700 -0.743400 1 0 1.000000 
0 -2.941599 -3.847100 5.328200 -1.000000 -0.000000 0.000000 0.386100 -0.000500 1 0 1.000000 
0 -2.941600 1.148000 8.989100 -1.000000 -0.000000 0.000000 0.000500 -0.743400 1 0 1.000000 
test
0 -2.941599 -3.847100 5.328200 -1.000000 -0.000000 0.000000 0.386100 -0.000500 1 0 1.000000 
0 -2.941599 -3.847100 8.989100 -1.000000 -0.000000 0.000000 0.000500 -0.000500 1 0 1.000000 
0 -2.941600 1.148000 8.989100 -1.000000 -0.000000 0.000000 0.000500 -0.743400 1 0 1.000000 
test
0 9.292801 -3.331498 4.932100 1.000000 0.000000 -0.000000 0.693000 -0.500000 1 0 1.000000 
0 9.292800 -1.380298 6.883300 1.000000 0.000000 -0.000000 0.500000 -0.697500 1 0 1.000000 
0 9.292800 -2.759998 6.311800 1.000000 0.000000 -0.000000 0.636500 -0.639600 1 0 1.000000 
test
0 9.292801 -3.331498 4.932100 1.000000 0.000000 -0.000000 0.693000 -0.500000 1 0 1.000000 
0 9.292800 -0.000598 6.311800 1.000000 0.000000 -0.000000 0.363500 -0.639600 1 0 1.000000 
0 9.292800 -1.380298 6.883300 1.000000 0.000000 -0.000000 0.500000 -0.697500 1 0 1.000000 
test
0 9.292801 -3.331498 4.932100 1.000000 0.000000 -0.000000 0.693000 -0.500000 1 0 1.000000 
0 9.292800 0.570902 4.932100 1.000000 0.000000 -0.000000 0.307000 -0.500000 1 0 1.000000 
0 9.292800 -0.000598 6.311800 1.000000 0.000000 -0.000000 0.363500 -0.639600 1 0 1.000000 
test
0 9.292801 -3.331498 4.932100 1.000000 0.000000 -0.000000 0.693000 -0.500000 1 0 1.000000 
0 9.292800 -0.000598 3.552400 1.000000 0.000000 -0.000000 0.363500 -0.360400 1 0 1.000000 
0 9.292800 0.570902 4.932100 1.000000 0.000000 -0.000000 0.307000 -0.500000 1 0 1.000000 
test
0 9.292801 -3.331498 4.932100 1.000000 0.000000 -0.000000 0.693000 -0.500000 1 0 1.000000 
0 9.292800 -1.380298 2.980900 1.000000 0.000000 -0.000000 0.500000 -0.302500 1 0 1.000000 
0 9.292800 -0.000598 3.552400 1.000000 0.000000 -0.000000 0.363500 -0.360400 1 0 1.000000 
test
0 9.292801 -3.331498 4.932100 1.000000 0.000000 -0.000000 0.693000 -0.500000 1 0 1.000000 
0 9.292800 -2.759998 3.552400 1.000000 0.000000 -0.000000 0.636500 -0.360400 1 0 1.000000 
0 9.292800 -1.380298 2.980900 1.000000 0.000000 -0.000000 0.500000 -0.302500 1 0 1.000000 
test
0 2.319300 1.148000 8.216100 -0.000000 1.000000 -0.000000 0.926200 -0.918100 1 0 1.000000 
0 2.983800 1.148000 8.989100 -0.000000 1.000000 -0.000000 0.999500 -0.999500 1 0 1.000000 
0 2.319300 1.148000 5.328200 -0.000000 0.992653 -0.120994 0.926200 -0.613900 1 0 1.000000 
test
0 2.983800 1.148000 8.989100 -0.000000 1.000000 -0.000000 0.999500 -0.999500 1 0 1.000000 
0 2.983800 1.148001 5.328200 -0.000000 0.992653 -0.120994 0.999500 -0.613900 1 0 1.000000 
0 2.319300 1.148000 5.328200 -0.000000 0.992653 -0.120994 0.926200 -0.613900 1 0 1.000000 
test
0 2.319300 1.148000 5.328200 -0.000000 0.992653 -0.120994 0.926200 -0.613900 1 0 1.000000 
0 2.983800 1.148001 5.328200 -0.000000 0.992653 -0.120994 0.999500 -0.613900 1 0 1.000000 
0 2.983800 0.486901 2.656400 -0.000000 0.970722 -0.240205 0.999500 -0.332500 1 0 1.000000 
test
0 2.983800 0.486901 2.656400 -0.000000 0.970722 -0.240205 0.999500 -0.332500 1 0 1.000000 
0 2.319300 0.486900 2.656400 -0.000000 0.970722 -0.240205 0.926200 -0.332500 1 0 1.000000 
0 2.319300 1.148000 5.328200 -0.000000 0.992653 -0.120994 0.926200 -0.613900 1 0 1.000000 
test
0 0.029100 0.043000 8.977500 -0.000000 -0.000000 -1.000000 1.000000 -0.000500 1 0 1.000000 
0 -2.678300 0.043000 8.977500 -0.000000 -0.000000 -1.000000 1.500000 -0.000500 1 0 1.000000 
0 -1.324600 2.387700 8.977500 -0.000000 -0.000000 -1.000000 1.833300 -0.000500 1 0 1.000000 
test
0 0.029100 0.043000 8.977500 -0.000000 -0.000000 -1.000000 1.000000 -0.000500 1 0 1.000000 
0 -1.324600 -2.301600 8.977500 -0.000000 -0.000000 -1.000000 1.166700 -0.000500 1 0 1.000000 
0 -2.678300 0.043000 8.977500 -0.000000 -0.000000 -1.000000 1.500000 -0.000500 1 0 1.000000 
test
0 0.029100 0.043000 8.977500 -0.000000 -0.000000 -1.000000 1.000000 -0.000500 1 0 1.000000 
0 1.382800 -2.301600 8.977500 -0.000000 -0.000000 -1.000000 0.833300 -0.000500 1 0 1.000000 
0 -1.324600 -2.301600 8.977500 -0.000000 -0.000000 -1.000000 1.166700 -0.000500 1 0 1.000000 
test
0 0.029100 0.043000 8.977500 -0.000000 -0.000000 -1.000000 1.000000 -0.000500 1 0 1.000000 
0 2.736500 0.043000 8.977500 -0.000000 -0.000000 -1.000000 0.500000 -0.000500 1 0 1.000000 
0 1.382800 -2.301600 8.977500 -0.000000 -0.000000 -1.000000 0.833300 -0.000500 1 0 1.000000 
test
0 0.029100 0.043000 8.977500 -0.000000 -0.000000 -1.000000 1.000000 -0.000500 1 0 1.000000 
0 1.382800 2.387700 8.977500 -0.000000 -0.000000 -1.000000 0.166700 -0.000500 1 0 1.000000 
0 2.736500 0.043000 8.977500 -0.000000 -0.000000 -1.000000 0.500000 -0.000500 1 0 1.000000 
test
0 0.029100 0.043000 8.977500 -0.000000 -0.000000 -1.000000 1.000000 -0.000500 1 0 1.000000 
0 -1.324600 2.387700 8.977500 -0.000000 -0.000000 -1.000000 -0.166700 -0.000500 1 0 1.000000 
0 1.382800 2.387700 8.977500 -0.000000 -0.000000 -1.000000 0.166700 -0.000500 1 0 1.000000 
test
0 -6.068099 -2.877701 2.031600 -1.000000 -0.000000 0.000000 0.733300 -0.144700 1 0 1.000000 
0 -6.068100 0.178499 2.031600 -1.000000 -0.000000 0.000000 0.733300 -0.599200 1 0 1.000000 
0 -6.068100 0.486899 1.723300 -1.000000 -0.000000 0.000000 0.765700 -0.645100 1 0 1.000000 
test
0 -6.068099 -2.877701 2.031600 -1.000000 -0.000000 0.000000 0.733300 -0.144700 1 0 1.000000 
0 -6.068100 0.486899 1.723300 -1.000000 -0.000000 0.000000 0.765700 -0.645100 1 0 1.000000 
0 -6.068100 0.486899 0.186500 -1.000000 -0.000000 0.000000 0.927600 -0.645100 1 0 1.000000 
test
0 -6.068099 -2.877701 2.031600 -1.000000 -0.000000 0.000000 0.733300 -0.144700 1 0 1.000000 
0 -6.068100 0.486899 0.186500 -1.000000 -0.000000 0.000000 0.927600 -0.645100 1 0 1.000000 
0 -6.068100 -0.195901 -0.496200 -1.000000 -0.000000 0.000000 0.999500 -0.543500 1 0 1.000000 
test
0 -6.068100 -0.195901 -0.496200 -1.000000 -0.000000 0.000000 0.999500 -0.543500 1 0 1.000000 
0 -6.068099 -3.186001 1.723300 -1.000000 -0.000000 0.000000 0.765700 -0.098800 1 0 1.000000 
0 -6.068099 -2.877701 2.031600 -1.000000 -0.000000 0.000000 0.733300 -0.144700 1 0 1.000000 
test
0 -6.068100 -0.195901 -0.496200 -1.000000 -0.000000 0.000000 0.999500 -0.543500 1 0 1.000000 
0 -6.068099 -3.186001 0.186500 -1.000000 -0.000000 0.000000 0.927600 -0.098800 1 0 1.000000 
0 -6.068099 -3.186001 1.723300 -1.000000 -0.000000 0.000000 0.765700 -0.098800 1 0 1.000000 
test
0 -6.068100 -0.195901 -0.496200 -1.000000 -0.000000 0.000000 0.999500 -0.543500 1 0 1.000000 
0 -6.068099 -2.503301 -0.496200 -1.000000 -0.000000 0.000000 0.999500 -0.200400 1 0 1.000000 
0 -6.068099 -3.186001 0.186500 -1.000000 -0.000000 0.000000 0.927600 -0.098800 1 0 1.000000 
test
0 2.983800 0.486901 2.656400 -0.000000 -0.000000 -1.000000 0.999500 -0.645100 1 0 1.000000 
0 2.983801 -3.186000 2.656400 -0.000000 -0.000000 -1.000000 0.999500 -0.098800 1 0 1.000000 
0 2.319300 0.486900 2.656400 -0.000000 -0.000000 -1.000000 0.926200 -0.645100 1 0 1.000000 
test
0 2.983801 -3.186000 2.656400 -0.000000 -0.000000 -1.000000 0.999500 -0.098800 1 0 1.000000 
0 2.319301 -3.186000 2.656400 -0.000000 -0.000000 -1.000000 0.926200 -0.098800 1 0 1.000000 
0 2.319300 0.486900 2.656400 -0.000000 -0.000000 -1.000000 0.926200 -0.645100 1 0 1.000000 
test
0 -2.941600 1.148000 8.989100 -0.000000 1.000000 -0.000000 0.345600 -0.999500 1 0 1.000000 
0 -2.277100 1.148000 8.216100 -0.000200 1.000000 0.000000 0.418900 -0.918100 1 0 1.000000 
0 -2.282400 1.148000 7.979400 -0.000000 1.000000 -0.000000 0.418300 -0.893200 1 0 1.000000 
test
0 -2.282800 1.148000 5.283900 -0.000300 1.000000 -0.000000 0.418300 -0.609300 1 0 1.000000 
0 -2.282400 1.148000 7.979400 -0.000000 1.000000 -0.000000 0.418300 -0.893200 1 0 1.000000 
0 -2.277100 1.148000 8.216100 -0.000200 1.000000 0.000000 0.418900 -0.918100 1 0 1.000000 
test
0 -2.277100 0.486900 2.656400 0.707124 0.685724 -0.172506 0.418900 -0.332500 1 0 1.000000 
0 -2.941600 0.486899 2.656400 -0.000000 0.969777 -0.243994 0.345600 -0.332500 1 0 1.000000 
0 -2.935900 1.147999 5.283900 -0.000000 0.992419 -0.122902 0.346200 -0.609300 1 0 1.000000 
test
0 -2.935900 1.147999 5.283900 -0.000000 0.992419 -0.122902 0.346200 -0.609300 1 0 1.000000 
0 -2.282800 1.148000 5.283900 -0.000000 0.992419 -0.122902 0.418300 -0.609300 1 0 1.000000 
0 -2.277100 0.486900 2.656400 0.707124 0.685724 -0.172506 0.418900 -0.332500 1 0 1.000000 
test
0 -2.282800 1.148000 5.283900 -0.000000 0.992419 -0.122902 0.418300 -0.609300 1 0 1.000000 
0 -2.935900 1.147999 5.283900 -0.000000 0.992419 -0.122902 0.346200 -0.609300 1 0 1.000000 
0 -2.282400 1.148000 7.979400 -0.000000 1.000000 -0.000000 0.418300 -0.893200 1 0 1.000000 
test
0 -2.935900 1.147999 5.283900 -0.000000 0.992419 -0.122902 0.346200 -0.609300 1 0 1.000000 
0 -2.936300 1.148000 7.977500 -0.000000 1.000000 -0.000000 0.346100 -0.893000 1 0 1.000000 
0 -2.282400 1.148000 7.979400 -0.000000 1.000000 -0.000000 0.418300 -0.893200 1 0 1.000000 
test
0 -2.282400 1.148000 7.979400 -0.000000 1.000000 -0.000000 0.418300 -0.893200 1 0 1.000000 
0 -2.936300 1.148000 7.977500 -0.000000 1.000000 -0.000000 0.346100 -0.893000 1 0 1.000000 
0 -2.941600 1.148000 8.989100 -0.000000 1.000000 -0.000000 0.345600 -0.999500 1 0 1.000000 
test
0 -2.935900 1.147999 5.283900 0.000100 1.000000 0.000000 0.346200 -0.609300 1 0 1.000000 
0 -2.941600 1.148000 8.989100 -0.000000 1.000000 -0.000000 0.345600 -0.999500 1 0 1.000000 
0 -2.936300 1.148000 7.977500 -0.000000 1.000000 -0.000000 0.346100 -0.893000 1 0 1.000000 
test
0 9.292800 -0.000598 3.552400 -0.000000 0.603705 -0.797207 0.125000 -0.000500 1 0 1.000000 
0 9.292800 -1.380298 2.980900 0.000000 -0.136800 -0.990599 -0.000000 -0.000500 1 0 1.000000 
0 8.867200 -1.380298 2.980900 -0.000000 0.136800 -0.990599 -0.000000 -0.031500 1 0 1.000000 
test
0 8.867200 -1.380298 2.980900 -0.000000 0.136800 -0.990599 -0.000000 -0.031500 1 0 1.000000 
0 8.867200 -0.000598 3.552400 -0.000000 0.797207 -0.603705 0.125000 -0.031500 1 0 1.000000 
0 9.292800 -0.000598 3.552400 -0.000000 0.603705 -0.797207 0.125000 -0.000500 1 0 1.000000 
test
0 9.292800 0.570902 4.932100 -0.000000 0.990599 -0.136800 0.250000 -0.000500 1 0 1.000000 
0 9.292800 -0.000598 3.552400 -0.000000 0.603705 -0.797207 0.125000 -0.000500 1 0 1.000000 
0 8.867200 -0.000598 3.552400 -0.000000 0.797207 -0.603705 0.125000 -0.031500 1 0 1.000000 
test
0 8.867200 -0.000598 3.552400 -0.000000 0.797207 -0.603705 0.125000 -0.031500 1 0 1.000000 
0 8.867200 0.570902 4.932100 -0.000000 0.990599 0.136800 0.250000 -0.031500 1 0 1.000000 
0 9.292800 0.570902 4.932100 -0.000000 0.990599 -0.136800 0.250000 -0.000500 1 0 1.000000 
test
0 9.292800 -0.000598 6.311800 -0.000000 0.797207 0.603705 0.375000 -0.000500 1 0 1.000000 
0 9.292800 0.570902 4.932100 -0.000000 0.990599 -0.136800 0.250000 -0.000500 1 0 1.000000 
0 8.867200 0.570902 4.932100 -0.000000 0.990599 0.136800 0.250000 -0.031500 1 0 1.000000 
test
0 8.867200 0.570902 4.932100 -0.000000 0.990599 0.136800 0.250000 -0.031500 1 0 1.000000 
0 8.867200 -0.000598 6.311800 -0.000000 0.603705 0.797207 0.375000 -0.031500 1 0 1.000000 
0 9.292800 -0.000598 6.311800 -0.000000 0.797207 0.603705 0.375000 -0.000500 1 0 1.000000 
test
0 9.292800 -1.380298 6.883300 -0.000000 0.136800 0.990599 0.500000 -0.000500 1 0 1.000000 
0 9.292800 -0.000598 6.311800 -0.000000 0.797207 0.603705 0.375000 -0.000500 1 0 1.000000 
0 8.867200 -0.000598 6.311800 -0.000000 0.603705 0.797207 0.375000 -0.031500 1 0 1.000000 
test
0 8.867200 -0.000598 6.311800 -0.000000 0.603705 0.797207 0.375000 -0.031500 1 0 1.000000 
0 8.867200 -1.380298 6.883300 0.000000 -0.136800 0.990599 0.500000 -0.031500 1 0 1.000000 
0 9.292800 -1.380298 6.883300 -0.000000 0.136800 0.990599 0.500000 -0.000500 1 0 1.000000 
test
0 9.292800 -2.759998 6.311800 0.000000 -0.603705 0.797207 0.625000 -0.000500 1 0 1.000000 
0 9.292800 -1.380298 6.883300 -0.000000 0.136800 0.990599 0.500000 -0.000500 1 0 1.000000 
0 8.867200 -1.380298 6.883300 0.000000 -0.136800 0.990599 0.500000 -0.031500 1 0 1.000000 
test
0 8.867200 -1.380298 6.883300 0.000000 -0.136800 0.990599 0.500000 -0.031500 1 0 1.000000 
0 8.867200 -2.759998 6.311800 0.000000 -0.797207 0.603705 0.625000 -0.031500 1 0 1.000000 
0 9.292800 -2.759998 6.311800 0.000000 -0.603705 0.797207 0.625000 -0.000500 1 0 1.000000 
test
0 9.292801 -3.331498 4.932100 0.000000 -0.990599 0.136800 0.750000 -0.000500 1 0 1.000000 
0 9.292800 -2.759998 6.311800 0.000000 -0.603705 0.797207 0.625000 -0.000500 1 0 1.000000 
0 8.867200 -2.759998 6.311800 0.000000 -0.797207 0.603705 0.625000 -0.031500 1 0 1.000000 
test
0 8.867200 -2.759998 6.311800 0.000000 -0.797207 0.603705 0.625000 -0.031500 1 0 1.000000 
0 8.867201 -3.331499 4.932100 0.000000 -0.990599 -0.136800 0.750000 -0.031500 1 0 1.000000 
0 9.292801 -3.331498 4.932100 0.000000 -0.990599 0.136800 0.750000 -0.000500 1 0 1.000000 
test
0 9.292800 -2.759998 3.552400 0.000000 -0.797207 -0.603705 0.875000 -0.000500 1 0 1.000000 
0 9.292801 -3.331498 4.932100 0.000000 -0.990599 0.136800 0.750000 -0.000500 1 0 1.000000 
0 8.867201 -3.331499 4.932100 0.000000 -0.990599 -0.136800 0.750000 -0.031500 1 0 1.000000 
test
0 8.867201 -3.331499 4.932100 0.000000 -0.990599 -0.136800 0.750000 -0.031500 1 0 1.000000 
0 8.867200 -2.759999 3.552400 0.000000 -0.603705 -0.797207 0.875000 -0.031500 1 0 1.000000 
0 9.292800 -2.759998 3.552400 0.000000 -0.797207 -0.603705 0.875000 -0.000500 1 0 1.000000 
test
0 9.292800 -1.380298 2.980900 0.000000 -0.136800 -0.990599 1.000000 -0.000500 1 0 1.000000 
0 9.292800 -2.759998 3.552400 0.000000 -0.797207 -0.603705 0.875000 -0.000500 1 0 1.000000 
0 8.867200 -2.759999 3.552400 0.000000 -0.603705 -0.797207 0.875000 -0.031500 1 0 1.000000 
test
0 8.867200 -2.759999 3.552400 0.000000 -0.603705 -0.797207 0.875000 -0.031500 1 0 1.000000 
0 8.867200 -1.380298 2.980900 -0.000000 0.136800 -0.990599 1.000000 -0.031500 1 0 1.000000 
0 9.292800 -1.380298 2.980900 0.000000 -0.136800 -0.990599 1.000000 -0.000500 1 0 1.000000 
test
0 8.867201 -3.409299 6.961100 0.000000 -0.603705 0.797207 0.230600 -0.263300 1 0 1.000000 
0 8.867200 -1.380298 7.801500 -0.000000 0.136800 0.990599 -0.019400 -0.263300 1 0 1.000000 
0 3.713800 -1.380299 7.801500 0.000000 -0.136800 0.990599 -0.019400 -0.736700 1 0 1.000000 
test
0 3.713800 -1.380299 7.801500 0.000000 -0.136800 0.990599 -0.019400 -0.736700 1 0 1.000000 
0 3.713801 -3.409299 6.961100 0.000000 -0.797207 0.603705 0.230600 -0.736700 1 0 1.000000 
0 8.867201 -3.409299 6.961100 0.000000 -0.603705 0.797207 0.230600 -0.263300 1 0 1.000000 
test
0 8.867201 -4.249698 4.932100 0.000000 -0.990599 0.136800 0.480600 -0.263300 1 0 1.000000 
0 8.867201 -3.409299 6.961100 0.000000 -0.603705 0.797207 0.230600 -0.263300 1 0 1.000000 
0 3.713801 -3.409299 6.961100 0.000000 -0.797207 0.603705 0.230600 -0.736700 1 0 1.000000 
test
0 3.713801 -3.409299 6.961100 0.000000 -0.797207 0.603705 0.230600 -0.736700 1 0 1.000000 
0 3.713801 -4.249699 4.932100 0.000000 -0.990599 -0.136800 0.480600 -0.736700 1 0 1.000000 
0 8.867201 -4.249698 4.932100 0.000000 -0.990599 0.136800 0.480600 -0.263300 1 0 1.000000 
test
0 8.867200 -3.409298 2.903100 0.000000 -0.797207 -0.603705 0.730600 -0.263300 1 0 1.000000 
0 8.867201 -4.249698 4.932100 0.000000 -0.990599 0.136800 0.480600 -0.263300 1 0 1.000000 
0 3.713801 -4.249699 4.932100 0.000000 -0.990599 -0.136800 0.480600 -0.736700 1 0 1.000000 
test
0 3.713801 -4.249699 4.932100 0.000000 -0.990599 -0.136800 0.480600 -0.736700 1 0 1.000000 
0 3.713800 -3.409299 2.903100 0.000000 -0.603705 -0.797207 0.730600 -0.736700 1 0 1.000000 
0 8.867200 -3.409298 2.903100 0.000000 -0.797207 -0.603705 0.730600 -0.263300 1 0 1.000000 
test
0 8.867200 -1.380298 2.062700 0.000000 -0.136800 -0.990599 0.980600 -0.263300 1 0 1.000000 
0 8.867200 -3.409298 2.903100 0.000000 -0.797207 -0.603705 0.730600 -0.263300 1 0 1.000000 
0 3.713800 -3.409299 2.903100 0.000000 -0.603705 -0.797207 0.730600 -0.736700 1 0 1.000000 
test
0 3.713800 -3.409299 2.903100 0.000000 -0.603705 -0.797207 0.730600 -0.736700 1 0 1.000000 
0 3.713800 -1.380299 2.062700 -0.000000 0.136800 -0.990599 0.980600 -0.736700 1 0 1.000000 
0 8.867200 -1.380298 2.062700 0.000000 -0.136800 -0.990599 0.980600 -0.263300 1 0 1.000000 
test
0 8.867200 0.648702 2.903100 -0.000000 0.603705 -0.797207 1.230600 -0.263300 1 0 1.000000 
0 8.867200 -1.380298 2.062700 0.000000 -0.136800 -0.990599 0.980600 -0.263300 1 0 1.000000 
0 3.713800 -1.380299 2.062700 -0.000000 0.136800 -0.990599 0.980600 -0.736700 1 0 1.000000 
test
0 3.713800 -1.380299 2.062700 -0.000000 0.136800 -0.990599 0.980600 -0.736700 1 0 1.000000 
0 3.713800 0.648701 2.903100 -0.000000 0.797207 -0.603705 1.230600 -0.736700 1 0 1.000000 
0 8.867200 0.648702 2.903100 -0.000000 0.603705 -0.797207 1.230600 -0.263300 1 0 1.000000 
test
0 8.867200 1.489102 4.932100 -0.000000 0.990599 -0.136800 1.480600 -0.263300 1 0 1.000000 
0 8.867200 0.648702 2.903100 -0.000000 0.603705 -0.797207 1.230600 -0.263300 1 0 1.000000 
0 3.713800 0.648701 2.903100 -0.000000 0.797207 -0.603705 1.230600 -0.736700 1 0 1.000000 
test
0 3.713800 0.648701 2.903100 -0.000000 0.797207 -0.603705 1.230600 -0.736700 1 0 1.000000 
0 3.713800 1.489101 4.932100 -0.000000 0.990599 0.136800 1.480600 -0.736700 1 0 1.000000 
0 8.867200 1.489102 4.932100 -0.000000 0.990599 -0.136800 1.480600 -0.263300 1 0 1.000000 
test
0 8.867200 0.648702 6.961100 -0.000000 0.797207 0.603705 1.730600 -0.263300 1 0 1.000000 
0 8.867200 1.489102 4.932100 -0.000000 0.990599 -0.136800 1.480600 -0.263300 1 0 1.000000 
0 3.713800 1.489101 4.932100 -0.000000 0.990599 0.136800 1.480600 -0.736700 1 0 1.000000 
test
0 3.713800 1.489101 4.932100 -0.000000 0.990599 0.136800 1.480600 -0.736700 1 0 1.000000 
0 3.713800 0.648701 6.961100 -0.000000 0.603705 0.797207 1.730600 -0.736700 1 0 1.000000 
0 8.867200 0.648702 6.961100 -0.000000 0.797207 0.603705 1.730600 -0.263300 1 0 1.000000 
test
0 8.867200 -1.380298 7.801500 -0.000000 0.136800 0.990599 1.980600 -0.263300 1 0 1.000000 
0 8.867200 0.648702 6.961100 -0.000000 0.797207 0.603705 1.730600 -0.263300 1 0 1.000000 
0 3.713800 0.648701 6.961100 -0.000000 0.603705 0.797207 1.730600 -0.736700 1 0 1.000000 
test
0 3.713800 0.648701 6.961100 -0.000000 0.603705 0.797207 1.730600 -0.736700 1 0 1.000000 
0 3.713800 -1.380299 7.801500 0.000000 -0.136800 0.990599 1.980600 -0.736700 1 0 1.000000 
0 8.867200 -1.380298 7.801500 -0.000000 0.136800 0.990599 1.980600 -0.263300 1 0 1.000000 
test
0 3.713800 0.648701 2.903100 -0.999042 0.026401 -0.034901 0.125000 -0.407200 1 0 1.000000 
0 3.713800 -1.380299 2.062700 -0.999040 -0.006000 -0.043402 -0.000000 -0.407200 1 0 1.000000 
0 3.662500 -1.380299 3.244200 -0.999040 0.006000 -0.043402 -0.000000 -0.411000 1 0 1.000000 
test
0 3.662500 -1.380299 3.244200 -0.999040 0.006000 -0.043402 -0.000000 -0.411000 1 0 1.000000 
0 3.662500 -0.186799 3.738600 -0.999042 0.034901 -0.026401 0.125000 -0.411000 1 0 1.000000 
0 3.713800 0.648701 2.903100 -0.999042 0.026401 -0.034901 0.125000 -0.407200 1 0 1.000000 
test
0 3.713800 1.489101 4.932100 -0.999040 0.043402 -0.006000 0.250000 -0.407200 1 0 1.000000 
0 3.713800 0.648701 2.903100 -0.999042 0.026401 -0.034901 0.125000 -0.407200 1 0 1.000000 
0 3.662500 -0.186799 3.738600 -0.999042 0.034901 -0.026401 0.125000 -0.411000 1 0 1.000000 
test
0 3.662500 -0.186799 3.738600 -0.999042 0.034901 -0.026401 0.125000 -0.411000 1 0 1.000000 
0 3.662500 0.307601 4.932100 -0.999040 0.043402 0.006000 0.250000 -0.411000 1 0 1.000000 
0 3.713800 1.489101 4.932100 -0.999040 0.043402 -0.006000 0.250000 -0.407200 1 0 1.000000 
test
0 3.713800 0.648701 6.961100 -0.999042 0.034901 0.026401 0.375000 -0.407200 1 0 1.000000 
0 3.713800 1.489101 4.932100 -0.999040 0.043402 -0.006000 0.250000 -0.407200 1 0 1.000000 
0 3.662500 0.307601 4.932100 -0.999040 0.043402 0.006000 0.250000 -0.411000 1 0 1.000000 
test
0 3.662500 0.307601 4.932100 -0.999040 0.043402 0.006000 0.250000 -0.411000 1 0 1.000000 
0 3.662500 -0.186799 6.125600 -0.999042 0.026401 0.034901 0.375000 -0.411000 1 0 1.000000 
0 3.713800 0.648701 6.961100 -0.999042 0.034901 0.026401 0.375000 -0.407200 1 0 1.000000 
test
0 3.713800 -1.380299 7.801500 -0.999040 0.006000 0.043402 0.500000 -0.407200 1 0 1.000000 
0 3.713800 0.648701 6.961100 -0.999042 0.034901 0.026401 0.375000 -0.407200 1 0 1.000000 
0 3.662500 -0.186799 6.125600 -0.999042 0.026401 0.034901 0.375000 -0.411000 1 0 1.000000 
test
0 3.662500 -0.186799 6.125600 -0.999042 0.026401 0.034901 0.375000 -0.411000 1 0 1.000000 
0 3.662500 -1.380299 6.620000 -0.999040 -0.006000 0.043402 0.500000 -0.411000 1 0 1.000000 
0 3.713800 -1.380299 7.801500 -0.999040 0.006000 0.043402 0.500000 -0.407200 1 0 1.000000 
test
0 3.713801 -3.409299 6.961100 -0.999042 -0.026401 0.034901 0.625000 -0.407200 1 0 1.000000 
0 3.713800 -1.380299 7.801500 -0.999040 0.006000 0.043402 0.500000 -0.407200 1 0 1.000000 
0 3.662500 -1.380299 6.620000 -0.999040 -0.006000 0.043402 0.500000 -0.411000 1 0 1.000000 
test
0 3.662500 -1.380299 6.620000 -0.999040 -0.006000 0.043402 0.500000 -0.411000 1 0 1.000000 
0 3.662500 -2.573799 6.125600 -0.999042 -0.034902 0.026401 0.625000 -0.411000 1 0 1.000000 
0 3.713801 -3.409299 6.961100 -0.999042 -0.026401 0.034901 0.625000 -0.407200 1 0 1.000000 
test
0 3.713801 -4.249699 4.932100 -0.999040 -0.043402 0.006000 0.750000 -0.407200 1 0 1.000000 
0 3.713801 -3.409299 6.961100 -0.999042 -0.026401 0.034901 0.625000 -0.407200 1 0 1.000000 
0 3.662500 -2.573799 6.125600 -0.999042 -0.034902 0.026401 0.625000 -0.411000 1 0 1.000000 
test
0 3.662500 -2.573799 6.125600 -0.999042 -0.034902 0.026401 0.625000 -0.411000 1 0 1.000000 
0 3.662500 -3.068199 4.932100 -0.999040 -0.043402 -0.006000 0.750000 -0.411000 1 0 1.000000 
0 3.713801 -4.249699 4.932100 -0.999040 -0.043402 0.006000 0.750000 -0.407200 1 0 1.000000 
test
0 3.713800 -3.409299 2.903100 -0.999042 -0.034902 -0.026401 0.875000 -0.407200 1 0 1.000000 
0 3.713801 -4.249699 4.932100 -0.999040 -0.043402 0.006000 0.750000 -0.407200 1 0 1.000000 
0 3.662500 -3.068199 4.932100 -0.999040 -0.043402 -0.006000 0.750000 -0.411000 1 0 1.000000 
test
0 3.662500 -3.068199 4.932100 -0.999040 -0.043402 -0.006000 0.750000 -0.411000 1 0 1.000000 
0 3.662500 -2.573799 3.738600 -0.999042 -0.026401 -0.034901 0.875000 -0.411000 1 0 1.000000 
0 3.713800 -3.409299 2.903100 -0.999042 -0.034902 -0.026401 0.875000 -0.407200 1 0 1.000000 
test
0 3.713800 -1.380299 2.062700 -0.999040 -0.006000 -0.043402 1.000000 -0.407200 1 0 1.000000 
0 3.713800 -3.409299 2.903100 -0.999042 -0.034902 -0.026401 0.875000 -0.407200 1 0 1.000000 
0 3.662500 -2.573799 3.738600 -0.999042 -0.026401 -0.034901 0.875000 -0.411000 1 0 1.000000 
test
0 3.662500 -2.573799 3.738600 -0.999042 -0.026401 -0.034901 0.875000 -0.411000 1 0 1.000000 
0 3.662500 -1.380299 3.244200 -0.999040 0.006000 -0.043402 1.000000 -0.411000 1 0 1.000000 
0 3.713800 -1.380299 2.062700 -0.999040 -0.006000 -0.043402 1.000000 -0.407200 1 0 1.000000 
test
0 3.662500 -1.380299 3.244200 0.000000 -0.136800 -0.990599 1.000000 -0.411000 1 0 1.000000 
0 -4.410600 -2.573801 3.738600 0.000000 -0.603705 -0.797207 0.875000 -0.999500 1 0 1.000000 
0 -4.410600 -1.380301 3.244200 -0.000000 0.136800 -0.990599 1.000000 -0.999500 1 0 1.000000 
test
0 3.662500 -1.380299 3.244200 0.000000 -0.136800 -0.990599 1.000000 -0.411000 1 0 1.000000 
0 3.662500 -2.573799 3.738600 0.000000 -0.797207 -0.603705 0.875000 -0.411000 1 0 1.000000 
0 -4.410600 -2.573801 3.738600 0.000000 -0.603705 -0.797207 0.875000 -0.999500 1 0 1.000000 
test
0 3.662500 -2.573799 3.738600 0.000000 -0.797207 -0.603705 0.875000 -0.411000 1 0 1.000000 
0 -4.410600 -3.068201 4.932100 0.000000 -0.990599 -0.136800 0.750000 -0.999500 1 0 1.000000 
0 -4.410600 -2.573801 3.738600 0.000000 -0.603705 -0.797207 0.875000 -0.999500 1 0 1.000000 
test
0 3.662500 -2.573799 3.738600 0.000000 -0.797207 -0.603705 0.875000 -0.411000 1 0 1.000000 
0 3.662500 -3.068199 4.932100 0.000000 -0.990599 0.136800 0.750000 -0.411000 1 0 1.000000 
0 -4.410600 -3.068201 4.932100 0.000000 -0.990599 -0.136800 0.750000 -0.999500 1 0 1.000000 
test
0 3.662500 -3.068199 4.932100 0.000000 -0.990599 0.136800 0.750000 -0.411000 1 0 1.000000 
0 -4.410600 -2.573801 6.125600 0.000000 -0.797207 0.603705 0.625000 -0.999500 1 0 1.000000 
0 -4.410600 -3.068201 4.932100 0.000000 -0.990599 -0.136800 0.750000 -0.999500 1 0 1.000000 
test
0 3.662500 -3.068199 4.932100 0.000000 -0.990599 0.136800 0.750000 -0.411000 1 0 1.000000 
0 3.662500 -2.573799 6.125600 0.000000 -0.603705 0.797207 0.625000 -0.411000 1 0 1.000000 
0 -4.410600 -2.573801 6.125600 0.000000 -0.797207 0.603705 0.625000 -0.999500 1 0 1.000000 
test
0 3.662500 -2.573799 6.125600 0.000000 -0.603705 0.797207 0.625000 -0.411000 1 0 1.000000 
0 -4.410600 -1.380301 6.620000 0.000000 -0.136800 0.990599 0.500000 -0.999500 1 0 1.000000 
0 -4.410600 -2.573801 6.125600 0.000000 -0.797207 0.603705 0.625000 -0.999500 1 0 1.000000 
test
0 3.662500 -2.573799 6.125600 0.000000 -0.603705 0.797207 0.625000 -0.411000 1 0 1.000000 
0 3.662500 -1.380299 6.620000 -0.000000 0.136800 0.990599 0.500000 -0.411000 1 0 1.000000 
0 -4.410600 -1.380301 6.620000 0.000000 -0.136800 0.990599 0.500000 -0.999500 1 0 1.000000 
test
0 3.662500 -1.380299 6.620000 -0.000000 0.136800 0.990599 0.500000 -0.411000 1 0 1.000000 
0 -4.410600 -0.186801 6.125600 -0.000000 0.603705 0.797207 0.375000 -0.999500 1 0 1.000000 
0 -4.410600 -1.380301 6.620000 0.000000 -0.136800 0.990599 0.500000 -0.999500 1 0 1.000000 
test
0 3.662500 -1.380299 6.620000 -0.000000 0.136800 0.990599 0.500000 -0.411000 1 0 1.000000 
0 3.662500 -0.186799 6.125600 -0.000000 0.797207 0.603705 0.375000 -0.411000 1 0 1.000000 
0 -4.410600 -0.186801 6.125600 -0.000000 0.603705 0.797207 0.375000 -0.999500 1 0 1.000000 
test
0 3.662500 -0.186799 6.125600 -0.000000 0.797207 0.603705 0.375000 -0.411000 1 0 1.000000 
0 -4.410600 0.307599 4.932100 -0.000000 0.990599 0.136800 0.250000 -0.999500 1 0 1.000000 
0 -4.410600 -0.186801 6.125600 -0.000000 0.603705 0.797207 0.375000 -0.999500 1 0 1.000000 
test
0 3.662500 -0.186799 6.125600 -0.000000 0.797207 0.603705 0.375000 -0.411000 1 0 1.000000 
0 3.662500 0.307601 4.932100 -0.000000 0.990599 -0.136800 0.250000 -0.411000 1 0 1.000000 
0 -4.410600 0.307599 4.932100 -0.000000 0.990599 0.136800 0.250000 -0.999500 1 0 1.000000 
test
0 3.662500 0.307601 4.932100 -0.000000 0.990599 -0.136800 0.250000 -0.411000 1 0 1.000000 
0 -4.410600 -0.186801 3.738600 -0.000000 0.797207 -0.603705 0.125000 -0.999500 1 0 1.000000 
0 -4.410600 0.307599 4.932100 -0.000000 0.990599 0.136800 0.250000 -0.999500 1 0 1.000000 
test
0 3.662500 0.307601 4.932100 -0.000000 0.990599 -0.136800 0.250000 -0.411000 1 0 1.000000 
0 3.662500 -0.186799 3.738600 -0.000000 0.603705 -0.797207 0.125000 -0.411000 1 0 1.000000 
0 -4.410600 -0.186801 3.738600 -0.000000 0.797207 -0.603705 0.125000 -0.999500 1 0 1.000000 
test
0 3.662500 -0.186799 3.738600 -0.000000 0.603705 -0.797207 0.125000 -0.411000 1 0 1.000000 
0 -4.410600 -1.380301 3.244200 -0.000000 0.136800 -0.990599 -0.000000 -0.999500 1 0 1.000000 
0 -4.410600 -0.186801 3.738600 -0.000000 0.797207 -0.603705 0.125000 -0.999500 1 0 1.000000 
test
0 3.662500 -0.186799 3.738600 -0.000000 0.603705 -0.797207 0.125000 -0.411000 1 0 1.000000 
0 3.662500 -1.380299 3.244200 0.000000 -0.136800 -0.990599 -0.000000 -0.411000 1 0 1.000000 
0 -4.410600 -1.380301 3.244200 -0.000000 0.136800 -0.990599 -0.000000 -0.999500 1 0 1.000000 
test
0 8.867200 0.648702 2.903100 1.000000 0.000000 -0.000000 0.299300 -0.294700 1 0 1.000000 
0 8.867200 1.489102 4.932100 1.000000 0.000000 -0.000000 0.216200 -0.500000 1 0 1.000000 
0 8.867200 0.570902 4.932100 1.000000 0.000000 -0.000000 0.307000 -0.500000 1 0 1.000000 
test
0 8.867200 -0.000598 6.311800 1.000000 0.000000 -0.000000 0.363500 -0.639600 1 0 1.000000 
0 8.867200 0.570902 4.932100 1.000000 0.000000 -0.000000 0.307000 -0.500000 1 0 1.000000 
0 8.867200 1.489102 4.932100 1.000000 0.000000 -0.000000 0.216200 -0.500000 1 0 1.000000 
test
0 8.867200 1.489102 4.932100 1.000000 0.000000 -0.000000 0.216200 -0.500000 1 0 1.000000 
0 8.867200 0.648702 6.961100 1.000000 0.000000 -0.000000 0.299300 -0.705300 1 0 1.000000 
0 8.867200 -0.000598 6.311800 1.000000 0.000000 -0.000000 0.363500 -0.639600 1 0 1.000000 
test
0 8.867200 -1.380298 6.883300 1.000000 0.000000 -0.000000 0.500000 -0.697500 1 0 1.000000 
0 8.867200 -0.000598 6.311800 1.000000 0.000000 -0.000000 0.363500 -0.639600 1 0 1.000000 
0 8.867200 0.648702 6.961100 1.000000 0.000000 -0.000000 0.299300 -0.705300 1 0 1.000000 
test
0 8.867200 0.648702 6.961100 1.000000 0.000000 -0.000000 0.299300 -0.705300 1 0 1.000000 
0 8.867200 -1.380298 7.801500 1.000000 0.000000 -0.000000 0.500000 -0.790400 1 0 1.000000 
0 8.867200 -1.380298 6.883300 1.000000 0.000000 -0.000000 0.500000 -0.697500 1 0 1.000000 
test
0 8.867200 -2.759998 6.311800 1.000000 0.000000 -0.000000 0.636500 -0.639600 1 0 1.000000 
0 8.867200 -1.380298 6.883300 1.000000 0.000000 -0.000000 0.500000 -0.697500 1 0 1.000000 
0 8.867200 -1.380298 7.801500 1.000000 0.000000 -0.000000 0.500000 -0.790400 1 0 1.000000 
test
0 8.867200 -1.380298 7.801500 1.000000 0.000000 -0.000000 0.500000 -0.790400 1 0 1.000000 
0 8.867201 -3.409299 6.961100 1.000000 0.000000 -0.000000 0.700700 -0.705300 1 0 1.000000 
0 8.867200 -2.759998 6.311800 1.000000 0.000000 -0.000000 0.636500 -0.639600 1 0 1.000000 
test
0 8.867201 -3.331499 4.932100 1.000000 0.000000 -0.000000 0.693000 -0.500000 1 0 1.000000 
0 8.867200 -2.759998 6.311800 1.000000 0.000000 -0.000000 0.636500 -0.639600 1 0 1.000000 
0 8.867201 -3.409299 6.961100 1.000000 0.000000 -0.000000 0.700700 -0.705300 1 0 1.000000 
test
0 8.867201 -3.409299 6.961100 1.000000 0.000000 -0.000000 0.700700 -0.705300 1 0 1.000000 
0 8.867201 -4.249698 4.932100 1.000000 0.000000 -0.000000 0.783800 -0.500000 1 0 1.000000 
0 8.867201 -3.331499 4.932100 1.000000 0.000000 -0.000000 0.693000 -0.500000 1 0 1.000000 
test
0 8.867200 -2.759999 3.552400 1.000000 0.000000 -0.000000 0.636500 -0.360400 1 0 1.000000 
0 8.867201 -3.331499 4.932100 1.000000 0.000000 -0.000000 0.693000 -0.500000 1 0 1.000000 
0 8.867201 -4.249698 4.932100 1.000000 0.000000 -0.000000 0.783800 -0.500000 1 0 1.000000 
test
0 8.867201 -4.249698 4.932100 1.000000 0.000000 -0.000000 0.783800 -0.500000 1 0 1.000000 
0 8.867200 -3.409298 2.903100 1.000000 0.000000 -0.000000 0.700700 -0.294700 1 0 1.000000 
0 8.867200 -2.759999 3.552400 1.000000 0.000000 -0.000000 0.636500 -0.360400 1 0 1.000000 
test
0 8.867200 -1.380298 2.980900 1.000000 0.000000 -0.000000 0.500000 -0.302500 1 0 1.000000 
0 8.867200 -2.759999 3.552400 1.000000 0.000000 -0.000000 0.636500 -0.360400 1 0 1.000000 
0 8.867200 -3.409298 2.903100 1.000000 0.000000 -0.000000 0.700700 -0.294700 1 0 1.000000 
test
0 8.867200 -3.409298 2.903100 1.000000 0.000000 -0.000000 0.700700 -0.294700 1 0 1.000000 
0 8.867200 -1.380298 2.062700 1.000000 0.000000 -0.000000 0.500000 -0.209600 1 0 1.000000 
0 8.867200 -1.380298 2.980900 1.000000 0.000000 -0.000000 0.500000 -0.302500 1 0 1.000000 
test
0 8.867200 -0.000598 3.552400 1.000000 0.000000 -0.000000 0.363500 -0.360400 1 0 1.000000 
0 8.867200 -1.380298 2.980900 1.000000 0.000000 -0.000000 0.500000 -0.302500 1 0 1.000000 
0 8.867200 -1.380298 2.062700 1.000000 0.000000 -0.000000 0.500000 -0.209600 1 0 1.000000 
test
0 8.867200 -1.380298 2.062700 1.000000 0.000000 -0.000000 0.500000 -0.209600 1 0 1.000000 
0 8.867200 0.648702 2.903100 1.000000 0.000000 -0.000000 0.299300 -0.294700 1 0 1.000000 
0 8.867200 -0.000598 3.552400 1.000000 0.000000 -0.000000 0.363500 -0.360400 1 0 1.000000 
test
0 8.867200 0.570902 4.932100 1.000000 0.000000 -0.000000 0.307000 -0.500000 1 0 1.000000 
0 8.867200 -0.000598 3.552400 1.000000 0.000000 -0.000000 0.363500 -0.360400 1 0 1.000000 
0 8.867200 0.648702 2.903100 1.000000 0.000000 -0.000000 0.299300 -0.294700 1 0 1.000000 
test
0 2.983799 2.869801 8.989100 0.000000 0.000000 1.000000 0.000500 -0.999500 1 0 1.000000 
0 -2.941601 2.869800 8.989100 0.000000 0.000000 1.000000 0.654400 -0.999500 1 0 1.000000 
0 -2.941600 1.148000 8.989100 0.000000 0.000000 1.000000 0.654400 -0.743400 1 0 1.000000 
test
0 -2.941600 1.148000 8.989100 0.000000 0.000000 1.000000 0.654400 -0.743400 1 0 1.000000 
0 2.983800 1.148000 8.989100 0.000000 0.000000 1.000000 0.000500 -0.743400 1 0 1.000000 
0 2.983799 2.869801 8.989100 0.000000 0.000000 1.000000 0.000500 -0.999500 1 0 1.000000 
test
0 -2.941600 1.148000 8.989100 0.000000 0.000000 1.000000 0.654400 -0.743400 1 0 1.000000 
0 -2.941599 -3.847100 8.989100 0.000000 0.000000 1.000000 0.654400 -0.000500 1 0 1.000000 
0 2.983800 1.148000 8.989100 0.000000 0.000000 1.000000 0.000500 -0.743400 1 0 1.000000 
test
0 -2.941599 -3.847100 8.989100 0.000000 0.000000 1.000000 0.654400 -0.000500 1 0 1.000000 
0 2.983801 -3.847100 8.989100 0.000000 0.000000 1.000000 0.000500 -0.000500 1 0 1.000000 
0 2.983800 1.148000 8.989100 0.000000 0.000000 1.000000 0.000500 -0.743400 1 0 1.000000 
test
0 -2.277101 2.869800 8.216100 -0.000000 1.000000 -0.000000 0.418900 -0.918100 1 0 1.000000 
0 -2.941601 2.869800 8.989100 -0.000000 1.000000 -0.000000 0.345600 -0.999500 1 0 1.000000 
0 2.319299 2.869801 8.216100 -0.000000 1.000000 -0.000000 0.926200 -0.918100 1 0 1.000000 
test
0 -2.941601 2.869800 8.989100 -0.000000 1.000000 -0.000000 0.345600 -0.999500 1 0 1.000000 
0 2.983799 2.869801 8.989100 -0.000000 1.000000 -0.000000 0.999500 -0.999500 1 0 1.000000 
0 2.319299 2.869801 8.216100 -0.000000 1.000000 -0.000000 0.926200 -0.918100 1 0 1.000000 
end
