version 1
nodes
  0 "static_prop" -1
end
skeleton
time 0
0 0.000000 0.000000 0.000000 0.000000 0.000000 0.000000
end
triangles
metalfirelocker
0 15.741700 3.361401 -1.496500 0.537022 -0.366215 -0.759930 0.499300 -0.972100 1 0 1.000000 
0 16.244600 3.074001 -1.002600 0.537022 -0.366215 -0.759930 0.500700 -0.979000 1 0 1.000000 
0 15.688900 3.019501 -1.369100 0.537022 -0.366215 -0.759930 0.501000 -0.973900 1 0 1.000000 
metalfirelocker
0 -15.114400 -6.405800 -15.048300 0.000000 -1.000000 0.000000 0.746800 -0.994800 1 0 1.000000 
0 15.048200 -6.405799 15.114400 0.000000 -1.000000 0.000000 0.506400 -0.754500 1 0 1.000000 
0 -15.114400 -6.405800 15.114400 0.000000 -1.000000 0.000000 0.746800 -0.754500 1 0 1.000000 
metalfirelocker
0 -15.114400 -6.405800 -15.048300 0.000000 -1.000000 0.000000 0.746800 -0.994800 1 0 1.000000 
0 15.048200 -6.405799 -15.048300 0.000000 -1.000000 0.000000 0.506400 -0.994800 1 0 1.000000 
0 15.048200 -6.405799 15.114400 0.000000 -1.000000 0.000000 0.506400 -0.754500 1 0 1.000000 
metalfirelocker
0 15.002100 3.217301 -1.173300 0.010500 0.670677 0.741675 0.500000 -0.976300 1 0 1.000000 
0 15.689000 3.418501 -1.365000 0.010500 0.670677 0.741675 0.499000 -0.973800 1 0 1.000000 
0 14.922700 3.418701 -1.354300 0.010500 0.670677 0.741675 0.499000 -0.973800 1 0 1.000000 
metalfirelocker
0 15.002100 3.217301 -1.173300 0.010500 0.670677 0.741675 0.500000 -0.976300 1 0 1.000000 
0 15.614400 3.217101 -1.182000 0.010700 0.670411 0.741912 0.500000 -0.976400 1 0 1.000000 
0 15.689000 3.418501 -1.365000 0.010500 0.670677 0.741675 0.499000 -0.973800 1 0 1.000000 
metalfirelocker
0 16.114000 3.009001 -0.350700 -0.287807 -0.909121 -0.301107 0.500900 -0.987900 1 0 1.000000 
0 15.635300 3.064701 -0.061400 -0.287807 -0.909121 -0.301107 0.500600 -0.991700 1 0 1.000000 
0 15.983900 3.068001 -0.404700 -0.287807 -0.909121 -0.301107 0.500600 -0.987100 1 0 1.000000 
metalfirelocker
0 16.114000 3.009001 -0.350700 -0.287807 -0.909121 -0.301107 0.500900 -0.987900 1 0 1.000000 
0 15.687800 3.004901 0.068900 -0.287807 -0.909121 -0.301107 0.500900 -0.993500 1 0 1.000000 
0 15.635300 3.064701 -0.061400 -0.287807 -0.909121 -0.301107 0.500600 -0.991700 1 0 1.000000 
metalfirelocker
0 15.983900 3.068001 -0.404700 -0.655292 0.363995 -0.661891 0.500600 -0.987100 1 0 1.000000 
0 15.688000 3.403901 0.073000 -0.655292 0.363995 -0.661891 0.498900 -0.993400 1 0 1.000000 
0 16.114100 3.408001 -0.346700 -0.655315 0.363908 -0.661915 0.498900 -0.987800 1 0 1.000000 
metalfirelocker
0 15.983900 3.068001 -0.404700 -0.655292 0.363995 -0.661891 0.500600 -0.987100 1 0 1.000000 
0 15.635300 3.064701 -0.061400 -0.655292 0.363995 -0.661891 0.500600 -0.991700 1 0 1.000000 
0 15.688000 3.403901 0.073000 -0.655292 0.363995 -0.661891 0.498900 -0.993400 1 0 1.000000 
metalfirelocker
0 15.048200 4.502501 15.114400 -0.000000 0.018700 -0.999825 0.511300 -0.993700 1 0 1.000000 
0 -14.905000 -5.424800 14.928400 0.000000 0.000000 -1.000000 0.745500 -0.914600 1 0 1.000000 
0 -14.905000 4.615600 14.928400 0.000000 0.000000 -1.000000 0.745500 -0.993700 1 0 1.000000 
metalfirelocker
0 15.048200 4.502501 15.114400 -0.000000 0.018700 -0.999825 0.511300 -0.993700 1 0 1.000000 
0 14.838800 -5.424799 14.928400 0.000000 0.000000 -1.000000 0.511300 -0.914600 1 0 1.000000 
0 -14.905000 -5.424800 14.928400 0.000000 0.000000 -1.000000 0.745500 -0.914600 1 0 1.000000 
metalfirelocker
0 15.048200 4.502501 -15.048300 -0.999777 0.021099 0.000000 0.596500 -0.991600 1 0 1.000000 
0 14.838800 -5.424799 14.928400 -1.000000 -0.000000 0.000000 0.517300 -0.757000 1 0 1.000000 
0 15.048200 4.502501 15.114400 -0.999777 0.021099 0.000000 0.596500 -0.757000 1 0 1.000000 
metalfirelocker
0 15.048200 4.502501 -15.048300 -0.999777 0.021099 0.000000 0.596500 -0.991600 1 0 1.000000 
0 14.838800 -5.424799 -14.815400 -1.000000 -0.000000 0.000000 0.517300 -0.991600 1 0 1.000000 
0 14.838800 -5.424799 14.928400 -1.000000 -0.000000 0.000000 0.517300 -0.757000 1 0 1.000000 
metalfirelocker
0 -14.905000 4.615600 -14.815400 0.000000 0.000000 1.000000 0.745500 -0.994700 1 0 1.000000 
0 14.838800 -5.424799 -14.815400 0.000000 0.000000 1.000000 0.511300 -0.915600 1 0 1.000000 
0 15.048200 4.502501 -15.048300 0.007900 0.023300 0.999697 0.511300 -0.994700 1 0 1.000000 
metalfirelocker
0 -14.905000 4.615600 -14.815400 0.000000 0.000000 1.000000 0.745500 -0.994700 1 0 1.000000 
0 -14.905000 -5.424800 -14.815400 0.000000 0.000000 1.000000 0.745500 -0.915600 1 0 1.000000 
0 14.838800 -5.424799 -14.815400 0.000000 0.000000 1.000000 0.511300 -0.915600 1 0 1.000000 
metalfirelocker
0 -14.905000 4.615600 14.928400 1.000000 0.000000 0.000000 0.596500 -0.757000 1 0 1.000000 
0 -14.905000 -5.424800 -14.815400 1.000000 0.000000 0.000000 0.517300 -0.991600 1 0 1.000000 
0 -14.905000 4.615600 -14.815400 1.000000 0.000000 0.000000 0.596500 -0.991600 1 0 1.000000 
metalfirelocker
0 -14.905000 4.615600 14.928400 1.000000 0.000000 0.000000 0.596500 -0.757000 1 0 1.000000 
0 -14.905000 -5.424800 14.928400 1.000000 0.000000 0.000000 0.517300 -0.757000 1 0 1.000000 
0 -14.905000 -5.424800 -14.815400 1.000000 0.000000 0.000000 0.517300 -0.991600 1 0 1.000000 
metalfirelocker
0 15.048200 -6.405799 -15.048300 1.000000 0.000000 0.000000 0.509500 -0.993400 1 0 1.000000 
0 15.048200 4.502501 15.114400 1.000000 0.000000 0.000000 0.595600 -0.755500 1 0 1.000000 
0 15.048200 -6.405799 15.114400 1.000000 0.000000 0.000000 0.509500 -0.755500 1 0 1.000000 
metalfirelocker
0 15.048200 -6.405799 -15.048300 1.000000 0.000000 0.000000 0.509500 -0.993400 1 0 1.000000 
0 15.048200 4.502501 -15.048300 1.000000 0.000000 0.000000 0.595600 -0.993400 1 0 1.000000 
0 15.048200 4.502501 15.114400 1.000000 0.000000 0.000000 0.595600 -0.755500 1 0 1.000000 
metalfirelocker
0 -15.114400 -6.405800 15.114400 0.000000 0.000000 1.000000 0.747100 -0.906900 1 0 1.000000 
0 15.048200 4.502501 15.114400 0.000000 0.000000 1.000000 0.509700 -0.992800 1 0 1.000000 
0 -14.905000 4.615600 14.928400 -0.006100 0.017001 0.999837 0.747100 -0.992800 1 0 1.000000 
metalfirelocker
0 -15.114400 -6.405800 15.114400 0.000000 0.000000 1.000000 0.747100 -0.906900 1 0 1.000000 
0 15.048200 -6.405799 15.114400 0.000000 0.000000 1.000000 0.509700 -0.906900 1 0 1.000000 
0 15.048200 4.502501 15.114400 0.000000 0.000000 1.000000 0.509700 -0.992800 1 0 1.000000 
metalfirelocker
0 -15.114400 -6.405800 -15.048300 -1.000000 -0.000000 0.000000 0.509500 -0.993400 1 0 1.000000 
0 -14.905000 4.615600 14.928400 -0.999819 0.019000 0.000000 0.595600 -0.755500 1 0 1.000000 
0 -14.905000 4.615600 -14.815400 -0.999819 0.019000 0.000000 0.595600 -0.993400 1 0 1.000000 
metalfirelocker
0 -15.114400 -6.405800 -15.048300 -1.000000 -0.000000 0.000000 0.509500 -0.993400 1 0 1.000000 
0 -15.114400 -6.405800 15.114400 -1.000000 -0.000000 0.000000 0.509500 -0.755500 1 0 1.000000 
0 -14.905000 4.615600 14.928400 -0.999819 0.019000 0.000000 0.595600 -0.755500 1 0 1.000000 
metalfirelocker
0 -14.905000 -5.424800 -14.815400 -0.000000 1.000000 0.000000 0.745100 -0.993100 1 0 1.000000 
0 14.838800 -5.424799 14.928400 -0.000000 1.000000 0.000000 0.508100 -0.756200 1 0 1.000000 
0 14.838800 -5.424799 -14.815400 -0.000000 1.000000 0.000000 0.508100 -0.993100 1 0 1.000000 
metalfirelocker
0 -14.905000 -5.424800 -14.815400 -0.000000 1.000000 0.000000 0.745100 -0.993100 1 0 1.000000 
0 -14.905000 -5.424800 14.928400 -0.000000 1.000000 0.000000 0.745100 -0.756200 1 0 1.000000 
0 14.838800 -5.424799 14.928400 -0.000000 1.000000 0.000000 0.508100 -0.756200 1 0 1.000000 
metalfirelocker
0 -15.114400 -6.405800 -15.048300 0.000000 0.000000 -1.000000 0.747100 -0.907900 1 0 1.000000 
0 15.048200 4.502501 -15.048300 0.000000 0.000000 -1.000000 0.509700 -0.993800 1 0 1.000000 
0 15.048200 -6.405799 -15.048300 0.000000 0.000000 -1.000000 0.509700 -0.907900 1 0 1.000000 
metalfirelocker
0 -15.114400 -6.405800 -15.048300 0.000000 0.000000 -1.000000 0.747100 -0.907900 1 0 1.000000 
0 -14.905000 4.615600 -14.815400 -0.007700 0.021301 -0.999743 0.747100 -0.993800 1 0 1.000000 
0 15.048200 4.502501 -15.048300 0.000000 0.000000 -1.000000 0.509700 -0.993800 1 0 1.000000 
metalfirelocker
0 15.688900 3.019501 -1.369100 -0.656509 -0.363405 0.661009 0.501000 -0.973900 1 0 1.000000 
0 16.114401 3.015001 -0.948800 -0.656509 -0.363405 0.661009 0.501000 -0.979700 1 0 1.000000 
0 15.984400 3.355101 -0.891000 -0.656509 -0.363405 0.661009 0.499300 -0.980400 1 0 1.000000 
metalfirelocker
0 15.614400 3.217101 -1.182000 -0.605893 0.646293 0.463895 0.500000 -0.976400 1 0 1.000000 
0 15.984400 3.355101 -0.891000 -0.605893 0.646293 0.463895 0.499300 -0.980400 1 0 1.000000 
0 15.689000 3.418501 -1.365000 -0.605893 0.646293 0.463895 0.499000 -0.973800 1 0 1.000000 
metalfirelocker
0 15.740500 3.344101 0.203300 -0.007400 -0.367291 0.930077 0.499200 -0.995200 1 0 1.000000 
0 14.921500 3.005301 0.063000 -0.007400 -0.367291 0.930077 0.500900 -0.993200 1 0 1.000000 
0 15.687800 3.004901 0.068900 -0.007400 -0.367291 0.930077 0.500900 -0.993500 1 0 1.000000 
metalfirelocker
0 16.244600 3.074001 -1.002600 0.716504 -0.693604 0.074400 0.500700 -0.979000 1 0 1.000000 
0 16.298100 3.207601 -0.271600 0.716504 -0.693604 0.074400 0.499900 -0.988900 1 0 1.000000 
0 16.114000 3.009001 -0.350700 0.716504 -0.693604 0.074400 0.500900 -0.987900 1 0 1.000000 
metalfirelocker
0 15.635300 3.064701 -0.061400 0.007400 0.367291 -0.930077 0.500600 -0.991700 1 0 1.000000 
0 14.921700 3.404301 0.067000 0.007400 0.367291 -0.930077 0.498900 -0.993100 1 0 1.000000 
0 15.688000 3.403901 0.073000 0.007400 0.367291 -0.930077 0.498900 -0.993400 1 0 1.000000 
metalfirelocker
0 16.298100 3.207601 -0.271600 0.515428 -0.683537 0.516828 0.499900 -0.988900 1 0 1.000000 
0 15.687800 3.004901 0.068900 0.515428 -0.683537 0.516828 0.500900 -0.993500 1 0 1.000000 
0 16.114000 3.009001 -0.350700 0.515428 -0.683537 0.516828 0.500900 -0.987900 1 0 1.000000 
metalfirelocker
0 16.114599 3.414101 -0.944800 0.735301 0.677701 0.007400 0.499000 -0.979600 1 0 1.000000 
0 16.114100 3.408001 -0.346700 0.735301 0.677701 0.007400 0.498900 -0.987800 1 0 1.000000 
0 16.298100 3.207601 -0.271600 0.735301 0.677701 0.007400 0.499900 -0.988900 1 0 1.000000 
metalfirelocker
0 15.688900 3.019501 -1.369100 0.287488 -0.909361 -0.300687 0.501000 -0.973900 1 0 1.000000 
0 16.244600 3.074001 -1.002600 0.287488 -0.909361 -0.300687 0.500700 -0.979000 1 0 1.000000 
0 16.114401 3.015001 -0.948800 0.287488 -0.909361 -0.300687 0.501000 -0.979700 1 0 1.000000 
metalfirelocker
0 15.984400 3.355101 -0.891000 -0.927223 0.322908 0.189705 0.499300 -0.980400 1 0 1.000000 
0 15.983900 3.068001 -0.404700 -0.927223 0.322908 0.189705 0.500600 -0.987100 1 0 1.000000 
0 16.114100 3.408001 -0.346700 -0.927223 0.322908 0.189705 0.498900 -0.987800 1 0 1.000000 
metalfirelocker
0 16.244600 3.074001 -1.002600 0.409200 -0.912400 -0.009000 0.500700 -0.979000 1 0 1.000000 
0 16.114000 3.009001 -0.350700 0.409200 -0.912400 -0.009000 0.500900 -0.987900 1 0 1.000000 
0 16.114401 3.015001 -0.948800 0.409200 -0.912400 -0.009000 0.501000 -0.979700 1 0 1.000000 
metalfirelocker
0 16.114401 3.015001 -0.948800 -0.927215 -0.322105 -0.191103 0.501000 -0.979700 1 0 1.000000 
0 15.983900 3.068001 -0.404700 -0.927215 -0.322105 -0.191103 0.500600 -0.987100 1 0 1.000000 
0 15.984400 3.355101 -0.891000 -0.927215 -0.322105 -0.191103 0.499300 -0.980400 1 0 1.000000 
metalfirelocker
0 15.689000 3.418501 -1.365000 -0.287488 0.909361 0.300687 0.499000 -0.973800 1 0 1.000000 
0 15.984400 3.355101 -0.891000 -0.287488 0.909361 0.300687 0.499300 -0.980400 1 0 1.000000 
0 16.114599 3.414101 -0.944800 -0.287488 0.909361 0.300687 0.499000 -0.979600 1 0 1.000000 
metalfirelocker
0 16.114599 3.414101 -0.944800 0.917515 0.373906 -0.135502 0.499000 -0.979600 1 0 1.000000 
0 16.298100 3.207601 -0.271600 0.917515 0.373906 -0.135502 0.499900 -0.988900 1 0 1.000000 
0 16.244600 3.074001 -1.002600 0.917515 0.373906 -0.135502 0.500700 -0.979000 1 0 1.000000 
metalfirelocker
0 15.984400 3.355101 -0.891000 -0.409200 0.912400 0.009000 0.499300 -0.980400 1 0 1.000000 
0 16.114100 3.408001 -0.346700 -0.409200 0.912400 0.009000 0.498900 -0.987800 1 0 1.000000 
0 16.114599 3.414101 -0.944800 -0.409200 0.912400 0.009000 0.499000 -0.979600 1 0 1.000000 
metalfirelocker
0 15.002100 3.217301 -1.173300 0.010100 -0.685398 0.728098 0.500000 -0.976300 1 0 1.000000 
0 15.688900 3.019501 -1.369100 0.010100 -0.685398 0.728098 0.501000 -0.973900 1 0 1.000000 
0 15.614400 3.217101 -1.182000 0.010100 -0.685398 0.728098 0.500000 -0.976400 1 0 1.000000 
metalfirelocker
0 16.114100 3.408001 -0.346700 0.287807 0.909121 0.301107 0.498900 -0.987800 1 0 1.000000 
0 15.688000 3.403901 0.073000 0.287807 0.909121 0.301107 0.498900 -0.993400 1 0 1.000000 
0 15.740500 3.344101 0.203300 0.287807 0.909121 0.301107 0.499200 -0.995200 1 0 1.000000 
metalfirelocker
0 14.922700 3.418701 -1.354300 -0.135400 0.357100 -0.924200 0.499000 -0.973800 1 0 1.000000 
0 15.741700 3.361401 -1.496500 -0.135400 0.357100 -0.924200 0.499300 -0.972100 1 0 1.000000 
0 14.943700 3.079401 -1.488500 -0.135400 0.357100 -0.924200 0.500700 -0.972100 1 0 1.000000 
metalfirelocker
0 15.688000 3.403901 0.073000 -0.002800 0.908529 0.417813 0.498900 -0.993400 1 0 1.000000 
0 14.921700 3.404301 0.067000 -0.002900 0.905191 0.424996 0.498900 -0.993100 1 0 1.000000 
0 15.740500 3.344101 0.203300 -0.002800 0.908529 0.417813 0.499200 -0.995200 1 0 1.000000 
metalfirelocker
0 15.741700 3.361401 -1.496500 0.749563 0.378882 -0.542774 0.499300 -0.972100 1 0 1.000000 
0 16.114599 3.414101 -0.944800 0.749563 0.378882 -0.542774 0.499000 -0.979600 1 0 1.000000 
0 16.244600 3.074001 -1.002600 0.749563 0.378882 -0.542774 0.500700 -0.979000 1 0 1.000000 
metalfirelocker
0 15.687800 3.004901 0.068900 0.002800 -0.908491 -0.417896 0.500900 -0.993500 1 0 1.000000 
0 14.921500 3.005301 0.063000 0.002800 -0.907610 -0.419805 0.500900 -0.993200 1 0 1.000000 
0 15.635300 3.064701 -0.061400 0.002800 -0.908491 -0.417896 0.500600 -0.991700 1 0 1.000000 
metalfirelocker
0 15.688900 3.019501 -1.369100 -0.248891 -0.713575 0.654877 0.501000 -0.973900 1 0 1.000000 
0 15.984400 3.355101 -0.891000 -0.248891 -0.713575 0.654877 0.499300 -0.980400 1 0 1.000000 
0 15.614400 3.217101 -1.182000 -0.248891 -0.713575 0.654877 0.500000 -0.976400 1 0 1.000000 
metalfirelocker
0 14.922700 3.418701 -1.354300 -0.005300 0.916500 -0.400000 0.499000 -0.973800 1 0 1.000000 
0 15.689000 3.418501 -1.365000 -0.005300 0.916321 -0.400409 0.499000 -0.973800 1 0 1.000000 
0 15.741700 3.361401 -1.496500 -0.005300 0.916321 -0.400409 0.499300 -0.972100 1 0 1.000000 
metalfirelocker
0 16.298100 3.207601 -0.271600 0.543799 -0.380699 0.747898 0.499900 -0.988900 1 0 1.000000 
0 15.740500 3.344101 0.203300 0.543799 -0.380699 0.747898 0.499200 -0.995200 1 0 1.000000 
0 15.687800 3.004901 0.068900 0.543799 -0.380699 0.747898 0.500900 -0.993500 1 0 1.000000 
metalfirelocker
0 15.689000 3.418501 -1.365000 0.288185 0.915052 -0.282185 0.499000 -0.973800 1 0 1.000000 
0 16.114599 3.414101 -0.944800 0.288185 0.915052 -0.282185 0.499000 -0.979600 1 0 1.000000 
0 15.741700 3.361401 -1.496500 0.288185 0.915052 -0.282185 0.499300 -0.972100 1 0 1.000000 
metalfirelocker
0 15.635300 3.064701 -0.061400 -0.172493 0.010000 -0.984960 0.500600 -0.991700 1 0 1.000000 
0 14.921500 3.005301 0.063000 -0.172493 0.010000 -0.984960 0.500900 -0.993200 1 0 1.000000 
0 14.921700 3.404301 0.067000 -0.172493 0.010000 -0.984960 0.498900 -0.993100 1 0 1.000000 
metalfirelocker
0 16.114401 3.015001 -0.948800 -0.410013 -0.912029 -0.009600 0.501000 -0.979700 1 0 1.000000 
0 16.114000 3.009001 -0.350700 -0.410013 -0.912029 -0.009600 0.500900 -0.987900 1 0 1.000000 
0 15.983900 3.068001 -0.404700 -0.410013 -0.912029 -0.009600 0.500600 -0.987100 1 0 1.000000 
metalfirelocker
0 15.740500 3.344101 0.203300 -0.164894 -0.009900 0.986262 0.499200 -0.995200 1 0 1.000000 
0 14.921700 3.404301 0.067000 -0.164894 -0.009900 0.986262 0.498900 -0.993100 1 0 1.000000 
0 14.921500 3.005301 0.063000 -0.164894 -0.009900 0.986262 0.500900 -0.993200 1 0 1.000000 
metalfirelocker
0 14.943700 3.079401 -1.488500 -0.139302 -0.897514 0.418406 0.500700 -0.972100 1 0 1.000000 
0 15.688900 3.019501 -1.369100 -0.139302 -0.897514 0.418406 0.501000 -0.973900 1 0 1.000000 
0 15.002100 3.217301 -1.173300 -0.139302 -0.897514 0.418406 0.500000 -0.976300 1 0 1.000000 
metalfirelocker
0 16.114100 3.408001 -0.346700 0.560883 0.687679 0.460986 0.498900 -0.987800 1 0 1.000000 
0 15.740500 3.344101 0.203300 0.560883 0.687679 0.460986 0.499200 -0.995200 1 0 1.000000 
0 16.298100 3.207601 -0.271600 0.560883 0.687679 0.460986 0.499900 -0.988900 1 0 1.000000 
metalfirelocker
0 14.943700 3.079401 -1.488500 0.118906 -0.362817 -0.924243 0.500700 -0.972100 1 0 1.000000 
0 15.741700 3.361401 -1.496500 0.118906 -0.362817 -0.924243 0.499300 -0.972100 1 0 1.000000 
0 15.688900 3.019501 -1.369100 0.118906 -0.362817 -0.924243 0.501000 -0.973900 1 0 1.000000 
end
