version 1
nodes
  0 "static_prop" -1
end
skeleton
time 0
0 0.000000 0.000000 0.000000 0.000000 0.000000 0.000000
end
triangles
metcombinebridge
0 209.312302 -49.797394 -18.917999 0.273905 0.705712 0.653411 0.340000 -0.495500 1 0 1.000000 
0 212.707306 -50.108994 -24.155899 0.070201 0.997510 -0.006800 0.339000 -0.501700 1 0 1.000000 
0 207.567703 -49.797394 -23.948799 -0.000000 1.000000 0.000000 0.340000 -0.501400 1 0 1.000000 
metcombinebridge
0 208.223099 -49.131794 -18.540300 0.327605 0.000000 0.944815 0.342100 -0.495100 1 0 1.000000 
0 209.312302 -51.128593 -18.917999 0.327605 0.000000 0.944815 0.335700 -0.495500 1 0 1.000000 
0 209.312302 -49.797394 -18.917999 0.273905 0.705712 0.653411 0.340000 -0.495500 1 0 1.000000 
metcombinebridge
0 205.475601 -49.789192 -30.025400 0.567700 0.741800 -0.357000 0.340000 -0.508500 1 0 1.000000 
0 203.804001 -49.115391 -31.283701 -0.377280 0.707763 -0.597269 0.342200 -0.510000 1 0 1.000000 
0 204.373001 -48.761292 -29.643000 0.567700 0.741800 -0.357000 0.343300 -0.508100 1 0 1.000000 
metcombinebridge
0 203.270401 -51.136692 -29.260599 -0.968782 -0.027400 -0.246395 0.335700 -0.507600 1 0 1.000000 
0 203.804001 -49.115391 -31.283701 -0.377280 0.707763 -0.597269 0.342200 -0.510000 1 0 1.000000 
0 203.804001 -51.810493 -31.283701 -0.548630 -0.781642 -0.296716 0.333500 -0.510000 1 0 1.000000 
metcombinebridge
0 204.373001 -51.810493 -29.643000 0.301805 -0.947614 -0.104602 0.333500 -0.508100 1 0 1.000000 
0 203.804001 -51.810493 -31.283701 -0.548630 -0.781642 -0.296716 0.333500 -0.510000 1 0 1.000000 
0 205.765305 -51.313793 -30.125799 0.301805 -0.947614 -0.104602 0.335100 -0.508600 1 0 1.000000 
metcombinebridge
0 -224.519699 -107.885605 81.066399 0.000000 -1.000000 0.000000 0.690400 -0.516800 1 0 1.000000 
0 -142.076599 -107.885605 162.618500 0.000000 -1.000000 0.000000 0.416400 -0.245700 1 0 1.000000 
0 -234.029694 -107.885605 170.417007 0.000000 -1.000000 0.000000 0.722000 -0.219800 1 0 1.000000 
metcombinebridge
0 -224.519699 -107.885605 81.066399 0.000000 -1.000000 0.000000 0.690400 -0.516800 1 0 1.000000 
0 -132.566605 -107.885605 119.267799 0.000000 -1.000000 0.000000 0.384700 -0.389800 1 0 1.000000 
0 -142.076599 -107.885605 162.618500 0.000000 -1.000000 0.000000 0.416400 -0.245700 1 0 1.000000 
metcombinebridge
0 -132.566605 -107.885605 119.267799 0.000000 -1.000000 0.000000 0.384700 -0.389800 1 0 1.000000 
0 -84.486893 -107.885597 161.948105 0.000000 -1.000000 0.000000 0.224900 -0.248000 1 0 1.000000 
0 -142.076599 -107.885605 162.618500 0.000000 -1.000000 0.000000 0.416400 -0.245700 1 0 1.000000 
metcombinebridge
0 208.577698 -51.128593 -21.036301 -0.000000 1.000000 0.000000 0.335700 -0.498000 1 0 1.000000 
0 209.312302 -51.128593 -18.917999 -0.000000 1.000000 0.000000 0.335700 -0.495500 1 0 1.000000 
0 207.567703 -51.128593 -23.948799 -0.000000 1.000000 0.000000 0.335700 -0.501400 1 0 1.000000 
metcombinebridge
0 -142.076599 -93.658211 162.618500 -0.000000 1.000000 0.000000 0.416400 -0.245700 1 0 1.000000 
0 -84.486893 -93.658203 161.948105 -0.000000 1.000000 0.000000 0.224900 -0.248000 1 0 1.000000 
0 -132.566605 -93.658211 119.267799 -0.000000 1.000000 0.000000 0.384700 -0.389800 1 0 1.000000 
metcombinebridge
0 -224.519699 -93.658211 81.066399 -0.000000 1.000000 0.000000 0.690400 -0.516800 1 0 1.000000 
0 -142.076599 -93.658211 162.618500 -0.000000 1.000000 0.000000 0.416400 -0.245700 1 0 1.000000 
0 -132.566605 -93.658211 119.267799 -0.000000 1.000000 0.000000 0.384700 -0.389800 1 0 1.000000 
metcombinebridge
0 -224.519699 -93.658211 81.066399 -0.000000 1.000000 0.000000 0.690400 -0.516800 1 0 1.000000 
0 -234.029694 -93.658211 170.417007 -0.000000 1.000000 0.000000 0.722000 -0.219800 1 0 1.000000 
0 -142.076599 -93.658211 162.618500 -0.000000 1.000000 0.000000 0.416400 -0.245700 1 0 1.000000 
metcombinebridge
0 -240.116501 -136.888321 171.122696 0.000000 0.000000 1.000000 0.428300 -0.000000 1 0 1.000000 
0 25.197302 -64.655502 171.122696 0.000000 0.000000 1.000000 0.571700 -0.515900 1 0 1.000000 
0 -240.116501 -64.655510 171.122696 0.000000 0.000000 1.000000 0.571700 -0.000000 1 0 1.000000 
metcombinebridge
0 -240.116501 -136.888321 171.122696 0.000000 0.000000 1.000000 0.428300 -0.000000 1 0 1.000000 
0 25.197306 -136.888306 171.122696 0.000000 0.000000 1.000000 0.428300 -0.515900 1 0 1.000000 
0 25.197302 -64.655502 171.122696 0.000000 0.000000 1.000000 0.571700 -0.515900 1 0 1.000000 
metcombinebridge
0 25.197306 -136.888306 171.122696 0.680213 0.000000 0.733014 0.428300 -0.515900 1 0 1.000000 
0 168.188004 -64.655495 38.426800 0.680213 0.000000 0.733014 0.571700 -0.847600 1 0 1.000000 
0 25.197302 -64.655502 171.122696 0.680213 0.000000 0.733014 0.571700 -0.515900 1 0 1.000000 
metcombinebridge
0 25.197306 -136.888306 171.122696 0.680213 0.000000 0.733014 0.428300 -0.515900 1 0 1.000000 
0 168.188004 -136.888306 38.426800 0.680213 0.000000 0.733014 0.428300 -0.847600 1 0 1.000000 
0 168.188004 -64.655495 38.426800 0.680213 0.000000 0.733014 0.571700 -0.847600 1 0 1.000000 
metcombinebridge
0 25.197308 -155.580093 135.353394 0.632916 0.000000 0.774220 0.391200 -0.530300 1 0 1.000000 
0 168.188004 -45.963692 18.453100 0.632916 0.000000 0.774220 0.608800 -0.855600 1 0 1.000000 
0 25.197302 -45.963699 135.353394 0.632916 0.000000 0.774220 0.608800 -0.530300 1 0 1.000000 
metcombinebridge
0 25.197308 -155.580093 135.353394 0.632916 0.000000 0.774220 0.391200 -0.530300 1 0 1.000000 
0 168.188004 -155.580093 18.453100 0.632916 0.000000 0.774220 0.391200 -0.855600 1 0 1.000000 
0 168.188004 -45.963692 18.453100 0.632916 0.000000 0.774220 0.608800 -0.855600 1 0 1.000000 
metcombinebridge
0 25.197302 -45.963699 91.072800 -0.542293 -0.000000 -0.840189 0.608800 -0.548200 1 0 1.000000 
0 168.188004 -155.580093 -1.221900 -0.542293 -0.000000 -0.840189 0.391200 -0.863600 1 0 1.000000 
0 25.197308 -155.580093 91.072800 -0.542293 -0.000000 -0.840189 0.391200 -0.548200 1 0 1.000000 
metcombinebridge
0 25.197302 -45.963699 91.072800 -0.542293 -0.000000 -0.840189 0.608800 -0.548200 1 0 1.000000 
0 168.188004 -45.963692 -1.221900 -0.542293 -0.000000 -0.840189 0.608800 -0.863600 1 0 1.000000 
0 168.188004 -155.580093 -1.221900 -0.542293 -0.000000 -0.840189 0.391200 -0.863600 1 0 1.000000 
metcombinebridge
0 110.584808 -122.499893 -185.913895 -0.355507 -0.863516 0.357707 0.106300 -0.690500 1 0 1.000000 
0 114.018906 -122.187492 -181.746902 -0.408182 -0.912659 0.020999 0.107300 -0.685600 1 0 1.000000 
0 110.584808 -120.773895 -181.746902 -0.355507 -0.863516 0.357707 0.111900 -0.685600 1 0 1.000000 
metcombinebridge
0 110.584808 -122.499893 -185.913895 -0.355507 -0.863516 0.357707 0.106300 -0.690500 1 0 1.000000 
0 114.018906 -123.499489 -184.914307 -0.355507 -0.863516 0.357707 0.103100 -0.689300 1 0 1.000000 
0 114.018906 -122.187492 -181.746902 -0.408182 -0.912659 0.020999 0.107300 -0.685600 1 0 1.000000 
metcombinebridge
0 110.584808 -123.499489 -178.579498 -0.184906 -0.540418 -0.820827 0.103100 -0.681900 1 0 1.000000 
0 114.018906 -126.666893 -177.267502 -0.184906 -0.540418 -0.820827 0.092900 -0.680400 1 0 1.000000 
0 110.584808 -126.666893 -177.267502 0.000000 -0.382690 -0.923877 0.092900 -0.680400 1 0 1.000000 
metcombinebridge
0 110.584808 -123.499489 -178.579498 -0.184906 -0.540418 -0.820827 0.103100 -0.681900 1 0 1.000000 
0 114.018906 -122.187492 -181.746902 -0.408182 -0.912659 0.020999 0.107300 -0.685600 1 0 1.000000 
0 114.018906 -126.666893 -177.267502 -0.184906 -0.540418 -0.820827 0.092900 -0.680400 1 0 1.000000 
metcombinebridge
0 210.667694 -49.949394 -5.684200 -0.159207 -0.000000 -0.987245 0.339500 -0.480100 1 0 1.000000 
0 210.667694 -52.351292 -5.684200 -0.207493 -0.018099 -0.978069 0.331800 -0.480100 1 0 1.000000 
0 208.752304 -49.518791 -5.375300 -0.116700 -0.018100 -0.993002 0.340900 -0.479700 1 0 1.000000 
metcombinebridge
0 210.667694 -49.949394 -5.684200 -0.159207 -0.000000 -0.987245 0.339500 -0.480100 1 0 1.000000 
0 212.583099 -49.518791 -5.993000 -0.157395 0.071198 -0.984966 0.340900 -0.480400 1 0 1.000000 
0 210.667694 -52.351292 -5.684200 -0.207493 -0.018099 -0.978069 0.331800 -0.480100 1 0 1.000000 
metcombinebridge
0 210.667694 -49.949394 -5.684200 -0.159207 -0.000000 -0.987245 0.339500 -0.480100 1 0 1.000000 
0 208.752304 -49.518791 -5.375300 -0.116700 -0.018100 -0.993002 0.340900 -0.479700 1 0 1.000000 
0 212.583099 -49.518791 -5.993000 -0.157395 0.071198 -0.984966 0.340900 -0.480400 1 0 1.000000 
metcombinebridge
0 110.584808 -126.666893 -177.267502 -0.036800 0.777905 -0.627304 0.092900 -0.680400 1 0 1.000000 
0 114.018906 -129.834305 -178.579498 -0.140702 0.670211 -0.728711 0.082700 -0.681900 1 0 1.000000 
0 110.584808 -129.834305 -178.579498 -0.073600 -0.991401 -0.108200 0.082700 -0.681900 1 0 1.000000 
metcombinebridge
0 110.584808 -126.666893 -177.267502 -0.036800 0.777905 -0.627304 0.092900 -0.680400 1 0 1.000000 
0 114.018906 -126.666893 -177.267502 -0.000000 0.382690 -0.923877 0.092900 -0.680400 1 0 1.000000 
0 114.018906 -129.834305 -178.579498 -0.140702 0.670211 -0.728711 0.082700 -0.681900 1 0 1.000000 
metcombinebridge
0 134.622894 -132.559998 -181.746902 0.000000 -0.923877 0.382690 0.074000 -0.685600 1 0 1.000000 
0 110.584808 -129.834305 -178.579498 -0.073600 -0.991401 -0.108200 0.082700 -0.681900 1 0 1.000000 
0 110.584808 -131.146301 -181.746902 -0.322111 0.732925 0.599220 0.078500 -0.685600 1 0 1.000000 
metcombinebridge
0 134.622894 -132.559998 -181.746902 0.000000 -0.923877 0.382690 0.074000 -0.685600 1 0 1.000000 
0 134.622894 -130.833893 -177.579895 0.000000 -0.923877 0.382690 0.079500 -0.680800 1 0 1.000000 
0 110.584808 -129.834305 -178.579498 -0.073600 -0.991401 -0.108200 0.082700 -0.681900 1 0 1.000000 
metcombinebridge
0 110.584808 -131.146301 -181.746902 -0.322111 0.732925 0.599220 0.078500 -0.685600 1 0 1.000000 
0 114.018906 -129.834305 -184.914307 -0.299099 0.778497 0.551798 0.082700 -0.689300 1 0 1.000000 
0 110.584808 -129.834305 -184.914307 -0.073600 0.108200 -0.991401 0.082700 -0.689300 1 0 1.000000 
metcombinebridge
0 110.584808 -131.146301 -181.746902 -0.322111 0.732925 0.599220 0.078500 -0.685600 1 0 1.000000 
0 114.018906 -129.834305 -178.579498 -0.140702 0.670211 -0.728711 0.082700 -0.681900 1 0 1.000000 
0 114.018906 -129.834305 -184.914307 -0.299099 0.778497 0.551798 0.082700 -0.689300 1 0 1.000000 
metcombinebridge
0 134.622894 -126.666893 -187.639999 0.000000 -0.382690 -0.923877 0.092900 -0.692500 1 0 1.000000 
0 110.584808 -129.834305 -184.914307 -0.073600 0.108200 -0.991401 0.082700 -0.689300 1 0 1.000000 
0 110.584808 -126.666893 -186.226303 -0.554167 -0.354479 0.753155 0.092900 -0.690900 1 0 1.000000 
metcombinebridge
0 134.622894 -126.666893 -187.639999 0.000000 -0.382690 -0.923877 0.092900 -0.692500 1 0 1.000000 
0 134.622894 -130.833893 -185.913895 0.000000 -0.382690 -0.923877 0.079500 -0.690500 1 0 1.000000 
0 110.584808 -129.834305 -184.914307 -0.073600 0.108200 -0.991401 0.082700 -0.689300 1 0 1.000000 
metcombinebridge
0 110.584808 -126.666893 -186.226303 -0.554167 -0.354479 0.753155 0.092900 -0.690900 1 0 1.000000 
0 114.018906 -123.499489 -184.914307 -0.327702 -0.035700 0.944106 0.103100 -0.689300 1 0 1.000000 
0 110.584808 -122.499893 -185.913895 -0.164498 0.980985 0.102998 0.106300 -0.690500 1 0 1.000000 
metcombinebridge
0 110.584808 -126.666893 -186.226303 -0.554167 -0.354479 0.753155 0.092900 -0.690900 1 0 1.000000 
0 114.018906 -129.834305 -184.914307 -0.299099 0.778497 0.551798 0.082700 -0.689300 1 0 1.000000 
0 114.018906 -123.499489 -184.914307 -0.327702 -0.035700 0.944106 0.103100 -0.689300 1 0 1.000000 
metcombinebridge
0 134.622894 -120.773895 -181.746902 -0.000000 0.923877 -0.382690 0.111900 -0.685600 1 0 1.000000 
0 110.584808 -122.499893 -185.913895 -0.164498 0.980985 0.102998 0.106300 -0.690500 1 0 1.000000 
0 110.584808 -120.773895 -181.746902 -0.278997 0.187598 -0.941790 0.111900 -0.685600 1 0 1.000000 
metcombinebridge
0 134.622894 -120.773895 -181.746902 -0.000000 0.923877 -0.382690 0.111900 -0.685600 1 0 1.000000 
0 134.622894 -122.499893 -185.913895 -0.000000 0.923877 -0.382690 0.106300 -0.690500 1 0 1.000000 
0 110.584808 -122.499893 -185.913895 -0.164498 0.980985 0.102998 0.106300 -0.690500 1 0 1.000000 
metcombinebridge
0 110.584808 -120.773895 -181.746902 -0.278997 0.187598 -0.941790 0.111900 -0.685600 1 0 1.000000 
0 114.018906 -122.187492 -181.746902 -0.297886 -0.723565 -0.622670 0.107300 -0.685600 1 0 1.000000 
0 110.584808 -123.499489 -178.579498 -0.315291 0.031499 0.948472 0.103100 -0.681900 1 0 1.000000 
metcombinebridge
0 134.622894 -126.666893 -175.853806 -0.000000 0.382690 0.923877 0.092900 -0.678800 1 0 1.000000 
0 110.584808 -123.499489 -178.579498 -0.315291 0.031499 0.948472 0.103100 -0.681900 1 0 1.000000 
0 110.584808 -126.666893 -177.267502 -0.036800 0.777905 -0.627304 0.092900 -0.680400 1 0 1.000000 
metcombinebridge
0 134.622894 -126.666893 -175.853806 -0.000000 0.382690 0.923877 0.092900 -0.678800 1 0 1.000000 
0 134.622894 -122.499893 -177.579895 -0.000000 0.382690 0.923877 0.106300 -0.680800 1 0 1.000000 
0 110.584808 -123.499489 -178.579498 -0.315291 0.031499 0.948472 0.103100 -0.681900 1 0 1.000000 
metcombinebridge
0 209.312302 -51.128593 -18.917999 0.944784 0.000000 -0.327694 0.335700 -0.495500 1 0 1.000000 
0 208.577698 -51.128593 -21.036301 0.944784 0.000000 -0.327694 0.335700 -0.498000 1 0 1.000000 
0 209.312302 -49.797394 -18.917999 0.944784 0.000000 -0.327694 0.340000 -0.495500 1 0 1.000000 
metcombinebridge
0 134.622894 -130.833893 -177.579895 0.000000 -0.382690 0.923877 0.079500 -0.680800 1 0 1.000000 
0 110.584808 -126.666893 -177.267502 -0.054301 -0.382109 0.922521 0.092900 -0.680400 1 0 1.000000 
0 110.584808 -129.834305 -178.579498 -0.054301 -0.382109 0.922521 0.082700 -0.681900 1 0 1.000000 
metcombinebridge
0 134.622894 -130.833893 -177.579895 0.000000 -0.382690 0.923877 0.079500 -0.680800 1 0 1.000000 
0 134.622894 -126.666893 -175.853806 0.000000 -0.382690 0.923877 0.092900 -0.678800 1 0 1.000000 
0 110.584808 -126.666893 -177.267502 -0.054301 -0.382109 0.922521 0.092900 -0.680400 1 0 1.000000 
metcombinebridge
0 15.933603 -58.796200 99.632698 -1.000000 -0.000000 0.000000 0.311000 -0.357100 1 0 1.000000 
0 15.933594 155.580093 104.623299 -1.000000 -0.000000 0.000000 1.000000 -0.351300 1 0 1.000000 
0 15.933594 155.580093 99.632698 -1.000000 -0.000000 0.000000 1.000000 -0.357100 1 0 1.000000 
metcombinebridge
0 15.933603 -58.796200 99.632698 -1.000000 -0.000000 0.000000 0.311000 -0.357100 1 0 1.000000 
0 15.933603 -58.796200 104.623299 -1.000000 -0.000000 0.000000 0.311000 -0.351300 1 0 1.000000 
0 15.933594 155.580093 104.623299 -1.000000 -0.000000 0.000000 1.000000 -0.351300 1 0 1.000000 
metcombinebridge
0 15.933603 -58.796200 99.632698 0.000000 -1.000000 0.000000 0.311000 -0.357100 1 0 1.000000 
0 29.113003 -58.796200 104.623299 0.000000 -1.000000 0.000000 0.311000 -0.351300 1 0 1.000000 
0 15.933603 -58.796200 104.623299 0.000000 -1.000000 0.000000 0.311000 -0.351300 1 0 1.000000 
metcombinebridge
0 15.933603 -58.796200 99.632698 0.000000 -1.000000 0.000000 0.311000 -0.357100 1 0 1.000000 
0 29.113003 -58.796200 99.632698 0.000000 -1.000000 0.000000 0.311000 -0.357100 1 0 1.000000 
0 29.113003 -58.796200 104.623299 0.000000 -1.000000 0.000000 0.311000 -0.351300 1 0 1.000000 
metcombinebridge
0 134.622894 -122.499893 -177.579895 -0.029700 0.851389 0.523693 0.106300 -0.680800 1 0 1.000000 
0 110.584808 -120.773895 -181.746902 -0.029700 0.851389 0.523693 0.111900 -0.685600 1 0 1.000000 
0 110.584808 -123.499489 -178.579498 -0.058502 0.756719 0.651117 0.103100 -0.681900 1 0 1.000000 
metcombinebridge
0 134.622894 -122.499893 -177.579895 -0.029700 0.851389 0.523693 0.106300 -0.680800 1 0 1.000000 
0 134.622894 -120.773895 -181.746902 -0.000000 0.923877 0.382690 0.111900 -0.685600 1 0 1.000000 
0 110.584808 -120.773895 -181.746902 -0.029700 0.851389 0.523693 0.111900 -0.685600 1 0 1.000000 
metcombinebridge
0 97.943008 -142.626694 -188.986404 0.068899 0.753094 0.654295 0.041600 -0.694100 1 0 1.000000 
0 99.851204 -140.311203 -189.160004 -0.307088 -0.320288 0.896165 0.049100 -0.694300 1 0 1.000000 
0 97.943008 -137.995697 -188.986404 -0.349515 -0.558825 0.752033 0.056500 -0.694100 1 0 1.000000 
metcombinebridge
0 97.943008 -137.995697 -188.986404 -0.349515 -0.558825 0.752033 0.056500 -0.694100 1 0 1.000000 
0 99.851204 -140.311203 -189.160004 -0.307088 -0.320288 0.896165 0.049100 -0.694300 1 0 1.000000 
0 99.851204 -137.822098 -186.670898 -0.709593 -0.694593 0.118399 0.057100 -0.691400 1 0 1.000000 
metcombinebridge
0 97.943008 -137.995697 -188.986404 -0.349515 -0.558825 0.752033 0.056500 -0.694100 1 0 1.000000 
0 99.851204 -137.822098 -186.670898 -0.709593 -0.694593 0.118399 0.057100 -0.691400 1 0 1.000000 
0 97.943008 -137.036606 -186.670898 -0.355507 -0.863516 0.357707 0.059600 -0.691400 1 0 1.000000 
metcombinebridge
0 97.943008 -140.311203 -183.396301 -0.735722 -0.259208 -0.625719 0.049100 -0.687600 1 0 1.000000 
0 99.851204 -137.822098 -186.670898 -0.709593 -0.694593 0.118399 0.057100 -0.691400 1 0 1.000000 
0 99.851204 -142.071304 -184.910797 -0.571797 0.568697 -0.591297 0.043400 -0.689300 1 0 1.000000 
metcombinebridge
0 97.943008 -142.071304 -184.910797 -0.000000 0.990845 -0.135006 0.043400 -0.689300 1 0 1.000000 
0 99.851204 -142.071304 -184.910797 -0.571797 0.568697 -0.591297 0.043400 -0.689300 1 0 1.000000 
0 97.943008 -142.626694 -188.986404 0.068899 0.753094 0.654295 0.041600 -0.694100 1 0 1.000000 
metcombinebridge
0 111.300308 -140.311203 -189.945496 1.000000 0.000000 0.000000 0.049100 -0.695200 1 0 1.000000 
0 111.300308 -142.327103 -186.670898 1.000000 0.000000 0.000000 0.042600 -0.691400 1 0 1.000000 
0 111.300308 -143.585800 -186.670898 1.000000 0.000000 0.000000 0.038500 -0.691400 1 0 1.000000 
metcombinebridge
0 111.300308 -143.585800 -186.670898 1.000000 0.000000 0.000000 0.038500 -0.691400 1 0 1.000000 
0 111.300308 -142.327103 -186.670898 1.000000 0.000000 0.000000 0.042600 -0.691400 1 0 1.000000 
0 111.300308 -140.311203 -184.654999 1.000000 0.000000 0.000000 0.049100 -0.689000 1 0 1.000000 
metcombinebridge
0 111.300308 -143.585800 -186.670898 1.000000 0.000000 0.000000 0.038500 -0.691400 1 0 1.000000 
0 111.300308 -140.311203 -184.654999 1.000000 0.000000 0.000000 0.049100 -0.689000 1 0 1.000000 
0 111.300308 -140.311203 -183.396301 1.000000 0.000000 0.000000 0.049100 -0.687600 1 0 1.000000 
metcombinebridge
0 111.300308 -140.311203 -183.396301 1.000000 0.000000 0.000000 0.049100 -0.687600 1 0 1.000000 
0 111.300308 -140.311203 -184.654999 1.000000 0.000000 0.000000 0.049100 -0.689000 1 0 1.000000 
0 111.300308 -138.295303 -186.670898 1.000000 0.000000 0.000000 0.055500 -0.691400 1 0 1.000000 
metcombinebridge
0 111.300308 -140.311203 -183.396301 1.000000 0.000000 0.000000 0.049100 -0.687600 1 0 1.000000 
0 111.300308 -138.295303 -186.670898 1.000000 0.000000 0.000000 0.055500 -0.691400 1 0 1.000000 
0 111.300308 -137.036606 -186.670898 1.000000 0.000000 0.000000 0.059600 -0.691400 1 0 1.000000 
metcombinebridge
0 111.300308 -137.036606 -186.670898 1.000000 0.000000 0.000000 0.059600 -0.691400 1 0 1.000000 
0 111.300308 -138.295303 -186.670898 1.000000 0.000000 0.000000 0.055500 -0.691400 1 0 1.000000 
0 111.300308 -140.311203 -188.686798 1.000000 0.000000 0.000000 0.049100 -0.693700 1 0 1.000000 
metcombinebridge
0 111.300308 -137.036606 -186.670898 1.000000 0.000000 0.000000 0.059600 -0.691400 1 0 1.000000 
0 111.300308 -140.311203 -188.686798 1.000000 0.000000 0.000000 0.049100 -0.693700 1 0 1.000000 
0 111.300308 -140.311203 -189.945496 1.000000 0.000000 0.000000 0.049100 -0.695200 1 0 1.000000 
metcombinebridge
0 111.300308 -140.311203 -189.945496 1.000000 0.000000 0.000000 0.049100 -0.695200 1 0 1.000000 
0 111.300308 -140.311203 -188.686798 1.000000 0.000000 0.000000 0.049100 -0.693700 1 0 1.000000 
0 111.300308 -142.327103 -186.670898 1.000000 0.000000 0.000000 0.042600 -0.691400 1 0 1.000000 
metcombinebridge
0 246.590698 -136.888290 32.626701 1.000000 0.000000 0.000000 0.060100 -0.435400 1 0 1.000000 
0 246.590698 -64.655495 38.426899 1.000000 0.000000 0.000000 0.292200 -0.428600 1 0 1.000000 
0 246.590698 -136.888290 38.426899 1.000000 0.000000 0.000000 0.060100 -0.428600 1 0 1.000000 
metcombinebridge
0 246.590698 -136.888290 32.626701 1.000000 0.000000 0.000000 0.060100 -0.435400 1 0 1.000000 
0 246.590698 -64.655495 32.626701 1.000000 0.000000 0.000000 0.292200 -0.435400 1 0 1.000000 
0 246.590698 -64.655495 38.426899 1.000000 0.000000 0.000000 0.292200 -0.428600 1 0 1.000000 
metcombinebridge
0 212.583099 -49.518791 -5.993000 0.728776 0.519083 0.446585 0.340900 -0.480400 1 0 1.000000 
0 206.945908 -49.518791 3.206100 0.144598 0.958885 0.244196 0.340900 -0.469700 1 0 1.000000 
0 210.667694 -52.351292 -5.684200 0.044598 -0.993948 -0.100395 0.331800 -0.480100 1 0 1.000000 
metcombinebridge
0 208.752304 -49.518791 -5.375300 -0.656786 0.673685 -0.338793 0.340900 -0.479700 1 0 1.000000 
0 206.945908 -49.518791 3.206100 0.144598 0.958885 0.244196 0.340900 -0.469700 1 0 1.000000 
0 212.583099 -49.518791 -5.993000 0.728776 0.519083 0.446585 0.340900 -0.480400 1 0 1.000000 
metcombinebridge
0 208.752304 -49.518791 -5.375300 -0.656786 0.673685 -0.338793 0.340900 -0.479700 1 0 1.000000 
0 204.433807 -51.407192 1.671900 -0.851491 0.270197 -0.449395 0.334800 -0.471500 1 0 1.000000 
0 206.945908 -49.518791 3.206100 0.144598 0.958885 0.244196 0.340900 -0.469700 1 0 1.000000 
metcombinebridge
0 210.667694 -52.351292 -5.684200 0.044598 -0.993948 -0.100395 0.331800 -0.480100 1 0 1.000000 
0 204.433807 -51.407192 1.671900 -0.851491 0.270197 -0.449395 0.334800 -0.471500 1 0 1.000000 
0 208.752304 -49.518791 -5.375300 -0.656786 0.673685 -0.338793 0.340900 -0.479700 1 0 1.000000 
metcombinebridge
0 -246.590698 -71.582611 166.797699 -0.990081 -0.000000 0.140497 0.269900 -0.278700 1 0 1.000000 
0 -241.705505 -68.781006 201.213104 -0.990081 -0.000000 0.140497 0.279000 -0.238500 1 0 1.000000 
0 -246.590698 -68.781006 166.797699 -0.990081 -0.000000 0.140497 0.279000 -0.278700 1 0 1.000000 
metcombinebridge
0 203.868103 -75.496490 9.838200 0.000000 0.000000 -1.000000 0.257400 -0.462000 1 0 1.000000 
0 209.078003 -21.289190 9.838200 0.000000 0.000000 -1.000000 0.431600 -0.462000 1 0 1.000000 
0 209.078003 -75.496490 12.751800 0.962974 -0.092597 0.253193 0.257400 -0.458600 1 0 1.000000 
metcombinebridge
0 203.868103 -75.496490 9.838200 0.000000 0.000000 -1.000000 0.257400 -0.462000 1 0 1.000000 
0 203.868103 -21.289190 12.751800 -0.962974 0.092597 0.253193 0.431600 -0.458600 1 0 1.000000 
0 209.078003 -21.289190 9.838200 0.000000 0.000000 -1.000000 0.431600 -0.462000 1 0 1.000000 
metcombinebridge
0 -81.666702 -56.593105 128.559097 0.000000 0.000000 1.000000 0.189800 -0.352500 1 0 1.000000 
0 -76.456902 8.350096 128.559097 0.000000 0.000000 1.000000 0.324700 -0.363300 1 0 1.000000 
0 -81.666702 8.350096 128.559097 -0.964392 0.077399 0.252898 0.324700 -0.352500 1 0 1.000000 
metcombinebridge
0 -81.666702 -56.593105 128.559097 0.000000 0.000000 1.000000 0.189800 -0.352500 1 0 1.000000 
0 -76.456902 -56.593105 128.559097 0.964392 -0.077399 0.252898 0.189800 -0.363300 1 0 1.000000 
0 -76.456902 8.350096 128.559097 0.000000 0.000000 1.000000 0.324700 -0.363300 1 0 1.000000 
metcombinebridge
0 -81.666702 -56.593105 125.645500 0.000000 0.000000 -1.000000 0.318100 -0.326800 1 0 1.000000 
0 -76.456902 8.350096 125.645500 0.000000 0.000000 -1.000000 0.526800 -0.326800 1 0 1.000000 
0 -76.456902 -56.593105 128.559097 0.964392 -0.077399 0.252898 0.318100 -0.323400 1 0 1.000000 
metcombinebridge
0 -81.666702 -56.593105 125.645500 0.000000 0.000000 -1.000000 0.318100 -0.326800 1 0 1.000000 
0 -81.666702 8.350096 128.559097 -0.964392 0.077399 0.252898 0.526800 -0.323400 1 0 1.000000 
0 -76.456902 8.350096 125.645500 0.000000 0.000000 -1.000000 0.526800 -0.326800 1 0 1.000000 
metcombinebridge
0 211.912003 -155.580078 -1.221900 1.000000 0.000000 0.000000 0.000000 -0.474900 1 0 1.000000 
0 211.912003 -45.963692 18.453199 1.000000 0.000000 0.000000 0.352300 -0.451900 1 0 1.000000 
0 211.912003 -155.580078 18.453199 1.000000 0.000000 0.000000 0.000000 -0.451900 1 0 1.000000 
metcombinebridge
0 211.912003 -155.580078 -1.221900 1.000000 0.000000 0.000000 0.000000 -0.474900 1 0 1.000000 
0 211.912003 -45.963692 -1.221900 1.000000 0.000000 0.000000 0.352300 -0.474900 1 0 1.000000 
0 211.912003 -45.963692 18.453199 1.000000 0.000000 0.000000 0.352300 -0.451900 1 0 1.000000 
metcombinebridge
0 -224.519699 -107.885605 81.066399 -0.994387 -0.000000 -0.105799 0.153300 -0.378800 1 0 1.000000 
0 -234.029694 -93.658211 170.417007 -0.994387 -0.000000 -0.105799 0.199000 -0.274500 1 0 1.000000 
0 -224.519699 -93.658211 81.066399 -0.994387 -0.000000 -0.105799 0.199000 -0.378800 1 0 1.000000 
metcombinebridge
0 -224.519699 -107.885605 81.066399 -0.994387 -0.000000 -0.105799 0.153300 -0.378800 1 0 1.000000 
0 -234.029694 -107.885605 170.417007 -0.994387 -0.000000 -0.105799 0.153300 -0.274500 1 0 1.000000 
0 -234.029694 -93.658211 170.417007 -0.994387 -0.000000 -0.105799 0.199000 -0.274500 1 0 1.000000 
metcombinebridge
0 210.528198 -146.374786 -199.744598 -0.041400 -0.900299 -0.433299 1.000000 -0.358200 1 0 1.000000 
0 145.416397 -146.374802 -187.123993 0.000000 -1.000000 0.000000 0.808300 -0.321700 1 0 1.000000 
0 145.416397 -146.374802 -192.210999 -0.102801 -0.447203 -0.888505 0.808300 -0.336400 1 0 1.000000 
metcombinebridge
0 210.528198 -146.374786 -199.744598 -0.041400 -0.900299 -0.433299 1.000000 -0.358200 1 0 1.000000 
0 210.528198 -146.374786 -187.123993 0.000000 -1.000000 0.000000 1.000000 -0.321700 1 0 1.000000 
0 145.416397 -146.374802 -187.123993 0.000000 -1.000000 0.000000 0.808300 -0.321700 1 0 1.000000 
metcombinebridge
0 145.416397 -121.278290 -192.210999 -0.000000 1.000000 0.000000 0.619700 -0.322100 1 0 1.000000 
0 210.528198 -121.278290 -187.123993 -0.000000 1.000000 0.000000 0.619700 -0.996200 1 0 1.000000 
0 210.528198 -121.278290 -199.744598 -0.000000 1.000000 0.000000 0.619700 -0.999600 1 0 1.000000 
metcombinebridge
0 145.416397 -121.278290 -192.210999 -0.000000 1.000000 0.000000 0.619700 -0.322100 1 0 1.000000 
0 145.416397 -121.278290 -187.123993 -0.000000 1.000000 0.000000 0.619700 -0.320800 1 0 1.000000 
0 210.528198 -121.278290 -187.123993 -0.000000 1.000000 0.000000 0.619700 -0.996200 1 0 1.000000 
metcombinebridge
0 15.933603 -58.796200 99.632698 0.000000 0.000000 -1.000000 0.185300 -0.555900 1 0 1.000000 
0 29.112993 155.580093 99.632698 0.000000 0.000000 -1.000000 0.630400 -0.583300 1 0 1.000000 
0 29.113003 -58.796200 99.632698 0.000000 0.000000 -1.000000 0.185300 -0.583300 1 0 1.000000 
metcombinebridge
0 15.933603 -58.796200 99.632698 0.000000 0.000000 -1.000000 0.185300 -0.555900 1 0 1.000000 
0 15.933594 155.580093 99.632698 0.000000 0.000000 -1.000000 0.630400 -0.555900 1 0 1.000000 
0 29.112993 155.580093 99.632698 0.000000 0.000000 -1.000000 0.630400 -0.583300 1 0 1.000000 
metcombinebridge
0 15.933603 -58.796200 104.623299 0.000000 0.000000 1.000000 0.185300 -0.555800 1 0 1.000000 
0 29.112993 155.580093 104.623299 0.000000 0.000000 1.000000 0.630400 -0.583200 1 0 1.000000 
0 15.933594 155.580093 104.623299 0.000000 0.000000 1.000000 0.630400 -0.555800 1 0 1.000000 
metcombinebridge
0 15.933603 -58.796200 104.623299 0.000000 0.000000 1.000000 0.185300 -0.555800 1 0 1.000000 
0 29.113003 -58.796200 104.623299 0.000000 0.000000 1.000000 0.185300 -0.583200 1 0 1.000000 
0 29.112993 155.580093 104.623299 0.000000 0.000000 1.000000 0.630400 -0.583200 1 0 1.000000 
metcombinebridge
0 190.089706 -141.710785 -168.088593 -1.000000 -0.000000 0.000000 0.044600 -0.669700 1 0 1.000000 
0 190.089706 -125.942291 8.125700 -1.000000 -0.000000 0.000000 0.095200 -0.464000 1 0 1.000000 
0 190.089706 -125.942291 -168.088593 -1.000000 -0.000000 0.000000 0.095200 -0.669700 1 0 1.000000 
metcombinebridge
0 190.089706 -141.710785 -168.088593 -1.000000 -0.000000 0.000000 0.044600 -0.669700 1 0 1.000000 
0 190.089706 -141.710785 8.125700 -1.000000 -0.000000 0.000000 0.044600 -0.464000 1 0 1.000000 
0 190.089706 -125.942291 8.125700 -1.000000 -0.000000 0.000000 0.095200 -0.464000 1 0 1.000000 
metcombinebridge
0 194.094696 -141.710785 -168.088593 1.000000 0.000000 0.000000 0.044600 -0.669700 1 0 1.000000 
0 194.094696 -125.942291 8.125700 1.000000 0.000000 0.000000 0.095200 -0.464000 1 0 1.000000 
0 194.094696 -141.710785 8.125700 1.000000 0.000000 0.000000 0.044600 -0.464000 1 0 1.000000 
metcombinebridge
0 194.094696 -141.710785 -168.088593 1.000000 0.000000 0.000000 0.044600 -0.669700 1 0 1.000000 
0 194.094696 -125.942291 -168.088593 1.000000 0.000000 0.000000 0.095200 -0.669700 1 0 1.000000 
0 194.094696 -125.942291 8.125700 1.000000 0.000000 0.000000 0.095200 -0.464000 1 0 1.000000 
metcombinebridge
0 134.622894 -122.499893 -185.913895 -0.027499 0.231393 -0.972471 0.106300 -0.690500 1 0 1.000000 
0 110.584808 -126.666893 -186.226303 -0.027499 0.231393 -0.972471 0.092900 -0.690900 1 0 1.000000 
0 110.584808 -122.499893 -185.913895 -0.000000 0.074800 -0.997198 0.106300 -0.690500 1 0 1.000000 
metcombinebridge
0 134.622894 -122.499893 -185.913895 -0.027499 0.231393 -0.972471 0.106300 -0.690500 1 0 1.000000 
0 134.622894 -126.666893 -187.639999 -0.000000 0.382690 -0.923877 0.092900 -0.692500 1 0 1.000000 
0 110.584808 -126.666893 -186.226303 -0.027499 0.231393 -0.972471 0.092900 -0.690900 1 0 1.000000 
metcombinebridge
0 -102.737091 -155.580093 91.072800 0.000000 -1.000000 0.000000 0.708300 -0.531600 1 0 1.000000 
0 25.197308 -155.580093 135.353394 0.000000 -1.000000 0.000000 0.448900 -0.441800 1 0 1.000000 
0 -95.217995 -155.580093 135.353302 0.000000 -1.000000 0.000000 0.693100 -0.441800 1 0 1.000000 
metcombinebridge
0 -102.737091 -155.580093 91.072800 0.000000 -1.000000 0.000000 0.708300 -0.531600 1 0 1.000000 
0 25.197308 -155.580093 91.072800 0.000000 -1.000000 0.000000 0.448900 -0.531600 1 0 1.000000 
0 25.197308 -155.580093 135.353394 0.000000 -1.000000 0.000000 0.448900 -0.441800 1 0 1.000000 
metcombinebridge
0 25.197308 -155.580093 91.072800 0.000000 -1.000000 0.000000 0.448900 -0.531600 1 0 1.000000 
0 168.188004 -155.580093 18.453100 0.000000 -1.000000 0.000000 0.159000 -0.678800 1 0 1.000000 
0 25.197308 -155.580093 135.353394 0.000000 -1.000000 0.000000 0.448900 -0.441800 1 0 1.000000 
metcombinebridge
0 25.197308 -155.580093 91.072800 0.000000 -1.000000 0.000000 0.448900 -0.531600 1 0 1.000000 
0 168.188004 -155.580093 -1.221900 0.000000 -1.000000 0.000000 0.159000 -0.718700 1 0 1.000000 
0 168.188004 -155.580093 18.453100 0.000000 -1.000000 0.000000 0.159000 -0.678800 1 0 1.000000 
metcombinebridge
0 168.188004 -155.580093 -1.221900 0.000000 -1.000000 0.000000 0.159000 -0.718700 1 0 1.000000 
0 211.912003 -155.580078 18.453199 0.000000 -1.000000 0.000000 0.070300 -0.678800 1 0 1.000000 
0 168.188004 -155.580093 18.453100 0.000000 -1.000000 0.000000 0.159000 -0.678800 1 0 1.000000 
metcombinebridge
0 168.188004 -155.580093 -1.221900 0.000000 -1.000000 0.000000 0.159000 -0.718700 1 0 1.000000 
0 211.912003 -155.580078 -1.221900 0.000000 -1.000000 0.000000 0.070300 -0.718700 1 0 1.000000 
0 211.912003 -155.580078 18.453199 0.000000 -1.000000 0.000000 0.070300 -0.678800 1 0 1.000000 
metcombinebridge
0 190.089706 -141.710785 -168.088593 0.000000 0.000000 -1.000000 0.044600 -0.669700 1 0 1.000000 
0 194.094696 -125.942291 -168.088593 0.000000 0.000000 -1.000000 0.095200 -0.669700 1 0 1.000000 
0 194.094696 -141.710785 -168.088593 0.000000 0.000000 -1.000000 0.044600 -0.669700 1 0 1.000000 
metcombinebridge
0 190.089706 -141.710785 -168.088593 0.000000 0.000000 -1.000000 0.044600 -0.669700 1 0 1.000000 
0 190.089706 -125.942291 -168.088593 0.000000 0.000000 -1.000000 0.095200 -0.669700 1 0 1.000000 
0 194.094696 -125.942291 -168.088593 0.000000 0.000000 -1.000000 0.095200 -0.669700 1 0 1.000000 
metcombinebridge
0 190.089706 -141.710785 -168.088593 0.000000 -1.000000 0.000000 0.044600 -0.669700 1 0 1.000000 
0 194.094696 -141.710785 8.125700 0.000000 -1.000000 0.000000 0.044600 -0.464000 1 0 1.000000 
0 190.089706 -141.710785 8.125700 0.000000 -1.000000 0.000000 0.044600 -0.464000 1 0 1.000000 
metcombinebridge
0 190.089706 -141.710785 -168.088593 0.000000 -1.000000 0.000000 0.044600 -0.669700 1 0 1.000000 
0 194.094696 -141.710785 -168.088593 0.000000 -1.000000 0.000000 0.044600 -0.669700 1 0 1.000000 
0 194.094696 -141.710785 8.125700 0.000000 -1.000000 0.000000 0.044600 -0.464000 1 0 1.000000 
metcombinebridge
0 190.089706 -125.942291 -168.088593 -0.000000 1.000000 0.000000 0.095200 -0.669700 1 0 1.000000 
0 194.094696 -125.942291 8.125700 -0.000000 1.000000 0.000000 0.095200 -0.464000 1 0 1.000000 
0 194.094696 -125.942291 -168.088593 -0.000000 1.000000 0.000000 0.095200 -0.669700 1 0 1.000000 
metcombinebridge
0 190.089706 -125.942291 -168.088593 -0.000000 1.000000 0.000000 0.095200 -0.669700 1 0 1.000000 
0 190.089706 -125.942291 8.125700 -0.000000 1.000000 0.000000 0.095200 -0.464000 1 0 1.000000 
0 194.094696 -125.942291 8.125700 -0.000000 1.000000 0.000000 0.095200 -0.464000 1 0 1.000000 
metcombinebridge
0 205.765305 -51.313793 -30.125799 0.576083 0.085797 -0.812876 0.335100 -0.508600 1 0 1.000000 
0 203.804001 -49.115391 -31.283701 0.173604 0.391808 -0.903520 0.342200 -0.510000 1 0 1.000000 
0 205.475601 -49.789192 -30.025400 0.635590 0.170397 -0.752988 0.340000 -0.508500 1 0 1.000000 
metcombinebridge
0 205.765305 -51.313793 -30.125799 0.576083 0.085797 -0.812876 0.335100 -0.508600 1 0 1.000000 
0 203.804001 -51.810493 -31.283701 0.032400 -0.778504 -0.626803 0.333500 -0.510000 1 0 1.000000 
0 203.804001 -49.115391 -31.283701 0.173604 0.391808 -0.903520 0.342200 -0.510000 1 0 1.000000 
metcombinebridge
0 204.373001 -48.761292 -29.643000 -0.873906 0.439203 0.208301 0.343300 -0.508100 1 0 1.000000 
0 203.804001 -49.115391 -31.283701 0.173604 0.391808 -0.903520 0.342200 -0.510000 1 0 1.000000 
0 203.270401 -51.136692 -29.260599 -0.921791 -0.292197 0.254798 0.335700 -0.507600 1 0 1.000000 
metcombinebridge
0 203.270401 -51.136692 -29.260599 -0.921791 -0.292197 0.254798 0.335700 -0.507600 1 0 1.000000 
0 203.804001 -51.810493 -31.283701 0.032400 -0.778504 -0.626803 0.333500 -0.510000 1 0 1.000000 
0 204.373001 -51.810493 -29.643000 -0.472412 -0.866022 0.163804 0.333500 -0.508100 1 0 1.000000 
metcombinebridge
0 207.567703 -51.128593 -23.948799 0.244508 -0.965932 -0.084803 0.335700 -0.501400 1 0 1.000000 
0 204.373001 -51.810493 -29.643000 -0.472412 -0.866022 0.163804 0.333500 -0.508100 1 0 1.000000 
0 204.064896 -50.196793 -29.124100 -0.000000 1.000000 0.000000 0.338700 -0.507500 1 0 1.000000 
metcombinebridge
0 207.567703 -51.128593 -23.948799 0.244508 -0.965932 -0.084803 0.335700 -0.501400 1 0 1.000000 
0 204.064896 -50.196793 -29.124100 -0.000000 1.000000 0.000000 0.338700 -0.507500 1 0 1.000000 
0 204.373001 -51.810493 -29.643000 -0.472412 -0.866022 0.163804 0.333500 -0.508100 1 0 1.000000 
metcombinebridge
0 207.567703 -51.128593 -23.948799 0.244508 -0.965932 -0.084803 0.335700 -0.501400 1 0 1.000000 
0 212.707306 -50.108994 -24.155899 0.191605 -0.979223 -0.066402 0.339000 -0.501700 1 0 1.000000 
0 208.577698 -51.128593 -21.036301 0.191605 -0.979223 -0.066402 0.335700 -0.498000 1 0 1.000000 
metcombinebridge
0 207.567703 -51.128593 -23.948799 0.472412 -0.866022 -0.163804 0.335700 -0.501400 1 0 1.000000 
0 204.064896 -50.196793 -29.124100 -0.000000 1.000000 0.000000 0.338700 -0.507500 1 0 1.000000 
0 206.042892 -50.196793 -23.420099 -0.870395 0.458897 0.178399 0.338700 -0.500800 1 0 1.000000 
metcombinebridge
0 206.042892 -50.196793 -23.420099 -0.870395 0.458897 0.178399 0.338700 -0.500800 1 0 1.000000 
0 204.064896 -50.196793 -29.124100 -0.000000 1.000000 0.000000 0.338700 -0.507500 1 0 1.000000 
0 207.567703 -51.128593 -23.948799 0.472412 -0.866022 -0.163804 0.335700 -0.501400 1 0 1.000000 
metcombinebridge
0 206.042892 -50.196793 -23.420099 -0.870395 0.458897 0.178399 0.338700 -0.500800 1 0 1.000000 
0 206.478500 -51.794193 -23.571199 -0.168901 -0.980709 0.098401 0.333500 -0.501000 1 0 1.000000 
0 207.445496 -50.938091 -18.270599 -0.807347 -0.461727 0.367421 0.336300 -0.494800 1 0 1.000000 
metcombinebridge
0 207.567703 -49.797394 -23.948799 0.104299 0.985491 -0.133899 0.340000 -0.501400 1 0 1.000000 
0 208.223099 -49.131794 -18.540300 -0.199696 0.967280 0.156497 0.342100 -0.495100 1 0 1.000000 
0 209.312302 -49.797394 -18.917999 0.979394 0.055100 0.194299 0.340000 -0.495500 1 0 1.000000 
metcombinebridge
0 207.567703 -49.797394 -23.948799 0.104299 0.985491 -0.133899 0.340000 -0.501400 1 0 1.000000 
0 206.042892 -50.196793 -23.420099 -0.870395 0.458897 0.178399 0.338700 -0.500800 1 0 1.000000 
0 208.223099 -49.131794 -18.540300 -0.199696 0.967280 0.156497 0.342100 -0.495100 1 0 1.000000 
metcombinebridge
0 206.042892 -50.196793 -23.420099 -0.870395 0.458897 0.178399 0.338700 -0.500800 1 0 1.000000 
0 207.445496 -50.938091 -18.270599 -0.807347 -0.461727 0.367421 0.336300 -0.494800 1 0 1.000000 
0 208.223099 -49.131794 -18.540300 -0.199696 0.967280 0.156497 0.342100 -0.495100 1 0 1.000000 
metcombinebridge
0 207.445496 -50.938091 -18.270599 -0.807347 -0.461727 0.367421 0.336300 -0.494800 1 0 1.000000 
0 208.457001 -50.206192 -16.507999 -0.531005 0.393603 0.750407 0.338600 -0.492700 1 0 1.000000 
0 208.223099 -49.131794 -18.540300 -0.199696 0.967280 0.156497 0.342100 -0.495100 1 0 1.000000 
metcombinebridge
0 207.445496 -50.938091 -18.270599 -0.807347 -0.461727 0.367421 0.336300 -0.494800 1 0 1.000000 
0 208.877197 -51.413292 -16.653700 -0.550579 -0.795269 0.253790 0.334800 -0.492900 1 0 1.000000 
0 208.457001 -50.206192 -16.507999 -0.531005 0.393603 0.750407 0.338600 -0.492700 1 0 1.000000 
metcombinebridge
0 209.312302 -51.128593 -18.917999 0.438308 -0.898816 -0.003900 0.335700 -0.495500 1 0 1.000000 
0 208.877197 -51.413292 -16.653700 -0.550579 -0.795269 0.253790 0.334800 -0.492900 1 0 1.000000 
0 207.445496 -50.938091 -18.270599 -0.807347 -0.461727 0.367421 0.336300 -0.494800 1 0 1.000000 
metcombinebridge
0 206.478500 -51.794193 -23.571199 -0.168901 -0.980709 0.098401 0.333500 -0.501000 1 0 1.000000 
0 209.312302 -51.128593 -18.917999 0.438308 -0.898816 -0.003900 0.335700 -0.495500 1 0 1.000000 
0 207.445496 -50.938091 -18.270599 -0.807347 -0.461727 0.367421 0.336300 -0.494800 1 0 1.000000 
metcombinebridge
0 206.478500 -51.794193 -23.571199 -0.168901 -0.980709 0.098401 0.333500 -0.501000 1 0 1.000000 
0 207.567703 -51.128593 -23.948799 0.472412 -0.866022 -0.163804 0.335700 -0.501400 1 0 1.000000 
0 209.312302 -51.128593 -18.917999 0.438308 -0.898816 -0.003900 0.335700 -0.495500 1 0 1.000000 
metcombinebridge
0 208.223099 -49.131794 -18.540300 -0.199696 0.967280 0.156497 0.342100 -0.495100 1 0 1.000000 
0 208.457001 -50.206192 -16.507999 -0.531005 0.393603 0.750407 0.338600 -0.492700 1 0 1.000000 
0 209.312302 -51.128593 -18.917999 0.438308 -0.898816 -0.003900 0.335700 -0.495500 1 0 1.000000 
metcombinebridge
0 208.577698 -51.128593 -21.036301 0.464990 -0.813283 0.349793 0.335700 -0.498000 1 0 1.000000 
0 212.707306 -50.108994 -24.155899 0.464990 -0.813283 0.349793 0.339000 -0.501700 1 0 1.000000 
0 209.312302 -49.797394 -18.917999 0.979394 0.055100 0.194299 0.340000 -0.495500 1 0 1.000000 
metcombinebridge
0 -14.924897 -71.582603 169.237900 0.861002 0.000000 0.508601 0.269900 -0.275900 1 0 1.000000 
0 -33.812298 -68.780998 201.213104 0.861002 0.000000 0.508601 0.279000 -0.238500 1 0 1.000000 
0 -33.812298 -71.582603 201.213104 0.861002 0.000000 0.508601 0.269900 -0.238500 1 0 1.000000 
metcombinebridge
0 15.933594 155.580093 99.632698 -0.000000 1.000000 0.000000 1.000000 -0.357100 1 0 1.000000 
0 29.112993 155.580093 104.623299 -0.000000 1.000000 0.000000 1.000000 -0.351300 1 0 1.000000 
0 29.112993 155.580093 99.632698 -0.000000 1.000000 0.000000 1.000000 -0.357100 1 0 1.000000 
metcombinebridge
0 15.933594 155.580093 99.632698 -0.000000 1.000000 0.000000 1.000000 -0.357100 1 0 1.000000 
0 15.933594 155.580093 104.623299 -0.000000 1.000000 0.000000 1.000000 -0.351300 1 0 1.000000 
0 29.112993 155.580093 104.623299 -0.000000 1.000000 0.000000 1.000000 -0.351300 1 0 1.000000 
metcombinebridge
0 29.113003 -58.796200 99.632698 1.000000 0.000000 0.000000 0.311000 -0.357100 1 0 1.000000 
0 29.112993 155.580093 104.623299 1.000000 0.000000 0.000000 1.000000 -0.351300 1 0 1.000000 
0 29.113003 -58.796200 104.623299 1.000000 0.000000 0.000000 0.311000 -0.351300 1 0 1.000000 
metcombinebridge
0 29.113003 -58.796200 99.632698 1.000000 0.000000 0.000000 0.311000 -0.357100 1 0 1.000000 
0 29.112993 155.580093 99.632698 1.000000 0.000000 0.000000 1.000000 -0.357100 1 0 1.000000 
0 29.112993 155.580093 104.623299 1.000000 0.000000 0.000000 1.000000 -0.351300 1 0 1.000000 
metcombinebridge
0 -10.430397 -66.278900 128.559097 0.000000 0.000000 1.000000 0.169700 -0.500400 1 0 1.000000 
0 -5.220600 -12.071600 128.559097 0.000000 0.000000 1.000000 0.282300 -0.511200 1 0 1.000000 
0 -10.430399 -12.071600 128.559097 -0.962974 0.092597 0.253193 0.282300 -0.500400 1 0 1.000000 
metcombinebridge
0 -10.430397 -66.278900 128.559097 0.000000 0.000000 1.000000 0.169700 -0.500400 1 0 1.000000 
0 -5.220597 -66.278900 128.559097 0.962974 -0.092597 0.253193 0.169700 -0.511200 1 0 1.000000 
0 -5.220600 -12.071600 128.559097 0.000000 0.000000 1.000000 0.282300 -0.511200 1 0 1.000000 
metcombinebridge
0 -10.430397 -66.278900 125.645500 0.000000 0.000000 -1.000000 0.287000 -0.326800 1 0 1.000000 
0 -5.220600 -12.071600 125.645500 0.000000 0.000000 -1.000000 0.461200 -0.326800 1 0 1.000000 
0 -5.220597 -66.278900 128.559097 0.962974 -0.092597 0.253193 0.287000 -0.323400 1 0 1.000000 
metcombinebridge
0 -10.430397 -66.278900 125.645500 0.000000 0.000000 -1.000000 0.287000 -0.326800 1 0 1.000000 
0 -10.430399 -12.071600 128.559097 -0.962974 0.092597 0.253193 0.461200 -0.323400 1 0 1.000000 
0 -5.220600 -12.071600 125.645500 0.000000 0.000000 -1.000000 0.461200 -0.326800 1 0 1.000000 
metcombinebridge
0 57.175903 -66.278900 92.482697 0.000000 0.000000 1.000000 0.169700 -0.641800 1 0 1.000000 
0 62.385700 -12.071597 92.482697 0.000000 0.000000 1.000000 0.282300 -0.652600 1 0 1.000000 
0 57.175900 -12.071597 92.482697 -0.962974 0.092597 0.253193 0.282300 -0.641800 1 0 1.000000 
metcombinebridge
0 57.175903 -66.278900 92.482697 0.000000 0.000000 1.000000 0.169700 -0.641800 1 0 1.000000 
0 62.385704 -66.278900 92.482697 0.962974 -0.092597 0.253193 0.169700 -0.652600 1 0 1.000000 
0 62.385700 -12.071597 92.482697 0.000000 0.000000 1.000000 0.282300 -0.652600 1 0 1.000000 
metcombinebridge
0 57.175903 -66.278900 89.569099 0.000000 0.000000 -1.000000 0.287000 -0.368900 1 0 1.000000 
0 62.385700 -12.071597 89.569099 0.000000 0.000000 -1.000000 0.461200 -0.368900 1 0 1.000000 
0 62.385704 -66.278900 92.482697 0.962974 -0.092597 0.253193 0.287000 -0.365500 1 0 1.000000 
metcombinebridge
0 57.175903 -66.278900 89.569099 0.000000 0.000000 -1.000000 0.287000 -0.368900 1 0 1.000000 
0 57.175900 -12.071597 92.482697 -0.962974 0.092597 0.253193 0.461200 -0.365500 1 0 1.000000 
0 62.385700 -12.071597 89.569099 0.000000 0.000000 -1.000000 0.461200 -0.368900 1 0 1.000000 
metcombinebridge
0 164.729996 -75.496490 12.751800 0.000000 0.000000 1.000000 0.150600 -0.867300 1 0 1.000000 
0 169.939804 -21.289192 12.751800 0.000000 0.000000 1.000000 0.263100 -0.878100 1 0 1.000000 
0 164.729996 -21.289192 12.751800 -0.962974 0.092597 0.253193 0.263100 -0.867300 1 0 1.000000 
metcombinebridge
0 164.729996 -75.496490 12.751800 0.000000 0.000000 1.000000 0.150600 -0.867300 1 0 1.000000 
0 169.939804 -75.496490 12.751800 0.962974 -0.092597 0.253193 0.150600 -0.878100 1 0 1.000000 
0 169.939804 -21.289192 12.751800 0.000000 0.000000 1.000000 0.263100 -0.878100 1 0 1.000000 
metcombinebridge
0 164.729996 -75.496490 9.838200 0.000000 0.000000 -1.000000 0.257400 -0.462000 1 0 1.000000 
0 169.939804 -21.289192 9.838200 0.000000 0.000000 -1.000000 0.431600 -0.462000 1 0 1.000000 
0 169.939804 -75.496490 12.751800 0.962974 -0.092597 0.253193 0.257400 -0.458600 1 0 1.000000 
metcombinebridge
0 164.729996 -75.496490 9.838200 0.000000 0.000000 -1.000000 0.257400 -0.462000 1 0 1.000000 
0 164.729996 -21.289192 12.751800 -0.962974 0.092597 0.253193 0.431600 -0.458600 1 0 1.000000 
0 169.939804 -21.289192 9.838200 0.000000 0.000000 -1.000000 0.431600 -0.462000 1 0 1.000000 
metcombinebridge
0 -183.136200 -70.878906 169.299301 0.000000 0.000000 1.000000 0.160200 -0.140700 1 0 1.000000 
0 -177.926300 50.222691 169.299301 0.000000 0.000000 1.000000 0.411600 -0.151500 1 0 1.000000 
0 -183.136200 50.222691 169.299301 -0.966726 0.041601 0.252407 0.411600 -0.140700 1 0 1.000000 
metcombinebridge
0 -183.136200 -70.878906 169.299301 0.000000 0.000000 1.000000 0.160200 -0.140700 1 0 1.000000 
0 -177.926300 -70.878906 169.299301 0.966726 -0.041601 0.252407 0.160200 -0.151600 1 0 1.000000 
0 -177.926300 50.222691 169.299301 0.000000 0.000000 1.000000 0.411600 -0.151500 1 0 1.000000 
metcombinebridge
0 -183.136200 -70.878906 166.385696 0.000000 0.000000 -1.000000 0.160200 -0.140800 1 0 1.000000 
0 -177.926300 50.222691 166.385696 0.000000 0.000000 -1.000000 0.411600 -0.151600 1 0 1.000000 
0 -177.926300 -70.878906 169.299301 0.966726 -0.041601 0.252407 0.160200 -0.151600 1 0 1.000000 
metcombinebridge
0 -183.136200 -70.878906 166.385696 0.000000 0.000000 -1.000000 0.160200 -0.140800 1 0 1.000000 
0 -183.136200 50.222691 169.299301 -0.966726 0.041601 0.252407 0.411600 -0.140700 1 0 1.000000 
0 -177.926300 50.222691 166.385696 0.000000 0.000000 -1.000000 0.411600 -0.151600 1 0 1.000000 
metcombinebridge
0 203.868103 -75.496490 12.751800 0.000000 0.000000 1.000000 0.150600 -0.948500 1 0 1.000000 
0 209.078003 -21.289190 12.751800 0.000000 0.000000 1.000000 0.263100 -0.959300 1 0 1.000000 
0 203.868103 -21.289190 12.751800 -0.962974 0.092597 0.253193 0.263100 -0.948500 1 0 1.000000 
metcombinebridge
0 203.868103 -75.496490 12.751800 0.000000 0.000000 1.000000 0.150600 -0.948500 1 0 1.000000 
0 209.078003 -75.496490 12.751800 0.962974 -0.092597 0.253193 0.150600 -0.959300 1 0 1.000000 
0 209.078003 -21.289190 12.751800 0.000000 0.000000 1.000000 0.263100 -0.959300 1 0 1.000000 
metcombinebridge
0 -240.116501 -136.888321 158.068802 -1.000000 -0.000000 0.000000 0.060100 -0.288900 1 0 1.000000 
0 -240.116501 -64.655510 171.122696 -1.000000 -0.000000 0.000000 0.292200 -0.273700 1 0 1.000000 
0 -240.116501 -64.655510 158.068802 -1.000000 -0.000000 0.000000 0.292200 -0.288900 1 0 1.000000 
metcombinebridge
0 -240.116501 -136.888321 158.068802 -1.000000 -0.000000 0.000000 0.060100 -0.288900 1 0 1.000000 
0 -240.116501 -136.888321 171.122696 -1.000000 -0.000000 0.000000 0.060100 -0.273700 1 0 1.000000 
0 -240.116501 -64.655510 171.122696 -1.000000 -0.000000 0.000000 0.292200 -0.273700 1 0 1.000000 
metcombinebridge
0 134.622894 -130.833893 -185.913895 0.000000 -0.923877 -0.382690 0.079500 -0.690500 1 0 1.000000 
0 110.584808 -131.146301 -181.746902 -0.054301 -0.922521 -0.382109 0.078500 -0.685600 1 0 1.000000 
0 110.584808 -129.834305 -184.914307 -0.054301 -0.922521 -0.382109 0.082700 -0.689300 1 0 1.000000 
metcombinebridge
0 134.622894 -130.833893 -185.913895 0.000000 -0.923877 -0.382690 0.079500 -0.690500 1 0 1.000000 
0 134.622894 -132.559998 -181.746902 0.000000 -0.923877 -0.382690 0.074000 -0.685600 1 0 1.000000 
0 110.584808 -131.146301 -181.746902 -0.054301 -0.922521 -0.382109 0.078500 -0.685600 1 0 1.000000 
metcombinebridge
0 145.416397 -146.374802 -192.210999 -0.098301 -0.518504 -0.849406 0.359300 -0.322100 1 0 1.000000 
0 210.528198 -121.278290 -199.744598 -0.114897 -0.000000 -0.993377 0.619700 -0.999600 1 0 1.000000 
0 210.528198 -146.374786 -199.744598 -0.041400 -0.900299 -0.433299 0.359300 -0.999600 1 0 1.000000 
metcombinebridge
0 145.416397 -146.374802 -192.210999 -0.098301 -0.518504 -0.849406 0.359300 -0.322100 1 0 1.000000 
0 145.416397 -121.278290 -192.210999 -0.134394 0.063997 -0.988859 0.619700 -0.322100 1 0 1.000000 
0 210.528198 -121.278290 -199.744598 -0.114897 -0.000000 -0.993377 0.619700 -0.999600 1 0 1.000000 
metcombinebridge
0 -246.590698 -71.582611 166.797699 0.000000 -1.000000 0.000000 1.000000 -0.378000 1 0 1.000000 
0 -33.812298 -71.582603 201.213104 0.000000 -1.000000 0.000000 0.568600 -0.308300 1 0 1.000000 
0 -241.705505 -68.781006 201.213104 -0.159500 0.042100 0.986300 0.990100 -0.308300 1 0 1.000000 
metcombinebridge
0 -246.590698 -71.582611 166.797699 0.000000 -1.000000 0.000000 1.000000 -0.378000 1 0 1.000000 
0 -14.924897 -71.582603 169.237900 0.159495 -0.040399 -0.986372 0.530300 -0.373100 1 0 1.000000 
0 -33.812298 -71.582603 201.213104 0.000000 -1.000000 0.000000 0.568600 -0.308300 1 0 1.000000 
metcombinebridge
0 -246.590698 -68.781006 166.797699 -0.000000 1.000000 0.000000 1.000000 -0.378000 1 0 1.000000 
0 -33.812298 -68.780998 201.213104 -0.000000 1.000000 0.000000 0.568600 -0.308300 1 0 1.000000 
0 -14.924897 -71.582603 169.237900 0.159495 -0.040399 -0.986372 0.530300 -0.373100 1 0 1.000000 
metcombinebridge
0 -246.590698 -68.781006 166.797699 -0.000000 1.000000 0.000000 1.000000 -0.378000 1 0 1.000000 
0 -241.705505 -68.781006 201.213104 -0.159500 0.042100 0.986300 0.990100 -0.308300 1 0 1.000000 
0 -33.812298 -68.780998 201.213104 -0.000000 1.000000 0.000000 0.568600 -0.308300 1 0 1.000000 
metcombinebridge
0 -102.737091 -155.580093 91.072800 -0.985889 -0.000000 0.167398 0.000000 -0.367100 1 0 1.000000 
0 -95.218002 -45.963703 135.353302 -0.985889 -0.000000 0.167398 0.352300 -0.315400 1 0 1.000000 
0 -102.737099 -45.963703 91.072800 -0.985889 -0.000000 0.167398 0.352300 -0.367100 1 0 1.000000 
metcombinebridge
0 -102.737091 -155.580093 91.072800 -0.985889 -0.000000 0.167398 0.000000 -0.367100 1 0 1.000000 
0 -95.217995 -155.580093 135.353302 -0.985889 -0.000000 0.167398 0.000000 -0.315400 1 0 1.000000 
0 -95.218002 -45.963703 135.353302 -0.985889 -0.000000 0.167398 0.352300 -0.315400 1 0 1.000000 
metcombinebridge
0 168.188004 -45.963692 -1.221900 0.000000 0.000000 -1.000000 0.608800 -0.863600 1 0 1.000000 
0 211.912003 -155.580078 -1.221900 0.000000 0.000000 -1.000000 0.391200 -0.948600 1 0 1.000000 
0 168.188004 -155.580093 -1.221900 0.000000 0.000000 -1.000000 0.391200 -0.863600 1 0 1.000000 
metcombinebridge
0 168.188004 -45.963692 -1.221900 0.000000 0.000000 -1.000000 0.608800 -0.863600 1 0 1.000000 
0 211.912003 -45.963692 -1.221900 0.000000 0.000000 -1.000000 0.608800 -0.948600 1 0 1.000000 
0 211.912003 -155.580078 -1.221900 0.000000 0.000000 -1.000000 0.391200 -0.948600 1 0 1.000000 
metcombinebridge
0 168.188004 -155.580093 18.453100 0.000000 0.000000 1.000000 0.391200 -0.855600 1 0 1.000000 
0 211.912003 -45.963692 18.453199 0.000000 0.000000 1.000000 0.608800 -0.940700 1 0 1.000000 
0 168.188004 -45.963692 18.453100 0.000000 0.000000 1.000000 0.608800 -0.855600 1 0 1.000000 
metcombinebridge
0 168.188004 -155.580093 18.453100 0.000000 0.000000 1.000000 0.391200 -0.855600 1 0 1.000000 
0 211.912003 -155.580078 18.453199 0.000000 0.000000 1.000000 0.391200 -0.940700 1 0 1.000000 
0 211.912003 -45.963692 18.453199 0.000000 0.000000 1.000000 0.608800 -0.940700 1 0 1.000000 
metcombinebridge
0 202.066803 -152.760681 -196.487900 0.052898 -0.877970 0.475784 0.293000 -0.910900 1 0 1.000000 
0 125.717209 -141.628403 -169.303101 0.031300 -0.654400 0.755500 0.408500 -0.111600 1 0 1.000000 
0 114.660011 -152.760696 -180.748596 0.111498 -0.777286 0.619189 0.293000 -0.000000 1 0 1.000000 
metcombinebridge
0 202.066803 -152.760681 -196.487900 0.052898 -0.877970 0.475784 0.293000 -0.910900 1 0 1.000000 
0 201.498505 -141.636581 -167.550598 -0.020700 -0.451393 0.892085 0.408400 -0.897200 1 0 1.000000 
0 125.717209 -141.628403 -169.303101 0.031300 -0.654400 0.755500 0.408500 -0.111600 1 0 1.000000 
metcombinebridge
0 125.929504 -126.103691 -168.883698 -0.023300 0.148799 0.988593 0.569600 -0.113700 1 0 1.000000 
0 125.717209 -141.628403 -169.303101 0.031300 -0.654400 0.755500 0.408500 -0.111600 1 0 1.000000 
0 201.498505 -141.636581 -167.550598 -0.020700 -0.451393 0.892085 0.408400 -0.897200 1 0 1.000000 
metcombinebridge
0 125.929504 -126.103691 -168.883698 -0.023300 0.148799 0.988593 0.569600 -0.113700 1 0 1.000000 
0 201.498505 -141.636581 -167.550598 -0.020700 -0.451393 0.892085 0.408400 -0.897200 1 0 1.000000 
0 201.498505 -124.682289 -167.550598 -0.013000 0.559812 0.828518 0.584400 -0.897200 1 0 1.000000 
metcombinebridge
0 201.498505 -124.682289 -167.550598 -0.013000 0.559812 0.828518 0.584400 -0.897200 1 0 1.000000 
0 124.740509 -122.583595 -171.233200 0.016500 0.767288 0.641090 0.606100 -0.102000 1 0 1.000000 
0 125.929504 -126.103691 -168.883698 -0.023300 0.148799 0.988593 0.569600 -0.113700 1 0 1.000000 
metcombinebridge
0 202.066803 -113.558189 -196.487900 0.052898 0.877970 0.475784 0.699800 -0.910900 1 0 1.000000 
0 124.740509 -122.583595 -171.233200 0.016500 0.767288 0.641090 0.606100 -0.102000 1 0 1.000000 
0 201.498505 -124.682289 -167.550598 -0.013000 0.559812 0.828518 0.584400 -0.897200 1 0 1.000000 
metcombinebridge
0 202.066803 -113.558189 -196.487900 0.052898 0.877970 0.475784 0.699800 -0.910900 1 0 1.000000 
0 114.660011 -113.558189 -180.748596 0.111498 0.777286 0.619189 0.699800 -0.000000 1 0 1.000000 
0 124.740509 -122.583595 -171.233200 0.016500 0.767288 0.641090 0.606100 -0.102000 1 0 1.000000 
metcombinebridge
0 -241.705505 -68.781006 201.213104 0.000000 0.000000 1.000000 0.164500 -0.018200 1 0 1.000000 
0 -33.812298 -71.582603 201.213104 0.000000 0.000000 1.000000 0.158700 -0.449900 1 0 1.000000 
0 -33.812298 -68.780998 201.213104 0.000000 0.000000 1.000000 0.164500 -0.449900 1 0 1.000000 
metcombinebridge
0 168.188004 -136.888306 38.426800 0.000000 0.000000 1.000000 0.428300 -0.847600 1 0 1.000000 
0 246.590698 -64.655495 38.426899 0.000000 0.000000 1.000000 0.571700 -1.000000 1 0 1.000000 
0 168.188004 -64.655495 38.426800 0.000000 0.000000 1.000000 0.571700 -0.847600 1 0 1.000000 
metcombinebridge
0 168.188004 -136.888306 38.426800 0.000000 0.000000 1.000000 0.428300 -0.847600 1 0 1.000000 
0 246.590698 -136.888290 38.426899 0.000000 0.000000 1.000000 0.428300 -1.000000 1 0 1.000000 
0 246.590698 -64.655495 38.426899 0.000000 0.000000 1.000000 0.571700 -1.000000 1 0 1.000000 
metcombinebridge
0 -95.217995 -155.580093 135.353302 0.000000 0.000000 1.000000 0.391200 -0.296200 1 0 1.000000 
0 25.197302 -45.963699 135.353394 0.000000 0.000000 1.000000 0.608800 -0.530300 1 0 1.000000 
0 -95.218002 -45.963703 135.353302 0.000000 0.000000 1.000000 0.608800 -0.296200 1 0 1.000000 
metcombinebridge
0 -95.217995 -155.580093 135.353302 0.000000 0.000000 1.000000 0.391200 -0.296200 1 0 1.000000 
0 25.197308 -155.580093 135.353394 0.000000 0.000000 1.000000 0.391200 -0.530300 1 0 1.000000 
0 25.197302 -45.963699 135.353394 0.000000 0.000000 1.000000 0.608800 -0.530300 1 0 1.000000 
metcombinebridge
0 -102.737091 -155.580093 91.072800 0.000000 0.000000 -1.000000 0.391200 -0.299500 1 0 1.000000 
0 25.197302 -45.963699 91.072800 0.000000 0.000000 -1.000000 0.608800 -0.548200 1 0 1.000000 
0 25.197308 -155.580093 91.072800 0.000000 0.000000 -1.000000 0.391200 -0.548200 1 0 1.000000 
metcombinebridge
0 -102.737091 -155.580093 91.072800 0.000000 0.000000 -1.000000 0.391200 -0.299500 1 0 1.000000 
0 -102.737099 -45.963703 91.072800 0.000000 0.000000 -1.000000 0.608800 -0.299500 1 0 1.000000 
0 25.197302 -45.963699 91.072800 0.000000 0.000000 -1.000000 0.608800 -0.548200 1 0 1.000000 
metcombinebridge
0 206.042892 -50.196793 -23.420099 -0.327605 -0.000000 -0.944815 0.338700 -0.500800 1 0 1.000000 
0 207.567703 -51.128593 -23.948799 -0.234103 -0.000000 -0.972212 0.335700 -0.501400 1 0 1.000000 
0 206.478500 -51.794193 -23.571199 -0.327605 -0.000000 -0.944815 0.333500 -0.501000 1 0 1.000000 
metcombinebridge
0 207.567703 -49.797394 -23.948799 -0.185894 -0.000000 -0.982570 0.340000 -0.501400 1 0 1.000000 
0 207.567703 -51.128593 -23.948799 -0.234103 -0.000000 -0.972212 0.335700 -0.501400 1 0 1.000000 
0 206.042892 -50.196793 -23.420099 -0.327605 -0.000000 -0.944815 0.338700 -0.500800 1 0 1.000000 
metcombinebridge
0 207.567703 -49.797394 -23.948799 -0.185894 -0.000000 -0.982570 0.340000 -0.501400 1 0 1.000000 
0 212.707306 -50.108994 -24.155899 -0.040200 -0.000000 -0.999192 0.339000 -0.501700 1 0 1.000000 
0 207.567703 -51.128593 -23.948799 -0.234103 -0.000000 -0.972212 0.335700 -0.501400 1 0 1.000000 
metcombinebridge
0 111.300308 -140.311203 -183.396301 0.000000 -0.652281 0.757977 0.049100 -0.687600 1 0 1.000000 
0 97.943008 -140.311203 -183.396301 -0.000000 0.037400 0.999300 0.049100 -0.687600 1 0 1.000000 
0 97.943008 -142.071304 -184.910797 -0.058501 -0.651117 0.756719 0.043400 -0.689300 1 0 1.000000 
metcombinebridge
0 111.300308 -137.036606 -186.670898 -0.000000 0.707107 0.707107 0.059600 -0.691400 1 0 1.000000 
0 97.943008 -137.036606 -186.670898 -0.000000 0.707107 0.707107 0.059600 -0.691400 1 0 1.000000 
0 97.943008 -140.311203 -183.396301 -0.000000 0.037400 0.999300 0.049100 -0.687600 1 0 1.000000 
metcombinebridge
0 97.943008 -140.311203 -183.396301 -0.269696 0.656690 -0.704289 0.049100 -0.687600 1 0 1.000000 
0 99.851204 -142.071304 -184.910797 -0.472589 0.820980 -0.320392 0.043400 -0.689300 1 0 1.000000 
0 97.943008 -142.071304 -184.910797 -0.077401 -0.993809 0.079701 0.043400 -0.689300 1 0 1.000000 
metcombinebridge
0 111.300308 -140.311203 -183.396301 0.009200 0.000000 0.999958 0.049100 -0.687600 1 0 1.000000 
0 111.300308 -137.036606 -186.670898 0.060401 0.985022 -0.161504 0.059600 -0.691400 1 0 1.000000 
0 97.943008 -140.311203 -183.396301 -0.269696 0.656690 -0.704289 0.049100 -0.687600 1 0 1.000000 
metcombinebridge
0 97.943008 -137.036606 -186.670898 -0.248507 0.217806 -0.943825 0.059600 -0.691400 1 0 1.000000 
0 99.851204 -137.822098 -186.670898 -0.279510 -0.678923 -0.678923 0.057100 -0.691400 1 0 1.000000 
0 97.943008 -140.311203 -183.396301 -0.269696 0.656690 -0.704289 0.049100 -0.687600 1 0 1.000000 
metcombinebridge
0 111.300308 -137.036606 -186.670898 0.060401 0.985022 -0.161504 0.059600 -0.691400 1 0 1.000000 
0 97.943008 -137.995697 -188.986404 -0.000000 0.615628 -0.788036 0.056500 -0.694100 1 0 1.000000 
0 97.943008 -137.036606 -186.670898 -0.248507 0.217806 -0.943825 0.059600 -0.691400 1 0 1.000000 
metcombinebridge
0 111.300308 -137.036606 -186.670898 0.060401 0.985022 -0.161504 0.059600 -0.691400 1 0 1.000000 
0 111.300308 -140.311203 -189.945496 0.035200 -0.031000 -0.998899 0.049100 -0.695200 1 0 1.000000 
0 97.943008 -137.995697 -188.986404 -0.000000 0.615628 -0.788036 0.056500 -0.694100 1 0 1.000000 
metcombinebridge
0 111.300308 -140.311203 -189.945496 0.035200 -0.031000 -0.998899 0.049100 -0.695200 1 0 1.000000 
0 97.943008 -142.626694 -188.986404 -0.441101 -0.566701 -0.695902 0.041600 -0.694100 1 0 1.000000 
0 97.943008 -137.995697 -188.986404 -0.000000 0.615628 -0.788036 0.056500 -0.694100 1 0 1.000000 
metcombinebridge
0 111.300308 -140.311203 -189.945496 0.035200 -0.031000 -0.998899 0.049100 -0.695200 1 0 1.000000 
0 111.300308 -143.585800 -186.670898 -0.004000 -0.998383 0.056699 0.038500 -0.691400 1 0 1.000000 
0 97.943008 -142.626694 -188.986404 -0.441101 -0.566701 -0.695902 0.041600 -0.694100 1 0 1.000000 
metcombinebridge
0 111.300308 -143.585800 -186.670898 -0.004000 -0.998383 0.056699 0.038500 -0.691400 1 0 1.000000 
0 97.943008 -142.071304 -184.910797 -0.077401 -0.993809 0.079701 0.043400 -0.689300 1 0 1.000000 
0 97.943008 -142.626694 -188.986404 -0.441101 -0.566701 -0.695902 0.041600 -0.694100 1 0 1.000000 
metcombinebridge
0 111.300308 -143.585800 -186.670898 -0.004000 -0.998383 0.056699 0.038500 -0.691400 1 0 1.000000 
0 111.300308 -140.311203 -183.396301 0.009200 0.000000 0.999958 0.049100 -0.687600 1 0 1.000000 
0 97.943008 -142.071304 -184.910797 -0.077401 -0.993809 0.079701 0.043400 -0.689300 1 0 1.000000 
metcombinebridge
0 97.943008 -142.626694 -188.986404 -0.441101 -0.566701 -0.695902 0.041600 -0.694100 1 0 1.000000 
0 99.851204 -142.071304 -184.910797 -0.472589 0.820980 -0.320392 0.043400 -0.689300 1 0 1.000000 
0 99.851204 -140.311203 -189.160004 -0.735722 0.625719 0.259208 0.049100 -0.694300 1 0 1.000000 
metcombinebridge
0 -10.430399 -12.071600 128.559097 -0.000000 1.000000 0.000000 0.461200 -0.323400 1 0 1.000000 
0 -5.220600 -12.071600 128.559097 -0.000000 1.000000 0.000000 0.461200 -0.323400 1 0 1.000000 
0 -5.220600 -12.071600 125.645500 -0.000000 1.000000 0.000000 0.461200 -0.326800 1 0 1.000000 
metcombinebridge
0 204.064896 -50.196793 -29.124100 0.185906 0.047202 0.981433 0.338700 -0.507500 1 0 1.000000 
0 203.270401 -51.136692 -29.260599 -0.242109 0.064002 0.968136 0.335700 -0.507600 1 0 1.000000 
0 204.373001 -51.810493 -29.643000 0.358611 -0.145805 0.922030 0.333500 -0.508100 1 0 1.000000 
metcombinebridge
0 204.064896 -50.196793 -29.124100 0.185906 0.047202 0.981433 0.338700 -0.507500 1 0 1.000000 
0 204.373001 -48.761292 -29.643000 -0.055700 0.349997 0.935093 0.343300 -0.508100 1 0 1.000000 
0 203.270401 -51.136692 -29.260599 -0.242109 0.064002 0.968136 0.335700 -0.507600 1 0 1.000000 
metcombinebridge
0 204.064896 -50.196793 -29.124100 0.185906 0.047202 0.981433 0.338700 -0.507500 1 0 1.000000 
0 205.475601 -49.789192 -30.025400 0.466483 0.016899 0.884368 0.340000 -0.508500 1 0 1.000000 
0 204.373001 -48.761292 -29.643000 -0.055700 0.349997 0.935093 0.343300 -0.508100 1 0 1.000000 
metcombinebridge
0 204.373001 -51.810493 -29.643000 0.358611 -0.145805 0.922030 0.333500 -0.508100 1 0 1.000000 
0 205.475601 -49.789192 -30.025400 0.466483 0.016899 0.884368 0.340000 -0.508500 1 0 1.000000 
0 204.064896 -50.196793 -29.124100 0.185906 0.047202 0.981433 0.338700 -0.507500 1 0 1.000000 
metcombinebridge
0 204.373001 -51.810493 -29.643000 0.358611 -0.145805 0.922030 0.333500 -0.508100 1 0 1.000000 
0 205.765305 -51.313793 -30.125799 0.327605 0.000000 0.944815 0.335100 -0.508600 1 0 1.000000 
0 205.475601 -49.789192 -30.025400 0.466483 0.016899 0.884368 0.340000 -0.508500 1 0 1.000000 
metcombinebridge
0 -5.220597 -66.278900 128.559097 1.000000 0.000000 0.000000 0.287000 -0.323400 1 0 1.000000 
0 -5.220600 -12.071600 125.645500 1.000000 0.000000 0.000000 0.461200 -0.326800 1 0 1.000000 
0 -5.220600 -12.071600 128.559097 1.000000 0.000000 0.000000 0.461200 -0.323400 1 0 1.000000 
metcombinebridge
0 -240.116501 -136.888321 158.068802 0.000000 -1.000000 0.000000 0.986900 -0.395700 1 0 1.000000 
0 25.197306 -136.888306 171.122696 0.000000 -1.000000 0.000000 0.448900 -0.369300 1 0 1.000000 
0 -240.116501 -136.888321 171.122696 0.000000 -1.000000 0.000000 0.986900 -0.369300 1 0 1.000000 
metcombinebridge
0 -240.116501 -136.888321 158.068802 0.000000 -1.000000 0.000000 0.986900 -0.395700 1 0 1.000000 
0 25.197306 -136.888306 158.068893 0.000000 -1.000000 0.000000 0.448900 -0.395700 1 0 1.000000 
0 25.197306 -136.888306 171.122696 0.000000 -1.000000 0.000000 0.448900 -0.369300 1 0 1.000000 
metcombinebridge
0 25.197306 -136.888306 158.068893 0.000000 -1.000000 0.000000 0.448900 -0.395700 1 0 1.000000 
0 168.188004 -136.888306 38.426800 0.000000 -1.000000 0.000000 0.159000 -0.638300 1 0 1.000000 
0 25.197306 -136.888306 171.122696 0.000000 -1.000000 0.000000 0.448900 -0.369300 1 0 1.000000 
metcombinebridge
0 25.197306 -136.888306 158.068893 0.000000 -1.000000 0.000000 0.448900 -0.395700 1 0 1.000000 
0 168.188004 -136.888306 32.626701 0.000000 -1.000000 0.000000 0.159000 -0.650100 1 0 1.000000 
0 168.188004 -136.888306 38.426800 0.000000 -1.000000 0.000000 0.159000 -0.638300 1 0 1.000000 
metcombinebridge
0 168.188004 -136.888306 32.626701 0.000000 -1.000000 0.000000 0.159000 -0.650100 1 0 1.000000 
0 246.590698 -136.888290 38.426899 0.000000 -1.000000 0.000000 0.000000 -0.638300 1 0 1.000000 
0 168.188004 -136.888306 38.426800 0.000000 -1.000000 0.000000 0.159000 -0.638300 1 0 1.000000 
metcombinebridge
0 168.188004 -136.888306 32.626701 0.000000 -1.000000 0.000000 0.159000 -0.650100 1 0 1.000000 
0 246.590698 -136.888290 32.626701 0.000000 -1.000000 0.000000 0.000000 -0.650100 1 0 1.000000 
0 246.590698 -136.888290 38.426899 0.000000 -1.000000 0.000000 0.000000 -0.638300 1 0 1.000000 
metcombinebridge
0 134.622894 -120.773895 -181.746902 1.000000 0.000000 0.000000 0.111900 -0.685600 1 0 1.000000 
0 134.622894 -123.039093 -181.746902 1.000000 0.000000 0.000000 0.104600 -0.685600 1 0 1.000000 
0 134.622894 -126.666893 -185.374695 1.000000 0.000000 0.000000 0.092900 -0.689900 1 0 1.000000 
metcombinebridge
0 134.622894 -122.499893 -177.579895 1.000000 0.000000 0.000000 0.106300 -0.680800 1 0 1.000000 
0 134.622894 -123.039093 -181.746902 1.000000 0.000000 0.000000 0.104600 -0.685600 1 0 1.000000 
0 134.622894 -120.773895 -181.746902 1.000000 0.000000 0.000000 0.111900 -0.685600 1 0 1.000000 
metcombinebridge
0 134.622894 -126.666893 -175.853806 1.000000 0.000000 0.000000 0.092900 -0.678800 1 0 1.000000 
0 134.622894 -123.039093 -181.746902 1.000000 0.000000 0.000000 0.104600 -0.685600 1 0 1.000000 
0 134.622894 -122.499893 -177.579895 1.000000 0.000000 0.000000 0.106300 -0.680800 1 0 1.000000 
metcombinebridge
0 134.622894 -126.666893 -175.853806 1.000000 0.000000 0.000000 0.092900 -0.678800 1 0 1.000000 
0 134.622894 -126.666893 -178.119095 1.000000 0.000000 0.000000 0.092900 -0.681400 1 0 1.000000 
0 134.622894 -123.039093 -181.746902 1.000000 0.000000 0.000000 0.104600 -0.685600 1 0 1.000000 
metcombinebridge
0 134.622894 -130.833893 -177.579895 1.000000 0.000000 0.000000 0.079500 -0.680800 1 0 1.000000 
0 134.622894 -126.666893 -178.119095 1.000000 0.000000 0.000000 0.092900 -0.681400 1 0 1.000000 
0 134.622894 -126.666893 -175.853806 1.000000 0.000000 0.000000 0.092900 -0.678800 1 0 1.000000 
metcombinebridge
0 134.622894 -132.559998 -181.746902 1.000000 0.000000 0.000000 0.074000 -0.685600 1 0 1.000000 
0 134.622894 -126.666893 -178.119095 1.000000 0.000000 0.000000 0.092900 -0.681400 1 0 1.000000 
0 134.622894 -130.833893 -177.579895 1.000000 0.000000 0.000000 0.079500 -0.680800 1 0 1.000000 
metcombinebridge
0 134.622894 -132.559998 -181.746902 1.000000 0.000000 0.000000 0.074000 -0.685600 1 0 1.000000 
0 134.622894 -130.294693 -181.746902 1.000000 0.000000 0.000000 0.081300 -0.685600 1 0 1.000000 
0 134.622894 -126.666893 -178.119095 1.000000 0.000000 0.000000 0.092900 -0.681400 1 0 1.000000 
metcombinebridge
0 134.622894 -130.833893 -185.913895 1.000000 0.000000 0.000000 0.079500 -0.690500 1 0 1.000000 
0 134.622894 -130.294693 -181.746902 1.000000 0.000000 0.000000 0.081300 -0.685600 1 0 1.000000 
0 134.622894 -132.559998 -181.746902 1.000000 0.000000 0.000000 0.074000 -0.685600 1 0 1.000000 
metcombinebridge
0 134.622894 -126.666893 -187.639999 1.000000 0.000000 0.000000 0.092900 -0.692500 1 0 1.000000 
0 134.622894 -130.294693 -181.746902 1.000000 0.000000 0.000000 0.081300 -0.685600 1 0 1.000000 
0 134.622894 -130.833893 -185.913895 1.000000 0.000000 0.000000 0.079500 -0.690500 1 0 1.000000 
metcombinebridge
0 134.622894 -126.666893 -187.639999 1.000000 0.000000 0.000000 0.092900 -0.692500 1 0 1.000000 
0 134.622894 -126.666893 -185.374695 1.000000 0.000000 0.000000 0.092900 -0.689900 1 0 1.000000 
0 134.622894 -130.294693 -181.746902 1.000000 0.000000 0.000000 0.081300 -0.685600 1 0 1.000000 
metcombinebridge
0 134.622894 -122.499893 -185.913895 1.000000 0.000000 0.000000 0.106300 -0.690500 1 0 1.000000 
0 134.622894 -126.666893 -185.374695 1.000000 0.000000 0.000000 0.092900 -0.689900 1 0 1.000000 
0 134.622894 -126.666893 -187.639999 1.000000 0.000000 0.000000 0.092900 -0.692500 1 0 1.000000 
metcombinebridge
0 134.622894 -120.773895 -181.746902 1.000000 0.000000 0.000000 0.111900 -0.685600 1 0 1.000000 
0 134.622894 -126.666893 -185.374695 1.000000 0.000000 0.000000 0.092900 -0.689900 1 0 1.000000 
0 134.622894 -122.499893 -185.913895 1.000000 0.000000 0.000000 0.106300 -0.690500 1 0 1.000000 
metcombinebridge
0 -183.136200 50.222691 169.299301 -0.000000 1.000000 0.000000 0.661400 -0.275800 1 0 1.000000 
0 -177.926300 50.222691 169.299301 -0.000000 1.000000 0.000000 0.661400 -0.275800 1 0 1.000000 
0 -177.926300 50.222691 166.385696 -0.000000 1.000000 0.000000 0.661400 -0.279200 1 0 1.000000 
metcombinebridge
0 -102.737099 -45.963703 91.072800 -0.000000 1.000000 0.000000 0.708300 -0.531600 1 0 1.000000 
0 -95.218002 -45.963703 135.353302 -0.000000 1.000000 0.000000 0.693100 -0.441800 1 0 1.000000 
0 25.197302 -45.963699 135.353394 -0.000000 1.000000 0.000000 0.448900 -0.441800 1 0 1.000000 
metcombinebridge
0 -102.737099 -45.963703 91.072800 -0.000000 1.000000 0.000000 0.708300 -0.531600 1 0 1.000000 
0 25.197302 -45.963699 135.353394 -0.000000 1.000000 0.000000 0.448900 -0.441800 1 0 1.000000 
0 25.197302 -45.963699 91.072800 -0.000000 1.000000 0.000000 0.448900 -0.531600 1 0 1.000000 
metcombinebridge
0 25.197302 -45.963699 135.353394 -0.000000 1.000000 0.000000 0.448900 -0.441800 1 0 1.000000 
0 168.188004 -45.963692 -1.221900 -0.000000 1.000000 0.000000 0.159000 -0.718700 1 0 1.000000 
0 25.197302 -45.963699 91.072800 -0.000000 1.000000 0.000000 0.448900 -0.531600 1 0 1.000000 
metcombinebridge
0 25.197302 -45.963699 135.353394 -0.000000 1.000000 0.000000 0.448900 -0.441800 1 0 1.000000 
0 168.188004 -45.963692 18.453100 -0.000000 1.000000 0.000000 0.159000 -0.678800 1 0 1.000000 
0 168.188004 -45.963692 -1.221900 -0.000000 1.000000 0.000000 0.159000 -0.718700 1 0 1.000000 
metcombinebridge
0 168.188004 -45.963692 18.453100 -0.000000 1.000000 0.000000 0.159000 -0.678800 1 0 1.000000 
0 211.912003 -45.963692 -1.221900 -0.000000 1.000000 0.000000 0.070300 -0.718700 1 0 1.000000 
0 168.188004 -45.963692 -1.221900 -0.000000 1.000000 0.000000 0.159000 -0.718700 1 0 1.000000 
metcombinebridge
0 168.188004 -45.963692 18.453100 -0.000000 1.000000 0.000000 0.159000 -0.678800 1 0 1.000000 
0 211.912003 -45.963692 18.453199 -0.000000 1.000000 0.000000 0.070300 -0.678800 1 0 1.000000 
0 211.912003 -45.963692 -1.221900 -0.000000 1.000000 0.000000 0.070300 -0.718700 1 0 1.000000 
metcombinebridge
0 -177.926300 -70.878906 169.299301 1.000000 0.000000 0.000000 0.272200 -0.275800 1 0 1.000000 
0 -177.926300 50.222691 166.385696 1.000000 0.000000 0.000000 0.661400 -0.279200 1 0 1.000000 
0 -177.926300 50.222691 169.299301 1.000000 0.000000 0.000000 0.661400 -0.275800 1 0 1.000000 
metcombinebridge
0 182.467102 -138.113388 -168.088593 -0.000000 1.000000 0.000000 0.056100 -0.669700 1 0 1.000000 
0 180.368896 -135.743484 5.048300 -0.000000 1.000000 0.000000 0.063700 -0.467600 1 0 1.000000 
0 182.467102 -135.743484 -168.088593 -0.000000 1.000000 0.000000 0.063700 -0.669700 1 0 1.000000 
metcombinebridge
0 182.467102 -138.113388 -168.088593 -0.000000 1.000000 0.000000 0.056100 -0.669700 1 0 1.000000 
0 182.467102 -135.743484 -168.088593 -0.000000 1.000000 0.000000 0.063700 -0.669700 1 0 1.000000 
0 180.368896 -135.743484 5.048300 -0.000000 1.000000 0.000000 0.063700 -0.467600 1 0 1.000000 
metcombinebridge
0 182.467102 -138.113388 -168.088593 -0.000000 1.000000 0.000000 0.056100 -0.669700 1 0 1.000000 
0 180.368896 -135.743484 5.048300 -0.000000 1.000000 0.000000 0.063700 -0.467600 1 0 1.000000 
0 180.368896 -138.113388 5.048300 -0.000000 1.000000 0.000000 0.056100 -0.467600 1 0 1.000000 
metcombinebridge
0 182.467102 -138.113388 -168.088593 -0.000000 1.000000 0.000000 0.056100 -0.669700 1 0 1.000000 
0 180.368896 -138.113388 5.048300 -0.000000 1.000000 0.000000 0.056100 -0.467600 1 0 1.000000 
0 180.368896 -135.743484 5.048300 -0.000000 1.000000 0.000000 0.063700 -0.467600 1 0 1.000000 
metcombinebridge
0 134.622894 -123.039093 -181.746902 -0.000000 1.000000 0.000000 0.104600 -0.685600 1 0 1.000000 
0 184.373306 -123.039093 -181.746902 -0.000000 0.707107 -0.707107 0.104600 -0.685600 1 0 1.000000 
0 134.622894 -126.666893 -185.374695 0.000000 0.000000 -1.000000 0.092900 -0.689900 1 0 1.000000 
metcombinebridge
0 134.622894 -126.666893 -185.374695 0.000000 0.000000 -1.000000 0.092900 -0.689900 1 0 1.000000 
0 184.373306 -126.666893 -185.374695 0.000000 -0.707107 -0.707107 0.092900 -0.689900 1 0 1.000000 
0 134.622894 -130.294693 -181.746902 0.000000 -1.000000 0.000000 0.081300 -0.685600 1 0 1.000000 
metcombinebridge
0 134.622894 -130.294693 -181.746902 0.000000 -1.000000 0.000000 0.081300 -0.685600 1 0 1.000000 
0 184.373306 -130.294678 -181.746902 0.000000 -0.707107 0.707107 0.081300 -0.685600 1 0 1.000000 
0 134.622894 -126.666893 -178.119095 0.000000 0.000000 1.000000 0.092900 -0.681400 1 0 1.000000 
metcombinebridge
0 134.622894 -126.666893 -178.119095 0.000000 0.000000 1.000000 0.092900 -0.681400 1 0 1.000000 
0 184.373306 -126.666893 -178.119095 -0.000000 0.707107 0.707107 0.092900 -0.681400 1 0 1.000000 
0 134.622894 -123.039093 -181.746902 -0.000000 1.000000 0.000000 0.104600 -0.685600 1 0 1.000000 
metcombinebridge
0 -224.519699 -107.885605 81.066399 0.383685 0.000000 -0.923464 0.153300 -0.378800 1 0 1.000000 
0 -224.519699 -93.658211 81.066399 0.383685 0.000000 -0.923464 0.199000 -0.378800 1 0 1.000000 
0 -132.566605 -93.658211 119.267799 0.531104 0.000000 -0.847306 0.199000 -0.334200 1 0 1.000000 
metcombinebridge
0 -224.519699 -107.885605 81.066399 0.383685 0.000000 -0.923464 0.153300 -0.378800 1 0 1.000000 
0 -132.566605 -93.658211 119.267799 0.531104 0.000000 -0.847306 0.199000 -0.334200 1 0 1.000000 
0 -132.566605 -107.885605 119.267799 0.531104 0.000000 -0.847306 0.153300 -0.334200 1 0 1.000000 
metcombinebridge
0 -132.566605 -93.658211 119.267799 0.531104 0.000000 -0.847306 0.199000 -0.334200 1 0 1.000000 
0 -84.486893 -107.885597 161.948105 0.663861 0.000000 -0.747856 0.153300 -0.284400 1 0 1.000000 
0 -132.566605 -107.885605 119.267799 0.531104 0.000000 -0.847306 0.153300 -0.334200 1 0 1.000000 
metcombinebridge
0 -132.566605 -93.658211 119.267799 0.531104 0.000000 -0.847306 0.199000 -0.334200 1 0 1.000000 
0 -84.486893 -93.658203 161.948105 0.663861 0.000000 -0.747856 0.199000 -0.284400 1 0 1.000000 
0 -84.486893 -107.885597 161.948105 0.663861 0.000000 -0.747856 0.153300 -0.284400 1 0 1.000000 
metcombinebridge
0 57.175903 -66.278900 89.569099 -1.000000 -0.000000 0.000000 0.287000 -0.368900 1 0 1.000000 
0 57.175903 -66.278900 92.482697 -1.000000 -0.000000 0.000000 0.287000 -0.365500 1 0 1.000000 
0 57.175900 -12.071597 92.482697 -1.000000 -0.000000 0.000000 0.461200 -0.365500 1 0 1.000000 
metcombinebridge
0 114.018906 -129.834305 -184.914307 -1.000000 -0.000000 0.000000 0.082700 -0.689300 1 0 1.000000 
0 114.018906 -122.187492 -181.746902 -1.000000 -0.000000 0.000000 0.107300 -0.685600 1 0 1.000000 
0 114.018906 -123.499489 -184.914307 -1.000000 -0.000000 0.000000 0.103100 -0.689300 1 0 1.000000 
metcombinebridge
0 114.018906 -129.834305 -184.914307 -1.000000 -0.000000 0.000000 0.082700 -0.689300 1 0 1.000000 
0 114.018906 -126.666893 -177.267502 -1.000000 -0.000000 0.000000 0.092900 -0.680400 1 0 1.000000 
0 114.018906 -122.187492 -181.746902 -1.000000 -0.000000 0.000000 0.107300 -0.685600 1 0 1.000000 
metcombinebridge
0 114.018906 -129.834305 -184.914307 -1.000000 -0.000000 0.000000 0.082700 -0.689300 1 0 1.000000 
0 114.018906 -129.834305 -178.579498 -1.000000 -0.000000 0.000000 0.082700 -0.681900 1 0 1.000000 
0 114.018906 -126.666893 -177.267502 -1.000000 -0.000000 0.000000 0.092900 -0.680400 1 0 1.000000 
metcombinebridge
0 57.175903 -66.278900 89.569099 0.000000 -1.000000 0.000000 0.287000 -0.368900 1 0 1.000000 
0 62.385704 -66.278900 92.482697 0.000000 -1.000000 0.000000 0.287000 -0.365500 1 0 1.000000 
0 57.175903 -66.278900 92.482697 0.000000 -1.000000 0.000000 0.287000 -0.365500 1 0 1.000000 
metcombinebridge
0 -240.116501 -64.655510 158.068802 -0.000000 1.000000 0.000000 0.986900 -0.395700 1 0 1.000000 
0 -240.116501 -64.655510 171.122696 -0.000000 1.000000 0.000000 0.986900 -0.369300 1 0 1.000000 
0 25.197302 -64.655502 171.122696 -0.000000 1.000000 0.000000 0.448900 -0.369300 1 0 1.000000 
metcombinebridge
0 -240.116501 -64.655510 158.068802 -0.000000 1.000000 0.000000 0.986900 -0.395700 1 0 1.000000 
0 25.197302 -64.655502 171.122696 -0.000000 1.000000 0.000000 0.448900 -0.369300 1 0 1.000000 
0 25.197302 -64.655502 158.068893 -0.000000 1.000000 0.000000 0.448900 -0.395700 1 0 1.000000 
metcombinebridge
0 25.197302 -64.655502 171.122696 -0.000000 1.000000 0.000000 0.448900 -0.369300 1 0 1.000000 
0 168.188004 -64.655495 32.626701 -0.000000 1.000000 0.000000 0.159000 -0.650100 1 0 1.000000 
0 25.197302 -64.655502 158.068893 -0.000000 1.000000 0.000000 0.448900 -0.395700 1 0 1.000000 
metcombinebridge
0 25.197302 -64.655502 171.122696 -0.000000 1.000000 0.000000 0.448900 -0.369300 1 0 1.000000 
0 168.188004 -64.655495 38.426800 -0.000000 1.000000 0.000000 0.159000 -0.638300 1 0 1.000000 
0 168.188004 -64.655495 32.626701 -0.000000 1.000000 0.000000 0.159000 -0.650100 1 0 1.000000 
metcombinebridge
0 168.188004 -64.655495 38.426800 -0.000000 1.000000 0.000000 0.159000 -0.638300 1 0 1.000000 
0 246.590698 -64.655495 32.626701 -0.000000 1.000000 0.000000 0.000000 -0.650100 1 0 1.000000 
0 168.188004 -64.655495 32.626701 -0.000000 1.000000 0.000000 0.159000 -0.650100 1 0 1.000000 
metcombinebridge
0 168.188004 -64.655495 38.426800 -0.000000 1.000000 0.000000 0.159000 -0.638300 1 0 1.000000 
0 246.590698 -64.655495 38.426899 -0.000000 1.000000 0.000000 0.000000 -0.638300 1 0 1.000000 
0 246.590698 -64.655495 32.626701 -0.000000 1.000000 0.000000 0.000000 -0.650100 1 0 1.000000 
metcombinebridge
0 203.868103 -75.496490 9.838200 -1.000000 -0.000000 0.000000 0.257400 -0.462000 1 0 1.000000 
0 203.868103 -75.496490 12.751800 -1.000000 -0.000000 0.000000 0.257400 -0.458600 1 0 1.000000 
0 203.868103 -21.289190 12.751800 -1.000000 -0.000000 0.000000 0.431600 -0.458600 1 0 1.000000 
metcombinebridge
0 111.300308 -140.311203 -184.654999 0.000000 0.000000 1.000000 0.049100 -0.689000 1 0 1.000000 
0 192.300003 -140.311188 -184.654999 -0.000000 0.707107 0.707107 0.049100 -0.689000 1 0 1.000000 
0 111.300308 -138.295303 -186.670898 -0.000000 1.000000 0.000000 0.055500 -0.691400 1 0 1.000000 
metcombinebridge
0 111.300308 -138.295303 -186.670898 -0.000000 1.000000 0.000000 0.055500 -0.691400 1 0 1.000000 
0 192.300003 -138.295288 -186.670898 -0.000000 0.707107 -0.707107 0.055500 -0.691400 1 0 1.000000 
0 111.300308 -140.311203 -188.686798 0.000000 0.000000 -1.000000 0.049100 -0.693700 1 0 1.000000 
metcombinebridge
0 111.300308 -140.311203 -188.686798 0.000000 0.000000 -1.000000 0.049100 -0.693700 1 0 1.000000 
0 192.300003 -140.311188 -188.686798 0.000000 -0.707107 -0.707107 0.049100 -0.693700 1 0 1.000000 
0 111.300308 -142.327103 -186.670898 0.000000 -1.000000 0.000000 0.042600 -0.691400 1 0 1.000000 
metcombinebridge
0 111.300308 -142.327103 -186.670898 0.000000 -1.000000 0.000000 0.042600 -0.691400 1 0 1.000000 
0 192.300003 -142.327087 -186.670898 0.000000 -0.707107 0.707107 0.042600 -0.691400 1 0 1.000000 
0 111.300308 -140.311203 -184.654999 0.000000 0.000000 1.000000 0.049100 -0.689000 1 0 1.000000 
metcombinebridge
0 134.622894 -126.666893 -178.119095 0.000000 -0.707107 0.707107 0.092900 -0.681400 1 0 1.000000 
0 184.373306 -130.294678 -181.746902 0.000000 -1.000000 0.000000 0.081300 -0.685600 1 0 1.000000 
0 184.373306 -126.666893 -178.119095 0.000000 0.000000 1.000000 0.092900 -0.681400 1 0 1.000000 
metcombinebridge
0 134.622894 -130.294693 -181.746902 0.000000 -0.707107 -0.707107 0.081300 -0.685600 1 0 1.000000 
0 184.373306 -126.666893 -185.374695 0.000000 0.000000 -1.000000 0.092900 -0.689900 1 0 1.000000 
0 184.373306 -130.294678 -181.746902 0.000000 -1.000000 0.000000 0.081300 -0.685600 1 0 1.000000 
metcombinebridge
0 134.622894 -126.666893 -185.374695 -0.000000 0.707107 -0.707107 0.092900 -0.689900 1 0 1.000000 
0 184.373306 -123.039093 -181.746902 -0.000000 1.000000 0.000000 0.104600 -0.685600 1 0 1.000000 
0 184.373306 -126.666893 -185.374695 0.000000 0.000000 -1.000000 0.092900 -0.689900 1 0 1.000000 
metcombinebridge
0 134.622894 -123.039093 -181.746902 -0.000000 0.707107 0.707107 0.104600 -0.685600 1 0 1.000000 
0 184.373306 -126.666893 -178.119095 0.000000 0.000000 1.000000 0.092900 -0.681400 1 0 1.000000 
0 184.373306 -123.039093 -181.746902 -0.000000 1.000000 0.000000 0.104600 -0.685600 1 0 1.000000 
metcombinebridge
0 99.851204 -140.311203 -189.160004 -1.000000 -0.000000 0.000000 0.049100 -0.694300 1 0 1.000000 
0 99.851204 -142.071304 -184.910797 -1.000000 -0.000000 0.000000 0.043400 -0.689300 1 0 1.000000 
0 99.851204 -137.822098 -186.670898 -1.000000 -0.000000 0.000000 0.057100 -0.691400 1 0 1.000000 
metcombinebridge
0 203.868103 -75.496490 9.838200 0.000000 -1.000000 0.000000 0.257400 -0.462000 1 0 1.000000 
0 209.078003 -75.496490 12.751800 0.000000 -1.000000 0.000000 0.257400 -0.458600 1 0 1.000000 
0 203.868103 -75.496490 12.751800 0.000000 -1.000000 0.000000 0.257400 -0.458600 1 0 1.000000 
metcombinebridge
0 111.300308 -138.295303 -186.670898 -0.000000 0.707107 0.707107 0.055500 -0.691400 1 0 1.000000 
0 192.300003 -140.311188 -184.654999 0.000000 0.000000 1.000000 0.049100 -0.689000 1 0 1.000000 
0 192.300003 -138.295288 -186.670898 -0.000000 1.000000 0.000000 0.055500 -0.691400 1 0 1.000000 
metcombinebridge
0 111.300308 -140.311203 -184.654999 0.000000 -0.707107 0.707107 0.049100 -0.689000 1 0 1.000000 
0 192.300003 -142.327087 -186.670898 0.000000 -1.000000 0.000000 0.042600 -0.691400 1 0 1.000000 
0 192.300003 -140.311188 -184.654999 0.000000 0.000000 1.000000 0.049100 -0.689000 1 0 1.000000 
metcombinebridge
0 111.300308 -142.327103 -186.670898 0.000000 -0.707107 -0.707107 0.042600 -0.691400 1 0 1.000000 
0 192.300003 -140.311188 -188.686798 0.000000 0.000000 -1.000000 0.049100 -0.693700 1 0 1.000000 
0 192.300003 -142.327087 -186.670898 0.000000 -1.000000 0.000000 0.042600 -0.691400 1 0 1.000000 
metcombinebridge
0 111.300308 -140.311203 -188.686798 -0.000000 0.707107 -0.707107 0.049100 -0.693700 1 0 1.000000 
0 192.300003 -138.295288 -186.670898 -0.000000 1.000000 0.000000 0.055500 -0.691400 1 0 1.000000 
0 192.300003 -140.311188 -188.686798 0.000000 0.000000 -1.000000 0.049100 -0.693700 1 0 1.000000 
metcombinebridge
0 210.667694 -52.351292 -5.684200 0.368296 -0.830091 0.418696 0.331800 -0.480100 1 0 1.000000 
0 206.945908 -49.518791 3.206100 0.368296 -0.830091 0.418696 0.340900 -0.469700 1 0 1.000000 
0 204.433807 -51.407192 1.671900 0.368296 -0.830091 0.418696 0.334800 -0.471500 1 0 1.000000 
metcombinebridge
0 203.868103 -21.289190 12.751800 -0.000000 1.000000 0.000000 0.431600 -0.458600 1 0 1.000000 
0 209.078003 -21.289190 12.751800 -0.000000 1.000000 0.000000 0.431600 -0.458600 1 0 1.000000 
0 209.078003 -21.289190 9.838200 -0.000000 1.000000 0.000000 0.431600 -0.462000 1 0 1.000000 
metcombinebridge
0 110.584808 -129.834305 -178.579498 -0.000000 0.923877 -0.382690 0.082700 -0.681900 1 0 1.000000 
0 114.018906 -129.834305 -178.579498 -0.000000 0.923877 -0.382690 0.082700 -0.681900 1 0 1.000000 
0 110.584808 -131.146301 -181.746902 -0.000000 0.923877 -0.382690 0.078500 -0.685600 1 0 1.000000 
metcombinebridge
0 209.078003 -75.496490 12.751800 1.000000 0.000000 0.000000 0.257400 -0.458600 1 0 1.000000 
0 209.078003 -21.289190 9.838200 1.000000 0.000000 0.000000 0.431600 -0.462000 1 0 1.000000 
0 209.078003 -21.289190 12.751800 1.000000 0.000000 0.000000 0.431600 -0.458600 1 0 1.000000 
metcombinebridge
0 -29.513494 -131.429001 133.655197 -0.000000 1.000000 0.000000 0.077600 -0.317400 1 0 1.000000 
0 -31.031294 -127.777298 169.166901 -0.000000 1.000000 0.000000 0.089400 -0.275900 1 0 1.000000 
0 -31.031294 -127.777298 133.655197 -0.000000 1.000000 0.000000 0.089400 -0.317400 1 0 1.000000 
metcombinebridge
0 -29.513494 -131.429001 133.655197 -0.000000 1.000000 0.000000 0.077600 -0.317400 1 0 1.000000 
0 -31.031294 -127.777298 133.655197 -0.000000 1.000000 0.000000 0.089400 -0.317400 1 0 1.000000 
0 -31.031294 -127.777298 169.166901 -0.000000 1.000000 0.000000 0.089400 -0.275900 1 0 1.000000 
metcombinebridge
0 -29.513494 -131.429001 133.655197 -0.000000 1.000000 0.000000 0.077600 -0.317400 1 0 1.000000 
0 -31.031294 -127.777298 169.166901 -0.000000 1.000000 0.000000 0.089400 -0.275900 1 0 1.000000 
0 -31.031294 -131.429001 169.166901 -0.000000 1.000000 0.000000 0.077600 -0.275900 1 0 1.000000 
metcombinebridge
0 -29.513494 -131.429001 133.655197 -0.000000 1.000000 0.000000 0.077600 -0.317400 1 0 1.000000 
0 -31.031294 -131.429001 169.166901 -0.000000 1.000000 0.000000 0.077600 -0.275900 1 0 1.000000 
0 -31.031294 -127.777298 169.166901 -0.000000 1.000000 0.000000 0.089400 -0.275900 1 0 1.000000 
metcombinebridge
0 -29.513496 -74.175797 133.655197 -0.000000 1.000000 0.000000 0.261600 -0.317400 1 0 1.000000 
0 -31.031296 -70.524101 169.166901 -0.000000 1.000000 0.000000 0.273400 -0.275900 1 0 1.000000 
0 -31.031296 -74.175797 169.166901 -0.000000 1.000000 0.000000 0.261600 -0.275900 1 0 1.000000 
metcombinebridge
0 -29.513496 -74.175797 133.655197 -0.000000 1.000000 0.000000 0.261600 -0.317400 1 0 1.000000 
0 -31.031296 -74.175797 169.166901 -0.000000 1.000000 0.000000 0.261600 -0.275900 1 0 1.000000 
0 -31.031296 -70.524101 169.166901 -0.000000 1.000000 0.000000 0.273400 -0.275900 1 0 1.000000 
metcombinebridge
0 -29.513496 -74.175797 133.655197 -0.000000 1.000000 0.000000 0.261600 -0.317400 1 0 1.000000 
0 -31.031296 -70.524101 169.166901 -0.000000 1.000000 0.000000 0.273400 -0.275900 1 0 1.000000 
0 -31.031296 -70.524101 133.655197 -0.000000 1.000000 0.000000 0.273400 -0.317400 1 0 1.000000 
metcombinebridge
0 -29.513496 -74.175797 133.655197 -0.000000 1.000000 0.000000 0.261600 -0.317400 1 0 1.000000 
0 -31.031296 -70.524101 133.655197 -0.000000 1.000000 0.000000 0.273400 -0.317400 1 0 1.000000 
0 -31.031296 -70.524101 169.166901 -0.000000 1.000000 0.000000 0.273400 -0.275900 1 0 1.000000 
metcombinebridge
0 201.416901 -74.175789 16.910900 -0.000000 1.000000 0.000000 0.261600 -0.453700 1 0 1.000000 
0 201.416901 -70.524094 37.711700 -0.000000 1.000000 0.000000 0.273400 -0.429400 1 0 1.000000 
0 201.416901 -70.524094 16.910900 -0.000000 1.000000 0.000000 0.273400 -0.453700 1 0 1.000000 
metcombinebridge
0 201.416901 -74.175789 16.910900 -0.000000 1.000000 0.000000 0.261600 -0.453700 1 0 1.000000 
0 201.416901 -70.524094 16.910900 -0.000000 1.000000 0.000000 0.273400 -0.453700 1 0 1.000000 
0 201.416901 -70.524094 37.711700 -0.000000 1.000000 0.000000 0.273400 -0.429400 1 0 1.000000 
metcombinebridge
0 201.416901 -74.175789 16.910900 -0.000000 1.000000 0.000000 0.261600 -0.453700 1 0 1.000000 
0 201.416901 -74.175789 37.711700 -0.000000 1.000000 0.000000 0.261600 -0.429400 1 0 1.000000 
0 201.416901 -70.524094 37.711700 -0.000000 1.000000 0.000000 0.273400 -0.429400 1 0 1.000000 
metcombinebridge
0 201.416901 -74.175789 16.910900 -0.000000 1.000000 0.000000 0.261600 -0.453700 1 0 1.000000 
0 201.416901 -70.524094 37.711700 -0.000000 1.000000 0.000000 0.273400 -0.429400 1 0 1.000000 
0 201.416901 -74.175789 37.711700 -0.000000 1.000000 0.000000 0.261600 -0.429400 1 0 1.000000 
metcombinebridge
0 201.416901 -131.428986 16.910900 -0.000000 1.000000 0.000000 0.077600 -0.453700 1 0 1.000000 
0 201.416901 -127.777290 37.711700 -0.000000 1.000000 0.000000 0.089400 -0.429400 1 0 1.000000 
0 201.416901 -127.777290 16.910900 -0.000000 1.000000 0.000000 0.089400 -0.453700 1 0 1.000000 
metcombinebridge
0 201.416901 -131.428986 16.910900 -0.000000 1.000000 0.000000 0.077600 -0.453700 1 0 1.000000 
0 201.416901 -127.777290 16.910900 -0.000000 1.000000 0.000000 0.089400 -0.453700 1 0 1.000000 
0 201.416901 -127.777290 37.711700 -0.000000 1.000000 0.000000 0.089400 -0.429400 1 0 1.000000 
metcombinebridge
0 201.416901 -131.428986 16.910900 -0.000000 1.000000 0.000000 0.077600 -0.453700 1 0 1.000000 
0 199.899094 -131.428986 37.711700 -0.000000 1.000000 0.000000 0.077600 -0.429400 1 0 1.000000 
0 201.416901 -127.777290 37.711700 -0.000000 1.000000 0.000000 0.089400 -0.429400 1 0 1.000000 
metcombinebridge
0 201.416901 -131.428986 16.910900 -0.000000 1.000000 0.000000 0.077600 -0.453700 1 0 1.000000 
0 201.416901 -127.777290 37.711700 -0.000000 1.000000 0.000000 0.089400 -0.429400 1 0 1.000000 
0 199.899094 -131.428986 37.711700 -0.000000 1.000000 0.000000 0.077600 -0.429400 1 0 1.000000 
metcombinebridge
0 110.584808 -129.834305 -184.914307 -0.000000 0.382690 0.923877 0.082700 -0.689300 1 0 1.000000 
0 114.018906 -129.834305 -184.914307 -0.000000 0.382690 0.923877 0.082700 -0.689300 1 0 1.000000 
0 110.584808 -126.666893 -186.226303 -0.000000 0.382690 0.923877 0.092900 -0.690900 1 0 1.000000 
metcombinebridge
0 164.729996 -75.496490 9.838200 -1.000000 -0.000000 0.000000 0.257400 -0.462000 1 0 1.000000 
0 164.729996 -75.496490 12.751800 -1.000000 -0.000000 0.000000 0.257400 -0.458600 1 0 1.000000 
0 164.729996 -21.289192 12.751800 -1.000000 -0.000000 0.000000 0.431600 -0.458600 1 0 1.000000 
metcombinebridge
0 209.312302 -51.128593 -18.917999 0.929910 0.297603 0.216102 0.335700 -0.495500 1 0 1.000000 
0 208.457001 -50.206192 -16.507999 0.929910 0.297603 0.216102 0.338600 -0.492700 1 0 1.000000 
0 208.877197 -51.413292 -16.653700 0.929910 0.297603 0.216102 0.334800 -0.492900 1 0 1.000000 
metcombinebridge
0 208.457001 -50.206192 -16.507999 0.929910 0.297603 0.216102 0.338600 -0.492700 1 0 1.000000 
0 211.953506 -50.976593 -7.782500 -0.000000 1.000000 0.000000 0.336200 -0.482500 1 0 1.000000 
0 208.877197 -51.413292 -16.653700 0.929910 0.297603 0.216102 0.334800 -0.492900 1 0 1.000000 
metcombinebridge
0 208.877197 -51.413292 -16.653700 0.929910 0.297603 0.216102 0.334800 -0.492900 1 0 1.000000 
0 211.953506 -50.976593 -7.782500 -0.000000 1.000000 0.000000 0.336200 -0.482500 1 0 1.000000 
0 208.457001 -50.206192 -16.507999 0.929910 0.297603 0.216102 0.338600 -0.492700 1 0 1.000000 
metcombinebridge
0 164.729996 -75.496490 9.838200 0.000000 -1.000000 0.000000 0.257400 -0.462000 1 0 1.000000 
0 169.939804 -75.496490 12.751800 0.000000 -1.000000 0.000000 0.257400 -0.458600 1 0 1.000000 
0 164.729996 -75.496490 12.751800 0.000000 -1.000000 0.000000 0.257400 -0.458600 1 0 1.000000 
metcombinebridge
0 -76.456902 -56.593105 128.559097 1.000000 0.000000 0.000000 0.318100 -0.323400 1 0 1.000000 
0 -76.456902 8.350096 125.645500 1.000000 0.000000 0.000000 0.526800 -0.326800 1 0 1.000000 
0 -76.456902 8.350096 128.559097 1.000000 0.000000 0.000000 0.526800 -0.323400 1 0 1.000000 
metcombinebridge
0 -81.666702 -56.593105 125.645500 -1.000000 -0.000000 0.000000 0.318100 -0.326800 1 0 1.000000 
0 -81.666702 -56.593105 128.559097 -1.000000 -0.000000 0.000000 0.318100 -0.323400 1 0 1.000000 
0 -81.666702 8.350096 128.559097 -1.000000 -0.000000 0.000000 0.526800 -0.323400 1 0 1.000000 
metcombinebridge
0 -81.666702 8.350096 128.559097 -0.000000 1.000000 0.000000 0.526800 -0.323400 1 0 1.000000 
0 -76.456902 8.350096 128.559097 -0.000000 1.000000 0.000000 0.526800 -0.323400 1 0 1.000000 
0 -76.456902 8.350096 125.645500 -0.000000 1.000000 0.000000 0.526800 -0.326800 1 0 1.000000 
metcombinebridge
0 -81.666702 -56.593105 125.645500 0.000000 -1.000000 0.000000 0.318100 -0.326800 1 0 1.000000 
0 -76.456902 -56.593105 128.559097 0.000000 -1.000000 0.000000 0.318100 -0.323400 1 0 1.000000 
0 -81.666702 -56.593105 128.559097 0.000000 -1.000000 0.000000 0.318100 -0.323400 1 0 1.000000 
metcombinebridge
0 -183.136200 -70.878906 166.385696 0.000000 -1.000000 0.000000 0.272200 -0.279200 1 0 1.000000 
0 -177.926300 -70.878906 169.299301 0.000000 -1.000000 0.000000 0.272200 -0.275800 1 0 1.000000 
0 -183.136200 -70.878906 169.299301 0.000000 -1.000000 0.000000 0.272200 -0.275800 1 0 1.000000 
metcombinebridge
0 -10.430397 -66.278900 125.645500 -1.000000 -0.000000 0.000000 0.287000 -0.326800 1 0 1.000000 
0 -10.430397 -66.278900 128.559097 -1.000000 -0.000000 0.000000 0.287000 -0.323400 1 0 1.000000 
0 -10.430399 -12.071600 128.559097 -1.000000 -0.000000 0.000000 0.461200 -0.323400 1 0 1.000000 
metcombinebridge
0 -183.136200 -70.878906 166.385696 -1.000000 -0.000000 0.000000 0.272200 -0.279200 1 0 1.000000 
0 -183.136200 -70.878906 169.299301 -1.000000 -0.000000 0.000000 0.272200 -0.275800 1 0 1.000000 
0 -183.136200 50.222691 169.299301 -1.000000 -0.000000 0.000000 0.661400 -0.275800 1 0 1.000000 
metcombinebridge
0 -10.430397 -66.278900 125.645500 0.000000 -1.000000 0.000000 0.287000 -0.326800 1 0 1.000000 
0 -5.220597 -66.278900 128.559097 0.000000 -1.000000 0.000000 0.287000 -0.323400 1 0 1.000000 
0 -10.430397 -66.278900 128.559097 0.000000 -1.000000 0.000000 0.287000 -0.323400 1 0 1.000000 
metcombinebridge
0 62.385704 -66.278900 92.482697 1.000000 0.000000 0.000000 0.287000 -0.365500 1 0 1.000000 
0 62.385700 -12.071597 89.569099 1.000000 0.000000 0.000000 0.461200 -0.368900 1 0 1.000000 
0 62.385700 -12.071597 92.482697 1.000000 0.000000 0.000000 0.461200 -0.365500 1 0 1.000000 
metcombinebridge
0 164.729996 -21.289192 12.751800 -0.000000 1.000000 0.000000 0.431600 -0.458600 1 0 1.000000 
0 169.939804 -21.289192 12.751800 -0.000000 1.000000 0.000000 0.431600 -0.458600 1 0 1.000000 
0 169.939804 -21.289192 9.838200 -0.000000 1.000000 0.000000 0.431600 -0.462000 1 0 1.000000 
metcombinebridge
0 57.175900 -12.071597 92.482697 -0.000000 1.000000 0.000000 0.461200 -0.365500 1 0 1.000000 
0 62.385700 -12.071597 92.482697 -0.000000 1.000000 0.000000 0.461200 -0.365500 1 0 1.000000 
0 62.385700 -12.071597 89.569099 -0.000000 1.000000 0.000000 0.461200 -0.368900 1 0 1.000000 
metcombinebridge
0 169.939804 -75.496490 12.751800 1.000000 0.000000 0.000000 0.257400 -0.458600 1 0 1.000000 
0 169.939804 -21.289192 9.838200 1.000000 0.000000 0.000000 0.431600 -0.462000 1 0 1.000000 
0 169.939804 -21.289192 12.751800 1.000000 0.000000 0.000000 0.431600 -0.458600 1 0 1.000000 
end
