version 1
nodes
  0 "Base" -1
  1 "Dummy03" 0
  2 "Dummy04" 1
  3 "Dummy02" 0
  4 "Dummy01" 3
  5 "wheel" 0
end
skeleton
time 0
0 -0.003723 -5.996277 0.000000 1.570796 -0.000000 0.000003
1 13.081052 -6.560521 -5.885627 -0.000000 -0.000000 0.000000
2 -10.868250 -0.089517 -0.000000 0.000000 -0.000000 0.317643
3 -12.621287 6.687714 -5.885625 -0.000000 -0.000000 0.000000
4 10.327061 0.089514 0.000001 0.000000 -0.000000 0.307176
5 -0.021507 -0.007401 -7.935235 0.000000 -0.000000 0.000000
time 1
0 -0.003723 -5.996277 0.000000 1.570796 -0.000000 0.000003
1 12.870108 -6.560521 -5.885627 -0.000000 -0.000000 0.000000
2 -10.868250 -0.089517 -0.000000 0.000000 -0.000000 0.289603
3 -12.414250 6.687714 -5.885625 -0.000000 -0.000000 0.000000
4 10.327061 0.089514 0.000001 0.000000 -0.000000 0.279018
5 -0.021507 -0.007401 -7.935235 0.000000 0.000000 -0.036810
time 2
0 -0.003723 -5.996277 0.000000 1.570796 -0.000000 0.000003
1 12.655257 -6.560521 -5.885627 -0.000000 -0.000000 0.000000
2 -10.868250 -0.089517 -0.000000 0.000000 -0.000000 0.261563
3 -12.203306 6.687714 -5.885625 -0.000000 -0.000000 0.000000
4 10.327061 0.089514 0.000001 0.000000 -0.000000 0.250861
5 -0.021507 -0.007401 -7.935235 0.000000 0.000000 -0.074091
time 3
0 -0.003723 -5.996277 0.000000 1.570796 -0.000000 0.000003
1 12.444314 -6.560521 -5.885627 -0.000000 -0.000000 0.000000
2 -10.868250 -0.089517 -0.000000 0.000000 -0.000000 0.233524
3 -11.996268 6.687714 -5.885625 -0.000000 -0.000000 0.000000
4 10.327061 0.089514 0.000001 0.000000 -0.000000 0.222703
5 -0.021507 -0.007401 -7.935235 0.000000 0.000000 -0.111725
time 4
0 -0.003723 -5.996277 0.000000 1.570796 -0.000000 0.000003
1 12.229464 -6.560521 -5.885627 -0.000000 -0.000000 0.000000
2 -10.868250 -0.089517 -0.000000 0.000000 -0.000000 0.205460
3 -11.785325 6.687714 -5.885625 -0.000000 -0.000000 0.000000
4 10.327061 0.089514 0.000001 0.000000 -0.000000 0.194546
5 -0.021507 -0.007401 -7.935235 0.000000 0.000000 -0.149594
time 5
0 -0.003723 -5.996277 0.000000 1.570796 -0.000000 0.000003
1 12.018519 -6.560521 -5.885627 -0.000000 -0.000000 0.000000
2 -10.868250 -0.089517 -0.000000 0.000000 -0.000000 0.177420
3 -11.578287 6.687714 -5.885625 -0.000000 -0.000000 0.000000
4 10.327061 0.089514 0.000001 0.000000 -0.000000 0.166370
5 -0.021507 -0.007401 -7.935235 0.000000 0.000000 -0.187580
time 6
0 -0.003723 -5.996277 0.000000 1.570796 -0.000000 0.000003
1 11.803669 -6.560521 -5.885627 -0.000000 -0.000000 0.000000
2 -10.868250 -0.089517 -0.000000 0.000000 -0.000000 0.149381
3 -11.367343 6.687714 -5.885625 -0.000000 -0.000000 0.000000
4 10.327061 0.089514 0.000001 0.000000 -0.000000 0.138213
5 -0.021507 -0.007401 -7.935235 0.000000 0.000000 -0.225567
time 7
0 -0.003723 -5.996277 0.000000 1.570796 -0.000000 0.000003
1 11.592725 -6.560521 -5.885627 -0.000000 -0.000000 0.000000
2 -10.868250 -0.089517 -0.000000 0.000000 -0.000000 0.121341
3 -11.160306 6.687714 -5.885625 -0.000000 -0.000000 0.000000
4 10.327061 0.089514 0.000001 0.000000 -0.000000 0.110055
5 -0.021507 -0.007401 -7.935235 0.000000 0.000000 -0.263436
time 8
0 -0.003723 -5.996277 0.000000 1.570796 -0.000000 0.000003
1 11.377874 -6.560521 -5.885627 -0.000000 -0.000000 0.000000
2 -10.868250 -0.089517 -0.000000 0.000000 -0.000000 0.093301
3 -10.949362 6.687714 -5.885625 -0.000000 -0.000000 0.000000
4 10.327061 0.089514 0.000001 0.000000 -0.000000 0.081898
5 -0.021507 -0.007401 -7.935235 0.000000 0.000000 -0.301069
time 9
0 -0.003723 -5.996277 0.000000 1.570796 -0.000000 0.000003
1 11.166931 -6.560521 -5.885627 -0.000000 -0.000000 0.000000
2 -10.868250 -0.089517 -0.000000 0.000000 -0.000000 0.065261
3 -10.742324 6.687714 -5.885625 -0.000000 -0.000000 0.000000
4 10.327061 0.089514 0.000001 0.000000 -0.000000 0.053740
5 -0.021507 -0.007401 -7.935235 0.000000 0.000000 -0.338350
time 10
0 -0.003723 -5.996277 0.000000 1.570796 -0.000000 0.000003
1 10.952081 -6.560521 -5.885627 -0.000000 -0.000000 0.000000
2 -10.868250 -0.089517 -0.000000 0.000000 -0.000000 0.037222
3 -10.531380 6.687714 -5.885625 -0.000000 -0.000000 0.000000
4 10.327061 0.089514 0.000001 0.000000 -0.000000 0.025583
5 -0.021507 -0.007401 -7.935235 0.000000 0.000000 -0.375161
time 11
0 -0.003723 -5.996277 0.000000 1.570796 -0.000000 0.000003
1 10.741137 -6.560521 -5.885627 -0.000000 -0.000000 0.000000
2 -10.868250 -0.089517 -0.000000 0.000000 -0.000000 0.009182
3 -10.324343 6.687714 -5.885625 -0.000000 -0.000000 0.000000
4 10.327061 0.089514 0.000001 0.000000 0.000000 -0.002556
5 -0.021507 -0.007401 -7.935235 0.000000 0.000000 -0.411383
time 12
0 -0.003723 -5.996277 0.000000 1.570796 -0.000000 0.000003
1 10.530192 -6.560521 -5.885627 -0.000000 -0.000000 0.000000
2 -10.868250 -0.089517 -0.000000 0.000000 0.000000 -0.018834
3 -10.113399 6.687714 -5.885625 -0.000000 -0.000000 0.000000
4 10.327061 0.089514 0.000001 0.000000 0.000000 -0.030714
5 -0.021507 -0.007401 -7.935235 0.000000 0.000000 -0.446900
time 13
0 -0.003723 -5.996277 0.000000 1.570796 -0.000000 0.000003
1 10.315342 -6.560521 -5.885627 -0.000000 -0.000000 0.000000
2 -10.868250 -0.089517 -0.000000 0.000000 0.000000 -0.046874
3 -9.906361 6.687714 -5.885625 -0.000000 -0.000000 0.000000
4 10.327061 0.089514 0.000001 0.000000 0.000000 -0.058871
5 -0.021507 -0.007401 -7.935235 0.000000 0.000000 -0.481593
time 14
0 -0.003723 -5.996277 0.000000 1.570796 -0.000000 0.000003
1 10.104399 -6.560521 -5.885627 -0.000000 -0.000000 0.000000
2 -10.868250 -0.089517 -0.000000 0.000000 0.000000 -0.074914
3 -9.695417 6.687714 -5.885625 -0.000000 -0.000000 0.000000
4 10.327061 0.089514 0.000001 0.000000 0.000000 -0.087029
5 -0.021507 -0.007401 -7.935235 0.000000 0.000000 -0.515346
time 15
0 -0.003723 -5.996277 0.000000 1.570796 -0.000000 0.000003
1 9.889548 -6.560521 -5.885627 -0.000000 -0.000000 0.000000
2 -10.868250 -0.089517 -0.000000 0.000000 0.000000 -0.102954
3 -9.488379 6.687714 -5.885625 -0.000000 -0.000000 0.000000
4 10.327061 0.089514 0.000001 0.000000 0.000000 -0.115186
5 -0.021507 -0.007401 -7.935235 0.000000 0.000000 -0.548011
time 16
0 -0.003723 -5.996277 0.000000 1.570796 -0.000000 0.000003
1 9.678604 -6.560521 -5.885627 -0.000000 -0.000000 0.000000
2 -10.868250 -0.089517 -0.000000 0.000000 0.000000 -0.130994
3 -9.277435 6.687714 -5.885625 -0.000000 -0.000000 0.000000
4 10.327061 0.089514 0.000001 0.000000 0.000000 -0.143344
5 -0.021507 -0.007401 -7.935235 0.000000 0.000000 -0.579558
time 17
0 -0.003723 -5.996277 0.000000 1.570796 -0.000000 0.000003
1 9.463754 -6.560521 -5.885627 -0.000000 -0.000000 0.000000
2 -10.868250 -0.089517 -0.000000 0.000000 0.000000 -0.159057
3 -9.070398 6.687714 -5.885625 -0.000000 -0.000000 0.000000
4 10.327061 0.089514 0.000001 0.000000 0.000000 -0.171501
5 -0.021507 -0.007401 -7.935235 0.000000 0.000000 -0.610048
time 18
0 -0.003723 -5.996277 0.000000 1.570796 -0.000000 0.000003
1 9.252810 -6.560521 -5.885627 -0.000000 -0.000000 0.000000
2 -10.868250 -0.089517 -0.000000 0.000000 0.000000 -0.187097
3 -8.859454 6.687714 -5.885625 -0.000000 -0.000000 0.000000
4 10.327061 0.089514 0.000001 0.000000 0.000000 -0.199659
5 -0.021507 -0.007401 -7.935235 0.000000 0.000000 -0.639596
time 19
0 -0.003723 -5.996277 0.000000 1.570796 -0.000000 0.000003
1 9.037960 -6.560521 -5.885627 -0.000000 -0.000000 0.000000
2 -10.868250 -0.089517 -0.000000 0.000000 0.000000 -0.215136
3 -8.652416 6.687714 -5.885625 -0.000000 -0.000000 0.000000
4 10.327061 0.089514 0.000001 0.000000 0.000000 -0.227816
5 -0.021507 -0.007401 -7.935235 0.000000 0.000000 -0.668292
time 20
0 -0.003723 -5.996277 0.000000 1.570796 -0.000000 0.000003
1 8.827016 -6.560521 -5.885627 -0.000000 -0.000000 0.000000
2 -10.868250 -0.089517 -0.000000 0.000000 0.000000 -0.243176
3 -8.441473 6.687714 -5.885625 -0.000000 -0.000000 0.000000
4 10.327061 0.089514 0.000001 0.000000 0.000000 -0.255974
5 -0.021507 -0.007401 -7.935235 0.000000 0.000000 -0.696311
time 21
0 -0.003723 -5.996277 0.000000 1.570796 -0.000000 0.000003
1 8.612165 -6.560521 -5.885627 -0.000000 -0.000000 0.000000
2 -10.868250 -0.089517 -0.000000 0.000000 0.000000 -0.271216
3 -8.234435 6.687714 -5.885625 -0.000000 -0.000000 0.000000
4 10.327061 0.089514 0.000001 0.000000 0.000000 -0.284131
5 -0.021507 -0.007401 -7.935235 0.000000 0.000000 -0.723713
time 22
0 -0.003723 -5.996277 0.000000 1.570796 -0.000000 0.000003
1 8.401221 -6.560521 -5.885627 -0.000000 -0.000000 0.000000
2 -10.868250 -0.089517 -0.000000 0.000000 0.000000 -0.299256
3 -8.023491 6.687714 -5.885625 -0.000000 -0.000000 0.000000
4 10.327061 0.089514 0.000001 0.000000 0.000000 -0.312289
5 -0.021507 -0.007401 -7.935235 0.000000 0.000000 -0.750674
time 23
0 -0.003723 -5.996277 0.000000 1.570796 -0.000000 0.000003
1 8.190277 -6.560521 -5.885627 -0.000000 -0.000000 0.000000
2 -10.868250 -0.089517 -0.000000 0.000000 0.000000 -0.327295
3 -7.816453 6.687714 -5.885625 -0.000000 -0.000000 0.000000
4 10.327061 0.089514 0.000001 0.000000 0.000000 -0.340446
5 -0.021507 -0.007401 -7.935235 0.000000 0.000000 -0.777253
time 24
0 -0.003723 -5.996277 0.000000 1.570796 -0.000000 0.000003
1 7.975427 -6.560521 -5.885627 -0.000000 -0.000000 0.000000
2 -10.868250 -0.089517 -0.000000 0.000000 0.000000 -0.355335
3 -7.605510 6.687714 -5.885625 -0.000000 -0.000000 0.000000
4 10.327061 0.089514 0.000001 0.000000 0.000000 -0.368604
5 -0.021507 -0.007401 -7.935235 0.000000 0.000000 -0.803626
time 25
0 -0.003723 -5.996277 0.000000 1.570796 -0.000000 0.000003
1 7.764483 -6.560521 -5.885627 -0.000000 -0.000000 0.000000
2 -10.868250 -0.089517 -0.000000 0.000000 0.000000 -0.383375
3 -7.398472 6.687714 -5.885625 -0.000000 -0.000000 0.000000
4 10.327061 0.089514 0.000001 0.000000 0.000000 -0.396761
5 -0.021507 -0.007401 -7.935235 0.000000 0.000000 -0.829852
time 26
0 -0.003723 -5.996277 0.000000 1.570796 -0.000000 0.000003
1 7.549633 -6.560521 -5.885627 -0.000000 -0.000000 0.000000
2 -10.868250 -0.089517 -0.000000 0.000000 0.000000 -0.411415
3 -7.187528 6.687714 -5.885625 -0.000000 -0.000000 0.000000
4 10.327061 0.089514 0.000001 0.000000 0.000000 -0.424919
5 -0.021507 -0.007401 -7.935235 0.000000 0.000000 -0.856107
time 27
0 -0.003723 -5.996277 0.000000 1.570796 -0.000000 0.000003
1 7.338689 -6.560521 -5.885627 -0.000000 -0.000000 0.000000
2 -10.868250 -0.089517 -0.000000 0.000000 0.000000 -0.439454
3 -6.980491 6.687714 -5.885625 -0.000000 -0.000000 0.000000
4 10.327061 0.089514 0.000001 0.000000 0.000000 -0.453076
5 -0.021507 -0.007401 -7.935235 0.000000 0.000000 -0.882451
time 28
0 -0.003723 -5.996277 0.000000 1.570796 -0.000000 0.000003
1 7.127745 -6.560521 -5.885627 -0.000000 -0.000000 0.000000
2 -10.868250 -0.089517 -0.000000 0.000000 0.000000 -0.467494
3 -6.773453 6.687714 -5.885625 -0.000000 -0.000000 0.000000
4 10.327061 0.089514 0.000001 0.000000 0.000000 -0.481234
5 -0.021507 -0.007401 -7.935235 0.000000 0.000000 -0.909059
time 29
0 -0.003723 -5.996277 0.000000 1.570796 -0.000000 0.000003
1 6.916801 -6.560521 -5.885627 -0.000000 -0.000000 0.000000
2 -10.868250 -0.089517 -0.000000 0.000000 0.000000 -0.495534
3 -6.566415 6.687714 -5.885625 -0.000000 -0.000000 0.000000
4 10.327061 0.089514 0.000001 0.000000 0.000000 -0.509391
5 -0.021507 -0.007401 -7.935235 0.000000 0.000000 -0.935990
end
