version 1
nodes
  0 "static_prop" -1
end
skeleton
time 0
0 0.000000 0.000000 0.000000 0.000000 0.000000 0.000000
end
triangles
lab_objects02
0 -8.864000 5.021200 -3.222900 -0.673613 0.515210 -0.529910 0.293900 -0.224100 1 0 1.000000 
0 -8.858300 4.623400 -3.616200 -0.673613 0.515210 -0.529910 0.303200 -0.224100 1 0 1.000000 
0 -9.317700 4.563099 -3.179600 -0.673613 0.515210 -0.529910 0.292900 -0.210600 1 0 1.000000 
lab_objects02
0 -2.773901 8.640000 -6.504500 -0.101899 0.994789 -0.003200 0.347400 -0.541900 1 0 1.000000 
0 -2.793801 8.679700 6.442800 -0.101899 0.994789 -0.003200 0.350200 -0.228100 1 0 1.000000 
0 7.704800 9.601400 7.231600 -0.101899 0.994789 -0.003200 0.044600 -0.162800 1 0 1.000000 
lab_objects02
0 7.704800 9.601400 7.231600 -0.101899 0.994789 -0.003200 0.044600 -0.162800 1 0 1.000000 
0 7.727099 9.556900 -7.266600 -0.101899 0.994789 -0.003200 0.044400 -0.533900 1 0 1.000000 
0 -2.773901 8.640000 -6.504500 -0.101899 0.994789 -0.003200 0.347400 -0.541900 1 0 1.000000 
lab_objects02
0 -2.791700 8.086900 7.057200 -0.099196 0.002600 0.995064 0.067300 -0.210300 1 0 1.000000 
0 -2.709700 -8.071300 7.107000 -0.099196 0.002600 0.995064 0.400600 -0.212800 1 0 1.000000 
0 7.814900 -9.180000 8.001600 -0.099196 0.002600 0.995064 0.423300 -0.396800 1 0 1.000000 
lab_objects02
0 7.814900 -9.180000 8.001600 -0.099196 0.002600 0.995064 0.423300 -0.396800 1 0 1.000000 
0 7.721000 9.308100 7.944700 -0.099196 0.002600 0.995064 0.042000 -0.394000 1 0 1.000000 
0 -2.791700 8.086900 7.057200 -0.099196 0.002600 0.995064 0.067300 -0.210300 1 0 1.000000 
lab_objects02
0 -2.705699 -8.667900 6.496200 -0.091797 -0.995773 0.002900 0.350200 -0.227300 1 0 1.000000 
0 -2.685699 -8.707700 -6.451100 -0.091797 -0.995773 0.002900 0.347400 -0.541100 1 0 1.000000 
0 7.824100 -9.522500 -7.207900 -0.091797 -0.995773 0.002900 0.044400 -0.533000 1 0 1.000000 
lab_objects02
0 7.824100 -9.522500 -7.207900 -0.091797 -0.995773 0.002900 0.044400 -0.533000 1 0 1.000000 
0 7.801701 -9.477900 7.290300 -0.091797 -0.995773 0.002900 0.044600 -0.161900 1 0 1.000000 
0 -2.705699 -8.667900 6.496200 -0.091797 -0.995773 0.002900 0.350200 -0.227300 1 0 1.000000 
lab_objects02
0 -2.687800 -8.114800 -7.065600 -0.096097 -0.003600 -0.995365 0.400300 -0.212800 1 0 1.000000 
0 -2.769900 8.043400 -7.115300 -0.096097 -0.003600 -0.995365 0.067000 -0.210300 1 0 1.000000 
0 7.745500 9.259200 -7.977800 -0.096097 -0.003600 -0.995365 0.041600 -0.394000 1 0 1.000000 
lab_objects02
0 7.745500 9.259200 -7.977800 -0.096097 -0.003600 -0.995365 0.041600 -0.394000 1 0 1.000000 
0 7.839500 -9.228900 -7.920900 -0.096097 -0.003600 -0.995365 0.422900 -0.396800 1 0 1.000000 
0 -2.687800 -8.114800 -7.065600 -0.096097 -0.003600 -0.995365 0.400300 -0.212800 1 0 1.000000 
lab_objects02
0 -9.226000 -4.348401 -2.760600 0.005100 -0.999987 0.000000 0.923200 -0.349900 1 0 1.000000 
0 -9.222400 -4.348401 -0.394000 0.005100 -0.999987 0.000000 0.957400 -0.349800 1 0 1.000000 
0 -9.684200 -4.350700 -0.393300 0.005100 -0.999987 0.000000 0.957400 -0.378700 1 0 1.000000 
lab_objects02
0 -9.684200 -4.350700 -0.393300 0.005100 -0.999987 0.000000 0.957400 -0.378700 1 0 1.000000 
0 -9.687800 -4.350801 -2.759900 0.005100 -0.999987 0.000000 0.923300 -0.379000 1 0 1.000000 
0 -9.226000 -4.348401 -2.760600 0.005100 -0.999987 0.000000 0.923200 -0.349900 1 0 1.000000 
lab_objects02
0 -9.222400 -4.348401 -0.394000 0.002100 0.000000 0.999998 0.804300 -0.349800 1 0 1.000000 
0 -9.231300 -2.592100 -0.394000 0.002100 0.000000 0.999998 0.846700 -0.349800 1 0 1.000000 
0 -9.693100 -2.594400 -0.393300 0.002100 0.000000 0.999998 0.846700 -0.378700 1 0 1.000000 
lab_objects02
0 -9.693100 -2.594400 -0.393300 0.002100 0.000000 0.999998 0.846700 -0.378700 1 0 1.000000 
0 -9.684200 -4.350700 -0.393300 0.002100 0.000000 0.999998 0.804300 -0.378700 1 0 1.000000 
0 -9.222400 -4.348401 -0.394000 0.002100 0.000000 0.999998 0.804300 -0.349800 1 0 1.000000 
lab_objects02
0 -9.231300 -2.592100 -0.394000 -0.005100 0.999987 0.000000 0.846700 -0.349800 1 0 1.000000 
0 -9.234900 -2.592100 -2.760600 -0.005100 0.999987 0.000000 0.880900 -0.349900 1 0 1.000000 
0 -9.696700 -2.594501 -2.759900 -0.005100 0.999987 0.000000 0.880800 -0.379000 1 0 1.000000 
lab_objects02
0 -9.696700 -2.594501 -2.759900 -0.005100 0.999987 0.000000 0.880800 -0.379000 1 0 1.000000 
0 -9.693100 -2.594400 -0.393300 -0.005100 0.999987 0.000000 0.846700 -0.378700 1 0 1.000000 
0 -9.231300 -2.592100 -0.394000 -0.005100 0.999987 0.000000 0.846700 -0.349800 1 0 1.000000 
lab_objects02
0 -9.234900 -2.592100 -2.760600 -0.002100 -0.000000 -0.999998 0.880900 -0.349900 1 0 1.000000 
0 -9.226000 -4.348401 -2.760600 -0.002100 -0.000000 -0.999998 0.923200 -0.349900 1 0 1.000000 
0 -9.687800 -4.350801 -2.759900 -0.002100 -0.000000 -0.999998 0.923300 -0.379000 1 0 1.000000 
lab_objects02
0 -9.687800 -4.350801 -2.759900 -0.002100 -0.000000 -0.999998 0.923300 -0.379000 1 0 1.000000 
0 -9.696700 -2.594501 -2.759900 -0.002100 -0.000000 -0.999998 0.880800 -0.379000 1 0 1.000000 
0 -9.234900 -2.592100 -2.760600 -0.002100 -0.000000 -0.999998 0.880900 -0.349900 1 0 1.000000 
lab_objects02
0 -9.693100 -2.594400 -0.393300 -0.999986 -0.005100 0.001100 0.827500 -0.379800 1 0 1.000000 
0 -9.696700 -2.594501 -2.759900 -0.999986 -0.005100 0.001100 0.827500 -0.433700 1 0 1.000000 
0 -9.687800 -4.350801 -2.759900 -0.999986 -0.005100 0.001100 0.867500 -0.433700 1 0 1.000000 
lab_objects02
0 -9.687800 -4.350801 -2.759900 -0.999986 -0.005100 0.001100 0.867500 -0.433700 1 0 1.000000 
0 -9.684200 -4.350700 -0.393300 -0.999986 -0.005100 0.001100 0.867500 -0.379800 1 0 1.000000 
0 -9.693100 -2.594400 -0.393300 -0.999986 -0.005100 0.001100 0.827500 -0.379800 1 0 1.000000 
lab_objects02
0 -2.135800 -7.801500 -6.442900 0.210211 0.977652 -0.002700 0.336800 -0.540700 1 0 1.000000 
0 -2.155700 -7.761800 6.484100 0.210211 0.977652 -0.002700 0.339600 -0.227500 1 0 1.000000 
0 9.337200 -9.842600 8.292200 0.210211 0.977652 -0.002700 0.015600 -0.134400 1 0 1.000000 
lab_objects02
0 9.337200 -9.842600 8.292200 0.210211 0.977652 -0.002700 0.015600 -0.134400 1 0 1.000000 
0 9.362600 -9.893200 -8.202700 0.210211 0.977652 -0.002700 0.014700 -0.548200 1 0 1.000000 
0 -2.135800 -7.801500 -6.442900 0.210211 0.977652 -0.002700 0.336800 -0.540700 1 0 1.000000 
lab_objects02
0 -2.155700 -7.761800 6.484100 0.181806 -0.002100 -0.983332 0.718000 -0.349000 1 0 1.000000 
0 -2.234700 7.779200 6.436200 0.181806 -0.002100 -0.983332 0.717400 -0.764800 1 0 1.000000 
0 9.236500 9.987800 8.231100 0.181806 -0.002100 -0.983332 0.935500 -0.763200 1 0 1.000000 
lab_objects02
0 9.236500 9.987800 8.231100 0.181806 -0.002100 -0.983332 0.935500 -0.763200 1 0 1.000000 
0 9.337200 -9.842600 8.292200 0.181806 -0.002100 -0.983332 0.934400 -0.348800 1 0 1.000000 
0 -2.155700 -7.761800 6.484100 0.181806 -0.002100 -0.983332 0.718000 -0.349000 1 0 1.000000 
lab_objects02
0 -2.234700 7.779200 6.436200 0.220189 -0.975452 0.003300 0.339600 -0.228200 1 0 1.000000 
0 -2.214800 7.739500 -6.490800 0.220189 -0.975452 0.003300 0.336800 -0.541400 1 0 1.000000 
0 9.261900 9.937100 -8.263800 0.220189 -0.975452 0.003300 0.014700 -0.549200 1 0 1.000000 
lab_objects02
0 9.261900 9.937100 -8.263800 0.220189 -0.975452 0.003300 0.014700 -0.549200 1 0 1.000000 
0 9.236500 9.987800 8.231100 0.220189 -0.975452 0.003300 0.015600 -0.135300 1 0 1.000000 
0 -2.234700 7.779200 6.436200 0.220189 -0.975452 0.003300 0.339600 -0.228200 1 0 1.000000 
lab_objects02
0 -2.214800 7.739500 -6.490800 0.178796 0.003900 0.983878 0.717400 -0.765100 1 0 1.000000 
0 -2.135800 -7.801500 -6.442900 0.178796 0.003900 0.983878 0.718000 -0.349300 1 0 1.000000 
0 9.362600 -9.893200 -8.202700 0.178796 0.003900 0.983878 0.934400 -0.349100 1 0 1.000000 
lab_objects02
0 9.362600 -9.893200 -8.202700 0.178796 0.003900 0.983878 0.934400 -0.349100 1 0 1.000000 
0 9.261900 9.937100 -8.263800 0.178796 0.003900 0.983878 0.935500 -0.763600 1 0 1.000000 
0 -2.214800 7.739500 -6.490800 0.178796 0.003900 0.983878 0.717400 -0.765100 1 0 1.000000 
lab_objects02
0 9.362600 -9.893200 -8.202700 0.999539 -0.030301 0.001600 0.416800 -0.549100 1 0 1.000000 
0 9.337200 -9.842600 8.292200 0.999539 -0.030301 0.001600 0.416800 -0.154600 1 0 1.000000 
0 9.308000 -10.610000 8.934400 0.999539 -0.030301 0.001600 0.432100 -0.139300 1 0 1.000000 
lab_objects02
0 9.308000 -10.610000 8.934400 0.999539 -0.030301 0.001600 0.432100 -0.139300 1 0 1.000000 
0 9.335400 -10.664600 -8.840300 0.999539 -0.030301 0.001600 0.432100 -0.564400 1 0 1.000000 
0 9.362600 -9.893200 -8.202700 0.999539 -0.030301 0.001600 0.416800 -0.549100 1 0 1.000000 
lab_objects02
0 9.236500 9.987800 8.231100 0.999183 0.040399 0.001400 0.022300 -0.154600 1 0 1.000000 
0 9.261900 9.937100 -8.263800 0.999183 0.040399 0.001400 0.022300 -0.549100 1 0 1.000000 
0 9.226900 10.704300 -8.906100 0.999183 0.040399 0.001400 0.007000 -0.564400 1 0 1.000000 
lab_objects02
0 9.226900 10.704300 -8.906100 0.999183 0.040399 0.001400 0.007000 -0.564400 1 0 1.000000 
0 9.199400 10.758900 8.868600 0.999183 0.040399 0.001400 0.007000 -0.139300 1 0 1.000000 
0 9.236500 9.987800 8.231100 0.999183 0.040399 0.001400 0.022300 -0.154600 1 0 1.000000 
lab_objects02
0 9.337200 -9.842600 8.292200 0.999018 0.005200 0.044001 0.416800 -0.154600 1 0 1.000000 
0 9.236500 9.987800 8.231100 0.999018 0.005200 0.044001 0.022300 -0.154600 1 0 1.000000 
0 9.199400 10.758900 8.868600 0.999018 0.005200 0.044001 0.007000 -0.139300 1 0 1.000000 
lab_objects02
0 9.199400 10.758900 8.868600 0.999018 0.005200 0.044001 0.007000 -0.139300 1 0 1.000000 
0 9.308000 -10.610000 8.934400 0.999018 0.005200 0.044001 0.432100 -0.139300 1 0 1.000000 
0 9.337200 -9.842600 8.292200 0.999018 0.005200 0.044001 0.416800 -0.154600 1 0 1.000000 
lab_objects02
0 9.261900 9.937100 -8.263800 0.999146 0.005000 -0.041002 0.022300 -0.549100 1 0 1.000000 
0 9.362600 -9.893200 -8.202700 0.999146 0.005000 -0.041002 0.416800 -0.549100 1 0 1.000000 
0 9.335400 -10.664600 -8.840300 0.999146 0.005000 -0.041002 0.432100 -0.564400 1 0 1.000000 
lab_objects02
0 9.335400 -10.664600 -8.840300 0.999146 0.005000 -0.041002 0.432100 -0.564400 1 0 1.000000 
0 9.226900 10.704300 -8.906100 0.999146 0.005000 -0.041002 0.007000 -0.564400 1 0 1.000000 
0 9.261900 9.937100 -8.263800 0.999146 0.005000 -0.041002 0.022300 -0.549100 1 0 1.000000 
lab_objects02
0 7.721000 9.308100 7.944700 -0.890591 -0.003100 0.454795 0.035600 -0.161400 1 0 1.000000 
0 7.814900 -9.180000 8.001600 -0.890591 -0.003100 0.454795 0.403400 -0.161400 1 0 1.000000 
0 8.380900 -10.614800 8.933000 -0.890591 -0.003100 0.454795 0.432100 -0.139300 1 0 1.000000 
lab_objects02
0 8.380900 -10.614800 8.933000 -0.890591 -0.003100 0.454795 0.432100 -0.139300 1 0 1.000000 
0 8.272400 10.754200 8.867200 -0.890591 -0.003100 0.454795 0.007000 -0.139300 1 0 1.000000 
0 7.721000 9.308100 7.944700 -0.890591 -0.003100 0.454795 0.035600 -0.161400 1 0 1.000000 
lab_objects02
0 7.839500 -9.228900 -7.920900 -0.889192 -0.005900 -0.457496 0.403400 -0.542200 1 0 1.000000 
0 7.745500 9.259200 -7.977800 -0.889192 -0.005900 -0.457496 0.035600 -0.542200 1 0 1.000000 
0 8.299800 10.699600 -8.907500 -0.889192 -0.005900 -0.457496 0.007000 -0.564400 1 0 1.000000 
lab_objects02
0 8.299800 10.699600 -8.907500 -0.889192 -0.005900 -0.457496 0.007000 -0.564400 1 0 1.000000 
0 8.408300 -10.669300 -8.841700 -0.889192 -0.005900 -0.457496 0.432100 -0.564400 1 0 1.000000 
0 7.839500 -9.228900 -7.920900 -0.889192 -0.005900 -0.457496 0.403400 -0.542200 1 0 1.000000 
lab_objects02
0 9.308000 -10.610000 8.934400 0.005100 -0.999982 0.003100 0.016400 -0.116900 1 0 1.000000 
0 8.380900 -10.614800 8.933000 0.005100 -0.999982 0.003100 0.034200 -0.117200 1 0 1.000000 
0 8.408300 -10.669300 -8.841700 0.005100 -0.999982 0.003100 0.032800 -0.565800 1 0 1.000000 
lab_objects02
0 8.408300 -10.669300 -8.841700 0.005100 -0.999982 0.003100 0.032800 -0.565800 1 0 1.000000 
0 9.335400 -10.664600 -8.840300 0.005100 -0.999982 0.003100 0.015100 -0.565600 1 0 1.000000 
0 9.308000 -10.610000 8.934400 0.005100 -0.999982 0.003100 0.016400 -0.116900 1 0 1.000000 
lab_objects02
0 8.272400 10.754200 8.867200 -0.005100 0.999982 -0.003100 0.034100 -0.118200 1 0 1.000000 
0 9.199400 10.758900 8.868600 -0.005100 0.999982 -0.003100 0.016400 -0.118000 1 0 1.000000 
0 9.226900 10.704300 -8.906100 -0.005100 0.999982 -0.003100 0.015100 -0.566600 1 0 1.000000 
lab_objects02
0 9.226900 10.704300 -8.906100 -0.005100 0.999982 -0.003100 0.015100 -0.566600 1 0 1.000000 
0 8.299800 10.699600 -8.907500 -0.005100 0.999982 -0.003100 0.032800 -0.566800 1 0 1.000000 
0 8.272400 10.754200 8.867200 -0.005100 0.999982 -0.003100 0.034100 -0.118200 1 0 1.000000 
lab_objects02
0 -2.234700 7.779200 6.436200 0.999986 0.005100 0.001500 0.031200 -0.186300 1 0 1.000000 
0 -2.155700 -7.761800 6.484100 0.999986 0.005100 0.001500 0.340400 -0.186300 1 0 1.000000 
0 -2.135800 -7.801500 -6.442900 0.999986 0.005100 0.001500 0.340400 -0.525800 1 0 1.000000 
lab_objects02
0 -2.135800 -7.801500 -6.442900 0.999986 0.005100 0.001500 0.340400 -0.525800 1 0 1.000000 
0 -2.214800 7.739500 -6.490800 0.999986 0.005100 0.001500 0.031200 -0.525800 1 0 1.000000 
0 -2.234700 7.779200 6.436200 0.999986 0.005100 0.001500 0.031200 -0.186300 1 0 1.000000 
lab_objects02
0 8.272400 10.754200 8.867200 -0.001500 0.003100 0.999994 0.012200 -0.403600 1 0 1.000000 
0 8.380900 -10.614800 8.933000 -0.001500 0.003100 0.999994 0.453000 -0.406800 1 0 1.000000 
0 9.308000 -10.610000 8.934400 -0.001500 0.003100 0.999994 0.452800 -0.423000 1 0 1.000000 
lab_objects02
0 9.308000 -10.610000 8.934400 -0.001500 0.003100 0.999994 0.452800 -0.423000 1 0 1.000000 
0 9.199400 10.758900 8.868600 -0.001500 0.003100 0.999994 0.012100 -0.419800 1 0 1.000000 
0 8.272400 10.754200 8.867200 -0.001500 0.003100 0.999994 0.012200 -0.403600 1 0 1.000000 
lab_objects02
0 8.299800 10.699600 -8.907500 0.001500 -0.003100 -0.999994 0.011800 -0.403600 1 0 1.000000 
0 9.226900 10.704300 -8.906100 0.001500 -0.003100 -0.999994 0.011600 -0.419800 1 0 1.000000 
0 9.335400 -10.664600 -8.840300 0.001500 -0.003100 -0.999994 0.452400 -0.423000 1 0 1.000000 
lab_objects02
0 9.335400 -10.664600 -8.840300 0.001500 -0.003100 -0.999994 0.452400 -0.423000 1 0 1.000000 
0 8.408300 -10.669300 -8.841700 0.001500 -0.003100 -0.999994 0.452500 -0.406800 1 0 1.000000 
0 8.299800 10.699600 -8.907500 0.001500 -0.003100 -0.999994 0.011800 -0.403600 1 0 1.000000 
lab_objects02
0 -3.191300 -7.934500 6.747700 -0.999986 -0.005100 -0.001500 0.343700 -0.180000 1 0 1.000000 
0 -3.272000 7.943000 6.698800 -0.999986 -0.005100 -0.001500 0.027900 -0.180000 1 0 1.000000 
0 -3.273300 8.335300 6.292200 -0.999986 -0.005100 -0.001500 0.020100 -0.189700 1 0 1.000000 
lab_objects02
0 -3.191300 -7.934500 6.747700 -0.999986 -0.005100 -0.001500 0.343700 -0.180000 1 0 1.000000 
0 -3.273300 8.335300 6.292200 -0.999986 -0.005100 -0.001500 0.020100 -0.189700 1 0 1.000000 
0 -3.253800 8.296500 -6.353400 -0.999986 -0.005100 -0.001500 0.020100 -0.522500 1 0 1.000000 
lab_objects02
0 -3.253800 8.296500 -6.353400 -0.999986 -0.005100 -0.001500 0.020100 -0.522500 1 0 1.000000 
0 -3.251200 7.901600 -6.757600 -0.999986 -0.005100 -0.001500 0.027900 -0.532200 1 0 1.000000 
0 -3.191300 -7.934500 6.747700 -0.999986 -0.005100 -0.001500 0.343700 -0.180000 1 0 1.000000 
lab_objects02
0 -3.188699 -8.329300 6.343500 -0.999986 -0.005100 -0.001500 0.351600 -0.189700 1 0 1.000000 
0 -3.191300 -7.934500 6.747700 -0.999986 -0.005100 -0.001500 0.343700 -0.180000 1 0 1.000000 
0 -3.251200 7.901600 -6.757600 -0.999986 -0.005100 -0.001500 0.027900 -0.532200 1 0 1.000000 
lab_objects02
0 -3.251200 7.901600 -6.757600 -0.999986 -0.005100 -0.001500 0.027900 -0.532200 1 0 1.000000 
0 -3.169199 -8.368200 -6.302000 -0.999986 -0.005100 -0.001500 0.351600 -0.522500 1 0 1.000000 
0 -3.188699 -8.329300 6.343500 -0.999986 -0.005100 -0.001500 0.351600 -0.189700 1 0 1.000000 
lab_objects02
0 -3.251200 7.901600 -6.757600 -0.999986 -0.005100 -0.001500 0.027900 -0.532200 1 0 1.000000 
0 -3.170500 -7.975800 -6.708700 -0.999986 -0.005100 -0.001500 0.343700 -0.532200 1 0 1.000000 
0 -3.169199 -8.368200 -6.302000 -0.999986 -0.005100 -0.001500 0.351600 -0.522500 1 0 1.000000 
lab_objects02
0 -2.547000 -6.120300 -4.699700 -0.324719 -0.669139 -0.668439 0.329700 -0.409400 1 0 1.000000 
0 -2.545500 -6.559600 -4.260700 -0.324608 -0.668716 -0.668916 0.319400 -0.409500 1 0 1.000000 
0 -8.811100 -4.660700 -3.587700 -0.324608 -0.668716 -0.668916 0.302900 -0.224100 1 0 1.000000 
lab_objects02
0 -8.812800 -5.056001 -3.191900 -0.324608 -0.668716 -0.668916 0.293500 -0.224100 1 0 1.000000 
0 -8.811100 -4.660700 -3.587700 -0.324608 -0.668716 -0.668916 0.302900 -0.224100 1 0 1.000000 
0 -2.545500 -6.559600 -4.260700 -0.324608 -0.668716 -0.668916 0.319400 -0.409500 1 0 1.000000 
lab_objects02
0 -2.545500 -6.559600 -4.260700 -0.272699 -0.962096 0.002500 0.319400 -0.409500 1 0 1.000000 
0 -2.559900 -6.530900 5.091200 -0.272699 -0.962096 0.002500 0.098600 -0.411500 1 0 1.000000 
0 -8.812800 -5.056001 -3.191900 -0.272699 -0.962096 0.002500 0.293500 -0.224100 1 0 1.000000 
lab_objects02
0 -8.823900 -5.034000 3.993900 -0.272699 -0.962096 0.002500 0.123900 -0.225600 1 0 1.000000 
0 -8.812800 -5.056001 -3.191900 -0.272699 -0.962096 0.002500 0.293500 -0.224100 1 0 1.000000 
0 -2.559900 -6.530900 5.091200 -0.272699 -0.962096 0.002500 0.098600 -0.411500 1 0 1.000000 
lab_objects02
0 -8.870600 4.647900 4.358600 -0.209310 0.001900 0.977847 0.123600 -0.254300 1 0 1.000000 
0 -8.823400 -4.636200 4.387200 -0.209310 0.001900 0.977847 0.315100 -0.255700 1 0 1.000000 
0 -2.625100 6.171200 5.489800 -0.209310 0.001900 0.977847 0.092100 -0.363400 1 0 1.000000 
lab_objects02
0 -2.562800 -6.088900 5.527500 -0.209310 0.001900 0.977847 0.345000 -0.365300 1 0 1.000000 
0 -2.625100 6.171200 5.489800 -0.209310 0.001900 0.977847 0.092100 -0.363400 1 0 1.000000 
0 -8.823400 -4.636200 4.387200 -0.209310 0.001900 0.977847 0.315100 -0.255700 1 0 1.000000 
lab_objects02
0 -8.864000 5.021200 -3.222900 -0.282398 0.959291 -0.003400 0.293900 -0.224100 1 0 1.000000 
0 -8.875100 5.043200 3.962800 -0.282398 0.959291 -0.003400 0.124300 -0.225600 1 0 1.000000 
0 -2.612200 6.581800 -4.301100 -0.282398 0.959291 -0.003400 0.319900 -0.409500 1 0 1.000000 
lab_objects02
0 -2.626700 6.610500 5.050800 -0.282398 0.959291 -0.003400 0.099100 -0.411500 1 0 1.000000 
0 -2.612200 6.581800 -4.301100 -0.282398 0.959291 -0.003400 0.319900 -0.409500 1 0 1.000000 
0 -8.875100 5.043200 3.962800 -0.282398 0.959291 -0.003400 0.124300 -0.225600 1 0 1.000000 
lab_objects02
0 -9.282100 -4.580501 3.949200 -0.747998 -0.001800 0.663698 0.270300 -0.240600 1 0 1.000000 
0 -8.823400 -4.636200 4.387200 -0.747998 -0.001800 0.663698 0.271400 -0.230100 1 0 1.000000 
0 -9.328600 4.584899 3.921000 -0.747998 -0.001800 0.663698 0.087900 -0.240600 1 0 1.000000 
lab_objects02
0 -8.870600 4.647900 4.358600 -0.747998 -0.001800 0.663698 0.086800 -0.230100 1 0 1.000000 
0 -9.328600 4.584899 3.921000 -0.747998 -0.001800 0.663698 0.087900 -0.240600 1 0 1.000000 
0 -8.823400 -4.636200 4.387200 -0.747998 -0.001800 0.663698 0.271400 -0.230100 1 0 1.000000 
lab_objects02
0 -9.271100 -4.602400 -3.151400 -0.759595 -0.650396 0.000800 0.292500 -0.210600 1 0 1.000000 
0 -8.812800 -5.056001 -3.191900 -0.759595 -0.650396 0.000800 0.293500 -0.224100 1 0 1.000000 
0 -9.282100 -4.580501 3.949200 -0.759595 -0.650396 0.000800 0.124900 -0.212100 1 0 1.000000 
lab_objects02
0 -8.823900 -5.034000 3.993900 -0.759595 -0.650396 0.000800 0.123900 -0.225600 1 0 1.000000 
0 -9.282100 -4.580501 3.949200 -0.759595 -0.650396 0.000800 0.124900 -0.212100 1 0 1.000000 
0 -8.812800 -5.056001 -3.191900 -0.759595 -0.650396 0.000800 0.293500 -0.224100 1 0 1.000000 
lab_objects02
0 -9.317700 4.563099 -3.179600 -0.746010 -0.005800 -0.665909 0.087900 -0.410400 1 0 1.000000 
0 -8.858300 4.623400 -3.616200 -0.746010 -0.005800 -0.665909 0.086800 -0.420800 1 0 1.000000 
0 -9.271100 -4.602400 -3.151400 -0.746010 -0.005800 -0.665909 0.270300 -0.410400 1 0 1.000000 
lab_objects02
0 -8.811100 -4.660700 -3.587700 -0.746010 -0.005800 -0.665909 0.271400 -0.420800 1 0 1.000000 
0 -9.271100 -4.602400 -3.151400 -0.746010 -0.005800 -0.665909 0.270300 -0.410400 1 0 1.000000 
0 -8.858300 4.623400 -3.616200 -0.746010 -0.005800 -0.665909 0.086800 -0.420800 1 0 1.000000 
lab_objects02
0 -8.858300 4.623400 -3.616200 -0.331410 0.661220 -0.673020 0.303200 -0.224100 1 0 1.000000 
0 -8.864000 5.021200 -3.222900 -0.331410 0.661220 -0.673020 0.293900 -0.224100 1 0 1.000000 
0 -2.609300 6.139800 -4.737400 -0.331410 0.661220 -0.673020 0.330300 -0.409400 1 0 1.000000 
lab_objects02
0 -2.612200 6.581800 -4.301100 -0.331412 0.661723 -0.672524 0.319900 -0.409500 1 0 1.000000 
0 -2.609300 6.139800 -4.737400 -0.331410 0.661220 -0.673020 0.330300 -0.409400 1 0 1.000000 
0 -8.864000 5.021200 -3.222900 -0.331410 0.661220 -0.673020 0.293900 -0.224100 1 0 1.000000 
lab_objects02
0 -8.823400 -4.636200 4.387200 -0.326788 -0.664575 0.671975 0.114600 -0.225800 1 0 1.000000 
0 -8.823900 -5.034000 3.993900 -0.326788 -0.664575 0.671975 0.123900 -0.225600 1 0 1.000000 
0 -2.562800 -6.088900 5.527500 -0.326788 -0.664575 0.671975 0.088300 -0.411600 1 0 1.000000 
lab_objects02
0 -2.559900 -6.530900 5.091200 -0.326721 -0.665043 0.671544 0.098600 -0.411500 1 0 1.000000 
0 -2.562800 -6.088900 5.527500 -0.326788 -0.664575 0.671975 0.088300 -0.411600 1 0 1.000000 
0 -8.823900 -5.034000 3.993900 -0.326788 -0.664575 0.671975 0.123900 -0.225600 1 0 1.000000 
lab_objects02
0 -8.875100 5.043200 3.962800 -0.333399 0.665399 0.667899 0.124300 -0.225600 1 0 1.000000 
0 -8.870600 4.647900 4.358600 -0.333399 0.665399 0.667899 0.115000 -0.225800 1 0 1.000000 
0 -2.626700 6.610500 5.050800 -0.333399 0.665399 0.667899 0.099100 -0.411500 1 0 1.000000 
lab_objects02
0 -2.625100 6.171200 5.489800 -0.333511 0.665822 0.667422 0.088800 -0.411600 1 0 1.000000 
0 -2.626700 6.610500 5.050800 -0.333399 0.665399 0.667899 0.099100 -0.411500 1 0 1.000000 
0 -8.870600 4.647900 4.358600 -0.333399 0.665399 0.667899 0.115000 -0.225800 1 0 1.000000 
lab_objects02
0 -2.705699 -8.667900 6.496200 -0.637909 -0.770111 0.001400 0.350200 -0.227300 1 0 1.000000 
0 -3.188699 -8.329300 6.343500 -0.637909 -0.770111 0.001400 0.359400 -0.231500 1 0 1.000000 
0 -2.685699 -8.707700 -6.451100 -0.637909 -0.770111 0.001400 0.347400 -0.541100 1 0 1.000000 
lab_objects02
0 -3.169199 -8.368200 -6.302000 -0.637909 -0.770111 0.001400 0.356700 -0.537100 1 0 1.000000 
0 -2.685699 -8.707700 -6.451100 -0.637909 -0.770111 0.001400 0.347400 -0.541100 1 0 1.000000 
0 -3.188699 -8.329300 6.343500 -0.637909 -0.770111 0.001400 0.359400 -0.231500 1 0 1.000000 
lab_objects02
0 -2.773901 8.640000 -6.504500 -0.645692 0.763591 -0.003300 0.347400 -0.541900 1 0 1.000000 
0 -3.253800 8.296500 -6.353400 -0.645692 0.763591 -0.003300 0.356700 -0.537900 1 0 1.000000 
0 -2.793801 8.679700 6.442800 -0.645692 0.763591 -0.003300 0.350200 -0.228100 1 0 1.000000 
lab_objects02
0 -3.273300 8.335300 6.292200 -0.645692 0.763591 -0.003300 0.359400 -0.232400 1 0 1.000000 
0 -2.793801 8.679700 6.442800 -0.645692 0.763591 -0.003300 0.350200 -0.228100 1 0 1.000000 
0 -3.253800 8.296500 -6.353400 -0.645692 0.763591 -0.003300 0.356700 -0.537900 1 0 1.000000 
lab_objects02
0 -2.687800 -8.114800 -7.065600 -0.658423 -0.005700 -0.752626 0.346500 -0.540700 1 0 1.000000 
0 -3.170500 -7.975800 -6.708700 -0.658423 -0.005700 -0.752626 0.343700 -0.532200 1 0 1.000000 
0 -2.769900 8.043400 -7.115300 -0.658423 -0.005700 -0.752626 0.025100 -0.540700 1 0 1.000000 
lab_objects02
0 -3.251200 7.901600 -6.757600 -0.658423 -0.005700 -0.752626 0.027900 -0.532200 1 0 1.000000 
0 -2.769900 8.043400 -7.115300 -0.658423 -0.005700 -0.752626 0.025100 -0.540700 1 0 1.000000 
0 -3.170500 -7.975800 -6.708700 -0.658423 -0.005700 -0.752626 0.343700 -0.532200 1 0 1.000000 
lab_objects02
0 -2.791700 8.086900 7.057200 -0.660724 -0.001000 0.750628 0.025100 -0.171400 1 0 1.000000 
0 -3.272000 7.943000 6.698800 -0.660724 -0.001000 0.750628 0.027900 -0.180000 1 0 1.000000 
0 -2.709700 -8.071300 7.107000 -0.660724 -0.001000 0.750628 0.346500 -0.171400 1 0 1.000000 
lab_objects02
0 -3.191300 -7.934500 6.747700 -0.660724 -0.001000 0.750628 0.343700 -0.180000 1 0 1.000000 
0 -2.709700 -8.071300 7.107000 -0.660724 -0.001000 0.750628 0.346500 -0.171400 1 0 1.000000 
0 -3.272000 7.943000 6.698800 -0.660724 -0.001000 0.750628 0.027900 -0.180000 1 0 1.000000 
lab_objects02
0 -3.170500 -7.975800 -6.708700 -0.647631 -0.549426 -0.527925 0.356600 -0.548200 1 0 1.000000 
0 -2.687800 -8.114800 -7.065600 -0.647631 -0.549426 -0.527925 0.347200 -0.557700 1 0 1.000000 
0 -3.169199 -8.368200 -6.302000 -0.647631 -0.549426 -0.527925 0.356700 -0.537100 1 0 1.000000 
lab_objects02
0 -2.685699 -8.707700 -6.451100 -0.647595 -0.549496 -0.527896 0.347400 -0.541100 1 0 1.000000 
0 -3.169199 -8.368200 -6.302000 -0.647631 -0.549426 -0.527925 0.356700 -0.537100 1 0 1.000000 
0 -2.687800 -8.114800 -7.065600 -0.647631 -0.549426 -0.527925 0.347200 -0.557700 1 0 1.000000 
lab_objects02
0 -3.272000 7.943000 6.698800 -0.654777 0.542781 0.525981 0.359500 -0.221300 1 0 1.000000 
0 -2.791700 8.086900 7.057200 -0.654777 0.542781 0.525981 0.350400 -0.211500 1 0 1.000000 
0 -3.273300 8.335300 6.292200 -0.654777 0.542781 0.525981 0.359400 -0.232400 1 0 1.000000 
lab_objects02
0 -2.793801 8.679700 6.442800 -0.654777 0.542781 0.525981 0.350200 -0.228100 1 0 1.000000 
0 -3.273300 8.335300 6.292200 -0.654777 0.542781 0.525981 0.359400 -0.232400 1 0 1.000000 
0 -2.791700 8.086900 7.057200 -0.654777 0.542781 0.525981 0.350400 -0.211500 1 0 1.000000 
lab_objects02
0 -3.253800 8.296500 -6.353400 -0.653104 0.539603 -0.531303 0.356700 -0.537900 1 0 1.000000 
0 -2.773901 8.640000 -6.504500 -0.653104 0.539603 -0.531303 0.347400 -0.541900 1 0 1.000000 
0 -3.251200 7.901600 -6.757600 -0.653104 0.539603 -0.531303 0.356600 -0.548900 1 0 1.000000 
lab_objects02
0 -2.769900 8.043400 -7.115300 -0.653104 0.539603 -0.531303 0.347200 -0.558500 1 0 1.000000 
0 -3.251200 7.901600 -6.757600 -0.653104 0.539603 -0.531303 0.356600 -0.548900 1 0 1.000000 
0 -2.773901 8.640000 -6.504500 -0.653104 0.539603 -0.531303 0.347400 -0.541900 1 0 1.000000 
lab_objects02
0 -3.188699 -8.329300 6.343500 -0.649215 -0.546213 0.529312 0.359400 -0.231500 1 0 1.000000 
0 -2.705699 -8.667900 6.496200 -0.649215 -0.546213 0.529312 0.350200 -0.227300 1 0 1.000000 
0 -3.191300 -7.934500 6.747700 -0.649215 -0.546213 0.529312 0.359500 -0.220600 1 0 1.000000 
lab_objects02
0 -2.709700 -8.071300 7.107000 -0.649215 -0.546213 0.529312 0.350400 -0.210700 1 0 1.000000 
0 -3.191300 -7.934500 6.747700 -0.649215 -0.546213 0.529312 0.359500 -0.220600 1 0 1.000000 
0 -2.705699 -8.667900 6.496200 -0.649215 -0.546213 0.529312 0.350200 -0.227300 1 0 1.000000 
lab_objects02
0 -9.328600 4.584899 3.921000 -0.999986 -0.005100 -0.001500 0.087900 -0.240600 1 0 1.000000 
0 -9.317700 4.563099 -3.179600 -0.999986 -0.005100 -0.001500 0.087900 -0.410400 1 0 1.000000 
0 -9.282100 -4.580501 3.949200 -0.999986 -0.005100 -0.001500 0.270300 -0.240600 1 0 1.000000 
lab_objects02
0 -9.271100 -4.602400 -3.151400 -0.999986 -0.005100 -0.001500 0.270300 -0.410400 1 0 1.000000 
0 -9.282100 -4.580501 3.949200 -0.999986 -0.005100 -0.001500 0.270300 -0.240600 1 0 1.000000 
0 -9.317700 4.563099 -3.179600 -0.999986 -0.005100 -0.001500 0.087900 -0.410400 1 0 1.000000 
lab_objects02
0 -8.811100 -4.660700 -3.587700 -0.206296 -0.004100 -0.978481 0.314900 -0.255700 1 0 1.000000 
0 -8.858300 4.623400 -3.616200 -0.206296 -0.004100 -0.978481 0.123400 -0.254300 1 0 1.000000 
0 -2.547000 -6.120300 -4.699700 -0.206296 -0.004100 -0.978481 0.344700 -0.365300 1 0 1.000000 
lab_objects02
0 -2.609300 6.139800 -4.737400 -0.206296 -0.004100 -0.978481 0.091900 -0.363400 1 0 1.000000 
0 -2.547000 -6.120300 -4.699700 -0.206296 -0.004100 -0.978481 0.344700 -0.365300 1 0 1.000000 
0 -8.858300 4.623400 -3.616200 -0.206296 -0.004100 -0.978481 0.123400 -0.254300 1 0 1.000000 
lab_objects02
0 -9.271100 -4.602400 -3.151400 -0.668398 -0.525198 -0.526698 0.292500 -0.210600 1 0 1.000000 
0 -8.811100 -4.660700 -3.587700 -0.668398 -0.525198 -0.526698 0.302900 -0.224100 1 0 1.000000 
0 -8.812800 -5.056001 -3.191900 -0.668398 -0.525198 -0.526698 0.293500 -0.224100 1 0 1.000000 
lab_objects02
0 -2.793801 8.679700 6.442800 -0.134102 0.712912 0.688312 0.350200 -0.228100 1 0 1.000000 
0 -2.791700 8.086900 7.057200 -0.134102 0.712912 0.688312 0.350400 -0.211500 1 0 1.000000 
0 7.704800 9.601400 7.231600 -0.134102 0.712912 0.688312 0.044600 -0.162800 1 0 1.000000 
lab_objects02
0 -9.328600 4.584899 3.921000 -0.675273 0.518380 0.524679 0.087900 -0.240600 1 0 1.000000 
0 -8.870600 4.647900 4.358600 -0.675273 0.518380 0.524679 0.086800 -0.230100 1 0 1.000000 
0 -8.875100 5.043200 3.962800 -0.675273 0.518380 0.524679 0.078900 -0.239500 1 0 1.000000 
lab_objects02
0 7.721000 9.308100 7.944700 -0.161699 0.911493 0.378197 0.044600 -0.143500 1 0 1.000000 
0 7.704800 9.601400 7.231600 -0.161699 0.911493 0.378197 0.044600 -0.162800 1 0 1.000000 
0 -2.791700 8.086900 7.057200 -0.161699 0.911493 0.378197 0.350400 -0.211500 1 0 1.000000 
lab_objects02
0 -8.823900 -5.034000 3.993900 -0.669979 -0.521984 0.527883 0.279300 -0.239500 1 0 1.000000 
0 -8.823400 -4.636200 4.387200 -0.669979 -0.521984 0.527883 0.271400 -0.230100 1 0 1.000000 
0 -9.282100 -4.580501 3.949200 -0.669979 -0.521984 0.527883 0.270300 -0.240600 1 0 1.000000 
lab_objects02
0 -2.709700 -8.071300 7.107000 -0.157495 -0.706977 0.689477 0.350400 -0.210700 1 0 1.000000 
0 -2.705699 -8.667900 6.496200 -0.157495 -0.706977 0.689477 0.350200 -0.227300 1 0 1.000000 
0 7.814900 -9.180000 8.001600 -0.157495 -0.706977 0.689477 0.044600 -0.142600 1 0 1.000000 
lab_objects02
0 -8.864000 5.021200 -3.222900 -0.766107 0.642705 -0.003200 0.293900 -0.224100 1 0 1.000000 
0 -9.317700 4.563099 -3.179600 -0.766107 0.642705 -0.003200 0.292900 -0.210600 1 0 1.000000 
0 -8.875100 5.043200 3.962800 -0.766107 0.642705 -0.003200 0.124300 -0.225600 1 0 1.000000 
lab_objects02
0 -9.328600 4.584899 3.921000 -0.766107 0.642705 -0.003200 0.125300 -0.212100 1 0 1.000000 
0 -8.875100 5.043200 3.962800 -0.766107 0.642705 -0.003200 0.124300 -0.225600 1 0 1.000000 
0 -9.317700 4.563099 -3.179600 -0.766107 0.642705 -0.003200 0.292900 -0.210600 1 0 1.000000 
lab_objects02
0 8.272400 10.754200 8.867200 -0.951317 0.308205 -0.002400 0.007000 -0.139300 1 0 1.000000 
0 8.299800 10.699600 -8.907500 -0.951317 0.308205 -0.002400 0.007000 -0.564400 1 0 1.000000 
0 7.745500 9.259200 -7.977800 -0.951317 0.308205 -0.002400 0.035600 -0.542200 1 0 1.000000 
lab_objects02
0 7.727099 9.556900 -7.266600 -0.952598 0.304199 0.004400 0.029800 -0.525200 1 0 1.000000 
0 7.721000 9.308100 7.944700 -0.952598 0.304199 0.004400 0.035600 -0.161400 1 0 1.000000 
0 8.272400 10.754200 8.867200 -0.951317 0.308205 -0.002400 0.007000 -0.139300 1 0 1.000000 
lab_objects02
0 8.408300 -10.669300 -8.841700 -0.948162 -0.317787 -0.000500 0.432100 -0.564400 1 0 1.000000 
0 8.380900 -10.614800 8.933000 -0.948162 -0.317787 -0.000500 0.432100 -0.139300 1 0 1.000000 
0 7.814900 -9.180000 8.001600 -0.948162 -0.317787 -0.000500 0.403400 -0.161400 1 0 1.000000 
lab_objects02
0 7.801701 -9.477900 7.290300 -0.949425 -0.313908 -0.007300 0.409300 -0.178500 1 0 1.000000 
0 7.839500 -9.228900 -7.920900 -0.949425 -0.313908 -0.007300 0.403400 -0.542200 1 0 1.000000 
0 8.408300 -10.669300 -8.841700 -0.948162 -0.317787 -0.000500 0.432100 -0.564400 1 0 1.000000 
lab_objects02
0 7.727099 9.556900 -7.266600 0.998733 0.050302 0.001400 0.029800 -0.525200 1 0 1.000000 
0 7.704800 9.601400 7.231600 0.998733 0.050302 0.001400 0.029800 -0.178500 1 0 1.000000 
0 7.721000 9.308100 7.944700 0.998733 0.050302 0.001400 0.035600 -0.161400 1 0 1.000000 
lab_objects02
0 7.801701 -9.477900 7.290300 -0.118302 -0.915216 0.385207 0.044600 -0.161900 1 0 1.000000 
0 7.814900 -9.180000 8.001600 -0.118302 -0.915216 0.385207 0.044600 -0.142600 1 0 1.000000 
0 -2.705699 -8.667900 6.496200 -0.118302 -0.915216 0.385207 0.350200 -0.227300 1 0 1.000000 
lab_objects02
0 7.801701 -9.477900 7.290300 0.999194 -0.040100 0.001700 0.409300 -0.178500 1 0 1.000000 
0 7.824100 -9.522500 -7.207900 0.999194 -0.040100 0.001700 0.409300 -0.525200 1 0 1.000000 
0 7.839500 -9.228900 -7.920900 0.999194 -0.040100 0.001700 0.403400 -0.542200 1 0 1.000000 
lab_objects02
0 -2.769900 8.043400 -7.115300 -0.162601 0.705305 -0.690004 0.347200 -0.558500 1 0 1.000000 
0 -2.773901 8.640000 -6.504500 -0.162601 0.705305 -0.690004 0.347400 -0.541900 1 0 1.000000 
0 7.745500 9.259200 -7.977800 -0.162601 0.705305 -0.690004 0.043800 -0.541800 1 0 1.000000 
lab_objects02
0 8.272400 10.754200 8.867200 0.988552 0.145808 -0.038802 0.007000 -0.139300 1 0 1.000000 
0 7.745500 9.259200 -7.977800 0.988552 0.145808 -0.038802 0.035600 -0.542200 1 0 1.000000 
0 7.727099 9.556900 -7.266600 0.988552 0.145808 -0.038802 0.029800 -0.525200 1 0 1.000000 
lab_objects02
0 7.727099 9.556900 -7.266600 -0.126499 0.913996 -0.385498 0.044400 -0.533900 1 0 1.000000 
0 7.745500 9.259200 -7.977800 -0.126499 0.913996 -0.385498 0.043800 -0.541800 1 0 1.000000 
0 -2.773901 8.640000 -6.504500 -0.126499 0.913996 -0.385498 0.347400 -0.541900 1 0 1.000000 
lab_objects02
0 8.408300 -10.669300 -8.841700 0.989851 -0.135793 0.041898 0.432100 -0.564400 1 0 1.000000 
0 7.814900 -9.180000 8.001600 0.989851 -0.135793 0.041898 0.403400 -0.161400 1 0 1.000000 
0 7.801701 -9.477900 7.290300 0.989851 -0.135793 0.041898 0.409300 -0.178500 1 0 1.000000 
lab_objects02
0 -2.685699 -8.707700 -6.451100 -0.124704 -0.714222 -0.688721 0.347400 -0.541100 1 0 1.000000 
0 -2.687800 -8.114800 -7.065600 -0.124704 -0.714222 -0.688721 0.347200 -0.557700 1 0 1.000000 
0 7.824100 -9.522500 -7.207900 -0.124704 -0.714222 -0.688721 0.044400 -0.533000 1 0 1.000000 
lab_objects02
0 7.839500 -9.228900 -7.920900 -0.151198 -0.913088 -0.378695 0.043900 -0.540900 1 0 1.000000 
0 7.824100 -9.522500 -7.207900 -0.151198 -0.913088 -0.378695 0.044400 -0.533000 1 0 1.000000 
0 -2.687800 -8.114800 -7.065600 -0.151198 -0.913088 -0.378695 0.347200 -0.557700 1 0 1.000000 
end
