version 1
nodes
  0 "static_prop" -1
end
skeleton
time 0
0 0.000000 0.000000 0.000000 0.000000 0.000000 0.000000
end
triangles
intercom01
0 -8.587300 -3.093400 0.890200 0.000000 0.000000 1.000000 0.728700 -0.016200 1 0 1.000000 
0 8.849800 -6.472899 0.890200 0.000000 0.000000 1.000000 0.978500 -0.986100 1 0 1.000000 
0 -8.580800 0.088700 0.890200 0.000000 0.000000 1.000000 0.493400 -0.016600 1 0 1.000000 
intercom01
0 -8.200300 -4.507101 0.890200 0.000000 0.000000 1.000000 0.833200 -0.037700 1 0 1.000000 
0 8.849800 -6.472899 0.890200 0.000000 0.000000 1.000000 0.978500 -0.986100 1 0 1.000000 
0 -8.587300 -3.093400 0.890200 0.000000 0.000000 1.000000 0.728700 -0.016200 1 0 1.000000 
intercom01
0 -7.362800 -5.455300 0.890200 0.000000 0.000000 1.000000 0.903300 -0.084300 1 0 1.000000 
0 8.849800 -6.472899 0.890200 0.000000 0.000000 1.000000 0.978500 -0.986100 1 0 1.000000 
0 -8.200300 -4.507101 0.890200 0.000000 0.000000 1.000000 0.833200 -0.037700 1 0 1.000000 
intercom01
0 -6.550799 -6.004400 0.890200 0.000000 0.000000 1.000000 0.943900 -0.129500 1 0 1.000000 
0 8.849800 -6.472899 0.890200 0.000000 0.000000 1.000000 0.978500 -0.986100 1 0 1.000000 
0 -7.362800 -5.455300 0.890200 0.000000 0.000000 1.000000 0.903300 -0.084300 1 0 1.000000 
intercom01
0 -5.351600 -6.459900 0.890200 0.000000 0.000000 1.000000 0.977600 -0.196200 1 0 1.000000 
0 8.849800 -6.472899 0.890200 0.000000 0.000000 1.000000 0.978500 -0.986100 1 0 1.000000 
0 -6.550799 -6.004400 0.890200 0.000000 0.000000 1.000000 0.943900 -0.129500 1 0 1.000000 
intercom01
0 -5.351601 6.459900 0.890200 0.000000 0.000000 1.000000 0.022400 -0.196200 1 0 1.000000 
0 8.849800 -6.472899 0.890200 0.000000 0.000000 1.000000 0.978500 -0.986100 1 0 1.000000 
0 8.849800 6.476901 0.890200 0.000000 0.000000 1.000000 0.021200 -0.986100 1 0 1.000000 
intercom01
0 -6.550800 6.004399 0.890200 0.000000 0.000000 1.000000 0.056100 -0.129500 1 0 1.000000 
0 8.849800 -6.472899 0.890200 0.000000 0.000000 1.000000 0.978500 -0.986100 1 0 1.000000 
0 -5.351601 6.459900 0.890200 0.000000 0.000000 1.000000 0.022400 -0.196200 1 0 1.000000 
intercom01
0 -7.362801 5.455299 0.890200 0.000000 0.000000 1.000000 0.096700 -0.084300 1 0 1.000000 
0 8.849800 -6.472899 0.890200 0.000000 0.000000 1.000000 0.978500 -0.986100 1 0 1.000000 
0 -6.550800 6.004399 0.890200 0.000000 0.000000 1.000000 0.056100 -0.129500 1 0 1.000000 
intercom01
0 -8.200300 4.507100 0.890200 0.000000 0.000000 1.000000 0.166800 -0.037700 1 0 1.000000 
0 8.849800 -6.472899 0.890200 0.000000 0.000000 1.000000 0.978500 -0.986100 1 0 1.000000 
0 -7.362801 5.455299 0.890200 0.000000 0.000000 1.000000 0.096700 -0.084300 1 0 1.000000 
intercom01
0 -8.587300 3.093400 0.890200 0.000000 0.000000 1.000000 0.271300 -0.016200 1 0 1.000000 
0 8.849800 -6.472899 0.890200 0.000000 0.000000 1.000000 0.978500 -0.986100 1 0 1.000000 
0 -8.200300 4.507100 0.890200 0.000000 0.000000 1.000000 0.166800 -0.037700 1 0 1.000000 
intercom01
0 -8.580800 -0.088700 0.890200 0.000000 0.000000 1.000000 0.506600 -0.016600 1 0 1.000000 
0 8.849800 -6.472899 0.890200 0.000000 0.000000 1.000000 0.978500 -0.986100 1 0 1.000000 
0 -8.587300 3.093400 0.890200 0.000000 0.000000 1.000000 0.271300 -0.016200 1 0 1.000000 
intercom01
0 -6.642500 6.286699 0.593500 -0.346493 0.619388 0.704486 0.035200 -0.124400 1 0 1.000000 
0 -7.362801 5.455299 0.890200 -0.445081 0.555877 0.702071 0.096700 -0.084300 1 0 1.000000 
0 -6.550800 6.004399 0.890200 -0.302786 0.650471 0.696569 0.056100 -0.129500 1 0 1.000000 
intercom01
0 -7.537301 5.695300 0.593500 -0.487106 0.513806 0.706209 0.079000 -0.074600 1 0 1.000000 
0 -7.362801 5.455299 0.890200 -0.445081 0.555877 0.702071 0.096700 -0.084300 1 0 1.000000 
0 -6.642500 6.286699 0.593500 -0.346493 0.619388 0.704486 0.035200 -0.124400 1 0 1.000000 
intercom01
0 -7.537301 5.695300 0.593500 -0.487106 0.513806 0.706209 0.079000 -0.074600 1 0 1.000000 
0 -8.200300 4.507100 0.890200 -0.597199 0.384000 0.704199 0.166800 -0.037700 1 0 1.000000 
0 -7.362801 5.455299 0.890200 -0.445081 0.555877 0.702071 0.096700 -0.084300 1 0 1.000000 
intercom01
0 -8.440400 4.681499 0.593500 -0.645416 0.289807 0.706718 0.153900 -0.024400 1 0 1.000000 
0 -8.200300 4.507100 0.890200 -0.597199 0.384000 0.704199 0.166800 -0.037700 1 0 1.000000 
0 -7.537301 5.695300 0.593500 -0.487106 0.513806 0.706209 0.079000 -0.074600 1 0 1.000000 
intercom01
0 -8.440400 4.681499 0.593500 -0.645416 0.289807 0.706718 0.153900 -0.024400 1 0 1.000000 
0 -8.587300 3.093400 0.890200 -0.706194 0.129399 0.696094 0.271300 -0.016200 1 0 1.000000 
0 -8.200300 4.507100 0.890200 -0.597199 0.384000 0.704199 0.166800 -0.037700 1 0 1.000000 
intercom01
0 -8.869600 3.185100 0.593500 -0.707091 0.065399 0.704091 0.264500 -0.000500 1 0 1.000000 
0 -8.587300 3.093400 0.890200 -0.706194 0.129399 0.696094 0.271300 -0.016200 1 0 1.000000 
0 -8.440400 4.681499 0.593500 -0.645416 0.289807 0.706718 0.153900 -0.024400 1 0 1.000000 
intercom01
0 -8.869600 3.185100 0.593500 -0.707091 0.065399 0.704091 0.264500 -0.000500 1 0 1.000000 
0 -8.580800 -0.088700 0.890200 -0.716000 0.000100 0.698100 0.506600 -0.016600 1 0 1.000000 
0 -8.587300 3.093400 0.890200 -0.706194 0.129399 0.696094 0.271300 -0.016200 1 0 1.000000 
intercom01
0 -8.877600 -0.088700 0.593500 -0.707106 0.001700 0.707106 0.506600 -0.000100 1 0 1.000000 
0 -8.580800 -0.088700 0.890200 -0.716000 0.000100 0.698100 0.506600 -0.016600 1 0 1.000000 
0 -8.869600 3.185100 0.593500 -0.707091 0.065399 0.704091 0.264500 -0.000500 1 0 1.000000 
intercom01
0 -8.869600 -3.185101 0.593500 -0.707091 -0.065399 0.704091 0.735500 -0.000500 1 0 1.000000 
0 -8.580800 0.088700 0.890200 -0.716000 -0.000100 0.698100 0.493400 -0.016600 1 0 1.000000 
0 -8.877600 0.088700 0.593500 -0.707106 -0.001700 0.707106 0.493400 -0.000100 1 0 1.000000 
intercom01
0 -8.587300 -3.093400 0.890200 -0.706194 -0.129399 0.696094 0.728700 -0.016200 1 0 1.000000 
0 -8.580800 0.088700 0.890200 -0.716000 -0.000100 0.698100 0.493400 -0.016600 1 0 1.000000 
0 -8.869600 -3.185101 0.593500 -0.707091 -0.065399 0.704091 0.735500 -0.000500 1 0 1.000000 
intercom01
0 -8.440400 -4.681500 0.593500 -0.645416 -0.289807 0.706718 0.846100 -0.024400 1 0 1.000000 
0 -8.587300 -3.093400 0.890200 -0.706194 -0.129399 0.696094 0.728700 -0.016200 1 0 1.000000 
0 -8.869600 -3.185101 0.593500 -0.707091 -0.065399 0.704091 0.735500 -0.000500 1 0 1.000000 
intercom01
0 -8.200300 -4.507101 0.890200 -0.597199 -0.384000 0.704199 0.833200 -0.037700 1 0 1.000000 
0 -8.587300 -3.093400 0.890200 -0.706194 -0.129399 0.696094 0.728700 -0.016200 1 0 1.000000 
0 -8.440400 -4.681500 0.593500 -0.645416 -0.289807 0.706718 0.846100 -0.024400 1 0 1.000000 
intercom01
0 -7.537300 -5.695301 0.593500 -0.487106 -0.513806 0.706209 0.921000 -0.074600 1 0 1.000000 
0 -8.200300 -4.507101 0.890200 -0.597199 -0.384000 0.704199 0.833200 -0.037700 1 0 1.000000 
0 -8.440400 -4.681500 0.593500 -0.645416 -0.289807 0.706718 0.846100 -0.024400 1 0 1.000000 
intercom01
0 -7.362800 -5.455300 0.890200 -0.445081 -0.555877 0.702071 0.903300 -0.084300 1 0 1.000000 
0 -8.200300 -4.507101 0.890200 -0.597199 -0.384000 0.704199 0.833200 -0.037700 1 0 1.000000 
0 -7.537300 -5.695301 0.593500 -0.487106 -0.513806 0.706209 0.921000 -0.074600 1 0 1.000000 
intercom01
0 -6.642499 -6.286700 0.593500 -0.346493 -0.619388 0.704486 0.964800 -0.124400 1 0 1.000000 
0 -7.362800 -5.455300 0.890200 -0.445081 -0.555877 0.702071 0.903300 -0.084300 1 0 1.000000 
0 -7.537300 -5.695301 0.593500 -0.487106 -0.513806 0.706209 0.921000 -0.074600 1 0 1.000000 
intercom01
0 -6.550799 -6.004400 0.890200 -0.302786 -0.650471 0.696569 0.943900 -0.129500 1 0 1.000000 
0 -7.362800 -5.455300 0.890200 -0.445081 -0.555877 0.702071 0.903300 -0.084300 1 0 1.000000 
0 -6.642499 -6.286700 0.593500 -0.346493 -0.619388 0.704486 0.964800 -0.124400 1 0 1.000000 
intercom01
0 -5.351600 -6.756700 0.593500 -0.166695 -0.690077 0.704277 0.999500 -0.196200 1 0 1.000000 
0 -6.550799 -6.004400 0.890200 -0.302786 -0.650471 0.696569 0.943900 -0.129500 1 0 1.000000 
0 -6.642499 -6.286700 0.593500 -0.346493 -0.619388 0.704486 0.964800 -0.124400 1 0 1.000000 
intercom01
0 -5.351600 -6.459900 0.890200 -0.086199 -0.759991 0.644192 0.977600 -0.196200 1 0 1.000000 
0 -6.550799 -6.004400 0.890200 -0.302786 -0.650471 0.696569 0.943900 -0.129500 1 0 1.000000 
0 -5.351600 -6.756700 0.593500 -0.166695 -0.690077 0.704277 0.999500 -0.196200 1 0 1.000000 
intercom01
0 9.089900 -6.651400 0.593500 0.469482 -0.471082 0.746772 0.991700 -0.999500 1 0 1.000000 
0 -5.351600 -6.459900 0.890200 -0.086199 -0.759991 0.644192 0.977600 -0.196200 1 0 1.000000 
0 -5.351600 -6.756700 0.593500 -0.166695 -0.690077 0.704277 0.999500 -0.196200 1 0 1.000000 
intercom01
0 8.849800 -6.472899 0.890200 0.477428 -0.526931 0.703141 0.978500 -0.986100 1 0 1.000000 
0 -5.351600 -6.459900 0.890200 -0.086199 -0.759991 0.644192 0.977600 -0.196200 1 0 1.000000 
0 9.089900 -6.651400 0.593500 0.469482 -0.471082 0.746772 0.991700 -0.999500 1 0 1.000000 
intercom01
0 9.089900 -6.651400 0.593500 0.469482 -0.471082 0.746772 0.991700 -0.999500 1 0 1.000000 
0 8.849800 6.476901 0.890200 0.620515 0.344408 0.704517 0.021200 -0.986100 1 0 1.000000 
0 8.849800 -6.472899 0.890200 0.477428 -0.526931 0.703141 0.978500 -0.986100 1 0 1.000000 
intercom01
0 9.089900 6.651401 0.593500 0.307303 0.617206 0.724307 0.008300 -0.999500 1 0 1.000000 
0 8.849800 6.476901 0.890200 0.620515 0.344408 0.704517 0.021200 -0.986100 1 0 1.000000 
0 9.089900 -6.651400 0.593500 0.469482 -0.471082 0.746772 0.991700 -0.999500 1 0 1.000000 
intercom01
0 9.089900 6.651401 0.593500 0.307303 0.617206 0.724307 0.008300 -0.999500 1 0 1.000000 
0 -5.351601 6.459900 0.890200 -0.086397 0.762175 0.641579 0.022400 -0.196200 1 0 1.000000 
0 8.849800 6.476901 0.890200 0.620515 0.344408 0.704517 0.021200 -0.986100 1 0 1.000000 
intercom01
0 -5.351601 6.756700 0.593500 -0.166695 0.690077 0.704277 0.000500 -0.196200 1 0 1.000000 
0 -5.351601 6.459900 0.890200 -0.086397 0.762175 0.641579 0.022400 -0.196200 1 0 1.000000 
0 9.089900 6.651401 0.593500 0.307303 0.617206 0.724307 0.008300 -0.999500 1 0 1.000000 
intercom01
0 -5.351601 6.756700 0.593500 -0.166695 0.690077 0.704277 0.000500 -0.196200 1 0 1.000000 
0 -6.550800 6.004399 0.890200 -0.302786 0.650471 0.696569 0.056100 -0.129500 1 0 1.000000 
0 -5.351601 6.459900 0.890200 -0.086397 0.762175 0.641579 0.022400 -0.196200 1 0 1.000000 
intercom01
0 -6.642500 6.286699 0.593500 -0.346493 0.619388 0.704486 0.035200 -0.124400 1 0 1.000000 
0 -6.550800 6.004399 0.890200 -0.302786 0.650471 0.696569 0.056100 -0.129500 1 0 1.000000 
0 -5.351601 6.756700 0.593500 -0.166695 0.690077 0.704277 0.000500 -0.196200 1 0 1.000000 
intercom01
0 -8.886600 -3.093400 -0.706300 0.000000 0.000000 -1.000000 0.728700 0.000400 1 0 1.000000 
0 -8.880100 0.088700 -0.706300 0.000000 0.000000 -1.000000 0.493400 0.000100 1 0 1.000000 
0 9.078800 6.553300 -0.706300 0.000000 0.000000 -1.000000 0.015500 -0.998900 1 0 1.000000 
intercom01
0 -8.457200 -4.507101 -0.706300 0.000000 0.000000 -1.000000 0.833200 -0.023400 1 0 1.000000 
0 -8.886600 -3.093400 -0.706300 0.000000 0.000000 -1.000000 0.728700 0.000400 1 0 1.000000 
0 9.078800 6.553300 -0.706300 0.000000 0.000000 -1.000000 0.015500 -0.998900 1 0 1.000000 
intercom01
0 -7.521800 -5.455300 -0.706300 0.000000 0.000000 -1.000000 0.903300 -0.075500 1 0 1.000000 
0 -8.457200 -4.507101 -0.706300 0.000000 0.000000 -1.000000 0.833200 -0.023400 1 0 1.000000 
0 9.078800 6.553300 -0.706300 0.000000 0.000000 -1.000000 0.015500 -0.998900 1 0 1.000000 
intercom01
0 -6.652900 -6.004400 -0.706300 0.000000 0.000000 -1.000000 0.943900 -0.123800 1 0 1.000000 
0 -7.521800 -5.455300 -0.706300 0.000000 0.000000 -1.000000 0.903300 -0.075500 1 0 1.000000 
0 9.078800 6.553300 -0.706300 0.000000 0.000000 -1.000000 0.015500 -0.998900 1 0 1.000000 
intercom01
0 -5.351600 -6.459900 -0.706300 0.000000 0.000000 -1.000000 0.977600 -0.196200 1 0 1.000000 
0 -6.652900 -6.004400 -0.706300 0.000000 0.000000 -1.000000 0.943900 -0.123800 1 0 1.000000 
0 9.078800 6.553300 -0.706300 0.000000 0.000000 -1.000000 0.015500 -0.998900 1 0 1.000000 
intercom01
0 9.078800 -6.400599 -0.706300 0.000000 0.000000 -1.000000 0.973200 -0.998900 1 0 1.000000 
0 -5.351600 -6.459900 -0.706300 0.000000 0.000000 -1.000000 0.977600 -0.196200 1 0 1.000000 
0 9.078800 6.553300 -0.706300 0.000000 0.000000 -1.000000 0.015500 -0.998900 1 0 1.000000 
intercom01
0 9.078800 6.553300 -0.706300 0.000000 0.000000 -1.000000 0.015500 -0.998900 1 0 1.000000 
0 -6.652901 6.004399 -0.706300 0.000000 0.000000 -1.000000 0.056100 -0.123800 1 0 1.000000 
0 -5.351601 6.459900 -0.706300 0.000000 0.000000 -1.000000 0.022400 -0.196200 1 0 1.000000 
intercom01
0 9.078800 6.553300 -0.706300 0.000000 0.000000 -1.000000 0.015500 -0.998900 1 0 1.000000 
0 -7.521801 5.455299 -0.706300 0.000000 0.000000 -1.000000 0.096700 -0.075500 1 0 1.000000 
0 -6.652901 6.004399 -0.706300 0.000000 0.000000 -1.000000 0.056100 -0.123800 1 0 1.000000 
intercom01
0 9.078800 6.553300 -0.706300 0.000000 0.000000 -1.000000 0.015500 -0.998900 1 0 1.000000 
0 -8.457200 4.507100 -0.706300 0.000000 0.000000 -1.000000 0.166800 -0.023400 1 0 1.000000 
0 -7.521801 5.455299 -0.706300 0.000000 0.000000 -1.000000 0.096700 -0.075500 1 0 1.000000 
intercom01
0 9.078800 6.553300 -0.706300 0.000000 0.000000 -1.000000 0.015500 -0.998900 1 0 1.000000 
0 -8.886600 3.093400 -0.706300 0.000000 0.000000 -1.000000 0.271300 0.000400 1 0 1.000000 
0 -8.457200 4.507100 -0.706300 0.000000 0.000000 -1.000000 0.166800 -0.023400 1 0 1.000000 
intercom01
0 9.078800 6.553300 -0.706300 0.000000 0.000000 -1.000000 0.015500 -0.998900 1 0 1.000000 
0 -8.880100 -0.088700 -0.706300 0.000000 0.000000 -1.000000 0.506600 0.000100 1 0 1.000000 
0 -8.886600 3.093400 -0.706300 0.000000 0.000000 -1.000000 0.271300 0.000400 1 0 1.000000 
intercom01
0 -6.642499 -6.286700 0.593500 -0.402979 -0.894153 -0.195190 0.203900 -0.611700 1 0 1.000000 
0 -7.537300 -5.695301 0.593500 -0.608403 -0.778104 -0.156201 0.207700 -0.597400 1 0 1.000000 
0 -6.652900 -6.004400 -0.706300 -0.467604 -0.865707 -0.178601 0.167200 -0.613100 1 0 1.000000 
intercom01
0 -6.652900 -6.004400 -0.706300 -0.467604 -0.865707 -0.178601 0.167200 -0.613100 1 0 1.000000 
0 -7.537300 -5.695301 0.593500 -0.608403 -0.778104 -0.156201 0.207700 -0.597400 1 0 1.000000 
0 -7.521800 -5.455300 -0.706300 -0.664108 -0.736908 -0.126201 0.170800 -0.599100 1 0 1.000000 
intercom01
0 -7.537300 -5.695301 0.593500 -0.608403 -0.778104 -0.156201 0.207700 -0.597400 1 0 1.000000 
0 -8.440400 -4.681500 0.593500 -0.824815 -0.559410 -0.082101 0.213200 -0.586200 1 0 1.000000 
0 -7.521800 -5.455300 -0.706300 -0.664108 -0.736908 -0.126201 0.170800 -0.599100 1 0 1.000000 
intercom01
0 -7.521800 -5.455300 -0.706300 -0.664108 -0.736908 -0.126201 0.170800 -0.599100 1 0 1.000000 
0 -8.440400 -4.681500 0.593500 -0.824815 -0.559410 -0.082101 0.213200 -0.586200 1 0 1.000000 
0 -8.457200 -4.507101 -0.706300 -0.900110 -0.433805 -0.040200 0.176000 -0.586700 1 0 1.000000 
intercom01
0 -8.440400 -4.681500 0.593500 -0.824815 -0.559410 -0.082101 0.213200 -0.586200 1 0 1.000000 
0 -8.869600 -3.185101 0.593500 -0.981509 -0.191302 -0.006600 0.219500 -0.588600 1 0 1.000000 
0 -8.457200 -4.507101 -0.706300 -0.900110 -0.433805 -0.040200 0.176000 -0.586700 1 0 1.000000 
intercom01
0 -8.457200 -4.507101 -0.706300 -0.900110 -0.433805 -0.040200 0.176000 -0.586700 1 0 1.000000 
0 -8.869600 -3.185101 0.593500 -0.981509 -0.191302 -0.006600 0.219500 -0.588600 1 0 1.000000 
0 -8.886600 -3.093400 -0.706300 -0.995184 -0.097998 0.002300 0.182100 -0.588500 1 0 1.000000 
intercom01
0 -8.869600 -3.185101 0.593500 -0.981509 -0.191302 -0.006600 0.219500 -0.588600 1 0 1.000000 
0 -8.877600 0.088700 0.593500 -0.999972 -0.000200 0.007400 0.231600 -0.613200 1 0 1.000000 
0 -8.886600 -3.093400 -0.706300 -0.995184 -0.097998 0.002300 0.182100 -0.588500 1 0 1.000000 
intercom01
0 -8.886600 -3.093400 -0.706300 -0.995184 -0.097998 0.002300 0.182100 -0.588500 1 0 1.000000 
0 -8.877600 0.088700 0.593500 -0.999972 -0.000200 0.007400 0.231600 -0.613200 1 0 1.000000 
0 -8.880100 0.088700 -0.706300 -0.999996 0.002000 0.001900 0.193800 -0.612700 1 0 1.000000 
intercom01
0 -8.880100 -0.088700 -0.706300 -0.999996 -0.002000 0.001900 0.193200 -0.611300 1 0 1.000000 
0 -8.877600 -0.088700 0.593500 -0.999972 0.000200 0.007400 0.230900 -0.611900 1 0 1.000000 
0 -8.886600 3.093400 -0.706300 -0.995184 0.097998 0.002300 0.204900 -0.635300 1 0 1.000000 
intercom01
0 -8.886600 3.093400 -0.706300 -0.995184 0.097998 0.002300 0.204900 -0.635300 1 0 1.000000 
0 -8.877600 -0.088700 0.593500 -0.999972 0.000200 0.007400 0.230900 -0.611900 1 0 1.000000 
0 -8.869600 3.185100 0.593500 -0.981509 0.191302 -0.006600 0.243000 -0.636800 1 0 1.000000 
intercom01
0 -8.886600 3.093400 -0.706300 -0.995184 0.097998 0.002300 0.204900 -0.635300 1 0 1.000000 
0 -8.869600 3.185100 0.593500 -0.981509 0.191302 -0.006600 0.243000 -0.636800 1 0 1.000000 
0 -8.457200 4.507100 -0.706300 -0.900110 0.433805 -0.040200 0.209400 -0.655000 1 0 1.000000 
intercom01
0 -8.457200 4.507100 -0.706300 -0.900110 0.433805 -0.040200 0.209400 -0.655000 1 0 1.000000 
0 -8.869600 3.185100 0.593500 -0.981509 0.191302 -0.006600 0.243000 -0.636800 1 0 1.000000 
0 -8.440400 4.681499 0.593500 -0.824815 0.559410 -0.082101 0.247800 -0.657100 1 0 1.000000 
intercom01
0 -8.457200 4.507100 -0.706300 -0.900110 0.433805 -0.040200 0.209400 -0.655000 1 0 1.000000 
0 -8.440400 4.681499 0.593500 -0.824815 0.559410 -0.082101 0.247800 -0.657100 1 0 1.000000 
0 -7.521801 5.455299 -0.706300 -0.664108 0.736908 -0.126201 0.211100 -0.681700 1 0 1.000000 
intercom01
0 -7.521801 5.455299 -0.706300 -0.664108 0.736908 -0.126201 0.211100 -0.681700 1 0 1.000000 
0 -8.440400 4.681499 0.593500 -0.824815 0.559410 -0.082101 0.247800 -0.657100 1 0 1.000000 
0 -7.537301 5.695300 0.593500 -0.608403 0.778104 -0.156201 0.249800 -0.683700 1 0 1.000000 
intercom01
0 -7.521801 5.455299 -0.706300 -0.664108 0.736908 -0.126201 0.211100 -0.681700 1 0 1.000000 
0 -7.537301 5.695300 0.593500 -0.608403 0.778104 -0.156201 0.249800 -0.683700 1 0 1.000000 
0 -6.652901 6.004399 -0.706300 -0.467604 0.865707 -0.178601 0.211500 -0.704000 1 0 1.000000 
intercom01
0 -6.652901 6.004399 -0.706300 -0.467604 0.865707 -0.178601 0.211500 -0.704000 1 0 1.000000 
0 -7.537301 5.695300 0.593500 -0.608403 0.778104 -0.156201 0.249800 -0.683700 1 0 1.000000 
0 -6.642500 6.286699 0.593500 -0.402979 0.894153 -0.195190 0.250300 -0.706900 1 0 1.000000 
intercom01
0 -6.652901 6.004399 -0.706300 -0.467604 0.865707 -0.178601 0.211500 -0.704000 1 0 1.000000 
0 -6.642500 6.286699 0.593500 -0.402979 0.894153 -0.195190 0.250300 -0.706900 1 0 1.000000 
0 -5.351601 6.459900 -0.706300 -0.224210 0.951044 -0.212710 0.210800 -0.734700 1 0 1.000000 
intercom01
0 -5.351601 6.459900 -0.706300 -0.224210 0.951044 -0.212710 0.210800 -0.734700 1 0 1.000000 
0 -6.642500 6.286699 0.593500 -0.402979 0.894153 -0.195190 0.250300 -0.706900 1 0 1.000000 
0 -5.351601 6.756700 0.593500 -0.112905 0.978639 -0.171807 0.249700 -0.737400 1 0 1.000000 
intercom01
0 -5.351601 6.459900 -0.706300 -0.224210 0.951044 -0.212710 0.210800 -0.734700 1 0 1.000000 
0 -5.351601 6.756700 0.593500 -0.112905 0.978639 -0.171807 0.249700 -0.737400 1 0 1.000000 
0 9.078800 6.553300 -0.706300 0.448296 0.883293 -0.137199 0.184300 -1.036900 1 0 1.000000 
intercom01
0 9.078800 6.553300 -0.706300 0.448296 0.883293 -0.137199 0.184300 -1.036900 1 0 1.000000 
0 -5.351601 6.756700 0.593500 -0.112905 0.978639 -0.171807 0.249700 -0.737400 1 0 1.000000 
0 9.089900 6.651401 0.593500 0.894825 0.444512 -0.041201 0.222500 -1.038400 1 0 1.000000 
intercom01
0 9.078800 6.553300 -0.706300 0.448296 0.883293 -0.137199 0.184300 -1.036900 1 0 1.000000 
0 9.089900 6.651401 0.593500 0.894825 0.444512 -0.041201 0.222500 -1.038400 1 0 1.000000 
0 9.078800 -6.400599 -0.706300 0.708511 -0.689311 -0.151202 0.136500 -0.938800 1 0 1.000000 
intercom01
0 9.078800 -6.400599 -0.706300 0.708511 -0.689311 -0.151202 0.136500 -0.938800 1 0 1.000000 
0 9.089900 6.651401 0.593500 0.894825 0.444512 -0.041201 0.222500 -1.038400 1 0 1.000000 
0 9.089900 -6.651400 0.593500 0.708997 -0.691297 -0.139399 0.173300 -0.937600 1 0 1.000000 
intercom01
0 9.089900 -6.651400 0.593500 0.708997 -0.691297 -0.139399 0.173300 -0.937600 1 0 1.000000 
0 -5.351600 -6.756700 0.593500 -0.109196 -0.971564 -0.210092 0.199700 -0.635100 1 0 1.000000 
0 9.078800 -6.400599 -0.706300 0.708511 -0.689311 -0.151202 0.136500 -0.938800 1 0 1.000000 
intercom01
0 9.078800 -6.400599 -0.706300 0.708511 -0.689311 -0.151202 0.136500 -0.938800 1 0 1.000000 
0 -5.351600 -6.756700 0.593500 -0.109196 -0.971564 -0.210092 0.199700 -0.635100 1 0 1.000000 
0 -5.351600 -6.459900 -0.706300 -0.220895 -0.951778 -0.212895 0.163100 -0.636800 1 0 1.000000 
intercom01
0 -5.351600 -6.756700 0.593500 -0.109196 -0.971564 -0.210092 0.199700 -0.635100 1 0 1.000000 
0 -6.642499 -6.286700 0.593500 -0.402979 -0.894153 -0.195190 0.203900 -0.611700 1 0 1.000000 
0 -5.351600 -6.459900 -0.706300 -0.220895 -0.951778 -0.212895 0.163100 -0.636800 1 0 1.000000 
intercom01
0 -5.351600 -6.459900 -0.706300 -0.220895 -0.951778 -0.212895 0.163100 -0.636800 1 0 1.000000 
0 -6.642499 -6.286700 0.593500 -0.402979 -0.894153 -0.195190 0.203900 -0.611700 1 0 1.000000 
0 -6.652900 -6.004400 -0.706300 -0.467604 -0.865707 -0.178601 0.167200 -0.613100 1 0 1.000000 
end
