version 1
nodes
  0 "static_prop" -1
end
skeleton
time 0
0 0.000000 0.000000 0.000000 0.000000 0.000000 0.000000
end
triangles
Rebar_MedNorm01
0 0.000000 0.000000 0.000000 0.000000 0.000000 -1.000000 0.254600 -0.984200 1 0 1.000000 
0 1.299000 -0.750000 0.000000 0.000000 0.000000 -1.000000 0.165600 -0.974400 1 0 1.000000 
0 0.000000 -1.500000 0.000000 0.000000 0.000000 -1.000000 0.087100 -0.984200 1 0 1.000000 
Rebar_MedNorm01
0 0.000000 0.000000 0.000000 0.000000 0.000000 -1.000000 0.254600 -0.984200 1 0 1.000000 
0 1.299000 0.750000 0.000000 0.000000 0.000000 -1.000000 0.332300 -0.974400 1 0 1.000000 
0 1.299000 -0.750000 0.000000 0.000000 0.000000 -1.000000 0.165600 -0.974400 1 0 1.000000 
Rebar_MedNorm01
0 0.000000 0.000000 0.000000 0.000000 0.000000 -1.000000 0.254600 -0.984200 1 0 1.000000 
0 -0.000000 1.500000 0.000000 0.000000 0.000000 -1.000000 0.422100 -0.984200 1 0 1.000000 
0 1.299000 0.750000 0.000000 0.000000 0.000000 -1.000000 0.332300 -0.974400 1 0 1.000000 
Rebar_MedNorm01
0 0.000000 0.000000 0.000000 0.000000 0.000000 -1.000000 0.254600 -0.984200 1 0 1.000000 
0 -1.299000 0.750000 0.000000 0.000000 0.000000 -1.000000 0.338300 -0.993900 1 0 1.000000 
0 -0.000000 1.500000 0.000000 0.000000 0.000000 -1.000000 0.422100 -0.984200 1 0 1.000000 
Rebar_MedNorm01
0 0.000000 0.000000 0.000000 0.000000 0.000000 -1.000000 0.254600 -0.984200 1 0 1.000000 
0 -1.299000 -0.750000 0.000000 0.000000 0.000000 -1.000000 0.170900 -0.993900 1 0 1.000000 
0 -1.299000 0.750000 0.000000 0.000000 0.000000 -1.000000 0.338300 -0.993900 1 0 1.000000 
Rebar_MedNorm01
0 0.000000 0.000000 0.000000 0.000000 0.000000 -1.000000 0.254600 -0.984200 1 0 1.000000 
0 0.000000 -1.500000 0.000000 0.000000 0.000000 -1.000000 0.087100 -0.984200 1 0 1.000000 
0 -1.299000 -0.750000 0.000000 0.000000 0.000000 -1.000000 0.170900 -0.993900 1 0 1.000000 
Rebar_MedNorm01
0 -1.515200 0.707000 79.201202 0.244506 -0.923522 0.295507 -0.003400 -0.404100 1 0 1.000000 
0 -1.302301 13.368500 102.275803 0.968935 -0.245009 -0.033701 0.162900 -0.214000 1 0 1.000000 
0 -2.274900 12.398900 102.878998 0.288704 -0.917013 0.275204 -0.003400 -0.214000 1 0 1.000000 
Rebar_MedNorm01
0 1.299000 -0.750000 0.000000 0.944525 -0.327409 0.026001 0.165600 -0.974400 1 0 1.000000 
0 1.299000 0.750000 0.000000 0.755567 0.655071 -0.000400 0.332300 -0.974400 1 0 1.000000 
0 0.802000 1.339500 25.569799 0.845640 0.524225 0.100405 0.329300 -0.784300 1 0 1.000000 
Rebar_MedNorm01
0 1.299000 -0.750000 0.000000 0.944525 -0.327409 0.026001 0.165600 -0.974400 1 0 1.000000 
0 0.802000 1.339500 25.569799 0.845640 0.524225 0.100405 0.329300 -0.784300 1 0 1.000000 
0 0.802300 -0.158500 25.491301 0.882499 -0.464199 0.075600 0.162900 -0.784300 1 0 1.000000 
Rebar_MedNorm01
0 0.000000 -1.500000 0.000000 0.188599 -0.981696 0.026500 -0.003400 -0.974300 1 0 1.000000 
0 1.299000 -0.750000 0.000000 0.944525 -0.327409 0.026001 0.165600 -0.974400 1 0 1.000000 
0 0.802300 -0.158500 25.491301 0.882499 -0.464199 0.075600 0.162900 -0.784300 1 0 1.000000 
Rebar_MedNorm01
0 0.000000 -1.500000 0.000000 0.188599 -0.981696 0.026500 -0.003400 -0.974300 1 0 1.000000 
0 0.802300 -0.158500 25.491301 0.882499 -0.464199 0.075600 0.162900 -0.784300 1 0 1.000000 
0 -0.496500 -0.908300 25.463301 0.033500 -0.999192 -0.022200 -0.003400 -0.784300 1 0 1.000000 
Rebar_MedNorm01
0 -0.496500 -0.908300 25.463301 0.033500 -0.999192 -0.022200 -0.003400 -0.784300 1 0 1.000000 
0 0.802300 -0.158500 25.491301 0.882499 -0.464199 0.075600 0.162900 -0.784300 1 0 1.000000 
0 -2.979800 -2.816100 52.167900 0.942997 -0.332699 -0.008200 0.162900 -0.594200 1 0 1.000000 
Rebar_MedNorm01
0 -0.496500 -0.908300 25.463301 0.033500 -0.999192 -0.022200 -0.003400 -0.784300 1 0 1.000000 
0 -2.979800 -2.816100 52.167900 0.942997 -0.332699 -0.008200 0.162900 -0.594200 1 0 1.000000 
0 -4.065900 -3.783000 52.535801 0.181498 -0.983390 0.001600 -0.003400 -0.594200 1 0 1.000000 
Rebar_MedNorm01
0 -4.065900 -3.783000 52.535801 0.181498 -0.983390 0.001600 -0.003400 -0.594200 1 0 1.000000 
0 -2.979800 -2.816100 52.167900 0.942997 -0.332699 -0.008200 0.162900 -0.594200 1 0 1.000000 
0 -0.432600 1.619700 78.706200 0.959671 -0.279192 0.032899 0.162900 -0.404100 1 0 1.000000 
Rebar_MedNorm01
0 -4.065900 -3.783000 52.535801 0.181498 -0.983390 0.001600 -0.003400 -0.594200 1 0 1.000000 
0 -0.432600 1.619700 78.706200 0.959671 -0.279192 0.032899 0.162900 -0.404100 1 0 1.000000 
0 -1.515200 0.707000 79.201202 0.244506 -0.923522 0.295507 -0.003400 -0.404100 1 0 1.000000 
Rebar_MedNorm01
0 -1.515200 0.707000 79.201202 0.244506 -0.923522 0.295507 -0.003400 -0.404100 1 0 1.000000 
0 -0.432600 1.619700 78.706200 0.959671 -0.279192 0.032899 0.162900 -0.404100 1 0 1.000000 
0 -1.302301 13.368500 102.275803 0.968935 -0.245009 -0.033701 0.162900 -0.214000 1 0 1.000000 
Rebar_MedNorm01
0 -0.432600 1.619700 78.706200 0.959671 -0.279192 0.032899 0.162900 -0.404100 1 0 1.000000 
0 -1.719401 14.785700 102.016197 0.676776 0.668576 -0.308189 0.329300 -0.214000 1 0 1.000000 
0 -1.302301 13.368500 102.275803 0.968935 -0.245009 -0.033701 0.162900 -0.214000 1 0 1.000000 
Rebar_MedNorm01
0 -0.432600 1.619700 78.706200 0.959671 -0.279192 0.032899 0.162900 -0.404100 1 0 1.000000 
0 -0.780400 2.983900 78.188499 0.716140 0.646136 -0.263915 0.329300 -0.404100 1 0 1.000000 
0 -1.719401 14.785700 102.016197 0.676776 0.668576 -0.308189 0.329300 -0.214000 1 0 1.000000 
Rebar_MedNorm01
0 -0.780400 2.983900 78.188499 0.716140 0.646136 -0.263915 0.329300 -0.404100 1 0 1.000000 
0 -3.109201 15.233400 102.359703 -0.288914 0.916944 -0.275213 0.497700 -0.214000 1 0 1.000000 
0 -1.719401 14.785700 102.016197 0.676776 0.668576 -0.308189 0.329300 -0.214000 1 0 1.000000 
Rebar_MedNorm01
0 -0.780400 2.983900 78.188499 0.716140 0.646136 -0.263915 0.329300 -0.404100 1 0 1.000000 
0 -2.210600 3.435400 78.165802 -0.244107 0.924928 -0.291409 0.497700 -0.404100 1 0 1.000000 
0 -3.109201 15.233400 102.359703 -0.288914 0.916944 -0.275213 0.497700 -0.214000 1 0 1.000000 
Rebar_MedNorm01
0 -2.210600 3.435400 78.165802 -0.244107 0.924928 -0.291409 0.497700 -0.404100 1 0 1.000000 
0 -4.081901 14.263800 102.962898 -0.968635 0.245909 0.035701 0.664900 -0.214000 1 0 1.000000 
0 -3.109201 15.233400 102.359703 -0.288914 0.916944 -0.275213 0.497700 -0.214000 1 0 1.000000 
Rebar_MedNorm01
0 -2.210600 3.435400 78.165802 -0.244107 0.924928 -0.291409 0.497700 -0.404100 1 0 1.000000 
0 -3.293200 2.522700 78.660797 -0.959317 0.280805 -0.029301 0.666000 -0.404100 1 0 1.000000 
0 -4.081901 14.263800 102.962898 -0.968635 0.245909 0.035701 0.664900 -0.214000 1 0 1.000000 
Rebar_MedNorm01
0 -4.757200 -0.955000 51.811401 -0.182308 0.983241 -0.000400 0.497700 -0.594200 1 0 1.000000 
0 -3.293200 2.522700 78.660797 -0.959317 0.280805 -0.029301 0.666000 -0.404100 1 0 1.000000 
0 -2.210600 3.435400 78.165802 -0.244107 0.924928 -0.291409 0.497700 -0.404100 1 0 1.000000 
Rebar_MedNorm01
0 -4.757200 -0.955000 51.811401 -0.182308 0.983241 -0.000400 0.497700 -0.594200 1 0 1.000000 
0 -5.843400 -1.921900 52.179298 -0.943374 0.331691 0.005100 0.664900 -0.594200 1 0 1.000000 
0 -3.293200 2.522700 78.660797 -0.959317 0.280805 -0.029301 0.666000 -0.404100 1 0 1.000000 
Rebar_MedNorm01
0 -0.497200 2.087500 25.620300 -0.034302 0.999047 0.027001 0.497700 -0.784300 1 0 1.000000 
0 -5.843400 -1.921900 52.179298 -0.943374 0.331691 0.005100 0.664900 -0.594200 1 0 1.000000 
0 -4.757200 -0.955000 51.811401 -0.182308 0.983241 -0.000400 0.497700 -0.594200 1 0 1.000000 
Rebar_MedNorm01
0 -0.497200 2.087500 25.620300 -0.034302 0.999047 0.027001 0.497700 -0.784300 1 0 1.000000 
0 -1.796000 1.337700 25.592400 -0.883117 0.463609 -0.071901 0.664900 -0.784300 1 0 1.000000 
0 -5.843400 -1.921900 52.179298 -0.943374 0.331691 0.005100 0.664900 -0.594200 1 0 1.000000 
Rebar_MedNorm01
0 -0.000000 1.500000 0.000000 -0.188601 0.981704 -0.026200 0.498500 -0.974300 1 0 1.000000 
0 -1.796000 1.337700 25.592400 -0.883117 0.463609 -0.071901 0.664900 -0.784300 1 0 1.000000 
0 -0.497200 2.087500 25.620300 -0.034302 0.999047 0.027001 0.497700 -0.784300 1 0 1.000000 
Rebar_MedNorm01
0 -0.000000 1.500000 0.000000 -0.188601 0.981704 -0.026200 0.498500 -0.974300 1 0 1.000000 
0 -1.299000 0.750000 0.000000 -0.944527 0.327409 -0.025901 0.666000 -0.974300 1 0 1.000000 
0 -1.796000 1.337700 25.592400 -0.883117 0.463609 -0.071901 0.664900 -0.784300 1 0 1.000000 
Rebar_MedNorm01
0 -3.325400 -1.402100 51.805698 0.755505 0.655105 -0.007000 0.329300 -0.594200 1 0 1.000000 
0 -2.210600 3.435400 78.165802 -0.244107 0.924928 -0.291409 0.497700 -0.404100 1 0 1.000000 
0 -0.780400 2.983900 78.188499 0.716140 0.646136 -0.263915 0.329300 -0.404100 1 0 1.000000 
Rebar_MedNorm01
0 -3.325400 -1.402100 51.805698 0.755505 0.655105 -0.007000 0.329300 -0.594200 1 0 1.000000 
0 -4.757200 -0.955000 51.811401 -0.182308 0.983241 -0.000400 0.497700 -0.594200 1 0 1.000000 
0 -2.210600 3.435400 78.165802 -0.244107 0.924928 -0.291409 0.497700 -0.404100 1 0 1.000000 
Rebar_MedNorm01
0 -2.979800 -2.816100 52.167900 0.942997 -0.332699 -0.008200 0.162900 -0.594200 1 0 1.000000 
0 -0.780400 2.983900 78.188499 0.716140 0.646136 -0.263915 0.329300 -0.404100 1 0 1.000000 
0 -0.432600 1.619700 78.706200 0.959671 -0.279192 0.032899 0.162900 -0.404100 1 0 1.000000 
Rebar_MedNorm01
0 -2.979800 -2.816100 52.167900 0.942997 -0.332699 -0.008200 0.162900 -0.594200 1 0 1.000000 
0 -3.325400 -1.402100 51.805698 0.755505 0.655105 -0.007000 0.329300 -0.594200 1 0 1.000000 
0 -0.780400 2.983900 78.188499 0.716140 0.646136 -0.263915 0.329300 -0.404100 1 0 1.000000 
Rebar_MedNorm01
0 0.802300 -0.158500 25.491301 0.882499 -0.464199 0.075600 0.162900 -0.784300 1 0 1.000000 
0 -3.325400 -1.402100 51.805698 0.755505 0.655105 -0.007000 0.329300 -0.594200 1 0 1.000000 
0 -2.979800 -2.816100 52.167900 0.942997 -0.332699 -0.008200 0.162900 -0.594200 1 0 1.000000 
Rebar_MedNorm01
0 0.802300 -0.158500 25.491301 0.882499 -0.464199 0.075600 0.162900 -0.784300 1 0 1.000000 
0 0.802000 1.339500 25.569799 0.845640 0.524225 0.100405 0.329300 -0.784300 1 0 1.000000 
0 -3.325400 -1.402100 51.805698 0.755505 0.655105 -0.007000 0.329300 -0.594200 1 0 1.000000 
Rebar_MedNorm01
0 0.802000 1.339500 25.569799 0.845640 0.524225 0.100405 0.329300 -0.784300 1 0 1.000000 
0 -4.757200 -0.955000 51.811401 -0.182308 0.983241 -0.000400 0.497700 -0.594200 1 0 1.000000 
0 -3.325400 -1.402100 51.805698 0.755505 0.655105 -0.007000 0.329300 -0.594200 1 0 1.000000 
Rebar_MedNorm01
0 0.802000 1.339500 25.569799 0.845640 0.524225 0.100405 0.329300 -0.784300 1 0 1.000000 
0 -0.497200 2.087500 25.620300 -0.034302 0.999047 0.027001 0.497700 -0.784300 1 0 1.000000 
0 -4.757200 -0.955000 51.811401 -0.182308 0.983241 -0.000400 0.497700 -0.594200 1 0 1.000000 
Rebar_MedNorm01
0 1.299000 0.750000 0.000000 0.755567 0.655071 -0.000400 0.332300 -0.974400 1 0 1.000000 
0 -0.497200 2.087500 25.620300 -0.034302 0.999047 0.027001 0.497700 -0.784300 1 0 1.000000 
0 0.802000 1.339500 25.569799 0.845640 0.524225 0.100405 0.329300 -0.784300 1 0 1.000000 
Rebar_MedNorm01
0 1.299000 0.750000 0.000000 0.755567 0.655071 -0.000400 0.332300 -0.974400 1 0 1.000000 
0 -0.000000 1.500000 0.000000 -0.188601 0.981704 -0.026200 0.496800 -0.974300 1 0 1.000000 
0 -0.497200 2.087500 25.620300 -0.034302 0.999047 0.027001 0.497700 -0.784300 1 0 1.000000 
Rebar_MedNorm01
0 -3.293200 2.522700 78.660797 -0.959317 0.280805 -0.029301 0.663700 -0.404100 1 0 1.000000 
0 -3.664701 12.846600 103.222603 -0.676999 -0.668299 0.308300 0.831200 -0.214000 1 0 1.000000 
0 -4.081901 14.263800 102.962898 -0.968635 0.245909 0.035701 0.664900 -0.214000 1 0 1.000000 
Rebar_MedNorm01
0 -3.293200 2.522700 78.660797 -0.959317 0.280805 -0.029301 0.663700 -0.404100 1 0 1.000000 
0 -2.945400 1.158500 79.178497 -0.716209 -0.645408 0.265503 0.831200 -0.404100 1 0 1.000000 
0 -3.664701 12.846600 103.222603 -0.676999 -0.668299 0.308300 0.831200 -0.214000 1 0 1.000000 
Rebar_MedNorm01
0 -5.843400 -1.921900 52.179298 -0.943374 0.331691 0.005100 0.664900 -0.594200 1 0 1.000000 
0 -2.945400 1.158500 79.178497 -0.716209 -0.645408 0.265503 0.831200 -0.404100 1 0 1.000000 
0 -3.293200 2.522700 78.660797 -0.959317 0.280805 -0.029301 0.663700 -0.404100 1 0 1.000000 
Rebar_MedNorm01
0 -5.843400 -1.921900 52.179298 -0.943374 0.331691 0.005100 0.664900 -0.594200 1 0 1.000000 
0 -5.497700 -3.335900 52.541500 -0.755085 -0.655587 0.007200 0.831200 -0.594200 1 0 1.000000 
0 -2.945400 1.158500 79.178497 -0.716209 -0.645408 0.265503 0.831200 -0.404100 1 0 1.000000 
Rebar_MedNorm01
0 -1.796000 1.337700 25.592400 -0.883117 0.463609 -0.071901 0.664900 -0.784300 1 0 1.000000 
0 -5.497700 -3.335900 52.541500 -0.755085 -0.655587 0.007200 0.831200 -0.594200 1 0 1.000000 
0 -5.843400 -1.921900 52.179298 -0.943374 0.331691 0.005100 0.664900 -0.594200 1 0 1.000000 
Rebar_MedNorm01
0 -1.796000 1.337700 25.592400 -0.883117 0.463609 -0.071901 0.664900 -0.784300 1 0 1.000000 
0 -1.795700 -0.160300 25.513901 -0.846113 -0.524808 -0.093101 0.831200 -0.784300 1 0 1.000000 
0 -5.497700 -3.335900 52.541500 -0.755085 -0.655587 0.007200 0.831200 -0.594200 1 0 1.000000 
Rebar_MedNorm01
0 -1.299000 0.750000 0.000000 -0.944527 0.327409 -0.025901 0.663700 -0.974300 1 0 1.000000 
0 -1.795700 -0.160300 25.513901 -0.846113 -0.524808 -0.093101 0.831200 -0.784300 1 0 1.000000 
0 -1.796000 1.337700 25.592400 -0.883117 0.463609 -0.071901 0.664900 -0.784300 1 0 1.000000 
Rebar_MedNorm01
0 -1.299000 0.750000 0.000000 -0.944527 0.327409 -0.025901 0.663700 -0.974300 1 0 1.000000 
0 -1.299000 -0.750000 0.000000 -0.755567 -0.655071 0.000500 0.831200 -0.974300 1 0 1.000000 
0 -1.795700 -0.160300 25.513901 -0.846113 -0.524808 -0.093101 0.831200 -0.784300 1 0 1.000000 
Rebar_MedNorm01
0 -2.274900 12.398900 102.878998 0.288704 -0.917013 0.275204 -0.003400 -0.214000 1 0 1.000000 
0 6.621599 19.992599 127.118599 0.872020 -0.464511 -0.154304 0.166900 -0.024000 1 0 1.000000 
0 5.648999 19.023100 127.721901 0.097404 -0.968939 0.227309 -0.003400 -0.023900 1 0 1.000000 
Rebar_MedNorm01
0 -2.274900 12.398900 102.878998 0.288704 -0.917013 0.275204 -0.003400 -0.214000 1 0 1.000000 
0 -1.302301 13.368500 102.275803 0.968935 -0.245009 -0.033701 0.162900 -0.214000 1 0 1.000000 
0 6.621599 19.992599 127.118599 0.872020 -0.464511 -0.154304 0.166900 -0.024000 1 0 1.000000 
Rebar_MedNorm01
0 -1.302301 13.368500 102.275803 0.968935 -0.245009 -0.033701 0.162900 -0.214000 1 0 1.000000 
0 6.204499 21.409901 126.859001 0.774583 0.504389 -0.381592 0.333800 -0.024000 1 0 1.000000 
0 6.621599 19.992599 127.118599 0.872020 -0.464511 -0.154304 0.166900 -0.024000 1 0 1.000000 
Rebar_MedNorm01
0 -1.302301 13.368500 102.275803 0.968935 -0.245009 -0.033701 0.162900 -0.214000 1 0 1.000000 
0 -1.719401 14.785700 102.016197 0.676776 0.668576 -0.308189 0.329300 -0.214000 1 0 1.000000 
0 6.204499 21.409901 126.859001 0.774583 0.504389 -0.381592 0.333800 -0.024000 1 0 1.000000 
Rebar_MedNorm01
0 -1.719401 14.785700 102.016197 0.676776 0.668576 -0.308189 0.329300 -0.214000 1 0 1.000000 
0 4.814699 21.857500 127.202499 -0.097404 0.968939 -0.227309 0.497700 -0.023900 1 0 1.000000 
0 6.204499 21.409901 126.859001 0.774583 0.504389 -0.381592 0.333800 -0.024000 1 0 1.000000 
Rebar_MedNorm01
0 -1.719401 14.785700 102.016197 0.676776 0.668576 -0.308189 0.329300 -0.214000 1 0 1.000000 
0 -3.109201 15.233400 102.359703 -0.288914 0.916944 -0.275213 0.497700 -0.214000 1 0 1.000000 
0 4.814699 21.857500 127.202499 -0.097404 0.968939 -0.227309 0.497700 -0.023900 1 0 1.000000 
Rebar_MedNorm01
0 -3.109201 15.233400 102.359703 -0.288914 0.916944 -0.275213 0.497700 -0.214000 1 0 1.000000 
0 3.841999 20.888000 127.805801 -0.872020 0.464511 0.154304 0.664900 -0.023900 1 0 1.000000 
0 4.814699 21.857500 127.202499 -0.097404 0.968939 -0.227309 0.497700 -0.023900 1 0 1.000000 
Rebar_MedNorm01
0 -3.109201 15.233400 102.359703 -0.288914 0.916944 -0.275213 0.497700 -0.214000 1 0 1.000000 
0 -4.081901 14.263800 102.962898 -0.968635 0.245909 0.035701 0.664900 -0.214000 1 0 1.000000 
0 3.841999 20.888000 127.805801 -0.872020 0.464511 0.154304 0.664900 -0.023900 1 0 1.000000 
Rebar_MedNorm01
0 -4.081901 14.263800 102.962898 -0.968635 0.245909 0.035701 0.664900 -0.214000 1 0 1.000000 
0 4.259199 19.470699 128.065399 -0.774583 -0.504389 0.381592 0.831200 -0.023900 1 0 1.000000 
0 3.841999 20.888000 127.805801 -0.872020 0.464511 0.154304 0.664900 -0.023900 1 0 1.000000 
Rebar_MedNorm01
0 -4.081901 14.263800 102.962898 -0.968635 0.245909 0.035701 0.664900 -0.214000 1 0 1.000000 
0 -3.664701 12.846600 103.222603 -0.676999 -0.668299 0.308300 0.831200 -0.214000 1 0 1.000000 
0 4.259199 19.470699 128.065399 -0.774583 -0.504389 0.381592 0.831200 -0.023900 1 0 1.000000 
Rebar_MedNorm01
0 -3.664701 12.846600 103.222603 -0.676999 -0.668299 0.308300 0.831200 -0.214000 1 0 1.000000 
0 5.648999 19.023100 127.721901 0.097404 -0.968939 0.227309 0.998700 -0.023900 1 0 1.000000 
0 4.259199 19.470699 128.065399 -0.774583 -0.504389 0.381592 0.831200 -0.023900 1 0 1.000000 
Rebar_MedNorm01
0 -3.664701 12.846600 103.222603 -0.676999 -0.668299 0.308300 0.831200 -0.214000 1 0 1.000000 
0 -2.274900 12.398900 102.878998 0.288704 -0.917013 0.275204 0.998700 -0.214000 1 0 1.000000 
0 5.648999 19.023100 127.721901 0.097404 -0.968939 0.227309 0.998700 -0.023900 1 0 1.000000 
Rebar_MedNorm01
0 -2.945400 1.158500 79.178497 -0.716209 -0.645408 0.265503 0.831200 -0.404100 1 0 1.000000 
0 -2.274900 12.398900 102.878998 0.288704 -0.917013 0.275204 0.998700 -0.214000 1 0 1.000000 
0 -3.664701 12.846600 103.222603 -0.676999 -0.668299 0.308300 0.831200 -0.214000 1 0 1.000000 
Rebar_MedNorm01
0 -2.945400 1.158500 79.178497 -0.716209 -0.645408 0.265503 0.831200 -0.404100 1 0 1.000000 
0 -1.515200 0.707000 79.201202 0.244506 -0.923522 0.295507 0.998700 -0.404100 1 0 1.000000 
0 -2.274900 12.398900 102.878998 0.288704 -0.917013 0.275204 0.998700 -0.214000 1 0 1.000000 
Rebar_MedNorm01
0 -5.497700 -3.335900 52.541500 -0.755085 -0.655587 0.007200 0.831200 -0.594200 1 0 1.000000 
0 -1.515200 0.707000 79.201202 0.244506 -0.923522 0.295507 0.998700 -0.404100 1 0 1.000000 
0 -2.945400 1.158500 79.178497 -0.716209 -0.645408 0.265503 0.831200 -0.404100 1 0 1.000000 
Rebar_MedNorm01
0 -5.497700 -3.335900 52.541500 -0.755085 -0.655587 0.007200 0.831200 -0.594200 1 0 1.000000 
0 -4.065900 -3.783000 52.535801 0.181498 -0.983390 0.001600 0.998700 -0.594200 1 0 1.000000 
0 -1.515200 0.707000 79.201202 0.244506 -0.923522 0.295507 0.998700 -0.404100 1 0 1.000000 
Rebar_MedNorm01
0 -1.795700 -0.160300 25.513901 -0.846113 -0.524808 -0.093101 0.831200 -0.784300 1 0 1.000000 
0 -4.065900 -3.783000 52.535801 0.181498 -0.983390 0.001600 0.998700 -0.594200 1 0 1.000000 
0 -5.497700 -3.335900 52.541500 -0.755085 -0.655587 0.007200 0.831200 -0.594200 1 0 1.000000 
Rebar_MedNorm01
0 -1.795700 -0.160300 25.513901 -0.846113 -0.524808 -0.093101 0.831200 -0.784300 1 0 1.000000 
0 -0.496500 -0.908300 25.463301 0.033500 -0.999192 -0.022200 0.998700 -0.784300 1 0 1.000000 
0 -4.065900 -3.783000 52.535801 0.181498 -0.983390 0.001600 0.998700 -0.594200 1 0 1.000000 
Rebar_MedNorm01
0 -1.299000 -0.750000 0.000000 -0.755567 -0.655071 0.000500 0.831200 -0.974300 1 0 1.000000 
0 -0.496500 -0.908300 25.463301 0.033500 -0.999192 -0.022200 0.998700 -0.784300 1 0 1.000000 
0 -1.795700 -0.160300 25.513901 -0.846113 -0.524808 -0.093101 0.831200 -0.784300 1 0 1.000000 
Rebar_MedNorm01
0 -1.299000 -0.750000 0.000000 -0.755567 -0.655071 0.000500 0.831200 -0.974300 1 0 1.000000 
0 0.000000 -1.500000 0.000000 0.188599 -0.981696 0.026500 0.998700 -0.974300 1 0 1.000000 
0 -0.496500 -0.908300 25.463301 0.033500 -0.999192 -0.022200 0.998700 -0.784300 1 0 1.000000 
Rebar_MedNorm01
0 5.231799 20.440300 127.462196 0.309501 0.258801 0.915003 0.254600 -0.014400 1 0 1.000000 
0 4.814699 21.857500 127.202499 0.309501 0.258801 0.915003 0.422100 -0.014400 1 0 1.000000 
0 3.841999 20.888000 127.805801 0.309501 0.258801 0.915003 0.338300 -0.004800 1 0 1.000000 
Rebar_MedNorm01
0 5.231799 20.440300 127.462196 0.309501 0.258801 0.915003 0.254600 -0.014400 1 0 1.000000 
0 6.204499 21.409901 126.859001 0.309501 0.258801 0.915003 0.333800 -0.024000 1 0 1.000000 
0 4.814699 21.857500 127.202499 0.309501 0.258801 0.915003 0.422100 -0.014400 1 0 1.000000 
Rebar_MedNorm01
0 5.231799 20.440300 127.462196 0.309501 0.258801 0.915003 0.254600 -0.014400 1 0 1.000000 
0 6.621599 19.992599 127.118599 0.309509 0.258708 0.915027 0.166900 -0.024000 1 0 1.000000 
0 6.204499 21.409901 126.859001 0.309501 0.258801 0.915003 0.333800 -0.024000 1 0 1.000000 
Rebar_MedNorm01
0 5.231799 20.440300 127.462196 0.309501 0.258801 0.915003 0.254600 -0.014400 1 0 1.000000 
0 5.648999 19.023100 127.721901 0.309509 0.258708 0.915027 0.087100 -0.014400 1 0 1.000000 
0 6.621599 19.992599 127.118599 0.309509 0.258708 0.915027 0.166900 -0.024000 1 0 1.000000 
Rebar_MedNorm01
0 5.231799 20.440300 127.462196 0.309501 0.258801 0.915003 0.254600 -0.014400 1 0 1.000000 
0 4.259199 19.470699 128.065399 0.309509 0.258708 0.915027 0.170900 -0.004800 1 0 1.000000 
0 5.648999 19.023100 127.721901 0.309509 0.258708 0.915027 0.087100 -0.014400 1 0 1.000000 
Rebar_MedNorm01
0 5.231799 20.440300 127.462196 0.309501 0.258801 0.915003 0.254600 -0.014400 1 0 1.000000 
0 3.841999 20.888000 127.805801 0.309501 0.258801 0.915003 0.338300 -0.004800 1 0 1.000000 
0 4.259199 19.470699 128.065399 0.309509 0.258708 0.915027 0.170900 -0.004800 1 0 1.000000 
end
