version 1
nodes
  0 "static_prop" -1
end
skeleton
time 0
0 0.000000 0.000000 0.000000 0.000000 0.000000 0.000000
end
triangles
light_cagelight01
0 5.739900 0.237200 -9.589500 0.575306 0.414204 -0.705307 0.370700 -0.984500 1 0 1.000000 
0 4.482200 0.133500 -10.010700 0.629917 0.250607 -0.735120 0.377400 -0.903200 1 0 1.000000 
0 4.372000 1.640000 -9.585200 0.616909 0.545408 -0.567409 0.280100 -0.896100 1 0 1.000000 
light_cagelight01
0 6.534000 -1.891600 -0.523600 0.942861 -0.333186 0.000000 0.292100 -0.329700 1 0 1.000000 
0 7.202400 0.000000 -0.001700 0.942861 -0.333186 0.000000 0.500000 -0.292200 1 0 1.000000 
0 6.534000 -1.891600 -0.001700 0.942861 -0.333186 0.000000 0.292100 -0.292200 1 0 1.000000 
light_cagelight01
0 6.534000 -1.891600 -0.523600 0.942861 -0.333186 0.000000 0.292100 -0.329700 1 0 1.000000 
0 7.202400 0.000000 -0.523600 0.942861 -0.333186 0.000000 0.500000 -0.329700 1 0 1.000000 
0 7.202400 0.000000 -0.001700 0.942861 -0.333186 0.000000 0.500000 -0.292200 1 0 1.000000 
light_cagelight01
0 4.841500 -2.898100 -0.523600 0.511109 -0.859516 0.000000 0.188400 -0.329700 1 0 1.000000 
0 6.534000 -1.891600 -0.001700 0.511109 -0.859516 0.000000 0.292100 -0.292200 1 0 1.000000 
0 4.841500 -2.898100 -0.001700 0.511109 -0.859516 0.000000 0.188400 -0.292200 1 0 1.000000 
light_cagelight01
0 4.841500 -2.898100 -0.523600 0.511109 -0.859516 0.000000 0.188400 -0.329700 1 0 1.000000 
0 6.534000 -1.891600 -0.523600 0.511109 -0.859516 0.000000 0.292100 -0.329700 1 0 1.000000 
0 6.534000 -1.891600 -0.001700 0.511109 -0.859516 0.000000 0.292100 -0.292200 1 0 1.000000 
light_cagelight01
0 -0.000900 -2.808000 -0.523600 -0.018600 -0.999827 0.000000 0.637000 -0.208100 1 0 1.000000 
0 4.841500 -2.898100 -0.001700 -0.018600 -0.999827 0.000000 0.363000 -0.178600 1 0 1.000000 
0 -0.000900 -2.808000 -0.001700 -0.018600 -0.999827 0.000000 0.637000 -0.178600 1 0 1.000000 
light_cagelight01
0 -0.000900 -2.808000 -0.523600 -0.018600 -0.999827 0.000000 0.637000 -0.208100 1 0 1.000000 
0 4.841500 -2.898100 -0.523600 -0.018600 -0.999827 0.000000 0.363000 -0.208100 1 0 1.000000 
0 4.841500 -2.898100 -0.001700 -0.018600 -0.999827 0.000000 0.363000 -0.178600 1 0 1.000000 
light_cagelight01
0 4.841500 2.898100 -0.523600 -0.018601 0.999827 0.000000 0.363000 -0.208100 1 0 1.000000 
0 -0.000900 2.808000 -0.001700 -0.018601 0.999827 0.000000 0.637000 -0.178600 1 0 1.000000 
0 4.841500 2.898100 -0.001700 -0.018601 0.999827 0.000000 0.363000 -0.178600 1 0 1.000000 
light_cagelight01
0 4.841500 2.898100 -0.523600 -0.018601 0.999827 0.000000 0.363000 -0.208100 1 0 1.000000 
0 -0.000900 2.808000 -0.523600 -0.018601 0.999827 0.000000 0.637000 -0.208100 1 0 1.000000 
0 -0.000900 2.808000 -0.001700 -0.018601 0.999827 0.000000 0.637000 -0.178600 1 0 1.000000 
light_cagelight01
0 4.376400 -1.623500 -9.589400 0.414530 -0.575141 -0.705250 0.322100 -0.989600 1 0 1.000000 
0 5.791400 -1.776700 -8.235700 0.569106 -0.711307 -0.412504 0.371000 -0.925600 1 0 1.000000 
0 4.436000 -2.384000 -8.236600 0.404290 -0.900278 -0.161396 0.320200 -0.925700 1 0 1.000000 
light_cagelight01
0 4.376400 -1.623500 -9.589400 0.414530 -0.575141 -0.705250 0.322100 -0.989600 1 0 1.000000 
0 5.778600 -0.253300 -9.585300 0.546276 -0.616173 -0.567375 0.425300 -0.989400 1 0 1.000000 
0 5.791400 -1.776700 -8.235700 0.569106 -0.711307 -0.412504 0.371000 -0.925600 1 0 1.000000 
light_cagelight01
0 5.778600 -0.253300 -9.585300 0.546276 -0.616173 -0.567375 0.425300 -0.989400 1 0 1.000000 
0 6.539100 -0.193600 -8.236300 0.762105 -0.628404 -0.155901 0.431000 -0.925700 1 0 1.000000 
0 5.791400 -1.776700 -8.235700 0.569106 -0.711307 -0.412504 0.371000 -0.925600 1 0 1.000000 
light_cagelight01
0 7.202400 0.000000 -0.523600 0.000000 0.000000 -1.000000 0.274300 -0.302000 1 0 1.000000 
0 4.841500 2.898100 -0.523600 0.000000 0.000000 -1.000000 0.373700 -0.425600 1 0 1.000000 
0 6.534000 1.891600 -0.523600 0.000000 0.000000 -1.000000 0.302500 -0.382700 1 0 1.000000 
light_cagelight01
0 7.202400 0.000000 -0.523600 0.000000 0.000000 -1.000000 0.274300 -0.302000 1 0 1.000000 
0 -0.000900 2.808000 -0.523600 0.000000 0.000000 -1.000000 0.577700 -0.421800 1 0 1.000000 
0 4.841500 2.898100 -0.523600 0.000000 0.000000 -1.000000 0.373700 -0.425600 1 0 1.000000 
light_cagelight01
0 7.202400 0.000000 -0.523600 0.000000 0.000000 -1.000000 0.274300 -0.302000 1 0 1.000000 
0 -0.000900 -2.808000 -0.523600 0.000000 0.000000 -1.000000 0.577700 -0.182100 1 0 1.000000 
0 -0.000900 2.808000 -0.523600 0.000000 0.000000 -1.000000 0.577700 -0.421800 1 0 1.000000 
light_cagelight01
0 7.202400 0.000000 -0.523600 0.000000 0.000000 -1.000000 0.274300 -0.302000 1 0 1.000000 
0 4.841500 -2.898100 -0.523600 0.000000 0.000000 -1.000000 0.373700 -0.178300 1 0 1.000000 
0 -0.000900 -2.808000 -0.523600 0.000000 0.000000 -1.000000 0.577700 -0.182100 1 0 1.000000 
light_cagelight01
0 7.202400 0.000000 -0.523600 0.000000 0.000000 -1.000000 0.274300 -0.302000 1 0 1.000000 
0 6.534000 -1.891600 -0.523600 0.000000 0.000000 -1.000000 0.302500 -0.221200 1 0 1.000000 
0 4.841500 -2.898100 -0.523600 0.000000 0.000000 -1.000000 0.373700 -0.178300 1 0 1.000000 
light_cagelight01
0 2.518100 -0.259400 -9.589500 -0.575514 -0.414410 -0.705017 0.302800 -0.989600 1 0 1.000000 
0 2.364800 -1.674400 -8.235700 -0.711595 -0.568896 -0.412297 0.351700 -0.925600 1 0 1.000000 
0 1.757500 -0.319000 -8.236600 -0.900278 -0.404290 -0.161396 0.300900 -0.925700 1 0 1.000000 
light_cagelight01
0 2.518100 -0.259400 -9.589500 -0.575514 -0.414410 -0.705017 0.302800 -0.989600 1 0 1.000000 
0 3.886000 -1.662200 -9.585200 -0.617012 -0.545810 -0.566911 0.405900 -0.989400 1 0 1.000000 
0 2.364800 -1.674400 -8.235700 -0.711595 -0.568896 -0.412297 0.351700 -0.925600 1 0 1.000000 
light_cagelight01
0 3.886000 -1.662200 -9.585200 -0.617012 -0.545810 -0.566911 0.405900 -0.989400 1 0 1.000000 
0 3.945600 -2.422700 -8.236300 -0.633013 -0.758115 -0.156703 0.411600 -0.925700 1 0 1.000000 
0 2.364800 -1.674400 -8.235700 -0.711595 -0.568896 -0.412297 0.351700 -0.925600 1 0 1.000000 
light_cagelight01
0 2.479400 0.231100 -9.585300 -0.546389 0.616887 -0.566488 0.447000 -0.989400 1 0 1.000000 
0 1.718800 0.171400 -8.236300 -0.792250 0.596338 -0.129308 0.452700 -0.925700 1 0 1.000000 
0 2.466500 1.754500 -8.235700 -0.569106 0.711307 -0.412504 0.392700 -0.925600 1 0 1.000000 
light_cagelight01
0 3.881600 1.601300 -9.589400 -0.415082 0.575576 -0.704570 0.343800 -0.989600 1 0 1.000000 
0 2.479400 0.231100 -9.585300 -0.546389 0.616887 -0.566488 0.447000 -0.989400 1 0 1.000000 
0 2.466500 1.754500 -8.235700 -0.569106 0.711307 -0.412504 0.392700 -0.925600 1 0 1.000000 
light_cagelight01
0 2.466500 1.754500 -8.235700 -0.569106 0.711307 -0.412504 0.392700 -0.925600 1 0 1.000000 
0 3.822000 2.361900 -8.236600 -0.404290 0.900278 -0.161396 0.341900 -0.925700 1 0 1.000000 
0 3.881600 1.601300 -9.589400 -0.415082 0.575576 -0.704570 0.343800 -0.989600 1 0 1.000000 
light_cagelight01
0 5.739900 0.237200 -9.589500 0.575306 0.414204 -0.705307 0.338400 -0.989600 1 0 1.000000 
0 5.893100 1.652200 -8.235700 0.711595 0.568896 -0.412297 0.387300 -0.925600 1 0 1.000000 
0 6.500400 0.296800 -8.236600 0.900278 0.404290 -0.161396 0.336500 -0.925700 1 0 1.000000 
light_cagelight01
0 5.739900 0.237200 -9.589500 0.575306 0.414204 -0.705307 0.338400 -0.989600 1 0 1.000000 
0 4.372000 1.640000 -9.585200 0.616909 0.545408 -0.567409 0.441500 -0.989400 1 0 1.000000 
0 5.893100 1.652200 -8.235700 0.711595 0.568896 -0.412297 0.387300 -0.925600 1 0 1.000000 
light_cagelight01
0 4.372000 1.640000 -9.585200 0.616909 0.545408 -0.567409 0.441500 -0.989400 1 0 1.000000 
0 4.312400 2.400600 -8.236300 0.619190 0.770488 -0.151498 0.447200 -0.925700 1 0 1.000000 
0 5.893100 1.652200 -8.235700 0.711595 0.568896 -0.412297 0.387300 -0.925600 1 0 1.000000 
light_cagelight01
0 4.272100 -0.369100 -10.010500 0.253699 -0.636797 -0.728097 0.409900 -0.889700 1 0 1.000000 
0 5.778600 -0.253300 -9.585300 0.546276 -0.616173 -0.567375 0.402400 -0.987000 1 0 1.000000 
0 4.376400 -1.623500 -9.589400 0.414530 -0.575141 -0.705250 0.490900 -0.896400 1 0 1.000000 
light_cagelight01
0 4.128500 -0.032100 -10.503100 0.900254 -0.102695 -0.423079 0.497100 -0.313500 1 0 1.000000 
0 4.376400 -1.623500 -9.589400 0.889672 -0.234992 -0.391488 0.349800 -0.336500 1 0 1.000000 
0 4.146400 -1.839600 -9.862800 0.832502 -0.390701 -0.392801 0.329800 -0.315200 1 0 1.000000 
light_cagelight01
0 4.128500 -0.032100 -10.503100 0.900254 -0.102695 -0.423079 0.497100 -0.313500 1 0 1.000000 
0 4.272100 -0.369100 -10.010500 0.956490 -0.018200 -0.291197 0.465900 -0.326800 1 0 1.000000 
0 4.376400 -1.623500 -9.589400 0.889672 -0.234992 -0.391488 0.349800 -0.336500 1 0 1.000000 
light_cagelight01
0 5.893100 1.652200 -8.235700 0.711595 0.568896 -0.412297 0.347200 -0.971100 1 0 1.000000 
0 4.312400 2.397500 -7.020700 0.525117 0.851028 0.001400 0.431600 -0.890100 1 0 1.000000 
0 5.893100 1.652200 -7.020800 0.426495 0.904490 0.000000 0.347200 -0.890100 1 0 1.000000 
light_cagelight01
0 5.893100 1.652200 -8.235700 0.711595 0.568896 -0.412297 0.347200 -0.971100 1 0 1.000000 
0 4.312400 2.400600 -8.236300 0.619190 0.770488 -0.151498 0.431700 -0.971100 1 0 1.000000 
0 4.312400 2.397500 -7.020700 0.525117 0.851028 0.001400 0.431600 -0.890100 1 0 1.000000 
light_cagelight01
0 6.500400 0.296800 -8.236600 0.900278 0.404290 -0.161396 0.275600 -0.971100 1 0 1.000000 
0 5.893100 1.652200 -7.020800 0.912179 0.409790 -0.001300 0.347200 -0.890100 1 0 1.000000 
0 6.500600 0.304100 -7.021000 0.911718 0.410808 -0.002500 0.275900 -0.890100 1 0 1.000000 
light_cagelight01
0 6.500400 0.296800 -8.236600 0.900278 0.404290 -0.161396 0.275600 -0.971100 1 0 1.000000 
0 5.893100 1.652200 -8.235700 0.711595 0.568896 -0.412297 0.347200 -0.971100 1 0 1.000000 
0 5.893100 1.652200 -7.020800 0.912179 0.409790 -0.001300 0.347200 -0.890100 1 0 1.000000 
light_cagelight01
0 5.791400 -1.776700 -8.235700 0.569106 -0.711307 -0.412504 0.372800 -0.971100 1 0 1.000000 
0 6.536400 -0.194800 -7.020700 0.840505 -0.541803 0.000800 0.457200 -0.890100 1 0 1.000000 
0 5.791400 -1.776700 -7.020800 0.904680 -0.426091 0.000000 0.372800 -0.890100 1 0 1.000000 
light_cagelight01
0 5.791400 -1.776700 -8.235700 0.569106 -0.711307 -0.412504 0.372800 -0.971100 1 0 1.000000 
0 6.539100 -0.193600 -8.236300 0.762105 -0.628404 -0.155901 0.457300 -0.971100 1 0 1.000000 
0 6.536400 -0.194800 -7.020700 0.840505 -0.541803 0.000800 0.457200 -0.890100 1 0 1.000000 
light_cagelight01
0 4.436000 -2.384000 -8.236600 0.404290 -0.900278 -0.161396 0.301100 -0.971100 1 0 1.000000 
0 5.791400 -1.776700 -7.020800 0.409790 -0.912179 -0.001300 0.372800 -0.890100 1 0 1.000000 
0 4.443300 -2.384200 -7.021000 0.410808 -0.911718 -0.002500 0.301500 -0.890100 1 0 1.000000 
light_cagelight01
0 4.436000 -2.384000 -8.236600 0.404290 -0.900278 -0.161396 0.301100 -0.971100 1 0 1.000000 
0 5.791400 -1.776700 -8.235700 0.569106 -0.711307 -0.412504 0.372800 -0.971100 1 0 1.000000 
0 5.791400 -1.776700 -7.020800 0.409790 -0.912179 -0.001300 0.372800 -0.890100 1 0 1.000000 
light_cagelight01
0 2.364800 -1.674400 -8.235700 -0.711595 -0.568896 -0.412297 0.336600 -0.971100 1 0 1.000000 
0 3.945600 -2.419700 -7.020700 -0.549010 -0.835815 0.001300 0.421000 -0.890100 1 0 1.000000 
0 2.364800 -1.674400 -7.020800 -0.426495 -0.904490 0.000000 0.336600 -0.890100 1 0 1.000000 
light_cagelight01
0 2.364800 -1.674400 -8.235700 -0.711595 -0.568896 -0.412297 0.336600 -0.971100 1 0 1.000000 
0 3.945600 -2.422700 -8.236300 -0.633013 -0.758115 -0.156703 0.421000 -0.971100 1 0 1.000000 
0 3.945600 -2.419700 -7.020700 -0.549010 -0.835815 0.001300 0.421000 -0.890100 1 0 1.000000 
light_cagelight01
0 1.757500 -0.319000 -8.236600 -0.900278 -0.404290 -0.161396 0.264900 -0.971100 1 0 1.000000 
0 2.364800 -1.674400 -7.020800 -0.912179 -0.409790 -0.001300 0.336600 -0.890100 1 0 1.000000 
0 1.757400 -0.326200 -7.021000 -0.911718 -0.410808 -0.002500 0.265300 -0.890100 1 0 1.000000 
light_cagelight01
0 1.757500 -0.319000 -8.236600 -0.900278 -0.404290 -0.161396 0.264900 -0.971100 1 0 1.000000 
0 2.364800 -1.674400 -8.235700 -0.711595 -0.568896 -0.412297 0.336600 -0.971100 1 0 1.000000 
0 2.364800 -1.674400 -7.020800 -0.912179 -0.409790 -0.001300 0.336600 -0.890100 1 0 1.000000 
light_cagelight01
0 2.466500 1.754500 -7.020800 -0.904451 0.426577 0.000800 0.407800 -0.890100 1 0 1.000000 
0 1.718800 0.171400 -8.236300 -0.792250 0.596338 -0.129308 0.492400 -0.971100 1 0 1.000000 
0 1.721500 0.172600 -7.020700 -0.805035 0.593226 0.001200 0.492300 -0.890100 1 0 1.000000 
light_cagelight01
0 2.466500 1.754500 -7.020800 -0.904451 0.426577 0.000800 0.407800 -0.890100 1 0 1.000000 
0 2.466500 1.754500 -8.235700 -0.569106 0.711307 -0.412504 0.407800 -0.971100 1 0 1.000000 
0 1.718800 0.171400 -8.236300 -0.792250 0.596338 -0.129308 0.492400 -0.971100 1 0 1.000000 
light_cagelight01
0 3.822000 2.361900 -8.236600 -0.404290 0.900278 -0.161396 0.336200 -0.971100 1 0 1.000000 
0 2.466500 1.754500 -7.020800 -0.409790 0.912179 -0.001300 0.407800 -0.890100 1 0 1.000000 
0 3.814700 2.362000 -7.021000 -0.410808 0.911718 -0.002500 0.336500 -0.890100 1 0 1.000000 
light_cagelight01
0 3.822000 2.361900 -8.236600 -0.404290 0.900278 -0.161396 0.336200 -0.971100 1 0 1.000000 
0 2.466500 1.754500 -8.235700 -0.569106 0.711307 -0.412504 0.407800 -0.971100 1 0 1.000000 
0 2.466500 1.754500 -7.020800 -0.409790 0.912179 -0.001300 0.407800 -0.890100 1 0 1.000000 
light_cagelight01
0 5.791400 -1.776600 -6.528900 0.905004 -0.425402 0.000000 0.372800 -0.885400 1 0 1.000000 
0 6.535000 -0.194900 -4.095700 0.841211 -0.540707 -0.000100 0.457200 -0.723200 1 0 1.000000 
0 5.791400 -1.776700 -4.095900 0.905004 -0.425402 0.000000 0.372800 -0.723300 1 0 1.000000 
light_cagelight01
0 5.791400 -1.776600 -6.528900 0.905004 -0.425402 0.000000 0.372800 -0.885400 1 0 1.000000 
0 6.534800 -0.194900 -6.529600 0.760610 -0.649209 0.000100 0.457200 -0.885400 1 0 1.000000 
0 6.535000 -0.194900 -4.095700 0.841211 -0.540707 -0.000100 0.457200 -0.723200 1 0 1.000000 
light_cagelight01
0 4.443100 -2.382500 -6.529900 0.409911 -0.912125 -0.000100 0.301500 -0.885500 1 0 1.000000 
0 5.791400 -1.776700 -4.095900 0.409911 -0.912125 -0.000100 0.372800 -0.723300 1 0 1.000000 
0 4.443100 -2.382800 -4.096000 0.409995 -0.912088 -0.000100 0.301500 -0.723300 1 0 1.000000 
light_cagelight01
0 4.443100 -2.382500 -6.529900 0.409911 -0.912125 -0.000100 0.301500 -0.885500 1 0 1.000000 
0 5.791400 -1.776600 -6.528900 0.409911 -0.912125 0.000000 0.372800 -0.885400 1 0 1.000000 
0 5.791400 -1.776700 -4.095900 0.409911 -0.912125 -0.000100 0.372800 -0.723300 1 0 1.000000 
light_cagelight01
0 2.364900 -1.674400 -6.528900 -0.425807 -0.904814 0.000000 0.336600 -0.885400 1 0 1.000000 
0 3.945500 -2.418300 -4.095700 -0.542480 -0.840069 -0.000100 0.421000 -0.723200 1 0 1.000000 
0 2.364800 -1.674400 -4.095900 -0.425807 -0.904814 0.000000 0.336600 -0.723300 1 0 1.000000 
light_cagelight01
0 2.364900 -1.674400 -6.528900 -0.425807 -0.904814 0.000000 0.336600 -0.885400 1 0 1.000000 
0 3.945500 -2.418100 -6.529600 -0.656512 -0.754314 0.001000 0.421000 -0.885400 1 0 1.000000 
0 3.945500 -2.418300 -4.095700 -0.542480 -0.840069 -0.000100 0.421000 -0.723200 1 0 1.000000 
light_cagelight01
0 1.759000 -0.326100 -6.529900 -0.912125 -0.409911 -0.000100 0.265300 -0.885500 1 0 1.000000 
0 2.364800 -1.674400 -4.095900 -0.912125 -0.409911 -0.000100 0.336600 -0.723300 1 0 1.000000 
0 1.758800 -0.326100 -4.096000 -0.912088 -0.409995 -0.000100 0.265300 -0.723300 1 0 1.000000 
light_cagelight01
0 1.759000 -0.326100 -6.529900 -0.912125 -0.409911 -0.000100 0.265300 -0.885500 1 0 1.000000 
0 2.364900 -1.674400 -6.528900 -0.912125 -0.409911 0.000000 0.336600 -0.885400 1 0 1.000000 
0 2.364800 -1.674400 -4.095900 -0.912125 -0.409911 -0.000100 0.336600 -0.723300 1 0 1.000000 
light_cagelight01
0 2.466500 1.754500 -6.528900 -0.905004 0.425402 0.000000 0.407800 -0.885400 1 0 1.000000 
0 1.722900 0.172700 -4.095700 -0.841016 0.541010 -0.000100 0.492300 -0.723200 1 0 1.000000 
0 2.466500 1.754500 -4.095900 -0.905004 0.425402 0.000000 0.407800 -0.723300 1 0 1.000000 
light_cagelight01
0 2.466500 1.754500 -6.528900 -0.905004 0.425402 0.000000 0.407800 -0.885400 1 0 1.000000 
0 1.723100 0.172700 -6.529600 -0.762080 0.647483 -0.000400 0.492300 -0.885400 1 0 1.000000 
0 1.722900 0.172700 -4.095700 -0.841016 0.541010 -0.000100 0.492300 -0.723200 1 0 1.000000 
light_cagelight01
0 3.814800 2.360400 -6.529900 -0.409911 0.912125 -0.000100 0.336500 -0.885500 1 0 1.000000 
0 2.466500 1.754500 -4.095900 -0.409911 0.912125 -0.000100 0.407800 -0.723300 1 0 1.000000 
0 3.814800 2.360600 -4.096000 -0.409995 0.912088 -0.000100 0.336500 -0.723300 1 0 1.000000 
light_cagelight01
0 3.814800 2.360400 -6.529900 -0.409911 0.912125 -0.000100 0.336500 -0.885500 1 0 1.000000 
0 2.466500 1.754500 -6.528900 -0.409911 0.912125 0.000000 0.407800 -0.885400 1 0 1.000000 
0 2.466500 1.754500 -4.095900 -0.409911 0.912125 -0.000100 0.407800 -0.723300 1 0 1.000000 
light_cagelight01
0 5.893000 1.652200 -6.528900 0.456503 0.771304 0.443503 0.347200 -0.885400 1 0 1.000000 
0 4.312500 2.396100 -4.095700 0.542899 0.839798 -0.000100 0.431600 -0.723200 1 0 1.000000 
0 5.893100 1.652200 -4.095900 0.425807 0.904814 0.000000 0.347200 -0.723300 1 0 1.000000 
light_cagelight01
0 5.893000 1.652200 -6.528900 0.456503 0.771304 0.443503 0.347200 -0.885400 1 0 1.000000 
0 4.312500 2.396000 -6.529600 0.587082 0.799376 0.127796 0.431600 -0.885400 1 0 1.000000 
0 4.312500 2.396100 -4.095700 0.542899 0.839798 -0.000100 0.431600 -0.723200 1 0 1.000000 
light_cagelight01
0 6.498900 0.303900 -6.529900 0.912125 0.409911 -0.000100 0.275900 -0.885500 1 0 1.000000 
0 5.893100 1.652200 -4.095900 0.912125 0.409911 -0.000100 0.347200 -0.723300 1 0 1.000000 
0 6.499200 0.303900 -4.096000 0.912088 0.409995 -0.000100 0.275900 -0.723300 1 0 1.000000 
light_cagelight01
0 6.498900 0.303900 -6.529900 0.912125 0.409911 -0.000100 0.275900 -0.885500 1 0 1.000000 
0 5.893000 1.652200 -6.528900 0.912125 0.409911 0.000000 0.347200 -0.885400 1 0 1.000000 
0 5.893100 1.652200 -4.095900 0.912125 0.409911 -0.000100 0.347200 -0.723300 1 0 1.000000 
light_cagelight01
0 5.791400 -1.776600 -3.603900 0.905004 -0.425402 0.000100 0.372800 -0.718500 1 0 1.000000 
0 6.535400 -0.192800 -0.767400 0.905004 -0.425402 0.000100 0.457300 -0.529500 1 0 1.000000 
0 5.791400 -1.776700 -0.763300 0.905138 -0.425118 0.000000 0.372800 -0.529200 1 0 1.000000 
light_cagelight01
0 5.791400 -1.776600 -3.603900 0.905004 -0.425402 0.000100 0.372800 -0.718500 1 0 1.000000 
0 6.535800 -0.194000 -3.603600 0.904909 -0.425604 0.000300 0.457300 -0.718500 1 0 1.000000 
0 6.535400 -0.192800 -0.767400 0.905004 -0.425402 0.000100 0.457300 -0.529500 1 0 1.000000 
light_cagelight01
0 4.439400 -2.382200 -3.603800 0.408401 -0.912802 0.000100 0.301300 -0.718500 1 0 1.000000 
0 5.791400 -1.776700 -0.763300 0.408401 -0.912802 0.000100 0.372800 -0.529200 1 0 1.000000 
0 4.437500 -2.382100 -0.767500 0.408197 -0.912894 0.000300 0.301200 -0.529500 1 0 1.000000 
light_cagelight01
0 4.439400 -2.382200 -3.603800 0.408401 -0.912802 0.000100 0.301300 -0.718500 1 0 1.000000 
0 5.791400 -1.776600 -3.603900 0.408688 -0.912674 0.000000 0.372800 -0.718500 1 0 1.000000 
0 5.791400 -1.776700 -0.763300 0.408401 -0.912802 0.000100 0.372800 -0.529200 1 0 1.000000 
light_cagelight01
0 2.364900 -1.674400 -3.603900 -0.425888 -0.904776 0.000100 0.336600 -0.718500 1 0 1.000000 
0 3.947000 -2.418900 -0.767400 -0.425888 -0.904776 0.000100 0.421100 -0.529500 1 0 1.000000 
0 2.364800 -1.674400 -0.763300 -0.425725 -0.904853 0.000000 0.336600 -0.529200 1 0 1.000000 
light_cagelight01
0 2.364900 -1.674400 -3.603900 -0.425888 -0.904776 0.000100 0.336600 -0.718500 1 0 1.000000 
0 3.946400 -2.419100 -3.603600 -0.426009 -0.904719 0.000200 0.421100 -0.718500 1 0 1.000000 
0 3.947000 -2.418900 -0.767400 -0.425888 -0.904776 0.000100 0.421100 -0.529500 1 0 1.000000 
light_cagelight01
0 1.759400 -0.322300 -3.603800 -0.912802 -0.408401 0.000100 0.265100 -0.718500 1 0 1.000000 
0 2.364800 -1.674400 -0.763300 -0.912802 -0.408401 0.000100 0.336600 -0.529200 1 0 1.000000 
0 1.759500 -0.320500 -0.767500 -0.912894 -0.408197 0.000300 0.265000 -0.529500 1 0 1.000000 
light_cagelight01
0 1.759400 -0.322300 -3.603800 -0.912802 -0.408401 0.000100 0.265100 -0.718500 1 0 1.000000 
0 2.364900 -1.674400 -3.603900 -0.912657 -0.408726 0.000000 0.336600 -0.718500 1 0 1.000000 
0 2.364800 -1.674400 -0.763300 -0.912802 -0.408401 0.000100 0.336600 -0.529200 1 0 1.000000 
light_cagelight01
0 2.466500 1.754500 -3.603900 -0.905004 0.425402 0.000100 0.407800 -0.718500 1 0 1.000000 
0 1.722500 0.170600 -0.767400 -0.905004 0.425402 0.000100 0.492400 -0.529500 1 0 1.000000 
0 2.466500 1.754500 -0.763300 -0.905138 0.425118 0.000000 0.407800 -0.529200 1 0 1.000000 
light_cagelight01
0 2.466500 1.754500 -3.603900 -0.905004 0.425402 0.000100 0.407800 -0.718500 1 0 1.000000 
0 1.722100 0.171800 -3.603600 -0.904909 0.425604 0.000300 0.492300 -0.718500 1 0 1.000000 
0 1.722500 0.170600 -0.767400 -0.905004 0.425402 0.000100 0.492400 -0.529500 1 0 1.000000 
light_cagelight01
0 3.818600 2.360000 -3.603800 -0.408401 0.912802 0.000100 0.336400 -0.718500 1 0 1.000000 
0 2.466500 1.754500 -0.763300 -0.408401 0.912802 0.000100 0.407800 -0.529200 1 0 1.000000 
0 3.820500 2.359900 -0.767500 -0.408197 0.912894 0.000300 0.336300 -0.529500 1 0 1.000000 
light_cagelight01
0 3.818600 2.360000 -3.603800 -0.408401 0.912802 0.000100 0.336400 -0.718500 1 0 1.000000 
0 2.466500 1.754500 -3.603900 -0.408688 0.912674 0.000000 0.407800 -0.718500 1 0 1.000000 
0 2.466500 1.754500 -0.763300 -0.408401 0.912802 0.000100 0.407800 -0.529200 1 0 1.000000 
light_cagelight01
0 5.893000 1.652200 -3.603900 0.425888 0.904776 0.000100 0.347200 -0.718500 1 0 1.000000 
0 4.311000 2.396700 -0.767400 0.425888 0.904776 0.000100 0.431700 -0.529500 1 0 1.000000 
0 5.893100 1.652200 -0.763300 0.425725 0.904853 0.000000 0.347200 -0.529200 1 0 1.000000 
light_cagelight01
0 5.893000 1.652200 -3.603900 0.425888 0.904776 0.000100 0.347200 -0.718500 1 0 1.000000 
0 4.311600 2.396900 -3.603600 0.426009 0.904719 0.000200 0.431700 -0.718500 1 0 1.000000 
0 4.311000 2.396700 -0.767400 0.425888 0.904776 0.000100 0.431700 -0.529500 1 0 1.000000 
light_cagelight01
0 5.893000 1.652200 -3.603900 0.912802 0.408401 0.000100 0.347200 -0.718500 1 0 1.000000 
0 6.498500 0.298300 -0.767500 0.912802 0.408401 0.000100 0.275700 -0.529500 1 0 1.000000 
0 6.498600 0.300200 -3.603800 0.912657 0.408726 0.000300 0.275700 -0.718500 1 0 1.000000 
light_cagelight01
0 5.893000 1.652200 -3.603900 0.912802 0.408401 0.000100 0.347200 -0.718500 1 0 1.000000 
0 5.893100 1.652200 -0.763300 0.912894 0.408197 0.000000 0.347200 -0.529200 1 0 1.000000 
0 6.498500 0.298300 -0.767500 0.912802 0.408401 0.000100 0.275700 -0.529500 1 0 1.000000 
light_cagelight01
0 1.419500 -0.100100 -3.850700 -0.486515 -0.873628 -0.008800 0.247700 -0.290000 1 0 1.000000 
0 1.759500 -0.320500 -0.767500 -0.486515 -0.873628 -0.008800 0.256000 -0.166000 1 0 1.000000 
0 1.286100 -0.104400 -0.518100 -0.422980 -0.905958 -0.018099 0.248200 -0.155800 1 0 1.000000 
light_cagelight01
0 1.419500 -0.100100 -3.850700 -0.486515 -0.873628 -0.008800 0.247700 -0.290000 1 0 1.000000 
0 1.759400 -0.322300 -3.603800 -0.547618 -0.836728 0.000600 0.255600 -0.280200 1 0 1.000000 
0 1.759500 -0.320500 -0.767500 -0.486515 -0.873628 -0.008800 0.256000 -0.166000 1 0 1.000000 
light_cagelight01
0 1.722100 0.171800 -3.603600 -0.596620 0.802427 -0.012500 0.751000 -0.280100 1 0 1.000000 
0 1.286100 -0.104400 -0.518100 -0.596620 0.802427 -0.012500 0.760200 -0.155800 1 0 1.000000 
0 1.722500 0.170600 -0.767400 -0.533007 0.846111 0.000400 0.751400 -0.165900 1 0 1.000000 
light_cagelight01
0 1.722100 0.171800 -3.603600 -0.596620 0.802427 -0.012500 0.751000 -0.280100 1 0 1.000000 
0 1.419500 -0.100100 -3.850700 -0.670769 0.741666 -0.000500 0.759700 -0.290000 1 0 1.000000 
0 1.286100 -0.104400 -0.518100 -0.596620 0.802427 -0.012500 0.760200 -0.155800 1 0 1.000000 
light_cagelight01
0 1.723100 0.172700 -6.529600 -0.762080 0.647483 -0.000400 0.750600 -0.397900 1 0 1.000000 
0 1.419500 -0.100100 -3.850700 -0.670769 0.741666 -0.000500 0.759700 -0.290000 1 0 1.000000 
0 1.722900 0.172700 -4.095700 -0.841016 0.541010 -0.000100 0.750900 -0.299900 1 0 1.000000 
light_cagelight01
0 1.723100 0.172700 -6.529600 -0.762080 0.647483 -0.000400 0.750600 -0.397900 1 0 1.000000 
0 1.419800 -0.103600 -6.777600 -0.674383 0.738381 0.001000 0.759500 -0.407800 1 0 1.000000 
0 1.419500 -0.100100 -3.850700 -0.670769 0.741666 -0.000500 0.759700 -0.290000 1 0 1.000000 
light_cagelight01
0 1.718800 0.171400 -8.236300 -0.792250 0.596338 -0.129308 0.750400 -0.466600 1 0 1.000000 
0 1.419800 -0.103600 -6.777600 -0.674383 0.738381 0.001000 0.759500 -0.407800 1 0 1.000000 
0 1.721500 0.172600 -7.020700 -0.805035 0.593226 0.001200 0.750500 -0.417700 1 0 1.000000 
light_cagelight01
0 1.718800 0.171400 -8.236300 -0.792250 0.596338 -0.129308 0.750400 -0.466600 1 0 1.000000 
0 1.422600 -0.098700 -8.293500 -0.635196 0.744095 -0.206999 0.759100 -0.468900 1 0 1.000000 
0 1.419800 -0.103600 -6.777600 -0.674383 0.738381 0.001000 0.759500 -0.407800 1 0 1.000000 
light_cagelight01
0 1.419800 -0.103600 -6.777600 -0.552387 -0.833580 -0.003700 0.247400 -0.407800 1 0 1.000000 
0 1.758800 -0.326100 -4.096000 -0.551187 -0.834381 0.000400 0.255600 -0.300000 1 0 1.000000 
0 1.419500 -0.100100 -3.850700 -0.554007 -0.832511 0.000900 0.247700 -0.290000 1 0 1.000000 
light_cagelight01
0 1.419800 -0.103600 -6.777600 -0.552387 -0.833580 -0.003700 0.247400 -0.407800 1 0 1.000000 
0 1.759000 -0.326100 -6.529900 -0.548407 -0.836211 -0.000100 0.255200 -0.398000 1 0 1.000000 
0 1.758800 -0.326100 -4.096000 -0.551187 -0.834381 0.000400 0.255600 -0.300000 1 0 1.000000 
light_cagelight01
0 1.422600 -0.098700 -8.293500 -0.534801 -0.838201 -0.106800 0.247100 -0.468900 1 0 1.000000 
0 1.757400 -0.326200 -7.021000 -0.550626 -0.834740 -0.004400 0.255100 -0.417800 1 0 1.000000 
0 1.419800 -0.103600 -6.777600 -0.552387 -0.833580 -0.003700 0.247400 -0.407800 1 0 1.000000 
light_cagelight01
0 1.422600 -0.098700 -8.293500 -0.534801 -0.838201 -0.106800 0.247100 -0.468900 1 0 1.000000 
0 1.757500 -0.319000 -8.236600 -0.511428 -0.833445 -0.209311 0.254600 -0.466700 1 0 1.000000 
0 1.757400 -0.326200 -7.021000 -0.550626 -0.834740 -0.004400 0.255100 -0.417800 1 0 1.000000 
light_cagelight01
0 2.479400 0.231100 -9.585300 -0.546389 0.616887 -0.566488 0.813300 -0.385600 1 0 1.000000 
0 1.422600 -0.098700 -8.293500 -0.635196 0.744095 -0.206999 0.831800 -0.315300 1 0 1.000000 
0 1.718800 0.171400 -8.236300 -0.792250 0.596338 -0.129308 0.820600 -0.312200 1 0 1.000000 
light_cagelight01
0 2.479400 0.231100 -9.585300 -0.546389 0.616887 -0.566488 0.813300 -0.385600 1 0 1.000000 
0 2.301900 -0.029200 -9.863000 -0.360185 0.772367 -0.523178 0.829500 -0.400700 1 0 1.000000 
0 1.422600 -0.098700 -8.293500 -0.635196 0.744095 -0.206999 0.831800 -0.315300 1 0 1.000000 
light_cagelight01
0 2.301900 -0.029200 -9.863000 -0.392590 -0.832278 -0.391390 0.174100 -0.400700 1 0 1.000000 
0 1.757500 -0.319000 -8.236600 -0.511428 -0.833445 -0.209311 0.186600 -0.312200 1 0 1.000000 
0 1.422600 -0.098700 -8.293500 -0.534801 -0.838201 -0.106800 0.176500 -0.315300 1 0 1.000000 
light_cagelight01
0 2.301900 -0.029200 -9.863000 -0.392590 -0.832278 -0.391390 0.174100 -0.400700 1 0 1.000000 
0 2.518100 -0.259400 -9.589500 -0.232794 -0.896778 -0.376291 0.189000 -0.385800 1 0 1.000000 
0 1.757500 -0.319000 -8.236600 -0.511428 -0.833445 -0.209311 0.186600 -0.312200 1 0 1.000000 
light_cagelight01
0 3.973200 0.346000 -10.010200 -0.252800 0.624001 -0.739401 0.532100 -0.299100 1 0 1.000000 
0 2.301900 -0.029200 -9.863000 -0.360185 0.772367 -0.523178 0.497400 -0.144400 1 0 1.000000 
0 2.479400 0.231100 -9.585300 -0.546389 0.616887 -0.566488 0.521500 -0.160900 1 0 1.000000 
light_cagelight01
0 3.973200 0.346000 -10.010200 -0.252800 0.624001 -0.739401 0.532100 -0.299100 1 0 1.000000 
0 4.128500 -0.032100 -10.503100 -0.221897 0.738589 -0.636591 0.497100 -0.313500 1 0 1.000000 
0 2.301900 -0.029200 -9.863000 -0.360185 0.772367 -0.523178 0.497400 -0.144400 1 0 1.000000 
light_cagelight01
0 4.128500 -0.032100 -10.503100 -0.098801 -0.910909 -0.400604 0.497100 -0.313500 1 0 1.000000 
0 2.518100 -0.259400 -9.589500 -0.232794 -0.896778 -0.376291 0.476100 -0.164400 1 0 1.000000 
0 2.301900 -0.029200 -9.863000 -0.392590 -0.832278 -0.391390 0.497400 -0.144400 1 0 1.000000 
light_cagelight01
0 4.128500 -0.032100 -10.503100 -0.098801 -0.910909 -0.400604 0.497100 -0.313500 1 0 1.000000 
0 3.771000 -0.156500 -10.010400 -0.003500 -0.968961 -0.247190 0.485600 -0.280400 1 0 1.000000 
0 2.518100 -0.259400 -9.589500 -0.232794 -0.896778 -0.376291 0.476100 -0.164400 1 0 1.000000 
light_cagelight01
0 4.042600 2.699900 -3.850700 -0.871969 0.489482 -0.008800 0.633000 -0.290400 1 0 1.000000 
0 3.820500 2.359900 -0.767500 -0.871969 0.489482 -0.008800 0.640100 -0.166300 1 0 1.000000 
0 4.038300 2.833400 -0.518100 -0.904589 0.425895 -0.018200 0.632100 -0.156200 1 0 1.000000 
light_cagelight01
0 4.042600 2.699900 -3.850700 -0.871969 0.489482 -0.008800 0.633000 -0.290400 1 0 1.000000 
0 3.818600 2.360000 -3.603800 -0.834824 0.550516 0.000600 0.641000 -0.280500 1 0 1.000000 
0 3.820500 2.359900 -0.767500 -0.871969 0.489482 -0.008800 0.640100 -0.166300 1 0 1.000000 
light_cagelight01
0 4.311600 2.396900 -3.603600 0.805400 0.592600 -0.012500 0.624300 -0.280600 1 0 1.000000 
0 4.038300 2.833400 -0.518100 0.805400 0.592600 -0.012500 0.632100 -0.156200 1 0 1.000000 
0 4.311000 2.396700 -0.767400 0.848352 0.529432 0.000200 0.623400 -0.166400 1 0 1.000000 
light_cagelight01
0 4.311600 2.396900 -3.603600 0.805400 0.592600 -0.012500 0.624300 -0.280600 1 0 1.000000 
0 4.042600 2.699900 -3.850700 0.757710 0.652109 -0.025100 0.633000 -0.290400 1 0 1.000000 
0 4.038300 2.833400 -0.518100 0.805400 0.592600 -0.012500 0.632100 -0.156200 1 0 1.000000 
light_cagelight01
0 4.007300 2.697200 -6.777600 -0.860551 0.508971 -0.019999 0.634800 -0.408200 1 0 1.000000 
0 3.814800 2.360600 -4.096000 -0.851326 0.524616 0.004700 0.641200 -0.300300 1 0 1.000000 
0 4.042600 2.699900 -3.850700 -0.833395 0.552596 0.009500 0.633000 -0.290400 1 0 1.000000 
light_cagelight01
0 4.007300 2.697200 -6.777600 -0.860551 0.508971 -0.019999 0.634800 -0.408200 1 0 1.000000 
0 3.814800 2.360400 -6.529900 -0.868274 0.496085 -0.000100 0.641900 -0.398300 1 0 1.000000 
0 3.814800 2.360600 -4.096000 -0.851326 0.524616 0.004700 0.641200 -0.300300 1 0 1.000000 
light_cagelight01
0 4.042200 2.696800 -8.293500 -0.846891 0.519795 -0.112199 0.634100 -0.469300 1 0 1.000000 
0 3.814700 2.362000 -7.021000 -0.848476 0.529085 -0.012500 0.642000 -0.418000 1 0 1.000000 
0 4.007300 2.697200 -6.777600 -0.860551 0.508971 -0.019999 0.634800 -0.408200 1 0 1.000000 
light_cagelight01
0 4.042200 2.696800 -8.293500 -0.846891 0.519795 -0.112199 0.634100 -0.469300 1 0 1.000000 
0 3.822000 2.361900 -8.236600 -0.833536 0.511322 -0.209209 0.642100 -0.467000 1 0 1.000000 
0 3.814700 2.362000 -7.021000 -0.848476 0.529085 -0.012500 0.642000 -0.418000 1 0 1.000000 
light_cagelight01
0 4.312400 2.400600 -8.236300 0.619190 0.770488 -0.151498 0.625700 -0.467100 1 0 1.000000 
0 4.007300 2.697200 -6.777600 0.719515 0.694415 0.009300 0.634800 -0.408200 1 0 1.000000 
0 4.312400 2.397500 -7.020700 0.525117 0.851028 0.001400 0.625300 -0.418200 1 0 1.000000 
light_cagelight01
0 4.312400 2.400600 -8.236300 0.619190 0.770488 -0.151498 0.625700 -0.467100 1 0 1.000000 
0 4.042200 2.696800 -8.293500 0.744315 0.636513 -0.202104 0.634100 -0.469300 1 0 1.000000 
0 4.007300 2.697200 -6.777600 0.719515 0.694415 0.009300 0.634800 -0.408200 1 0 1.000000 
light_cagelight01
0 4.372000 1.640000 -9.585200 0.616909 0.545408 -0.567409 0.649400 -0.385600 1 0 1.000000 
0 4.042200 2.696800 -8.293500 0.744315 0.636513 -0.202104 0.668000 -0.315300 1 0 1.000000 
0 4.312400 2.400600 -8.236300 0.619190 0.770488 -0.151498 0.656700 -0.312200 1 0 1.000000 
light_cagelight01
0 4.372000 1.640000 -9.585200 0.616909 0.545408 -0.567409 0.649400 -0.385600 1 0 1.000000 
0 4.111600 1.817400 -9.862800 0.777433 0.358315 -0.516922 0.665600 -0.400700 1 0 1.000000 
0 4.042200 2.696800 -8.293500 0.744315 0.636513 -0.202104 0.668000 -0.315300 1 0 1.000000 
light_cagelight01
0 4.111600 1.817400 -9.862800 -0.832563 0.389783 -0.393583 0.665600 -0.400700 1 0 1.000000 
0 3.822000 2.361900 -8.236600 -0.833536 0.511322 -0.209209 0.678000 -0.312200 1 0 1.000000 
0 4.042200 2.696800 -8.293500 -0.846891 0.519795 -0.112199 0.668000 -0.315300 1 0 1.000000 
light_cagelight01
0 4.111600 1.817400 -9.862800 -0.832563 0.389783 -0.393583 0.665600 -0.400700 1 0 1.000000 
0 3.881600 1.601300 -9.589400 -0.882390 0.241197 -0.403995 0.680500 -0.385800 1 0 1.000000 
0 3.822000 2.361900 -8.236600 -0.833536 0.511322 -0.209209 0.678000 -0.312200 1 0 1.000000 
light_cagelight01
0 4.482200 0.133500 -10.010700 0.629917 0.250607 -0.735120 0.512400 -0.346300 1 0 1.000000 
0 4.111600 1.817400 -9.862800 0.777433 0.358315 -0.516922 0.668300 -0.312000 1 0 1.000000 
0 4.372000 1.640000 -9.585200 0.616909 0.545408 -0.567409 0.651900 -0.336100 1 0 1.000000 
light_cagelight01
0 4.482200 0.133500 -10.010700 0.629917 0.250607 -0.735120 0.512400 -0.346300 1 0 1.000000 
0 4.128500 -0.032100 -10.503100 0.755619 0.220406 -0.616815 0.497100 -0.313500 1 0 1.000000 
0 4.111600 1.817400 -9.862800 0.777433 0.358315 -0.516922 0.668300 -0.312000 1 0 1.000000 
light_cagelight01
0 4.128500 -0.032100 -10.503100 -0.890085 0.112498 -0.441693 0.497100 -0.313500 1 0 1.000000 
0 3.881600 1.601300 -9.589400 -0.882390 0.241197 -0.403995 0.648300 -0.290700 1 0 1.000000 
0 4.111600 1.817400 -9.862800 -0.832563 0.389783 -0.393583 0.668300 -0.312000 1 0 1.000000 
light_cagelight01
0 4.128500 -0.032100 -10.503100 -0.890085 0.112498 -0.441693 0.497100 -0.313500 1 0 1.000000 
0 3.973200 0.346000 -10.010200 -0.943353 0.041498 -0.329184 0.532100 -0.299100 1 0 1.000000 
0 3.881600 1.601300 -9.589400 -0.882390 0.241197 -0.403995 0.648300 -0.290700 1 0 1.000000 
light_cagelight01
0 6.838400 0.078400 -3.850700 0.485692 0.874086 -0.008800 0.504700 -0.291900 1 0 1.000000 
0 6.498500 0.298300 -0.767500 0.485692 0.874086 -0.008800 0.512100 -0.167600 1 0 1.000000 
0 6.971800 0.082800 -0.518100 0.422208 0.906318 -0.018100 0.504200 -0.157700 1 0 1.000000 
light_cagelight01
0 6.838400 0.078400 -3.850700 0.485692 0.874086 -0.008800 0.504700 -0.291900 1 0 1.000000 
0 6.498600 0.300200 -3.603800 0.546783 0.837274 0.000600 0.512700 -0.281800 1 0 1.000000 
0 6.498500 0.298300 -0.767500 0.485692 0.874086 -0.008800 0.512100 -0.167600 1 0 1.000000 
light_cagelight01
0 6.535800 -0.194000 -3.603600 0.597374 -0.801865 -0.012499 0.495700 -0.281800 1 0 1.000000 
0 6.971800 0.082800 -0.518100 0.597374 -0.801865 -0.012499 0.504200 -0.157700 1 0 1.000000 
0 6.535400 -0.192800 -0.767400 0.533805 -0.845608 0.000400 0.495400 -0.167700 1 0 1.000000 
light_cagelight01
0 6.535800 -0.194000 -3.603600 0.597374 -0.801865 -0.012499 0.495700 -0.281800 1 0 1.000000 
0 6.838400 0.078400 -3.850700 0.668241 -0.743945 0.000200 0.504700 -0.291900 1 0 1.000000 
0 6.971800 0.082800 -0.518100 0.597374 -0.801865 -0.012499 0.504200 -0.157700 1 0 1.000000 
light_cagelight01
0 6.534800 -0.194900 -6.529600 0.760610 -0.649209 0.000100 0.496100 -0.399600 1 0 1.000000 
0 6.838400 0.078400 -3.850700 0.668241 -0.743945 0.000200 0.504700 -0.291900 1 0 1.000000 
0 6.535000 -0.194900 -4.095700 0.841211 -0.540707 -0.000100 0.495700 -0.301700 1 0 1.000000 
light_cagelight01
0 6.534800 -0.194900 -6.529600 0.760610 -0.649209 0.000100 0.496100 -0.399600 1 0 1.000000 
0 6.838500 0.077000 -6.777600 0.671398 -0.741097 -0.000400 0.505000 -0.409700 1 0 1.000000 
0 6.838400 0.078400 -3.850700 0.668241 -0.743945 0.000200 0.504700 -0.291900 1 0 1.000000 
light_cagelight01
0 6.539100 -0.193600 -8.236300 0.762105 -0.628404 -0.155901 0.496300 -0.468400 1 0 1.000000 
0 6.838500 0.077000 -6.777600 0.671398 -0.741097 -0.000400 0.505000 -0.409700 1 0 1.000000 
0 6.536400 -0.194800 -7.020700 0.840505 -0.541803 0.000800 0.496100 -0.419400 1 0 1.000000 
light_cagelight01
0 6.539100 -0.193600 -8.236300 0.762105 -0.628404 -0.155901 0.496300 -0.468400 1 0 1.000000 
0 6.835300 0.077000 -8.293500 0.635807 -0.743209 -0.208302 0.505300 -0.470700 1 0 1.000000 
0 6.838500 0.077000 -6.777600 0.671398 -0.741097 -0.000400 0.505000 -0.409700 1 0 1.000000 
light_cagelight01
0 6.838500 0.077000 -6.777600 0.558318 0.829626 -0.001100 0.505000 -0.409700 1 0 1.000000 
0 6.499200 0.303900 -4.096000 0.554723 0.832035 -0.000200 0.513000 -0.301600 1 0 1.000000 
0 6.838400 0.078400 -3.850700 0.553823 0.832634 -0.000400 0.504700 -0.291900 1 0 1.000000 
light_cagelight01
0 6.838500 0.077000 -6.777600 0.558318 0.829626 -0.001100 0.505000 -0.409700 1 0 1.000000 
0 6.498900 0.303900 -6.529900 0.555623 0.831434 -0.000100 0.513400 -0.399600 1 0 1.000000 
0 6.499200 0.303900 -4.096000 0.554723 0.832035 -0.000200 0.513000 -0.301600 1 0 1.000000 
light_cagelight01
0 6.835300 0.077000 -8.293500 0.536286 0.837379 -0.105797 0.505300 -0.470700 1 0 1.000000 
0 6.500600 0.304100 -7.021000 0.553173 0.833060 -0.003100 0.513500 -0.419300 1 0 1.000000 
0 6.838500 0.077000 -6.777600 0.558318 0.829626 -0.001100 0.505000 -0.409700 1 0 1.000000 
light_cagelight01
0 6.835300 0.077000 -8.293500 0.536286 0.837379 -0.105797 0.505300 -0.470700 1 0 1.000000 
0 6.500400 0.296800 -8.236600 0.510507 0.834112 -0.208903 0.513500 -0.468300 1 0 1.000000 
0 6.500600 0.304100 -7.021000 0.553173 0.833060 -0.003100 0.513500 -0.419300 1 0 1.000000 
light_cagelight01
0 5.778600 -0.253300 -9.585300 0.546276 -0.616173 -0.567375 0.485600 -0.385600 1 0 1.000000 
0 6.835300 0.077000 -8.293500 0.635807 -0.743209 -0.208302 0.504200 -0.315300 1 0 1.000000 
0 6.539100 -0.193600 -8.236300 0.762105 -0.628404 -0.155901 0.492900 -0.312200 1 0 1.000000 
light_cagelight01
0 5.778600 -0.253300 -9.585300 0.546276 -0.616173 -0.567375 0.485600 -0.385600 1 0 1.000000 
0 5.956000 0.007800 -9.863000 0.360615 -0.781832 -0.508621 0.501900 -0.400700 1 0 1.000000 
0 6.835300 0.077000 -8.293500 0.635807 -0.743209 -0.208302 0.504200 -0.315300 1 0 1.000000 
light_cagelight01
0 5.956000 0.007800 -9.863000 0.387094 0.833386 -0.394494 0.501900 -0.400700 1 0 1.000000 
0 6.500400 0.296800 -8.236600 0.510507 0.834112 -0.208903 0.514200 -0.312200 1 0 1.000000 
0 6.835300 0.077000 -8.293500 0.536286 0.837379 -0.105797 0.504200 -0.315300 1 0 1.000000 
light_cagelight01
0 5.956000 0.007800 -9.863000 0.387094 0.833386 -0.394494 0.501900 -0.400700 1 0 1.000000 
0 5.739900 0.237200 -9.589500 0.237092 0.880970 -0.409486 0.516700 -0.385800 1 0 1.000000 
0 6.500400 0.296800 -8.236600 0.510507 0.834112 -0.208903 0.514200 -0.312200 1 0 1.000000 
light_cagelight01
0 4.272100 -0.369100 -10.010500 0.253699 -0.636797 -0.728097 0.465900 -0.326800 1 0 1.000000 
0 5.956000 0.007800 -9.863000 0.360615 -0.781832 -0.508621 0.500800 -0.482700 1 0 1.000000 
0 5.778600 -0.253300 -9.585300 0.546276 -0.616173 -0.567375 0.476600 -0.466300 1 0 1.000000 
light_cagelight01
0 4.272100 -0.369100 -10.010500 0.253699 -0.636797 -0.728097 0.465900 -0.326800 1 0 1.000000 
0 4.128500 -0.032100 -10.503100 0.224894 -0.772479 -0.593884 0.497100 -0.313500 1 0 1.000000 
0 5.956000 0.007800 -9.863000 0.360615 -0.781832 -0.508621 0.500800 -0.482700 1 0 1.000000 
light_cagelight01
0 4.128500 -0.032100 -10.503100 0.106703 0.886827 -0.449614 0.497100 -0.313500 1 0 1.000000 
0 5.739900 0.237200 -9.589500 0.237092 0.880970 -0.409486 0.522000 -0.462700 1 0 1.000000 
0 5.956000 0.007800 -9.863000 0.387094 0.833386 -0.394494 0.500800 -0.482700 1 0 1.000000 
light_cagelight01
0 4.128500 -0.032100 -10.503100 0.106703 0.886827 -0.449614 0.497100 -0.313500 1 0 1.000000 
0 4.482200 0.133500 -10.010700 0.037300 0.938812 -0.342404 0.512400 -0.346300 1 0 1.000000 
0 5.739900 0.237200 -9.589500 0.237092 0.880970 -0.409486 0.522000 -0.462700 1 0 1.000000 
light_cagelight01
0 4.216100 -2.722100 -3.850700 0.872624 -0.488313 -0.008800 0.375300 -0.291400 1 0 1.000000 
0 4.437500 -2.382100 -0.767500 0.872624 -0.488313 -0.008800 0.384000 -0.167300 1 0 1.000000 
0 4.220400 -2.855500 -0.518100 0.905160 -0.424681 -0.018199 0.376100 -0.157300 1 0 1.000000 
light_cagelight01
0 4.216100 -2.722100 -3.850700 0.872624 -0.488313 -0.008800 0.375300 -0.291400 1 0 1.000000 
0 4.439400 -2.382200 -3.603800 0.835617 -0.549311 0.000600 0.383200 -0.281500 1 0 1.000000 
0 4.437500 -2.382100 -0.767500 0.872624 -0.488313 -0.008800 0.384000 -0.167300 1 0 1.000000 
light_cagelight01
0 3.946400 -2.419100 -3.603600 -0.804593 -0.593695 -0.012500 0.366400 -0.281300 1 0 1.000000 
0 4.220400 -2.855500 -0.518100 -0.804593 -0.593695 -0.012500 0.376100 -0.157300 1 0 1.000000 
0 3.947000 -2.418900 -0.767400 -0.847616 -0.530610 0.000200 0.367300 -0.167200 1 0 1.000000 
light_cagelight01
0 3.946400 -2.419100 -3.603600 -0.804593 -0.593695 -0.012500 0.366400 -0.281300 1 0 1.000000 
0 4.216100 -2.722100 -3.850700 -0.753288 -0.657689 0.001500 0.375300 -0.291400 1 0 1.000000 
0 4.220400 -2.855500 -0.518100 -0.804593 -0.593695 -0.012500 0.376100 -0.157300 1 0 1.000000 
light_cagelight01
0 3.945500 -2.418100 -6.529600 -0.656512 -0.754314 0.001000 0.365400 -0.399100 1 0 1.000000 
0 4.216100 -2.722100 -3.850700 -0.753288 -0.657689 0.001500 0.375300 -0.291400 1 0 1.000000 
0 3.945500 -2.418300 -4.095700 -0.542480 -0.840069 -0.000100 0.366200 -0.301100 1 0 1.000000 
light_cagelight01
0 3.945500 -2.418100 -6.529600 -0.656512 -0.754314 0.001000 0.365400 -0.399100 1 0 1.000000 
0 4.205200 -2.722900 -6.777600 -0.749923 -0.661520 -0.002600 0.374200 -0.409300 1 0 1.000000 
0 4.216100 -2.722100 -3.850700 -0.753288 -0.657689 0.001500 0.375300 -0.291400 1 0 1.000000 
light_cagelight01
0 3.945600 -2.422700 -8.236300 -0.633013 -0.758115 -0.156703 0.364900 -0.467800 1 0 1.000000 
0 4.205200 -2.722900 -6.777600 -0.749923 -0.661520 -0.002600 0.374200 -0.409300 1 0 1.000000 
0 3.945600 -2.419700 -7.020700 -0.549010 -0.835815 0.001300 0.365300 -0.418900 1 0 1.000000 
light_cagelight01
0 3.945600 -2.422700 -8.236300 -0.633013 -0.758115 -0.156703 0.364900 -0.467800 1 0 1.000000 
0 4.215700 -2.719000 -8.293500 -0.743826 -0.634622 -0.209707 0.374100 -0.470300 1 0 1.000000 
0 4.205200 -2.722900 -6.777600 -0.749923 -0.661520 -0.002600 0.374200 -0.409300 1 0 1.000000 
light_cagelight01
0 4.205200 -2.722900 -6.777600 0.819610 -0.572907 0.004200 0.374200 -0.409300 1 0 1.000000 
0 4.443100 -2.382800 -4.096000 0.824889 -0.565292 -0.001500 0.383200 -0.301300 1 0 1.000000 
0 4.216100 -2.722100 -3.850700 0.830103 -0.557602 -0.002900 0.375300 -0.291400 1 0 1.000000 
light_cagelight01
0 4.205200 -2.722900 -6.777600 0.819610 -0.572907 0.004200 0.374200 -0.409300 1 0 1.000000 
0 4.443100 -2.382500 -6.529900 0.819697 -0.572798 -0.000100 0.382600 -0.399300 1 0 1.000000 
0 4.443100 -2.382800 -4.096000 0.824889 -0.565292 -0.001500 0.383200 -0.301300 1 0 1.000000 
light_cagelight01
0 4.215700 -2.719000 -8.293500 0.833941 -0.541926 -0.104205 0.374100 -0.470300 1 0 1.000000 
0 4.443300 -2.384200 -7.021000 0.827811 -0.561007 -0.000400 0.382400 -0.419100 1 0 1.000000 
0 4.205200 -2.722900 -6.777600 0.819610 -0.572907 0.004200 0.374200 -0.409300 1 0 1.000000 
light_cagelight01
0 4.215700 -2.719000 -8.293500 0.833941 -0.541926 -0.104205 0.374100 -0.470300 1 0 1.000000 
0 4.436000 -2.384000 -8.236600 0.833536 -0.511322 -0.209209 0.381800 -0.468000 1 0 1.000000 
0 4.443300 -2.384200 -7.021000 0.827811 -0.561007 -0.000400 0.382400 -0.419100 1 0 1.000000 
light_cagelight01
0 3.886000 -1.662200 -9.585200 -0.617012 -0.545810 -0.566911 0.321700 -0.385600 1 0 1.000000 
0 4.215700 -2.719000 -8.293500 -0.743826 -0.634622 -0.209707 0.340300 -0.315300 1 0 1.000000 
0 3.945600 -2.422700 -8.236300 -0.633013 -0.758115 -0.156703 0.329000 -0.312200 1 0 1.000000 
light_cagelight01
0 3.886000 -1.662200 -9.585200 -0.617012 -0.545810 -0.566911 0.321700 -0.385600 1 0 1.000000 
0 4.146400 -1.839600 -9.862800 -0.779008 -0.359804 -0.513505 0.337900 -0.400700 1 0 1.000000 
0 4.215700 -2.719000 -8.293500 -0.743826 -0.634622 -0.209707 0.340300 -0.315300 1 0 1.000000 
light_cagelight01
0 4.146400 -1.839600 -9.862800 0.832502 -0.390701 -0.392801 0.337900 -0.400700 1 0 1.000000 
0 4.436000 -2.384000 -8.236600 0.833536 -0.511322 -0.209209 0.350300 -0.312200 1 0 1.000000 
0 4.215700 -2.719000 -8.293500 0.833941 -0.541926 -0.104205 0.340300 -0.315300 1 0 1.000000 
light_cagelight01
0 4.146400 -1.839600 -9.862800 0.832502 -0.390701 -0.392801 0.337900 -0.400700 1 0 1.000000 
0 4.376400 -1.623500 -9.589400 0.889672 -0.234992 -0.391488 0.352800 -0.385800 1 0 1.000000 
0 4.436000 -2.384000 -8.236600 0.833536 -0.511322 -0.209209 0.350300 -0.312200 1 0 1.000000 
light_cagelight01
0 3.771000 -0.156500 -10.010400 -0.632597 -0.252699 -0.732096 0.485600 -0.280400 1 0 1.000000 
0 4.146400 -1.839600 -9.862800 -0.779008 -0.359804 -0.513505 0.329800 -0.315200 1 0 1.000000 
0 3.886000 -1.662200 -9.585200 -0.617012 -0.545810 -0.566911 0.346200 -0.291100 1 0 1.000000 
light_cagelight01
0 3.771000 -0.156500 -10.010400 -0.632597 -0.252699 -0.732096 0.485600 -0.280400 1 0 1.000000 
0 4.128500 -0.032100 -10.503100 -0.761287 -0.223196 -0.608790 0.497100 -0.313500 1 0 1.000000 
0 4.146400 -1.839600 -9.862800 -0.779008 -0.359804 -0.513505 0.329800 -0.315200 1 0 1.000000 
light_cagelight01
0 6.534000 1.891600 -0.523600 0.511109 0.859516 0.000000 0.707900 -0.329700 1 0 1.000000 
0 4.841500 2.898100 -0.001700 0.511109 0.859516 0.000000 0.811600 -0.292200 1 0 1.000000 
0 6.534000 1.891600 -0.001700 0.511109 0.859516 0.000000 0.707900 -0.292200 1 0 1.000000 
light_cagelight01
0 6.534000 1.891600 -0.523600 0.511109 0.859516 0.000000 0.707900 -0.329700 1 0 1.000000 
0 4.841500 2.898100 -0.523600 0.511109 0.859516 0.000000 0.811600 -0.329700 1 0 1.000000 
0 4.841500 2.898100 -0.001700 0.511109 0.859516 0.000000 0.811600 -0.292200 1 0 1.000000 
light_cagelight01
0 7.202400 0.000000 -0.523600 0.942861 0.333186 0.000000 0.500000 -0.329700 1 0 1.000000 
0 6.534000 1.891600 -0.001700 0.942861 0.333186 0.000000 0.707900 -0.292200 1 0 1.000000 
0 7.202400 0.000000 -0.001700 0.942861 0.333186 0.000000 0.500000 -0.292200 1 0 1.000000 
light_cagelight01
0 7.202400 0.000000 -0.523600 0.942861 0.333186 0.000000 0.500000 -0.329700 1 0 1.000000 
0 6.534000 1.891600 -0.523600 0.942861 0.333186 0.000000 0.707900 -0.329700 1 0 1.000000 
0 6.534000 1.891600 -0.001700 0.942861 0.333186 0.000000 0.707900 -0.292200 1 0 1.000000 
light_cagelight01
0 2.364800 -1.674400 -0.763300 -0.419022 -0.306316 -0.854746 0.307000 -0.166300 1 0 1.000000 
0 1.286100 -0.104400 -0.518100 -0.507600 -0.218600 -0.833400 0.248200 -0.155800 1 0 1.000000 
0 1.759500 -0.320500 -0.767500 -0.536574 -0.242489 -0.808262 0.256000 -0.166000 1 0 1.000000 
light_cagelight01
0 2.364800 -1.674400 -0.763300 -0.419022 -0.306316 -0.854746 0.307000 -0.166300 1 0 1.000000 
0 2.045600 -1.973600 -0.517400 -0.319880 -0.426274 -0.846148 0.307100 -0.156300 1 0 1.000000 
0 1.286100 -0.104400 -0.518100 -0.507600 -0.218600 -0.833400 0.248200 -0.155800 1 0 1.000000 
light_cagelight01
0 3.947000 -2.418900 -0.767400 -0.231384 -0.529963 -0.815843 0.367300 -0.167200 1 0 1.000000 
0 2.045600 -1.973600 -0.517400 -0.319880 -0.426274 -0.846148 0.307100 -0.156300 1 0 1.000000 
0 2.364800 -1.674400 -0.763300 -0.419022 -0.306316 -0.854746 0.307000 -0.166300 1 0 1.000000 
light_cagelight01
0 3.947000 -2.418900 -0.767400 -0.231384 -0.529963 -0.815843 0.367300 -0.167200 1 0 1.000000 
0 4.220400 -2.855500 -0.518100 -0.239502 -0.590205 -0.770906 0.376100 -0.157300 1 0 1.000000 
0 2.045600 -1.973600 -0.517400 -0.319880 -0.426274 -0.846148 0.307100 -0.156300 1 0 1.000000 
light_cagelight01
0 2.518100 -0.259400 -9.589500 -0.575514 -0.414410 -0.705017 0.402800 -0.882700 1 0 1.000000 
0 3.771000 -0.156500 -10.010400 -0.632597 -0.252699 -0.732096 0.396100 -0.963600 1 0 1.000000 
0 3.886000 -1.662200 -9.585200 -0.617012 -0.545810 -0.566911 0.493400 -0.971000 1 0 1.000000 
light_cagelight01
0 5.897600 0.868200 0.841400 0.266509 0.306110 0.913931 0.338600 -0.339000 1 0 1.000000 
0 6.534000 1.891600 -0.001700 0.524706 0.333804 0.783108 0.306000 -0.382700 1 0 1.000000 
0 4.841500 2.898100 -0.001700 0.116799 0.490297 0.863694 0.377300 -0.425600 1 0 1.000000 
light_cagelight01
0 6.534000 1.891600 -0.001700 0.524706 0.333804 0.783108 0.306000 -0.382700 1 0 1.000000 
0 5.897600 0.868200 0.841400 0.266509 0.306110 0.913931 0.338600 -0.339000 1 0 1.000000 
0 6.273000 0.000000 0.841400 0.409792 0.127797 0.903182 0.322800 -0.302000 1 0 1.000000 
light_cagelight01
0 6.273000 0.000000 0.841400 0.409792 0.127797 0.903182 0.322800 -0.302000 1 0 1.000000 
0 7.202400 0.000000 -0.001700 0.671871 0.000000 0.740668 0.277900 -0.302000 1 0 1.000000 
0 6.534000 1.891600 -0.001700 0.524706 0.333804 0.783108 0.306000 -0.382700 1 0 1.000000 
light_cagelight01
0 7.202400 0.000000 -0.001700 0.671871 0.000000 0.740668 0.277900 -0.302000 1 0 1.000000 
0 6.273000 0.000000 0.841400 0.409792 0.127797 0.903182 0.322800 -0.302000 1 0 1.000000 
0 6.534000 -1.891600 -0.001700 0.524706 -0.333804 0.783108 0.306000 -0.221200 1 0 1.000000 
light_cagelight01
0 5.897600 -0.868200 0.841400 0.266509 -0.306110 0.913931 0.338600 -0.264900 1 0 1.000000 
0 6.534000 -1.891600 -0.001700 0.524706 -0.333804 0.783108 0.306000 -0.221200 1 0 1.000000 
0 6.273000 0.000000 0.841400 0.409792 0.127797 0.903182 0.322800 -0.302000 1 0 1.000000 
light_cagelight01
0 6.534000 -1.891600 -0.001700 0.524706 -0.333804 0.783108 0.306000 -0.221200 1 0 1.000000 
0 5.897600 -0.868200 0.841400 0.266509 -0.306110 0.913931 0.338600 -0.264900 1 0 1.000000 
0 4.841500 -2.898100 -0.001700 0.116799 -0.490297 0.863694 0.377300 -0.178300 1 0 1.000000 
light_cagelight01
0 4.629200 -1.331100 0.841400 0.070102 -0.342708 0.936823 0.392000 -0.245200 1 0 1.000000 
0 4.841500 -2.898100 -0.001700 0.116799 -0.490297 0.863694 0.377300 -0.178300 1 0 1.000000 
0 5.897600 -0.868200 0.841400 0.266509 -0.306110 0.913931 0.338600 -0.264900 1 0 1.000000 
light_cagelight01
0 4.841500 -2.898100 -0.001700 0.116799 -0.490297 0.863694 0.377300 -0.178300 1 0 1.000000 
0 4.629200 -1.331100 0.841400 0.070102 -0.342708 0.936823 0.392000 -0.245200 1 0 1.000000 
0 -0.003600 -1.291400 0.946600 0.006700 -0.350809 0.936423 0.587900 -0.246900 1 0 1.000000 
light_cagelight01
0 4.345300 0.000000 1.152100 0.065099 0.000000 0.997879 0.406100 -0.302000 1 0 1.000000 
0 -0.003600 -1.291400 0.946600 0.006700 -0.350809 0.936423 0.587900 -0.246900 1 0 1.000000 
0 4.629200 -1.331100 0.841400 0.070102 -0.342708 0.936823 0.392000 -0.245200 1 0 1.000000 
light_cagelight01
0 4.345300 0.000000 1.152100 0.065099 0.000000 0.997879 0.406100 -0.302000 1 0 1.000000 
0 -0.027500 -0.000000 1.152100 0.000000 0.000000 1.000000 0.590300 -0.302000 1 0 1.000000 
0 -0.003600 -1.291400 0.946600 0.006700 -0.350809 0.936423 0.587900 -0.246900 1 0 1.000000 
light_cagelight01
0 4.345300 0.000000 1.152100 0.065099 0.000000 0.997879 0.406100 -0.302000 1 0 1.000000 
0 -0.003600 1.291400 0.946600 0.006700 0.350809 0.936423 0.587900 -0.357100 1 0 1.000000 
0 -0.027500 -0.000000 1.152100 0.000000 0.000000 1.000000 0.590300 -0.302000 1 0 1.000000 
light_cagelight01
0 4.345300 0.000000 1.152100 0.065099 0.000000 0.997879 0.406100 -0.302000 1 0 1.000000 
0 4.629200 1.331100 0.841400 0.070102 0.342708 0.936823 0.392000 -0.358800 1 0 1.000000 
0 -0.003600 1.291400 0.946600 0.006700 0.350809 0.936423 0.587900 -0.357100 1 0 1.000000 
light_cagelight01
0 4.841500 2.898100 -0.001700 0.116799 0.490297 0.863694 0.377300 -0.425600 1 0 1.000000 
0 -0.003600 1.291400 0.946600 0.006700 0.350809 0.936423 0.587900 -0.357100 1 0 1.000000 
0 4.629200 1.331100 0.841400 0.070102 0.342708 0.936823 0.392000 -0.358800 1 0 1.000000 
light_cagelight01
0 4.841500 2.898100 -0.001700 0.116799 0.490297 0.863694 0.377300 -0.425600 1 0 1.000000 
0 4.629200 1.331100 0.841400 0.070102 0.342708 0.936823 0.392000 -0.358800 1 0 1.000000 
0 5.897600 0.868200 0.841400 0.266509 0.306110 0.913931 0.338600 -0.339000 1 0 1.000000 
light_cagelight01
0 4.345300 0.000000 1.152100 0.065099 0.000000 0.997879 0.406100 -0.302000 1 0 1.000000 
0 5.897600 0.868200 0.841400 0.266509 0.306110 0.913931 0.338600 -0.339000 1 0 1.000000 
0 4.629200 1.331100 0.841400 0.070102 0.342708 0.936823 0.392000 -0.358800 1 0 1.000000 
light_cagelight01
0 4.345300 0.000000 1.152100 0.065099 0.000000 0.997879 0.406100 -0.302000 1 0 1.000000 
0 6.273000 0.000000 0.841400 0.409792 0.127797 0.903182 0.322800 -0.302000 1 0 1.000000 
0 5.897600 0.868200 0.841400 0.266509 0.306110 0.913931 0.338600 -0.339000 1 0 1.000000 
light_cagelight01
0 4.345300 0.000000 1.152100 0.065099 0.000000 0.997879 0.406100 -0.302000 1 0 1.000000 
0 5.897600 -0.868200 0.841400 0.266509 -0.306110 0.913931 0.338600 -0.264900 1 0 1.000000 
0 6.273000 0.000000 0.841400 0.409792 0.127797 0.903182 0.322800 -0.302000 1 0 1.000000 
light_cagelight01
0 4.345300 0.000000 1.152100 0.065099 0.000000 0.997879 0.406100 -0.302000 1 0 1.000000 
0 4.629200 -1.331100 0.841400 0.070102 -0.342708 0.936823 0.392000 -0.245200 1 0 1.000000 
0 5.897600 -0.868200 0.841400 0.266509 -0.306110 0.913931 0.338600 -0.264900 1 0 1.000000 
light_cagelight01
0 -0.003600 -1.291400 0.946600 0.006700 -0.350809 0.936423 0.587900 -0.246900 1 0 1.000000 
0 -0.000900 -2.808000 -0.001700 -0.009900 -0.530207 0.847811 0.581300 -0.182100 1 0 1.000000 
0 4.841500 -2.898100 -0.001700 0.116799 -0.490297 0.863694 0.377300 -0.178300 1 0 1.000000 
light_cagelight01
0 -0.003600 1.291400 0.946600 0.006700 0.350809 0.936423 0.587900 -0.357100 1 0 1.000000 
0 4.841500 2.898100 -0.001700 0.116799 0.490297 0.863694 0.377300 -0.425600 1 0 1.000000 
0 -0.000900 2.808000 -0.001700 -0.009900 0.530207 0.847811 0.581300 -0.421800 1 0 1.000000 
light_cagelight01
0 5.791400 -1.776700 -7.020800 0.395217 -0.540923 -0.742432 0.434300 -0.419400 1 0 1.000000 
0 4.205200 -2.722900 -6.777600 0.279214 -0.649832 -0.706935 0.374200 -0.409300 1 0 1.000000 
0 4.443300 -2.384200 -7.021000 0.310408 -0.688817 -0.655116 0.382400 -0.419100 1 0 1.000000 
light_cagelight01
0 5.791400 -1.776700 -7.020800 0.395217 -0.540923 -0.742432 0.434300 -0.419400 1 0 1.000000 
0 5.998500 -1.998200 -6.775000 0.550022 -0.412216 -0.726329 0.434400 -0.409700 1 0 1.000000 
0 4.205200 -2.722900 -6.777600 0.279214 -0.649832 -0.706935 0.374200 -0.409300 1 0 1.000000 
light_cagelight01
0 6.536400 -0.194800 -7.020700 0.675674 -0.293689 -0.676174 0.496100 -0.419400 1 0 1.000000 
0 5.998500 -1.998200 -6.775000 0.550022 -0.412216 -0.726329 0.434400 -0.409700 1 0 1.000000 
0 5.791400 -1.776700 -7.020800 0.395217 -0.540923 -0.742432 0.434300 -0.419400 1 0 1.000000 
light_cagelight01
0 6.536400 -0.194800 -7.020700 0.675674 -0.293689 -0.676174 0.496100 -0.419400 1 0 1.000000 
0 6.838500 0.077000 -6.777600 0.747974 -0.303489 -0.590279 0.505000 -0.409700 1 0 1.000000 
0 5.998500 -1.998200 -6.775000 0.550022 -0.412216 -0.726329 0.434400 -0.409700 1 0 1.000000 
light_cagelight01
0 6.114600 1.859300 -3.850000 0.523309 0.398707 0.753113 0.564000 -0.291300 1 0 1.000000 
0 6.498600 0.300200 -3.603800 0.636024 0.270710 0.722627 0.512700 -0.281800 1 0 1.000000 
0 6.838400 0.078400 -3.850700 0.675884 0.274494 0.683984 0.504700 -0.291900 1 0 1.000000 
light_cagelight01
0 6.114600 1.859300 -3.850000 0.523309 0.398707 0.753113 0.564000 -0.291300 1 0 1.000000 
0 5.893000 1.652200 -3.603900 0.416482 0.569375 0.708769 0.564100 -0.281300 1 0 1.000000 
0 6.498600 0.300200 -3.603800 0.636024 0.270710 0.722627 0.512700 -0.281800 1 0 1.000000 
light_cagelight01
0 4.042600 2.699900 -3.850700 0.307011 0.695324 0.649822 0.633000 -0.290400 1 0 1.000000 
0 5.893000 1.652200 -3.603900 0.416482 0.569375 0.708769 0.564100 -0.281300 1 0 1.000000 
0 6.114600 1.859300 -3.850000 0.523309 0.398707 0.753113 0.564000 -0.291300 1 0 1.000000 
light_cagelight01
0 4.042600 2.699900 -3.850700 0.307011 0.695324 0.649822 0.633000 -0.290400 1 0 1.000000 
0 4.311600 2.396900 -3.603600 0.357999 0.760098 0.542298 0.624300 -0.280600 1 0 1.000000 
0 5.893000 1.652200 -3.603900 0.416482 0.569375 0.708769 0.564100 -0.281300 1 0 1.000000 
light_cagelight01
0 5.893100 1.652200 -4.095900 0.538583 0.394188 -0.744677 0.564200 -0.301100 1 0 1.000000 
0 6.838400 0.078400 -3.850700 0.646698 0.277699 -0.710398 0.504700 -0.291900 1 0 1.000000 
0 6.499200 0.303900 -4.096000 0.683231 0.307214 -0.662430 0.513000 -0.301600 1 0 1.000000 
light_cagelight01
0 5.893100 1.652200 -4.095900 0.538583 0.394188 -0.744677 0.564200 -0.301100 1 0 1.000000 
0 6.114600 1.859300 -3.850000 0.411802 0.549703 -0.726804 0.564000 -0.291300 1 0 1.000000 
0 6.838400 0.078400 -3.850700 0.646698 0.277699 -0.710398 0.504700 -0.291900 1 0 1.000000 
light_cagelight01
0 4.312500 2.396100 -4.095700 0.293394 0.675087 -0.676887 0.624400 -0.300400 1 0 1.000000 
0 6.114600 1.859300 -3.850000 0.411802 0.549703 -0.726804 0.564000 -0.291300 1 0 1.000000 
0 5.893100 1.652200 -4.095900 0.538583 0.394188 -0.744677 0.564200 -0.301100 1 0 1.000000 
light_cagelight01
0 4.312500 2.396100 -4.095700 0.293394 0.675087 -0.676887 0.624400 -0.300400 1 0 1.000000 
0 4.042600 2.699900 -3.850700 0.303093 0.746784 -0.591987 0.633000 -0.290400 1 0 1.000000 
0 6.114600 1.859300 -3.850000 0.411802 0.549703 -0.726804 0.564000 -0.291300 1 0 1.000000 
light_cagelight01
0 6.114600 1.859300 -6.775000 0.523584 0.400488 0.751977 0.564800 -0.409000 1 0 1.000000 
0 6.498900 0.303900 -6.529900 0.637999 0.271200 0.720699 0.513400 -0.399600 1 0 1.000000 
0 6.838500 0.077000 -6.777600 0.679722 0.275109 0.679922 0.505000 -0.409700 1 0 1.000000 
light_cagelight01
0 6.114600 1.859300 -6.775000 0.523584 0.400488 0.751977 0.564800 -0.409000 1 0 1.000000 
0 5.893000 1.652200 -6.528900 0.456503 0.771304 0.443503 0.565000 -0.399100 1 0 1.000000 
0 6.498900 0.303900 -6.529900 0.637999 0.271200 0.720699 0.513400 -0.399600 1 0 1.000000 
light_cagelight01
0 4.007300 2.697200 -6.777600 0.475035 0.759955 0.443632 0.634800 -0.408200 1 0 1.000000 
0 5.893000 1.652200 -6.528900 0.456503 0.771304 0.443503 0.565000 -0.399100 1 0 1.000000 
0 6.114600 1.859300 -6.775000 0.523584 0.400488 0.751977 0.564800 -0.409000 1 0 1.000000 
light_cagelight01
0 4.007300 2.697200 -6.777600 0.475035 0.759955 0.443632 0.634800 -0.408200 1 0 1.000000 
0 4.312500 2.396000 -6.529600 0.587082 0.799376 0.127796 0.625100 -0.398400 1 0 1.000000 
0 5.893000 1.652200 -6.528900 0.456503 0.771304 0.443503 0.565000 -0.399100 1 0 1.000000 
light_cagelight01
0 4.312500 2.396000 -6.529600 0.587082 0.799376 0.127796 0.625100 -0.398400 1 0 1.000000 
0 4.007300 2.697200 -6.777600 0.475035 0.759955 0.443632 0.634800 -0.408200 1 0 1.000000 
0 4.042600 2.699900 -3.850700 0.727205 0.686405 -0.004600 0.633000 -0.290400 1 0 1.000000 
light_cagelight01
0 4.312500 2.396000 -6.529600 0.587082 0.799376 0.127796 0.625100 -0.398400 1 0 1.000000 
0 4.042600 2.699900 -3.850700 0.727205 0.686405 -0.004600 0.633000 -0.290400 1 0 1.000000 
0 4.312500 2.396100 -4.095700 0.542899 0.839798 -0.000100 0.624400 -0.300400 1 0 1.000000 
light_cagelight01
0 5.893100 1.652200 -7.020800 0.538711 0.394508 -0.744415 0.565100 -0.418900 1 0 1.000000 
0 6.838500 0.077000 -6.777600 0.646692 0.278496 -0.710091 0.505000 -0.409700 1 0 1.000000 
0 6.500600 0.304100 -7.021000 0.683572 0.308087 -0.661673 0.513500 -0.419300 1 0 1.000000 
light_cagelight01
0 5.893100 1.652200 -7.020800 0.538711 0.394508 -0.744415 0.565100 -0.418900 1 0 1.000000 
0 6.114600 1.859300 -6.775000 0.413985 0.558680 -0.718674 0.564800 -0.409000 1 0 1.000000 
0 6.838500 0.077000 -6.777600 0.646692 0.278496 -0.710091 0.505000 -0.409700 1 0 1.000000 
light_cagelight01
0 4.312400 2.397500 -7.020700 0.295713 0.687131 -0.663630 0.625300 -0.418200 1 0 1.000000 
0 6.114600 1.859300 -6.775000 0.413985 0.558680 -0.718674 0.564800 -0.409000 1 0 1.000000 
0 5.893100 1.652200 -7.020800 0.538711 0.394508 -0.744415 0.565100 -0.418900 1 0 1.000000 
light_cagelight01
0 4.312400 2.397500 -7.020700 0.295713 0.687131 -0.663630 0.625300 -0.418200 1 0 1.000000 
0 4.007300 2.697200 -6.777600 0.306003 0.768008 -0.562606 0.634800 -0.408200 1 0 1.000000 
0 6.114600 1.859300 -6.775000 0.413985 0.558680 -0.718674 0.564800 -0.409000 1 0 1.000000 
light_cagelight01
0 2.143300 -1.881500 -6.775000 -0.524218 -0.398813 0.752425 0.305400 -0.408300 1 0 1.000000 
0 1.759000 -0.326100 -6.529900 -0.637115 -0.271106 0.721517 0.255200 -0.398000 1 0 1.000000 
0 1.419800 -0.103600 -6.777600 -0.677992 -0.274997 0.681692 0.247400 -0.407800 1 0 1.000000 
light_cagelight01
0 2.143300 -1.881500 -6.775000 -0.524218 -0.398813 0.752425 0.305400 -0.408300 1 0 1.000000 
0 2.364900 -1.674400 -6.528900 -0.414797 -0.566196 0.712295 0.305300 -0.398400 1 0 1.000000 
0 1.759000 -0.326100 -6.529900 -0.637115 -0.271106 0.721517 0.255200 -0.398000 1 0 1.000000 
light_cagelight01
0 4.205200 -2.722900 -6.777600 -0.304993 -0.690883 0.655484 0.374200 -0.409300 1 0 1.000000 
0 2.364900 -1.674400 -6.528900 -0.414797 -0.566196 0.712295 0.305300 -0.398400 1 0 1.000000 
0 2.143300 -1.881500 -6.775000 -0.524218 -0.398813 0.752425 0.305400 -0.408300 1 0 1.000000 
light_cagelight01
0 4.205200 -2.722900 -6.777600 -0.304993 -0.690883 0.655484 0.374200 -0.409300 1 0 1.000000 
0 3.945500 -2.418100 -6.529600 -0.354104 -0.753009 0.554606 0.365400 -0.399100 1 0 1.000000 
0 2.364900 -1.674400 -6.528900 -0.414797 -0.566196 0.712295 0.305300 -0.398400 1 0 1.000000 
light_cagelight01
0 2.364800 -1.674400 -7.020800 -0.537793 -0.394295 -0.745191 0.305100 -0.418200 1 0 1.000000 
0 1.419800 -0.103600 -6.777600 -0.645409 -0.278104 -0.711410 0.247400 -0.407800 1 0 1.000000 
0 1.757400 -0.326200 -7.021000 -0.681484 -0.307093 -0.664284 0.255100 -0.417800 1 0 1.000000 
light_cagelight01
0 2.364800 -1.674400 -7.020800 -0.537793 -0.394295 -0.745191 0.305100 -0.418200 1 0 1.000000 
0 2.143300 -1.881500 -6.775000 -0.411292 -0.547190 -0.728987 0.305400 -0.408300 1 0 1.000000 
0 1.419800 -0.103600 -6.777600 -0.645409 -0.278104 -0.711410 0.247400 -0.407800 1 0 1.000000 
light_cagelight01
0 3.945600 -2.419700 -7.020700 -0.293297 -0.671394 -0.680593 0.365300 -0.418900 1 0 1.000000 
0 2.143300 -1.881500 -6.775000 -0.411292 -0.547190 -0.728987 0.305400 -0.408300 1 0 1.000000 
0 2.364800 -1.674400 -7.020800 -0.537793 -0.394295 -0.745191 0.305100 -0.418200 1 0 1.000000 
light_cagelight01
0 3.945600 -2.419700 -7.020700 -0.293297 -0.671394 -0.680593 0.365300 -0.418900 1 0 1.000000 
0 4.205200 -2.722900 -6.777600 -0.302909 -0.740422 -0.600018 0.374200 -0.409300 1 0 1.000000 
0 2.143300 -1.881500 -6.775000 -0.411292 -0.547190 -0.728987 0.305400 -0.408300 1 0 1.000000 
light_cagelight01
0 5.998500 -1.998200 -3.850000 0.398914 -0.523419 0.752927 0.434700 -0.291900 1 0 1.000000 
0 4.439400 -2.382200 -3.603800 0.270793 -0.636382 0.722280 0.383200 -0.281500 1 0 1.000000 
0 4.216100 -2.722100 -3.850700 0.274495 -0.676587 0.683287 0.375300 -0.291400 1 0 1.000000 
light_cagelight01
0 5.998500 -1.998200 -3.850000 0.398914 -0.523419 0.752927 0.434700 -0.291900 1 0 1.000000 
0 5.791400 -1.776600 -3.603900 0.570622 -0.416716 0.707628 0.434700 -0.281900 1 0 1.000000 
0 4.439400 -2.382200 -3.603800 0.270793 -0.636382 0.722280 0.383200 -0.281500 1 0 1.000000 
light_cagelight01
0 6.838400 0.078400 -3.850700 0.697016 -0.307207 0.647914 0.504700 -0.291900 1 0 1.000000 
0 5.791400 -1.776600 -3.603900 0.570622 -0.416716 0.707628 0.434700 -0.281900 1 0 1.000000 
0 5.998500 -1.998200 -3.850000 0.398914 -0.523419 0.752927 0.434700 -0.291900 1 0 1.000000 
light_cagelight01
0 6.838400 0.078400 -3.850700 0.697016 -0.307207 0.647914 0.504700 -0.291900 1 0 1.000000 
0 6.535800 -0.194000 -3.603600 0.762493 -0.358797 0.538395 0.495700 -0.281800 1 0 1.000000 
0 5.791400 -1.776600 -3.603900 0.570622 -0.416716 0.707628 0.434700 -0.281900 1 0 1.000000 
light_cagelight01
0 5.791400 -1.776700 -4.095900 0.394297 -0.538895 -0.744394 0.434600 -0.301700 1 0 1.000000 
0 4.216100 -2.722100 -3.850700 0.277892 -0.647182 -0.709881 0.375300 -0.291400 1 0 1.000000 
0 4.443100 -2.382800 -4.096000 0.307591 -0.684079 -0.661380 0.383200 -0.301300 1 0 1.000000 
light_cagelight01
0 5.791400 -1.776700 -4.095900 0.394297 -0.538895 -0.744394 0.434600 -0.301700 1 0 1.000000 
0 5.998500 -1.998200 -3.850000 0.550588 -0.411891 -0.726084 0.434700 -0.291900 1 0 1.000000 
0 4.216100 -2.722100 -3.850700 0.277892 -0.647182 -0.709881 0.375300 -0.291400 1 0 1.000000 
light_cagelight01
0 6.535000 -0.194900 -4.095700 0.676362 -0.293283 -0.675662 0.495700 -0.301700 1 0 1.000000 
0 5.998500 -1.998200 -3.850000 0.550588 -0.411891 -0.726084 0.434700 -0.291900 1 0 1.000000 
0 5.791400 -1.776700 -4.095900 0.394297 -0.538895 -0.744394 0.434600 -0.301700 1 0 1.000000 
light_cagelight01
0 6.535000 -0.194900 -4.095700 0.676362 -0.293283 -0.675662 0.495700 -0.301700 1 0 1.000000 
0 6.838400 0.078400 -3.850700 0.748902 -0.303101 -0.589301 0.504700 -0.291900 1 0 1.000000 
0 5.998500 -1.998200 -3.850000 0.550588 -0.411891 -0.726084 0.434700 -0.291900 1 0 1.000000 
light_cagelight01
0 5.998500 -1.998200 -6.775000 0.399682 -0.526076 0.750665 0.434400 -0.409700 1 0 1.000000 
0 4.443100 -2.382500 -6.529900 0.271396 -0.640291 0.718590 0.382600 -0.399300 1 0 1.000000 
0 4.205200 -2.722900 -6.777600 0.275492 -0.683981 0.675481 0.374200 -0.409300 1 0 1.000000 
light_cagelight01
0 5.998500 -1.998200 -6.775000 0.399682 -0.526076 0.750665 0.434400 -0.409700 1 0 1.000000 
0 5.791400 -1.776600 -6.528900 0.570320 -0.416115 0.708225 0.434400 -0.399600 1 0 1.000000 
0 4.443100 -2.382500 -6.529900 0.271396 -0.640291 0.718590 0.382600 -0.399300 1 0 1.000000 
light_cagelight01
0 6.838500 0.077000 -6.777600 0.696523 -0.306410 0.648821 0.505000 -0.409700 1 0 1.000000 
0 5.791400 -1.776600 -6.528900 0.570320 -0.416115 0.708225 0.434400 -0.399600 1 0 1.000000 
0 5.998500 -1.998200 -6.775000 0.399682 -0.526076 0.750665 0.434400 -0.409700 1 0 1.000000 
light_cagelight01
0 6.838500 0.077000 -6.777600 0.696523 -0.306410 0.648821 0.505000 -0.409700 1 0 1.000000 
0 6.534800 -0.194900 -6.529600 0.761511 -0.357705 0.540508 0.496100 -0.399600 1 0 1.000000 
0 5.791400 -1.776600 -6.528900 0.570320 -0.416115 0.708225 0.434400 -0.399600 1 0 1.000000 
light_cagelight01
0 2.259400 1.976000 -3.850000 -0.398924 0.523531 0.752845 0.691400 -0.289900 1 0 1.000000 
0 3.818600 2.360000 -3.603800 -0.270797 0.636593 0.722092 0.641000 -0.280500 1 0 1.000000 
0 4.042600 2.699900 -3.850700 -0.274495 0.676889 0.682989 0.633000 -0.290400 1 0 1.000000 
light_cagelight01
0 2.259400 1.976000 -3.850000 -0.398924 0.523531 0.752845 0.691400 -0.289900 1 0 1.000000 
0 2.466500 1.754500 -3.603900 -0.570407 0.416705 0.707808 0.691400 -0.280100 1 0 1.000000 
0 3.818600 2.360000 -3.603800 -0.270797 0.636593 0.722092 0.641000 -0.280500 1 0 1.000000 
light_cagelight01
0 1.419500 -0.100100 -3.850700 -0.696799 0.307099 0.648199 0.759700 -0.290000 1 0 1.000000 
0 2.466500 1.754500 -3.603900 -0.570407 0.416705 0.707808 0.691400 -0.280100 1 0 1.000000 
0 2.259400 1.976000 -3.850000 -0.398924 0.523531 0.752845 0.691400 -0.289900 1 0 1.000000 
light_cagelight01
0 1.419500 -0.100100 -3.850700 -0.696799 0.307099 0.648199 0.759700 -0.290000 1 0 1.000000 
0 1.722100 0.171800 -3.603600 -0.762176 0.358588 0.538983 0.751000 -0.280100 1 0 1.000000 
0 2.466500 1.754500 -3.603900 -0.570407 0.416705 0.707808 0.691400 -0.280100 1 0 1.000000 
light_cagelight01
0 2.466500 1.754500 -4.095900 -0.394397 0.539096 -0.744195 0.691500 -0.299900 1 0 1.000000 
0 4.042600 2.699900 -3.850700 -0.277896 0.647390 -0.709689 0.633000 -0.290400 1 0 1.000000 
0 3.814800 2.360600 -4.096000 -0.307699 0.684399 -0.660999 0.641200 -0.300300 1 0 1.000000 
light_cagelight01
0 2.466500 1.754500 -4.095900 -0.394397 0.539096 -0.744195 0.691500 -0.299900 1 0 1.000000 
0 2.259400 1.976000 -3.850000 -0.550478 0.411884 -0.726171 0.691400 -0.289900 1 0 1.000000 
0 4.042600 2.699900 -3.850700 -0.277896 0.647390 -0.709689 0.633000 -0.290400 1 0 1.000000 
light_cagelight01
0 1.722900 0.172700 -4.095700 -0.676182 0.293192 -0.675882 0.750900 -0.299900 1 0 1.000000 
0 2.259400 1.976000 -3.850000 -0.550478 0.411884 -0.726171 0.691400 -0.289900 1 0 1.000000 
0 2.466500 1.754500 -4.095900 -0.394397 0.539096 -0.744195 0.691500 -0.299900 1 0 1.000000 
light_cagelight01
0 1.722900 0.172700 -4.095700 -0.676182 0.293192 -0.675882 0.750900 -0.299900 1 0 1.000000 
0 1.419500 -0.100100 -3.850700 -0.748593 0.303097 -0.589695 0.759700 -0.290000 1 0 1.000000 
0 2.259400 1.976000 -3.850000 -0.550478 0.411884 -0.726171 0.691400 -0.289900 1 0 1.000000 
light_cagelight01
0 2.259400 1.976000 -6.775000 -0.398780 0.519274 0.755863 0.691700 -0.407600 1 0 1.000000 
0 3.814800 2.360400 -6.529900 -0.270499 0.630998 0.727098 0.641900 -0.398300 1 0 1.000000 
0 4.007300 2.697200 -6.777600 -0.273894 0.666484 0.693384 0.634800 -0.408200 1 0 1.000000 
light_cagelight01
0 2.259400 1.976000 -6.775000 -0.398780 0.519274 0.755863 0.691700 -0.407600 1 0 1.000000 
0 2.466500 1.754500 -6.528900 -0.571818 0.416613 0.706723 0.691700 -0.397800 1 0 1.000000 
0 3.814800 2.360400 -6.529900 -0.270499 0.630998 0.727098 0.641900 -0.398300 1 0 1.000000 
light_cagelight01
0 1.419800 -0.103600 -6.777600 -0.698602 0.307001 0.646302 0.759500 -0.407800 1 0 1.000000 
0 2.466500 1.754500 -6.528900 -0.571818 0.416613 0.706723 0.691700 -0.397800 1 0 1.000000 
0 2.259400 1.976000 -6.775000 -0.398780 0.519274 0.755863 0.691700 -0.407600 1 0 1.000000 
light_cagelight01
0 1.419800 -0.103600 -6.777600 -0.698602 0.307001 0.646302 0.759500 -0.407800 1 0 1.000000 
0 1.723100 0.172700 -6.529600 -0.764598 0.359099 0.535199 0.750600 -0.397900 1 0 1.000000 
0 2.466500 1.754500 -6.528900 -0.571818 0.416613 0.706723 0.691700 -0.397800 1 0 1.000000 
light_cagelight01
0 2.466500 1.754500 -7.020800 -0.392696 0.531695 -0.750393 0.691800 -0.417700 1 0 1.000000 
0 4.007300 2.697200 -6.777600 -0.276107 0.637115 -0.719617 0.634800 -0.408200 1 0 1.000000 
0 3.814700 2.362000 -7.021000 -0.300810 0.667522 -0.681122 0.642000 -0.418000 1 0 1.000000 
light_cagelight01
0 2.466500 1.754500 -7.020800 -0.392696 0.531695 -0.750393 0.691800 -0.417700 1 0 1.000000 
0 2.259400 1.976000 -6.775000 -0.552221 0.411215 -0.725227 0.691700 -0.407600 1 0 1.000000 
0 4.007300 2.697200 -6.777600 -0.276107 0.637115 -0.719617 0.634800 -0.408200 1 0 1.000000 
light_cagelight01
0 1.721500 0.172600 -7.020700 -0.677225 0.293911 -0.674524 0.750500 -0.417700 1 0 1.000000 
0 2.259400 1.976000 -6.775000 -0.552221 0.411215 -0.725227 0.691700 -0.407600 1 0 1.000000 
0 2.466500 1.754500 -7.020800 -0.392696 0.531695 -0.750393 0.691800 -0.417700 1 0 1.000000 
light_cagelight01
0 1.721500 0.172600 -7.020700 -0.677225 0.293911 -0.674524 0.750500 -0.417700 1 0 1.000000 
0 1.419800 -0.103600 -6.777600 -0.750721 0.303808 -0.586616 0.759500 -0.407800 1 0 1.000000 
0 2.259400 1.976000 -6.775000 -0.552221 0.411215 -0.725227 0.691700 -0.407600 1 0 1.000000 
light_cagelight01
0 2.143300 -1.881500 -3.850000 -0.523382 -0.398686 0.753074 0.306200 -0.290500 1 0 1.000000 
0 1.759400 -0.322300 -3.603800 -0.636112 -0.270805 0.722514 0.255600 -0.280200 1 0 1.000000 
0 1.419500 -0.100100 -3.850700 -0.676085 -0.274494 0.683785 0.247700 -0.290000 1 0 1.000000 
light_cagelight01
0 2.143300 -1.881500 -3.850000 -0.523382 -0.398686 0.753074 0.306200 -0.290500 1 0 1.000000 
0 2.364900 -1.674400 -3.603900 -0.416606 -0.569608 0.708510 0.306200 -0.280700 1 0 1.000000 
0 1.759400 -0.322300 -3.603800 -0.636112 -0.270805 0.722514 0.255600 -0.280200 1 0 1.000000 
light_cagelight01
0 4.216100 -2.722100 -3.850700 -0.307186 -0.695668 0.649370 0.375300 -0.291400 1 0 1.000000 
0 2.364900 -1.674400 -3.603900 -0.416606 -0.569608 0.708510 0.306200 -0.280700 1 0 1.000000 
0 2.143300 -1.881500 -3.850000 -0.523382 -0.398686 0.753074 0.306200 -0.290500 1 0 1.000000 
light_cagelight01
0 4.216100 -2.722100 -3.850700 -0.307186 -0.695668 0.649370 0.375300 -0.291400 1 0 1.000000 
0 3.946400 -2.419100 -3.603600 -0.358299 -0.760598 0.541399 0.366400 -0.281300 1 0 1.000000 
0 2.364900 -1.674400 -3.603900 -0.416606 -0.569608 0.708510 0.306200 -0.280700 1 0 1.000000 
light_cagelight01
0 2.364800 -1.674400 -4.095900 -0.538694 -0.394196 -0.744592 0.306000 -0.300500 1 0 1.000000 
0 1.419500 -0.100100 -3.850700 -0.646784 -0.277793 -0.710282 0.247700 -0.290000 1 0 1.000000 
0 1.758800 -0.326100 -4.096000 -0.683461 -0.307282 -0.662162 0.255600 -0.300000 1 0 1.000000 
light_cagelight01
0 2.364800 -1.674400 -4.095900 -0.538694 -0.394196 -0.744592 0.306000 -0.300500 1 0 1.000000 
0 2.143300 -1.881500 -3.850000 -0.411900 -0.549900 -0.726600 0.306200 -0.290500 1 0 1.000000 
0 1.419500 -0.100100 -3.850700 -0.646784 -0.277793 -0.710282 0.247700 -0.290000 1 0 1.000000 
light_cagelight01
0 3.945500 -2.418300 -4.095700 -0.293414 -0.675333 -0.676633 0.366200 -0.301100 1 0 1.000000 
0 2.143300 -1.881500 -3.850000 -0.411900 -0.549900 -0.726600 0.306200 -0.290500 1 0 1.000000 
0 2.364800 -1.674400 -4.095900 -0.538694 -0.394196 -0.744592 0.306000 -0.300500 1 0 1.000000 
light_cagelight01
0 3.945500 -2.418300 -4.095700 -0.293414 -0.675333 -0.676633 0.366200 -0.301100 1 0 1.000000 
0 4.216100 -2.722100 -3.850700 -0.303201 -0.747203 -0.591402 0.375300 -0.291400 1 0 1.000000 
0 2.143300 -1.881500 -3.850000 -0.411900 -0.549900 -0.726600 0.306200 -0.290500 1 0 1.000000 
light_cagelight01
0 5.791400 -1.776700 -0.763300 0.306511 -0.419115 -0.854631 0.435000 -0.167500 1 0 1.000000 
0 4.220400 -2.855500 -0.518100 0.218710 -0.507822 -0.833236 0.376100 -0.157300 1 0 1.000000 
0 4.437500 -2.382100 -0.767500 0.242609 -0.537020 -0.807930 0.384000 -0.167300 1 0 1.000000 
light_cagelight01
0 5.791400 -1.776700 -0.763300 0.306511 -0.419115 -0.854631 0.435000 -0.167500 1 0 1.000000 
0 6.090600 -2.096000 -0.517400 0.426687 -0.319790 -0.845974 0.435000 -0.157800 1 0 1.000000 
0 4.220400 -2.855500 -0.518100 0.218710 -0.507822 -0.833236 0.376100 -0.157300 1 0 1.000000 
light_cagelight01
0 6.535400 -0.192800 -0.767400 0.530604 -0.231102 -0.815507 0.495400 -0.167700 1 0 1.000000 
0 6.090600 -2.096000 -0.517400 0.426687 -0.319790 -0.845974 0.435000 -0.157800 1 0 1.000000 
0 5.791400 -1.776700 -0.763300 0.306511 -0.419115 -0.854631 0.435000 -0.167500 1 0 1.000000 
light_cagelight01
0 6.535400 -0.192800 -0.767400 0.530604 -0.231102 -0.815507 0.495400 -0.167700 1 0 1.000000 
0 6.971800 0.082800 -0.518100 0.591203 -0.239301 -0.770204 0.504200 -0.157700 1 0 1.000000 
0 6.090600 -2.096000 -0.517400 0.426687 -0.319790 -0.845974 0.435000 -0.157800 1 0 1.000000 
light_cagelight01
0 5.893100 1.652200 -0.763300 0.418987 0.306290 -0.854773 0.563200 -0.167000 1 0 1.000000 
0 6.971800 0.082800 -0.518100 0.507484 0.218593 -0.833473 0.504200 -0.157700 1 0 1.000000 
0 6.498500 0.298300 -0.767500 0.536402 0.242401 -0.808403 0.512100 -0.167600 1 0 1.000000 
light_cagelight01
0 5.893100 1.652200 -0.763300 0.418987 0.306290 -0.854773 0.563200 -0.167000 1 0 1.000000 
0 6.212300 1.951400 -0.517400 0.319908 0.426110 -0.846220 0.563100 -0.157100 1 0 1.000000 
0 6.971800 0.082800 -0.518100 0.507484 0.218593 -0.833473 0.504200 -0.157700 1 0 1.000000 
light_cagelight01
0 4.311000 2.396700 -0.767400 0.231295 0.529788 -0.815982 0.623400 -0.166400 1 0 1.000000 
0 6.212300 1.951400 -0.517400 0.319908 0.426110 -0.846220 0.563100 -0.157100 1 0 1.000000 
0 5.893100 1.652200 -0.763300 0.418987 0.306290 -0.854773 0.563200 -0.167000 1 0 1.000000 
light_cagelight01
0 4.311000 2.396700 -0.767400 0.231295 0.529788 -0.815982 0.623400 -0.166400 1 0 1.000000 
0 4.038300 2.833400 -0.518100 0.239503 0.589808 -0.771210 0.632100 -0.156200 1 0 1.000000 
0 6.212300 1.951400 -0.517400 0.319908 0.426110 -0.846220 0.563100 -0.157100 1 0 1.000000 
light_cagelight01
0 2.466500 1.754500 -0.763300 -0.306498 0.419197 -0.854595 0.691100 -0.165700 1 0 1.000000 
0 4.038300 2.833400 -0.518100 -0.218706 0.508013 -0.833121 0.632100 -0.156200 1 0 1.000000 
0 3.820500 2.359900 -0.767500 -0.242797 0.537294 -0.807691 0.640100 -0.166300 1 0 1.000000 
light_cagelight01
0 2.466500 1.754500 -0.763300 -0.306498 0.419197 -0.854595 0.691100 -0.165700 1 0 1.000000 
0 2.167400 2.073800 -0.517400 -0.426605 0.319804 -0.846010 0.691000 -0.155700 1 0 1.000000 
0 4.038300 2.833400 -0.518100 -0.218706 0.508013 -0.833121 0.632100 -0.156200 1 0 1.000000 
light_cagelight01
0 1.722500 0.170600 -0.767400 -0.530489 0.231095 -0.815583 0.751400 -0.165900 1 0 1.000000 
0 2.167400 2.073800 -0.517400 -0.426605 0.319804 -0.846010 0.691000 -0.155700 1 0 1.000000 
0 2.466500 1.754500 -0.763300 -0.306498 0.419197 -0.854595 0.691100 -0.165700 1 0 1.000000 
light_cagelight01
0 1.722500 0.170600 -0.767400 -0.530489 0.231095 -0.815583 0.751400 -0.165900 1 0 1.000000 
0 1.286100 -0.104400 -0.518100 -0.590917 0.239307 -0.770422 0.760200 -0.155800 1 0 1.000000 
0 2.167400 2.073800 -0.517400 -0.426605 0.319804 -0.846010 0.691000 -0.155700 1 0 1.000000 
light_cagelight01
0 3.973200 0.346000 -10.010200 -0.252800 0.624001 -0.739401 0.363700 -0.976700 1 0 1.000000 
0 2.479400 0.231100 -9.585300 -0.546389 0.616887 -0.566488 0.371100 -0.880200 1 0 1.000000 
0 3.881600 1.601300 -9.589400 -0.415082 0.575576 -0.704570 0.282600 -0.970700 1 0 1.000000 
end
