version 1
nodes
  0 "static_prop" -1
end
skeleton
time 0
0 0.000000 0.000000 0.000000 0.000000 0.000000 0.000000
end
triangles
light_domelight01_on
0 15.765200 0.000001 0.280300 0.862961 0.076297 -0.499477 0.500000 -0.010300 1 0 1.000000 
0 15.765200 0.000001 0.280300 -0.000000 1.000000 0.000000 0.500000 -0.010300 1 0 1.000000 
0 13.653000 -7.883800 0.243500 -0.000000 1.000000 0.000000 0.255100 -0.075900 1 0 1.000000 
light_domelight01_on
0 13.653000 7.883801 0.243500 0.710428 0.493120 -0.502120 0.744900 -0.075900 1 0 1.000000 
0 15.765200 0.000001 0.280300 -0.000000 1.000000 0.000000 0.500000 -0.010300 1 0 1.000000 
0 15.765200 0.000001 0.280300 0.862961 0.076297 -0.499477 0.500000 -0.010300 1 0 1.000000 
light_domelight01_on
0 13.653000 7.883801 0.243500 0.710428 0.493120 -0.502120 0.744900 -0.075900 1 0 1.000000 
0 13.653000 7.883801 0.243500 -0.000000 1.000000 0.000000 0.744900 -0.075900 1 0 1.000000 
0 15.765200 0.000001 0.280300 -0.000000 1.000000 0.000000 0.500000 -0.010300 1 0 1.000000 
light_domelight01_on
0 7.882500 13.655200 0.142700 0.369906 0.777814 -0.508109 0.924100 -0.255100 1 0 1.000000 
0 13.653000 7.883801 0.243500 -0.000000 1.000000 0.000000 0.744900 -0.075900 1 0 1.000000 
0 13.653000 7.883801 0.243500 0.710428 0.493120 -0.502120 0.744900 -0.075900 1 0 1.000000 
light_domelight01_on
0 7.882500 13.655200 0.142700 0.369906 0.777814 -0.508109 0.924100 -0.255100 1 0 1.000000 
0 7.882500 13.655200 0.142700 -0.000000 1.000000 0.000000 0.924100 -0.255100 1 0 1.000000 
0 13.653000 7.883801 0.243500 -0.000000 1.000000 0.000000 0.744900 -0.075900 1 0 1.000000 
light_domelight01_on
0 -0.000101 15.767700 0.005100 -0.067301 0.854116 -0.515710 0.989700 -0.500000 1 0 1.000000 
0 7.882500 13.655200 0.142700 -0.000000 1.000000 0.000000 0.924100 -0.255100 1 0 1.000000 
0 7.882500 13.655200 0.142700 0.369906 0.777814 -0.508109 0.924100 -0.255100 1 0 1.000000 
light_domelight01_on
0 -0.000101 15.767700 0.005100 -0.067301 0.854116 -0.515710 0.989700 -0.500000 1 0 1.000000 
0 -0.000101 15.767700 0.005100 -0.000000 1.000000 0.000000 0.989700 -0.500000 1 0 1.000000 
0 7.882500 13.655200 0.142700 -0.000000 1.000000 0.000000 0.924100 -0.255100 1 0 1.000000 
light_domelight01_on
0 -7.882700 13.655200 -0.132400 -0.484104 0.701505 -0.523004 0.924100 -0.744900 1 0 1.000000 
0 -0.000101 15.767700 0.005100 -0.000000 1.000000 0.000000 0.989700 -0.500000 1 0 1.000000 
0 -0.000101 15.767700 0.005100 -0.067301 0.854116 -0.515710 0.989700 -0.500000 1 0 1.000000 
light_domelight01_on
0 -7.882700 13.655200 -0.132400 -0.484104 0.701505 -0.523004 0.924100 -0.744900 1 0 1.000000 
0 -7.882700 13.655200 -0.132400 -0.000000 1.000000 0.000000 0.924100 -0.744900 1 0 1.000000 
0 -0.000101 15.767700 0.005100 -0.000000 1.000000 0.000000 0.989700 -0.500000 1 0 1.000000 
light_domelight01_on
0 -13.653200 7.883800 -0.233200 -0.768739 0.361018 -0.527927 0.744900 -0.924100 1 0 1.000000 
0 -7.882700 13.655200 -0.132400 -0.000000 1.000000 0.000000 0.924100 -0.744900 1 0 1.000000 
0 -7.882700 13.655200 -0.132400 -0.484104 0.701505 -0.523004 0.924100 -0.744900 1 0 1.000000 
light_domelight01_on
0 -13.653200 7.883800 -0.233200 -0.768739 0.361018 -0.527927 0.744900 -0.924100 1 0 1.000000 
0 -13.653200 7.883800 -0.233200 -0.000000 1.000000 0.000000 0.744900 -0.924100 1 0 1.000000 
0 -7.882700 13.655200 -0.132400 -0.000000 1.000000 0.000000 0.924100 -0.744900 1 0 1.000000 
light_domelight01_on
0 -15.765400 -0.000001 -0.270000 -0.844998 -0.076300 -0.529299 0.500000 -0.989700 1 0 1.000000 
0 -13.653200 7.883800 -0.233200 -0.000000 1.000000 0.000000 0.744900 -0.924100 1 0 1.000000 
0 -13.653200 7.883800 -0.233200 -0.768739 0.361018 -0.527927 0.744900 -0.924100 1 0 1.000000 
light_domelight01_on
0 -15.765400 -0.000001 -0.270000 -0.844998 -0.076300 -0.529299 0.500000 -0.989700 1 0 1.000000 
0 -15.765400 -0.000001 -0.270000 -0.000000 1.000000 0.000000 0.500000 -0.989700 1 0 1.000000 
0 -13.653200 7.883800 -0.233200 -0.000000 1.000000 0.000000 0.744900 -0.924100 1 0 1.000000 
light_domelight01_on
0 -13.653200 -7.883801 -0.233200 -0.692496 -0.493097 -0.526597 0.255100 -0.924100 1 0 1.000000 
0 -15.765400 -0.000001 -0.270000 -0.000000 1.000000 0.000000 0.500000 -0.989700 1 0 1.000000 
0 -15.765400 -0.000001 -0.270000 -0.844998 -0.076300 -0.529299 0.500000 -0.989700 1 0 1.000000 
light_domelight01_on
0 -13.653200 -7.883801 -0.233200 -0.692496 -0.493097 -0.526597 0.255100 -0.924100 1 0 1.000000 
0 -13.653200 -7.883801 -0.233200 -0.000000 1.000000 0.000000 0.255100 -0.924100 1 0 1.000000 
0 -15.765400 -0.000001 -0.270000 -0.000000 1.000000 0.000000 0.500000 -0.989700 1 0 1.000000 
light_domelight01_on
0 -7.882699 -13.655200 -0.132400 -0.351999 -0.777798 -0.520699 0.075900 -0.744900 1 0 1.000000 
0 -13.653200 -7.883801 -0.233200 -0.000000 1.000000 0.000000 0.255100 -0.924100 1 0 1.000000 
0 -13.653200 -7.883801 -0.233200 -0.692496 -0.493097 -0.526597 0.255100 -0.924100 1 0 1.000000 
light_domelight01_on
0 -7.882699 -13.655200 -0.132400 -0.351999 -0.777798 -0.520699 0.075900 -0.744900 1 0 1.000000 
0 -7.882699 -13.655200 -0.132400 -0.000000 1.000000 0.000000 0.075900 -0.744900 1 0 1.000000 
0 -13.653200 -7.883801 -0.233200 -0.000000 1.000000 0.000000 0.255100 -0.924100 1 0 1.000000 
light_domelight01_on
0 -0.000099 -15.767700 0.005100 0.085303 -0.854129 -0.513017 0.010300 -0.500000 1 0 1.000000 
0 -7.882699 -13.655200 -0.132400 -0.000000 1.000000 0.000000 0.075900 -0.744900 1 0 1.000000 
0 -7.882699 -13.655200 -0.132400 -0.351999 -0.777798 -0.520699 0.075900 -0.744900 1 0 1.000000 
light_domelight01_on
0 7.338200 12.653600 -1.806600 0.375002 0.595804 -0.710205 0.897400 -0.270600 1 0 1.000000 
0 7.882500 13.655200 0.142700 0.369906 0.777814 -0.508109 0.924100 -0.255100 1 0 1.000000 
0 13.653000 7.883801 0.243500 0.710428 0.493120 -0.502120 0.744900 -0.075900 1 0 1.000000 
light_domelight01_on
0 12.685400 7.305501 -1.713200 0.624322 0.334712 -0.705825 0.729400 -0.102600 1 0 1.000000 
0 13.653000 7.883801 0.243500 0.710428 0.493120 -0.502120 0.744900 -0.075900 1 0 1.000000 
0 15.765200 0.000001 0.280300 0.862961 0.076297 -0.499477 0.500000 -0.010300 1 0 1.000000 
light_domelight01_on
0 7.338200 12.653600 -1.806600 0.375002 0.595804 -0.710205 0.897400 -0.270600 1 0 1.000000 
0 13.653000 7.883801 0.243500 0.710428 0.493120 -0.502120 0.744900 -0.075900 1 0 1.000000 
0 12.685400 7.305501 -1.713200 0.624322 0.334712 -0.705825 0.729400 -0.102600 1 0 1.000000 
light_domelight01_on
0 4.313200 7.305500 -5.424000 0.221190 0.301186 -0.927557 0.724900 -0.370100 1 0 1.000000 
0 7.338200 12.653600 -1.806600 0.375002 0.595804 -0.710205 0.897400 -0.270600 1 0 1.000000 
0 12.685400 7.305501 -1.713200 0.624322 0.334712 -0.705825 0.729400 -0.102600 1 0 1.000000 
light_domelight01_on
0 0.096000 8.435700 -5.497600 0.043199 0.363290 -0.930674 0.759700 -0.500000 1 0 1.000000 
0 7.338200 12.653600 -1.806600 0.375002 0.595804 -0.710205 0.897400 -0.270600 1 0 1.000000 
0 4.313200 7.305500 -5.424000 0.221190 0.301186 -0.927557 0.724900 -0.370100 1 0 1.000000 
light_domelight01_on
0 0.096000 8.435700 -5.497600 0.043199 0.363290 -0.930674 0.759700 -0.500000 1 0 1.000000 
0 0.033799 14.611100 -1.934000 0.028600 0.697304 -0.716204 0.958900 -0.500000 1 0 1.000000 
0 7.338200 12.653600 -1.806600 0.375002 0.595804 -0.710205 0.897400 -0.270600 1 0 1.000000 
light_domelight01_on
0 0.033799 14.611100 -1.934000 0.028600 0.697304 -0.716204 0.958900 -0.500000 1 0 1.000000 
0 7.882500 13.655200 0.142700 0.369906 0.777814 -0.508109 0.924100 -0.255100 1 0 1.000000 
0 7.338200 12.653600 -1.806600 0.375002 0.595804 -0.710205 0.897400 -0.270600 1 0 1.000000 
light_domelight01_on
0 0.033799 14.611100 -1.934000 0.028600 0.697304 -0.716204 0.958900 -0.500000 1 0 1.000000 
0 -0.000101 15.767700 0.005100 -0.067301 0.854116 -0.515710 0.989700 -0.500000 1 0 1.000000 
0 7.882500 13.655200 0.142700 0.369906 0.777814 -0.508109 0.924100 -0.255100 1 0 1.000000 
light_domelight01_on
0 -0.000099 -15.767700 0.005100 0.085303 -0.854129 -0.513017 0.010300 -0.500000 1 0 1.000000 
0 -0.000099 -15.767700 0.005100 -0.000000 1.000000 0.000000 0.010300 -0.500000 1 0 1.000000 
0 -7.882699 -13.655200 -0.132400 -0.000000 1.000000 0.000000 0.075900 -0.744900 1 0 1.000000 
light_domelight01_on
0 7.882501 -13.655200 0.142700 0.502015 -0.701521 -0.505815 0.075900 -0.255100 1 0 1.000000 
0 -0.000099 -15.767700 0.005100 -0.000000 1.000000 0.000000 0.010300 -0.500000 1 0 1.000000 
0 -0.000099 -15.767700 0.005100 0.085303 -0.854129 -0.513017 0.010300 -0.500000 1 0 1.000000 
light_domelight01_on
0 7.882501 -13.655200 0.142700 0.502015 -0.701521 -0.505815 0.075900 -0.255100 1 0 1.000000 
0 7.882501 -13.655200 0.142700 -0.000000 1.000000 0.000000 0.075900 -0.255100 1 0 1.000000 
0 -0.000099 -15.767700 0.005100 -0.000000 1.000000 0.000000 0.010300 -0.500000 1 0 1.000000 
light_domelight01_on
0 13.653000 -7.883800 0.243500 0.786693 -0.360997 -0.500795 0.255100 -0.075900 1 0 1.000000 
0 7.882501 -13.655200 0.142700 -0.000000 1.000000 0.000000 0.075900 -0.255100 1 0 1.000000 
0 7.882501 -13.655200 0.142700 0.502015 -0.701521 -0.505815 0.075900 -0.255100 1 0 1.000000 
light_domelight01_on
0 13.653000 -7.883800 0.243500 0.786693 -0.360997 -0.500795 0.255100 -0.075900 1 0 1.000000 
0 13.653000 -7.883800 0.243500 -0.000000 1.000000 0.000000 0.255100 -0.075900 1 0 1.000000 
0 7.882501 -13.655200 0.142700 -0.000000 1.000000 0.000000 0.075900 -0.255100 1 0 1.000000 
light_domelight01_on
0 15.765200 0.000001 0.280300 0.862961 0.076297 -0.499477 0.500000 -0.010300 1 0 1.000000 
0 13.653000 -7.883800 0.243500 -0.000000 1.000000 0.000000 0.255100 -0.075900 1 0 1.000000 
0 13.653000 -7.883800 0.243500 0.786693 -0.360997 -0.500795 0.255100 -0.075900 1 0 1.000000 
light_domelight01_on
0 14.642600 0.000001 -1.679100 0.709710 -0.016100 -0.704310 0.500000 -0.041100 1 0 1.000000 
0 15.765200 0.000001 0.280300 0.862961 0.076297 -0.499477 0.500000 -0.010300 1 0 1.000000 
0 13.653000 -7.883800 0.243500 0.786693 -0.360997 -0.500795 0.255100 -0.075900 1 0 1.000000 
light_domelight01_on
0 12.685400 7.305501 -1.713200 0.624322 0.334712 -0.705825 0.729400 -0.102600 1 0 1.000000 
0 15.765200 0.000001 0.280300 0.862961 0.076297 -0.499477 0.500000 -0.010300 1 0 1.000000 
0 14.642600 0.000001 -1.679100 0.709710 -0.016100 -0.704310 0.500000 -0.041100 1 0 1.000000 
light_domelight01_on
0 7.400400 4.217801 -5.370100 0.344306 0.158303 -0.925415 0.629900 -0.275100 1 0 1.000000 
0 12.685400 7.305501 -1.713200 0.624322 0.334712 -0.705825 0.729400 -0.102600 1 0 1.000000 
0 14.642600 0.000001 -1.679100 0.709710 -0.016100 -0.704310 0.500000 -0.041100 1 0 1.000000 
light_domelight01_on
0 4.313200 7.305500 -5.424000 0.221190 0.301186 -0.927557 0.724900 -0.370100 1 0 1.000000 
0 12.685400 7.305501 -1.713200 0.624322 0.334712 -0.705825 0.729400 -0.102600 1 0 1.000000 
0 7.400400 4.217801 -5.370100 0.344306 0.158303 -0.925415 0.629900 -0.275100 1 0 1.000000 
light_domelight01_on
0 0.118700 0.000000 -6.801900 0.017501 0.000000 -0.999847 0.500000 -0.500000 1 0 1.000000 
0 4.313200 7.305500 -5.424000 0.221190 0.301186 -0.927557 0.724900 -0.370100 1 0 1.000000 
0 7.400400 4.217801 -5.370100 0.344306 0.158303 -0.925415 0.629900 -0.275100 1 0 1.000000 
light_domelight01_on
0 0.118700 0.000000 -6.801900 0.017501 0.000000 -0.999847 0.500000 -0.500000 1 0 1.000000 
0 0.096000 8.435700 -5.497600 0.043199 0.363290 -0.930674 0.759700 -0.500000 1 0 1.000000 
0 4.313200 7.305500 -5.424000 0.221190 0.301186 -0.927557 0.724900 -0.370100 1 0 1.000000 
light_domelight01_on
0 0.118700 0.000000 -6.801900 0.017501 0.000000 -0.999847 0.500000 -0.500000 1 0 1.000000 
0 -4.121201 7.305500 -5.571200 -0.142099 0.328098 -0.933895 0.724900 -0.629900 1 0 1.000000 
0 0.096000 8.435700 -5.497600 0.043199 0.363290 -0.930674 0.759700 -0.500000 1 0 1.000000 
light_domelight01_on
0 -4.121201 7.305500 -5.571200 -0.142099 0.328098 -0.933895 0.724900 -0.629900 1 0 1.000000 
0 0.033799 14.611100 -1.934000 0.028600 0.697304 -0.716204 0.958900 -0.500000 1 0 1.000000 
0 0.096000 8.435700 -5.497600 0.043199 0.363290 -0.930674 0.759700 -0.500000 1 0 1.000000 
light_domelight01_on
0 -4.121201 7.305500 -5.571200 -0.142099 0.328098 -0.933895 0.724900 -0.629900 1 0 1.000000 
0 -7.270700 12.653600 -2.061500 -0.322095 0.611890 -0.722388 0.897400 -0.729400 1 0 1.000000 
0 0.033799 14.611100 -1.934000 0.028600 0.697304 -0.716204 0.958900 -0.500000 1 0 1.000000 
light_domelight01_on
0 -7.270700 12.653600 -2.061500 -0.322095 0.611890 -0.722388 0.897400 -0.729400 1 0 1.000000 
0 -0.000101 15.767700 0.005100 -0.067301 0.854116 -0.515710 0.989700 -0.500000 1 0 1.000000 
0 0.033799 14.611100 -1.934000 0.028600 0.697304 -0.716204 0.958900 -0.500000 1 0 1.000000 
light_domelight01_on
0 -7.270700 12.653600 -2.061500 -0.322095 0.611890 -0.722388 0.897400 -0.729400 1 0 1.000000 
0 -7.882700 13.655200 -0.132400 -0.484104 0.701505 -0.523004 0.924100 -0.744900 1 0 1.000000 
0 -0.000101 15.767700 0.005100 -0.067301 0.854116 -0.515710 0.989700 -0.500000 1 0 1.000000 
light_domelight01_on
0 -12.617900 7.305500 -2.154900 -0.583204 0.362603 -0.726906 0.729400 -0.897400 1 0 1.000000 
0 -7.882700 13.655200 -0.132400 -0.484104 0.701505 -0.523004 0.924100 -0.744900 1 0 1.000000 
0 -7.270700 12.653600 -2.061500 -0.322095 0.611890 -0.722388 0.897400 -0.729400 1 0 1.000000 
light_domelight01_on
0 -12.617900 7.305500 -2.154900 -0.583204 0.362603 -0.726906 0.729400 -0.897400 1 0 1.000000 
0 -13.653200 7.883800 -0.233200 -0.768739 0.361018 -0.527927 0.744900 -0.924100 1 0 1.000000 
0 -7.882700 13.655200 -0.132400 -0.484104 0.701505 -0.523004 0.924100 -0.744900 1 0 1.000000 
light_domelight01_on
0 -14.575100 -0.000001 -2.189000 -0.684674 0.016099 -0.728672 0.500000 -0.958900 1 0 1.000000 
0 -13.653200 7.883800 -0.233200 -0.768739 0.361018 -0.527927 0.744900 -0.924100 1 0 1.000000 
0 -12.617900 7.305500 -2.154900 -0.583204 0.362603 -0.726906 0.729400 -0.897400 1 0 1.000000 
light_domelight01_on
0 -14.575100 -0.000001 -2.189000 -0.684674 0.016099 -0.728672 0.500000 -0.958900 1 0 1.000000 
0 -15.765400 -0.000001 -0.270000 -0.844998 -0.076300 -0.529299 0.500000 -0.989700 1 0 1.000000 
0 -13.653200 7.883800 -0.233200 -0.768739 0.361018 -0.527927 0.744900 -0.924100 1 0 1.000000 
light_domelight01_on
0 -12.617900 -7.305501 -2.154900 -0.599299 -0.334699 -0.727198 0.270600 -0.897400 1 0 1.000000 
0 -15.765400 -0.000001 -0.270000 -0.844998 -0.076300 -0.529299 0.500000 -0.989700 1 0 1.000000 
0 -14.575100 -0.000001 -2.189000 -0.684674 0.016099 -0.728672 0.500000 -0.958900 1 0 1.000000 
light_domelight01_on
0 -12.617900 -7.305501 -2.154900 -0.599299 -0.334699 -0.727198 0.270600 -0.897400 1 0 1.000000 
0 -13.653200 -7.883801 -0.233200 -0.692496 -0.493097 -0.526597 0.255100 -0.924100 1 0 1.000000 
0 -15.765400 -0.000001 -0.270000 -0.844998 -0.076300 -0.529299 0.500000 -0.989700 1 0 1.000000 
light_domelight01_on
0 -7.270700 -12.653600 -2.061500 -0.350014 -0.595824 -0.722830 0.102600 -0.729400 1 0 1.000000 
0 -13.653200 -7.883801 -0.233200 -0.692496 -0.493097 -0.526597 0.255100 -0.924100 1 0 1.000000 
0 -12.617900 -7.305501 -2.154900 -0.599299 -0.334699 -0.727198 0.270600 -0.897400 1 0 1.000000 
light_domelight01_on
0 -7.270700 -12.653600 -2.061500 -0.350014 -0.595824 -0.722830 0.102600 -0.729400 1 0 1.000000 
0 -7.882699 -13.655200 -0.132400 -0.351999 -0.777798 -0.520699 0.075900 -0.744900 1 0 1.000000 
0 -13.653200 -7.883801 -0.233200 -0.692496 -0.493097 -0.526597 0.255100 -0.924100 1 0 1.000000 
light_domelight01_on
0 0.033801 -14.611100 -1.934000 -0.003600 -0.697285 -0.716785 0.041100 -0.500000 1 0 1.000000 
0 -7.882699 -13.655200 -0.132400 -0.351999 -0.777798 -0.520699 0.075900 -0.744900 1 0 1.000000 
0 -7.270700 -12.653600 -2.061500 -0.350014 -0.595824 -0.722830 0.102600 -0.729400 1 0 1.000000 
light_domelight01_on
0 0.033801 -14.611100 -1.934000 -0.003600 -0.697285 -0.716785 0.041100 -0.500000 1 0 1.000000 
0 -0.000099 -15.767700 0.005100 0.085303 -0.854129 -0.513017 0.010300 -0.500000 1 0 1.000000 
0 -7.882699 -13.655200 -0.132400 -0.351999 -0.777798 -0.520699 0.075900 -0.744900 1 0 1.000000 
light_domelight01_on
0 7.338201 -12.653600 -1.806600 0.347101 -0.611902 -0.710702 0.102600 -0.270600 1 0 1.000000 
0 -0.000099 -15.767700 0.005100 0.085303 -0.854129 -0.513017 0.010300 -0.500000 1 0 1.000000 
0 0.033801 -14.611100 -1.934000 -0.003600 -0.697285 -0.716785 0.041100 -0.500000 1 0 1.000000 
light_domelight01_on
0 7.338201 -12.653600 -1.806600 0.347101 -0.611902 -0.710702 0.102600 -0.270600 1 0 1.000000 
0 7.882501 -13.655200 0.142700 0.502015 -0.701521 -0.505815 0.075900 -0.255100 1 0 1.000000 
0 -0.000099 -15.767700 0.005100 0.085303 -0.854129 -0.513017 0.010300 -0.500000 1 0 1.000000 
light_domelight01_on
0 12.685400 -7.305500 -1.713200 0.608211 -0.362607 -0.706113 0.270600 -0.102600 1 0 1.000000 
0 7.882501 -13.655200 0.142700 0.502015 -0.701521 -0.505815 0.075900 -0.255100 1 0 1.000000 
0 7.338201 -12.653600 -1.806600 0.347101 -0.611902 -0.710702 0.102600 -0.270600 1 0 1.000000 
light_domelight01_on
0 12.685400 -7.305500 -1.713200 0.608211 -0.362607 -0.706113 0.270600 -0.102600 1 0 1.000000 
0 13.653000 -7.883800 0.243500 0.786693 -0.360997 -0.500795 0.255100 -0.075900 1 0 1.000000 
0 7.882501 -13.655200 0.142700 0.502015 -0.701521 -0.505815 0.075900 -0.255100 1 0 1.000000 
light_domelight01_on
0 14.642600 0.000001 -1.679100 0.709710 -0.016100 -0.704310 0.500000 -0.041100 1 0 1.000000 
0 13.653000 -7.883800 0.243500 0.786693 -0.360997 -0.500795 0.255100 -0.075900 1 0 1.000000 
0 12.685400 -7.305500 -1.713200 0.608211 -0.362607 -0.706113 0.270600 -0.102600 1 0 1.000000 
light_domelight01_on
0 8.530400 0.000000 -5.350400 0.379500 -0.026900 -0.924800 0.500000 -0.240300 1 0 1.000000 
0 14.642600 0.000001 -1.679100 0.709710 -0.016100 -0.704310 0.500000 -0.041100 1 0 1.000000 
0 12.685400 -7.305500 -1.713200 0.608211 -0.362607 -0.706113 0.270600 -0.102600 1 0 1.000000 
light_domelight01_on
0 7.400400 4.217801 -5.370100 0.344306 0.158303 -0.925415 0.629900 -0.275100 1 0 1.000000 
0 14.642600 0.000001 -1.679100 0.709710 -0.016100 -0.704310 0.500000 -0.041100 1 0 1.000000 
0 8.530400 0.000000 -5.350400 0.379500 -0.026900 -0.924800 0.500000 -0.240300 1 0 1.000000 
light_domelight01_on
0 0.118700 0.000000 -6.801900 0.017501 0.000000 -0.999847 0.500000 -0.500000 1 0 1.000000 
0 7.400400 4.217801 -5.370100 0.344306 0.158303 -0.925415 0.629900 -0.275100 1 0 1.000000 
0 8.530400 0.000000 -5.350400 0.379500 -0.026900 -0.924800 0.500000 -0.240300 1 0 1.000000 
light_domelight01_on
0 0.118700 0.000000 -6.801900 0.017501 0.000000 -0.999847 0.500000 -0.500000 1 0 1.000000 
0 8.530400 0.000000 -5.350400 0.379500 -0.026900 -0.924800 0.500000 -0.240300 1 0 1.000000 
0 7.400400 -4.217899 -5.370100 0.317391 -0.204994 -0.925873 0.370100 -0.275100 1 0 1.000000 
light_domelight01_on
0 8.530400 0.000000 -5.350400 0.379500 -0.026900 -0.924800 0.500000 -0.240300 1 0 1.000000 
0 12.685400 -7.305500 -1.713200 0.608211 -0.362607 -0.706113 0.270600 -0.102600 1 0 1.000000 
0 7.400400 -4.217899 -5.370100 0.317391 -0.204994 -0.925873 0.370100 -0.275100 1 0 1.000000 
light_domelight01_on
0 7.400400 -4.217899 -5.370100 0.317391 -0.204994 -0.925873 0.370100 -0.275100 1 0 1.000000 
0 12.685400 -7.305500 -1.713200 0.608211 -0.362607 -0.706113 0.270600 -0.102600 1 0 1.000000 
0 7.338201 -12.653600 -1.806600 0.347101 -0.611902 -0.710702 0.102600 -0.270600 1 0 1.000000 
light_domelight01_on
0 0.118700 0.000000 -6.801900 0.017501 0.000000 -0.999847 0.500000 -0.500000 1 0 1.000000 
0 7.400400 -4.217899 -5.370100 0.317391 -0.204994 -0.925873 0.370100 -0.275100 1 0 1.000000 
0 4.313200 -7.305500 -5.424000 0.174595 -0.328090 -0.928371 0.275100 -0.370100 1 0 1.000000 
light_domelight01_on
0 7.400400 -4.217899 -5.370100 0.317391 -0.204994 -0.925873 0.370100 -0.275100 1 0 1.000000 
0 7.338201 -12.653600 -1.806600 0.347101 -0.611902 -0.710702 0.102600 -0.270600 1 0 1.000000 
0 4.313200 -7.305500 -5.424000 0.174595 -0.328090 -0.928371 0.275100 -0.370100 1 0 1.000000 
light_domelight01_on
0 4.313200 -7.305500 -5.424000 0.174595 -0.328090 -0.928371 0.275100 -0.370100 1 0 1.000000 
0 7.338201 -12.653600 -1.806600 0.347101 -0.611902 -0.710702 0.102600 -0.270600 1 0 1.000000 
0 0.033801 -14.611100 -1.934000 -0.003600 -0.697285 -0.716785 0.041100 -0.500000 1 0 1.000000 
light_domelight01_on
0 4.313200 -7.305500 -5.424000 0.174595 -0.328090 -0.928371 0.275100 -0.370100 1 0 1.000000 
0 0.033801 -14.611100 -1.934000 -0.003600 -0.697285 -0.716785 0.041100 -0.500000 1 0 1.000000 
0 0.096000 -8.435700 -5.497600 -0.010700 -0.363304 -0.931609 0.240300 -0.500000 1 0 1.000000 
light_domelight01_on
0 0.096000 -8.435700 -5.497600 -0.010700 -0.363304 -0.931609 0.240300 -0.500000 1 0 1.000000 
0 0.033801 -14.611100 -1.934000 -0.003600 -0.697285 -0.716785 0.041100 -0.500000 1 0 1.000000 
0 -7.270700 -12.653600 -2.061500 -0.350014 -0.595824 -0.722830 0.102600 -0.729400 1 0 1.000000 
light_domelight01_on
0 0.096000 -8.435700 -5.497600 -0.010700 -0.363304 -0.931609 0.240300 -0.500000 1 0 1.000000 
0 -7.270700 -12.653600 -2.061500 -0.350014 -0.595824 -0.722830 0.102600 -0.729400 1 0 1.000000 
0 -4.121200 -7.305500 -5.571200 -0.188701 -0.301201 -0.934703 0.275100 -0.629900 1 0 1.000000 
light_domelight01_on
0 -4.121200 -7.305500 -5.571200 -0.188701 -0.301201 -0.934703 0.275100 -0.629900 1 0 1.000000 
0 -7.270700 -12.653600 -2.061500 -0.350014 -0.595824 -0.722830 0.102600 -0.729400 1 0 1.000000 
0 -12.617900 -7.305501 -2.154900 -0.599299 -0.334699 -0.727198 0.270600 -0.897400 1 0 1.000000 
light_domelight01_on
0 -4.121200 -7.305500 -5.571200 -0.188701 -0.301201 -0.934703 0.275100 -0.629900 1 0 1.000000 
0 -12.617900 -7.305501 -2.154900 -0.599299 -0.334699 -0.727198 0.270600 -0.897400 1 0 1.000000 
0 -7.208500 -4.217900 -5.625100 -0.311791 -0.158295 -0.936872 0.370100 -0.724900 1 0 1.000000 
light_domelight01_on
0 -7.208500 -4.217900 -5.625100 -0.311791 -0.158295 -0.936872 0.370100 -0.724900 1 0 1.000000 
0 -12.617900 -7.305501 -2.154900 -0.599299 -0.334699 -0.727198 0.270600 -0.897400 1 0 1.000000 
0 -14.575100 -0.000001 -2.189000 -0.684674 0.016099 -0.728672 0.500000 -0.958900 1 0 1.000000 
light_domelight01_on
0 -7.208500 -4.217900 -5.625100 -0.311791 -0.158295 -0.936872 0.370100 -0.724900 1 0 1.000000 
0 -14.575100 -0.000001 -2.189000 -0.684674 0.016099 -0.728672 0.500000 -0.958900 1 0 1.000000 
0 -8.338500 -0.000000 -5.644800 -0.346993 0.026899 -0.937482 0.500000 -0.759700 1 0 1.000000 
light_domelight01_on
0 -8.338500 -0.000000 -5.644800 -0.346993 0.026899 -0.937482 0.500000 -0.759700 1 0 1.000000 
0 -14.575100 -0.000001 -2.189000 -0.684674 0.016099 -0.728672 0.500000 -0.958900 1 0 1.000000 
0 -12.617900 7.305500 -2.154900 -0.583204 0.362603 -0.726906 0.729400 -0.897400 1 0 1.000000 
light_domelight01_on
0 -8.338500 -0.000000 -5.644800 -0.346993 0.026899 -0.937482 0.500000 -0.759700 1 0 1.000000 
0 -12.617900 7.305500 -2.154900 -0.583204 0.362603 -0.726906 0.729400 -0.897400 1 0 1.000000 
0 -7.208500 4.217899 -5.625100 -0.284895 0.204996 -0.936382 0.629900 -0.724900 1 0 1.000000 
light_domelight01_on
0 -7.208500 4.217899 -5.625100 -0.284895 0.204996 -0.936382 0.629900 -0.724900 1 0 1.000000 
0 -12.617900 7.305500 -2.154900 -0.583204 0.362603 -0.726906 0.729400 -0.897400 1 0 1.000000 
0 -7.270700 12.653600 -2.061500 -0.322095 0.611890 -0.722388 0.897400 -0.729400 1 0 1.000000 
light_domelight01_on
0 -7.208500 4.217899 -5.625100 -0.284895 0.204996 -0.936382 0.629900 -0.724900 1 0 1.000000 
0 -7.270700 12.653600 -2.061500 -0.322095 0.611890 -0.722388 0.897400 -0.729400 1 0 1.000000 
0 -4.121201 7.305500 -5.571200 -0.142099 0.328098 -0.933895 0.724900 -0.629900 1 0 1.000000 
light_domelight01_on
0 0.118700 0.000000 -6.801900 0.017501 0.000000 -0.999847 0.500000 -0.500000 1 0 1.000000 
0 -7.208500 4.217899 -5.625100 -0.284895 0.204996 -0.936382 0.629900 -0.724900 1 0 1.000000 
0 -4.121201 7.305500 -5.571200 -0.142099 0.328098 -0.933895 0.724900 -0.629900 1 0 1.000000 
light_domelight01_on
0 0.118700 0.000000 -6.801900 0.017501 0.000000 -0.999847 0.500000 -0.500000 1 0 1.000000 
0 -8.338500 -0.000000 -5.644800 -0.346993 0.026899 -0.937482 0.500000 -0.759700 1 0 1.000000 
0 -7.208500 4.217899 -5.625100 -0.284895 0.204996 -0.936382 0.629900 -0.724900 1 0 1.000000 
light_domelight01_on
0 0.118700 0.000000 -6.801900 0.017501 0.000000 -0.999847 0.500000 -0.500000 1 0 1.000000 
0 -7.208500 -4.217900 -5.625100 -0.311791 -0.158295 -0.936872 0.370100 -0.724900 1 0 1.000000 
0 -8.338500 -0.000000 -5.644800 -0.346993 0.026899 -0.937482 0.500000 -0.759700 1 0 1.000000 
light_domelight01_on
0 0.118700 0.000000 -6.801900 0.017501 0.000000 -0.999847 0.500000 -0.500000 1 0 1.000000 
0 -4.121200 -7.305500 -5.571200 -0.188701 -0.301201 -0.934703 0.275100 -0.629900 1 0 1.000000 
0 -7.208500 -4.217900 -5.625100 -0.311791 -0.158295 -0.936872 0.370100 -0.724900 1 0 1.000000 
light_domelight01_on
0 0.118700 0.000000 -6.801900 0.017501 0.000000 -0.999847 0.500000 -0.500000 1 0 1.000000 
0 0.096000 -8.435700 -5.497600 -0.010700 -0.363304 -0.931609 0.240300 -0.500000 1 0 1.000000 
0 -4.121200 -7.305500 -5.571200 -0.188701 -0.301201 -0.934703 0.275100 -0.629900 1 0 1.000000 
light_domelight01_on
0 0.118700 0.000000 -6.801900 0.017501 0.000000 -0.999847 0.500000 -0.500000 1 0 1.000000 
0 4.313200 -7.305500 -5.424000 0.174595 -0.328090 -0.928371 0.275100 -0.370100 1 0 1.000000 
0 0.096000 -8.435700 -5.497600 -0.010700 -0.363304 -0.931609 0.240300 -0.500000 1 0 1.000000 
end
