version 1
nodes
  0 "static_prop" -1
end
skeleton
time 0
0 0.000000 0.000000 0.000000 0.000000 0.000000 0.000000
end
triangles
prison_yard001
0 16.159796 65.481003 22.062799 -0.871346 -0.000000 0.490669 0.043800 -0.615500 1 0 1.000000 
0 16.159798 62.676899 22.062799 -0.871346 -0.000000 0.490669 0.021800 -0.615500 1 0 1.000000 
0 17.599699 62.676899 24.619900 -0.871346 -0.000000 0.490669 0.021800 -0.593400 1 0 1.000000 
prison_yard001
0 -6.455302 59.852600 -9.808600 1.000000 0.000000 -0.000100 0.013100 -0.800100 1 0 1.000000 
0 -6.457002 59.852600 -23.257900 1.000000 0.000000 -0.000100 0.013100 -0.905200 1 0 1.000000 
0 -6.457003 68.295601 -23.257900 1.000000 0.000000 -0.000100 0.079100 -0.905200 1 0 1.000000 
prison_yard001
0 -6.457003 68.295601 -23.257900 1.000000 0.000000 -0.000100 0.079100 -0.905200 1 0 1.000000 
0 -6.455303 68.295601 -9.808600 1.000000 0.000000 -0.000100 0.079100 -0.800100 1 0 1.000000 
0 -6.455302 59.852600 -9.808600 1.000000 0.000000 -0.000100 0.013100 -0.800100 1 0 1.000000 
prison_yard001
0 17.430405 -65.471298 19.760700 0.754827 0.000000 -0.655924 0.104700 -0.597400 1 0 1.000000 
0 -8.440897 -66.693298 -10.010400 0.754827 0.000000 -0.655924 0.095200 -0.905600 1 0 1.000000 
0 -8.440897 -61.445202 -10.010400 0.754827 0.000000 -0.655924 0.136200 -0.905600 1 0 1.000000 
prison_yard001
0 -8.440897 -61.445202 -10.010400 0.754827 0.000000 -0.655924 0.136200 -0.905600 1 0 1.000000 
0 17.430403 -62.667198 19.760700 0.754827 0.000000 -0.655924 0.126600 -0.597400 1 0 1.000000 
0 17.430405 -65.471298 19.760700 0.754827 0.000000 -0.655924 0.104700 -0.597400 1 0 1.000000 
prison_yard001
0 18.702995 65.481003 24.213800 0.961501 0.000000 -0.274800 0.122700 -0.585200 1 0 1.000000 
0 18.702997 62.676899 24.213800 0.961501 0.000000 -0.274800 0.100800 -0.585200 1 0 1.000000 
0 17.430399 62.676899 19.760700 0.961501 0.000000 -0.274800 0.100800 -0.621400 1 0 1.000000 
prison_yard001
0 17.430399 62.676899 19.760700 0.961501 0.000000 -0.274800 0.100800 -0.621400 1 0 1.000000 
0 17.430397 65.481003 19.760700 0.961501 0.000000 -0.274800 0.122700 -0.621400 1 0 1.000000 
0 18.702995 65.481003 24.213800 0.961501 0.000000 -0.274800 0.122700 -0.585200 1 0 1.000000 
prison_yard001
0 17.430399 62.676899 19.760700 0.754827 0.000000 -0.655924 0.100800 -0.621600 1 0 1.000000 
0 -8.440903 61.454899 -10.010400 0.754827 0.000000 -0.655924 0.091200 -0.929700 1 0 1.000000 
0 -8.440903 66.702904 -10.010400 0.754827 0.000000 -0.655924 0.132200 -0.929700 1 0 1.000000 
prison_yard001
0 -8.440903 66.702904 -10.010400 0.754827 0.000000 -0.655924 0.132200 -0.929700 1 0 1.000000 
0 17.430397 65.481003 19.760700 0.754827 0.000000 -0.655924 0.122700 -0.621600 1 0 1.000000 
0 17.430399 62.676899 19.760700 0.754827 0.000000 -0.655924 0.100800 -0.621600 1 0 1.000000 
prison_yard001
0 -6.456997 -68.295601 -23.257900 0.505512 0.000000 -0.862820 0.011100 -0.921800 1 0 1.000000 
0 -8.781497 -68.295601 -24.619900 0.505512 0.000000 -0.862820 0.011100 -0.942900 1 0 1.000000 
0 -8.781497 -59.852600 -24.619900 0.505512 0.000000 -0.862820 0.077100 -0.942900 1 0 1.000000 
prison_yard001
0 -8.781497 -59.852600 -24.619900 0.505512 0.000000 -0.862820 0.077100 -0.942900 1 0 1.000000 
0 -6.456997 -59.852600 -23.257900 0.505512 0.000000 -0.862820 0.077100 -0.921800 1 0 1.000000 
0 -6.456997 -68.295601 -23.257900 0.505512 0.000000 -0.862820 0.011100 -0.921800 1 0 1.000000 
prison_yard001
0 -6.457002 59.852600 -23.257900 0.505512 0.000000 -0.862820 0.007200 -0.946000 1 0 1.000000 
0 -8.781503 59.852600 -24.619900 0.505512 0.000000 -0.862820 0.007200 -0.967000 1 0 1.000000 
0 -8.781503 68.295601 -24.619900 0.505512 0.000000 -0.862820 0.073100 -0.967000 1 0 1.000000 
prison_yard001
0 -8.781503 68.295601 -24.619900 0.505512 0.000000 -0.862820 0.073100 -0.967000 1 0 1.000000 
0 -6.457003 68.295601 -23.257900 0.505512 0.000000 -0.862820 0.073100 -0.946000 1 0 1.000000 
0 -6.457002 59.852600 -23.257900 0.505512 0.000000 -0.862820 0.007200 -0.946000 1 0 1.000000 
prison_yard001
0 17.430405 -65.471298 19.760700 0.961501 0.000000 -0.274800 0.104700 -0.597200 1 0 1.000000 
0 17.430403 -62.667198 19.760700 0.961501 0.000000 -0.274800 0.126600 -0.597200 1 0 1.000000 
0 18.703001 -62.667198 24.213800 0.961501 0.000000 -0.274800 0.126600 -0.561000 1 0 1.000000 
prison_yard001
0 18.703001 -62.667198 24.213800 0.961501 0.000000 -0.274800 0.126600 -0.561000 1 0 1.000000 
0 18.703003 -65.471298 24.213800 0.961501 0.000000 -0.274800 0.104700 -0.561000 1 0 1.000000 
0 17.430405 -65.471298 19.760700 0.961501 0.000000 -0.274800 0.104700 -0.597200 1 0 1.000000 
prison_yard001
0 16.159801 -62.667198 22.062799 -0.709253 -0.000000 0.704954 0.047700 -0.591300 1 0 1.000000 
0 -15.784197 -61.445202 -10.076100 -0.709253 -0.000000 0.704954 0.057200 -0.945300 1 0 1.000000 
0 -15.784197 -66.693298 -10.076100 -0.709253 -0.000000 0.704954 0.016200 -0.945300 1 0 1.000000 
prison_yard001
0 -15.784197 -66.693298 -10.076100 -0.709253 -0.000000 0.704954 0.016200 -0.945300 1 0 1.000000 
0 16.159803 -65.471298 22.062799 -0.709253 -0.000000 0.704954 0.025800 -0.591300 1 0 1.000000 
0 16.159801 -62.667198 22.062799 -0.709253 -0.000000 0.704954 0.047700 -0.591300 1 0 1.000000 
prison_yard001
0 16.159796 65.481003 22.062799 -0.709253 -0.000000 0.704954 0.043800 -0.615500 1 0 1.000000 
0 -15.784203 66.702904 -10.076100 -0.709253 -0.000000 0.704954 0.053300 -0.969500 1 0 1.000000 
0 -15.784203 61.454899 -10.076100 -0.709253 -0.000000 0.704954 0.012300 -0.969500 1 0 1.000000 
prison_yard001
0 -15.784203 61.454899 -10.076100 -0.709253 -0.000000 0.704954 0.012300 -0.969500 1 0 1.000000 
0 16.159798 62.676899 22.062799 -0.709253 -0.000000 0.704954 0.021800 -0.615500 1 0 1.000000 
0 16.159796 65.481003 22.062799 -0.709253 -0.000000 0.704954 0.043800 -0.615500 1 0 1.000000 
prison_yard001
0 -17.761898 -59.852600 -9.805200 0.000300 0.000000 1.000000 0.083000 -0.790500 1 0 1.000000 
0 -17.761896 -68.295601 -9.805200 0.000300 0.000000 1.000000 0.017000 -0.790500 1 0 1.000000 
0 -6.455297 -68.295601 -9.808600 0.000300 0.000000 1.000000 0.017000 -0.702200 1 0 1.000000 
prison_yard001
0 -6.455297 -68.295601 -9.808600 0.000300 0.000000 1.000000 0.017000 -0.702200 1 0 1.000000 
0 -6.455297 -59.852600 -9.808600 0.000300 0.000000 1.000000 0.083000 -0.702200 1 0 1.000000 
0 -17.761898 -59.852600 -9.805200 0.000300 0.000000 1.000000 0.083000 -0.790500 1 0 1.000000 
prison_yard001
0 -6.455297 -68.295601 -9.808600 1.000000 0.000000 -0.000100 0.017000 -0.776000 1 0 1.000000 
0 -6.456997 -68.295601 -23.257900 1.000000 0.000000 -0.000100 0.017000 -0.881000 1 0 1.000000 
0 -6.456997 -59.852600 -23.257900 1.000000 0.000000 -0.000100 0.083000 -0.881000 1 0 1.000000 
prison_yard001
0 -6.456997 -59.852600 -23.257900 1.000000 0.000000 -0.000100 0.083000 -0.881000 1 0 1.000000 
0 -6.455297 -59.852600 -9.808600 1.000000 0.000000 -0.000100 0.083000 -0.776000 1 0 1.000000 
0 -6.455297 -68.295601 -9.808600 1.000000 0.000000 -0.000100 0.017000 -0.776000 1 0 1.000000 
prison_yard001
0 -6.455302 59.852600 -9.808600 0.000300 0.000000 1.000000 0.013100 -0.726400 1 0 1.000000 
0 -6.455303 68.295601 -9.808600 0.000300 0.000000 1.000000 0.079100 -0.726400 1 0 1.000000 
0 -17.761904 68.295601 -9.805200 0.000300 0.000000 1.000000 0.079100 -0.814700 1 0 1.000000 
prison_yard001
0 -17.761904 68.295601 -9.805200 0.000300 0.000000 1.000000 0.079100 -0.814700 1 0 1.000000 
0 -17.761902 59.852600 -9.805200 0.000300 0.000000 1.000000 0.013100 -0.814700 1 0 1.000000 
0 -6.455302 59.852600 -9.808600 0.000300 0.000000 1.000000 0.013100 -0.726400 1 0 1.000000 
prison_yard001
0 -6.455303 68.295601 -9.808600 -0.000000 1.000000 0.000000 0.020500 -0.761000 1 0 1.000000 
0 -6.457003 68.295601 -23.257900 -0.000000 1.000000 0.000000 0.020500 -0.866100 1 0 1.000000 
0 -8.781503 68.295601 -24.619900 -0.000000 1.000000 0.000000 0.038600 -0.876700 1 0 1.000000 
prison_yard001
0 -8.781503 68.295601 -24.619900 -0.000000 1.000000 0.000000 0.038600 -0.876700 1 0 1.000000 
0 -8.781503 68.295601 -12.621600 -0.000000 1.000000 0.000000 0.038600 -0.783000 1 0 1.000000 
0 -6.455303 68.295601 -9.808600 -0.000000 1.000000 0.000000 0.020500 -0.761000 1 0 1.000000 
prison_yard001
0 -6.455303 68.295601 -9.808600 -0.000000 1.000000 0.000000 0.020500 -0.761000 1 0 1.000000 
0 -8.781503 68.295601 -12.621600 -0.000000 1.000000 0.000000 0.038600 -0.783000 1 0 1.000000 
0 -18.703003 68.295601 -12.637900 -0.000000 1.000000 0.000000 0.116200 -0.783100 1 0 1.000000 
prison_yard001
0 -18.703003 68.295601 -12.637900 -0.000000 1.000000 0.000000 0.116200 -0.783100 1 0 1.000000 
0 -17.761904 68.295601 -9.805200 -0.000000 1.000000 0.000000 0.108800 -0.761000 1 0 1.000000 
0 -6.455303 68.295601 -9.808600 -0.000000 1.000000 0.000000 0.020500 -0.761000 1 0 1.000000 
prison_yard001
0 17.599699 62.676899 24.619900 0.345386 0.000000 0.938461 0.066100 -0.594600 1 0 1.000000 
0 18.702997 62.676899 24.213800 0.345386 0.000000 0.938461 0.066100 -0.585400 1 0 1.000000 
0 18.702995 65.481003 24.213800 0.345386 0.000000 0.938461 0.088000 -0.585400 1 0 1.000000 
prison_yard001
0 -15.784197 -66.693298 -10.076100 0.012101 -0.999548 0.027501 0.181000 -0.944900 1 0 1.000000 
0 -8.440897 -66.693298 -10.010400 -0.000400 -0.999147 0.041302 0.138000 -0.906900 1 0 1.000000 
0 17.430405 -65.471298 19.760700 0.012101 -0.999548 0.027501 0.138100 -0.598800 1 0 1.000000 
prison_yard001
0 17.430405 -65.471298 19.760700 0.012101 -0.999548 0.027501 0.138100 -0.598800 1 0 1.000000 
0 16.159803 -65.471298 22.062799 0.024600 -0.999605 0.013600 0.157400 -0.591700 1 0 1.000000 
0 -15.784197 -66.693298 -10.076100 0.012101 -0.999548 0.027501 0.181000 -0.944900 1 0 1.000000 
prison_yard001
0 16.159803 -65.471298 22.062799 0.024600 -0.999605 0.013600 0.157400 -0.591700 1 0 1.000000 
0 17.430405 -65.471298 19.760700 0.012101 -0.999548 0.027501 0.138100 -0.598800 1 0 1.000000 
0 18.703003 -65.471298 24.213800 0.000000 -1.000000 0.000000 0.153400 -0.566000 1 0 1.000000 
prison_yard001
0 18.703003 -65.471298 24.213800 0.000000 -1.000000 0.000000 0.153400 -0.566000 1 0 1.000000 
0 17.599705 -65.471298 24.619900 0.000000 -1.000000 0.000000 0.162000 -0.569300 1 0 1.000000 
0 16.159803 -65.471298 22.062799 0.024600 -0.999605 0.013600 0.157400 -0.591700 1 0 1.000000 
prison_yard001
0 -15.784203 61.454899 -10.076100 0.012101 -0.999548 0.027501 0.177000 -0.969100 1 0 1.000000 
0 -8.440903 61.454899 -10.010400 -0.000400 -0.999147 0.041302 0.134100 -0.931100 1 0 1.000000 
0 17.430399 62.676899 19.760700 0.012101 -0.999548 0.027501 0.134100 -0.622900 1 0 1.000000 
prison_yard001
0 17.430399 62.676899 19.760700 0.012101 -0.999548 0.027501 0.134100 -0.622900 1 0 1.000000 
0 16.159798 62.676899 22.062799 0.024600 -0.999605 0.013600 0.153400 -0.615900 1 0 1.000000 
0 -15.784203 61.454899 -10.076100 0.012101 -0.999548 0.027501 0.177000 -0.969100 1 0 1.000000 
prison_yard001
0 16.159798 62.676899 22.062799 0.024600 -0.999605 0.013600 0.153400 -0.615900 1 0 1.000000 
0 17.430399 62.676899 19.760700 0.012101 -0.999548 0.027501 0.134100 -0.622900 1 0 1.000000 
0 18.702997 62.676899 24.213800 0.000000 -1.000000 0.000000 0.149400 -0.590200 1 0 1.000000 
prison_yard001
0 18.702997 62.676899 24.213800 0.000000 -1.000000 0.000000 0.149400 -0.590200 1 0 1.000000 
0 17.599699 62.676899 24.619900 0.000000 -1.000000 0.000000 0.158000 -0.593400 1 0 1.000000 
0 16.159798 62.676899 22.062799 0.024600 -0.999605 0.013600 0.153400 -0.615900 1 0 1.000000 
prison_yard001
0 -18.702997 -59.852600 -12.637900 -0.000000 1.000000 0.000000 0.120100 -0.758900 1 0 1.000000 
0 -17.761898 -59.852600 -9.805200 -0.000000 1.000000 0.000000 0.112700 -0.736800 1 0 1.000000 
0 -6.455297 -59.852600 -9.808600 -0.000000 1.000000 0.000000 0.024400 -0.736800 1 0 1.000000 
prison_yard001
0 -6.455297 -59.852600 -9.808600 -0.000000 1.000000 0.000000 0.024400 -0.736800 1 0 1.000000 
0 -8.781497 -59.852600 -12.621600 -0.000000 1.000000 0.000000 0.042600 -0.758800 1 0 1.000000 
0 -18.702997 -59.852600 -12.637900 -0.000000 1.000000 0.000000 0.120100 -0.758900 1 0 1.000000 
prison_yard001
0 -8.781497 -59.852600 -24.619900 -0.000000 1.000000 0.000000 0.042600 -0.852600 1 0 1.000000 
0 -8.781497 -59.852600 -12.621600 -0.000000 1.000000 0.000000 0.042600 -0.758800 1 0 1.000000 
0 -6.455297 -59.852600 -9.808600 -0.000000 1.000000 0.000000 0.024400 -0.736800 1 0 1.000000 
prison_yard001
0 -6.455297 -59.852600 -9.808600 -0.000000 1.000000 0.000000 0.024400 -0.736800 1 0 1.000000 
0 -6.456997 -59.852600 -23.257900 -0.000000 1.000000 0.000000 0.024400 -0.841900 1 0 1.000000 
0 -8.781497 -59.852600 -24.619900 -0.000000 1.000000 0.000000 0.042600 -0.852600 1 0 1.000000 
prison_yard001
0 17.599705 -65.471298 24.619900 0.345386 0.000000 0.938461 0.070100 -0.570400 1 0 1.000000 
0 18.703003 -65.471298 24.213800 0.345386 0.000000 0.938461 0.070100 -0.561300 1 0 1.000000 
0 18.703001 -62.667198 24.213800 0.345386 0.000000 0.938461 0.092000 -0.561300 1 0 1.000000 
prison_yard001
0 -8.781503 59.852600 -24.619900 0.000000 -1.000000 0.000000 0.038600 -0.876700 1 0 1.000000 
0 -6.457002 59.852600 -23.257900 0.000000 -1.000000 0.000000 0.020500 -0.866100 1 0 1.000000 
0 -6.455302 59.852600 -9.808600 0.000000 -1.000000 0.000000 0.020500 -0.761000 1 0 1.000000 
prison_yard001
0 -6.455302 59.852600 -9.808600 0.000000 -1.000000 0.000000 0.020500 -0.761000 1 0 1.000000 
0 -8.781503 59.852600 -12.621600 0.000000 -1.000000 0.000000 0.038600 -0.783000 1 0 1.000000 
0 -8.781503 59.852600 -24.619900 0.000000 -1.000000 0.000000 0.038600 -0.876700 1 0 1.000000 
prison_yard001
0 -8.781503 59.852600 -12.621600 0.000000 -1.000000 0.000000 0.038600 -0.783000 1 0 1.000000 
0 -6.455302 59.852600 -9.808600 0.000000 -1.000000 0.000000 0.020500 -0.761000 1 0 1.000000 
0 -17.761902 59.852600 -9.805200 0.000000 -1.000000 0.000000 0.108800 -0.761000 1 0 1.000000 
prison_yard001
0 -17.761902 59.852600 -9.805200 0.000000 -1.000000 0.000000 0.108800 -0.761000 1 0 1.000000 
0 -18.703001 59.852600 -12.637900 0.000000 -1.000000 0.000000 0.116200 -0.783100 1 0 1.000000 
0 -8.781503 59.852600 -12.621600 0.000000 -1.000000 0.000000 0.038600 -0.783000 1 0 1.000000 
prison_yard001
0 17.430397 65.481003 19.760700 0.012101 0.999548 0.027501 0.064000 -0.622200 1 0 1.000000 
0 16.159796 65.481003 22.062799 0.024600 0.999605 0.013600 0.044100 -0.616800 1 0 1.000000 
0 18.702995 65.481003 24.213800 -0.000000 1.000000 0.000000 0.045900 -0.590800 1 0 1.000000 
prison_yard001
0 -15.784203 66.702904 -10.076100 0.012101 0.999548 0.027501 0.051400 -0.970700 1 0 1.000000 
0 16.159796 65.481003 22.062799 0.024600 0.999605 0.013600 0.044100 -0.616800 1 0 1.000000 
0 17.430397 65.481003 19.760700 0.012101 0.999548 0.027501 0.064000 -0.622200 1 0 1.000000 
prison_yard001
0 17.430397 65.481003 19.760700 0.012101 0.999548 0.027501 0.064000 -0.622200 1 0 1.000000 
0 -8.440903 66.702904 -10.010400 -0.000400 0.999147 0.041302 0.090900 -0.929100 1 0 1.000000 
0 -15.784203 66.702904 -10.076100 0.012101 0.999548 0.027501 0.051400 -0.970700 1 0 1.000000 
prison_yard001
0 -6.289603 63.955700 -3.946200 0.562682 0.000000 -0.826673 0.426600 -0.000900 1 0 1.000000 
0 -5.623003 63.955700 -3.492500 0.562682 0.000000 -0.826673 0.423000 -0.000900 1 0 1.000000 
0 -5.622997 -63.825600 -3.492500 0.562682 0.000000 -0.826673 0.423000 -0.999100 1 0 1.000000 
prison_yard001
0 17.430403 -62.667198 19.760700 0.012101 0.999548 0.027501 0.067900 -0.598000 1 0 1.000000 
0 16.159801 -62.667198 22.062799 0.024600 0.999605 0.013600 0.048100 -0.592600 1 0 1.000000 
0 18.703001 -62.667198 24.213800 -0.000000 1.000000 0.000000 0.049800 -0.566700 1 0 1.000000 
prison_yard001
0 -15.784197 -61.445202 -10.076100 0.012101 0.999548 0.027501 0.055300 -0.946600 1 0 1.000000 
0 16.159801 -62.667198 22.062799 0.024600 0.999605 0.013600 0.048100 -0.592600 1 0 1.000000 
0 17.430403 -62.667198 19.760700 0.012101 0.999548 0.027501 0.067900 -0.598000 1 0 1.000000 
prison_yard001
0 17.430403 -62.667198 19.760700 0.012101 0.999548 0.027501 0.067900 -0.598000 1 0 1.000000 
0 -8.440897 -61.445202 -10.010400 -0.000400 0.999147 0.041302 0.094800 -0.905000 1 0 1.000000 
0 -15.784197 -61.445202 -10.076100 0.012101 0.999548 0.027501 0.055300 -0.946600 1 0 1.000000 
prison_yard001
0 -5.622997 -63.825600 -3.492500 -0.562682 -0.000000 0.826673 0.426600 -0.999100 1 0 1.000000 
0 -5.623003 63.955700 -3.492500 -0.562682 -0.000000 0.826673 0.419500 -0.000900 1 0 1.000000 
0 -6.289603 63.955700 -3.946200 -0.562682 -0.000000 0.826673 0.426600 -0.000900 1 0 1.000000 
prison_yard001
0 -8.781497 -68.295601 -24.619900 0.000000 -1.000000 0.000000 0.042600 -0.852600 1 0 1.000000 
0 -6.456997 -68.295601 -23.257900 0.000000 -1.000000 0.000000 0.024400 -0.841900 1 0 1.000000 
0 -6.455297 -68.295601 -9.808600 0.000000 -1.000000 0.000000 0.024400 -0.736800 1 0 1.000000 
prison_yard001
0 -6.455297 -68.295601 -9.808600 0.000000 -1.000000 0.000000 0.024400 -0.736800 1 0 1.000000 
0 -8.781497 -68.295601 -12.621600 0.000000 -1.000000 0.000000 0.042600 -0.758800 1 0 1.000000 
0 -8.781497 -68.295601 -24.619900 0.000000 -1.000000 0.000000 0.042600 -0.852600 1 0 1.000000 
prison_yard001
0 -8.781497 -68.295601 -12.621600 0.000000 -1.000000 0.000000 0.042600 -0.758800 1 0 1.000000 
0 -6.455297 -68.295601 -9.808600 0.000000 -1.000000 0.000000 0.024400 -0.736800 1 0 1.000000 
0 -17.761896 -68.295601 -9.805200 0.000000 -1.000000 0.000000 0.112700 -0.736800 1 0 1.000000 
prison_yard001
0 -17.761896 -68.295601 -9.805200 0.000000 -1.000000 0.000000 0.112700 -0.736800 1 0 1.000000 
0 -18.702995 -68.295601 -12.637900 0.000000 -1.000000 0.000000 0.120100 -0.758900 1 0 1.000000 
0 -8.781497 -68.295601 -12.621600 0.000000 -1.000000 0.000000 0.042600 -0.758800 1 0 1.000000 
prison_yard001
0 -18.703001 59.852600 -12.637900 -0.948993 -0.000000 0.315298 0.019000 -0.724200 1 0 1.000000 
0 -17.761902 59.852600 -9.805200 -0.948993 -0.000000 0.315298 0.019000 -0.700900 1 0 1.000000 
0 -18.703003 68.295601 -12.637900 -0.948993 -0.000000 0.315298 0.085000 -0.724200 1 0 1.000000 
prison_yard001
0 -17.761904 68.295601 -9.805200 -0.948993 -0.000000 0.315298 0.085000 -0.700900 1 0 1.000000 
0 -18.703003 68.295601 -12.637900 -0.948993 -0.000000 0.315298 0.085000 -0.724200 1 0 1.000000 
0 -17.761902 59.852600 -9.805200 -0.948993 -0.000000 0.315298 0.019000 -0.700900 1 0 1.000000 
prison_yard001
0 -17.761898 -59.852600 -9.805200 -0.948993 -0.000000 0.315298 0.088900 -0.676800 1 0 1.000000 
0 -18.702997 -59.852600 -12.637900 -0.948993 -0.000000 0.315298 0.088900 -0.700100 1 0 1.000000 
0 -17.761896 -68.295601 -9.805200 -0.948993 -0.000000 0.315298 0.023000 -0.676800 1 0 1.000000 
prison_yard001
0 -18.702995 -68.295601 -12.637900 -0.948993 -0.000000 0.315298 0.023000 -0.700100 1 0 1.000000 
0 -17.761896 -68.295601 -9.805200 -0.948993 -0.000000 0.315298 0.023000 -0.676800 1 0 1.000000 
0 -18.702997 -59.852600 -12.637900 -0.948993 -0.000000 0.315298 0.088900 -0.700100 1 0 1.000000 
prison_yard001
0 16.159801 -62.667198 22.062799 -0.871346 -0.000000 0.490669 0.047700 -0.591300 1 0 1.000000 
0 16.159803 -65.471298 22.062799 -0.871346 -0.000000 0.490669 0.025800 -0.591300 1 0 1.000000 
0 17.599705 -65.471298 24.619900 -0.871346 -0.000000 0.490669 0.025800 -0.569200 1 0 1.000000 
prison_yard001
0 17.599699 62.676899 24.619900 -0.606706 0.342604 0.717307 0.021800 -0.593400 1 0 1.000000 
0 18.702995 65.481003 24.213800 -0.606706 0.342604 0.717307 0.043800 -0.593400 1 0 1.000000 
0 16.159796 65.481003 22.062799 -0.606706 0.342604 0.717307 0.043800 -0.615500 1 0 1.000000 
prison_yard001
0 17.599705 -65.471298 24.619900 -0.606706 0.342604 0.717307 0.025800 -0.569200 1 0 1.000000 
0 18.703001 -62.667198 24.213800 -0.606706 0.342604 0.717307 0.047700 -0.569200 1 0 1.000000 
0 16.159801 -62.667198 22.062799 -0.606706 0.342604 0.717307 0.047700 -0.591300 1 0 1.000000 
end
