version 1
nodes
  0 "static_prop" -1
end
skeleton
time 0
0 0.000000 0.000000 0.000000 0.000000 0.000000 0.000000
end
triangles
rockcliff02a
0 43.366695 55.873501 42.812000 0.948700 0.217900 0.229100 0.459000 -0.261700 1 0 1.000000 
0 38.692902 42.449902 74.932800 0.948700 0.217900 0.229100 0.406600 -0.136300 1 0 1.000000 
0 48.535301 -2.101398 76.556999 0.948700 0.217900 0.229100 0.232600 -0.129900 1 0 1.000000 
rockcliff02a
0 -22.809500 6.419599 -125.505501 0.177095 0.923272 -0.340890 0.656500 -0.876700 1 0 1.000000 
0 43.366695 55.873501 42.812000 0.177095 0.923272 -0.340890 0.409900 -0.327900 1 0 1.000000 
0 22.705799 -4.451499 -125.303497 0.218793 0.909570 -0.353288 0.478700 -0.875900 1 0 1.000000 
rockcliff02a
0 -22.809500 6.419599 -125.505501 0.177095 0.923272 -0.340890 0.656500 -0.876700 1 0 1.000000 
0 -10.939603 65.708900 48.506100 0.134994 0.935058 -0.327785 0.622000 -0.305700 1 0 1.000000 
0 43.366695 55.873501 42.812000 0.177095 0.923272 -0.340890 0.409900 -0.327900 1 0 1.000000 
rockcliff02a
0 -31.809696 -65.709000 24.547701 -0.024201 -0.998525 -0.048601 0.337400 -0.387400 1 0 1.000000 
0 4.463202 -59.286499 -125.380402 -0.024201 -0.998525 -0.048601 0.486900 -0.864400 1 0 1.000000 
0 25.336203 -59.557999 21.699400 0.106200 -0.994201 -0.016900 0.560600 -0.398600 1 0 1.000000 
rockcliff02a
0 -31.809696 -65.709000 24.547701 -0.024201 -0.998525 -0.048601 0.337400 -0.387400 1 0 1.000000 
0 -30.334398 -53.837200 -125.463501 -0.153995 -0.984868 -0.079497 0.351000 -0.864700 1 0 1.000000 
0 4.463202 -59.286499 -125.380402 -0.024201 -0.998525 -0.048601 0.486900 -0.864400 1 0 1.000000 
rockcliff02a
0 -15.641000 -7.943000 125.505402 0.345492 -0.233995 0.908780 0.469000 -0.006800 1 0 1.000000 
0 31.442602 -29.799398 101.976700 0.345492 -0.233995 0.908780 0.383600 -0.098700 1 0 1.000000 
0 33.139400 -1.112899 107.678596 0.360987 -0.202292 0.910366 0.495700 -0.076500 1 0 1.000000 
rockcliff02a
0 -15.641000 -7.943000 125.505402 0.345492 -0.233995 0.908780 0.469000 -0.006800 1 0 1.000000 
0 -8.853799 -28.802799 116.927299 0.329585 -0.265388 0.906059 0.387500 -0.040300 1 0 1.000000 
0 31.442602 -29.799398 101.976700 0.345492 -0.233995 0.908780 0.383600 -0.098700 1 0 1.000000 
rockcliff02a
0 -10.939603 65.708900 48.506100 0.185100 0.883601 0.430101 0.622000 -0.305700 1 0 1.000000 
0 38.692902 42.449902 74.932800 0.185100 0.883601 0.430101 0.428100 -0.202500 1 0 1.000000 
0 43.366695 55.873501 42.812000 0.203800 0.892400 0.402600 0.409900 -0.327900 1 0 1.000000 
rockcliff02a
0 -10.939603 65.708900 48.506100 0.185100 0.883601 0.430101 0.622000 -0.305700 1 0 1.000000 
0 -8.681702 48.685001 80.235298 0.166200 0.873801 0.457000 0.613200 -0.181700 1 0 1.000000 
0 38.692902 42.449902 74.932800 0.185100 0.883601 0.430101 0.428100 -0.202500 1 0 1.000000 
rockcliff02a
0 -8.681702 48.685001 80.235298 0.147705 0.569619 0.808528 0.613200 -0.181700 1 0 1.000000 
0 33.139400 -1.112899 107.678596 0.160593 0.591476 0.790168 0.449800 -0.074500 1 0 1.000000 
0 38.692902 42.449902 74.932800 0.165604 0.579015 0.798321 0.428100 -0.202500 1 0 1.000000 
rockcliff02a
0 33.139400 -1.112899 107.678596 0.160593 0.591476 0.790168 0.449800 -0.074500 1 0 1.000000 
0 -8.681702 48.685001 80.235298 0.147705 0.569619 0.808528 0.613200 -0.181700 1 0 1.000000 
0 -21.824701 29.599298 95.378998 0.158106 0.597625 0.786032 0.664500 -0.122600 1 0 1.000000 
rockcliff02a
0 -21.824701 29.599298 95.378998 0.158106 0.597625 0.786032 0.664500 -0.122600 1 0 1.000000 
0 -15.641000 -7.943000 125.505402 0.185798 0.633394 0.751193 0.640400 -0.004900 1 0 1.000000 
0 33.139400 -1.112899 107.678596 0.160593 0.591476 0.790168 0.449800 -0.074500 1 0 1.000000 
rockcliff02a
0 -33.738602 -34.737900 99.273903 -0.489008 -0.339705 0.803412 0.364300 -0.112200 1 0 1.000000 
0 -8.853799 -28.802799 116.927299 -0.489008 -0.339705 0.803412 0.387500 -0.043300 1 0 1.000000 
0 -34.914501 -12.972301 107.760902 -0.489008 -0.339705 0.803412 0.449300 -0.079100 1 0 1.000000 
rockcliff02a
0 53.395000 -29.391098 76.378899 0.993302 0.115500 -0.003300 0.126000 -0.130600 1 0 1.000000 
0 43.366695 55.873501 42.812000 0.994240 0.095004 -0.049602 0.459000 -0.261700 1 0 1.000000 
0 48.535301 -2.101398 76.556999 0.973965 0.172494 0.147095 0.232600 -0.129900 1 0 1.000000 
rockcliff02a
0 53.395000 -29.391098 76.378899 0.993302 0.115500 -0.003300 0.126000 -0.130600 1 0 1.000000 
0 46.626900 -40.220097 28.992500 0.988130 0.032201 -0.150205 0.083700 -0.315700 1 0 1.000000 
0 43.366695 55.873501 42.812000 0.994240 0.095004 -0.049602 0.459000 -0.261700 1 0 1.000000 
rockcliff02a
0 46.626900 -40.220097 28.992500 0.988130 0.032201 -0.150205 0.083700 -0.315700 1 0 1.000000 
0 22.705799 -4.451499 -125.303497 0.988700 0.020500 -0.148500 0.223400 -0.867700 1 0 1.000000 
0 43.366695 55.873501 42.812000 0.994240 0.095004 -0.049602 0.459000 -0.261700 1 0 1.000000 
rockcliff02a
0 46.626900 -40.220097 28.992500 0.988130 0.032201 -0.150205 0.083700 -0.315700 1 0 1.000000 
0 22.346203 -29.700197 -125.496399 0.987658 -0.012899 -0.156093 0.124700 -0.868500 1 0 1.000000 
0 22.705799 -4.451499 -125.303497 0.988700 0.020500 -0.148500 0.223400 -0.867700 1 0 1.000000 
rockcliff02a
0 31.442602 -29.799398 101.976700 0.132500 -0.976996 0.167099 0.584400 -0.085000 1 0 1.000000 
0 46.626900 -40.220097 28.992500 0.271986 -0.925952 0.261986 0.643700 -0.370100 1 0 1.000000 
0 53.395000 -29.391098 76.378899 0.233296 -0.954685 0.184797 0.670200 -0.185000 1 0 1.000000 
rockcliff02a
0 -8.853799 -28.802799 116.927299 0.195292 -0.931362 0.307287 0.427000 -0.026600 1 0 1.000000 
0 46.626900 -40.220097 28.992500 0.271986 -0.925952 0.261986 0.643700 -0.370100 1 0 1.000000 
0 31.442602 -29.799398 101.976700 0.132500 -0.976996 0.167099 0.584400 -0.085000 1 0 1.000000 
rockcliff02a
0 -8.853799 -28.802799 116.927299 0.195292 -0.931362 0.307287 0.427000 -0.026600 1 0 1.000000 
0 25.336203 -59.557999 21.699400 0.223095 -0.895679 0.384691 0.560600 -0.398600 1 0 1.000000 
0 46.626900 -40.220097 28.992500 0.271986 -0.925952 0.261986 0.643700 -0.370100 1 0 1.000000 
rockcliff02a
0 25.336203 -59.557999 21.699400 0.223095 -0.895679 0.384691 0.560600 -0.398600 1 0 1.000000 
0 -8.853799 -28.802799 116.927299 0.195292 -0.931362 0.307287 0.427000 -0.026600 1 0 1.000000 
0 -33.738602 -34.737900 99.273903 0.062598 -0.935777 0.346991 0.329800 -0.095500 1 0 1.000000 
rockcliff02a
0 -33.738602 -34.737900 99.273903 0.062598 -0.935777 0.346991 0.329800 -0.095500 1 0 1.000000 
0 -31.809696 -65.709000 24.547701 0.117700 -0.916302 0.382801 0.337400 -0.387400 1 0 1.000000 
0 25.336203 -59.557999 21.699400 0.223095 -0.895679 0.384691 0.560600 -0.398600 1 0 1.000000 
rockcliff02a
0 -15.641000 -7.943000 125.505402 -0.531271 -0.464274 0.708661 0.469000 -0.009700 1 0 1.000000 
0 -34.914501 -12.972301 107.760902 -0.531271 -0.464274 0.708661 0.449300 -0.079100 1 0 1.000000 
0 -8.853799 -28.802799 116.927299 -0.531271 -0.464274 0.708661 0.387500 -0.043300 1 0 1.000000 
rockcliff02a
0 -31.809696 -65.709000 24.547701 -0.945076 -0.325892 0.024999 0.243300 -0.404100 1 0 1.000000 
0 -49.966000 -13.611202 -125.417603 -0.936935 -0.349413 -0.007900 0.452800 -0.895700 1 0 1.000000 
0 -30.334398 -53.837200 -125.463501 -0.897878 -0.438089 -0.043499 0.295600 -0.895900 1 0 1.000000 
rockcliff02a
0 -31.809696 -65.709000 24.547701 -0.945076 -0.325892 0.024999 0.243300 -0.404100 1 0 1.000000 
0 -53.395000 18.769697 55.450001 -0.966802 -0.186100 0.175100 0.573300 -0.283400 1 0 1.000000 
0 -49.966000 -13.611202 -125.417603 -0.936935 -0.349413 -0.007900 0.452800 -0.895700 1 0 1.000000 
rockcliff02a
0 -33.738602 -34.737900 99.273903 -0.965232 -0.138305 0.221807 0.364300 -0.112200 1 0 1.000000 
0 -53.395000 18.769697 55.450001 -0.966802 -0.186100 0.175100 0.573300 -0.283400 1 0 1.000000 
0 -31.809696 -65.709000 24.547701 -0.945076 -0.325892 0.024999 0.243300 -0.404100 1 0 1.000000 
rockcliff02a
0 -33.738602 -34.737900 99.273903 -0.965232 -0.138305 0.221807 0.364300 -0.112200 1 0 1.000000 
0 -43.480099 15.747398 78.311203 -0.956235 -0.066202 0.285011 0.561500 -0.194100 1 0 1.000000 
0 -53.395000 18.769697 55.450001 -0.966802 -0.186100 0.175100 0.573300 -0.283400 1 0 1.000000 
rockcliff02a
0 -33.738602 -34.737900 99.273903 -0.965232 -0.138305 0.221807 0.364300 -0.112200 1 0 1.000000 
0 -34.914501 -12.972301 107.760902 -0.978478 -0.118697 0.168796 0.449300 -0.079100 1 0 1.000000 
0 -43.480099 15.747398 78.311203 -0.956235 -0.066202 0.285011 0.561500 -0.194100 1 0 1.000000 
rockcliff02a
0 -34.914501 -12.972301 107.760902 -0.670821 0.423913 0.608519 0.449300 -0.079100 1 0 1.000000 
0 -15.641000 -7.943000 125.505402 -0.670821 0.423913 0.608519 0.469000 -0.009700 1 0 1.000000 
0 -43.480099 15.747398 78.311203 -0.670821 0.423913 0.608519 0.561500 -0.194100 1 0 1.000000 
rockcliff02a
0 22.705799 -4.451499 -125.303497 -0.019600 0.007900 -0.999777 0.527700 -0.762100 1 0 1.000000 
0 -49.966000 -13.611202 -125.417603 0.001300 0.001800 -0.999997 0.604600 -0.987800 1 0 1.000000 
0 -22.809500 6.419599 -125.505501 0.002600 -0.007900 -0.999965 0.624500 -0.879700 1 0 1.000000 
rockcliff02a
0 22.705799 -4.451499 -125.303497 -0.019600 0.007900 -0.999777 0.527700 -0.762100 1 0 1.000000 
0 -30.334398 -53.837200 -125.463501 0.002500 0.000600 -0.999997 0.458900 -0.987700 1 0 1.000000 
0 -49.966000 -13.611202 -125.417603 0.001300 0.001800 -0.999997 0.604600 -0.987800 1 0 1.000000 
rockcliff02a
0 22.705799 -4.451499 -125.303497 -0.019600 0.007900 -0.999777 0.527700 -0.762100 1 0 1.000000 
0 4.463202 -59.286499 -125.380402 -0.019600 0.007900 -0.999777 0.393300 -0.893700 1 0 1.000000 
0 -30.334398 -53.837200 -125.463501 0.002500 0.000600 -0.999997 0.458900 -0.987700 1 0 1.000000 
rockcliff02a
0 22.705799 -4.451499 -125.303497 -0.019600 0.007900 -0.999777 0.527700 -0.762100 1 0 1.000000 
0 22.346203 -29.700197 -125.496399 -0.019600 0.007900 -0.999777 0.454400 -0.799200 1 0 1.000000 
0 4.463202 -59.286499 -125.380402 -0.019600 0.007900 -0.999777 0.393300 -0.893700 1 0 1.000000 
rockcliff02a
0 -21.824701 29.599298 95.378998 -0.709181 0.366490 0.602284 0.615600 -0.127400 1 0 1.000000 
0 -43.480099 15.747398 78.311203 -0.709181 0.366490 0.602284 0.561500 -0.194100 1 0 1.000000 
0 -15.641000 -7.943000 125.505402 -0.709181 0.366490 0.602284 0.469000 -0.009700 1 0 1.000000 
rockcliff02a
0 33.139400 -1.112899 107.678596 0.878994 0.209799 0.428197 0.236400 -0.008300 1 0 1.000000 
0 48.535301 -2.101398 76.556999 0.878994 0.209799 0.428197 0.232600 -0.129900 1 0 1.000000 
0 38.692902 42.449902 74.932800 0.878994 0.209799 0.428197 0.406600 -0.136300 1 0 1.000000 
rockcliff02a
0 -43.480099 15.747398 78.311203 -0.692318 0.612616 0.381310 0.561500 -0.194100 1 0 1.000000 
0 -21.824701 29.599298 95.378998 -0.692318 0.612616 0.381310 0.615600 -0.127400 1 0 1.000000 
0 -53.395000 18.769697 55.450001 -0.692318 0.612616 0.381310 0.573300 -0.283400 1 0 1.000000 
rockcliff02a
0 48.535301 -2.101398 76.556999 0.887396 0.155199 0.434098 0.232600 -0.129900 1 0 1.000000 
0 33.139400 -1.112899 107.678596 0.887396 0.155199 0.434098 0.236400 -0.008300 1 0 1.000000 
0 53.395000 -29.391098 76.378899 0.887396 0.155199 0.434098 0.126000 -0.130600 1 0 1.000000 
rockcliff02a
0 -21.824701 29.599298 95.378998 -0.642869 0.696167 0.319485 0.615600 -0.127400 1 0 1.000000 
0 -8.681702 48.685001 80.235298 -0.642869 0.696167 0.319485 0.690200 -0.186600 1 0 1.000000 
0 -53.395000 18.769697 55.450001 -0.642869 0.696167 0.319485 0.573300 -0.283400 1 0 1.000000 
rockcliff02a
0 31.442602 -29.799398 101.976700 0.749179 -0.171495 0.639782 0.124400 -0.030600 1 0 1.000000 
0 53.395000 -29.391098 76.378899 0.749179 -0.171495 0.639782 0.126000 -0.130600 1 0 1.000000 
0 33.139400 -1.112899 107.678596 0.749179 -0.171495 0.639782 0.236400 -0.008300 1 0 1.000000 
rockcliff02a
0 -10.939603 65.708900 48.506100 -0.651905 0.647905 0.394003 0.756700 -0.310500 1 0 1.000000 
0 -53.395000 18.769697 55.450001 -0.651905 0.647905 0.394003 0.573300 -0.283400 1 0 1.000000 
0 -8.681702 48.685001 80.235298 -0.651905 0.647905 0.394003 0.690200 -0.186600 1 0 1.000000 
rockcliff02a
0 46.626900 -40.220097 28.992500 0.692889 -0.703789 -0.156798 0.083700 -0.315700 1 0 1.000000 
0 25.336203 -59.557999 21.699400 0.692889 -0.703789 -0.156798 0.008100 -0.344200 1 0 1.000000 
0 22.346203 -29.700197 -125.496399 0.692889 -0.703789 -0.156798 0.124700 -0.868500 1 0 1.000000 
rockcliff02a
0 -53.395000 18.769697 55.450001 -0.744821 0.654218 -0.131304 0.573300 -0.283400 1 0 1.000000 
0 -10.939603 65.708900 48.506100 -0.744821 0.654218 -0.131304 0.756700 -0.310500 1 0 1.000000 
0 -49.966000 -13.611202 -125.417603 -0.744821 0.654218 -0.131304 0.452800 -0.895700 1 0 1.000000 
rockcliff02a
0 4.463202 -59.286499 -125.380402 0.849273 -0.513784 -0.121496 0.009200 -0.868000 1 0 1.000000 
0 22.346203 -29.700197 -125.496399 0.849273 -0.513784 -0.121496 0.124700 -0.868500 1 0 1.000000 
0 25.336203 -59.557999 21.699400 0.849273 -0.513784 -0.121496 0.008100 -0.344200 1 0 1.000000 
rockcliff02a
0 -22.809500 6.419599 -125.505501 -0.578520 0.783327 -0.227408 0.531000 -0.896100 1 0 1.000000 
0 -49.966000 -13.611202 -125.417603 -0.578520 0.783327 -0.227408 0.452800 -0.895700 1 0 1.000000 
0 -10.939603 65.708900 48.506100 -0.578520 0.783327 -0.227408 0.756700 -0.310500 1 0 1.000000 
end
