version 1
nodes
  0 "static_prop" -1
end
skeleton
time 0
0 0.000000 0.000000 0.000000 0.000000 0.000000 0.000000
end
triangles
dockpole01
0 -6.128900 -3.279800 274.798187 -0.126597 -0.708184 0.694585 0.308200 -0.133600 1 0 1.000000 
0 -5.222499 -8.450800 263.116486 -0.126597 -0.708184 0.694585 0.296500 -0.094300 1 0 1.000000 
0 5.548300 -5.367800 274.798096 -0.126597 -0.708184 0.694585 0.249100 -0.140200 1 0 1.000000 
dockpole01
0 -6.128900 -3.279800 274.798187 0.000000 0.000000 1.000000 0.308200 -0.133600 1 0 1.000000 
0 4.126400 7.356600 272.882690 0.045700 0.045700 0.997909 0.274100 -0.199500 1 0 1.000000 
0 -5.608500 5.789000 274.798187 0.147706 -0.039602 0.988238 0.322700 -0.182000 1 0 1.000000 
dockpole01
0 -6.128900 -3.279800 274.798187 0.000000 0.000000 1.000000 0.308200 -0.133600 1 0 1.000000 
0 8.210100 0.283500 272.882690 0.054700 0.014600 0.998396 0.244300 -0.171200 1 0 1.000000 
0 4.126400 7.356600 272.882690 0.045700 0.045700 0.997909 0.274100 -0.199500 1 0 1.000000 
dockpole01
0 -5.023800 2.528800 -274.798187 -0.687819 0.725420 -0.025901 0.189200 -0.994200 1 0 1.000000 
0 -2.650900 -7.444500 -274.798187 -0.257703 -0.966211 -0.005100 0.236300 -0.994200 1 0 1.000000 
0 -8.210100 -5.463201 263.116486 -0.950373 -0.310891 -0.011700 0.218400 -0.035600 1 0 1.000000 
dockpole01
0 -2.650900 -7.444500 -274.798187 -0.257703 -0.966211 -0.005100 0.236300 -0.994200 1 0 1.000000 
0 -5.222499 -8.450800 263.116486 -0.302691 -0.953072 -0.005600 0.230400 -0.035600 1 0 1.000000 
0 -8.210100 -5.463201 263.116486 -0.950373 -0.310891 -0.011700 0.218400 -0.035600 1 0 1.000000 
dockpole01
0 -2.650900 -7.444500 -274.798187 -0.257703 -0.966211 -0.005100 0.236300 -0.994200 1 0 1.000000 
0 5.548300 -5.367800 274.798096 0.605693 -0.795690 -0.003700 0.268100 -0.014800 1 0 1.000000 
0 -5.222499 -8.450800 263.116486 -0.302691 -0.953072 -0.005600 0.230400 -0.035600 1 0 1.000000 
dockpole01
0 -2.650900 -7.444500 -274.798187 -0.257703 -0.966211 -0.005100 0.236300 -0.994200 1 0 1.000000 
0 7.922600 -0.940100 -274.798187 0.996030 0.089003 -0.001700 0.286200 -0.994200 1 0 1.000000 
0 5.548300 -5.367800 274.798096 0.605693 -0.795690 -0.003700 0.268100 -0.014800 1 0 1.000000 
dockpole01
0 7.922600 -0.940100 -274.798187 0.996030 0.089003 -0.001700 0.286200 -0.994200 1 0 1.000000 
0 8.210100 0.283500 272.882690 0.999125 0.041801 -0.001400 0.290400 -0.018200 1 0 1.000000 
0 5.548300 -5.367800 274.798096 0.605693 -0.795690 -0.003700 0.268100 -0.014800 1 0 1.000000 
dockpole01
0 7.922600 -0.940100 -274.798187 0.996030 0.089003 -0.001700 0.286200 -0.994200 1 0 1.000000 
0 4.126400 7.356600 272.882690 0.365982 0.930454 -0.017699 0.318900 -0.018200 1 0 1.000000 
0 8.210100 0.283500 272.882690 0.999125 0.041801 -0.001400 0.290400 -0.018200 1 0 1.000000 
dockpole01
0 7.922600 -0.940100 -274.798187 0.996030 0.089003 -0.001700 0.286200 -0.994200 1 0 1.000000 
0 -5.023800 2.528800 -274.798187 -0.687819 0.725420 -0.025901 0.363800 -0.994200 1 0 1.000000 
0 4.126400 7.356600 272.882690 0.365982 0.930454 -0.017699 0.318900 -0.018200 1 0 1.000000 
dockpole01
0 -5.023800 2.528800 -274.798187 -0.687819 0.725420 -0.025901 0.363800 -0.994200 1 0 1.000000 
0 -5.608500 5.789000 274.798187 -0.699320 0.714721 -0.011200 0.354500 -0.014800 1 0 1.000000 
0 4.126400 7.356600 272.882690 0.365982 0.930454 -0.017699 0.318900 -0.018200 1 0 1.000000 
dockpole01
0 -5.023800 2.528800 -274.798187 -0.687819 0.725420 -0.025901 0.363800 -0.994200 1 0 1.000000 
0 -8.210100 -5.463201 263.116486 -0.965833 -0.258809 -0.013600 0.375800 -0.035600 1 0 1.000000 
0 -5.608500 5.789000 274.798187 -0.699320 0.714721 -0.011200 0.354500 -0.014800 1 0 1.000000 
dockpole01
0 -5.222499 -8.450800 263.116486 -0.608872 -0.608872 0.508477 0.296500 -0.094300 1 0 1.000000 
0 -6.128900 -3.279800 274.798187 -0.608872 -0.608872 0.508477 0.308200 -0.133600 1 0 1.000000 
0 -8.210100 -5.463201 263.116486 -0.608872 -0.608872 0.508477 0.315200 -0.107400 1 0 1.000000 
dockpole01
0 -6.128900 -3.279800 274.798187 0.024200 0.135399 0.990495 0.308200 -0.133600 1 0 1.000000 
0 5.548300 -5.367800 274.798096 0.038501 0.086203 0.995533 0.249100 -0.140200 1 0 1.000000 
0 8.210100 0.283500 272.882690 0.054099 0.140696 0.988574 0.244300 -0.171200 1 0 1.000000 
dockpole01
0 -8.210100 -5.463201 263.116486 -0.928189 0.015300 0.371795 0.315200 -0.107400 1 0 1.000000 
0 -6.128900 -3.279800 274.798187 -0.928189 0.015300 0.371795 0.308200 -0.133600 1 0 1.000000 
0 -5.608500 5.789000 274.798187 -0.932495 0.053500 0.357198 0.322700 -0.182000 1 0 1.000000 
end
