version 1
nodes
  0 "static_prop" -1
end
skeleton
time 0
0 0.000000 0.000000 0.000000 0.000000 0.000000 0.000000
end
triangles
dockpole01
0 -6.128900 -3.279800 274.798187 -0.392718 -0.680130 0.619028 0.308200 -0.133600 1 0 1.000000 
0 -5.222499 -8.450800 263.116486 -0.392718 -0.680130 0.619028 0.296500 -0.094300 1 0 1.000000 
0 0.042800 -6.843000 274.798096 -0.392718 -0.680130 0.619028 0.273500 -0.125300 1 0 1.000000 
dockpole01
0 -7.083700 0.283500 274.798187 0.000000 0.000000 1.000000 0.311500 -0.154300 1 0 1.000000 
0 0.042800 -6.843000 274.798096 0.000000 0.000000 1.000000 0.273500 -0.125300 1 0 1.000000 
0 5.548300 -5.367800 274.798096 0.000000 0.000000 1.000000 0.249100 -0.140200 1 0 1.000000 
dockpole01
0 -7.083700 0.283500 274.798187 0.000000 0.000000 1.000000 0.311500 -0.154300 1 0 1.000000 
0 -6.128900 -3.279800 274.798187 0.000000 0.000000 1.000000 0.308200 -0.133600 1 0 1.000000 
0 0.042800 -6.843000 274.798096 0.000000 0.000000 1.000000 0.273500 -0.125300 1 0 1.000000 
dockpole01
0 -7.083700 0.283500 274.798187 0.000000 0.000000 1.000000 0.311500 -0.154300 1 0 1.000000 
0 4.126400 7.356600 272.882690 0.045700 0.045700 0.997909 0.274100 -0.199500 1 0 1.000000 
0 0.042800 8.450800 272.882690 0.022200 0.082802 0.996319 0.295300 -0.198900 1 0 1.000000 
dockpole01
0 -7.083700 0.283500 274.798187 0.000000 0.000000 1.000000 0.311500 -0.154300 1 0 1.000000 
0 7.115900 4.367100 272.882690 0.054700 0.014600 0.998396 0.255400 -0.189300 1 0 1.000000 
0 4.126400 7.356600 272.882690 0.045700 0.045700 0.997909 0.274100 -0.199500 1 0 1.000000 
dockpole01
0 -7.083700 0.283500 274.798187 0.000000 0.000000 1.000000 0.311500 -0.154300 1 0 1.000000 
0 8.210100 0.283500 272.882690 0.054700 0.014600 0.998396 0.244300 -0.171200 1 0 1.000000 
0 7.115900 4.367100 272.882690 0.054700 0.014600 0.998396 0.255400 -0.189300 1 0 1.000000 
dockpole01
0 -7.083700 0.283500 274.798187 0.174004 -0.051001 0.983423 0.311500 -0.154300 1 0 1.000000 
0 -4.040901 7.356600 274.405914 0.174004 -0.051001 0.983423 0.313400 -0.187800 1 0 1.000000 
0 -5.608500 5.789000 274.798187 0.147706 -0.039602 0.988238 0.322700 -0.182000 1 0 1.000000 
dockpole01
0 -7.083700 0.283500 274.798187 0.174004 -0.051001 0.983423 0.311500 -0.154300 1 0 1.000000 
0 0.042800 8.450800 272.882690 0.174004 -0.051001 0.983423 0.295300 -0.198900 1 0 1.000000 
0 -4.040901 7.356600 274.405914 0.174004 -0.051001 0.983423 0.313400 -0.187800 1 0 1.000000 
dockpole01
0 -5.023800 2.528800 -274.798187 -0.951604 0.307101 -0.011800 0.189200 -0.994200 1 0 1.000000 
0 -8.210100 -5.463201 263.116486 -0.950373 -0.310891 -0.011700 0.218400 -0.035600 1 0 1.000000 
0 -8.115500 0.278400 263.116608 -0.983763 0.179193 -0.010000 0.201200 -0.035600 1 0 1.000000 
dockpole01
0 -5.023800 2.528800 -274.798187 -0.951604 0.307101 -0.011800 0.189200 -0.994200 1 0 1.000000 
0 -5.190300 -4.905000 -274.798187 -0.831097 -0.555998 -0.012000 0.223200 -0.994200 1 0 1.000000 
0 -8.210100 -5.463201 263.116486 -0.950373 -0.310891 -0.011700 0.218400 -0.035600 1 0 1.000000 
dockpole01
0 -5.190300 -4.905000 -274.798187 -0.831097 -0.555998 -0.012000 0.223200 -0.994200 1 0 1.000000 
0 -5.222499 -8.450800 263.116486 -0.476982 -0.878867 -0.009000 0.230400 -0.035600 1 0 1.000000 
0 -8.210100 -5.463201 263.116486 -0.950373 -0.310891 -0.011700 0.218400 -0.035600 1 0 1.000000 
dockpole01
0 -5.190300 -4.905000 -274.798187 -0.831097 -0.555998 -0.012000 0.223200 -0.994200 1 0 1.000000 
0 -2.650900 -7.444500 -274.798187 -0.257703 -0.966211 -0.005100 0.236300 -0.994200 1 0 1.000000 
0 -5.222499 -8.450800 263.116486 -0.476982 -0.878867 -0.009000 0.230400 -0.035600 1 0 1.000000 
dockpole01
0 -2.650900 -7.444500 -274.798187 -0.257703 -0.966211 -0.005100 0.236300 -0.994200 1 0 1.000000 
0 0.046700 -7.883900 263.116394 0.083501 -0.996507 -0.000900 0.246000 -0.035600 1 0 1.000000 
0 -5.222499 -8.450800 263.116486 -0.476982 -0.878867 -0.009000 0.230400 -0.035600 1 0 1.000000 
dockpole01
0 -2.650900 -7.444500 -274.798187 -0.257703 -0.966211 -0.005100 0.236300 -0.994200 1 0 1.000000 
0 4.453600 -6.948500 -274.798187 0.457822 -0.889043 0.000300 0.261600 -0.994200 1 0 1.000000 
0 0.046700 -7.883900 263.116394 0.083501 -0.996507 -0.000900 0.246000 -0.035600 1 0 1.000000 
dockpole01
0 4.453600 -6.948500 -274.798187 0.457822 -0.889043 0.000300 0.261600 -0.994200 1 0 1.000000 
0 4.127800 -6.790300 263.116394 0.499699 -0.866198 0.001000 0.261000 -0.035600 1 0 1.000000 
0 0.046700 -7.883900 263.116394 0.083501 -0.996507 -0.000900 0.246000 -0.035600 1 0 1.000000 
dockpole01
0 4.453600 -6.948500 -274.798187 0.457822 -0.889043 0.000300 0.261600 -0.994200 1 0 1.000000 
0 5.548300 -5.367800 274.798096 0.782785 -0.622288 0.002200 0.268100 -0.014800 1 0 1.000000 
0 4.127800 -6.790300 263.116394 0.499699 -0.866198 0.001000 0.261000 -0.035600 1 0 1.000000 
dockpole01
0 4.453600 -6.948500 -274.798187 0.457822 -0.889043 0.000300 0.261600 -0.994200 1 0 1.000000 
0 6.993000 -4.409100 -274.798187 0.907067 -0.420985 0.000600 0.273800 -0.994200 1 0 1.000000 
0 5.548300 -5.367800 274.798096 0.782785 -0.622288 0.002200 0.268100 -0.014800 1 0 1.000000 
dockpole01
0 6.993000 -4.409100 -274.798187 0.907067 -0.420985 0.000600 0.273800 -0.994200 1 0 1.000000 
0 8.210100 0.283500 272.882690 0.996031 -0.089003 -0.000700 0.290400 -0.018200 1 0 1.000000 
0 5.548300 -5.367800 274.798096 0.782785 -0.622288 0.002200 0.268100 -0.014800 1 0 1.000000 
dockpole01
0 6.993000 -4.409100 -274.798187 0.907067 -0.420985 0.000600 0.273800 -0.994200 1 0 1.000000 
0 7.922600 -0.940100 -274.798187 0.996030 0.089003 -0.001700 0.286200 -0.994200 1 0 1.000000 
0 8.210100 0.283500 272.882690 0.996031 -0.089003 -0.000700 0.290400 -0.018200 1 0 1.000000 
dockpole01
0 7.922600 -0.940100 -274.798187 0.996030 0.089003 -0.001700 0.286200 -0.994200 1 0 1.000000 
0 7.115900 4.367100 272.882690 0.907061 0.420982 -0.003700 0.304800 -0.018200 1 0 1.000000 
0 8.210100 0.283500 272.882690 0.996031 -0.089003 -0.000700 0.290400 -0.018200 1 0 1.000000 
dockpole01
0 7.922600 -0.940100 -274.798187 0.996030 0.089003 -0.001700 0.286200 -0.994200 1 0 1.000000 
0 6.993000 2.528800 -274.798187 0.818079 0.575085 -0.004800 0.299100 -0.994200 1 0 1.000000 
0 7.115900 4.367100 272.882690 0.907061 0.420982 -0.003700 0.304800 -0.018200 1 0 1.000000 
dockpole01
0 6.993000 2.528800 -274.798187 0.818079 0.575085 -0.004800 0.299100 -0.994200 1 0 1.000000 
0 4.126400 7.356600 272.882690 0.575011 0.818116 -0.007000 0.318900 -0.018200 1 0 1.000000 
0 7.115900 4.367100 272.882690 0.907061 0.420982 -0.003700 0.304800 -0.018200 1 0 1.000000 
dockpole01
0 6.993000 2.528800 -274.798187 0.818079 0.575085 -0.004800 0.299100 -0.994200 1 0 1.000000 
0 4.453600 5.068300 -274.798187 0.421009 0.907020 -0.008100 0.313100 -0.994200 1 0 1.000000 
0 4.126400 7.356600 272.882690 0.575011 0.818116 -0.007000 0.318900 -0.018200 1 0 1.000000 
dockpole01
0 4.453600 5.068300 -274.798187 0.421009 0.907020 -0.008100 0.313100 -0.994200 1 0 1.000000 
0 0.042800 8.450800 272.882690 0.088403 0.996035 -0.009900 0.333000 -0.018200 1 0 1.000000 
0 4.126400 7.356600 272.882690 0.575011 0.818116 -0.007000 0.318900 -0.018200 1 0 1.000000 
dockpole01
0 4.453600 5.068300 -274.798187 0.421009 0.907020 -0.008100 0.313100 -0.994200 1 0 1.000000 
0 0.984600 5.997800 -274.798187 -0.089503 0.995931 -0.010500 0.328600 -0.994200 1 0 1.000000 
0 0.042800 8.450800 272.882690 0.088403 0.996035 -0.009900 0.333000 -0.018200 1 0 1.000000 
dockpole01
0 0.984600 5.997800 -274.798187 -0.089503 0.995931 -0.010500 0.328600 -0.994200 1 0 1.000000 
0 -4.040901 7.356600 274.405914 -0.421724 0.906652 -0.011401 0.347100 -0.015500 1 0 1.000000 
0 0.042800 8.450800 272.882690 0.088403 0.996035 -0.009900 0.333000 -0.018200 1 0 1.000000 
dockpole01
0 0.984600 5.997800 -274.798187 -0.089503 0.995931 -0.010500 0.328600 -0.994200 1 0 1.000000 
0 -2.484300 5.068300 -274.798187 -0.606103 0.795303 -0.011500 0.345800 -0.994200 1 0 1.000000 
0 -4.040901 7.356600 274.405914 -0.421724 0.906652 -0.011401 0.347100 -0.015500 1 0 1.000000 
dockpole01
0 -2.484300 5.068300 -274.798187 -0.606103 0.795303 -0.011500 0.345800 -0.994200 1 0 1.000000 
0 -5.608500 5.789000 274.798187 -0.784782 0.619686 -0.010300 0.354500 -0.014800 1 0 1.000000 
0 -4.040901 7.356600 274.405914 -0.421724 0.906652 -0.011401 0.347100 -0.015500 1 0 1.000000 
dockpole01
0 -2.484300 5.068300 -274.798187 -0.606103 0.795303 -0.011500 0.345800 -0.994200 1 0 1.000000 
0 -5.023800 2.528800 -274.798187 -0.951604 0.307101 -0.011800 0.363800 -0.994200 1 0 1.000000 
0 -5.608500 5.789000 274.798187 -0.784782 0.619686 -0.010300 0.354500 -0.014800 1 0 1.000000 
dockpole01
0 -5.023800 2.528800 -274.798187 -0.951604 0.307101 -0.011800 0.363800 -0.994200 1 0 1.000000 
0 -8.115500 0.278400 263.116608 -0.983763 0.179193 -0.010000 0.375800 -0.035600 1 0 1.000000 
0 -5.608500 5.789000 274.798187 -0.784782 0.619686 -0.010300 0.354500 -0.014800 1 0 1.000000 
dockpole01
0 0.046700 -7.883900 263.116394 0.104804 -0.974439 0.198708 0.270400 -0.101600 1 0 1.000000 
0 0.042800 -6.843000 274.798096 0.104804 -0.974439 0.198708 0.273500 -0.125300 1 0 1.000000 
0 -5.222499 -8.450800 263.116486 0.104804 -0.974439 0.198708 0.296500 -0.094300 1 0 1.000000 
dockpole01
0 0.042800 -6.843000 274.798096 0.253899 -0.947698 0.193400 0.273500 -0.125300 1 0 1.000000 
0 0.046700 -7.883900 263.116394 0.253899 -0.947698 0.193400 0.270400 -0.101600 1 0 1.000000 
0 5.548300 -5.367800 274.798096 0.253899 -0.947698 0.193400 0.249100 -0.140200 1 0 1.000000 
dockpole01
0 4.127800 -6.790300 263.116394 0.253899 -0.947698 0.193400 0.247400 -0.112700 1 0 1.000000 
0 5.548300 -5.367800 274.798096 0.253899 -0.947698 0.193400 0.249100 -0.140200 1 0 1.000000 
0 0.046700 -7.883900 263.116394 0.253899 -0.947698 0.193400 0.270400 -0.101600 1 0 1.000000 
dockpole01
0 -7.083700 0.283500 274.798187 0.054099 0.140696 0.988574 0.311500 -0.154300 1 0 1.000000 
0 5.548300 -5.367800 274.798096 0.038501 0.086203 0.995533 0.249100 -0.140200 1 0 1.000000 
0 8.210100 0.283500 272.882690 0.054099 0.140696 0.988574 0.244300 -0.171200 1 0 1.000000 
dockpole01
0 -8.210100 -5.463201 263.116486 -0.928189 0.015300 0.371795 0.315200 -0.107400 1 0 1.000000 
0 -6.128900 -3.279800 274.798187 -0.928189 0.015300 0.371795 0.308200 -0.133600 1 0 1.000000 
0 -8.115500 0.278400 263.116608 -0.928189 0.015300 0.371795 0.337400 -0.139100 1 0 1.000000 
dockpole01
0 -8.115500 0.278400 263.116608 -0.948097 0.253999 0.191299 0.337400 -0.139100 1 0 1.000000 
0 -7.083700 0.283500 274.798187 -0.948097 0.253999 0.191299 0.311500 -0.154300 1 0 1.000000 
0 -5.608500 5.789000 274.798187 -0.948097 0.253999 0.191299 0.322700 -0.182000 1 0 1.000000 
dockpole01
0 -7.083700 0.283500 274.798187 -0.947996 -0.253999 0.191799 0.311500 -0.154300 1 0 1.000000 
0 -8.115500 0.278400 263.116608 -0.947996 -0.253999 0.191799 0.337400 -0.139100 1 0 1.000000 
0 -6.128900 -3.279800 274.798187 -0.947996 -0.253999 0.191799 0.308200 -0.133600 1 0 1.000000 
dockpole01
0 -5.222499 -8.450800 263.116486 -0.608872 -0.608872 0.508477 0.296500 -0.094300 1 0 1.000000 
0 -6.128900 -3.279800 274.798187 -0.608872 -0.608872 0.508477 0.308200 -0.133600 1 0 1.000000 
0 -8.210100 -5.463201 263.116486 -0.608872 -0.608872 0.508477 0.315200 -0.107400 1 0 1.000000 
end
