version 1
nodes
  0 "static_prop" -1
end
skeleton
time 0
0 0.000000 0.000000 0.000000 0.000000 0.000000 0.000000
end
triangles
borealis_vent001
0 -144.371307 -74.373711 -13.966500 -0.000000 1.000000 0.000000 0.563400 -0.987200 1 0 1.000000 
0 -144.371307 -74.373711 14.021900 -0.000000 1.000000 0.000000 0.563400 -0.357900 1 0 1.000000 
0 -144.071198 -74.373711 -13.595900 -0.000000 1.000000 0.000000 0.570100 -0.978900 1 0 1.000000 
borealis_vent001
0 -144.071198 -74.373711 -13.595900 -0.000000 1.000000 0.000000 0.324000 -0.987500 1 0 1.000000 
0 -122.881203 -74.373711 -13.966500 -0.000000 1.000000 0.000000 0.021600 -0.992800 1 0 1.000000 
0 -144.371307 -74.373711 -13.966500 -0.000000 1.000000 0.000000 0.328300 -0.992800 1 0 1.000000 
borealis_vent001
0 -144.071198 -74.373711 -13.595900 -0.000000 1.000000 0.000000 0.324000 -0.987500 1 0 1.000000 
0 -123.181396 -74.373711 -13.595900 -0.000000 1.000000 0.000000 0.025900 -0.987500 1 0 1.000000 
0 -122.881203 -74.373711 -13.966500 -0.000000 1.000000 0.000000 0.021600 -0.992800 1 0 1.000000 
borealis_vent001
0 -123.181396 -74.373711 -13.595900 -0.000000 1.000000 0.000000 0.025900 -0.987500 1 0 1.000000 
0 -122.881203 -74.373711 14.021900 -0.000000 1.000000 0.000000 0.021600 -0.593400 1 0 1.000000 
0 -122.881203 -74.373711 -13.966500 -0.000000 1.000000 0.000000 0.021600 -0.992800 1 0 1.000000 
borealis_vent001
0 -123.181396 -74.373711 -13.595900 -0.000000 1.000000 0.000000 0.025900 -0.987500 1 0 1.000000 
0 -123.181396 -74.373711 14.021900 -0.000000 1.000000 0.000000 0.025900 -0.593400 1 0 1.000000 
0 -122.881203 -74.373711 14.021900 -0.000000 1.000000 0.000000 0.021600 -0.593400 1 0 1.000000 
borealis_vent001
0 -121.628601 57.607197 -13.495100 0.707107 -0.707107 0.000000 0.685600 -0.688000 1 0 1.000000 
0 -123.628601 54.607197 -2.495100 0.832066 -0.554677 0.000000 0.733000 -0.532500 1 0 1.000000 
0 -123.628601 54.607197 -13.495100 0.832066 -0.554677 0.000000 0.733000 -0.688000 1 0 1.000000 
borealis_vent001
0 -121.628601 57.607197 -13.495100 0.707107 -0.707107 0.000000 0.685600 -0.688000 1 0 1.000000 
0 -121.628601 57.607197 -2.495100 0.707107 -0.707107 0.000000 0.685600 -0.532500 1 0 1.000000 
0 -123.628601 54.607197 -2.495100 0.832066 -0.554677 0.000000 0.733000 -0.532500 1 0 1.000000 
borealis_vent001
0 -144.371307 40.562592 -13.966500 -0.990543 -0.137106 0.005200 0.694700 -0.974900 1 0 1.000000 
0 -144.371307 41.626293 14.021900 -1.000000 -0.000000 0.000000 0.672500 -0.389900 1 0 1.000000 
0 -144.371307 41.626293 -13.966500 -1.000000 -0.000000 0.000000 0.672500 -0.974900 1 0 1.000000 
borealis_vent001
0 -144.371307 40.562592 -13.966500 -0.990543 -0.137106 0.005200 0.694700 -0.974900 1 0 1.000000 
0 -144.071198 40.562592 14.021900 1.000000 0.000000 0.000000 0.694700 -0.389900 1 0 1.000000 
0 -144.371307 41.626293 14.021900 -1.000000 -0.000000 0.000000 0.672500 -0.389900 1 0 1.000000 
borealis_vent001
0 -144.071198 41.626293 -13.595900 0.990542 0.137106 0.005300 0.672500 -0.967200 1 0 1.000000 
0 -144.371307 41.626293 14.021900 -1.000000 -0.000000 0.000000 0.672500 -0.389900 1 0 1.000000 
0 -144.071198 40.562592 14.021900 1.000000 0.000000 0.000000 0.694700 -0.389900 1 0 1.000000 
borealis_vent001
0 -144.071198 41.626293 -13.595900 0.990542 0.137106 0.005300 0.672500 -0.967200 1 0 1.000000 
0 -144.071198 40.562592 14.021900 1.000000 0.000000 0.000000 0.694700 -0.389900 1 0 1.000000 
0 -144.071198 40.562592 -13.595900 1.000000 0.000000 0.000000 0.694700 -0.967200 1 0 1.000000 
borealis_vent001
0 -104.564903 58.883595 -13.966500 0.137106 -0.990543 0.005200 0.593100 -0.944300 1 0 1.000000 
0 -105.628601 58.883595 14.021900 0.000000 -1.000000 0.000000 0.613800 -0.400200 1 0 1.000000 
0 -105.628601 58.883595 -13.966500 0.000000 -1.000000 0.000000 0.613800 -0.944300 1 0 1.000000 
borealis_vent001
0 -104.564903 58.883595 -13.966500 0.137106 -0.990543 0.005200 0.593100 -0.944300 1 0 1.000000 
0 -104.564903 59.183796 14.021900 -0.000000 1.000000 0.000000 0.593100 -0.400200 1 0 1.000000 
0 -105.628601 58.883595 14.021900 0.000000 -1.000000 0.000000 0.613800 -0.400200 1 0 1.000000 
borealis_vent001
0 -105.628601 59.183796 -13.595900 -0.137106 0.990542 0.005300 0.613800 -0.937100 1 0 1.000000 
0 -105.628601 58.883595 14.021900 0.000000 -1.000000 0.000000 0.613800 -0.400200 1 0 1.000000 
0 -104.564903 59.183796 14.021900 -0.000000 1.000000 0.000000 0.593100 -0.400200 1 0 1.000000 
borealis_vent001
0 -105.628601 59.183796 -13.595900 -0.137106 0.990542 0.005300 0.613800 -0.937100 1 0 1.000000 
0 -104.564903 59.183796 14.021900 -0.000000 1.000000 0.000000 0.593100 -0.400200 1 0 1.000000 
0 -104.564903 59.183796 -13.595900 -0.000000 1.000000 0.000000 0.593100 -0.937100 1 0 1.000000 
borealis_vent001
0 138.371399 80.373711 -13.966500 -0.137106 0.990543 0.005200 0.507600 -0.971400 1 0 1.000000 
0 139.435104 80.373711 14.021900 -0.000000 1.000000 0.000000 0.485700 -0.393400 1 0 1.000000 
0 139.435104 80.373711 -13.966500 -0.000000 1.000000 0.000000 0.485700 -0.971400 1 0 1.000000 
borealis_vent001
0 138.371399 80.373711 -13.966500 -0.137106 0.990543 0.005200 0.507600 -0.971400 1 0 1.000000 
0 138.371399 80.073608 14.021900 0.000000 -1.000000 0.000000 0.507600 -0.393400 1 0 1.000000 
0 139.435104 80.373711 14.021900 -0.000000 1.000000 0.000000 0.485700 -0.393400 1 0 1.000000 
borealis_vent001
0 139.435104 80.073608 -13.595900 0.137106 -0.990542 0.005300 0.485700 -0.963800 1 0 1.000000 
0 139.435104 80.373711 14.021900 -0.000000 1.000000 0.000000 0.485700 -0.393400 1 0 1.000000 
0 138.371399 80.073608 14.021900 0.000000 -1.000000 0.000000 0.507600 -0.393400 1 0 1.000000 
borealis_vent001
0 139.435104 80.073608 -13.595900 0.137106 -0.990542 0.005300 0.485700 -0.963800 1 0 1.000000 
0 138.371399 80.073608 14.021900 0.000000 -1.000000 0.000000 0.507600 -0.393400 1 0 1.000000 
0 138.371399 80.073608 -13.595900 0.000000 -1.000000 0.000000 0.507600 -0.963800 1 0 1.000000 
borealis_vent001
0 -123.181297 40.562595 -13.595900 -0.990542 -0.137106 0.005300 0.694700 -0.967200 1 0 1.000000 
0 -123.181297 41.626297 14.021900 -0.990542 -0.137106 0.005300 0.672500 -0.389900 1 0 1.000000 
0 -123.181297 41.626297 -13.595900 -1.000000 -0.000000 0.000000 0.672500 -0.967200 1 0 1.000000 
borealis_vent001
0 -123.181297 40.562595 -13.595900 -0.990542 -0.137106 0.005300 0.694700 -0.967200 1 0 1.000000 
0 -122.881203 40.562595 14.021900 0.967367 -0.253191 0.009800 0.694700 -0.389900 1 0 1.000000 
0 -123.181297 41.626297 14.021900 -0.990542 -0.137106 0.005300 0.672500 -0.389900 1 0 1.000000 
borealis_vent001
0 -122.881203 41.626297 -13.966500 1.000000 0.000000 0.000000 0.672500 -0.974900 1 0 1.000000 
0 -122.881203 40.562595 14.021900 0.967367 -0.253191 0.009800 0.694700 -0.389900 1 0 1.000000 
0 -122.881203 40.562595 -13.966500 1.000000 0.000000 0.000000 0.694700 -0.974900 1 0 1.000000 
borealis_vent001
0 -122.881203 41.626297 -13.966500 1.000000 0.000000 0.000000 0.672500 -0.974900 1 0 1.000000 
0 -122.881203 41.626297 14.021900 1.000000 0.000000 0.000000 0.672500 -0.389900 1 0 1.000000 
0 -122.881203 40.562595 14.021900 0.967367 -0.253191 0.009800 0.694700 -0.389900 1 0 1.000000 
borealis_vent001
0 -123.181297 40.562595 -13.595900 0.000000 0.000000 1.000000 0.444600 -0.758600 1 0 1.000000 
0 -144.071198 41.626293 -13.595900 0.000000 0.000000 1.000000 0.889100 -0.736000 1 0 1.000000 
0 -144.071198 40.562592 -13.595900 0.000000 0.000000 1.000000 0.889100 -0.758600 1 0 1.000000 
borealis_vent001
0 -123.181297 40.562595 -13.595900 0.000000 0.000000 1.000000 0.444600 -0.758600 1 0 1.000000 
0 -123.181297 41.626297 -13.595900 0.000000 0.000000 1.000000 0.444600 -0.736000 1 0 1.000000 
0 -144.071198 41.626293 -13.595900 0.000000 0.000000 1.000000 0.889100 -0.736000 1 0 1.000000 
borealis_vent001
0 -144.371307 41.626293 -13.966500 0.000000 0.000000 -1.000000 0.895500 -0.736000 1 0 1.000000 
0 -122.881203 40.562595 -13.966500 0.000000 0.000000 -1.000000 0.438200 -0.758600 1 0 1.000000 
0 -144.371307 40.562592 -13.966500 0.000000 0.000000 -1.000000 0.895500 -0.758600 1 0 1.000000 
borealis_vent001
0 -144.371307 41.626293 -13.966500 0.000000 0.000000 -1.000000 0.895500 -0.736000 1 0 1.000000 
0 -122.881203 41.626297 -13.966500 0.000000 0.000000 -1.000000 0.438200 -0.736000 1 0 1.000000 
0 -122.881203 40.562595 -13.966500 0.000000 0.000000 -1.000000 0.438200 -0.758600 1 0 1.000000 
borealis_vent001
0 22.371397 80.373703 -13.966500 -0.137106 0.990543 0.005200 0.623600 -0.964900 1 0 1.000000 
0 23.435097 80.373703 14.021900 -0.000000 1.000000 0.000000 0.604100 -0.452900 1 0 1.000000 
0 23.435097 80.373703 -13.966500 -0.000000 1.000000 0.000000 0.604100 -0.964900 1 0 1.000000 
borealis_vent001
0 22.371397 80.373703 -13.966500 -0.137106 0.990543 0.005200 0.623600 -0.964900 1 0 1.000000 
0 22.371397 80.073601 14.021900 0.000000 -1.000000 0.000000 0.623600 -0.452900 1 0 1.000000 
0 23.435097 80.373703 14.021900 -0.000000 1.000000 0.000000 0.604100 -0.452900 1 0 1.000000 
borealis_vent001
0 23.435097 80.073601 -13.595900 0.137106 -0.990542 0.005300 0.604100 -0.958100 1 0 1.000000 
0 23.435097 80.373703 14.021900 -0.000000 1.000000 0.000000 0.604100 -0.452900 1 0 1.000000 
0 22.371397 80.073601 14.021900 0.000000 -1.000000 0.000000 0.623600 -0.452900 1 0 1.000000 
borealis_vent001
0 23.435097 80.073601 -13.595900 0.137106 -0.990542 0.005300 0.604100 -0.958100 1 0 1.000000 
0 22.371397 80.073601 14.021900 0.000000 -1.000000 0.000000 0.623600 -0.452900 1 0 1.000000 
0 22.371397 80.073601 -13.595900 0.000000 -1.000000 0.000000 0.623600 -0.958100 1 0 1.000000 
borealis_vent001
0 -104.564903 80.073593 -13.595900 0.000000 -1.000000 0.000000 0.593100 -0.937100 1 0 1.000000 
0 -105.628601 80.073593 14.021900 -0.253192 -0.967368 0.009600 0.613800 -0.400200 1 0 1.000000 
0 -105.628601 80.073593 -13.595900 0.000000 -1.000000 0.000000 0.613800 -0.937100 1 0 1.000000 
borealis_vent001
0 -104.564903 80.073593 -13.595900 0.000000 -1.000000 0.000000 0.593100 -0.937100 1 0 1.000000 
0 -104.564903 80.073593 14.021900 0.000000 -1.000000 0.000000 0.593100 -0.400200 1 0 1.000000 
0 -105.628601 80.073593 14.021900 -0.253192 -0.967368 0.009600 0.613800 -0.400200 1 0 1.000000 
borealis_vent001
0 -105.628601 80.373695 -13.966500 -0.137106 0.990543 0.005200 0.613800 -0.944300 1 0 1.000000 
0 -104.564903 80.373695 14.021900 -0.137106 0.990543 0.005200 0.593100 -0.400200 1 0 1.000000 
0 -104.564903 80.373695 -13.966500 -0.000000 1.000000 0.000000 0.593100 -0.944300 1 0 1.000000 
borealis_vent001
0 -105.628601 80.373695 -13.966500 -0.137106 0.990543 0.005200 0.613800 -0.944300 1 0 1.000000 
0 -105.628601 80.073593 14.021900 -0.253192 -0.967368 0.009600 0.613800 -0.400200 1 0 1.000000 
0 -104.564903 80.373695 14.021900 -0.137106 0.990543 0.005200 0.593100 -0.400200 1 0 1.000000 
borealis_vent001
0 -104.564903 80.073593 -13.595900 0.000000 0.000000 1.000000 0.001900 -0.984800 1 0 1.000000 
0 -105.628601 59.183796 -13.595900 0.000000 0.000000 1.000000 0.131800 -0.984800 1 0 1.000000 
0 -104.564903 59.183796 -13.595900 0.000000 0.000000 1.000000 0.131800 -0.984800 1 0 1.000000 
borealis_vent001
0 -104.564903 80.073593 -13.595900 0.000000 0.000000 1.000000 0.001900 -0.984800 1 0 1.000000 
0 -105.628601 80.073593 -13.595900 0.000000 0.000000 1.000000 0.001900 -0.984800 1 0 1.000000 
0 -105.628601 59.183796 -13.595900 0.000000 0.000000 1.000000 0.131800 -0.984800 1 0 1.000000 
borealis_vent001
0 -105.628601 58.883595 -13.966500 0.000000 0.000000 -1.000000 0.133700 -0.998000 1 0 1.000000 
0 -104.564903 80.373695 -13.966500 0.000000 0.000000 -1.000000 0.000000 -0.998000 1 0 1.000000 
0 -104.564903 58.883595 -13.966500 0.000000 0.000000 -1.000000 0.133700 -0.998000 1 0 1.000000 
borealis_vent001
0 -105.628601 58.883595 -13.966500 0.000000 0.000000 -1.000000 0.133700 -0.998000 1 0 1.000000 
0 -105.628601 80.373695 -13.966500 0.000000 0.000000 -1.000000 0.000000 -0.998000 1 0 1.000000 
0 -104.564903 80.373695 -13.966500 0.000000 0.000000 -1.000000 0.000000 -0.998000 1 0 1.000000 
borealis_vent001
0 139.435104 80.073608 -13.595900 0.000000 0.000000 1.000000 0.525800 -0.393300 1 0 1.000000 
0 138.371399 59.183708 -13.595900 0.000000 0.000000 1.000000 0.554300 -0.954200 1 0 1.000000 
0 139.435104 59.183708 -13.595900 0.000000 0.000000 1.000000 0.525800 -0.954200 1 0 1.000000 
borealis_vent001
0 139.435104 80.073608 -13.595900 0.000000 0.000000 1.000000 0.525800 -0.393300 1 0 1.000000 
0 138.371399 80.073608 -13.595900 0.000000 0.000000 1.000000 0.554300 -0.393300 1 0 1.000000 
0 138.371399 59.183708 -13.595900 0.000000 0.000000 1.000000 0.554300 -0.954200 1 0 1.000000 
borealis_vent001
0 138.371399 58.883606 -13.966500 0.000000 0.000000 -1.000000 0.554300 -0.962300 1 0 1.000000 
0 139.435104 80.373711 -13.966500 0.000000 0.000000 -1.000000 0.525800 -0.385300 1 0 1.000000 
0 139.435104 58.883606 -13.966500 0.000000 0.000000 -1.000000 0.525800 -0.962300 1 0 1.000000 
borealis_vent001
0 138.371399 58.883606 -13.966500 0.000000 0.000000 -1.000000 0.554300 -0.962300 1 0 1.000000 
0 138.371399 80.373711 -13.966500 0.000000 0.000000 -1.000000 0.554300 -0.385300 1 0 1.000000 
0 139.435104 80.373711 -13.966500 0.000000 0.000000 -1.000000 0.525800 -0.385300 1 0 1.000000 
borealis_vent001
0 139.435104 58.883606 -13.966500 0.137106 -0.990543 0.005200 0.485700 -0.971400 1 0 1.000000 
0 138.371399 58.883606 14.021900 0.000000 -1.000000 0.000000 0.507600 -0.393400 1 0 1.000000 
0 138.371399 58.883606 -13.966500 0.000000 -1.000000 0.000000 0.507600 -0.971400 1 0 1.000000 
borealis_vent001
0 139.435104 58.883606 -13.966500 0.137106 -0.990543 0.005200 0.485700 -0.971400 1 0 1.000000 
0 139.435104 59.183708 14.021900 -0.000000 1.000000 0.000000 0.485700 -0.393400 1 0 1.000000 
0 138.371399 58.883606 14.021900 0.000000 -1.000000 0.000000 0.507600 -0.393400 1 0 1.000000 
borealis_vent001
0 138.371399 59.183708 -13.595900 -0.137106 0.990542 0.005300 0.507600 -0.963800 1 0 1.000000 
0 138.371399 58.883606 14.021900 0.000000 -1.000000 0.000000 0.507600 -0.393400 1 0 1.000000 
0 139.435104 59.183708 14.021900 -0.000000 1.000000 0.000000 0.485700 -0.393400 1 0 1.000000 
borealis_vent001
0 138.371399 59.183708 -13.595900 -0.137106 0.990542 0.005300 0.507600 -0.963800 1 0 1.000000 
0 139.435104 59.183708 14.021900 -0.000000 1.000000 0.000000 0.485700 -0.393400 1 0 1.000000 
0 139.435104 59.183708 -13.595900 -0.000000 1.000000 0.000000 0.485700 -0.963800 1 0 1.000000 
borealis_vent001
0 11.435097 58.883598 -13.966500 0.137106 -0.990543 0.005200 0.823700 -0.964900 1 0 1.000000 
0 10.371397 58.883598 14.021900 0.000000 -1.000000 0.000000 0.843100 -0.452900 1 0 1.000000 
0 10.371397 58.883598 -13.966500 0.000000 -1.000000 0.000000 0.843100 -0.964900 1 0 1.000000 
borealis_vent001
0 11.435097 58.883598 -13.966500 0.137106 -0.990543 0.005200 0.823700 -0.964900 1 0 1.000000 
0 11.435097 59.183800 14.021900 -0.000000 1.000000 0.000000 0.823700 -0.452900 1 0 1.000000 
0 10.371397 58.883598 14.021900 0.000000 -1.000000 0.000000 0.843100 -0.452900 1 0 1.000000 
borealis_vent001
0 10.371397 59.183800 -13.595900 -0.137106 0.990542 0.005300 0.843100 -0.958100 1 0 1.000000 
0 10.371397 58.883598 14.021900 0.000000 -1.000000 0.000000 0.843100 -0.452900 1 0 1.000000 
0 11.435097 59.183800 14.021900 -0.000000 1.000000 0.000000 0.823700 -0.452900 1 0 1.000000 
borealis_vent001
0 10.371397 59.183800 -13.595900 -0.137106 0.990542 0.005300 0.843100 -0.958100 1 0 1.000000 
0 11.435097 59.183800 14.021900 -0.000000 1.000000 0.000000 0.823700 -0.452900 1 0 1.000000 
0 11.435097 59.183800 -13.595900 -0.000000 1.000000 0.000000 0.823700 -0.958100 1 0 1.000000 
borealis_vent001
0 23.435097 80.073601 -13.595900 0.000000 0.000000 1.000000 0.567700 -0.507200 1 0 1.000000 
0 22.371399 59.183800 -13.595900 0.000000 0.000000 1.000000 0.588800 -0.920400 1 0 1.000000 
0 23.435099 59.183800 -13.595900 0.000000 0.000000 1.000000 0.567700 -0.920400 1 0 1.000000 
borealis_vent001
0 23.435097 80.073601 -13.595900 0.000000 0.000000 1.000000 0.567700 -0.507200 1 0 1.000000 
0 22.371397 80.073601 -13.595900 0.000000 0.000000 1.000000 0.588800 -0.507200 1 0 1.000000 
0 22.371399 59.183800 -13.595900 0.000000 0.000000 1.000000 0.588800 -0.920400 1 0 1.000000 
borealis_vent001
0 22.371399 58.883598 -13.966500 0.000000 0.000000 -1.000000 0.588800 -0.926400 1 0 1.000000 
0 23.435097 80.373703 -13.966500 0.000000 0.000000 -1.000000 0.567700 -0.501300 1 0 1.000000 
0 23.435099 58.883598 -13.966500 0.000000 0.000000 -1.000000 0.567700 -0.926400 1 0 1.000000 
borealis_vent001
0 22.371399 58.883598 -13.966500 0.000000 0.000000 -1.000000 0.588800 -0.926400 1 0 1.000000 
0 22.371397 80.373703 -13.966500 0.000000 0.000000 -1.000000 0.588800 -0.501300 1 0 1.000000 
0 23.435097 80.373703 -13.966500 0.000000 0.000000 -1.000000 0.567700 -0.501300 1 0 1.000000 
borealis_vent001
0 23.435099 58.883598 -13.966500 0.137106 -0.990543 0.005200 0.604100 -0.964900 1 0 1.000000 
0 22.371399 58.883598 14.021900 0.000000 -1.000000 0.000000 0.623600 -0.452900 1 0 1.000000 
0 22.371399 58.883598 -13.966500 0.000000 -1.000000 0.000000 0.623600 -0.964900 1 0 1.000000 
borealis_vent001
0 23.435099 58.883598 -13.966500 0.137106 -0.990543 0.005200 0.604100 -0.964900 1 0 1.000000 
0 23.435099 59.183800 14.021900 -0.000000 1.000000 0.000000 0.604100 -0.452900 1 0 1.000000 
0 22.371399 58.883598 14.021900 0.000000 -1.000000 0.000000 0.623600 -0.452900 1 0 1.000000 
borealis_vent001
0 22.371399 59.183800 -13.595900 -0.137106 0.990542 0.005300 0.623600 -0.958100 1 0 1.000000 
0 22.371399 58.883598 14.021900 0.000000 -1.000000 0.000000 0.623600 -0.452900 1 0 1.000000 
0 23.435099 59.183800 14.021900 -0.000000 1.000000 0.000000 0.604100 -0.452900 1 0 1.000000 
borealis_vent001
0 22.371399 59.183800 -13.595900 -0.137106 0.990542 0.005300 0.623600 -0.958100 1 0 1.000000 
0 23.435099 59.183800 14.021900 -0.000000 1.000000 0.000000 0.604100 -0.452900 1 0 1.000000 
0 23.435099 59.183800 -13.595900 -0.000000 1.000000 0.000000 0.604100 -0.958100 1 0 1.000000 
borealis_vent001
0 11.435096 80.073601 -13.595900 0.000000 0.000000 1.000000 0.805100 -0.507200 1 0 1.000000 
0 10.371397 59.183800 -13.595900 0.000000 0.000000 1.000000 0.826100 -0.920400 1 0 1.000000 
0 11.435097 59.183800 -13.595900 0.000000 0.000000 1.000000 0.805100 -0.920400 1 0 1.000000 
borealis_vent001
0 11.435096 80.073601 -13.595900 0.000000 0.000000 1.000000 0.805100 -0.507200 1 0 1.000000 
0 10.371396 80.073601 -13.595900 0.000000 0.000000 1.000000 0.826100 -0.507200 1 0 1.000000 
0 10.371397 59.183800 -13.595900 0.000000 0.000000 1.000000 0.826100 -0.920400 1 0 1.000000 
borealis_vent001
0 10.371397 58.883598 -13.966500 0.000000 0.000000 -1.000000 0.826100 -0.926400 1 0 1.000000 
0 11.435096 80.373703 -13.966500 0.000000 0.000000 -1.000000 0.805100 -0.501300 1 0 1.000000 
0 11.435097 58.883598 -13.966500 0.000000 0.000000 -1.000000 0.805100 -0.926400 1 0 1.000000 
borealis_vent001
0 10.371397 58.883598 -13.966500 0.000000 0.000000 -1.000000 0.826100 -0.926400 1 0 1.000000 
0 10.371396 80.373703 -13.966500 0.000000 0.000000 -1.000000 0.826100 -0.501300 1 0 1.000000 
0 11.435096 80.373703 -13.966500 0.000000 0.000000 -1.000000 0.805100 -0.501300 1 0 1.000000 
borealis_vent001
0 10.371396 80.373703 -13.966500 -0.137106 0.990543 0.005200 0.843100 -0.964900 1 0 1.000000 
0 11.435096 80.373703 14.021900 -0.000000 1.000000 0.000000 0.823700 -0.452900 1 0 1.000000 
0 11.435096 80.373703 -13.966500 -0.000000 1.000000 0.000000 0.823700 -0.964900 1 0 1.000000 
borealis_vent001
0 10.371396 80.373703 -13.966500 -0.137106 0.990543 0.005200 0.843100 -0.964900 1 0 1.000000 
0 10.371396 80.073601 14.021900 0.000000 -1.000000 0.000000 0.843100 -0.452900 1 0 1.000000 
0 11.435096 80.373703 14.021900 -0.000000 1.000000 0.000000 0.823700 -0.452900 1 0 1.000000 
borealis_vent001
0 11.435096 80.073601 -13.595900 0.137106 -0.990542 0.005300 0.823700 -0.958100 1 0 1.000000 
0 11.435096 80.373703 14.021900 -0.000000 1.000000 0.000000 0.823700 -0.452900 1 0 1.000000 
0 10.371396 80.073601 14.021900 0.000000 -1.000000 0.000000 0.843100 -0.452900 1 0 1.000000 
borealis_vent001
0 11.435096 80.073601 -13.595900 0.137106 -0.990542 0.005300 0.823700 -0.958100 1 0 1.000000 
0 10.371396 80.073601 14.021900 0.000000 -1.000000 0.000000 0.843100 -0.452900 1 0 1.000000 
0 10.371396 80.073601 -13.595900 0.000000 -1.000000 0.000000 0.843100 -0.958100 1 0 1.000000 
borealis_vent001
0 -123.181396 -75.437408 -13.595900 -1.000000 -0.000000 0.000000 0.654300 -0.981100 1 0 1.000000 
0 -123.181396 -74.373711 14.021900 -1.000000 -0.000000 0.000000 0.632800 -0.422900 1 0 1.000000 
0 -123.181396 -74.373711 -13.595900 -1.000000 -0.000000 0.000000 0.632800 -0.981100 1 0 1.000000 
borealis_vent001
0 -123.181396 -75.437408 -13.595900 -1.000000 -0.000000 0.000000 0.654300 -0.981100 1 0 1.000000 
0 -123.181396 -75.437408 14.021900 -1.000000 -0.000000 0.000000 0.654300 -0.422900 1 0 1.000000 
0 -123.181396 -74.373711 14.021900 -1.000000 -0.000000 0.000000 0.632800 -0.422900 1 0 1.000000 
borealis_vent001
0 -122.881203 -74.373711 -13.966500 1.000000 0.000000 0.000000 0.632800 -0.988600 1 0 1.000000 
0 -122.881203 -75.437408 14.021900 1.000000 0.000000 0.000000 0.654300 -0.422900 1 0 1.000000 
0 -122.881203 -75.437408 -13.966500 1.000000 0.000000 0.000000 0.654300 -0.988600 1 0 1.000000 
borealis_vent001
0 -122.881203 -74.373711 -13.966500 1.000000 0.000000 0.000000 0.632800 -0.988600 1 0 1.000000 
0 -122.881203 -74.373711 14.021900 1.000000 0.000000 0.000000 0.632800 -0.422900 1 0 1.000000 
0 -122.881203 -75.437408 14.021900 1.000000 0.000000 0.000000 0.654300 -0.422900 1 0 1.000000 
borealis_vent001
0 -144.371307 -74.373711 -13.966500 0.000000 0.000000 -1.000000 0.918300 -0.931200 1 0 1.000000 
0 -122.881203 -75.437408 -13.966500 0.000000 0.000000 -1.000000 0.382100 -0.957700 1 0 1.000000 
0 -144.371307 -75.437408 -13.966500 0.000000 0.000000 -1.000000 0.918300 -0.957700 1 0 1.000000 
borealis_vent001
0 -144.371307 -74.373711 -13.966500 0.000000 0.000000 -1.000000 0.918300 -0.931200 1 0 1.000000 
0 -122.881203 -74.373711 -13.966500 0.000000 0.000000 -1.000000 0.382100 -0.931200 1 0 1.000000 
0 -122.881203 -75.437408 -13.966500 0.000000 0.000000 -1.000000 0.382100 -0.957700 1 0 1.000000 
borealis_vent001
0 -123.181396 -75.437408 -13.595900 0.000000 0.000000 1.000000 0.389600 -0.957700 1 0 1.000000 
0 -144.071198 -74.373711 -13.595900 0.000000 0.000000 1.000000 0.910800 -0.931200 1 0 1.000000 
0 -144.071198 -75.437408 -13.595900 0.000000 0.000000 1.000000 0.910800 -0.957700 1 0 1.000000 
borealis_vent001
0 -123.181396 -75.437408 -13.595900 0.000000 0.000000 1.000000 0.389600 -0.957700 1 0 1.000000 
0 -123.181396 -74.373711 -13.595900 0.000000 0.000000 1.000000 0.389600 -0.931200 1 0 1.000000 
0 -144.071198 -74.373711 -13.595900 0.000000 0.000000 1.000000 0.910800 -0.931200 1 0 1.000000 
borealis_vent001
0 -111.628601 59.607197 -2.495100 0.000000 -1.000000 0.000000 0.537800 -0.615400 1 0 1.000000 
0 -118.628601 59.607197 -13.495100 0.000000 -1.000000 0.000000 0.643700 -0.785600 1 0 1.000000 
0 -111.628601 59.607197 -13.495100 0.000000 -1.000000 0.000000 0.537800 -0.785600 1 0 1.000000 
borealis_vent001
0 -111.628601 59.607197 -2.495100 0.000000 -1.000000 0.000000 0.537800 -0.615400 1 0 1.000000 
0 -118.628601 59.607197 -2.495100 0.000000 -1.000000 0.000000 0.643700 -0.615400 1 0 1.000000 
0 -118.628601 59.607197 -13.495100 0.000000 -1.000000 0.000000 0.643700 -0.785600 1 0 1.000000 
borealis_vent001
0 -123.628601 54.607197 -13.495100 1.000000 0.000000 0.000000 0.733000 -0.688000 1 0 1.000000 
0 -123.628601 47.626297 -2.495100 1.000000 0.000000 0.000000 0.829400 -0.532500 1 0 1.000000 
0 -123.628601 47.626297 -13.495100 1.000000 0.000000 0.000000 0.829400 -0.688000 1 0 1.000000 
borealis_vent001
0 -123.628601 54.607197 -13.495100 1.000000 0.000000 0.000000 0.733000 -0.688000 1 0 1.000000 
0 -123.628601 54.607197 -2.495100 1.000000 0.000000 0.000000 0.733000 -0.532500 1 0 1.000000 
0 -123.628601 47.626297 -2.495100 1.000000 0.000000 0.000000 0.829400 -0.532500 1 0 1.000000 
borealis_vent001
0 144.371399 59.626308 -2.495100 0.000000 -1.000000 0.000000 0.000000 -0.006700 1 0 1.000000 
0 16.371399 59.626301 -13.495100 0.000000 -1.000000 0.000000 1.000000 -0.304500 1 0 1.000000 
0 144.371399 59.626308 -13.495100 0.000000 -1.000000 0.000000 0.000000 -0.306000 1 0 1.000000 
borealis_vent001
0 16.371399 59.626301 -13.495100 0.000000 -1.000000 0.000000 1.000000 -0.304500 1 0 1.000000 
0 144.371399 59.626308 -2.495100 0.000000 -1.000000 0.000000 0.000000 -0.006700 1 0 1.000000 
0 16.371399 59.626301 -2.495100 0.000000 -1.000000 0.000000 1.000000 -0.008100 1 0 1.000000 
borealis_vent001
0 -123.628601 -80.373711 -2.495100 1.000000 0.000000 0.000000 1.000000 -0.005700 1 0 1.000000 
0 -123.628601 47.626297 -13.495100 1.000000 0.000000 0.000000 0.000000 -0.303100 1 0 1.000000 
0 -123.628601 47.626297 -2.495100 1.000000 0.000000 0.000000 0.000000 -0.005700 1 0 1.000000 
borealis_vent001
0 -123.628601 -80.373711 -13.495100 1.000000 0.000000 0.000000 1.000000 -0.303100 1 0 1.000000 
0 -123.628601 47.626297 -13.495100 1.000000 0.000000 0.000000 0.000000 -0.303100 1 0 1.000000 
0 -123.628601 -80.373711 -2.495100 1.000000 0.000000 0.000000 1.000000 -0.005700 1 0 1.000000 
borealis_vent001
0 144.371399 79.626305 -13.495100 -0.000000 1.000000 0.000000 0.000000 -0.306000 1 0 1.000000 
0 16.371397 79.626297 -2.495100 -0.000000 1.000000 0.000000 1.000000 -0.008100 1 0 1.000000 
0 144.371399 79.626305 -2.495100 -0.000000 1.000000 0.000000 0.000000 -0.006700 1 0 1.000000 
borealis_vent001
0 144.371399 79.626305 -13.495100 -0.000000 1.000000 0.000000 0.000000 -0.306000 1 0 1.000000 
0 16.371397 79.626297 -13.495100 -0.000000 1.000000 0.000000 1.000000 -0.304500 1 0 1.000000 
0 16.371397 79.626297 -2.495100 -0.000000 1.000000 0.000000 1.000000 -0.008100 1 0 1.000000 
borealis_vent001
0 16.371397 79.626297 -2.495100 -0.000000 1.000000 0.000000 0.000000 -0.007500 1 0 1.000000 
0 -111.628601 79.626289 -13.495100 -0.000000 1.000000 0.000000 1.000000 -0.304800 1 0 1.000000 
0 -111.628601 79.626289 -2.495100 -0.000000 1.000000 0.000000 1.000000 -0.007800 1 0 1.000000 
borealis_vent001
0 16.371397 79.626297 -2.495100 -0.000000 1.000000 0.000000 0.000000 -0.007500 1 0 1.000000 
0 16.371397 79.626297 -13.495100 -0.000000 1.000000 0.000000 0.000000 -0.301000 1 0 1.000000 
0 -111.628601 79.626289 -13.495100 -0.000000 1.000000 0.000000 1.000000 -0.304800 1 0 1.000000 
borealis_vent001
0 -118.628601 59.607197 -2.495100 0.554677 -0.832066 0.000000 0.643700 -0.615400 1 0 1.000000 
0 -121.628601 57.607197 -13.495100 0.707107 -0.707107 0.000000 0.695600 -0.785600 1 0 1.000000 
0 -118.628601 59.607197 -13.495100 0.554677 -0.832066 0.000000 0.643700 -0.785600 1 0 1.000000 
borealis_vent001
0 -118.628601 59.607197 -2.495100 0.554677 -0.832066 0.000000 0.643700 -0.615400 1 0 1.000000 
0 -121.628601 57.607197 -2.495100 0.707107 -0.707107 0.000000 0.695600 -0.615400 1 0 1.000000 
0 -121.628601 57.607197 -13.495100 0.707107 -0.707107 0.000000 0.695600 -0.785600 1 0 1.000000 
borealis_vent001
0 -143.628601 47.626293 -13.495100 -1.000000 -0.000000 0.000000 0.000000 -0.303100 1 0 1.000000 
0 -143.628601 -80.373711 -2.495100 -1.000000 -0.000000 0.000000 1.000000 -0.005700 1 0 1.000000 
0 -143.628601 47.626293 -2.495100 -1.000000 -0.000000 0.000000 0.000000 -0.005700 1 0 1.000000 
borealis_vent001
0 -143.628601 47.626293 -13.495100 -1.000000 -0.000000 0.000000 0.000000 -0.303100 1 0 1.000000 
0 -143.628601 -80.373711 -13.495100 -1.000000 -0.000000 0.000000 1.000000 -0.303100 1 0 1.000000 
0 -143.628601 -80.373711 -2.495100 -1.000000 -0.000000 0.000000 1.000000 -0.005700 1 0 1.000000 
borealis_vent001
0 -143.628601 58.607193 -13.495100 -0.998070 0.062098 0.000000 0.737700 -0.688000 1 0 1.000000 
0 -143.628601 47.626293 -13.495100 -1.000000 -0.000000 0.000000 0.889400 -0.688000 1 0 1.000000 
0 -143.628601 47.626293 -2.495100 -1.000000 -0.000000 0.000000 0.889400 -0.532500 1 0 1.000000 
borealis_vent001
0 -143.628601 58.607193 -13.495100 -0.998070 0.062098 0.000000 0.737700 -0.688000 1 0 1.000000 
0 -143.628601 47.626293 -2.495100 -1.000000 -0.000000 0.000000 0.889400 -0.532500 1 0 1.000000 
0 -143.628601 58.607193 -2.495100 -0.998070 0.062098 0.000000 0.737700 -0.532500 1 0 1.000000 
borealis_vent001
0 -142.628601 66.607193 -2.495100 -0.958795 0.284098 0.000000 0.624200 -0.532500 1 0 1.000000 
0 -143.628601 58.607193 -13.495100 -0.998070 0.062098 0.000000 0.737700 -0.688000 1 0 1.000000 
0 -143.628601 58.607193 -2.495100 -0.998070 0.062098 0.000000 0.737700 -0.532500 1 0 1.000000 
borealis_vent001
0 -142.628601 66.607193 -2.495100 -0.958795 0.284098 0.000000 0.624200 -0.532500 1 0 1.000000 
0 -142.628601 66.607193 -13.495100 -0.897604 0.440802 0.000000 0.624200 -0.688000 1 0 1.000000 
0 -143.628601 58.607193 -13.495100 -0.998070 0.062098 0.000000 0.737700 -0.688000 1 0 1.000000 
borealis_vent001
0 -137.628601 73.607193 -2.495100 -0.707107 0.707107 0.000000 0.512500 -0.532500 1 0 1.000000 
0 -142.628601 66.607193 -13.495100 -0.897604 0.440802 0.000000 0.624200 -0.688000 1 0 1.000000 
0 -142.628601 66.607193 -2.495100 -0.958795 0.284098 0.000000 0.624200 -0.532500 1 0 1.000000 
borealis_vent001
0 -137.628601 73.607193 -2.495100 -0.707107 0.707107 0.000000 0.512500 -0.532500 1 0 1.000000 
0 -137.628601 73.607193 -13.495100 -0.707107 0.707107 0.000000 0.512500 -0.688000 1 0 1.000000 
0 -142.628601 66.607193 -13.495100 -0.897604 0.440802 0.000000 0.624200 -0.688000 1 0 1.000000 
borealis_vent001
0 16.371399 59.626301 -13.495100 0.000000 -1.000000 0.000000 0.000000 -0.301000 1 0 1.000000 
0 16.371399 59.626301 -2.495100 0.000000 -1.000000 0.000000 0.000000 -0.007500 1 0 1.000000 
0 -111.628601 59.626297 -13.495100 0.000000 -1.000000 0.000000 1.000000 -0.304800 1 0 1.000000 
borealis_vent001
0 -111.628601 59.626297 -13.495100 0.000000 -1.000000 0.000000 1.000000 -0.304800 1 0 1.000000 
0 16.371399 59.626301 -2.495100 0.000000 -1.000000 0.000000 0.000000 -0.007500 1 0 1.000000 
0 -111.628601 59.626297 -2.495100 0.000000 -1.000000 0.000000 1.000000 -0.007800 1 0 1.000000 
borealis_vent001
0 138.371399 80.073608 -13.595900 -1.000000 -0.000000 0.000000 0.023300 -0.985300 1 0 1.000000 
0 138.371399 80.073608 14.021900 -1.000000 -0.000000 0.000000 0.023300 -0.589500 1 0 1.000000 
0 138.371399 80.373711 -13.966500 -1.000000 -0.000000 0.000000 0.019000 -0.990600 1 0 1.000000 
borealis_vent001
0 138.371399 59.183708 -13.595900 -1.000000 -0.000000 0.000000 0.322600 -0.985300 1 0 1.000000 
0 138.371399 80.073608 -13.595900 -1.000000 -0.000000 0.000000 0.023300 -0.985300 1 0 1.000000 
0 138.371399 80.373711 -13.966500 -1.000000 -0.000000 0.000000 0.019000 -0.990600 1 0 1.000000 
borealis_vent001
0 138.371399 59.183708 -13.595900 -1.000000 -0.000000 0.000000 0.322600 -0.985300 1 0 1.000000 
0 138.371399 80.373711 -13.966500 -1.000000 -0.000000 0.000000 0.019000 -0.990600 1 0 1.000000 
0 138.371399 58.883606 -13.966500 -1.000000 -0.000000 0.000000 0.326900 -0.990600 1 0 1.000000 
borealis_vent001
0 138.371399 58.883606 -13.966500 -1.000000 -0.000000 0.000000 0.326900 -0.990600 1 0 1.000000 
0 138.371399 58.883606 14.021900 -1.000000 -0.000000 0.000000 0.326900 -0.589500 1 0 1.000000 
0 138.371399 59.183708 -13.595900 -1.000000 -0.000000 0.000000 0.322600 -0.985300 1 0 1.000000 
borealis_vent001
0 144.371399 59.626308 -2.495100 0.000000 0.000000 1.000000 0.000000 -0.006500 1 0 1.000000 
0 16.371397 79.626297 -2.495100 0.000000 0.000000 1.000000 1.000000 -0.301200 1 0 1.000000 
0 16.371399 59.626301 -2.495100 0.000000 0.000000 1.000000 1.000000 -0.006900 1 0 1.000000 
borealis_vent001
0 16.371397 79.626297 -2.495100 0.000000 0.000000 1.000000 1.000000 -0.301200 1 0 1.000000 
0 144.371399 59.626308 -2.495100 0.000000 0.000000 1.000000 0.000000 -0.006500 1 0 1.000000 
0 144.371399 79.626305 -2.495100 0.000000 0.000000 1.000000 0.000000 -0.302000 1 0 1.000000 
borealis_vent001
0 16.371399 59.626301 -13.495100 0.000000 0.000000 -1.000000 1.000000 -0.301900 1 0 1.000000 
0 144.371399 79.626305 -13.495100 0.000000 0.000000 -1.000000 0.000000 -0.007200 1 0 1.000000 
0 144.371399 59.626308 -13.495100 0.000000 0.000000 -1.000000 0.000000 -0.302700 1 0 1.000000 
borealis_vent001
0 16.371399 59.626301 -13.495100 0.000000 0.000000 -1.000000 1.000000 -0.301900 1 0 1.000000 
0 16.371397 79.626297 -13.495100 0.000000 0.000000 -1.000000 1.000000 -0.007600 1 0 1.000000 
0 144.371399 79.626305 -13.495100 0.000000 0.000000 -1.000000 0.000000 -0.007200 1 0 1.000000 
borealis_vent001
0 -143.628601 -80.373711 -2.495100 0.000000 0.000000 1.000000 0.998900 -0.306300 1 0 1.000000 
0 -123.628601 47.626297 -2.495100 0.000000 0.000000 1.000000 0.000000 -0.011200 1 0 1.000000 
0 -143.628601 47.626293 -2.495100 0.000000 0.000000 1.000000 0.000000 -0.307900 1 0 1.000000 
borealis_vent001
0 -143.628601 -80.373711 -2.495100 0.000000 0.000000 1.000000 0.998900 -0.306300 1 0 1.000000 
0 -123.628601 -80.373711 -2.495100 0.000000 0.000000 1.000000 0.998900 -0.004800 1 0 1.000000 
0 -123.628601 47.626297 -2.495100 0.000000 0.000000 1.000000 0.000000 -0.011200 1 0 1.000000 
borealis_vent001
0 -143.628601 -80.373711 -13.495100 0.000000 0.000000 -1.000000 1.000000 -0.004800 1 0 1.000000 
0 -123.628601 47.626297 -13.495100 0.000000 0.000000 -1.000000 0.001100 -0.307900 1 0 1.000000 
0 -123.628601 -80.373711 -13.495100 0.000000 0.000000 -1.000000 1.000000 -0.306300 1 0 1.000000 
borealis_vent001
0 -123.628601 47.626297 -13.495100 0.000000 0.000000 -1.000000 0.001100 -0.307900 1 0 1.000000 
0 -143.628601 -80.373711 -13.495100 0.000000 0.000000 -1.000000 1.000000 -0.004800 1 0 1.000000 
0 -143.628601 47.626293 -13.495100 0.000000 0.000000 -1.000000 0.001100 -0.011200 1 0 1.000000 
borealis_vent001
0 -123.628601 47.626297 -13.495100 0.000000 -1.000000 0.000000 0.011000 -0.841200 1 0 1.000000 
0 -143.628601 47.626293 -2.495100 0.000000 -1.000000 0.000000 0.328100 -0.666800 1 0 1.000000 
0 -143.628601 47.626293 -13.495100 0.000000 -1.000000 0.000000 0.328100 -0.841200 1 0 1.000000 
borealis_vent001
0 -123.628601 47.626297 -13.495100 0.000000 -1.000000 0.000000 0.011000 -0.841200 1 0 1.000000 
0 -123.628601 47.626297 -2.495100 0.000000 -1.000000 0.000000 0.011000 -0.666800 1 0 1.000000 
0 -143.628601 47.626293 -2.495100 0.000000 -1.000000 0.000000 0.328100 -0.666800 1 0 1.000000 
borealis_vent001
0 -111.628601 79.626289 -2.495100 1.000000 0.000000 0.000000 0.004700 -0.589000 1 0 1.000000 
0 -111.628601 59.607197 -13.495100 1.000000 0.000000 0.000000 0.129200 -0.981200 1 0 1.000000 
0 -111.628601 79.626289 -13.495100 1.000000 0.000000 0.000000 0.004700 -0.981200 1 0 1.000000 
borealis_vent001
0 -111.628601 79.626289 -2.495100 1.000000 0.000000 0.000000 0.004700 -0.589000 1 0 1.000000 
0 -111.628601 59.607197 -2.495100 1.000000 0.000000 0.000000 0.129200 -0.589000 1 0 1.000000 
0 -111.628601 59.607197 -13.495100 1.000000 0.000000 0.000000 0.129200 -0.981200 1 0 1.000000 
borealis_vent001
0 16.371399 59.626301 -2.495100 0.000000 0.000000 1.000000 0.000000 -0.006000 1 0 1.000000 
0 -111.628601 79.626289 -2.495100 0.000000 0.000000 1.000000 1.000000 -0.302400 1 0 1.000000 
0 -111.628601 59.626297 -2.495100 0.000000 0.000000 1.000000 1.000000 -0.004500 1 0 1.000000 
borealis_vent001
0 16.371399 59.626301 -2.495100 0.000000 0.000000 1.000000 0.000000 -0.006000 1 0 1.000000 
0 16.371397 79.626297 -2.495100 0.000000 0.000000 1.000000 0.000000 -0.302400 1 0 1.000000 
0 -111.628601 79.626289 -2.495100 0.000000 0.000000 1.000000 1.000000 -0.302400 1 0 1.000000 
borealis_vent001
0 16.371397 79.626297 -13.495100 0.000000 0.000000 -1.000000 0.000000 -0.006800 1 0 1.000000 
0 -111.628601 59.626297 -13.495100 0.000000 0.000000 -1.000000 1.000000 -0.303100 1 0 1.000000 
0 -111.628601 79.626289 -13.495100 0.000000 0.000000 -1.000000 1.000000 -0.005200 1 0 1.000000 
borealis_vent001
0 16.371397 79.626297 -13.495100 0.000000 0.000000 -1.000000 0.000000 -0.006800 1 0 1.000000 
0 16.371399 59.626301 -13.495100 0.000000 0.000000 -1.000000 0.000000 -0.303100 1 0 1.000000 
0 -111.628601 59.626297 -13.495100 0.000000 0.000000 -1.000000 1.000000 -0.303100 1 0 1.000000 
borealis_vent001
0 11.435097 59.183800 -13.595900 1.000000 0.000000 0.000000 0.322200 -0.986000 1 0 1.000000 
0 11.435097 59.183800 14.021900 1.000000 0.000000 0.000000 0.322200 -0.591200 1 0 1.000000 
0 11.435097 58.883598 -13.966500 1.000000 0.000000 0.000000 0.326500 -0.991300 1 0 1.000000 
borealis_vent001
0 11.435096 80.373703 -13.966500 1.000000 0.000000 0.000000 0.019300 -0.991300 1 0 1.000000 
0 11.435097 59.183800 -13.595900 1.000000 0.000000 0.000000 0.322200 -0.986000 1 0 1.000000 
0 11.435097 58.883598 -13.966500 1.000000 0.000000 0.000000 0.326500 -0.991300 1 0 1.000000 
borealis_vent001
0 11.435096 80.373703 -13.966500 1.000000 0.000000 0.000000 0.019300 -0.991300 1 0 1.000000 
0 11.435096 80.073601 -13.595900 1.000000 0.000000 0.000000 0.023600 -0.986000 1 0 1.000000 
0 11.435097 59.183800 -13.595900 1.000000 0.000000 0.000000 0.322200 -0.986000 1 0 1.000000 
borealis_vent001
0 11.435096 80.373703 -13.966500 1.000000 0.000000 0.000000 0.019300 -0.991300 1 0 1.000000 
0 11.435096 80.373703 14.021900 1.000000 0.000000 0.000000 0.019300 -0.591200 1 0 1.000000 
0 11.435096 80.073601 -13.595900 1.000000 0.000000 0.000000 0.023600 -0.986000 1 0 1.000000 
borealis_vent001
0 23.435099 59.183800 -13.595900 1.000000 0.000000 0.000000 0.322200 -0.986000 1 0 1.000000 
0 23.435099 59.183800 14.021900 1.000000 0.000000 0.000000 0.322200 -0.591200 1 0 1.000000 
0 23.435099 58.883598 -13.966500 1.000000 0.000000 0.000000 0.326500 -0.991300 1 0 1.000000 
borealis_vent001
0 23.435097 80.373703 -13.966500 1.000000 0.000000 0.000000 0.019300 -0.991300 1 0 1.000000 
0 23.435099 59.183800 -13.595900 1.000000 0.000000 0.000000 0.322200 -0.986000 1 0 1.000000 
0 23.435099 58.883598 -13.966500 1.000000 0.000000 0.000000 0.326500 -0.991300 1 0 1.000000 
borealis_vent001
0 23.435097 80.373703 -13.966500 1.000000 0.000000 0.000000 0.019300 -0.991300 1 0 1.000000 
0 23.435097 80.073601 -13.595900 1.000000 0.000000 0.000000 0.023600 -0.986000 1 0 1.000000 
0 23.435099 59.183800 -13.595900 1.000000 0.000000 0.000000 0.322200 -0.986000 1 0 1.000000 
borealis_vent001
0 23.435097 80.373703 -13.966500 1.000000 0.000000 0.000000 0.019300 -0.991300 1 0 1.000000 
0 23.435097 80.373703 14.021900 1.000000 0.000000 0.000000 0.019300 -0.591200 1 0 1.000000 
0 23.435097 80.073601 -13.595900 1.000000 0.000000 0.000000 0.023600 -0.986000 1 0 1.000000 
borealis_vent001
0 -104.564903 59.183796 -13.595900 1.000000 0.000000 0.000000 0.317600 -0.991400 1 0 1.000000 
0 -104.564903 59.183796 14.021900 1.000000 0.000000 0.000000 0.317600 -0.591300 1 0 1.000000 
0 -104.564903 58.883595 -13.966500 1.000000 0.000000 0.000000 0.321900 -0.996800 1 0 1.000000 
borealis_vent001
0 -104.564903 80.373695 -13.966500 1.000000 0.000000 0.000000 0.010600 -0.996800 1 0 1.000000 
0 -104.564903 59.183796 -13.595900 1.000000 0.000000 0.000000 0.317600 -0.991400 1 0 1.000000 
0 -104.564903 58.883595 -13.966500 1.000000 0.000000 0.000000 0.321900 -0.996800 1 0 1.000000 
borealis_vent001
0 -104.564903 80.373695 -13.966500 1.000000 0.000000 0.000000 0.010600 -0.996800 1 0 1.000000 
0 -104.564903 80.073593 -13.595900 1.000000 0.000000 0.000000 0.014900 -0.991400 1 0 1.000000 
0 -104.564903 59.183796 -13.595900 1.000000 0.000000 0.000000 0.317600 -0.991400 1 0 1.000000 
borealis_vent001
0 -104.564903 80.373695 -13.966500 1.000000 0.000000 0.000000 0.010600 -0.996800 1 0 1.000000 
0 -104.564903 80.073593 14.021900 1.000000 0.000000 0.000000 0.014900 -0.591300 1 0 1.000000 
0 -104.564903 80.073593 -13.595900 1.000000 0.000000 0.000000 0.014900 -0.991400 1 0 1.000000 
borealis_vent001
0 -104.564903 80.373695 -13.966500 1.000000 0.000000 0.000000 0.010600 -0.996800 1 0 1.000000 
0 -104.564903 80.373695 14.021900 1.000000 0.000000 0.000000 0.010600 -0.591300 1 0 1.000000 
0 -104.564903 80.073593 14.021900 1.000000 0.000000 0.000000 0.014900 -0.591300 1 0 1.000000 
borealis_vent001
0 -144.071198 -75.437408 -13.595900 0.000000 -1.000000 0.000000 0.324000 -0.987500 1 0 1.000000 
0 -144.071198 -75.437408 14.021900 0.000000 -1.000000 0.000000 0.324000 -0.593400 1 0 1.000000 
0 -144.371307 -75.437408 -13.966500 0.000000 -1.000000 0.000000 0.328300 -0.992800 1 0 1.000000 
borealis_vent001
0 -122.881203 -75.437408 -13.966500 0.000000 -1.000000 0.000000 0.021600 -0.992800 1 0 1.000000 
0 -144.071198 -75.437408 -13.595900 0.000000 -1.000000 0.000000 0.324000 -0.987500 1 0 1.000000 
0 -144.371307 -75.437408 -13.966500 0.000000 -1.000000 0.000000 0.328300 -0.992800 1 0 1.000000 
borealis_vent001
0 -122.881203 -75.437408 -13.966500 0.000000 -1.000000 0.000000 0.021600 -0.992800 1 0 1.000000 
0 -123.181396 -75.437408 -13.595900 0.000000 -1.000000 0.000000 0.025900 -0.987500 1 0 1.000000 
0 -144.071198 -75.437408 -13.595900 0.000000 -1.000000 0.000000 0.324000 -0.987500 1 0 1.000000 
borealis_vent001
0 -122.881203 -75.437408 -13.966500 0.000000 -1.000000 0.000000 0.021600 -0.992800 1 0 1.000000 
0 -123.181396 -75.437408 14.021900 0.000000 -1.000000 0.000000 0.025900 -0.593400 1 0 1.000000 
0 -123.181396 -75.437408 -13.595900 0.000000 -1.000000 0.000000 0.025900 -0.987500 1 0 1.000000 
borealis_vent001
0 -122.881203 -75.437408 -13.966500 0.000000 -1.000000 0.000000 0.021600 -0.992800 1 0 1.000000 
0 -122.881203 -75.437408 14.021900 0.000000 -1.000000 0.000000 0.021600 -0.593400 1 0 1.000000 
0 -123.181396 -75.437408 14.021900 0.000000 -1.000000 0.000000 0.025900 -0.593400 1 0 1.000000 
borealis_vent001
0 139.435104 59.183708 -13.595900 1.000000 0.000000 0.000000 0.322600 -0.985300 1 0 1.000000 
0 139.435104 59.183708 14.021900 1.000000 0.000000 0.000000 0.322600 -0.589500 1 0 1.000000 
0 139.435104 58.883606 -13.966500 1.000000 0.000000 0.000000 0.326900 -0.990600 1 0 1.000000 
borealis_vent001
0 139.435104 80.373711 -13.966500 1.000000 0.000000 0.000000 0.019000 -0.990600 1 0 1.000000 
0 139.435104 59.183708 -13.595900 1.000000 0.000000 0.000000 0.322600 -0.985300 1 0 1.000000 
0 139.435104 58.883606 -13.966500 1.000000 0.000000 0.000000 0.326900 -0.990600 1 0 1.000000 
borealis_vent001
0 139.435104 80.373711 -13.966500 1.000000 0.000000 0.000000 0.019000 -0.990600 1 0 1.000000 
0 139.435104 80.073608 -13.595900 1.000000 0.000000 0.000000 0.023300 -0.985300 1 0 1.000000 
0 139.435104 59.183708 -13.595900 1.000000 0.000000 0.000000 0.322600 -0.985300 1 0 1.000000 
borealis_vent001
0 139.435104 80.373711 -13.966500 1.000000 0.000000 0.000000 0.019000 -0.990600 1 0 1.000000 
0 139.435104 80.373711 14.021900 1.000000 0.000000 0.000000 0.019000 -0.589500 1 0 1.000000 
0 139.435104 80.073608 -13.595900 1.000000 0.000000 0.000000 0.023300 -0.985300 1 0 1.000000 
borealis_vent001
0 -122.881203 40.562595 -13.966500 0.000000 -1.000000 0.000000 0.021600 -0.992800 1 0 1.000000 
0 -122.881203 40.562595 14.021900 0.000000 -1.000000 0.000000 0.021600 -0.593400 1 0 1.000000 
0 -123.181297 40.562595 -13.595900 0.000000 -1.000000 0.000000 0.025900 -0.987500 1 0 1.000000 
borealis_vent001
0 -122.881203 40.562595 -13.966500 0.000000 -1.000000 0.000000 0.021600 -0.992800 1 0 1.000000 
0 -123.181297 40.562595 -13.595900 0.000000 -1.000000 0.000000 0.025900 -0.987500 1 0 1.000000 
0 -144.071198 40.562592 -13.595900 0.000000 -1.000000 0.000000 0.324000 -0.987500 1 0 1.000000 
borealis_vent001
0 -122.881203 40.562595 -13.966500 0.000000 -1.000000 0.000000 0.021600 -0.992800 1 0 1.000000 
0 -144.071198 40.562592 -13.595900 0.000000 -1.000000 0.000000 0.324000 -0.987500 1 0 1.000000 
0 -144.371307 40.562592 -13.966500 0.000000 -1.000000 0.000000 0.328300 -0.992800 1 0 1.000000 
borealis_vent001
0 -144.071198 40.562592 -13.595900 0.000000 -1.000000 0.000000 0.324000 -0.987500 1 0 1.000000 
0 -144.071198 40.562592 14.021900 0.000000 -1.000000 0.000000 0.324000 -0.593400 1 0 1.000000 
0 -144.371307 40.562592 -13.966500 0.000000 -1.000000 0.000000 0.328300 -0.992800 1 0 1.000000 
borealis_vent001
0 -144.371307 41.626293 -13.966500 -0.000000 1.000000 0.000000 0.328300 -0.992800 1 0 1.000000 
0 -144.371307 41.626293 14.021900 -0.000000 1.000000 0.000000 0.328300 -0.593400 1 0 1.000000 
0 -144.071198 41.626293 -13.595900 -0.000000 1.000000 0.000000 0.324000 -0.987500 1 0 1.000000 
borealis_vent001
0 -144.071198 41.626293 -13.595900 -0.000000 1.000000 0.000000 0.324000 -0.987500 1 0 1.000000 
0 -122.881203 41.626297 -13.966500 -0.000000 1.000000 0.000000 0.021600 -0.992800 1 0 1.000000 
0 -144.371307 41.626293 -13.966500 -0.000000 1.000000 0.000000 0.328300 -0.992800 1 0 1.000000 
borealis_vent001
0 -144.071198 41.626293 -13.595900 -0.000000 1.000000 0.000000 0.324000 -0.987500 1 0 1.000000 
0 -123.181297 41.626297 -13.595900 -0.000000 1.000000 0.000000 0.025900 -0.987500 1 0 1.000000 
0 -122.881203 41.626297 -13.966500 -0.000000 1.000000 0.000000 0.021600 -0.992800 1 0 1.000000 
borealis_vent001
0 -123.181297 41.626297 -13.595900 -0.000000 1.000000 0.000000 0.025900 -0.987500 1 0 1.000000 
0 -122.881203 41.626297 14.021900 -0.000000 1.000000 0.000000 0.021600 -0.593400 1 0 1.000000 
0 -122.881203 41.626297 -13.966500 -0.000000 1.000000 0.000000 0.021600 -0.992800 1 0 1.000000 
borealis_vent001
0 -123.181297 41.626297 -13.595900 -0.000000 1.000000 0.000000 0.025900 -0.987500 1 0 1.000000 
0 -123.181297 41.626297 14.021900 -0.000000 1.000000 0.000000 0.025900 -0.593400 1 0 1.000000 
0 -122.881203 41.626297 14.021900 -0.000000 1.000000 0.000000 0.021600 -0.593400 1 0 1.000000 
borealis_vent001
0 -144.071198 -74.373711 -13.595900 0.990542 0.137106 0.005300 0.632800 -0.981100 1 0 1.000000 
0 -144.071198 -75.437408 14.021900 1.000000 0.000000 0.000000 0.654300 -0.422900 1 0 1.000000 
0 -144.071198 -75.437408 -13.595900 1.000000 0.000000 0.000000 0.654300 -0.981100 1 0 1.000000 
borealis_vent001
0 -144.071198 -74.373711 -13.595900 0.990542 0.137106 0.005300 0.632800 -0.981100 1 0 1.000000 
0 -144.371307 -74.373711 14.021900 -1.000000 -0.000000 0.000000 0.632800 -0.422900 1 0 1.000000 
0 -144.071198 -75.437408 14.021900 1.000000 0.000000 0.000000 0.654300 -0.422900 1 0 1.000000 
borealis_vent001
0 -144.371307 -75.437408 -13.966500 -0.990543 -0.137106 0.005200 0.654300 -0.988600 1 0 1.000000 
0 -144.071198 -75.437408 14.021900 1.000000 0.000000 0.000000 0.654300 -0.422900 1 0 1.000000 
0 -144.371307 -74.373711 14.021900 -1.000000 -0.000000 0.000000 0.632800 -0.422900 1 0 1.000000 
borealis_vent001
0 -144.371307 -75.437408 -13.966500 -0.990543 -0.137106 0.005200 0.654300 -0.988600 1 0 1.000000 
0 -144.371307 -74.373711 14.021900 -1.000000 -0.000000 0.000000 0.632800 -0.422900 1 0 1.000000 
0 -144.371307 -74.373711 -13.966500 -1.000000 -0.000000 0.000000 0.632800 -0.988600 1 0 1.000000 
borealis_vent001
0 -122.628601 79.626289 -2.495100 -0.042200 0.999109 0.000000 0.638400 -0.615400 1 0 1.000000 
0 -111.628601 79.626289 -2.495100 -0.000000 1.000000 0.000000 0.472100 -0.615400 1 0 1.000000 
0 -111.628601 79.626289 -13.495100 -0.000000 1.000000 0.000000 0.472100 -0.785600 1 0 1.000000 
borealis_vent001
0 -122.628601 79.626289 -2.495100 -0.042200 0.999109 0.000000 0.638400 -0.615400 1 0 1.000000 
0 -111.628601 79.626289 -13.495100 -0.000000 1.000000 0.000000 0.472100 -0.785600 1 0 1.000000 
0 -122.628601 79.626289 -13.495100 -0.084403 0.996432 0.000000 0.638400 -0.785600 1 0 1.000000 
borealis_vent001
0 -122.628601 79.626289 -13.495100 -0.084403 0.996432 0.000000 0.638400 -0.785600 1 0 1.000000 
0 -130.628601 78.607193 -2.495100 -0.285705 0.958317 0.000000 0.762700 -0.615400 1 0 1.000000 
0 -122.628601 79.626289 -2.495100 -0.042200 0.999109 0.000000 0.638400 -0.615400 1 0 1.000000 
borealis_vent001
0 -122.628601 79.626289 -13.495100 -0.084403 0.996432 0.000000 0.638400 -0.785600 1 0 1.000000 
0 -130.628601 78.607193 -13.495100 -0.441485 0.897269 0.000000 0.762700 -0.785600 1 0 1.000000 
0 -130.628601 78.607193 -2.495100 -0.285705 0.958317 0.000000 0.762700 -0.615400 1 0 1.000000 
borealis_vent001
0 -130.628601 78.607193 -13.495100 -0.441485 0.897269 0.000000 0.762700 -0.785600 1 0 1.000000 
0 -137.628601 73.607193 -2.495100 -0.707107 0.707107 0.000000 0.884900 -0.615400 1 0 1.000000 
0 -130.628601 78.607193 -2.495100 -0.285705 0.958317 0.000000 0.762700 -0.615400 1 0 1.000000 
borealis_vent001
0 -130.628601 78.607193 -13.495100 -0.441485 0.897269 0.000000 0.762700 -0.785600 1 0 1.000000 
0 -137.628601 73.607193 -13.495100 -0.707107 0.707107 0.000000 0.884900 -0.785600 1 0 1.000000 
0 -137.628601 73.607193 -2.495100 -0.707107 0.707107 0.000000 0.884900 -0.615400 1 0 1.000000 
borealis_vent001
0 -143.628601 58.607193 -2.495100 0.000000 0.000000 1.000000 0.967700 -0.872700 1 0 1.000000 
0 -143.628601 47.626293 -2.495100 0.000000 0.000000 1.000000 0.967700 -0.955800 1 0 1.000000 
0 -123.628601 47.626297 -2.495100 0.000000 0.000000 1.000000 0.816400 -0.955800 1 0 1.000000 
borealis_vent001
0 -123.628601 54.607197 -2.495100 0.000000 0.000000 1.000000 0.816400 -0.903000 1 0 1.000000 
0 -143.628601 58.607193 -2.495100 0.000000 0.000000 1.000000 0.967700 -0.872700 1 0 1.000000 
0 -123.628601 47.626297 -2.495100 0.000000 0.000000 1.000000 0.816400 -0.955800 1 0 1.000000 
borealis_vent001
0 -123.628601 54.607197 -2.495100 0.000000 0.000000 1.000000 0.816400 -0.903000 1 0 1.000000 
0 -142.628601 66.607193 -2.495100 0.000000 0.000000 1.000000 0.960100 -0.812200 1 0 1.000000 
0 -143.628601 58.607193 -2.495100 0.000000 0.000000 1.000000 0.967700 -0.872700 1 0 1.000000 
borealis_vent001
0 -121.628601 57.607197 -2.495100 0.000000 0.000000 1.000000 0.801300 -0.880300 1 0 1.000000 
0 -142.628601 66.607193 -2.495100 0.000000 0.000000 1.000000 0.960100 -0.812200 1 0 1.000000 
0 -123.628601 54.607197 -2.495100 0.000000 0.000000 1.000000 0.816400 -0.903000 1 0 1.000000 
borealis_vent001
0 -121.628601 57.607197 -2.495100 0.000000 0.000000 1.000000 0.801300 -0.880300 1 0 1.000000 
0 -137.628601 73.607193 -2.495100 0.000000 0.000000 1.000000 0.922300 -0.759300 1 0 1.000000 
0 -142.628601 66.607193 -2.495100 0.000000 0.000000 1.000000 0.960100 -0.812200 1 0 1.000000 
borealis_vent001
0 -130.628601 78.607193 -2.495100 0.000000 0.000000 1.000000 0.869400 -0.721500 1 0 1.000000 
0 -137.628601 73.607193 -2.495100 0.000000 0.000000 1.000000 0.922300 -0.759300 1 0 1.000000 
0 -121.628601 57.607197 -2.495100 0.000000 0.000000 1.000000 0.801300 -0.880300 1 0 1.000000 
borealis_vent001
0 -130.628601 78.607193 -2.495100 0.000000 0.000000 1.000000 0.869400 -0.721500 1 0 1.000000 
0 -121.628601 57.607197 -2.495100 0.000000 0.000000 1.000000 0.801300 -0.880300 1 0 1.000000 
0 -118.628601 59.607197 -2.495100 0.000000 0.000000 1.000000 0.778600 -0.865200 1 0 1.000000 
borealis_vent001
0 -122.628601 79.626289 -2.495100 0.000000 0.000000 1.000000 0.808800 -0.713700 1 0 1.000000 
0 -130.628601 78.607193 -2.495100 0.000000 0.000000 1.000000 0.869400 -0.721500 1 0 1.000000 
0 -118.628601 59.607197 -2.495100 0.000000 0.000000 1.000000 0.778600 -0.865200 1 0 1.000000 
borealis_vent001
0 -122.628601 79.626289 -2.495100 0.000000 0.000000 1.000000 0.808800 -0.713700 1 0 1.000000 
0 -118.628601 59.607197 -2.495100 0.000000 0.000000 1.000000 0.778600 -0.865200 1 0 1.000000 
0 -111.628601 59.607197 -2.495100 0.000000 0.000000 1.000000 0.725600 -0.865200 1 0 1.000000 
borealis_vent001
0 -111.628601 59.607197 -2.495100 0.000000 0.000000 1.000000 0.725600 -0.865200 1 0 1.000000 
0 -111.628601 79.626289 -2.495100 0.000000 0.000000 1.000000 0.725600 -0.713700 1 0 1.000000 
0 -122.628601 79.626289 -2.495100 0.000000 0.000000 1.000000 0.808800 -0.713700 1 0 1.000000 
borealis_vent001
0 10.371396 80.073601 -13.595900 -1.000000 -0.000000 0.000000 0.023600 -0.986000 1 0 1.000000 
0 10.371396 80.073601 14.021900 -1.000000 -0.000000 0.000000 0.023600 -0.591200 1 0 1.000000 
0 10.371396 80.373703 -13.966500 -1.000000 -0.000000 0.000000 0.019300 -0.991300 1 0 1.000000 
borealis_vent001
0 10.371397 59.183800 -13.595900 -1.000000 -0.000000 0.000000 0.322200 -0.986000 1 0 1.000000 
0 10.371396 80.073601 -13.595900 -1.000000 -0.000000 0.000000 0.023600 -0.986000 1 0 1.000000 
0 10.371396 80.373703 -13.966500 -1.000000 -0.000000 0.000000 0.019300 -0.991300 1 0 1.000000 
borealis_vent001
0 10.371397 59.183800 -13.595900 -1.000000 -0.000000 0.000000 0.322200 -0.986000 1 0 1.000000 
0 10.371396 80.373703 -13.966500 -1.000000 -0.000000 0.000000 0.019300 -0.991300 1 0 1.000000 
0 10.371397 58.883598 -13.966500 -1.000000 -0.000000 0.000000 0.326500 -0.991300 1 0 1.000000 
borealis_vent001
0 10.371397 58.883598 -13.966500 -1.000000 -0.000000 0.000000 0.326500 -0.991300 1 0 1.000000 
0 10.371397 58.883598 14.021900 -1.000000 -0.000000 0.000000 0.326500 -0.591200 1 0 1.000000 
0 10.371397 59.183800 -13.595900 -1.000000 -0.000000 0.000000 0.322200 -0.986000 1 0 1.000000 
borealis_vent001
0 -111.628601 79.626289 -13.495100 0.000000 0.000000 -1.000000 0.725600 -0.714100 1 0 1.000000 
0 -111.628601 59.607197 -13.495100 0.000000 0.000000 -1.000000 0.725600 -0.865500 1 0 1.000000 
0 -122.628601 79.626289 -13.495100 0.000000 0.000000 -1.000000 0.808800 -0.714100 1 0 1.000000 
borealis_vent001
0 -111.628601 59.607197 -13.495100 0.000000 0.000000 -1.000000 0.725600 -0.865500 1 0 1.000000 
0 -130.628601 78.607193 -13.495100 0.000000 0.000000 -1.000000 0.869400 -0.721800 1 0 1.000000 
0 -122.628601 79.626289 -13.495100 0.000000 0.000000 -1.000000 0.808800 -0.714100 1 0 1.000000 
borealis_vent001
0 -111.628601 59.607197 -13.495100 0.000000 0.000000 -1.000000 0.725600 -0.865500 1 0 1.000000 
0 -118.628601 59.607197 -13.495100 0.000000 0.000000 -1.000000 0.778600 -0.865500 1 0 1.000000 
0 -130.628601 78.607193 -13.495100 0.000000 0.000000 -1.000000 0.869400 -0.721800 1 0 1.000000 
borealis_vent001
0 -118.628601 59.607197 -13.495100 0.000000 0.000000 -1.000000 0.778600 -0.865500 1 0 1.000000 
0 -137.628601 73.607193 -13.495100 0.000000 0.000000 -1.000000 0.922300 -0.759600 1 0 1.000000 
0 -130.628601 78.607193 -13.495100 0.000000 0.000000 -1.000000 0.869400 -0.721800 1 0 1.000000 
borealis_vent001
0 -118.628601 59.607197 -13.495100 0.000000 0.000000 -1.000000 0.778600 -0.865500 1 0 1.000000 
0 -121.628601 57.607197 -13.495100 0.000000 0.000000 -1.000000 0.801300 -0.880700 1 0 1.000000 
0 -137.628601 73.607193 -13.495100 0.000000 0.000000 -1.000000 0.922300 -0.759600 1 0 1.000000 
borealis_vent001
0 -137.628601 73.607193 -13.495100 0.000000 0.000000 -1.000000 0.922300 -0.759600 1 0 1.000000 
0 -121.628601 57.607197 -13.495100 0.000000 0.000000 -1.000000 0.801300 -0.880700 1 0 1.000000 
0 -123.628601 54.607197 -13.495100 0.000000 0.000000 -1.000000 0.816400 -0.903400 1 0 1.000000 
borealis_vent001
0 -137.628601 73.607193 -13.495100 0.000000 0.000000 -1.000000 0.922300 -0.759600 1 0 1.000000 
0 -123.628601 54.607197 -13.495100 0.000000 0.000000 -1.000000 0.816400 -0.903400 1 0 1.000000 
0 -142.628601 66.607193 -13.495100 0.000000 0.000000 -1.000000 0.960100 -0.812600 1 0 1.000000 
borealis_vent001
0 -142.628601 66.607193 -13.495100 0.000000 0.000000 -1.000000 0.960100 -0.812600 1 0 1.000000 
0 -123.628601 54.607197 -13.495100 0.000000 0.000000 -1.000000 0.816400 -0.903400 1 0 1.000000 
0 -123.628601 47.626297 -13.495100 0.000000 0.000000 -1.000000 0.816400 -0.956200 1 0 1.000000 
borealis_vent001
0 -142.628601 66.607193 -13.495100 0.000000 0.000000 -1.000000 0.960100 -0.812600 1 0 1.000000 
0 -123.628601 47.626297 -13.495100 0.000000 0.000000 -1.000000 0.816400 -0.956200 1 0 1.000000 
0 -143.628601 58.607193 -13.495100 0.000000 0.000000 -1.000000 0.967700 -0.873100 1 0 1.000000 
borealis_vent001
0 -123.628601 47.626297 -13.495100 0.000000 0.000000 -1.000000 0.816400 -0.956200 1 0 1.000000 
0 -143.628601 47.626293 -13.495100 0.000000 0.000000 -1.000000 0.967700 -0.956200 1 0 1.000000 
0 -143.628601 58.607193 -13.495100 0.000000 0.000000 -1.000000 0.967700 -0.873100 1 0 1.000000 
borealis_vent001
0 22.371399 58.883598 -13.966500 -1.000000 -0.000000 0.000000 0.326500 -0.991300 1 0 1.000000 
0 22.371399 58.883598 14.021900 -1.000000 -0.000000 0.000000 0.326500 -0.591200 1 0 1.000000 
0 22.371399 59.183800 -13.595900 -1.000000 -0.000000 0.000000 0.322200 -0.986000 1 0 1.000000 
borealis_vent001
0 22.371399 59.183800 -13.595900 -1.000000 -0.000000 0.000000 0.322200 -0.986000 1 0 1.000000 
0 22.371397 80.373703 -13.966500 -1.000000 -0.000000 0.000000 0.019300 -0.991300 1 0 1.000000 
0 22.371399 58.883598 -13.966500 -1.000000 -0.000000 0.000000 0.326500 -0.991300 1 0 1.000000 
borealis_vent001
0 22.371399 59.183800 -13.595900 -1.000000 -0.000000 0.000000 0.322200 -0.986000 1 0 1.000000 
0 22.371397 80.073601 -13.595900 -1.000000 -0.000000 0.000000 0.023600 -0.986000 1 0 1.000000 
0 22.371397 80.373703 -13.966500 -1.000000 -0.000000 0.000000 0.019300 -0.991300 1 0 1.000000 
borealis_vent001
0 22.371397 80.073601 -13.595900 -1.000000 -0.000000 0.000000 0.023600 -0.986000 1 0 1.000000 
0 22.371397 80.073601 14.021900 -1.000000 -0.000000 0.000000 0.023600 -0.591200 1 0 1.000000 
0 22.371397 80.373703 -13.966500 -1.000000 -0.000000 0.000000 0.019300 -0.991300 1 0 1.000000 
borealis_vent001
0 -105.628601 58.883595 -13.966500 -1.000000 -0.000000 0.000000 0.321900 -0.996800 1 0 1.000000 
0 -105.628601 58.883595 14.021900 -1.000000 -0.000000 0.000000 0.321900 -0.591300 1 0 1.000000 
0 -105.628601 59.183796 -13.595900 -1.000000 -0.000000 0.000000 0.317600 -0.991400 1 0 1.000000 
borealis_vent001
0 -105.628601 59.183796 -13.595900 -1.000000 -0.000000 0.000000 0.317600 -0.991400 1 0 1.000000 
0 -105.628601 80.373695 -13.966500 -1.000000 -0.000000 0.000000 0.010600 -0.996800 1 0 1.000000 
0 -105.628601 58.883595 -13.966500 -1.000000 -0.000000 0.000000 0.321900 -0.996800 1 0 1.000000 
borealis_vent001
0 -105.628601 59.183796 -13.595900 -1.000000 -0.000000 0.000000 0.317600 -0.991400 1 0 1.000000 
0 -105.628601 80.073593 -13.595900 -1.000000 -0.000000 0.000000 0.014900 -0.991400 1 0 1.000000 
0 -105.628601 80.373695 -13.966500 -1.000000 -0.000000 0.000000 0.010600 -0.996800 1 0 1.000000 
borealis_vent001
0 -105.628601 80.073593 -13.595900 -1.000000 -0.000000 0.000000 0.014900 -0.991400 1 0 1.000000 
0 -105.628601 80.073593 14.021900 -1.000000 -0.000000 0.000000 0.014900 -0.591300 1 0 1.000000 
0 -105.628601 80.373695 -13.966500 -1.000000 -0.000000 0.000000 0.010600 -0.996800 1 0 1.000000 
end
