version 1
nodes
  0 "ammoCrate_Bullets.Box" -1
  1 "ammoCrate_Bullets.Lid" 0
  2 "Box08" -1
end
skeleton
time 0
0 0.000000 -0.000000 0.000000 1.570796 -0.000000 0.000003
1 -0.000000 14.696926 -15.544062 -0.000000 -0.000000 0.000000
2 21.965359 -0.158800 4.739264 0.000000 -0.000000 0.000000
end
