version 1
nodes
  0 "static_prop" -1
end
skeleton
time 0
0 0.000000 0.000000 0.000000 0.000000 0.000000 0.000000
end
triangles
garbcan01
0 -9.718400 -0.000000 22.493401 0.114905 -0.038102 0.992645 1.000000 -0.000500 1 0 1.000000 
0 -8.869300 -0.000000 21.859400 0.597784 0.039599 0.800678 1.000000 -0.013700 1 0 1.000000 
0 -8.194100 3.394099 21.859400 0.567410 -0.192103 0.800714 0.937500 -0.013700 1 0 1.000000 
garbcan01
0 -8.978700 3.719100 22.493401 0.091604 -0.079203 0.992641 0.937500 -0.000500 1 0 1.000000 
0 -8.194100 3.394099 21.859400 0.567410 -0.192103 0.800714 0.937500 -0.013700 1 0 1.000000 
0 -6.271501 6.271500 21.859400 0.450691 -0.394692 0.800684 0.875000 -0.013700 1 0 1.000000 
garbcan01
0 -9.718400 -0.000000 22.493401 0.114905 -0.038102 0.992645 1.000000 -0.000500 1 0 1.000000 
0 -8.194100 3.394099 21.859400 0.567410 -0.192103 0.800714 0.937500 -0.013700 1 0 1.000000 
0 -8.978700 3.719100 22.493401 0.091604 -0.079203 0.992641 0.937500 -0.000500 1 0 1.000000 
garbcan01
0 -10.507600 -0.000000 22.151800 -0.988314 -0.014900 0.151702 1.000000 -0.000500 1 0 1.000000 
0 -9.718400 -0.000000 22.493401 0.114905 -0.038102 0.992645 1.000000 -0.000500 1 0 1.000000 
0 -8.978700 3.719100 22.493401 0.091604 -0.079203 0.992641 0.937500 -0.000500 1 0 1.000000 
garbcan01
0 -0.000000 9.853000 21.237400 0.053799 0.811987 -0.581191 0.750000 -0.041800 1 0 1.000000 
0 4.021100 9.707700 22.151800 0.348108 0.896821 0.273006 0.687500 -0.000500 1 0 1.000000 
0 3.770600 9.103000 21.237400 0.360487 0.729574 -0.581180 0.687500 -0.041800 1 0 1.000000 
garbcan01
0 -0.000000 9.853000 21.237400 0.053799 0.811987 -0.581191 0.750000 -0.041800 1 0 1.000000 
0 -0.000000 10.507600 22.151800 -0.021599 0.961774 0.272992 0.750000 -0.000500 1 0 1.000000 
0 4.021100 9.707700 22.151800 0.348108 0.896821 0.273006 0.687500 -0.000500 1 0 1.000000 
garbcan01
0 -3.770601 9.103000 21.237400 -0.280296 0.763589 -0.581692 0.812500 -0.041800 1 0 1.000000 
0 -0.000000 10.507600 22.151800 -0.021599 0.961774 0.272992 0.750000 -0.000500 1 0 1.000000 
0 -0.000000 9.853000 21.237400 0.053799 0.811987 -0.581191 0.750000 -0.041800 1 0 1.000000 
garbcan01
0 -3.770601 9.103000 21.237400 -0.280296 0.763589 -0.581692 0.812500 -0.041800 1 0 1.000000 
0 -4.021101 9.707700 22.151800 -0.399596 0.885792 0.235998 0.812500 -0.000500 1 0 1.000000 
0 -0.000000 10.507600 22.151800 -0.021599 0.961774 0.272992 0.750000 -0.000500 1 0 1.000000 
garbcan01
0 -7.007000 6.865600 21.578899 -0.474093 0.519492 -0.710889 0.875000 -0.041800 1 0 1.000000 
0 -4.021101 9.707700 22.151800 -0.399596 0.885792 0.235998 0.812500 -0.000500 1 0 1.000000 
0 -3.770601 9.103000 21.237400 -0.280296 0.763589 -0.581692 0.812500 -0.041800 1 0 1.000000 
garbcan01
0 -7.007000 6.865600 21.578899 -0.474093 0.519492 -0.710889 0.875000 -0.041800 1 0 1.000000 
0 -7.430000 7.429999 22.151800 -0.711451 0.687552 0.145290 0.875000 -0.000500 1 0 1.000000 
0 -4.021101 9.707700 22.151800 -0.399596 0.885792 0.235998 0.812500 -0.000500 1 0 1.000000 
garbcan01
0 -9.100900 3.731800 21.578899 -0.581811 0.286705 -0.761115 0.937500 -0.041800 1 0 1.000000 
0 -7.430000 7.429999 22.151800 -0.711451 0.687552 0.145290 0.875000 -0.000500 1 0 1.000000 
0 -7.007000 6.865600 21.578899 -0.474093 0.519492 -0.710889 0.875000 -0.041800 1 0 1.000000 
garbcan01
0 -9.100900 3.731800 21.578899 -0.581811 0.286705 -0.761115 0.937500 -0.041800 1 0 1.000000 
0 -9.707700 4.021100 22.151800 -0.919079 0.362992 0.153397 0.937500 -0.000500 1 0 1.000000 
0 -7.430000 7.429999 22.151800 -0.711451 0.687552 0.145290 0.875000 -0.000500 1 0 1.000000 
garbcan01
0 -9.836300 0.035100 21.578899 -0.649821 0.043801 -0.758824 1.000000 -0.041800 1 0 1.000000 
0 -9.707700 4.021100 22.151800 -0.919079 0.362992 0.153397 0.937500 -0.000500 1 0 1.000000 
0 -9.100900 3.731800 21.578899 -0.581811 0.286705 -0.761115 0.937500 -0.041800 1 0 1.000000 
garbcan01
0 -9.836300 0.035100 21.578899 -0.649821 0.043801 -0.758824 1.000000 -0.041800 1 0 1.000000 
0 -10.507600 -0.000000 22.151800 -0.988314 -0.014900 0.151702 1.000000 -0.000500 1 0 1.000000 
0 -9.707700 4.021100 22.151800 -0.919079 0.362992 0.153397 0.937500 -0.000500 1 0 1.000000 
garbcan01
0 -10.507600 -0.000000 22.151800 -0.988314 -0.014900 0.151702 1.000000 -0.000500 1 0 1.000000 
0 -8.978700 3.719100 22.493401 0.091604 -0.079203 0.992641 0.937500 -0.000500 1 0 1.000000 
0 -9.707700 4.021100 22.151800 -0.919079 0.362992 0.153397 0.937500 -0.000500 1 0 1.000000 
garbcan01
0 -9.707700 4.021100 22.151800 -0.919079 0.362992 0.153397 0.937500 -0.000500 1 0 1.000000 
0 -8.978700 3.719100 22.493401 0.091604 -0.079203 0.992641 0.937500 -0.000500 1 0 1.000000 
0 -6.872001 6.872000 22.493401 0.054302 -0.108205 0.992644 0.875000 -0.000500 1 0 1.000000 
garbcan01
0 -8.978700 3.719100 22.493401 0.091604 -0.079203 0.992641 0.937500 -0.000500 1 0 1.000000 
0 -6.271501 6.271500 21.859400 0.450691 -0.394692 0.800684 0.875000 -0.013700 1 0 1.000000 
0 -6.872001 6.872000 22.493401 0.054302 -0.108205 0.992644 0.875000 -0.000500 1 0 1.000000 
garbcan01
0 -6.872001 6.872000 22.493401 0.054302 -0.108205 0.992644 0.875000 -0.000500 1 0 1.000000 
0 -6.271501 6.271500 21.859400 0.450691 -0.394692 0.800684 0.875000 -0.013700 1 0 1.000000 
0 -3.394100 8.194100 21.859400 0.265395 -0.537091 0.800686 0.812500 -0.013700 1 0 1.000000 
garbcan01
0 -6.872001 6.872000 22.493401 0.054302 -0.108205 0.992644 0.875000 -0.000500 1 0 1.000000 
0 -3.394100 8.194100 21.859400 0.265395 -0.537091 0.800686 0.812500 -0.013700 1 0 1.000000 
0 -3.719100 8.978700 22.493401 0.008800 -0.120805 0.992637 0.812500 -0.000500 1 0 1.000000 
garbcan01
0 -3.719100 8.978700 22.493401 0.008800 -0.120805 0.992637 0.812500 -0.000500 1 0 1.000000 
0 -3.394100 8.194100 21.859400 0.265395 -0.537091 0.800686 0.812500 -0.013700 1 0 1.000000 
0 -0.000000 8.869300 21.859400 0.039599 -0.597784 0.800678 0.750000 -0.013700 1 0 1.000000 
garbcan01
0 -3.719100 8.978700 22.493401 0.008800 -0.120805 0.992637 0.812500 -0.000500 1 0 1.000000 
0 -0.000000 8.869300 21.859400 0.039599 -0.597784 0.800678 0.750000 -0.013700 1 0 1.000000 
0 -0.000000 9.718500 22.493401 -0.038102 -0.114905 0.992645 0.750000 -0.000500 1 0 1.000000 
garbcan01
0 -0.000000 9.718500 22.493401 -0.038102 -0.114905 0.992645 0.750000 -0.000500 1 0 1.000000 
0 -0.000000 8.869300 21.859400 0.039599 -0.597784 0.800678 0.750000 -0.013700 1 0 1.000000 
0 3.394099 8.194100 21.859400 -0.192103 -0.567410 0.800714 0.687500 -0.013700 1 0 1.000000 
garbcan01
0 7.429999 7.430000 22.151800 0.664777 0.695376 0.272991 0.625000 -0.000500 1 0 1.000000 
0 8.978700 3.719100 22.493401 -0.120805 -0.008800 0.992637 0.562500 -0.000500 1 0 1.000000 
0 9.707700 4.021101 22.151800 0.880299 0.388000 0.273000 0.562500 -0.000500 1 0 1.000000 
garbcan01
0 7.429999 7.430000 22.151800 0.664777 0.695376 0.272991 0.625000 -0.000500 1 0 1.000000 
0 6.872000 6.872001 22.493401 -0.108205 -0.054302 0.992644 0.625000 -0.000500 1 0 1.000000 
0 8.978700 3.719100 22.493401 -0.120805 -0.008800 0.992637 0.562500 -0.000500 1 0 1.000000 
garbcan01
0 4.021100 9.707700 22.151800 0.348108 0.896821 0.273006 0.687500 -0.000500 1 0 1.000000 
0 6.872000 6.872001 22.493401 -0.108205 -0.054302 0.992644 0.625000 -0.000500 1 0 1.000000 
0 7.429999 7.430000 22.151800 0.664777 0.695376 0.272991 0.625000 -0.000500 1 0 1.000000 
garbcan01
0 4.021100 9.707700 22.151800 0.348108 0.896821 0.273006 0.687500 -0.000500 1 0 1.000000 
0 3.719100 8.978700 22.493401 -0.079203 -0.091604 0.992641 0.687500 -0.000500 1 0 1.000000 
0 6.872000 6.872001 22.493401 -0.108205 -0.054302 0.992644 0.625000 -0.000500 1 0 1.000000 
garbcan01
0 -0.000000 10.507600 22.151800 -0.021599 0.961774 0.272992 0.750000 -0.000500 1 0 1.000000 
0 3.719100 8.978700 22.493401 -0.079203 -0.091604 0.992641 0.687500 -0.000500 1 0 1.000000 
0 4.021100 9.707700 22.151800 0.348108 0.896821 0.273006 0.687500 -0.000500 1 0 1.000000 
garbcan01
0 -0.000000 10.507600 22.151800 -0.021599 0.961774 0.272992 0.750000 -0.000500 1 0 1.000000 
0 -0.000000 9.718500 22.493401 -0.038102 -0.114905 0.992645 0.750000 -0.000500 1 0 1.000000 
0 3.719100 8.978700 22.493401 -0.079203 -0.091604 0.992641 0.687500 -0.000500 1 0 1.000000 
garbcan01
0 -4.021101 9.707700 22.151800 -0.399596 0.885792 0.235998 0.812500 -0.000500 1 0 1.000000 
0 -0.000000 9.718500 22.493401 -0.038102 -0.114905 0.992645 0.750000 -0.000500 1 0 1.000000 
0 -0.000000 10.507600 22.151800 -0.021599 0.961774 0.272992 0.750000 -0.000500 1 0 1.000000 
garbcan01
0 -4.021101 9.707700 22.151800 -0.399596 0.885792 0.235998 0.812500 -0.000500 1 0 1.000000 
0 -3.719100 8.978700 22.493401 0.008800 -0.120805 0.992637 0.812500 -0.000500 1 0 1.000000 
0 -0.000000 9.718500 22.493401 -0.038102 -0.114905 0.992645 0.750000 -0.000500 1 0 1.000000 
garbcan01
0 -7.430000 7.429999 22.151800 -0.711451 0.687552 0.145290 0.875000 -0.000500 1 0 1.000000 
0 -3.719100 8.978700 22.493401 0.008800 -0.120805 0.992637 0.812500 -0.000500 1 0 1.000000 
0 -4.021101 9.707700 22.151800 -0.399596 0.885792 0.235998 0.812500 -0.000500 1 0 1.000000 
garbcan01
0 -7.430000 7.429999 22.151800 -0.711451 0.687552 0.145290 0.875000 -0.000500 1 0 1.000000 
0 -6.872001 6.872000 22.493401 0.054302 -0.108205 0.992644 0.875000 -0.000500 1 0 1.000000 
0 -3.719100 8.978700 22.493401 0.008800 -0.120805 0.992637 0.812500 -0.000500 1 0 1.000000 
garbcan01
0 -9.707700 4.021100 22.151800 -0.919079 0.362992 0.153397 0.937500 -0.000500 1 0 1.000000 
0 -6.872001 6.872000 22.493401 0.054302 -0.108205 0.992644 0.875000 -0.000500 1 0 1.000000 
0 -7.430000 7.429999 22.151800 -0.711451 0.687552 0.145290 0.875000 -0.000500 1 0 1.000000 
garbcan01
0 -0.000000 9.718500 22.493401 -0.038102 -0.114905 0.992645 0.750000 -0.000500 1 0 1.000000 
0 3.394099 8.194100 21.859400 -0.192103 -0.567410 0.800714 0.687500 -0.013700 1 0 1.000000 
0 3.719100 8.978700 22.493401 -0.079203 -0.091604 0.992641 0.687500 -0.000500 1 0 1.000000 
garbcan01
0 3.719100 8.978700 22.493401 -0.079203 -0.091604 0.992641 0.687500 -0.000500 1 0 1.000000 
0 3.394099 8.194100 21.859400 -0.192103 -0.567410 0.800714 0.687500 -0.013700 1 0 1.000000 
0 6.271500 6.271501 21.859400 -0.394692 -0.450691 0.800684 0.625000 -0.013700 1 0 1.000000 
garbcan01
0 3.719100 8.978700 22.493401 -0.079203 -0.091604 0.992641 0.687500 -0.000500 1 0 1.000000 
0 6.271500 6.271501 21.859400 -0.394692 -0.450691 0.800684 0.625000 -0.013700 1 0 1.000000 
0 6.872000 6.872001 22.493401 -0.108205 -0.054302 0.992644 0.625000 -0.000500 1 0 1.000000 
garbcan01
0 6.872000 6.872001 22.493401 -0.108205 -0.054302 0.992644 0.625000 -0.000500 1 0 1.000000 
0 6.271500 6.271501 21.859400 -0.394692 -0.450691 0.800684 0.625000 -0.013700 1 0 1.000000 
0 8.194100 3.394100 21.859400 -0.537091 -0.265395 0.800686 0.562500 -0.013700 1 0 1.000000 
garbcan01
0 6.872000 6.872001 22.493401 -0.108205 -0.054302 0.992644 0.625000 -0.000500 1 0 1.000000 
0 8.194100 3.394100 21.859400 -0.537091 -0.265395 0.800686 0.562500 -0.013700 1 0 1.000000 
0 8.978700 3.719100 22.493401 -0.120805 -0.008800 0.992637 0.562500 -0.000500 1 0 1.000000 
garbcan01
0 8.978700 3.719100 22.493401 -0.120805 -0.008800 0.992637 0.562500 -0.000500 1 0 1.000000 
0 8.194100 3.394100 21.859400 -0.537091 -0.265395 0.800686 0.562500 -0.013700 1 0 1.000000 
0 8.869300 0.000000 21.859400 -0.597784 -0.039599 0.800678 0.500000 -0.013700 1 0 1.000000 
garbcan01
0 8.978700 3.719100 22.493401 -0.120805 -0.008800 0.992637 0.562500 -0.000500 1 0 1.000000 
0 8.869300 0.000000 21.859400 -0.597784 -0.039599 0.800678 0.500000 -0.013700 1 0 1.000000 
0 9.718500 0.000000 22.493401 -0.114905 0.038102 0.992645 0.500000 -0.000500 1 0 1.000000 
garbcan01
0 9.718500 0.000000 22.493401 -0.114905 0.038102 0.992645 0.500000 -0.000500 1 0 1.000000 
0 8.869300 0.000000 21.859400 -0.597784 -0.039599 0.800678 0.500000 -0.013700 1 0 1.000000 
0 8.194100 -3.394099 21.859400 -0.567410 0.192103 0.800714 0.437500 -0.013700 1 0 1.000000 
garbcan01
0 9.718500 0.000000 22.493401 -0.114905 0.038102 0.992645 0.500000 -0.000500 1 0 1.000000 
0 8.194100 -3.394099 21.859400 -0.567410 0.192103 0.800714 0.437500 -0.013700 1 0 1.000000 
0 8.978700 -3.719100 22.493401 -0.091604 0.079203 0.992641 0.437500 -0.000500 1 0 1.000000 
garbcan01
0 8.978700 -3.719100 22.493401 -0.091604 0.079203 0.992641 0.437500 -0.000500 1 0 1.000000 
0 8.194100 -3.394099 21.859400 -0.567410 0.192103 0.800714 0.437500 -0.013700 1 0 1.000000 
0 6.271501 -6.271500 21.859400 -0.450691 0.394692 0.800684 0.375000 -0.013700 1 0 1.000000 
garbcan01
0 8.978700 -3.719100 22.493401 -0.091604 0.079203 0.992641 0.437500 -0.000500 1 0 1.000000 
0 6.271501 -6.271500 21.859400 -0.450691 0.394692 0.800684 0.375000 -0.013700 1 0 1.000000 
0 6.872001 -6.872000 22.493401 -0.054302 0.108205 0.992644 0.375000 -0.000500 1 0 1.000000 
garbcan01
0 6.872001 -6.872000 22.493401 -0.054302 0.108205 0.992644 0.375000 -0.000500 1 0 1.000000 
0 6.271501 -6.271500 21.859400 -0.450691 0.394692 0.800684 0.375000 -0.013700 1 0 1.000000 
0 3.394100 -8.194100 21.859400 -0.265395 0.537091 0.800686 0.312500 -0.013700 1 0 1.000000 
garbcan01
0 6.872001 -6.872000 22.493401 -0.054302 0.108205 0.992644 0.375000 -0.000500 1 0 1.000000 
0 3.394100 -8.194100 21.859400 -0.265395 0.537091 0.800686 0.312500 -0.013700 1 0 1.000000 
0 3.719100 -8.978700 22.493401 -0.008800 0.120805 0.992637 0.312500 -0.000500 1 0 1.000000 
garbcan01
0 3.719100 -8.978700 22.493401 -0.008800 0.120805 0.992637 0.312500 -0.000500 1 0 1.000000 
0 3.394100 -8.194100 21.859400 -0.265395 0.537091 0.800686 0.312500 -0.013700 1 0 1.000000 
0 0.000000 -8.869300 21.859400 -0.039599 0.597784 0.800678 0.250000 -0.013700 1 0 1.000000 
garbcan01
0 3.719100 -8.978700 22.493401 -0.008800 0.120805 0.992637 0.312500 -0.000500 1 0 1.000000 
0 0.000000 -8.869300 21.859400 -0.039599 0.597784 0.800678 0.250000 -0.013700 1 0 1.000000 
0 0.000000 -9.718500 22.493401 0.038102 0.114905 0.992645 0.250000 -0.000500 1 0 1.000000 
garbcan01
0 0.000000 -9.718500 22.493401 0.038102 0.114905 0.992645 0.250000 -0.000500 1 0 1.000000 
0 0.000000 -8.869300 21.859400 -0.039599 0.597784 0.800678 0.250000 -0.013700 1 0 1.000000 
0 -3.394099 -8.194100 21.859400 0.192103 0.567410 0.800714 0.187500 -0.013700 1 0 1.000000 
garbcan01
0 0.000000 -9.718500 22.493401 0.038102 0.114905 0.992645 0.250000 -0.000500 1 0 1.000000 
0 -3.394099 -8.194100 21.859400 0.192103 0.567410 0.800714 0.187500 -0.013700 1 0 1.000000 
0 -3.719100 -8.978700 22.493401 0.079203 0.091604 0.992641 0.187500 -0.000500 1 0 1.000000 
garbcan01
0 -3.719100 -8.978700 22.493401 0.079203 0.091604 0.992641 0.187500 -0.000500 1 0 1.000000 
0 -3.394099 -8.194100 21.859400 0.192103 0.567410 0.800714 0.187500 -0.013700 1 0 1.000000 
0 -6.271500 -6.271501 21.859400 0.394692 0.450691 0.800684 0.125000 -0.013700 1 0 1.000000 
garbcan01
0 -6.967199 -6.967200 21.237400 -0.579199 -0.483799 -0.656099 0.125000 -0.041800 1 0 1.000000 
0 -9.707700 -4.021101 22.151800 -0.906732 -0.375613 0.191707 0.062500 -0.000500 1 0 1.000000 
0 -9.100900 -3.661601 21.578899 -0.616709 -0.180103 -0.766311 0.062500 -0.041800 1 0 1.000000 
garbcan01
0 -6.967199 -6.967200 21.237400 -0.579199 -0.483799 -0.656099 0.125000 -0.041800 1 0 1.000000 
0 -7.429999 -7.430000 22.151800 -0.664777 -0.695376 0.272991 0.125000 -0.000500 1 0 1.000000 
0 -9.707700 -4.021101 22.151800 -0.906732 -0.375613 0.191707 0.062500 -0.000500 1 0 1.000000 
garbcan01
0 -7.429999 -7.430000 22.151800 -0.664777 -0.695376 0.272991 0.125000 -0.000500 1 0 1.000000 
0 -8.978700 -3.719100 22.493401 0.120805 0.008800 0.992637 0.062500 -0.000500 1 0 1.000000 
0 -9.707700 -4.021101 22.151800 -0.906732 -0.375613 0.191707 0.062500 -0.000500 1 0 1.000000 
garbcan01
0 -7.429999 -7.430000 22.151800 -0.664777 -0.695376 0.272991 0.125000 -0.000500 1 0 1.000000 
0 -6.872000 -6.872001 22.493401 0.108205 0.054302 0.992644 0.125000 -0.000500 1 0 1.000000 
0 -8.978700 -3.719100 22.493401 0.120805 0.008800 0.992637 0.062500 -0.000500 1 0 1.000000 
garbcan01
0 -4.021100 -9.707700 22.151800 -0.348108 -0.896821 0.273006 0.187500 -0.000500 1 0 1.000000 
0 -6.872000 -6.872001 22.493401 0.108205 0.054302 0.992644 0.125000 -0.000500 1 0 1.000000 
0 -7.429999 -7.430000 22.151800 -0.664777 -0.695376 0.272991 0.125000 -0.000500 1 0 1.000000 
garbcan01
0 -4.021100 -9.707700 22.151800 -0.348108 -0.896821 0.273006 0.187500 -0.000500 1 0 1.000000 
0 -3.719100 -8.978700 22.493401 0.079203 0.091604 0.992641 0.187500 -0.000500 1 0 1.000000 
0 -6.872000 -6.872001 22.493401 0.108205 0.054302 0.992644 0.125000 -0.000500 1 0 1.000000 
garbcan01
0 0.000000 -10.507600 22.151800 0.021599 -0.961774 0.272992 0.250000 -0.000500 1 0 1.000000 
0 -3.719100 -8.978700 22.493401 0.079203 0.091604 0.992641 0.187500 -0.000500 1 0 1.000000 
0 -4.021100 -9.707700 22.151800 -0.348108 -0.896821 0.273006 0.187500 -0.000500 1 0 1.000000 
garbcan01
0 0.000000 -10.507600 22.151800 0.021599 -0.961774 0.272992 0.250000 -0.000500 1 0 1.000000 
0 0.000000 -9.718500 22.493401 0.038102 0.114905 0.992645 0.250000 -0.000500 1 0 1.000000 
0 -3.719100 -8.978700 22.493401 0.079203 0.091604 0.992641 0.187500 -0.000500 1 0 1.000000 
garbcan01
0 4.021101 -9.707700 22.151800 0.388000 -0.880299 0.273000 0.312500 -0.000500 1 0 1.000000 
0 0.000000 -9.718500 22.493401 0.038102 0.114905 0.992645 0.250000 -0.000500 1 0 1.000000 
0 0.000000 -10.507600 22.151800 0.021599 -0.961774 0.272992 0.250000 -0.000500 1 0 1.000000 
garbcan01
0 4.021101 -9.707700 22.151800 0.388000 -0.880299 0.273000 0.312500 -0.000500 1 0 1.000000 
0 3.719100 -8.978700 22.493401 -0.008800 0.120805 0.992637 0.312500 -0.000500 1 0 1.000000 
0 0.000000 -9.718500 22.493401 0.038102 0.114905 0.992645 0.250000 -0.000500 1 0 1.000000 
garbcan01
0 7.430000 -7.429999 22.151800 0.695376 -0.664777 0.272991 0.375000 -0.000500 1 0 1.000000 
0 3.719100 -8.978700 22.493401 -0.008800 0.120805 0.992637 0.312500 -0.000500 1 0 1.000000 
0 4.021101 -9.707700 22.151800 0.388000 -0.880299 0.273000 0.312500 -0.000500 1 0 1.000000 
garbcan01
0 7.430000 -7.429999 22.151800 0.695376 -0.664777 0.272991 0.375000 -0.000500 1 0 1.000000 
0 6.872001 -6.872000 22.493401 -0.054302 0.108205 0.992644 0.375000 -0.000500 1 0 1.000000 
0 3.719100 -8.978700 22.493401 -0.008800 0.120805 0.992637 0.312500 -0.000500 1 0 1.000000 
garbcan01
0 9.707700 -4.021100 22.151800 0.896821 -0.348108 0.273006 0.437500 -0.000500 1 0 1.000000 
0 6.872001 -6.872000 22.493401 -0.054302 0.108205 0.992644 0.375000 -0.000500 1 0 1.000000 
0 7.430000 -7.429999 22.151800 0.695376 -0.664777 0.272991 0.375000 -0.000500 1 0 1.000000 
garbcan01
0 9.707700 -4.021100 22.151800 0.896821 -0.348108 0.273006 0.437500 -0.000500 1 0 1.000000 
0 8.978700 -3.719100 22.493401 -0.091604 0.079203 0.992641 0.437500 -0.000500 1 0 1.000000 
0 6.872001 -6.872000 22.493401 -0.054302 0.108205 0.992644 0.375000 -0.000500 1 0 1.000000 
garbcan01
0 10.507600 0.000000 22.151800 0.961774 0.021599 0.272992 0.500000 -0.000500 1 0 1.000000 
0 8.978700 -3.719100 22.493401 -0.091604 0.079203 0.992641 0.437500 -0.000500 1 0 1.000000 
0 9.707700 -4.021100 22.151800 0.896821 -0.348108 0.273006 0.437500 -0.000500 1 0 1.000000 
garbcan01
0 10.507600 0.000000 22.151800 0.961774 0.021599 0.272992 0.500000 -0.000500 1 0 1.000000 
0 9.718500 0.000000 22.493401 -0.114905 0.038102 0.992645 0.500000 -0.000500 1 0 1.000000 
0 8.978700 -3.719100 22.493401 -0.091604 0.079203 0.992641 0.437500 -0.000500 1 0 1.000000 
garbcan01
0 9.707700 4.021101 22.151800 0.880299 0.388000 0.273000 0.562500 -0.000500 1 0 1.000000 
0 9.718500 0.000000 22.493401 -0.114905 0.038102 0.992645 0.500000 -0.000500 1 0 1.000000 
0 10.507600 0.000000 22.151800 0.961774 0.021599 0.272992 0.500000 -0.000500 1 0 1.000000 
garbcan01
0 9.707700 4.021101 22.151800 0.880299 0.388000 0.273000 0.562500 -0.000500 1 0 1.000000 
0 8.978700 3.719100 22.493401 -0.120805 -0.008800 0.992637 0.562500 -0.000500 1 0 1.000000 
0 9.718500 0.000000 22.493401 -0.114905 0.038102 0.992645 0.500000 -0.000500 1 0 1.000000 
garbcan01
0 -3.719100 -8.978700 22.493401 0.079203 0.091604 0.992641 0.187500 -0.000500 1 0 1.000000 
0 -6.271500 -6.271501 21.859400 0.394692 0.450691 0.800684 0.125000 -0.013700 1 0 1.000000 
0 -6.872000 -6.872001 22.493401 0.108205 0.054302 0.992644 0.125000 -0.000500 1 0 1.000000 
garbcan01
0 -6.872000 -6.872001 22.493401 0.108205 0.054302 0.992644 0.125000 -0.000500 1 0 1.000000 
0 -6.271500 -6.271501 21.859400 0.394692 0.450691 0.800684 0.125000 -0.013700 1 0 1.000000 
0 -8.194100 -3.394100 21.859400 0.537091 0.265395 0.800686 0.062500 -0.013700 1 0 1.000000 
garbcan01
0 -6.872000 -6.872001 22.493401 0.108205 0.054302 0.992644 0.125000 -0.000500 1 0 1.000000 
0 -8.194100 -3.394100 21.859400 0.537091 0.265395 0.800686 0.062500 -0.013700 1 0 1.000000 
0 -8.978700 -3.719100 22.493401 0.120805 0.008800 0.992637 0.062500 -0.000500 1 0 1.000000 
garbcan01
0 -8.978700 -3.719100 22.493401 0.120805 0.008800 0.992637 0.062500 -0.000500 1 0 1.000000 
0 -8.194100 -3.394100 21.859400 0.537091 0.265395 0.800686 0.062500 -0.013700 1 0 1.000000 
0 -8.869300 -0.000000 21.859400 0.597784 0.039599 0.800678 -0.000000 -0.013700 1 0 1.000000 
garbcan01
0 -8.978700 -3.719100 22.493401 0.120805 0.008800 0.992637 0.062500 -0.000500 1 0 1.000000 
0 -8.869300 -0.000000 21.859400 0.597784 0.039599 0.800678 -0.000000 -0.013700 1 0 1.000000 
0 -9.718400 -0.000000 22.493401 0.114905 -0.038102 0.992645 -0.000000 -0.000500 1 0 1.000000 
garbcan01
0 -9.707700 -4.021101 22.151800 -0.906732 -0.375613 0.191707 0.062500 -0.000500 1 0 1.000000 
0 -8.978700 -3.719100 22.493401 0.120805 0.008800 0.992637 0.062500 -0.000500 1 0 1.000000 
0 -9.718400 -0.000000 22.493401 0.114905 -0.038102 0.992645 -0.000000 -0.000500 1 0 1.000000 
garbcan01
0 -9.707700 -4.021101 22.151800 -0.906732 -0.375613 0.191707 0.062500 -0.000500 1 0 1.000000 
0 -9.718400 -0.000000 22.493401 0.114905 -0.038102 0.992645 -0.000000 -0.000500 1 0 1.000000 
0 -10.507600 -0.000000 22.151800 -0.988314 -0.014900 0.151702 -0.000000 -0.000500 1 0 1.000000 
garbcan01
0 -9.100900 -3.661601 21.578899 -0.616709 -0.180103 -0.766311 0.062500 -0.041800 1 0 1.000000 
0 -9.707700 -4.021101 22.151800 -0.906732 -0.375613 0.191707 0.062500 -0.000500 1 0 1.000000 
0 -10.507600 -0.000000 22.151800 -0.988314 -0.014900 0.151702 -0.000000 -0.000500 1 0 1.000000 
garbcan01
0 -9.100900 -3.661601 21.578899 -0.616709 -0.180103 -0.766311 0.062500 -0.041800 1 0 1.000000 
0 -10.507600 -0.000000 22.151800 -0.988314 -0.014900 0.151702 -0.000000 -0.000500 1 0 1.000000 
0 -9.836300 0.035100 21.578899 -0.649821 0.043801 -0.758824 -0.000000 -0.041800 1 0 1.000000 
garbcan01
0 -3.770600 -9.103000 21.237400 -0.360487 -0.729574 -0.581180 0.187500 -0.041800 1 0 1.000000 
0 -7.429999 -7.430000 22.151800 -0.664777 -0.695376 0.272991 0.125000 -0.000500 1 0 1.000000 
0 -6.967199 -6.967200 21.237400 -0.579199 -0.483799 -0.656099 0.125000 -0.041800 1 0 1.000000 
garbcan01
0 -3.770600 -9.103000 21.237400 -0.360487 -0.729574 -0.581180 0.187500 -0.041800 1 0 1.000000 
0 -4.021100 -9.707700 22.151800 -0.348108 -0.896821 0.273006 0.187500 -0.000500 1 0 1.000000 
0 -7.429999 -7.430000 22.151800 -0.664777 -0.695376 0.272991 0.125000 -0.000500 1 0 1.000000 
garbcan01
0 0.000000 -9.853000 21.237400 -0.053799 -0.811987 -0.581191 0.250000 -0.041800 1 0 1.000000 
0 -4.021100 -9.707700 22.151800 -0.348108 -0.896821 0.273006 0.187500 -0.000500 1 0 1.000000 
0 -3.770600 -9.103000 21.237400 -0.360487 -0.729574 -0.581180 0.187500 -0.041800 1 0 1.000000 
garbcan01
0 0.000000 -9.853000 21.237400 -0.053799 -0.811987 -0.581191 0.250000 -0.041800 1 0 1.000000 
0 0.000000 -10.507600 22.151800 0.021599 -0.961774 0.272992 0.250000 -0.000500 1 0 1.000000 
0 -4.021100 -9.707700 22.151800 -0.348108 -0.896821 0.273006 0.187500 -0.000500 1 0 1.000000 
garbcan01
0 3.770601 -9.103000 21.237400 0.260994 -0.770782 -0.581186 0.312500 -0.041800 1 0 1.000000 
0 0.000000 -10.507600 22.151800 0.021599 -0.961774 0.272992 0.250000 -0.000500 1 0 1.000000 
0 0.000000 -9.853000 21.237400 -0.053799 -0.811987 -0.581191 0.250000 -0.041800 1 0 1.000000 
garbcan01
0 3.770601 -9.103000 21.237400 0.260994 -0.770782 -0.581186 0.312500 -0.041800 1 0 1.000000 
0 4.021101 -9.707700 22.151800 0.388000 -0.880299 0.273000 0.312500 -0.000500 1 0 1.000000 
0 0.000000 -10.507600 22.151800 0.021599 -0.961774 0.272992 0.250000 -0.000500 1 0 1.000000 
garbcan01
0 6.967200 -6.967199 21.237400 0.536104 -0.612204 -0.581204 0.375000 -0.041800 1 0 1.000000 
0 4.021101 -9.707700 22.151800 0.388000 -0.880299 0.273000 0.312500 -0.000500 1 0 1.000000 
0 3.770601 -9.103000 21.237400 0.260994 -0.770782 -0.581186 0.312500 -0.041800 1 0 1.000000 
garbcan01
0 6.967200 -6.967199 21.237400 0.536104 -0.612204 -0.581204 0.375000 -0.041800 1 0 1.000000 
0 7.430000 -7.429999 22.151800 0.695376 -0.664777 0.272991 0.375000 -0.000500 1 0 1.000000 
0 4.021101 -9.707700 22.151800 0.388000 -0.880299 0.273000 0.312500 -0.000500 1 0 1.000000 
garbcan01
0 9.103000 -3.770600 21.237400 0.729574 -0.360487 -0.581180 0.437500 -0.041800 1 0 1.000000 
0 7.430000 -7.429999 22.151800 0.695376 -0.664777 0.272991 0.375000 -0.000500 1 0 1.000000 
0 6.967200 -6.967199 21.237400 0.536104 -0.612204 -0.581204 0.375000 -0.041800 1 0 1.000000 
garbcan01
0 9.103000 -3.770600 21.237400 0.729574 -0.360487 -0.581180 0.437500 -0.041800 1 0 1.000000 
0 9.707700 -4.021100 22.151800 0.896821 -0.348108 0.273006 0.437500 -0.000500 1 0 1.000000 
0 7.430000 -7.429999 22.151800 0.695376 -0.664777 0.272991 0.375000 -0.000500 1 0 1.000000 
garbcan01
0 9.853000 0.000000 21.237400 0.811987 -0.053799 -0.581191 0.500000 -0.041800 1 0 1.000000 
0 9.707700 -4.021100 22.151800 0.896821 -0.348108 0.273006 0.437500 -0.000500 1 0 1.000000 
0 9.103000 -3.770600 21.237400 0.729574 -0.360487 -0.581180 0.437500 -0.041800 1 0 1.000000 
garbcan01
0 9.853000 0.000000 21.237400 0.811987 -0.053799 -0.581191 0.500000 -0.041800 1 0 1.000000 
0 10.507600 0.000000 22.151800 0.961774 0.021599 0.272992 0.500000 -0.000500 1 0 1.000000 
0 9.707700 -4.021100 22.151800 0.896821 -0.348108 0.273006 0.437500 -0.000500 1 0 1.000000 
garbcan01
0 9.103000 3.770601 21.237400 0.770782 0.260994 -0.581186 0.562500 -0.041800 1 0 1.000000 
0 10.507600 0.000000 22.151800 0.961774 0.021599 0.272992 0.500000 -0.000500 1 0 1.000000 
0 9.853000 0.000000 21.237400 0.811987 -0.053799 -0.581191 0.500000 -0.041800 1 0 1.000000 
garbcan01
0 9.103000 3.770601 21.237400 0.770782 0.260994 -0.581186 0.562500 -0.041800 1 0 1.000000 
0 9.707700 4.021101 22.151800 0.880299 0.388000 0.273000 0.562500 -0.000500 1 0 1.000000 
0 10.507600 0.000000 22.151800 0.961774 0.021599 0.272992 0.500000 -0.000500 1 0 1.000000 
garbcan01
0 6.967199 6.967200 21.237400 0.612204 0.536104 -0.581204 0.625000 -0.041800 1 0 1.000000 
0 9.707700 4.021101 22.151800 0.880299 0.388000 0.273000 0.562500 -0.000500 1 0 1.000000 
0 9.103000 3.770601 21.237400 0.770782 0.260994 -0.581186 0.562500 -0.041800 1 0 1.000000 
garbcan01
0 6.967199 6.967200 21.237400 0.612204 0.536104 -0.581204 0.625000 -0.041800 1 0 1.000000 
0 7.429999 7.430000 22.151800 0.664777 0.695376 0.272991 0.625000 -0.000500 1 0 1.000000 
0 9.707700 4.021101 22.151800 0.880299 0.388000 0.273000 0.562500 -0.000500 1 0 1.000000 
garbcan01
0 3.770600 9.103000 21.237400 0.360487 0.729574 -0.581180 0.687500 -0.041800 1 0 1.000000 
0 7.429999 7.430000 22.151800 0.664777 0.695376 0.272991 0.625000 -0.000500 1 0 1.000000 
0 6.967199 6.967200 21.237400 0.612204 0.536104 -0.581204 0.625000 -0.041800 1 0 1.000000 
garbcan01
0 3.770600 9.103000 21.237400 0.360487 0.729574 -0.581180 0.687500 -0.041800 1 0 1.000000 
0 4.021100 9.707700 22.151800 0.348108 0.896821 0.273006 0.687500 -0.000500 1 0 1.000000 
0 7.429999 7.430000 22.151800 0.664777 0.695376 0.272991 0.625000 -0.000500 1 0 1.000000 
garbcan01
0 5.535999 5.536000 0.043400 0.438498 0.696897 -0.567498 0.625000 -0.998300 1 0 1.000000 
0 7.999700 3.313600 7.412900 0.817903 0.573602 -0.044900 0.562500 -0.665700 1 0 1.000000 
0 7.233100 2.996100 0.043400 0.685201 0.222300 -0.693601 0.562500 -0.998300 1 0 1.000000 
garbcan01
0 5.535999 5.536000 0.043400 0.438498 0.696897 -0.567498 0.625000 -0.998300 1 0 1.000000 
0 4.611000 4.418800 6.157300 0.682006 0.731006 -0.022300 0.621600 -0.722300 1 0 1.000000 
0 7.999700 3.313600 7.412900 0.817903 0.573602 -0.044900 0.562500 -0.665700 1 0 1.000000 
garbcan01
0 2.996100 7.233100 0.043400 0.497107 0.594409 -0.632109 0.687500 -0.998300 1 0 1.000000 
0 4.611000 4.418800 6.157300 0.682006 0.731006 -0.022300 0.621600 -0.722300 1 0 1.000000 
0 5.535999 5.536000 0.043400 0.438498 0.696897 -0.567498 0.625000 -0.998300 1 0 1.000000 
garbcan01
0 2.996100 7.233100 0.043400 0.497107 0.594409 -0.632109 0.687500 -0.998300 1 0 1.000000 
0 3.313600 7.999700 7.412900 0.543822 0.830033 -0.123705 0.687500 -0.665700 1 0 1.000000 
0 4.611000 4.418800 6.157300 0.682006 0.731006 -0.022300 0.621600 -0.722300 1 0 1.000000 
garbcan01
0 -0.000000 7.829100 0.043400 0.053399 0.751391 -0.657692 0.750000 -0.998300 1 0 1.000000 
0 3.313600 7.999700 7.412900 0.543822 0.830033 -0.123705 0.687500 -0.665700 1 0 1.000000 
0 2.996100 7.233100 0.043400 0.497107 0.594409 -0.632109 0.687500 -0.998300 1 0 1.000000 
garbcan01
0 -0.000000 7.829100 0.043400 0.053399 0.751391 -0.657692 0.750000 -0.998300 1 0 1.000000 
0 -0.000000 8.658800 7.412900 0.000100 0.995087 -0.098999 0.750000 -0.665700 1 0 1.000000 
0 3.313600 7.999700 7.412900 0.543822 0.830033 -0.123705 0.687500 -0.665700 1 0 1.000000 
garbcan01
0 -2.996100 7.233100 0.043400 -0.240404 0.719812 -0.651211 0.812500 -0.998300 1 0 1.000000 
0 -0.000000 8.658800 7.412900 0.000100 0.995087 -0.098999 0.750000 -0.665700 1 0 1.000000 
0 -0.000000 7.829100 0.043400 0.053399 0.751391 -0.657692 0.750000 -0.998300 1 0 1.000000 
garbcan01
0 -2.996100 7.233100 0.043400 -0.240404 0.719812 -0.651211 0.812500 -0.998300 1 0 1.000000 
0 -3.313600 7.999700 7.412900 -0.380694 0.919386 -0.098999 0.812500 -0.665700 1 0 1.000000 
0 -0.000000 8.658800 7.412900 0.000100 0.995087 -0.098999 0.750000 -0.665700 1 0 1.000000 
garbcan01
0 -5.536000 5.535999 0.043400 -0.499829 0.575434 -0.647338 0.875000 -0.998300 1 0 1.000000 
0 -3.313600 7.999700 7.412900 -0.380694 0.919386 -0.098999 0.812500 -0.665700 1 0 1.000000 
0 -2.996100 7.233100 0.043400 -0.240404 0.719812 -0.651211 0.812500 -0.998300 1 0 1.000000 
garbcan01
0 -5.536000 5.535999 0.043400 -0.499829 0.575434 -0.647338 0.875000 -0.998300 1 0 1.000000 
0 -6.122701 6.122700 7.412900 -0.774376 0.628181 -0.075698 0.875000 -0.665700 1 0 1.000000 
0 -3.313600 7.999700 7.412900 -0.380694 0.919386 -0.098999 0.812500 -0.665700 1 0 1.000000 
garbcan01
0 -7.233100 2.996100 0.043400 -0.753688 0.277896 -0.595591 0.937500 -0.998300 1 0 1.000000 
0 -6.122701 6.122700 7.412900 -0.774376 0.628181 -0.075698 0.875000 -0.665700 1 0 1.000000 
0 -5.536000 5.535999 0.043400 -0.499829 0.575434 -0.647338 0.875000 -0.998300 1 0 1.000000 
garbcan01
0 -7.233100 2.996100 0.043400 -0.753688 0.277896 -0.595591 0.937500 -0.998300 1 0 1.000000 
0 -7.080300 2.861300 7.412900 -0.921176 0.382390 -0.072198 0.938900 -0.665700 1 0 1.000000 
0 -6.122701 6.122700 7.412900 -0.774376 0.628181 -0.075698 0.875000 -0.665700 1 0 1.000000 
garbcan01
0 8.658800 0.000000 7.412900 0.990765 -0.078997 -0.110196 0.500000 -0.665700 1 0 1.000000 
0 9.103000 -3.770600 21.237400 0.910233 -0.394714 -0.125205 0.437500 -0.041800 1 0 1.000000 
0 7.327800 -3.035300 8.086500 0.918830 -0.385912 -0.082603 0.437500 -0.635300 1 0 1.000000 
garbcan01
0 8.658800 0.000000 7.412900 0.990765 -0.078997 -0.110196 0.500000 -0.665700 1 0 1.000000 
0 9.853000 0.000000 21.237400 0.994122 0.065901 -0.085902 0.500000 -0.041800 1 0 1.000000 
0 9.103000 -3.770600 21.237400 0.910233 -0.394714 -0.125205 0.437500 -0.041800 1 0 1.000000 
garbcan01
0 7.999700 3.313600 7.412900 0.817903 0.573602 -0.044900 0.562500 -0.665700 1 0 1.000000 
0 9.853000 0.000000 21.237400 0.994122 0.065901 -0.085902 0.500000 -0.041800 1 0 1.000000 
0 8.658800 0.000000 7.412900 0.990765 -0.078997 -0.110196 0.500000 -0.665700 1 0 1.000000 
garbcan01
0 7.999700 3.313600 7.412900 0.817903 0.573602 -0.044900 0.562500 -0.665700 1 0 1.000000 
0 9.103000 3.770601 21.237400 0.776642 0.615934 -0.132107 0.562500 -0.041800 1 0 1.000000 
0 9.853000 0.000000 21.237400 0.994122 0.065901 -0.085902 0.500000 -0.041800 1 0 1.000000 
garbcan01
0 4.611000 4.418800 6.157300 0.682006 0.731006 -0.022300 0.621600 -0.722300 1 0 1.000000 
0 9.103000 3.770601 21.237400 0.776642 0.615934 -0.132107 0.562500 -0.041800 1 0 1.000000 
0 7.999700 3.313600 7.412900 0.817903 0.573602 -0.044900 0.562500 -0.665700 1 0 1.000000 
garbcan01
0 4.611000 4.418800 6.157300 0.682006 0.731006 -0.022300 0.621600 -0.722300 1 0 1.000000 
0 6.967199 6.967200 21.237400 0.775518 0.606614 -0.174904 0.625000 -0.041800 1 0 1.000000 
0 9.103000 3.770601 21.237400 0.776642 0.615934 -0.132107 0.562500 -0.041800 1 0 1.000000 
garbcan01
0 3.313600 7.999700 7.412900 0.543822 0.830033 -0.123705 0.687500 -0.665700 1 0 1.000000 
0 6.967199 6.967200 21.237400 0.775518 0.606614 -0.174904 0.625000 -0.041800 1 0 1.000000 
0 4.611000 4.418800 6.157300 0.682006 0.731006 -0.022300 0.621600 -0.722300 1 0 1.000000 
garbcan01
0 3.313600 7.999700 7.412900 0.543822 0.830033 -0.123705 0.687500 -0.665700 1 0 1.000000 
0 3.770600 9.103000 21.237400 0.319495 0.943686 -0.085899 0.687500 -0.041800 1 0 1.000000 
0 6.967199 6.967200 21.237400 0.775518 0.606614 -0.174904 0.625000 -0.041800 1 0 1.000000 
garbcan01
0 -0.000000 8.658800 7.412900 0.000100 0.995087 -0.098999 0.750000 -0.665700 1 0 1.000000 
0 3.770600 9.103000 21.237400 0.319495 0.943686 -0.085899 0.687500 -0.041800 1 0 1.000000 
0 3.313600 7.999700 7.412900 0.543822 0.830033 -0.123705 0.687500 -0.665700 1 0 1.000000 
garbcan01
0 -0.000000 8.658800 7.412900 0.000100 0.995087 -0.098999 0.750000 -0.665700 1 0 1.000000 
0 -0.000000 9.853000 21.237400 -0.065901 0.994122 -0.085902 0.750000 -0.041800 1 0 1.000000 
0 3.770600 9.103000 21.237400 0.319495 0.943686 -0.085899 0.687500 -0.041800 1 0 1.000000 
garbcan01
0 -3.313600 7.999700 7.412900 -0.380694 0.919386 -0.098999 0.812500 -0.665700 1 0 1.000000 
0 -0.000000 9.853000 21.237400 -0.065901 0.994122 -0.085902 0.750000 -0.041800 1 0 1.000000 
0 -0.000000 8.658800 7.412900 0.000100 0.995087 -0.098999 0.750000 -0.665700 1 0 1.000000 
garbcan01
0 -3.313600 7.999700 7.412900 -0.380694 0.919386 -0.098999 0.812500 -0.665700 1 0 1.000000 
0 -3.770601 9.103000 21.237400 -0.448191 0.889982 -0.083998 0.812500 -0.041800 1 0 1.000000 
0 -0.000000 9.853000 21.237400 -0.065901 0.994122 -0.085902 0.750000 -0.041800 1 0 1.000000 
garbcan01
0 -6.122701 6.122700 7.412900 -0.774376 0.628181 -0.075698 0.875000 -0.665700 1 0 1.000000 
0 -3.770601 9.103000 21.237400 -0.448191 0.889982 -0.083998 0.812500 -0.041800 1 0 1.000000 
0 -3.313600 7.999700 7.412900 -0.380694 0.919386 -0.098999 0.812500 -0.665700 1 0 1.000000 
garbcan01
0 -6.122701 6.122700 7.412900 -0.774376 0.628181 -0.075698 0.875000 -0.665700 1 0 1.000000 
0 -7.007000 6.865600 21.578899 -0.814593 0.570395 -0.105299 0.875000 -0.041800 1 0 1.000000 
0 -3.770601 9.103000 21.237400 -0.448191 0.889982 -0.083998 0.812500 -0.041800 1 0 1.000000 
garbcan01
0 -7.080300 2.861300 7.412900 -0.921176 0.382390 -0.072198 0.938900 -0.665700 1 0 1.000000 
0 -7.007000 6.865600 21.578899 -0.814593 0.570395 -0.105299 0.875000 -0.041800 1 0 1.000000 
0 -6.122701 6.122700 7.412900 -0.774376 0.628181 -0.075698 0.875000 -0.665700 1 0 1.000000 
garbcan01
0 -7.080300 2.861300 7.412900 -0.921176 0.382390 -0.072198 0.938900 -0.665700 1 0 1.000000 
0 -9.100900 3.731800 21.578899 -0.901338 0.413017 -0.130406 0.937500 -0.041800 1 0 1.000000 
0 -7.007000 6.865600 21.578899 -0.814593 0.570395 -0.105299 0.875000 -0.041800 1 0 1.000000 
garbcan01
0 -7.233100 -2.996100 0.043400 -0.724822 -0.241507 -0.645219 0.062500 -0.998300 1 0 1.000000 
0 -8.658800 -0.000000 7.412900 -0.988798 0.099900 -0.110900 0.000000 -0.665700 1 0 1.000000 
0 -7.829100 -0.000000 0.043400 -0.765141 0.139207 -0.628634 0.000000 -0.998300 1 0 1.000000 
garbcan01
0 -7.233100 -2.996100 0.043400 -0.724822 -0.241507 -0.645219 0.062500 -0.998300 1 0 1.000000 
0 -7.999700 -3.313600 7.412900 -0.919589 -0.380795 -0.096699 0.062500 -0.665700 1 0 1.000000 
0 -8.658800 -0.000000 7.412900 -0.988798 0.099900 -0.110900 0.000000 -0.665700 1 0 1.000000 
garbcan01
0 -5.535999 -5.536000 0.043400 -0.576294 -0.498895 -0.647293 0.125000 -0.998300 1 0 1.000000 
0 -7.999700 -3.313600 7.412900 -0.919589 -0.380795 -0.096699 0.062500 -0.665700 1 0 1.000000 
0 -7.233100 -2.996100 0.043400 -0.724822 -0.241507 -0.645219 0.062500 -0.998300 1 0 1.000000 
garbcan01
0 -5.535999 -5.536000 0.043400 -0.576294 -0.498895 -0.647293 0.125000 -0.998300 1 0 1.000000 
0 -6.122700 -6.122701 7.412900 -0.571419 -0.818527 -0.059102 0.125000 -0.665700 1 0 1.000000 
0 -7.999700 -3.313600 7.412900 -0.919589 -0.380795 -0.096699 0.062500 -0.665700 1 0 1.000000 
garbcan01
0 -2.996100 -7.233100 0.043400 -0.223992 -0.791473 -0.568681 0.187500 -0.998300 1 0 1.000000 
0 -6.122700 -6.122701 7.412900 -0.571419 -0.818527 -0.059102 0.125000 -0.665700 1 0 1.000000 
0 -5.535999 -5.536000 0.043400 -0.576294 -0.498895 -0.647293 0.125000 -0.998300 1 0 1.000000 
garbcan01
0 -2.996100 -7.233100 0.043400 -0.223992 -0.791473 -0.568681 0.187500 -0.998300 1 0 1.000000 
0 -2.411200 -6.192300 8.932700 -0.412690 -0.908477 -0.065998 0.190900 -0.597100 1 0 1.000000 
0 -6.122700 -6.122701 7.412900 -0.571419 -0.818527 -0.059102 0.125000 -0.665700 1 0 1.000000 
garbcan01
0 0.000000 -7.829100 0.043400 -0.233087 -0.732460 -0.639665 0.250000 -0.998300 1 0 1.000000 
0 -2.411200 -6.192300 8.932700 -0.412690 -0.908477 -0.065998 0.190900 -0.597100 1 0 1.000000 
0 -2.996100 -7.233100 0.043400 -0.223992 -0.791473 -0.568681 0.187500 -0.998300 1 0 1.000000 
garbcan01
0 0.000000 -7.829100 0.043400 -0.233087 -0.732460 -0.639665 0.250000 -0.998300 1 0 1.000000 
0 0.000000 -8.658800 7.412900 -0.207795 -0.969576 -0.129397 0.250000 -0.665700 1 0 1.000000 
0 -2.411200 -6.192300 8.932700 -0.412690 -0.908477 -0.065998 0.190900 -0.597100 1 0 1.000000 
garbcan01
0 2.996100 -7.233100 0.043400 0.229190 -0.708769 -0.667171 0.312500 -0.998300 1 0 1.000000 
0 0.000000 -8.658800 7.412900 -0.207795 -0.969576 -0.129397 0.250000 -0.665700 1 0 1.000000 
0 0.000000 -7.829100 0.043400 -0.233087 -0.732460 -0.639665 0.250000 -0.998300 1 0 1.000000 
garbcan01
0 2.996100 -7.233100 0.043400 0.229190 -0.708769 -0.667171 0.312500 -0.998300 1 0 1.000000 
0 3.313600 -7.999700 7.412900 0.380694 -0.919386 -0.098999 0.312500 -0.665700 1 0 1.000000 
0 0.000000 -8.658800 7.412900 -0.207795 -0.969576 -0.129397 0.250000 -0.665700 1 0 1.000000 
garbcan01
0 5.536000 -5.535999 0.043400 0.472401 -0.560502 -0.680202 0.375000 -0.998300 1 0 1.000000 
0 3.313600 -7.999700 7.412900 0.380694 -0.919386 -0.098999 0.312500 -0.665700 1 0 1.000000 
0 2.996100 -7.233100 0.043400 0.229190 -0.708769 -0.667171 0.312500 -0.998300 1 0 1.000000 
garbcan01
0 5.536000 -5.535999 0.043400 0.472401 -0.560502 -0.680202 0.375000 -0.998300 1 0 1.000000 
0 6.122701 -6.122700 7.412900 0.755473 -0.649876 -0.083197 0.375000 -0.665700 1 0 1.000000 
0 3.313600 -7.999700 7.412900 0.380694 -0.919386 -0.098999 0.312500 -0.665700 1 0 1.000000 
garbcan01
0 7.233100 -2.996100 0.043400 0.698575 -0.284890 -0.656377 0.437500 -0.998300 1 0 1.000000 
0 6.122701 -6.122700 7.412900 0.755473 -0.649876 -0.083197 0.375000 -0.665700 1 0 1.000000 
0 5.536000 -5.535999 0.043400 0.472401 -0.560502 -0.680202 0.375000 -0.998300 1 0 1.000000 
garbcan01
0 7.233100 -2.996100 0.043400 0.698575 -0.284890 -0.656377 0.437500 -0.998300 1 0 1.000000 
0 7.327800 -3.035300 8.086500 0.918830 -0.385912 -0.082603 0.437500 -0.635300 1 0 1.000000 
0 6.122701 -6.122700 7.412900 0.755473 -0.649876 -0.083197 0.375000 -0.665700 1 0 1.000000 
garbcan01
0 7.829100 0.000000 0.043400 0.713289 -0.137298 -0.687290 0.500000 -0.998300 1 0 1.000000 
0 7.327800 -3.035300 8.086500 0.918830 -0.385912 -0.082603 0.437500 -0.635300 1 0 1.000000 
0 7.233100 -2.996100 0.043400 0.698575 -0.284890 -0.656377 0.437500 -0.998300 1 0 1.000000 
garbcan01
0 7.829100 0.000000 0.043400 0.713289 -0.137298 -0.687290 0.500000 -0.998300 1 0 1.000000 
0 8.658800 0.000000 7.412900 0.990765 -0.078997 -0.110196 0.500000 -0.665700 1 0 1.000000 
0 7.327800 -3.035300 8.086500 0.918830 -0.385912 -0.082603 0.437500 -0.635300 1 0 1.000000 
garbcan01
0 7.233100 2.996100 0.043400 0.685201 0.222300 -0.693601 0.562500 -0.998300 1 0 1.000000 
0 8.658800 0.000000 7.412900 0.990765 -0.078997 -0.110196 0.500000 -0.665700 1 0 1.000000 
0 7.829100 0.000000 0.043400 0.713289 -0.137298 -0.687290 0.500000 -0.998300 1 0 1.000000 
garbcan01
0 7.233100 2.996100 0.043400 0.685201 0.222300 -0.693601 0.562500 -0.998300 1 0 1.000000 
0 7.999700 3.313600 7.412900 0.817903 0.573602 -0.044900 0.562500 -0.665700 1 0 1.000000 
0 8.658800 0.000000 7.412900 0.990765 -0.078997 -0.110196 0.500000 -0.665700 1 0 1.000000 
garbcan01
0 -7.829100 -0.000000 0.043400 -0.765141 0.139207 -0.628634 0.000000 -0.998300 1 0 1.000000 
0 -7.080300 2.861300 7.412900 -0.921176 0.382390 -0.072198 -0.061100 -0.665700 1 0 1.000000 
0 -7.233100 2.996100 0.043400 -0.753688 0.277896 -0.595591 -0.062500 -0.998300 1 0 1.000000 
garbcan01
0 -7.829100 -0.000000 0.043400 -0.765141 0.139207 -0.628634 0.000000 -0.998300 1 0 1.000000 
0 -8.658800 -0.000000 7.412900 -0.988798 0.099900 -0.110900 0.000000 -0.665700 1 0 1.000000 
0 -7.080300 2.861300 7.412900 -0.921176 0.382390 -0.072198 -0.061100 -0.665700 1 0 1.000000 
garbcan01
0 -8.658800 -0.000000 7.412900 -0.988798 0.099900 -0.110900 0.000000 -0.665700 1 0 1.000000 
0 -9.100900 3.731800 21.578899 -0.901338 0.413017 -0.130406 -0.062500 -0.041800 1 0 1.000000 
0 -7.080300 2.861300 7.412900 -0.921176 0.382390 -0.072198 -0.061100 -0.665700 1 0 1.000000 
garbcan01
0 -8.658800 -0.000000 7.412900 -0.988798 0.099900 -0.110900 0.000000 -0.665700 1 0 1.000000 
0 -9.836300 0.035100 21.578899 -0.994410 -0.065901 -0.082501 -0.000000 -0.041800 1 0 1.000000 
0 -9.100900 3.731800 21.578899 -0.901338 0.413017 -0.130406 -0.062500 -0.041800 1 0 1.000000 
garbcan01
0 -7.999700 -3.313600 7.412900 -0.919589 -0.380795 -0.096699 0.062500 -0.665700 1 0 1.000000 
0 -9.836300 0.035100 21.578899 -0.994410 -0.065901 -0.082501 -0.000000 -0.041800 1 0 1.000000 
0 -8.658800 -0.000000 7.412900 -0.988798 0.099900 -0.110900 0.000000 -0.665700 1 0 1.000000 
garbcan01
0 -7.999700 -3.313600 7.412900 -0.919589 -0.380795 -0.096699 0.062500 -0.665700 1 0 1.000000 
0 -9.100900 -3.661601 21.578899 -0.896903 -0.434501 -0.082300 0.062500 -0.041800 1 0 1.000000 
0 -9.836300 0.035100 21.578899 -0.994410 -0.065901 -0.082501 -0.000000 -0.041800 1 0 1.000000 
garbcan01
0 -6.122700 -6.122701 7.412900 -0.571419 -0.818527 -0.059102 0.125000 -0.665700 1 0 1.000000 
0 -9.100900 -3.661601 21.578899 -0.896903 -0.434501 -0.082300 0.062500 -0.041800 1 0 1.000000 
0 -7.999700 -3.313600 7.412900 -0.919589 -0.380795 -0.096699 0.062500 -0.665700 1 0 1.000000 
garbcan01
0 -6.122700 -6.122701 7.412900 -0.571419 -0.818527 -0.059102 0.125000 -0.665700 1 0 1.000000 
0 -6.967199 -6.967200 21.237400 -0.501185 -0.853275 -0.143996 0.125000 -0.041800 1 0 1.000000 
0 -9.100900 -3.661601 21.578899 -0.896903 -0.434501 -0.082300 0.062500 -0.041800 1 0 1.000000 
garbcan01
0 -2.411200 -6.192300 8.932700 -0.412690 -0.908477 -0.065998 0.190900 -0.597100 1 0 1.000000 
0 -6.967199 -6.967200 21.237400 -0.501185 -0.853275 -0.143996 0.125000 -0.041800 1 0 1.000000 
0 -6.122700 -6.122701 7.412900 -0.571419 -0.818527 -0.059102 0.125000 -0.665700 1 0 1.000000 
garbcan01
0 -2.411200 -6.192300 8.932700 -0.412690 -0.908477 -0.065998 0.190900 -0.597100 1 0 1.000000 
0 -3.770600 -9.103000 21.237400 -0.520408 -0.831213 -0.195603 0.187500 -0.041800 1 0 1.000000 
0 -6.967199 -6.967200 21.237400 -0.501185 -0.853275 -0.143996 0.125000 -0.041800 1 0 1.000000 
garbcan01
0 0.000000 -8.658800 7.412900 -0.207795 -0.969576 -0.129397 0.250000 -0.665700 1 0 1.000000 
0 -3.770600 -9.103000 21.237400 -0.520408 -0.831213 -0.195603 0.187500 -0.041800 1 0 1.000000 
0 -2.411200 -6.192300 8.932700 -0.412690 -0.908477 -0.065998 0.190900 -0.597100 1 0 1.000000 
garbcan01
0 0.000000 -8.658800 7.412900 -0.207795 -0.969576 -0.129397 0.250000 -0.665700 1 0 1.000000 
0 0.000000 -9.853000 21.237400 0.065901 -0.994122 -0.085902 0.250000 -0.041800 1 0 1.000000 
0 -3.770600 -9.103000 21.237400 -0.520408 -0.831213 -0.195603 0.187500 -0.041800 1 0 1.000000 
garbcan01
0 3.313600 -7.999700 7.412900 0.380694 -0.919386 -0.098999 0.312500 -0.665700 1 0 1.000000 
0 0.000000 -9.853000 21.237400 0.065901 -0.994122 -0.085902 0.250000 -0.041800 1 0 1.000000 
0 0.000000 -8.658800 7.412900 -0.207795 -0.969576 -0.129397 0.250000 -0.665700 1 0 1.000000 
garbcan01
0 3.313600 -7.999700 7.412900 0.380694 -0.919386 -0.098999 0.312500 -0.665700 1 0 1.000000 
0 3.770601 -9.103000 21.237400 0.441315 -0.893231 -0.085903 0.312500 -0.041800 1 0 1.000000 
0 0.000000 -9.853000 21.237400 0.065901 -0.994122 -0.085902 0.250000 -0.041800 1 0 1.000000 
garbcan01
0 6.122701 -6.122700 7.412900 0.755473 -0.649876 -0.083197 0.375000 -0.665700 1 0 1.000000 
0 3.770601 -9.103000 21.237400 0.441315 -0.893231 -0.085903 0.312500 -0.041800 1 0 1.000000 
0 3.313600 -7.999700 7.412900 0.380694 -0.919386 -0.098999 0.312500 -0.665700 1 0 1.000000 
garbcan01
0 6.122701 -6.122700 7.412900 0.755473 -0.649876 -0.083197 0.375000 -0.665700 1 0 1.000000 
0 6.967200 -6.967199 21.237400 0.796776 -0.595082 -0.104997 0.375000 -0.041800 1 0 1.000000 
0 3.770601 -9.103000 21.237400 0.441315 -0.893231 -0.085903 0.312500 -0.041800 1 0 1.000000 
garbcan01
0 7.327800 -3.035300 8.086500 0.918830 -0.385912 -0.082603 0.437500 -0.635300 1 0 1.000000 
0 6.967200 -6.967199 21.237400 0.796776 -0.595082 -0.104997 0.375000 -0.041800 1 0 1.000000 
0 6.122701 -6.122700 7.412900 0.755473 -0.649876 -0.083197 0.375000 -0.665700 1 0 1.000000 
garbcan01
0 7.327800 -3.035300 8.086500 0.918830 -0.385912 -0.082603 0.437500 -0.635300 1 0 1.000000 
0 9.103000 -3.770600 21.237400 0.910233 -0.394714 -0.125205 0.437500 -0.041800 1 0 1.000000 
0 6.967200 -6.967199 21.237400 0.796776 -0.595082 -0.104997 0.375000 -0.041800 1 0 1.000000 
garbcan01
0 4.717400 0.002300 1.168400 -0.156707 -0.000100 -0.987645 0.564700 0.499000 1 0 1.000000 
0 -7.829100 -0.000000 0.043400 -0.765141 0.139207 -0.628634 0.665700 0.035900 1 0 1.000000 
0 -7.233100 2.996100 0.043400 -0.753688 0.277896 -0.595591 0.753700 0.142800 1 0 1.000000 
garbcan01
0 4.717400 0.002300 1.168400 -0.156707 -0.000100 -0.987645 0.564700 0.499000 1 0 1.000000 
0 -7.233100 -2.996100 0.043400 -0.724822 -0.241507 -0.645219 0.562300 -0.000500 1 0 1.000000 
0 -7.829100 -0.000000 0.043400 -0.765141 0.139207 -0.628634 0.665700 0.035900 1 0 1.000000 
garbcan01
0 4.717400 0.002300 1.168400 -0.156707 -0.000100 -0.987645 0.564700 0.499000 1 0 1.000000 
0 -5.535999 -5.536000 0.043400 -0.576294 -0.498895 -0.647293 0.459300 0.039200 1 0 1.000000 
0 -7.233100 -2.996100 0.043400 -0.724822 -0.241507 -0.645219 0.562300 -0.000500 1 0 1.000000 
garbcan01
0 4.717400 0.002300 1.168400 -0.156707 -0.000100 -0.987645 0.564700 0.499000 1 0 1.000000 
0 -2.996100 -7.233100 0.043400 -0.223992 -0.791473 -0.568681 0.372300 0.148900 1 0 1.000000 
0 -5.535999 -5.536000 0.043400 -0.576294 -0.498895 -0.647293 0.459300 0.039200 1 0 1.000000 
garbcan01
0 4.717400 0.002300 1.168400 -0.156707 -0.000100 -0.987645 0.564700 0.499000 1 0 1.000000 
0 0.000000 -7.829100 0.043400 -0.233087 -0.732460 -0.639665 0.314600 0.311900 1 0 1.000000 
0 -2.996100 -7.233100 0.043400 -0.223992 -0.791473 -0.568681 0.372300 0.148900 1 0 1.000000 
garbcan01
0 4.717400 0.002300 1.168400 -0.156707 -0.000100 -0.987645 0.564700 0.499000 1 0 1.000000 
0 2.996100 -7.233100 0.043400 0.229190 -0.708769 -0.667171 0.295000 0.503400 1 0 1.000000 
0 0.000000 -7.829100 0.043400 -0.233087 -0.732460 -0.639665 0.314600 0.311900 1 0 1.000000 
garbcan01
0 4.717400 0.002300 1.168400 -0.156707 -0.000100 -0.987645 0.564700 0.499000 1 0 1.000000 
0 5.536000 -5.535999 0.043400 0.472401 -0.560502 -0.680202 0.316400 0.694200 1 0 1.000000 
0 2.996100 -7.233100 0.043400 0.229190 -0.708769 -0.667171 0.295000 0.503400 1 0 1.000000 
garbcan01
0 4.717400 0.002300 1.168400 -0.156707 -0.000100 -0.987645 0.564700 0.499000 1 0 1.000000 
0 7.233100 -2.996100 0.043400 0.698575 -0.284890 -0.656377 0.375600 0.855300 1 0 1.000000 
0 5.536000 -5.535999 0.043400 0.472401 -0.560502 -0.680202 0.316400 0.694200 1 0 1.000000 
garbcan01
0 4.717400 0.002300 1.168400 -0.156707 -0.000100 -0.987645 0.564700 0.499000 1 0 1.000000 
0 7.829100 0.000000 0.043400 0.713289 -0.137298 -0.687290 0.463700 0.962200 1 0 1.000000 
0 7.233100 -2.996100 0.043400 0.698575 -0.284890 -0.656377 0.375600 0.855300 1 0 1.000000 
garbcan01
0 4.717400 0.002300 1.168400 -0.156707 -0.000100 -0.987645 0.564700 0.499000 1 0 1.000000 
0 7.233100 2.996100 0.043400 0.685201 0.222300 -0.693601 0.567000 0.998500 1 0 1.000000 
0 7.829100 0.000000 0.043400 0.713289 -0.137298 -0.687290 0.463700 0.962200 1 0 1.000000 
garbcan01
0 4.717400 0.002300 1.168400 -0.156707 -0.000100 -0.987645 0.564700 0.499000 1 0 1.000000 
0 5.535999 5.536000 0.043400 0.438498 0.696897 -0.567498 0.670100 0.958800 1 0 1.000000 
0 7.233100 2.996100 0.043400 0.685201 0.222300 -0.693601 0.567000 0.998500 1 0 1.000000 
garbcan01
0 4.717400 0.002300 1.168400 -0.156707 -0.000100 -0.987645 0.564700 0.499000 1 0 1.000000 
0 2.996100 7.233100 0.043400 0.497107 0.594409 -0.632109 0.757100 0.849100 1 0 1.000000 
0 5.535999 5.536000 0.043400 0.438498 0.696897 -0.567498 0.670100 0.958800 1 0 1.000000 
garbcan01
0 4.717400 0.002300 1.168400 -0.156707 -0.000100 -0.987645 0.564700 0.499000 1 0 1.000000 
0 -0.000000 7.829100 0.043400 0.053399 0.751391 -0.657692 0.814800 0.686100 1 0 1.000000 
0 2.996100 7.233100 0.043400 0.497107 0.594409 -0.632109 0.757100 0.849100 1 0 1.000000 
garbcan01
0 4.717400 0.002300 1.168400 -0.156707 -0.000100 -0.987645 0.564700 0.499000 1 0 1.000000 
0 -2.996100 7.233100 0.043400 -0.240404 0.719812 -0.651211 0.834400 0.494700 1 0 1.000000 
0 -0.000000 7.829100 0.043400 0.053399 0.751391 -0.657692 0.814800 0.686100 1 0 1.000000 
garbcan01
0 4.717400 0.002300 1.168400 -0.156707 -0.000100 -0.987645 0.564700 0.499000 1 0 1.000000 
0 -5.536000 5.535999 0.043400 -0.499829 0.575434 -0.647338 0.813000 0.303900 1 0 1.000000 
0 -2.996100 7.233100 0.043400 -0.240404 0.719812 -0.651211 0.834400 0.494700 1 0 1.000000 
garbcan01
0 4.717400 0.002300 1.168400 -0.156707 -0.000100 -0.987645 0.564700 0.499000 1 0 1.000000 
0 -7.233100 2.996100 0.043400 -0.753688 0.277896 -0.595591 0.753700 0.142800 1 0 1.000000 
0 -5.536000 5.535999 0.043400 -0.499829 0.575434 -0.647338 0.813000 0.303900 1 0 1.000000 
garbcan01
0 -8.194100 -3.394100 21.859400 0.777925 0.323610 0.538617 0.062500 -0.013700 1 0 1.000000 
0 4.717400 0.002300 1.168400 -0.156707 -0.000100 -0.987645 0.500000 -0.999500 1 0 1.000000 
0 -8.869300 -0.000000 21.859400 0.835892 0.000000 0.548894 -0.000000 -0.013700 1 0 1.000000 
garbcan01
0 -6.271500 -6.271501 21.859400 0.607502 0.610802 0.507802 0.125000 -0.013700 1 0 1.000000 
0 4.717400 0.002300 1.168400 -0.156707 -0.000100 -0.987645 0.500000 -0.999500 1 0 1.000000 
0 -8.194100 -3.394100 21.859400 0.777925 0.323610 0.538617 0.062500 -0.013700 1 0 1.000000 
garbcan01
0 -3.394099 -8.194100 21.859400 0.337482 0.822357 0.458076 0.187500 -0.013700 1 0 1.000000 
0 4.717400 0.002300 1.168400 -0.156707 -0.000100 -0.987645 0.500000 -0.999500 1 0 1.000000 
0 -6.271500 -6.271501 21.859400 0.607502 0.610802 0.507802 0.125000 -0.013700 1 0 1.000000 
garbcan01
0 0.000000 -8.869300 21.859400 -0.002900 0.919317 0.393507 0.250000 -0.013700 1 0 1.000000 
0 4.717400 0.002300 1.168400 -0.156707 -0.000100 -0.987645 0.500000 -0.999500 1 0 1.000000 
0 -3.394099 -8.194100 21.859400 0.337482 0.822357 0.458076 0.187500 -0.013700 1 0 1.000000 
garbcan01
0 3.394100 -8.194100 21.859400 -0.364414 0.873533 0.322712 0.312500 -0.013700 1 0 1.000000 
0 4.717400 0.002300 1.168400 -0.156707 -0.000100 -0.987645 0.500000 -0.999500 1 0 1.000000 
0 0.000000 -8.869300 21.859400 -0.002900 0.919317 0.393507 0.250000 -0.013700 1 0 1.000000 
garbcan01
0 6.271501 -6.271500 21.859400 -0.684180 0.682080 0.258193 0.375000 -0.013700 1 0 1.000000 
0 4.717400 0.002300 1.168400 -0.156707 -0.000100 -0.987645 0.500000 -0.999500 1 0 1.000000 
0 3.394100 -8.194100 21.859400 -0.364414 0.873533 0.322712 0.312500 -0.013700 1 0 1.000000 
garbcan01
0 8.194100 -3.394099 21.859400 -0.902922 0.373309 0.213005 0.437500 -0.013700 1 0 1.000000 
0 4.717400 0.002300 1.168400 -0.156707 -0.000100 -0.987645 0.500000 -0.999500 1 0 1.000000 
0 6.271501 -6.271500 21.859400 -0.684180 0.682080 0.258193 0.375000 -0.013700 1 0 1.000000 
garbcan01
0 8.869300 0.000000 21.859400 -0.980465 -0.000000 0.196693 0.500000 -0.013700 1 0 1.000000 
0 4.717400 0.002300 1.168400 -0.156707 -0.000100 -0.987645 0.500000 -0.999500 1 0 1.000000 
0 8.194100 -3.394099 21.859400 -0.902922 0.373309 0.213005 0.437500 -0.013700 1 0 1.000000 
garbcan01
0 8.194100 3.394100 21.859400 -0.902960 -0.373283 0.212891 0.562500 -0.013700 1 0 1.000000 
0 4.717400 0.002300 1.168400 -0.156707 -0.000100 -0.987645 0.500000 -0.999500 1 0 1.000000 
0 8.869300 0.000000 21.859400 -0.980465 -0.000000 0.196693 0.500000 -0.013700 1 0 1.000000 
garbcan01
0 6.271500 6.271501 21.859400 -0.684198 -0.682098 0.258099 0.625000 -0.013700 1 0 1.000000 
0 4.717400 0.002300 1.168400 -0.156707 -0.000100 -0.987645 0.500000 -0.999500 1 0 1.000000 
0 8.194100 3.394100 21.859400 -0.902960 -0.373283 0.212891 0.562500 -0.013700 1 0 1.000000 
garbcan01
0 3.394099 8.194100 21.859400 -0.364394 -0.873585 0.322594 0.687500 -0.013700 1 0 1.000000 
0 4.717400 0.002300 1.168400 -0.156707 -0.000100 -0.987645 0.500000 -0.999500 1 0 1.000000 
0 6.271500 6.271501 21.859400 -0.684198 -0.682098 0.258099 0.625000 -0.013700 1 0 1.000000 
garbcan01
0 -0.000000 8.869300 21.859400 -0.002900 -0.919405 0.393302 0.750000 -0.013700 1 0 1.000000 
0 4.717400 0.002300 1.168400 -0.156707 -0.000100 -0.987645 0.500000 -0.999500 1 0 1.000000 
0 3.394099 8.194100 21.859400 -0.364394 -0.873585 0.322594 0.687500 -0.013700 1 0 1.000000 
garbcan01
0 -3.394100 8.194100 21.859400 0.337513 -0.822433 0.457918 0.812500 -0.013700 1 0 1.000000 
0 4.717400 0.002300 1.168400 -0.156707 -0.000100 -0.987645 0.500000 -0.999500 1 0 1.000000 
0 -0.000000 8.869300 21.859400 -0.002900 -0.919405 0.393302 0.750000 -0.013700 1 0 1.000000 
garbcan01
0 -6.271501 6.271500 21.859400 0.607533 -0.610833 0.507727 0.875000 -0.013700 1 0 1.000000 
0 4.717400 0.002300 1.168400 -0.156707 -0.000100 -0.987645 0.500000 -0.999500 1 0 1.000000 
0 -3.394100 8.194100 21.859400 0.337513 -0.822433 0.457918 0.812500 -0.013700 1 0 1.000000 
garbcan01
0 -8.194100 3.394099 21.859400 0.778006 -0.323603 0.538504 0.937500 -0.013700 1 0 1.000000 
0 4.717400 0.002300 1.168400 -0.156707 -0.000100 -0.987645 0.500000 -0.999500 1 0 1.000000 
0 -6.271501 6.271500 21.859400 0.607533 -0.610833 0.507727 0.875000 -0.013700 1 0 1.000000 
garbcan01
0 -8.869300 -0.000000 21.859400 0.835892 0.000000 0.548894 1.000000 -0.013700 1 0 1.000000 
0 4.717400 0.002300 1.168400 -0.156707 -0.000100 -0.987645 0.500000 -0.999500 1 0 1.000000 
0 -8.194100 3.394099 21.859400 0.778006 -0.323603 0.538504 0.937500 -0.013700 1 0 1.000000 
end
