version 1
nodes
  0 "static_prop" -1
end
skeleton
time 0
0 0.000000 0.000000 0.000000 0.000000 0.000000 0.000000
end
triangles
grass_detail_short
0 -0.144650 8.855800 18.335470 0.999992 0.000000 -0.004020 0.999990 -0.024740 1 0 1.000000 
0 -0.144649 -9.037250 18.335470 0.999992 0.000000 -0.004020 0.000000 -0.024740 1 0 1.000000 
0 -0.218550 8.845370 -0.045690 0.999992 0.000000 -0.004020 0.999410 -0.995700 1 0 1.000000 
grass_detail_short
0 -0.218550 -9.033920 -0.045690 0.999992 0.000000 -0.004020 0.000180 -0.995700 1 0 1.000000 
0 -0.218550 8.845370 -0.045690 0.999992 0.000000 -0.004020 0.999410 -0.995700 1 0 1.000000 
0 -0.144649 -9.037250 18.335470 0.999992 0.000000 -0.004020 0.000000 -0.024740 1 0 1.000000 
end
