version 1
nodes
  0 "static_prop" -1
end
skeleton
time 0
0 0.000000 0.000000 0.000000 0.000000 0.000000 0.000000
end
triangles
Rebar_MedThin03
0 -0.000000 1.200000 0.000000 -0.001300 0.981936 0.189207 0.498500 -0.974300 1 0 1.000000 
0 16.520901 0.362601 2.389600 0.051699 0.483388 0.873878 0.664900 -0.784300 1 0 1.000000 
0 16.512400 0.961701 1.351400 0.048101 0.998619 0.021100 0.497700 -0.784300 1 0 1.000000 
Rebar_MedThin03
0 -0.000000 1.200000 0.000000 -0.001300 0.981936 0.189207 0.498500 -0.974300 1 0 1.000000 
0 -0.000000 0.600000 1.039200 -0.072302 0.326509 0.942425 0.666000 -0.974300 1 0 1.000000 
0 16.520901 0.362601 2.389600 0.051699 0.483388 0.873878 0.664900 -0.784300 1 0 1.000000 
Rebar_MedThin03
0 -0.000000 0.600000 1.039200 -0.072302 0.326509 0.942425 0.663700 -0.974300 1 0 1.000000 
0 16.568399 -0.838699 2.391300 0.005300 -0.517720 0.855533 0.831200 -0.784300 1 0 1.000000 
0 16.520901 0.362601 2.389600 0.051699 0.483388 0.873878 0.664900 -0.784300 1 0 1.000000 
Rebar_MedThin03
0 -0.000000 0.600000 1.039200 -0.072302 0.326509 0.942425 0.663700 -0.974300 1 0 1.000000 
0 0.000000 -0.600000 1.039200 -0.070905 -0.653442 0.753648 0.831200 -0.974300 1 0 1.000000 
0 16.568399 -0.838699 2.391300 0.005300 -0.517720 0.855533 0.831200 -0.784300 1 0 1.000000 
Rebar_MedThin03
0 16.575001 -1.438599 1.352100 -0.045598 -0.998753 -0.020299 -0.003400 -0.784300 1 0 1.000000 
0 33.423698 -1.170599 -2.305000 -0.340395 -0.391095 -0.855088 0.162900 -0.594200 1 0 1.000000 
0 33.706501 -1.900699 -1.411900 -0.114604 -0.988732 -0.096303 -0.003400 -0.594200 1 0 1.000000 
Rebar_MedThin03
0 16.575001 -1.438599 1.352100 -0.045598 -0.998753 -0.020299 -0.003400 -0.784300 1 0 1.000000 
0 16.534201 -0.837299 0.311300 -0.048801 -0.482906 -0.874311 0.162900 -0.784300 1 0 1.000000 
0 33.423698 -1.170599 -2.305000 -0.340395 -0.391095 -0.855088 0.162900 -0.594200 1 0 1.000000 
Rebar_MedThin03
0 16.534201 -0.837299 0.311300 -0.048801 -0.482906 -0.874311 0.162900 -0.784300 1 0 1.000000 
0 33.541401 0.011401 -2.167800 -0.231803 0.602507 -0.763709 0.329300 -0.594200 1 0 1.000000 
0 33.423698 -1.170599 -2.305000 -0.340395 -0.391095 -0.855088 0.162900 -0.594200 1 0 1.000000 
Rebar_MedThin03
0 16.534201 -0.837299 0.311300 -0.048801 -0.482906 -0.874311 0.162900 -0.784300 1 0 1.000000 
0 16.518999 0.361801 0.312200 -0.002300 0.518797 -0.854894 0.329300 -0.784300 1 0 1.000000 
0 33.541401 0.011401 -2.167800 -0.231803 0.602507 -0.763709 0.329300 -0.594200 1 0 1.000000 
Rebar_MedThin03
0 16.518999 0.361801 0.312200 -0.002300 0.518797 -0.854894 0.329300 -0.784300 1 0 1.000000 
0 33.921799 0.462601 -1.132600 0.101700 0.991705 0.078600 0.497700 -0.594200 1 0 1.000000 
0 33.541401 0.011401 -2.167800 -0.231803 0.602507 -0.763709 0.329300 -0.594200 1 0 1.000000 
Rebar_MedThin03
0 16.518999 0.361801 0.312200 -0.002300 0.518797 -0.854894 0.329300 -0.784300 1 0 1.000000 
0 16.512400 0.961701 1.351400 0.048101 0.998619 0.021100 0.497700 -0.784300 1 0 1.000000 
0 33.921799 0.462601 -1.132600 0.101700 0.991705 0.078600 0.497700 -0.594200 1 0 1.000000 
Rebar_MedThin03
0 16.512400 0.961701 1.351400 0.048101 0.998619 0.021100 0.497700 -0.784300 1 0 1.000000 
0 34.308399 -0.273499 -0.254700 0.336397 0.391697 0.856394 0.664900 -0.594200 1 0 1.000000 
0 33.921799 0.462601 -1.132600 0.101700 0.991705 0.078600 0.497700 -0.594200 1 0 1.000000 
Rebar_MedThin03
0 16.512400 0.961701 1.351400 0.048101 0.998619 0.021100 0.497700 -0.784300 1 0 1.000000 
0 16.520901 0.362601 2.389600 0.051699 0.483388 0.873878 0.664900 -0.784300 1 0 1.000000 
0 34.308399 -0.273499 -0.254700 0.336397 0.391697 0.856394 0.664900 -0.594200 1 0 1.000000 
Rebar_MedThin03
0 16.520901 0.362601 2.389600 0.051699 0.483388 0.873878 0.664900 -0.784300 1 0 1.000000 
0 34.183701 -1.454298 -0.394100 0.225797 -0.611192 0.758590 0.831200 -0.594200 1 0 1.000000 
0 34.308399 -0.273499 -0.254700 0.336397 0.391697 0.856394 0.664900 -0.594200 1 0 1.000000 
Rebar_MedThin03
0 16.520901 0.362601 2.389600 0.051699 0.483388 0.873878 0.664900 -0.784300 1 0 1.000000 
0 16.568399 -0.838699 2.391300 0.005300 -0.517720 0.855533 0.831200 -0.784300 1 0 1.000000 
0 34.183701 -1.454298 -0.394100 0.225797 -0.611192 0.758590 0.831200 -0.594200 1 0 1.000000 
Rebar_MedThin03
0 16.568399 -0.838699 2.391300 0.005300 -0.517720 0.855533 0.831200 -0.784300 1 0 1.000000 
0 33.706501 -1.900699 -1.411900 -0.114604 -0.988732 -0.096303 0.998700 -0.594200 1 0 1.000000 
0 34.183701 -1.454298 -0.394100 0.225797 -0.611192 0.758590 0.831200 -0.594200 1 0 1.000000 
Rebar_MedThin03
0 16.568399 -0.838699 2.391300 0.005300 -0.517720 0.855533 0.831200 -0.784300 1 0 1.000000 
0 16.575001 -1.438599 1.352100 -0.045598 -0.998753 -0.020299 0.998700 -0.784300 1 0 1.000000 
0 33.706501 -1.900699 -1.411900 -0.114604 -0.988732 -0.096303 0.998700 -0.594200 1 0 1.000000 
Rebar_MedThin03
0 0.000000 -0.600000 1.039200 -0.070905 -0.653442 0.753648 0.831200 -0.974300 1 0 1.000000 
0 16.575001 -1.438599 1.352100 -0.045598 -0.998753 -0.020299 0.998700 -0.784300 1 0 1.000000 
0 16.568399 -0.838699 2.391300 0.005300 -0.517720 0.855533 0.831200 -0.784300 1 0 1.000000 
Rebar_MedThin03
0 0.000000 -0.600000 1.039200 -0.070905 -0.653442 0.753648 0.831200 -0.974300 1 0 1.000000 
0 0.000000 -1.200000 0.000000 0.001400 -0.981839 -0.189708 0.998700 -0.974300 1 0 1.000000 
0 16.575001 -1.438599 1.352100 -0.045598 -0.998753 -0.020299 0.998700 -0.784300 1 0 1.000000 
Rebar_MedThin03
0 0.000000 -1.200000 0.000000 0.001400 -0.981839 -0.189708 -0.003400 -0.974300 1 0 1.000000 
0 16.534201 -0.837299 0.311300 -0.048801 -0.482906 -0.874311 0.162900 -0.784300 1 0 1.000000 
0 16.575001 -1.438599 1.352100 -0.045598 -0.998753 -0.020299 -0.003400 -0.784300 1 0 1.000000 
Rebar_MedThin03
0 0.000000 -1.200000 0.000000 0.001400 -0.981839 -0.189708 -0.003400 -0.974300 1 0 1.000000 
0 0.000000 -0.600000 -1.039200 0.072302 -0.326509 -0.942425 0.165600 -0.974400 1 0 1.000000 
0 16.534201 -0.837299 0.311300 -0.048801 -0.482906 -0.874311 0.162900 -0.784300 1 0 1.000000 
Rebar_MedThin03
0 0.000000 -0.600000 -1.039200 0.072302 -0.326509 -0.942425 0.165600 -0.974400 1 0 1.000000 
0 16.518999 0.361801 0.312200 -0.002300 0.518797 -0.854894 0.329300 -0.784300 1 0 1.000000 
0 16.534201 -0.837299 0.311300 -0.048801 -0.482906 -0.874311 0.162900 -0.784300 1 0 1.000000 
Rebar_MedThin03
0 0.000000 -0.600000 -1.039200 0.072302 -0.326509 -0.942425 0.165600 -0.974400 1 0 1.000000 
0 -0.000000 0.600000 -1.039200 0.071104 0.653433 -0.753638 0.332300 -0.974400 1 0 1.000000 
0 16.518999 0.361801 0.312200 -0.002300 0.518797 -0.854894 0.329300 -0.784300 1 0 1.000000 
Rebar_MedThin03
0 -0.000000 0.600000 -1.039200 0.071104 0.653433 -0.753638 0.332300 -0.974400 1 0 1.000000 
0 16.512400 0.961701 1.351400 0.048101 0.998619 0.021100 0.497700 -0.784300 1 0 1.000000 
0 16.518999 0.361801 0.312200 -0.002300 0.518797 -0.854894 0.329300 -0.784300 1 0 1.000000 
Rebar_MedThin03
0 -0.000000 0.600000 -1.039200 0.071104 0.653433 -0.753638 0.332300 -0.974400 1 0 1.000000 
0 -0.000000 1.200000 0.000000 -0.001300 0.981936 0.189207 0.496800 -0.974300 1 0 1.000000 
0 16.512400 0.961701 1.351400 0.048101 0.998619 0.021100 0.497700 -0.784300 1 0 1.000000 
Rebar_MedThin03
0 38.991901 -1.322598 -5.679000 -0.655484 -0.317592 -0.685183 0.162900 -0.594200 1 0 1.000000 
0 48.565701 -0.535298 -18.161400 -0.638704 0.660804 -0.394202 0.329300 -0.404100 1 0 1.000000 
0 48.599998 -1.705798 -18.653601 -0.820615 -0.298205 -0.487509 0.162900 -0.404100 1 0 1.000000 
Rebar_MedThin03
0 38.991901 -1.322598 -5.679000 -0.655484 -0.317592 -0.685183 0.162900 -0.594200 1 0 1.000000 
0 39.124001 -0.146698 -5.503200 -0.481435 0.644647 -0.593843 0.329300 -0.594200 1 0 1.000000 
0 48.565701 -0.535298 -18.161400 -0.638704 0.660804 -0.394202 0.329300 -0.404100 1 0 1.000000 
Rebar_MedThin03
0 39.124001 -0.146698 -5.503200 -0.481435 0.644647 -0.593843 0.329300 -0.594200 1 0 1.000000 
0 49.541401 -0.170898 -17.585300 0.180991 0.979154 0.092196 0.497700 -0.404100 1 0 1.000000 
0 48.565701 -0.535298 -18.161400 -0.638704 0.660804 -0.394202 0.329300 -0.404100 1 0 1.000000 
Rebar_MedThin03
0 39.124001 -0.146698 -5.503200 -0.481435 0.644647 -0.593843 0.329300 -0.594200 1 0 1.000000 
0 39.715900 0.261702 -4.631800 0.161405 0.983832 0.077603 0.497700 -0.594200 1 0 1.000000 
0 49.541401 -0.170898 -17.585300 0.180991 0.979154 0.092196 0.497700 -0.404100 1 0 1.000000 
Rebar_MedThin03
0 39.471401 -2.091698 -5.015700 -0.182605 -0.977828 -0.102503 -0.003400 -0.594200 1 0 1.000000 
0 38.991901 -1.322598 -5.679000 -0.655484 -0.317592 -0.685183 0.162900 -0.594200 1 0 1.000000 
0 48.599998 -1.705798 -18.653601 -0.820615 -0.298205 -0.487509 0.162900 -0.404100 1 0 1.000000 
Rebar_MedThin03
0 39.471401 -2.091698 -5.015700 -0.182605 -0.977828 -0.102503 -0.003400 -0.594200 1 0 1.000000 
0 48.599998 -1.705798 -18.653601 -0.820615 -0.298205 -0.487509 0.162900 -0.404100 1 0 1.000000 
0 49.231201 -2.508198 -18.063801 -0.185501 -0.978205 -0.093300 -0.003400 -0.404100 1 0 1.000000 
Rebar_MedThin03
0 49.231201 -2.508198 -18.063801 -0.185501 -0.978205 -0.093300 -0.003400 -0.404100 1 0 1.000000 
0 48.599998 -1.705798 -18.653601 -0.820615 -0.298205 -0.487509 0.162900 -0.404100 1 0 1.000000 
0 57.225498 -1.028098 -36.511600 -0.702016 -0.320207 -0.636114 0.162900 -0.214000 1 0 1.000000 
Rebar_MedThin03
0 48.599998 -1.705798 -18.653601 -0.820615 -0.298205 -0.487509 0.162900 -0.404100 1 0 1.000000 
0 57.486000 0.140503 -36.447102 -0.573292 0.671290 -0.469793 0.329300 -0.214000 1 0 1.000000 
0 57.225498 -1.028098 -36.511600 -0.702016 -0.320207 -0.636114 0.162900 -0.214000 1 0 1.000000 
Rebar_MedThin03
0 48.599998 -1.705798 -18.653601 -0.820615 -0.298205 -0.487509 0.162900 -0.404100 1 0 1.000000 
0 48.565701 -0.535298 -18.161400 -0.638704 0.660804 -0.394202 0.329300 -0.404100 1 0 1.000000 
0 57.486000 0.140503 -36.447102 -0.573292 0.671290 -0.469793 0.329300 -0.214000 1 0 1.000000 
Rebar_MedThin03
0 48.565701 -0.535298 -18.161400 -0.638704 0.660804 -0.394202 0.329300 -0.404100 1 0 1.000000 
0 58.384102 0.519603 -35.690102 0.132996 0.974874 0.178695 0.497700 -0.214000 1 0 1.000000 
0 57.486000 0.140503 -36.447102 -0.573292 0.671290 -0.469793 0.329300 -0.214000 1 0 1.000000 
Rebar_MedThin03
0 48.565701 -0.535298 -18.161400 -0.638704 0.660804 -0.394202 0.329300 -0.404100 1 0 1.000000 
0 49.541401 -0.170898 -17.585300 0.180991 0.979154 0.092196 0.497700 -0.404100 1 0 1.000000 
0 58.384102 0.519603 -35.690102 0.132996 0.974874 0.178695 0.497700 -0.214000 1 0 1.000000 
Rebar_MedThin03
0 49.541401 -0.170898 -17.585300 0.180991 0.979154 0.092196 0.497700 -0.404100 1 0 1.000000 
0 59.101501 -0.277697 -35.202702 0.698615 0.310707 0.644514 0.664900 -0.214000 1 0 1.000000 
0 58.384102 0.519603 -35.690102 0.132996 0.974874 0.178695 0.497700 -0.214000 1 0 1.000000 
Rebar_MedThin03
0 49.541401 -0.170898 -17.585300 0.180991 0.979154 0.092196 0.497700 -0.404100 1 0 1.000000 
0 50.340599 -0.973198 -17.198200 0.816962 0.300886 0.491977 0.666000 -0.404100 1 0 1.000000 
0 59.101501 -0.277697 -35.202702 0.698615 0.310707 0.644514 0.664900 -0.214000 1 0 1.000000 
Rebar_MedThin03
0 39.715900 0.261702 -4.631800 0.161405 0.983832 0.077603 0.497700 -0.594200 1 0 1.000000 
0 50.340599 -0.973198 -17.198200 0.816962 0.300886 0.491977 0.666000 -0.404100 1 0 1.000000 
0 49.541401 -0.170898 -17.585300 0.180991 0.979154 0.092196 0.497700 -0.404100 1 0 1.000000 
Rebar_MedThin03
0 39.715900 0.261702 -4.631800 0.161405 0.983832 0.077603 0.497700 -0.594200 1 0 1.000000 
0 39.919601 -0.495398 -3.573900 0.645708 0.339804 0.683808 0.664900 -0.594200 1 0 1.000000 
0 50.340599 -0.973198 -17.198200 0.816962 0.300886 0.491977 0.666000 -0.404100 1 0 1.000000 
Rebar_MedThin03
0 49.231201 -2.508198 -18.063801 -0.185501 -0.978205 -0.093300 -0.003400 -0.404100 1 0 1.000000 
0 57.225498 -1.028098 -36.511600 -0.702016 -0.320207 -0.636114 0.162900 -0.214000 1 0 1.000000 
0 57.863400 -1.817397 -35.819801 -0.122197 -0.979080 -0.162697 -0.003400 -0.214000 1 0 1.000000 
Rebar_MedThin03
0 39.471401 -2.091698 -5.015700 -0.182605 -0.977828 -0.102503 0.998700 -0.594200 1 0 1.000000 
0 33.706501 -1.900699 -1.411900 -0.114604 -0.988732 -0.096303 0.500000 -0.500000 1 0 1.000000 
0 38.991901 -1.322598 -5.679000 -0.655484 -0.317592 -0.685183 0.162900 -0.594200 1 0 1.000000 
Rebar_MedThin03
0 33.423698 -1.170599 -2.305000 -0.340395 -0.391095 -0.855088 0.500000 -0.500000 1 0 1.000000 
0 38.991901 -1.322598 -5.679000 -0.655484 -0.317592 -0.685183 0.162900 -0.594200 1 0 1.000000 
0 33.706501 -1.900699 -1.411900 -0.114604 -0.988732 -0.096303 0.500000 -0.500000 1 0 1.000000 
Rebar_MedThin03
0 38.991901 -1.322598 -5.679000 -0.655484 -0.317592 -0.685183 0.162900 -0.594200 1 0 1.000000 
0 33.423698 -1.170599 -2.305000 -0.340395 -0.391095 -0.855088 0.500000 -0.500000 1 0 1.000000 
0 39.124001 -0.146698 -5.503200 -0.481435 0.644647 -0.593843 0.329300 -0.594200 1 0 1.000000 
Rebar_MedThin03
0 33.541401 0.011401 -2.167800 -0.231803 0.602507 -0.763709 0.500000 -0.500000 1 0 1.000000 
0 39.124001 -0.146698 -5.503200 -0.481435 0.644647 -0.593843 0.329300 -0.594200 1 0 1.000000 
0 33.423698 -1.170599 -2.305000 -0.340395 -0.391095 -0.855088 0.500000 -0.500000 1 0 1.000000 
Rebar_MedThin03
0 39.124001 -0.146698 -5.503200 -0.481435 0.644647 -0.593843 0.329300 -0.594200 1 0 1.000000 
0 33.541401 0.011401 -2.167800 -0.231803 0.602507 -0.763709 0.500000 -0.500000 1 0 1.000000 
0 39.715900 0.261702 -4.631800 0.161405 0.983832 0.077603 0.497700 -0.594200 1 0 1.000000 
Rebar_MedThin03
0 33.921799 0.462601 -1.132600 0.101700 0.991705 0.078600 0.500000 -0.500000 1 0 1.000000 
0 39.715900 0.261702 -4.631800 0.161405 0.983832 0.077603 0.497700 -0.594200 1 0 1.000000 
0 33.541401 0.011401 -2.167800 -0.231803 0.602507 -0.763709 0.500000 -0.500000 1 0 1.000000 
Rebar_MedThin03
0 39.715900 0.261702 -4.631800 0.161405 0.983832 0.077603 0.497700 -0.594200 1 0 1.000000 
0 33.921799 0.462601 -1.132600 0.101700 0.991705 0.078600 0.500000 -0.500000 1 0 1.000000 
0 39.919601 -0.495398 -3.573900 0.645708 0.339804 0.683808 0.664900 -0.594200 1 0 1.000000 
Rebar_MedThin03
0 34.308399 -0.273499 -0.254700 0.336397 0.391697 0.856394 0.500000 -0.500000 1 0 1.000000 
0 39.919601 -0.495398 -3.573900 0.645708 0.339804 0.683808 0.664900 -0.594200 1 0 1.000000 
0 33.921799 0.462601 -1.132600 0.101700 0.991705 0.078600 0.500000 -0.500000 1 0 1.000000 
Rebar_MedThin03
0 39.919601 -0.495398 -3.573900 0.645708 0.339804 0.683808 0.664900 -0.594200 1 0 1.000000 
0 34.308399 -0.273499 -0.254700 0.336397 0.391697 0.856394 0.500000 -0.500000 1 0 1.000000 
0 39.783501 -1.671498 -3.750200 0.472176 -0.654067 0.590970 0.831200 -0.594200 1 0 1.000000 
Rebar_MedThin03
0 34.183701 -1.454298 -0.394100 0.225797 -0.611192 0.758590 0.500000 -0.500000 1 0 1.000000 
0 39.783501 -1.671498 -3.750200 0.472176 -0.654067 0.590970 0.831200 -0.594200 1 0 1.000000 
0 34.308399 -0.273499 -0.254700 0.336397 0.391697 0.856394 0.500000 -0.500000 1 0 1.000000 
Rebar_MedThin03
0 57.863400 -1.817397 -35.819801 -0.122197 -0.979080 -0.162697 -0.003400 -0.214000 1 0 1.000000 
0 63.165798 -1.339197 -40.525600 -0.513094 -0.475794 -0.714391 0.166900 -0.024000 1 0 1.000000 
0 63.385502 -2.136297 -39.655899 -0.049499 -0.998584 0.019500 -0.003400 -0.023900 1 0 1.000000 
Rebar_MedThin03
0 57.863400 -1.817397 -35.819801 -0.122197 -0.979080 -0.162697 -0.003400 -0.214000 1 0 1.000000 
0 57.225498 -1.028098 -36.511600 -0.702016 -0.320207 -0.636114 0.162900 -0.214000 1 0 1.000000 
0 63.165798 -1.339197 -40.525600 -0.513094 -0.475794 -0.714391 0.166900 -0.024000 1 0 1.000000 
Rebar_MedThin03
0 57.225498 -1.028098 -36.511600 -0.702016 -0.320207 -0.636114 0.162900 -0.214000 1 0 1.000000 
0 63.399101 -0.175897 -40.346298 -0.457002 0.512602 -0.726903 0.333800 -0.024000 1 0 1.000000 
0 63.165798 -1.339197 -40.525600 -0.513094 -0.475794 -0.714391 0.166900 -0.024000 1 0 1.000000 
Rebar_MedThin03
0 57.225498 -1.028098 -36.511600 -0.702016 -0.320207 -0.636114 0.162900 -0.214000 1 0 1.000000 
0 57.486000 0.140503 -36.447102 -0.573292 0.671290 -0.469793 0.329300 -0.214000 1 0 1.000000 
0 63.399101 -0.175897 -40.346298 -0.457002 0.512602 -0.726903 0.333800 -0.024000 1 0 1.000000 
Rebar_MedThin03
0 57.486000 0.140503 -36.447102 -0.573292 0.671290 -0.469793 0.329300 -0.214000 1 0 1.000000 
0 63.852200 0.190403 -39.297199 0.052400 0.998593 -0.008100 0.497700 -0.023900 1 0 1.000000 
0 63.399101 -0.175897 -40.346298 -0.457002 0.512602 -0.726903 0.333800 -0.024000 1 0 1.000000 
Rebar_MedThin03
0 57.486000 0.140503 -36.447102 -0.573292 0.671290 -0.469793 0.329300 -0.214000 1 0 1.000000 
0 58.384102 0.519603 -35.690102 0.132996 0.974874 0.178695 0.497700 -0.214000 1 0 1.000000 
0 63.852200 0.190403 -39.297199 0.052400 0.998593 -0.008100 0.497700 -0.023900 1 0 1.000000 
Rebar_MedThin03
0 58.384102 0.519603 -35.690102 0.132996 0.974874 0.178695 0.497700 -0.214000 1 0 1.000000 
0 64.071899 -0.606597 -38.427502 0.506180 0.454782 0.732772 0.664900 -0.023900 1 0 1.000000 
0 63.852200 0.190403 -39.297199 0.052400 0.998593 -0.008100 0.497700 -0.023900 1 0 1.000000 
Rebar_MedThin03
0 58.384102 0.519603 -35.690102 0.132996 0.974874 0.178695 0.497700 -0.214000 1 0 1.000000 
0 59.101501 -0.277697 -35.202702 0.698615 0.310707 0.644514 0.664900 -0.214000 1 0 1.000000 
0 64.071899 -0.606597 -38.427502 0.506180 0.454782 0.732772 0.664900 -0.023900 1 0 1.000000 
Rebar_MedThin03
0 59.101501 -0.277697 -35.202702 0.698615 0.310707 0.644514 0.664900 -0.214000 1 0 1.000000 
0 63.838501 -1.769997 -38.606800 0.449502 -0.512403 0.731704 0.831200 -0.023900 1 0 1.000000 
0 64.071899 -0.606597 -38.427502 0.506180 0.454782 0.732772 0.664900 -0.023900 1 0 1.000000 
Rebar_MedThin03
0 59.101501 -0.277697 -35.202702 0.698615 0.310707 0.644514 0.664900 -0.214000 1 0 1.000000 
0 58.841000 -1.446097 -35.267200 0.571495 -0.673794 0.468396 0.831200 -0.214000 1 0 1.000000 
0 63.838501 -1.769997 -38.606800 0.449502 -0.512403 0.731704 0.831200 -0.023900 1 0 1.000000 
Rebar_MedThin03
0 58.841000 -1.446097 -35.267200 0.571495 -0.673794 0.468396 0.831200 -0.214000 1 0 1.000000 
0 63.385502 -2.136297 -39.655899 -0.049499 -0.998584 0.019500 0.998700 -0.023900 1 0 1.000000 
0 63.838501 -1.769997 -38.606800 0.449502 -0.512403 0.731704 0.831200 -0.023900 1 0 1.000000 
Rebar_MedThin03
0 58.841000 -1.446097 -35.267200 0.571495 -0.673794 0.468396 0.831200 -0.214000 1 0 1.000000 
0 57.863400 -1.817397 -35.819801 -0.122197 -0.979080 -0.162697 0.998700 -0.214000 1 0 1.000000 
0 63.385502 -2.136297 -39.655899 -0.049499 -0.998584 0.019500 0.998700 -0.023900 1 0 1.000000 
Rebar_MedThin03
0 50.164600 -2.140298 -17.388901 0.631194 -0.667394 0.395196 0.831200 -0.404100 1 0 1.000000 
0 57.863400 -1.817397 -35.819801 -0.122197 -0.979080 -0.162697 0.998700 -0.214000 1 0 1.000000 
0 58.841000 -1.446097 -35.267200 0.571495 -0.673794 0.468396 0.831200 -0.214000 1 0 1.000000 
Rebar_MedThin03
0 50.164600 -2.140298 -17.388901 0.631194 -0.667394 0.395196 0.831200 -0.404100 1 0 1.000000 
0 49.231201 -2.508198 -18.063801 -0.185501 -0.978205 -0.093300 0.998700 -0.404100 1 0 1.000000 
0 57.863400 -1.817397 -35.819801 -0.122197 -0.979080 -0.162697 0.998700 -0.214000 1 0 1.000000 
Rebar_MedThin03
0 39.783501 -1.671498 -3.750200 0.472176 -0.654067 0.590970 0.831200 -0.594200 1 0 1.000000 
0 49.231201 -2.508198 -18.063801 -0.185501 -0.978205 -0.093300 0.998700 -0.404100 1 0 1.000000 
0 50.164600 -2.140298 -17.388901 0.631194 -0.667394 0.395196 0.831200 -0.404100 1 0 1.000000 
Rebar_MedThin03
0 39.783501 -1.671498 -3.750200 0.472176 -0.654067 0.590970 0.831200 -0.594200 1 0 1.000000 
0 39.471401 -2.091698 -5.015700 -0.182605 -0.977828 -0.102503 0.998700 -0.594200 1 0 1.000000 
0 49.231201 -2.508198 -18.063801 -0.185501 -0.978205 -0.093300 0.998700 -0.404100 1 0 1.000000 
Rebar_MedThin03
0 39.783501 -1.671498 -3.750200 0.472176 -0.654067 0.590970 0.831200 -0.594200 1 0 1.000000 
0 34.183701 -1.454298 -0.394100 0.225797 -0.611192 0.758590 0.500000 -0.500000 1 0 1.000000 
0 39.471401 -2.091698 -5.015700 -0.182605 -0.977828 -0.102503 0.998700 -0.594200 1 0 1.000000 
Rebar_MedThin03
0 33.706501 -1.900699 -1.411900 -0.114604 -0.988732 -0.096303 0.500000 -0.500000 1 0 1.000000 
0 39.471401 -2.091698 -5.015700 -0.182605 -0.977828 -0.102503 0.998700 -0.594200 1 0 1.000000 
0 34.183701 -1.454298 -0.394100 0.225797 -0.611192 0.758590 0.500000 -0.500000 1 0 1.000000 
Rebar_MedThin03
0 50.340599 -0.973198 -17.198200 0.816962 0.300886 0.491977 0.663700 -0.404100 1 0 1.000000 
0 58.841000 -1.446097 -35.267200 0.571495 -0.673794 0.468396 0.831200 -0.214000 1 0 1.000000 
0 59.101501 -0.277697 -35.202702 0.698615 0.310707 0.644514 0.664900 -0.214000 1 0 1.000000 
Rebar_MedThin03
0 50.340599 -0.973198 -17.198200 0.816962 0.300886 0.491977 0.663700 -0.404100 1 0 1.000000 
0 50.164600 -2.140298 -17.388901 0.631194 -0.667394 0.395196 0.831200 -0.404100 1 0 1.000000 
0 58.841000 -1.446097 -35.267200 0.571495 -0.673794 0.468396 0.831200 -0.214000 1 0 1.000000 
Rebar_MedThin03
0 39.919601 -0.495398 -3.573900 0.645708 0.339804 0.683808 0.664900 -0.594200 1 0 1.000000 
0 50.164600 -2.140298 -17.388901 0.631194 -0.667394 0.395196 0.831200 -0.404100 1 0 1.000000 
0 50.340599 -0.973198 -17.198200 0.816962 0.300886 0.491977 0.663700 -0.404100 1 0 1.000000 
Rebar_MedThin03
0 39.919601 -0.495398 -3.573900 0.645708 0.339804 0.683808 0.664900 -0.594200 1 0 1.000000 
0 39.783501 -1.671498 -3.750200 0.472176 -0.654067 0.590970 0.831200 -0.594200 1 0 1.000000 
0 50.164600 -2.140298 -17.388901 0.631194 -0.667394 0.395196 0.831200 -0.404100 1 0 1.000000 
Rebar_MedThin03
0 63.618801 -0.972897 -39.476501 0.925965 -0.131195 -0.354086 0.254600 -0.014400 1 0 1.000000 
0 63.852200 0.190403 -39.297199 0.925977 -0.131097 -0.354091 0.422100 -0.014400 1 0 1.000000 
0 64.071899 -0.606597 -38.427502 0.925965 -0.131195 -0.354086 0.338300 -0.004800 1 0 1.000000 
Rebar_MedThin03
0 63.618801 -0.972897 -39.476501 0.925965 -0.131195 -0.354086 0.254600 -0.014400 1 0 1.000000 
0 63.399101 -0.175897 -40.346298 0.925977 -0.131097 -0.354091 0.333800 -0.024000 1 0 1.000000 
0 63.852200 0.190403 -39.297199 0.925977 -0.131097 -0.354091 0.422100 -0.014400 1 0 1.000000 
Rebar_MedThin03
0 63.618801 -0.972897 -39.476501 0.925965 -0.131195 -0.354086 0.254600 -0.014400 1 0 1.000000 
0 63.165798 -1.339197 -40.525600 0.925965 -0.131195 -0.354086 0.166900 -0.024000 1 0 1.000000 
0 63.399101 -0.175897 -40.346298 0.925977 -0.131097 -0.354091 0.333800 -0.024000 1 0 1.000000 
Rebar_MedThin03
0 63.618801 -0.972897 -39.476501 0.925965 -0.131195 -0.354086 0.254600 -0.014400 1 0 1.000000 
0 63.385502 -2.136297 -39.655899 0.925965 -0.131195 -0.354086 0.087100 -0.014400 1 0 1.000000 
0 63.165798 -1.339197 -40.525600 0.925965 -0.131195 -0.354086 0.166900 -0.024000 1 0 1.000000 
Rebar_MedThin03
0 63.618801 -0.972897 -39.476501 0.925965 -0.131195 -0.354086 0.254600 -0.014400 1 0 1.000000 
0 63.838501 -1.769997 -38.606800 0.925965 -0.131195 -0.354086 0.170900 -0.004800 1 0 1.000000 
0 63.385502 -2.136297 -39.655899 0.925965 -0.131195 -0.354086 0.087100 -0.014400 1 0 1.000000 
Rebar_MedThin03
0 63.618801 -0.972897 -39.476501 0.925965 -0.131195 -0.354086 0.254600 -0.014400 1 0 1.000000 
0 64.071899 -0.606597 -38.427502 0.925965 -0.131195 -0.354086 0.338300 -0.004800 1 0 1.000000 
0 63.838501 -1.769997 -38.606800 0.925965 -0.131195 -0.354086 0.170900 -0.004800 1 0 1.000000 
Rebar_MedThin03
0 0.000000 0.000000 0.000000 -1.000000 -0.000000 0.000000 0.254600 -0.984200 1 0 1.000000 
0 0.000000 -1.200000 0.000000 -1.000000 -0.000000 0.000000 0.087100 -0.984200 1 0 1.000000 
0 0.000000 -0.600000 1.039200 -1.000000 -0.000000 0.000000 0.170900 -0.993900 1 0 1.000000 
Rebar_MedThin03
0 0.000000 0.000000 0.000000 -1.000000 -0.000000 0.000000 0.254600 -0.984200 1 0 1.000000 
0 0.000000 -0.600000 -1.039200 -1.000000 -0.000000 0.000000 0.165600 -0.974400 1 0 1.000000 
0 0.000000 -1.200000 0.000000 -1.000000 -0.000000 0.000000 0.087100 -0.984200 1 0 1.000000 
Rebar_MedThin03
0 0.000000 0.000000 0.000000 -1.000000 -0.000000 0.000000 0.254600 -0.984200 1 0 1.000000 
0 -0.000000 0.600000 -1.039200 -1.000000 -0.000000 0.000000 0.332300 -0.974400 1 0 1.000000 
0 0.000000 -0.600000 -1.039200 -1.000000 -0.000000 0.000000 0.165600 -0.974400 1 0 1.000000 
Rebar_MedThin03
0 0.000000 0.000000 0.000000 -1.000000 -0.000000 0.000000 0.254600 -0.984200 1 0 1.000000 
0 -0.000000 1.200000 0.000000 -1.000000 -0.000000 0.000000 0.422100 -0.984200 1 0 1.000000 
0 -0.000000 0.600000 -1.039200 -1.000000 -0.000000 0.000000 0.332300 -0.974400 1 0 1.000000 
Rebar_MedThin03
0 0.000000 0.000000 0.000000 -1.000000 -0.000000 0.000000 0.254600 -0.984200 1 0 1.000000 
0 -0.000000 0.600000 1.039200 -1.000000 -0.000000 0.000000 0.338300 -0.993900 1 0 1.000000 
0 -0.000000 1.200000 0.000000 -1.000000 -0.000000 0.000000 0.422100 -0.984200 1 0 1.000000 
Rebar_MedThin03
0 0.000000 0.000000 0.000000 -1.000000 -0.000000 0.000000 0.254600 -0.984200 1 0 1.000000 
0 0.000000 -0.600000 1.039200 -1.000000 -0.000000 0.000000 0.170900 -0.993900 1 0 1.000000 
0 -0.000000 0.600000 1.039200 -1.000000 -0.000000 0.000000 0.338300 -0.993900 1 0 1.000000 
end
