version 1
nodes
  0 "static_prop" -1
end
skeleton
time 0
0 0.000000 0.000000 0.000000 0.000000 0.000000 0.000000
end
triangles
jvent001
0 -1.299000 2.822000 6.616400 -0.892134 -0.441517 -0.095704 0.130500 -0.277200 1 0 1.000000 
0 -1.500000 3.464100 6.987100 -0.976740 -0.073303 -0.201508 0.083400 -0.260400 1 0 1.000000 
0 -1.500000 4.000000 4.993600 -0.999984 -0.000400 -0.005600 0.083400 -0.441300 1 0 1.000000 
jvent001
0 2.000000 -4.000000 0.250000 0.866019 0.500011 0.000000 0.762700 -0.446900 1 0 1.000000 
0 1.000000 -2.267900 2.000000 0.866019 0.500011 0.000000 0.863500 -0.358800 1 0 1.000000 
0 2.000000 -4.000000 2.000000 0.866019 0.500011 0.000000 0.762700 -0.358800 1 0 1.000000 
jvent001
0 2.000000 -4.000000 0.250000 0.866019 0.500011 0.000000 0.762700 -0.446900 1 0 1.000000 
0 1.000000 -2.267900 0.250000 0.866019 0.500011 0.000000 0.863500 -0.446900 1 0 1.000000 
0 1.000000 -2.267900 2.000000 0.866019 0.500011 0.000000 0.863500 -0.358800 1 0 1.000000 
jvent001
0 -1.000000 -2.267900 0.250000 -0.866019 0.500011 0.000000 0.762700 -0.330900 1 0 1.000000 
0 -2.000000 -4.000000 2.000000 -0.866019 0.500011 0.000000 0.863500 -0.242800 1 0 1.000000 
0 -1.000000 -2.267900 2.000000 -0.866019 0.500011 0.000000 0.762700 -0.242800 1 0 1.000000 
jvent001
0 -1.000000 -2.267900 0.250000 -0.866019 0.500011 0.000000 0.762700 -0.330900 1 0 1.000000 
0 -2.000000 -4.000000 0.250000 -0.866019 0.500011 0.000000 0.863500 -0.330900 1 0 1.000000 
0 -2.000000 -4.000000 2.000000 -0.866019 0.500011 0.000000 0.863500 -0.242800 1 0 1.000000 
jvent001
0 1.000000 -5.732100 0.250000 0.866019 -0.500011 0.000000 0.762700 -0.330900 1 0 1.000000 
0 2.000000 -4.000000 2.000000 0.866019 -0.500011 0.000000 0.863500 -0.242800 1 0 1.000000 
0 1.000000 -5.732100 2.000000 0.866019 -0.500011 0.000000 0.762700 -0.242800 1 0 1.000000 
jvent001
0 1.000000 -5.732100 0.250000 0.866019 -0.500011 0.000000 0.762700 -0.330900 1 0 1.000000 
0 2.000000 -4.000000 0.250000 0.866019 -0.500011 0.000000 0.863500 -0.330900 1 0 1.000000 
0 2.000000 -4.000000 2.000000 0.866019 -0.500011 0.000000 0.863500 -0.242800 1 0 1.000000 
jvent001
0 -2.000000 -4.000000 0.250000 -0.866019 -0.500011 0.000000 0.847300 -0.418700 1 0 1.000000 
0 -1.000000 -5.732100 2.000000 -0.866019 -0.500011 0.000000 0.948000 -0.330500 1 0 1.000000 
0 -2.000000 -4.000000 2.000000 -0.866019 -0.500011 0.000000 0.847300 -0.330500 1 0 1.000000 
jvent001
0 -2.000000 -4.000000 0.250000 -0.866019 -0.500011 0.000000 0.847300 -0.418700 1 0 1.000000 
0 -1.000000 -5.732100 0.250000 -0.866019 -0.500011 0.000000 0.948000 -0.418700 1 0 1.000000 
0 -1.000000 -5.732100 2.000000 -0.866019 -0.500011 0.000000 0.948000 -0.330500 1 0 1.000000 
jvent001
0 1.000000 -2.267900 0.250000 -0.000000 1.000000 0.000000 0.884900 -0.330900 1 0 1.000000 
0 -1.000000 -2.267900 2.000000 -0.000000 1.000000 0.000000 0.985600 -0.242800 1 0 1.000000 
0 1.000000 -2.267900 2.000000 -0.000000 1.000000 0.000000 0.884900 -0.242800 1 0 1.000000 
jvent001
0 1.000000 -2.267900 0.250000 -0.000000 1.000000 0.000000 0.884900 -0.330900 1 0 1.000000 
0 -1.000000 -2.267900 0.250000 -0.000000 1.000000 0.000000 0.985600 -0.330900 1 0 1.000000 
0 -1.000000 -2.267900 2.000000 -0.000000 1.000000 0.000000 0.985600 -0.242800 1 0 1.000000 
jvent001
0 -1.125000 5.948600 -26.500000 0.000000 0.000000 1.000000 0.602500 -0.440700 1 0 1.000000 
0 -1.299000 4.750000 -26.500000 0.000000 0.000000 1.000000 0.539400 -0.431600 1 0 1.000000 
0 -0.000000 5.500000 -26.500000 0.000000 0.000000 1.000000 0.578900 -0.499900 1 0 1.000000 
jvent001
0 -2.250000 4.000000 -26.500000 0.000000 0.000000 1.000000 0.500000 -0.381600 1 0 1.000000 
0 -1.299000 4.750000 -26.500000 0.000000 0.000000 1.000000 0.539400 -0.431600 1 0 1.000000 
0 -1.125000 5.948600 -26.500000 0.000000 0.000000 1.000000 0.602500 -0.440700 1 0 1.000000 
jvent001
0 -2.250000 4.000000 -26.500000 0.000000 0.000000 1.000000 0.500000 -0.381600 1 0 1.000000 
0 -1.500000 4.000000 -26.500000 0.000000 0.000000 1.000000 0.500000 -0.421000 1 0 1.000000 
0 -1.299000 4.750000 -26.500000 0.000000 0.000000 1.000000 0.539400 -0.431600 1 0 1.000000 
jvent001
0 -2.250000 4.000000 -26.500000 0.000000 0.000000 1.000000 0.500000 -0.381600 1 0 1.000000 
0 -0.750000 2.701000 -26.500000 0.000000 0.000000 1.000000 0.431700 -0.460500 1 0 1.000000 
0 -1.500000 4.000000 -26.500000 0.000000 0.000000 1.000000 0.500000 -0.421000 1 0 1.000000 
jvent001
0 -1.125000 2.051400 -26.500000 0.000000 0.000000 1.000000 0.397500 -0.440700 1 0 1.000000 
0 -0.750000 2.701000 -26.500000 0.000000 0.000000 1.000000 0.431700 -0.460500 1 0 1.000000 
0 -2.250000 4.000000 -26.500000 0.000000 0.000000 1.000000 0.500000 -0.381600 1 0 1.000000 
jvent001
0 -1.125000 2.051400 -26.500000 0.000000 0.000000 1.000000 0.397500 -0.440700 1 0 1.000000 
0 -0.000000 2.500000 -26.500000 0.000000 0.000000 1.000000 0.421100 -0.499900 1 0 1.000000 
0 -0.750000 2.701000 -26.500000 0.000000 0.000000 1.000000 0.431700 -0.460500 1 0 1.000000 
jvent001
0 1.125000 2.051400 -26.500000 0.000000 0.000000 1.000000 0.397500 -0.559100 1 0 1.000000 
0 -0.000000 2.500000 -26.500000 0.000000 0.000000 1.000000 0.421100 -0.499900 1 0 1.000000 
0 -1.125000 2.051400 -26.500000 0.000000 0.000000 1.000000 0.397500 -0.440700 1 0 1.000000 
jvent001
0 1.125000 2.051400 -26.500000 0.000000 0.000000 1.000000 0.397500 -0.559100 1 0 1.000000 
0 1.299000 3.250000 -26.500000 0.000000 0.000000 1.000000 0.460600 -0.568200 1 0 1.000000 
0 -0.000000 2.500000 -26.500000 0.000000 0.000000 1.000000 0.421100 -0.499900 1 0 1.000000 
jvent001
0 2.250000 4.000000 -26.500000 0.000000 0.000000 1.000000 0.500000 -0.618300 1 0 1.000000 
0 1.299000 3.250000 -26.500000 0.000000 0.000000 1.000000 0.460600 -0.568200 1 0 1.000000 
0 1.125000 2.051400 -26.500000 0.000000 0.000000 1.000000 0.397500 -0.559100 1 0 1.000000 
jvent001
0 2.250000 4.000000 -26.500000 0.000000 0.000000 1.000000 0.500000 -0.618300 1 0 1.000000 
0 1.500000 4.000000 -26.500000 0.000000 0.000000 1.000000 0.500000 -0.578800 1 0 1.000000 
0 1.299000 3.250000 -26.500000 0.000000 0.000000 1.000000 0.460600 -0.568200 1 0 1.000000 
jvent001
0 1.948600 5.125000 -26.500000 0.000000 0.000000 1.000000 0.559200 -0.602400 1 0 1.000000 
0 1.500000 4.000000 -26.500000 0.000000 0.000000 1.000000 0.500000 -0.578800 1 0 1.000000 
0 2.250000 4.000000 -26.500000 0.000000 0.000000 1.000000 0.500000 -0.618300 1 0 1.000000 
jvent001
0 1.948600 5.125000 -26.500000 0.000000 0.000000 1.000000 0.559200 -0.602400 1 0 1.000000 
0 0.750000 5.299000 -26.500000 0.000000 0.000000 1.000000 0.568300 -0.539400 1 0 1.000000 
0 1.500000 4.000000 -26.500000 0.000000 0.000000 1.000000 0.500000 -0.578800 1 0 1.000000 
jvent001
0 -0.000000 6.250000 -26.500000 0.000000 0.000000 1.000000 0.618300 -0.499900 1 0 1.000000 
0 0.750000 5.299000 -26.500000 0.000000 0.000000 1.000000 0.568300 -0.539400 1 0 1.000000 
0 1.948600 5.125000 -26.500000 0.000000 0.000000 1.000000 0.559200 -0.602400 1 0 1.000000 
jvent001
0 -0.000000 6.250000 -26.500000 0.000000 0.000000 1.000000 0.618300 -0.499900 1 0 1.000000 
0 -0.000000 5.500000 -26.500000 0.000000 0.000000 1.000000 0.578900 -0.499900 1 0 1.000000 
0 0.750000 5.299000 -26.500000 0.000000 0.000000 1.000000 0.568300 -0.539400 1 0 1.000000 
jvent001
0 -1.125000 5.948600 -26.500000 0.000000 0.000000 1.000000 0.602500 -0.440700 1 0 1.000000 
0 -0.000000 5.500000 -26.500000 0.000000 0.000000 1.000000 0.578900 -0.499900 1 0 1.000000 
0 -0.000000 6.250000 -26.500000 0.000000 0.000000 1.000000 0.618300 -0.499900 1 0 1.000000 
jvent001
0 -1.000000 -5.732100 0.250000 0.000000 -1.000000 0.000000 0.878600 -0.465700 1 0 1.000000 
0 1.000000 -5.732100 2.000000 0.000000 -1.000000 0.000000 0.979300 -0.377600 1 0 1.000000 
0 -1.000000 -5.732100 2.000000 0.000000 -1.000000 0.000000 0.878600 -0.377600 1 0 1.000000 
jvent001
0 -1.000000 -5.732100 0.250000 0.000000 -1.000000 0.000000 0.878600 -0.465700 1 0 1.000000 
0 1.000000 -5.732100 0.250000 0.000000 -1.000000 0.000000 0.979300 -0.465700 1 0 1.000000 
0 1.000000 -5.732100 2.000000 0.000000 -1.000000 0.000000 0.979300 -0.377600 1 0 1.000000 
jvent001
0 -1.500000 2.000000 8.451200 -0.999929 0.010300 -0.005900 0.680400 -0.409200 1 0 1.000000 
0 -1.299000 4.106300 7.357800 -0.864145 0.440623 0.243113 0.632000 -0.607600 1 0 1.000000 
0 -1.500000 3.464100 6.987100 -0.976740 -0.073303 -0.201508 0.680400 -0.590800 1 0 1.000000 
jvent001
0 -1.500000 2.000000 8.451200 -0.999929 0.010300 -0.005900 0.680400 -0.409200 1 0 1.000000 
0 -1.299000 2.370700 9.093300 -0.864109 0.260403 0.430704 0.632000 -0.392400 1 0 1.000000 
0 -1.299000 4.106300 7.357800 -0.864145 0.440623 0.243113 0.632000 -0.607600 1 0 1.000000 
jvent001
0 -1.299000 2.370700 9.093300 -0.864109 0.260403 0.430704 0.632000 -0.392400 1 0 1.000000 
0 -0.750000 4.576300 7.629200 -0.496695 0.754092 0.429696 0.580300 -0.620000 1 0 1.000000 
0 -1.299000 4.106300 7.357800 -0.864145 0.440623 0.243113 0.632000 -0.607600 1 0 1.000000 
jvent001
0 -1.299000 2.370700 9.093300 -0.864109 0.260403 0.430704 0.632000 -0.392400 1 0 1.000000 
0 -0.750000 2.642100 9.563400 -0.496689 0.438890 0.748783 0.580300 -0.380000 1 0 1.000000 
0 -0.750000 4.576300 7.629200 -0.496695 0.754092 0.429696 0.580300 -0.620000 1 0 1.000000 
jvent001
0 -0.750000 2.642100 9.563400 -0.496689 0.438890 0.748783 0.580300 -0.380000 1 0 1.000000 
0 -0.000000 4.748400 7.728600 -0.000000 0.816890 0.576793 0.525400 -0.624500 1 0 1.000000 
0 -0.750000 4.576300 7.629200 -0.496695 0.754092 0.429696 0.580300 -0.620000 1 0 1.000000 
jvent001
0 -0.750000 2.642100 9.563400 -0.496689 0.438890 0.748783 0.580300 -0.380000 1 0 1.000000 
0 -0.000000 2.741500 9.735500 -0.000000 0.500011 0.866019 0.525400 -0.375500 1 0 1.000000 
0 -0.000000 4.748400 7.728600 -0.000000 0.816890 0.576793 0.525400 -0.624500 1 0 1.000000 
jvent001
0 -0.000000 2.741500 9.735500 -0.000000 0.500011 0.866019 0.525400 -0.375500 1 0 1.000000 
0 0.750000 2.642100 9.563400 0.494285 0.530084 0.688979 0.470400 -0.380000 1 0 1.000000 
0 -0.000000 4.748400 7.728600 -0.000000 0.816890 0.576793 0.525400 -0.624500 1 0 1.000000 
jvent001
0 -0.000000 4.748400 7.728600 -0.000000 0.816890 0.576793 0.525400 -0.624500 1 0 1.000000 
0 0.750000 2.642100 9.563400 0.494285 0.530084 0.688979 0.470400 -0.380000 1 0 1.000000 
0 0.750000 4.576300 7.629200 0.496804 0.748405 0.439403 0.470400 -0.620000 1 0 1.000000 
jvent001
0 0.750000 2.642100 9.563400 0.494285 0.530084 0.688979 0.470400 -0.380000 1 0 1.000000 
0 1.299000 4.106300 7.357800 0.864101 0.430600 0.260600 0.418700 -0.607600 1 0 1.000000 
0 0.750000 4.576300 7.629200 0.496804 0.748405 0.439403 0.470400 -0.620000 1 0 1.000000 
jvent001
0 0.750000 2.642100 9.563400 0.494285 0.530084 0.688979 0.470400 -0.380000 1 0 1.000000 
0 1.299000 2.370700 9.093300 0.864094 0.242798 0.440897 0.418700 -0.392400 1 0 1.000000 
0 1.299000 4.106300 7.357800 0.864101 0.430600 0.260600 0.418700 -0.607600 1 0 1.000000 
jvent001
0 1.299000 2.370700 9.093300 0.864094 0.242798 0.440897 0.418700 -0.392400 1 0 1.000000 
0 1.500000 3.464100 6.987100 0.999928 -0.005900 0.010400 0.370300 -0.590800 1 0 1.000000 
0 1.299000 4.106300 7.357800 0.864101 0.430600 0.260600 0.418700 -0.607600 1 0 1.000000 
jvent001
0 1.500000 3.464100 6.987100 0.999928 -0.005900 0.010400 0.370300 -0.590800 1 0 1.000000 
0 1.299000 1.629300 7.809100 0.817352 -0.315720 -0.481930 0.323300 -0.426000 1 0 1.000000 
0 1.299000 2.822000 6.616400 0.783331 -0.589023 -0.198608 0.323300 -0.574000 1 0 1.000000 
jvent001
0 1.299000 1.629300 7.809100 0.817352 -0.315720 -0.481930 0.323300 -0.426000 1 0 1.000000 
0 0.750000 2.351900 6.345000 0.496789 -0.755283 -0.427490 0.275700 -0.561600 1 0 1.000000 
0 1.299000 2.822000 6.616400 0.783331 -0.589023 -0.198608 0.323300 -0.574000 1 0 1.000000 
jvent001
0 1.299000 1.629300 7.809100 0.817352 -0.315720 -0.481930 0.323300 -0.426000 1 0 1.000000 
0 0.750000 1.357900 7.339000 0.496689 -0.438890 -0.748783 0.275700 -0.438300 1 0 1.000000 
0 0.750000 2.351900 6.345000 0.496789 -0.755283 -0.427490 0.275700 -0.561600 1 0 1.000000 
jvent001
0 0.750000 1.357900 7.339000 0.496689 -0.438890 -0.748783 0.275700 -0.438300 1 0 1.000000 
0 -0.000000 2.179800 6.245600 0.000000 -0.820236 -0.572025 0.227100 -0.557100 1 0 1.000000 
0 0.750000 2.351900 6.345000 0.496789 -0.755283 -0.427490 0.275700 -0.561600 1 0 1.000000 
jvent001
0 0.750000 1.357900 7.339000 0.496689 -0.438890 -0.748783 0.275700 -0.438300 1 0 1.000000 
0 -0.000000 1.258500 7.166900 0.000000 -0.500011 -0.866019 0.227100 -0.442900 1 0 1.000000 
0 -0.000000 2.179800 6.245600 0.000000 -0.820236 -0.572025 0.227100 -0.557100 1 0 1.000000 
jvent001
0 -0.000000 1.258500 7.166900 0.000000 -0.500011 -0.866019 0.227100 -0.442900 1 0 1.000000 
0 -0.750000 1.357900 7.339000 -0.499602 -0.512202 -0.698603 0.178500 -0.438300 1 0 1.000000 
0 -0.000000 2.179800 6.245600 0.000000 -0.820236 -0.572025 0.227100 -0.557100 1 0 1.000000 
jvent001
0 -0.000000 2.179800 6.245600 0.000000 -0.820236 -0.572025 0.227100 -0.557100 1 0 1.000000 
0 -0.750000 1.357900 7.339000 -0.499602 -0.512202 -0.698603 0.178500 -0.438300 1 0 1.000000 
0 -0.750000 2.351900 6.345000 -0.372615 -0.868835 -0.326013 0.178500 -0.561600 1 0 1.000000 
jvent001
0 -0.750000 1.357900 7.339000 -0.499602 -0.512202 -0.698603 0.178500 -0.438300 1 0 1.000000 
0 -1.299000 2.822000 6.616400 -0.892134 -0.441517 -0.095704 0.130900 -0.574000 1 0 1.000000 
0 -0.750000 2.351900 6.345000 -0.372615 -0.868835 -0.326013 0.178500 -0.561600 1 0 1.000000 
jvent001
0 -0.750000 1.357900 7.339000 -0.499602 -0.512202 -0.698603 0.178500 -0.438300 1 0 1.000000 
0 -1.500000 3.464100 6.987100 -0.976740 -0.073303 -0.201508 0.083900 -0.590800 1 0 1.000000 
0 -1.299000 2.822000 6.616400 -0.892134 -0.441517 -0.095704 0.130900 -0.574000 1 0 1.000000 
jvent001
0 1.000000 5.732100 -27.250000 0.495404 0.853706 -0.160501 0.576800 -0.911000 1 0 1.000000 
0 -0.000000 6.250000 -26.500000 0.178010 0.964653 -0.194311 0.615200 -0.876400 1 0 1.000000 
0 1.948600 5.125000 -26.500000 0.807271 0.544281 -0.228192 0.538300 -0.876600 1 0 1.000000 
jvent001
0 1.000000 5.732100 -27.250000 0.495404 0.853706 -0.160501 0.576800 -0.911000 1 0 1.000000 
0 -0.000000 6.000000 -27.250000 0.073302 0.991724 -0.105403 0.615200 -0.911000 1 0 1.000000 
0 -0.000000 6.250000 -26.500000 0.178010 0.964653 -0.194311 0.615200 -0.876400 1 0 1.000000 
jvent001
0 -0.000000 6.000000 -27.250000 0.073302 0.991724 -0.105403 0.615200 -0.911000 1 0 1.000000 
0 -1.125000 5.948600 -26.500000 -0.503883 0.863571 0.018599 0.653600 -0.876500 1 0 1.000000 
0 -0.000000 6.250000 -26.500000 0.178010 0.964653 -0.194311 0.615200 -0.876400 1 0 1.000000 
jvent001
0 -0.000000 6.000000 -27.250000 0.073302 0.991724 -0.105403 0.615200 -0.911000 1 0 1.000000 
0 -1.125000 5.948600 -27.250000 -0.467589 0.882679 -0.047299 0.653600 -0.911000 1 0 1.000000 
0 -1.125000 5.948600 -26.500000 -0.503883 0.863571 0.018599 0.653600 -0.876500 1 0 1.000000 
jvent001
0 1.000000 5.732100 -29.000000 0.340685 0.938660 -0.053398 0.577000 -0.991700 1 0 1.000000 
0 -1.000000 5.732100 -29.000000 -0.438006 0.877811 -0.193902 0.653400 -0.991700 1 0 1.000000 
0 -0.000000 6.000000 -27.250000 0.073302 0.991724 -0.105403 0.615200 -0.911000 1 0 1.000000 
jvent001
0 -1.000000 5.732100 -29.000000 -0.438006 0.877811 -0.193902 0.653400 -0.991700 1 0 1.000000 
0 -1.125000 5.948600 -27.250000 -0.467589 0.882679 -0.047299 0.653600 -0.911000 1 0 1.000000 
0 -0.000000 6.000000 -27.250000 0.073302 0.991724 -0.105403 0.615200 -0.911000 1 0 1.000000 
jvent001
0 -1.000000 5.732100 -29.000000 -0.438006 0.877811 -0.193902 0.653400 -0.991700 1 0 1.000000 
0 -1.948600 5.125000 -27.250000 -0.907068 0.420985 0.000000 0.691900 -0.911200 1 0 1.000000 
0 -1.125000 5.948600 -27.250000 -0.467589 0.882679 -0.047299 0.653600 -0.911000 1 0 1.000000 
jvent001
0 -1.125000 5.948600 -27.250000 -0.467589 0.882679 -0.047299 0.653600 -0.911000 1 0 1.000000 
0 -1.948600 5.125000 -27.250000 -0.907068 0.420985 0.000000 0.691900 -0.911200 1 0 1.000000 
0 -1.125000 5.948600 -26.500000 -0.503883 0.863571 0.018599 0.653600 -0.876500 1 0 1.000000 
jvent001
0 -1.948600 5.125000 -27.250000 -0.907068 0.420985 0.000000 0.691900 -0.911200 1 0 1.000000 
0 -2.250000 4.000000 -26.500000 -0.999472 -0.000000 0.032499 0.730400 -0.876900 1 0 1.000000 
0 -1.125000 5.948600 -26.500000 -0.503883 0.863571 0.018599 0.653600 -0.876500 1 0 1.000000 
jvent001
0 -1.948600 5.125000 -27.250000 -0.907068 0.420985 0.000000 0.691900 -0.911200 1 0 1.000000 
0 -2.000000 4.000000 -27.250000 -0.994214 0.001700 -0.107402 0.730300 -0.911400 1 0 1.000000 
0 -2.250000 4.000000 -26.500000 -0.999472 -0.000000 0.032499 0.730400 -0.876900 1 0 1.000000 
jvent001
0 -2.000000 4.000000 -29.000000 -0.988180 -0.000000 -0.153297 0.730000 -0.992000 1 0 1.000000 
0 -2.000000 4.000000 -27.250000 -0.994214 0.001700 -0.107402 0.730300 -0.911400 1 0 1.000000 
0 -1.948600 5.125000 -27.250000 -0.907068 0.420985 0.000000 0.691900 -0.911200 1 0 1.000000 
jvent001
0 -1.000000 5.732100 -29.000000 -0.438006 0.877811 -0.193902 0.653400 -0.991700 1 0 1.000000 
0 -2.000000 4.000000 -29.000000 -0.988180 -0.000000 -0.153297 0.730000 -0.992000 1 0 1.000000 
0 -1.948600 5.125000 -27.250000 -0.907068 0.420985 0.000000 0.691900 -0.911200 1 0 1.000000 
jvent001
0 -2.000000 4.000000 -29.000000 -0.988180 -0.000000 -0.153297 0.269300 -0.992000 1 0 1.000000 
0 -1.948600 2.875000 -27.250000 -0.861616 -0.497409 -0.101002 0.308000 -0.911600 1 0 1.000000 
0 -2.000000 4.000000 -27.250000 -0.994214 0.001700 -0.107402 0.269600 -0.911400 1 0 1.000000 
jvent001
0 -2.000000 4.000000 -27.250000 -0.994214 0.001700 -0.107402 0.269600 -0.911400 1 0 1.000000 
0 -1.948600 2.875000 -27.250000 -0.861616 -0.497409 -0.101002 0.308000 -0.911600 1 0 1.000000 
0 -2.250000 4.000000 -26.500000 -0.999472 -0.000000 0.032499 0.269700 -0.876900 1 0 1.000000 
jvent001
0 -1.948600 2.875000 -27.250000 -0.861616 -0.497409 -0.101002 0.308000 -0.911600 1 0 1.000000 
0 -1.125000 2.051400 -26.500000 -0.499695 -0.865591 0.032500 0.346400 -0.877200 1 0 1.000000 
0 -2.250000 4.000000 -26.500000 -0.999472 -0.000000 0.032499 0.269700 -0.876900 1 0 1.000000 
jvent001
0 -1.948600 2.875000 -27.250000 -0.861616 -0.497409 -0.101002 0.308000 -0.911600 1 0 1.000000 
0 -1.000000 2.267900 -27.250000 -0.529909 -0.841315 -0.106702 0.346400 -0.911800 1 0 1.000000 
0 -1.125000 2.051400 -26.500000 -0.499695 -0.865591 0.032500 0.346400 -0.877200 1 0 1.000000 
jvent001
0 -1.000000 2.267900 -29.000000 -0.494093 -0.855787 -0.153298 0.346200 -0.992300 1 0 1.000000 
0 -1.000000 2.267900 -27.250000 -0.529909 -0.841315 -0.106702 0.346400 -0.911800 1 0 1.000000 
0 -1.948600 2.875000 -27.250000 -0.861616 -0.497409 -0.101002 0.308000 -0.911600 1 0 1.000000 
jvent001
0 -1.000000 2.267900 -29.000000 -0.494093 -0.855787 -0.153298 0.346200 -0.992300 1 0 1.000000 
0 -0.000000 1.750000 -27.250000 -0.036401 -0.998217 -0.047301 0.384800 -0.911800 1 0 1.000000 
0 -1.000000 2.267900 -27.250000 -0.529909 -0.841315 -0.106702 0.346400 -0.911800 1 0 1.000000 
jvent001
0 -1.000000 2.267900 -29.000000 -0.494093 -0.855787 -0.153298 0.346200 -0.992300 1 0 1.000000 
0 1.000000 2.267900 -29.000000 0.489513 -0.859223 -0.148704 0.423400 -0.992300 1 0 1.000000 
0 -0.000000 1.750000 -27.250000 -0.036401 -0.998217 -0.047301 0.384800 -0.911800 1 0 1.000000 
jvent001
0 1.000000 2.267900 -29.000000 0.489513 -0.859223 -0.148704 0.423400 -0.992300 1 0 1.000000 
0 1.125000 2.051400 -27.250000 0.575092 -0.818089 0.000000 0.423200 -0.911800 1 0 1.000000 
0 -0.000000 1.750000 -27.250000 -0.036401 -0.998217 -0.047301 0.384800 -0.911800 1 0 1.000000 
jvent001
0 -0.000000 1.750000 -27.250000 -0.036401 -0.998217 -0.047301 0.384800 -0.911800 1 0 1.000000 
0 1.125000 2.051400 -27.250000 0.575092 -0.818089 0.000000 0.423200 -0.911800 1 0 1.000000 
0 1.125000 2.051400 -26.500000 0.552510 -0.824215 0.124102 0.423200 -0.877200 1 0 1.000000 
jvent001
0 1.125000 2.051400 -27.250000 0.575092 -0.818089 0.000000 0.423200 -0.911800 1 0 1.000000 
0 1.732100 3.000000 -27.250000 0.877298 -0.475899 -0.062200 0.461700 -0.911600 1 0 1.000000 
0 1.125000 2.051400 -26.500000 0.552510 -0.824215 0.124102 0.423200 -0.877200 1 0 1.000000 
jvent001
0 1.732100 3.000000 -27.250000 0.877298 -0.475899 -0.062200 0.461700 -0.911600 1 0 1.000000 
0 2.250000 4.000000 -26.500000 0.964653 -0.178010 -0.194311 0.499900 -0.876900 1 0 1.000000 
0 1.125000 2.051400 -26.500000 0.552510 -0.824215 0.124102 0.423200 -0.877200 1 0 1.000000 
jvent001
0 1.732100 3.000000 -27.250000 0.877298 -0.475899 -0.062200 0.461700 -0.911600 1 0 1.000000 
0 2.000000 4.000000 -27.250000 0.986367 0.033099 -0.161195 0.500100 -0.911400 1 0 1.000000 
0 2.250000 4.000000 -26.500000 0.964653 -0.178010 -0.194311 0.499900 -0.876900 1 0 1.000000 
jvent001
0 2.000000 4.000000 -27.250000 0.986367 0.033099 -0.161195 0.500100 -0.911400 1 0 1.000000 
0 1.948600 5.125000 -26.500000 0.807271 0.544281 -0.228192 0.538300 -0.876600 1 0 1.000000 
0 2.250000 4.000000 -26.500000 0.964653 -0.178010 -0.194311 0.499900 -0.876900 1 0 1.000000 
jvent001
0 2.000000 4.000000 -27.250000 0.986367 0.033099 -0.161195 0.500100 -0.911400 1 0 1.000000 
0 1.732100 5.000000 -27.250000 0.855902 0.491601 -0.160500 0.538400 -0.911200 1 0 1.000000 
0 1.948600 5.125000 -26.500000 0.807271 0.544281 -0.228192 0.538300 -0.876600 1 0 1.000000 
jvent001
0 1.732100 5.000000 -27.250000 0.855902 0.491601 -0.160500 0.538400 -0.911200 1 0 1.000000 
0 1.000000 5.732100 -27.250000 0.495404 0.853706 -0.160501 0.576800 -0.911000 1 0 1.000000 
0 1.948600 5.125000 -26.500000 0.807271 0.544281 -0.228192 0.538300 -0.876600 1 0 1.000000 
jvent001
0 1.732100 5.000000 -29.000000 0.894881 0.444491 -0.040199 0.538700 -0.991800 1 0 1.000000 
0 1.000000 5.732100 -27.250000 0.495404 0.853706 -0.160501 0.576800 -0.911000 1 0 1.000000 
0 1.732100 5.000000 -27.250000 0.855902 0.491601 -0.160500 0.538400 -0.911200 1 0 1.000000 
jvent001
0 1.732100 5.000000 -29.000000 0.894881 0.444491 -0.040199 0.538700 -0.991800 1 0 1.000000 
0 1.000000 5.732100 -29.000000 0.340685 0.938660 -0.053398 0.577000 -0.991700 1 0 1.000000 
0 1.000000 5.732100 -27.250000 0.495404 0.853706 -0.160501 0.576800 -0.911000 1 0 1.000000 
jvent001
0 1.000000 5.732100 -29.000000 0.340685 0.938660 -0.053398 0.577000 -0.991700 1 0 1.000000 
0 -0.000000 6.000000 -27.250000 0.073302 0.991724 -0.105403 0.615200 -0.911000 1 0 1.000000 
0 1.000000 5.732100 -27.250000 0.495404 0.853706 -0.160501 0.576800 -0.911000 1 0 1.000000 
jvent001
0 -1.000000 2.267900 -27.250000 -0.529909 -0.841315 -0.106702 0.346400 -0.911800 1 0 1.000000 
0 -0.000000 1.750000 -27.250000 -0.036401 -0.998217 -0.047301 0.384800 -0.911800 1 0 1.000000 
0 -1.125000 2.051400 -26.500000 -0.499695 -0.865591 0.032500 0.346400 -0.877200 1 0 1.000000 
jvent001
0 -0.000000 1.750000 -27.250000 -0.036401 -0.998217 -0.047301 0.384800 -0.911800 1 0 1.000000 
0 1.125000 2.051400 -26.500000 0.552510 -0.824215 0.124102 0.423200 -0.877200 1 0 1.000000 
0 -1.125000 2.051400 -26.500000 -0.499695 -0.865591 0.032500 0.346400 -0.877200 1 0 1.000000 
jvent001
0 1.000000 2.267900 -29.000000 0.489513 -0.859223 -0.148704 0.423400 -0.992300 1 0 1.000000 
0 1.732100 3.000000 -27.250000 0.877298 -0.475899 -0.062200 0.461700 -0.911600 1 0 1.000000 
0 1.125000 2.051400 -27.250000 0.575092 -0.818089 0.000000 0.423200 -0.911800 1 0 1.000000 
jvent001
0 1.000000 2.267900 -29.000000 0.489513 -0.859223 -0.148704 0.423400 -0.992300 1 0 1.000000 
0 1.732100 3.000000 -29.000000 0.938660 -0.340685 -0.053398 0.461900 -0.992200 1 0 1.000000 
0 1.732100 3.000000 -27.250000 0.877298 -0.475899 -0.062200 0.461700 -0.911600 1 0 1.000000 
jvent001
0 1.732100 3.000000 -29.000000 0.938660 -0.340685 -0.053398 0.461900 -0.992200 1 0 1.000000 
0 2.000000 4.000000 -27.250000 0.986367 0.033099 -0.161195 0.500100 -0.911400 1 0 1.000000 
0 1.732100 3.000000 -27.250000 0.877298 -0.475899 -0.062200 0.461700 -0.911600 1 0 1.000000 
jvent001
0 1.732100 3.000000 -29.000000 0.938660 -0.340685 -0.053398 0.461900 -0.992200 1 0 1.000000 
0 1.732100 5.000000 -29.000000 0.894881 0.444491 -0.040199 0.538700 -0.991800 1 0 1.000000 
0 2.000000 4.000000 -27.250000 0.986367 0.033099 -0.161195 0.500100 -0.911400 1 0 1.000000 
jvent001
0 1.732100 5.000000 -29.000000 0.894881 0.444491 -0.040199 0.538700 -0.991800 1 0 1.000000 
0 1.732100 5.000000 -27.250000 0.855902 0.491601 -0.160500 0.538400 -0.911200 1 0 1.000000 
0 2.000000 4.000000 -27.250000 0.986367 0.033099 -0.161195 0.500100 -0.911400 1 0 1.000000 
jvent001
0 -2.000000 4.000000 -29.000000 -0.988180 -0.000000 -0.153297 0.269300 -0.992000 1 0 1.000000 
0 -1.000000 2.267900 -29.000000 -0.494093 -0.855787 -0.153298 0.346200 -0.992300 1 0 1.000000 
0 -1.948600 2.875000 -27.250000 -0.861616 -0.497409 -0.101002 0.308000 -0.911600 1 0 1.000000 
jvent001
0 0.000000 -2.741500 9.735500 0.052098 -0.405587 0.912570 0.227100 -0.624500 1 0 1.000000 
0 0.000000 -3.877000 8.864100 0.000000 -0.707107 0.707107 0.227100 -0.500000 1 0 1.000000 
0 0.750000 -2.642100 9.563400 0.496694 -0.428995 0.754492 0.282100 -0.620000 1 0 1.000000 
jvent001
0 -0.750000 -2.642100 9.563400 -0.496689 -0.438890 0.748783 0.172100 -0.620000 1 0 1.000000 
0 0.000000 -3.877000 8.864100 0.000000 -0.707107 0.707107 0.227100 -0.500000 1 0 1.000000 
0 0.000000 -2.741500 9.735500 0.052098 -0.405587 0.912570 0.227100 -0.624500 1 0 1.000000 
jvent001
0 -0.750000 -2.642100 9.563400 -0.496689 -0.438890 0.748783 0.172100 -0.620000 1 0 1.000000 
0 -0.750000 -4.576300 7.629200 -0.496695 -0.754092 0.429696 0.172100 -0.380000 1 0 1.000000 
0 0.000000 -3.877000 8.864100 0.000000 -0.707107 0.707107 0.227100 -0.500000 1 0 1.000000 
jvent001
0 -1.299000 -2.370700 9.093300 -0.864109 -0.260403 0.430704 0.120400 -0.607600 1 0 1.000000 
0 -0.750000 -4.576300 7.629200 -0.496695 -0.754092 0.429696 0.172100 -0.380000 1 0 1.000000 
0 -0.750000 -2.642100 9.563400 -0.496689 -0.438890 0.748783 0.172100 -0.620000 1 0 1.000000 
jvent001
0 -1.299000 -2.370700 9.093300 -0.864109 -0.260403 0.430704 0.120400 -0.607600 1 0 1.000000 
0 -1.299000 -4.106300 7.357800 -0.864145 -0.440623 0.243113 0.120400 -0.392400 1 0 1.000000 
0 -0.750000 -4.576300 7.629200 -0.496695 -0.754092 0.429696 0.172100 -0.380000 1 0 1.000000 
jvent001
0 -1.500000 -0.000000 8.987100 -0.995941 -0.000000 0.090004 0.083900 -0.558300 1 0 1.000000 
0 -1.299000 -4.106300 7.357800 -0.864145 -0.440623 0.243113 0.120400 -0.392400 1 0 1.000000 
0 -1.299000 -2.370700 9.093300 -0.864109 -0.260403 0.430704 0.120400 -0.607600 1 0 1.000000 
jvent001
0 -1.500000 -0.000000 8.987100 -0.995941 -0.000000 0.090004 0.083900 -0.558300 1 0 1.000000 
0 -1.500000 -3.464100 6.987100 -0.970814 0.101701 -0.217203 0.072100 -0.409200 1 0 1.000000 
0 -1.299000 -4.106300 7.357800 -0.864145 -0.440623 0.243113 0.120400 -0.392400 1 0 1.000000 
jvent001
0 1.299000 -2.370700 9.093300 0.864094 -0.242798 0.440897 0.333800 -0.607600 1 0 1.000000 
0 1.500000 -3.464100 6.987100 0.991815 0.125702 0.022400 0.382100 -0.409200 1 0 1.000000 
0 1.500000 -2.000000 8.451200 0.981851 0.187891 -0.025799 0.382100 -0.590800 1 0 1.000000 
jvent001
0 1.299000 -2.370700 9.093300 0.864094 -0.242798 0.440897 0.333800 -0.607600 1 0 1.000000 
0 1.299000 -4.106300 7.357800 0.864101 -0.430600 0.260600 0.333800 -0.392400 1 0 1.000000 
0 1.500000 -3.464100 6.987100 0.991815 0.125702 0.022400 0.382100 -0.409200 1 0 1.000000 
jvent001
0 0.750000 -2.642100 9.563400 0.496694 -0.428995 0.754492 0.282100 -0.620000 1 0 1.000000 
0 1.299000 -4.106300 7.357800 0.864101 -0.430600 0.260600 0.333800 -0.392400 1 0 1.000000 
0 1.299000 -2.370700 9.093300 0.864094 -0.242798 0.440897 0.333800 -0.607600 1 0 1.000000 
jvent001
0 0.750000 -2.642100 9.563400 0.496694 -0.428995 0.754492 0.282100 -0.620000 1 0 1.000000 
0 0.750000 -4.576300 7.629200 0.496804 -0.748405 0.439403 0.282100 -0.380000 1 0 1.000000 
0 1.299000 -4.106300 7.357800 0.864101 -0.430600 0.260600 0.333800 -0.392400 1 0 1.000000 
jvent001
0 0.000000 -3.877000 8.864100 0.000000 -0.707107 0.707107 0.227100 -0.500000 1 0 1.000000 
0 0.750000 -4.576300 7.629200 0.496804 -0.748405 0.439403 0.282100 -0.380000 1 0 1.000000 
0 0.750000 -2.642100 9.563400 0.496694 -0.428995 0.754492 0.282100 -0.620000 1 0 1.000000 
jvent001
0 0.000000 -3.877000 8.864100 0.000000 -0.707107 0.707107 0.227100 -0.500000 1 0 1.000000 
0 0.000000 -4.748400 7.728600 -0.052501 -0.911019 0.409009 0.227100 -0.375500 1 0 1.000000 
0 0.750000 -4.576300 7.629200 0.496804 -0.748405 0.439403 0.282100 -0.380000 1 0 1.000000 
jvent001
0 -0.750000 -4.576300 7.629200 -0.496695 -0.754092 0.429696 0.172100 -0.380000 1 0 1.000000 
0 0.000000 -4.748400 7.728600 -0.052501 -0.911019 0.409009 0.227100 -0.375500 1 0 1.000000 
0 0.000000 -3.877000 8.864100 0.000000 -0.707107 0.707107 0.227100 -0.500000 1 0 1.000000 
jvent001
0 -0.750000 -0.000000 7.702800 -0.380408 -0.000000 -0.924819 0.178500 -0.587500 1 0 1.000000 
0 -1.500000 3.464100 6.987100 -0.976740 -0.073303 -0.201508 0.130900 -0.723100 1 0 1.000000 
0 -0.750000 1.357900 7.339000 -0.499602 -0.512202 -0.698603 0.178500 -0.710800 1 0 1.000000 
jvent001
0 -0.750000 -0.000000 7.702800 -0.380408 -0.000000 -0.924819 0.178500 -0.587500 1 0 1.000000 
0 -1.299000 -0.000000 8.245600 -0.905669 -0.000000 -0.423985 0.130900 -0.575200 1 0 1.000000 
0 -1.500000 3.464100 6.987100 -0.976740 -0.073303 -0.201508 0.130900 -0.723100 1 0 1.000000 
jvent001
0 -1.299000 -0.000000 8.245600 -0.905669 -0.000000 -0.423985 0.130900 -0.575200 1 0 1.000000 
0 -1.500000 2.000000 8.451200 -0.999929 0.010300 -0.005900 0.083900 -0.739900 1 0 1.000000 
0 -1.500000 3.464100 6.987100 -0.976740 -0.073303 -0.201508 0.130900 -0.723100 1 0 1.000000 
jvent001
0 -1.299000 -0.000000 8.245600 -0.905669 -0.000000 -0.423985 0.130900 -0.575200 1 0 1.000000 
0 -1.500000 -0.000000 8.987100 -0.995941 -0.000000 0.090004 0.083900 -0.558300 1 0 1.000000 
0 -1.500000 2.000000 8.451200 -0.999929 0.010300 -0.005900 0.083900 -0.739900 1 0 1.000000 
jvent001
0 -1.500000 -0.000000 8.987100 -0.995941 -0.000000 0.090004 0.680400 -0.558300 1 0 1.000000 
0 -1.299000 2.370700 9.093300 -0.864109 0.260403 0.430704 0.632000 -0.756800 1 0 1.000000 
0 -1.500000 2.000000 8.451200 -0.999929 0.010300 -0.005900 0.680400 -0.739900 1 0 1.000000 
jvent001
0 -1.500000 -0.000000 8.987100 -0.995941 -0.000000 0.090004 0.680400 -0.558300 1 0 1.000000 
0 -1.299000 -0.000000 9.728600 -0.815608 -0.000000 0.578605 0.632000 -0.541500 1 0 1.000000 
0 -1.299000 2.370700 9.093300 -0.864109 0.260403 0.430704 0.632000 -0.756800 1 0 1.000000 
jvent001
0 -1.299000 -0.000000 9.728600 -0.815608 -0.000000 0.578605 0.632000 -0.541500 1 0 1.000000 
0 -0.750000 2.642100 9.563400 -0.496689 0.438890 0.748783 0.580300 -0.769100 1 0 1.000000 
0 -1.299000 2.370700 9.093300 -0.864109 0.260403 0.430704 0.632000 -0.756800 1 0 1.000000 
jvent001
0 -1.299000 -0.000000 9.728600 -0.815608 -0.000000 0.578605 0.632000 -0.541500 1 0 1.000000 
0 0.000000 0.000000 10.470100 -0.146905 0.020601 0.988936 0.525400 -0.524700 1 0 1.000000 
0 -0.750000 2.642100 9.563400 -0.496689 0.438890 0.748783 0.580300 -0.769100 1 0 1.000000 
jvent001
0 0.000000 0.000000 10.470100 -0.146905 0.020601 0.988936 0.525400 -0.524700 1 0 1.000000 
0 -0.000000 2.741500 9.735500 -0.000000 0.500011 0.866019 0.525400 -0.773600 1 0 1.000000 
0 -0.750000 2.642100 9.563400 -0.496689 0.438890 0.748783 0.580300 -0.769100 1 0 1.000000 
jvent001
0 0.000000 0.000000 10.470100 -0.146905 0.020601 0.988936 0.525400 -0.524700 1 0 1.000000 
0 0.750000 1.367700 10.091300 0.496705 0.219102 0.839808 0.476500 -0.649100 1 0 1.000000 
0 -0.000000 2.741500 9.735500 -0.000000 0.500011 0.866019 0.525400 -0.773600 1 0 1.000000 
jvent001
0 -0.000000 2.741500 9.735500 -0.000000 0.500011 0.866019 0.525400 -0.773600 1 0 1.000000 
0 0.750000 1.367700 10.091300 0.496705 0.219102 0.839808 0.476500 -0.649100 1 0 1.000000 
0 0.750000 2.642100 9.563400 0.494285 0.530084 0.688979 0.470400 -0.769100 1 0 1.000000 
jvent001
0 0.750000 1.367700 10.091300 0.496705 0.219102 0.839808 0.476500 -0.649100 1 0 1.000000 
0 1.299000 2.370700 9.093300 0.864094 0.242798 0.440897 0.418700 -0.756800 1 0 1.000000 
0 0.750000 2.642100 9.563400 0.494285 0.530084 0.688979 0.470400 -0.769100 1 0 1.000000 
jvent001
0 0.750000 1.367700 10.091300 0.496705 0.219102 0.839808 0.476500 -0.649100 1 0 1.000000 
0 1.299000 0.000000 9.728600 0.905669 0.000000 0.423985 0.418700 -0.541500 1 0 1.000000 
0 1.299000 2.370700 9.093300 0.864094 0.242798 0.440897 0.418700 -0.756800 1 0 1.000000 
jvent001
0 1.299000 0.000000 9.728600 0.905669 0.000000 0.423985 0.418700 -0.541500 1 0 1.000000 
0 1.500000 3.464100 6.987100 0.999137 -0.036301 -0.020201 0.370300 -0.739900 1 0 1.000000 
0 1.299000 2.370700 9.093300 0.864094 0.242798 0.440897 0.418700 -0.756800 1 0 1.000000 
jvent001
0 1.299000 0.000000 9.728600 0.905669 0.000000 0.423985 0.418700 -0.541500 1 0 1.000000 
0 1.500000 0.000000 8.987100 0.961134 0.037601 -0.273510 0.370300 -0.558300 1 0 1.000000 
0 1.500000 3.464100 6.987100 0.999137 -0.036301 -0.020201 0.370300 -0.739900 1 0 1.000000 
jvent001
0 1.500000 0.000000 8.987100 0.961134 0.037601 -0.273510 0.370300 -0.558300 1 0 1.000000 
0 1.299000 1.629300 7.809100 0.817352 -0.315720 -0.481930 0.323300 -0.723100 1 0 1.000000 
0 1.500000 3.464100 6.987100 0.999137 -0.036301 -0.020201 0.370300 -0.739900 1 0 1.000000 
jvent001
0 1.500000 0.000000 8.987100 0.961134 0.037601 -0.273510 0.370300 -0.558300 1 0 1.000000 
0 1.299000 0.000000 8.245600 0.774571 -0.102796 -0.624077 0.323300 -0.575200 1 0 1.000000 
0 1.299000 1.629300 7.809100 0.817352 -0.315720 -0.481930 0.323300 -0.723100 1 0 1.000000 
jvent001
0 1.299000 0.000000 8.245600 0.774571 -0.102796 -0.624077 0.323300 -0.575200 1 0 1.000000 
0 0.750000 1.357900 7.339000 0.496689 -0.438890 -0.748783 0.275700 -0.710800 1 0 1.000000 
0 1.299000 1.629300 7.809100 0.817352 -0.315720 -0.481930 0.323300 -0.723100 1 0 1.000000 
jvent001
0 1.299000 0.000000 8.245600 0.774571 -0.102796 -0.624077 0.323300 -0.575200 1 0 1.000000 
0 0.000000 0.000000 7.504100 0.170202 0.000000 -0.985409 0.227100 -0.592000 1 0 1.000000 
0 0.750000 1.357900 7.339000 0.496689 -0.438890 -0.748783 0.275700 -0.710800 1 0 1.000000 
jvent001
0 0.000000 0.000000 7.504100 0.170202 0.000000 -0.985409 0.227100 -0.592000 1 0 1.000000 
0 -0.000000 1.258500 7.166900 0.000000 -0.500011 -0.866019 0.227100 -0.706300 1 0 1.000000 
0 0.750000 1.357900 7.339000 0.496689 -0.438890 -0.748783 0.275700 -0.710800 1 0 1.000000 
jvent001
0 0.000000 0.000000 7.504100 0.170202 0.000000 -0.985409 0.227100 -0.592000 1 0 1.000000 
0 -0.750000 -0.000000 7.702800 -0.380408 -0.000000 -0.924819 0.178500 -0.587500 1 0 1.000000 
0 -0.000000 1.258500 7.166900 0.000000 -0.500011 -0.866019 0.227100 -0.706300 1 0 1.000000 
jvent001
0 -0.000000 1.258500 7.166900 0.000000 -0.500011 -0.866019 0.227100 -0.706300 1 0 1.000000 
0 -0.750000 -0.000000 7.702800 -0.380408 -0.000000 -0.924819 0.178500 -0.587500 1 0 1.000000 
0 -0.750000 1.357900 7.339000 -0.499602 -0.512202 -0.698603 0.178500 -0.710800 1 0 1.000000 
jvent001
0 0.000000 0.000000 10.470100 -0.146905 0.020601 0.988936 0.525400 -0.524700 1 0 1.000000 
0 0.750000 0.000000 10.271400 0.494302 -0.114600 0.861703 0.470400 -0.529200 1 0 1.000000 
0 0.750000 1.367700 10.091300 0.496705 0.219102 0.839808 0.476500 -0.649100 1 0 1.000000 
jvent001
0 0.750000 0.000000 10.271400 0.494302 -0.114600 0.861703 0.470400 -0.529200 1 0 1.000000 
0 1.299000 0.000000 9.728600 0.905669 0.000000 0.423985 0.418700 -0.541500 1 0 1.000000 
0 0.750000 1.367700 10.091300 0.496705 0.219102 0.839808 0.476500 -0.649100 1 0 1.000000 
jvent001
0 1.299000 2.822000 6.616400 0.783331 -0.589023 -0.198608 0.323700 -0.277200 1 0 1.000000 
0 0.750000 2.351900 6.345000 0.496789 -0.755283 -0.427490 0.275900 -0.289500 1 0 1.000000 
0 0.750000 2.701000 4.993600 0.400616 -0.911735 -0.090804 0.275500 -0.411900 1 0 1.000000 
jvent001
0 0.750000 2.351900 6.345000 0.496789 -0.755283 -0.427490 0.275900 -0.289500 1 0 1.000000 
0 -0.000000 2.500000 4.993600 0.073702 -0.989224 -0.126503 0.227100 -0.407400 1 0 1.000000 
0 0.750000 2.701000 4.993600 0.400616 -0.911735 -0.090804 0.275500 -0.411900 1 0 1.000000 
jvent001
0 0.750000 2.351900 6.345000 0.496789 -0.755283 -0.427490 0.275900 -0.289500 1 0 1.000000 
0 -0.000000 2.179800 6.245600 0.000000 -0.820236 -0.572025 0.227100 -0.294000 1 0 1.000000 
0 -0.000000 2.500000 4.993600 0.073702 -0.989224 -0.126503 0.227100 -0.407400 1 0 1.000000 
jvent001
0 -0.000000 2.179800 6.245600 0.000000 -0.820236 -0.572025 0.227100 -0.294000 1 0 1.000000 
0 -0.750000 2.351900 6.345000 -0.372615 -0.868835 -0.326013 0.178300 -0.289500 1 0 1.000000 
0 -0.000000 2.500000 4.993600 0.073702 -0.989224 -0.126503 0.227100 -0.407400 1 0 1.000000 
jvent001
0 -1.299000 -0.000000 8.245600 -0.905669 -0.000000 -0.423985 0.621600 -0.424800 1 0 1.000000 
0 -1.500000 -3.464100 6.987100 -0.970814 0.101701 -0.217203 0.621600 -0.276900 1 0 1.000000 
0 -1.500000 -0.000000 8.987100 -0.995941 -0.000000 0.090004 0.668600 -0.441700 1 0 1.000000 
jvent001
0 -0.750000 -0.000000 7.702800 -0.380408 -0.000000 -0.924819 0.574000 -0.412500 1 0 1.000000 
0 -1.500000 -3.464100 6.987100 -0.970814 0.101701 -0.217203 0.621600 -0.276900 1 0 1.000000 
0 -1.299000 -0.000000 8.245600 -0.905669 -0.000000 -0.423985 0.621600 -0.424800 1 0 1.000000 
jvent001
0 -0.750000 -0.000000 7.702800 -0.380408 -0.000000 -0.924819 0.574000 -0.412500 1 0 1.000000 
0 -0.750000 -1.357900 7.339000 -0.499602 0.512202 -0.698603 0.574000 -0.289200 1 0 1.000000 
0 -1.500000 -3.464100 6.987100 -0.970814 0.101701 -0.217203 0.621600 -0.276900 1 0 1.000000 
jvent001
0 0.000000 -1.258500 7.166900 -0.000000 0.500011 -0.866019 0.525400 -0.293700 1 0 1.000000 
0 -0.750000 -1.357900 7.339000 -0.499602 0.512202 -0.698603 0.574000 -0.289200 1 0 1.000000 
0 -0.750000 -0.000000 7.702800 -0.380408 -0.000000 -0.924819 0.574000 -0.412500 1 0 1.000000 
jvent001
0 0.000000 0.000000 7.504100 0.170202 0.000000 -0.985409 0.525400 -0.408000 1 0 1.000000 
0 0.000000 -1.258500 7.166900 -0.000000 0.500011 -0.866019 0.525400 -0.293700 1 0 1.000000 
0 -0.750000 -0.000000 7.702800 -0.380408 -0.000000 -0.924819 0.574000 -0.412500 1 0 1.000000 
jvent001
0 0.000000 0.000000 7.504100 0.170202 0.000000 -0.985409 0.525400 -0.408000 1 0 1.000000 
0 0.750000 -1.357900 7.339000 0.496689 0.438890 -0.748783 0.476700 -0.289200 1 0 1.000000 
0 0.000000 -1.258500 7.166900 -0.000000 0.500011 -0.866019 0.525400 -0.293700 1 0 1.000000 
jvent001
0 1.299000 0.000000 8.245600 0.774571 -0.102796 -0.624077 0.429100 -0.424800 1 0 1.000000 
0 0.750000 -1.357900 7.339000 0.496689 0.438890 -0.748783 0.476700 -0.289200 1 0 1.000000 
0 0.000000 0.000000 7.504100 0.170202 0.000000 -0.985409 0.525400 -0.408000 1 0 1.000000 
jvent001
0 1.299000 0.000000 8.245600 0.774571 -0.102796 -0.624077 0.429100 -0.424800 1 0 1.000000 
0 1.500000 0.000000 8.987100 0.961134 0.037601 -0.273510 0.382100 -0.441700 1 0 1.000000 
0 0.750000 -1.357900 7.339000 0.496689 0.438890 -0.748783 0.476700 -0.289200 1 0 1.000000 
jvent001
0 -1.500000 -0.000000 8.987100 -0.995941 -0.000000 0.090004 0.072100 -0.441700 1 0 1.000000 
0 -1.299000 -2.370700 9.093300 -0.864109 -0.260403 0.430704 0.120400 -0.243200 1 0 1.000000 
0 -1.299000 -0.000000 9.728600 -0.815608 -0.000000 0.578605 0.120400 -0.458500 1 0 1.000000 
jvent001
0 -1.299000 -0.000000 9.728600 -0.815608 -0.000000 0.578605 0.120400 -0.458500 1 0 1.000000 
0 -1.299000 -2.370700 9.093300 -0.864109 -0.260403 0.430704 0.120400 -0.243200 1 0 1.000000 
0 -0.750000 -2.642100 9.563400 -0.496689 -0.438890 0.748783 0.172100 -0.230900 1 0 1.000000 
jvent001
0 -1.299000 -0.000000 9.728600 -0.815608 -0.000000 0.578605 0.120400 -0.458500 1 0 1.000000 
0 -0.750000 -2.642100 9.563400 -0.496689 -0.438890 0.748783 0.172100 -0.230900 1 0 1.000000 
0 0.000000 0.000000 10.470100 -0.146905 0.020601 0.988936 0.227100 -0.475300 1 0 1.000000 
jvent001
0 0.000000 0.000000 10.470100 -0.146905 0.020601 0.988936 0.227100 -0.475300 1 0 1.000000 
0 -0.750000 -2.642100 9.563400 -0.496689 -0.438890 0.748783 0.172100 -0.230900 1 0 1.000000 
0 0.000000 -2.741500 9.735500 0.052098 -0.405587 0.912570 0.227100 -0.226400 1 0 1.000000 
jvent001
0 0.000000 0.000000 10.470100 -0.146905 0.020601 0.988936 0.227100 -0.475300 1 0 1.000000 
0 0.000000 -2.741500 9.735500 0.052098 -0.405587 0.912570 0.227100 -0.226400 1 0 1.000000 
0 0.750000 0.000000 10.271400 0.494302 -0.114600 0.861703 0.282100 -0.470800 1 0 1.000000 
jvent001
0 0.000000 -2.741500 9.735500 0.052098 -0.405587 0.912570 0.227100 -0.226400 1 0 1.000000 
0 0.750000 -2.642100 9.563400 0.496694 -0.428995 0.754492 0.282100 -0.230900 1 0 1.000000 
0 0.750000 0.000000 10.271400 0.494302 -0.114600 0.861703 0.282100 -0.470800 1 0 1.000000 
jvent001
0 0.750000 0.000000 10.271400 0.494302 -0.114600 0.861703 0.282100 -0.470800 1 0 1.000000 
0 0.750000 -2.642100 9.563400 0.496694 -0.428995 0.754492 0.282100 -0.230900 1 0 1.000000 
0 1.299000 -2.370700 9.093300 0.864094 -0.242798 0.440897 0.333800 -0.243200 1 0 1.000000 
jvent001
0 0.750000 0.000000 10.271400 0.494302 -0.114600 0.861703 0.282100 -0.470800 1 0 1.000000 
0 1.299000 -2.370700 9.093300 0.864094 -0.242798 0.440897 0.333800 -0.243200 1 0 1.000000 
0 1.299000 0.000000 9.728600 0.905669 0.000000 0.423985 0.333800 -0.458500 1 0 1.000000 
jvent001
0 1.299000 0.000000 9.728600 0.905669 0.000000 0.423985 0.333800 -0.458500 1 0 1.000000 
0 1.299000 -2.370700 9.093300 0.864094 -0.242798 0.440897 0.333800 -0.243200 1 0 1.000000 
0 1.500000 -2.000000 8.451200 0.981851 0.187891 -0.025799 0.382100 -0.260100 1 0 1.000000 
jvent001
0 1.299000 0.000000 9.728600 0.905669 0.000000 0.423985 0.333800 -0.458500 1 0 1.000000 
0 1.500000 -2.000000 8.451200 0.981851 0.187891 -0.025799 0.382100 -0.260100 1 0 1.000000 
0 1.500000 0.000000 8.987100 0.961134 0.037601 -0.273510 0.382100 -0.441700 1 0 1.000000 
jvent001
0 1.000000 -5.732100 2.000000 0.000000 0.000000 1.000000 0.803700 -0.415000 1 0 1.000000 
0 2.000000 -4.000000 2.000000 0.000000 0.000000 1.000000 0.875200 -0.456300 1 0 1.000000 
0 -1.000000 -5.732100 2.000000 0.000000 0.000000 1.000000 0.803700 -0.332400 1 0 1.000000 
jvent001
0 2.000000 -4.000000 2.000000 0.000000 0.000000 1.000000 0.875200 -0.456300 1 0 1.000000 
0 1.000000 -2.267900 2.000000 0.000000 0.000000 1.000000 0.946800 -0.415000 1 0 1.000000 
0 -1.000000 -5.732100 2.000000 0.000000 0.000000 1.000000 0.803700 -0.332400 1 0 1.000000 
jvent001
0 1.000000 -2.267900 2.000000 0.000000 0.000000 1.000000 0.946800 -0.415000 1 0 1.000000 
0 -1.000000 -2.267900 2.000000 0.000000 0.000000 1.000000 0.946800 -0.332400 1 0 1.000000 
0 -1.000000 -5.732100 2.000000 0.000000 0.000000 1.000000 0.803700 -0.332400 1 0 1.000000 
jvent001
0 -1.000000 -2.267900 2.000000 0.000000 0.000000 1.000000 0.946800 -0.332400 1 0 1.000000 
0 -2.000000 -4.000000 2.000000 0.000000 0.000000 1.000000 0.875200 -0.291000 1 0 1.000000 
0 -1.000000 -5.732100 2.000000 0.000000 0.000000 1.000000 0.803700 -0.332400 1 0 1.000000 
jvent001
0 -0.750000 -1.357900 7.339000 -0.499602 0.512202 -0.698603 0.574000 -0.561700 1 0 1.000000 
0 -1.299000 -2.822000 6.616400 -0.887218 0.445009 -0.121702 0.621600 -0.426000 1 0 1.000000 
0 -1.500000 -3.464100 6.987100 -0.970814 0.101701 -0.217203 0.668600 -0.409200 1 0 1.000000 
jvent001
0 -0.750000 -1.357900 7.339000 -0.499602 0.512202 -0.698603 0.574000 -0.561700 1 0 1.000000 
0 -0.750000 -2.351900 6.345000 -0.428373 0.827448 -0.363077 0.574000 -0.438400 1 0 1.000000 
0 -1.299000 -2.822000 6.616400 -0.887218 0.445009 -0.121702 0.621600 -0.426000 1 0 1.000000 
jvent001
0 0.000000 -2.179800 6.245600 -0.000000 0.820236 -0.572025 0.525400 -0.442900 1 0 1.000000 
0 -0.750000 -2.351900 6.345000 -0.428373 0.827448 -0.363077 0.574000 -0.438400 1 0 1.000000 
0 -0.750000 -1.357900 7.339000 -0.499602 0.512202 -0.698603 0.574000 -0.561700 1 0 1.000000 
jvent001
0 0.000000 -1.258500 7.166900 -0.000000 0.500011 -0.866019 0.525400 -0.557100 1 0 1.000000 
0 0.000000 -2.179800 6.245600 -0.000000 0.820236 -0.572025 0.525400 -0.442900 1 0 1.000000 
0 -0.750000 -1.357900 7.339000 -0.499602 0.512202 -0.698603 0.574000 -0.561700 1 0 1.000000 
jvent001
0 0.750000 -1.357900 7.339000 0.496689 0.438890 -0.748783 0.476700 -0.561700 1 0 1.000000 
0 0.000000 -2.179800 6.245600 -0.000000 0.820236 -0.572025 0.525400 -0.442900 1 0 1.000000 
0 0.000000 -1.258500 7.166900 -0.000000 0.500011 -0.866019 0.525400 -0.557100 1 0 1.000000 
jvent001
0 0.750000 -1.357900 7.339000 0.496689 0.438890 -0.748783 0.476700 -0.561700 1 0 1.000000 
0 0.750000 -2.351900 6.345000 0.405517 0.793933 -0.453019 0.476700 -0.438400 1 0 1.000000 
0 0.000000 -2.179800 6.245600 -0.000000 0.820236 -0.572025 0.525400 -0.442900 1 0 1.000000 
jvent001
0 1.500000 0.000000 8.987100 0.961134 0.037601 -0.273510 0.429100 -0.574000 1 0 1.000000 
0 0.750000 -2.351900 6.345000 0.405517 0.793933 -0.453019 0.476700 -0.438400 1 0 1.000000 
0 0.750000 -1.357900 7.339000 0.496689 0.438890 -0.748783 0.476700 -0.561700 1 0 1.000000 
jvent001
0 1.500000 0.000000 8.987100 0.961134 0.037601 -0.273510 0.429100 -0.574000 1 0 1.000000 
0 1.500000 -2.000000 8.451200 0.981851 0.187891 -0.025799 0.382100 -0.590800 1 0 1.000000 
0 0.750000 -2.351900 6.345000 0.405517 0.793933 -0.453019 0.476700 -0.438400 1 0 1.000000 
jvent001
0 1.325000 -1.705000 -2.750000 -0.555610 -0.752314 -0.354007 0.935100 -0.069300 1 0 1.000000 
0 2.295000 -2.675000 -2.750000 -0.747493 -0.346897 -0.566495 0.907000 -0.041200 1 0 1.000000 
0 0.000000 -1.350000 -2.750000 -0.018300 -0.278305 -0.960318 0.945400 -0.107700 1 0 1.000000 
jvent001
0 2.295000 -2.675000 -2.750000 -0.747493 -0.346897 -0.566495 0.907000 -0.041200 1 0 1.000000 
0 2.650000 -4.000000 -2.750000 -0.820797 0.073300 -0.566498 0.868600 -0.030900 1 0 1.000000 
0 0.000000 -1.350000 -2.750000 -0.018300 -0.278305 -0.960318 0.945400 -0.107700 1 0 1.000000 
jvent001
0 2.650000 -4.000000 -2.750000 -0.820797 0.073300 -0.566498 0.868600 -0.030900 1 0 1.000000 
0 2.295000 -5.325000 -2.750000 -0.674183 0.473888 -0.566486 0.830200 -0.041200 1 0 1.000000 
0 0.000000 -1.350000 -2.750000 -0.018300 -0.278305 -0.960318 0.945400 -0.107700 1 0 1.000000 
jvent001
0 2.295000 -5.325000 -2.750000 -0.674183 0.473888 -0.566486 0.830200 -0.041200 1 0 1.000000 
0 1.325000 -6.295000 -2.750000 -0.346897 0.747493 -0.566495 0.802100 -0.069300 1 0 1.000000 
0 0.000000 -1.350000 -2.750000 -0.018300 -0.278305 -0.960318 0.945400 -0.107700 1 0 1.000000 
jvent001
0 1.325000 -6.295000 -2.750000 -0.346897 0.747493 -0.566495 0.802100 -0.069300 1 0 1.000000 
0 0.000000 -6.650000 -2.750000 0.073300 0.820797 -0.566498 0.791800 -0.107700 1 0 1.000000 
0 0.000000 -1.350000 -2.750000 -0.018300 -0.278305 -0.960318 0.945400 -0.107700 1 0 1.000000 
jvent001
0 0.000000 -6.650000 -2.750000 0.073300 0.820797 -0.566498 0.791800 -0.107700 1 0 1.000000 
0 -1.325000 -6.295000 -2.750000 0.473888 0.674183 -0.566486 0.802100 -0.146100 1 0 1.000000 
0 0.000000 -1.350000 -2.750000 -0.018300 -0.278305 -0.960318 0.945400 -0.107700 1 0 1.000000 
jvent001
0 -1.325000 -6.295000 -2.750000 0.473888 0.674183 -0.566486 0.802100 -0.146100 1 0 1.000000 
0 -2.295000 -5.325000 -2.750000 0.747493 0.346897 -0.566495 0.830200 -0.174200 1 0 1.000000 
0 0.000000 -1.350000 -2.750000 -0.018300 -0.278305 -0.960318 0.945400 -0.107700 1 0 1.000000 
jvent001
0 -2.295000 -5.325000 -2.750000 0.747493 0.346897 -0.566495 0.830200 -0.174200 1 0 1.000000 
0 -2.650000 -4.000000 -2.750000 0.820797 -0.073300 -0.566498 0.868600 -0.184500 1 0 1.000000 
0 0.000000 -1.350000 -2.750000 -0.018300 -0.278305 -0.960318 0.945400 -0.107700 1 0 1.000000 
jvent001
0 -2.650000 -4.000000 -2.750000 0.820797 -0.073300 -0.566498 0.868600 -0.184500 1 0 1.000000 
0 -2.295000 -2.675000 -2.750000 0.674183 -0.473888 -0.566486 0.907000 -0.174200 1 0 1.000000 
0 0.000000 -1.350000 -2.750000 -0.018300 -0.278305 -0.960318 0.945400 -0.107700 1 0 1.000000 
jvent001
0 -2.295000 -2.675000 -2.750000 0.674183 -0.473888 -0.566486 0.907000 -0.174200 1 0 1.000000 
0 -1.325000 -1.705000 -2.750000 0.398101 -0.857802 -0.325101 0.935100 -0.146100 1 0 1.000000 
0 0.000000 -1.350000 -2.750000 -0.018300 -0.278305 -0.960318 0.945400 -0.107700 1 0 1.000000 
jvent001
0 -1.375000 -6.381600 -4.750000 -0.009800 -0.021201 -0.999727 0.086400 -0.979900 1 0 1.000000 
0 0.000000 -6.650000 -2.750000 0.073300 0.820797 -0.566498 0.125100 -0.904300 1 0 1.000000 
0 0.000000 -6.750000 -4.750000 0.002100 -0.023301 -0.999726 0.125100 -0.979900 1 0 1.000000 
jvent001
0 -1.375000 -6.381600 -4.750000 -0.009800 -0.021201 -0.999727 0.086400 -0.979900 1 0 1.000000 
0 -1.325000 -6.295000 -2.750000 0.473888 0.674183 -0.566486 0.086500 -0.904200 1 0 1.000000 
0 0.000000 -6.650000 -2.750000 0.073300 0.820797 -0.566498 0.125100 -0.904300 1 0 1.000000 
jvent001
0 -2.381600 -5.375000 -4.750000 -0.019101 -0.012900 -0.999734 0.047700 -0.979700 1 0 1.000000 
0 -1.325000 -6.295000 -2.750000 0.473888 0.674183 -0.566486 0.086500 -0.904200 1 0 1.000000 
0 -1.375000 -6.381600 -4.750000 -0.009800 -0.021201 -0.999727 0.086400 -0.979900 1 0 1.000000 
jvent001
0 -2.381600 -5.375000 -4.750000 -0.019101 -0.012900 -0.999734 0.047700 -0.979700 1 0 1.000000 
0 -2.295000 -5.325000 -2.750000 0.747493 0.346897 -0.566495 0.047900 -0.904100 1 0 1.000000 
0 -1.325000 -6.295000 -2.750000 0.473888 0.674183 -0.566486 0.086500 -0.904200 1 0 1.000000 
jvent001
0 -2.650000 -4.000000 -4.750000 -0.004400 -0.001900 -0.999988 0.009100 -0.979500 1 0 1.000000 
0 -2.295000 -5.325000 -2.750000 0.747493 0.346897 -0.566495 0.047900 -0.904100 1 0 1.000000 
0 -2.381600 -5.375000 -4.750000 -0.019101 -0.012900 -0.999734 0.047700 -0.979700 1 0 1.000000 
jvent001
0 -2.650000 -4.000000 -4.750000 -0.004400 -0.001900 -0.999988 0.009100 -0.979500 1 0 1.000000 
0 -2.650000 -4.000000 -2.750000 0.820797 -0.073300 -0.566498 0.009300 -0.903800 1 0 1.000000 
0 -2.295000 -5.325000 -2.750000 0.747493 0.346897 -0.566495 0.047900 -0.904100 1 0 1.000000 
jvent001
0 -1.375000 -6.381600 -4.750000 -0.009800 -0.021201 -0.999727 0.086400 -0.979900 1 0 1.000000 
0 0.000000 -6.750000 -4.750000 0.002100 -0.023301 -0.999726 0.125100 -0.979900 1 0 1.000000 
0 0.000000 -6.750000 -1.000000 -0.089003 -0.996031 0.000000 0.125100 -0.838100 1 0 1.000000 
jvent001
0 -1.375000 -6.381600 -4.750000 -0.009800 -0.021201 -0.999727 0.086400 -0.979900 1 0 1.000000 
0 0.000000 -6.750000 -1.000000 -0.089003 -0.996031 0.000000 0.125100 -0.838100 1 0 1.000000 
0 -1.375000 -6.381600 -1.000000 -0.575092 -0.818089 0.000000 0.086600 -0.838100 1 0 1.000000 
jvent001
0 -2.381600 -5.375000 -4.750000 -0.019101 -0.012900 -0.999734 0.047700 -0.979700 1 0 1.000000 
0 -1.375000 -6.381600 -4.750000 -0.009800 -0.021201 -0.999727 0.086400 -0.979900 1 0 1.000000 
0 -1.375000 -6.381600 -1.000000 -0.575092 -0.818089 0.000000 0.086600 -0.838100 1 0 1.000000 
jvent001
0 -2.381600 -5.375000 -4.750000 -0.019101 -0.012900 -0.999734 0.047700 -0.979700 1 0 1.000000 
0 -1.375000 -6.381600 -1.000000 -0.575092 -0.818089 0.000000 0.086600 -0.838100 1 0 1.000000 
0 -2.381600 -5.375000 -1.000000 -0.907067 -0.420985 0.000000 0.048100 -0.837900 1 0 1.000000 
jvent001
0 -2.650000 -4.000000 -4.750000 -0.004400 -0.001900 -0.999988 0.009100 -0.979500 1 0 1.000000 
0 -2.381600 -5.375000 -4.750000 -0.019101 -0.012900 -0.999734 0.047700 -0.979700 1 0 1.000000 
0 -2.381600 -5.375000 -1.000000 -0.907067 -0.420985 0.000000 0.048100 -0.837900 1 0 1.000000 
jvent001
0 -2.650000 -4.000000 -4.750000 -0.004400 -0.001900 -0.999988 0.009100 -0.979500 1 0 1.000000 
0 -2.381600 -5.375000 -1.000000 -0.907067 -0.420985 0.000000 0.048100 -0.837900 1 0 1.000000 
0 -2.750000 -4.000000 -1.000000 -0.996031 0.089003 0.000000 0.009500 -0.837700 1 0 1.000000 
jvent001
0 -2.381600 -2.625000 -4.750000 -0.012500 0.008900 -0.999882 0.433900 -0.979200 1 0 1.000000 
0 -2.650000 -4.000000 -4.750000 -0.004400 -0.001900 -0.999988 0.472500 -0.979500 1 0 1.000000 
0 -2.750000 -4.000000 -1.000000 -0.996031 0.089003 0.000000 0.472900 -0.837700 1 0 1.000000 
jvent001
0 -2.381600 -2.625000 -4.750000 -0.012500 0.008900 -0.999882 0.433900 -0.979200 1 0 1.000000 
0 -2.750000 -4.000000 -1.000000 -0.996031 0.089003 0.000000 0.472900 -0.837700 1 0 1.000000 
0 -2.381600 -2.625000 -1.000000 -0.818089 0.575092 0.000000 0.434300 -0.837400 1 0 1.000000 
jvent001
0 -1.325000 -1.705000 -4.750000 -0.004200 0.002900 -0.999987 0.395300 -0.979100 1 0 1.000000 
0 -2.381600 -2.625000 -4.750000 -0.012500 0.008900 -0.999882 0.433900 -0.979200 1 0 1.000000 
0 -2.381600 -2.625000 -1.000000 -0.818089 0.575092 0.000000 0.434300 -0.837400 1 0 1.000000 
jvent001
0 -1.325000 -1.705000 -4.750000 -0.004200 0.002900 -0.999987 0.395300 -0.979100 1 0 1.000000 
0 -2.381600 -2.625000 -1.000000 -0.818089 0.575092 0.000000 0.434300 -0.837400 1 0 1.000000 
0 -1.375000 -1.618400 -1.000000 -0.420985 0.907067 0.000000 0.395600 -0.837300 1 0 1.000000 
jvent001
0 0.000000 -1.350000 -4.750000 0.001400 -0.012600 -0.999920 0.356800 -0.979000 1 0 1.000000 
0 -1.325000 -1.705000 -4.750000 -0.004200 0.002900 -0.999987 0.395300 -0.979100 1 0 1.000000 
0 -1.375000 -1.618400 -1.000000 -0.420985 0.907067 0.000000 0.395600 -0.837300 1 0 1.000000 
jvent001
0 0.000000 -1.350000 -4.750000 0.001400 -0.012600 -0.999920 0.356800 -0.979000 1 0 1.000000 
0 -1.375000 -1.618400 -1.000000 -0.420985 0.907067 0.000000 0.395600 -0.837300 1 0 1.000000 
0 0.000000 -1.250000 -1.000000 0.089003 0.996031 0.000000 0.356800 -0.837200 1 0 1.000000 
jvent001
0 1.375000 -1.618400 -4.750000 0.008900 0.012500 -0.999882 0.318300 -0.979100 1 0 1.000000 
0 0.000000 -1.350000 -4.750000 0.001400 -0.012600 -0.999920 0.356800 -0.979000 1 0 1.000000 
0 0.000000 -1.250000 -1.000000 0.089003 0.996031 0.000000 0.356800 -0.837200 1 0 1.000000 
jvent001
0 1.375000 -1.618400 -4.750000 0.008900 0.012500 -0.999882 0.318300 -0.979100 1 0 1.000000 
0 0.000000 -1.250000 -1.000000 0.089003 0.996031 0.000000 0.356800 -0.837200 1 0 1.000000 
0 1.375000 -1.618400 -1.000000 0.575092 0.818089 0.000000 0.318100 -0.837300 1 0 1.000000 
jvent001
0 2.295000 -2.675000 -4.750000 0.002900 0.004200 -0.999987 0.279800 -0.979200 1 0 1.000000 
0 1.375000 -1.618400 -4.750000 0.008900 0.012500 -0.999882 0.318300 -0.979100 1 0 1.000000 
0 1.375000 -1.618400 -1.000000 0.575092 0.818089 0.000000 0.318100 -0.837300 1 0 1.000000 
jvent001
0 2.295000 -2.675000 -4.750000 0.002900 0.004200 -0.999987 0.279800 -0.979200 1 0 1.000000 
0 1.375000 -1.618400 -1.000000 0.575092 0.818089 0.000000 0.318100 -0.837300 1 0 1.000000 
0 2.381600 -2.625000 -1.000000 0.907067 0.420985 0.000000 0.279400 -0.837400 1 0 1.000000 
jvent001
0 2.650000 -4.000000 -4.750000 -0.012600 -0.001400 -0.999920 0.241200 -0.979500 1 0 1.000000 
0 2.295000 -2.675000 -4.750000 0.002900 0.004200 -0.999987 0.279800 -0.979200 1 0 1.000000 
0 2.381600 -2.625000 -1.000000 0.907067 0.420985 0.000000 0.279400 -0.837400 1 0 1.000000 
jvent001
0 2.650000 -4.000000 -4.750000 -0.012600 -0.001400 -0.999920 0.241200 -0.979500 1 0 1.000000 
0 2.381600 -2.625000 -1.000000 0.907067 0.420985 0.000000 0.279400 -0.837400 1 0 1.000000 
0 2.750000 -4.000000 -1.000000 0.996031 -0.089003 0.000000 0.240800 -0.837700 1 0 1.000000 
jvent001
0 2.381600 -5.375000 -4.750000 0.013100 -0.008600 -0.999877 0.202600 -0.979700 1 0 1.000000 
0 2.650000 -4.000000 -4.750000 -0.012600 -0.001400 -0.999920 0.241200 -0.979500 1 0 1.000000 
0 2.750000 -4.000000 -1.000000 0.996031 -0.089003 0.000000 0.240800 -0.837700 1 0 1.000000 
jvent001
0 2.381600 -5.375000 -4.750000 0.013100 -0.008600 -0.999877 0.202600 -0.979700 1 0 1.000000 
0 2.750000 -4.000000 -1.000000 0.996031 -0.089003 0.000000 0.240800 -0.837700 1 0 1.000000 
0 2.381600 -5.375000 -1.000000 0.818089 -0.575092 0.000000 0.202200 -0.837900 1 0 1.000000 
jvent001
0 1.375000 -6.381600 -4.750000 0.013500 -0.019101 -0.999726 0.163900 -0.979800 1 0 1.000000 
0 2.381600 -5.375000 -4.750000 0.013100 -0.008600 -0.999877 0.202600 -0.979700 1 0 1.000000 
0 2.381600 -5.375000 -1.000000 0.818089 -0.575092 0.000000 0.202200 -0.837900 1 0 1.000000 
jvent001
0 1.375000 -6.381600 -4.750000 0.013500 -0.019101 -0.999726 0.163900 -0.979800 1 0 1.000000 
0 2.381600 -5.375000 -1.000000 0.818089 -0.575092 0.000000 0.202200 -0.837900 1 0 1.000000 
0 1.375000 -6.381600 -1.000000 0.420985 -0.907067 0.000000 0.163700 -0.838100 1 0 1.000000 
jvent001
0 0.000000 -6.750000 -4.750000 0.002100 -0.023301 -0.999726 0.125100 -0.979900 1 0 1.000000 
0 1.375000 -6.381600 -4.750000 0.013500 -0.019101 -0.999726 0.163900 -0.979800 1 0 1.000000 
0 1.375000 -6.381600 -1.000000 0.420985 -0.907067 0.000000 0.163700 -0.838100 1 0 1.000000 
jvent001
0 0.000000 -6.750000 -4.750000 0.002100 -0.023301 -0.999726 0.125100 -0.979900 1 0 1.000000 
0 1.375000 -6.381600 -1.000000 0.420985 -0.907067 0.000000 0.163700 -0.838100 1 0 1.000000 
0 0.000000 -6.750000 -1.000000 -0.089003 -0.996031 0.000000 0.125100 -0.838100 1 0 1.000000 
jvent001
0 0.000000 -6.750000 -4.750000 0.002100 -0.023301 -0.999726 0.125100 -0.979900 1 0 1.000000 
0 0.000000 -6.650000 -2.750000 0.073300 0.820797 -0.566498 0.125100 -0.904300 1 0 1.000000 
0 1.325000 -6.295000 -2.750000 -0.346897 0.747493 -0.566495 0.163800 -0.904200 1 0 1.000000 
jvent001
0 0.000000 -6.750000 -4.750000 0.002100 -0.023301 -0.999726 0.125100 -0.979900 1 0 1.000000 
0 1.325000 -6.295000 -2.750000 -0.346897 0.747493 -0.566495 0.163800 -0.904200 1 0 1.000000 
0 1.375000 -6.381600 -4.750000 0.013500 -0.019101 -0.999726 0.163900 -0.979800 1 0 1.000000 
jvent001
0 1.375000 -6.381600 -4.750000 0.013500 -0.019101 -0.999726 0.163900 -0.979800 1 0 1.000000 
0 1.325000 -6.295000 -2.750000 -0.346897 0.747493 -0.566495 0.163800 -0.904200 1 0 1.000000 
0 2.295000 -5.325000 -2.750000 -0.674183 0.473888 -0.566486 0.202400 -0.904100 1 0 1.000000 
jvent001
0 1.375000 -6.381600 -4.750000 0.013500 -0.019101 -0.999726 0.163900 -0.979800 1 0 1.000000 
0 2.295000 -5.325000 -2.750000 -0.674183 0.473888 -0.566486 0.202400 -0.904100 1 0 1.000000 
0 2.381600 -5.375000 -4.750000 0.013100 -0.008600 -0.999877 0.202600 -0.979700 1 0 1.000000 
jvent001
0 2.381600 -5.375000 -4.750000 0.013100 -0.008600 -0.999877 0.202600 -0.979700 1 0 1.000000 
0 2.295000 -5.325000 -2.750000 -0.674183 0.473888 -0.566486 0.202400 -0.904100 1 0 1.000000 
0 2.650000 -4.000000 -2.750000 -0.820797 0.073300 -0.566498 0.241000 -0.903800 1 0 1.000000 
jvent001
0 2.381600 -5.375000 -4.750000 0.013100 -0.008600 -0.999877 0.202600 -0.979700 1 0 1.000000 
0 2.650000 -4.000000 -2.750000 -0.820797 0.073300 -0.566498 0.241000 -0.903800 1 0 1.000000 
0 2.650000 -4.000000 -4.750000 -0.012600 -0.001400 -0.999920 0.241200 -0.979500 1 0 1.000000 
jvent001
0 2.650000 -4.000000 -4.750000 -0.012600 -0.001400 -0.999920 0.241200 -0.979500 1 0 1.000000 
0 2.650000 -4.000000 -2.750000 -0.820797 0.073300 -0.566498 0.241000 -0.903800 1 0 1.000000 
0 2.295000 -2.675000 -2.750000 -0.747493 -0.346897 -0.566495 0.279600 -0.903600 1 0 1.000000 
jvent001
0 2.650000 -4.000000 -4.750000 -0.012600 -0.001400 -0.999920 0.241200 -0.979500 1 0 1.000000 
0 2.295000 -2.675000 -2.750000 -0.747493 -0.346897 -0.566495 0.279600 -0.903600 1 0 1.000000 
0 2.295000 -2.675000 -4.750000 0.002900 0.004200 -0.999987 0.279800 -0.979200 1 0 1.000000 
jvent001
0 2.295000 -2.675000 -4.750000 0.002900 0.004200 -0.999987 0.279800 -0.979200 1 0 1.000000 
0 2.295000 -2.675000 -2.750000 -0.747493 -0.346897 -0.566495 0.279600 -0.903600 1 0 1.000000 
0 1.325000 -1.705000 -2.750000 -0.555610 -0.752314 -0.354007 0.318200 -0.903500 1 0 1.000000 
jvent001
0 2.295000 -2.675000 -4.750000 0.002900 0.004200 -0.999987 0.279800 -0.979200 1 0 1.000000 
0 1.325000 -1.705000 -2.750000 -0.555610 -0.752314 -0.354007 0.318200 -0.903500 1 0 1.000000 
0 1.375000 -1.618400 -4.750000 0.008900 0.012500 -0.999882 0.318300 -0.979100 1 0 1.000000 
jvent001
0 1.375000 -1.618400 -4.750000 0.008900 0.012500 -0.999882 0.318300 -0.979100 1 0 1.000000 
0 1.325000 -1.705000 -2.750000 -0.555610 -0.752314 -0.354007 0.318200 -0.903500 1 0 1.000000 
0 0.000000 -1.350000 -2.750000 -0.018300 -0.278305 -0.960318 0.356800 -0.903400 1 0 1.000000 
jvent001
0 1.375000 -1.618400 -4.750000 0.008900 0.012500 -0.999882 0.318300 -0.979100 1 0 1.000000 
0 0.000000 -1.350000 -2.750000 -0.018300 -0.278305 -0.960318 0.356800 -0.903400 1 0 1.000000 
0 0.000000 -1.350000 -4.750000 0.001400 -0.012600 -0.999920 0.356800 -0.979000 1 0 1.000000 
jvent001
0 0.000000 -1.350000 -4.750000 0.001400 -0.012600 -0.999920 0.356800 -0.979000 1 0 1.000000 
0 0.000000 -1.350000 -2.750000 -0.018300 -0.278305 -0.960318 0.356800 -0.903400 1 0 1.000000 
0 -1.325000 -1.705000 -2.750000 0.398101 -0.857802 -0.325101 0.395500 -0.903500 1 0 1.000000 
jvent001
0 0.000000 -1.350000 -4.750000 0.001400 -0.012600 -0.999920 0.356800 -0.979000 1 0 1.000000 
0 -1.325000 -1.705000 -2.750000 0.398101 -0.857802 -0.325101 0.395500 -0.903500 1 0 1.000000 
0 -1.325000 -1.705000 -4.750000 -0.004200 0.002900 -0.999987 0.395300 -0.979100 1 0 1.000000 
jvent001
0 -1.325000 -1.705000 -4.750000 -0.004200 0.002900 -0.999987 0.395300 -0.979100 1 0 1.000000 
0 -1.325000 -1.705000 -2.750000 0.398101 -0.857802 -0.325101 0.395500 -0.903500 1 0 1.000000 
0 -2.295000 -2.675000 -2.750000 0.674183 -0.473888 -0.566486 0.434100 -0.903600 1 0 1.000000 
jvent001
0 -1.325000 -1.705000 -4.750000 -0.004200 0.002900 -0.999987 0.395300 -0.979100 1 0 1.000000 
0 -2.295000 -2.675000 -2.750000 0.674183 -0.473888 -0.566486 0.434100 -0.903600 1 0 1.000000 
0 -2.381600 -2.625000 -4.750000 -0.012500 0.008900 -0.999882 0.433900 -0.979200 1 0 1.000000 
jvent001
0 -2.381600 -2.625000 -4.750000 -0.012500 0.008900 -0.999882 0.433900 -0.979200 1 0 1.000000 
0 -2.295000 -2.675000 -2.750000 0.674183 -0.473888 -0.566486 0.434100 -0.903600 1 0 1.000000 
0 -2.650000 -4.000000 -2.750000 0.820797 -0.073300 -0.566498 0.472700 -0.903800 1 0 1.000000 
jvent001
0 -2.381600 -2.625000 -4.750000 -0.012500 0.008900 -0.999882 0.433900 -0.979200 1 0 1.000000 
0 -2.650000 -4.000000 -2.750000 0.820797 -0.073300 -0.566498 0.472700 -0.903800 1 0 1.000000 
0 -2.650000 -4.000000 -4.750000 -0.004400 -0.001900 -0.999988 0.472500 -0.979500 1 0 1.000000 
jvent001
0 -1.299000 -2.822000 6.616400 -0.887218 0.445009 -0.121702 0.621900 -0.722800 1 0 1.000000 
0 -1.500000 -4.000000 2.000000 -0.998931 -0.037601 -0.026901 0.669000 -0.558700 1 0 1.000000 
0 -1.500000 -3.464100 6.987100 -0.970814 0.101701 -0.217203 0.669000 -0.739600 1 0 1.000000 
jvent001
0 -1.299000 -2.822000 6.616400 -0.887218 0.445009 -0.121702 0.621900 -0.722800 1 0 1.000000 
0 -1.299000 -3.250000 2.000000 -0.678541 0.733445 -0.040502 0.621500 -0.575600 1 0 1.000000 
0 -1.500000 -4.000000 2.000000 -0.998931 -0.037601 -0.026901 0.669000 -0.558700 1 0 1.000000 
jvent001
0 -0.750000 -2.351900 6.345000 -0.428373 0.827448 -0.363077 0.574200 -0.710500 1 0 1.000000 
0 -1.299000 -3.250000 2.000000 -0.678541 0.733445 -0.040502 0.621500 -0.575600 1 0 1.000000 
0 -1.299000 -2.822000 6.616400 -0.887218 0.445009 -0.121702 0.621900 -0.722800 1 0 1.000000 
jvent001
0 -0.750000 -2.351900 6.345000 -0.428373 0.827448 -0.363077 0.574200 -0.710500 1 0 1.000000 
0 0.000000 -2.500000 4.993600 -0.000000 0.988303 -0.152501 0.525400 -0.592600 1 0 1.000000 
0 -1.299000 -3.250000 2.000000 -0.678541 0.733445 -0.040502 0.621500 -0.575600 1 0 1.000000 
jvent001
0 0.000000 -2.179800 6.245600 -0.000000 0.820236 -0.572025 0.525400 -0.706000 1 0 1.000000 
0 0.000000 -2.500000 4.993600 -0.000000 0.988303 -0.152501 0.525400 -0.592600 1 0 1.000000 
0 -0.750000 -2.351900 6.345000 -0.428373 0.827448 -0.363077 0.574200 -0.710500 1 0 1.000000 
jvent001
0 0.750000 -2.351900 6.345000 0.405517 0.793933 -0.453019 0.476500 -0.710500 1 0 1.000000 
0 0.000000 -2.500000 4.993600 -0.000000 0.988303 -0.152501 0.525400 -0.592600 1 0 1.000000 
0 0.000000 -2.179800 6.245600 -0.000000 0.820236 -0.572025 0.525400 -0.706000 1 0 1.000000 
jvent001
0 0.750000 -2.351900 6.345000 0.405517 0.793933 -0.453019 0.476500 -0.710500 1 0 1.000000 
0 0.750000 -2.701000 4.993600 0.526706 0.834409 -0.162302 0.477000 -0.588100 1 0 1.000000 
0 0.000000 -2.500000 4.993600 -0.000000 0.988303 -0.152501 0.525400 -0.592600 1 0 1.000000 
jvent001
0 1.500000 -2.000000 8.451200 0.981851 0.187891 -0.025799 0.428800 -0.722800 1 0 1.000000 
0 0.750000 -2.701000 4.993600 0.526706 0.834409 -0.162302 0.477000 -0.588100 1 0 1.000000 
0 0.750000 -2.351900 6.345000 0.405517 0.793933 -0.453019 0.476500 -0.710500 1 0 1.000000 
jvent001
0 1.500000 -2.000000 8.451200 0.981851 0.187891 -0.025799 0.428800 -0.722800 1 0 1.000000 
0 1.500000 -3.464100 6.987100 0.991815 0.125702 0.022400 0.381700 -0.739600 1 0 1.000000 
0 0.750000 -2.701000 4.993600 0.526706 0.834409 -0.162302 0.477000 -0.588100 1 0 1.000000 
jvent001
0 1.299000 -4.106300 7.357800 0.864101 -0.430600 0.260600 0.333400 -0.756300 1 0 1.000000 
0 1.500000 -4.000000 4.993600 0.980004 -0.195801 0.035400 0.381700 -0.558700 1 0 1.000000 
0 1.500000 -3.464100 6.987100 0.991815 0.125702 0.022400 0.381700 -0.739600 1 0 1.000000 
jvent001
0 1.299000 -4.106300 7.357800 0.864101 -0.430600 0.260600 0.333400 -0.756300 1 0 1.000000 
0 1.299000 -4.750000 4.993600 0.817230 -0.574921 0.040001 0.332900 -0.541700 1 0 1.000000 
0 1.500000 -4.000000 4.993600 0.980004 -0.195801 0.035400 0.381700 -0.558700 1 0 1.000000 
jvent001
0 0.750000 -4.576300 7.629200 0.496804 -0.748405 0.439403 0.281800 -0.768600 1 0 1.000000 
0 1.299000 -4.750000 4.993600 0.817230 -0.574921 0.040001 0.332900 -0.541700 1 0 1.000000 
0 1.299000 -4.106300 7.357800 0.864101 -0.430600 0.260600 0.333400 -0.756300 1 0 1.000000 
jvent001
0 0.750000 -4.576300 7.629200 0.496804 -0.748405 0.439403 0.281800 -0.768600 1 0 1.000000 
0 0.000000 -5.500000 4.993600 0.129806 -0.984348 0.119206 0.227100 -0.524800 1 0 1.000000 
0 1.299000 -4.750000 4.993600 0.817230 -0.574921 0.040001 0.332900 -0.541700 1 0 1.000000 
jvent001
0 0.000000 -4.748400 7.728600 -0.052501 -0.911019 0.409009 0.227100 -0.773100 1 0 1.000000 
0 0.000000 -5.500000 4.993600 0.129806 -0.984348 0.119206 0.227100 -0.524800 1 0 1.000000 
0 0.750000 -4.576300 7.629200 0.496804 -0.748405 0.439403 0.281800 -0.768600 1 0 1.000000 
jvent001
0 -0.750000 -5.299000 4.993600 -0.494291 -0.855385 0.154897 0.172900 -0.529300 1 0 1.000000 
0 0.000000 -5.500000 4.993600 0.129806 -0.984348 0.119206 0.227100 -0.524800 1 0 1.000000 
0 0.000000 -4.748400 7.728600 -0.052501 -0.911019 0.409009 0.227100 -0.773100 1 0 1.000000 
jvent001
0 -0.750000 -4.576300 7.629200 -0.496695 -0.754092 0.429696 0.172400 -0.768600 1 0 1.000000 
0 -0.750000 -5.299000 4.993600 -0.494291 -0.855385 0.154897 0.172900 -0.529300 1 0 1.000000 
0 0.000000 -4.748400 7.728600 -0.052501 -0.911019 0.409009 0.227100 -0.773100 1 0 1.000000 
jvent001
0 -1.299000 -4.106300 7.357800 -0.864145 -0.440623 0.243113 0.120800 -0.756300 1 0 1.000000 
0 -0.750000 -5.299000 4.993600 -0.494291 -0.855385 0.154897 0.172900 -0.529300 1 0 1.000000 
0 -0.750000 -4.576300 7.629200 -0.496695 -0.754092 0.429696 0.172400 -0.768600 1 0 1.000000 
jvent001
0 -1.299000 -4.106300 7.357800 -0.864145 -0.440623 0.243113 0.120800 -0.756300 1 0 1.000000 
0 -1.299000 -4.750000 4.993600 -0.906659 -0.420881 0.028799 0.121300 -0.541700 1 0 1.000000 
0 -0.750000 -5.299000 4.993600 -0.494291 -0.855385 0.154897 0.172900 -0.529300 1 0 1.000000 
jvent001
0 -1.500000 -3.464100 6.987100 -0.970814 0.101701 -0.217203 0.072500 -0.739600 1 0 1.000000 
0 -1.299000 -4.750000 4.993600 -0.906659 -0.420881 0.028799 0.121300 -0.541700 1 0 1.000000 
0 -1.299000 -4.106300 7.357800 -0.864145 -0.440623 0.243113 0.120800 -0.756300 1 0 1.000000 
jvent001
0 -1.500000 -3.464100 6.987100 -0.970814 0.101701 -0.217203 0.072500 -0.739600 1 0 1.000000 
0 -1.500000 -4.000000 2.000000 -0.998931 -0.037601 -0.026901 0.072500 -0.558700 1 0 1.000000 
0 -1.299000 -4.750000 4.993600 -0.906659 -0.420881 0.028799 0.121300 -0.541700 1 0 1.000000 
jvent001
0 -1.500000 -4.000000 2.000000 -0.996031 -0.089003 0.000000 0.321900 -0.985300 1 0 1.000000 
0 -0.750000 -5.299000 2.000000 -0.499711 -0.865419 -0.036601 0.381300 -0.985600 1 0 1.000000 
0 -1.299000 -4.750000 4.993600 -0.906659 -0.420881 0.028799 0.352000 -0.826100 1 0 1.000000 
jvent001
0 -0.750000 -5.299000 2.000000 -0.499711 -0.865419 -0.036601 0.381300 -0.985600 1 0 1.000000 
0 -0.750000 -5.299000 4.993600 -0.494291 -0.855385 0.154897 0.381600 -0.826200 1 0 1.000000 
0 -1.299000 -4.750000 4.993600 -0.906659 -0.420881 0.028799 0.352000 -0.826100 1 0 1.000000 
jvent001
0 -0.750000 -5.299000 2.000000 -0.499711 -0.865419 -0.036601 0.381300 -0.985600 1 0 1.000000 
0 0.000000 -5.500000 4.993600 0.129806 -0.984348 0.119206 0.411100 -0.826300 1 0 1.000000 
0 -0.750000 -5.299000 4.993600 -0.494291 -0.855385 0.154897 0.381600 -0.826200 1 0 1.000000 
jvent001
0 -0.750000 -5.299000 2.000000 -0.499711 -0.865419 -0.036601 0.381300 -0.985600 1 0 1.000000 
0 0.750000 -5.299000 2.000000 0.499711 -0.865419 -0.036601 0.440900 -0.985600 1 0 1.000000 
0 0.000000 -5.500000 4.993600 0.129806 -0.984348 0.119206 0.411100 -0.826300 1 0 1.000000 
jvent001
0 0.750000 -5.299000 2.000000 0.499711 -0.865419 -0.036601 0.440900 -0.985600 1 0 1.000000 
0 1.299000 -4.750000 4.993600 0.817230 -0.574921 0.040001 0.470200 -0.826100 1 0 1.000000 
0 0.000000 -5.500000 4.993600 0.129806 -0.984348 0.119206 0.411100 -0.826300 1 0 1.000000 
jvent001
0 0.750000 -5.299000 2.000000 0.499711 -0.865419 -0.036601 0.440900 -0.985600 1 0 1.000000 
0 1.500000 -4.000000 2.000000 0.999330 0.000000 -0.036601 0.500200 -0.985300 1 0 1.000000 
0 1.299000 -4.750000 4.993600 0.817230 -0.574921 0.040001 0.470200 -0.826100 1 0 1.000000 
jvent001
0 1.500000 -4.000000 2.000000 0.999330 0.000000 -0.036601 0.500200 -0.985300 1 0 1.000000 
0 1.500000 -4.000000 4.993600 0.980004 -0.195801 0.035400 0.499800 -0.825900 1 0 1.000000 
0 1.299000 -4.750000 4.993600 0.817230 -0.574921 0.040001 0.470200 -0.826100 1 0 1.000000 
jvent001
0 1.500000 -4.000000 2.000000 0.999330 0.000000 -0.036601 0.500200 -0.985300 1 0 1.000000 
0 1.500000 -3.464100 6.987100 0.991815 0.125702 0.022400 0.529400 -0.825700 1 0 1.000000 
0 1.500000 -4.000000 4.993600 0.980004 -0.195801 0.035400 0.499800 -0.825900 1 0 1.000000 
jvent001
0 1.500000 -4.000000 2.000000 0.999330 0.000000 -0.036601 0.500200 -0.985300 1 0 1.000000 
0 0.750000 -2.701000 2.000000 0.499711 0.865419 -0.036601 0.559400 -0.985000 1 0 1.000000 
0 1.500000 -3.464100 6.987100 0.991815 0.125702 0.022400 0.529400 -0.825700 1 0 1.000000 
jvent001
0 0.750000 -2.701000 2.000000 0.499711 0.865419 -0.036601 0.559400 -0.985000 1 0 1.000000 
0 0.750000 -2.701000 4.993600 0.526706 0.834409 -0.162302 0.559100 -0.825600 1 0 1.000000 
0 1.500000 -3.464100 6.987100 0.991815 0.125702 0.022400 0.529400 -0.825700 1 0 1.000000 
jvent001
0 0.750000 -2.701000 2.000000 0.499711 0.865419 -0.036601 0.559400 -0.985000 1 0 1.000000 
0 0.000000 -2.500000 4.993600 -0.000000 0.988303 -0.152501 0.588900 -0.825600 1 0 1.000000 
0 0.750000 -2.701000 4.993600 0.526706 0.834409 -0.162302 0.559100 -0.825600 1 0 1.000000 
jvent001
0 0.750000 -2.701000 2.000000 0.499711 0.865419 -0.036601 0.559400 -0.985000 1 0 1.000000 
0 -0.750000 -2.701000 2.000000 -0.340009 0.940126 -0.023601 0.618400 -0.985000 1 0 1.000000 
0 0.000000 -2.500000 4.993600 -0.000000 0.988303 -0.152501 0.588900 -0.825600 1 0 1.000000 
jvent001
0 -0.750000 -2.701000 2.000000 -0.340009 0.940126 -0.023601 0.618400 -0.985000 1 0 1.000000 
0 -1.299000 -3.250000 2.000000 -0.678541 0.733445 -0.040502 0.648000 -0.985100 1 0 1.000000 
0 0.000000 -2.500000 4.993600 -0.000000 0.988303 -0.152501 0.588900 -0.825600 1 0 1.000000 
jvent001
0 1.299000 4.106300 7.357800 0.864101 0.430600 0.260600 0.419100 -0.243700 1 0 1.000000 
0 1.500000 3.464100 6.987100 0.999928 -0.005900 0.010400 0.370800 -0.260400 1 0 1.000000 
0 1.299000 4.750000 4.993600 0.865205 0.499803 0.040200 0.419600 -0.458300 1 0 1.000000 
jvent001
0 0.750000 4.576300 7.629200 0.496804 0.748405 0.439403 0.470600 -0.231400 1 0 1.000000 
0 1.299000 4.106300 7.357800 0.864101 0.430600 0.260600 0.419100 -0.243700 1 0 1.000000 
0 1.299000 4.750000 4.993600 0.865205 0.499803 0.040200 0.419600 -0.458300 1 0 1.000000 
jvent001
0 0.750000 4.576300 7.629200 0.496804 0.748405 0.439403 0.470600 -0.231400 1 0 1.000000 
0 1.299000 4.750000 4.993600 0.865205 0.499803 0.040200 0.419600 -0.458300 1 0 1.000000 
0 0.750000 5.299000 4.993600 0.499205 0.864109 0.064101 0.471200 -0.470700 1 0 1.000000 
jvent001
0 -0.000000 5.500000 4.993600 0.038501 0.987522 0.152703 0.525400 -0.475200 1 0 1.000000 
0 0.750000 4.576300 7.629200 0.496804 0.748405 0.439403 0.470600 -0.231400 1 0 1.000000 
0 0.750000 5.299000 4.993600 0.499205 0.864109 0.064101 0.471200 -0.470700 1 0 1.000000 
jvent001
0 -0.000000 4.748400 7.728600 -0.000000 0.816890 0.576793 0.525400 -0.226900 1 0 1.000000 
0 0.750000 4.576300 7.629200 0.496804 0.748405 0.439403 0.470600 -0.231400 1 0 1.000000 
0 -0.000000 5.500000 4.993600 0.038501 0.987522 0.152703 0.525400 -0.475200 1 0 1.000000 
jvent001
0 -0.750000 4.576300 7.629200 -0.496695 0.754092 0.429696 0.580100 -0.231400 1 0 1.000000 
0 -0.000000 4.748400 7.728600 -0.000000 0.816890 0.576793 0.525400 -0.226900 1 0 1.000000 
0 -0.000000 5.500000 4.993600 0.038501 0.987522 0.152703 0.525400 -0.475200 1 0 1.000000 
jvent001
0 -0.750000 4.576300 7.629200 -0.496695 0.754092 0.429696 0.580100 -0.231400 1 0 1.000000 
0 -0.000000 5.500000 4.993600 0.038501 0.987522 0.152703 0.525400 -0.475200 1 0 1.000000 
0 -0.750000 5.299000 4.993600 -0.498688 0.864879 0.057399 0.579500 -0.470700 1 0 1.000000 
jvent001
0 -1.299000 4.106300 7.357800 -0.864145 0.440623 0.243113 0.631600 -0.243700 1 0 1.000000 
0 -0.750000 4.576300 7.629200 -0.496695 0.754092 0.429696 0.580100 -0.231400 1 0 1.000000 
0 -0.750000 5.299000 4.993600 -0.498688 0.864879 0.057399 0.579500 -0.470700 1 0 1.000000 
jvent001
0 -1.299000 4.106300 7.357800 -0.864145 0.440623 0.243113 0.631600 -0.243700 1 0 1.000000 
0 -0.750000 5.299000 4.993600 -0.498688 0.864879 0.057399 0.579500 -0.470700 1 0 1.000000 
0 -1.299000 4.750000 4.993600 -0.865601 0.499900 0.028900 0.631200 -0.458300 1 0 1.000000 
jvent001
0 -1.500000 3.464100 6.987100 -0.976740 -0.073303 -0.201508 0.680000 -0.260400 1 0 1.000000 
0 -1.299000 4.106300 7.357800 -0.864145 0.440623 0.243113 0.631600 -0.243700 1 0 1.000000 
0 -1.299000 4.750000 4.993600 -0.865601 0.499900 0.028900 0.631200 -0.458300 1 0 1.000000 
jvent001
0 -1.500000 3.464100 6.987100 -0.976740 -0.073303 -0.201508 0.680000 -0.260400 1 0 1.000000 
0 -1.299000 4.750000 4.993600 -0.865601 0.499900 0.028900 0.631200 -0.458300 1 0 1.000000 
0 -1.500000 4.000000 4.993600 -0.999984 -0.000400 -0.005600 0.680000 -0.441300 1 0 1.000000 
jvent001
0 -2.381600 -2.625000 -1.000000 -0.720183 0.415790 0.555387 0.652900 -0.569500 1 0 1.000000 
0 -2.750000 -4.000000 -1.000000 -0.857493 -0.000000 0.514496 0.683500 -0.569600 1 0 1.000000 
0 -2.000000 -4.000000 0.250000 -0.812721 -0.134504 0.566915 0.683700 -0.532100 1 0 1.000000 
jvent001
0 -2.000000 -4.000000 0.250000 -0.812721 -0.134504 0.566915 0.683700 -0.532100 1 0 1.000000 
0 -1.000000 -2.267900 0.250000 -0.522812 0.636614 0.566913 0.622400 -0.531900 1 0 1.000000 
0 -2.381600 -2.625000 -1.000000 -0.720183 0.415790 0.555387 0.652900 -0.569500 1 0 1.000000 
jvent001
0 -2.381600 -2.625000 -1.000000 -0.720183 0.415790 0.555387 0.652900 -0.569500 1 0 1.000000 
0 -1.000000 -2.267900 0.250000 -0.522812 0.636614 0.566913 0.622400 -0.531900 1 0 1.000000 
0 -1.375000 -1.618400 -1.000000 -0.428711 0.742619 0.514513 0.622300 -0.569300 1 0 1.000000 
jvent001
0 0.000000 -1.250000 -1.000000 -0.000000 0.831588 0.555392 0.591800 -0.569300 1 0 1.000000 
0 -1.375000 -1.618400 -1.000000 -0.428711 0.742619 0.514513 0.622300 -0.569300 1 0 1.000000 
0 -1.000000 -2.267900 0.250000 -0.522812 0.636614 0.566913 0.622400 -0.531900 1 0 1.000000 
jvent001
0 -1.000000 -2.267900 0.250000 -0.522812 0.636614 0.566913 0.622400 -0.531900 1 0 1.000000 
0 1.000000 -2.267900 0.250000 0.399700 0.692300 0.600800 0.561100 -0.531900 1 0 1.000000 
0 0.000000 -1.250000 -1.000000 -0.000000 0.831588 0.555392 0.591800 -0.569300 1 0 1.000000 
jvent001
0 0.000000 -1.250000 -1.000000 -0.000000 0.831588 0.555392 0.591800 -0.569300 1 0 1.000000 
0 1.000000 -2.267900 0.250000 0.399700 0.692300 0.600800 0.561100 -0.531900 1 0 1.000000 
0 1.375000 -1.618400 -1.000000 0.428711 0.742619 0.514513 0.561200 -0.569300 1 0 1.000000 
jvent001
0 2.381600 -2.625000 -1.000000 0.720183 0.415790 0.555387 0.530600 -0.569500 1 0 1.000000 
0 1.375000 -1.618400 -1.000000 0.428711 0.742619 0.514513 0.561200 -0.569300 1 0 1.000000 
0 1.000000 -2.267900 0.250000 0.399700 0.692300 0.600800 0.561100 -0.531900 1 0 1.000000 
jvent001
0 1.000000 -2.267900 0.250000 0.399700 0.692300 0.600800 0.561100 -0.531900 1 0 1.000000 
0 2.000000 -4.000000 0.250000 0.812721 0.134504 0.566915 0.499800 -0.532100 1 0 1.000000 
0 2.381600 -2.625000 -1.000000 0.720183 0.415790 0.555387 0.530600 -0.569500 1 0 1.000000 
jvent001
0 2.381600 -2.625000 -1.000000 0.720183 0.415790 0.555387 0.530600 -0.569500 1 0 1.000000 
0 2.000000 -4.000000 0.250000 0.812721 0.134504 0.566915 0.499800 -0.532100 1 0 1.000000 
0 2.750000 -4.000000 -1.000000 0.857493 0.000000 0.514496 0.500000 -0.569600 1 0 1.000000 
jvent001
0 2.381600 -5.375000 -1.000000 0.720183 -0.415790 0.555387 0.469400 -0.569800 1 0 1.000000 
0 2.750000 -4.000000 -1.000000 0.857493 0.000000 0.514496 0.500000 -0.569600 1 0 1.000000 
0 2.000000 -4.000000 0.250000 0.812721 0.134504 0.566915 0.499800 -0.532100 1 0 1.000000 
jvent001
0 2.000000 -4.000000 0.250000 0.812721 0.134504 0.566915 0.499800 -0.532100 1 0 1.000000 
0 1.000000 -5.732100 0.250000 0.522812 -0.636614 0.566913 0.438800 -0.532300 1 0 1.000000 
0 2.381600 -5.375000 -1.000000 0.720183 -0.415790 0.555387 0.469400 -0.569800 1 0 1.000000 
jvent001
0 2.381600 -5.375000 -1.000000 0.720183 -0.415790 0.555387 0.469400 -0.569800 1 0 1.000000 
0 1.000000 -5.732100 0.250000 0.522812 -0.636614 0.566913 0.438800 -0.532300 1 0 1.000000 
0 1.375000 -6.381600 -1.000000 0.428711 -0.742619 0.514513 0.438800 -0.570000 1 0 1.000000 
jvent001
0 0.000000 -6.750000 -1.000000 0.000000 -0.831588 0.555392 0.408200 -0.570000 1 0 1.000000 
0 1.375000 -6.381600 -1.000000 0.428711 -0.742619 0.514513 0.438800 -0.570000 1 0 1.000000 
0 1.000000 -5.732100 0.250000 0.522812 -0.636614 0.566913 0.438800 -0.532300 1 0 1.000000 
jvent001
0 1.000000 -5.732100 0.250000 0.522812 -0.636614 0.566913 0.438800 -0.532300 1 0 1.000000 
0 -1.000000 -5.732100 0.250000 -0.289898 -0.771095 0.566896 0.377700 -0.532300 1 0 1.000000 
0 0.000000 -6.750000 -1.000000 0.000000 -0.831588 0.555392 0.408200 -0.570000 1 0 1.000000 
jvent001
0 0.000000 -6.750000 -1.000000 0.000000 -0.831588 0.555392 0.408200 -0.570000 1 0 1.000000 
0 -1.000000 -5.732100 0.250000 -0.289898 -0.771095 0.566896 0.377700 -0.532300 1 0 1.000000 
0 -1.375000 -6.381600 -1.000000 -0.428711 -0.742619 0.514513 0.377700 -0.570000 1 0 1.000000 
jvent001
0 -2.381600 -5.375000 -1.000000 -0.720183 -0.415790 0.555387 0.347100 -0.569800 1 0 1.000000 
0 -1.375000 -6.381600 -1.000000 -0.428711 -0.742619 0.514513 0.377700 -0.570000 1 0 1.000000 
0 -1.000000 -5.732100 0.250000 -0.289898 -0.771095 0.566896 0.377700 -0.532300 1 0 1.000000 
jvent001
0 -1.000000 -5.732100 0.250000 -0.289898 -0.771095 0.566896 0.377700 -0.532300 1 0 1.000000 
0 -2.000000 -4.000000 0.250000 -0.812721 -0.134504 0.566915 0.316700 -0.532100 1 0 1.000000 
0 -2.381600 -5.375000 -1.000000 -0.720183 -0.415790 0.555387 0.347100 -0.569800 1 0 1.000000 
jvent001
0 -2.381600 -5.375000 -1.000000 -0.720183 -0.415790 0.555387 0.347100 -0.569800 1 0 1.000000 
0 -2.000000 -4.000000 0.250000 -0.812721 -0.134504 0.566915 0.316700 -0.532100 1 0 1.000000 
0 -2.750000 -4.000000 -1.000000 -0.857493 -0.000000 0.514496 0.316500 -0.569600 1 0 1.000000 
jvent001
0 -1.500000 4.000000 -26.500000 -0.996031 -0.089003 0.000000 0.387800 -0.999800 1 0 1.000000 
0 -1.299000 2.822000 6.616400 -0.892134 -0.441517 -0.095704 0.409200 -0.000300 1 0 1.000000 
0 -1.500000 4.000000 4.993600 -0.999984 -0.000400 -0.005600 0.391000 -0.000200 1 0 1.000000 
jvent001
0 -1.500000 4.000000 -26.500000 -0.996031 -0.089003 0.000000 0.387800 -0.999800 1 0 1.000000 
0 -0.750000 2.701000 -26.500000 -0.420985 -0.907068 0.000000 0.425400 -1.000000 1 0 1.000000 
0 -1.299000 2.822000 6.616400 -0.892134 -0.441517 -0.095704 0.409200 -0.000300 1 0 1.000000 
jvent001
0 -0.750000 2.701000 -26.500000 -0.420985 -0.907068 0.000000 0.425400 -1.000000 1 0 1.000000 
0 -0.750000 2.351900 6.345000 -0.372615 -0.868835 -0.326013 0.427100 -0.000400 1 0 1.000000 
0 -1.299000 2.822000 6.616400 -0.892134 -0.441517 -0.095704 0.409200 -0.000300 1 0 1.000000 
jvent001
0 -0.750000 2.701000 -26.500000 -0.420985 -0.907068 0.000000 0.425400 -1.000000 1 0 1.000000 
0 -0.000000 2.500000 4.993600 0.073702 -0.989224 -0.126503 0.444700 -0.000400 1 0 1.000000 
0 -0.750000 2.351900 6.345000 -0.372615 -0.868835 -0.326013 0.427100 -0.000400 1 0 1.000000 
jvent001
0 -0.750000 2.701000 -26.500000 -0.420985 -0.907068 0.000000 0.425400 -1.000000 1 0 1.000000 
0 -0.000000 2.500000 -26.500000 0.175901 -0.984405 -0.002200 0.444700 -1.000000 1 0 1.000000 
0 -0.000000 2.500000 4.993600 0.073702 -0.989224 -0.126503 0.444700 -0.000400 1 0 1.000000 
jvent001
0 -0.000000 2.500000 -26.500000 0.175901 -0.984405 -0.002200 0.444700 -1.000000 1 0 1.000000 
0 0.750000 2.701000 4.993600 0.400616 -0.911735 -0.090804 0.462400 -0.000400 1 0 1.000000 
0 -0.000000 2.500000 4.993600 0.073702 -0.989224 -0.126503 0.444700 -0.000400 1 0 1.000000 
jvent001
0 -0.000000 2.500000 -26.500000 0.175901 -0.984405 -0.002200 0.444700 -1.000000 1 0 1.000000 
0 1.299000 3.250000 -26.500000 0.755521 -0.655118 -0.002700 0.483000 -0.999900 1 0 1.000000 
0 0.750000 2.701000 4.993600 0.400616 -0.911735 -0.090804 0.462400 -0.000400 1 0 1.000000 
jvent001
0 1.299000 3.250000 -26.500000 0.755521 -0.655118 -0.002700 0.483000 -0.999900 1 0 1.000000 
0 1.299000 2.822000 6.616400 0.783331 -0.589023 -0.198608 0.480200 -0.000300 1 0 1.000000 
0 0.750000 2.701000 4.993600 0.400616 -0.911735 -0.090804 0.462400 -0.000400 1 0 1.000000 
jvent001
0 1.299000 3.250000 -26.500000 0.755521 -0.655118 -0.002700 0.483000 -0.999900 1 0 1.000000 
0 1.500000 3.464100 6.987100 0.996543 -0.079103 0.025401 0.498400 -0.000200 1 0 1.000000 
0 1.299000 2.822000 6.616400 0.783331 -0.589023 -0.198608 0.480200 -0.000300 1 0 1.000000 
jvent001
0 1.299000 3.250000 -26.500000 0.755521 -0.655118 -0.002700 0.483000 -0.999900 1 0 1.000000 
0 1.500000 4.000000 -26.500000 0.996031 0.089003 0.000000 0.501600 -0.999800 1 0 1.000000 
0 1.500000 3.464100 6.987100 0.996543 -0.079103 0.025401 0.498400 -0.000200 1 0 1.000000 
jvent001
0 1.500000 4.000000 -26.500000 0.996031 0.089003 0.000000 0.501600 -0.999800 1 0 1.000000 
0 1.299000 4.750000 4.993600 0.865205 0.499803 0.040200 0.517000 -0.000100 1 0 1.000000 
0 1.500000 3.464100 6.987100 0.996543 -0.079103 0.025401 0.498400 -0.000200 1 0 1.000000 
jvent001
0 1.500000 4.000000 -26.500000 0.996031 0.089003 0.000000 0.501600 -0.999800 1 0 1.000000 
0 0.750000 5.299000 -26.500000 0.554376 0.832264 -0.001700 0.537600 -0.999600 1 0 1.000000 
0 1.299000 4.750000 4.993600 0.865205 0.499803 0.040200 0.517000 -0.000100 1 0 1.000000 
jvent001
0 0.750000 5.299000 -26.500000 0.554376 0.832264 -0.001700 0.537600 -0.999600 1 0 1.000000 
0 0.750000 5.299000 4.993600 0.499205 0.864109 0.064101 0.536000 -0.000000 1 0 1.000000 
0 1.299000 4.750000 4.993600 0.865205 0.499803 0.040200 0.517000 -0.000100 1 0 1.000000 
jvent001
0 0.750000 5.299000 -26.500000 0.554376 0.832264 -0.001700 0.537600 -0.999600 1 0 1.000000 
0 -0.000000 5.500000 4.993600 0.038501 0.987522 0.152703 0.555300 -0.000000 1 0 1.000000 
0 0.750000 5.299000 4.993600 0.499205 0.864109 0.064101 0.536000 -0.000000 1 0 1.000000 
jvent001
0 0.750000 5.299000 -26.500000 0.554376 0.832264 -0.001700 0.537600 -0.999600 1 0 1.000000 
0 -0.000000 5.500000 -26.500000 -0.175901 0.984405 -0.002200 0.555300 -0.999600 1 0 1.000000 
0 -0.000000 5.500000 4.993600 0.038501 0.987522 0.152703 0.555300 -0.000000 1 0 1.000000 
jvent001
0 -0.000000 5.500000 -26.500000 -0.175901 0.984405 -0.002200 0.555300 -0.999600 1 0 1.000000 
0 -0.750000 5.299000 4.993600 -0.498688 0.864879 0.057399 0.574600 -0.000000 1 0 1.000000 
0 -0.000000 5.500000 4.993600 0.038501 0.987522 0.152703 0.555300 -0.000000 1 0 1.000000 
jvent001
0 -0.000000 5.500000 -26.500000 -0.175901 0.984405 -0.002200 0.555300 -0.999600 1 0 1.000000 
0 -1.299000 4.750000 -26.500000 -0.832264 0.554376 -0.001700 0.590800 -0.999700 1 0 1.000000 
0 -0.750000 5.299000 4.993600 -0.498688 0.864879 0.057399 0.574600 -0.000000 1 0 1.000000 
jvent001
0 -1.299000 4.750000 -26.500000 -0.832264 0.554376 -0.001700 0.590800 -0.999700 1 0 1.000000 
0 -1.299000 4.750000 4.993600 -0.865601 0.499900 0.028900 0.593600 -0.000100 1 0 1.000000 
0 -0.750000 5.299000 4.993600 -0.498688 0.864879 0.057399 0.574600 -0.000000 1 0 1.000000 
jvent001
0 -1.299000 4.750000 -26.500000 -0.832264 0.554376 -0.001700 0.590800 -0.999700 1 0 1.000000 
0 -1.500000 4.000000 4.993600 -0.999984 -0.000400 -0.005600 0.612200 -0.000200 1 0 1.000000 
0 -1.299000 4.750000 4.993600 -0.865601 0.499900 0.028900 0.593600 -0.000100 1 0 1.000000 
jvent001
0 -1.299000 4.750000 -26.500000 -0.832264 0.554376 -0.001700 0.590800 -0.999700 1 0 1.000000 
0 -1.500000 4.000000 -26.500000 -0.996031 -0.089003 0.000000 0.609000 -0.999800 1 0 1.000000 
0 -1.500000 4.000000 4.993600 -0.999984 -0.000400 -0.005600 0.612200 -0.000200 1 0 1.000000 
end
