$cd ".\"
$modelname "props_wasteland/rockcliff06a.mdl"
$model "Body" "rockcliff06a_reference.smd"
$cdmaterials "models/props_wasteland/"
$surfaceprop "boulder"
$eyeposition 0.000 0.000 0.000
$illumposition 0.000 0.220 -0.000
$sequence idle "idle" ACT_IDLE  1 fps 5.000000
$staticprop
$origin 0 0 0 270
$texturegroup "skinfamilies"
{
{
"rockcliff02a"
}
{
"rockcliff02b"
}
}
