version 1
nodes
  0 "static_prop" -1
end
skeleton
time 0
0 0.000000 0.000000 0.000000 0.000000 0.000000 0.000000
end
triangles
train_utilities001a
0 36.319901 2.065002 -64.766296 -0.000000 0.001200 -0.999999 0.216300 -0.988900 1 0 1.000000 
0 41.329102 2.065002 -64.766197 -0.000000 0.001200 -0.999999 0.177100 -0.988900 1 0 1.000000 
0 41.329102 -2.079598 -64.771202 -0.000000 0.001200 -0.999999 0.177100 -0.988900 1 0 1.000000 
train_utilities001a
0 77.795303 2.213603 -54.918301 -0.999977 -0.006700 0.000000 0.154000 -0.401100 1 0 1.000000 
0 77.824997 -2.207197 -54.918301 -0.999977 -0.006700 0.000000 0.136600 -0.401100 1 0 1.000000 
0 77.824997 -2.207197 -29.706301 -0.999977 -0.006700 0.000000 0.136600 -0.204200 1 0 1.000000 
train_utilities001a
0 77.824997 -2.207197 -29.706301 -0.999977 -0.006700 0.000000 0.136600 -0.204200 1 0 1.000000 
0 77.795303 2.213603 -29.706400 -0.999977 -0.006700 0.000000 0.154000 -0.204200 1 0 1.000000 
0 77.795303 2.213603 -54.918301 -0.999977 -0.006700 0.000000 0.154000 -0.401100 1 0 1.000000 
train_utilities001a
0 77.824997 -2.207197 -54.918301 0.707107 -0.707107 0.000000 0.136600 -0.401100 1 0 1.000000 
0 80.020599 -0.011597 -54.918301 0.707107 -0.707107 0.000000 0.119400 -0.401100 1 0 1.000000 
0 80.020599 -0.011597 -29.706400 0.707107 -0.707107 0.000000 0.119400 -0.204200 1 0 1.000000 
train_utilities001a
0 80.020599 -0.011597 -29.706400 0.707107 -0.707107 0.000000 0.119400 -0.204200 1 0 1.000000 
0 77.824997 -2.207197 -29.706301 0.707107 -0.707107 0.000000 0.136600 -0.204200 1 0 1.000000 
0 77.824997 -2.207197 -54.918301 0.707107 -0.707107 0.000000 0.136600 -0.401100 1 0 1.000000 
train_utilities001a
0 80.020599 -0.011597 -54.918301 0.707107 0.707107 0.000000 0.119400 -0.401100 1 0 1.000000 
0 77.795303 2.213603 -54.918301 0.707107 0.707107 0.000000 0.136800 -0.401100 1 0 1.000000 
0 77.795303 2.213603 -29.706400 0.707107 0.707107 0.000000 0.136800 -0.204200 1 0 1.000000 
train_utilities001a
0 77.795303 2.213603 -29.706400 0.707107 0.707107 0.000000 0.136800 -0.204200 1 0 1.000000 
0 80.020599 -0.011597 -29.706400 0.707107 0.707107 0.000000 0.119400 -0.204200 1 0 1.000000 
0 80.020599 -0.011597 -54.918301 0.707107 0.707107 0.000000 0.119400 -0.401100 1 0 1.000000 
train_utilities001a
0 78.693298 -0.791097 22.275600 0.999602 0.000000 -0.028200 0.115700 -0.734500 1 0 1.000000 
0 79.135201 1.202303 37.946098 1.000000 0.000000 0.000000 0.094800 -0.704500 1 0 1.000000 
0 79.135201 -1.208696 37.946098 1.000000 0.000000 0.000000 0.115700 -0.704500 1 0 1.000000 
train_utilities001a
0 79.135201 1.202303 37.946098 1.000000 0.000000 0.000000 0.094800 -0.704500 1 0 1.000000 
0 78.693298 -0.791097 22.275600 0.999602 0.000000 -0.028200 0.115700 -0.734500 1 0 1.000000 
0 78.693298 0.784703 22.275600 0.999602 0.000000 -0.028200 0.094800 -0.734500 1 0 1.000000 
train_utilities001a
0 77.025597 -0.791097 22.275600 -0.686823 0.726824 0.000000 0.213600 -0.732100 1 0 1.000000 
0 79.135201 1.202303 37.946098 -0.686823 0.726824 0.000000 0.186500 -0.702100 1 0 1.000000 
0 78.693298 0.784703 22.275600 -0.686823 0.726824 0.000000 0.186500 -0.732100 1 0 1.000000 
train_utilities001a
0 79.135201 1.202303 37.946098 -0.686823 0.726824 0.000000 0.186500 -0.702100 1 0 1.000000 
0 77.025597 -0.791097 22.275600 -0.686823 0.726824 0.000000 0.213600 -0.732100 1 0 1.000000 
0 76.583702 -1.208697 37.934601 -0.686823 0.726824 0.000000 0.213600 -0.702200 1 0 1.000000 
train_utilities001a
0 77.025597 -0.791097 22.275600 0.000100 -0.999646 -0.026601 0.213600 -0.732100 1 0 1.000000 
0 79.135201 -1.208696 37.946098 0.000000 -1.000000 0.000000 0.186500 -0.702100 1 0 1.000000 
0 76.583702 -1.208697 37.934601 0.000000 -1.000000 0.000000 0.213600 -0.702200 1 0 1.000000 
train_utilities001a
0 79.135201 -1.208696 37.946098 0.000000 -1.000000 0.000000 0.186500 -0.702100 1 0 1.000000 
0 77.025597 -0.791097 22.275600 0.000100 -0.999646 -0.026601 0.213600 -0.732100 1 0 1.000000 
0 78.693298 -0.791097 22.275600 0.000000 -0.999646 -0.026601 0.186500 -0.732100 1 0 1.000000 
train_utilities001a
0 68.317101 -1.227297 -64.043701 0.000000 -0.867917 0.496710 0.260700 -0.409400 1 0 1.000000 
0 87.407600 -1.227296 -64.043701 0.000000 -0.867917 0.496710 0.261400 -0.319900 1 0 1.000000 
0 87.407600 0.032104 -61.842999 0.000000 -0.867917 0.496710 0.248900 -0.319800 1 0 1.000000 
train_utilities001a
0 87.407600 0.032104 -61.842999 0.000000 -0.867917 0.496710 0.248900 -0.319800 1 0 1.000000 
0 68.317101 0.032103 -61.842999 0.000000 -0.867917 0.496710 0.248100 -0.409300 1 0 1.000000 
0 68.317101 -1.227297 -64.043701 0.000000 -0.867917 0.496710 0.260700 -0.409400 1 0 1.000000 
train_utilities001a
0 87.407600 -1.227296 -64.043701 0.000000 -0.001200 -0.999999 0.261400 -0.319900 1 0 1.000000 
0 68.317101 -1.227297 -64.043701 0.000000 -0.001200 -0.999999 0.260700 -0.409400 1 0 1.000000 
0 68.317101 1.269703 -64.046700 0.000000 -0.001200 -0.999999 0.235800 -0.409200 1 0 1.000000 
train_utilities001a
0 68.317101 1.269703 -64.046700 0.000000 -0.001200 -0.999999 0.235800 -0.409200 1 0 1.000000 
0 87.407600 1.269704 -64.046700 0.000000 -0.001200 -0.999999 0.236500 -0.319700 1 0 1.000000 
0 87.407600 -1.227296 -64.043701 0.000000 -0.001200 -0.999999 0.261400 -0.319900 1 0 1.000000 
train_utilities001a
0 87.407600 1.269704 -64.046700 -0.000000 0.871893 0.489696 0.236500 -0.319700 1 0 1.000000 
0 68.317101 1.269703 -64.046700 -0.000000 0.871893 0.489696 0.235800 -0.409200 1 0 1.000000 
0 68.317101 0.032103 -61.842999 -0.000000 0.871893 0.489696 0.248100 -0.409300 1 0 1.000000 
train_utilities001a
0 68.317101 0.032103 -61.842999 -0.000000 0.871893 0.489696 0.248100 -0.409300 1 0 1.000000 
0 87.407600 0.032104 -61.842999 -0.000000 0.871893 0.489696 0.248900 -0.319800 1 0 1.000000 
0 87.407600 1.269704 -64.046700 -0.000000 0.871893 0.489696 0.236500 -0.319700 1 0 1.000000 
train_utilities001a
0 -14.794000 -0.791101 -18.062500 0.999602 0.000000 -0.028200 0.115700 -0.734500 1 0 1.000000 
0 -14.352100 1.202299 -2.392100 1.000000 0.000000 0.000000 0.094800 -0.704500 1 0 1.000000 
0 -14.352100 -1.208701 -2.392100 1.000000 0.000000 0.000000 0.115700 -0.704500 1 0 1.000000 
train_utilities001a
0 -14.352100 1.202299 -2.392100 1.000000 0.000000 0.000000 0.094800 -0.704500 1 0 1.000000 
0 -14.794000 -0.791101 -18.062500 0.999602 0.000000 -0.028200 0.115700 -0.734500 1 0 1.000000 
0 -14.794000 0.784699 -18.062500 0.999602 0.000000 -0.028200 0.094800 -0.734500 1 0 1.000000 
train_utilities001a
0 -16.461700 -0.791101 -18.062500 -0.686823 0.726824 0.000000 0.213600 -0.732100 1 0 1.000000 
0 -14.352100 1.202299 -2.392100 -0.686823 0.726824 0.000000 0.186500 -0.702100 1 0 1.000000 
0 -14.794000 0.784699 -18.062500 -0.686823 0.726824 0.000000 0.186500 -0.732100 1 0 1.000000 
train_utilities001a
0 -14.352100 1.202299 -2.392100 -0.686823 0.726824 0.000000 0.186500 -0.702100 1 0 1.000000 
0 -16.461700 -0.791101 -18.062500 -0.686823 0.726824 0.000000 0.213600 -0.732100 1 0 1.000000 
0 -16.903601 -1.208701 -2.403500 -0.686823 0.726824 0.000000 0.213600 -0.702200 1 0 1.000000 
train_utilities001a
0 -16.461700 -0.791101 -18.062500 0.000100 -0.999646 -0.026601 0.213600 -0.732100 1 0 1.000000 
0 -14.352100 -1.208701 -2.392100 0.000000 -1.000000 0.000000 0.186500 -0.702100 1 0 1.000000 
0 -16.903601 -1.208701 -2.403500 0.000000 -1.000000 0.000000 0.213600 -0.702200 1 0 1.000000 
train_utilities001a
0 -14.352100 -1.208701 -2.392100 0.000000 -1.000000 0.000000 0.186500 -0.702100 1 0 1.000000 
0 -16.461700 -0.791101 -18.062500 0.000100 -0.999646 -0.026601 0.213600 -0.732100 1 0 1.000000 
0 -14.794000 -0.791101 -18.062500 0.000000 -0.999646 -0.026601 0.186500 -0.732100 1 0 1.000000 
train_utilities001a
0 20.589600 -0.001299 7.738800 -0.340814 -0.936539 -0.082103 0.279700 -0.048200 1 0 1.000000 
0 14.588500 2.052901 9.220200 -0.340814 -0.936539 -0.082103 0.238700 -0.064500 1 0 1.000000 
0 15.945200 -0.001299 5.862300 -0.184808 -0.869836 0.457419 0.240700 -0.048200 1 0 1.000000 
train_utilities001a
0 14.588500 2.052901 9.220200 -0.340814 -0.936539 -0.082103 0.238700 -0.064500 1 0 1.000000 
0 20.589600 -0.001299 7.738800 -0.340814 -0.936539 -0.082103 0.279700 -0.048200 1 0 1.000000 
0 19.234800 -2.091699 11.092000 -0.387784 -0.703671 -0.595375 0.277800 -0.064500 1 0 1.000000 
train_utilities001a
0 -33.420200 0.000999 -64.816200 0.000000 -0.736232 -0.676729 0.270300 -0.292700 1 0 1.000000 
0 1.879200 0.001000 -64.816200 0.000000 -0.736232 -0.676729 0.270300 -0.016900 1 0 1.000000 
0 1.879200 -1.469900 -63.216000 0.000000 -0.736232 -0.676729 0.282800 -0.016900 1 0 1.000000 
train_utilities001a
0 1.879200 -1.469900 -63.216000 0.000000 -0.736232 -0.676729 0.282800 -0.016900 1 0 1.000000 
0 -33.420200 -1.469901 -63.216000 0.000000 -0.736232 -0.676729 0.282800 -0.292700 1 0 1.000000 
0 -33.420200 0.000999 -64.816200 0.000000 -0.736232 -0.676729 0.270300 -0.292700 1 0 1.000000 
train_utilities001a
0 -33.420200 0.000999 -64.816200 -0.000000 0.724097 -0.689698 0.270300 -0.292700 1 0 1.000000 
0 -33.420200 1.504099 -63.238400 -0.000000 0.724097 -0.689698 0.282600 -0.292700 1 0 1.000000 
0 1.879200 1.504100 -63.238400 -0.000000 0.724097 -0.689698 0.282600 -0.016900 1 0 1.000000 
train_utilities001a
0 1.879200 1.504100 -63.238400 -0.000000 0.724097 -0.689698 0.282600 -0.016900 1 0 1.000000 
0 1.879200 0.001000 -64.816200 -0.000000 0.724097 -0.689698 0.270300 -0.016900 1 0 1.000000 
0 -33.420200 0.000999 -64.816200 -0.000000 0.724097 -0.689698 0.270300 -0.292700 1 0 1.000000 
train_utilities001a
0 -33.420200 -1.469901 -63.216000 -0.000000 0.007600 0.999971 0.282800 -0.292700 1 0 1.000000 
0 1.879200 -1.469900 -63.216000 -0.000000 0.007600 0.999971 0.282800 -0.016900 1 0 1.000000 
0 1.879200 1.504100 -63.238400 -0.000000 0.007600 0.999971 0.296000 -0.016900 1 0 1.000000 
train_utilities001a
0 1.879200 1.504100 -63.238400 -0.000000 0.007600 0.999971 0.296000 -0.016900 1 0 1.000000 
0 -33.420200 1.504099 -63.238400 -0.000000 0.007600 0.999971 0.296000 -0.292700 1 0 1.000000 
0 -33.420200 -1.469901 -63.216000 -0.000000 0.007600 0.999971 0.282800 -0.292700 1 0 1.000000 
train_utilities001a
0 -71.206100 -0.025403 -39.705898 -0.000000 0.865796 0.500398 0.292600 -0.512200 1 0 1.000000 
0 -76.215302 2.064997 -43.322498 -0.000000 0.865796 0.500398 0.253500 -0.495900 1 0 1.000000 
0 -76.215302 -0.025403 -39.705898 -0.000000 0.865796 0.500398 0.253500 -0.512200 1 0 1.000000 
train_utilities001a
0 -76.215302 2.064997 -43.322498 -0.000000 0.865796 0.500398 0.253500 -0.495900 1 0 1.000000 
0 -71.206100 -0.025403 -39.705898 -0.000000 0.865796 0.500398 0.292600 -0.512200 1 0 1.000000 
0 -71.206100 2.064997 -43.322498 -0.000000 0.865796 0.500398 0.292600 -0.495900 1 0 1.000000 
train_utilities001a
0 -76.215302 -0.025403 -39.705898 -0.346806 -0.936516 0.051601 0.253500 -0.512200 1 0 1.000000 
0 -71.206100 -2.079603 -43.327499 -0.346806 -0.936516 0.051601 0.292600 -0.528300 1 0 1.000000 
0 -71.206100 -0.025403 -39.705898 0.000000 -0.869802 0.493401 0.292600 -0.512200 1 0 1.000000 
train_utilities001a
0 -71.206100 -2.079603 -43.327499 -0.346806 -0.936516 0.051601 0.292600 -0.528300 1 0 1.000000 
0 -76.215302 -0.025403 -39.705898 -0.346806 -0.936516 0.051601 0.253500 -0.512200 1 0 1.000000 
0 -76.215302 2.064997 -43.322498 -0.582594 -0.703692 -0.406696 0.253500 -0.528300 1 0 1.000000 
train_utilities001a
0 -70.670197 -0.001303 -24.837299 -0.347915 -0.936539 -0.043002 0.279700 -0.048200 1 0 1.000000 
0 -76.464996 2.052897 -22.686001 -0.347915 -0.936539 -0.043002 0.238700 -0.064500 1 0 1.000000 
0 -75.497200 -0.001303 -26.175900 -0.131805 -0.869831 0.475417 0.240700 -0.048200 1 0 1.000000 
train_utilities001a
0 -76.464996 2.052897 -22.686001 -0.347915 -0.936539 -0.043002 0.238700 -0.064500 1 0 1.000000 
0 -70.670197 -0.001303 -24.837299 -0.347915 -0.936539 -0.043002 0.279700 -0.048200 1 0 1.000000 
0 -71.636703 -2.091703 -21.352200 -0.452701 -0.703701 -0.547601 0.277800 -0.064500 1 0 1.000000 
train_utilities001a
0 -76.221199 -0.025403 -61.429298 -0.346806 -0.936516 0.051601 0.253500 -0.512200 1 0 1.000000 
0 -71.211998 -2.079603 -65.050797 -0.346806 -0.936516 0.051601 0.292600 -0.528300 1 0 1.000000 
0 -71.211998 -0.025403 -61.429298 0.000000 -0.869802 0.493401 0.292600 -0.512200 1 0 1.000000 
train_utilities001a
0 -71.211998 -2.079603 -65.050797 -0.346806 -0.936516 0.051601 0.292600 -0.528300 1 0 1.000000 
0 -76.221199 -0.025403 -61.429298 -0.346806 -0.936516 0.051601 0.253500 -0.512200 1 0 1.000000 
0 -76.221199 2.064997 -65.045898 -0.582594 -0.703692 -0.406696 0.253500 -0.528300 1 0 1.000000 
train_utilities001a
0 -74.353302 -0.773803 -63.595600 -1.000000 -0.000000 0.000000 0.276900 -0.980500 1 0 1.000000 
0 -74.353302 0.732697 -24.109400 -1.000000 -0.000000 0.000000 0.288700 -0.672000 1 0 1.000000 
0 -74.353302 0.732697 -63.595600 -1.000000 -0.000000 0.000000 0.288700 -0.980500 1 0 1.000000 
train_utilities001a
0 -74.353302 0.732697 -24.109400 -1.000000 -0.000000 0.000000 0.288700 -0.672000 1 0 1.000000 
0 -74.353302 -0.773803 -63.595600 -1.000000 -0.000000 0.000000 0.276900 -0.980500 1 0 1.000000 
0 -74.353302 -0.773803 -24.109400 -1.000000 -0.000000 0.000000 0.276900 -0.672000 1 0 1.000000 
train_utilities001a
0 -72.934196 -0.020603 -63.595600 0.468802 -0.883303 0.000000 0.282800 -0.980500 1 0 1.000000 
0 -74.353302 -0.773803 -24.109400 0.468802 -0.883303 0.000000 0.276900 -0.672000 1 0 1.000000 
0 -74.353302 -0.773803 -63.595600 0.468802 -0.883303 0.000000 0.276900 -0.980500 1 0 1.000000 
train_utilities001a
0 -74.353302 -0.773803 -24.109400 0.468802 -0.883303 0.000000 0.276900 -0.672000 1 0 1.000000 
0 -72.934196 -0.020603 -63.595600 0.468802 -0.883303 0.000000 0.282800 -0.980500 1 0 1.000000 
0 -72.934196 -0.020603 -24.109400 0.468802 -0.883303 0.000000 0.282800 -0.672000 1 0 1.000000 
train_utilities001a
0 -74.353302 0.732697 -63.595600 0.468802 0.883303 0.000000 0.288700 -0.980500 1 0 1.000000 
0 -72.934196 -0.020603 -24.109400 0.468802 0.883303 0.000000 0.282800 -0.672000 1 0 1.000000 
0 -72.934196 -0.020603 -63.595600 0.468802 0.883303 0.000000 0.282800 -0.980500 1 0 1.000000 
train_utilities001a
0 -72.934196 -0.020603 -24.109400 0.468802 0.883303 0.000000 0.282800 -0.672000 1 0 1.000000 
0 -74.353302 0.732697 -63.595600 0.468802 0.883303 0.000000 0.288700 -0.980500 1 0 1.000000 
0 -74.353302 0.732697 -24.109400 0.468802 0.883303 0.000000 0.288700 -0.672000 1 0 1.000000 
train_utilities001a
0 -14.918700 0.001199 -62.783798 0.468802 -0.883303 0.000000 0.283000 -0.974100 1 0 1.000000 
0 -16.337900 -0.752101 -15.841300 0.468802 -0.883303 0.000000 0.277100 -0.607400 1 0 1.000000 
0 -16.337900 -0.752101 -62.783798 0.468802 -0.883303 0.000000 0.277100 -0.974100 1 0 1.000000 
train_utilities001a
0 -16.337900 -0.752101 -15.841300 0.468802 -0.883303 0.000000 0.277100 -0.607400 1 0 1.000000 
0 -14.918700 0.001199 -62.783798 0.468802 -0.883303 0.000000 0.283000 -0.974100 1 0 1.000000 
0 -14.918700 0.001199 -15.841300 0.468802 -0.883303 0.000000 0.283000 -0.607400 1 0 1.000000 
train_utilities001a
0 -16.337900 0.754399 -62.783798 0.000100 0.999872 0.016000 0.288900 -0.974100 1 0 1.000000 
0 -14.918700 0.001199 -15.841300 0.000100 0.999872 0.016000 0.283000 -0.607400 1 0 1.000000 
0 -14.918700 0.001199 -62.783798 0.468802 0.883303 0.000000 0.283000 -0.974100 1 0 1.000000 
train_utilities001a
0 -14.918700 0.001199 -15.841300 0.000100 0.999872 0.016000 0.283000 -0.607400 1 0 1.000000 
0 -16.337900 0.754399 -62.783798 0.000100 0.999872 0.016000 0.288900 -0.974100 1 0 1.000000 
0 -16.337900 -0.752101 -15.841300 -0.468624 0.882944 0.028301 0.288900 -0.607400 1 0 1.000000 
train_utilities001a
0 128.001297 12.710505 62.541599 1.000000 0.000000 0.000000 0.156000 -0.726700 1 0 1.000000 
0 128.001297 -12.314494 62.541599 1.000000 0.000000 0.000000 0.154300 -0.922200 1 0 1.000000 
0 128.001297 -12.314494 56.502499 1.000000 0.000000 0.000000 0.201400 -0.922600 1 0 1.000000 
train_utilities001a
0 128.001297 -12.314494 56.502499 1.000000 0.000000 0.000000 0.201400 -0.922600 1 0 1.000000 
0 128.001297 12.710505 56.502499 1.000000 0.000000 0.000000 0.203100 -0.727100 1 0 1.000000 
0 128.001297 12.710505 62.541599 1.000000 0.000000 0.000000 0.156000 -0.726700 1 0 1.000000 
train_utilities001a
0 124.913399 -12.314494 62.541599 -1.000000 -0.000000 0.000000 0.249500 -0.708900 1 0 1.000000 
0 128.001297 12.710505 62.541599 -0.885042 0.109205 0.452521 0.249500 -0.513400 1 0 1.000000 
0 124.913399 12.710505 56.502499 -1.000000 -0.000000 0.000000 0.296600 -0.513400 1 0 1.000000 
train_utilities001a
0 124.913399 12.710505 56.502499 -1.000000 -0.000000 0.000000 0.296600 -0.513400 1 0 1.000000 
0 128.001297 -12.314494 56.502499 -0.885042 -0.109205 -0.452521 0.296600 -0.708900 1 0 1.000000 
0 124.913399 -12.314494 62.541599 -1.000000 -0.000000 0.000000 0.249500 -0.708900 1 0 1.000000 
train_utilities001a
0 16.874001 -0.773799 8.455100 -0.881535 -0.000000 -0.472119 0.282900 -0.477200 1 0 1.000000 
0 16.874001 0.732701 8.455100 -0.881535 -0.000000 -0.472119 0.294700 -0.477200 1 0 1.000000 
0 38.187801 0.732702 -31.343000 -0.881535 -0.000000 -0.472119 0.294700 -0.829800 1 0 1.000000 
train_utilities001a
0 38.187801 0.732702 -31.343000 -0.881535 -0.000000 -0.472119 0.294700 -0.829800 1 0 1.000000 
0 38.187801 -0.773798 -31.343000 -0.881535 -0.000000 -0.472119 0.282900 -0.829800 1 0 1.000000 
0 16.874001 -0.773799 8.455100 -0.881535 -0.000000 -0.472119 0.282900 -0.477200 1 0 1.000000 
train_utilities001a
0 18.227400 -0.020599 8.881900 0.454895 -0.857091 0.241797 0.288800 -0.479100 1 0 1.000000 
0 16.874001 -0.773799 8.455100 0.418888 -0.879875 0.224394 0.282900 -0.477200 1 0 1.000000 
0 38.187801 -0.773798 -31.343000 0.454895 -0.857091 0.241797 0.282900 -0.829800 1 0 1.000000 
train_utilities001a
0 38.187801 -0.773798 -31.343000 0.454895 -0.857091 0.241797 0.282900 -0.829800 1 0 1.000000 
0 39.606899 -0.020598 -31.343000 0.454895 -0.857091 0.241797 0.288800 -0.835000 1 0 1.000000 
0 18.227400 -0.020599 8.881900 0.454895 -0.857091 0.241797 0.288800 -0.479100 1 0 1.000000 
train_utilities001a
0 16.874001 0.732701 8.455100 0.454705 0.856709 0.243502 0.294700 -0.477200 1 0 1.000000 
0 18.227400 -0.020599 8.881900 0.419486 0.879971 0.222893 0.288800 -0.479100 1 0 1.000000 
0 39.606899 -0.020598 -31.343000 0.454705 0.856709 0.243502 0.288800 -0.835000 1 0 1.000000 
train_utilities001a
0 39.606899 -0.020598 -31.343000 0.454705 0.856709 0.243502 0.288800 -0.835000 1 0 1.000000 
0 38.187801 0.732702 -31.343000 0.454705 0.856709 0.243502 0.294700 -0.829800 1 0 1.000000 
0 16.874001 0.732701 8.455100 0.454705 0.856709 0.243502 0.294700 -0.477200 1 0 1.000000 
train_utilities001a
0 41.329102 -0.025398 -61.149601 -0.000000 0.865796 0.500398 0.177100 -0.960600 1 0 1.000000 
0 36.319901 2.065002 -64.766296 -0.000000 0.865796 0.500398 0.216300 -0.988900 1 0 1.000000 
0 36.319901 -0.025398 -61.149601 -0.000000 0.865796 0.500398 0.216300 -0.960600 1 0 1.000000 
train_utilities001a
0 36.319901 2.065002 -64.766296 -0.000000 0.865796 0.500398 0.216300 -0.988900 1 0 1.000000 
0 41.329102 -0.025398 -61.149601 -0.000000 0.865796 0.500398 0.177100 -0.960600 1 0 1.000000 
0 41.329102 2.065002 -64.766197 -0.000000 0.865796 0.500398 0.177100 -0.988900 1 0 1.000000 
train_utilities001a
0 128.009995 -6.342594 -60.116402 -0.509797 -0.860295 0.000000 0.210500 -0.800800 1 0 1.000000 
0 125.801804 -5.033794 -64.311401 -0.509797 -0.860295 0.000000 0.177700 -0.790500 1 0 1.000000 
0 128.010300 -6.342594 -64.311401 -0.509797 -0.860295 0.000000 0.177700 -0.800800 1 0 1.000000 
train_utilities001a
0 125.801804 -5.033794 -64.311401 -0.509797 -0.860295 0.000000 0.177700 -0.790500 1 0 1.000000 
0 128.009995 -6.342594 -60.116402 -0.509797 -0.860295 0.000000 0.210500 -0.800800 1 0 1.000000 
0 125.801804 -5.033794 -60.116402 -0.509871 -0.860251 0.000000 0.210500 -0.790500 1 0 1.000000 
train_utilities001a
0 128.010300 6.342606 -64.311401 -0.509797 0.860295 0.000000 0.177700 -0.701700 1 0 1.000000 
0 125.801804 5.033806 -60.116402 -0.509797 0.860295 0.000000 0.210500 -0.711900 1 0 1.000000 
0 128.009995 6.342606 -60.116402 -0.509871 0.860251 0.000000 0.210500 -0.701700 1 0 1.000000 
train_utilities001a
0 125.801804 5.033806 -60.116402 -0.509797 0.860295 0.000000 0.210500 -0.711900 1 0 1.000000 
0 128.010300 6.342606 -64.311401 -0.509797 0.860295 0.000000 0.177700 -0.701700 1 0 1.000000 
0 125.801804 5.033806 -64.311401 -0.509797 0.860295 0.000000 0.177700 -0.711900 1 0 1.000000 
train_utilities001a
0 125.801804 -5.033794 -64.311401 -1.000000 -0.000000 0.000000 0.177700 -0.790500 1 0 1.000000 
0 125.801804 5.033806 -60.116402 -1.000000 -0.000000 0.000000 0.210500 -0.711900 1 0 1.000000 
0 125.801804 5.033806 -64.311401 -1.000000 -0.000000 0.000000 0.177700 -0.711900 1 0 1.000000 
train_utilities001a
0 125.801804 5.033806 -60.116402 -1.000000 -0.000000 0.000000 0.210500 -0.711900 1 0 1.000000 
0 125.801804 -5.033794 -64.311401 -1.000000 -0.000000 0.000000 0.177700 -0.790500 1 0 1.000000 
0 125.801804 -5.033794 -60.116402 -1.000000 -0.000000 0.000000 0.210500 -0.790500 1 0 1.000000 
train_utilities001a
0 128.010300 -6.342594 -64.311401 1.000000 0.000000 0.000100 0.177700 -0.800800 1 0 1.000000 
0 128.009995 6.342606 -60.116402 1.000000 0.000000 0.000100 0.210500 -0.701700 1 0 1.000000 
0 128.009995 -6.342594 -60.116402 1.000000 0.000000 0.000100 0.210500 -0.800800 1 0 1.000000 
train_utilities001a
0 128.009995 6.342606 -60.116402 1.000000 0.000000 0.000100 0.210500 -0.701700 1 0 1.000000 
0 128.010300 -6.342594 -64.311401 1.000000 0.000000 0.000100 0.177700 -0.800800 1 0 1.000000 
0 128.010300 6.342606 -64.311401 1.000000 0.000000 0.000100 0.177700 -0.701700 1 0 1.000000 
train_utilities001a
0 -127.998398 6.342594 -60.116402 0.509797 0.860295 0.000000 0.210500 -0.800800 1 0 1.000000 
0 -125.790199 5.033794 -64.311401 0.509797 0.860295 0.000000 0.177700 -0.790500 1 0 1.000000 
0 -127.998703 6.342594 -64.311401 0.509797 0.860295 0.000000 0.177700 -0.800800 1 0 1.000000 
train_utilities001a
0 -125.790199 5.033794 -64.311401 0.509797 0.860295 0.000000 0.177700 -0.790500 1 0 1.000000 
0 -127.998398 6.342594 -60.116402 0.509797 0.860295 0.000000 0.210500 -0.800800 1 0 1.000000 
0 -125.790199 5.033794 -60.116402 0.509871 0.860251 0.000000 0.210500 -0.790500 1 0 1.000000 
train_utilities001a
0 -127.998703 -6.342606 -64.311401 0.509797 -0.860295 0.000000 0.177700 -0.701700 1 0 1.000000 
0 -125.790199 -5.033806 -60.116402 0.509797 -0.860295 0.000000 0.210500 -0.711900 1 0 1.000000 
0 -127.998398 -6.342606 -60.116402 0.509871 -0.860251 0.000000 0.210500 -0.701700 1 0 1.000000 
train_utilities001a
0 -125.790199 -5.033806 -60.116402 0.509797 -0.860295 0.000000 0.210500 -0.711900 1 0 1.000000 
0 -127.998703 -6.342606 -64.311401 0.509797 -0.860295 0.000000 0.177700 -0.701700 1 0 1.000000 
0 -125.790199 -5.033806 -64.311401 0.509797 -0.860295 0.000000 0.177700 -0.711900 1 0 1.000000 
train_utilities001a
0 -125.790199 5.033794 -64.311401 1.000000 0.000000 0.000000 0.177700 -0.790500 1 0 1.000000 
0 -125.790199 -5.033806 -60.116402 1.000000 0.000000 0.000000 0.210500 -0.711900 1 0 1.000000 
0 -125.790199 -5.033806 -64.311401 1.000000 0.000000 0.000000 0.177700 -0.711900 1 0 1.000000 
train_utilities001a
0 -125.790199 -5.033806 -60.116402 1.000000 0.000000 0.000000 0.210500 -0.711900 1 0 1.000000 
0 -125.790199 5.033794 -64.311401 1.000000 0.000000 0.000000 0.177700 -0.790500 1 0 1.000000 
0 -125.790199 5.033794 -60.116402 1.000000 0.000000 0.000000 0.210500 -0.790500 1 0 1.000000 
train_utilities001a
0 -127.998703 6.342594 -64.311401 -1.000000 -0.000000 0.000100 0.177700 -0.800800 1 0 1.000000 
0 -127.998398 -6.342606 -60.116402 -1.000000 -0.000000 0.000100 0.210500 -0.701700 1 0 1.000000 
0 -127.998398 6.342594 -60.116402 -1.000000 -0.000000 0.000100 0.210500 -0.800800 1 0 1.000000 
train_utilities001a
0 -127.998398 -6.342606 -60.116402 -1.000000 -0.000000 0.000100 0.210500 -0.701700 1 0 1.000000 
0 -127.998703 6.342594 -64.311401 -1.000000 -0.000000 0.000100 0.177700 -0.800800 1 0 1.000000 
0 -127.998703 -6.342606 -64.311401 -1.000000 -0.000000 0.000100 0.177700 -0.701700 1 0 1.000000 
train_utilities001a
0 -127.998398 6.342594 -33.403900 0.509797 0.860295 0.000000 0.210500 -0.800800 1 0 1.000000 
0 -125.790199 5.033794 -37.598900 0.509797 0.860295 0.000000 0.177700 -0.790500 1 0 1.000000 
0 -127.998703 6.342594 -37.598900 0.509797 0.860295 0.000000 0.177700 -0.800800 1 0 1.000000 
train_utilities001a
0 -125.790199 5.033794 -37.598900 0.509797 0.860295 0.000000 0.177700 -0.790500 1 0 1.000000 
0 -127.998398 6.342594 -33.403900 0.509797 0.860295 0.000000 0.210500 -0.800800 1 0 1.000000 
0 -125.790199 5.033794 -33.403900 0.509871 0.860251 0.000000 0.210500 -0.790500 1 0 1.000000 
train_utilities001a
0 -127.998703 -6.342606 -37.598900 0.509797 -0.860295 0.000000 0.177700 -0.701700 1 0 1.000000 
0 -125.790199 -5.033806 -33.403900 0.509797 -0.860295 0.000000 0.210500 -0.711900 1 0 1.000000 
0 -127.998398 -6.342606 -33.403900 0.509871 -0.860251 0.000000 0.210500 -0.701700 1 0 1.000000 
train_utilities001a
0 -125.790199 -5.033806 -33.403900 0.509797 -0.860295 0.000000 0.210500 -0.711900 1 0 1.000000 
0 -127.998703 -6.342606 -37.598900 0.509797 -0.860295 0.000000 0.177700 -0.701700 1 0 1.000000 
0 -125.790199 -5.033806 -37.598900 0.509797 -0.860295 0.000000 0.177700 -0.711900 1 0 1.000000 
train_utilities001a
0 -125.790199 5.033794 -37.598900 1.000000 0.000000 0.000000 0.177700 -0.790500 1 0 1.000000 
0 -125.790199 -5.033806 -33.403900 1.000000 0.000000 0.000000 0.210500 -0.711900 1 0 1.000000 
0 -125.790199 -5.033806 -37.598900 1.000000 0.000000 0.000000 0.177700 -0.711900 1 0 1.000000 
train_utilities001a
0 -125.790199 -5.033806 -33.403900 1.000000 0.000000 0.000000 0.210500 -0.711900 1 0 1.000000 
0 -125.790199 5.033794 -37.598900 1.000000 0.000000 0.000000 0.177700 -0.790500 1 0 1.000000 
0 -125.790199 5.033794 -33.403900 1.000000 0.000000 0.000000 0.210500 -0.790500 1 0 1.000000 
train_utilities001a
0 -127.998703 6.342594 -37.598900 -1.000000 -0.000000 0.000100 0.177700 -0.800800 1 0 1.000000 
0 -127.998398 -6.342606 -33.403900 -1.000000 -0.000000 0.000100 0.210500 -0.701700 1 0 1.000000 
0 -127.998398 6.342594 -33.403900 -1.000000 -0.000000 0.000100 0.210500 -0.800800 1 0 1.000000 
train_utilities001a
0 -127.998398 -6.342606 -33.403900 -1.000000 -0.000000 0.000100 0.210500 -0.701700 1 0 1.000000 
0 -127.998703 6.342594 -37.598900 -1.000000 -0.000000 0.000100 0.177700 -0.800800 1 0 1.000000 
0 -127.998703 -6.342606 -37.598900 -1.000000 -0.000000 0.000100 0.177700 -0.701700 1 0 1.000000 
train_utilities001a
0 15.945200 -0.001299 5.862300 0.184808 0.869836 -0.457419 0.240700 -0.048200 1 0 1.000000 
0 19.232901 2.052901 11.096600 0.184808 0.869836 -0.457419 0.277800 -0.032100 1 0 1.000000 
0 20.589600 -0.001299 7.738800 0.184808 0.869836 -0.457419 0.279700 -0.048200 1 0 1.000000 
train_utilities001a
0 19.232901 2.052901 11.096600 0.184808 0.869836 -0.457419 0.277800 -0.032100 1 0 1.000000 
0 15.945200 -0.001299 5.862300 0.184808 0.869836 -0.457419 0.240700 -0.048200 1 0 1.000000 
0 14.588500 2.052901 9.220200 0.184808 0.869836 -0.457419 0.238700 -0.032100 1 0 1.000000 
train_utilities001a
0 -75.497200 -0.001303 -26.175900 0.131805 0.869831 -0.475417 0.240700 -0.048200 1 0 1.000000 
0 -71.638100 2.052897 -21.347401 0.131805 0.869831 -0.475417 0.277800 -0.032100 1 0 1.000000 
0 -70.670197 -0.001303 -24.837299 0.131805 0.869831 -0.475417 0.279700 -0.048200 1 0 1.000000 
train_utilities001a
0 -71.638100 2.052897 -21.347401 0.131805 0.869831 -0.475417 0.277800 -0.032100 1 0 1.000000 
0 -75.497200 -0.001303 -26.175900 0.131805 0.869831 -0.475417 0.240700 -0.048200 1 0 1.000000 
0 -76.464996 2.052897 -22.686001 0.131805 0.869831 -0.475417 0.238700 -0.032100 1 0 1.000000 
train_utilities001a
0 -76.221199 2.064997 -65.045898 -0.000000 0.865796 0.500398 0.253500 -0.495900 1 0 1.000000 
0 -71.211998 -0.025403 -61.429298 -0.000000 0.865796 0.500398 0.292600 -0.512200 1 0 1.000000 
0 -71.211998 2.064997 -65.045898 -0.000000 0.865796 0.500398 0.292600 -0.495900 1 0 1.000000 
train_utilities001a
0 -71.211998 -0.025403 -61.429298 -0.000000 0.865796 0.500398 0.292600 -0.512200 1 0 1.000000 
0 -76.221199 2.064997 -65.045898 -0.000000 0.865796 0.500398 0.253500 -0.495900 1 0 1.000000 
0 -76.221199 -0.025403 -61.429298 -0.000000 0.865796 0.500398 0.253500 -0.512200 1 0 1.000000 
train_utilities001a
0 78.636703 0.000903 -63.287899 0.468802 -0.883303 0.000000 0.283000 -0.978100 1 0 1.000000 
0 77.217598 -0.752397 22.306299 0.468802 -0.883303 0.000000 0.277100 -0.309400 1 0 1.000000 
0 77.217598 -0.752397 -63.287899 0.468802 -0.883303 0.000000 0.277100 -0.978100 1 0 1.000000 
train_utilities001a
0 77.217598 -0.752397 22.306299 0.468802 -0.883303 0.000000 0.277100 -0.309400 1 0 1.000000 
0 78.636703 0.000903 -63.287899 0.468802 -0.883303 0.000000 0.283000 -0.978100 1 0 1.000000 
0 78.636803 0.000903 22.306299 0.468802 -0.883303 0.000000 0.283000 -0.309400 1 0 1.000000 
train_utilities001a
0 78.636803 0.000903 22.306299 -0.000000 0.999961 0.008800 0.283000 -0.309400 1 0 1.000000 
0 77.217598 0.754103 -63.287899 -0.000000 0.999961 0.008800 0.288900 -0.978100 1 0 1.000000 
0 77.217598 -0.752397 22.306299 -0.468787 0.883175 0.015500 0.288900 -0.309400 1 0 1.000000 
train_utilities001a
0 77.217598 0.754103 -63.287899 -0.000000 0.999961 0.008800 0.288900 -0.978100 1 0 1.000000 
0 78.636803 0.000903 22.306299 -0.000000 0.999961 0.008800 0.283000 -0.309400 1 0 1.000000 
0 78.636703 0.000903 -63.287899 0.468802 0.883303 0.000000 0.283000 -0.978100 1 0 1.000000 
train_utilities001a
0 36.319901 -0.025398 -61.149601 -0.346806 -0.936516 0.051601 0.216300 -0.960600 1 0 1.000000 
0 41.329102 -2.079598 -64.771202 -0.346806 -0.936516 0.051601 0.177100 -0.988900 1 0 1.000000 
0 41.329102 -0.025398 -61.149601 0.000000 -0.869802 0.493401 0.177100 -0.960600 1 0 1.000000 
train_utilities001a
0 41.329102 -2.079598 -64.771202 -0.346806 -0.936516 0.051601 0.177100 -0.988900 1 0 1.000000 
0 36.319901 -0.025398 -61.149601 -0.346806 -0.936516 0.051601 0.216300 -0.960600 1 0 1.000000 
0 36.319901 2.065002 -64.766296 -0.582594 -0.703692 -0.406696 0.216300 -0.988900 1 0 1.000000 
train_utilities001a
0 38.187801 -0.773798 -63.316002 -1.000000 -0.000000 0.000000 0.286900 -0.818100 1 0 1.000000 
0 38.187801 0.732702 -31.343000 -1.000000 -0.000000 0.000000 0.298700 -0.568300 1 0 1.000000 
0 38.187801 0.732702 -63.316002 -1.000000 -0.000000 0.000000 0.298700 -0.818100 1 0 1.000000 
train_utilities001a
0 38.187801 0.732702 -31.343000 -1.000000 -0.000000 0.000000 0.298700 -0.568300 1 0 1.000000 
0 38.187801 -0.773798 -63.316002 -1.000000 -0.000000 0.000000 0.286900 -0.818100 1 0 1.000000 
0 38.187801 -0.773798 -31.343000 -1.000000 -0.000000 0.000000 0.286900 -0.568300 1 0 1.000000 
train_utilities001a
0 39.606899 -0.020598 -63.316002 0.468802 -0.883303 0.000000 0.292800 -0.818100 1 0 1.000000 
0 38.187801 -0.773798 -31.343000 0.468802 -0.883303 0.000000 0.286900 -0.568300 1 0 1.000000 
0 38.187801 -0.773798 -63.316002 0.468802 -0.883303 0.000000 0.286900 -0.818100 1 0 1.000000 
train_utilities001a
0 38.187801 -0.773798 -31.343000 0.468802 -0.883303 0.000000 0.286900 -0.568300 1 0 1.000000 
0 39.606899 -0.020598 -63.316002 0.468802 -0.883303 0.000000 0.292800 -0.818100 1 0 1.000000 
0 39.606899 -0.020598 -31.343000 0.468802 -0.883303 0.000000 0.292800 -0.568300 1 0 1.000000 
train_utilities001a
0 39.606899 -0.020598 -31.343000 0.468802 0.883303 0.000000 0.292800 -0.568300 1 0 1.000000 
0 38.187801 0.732702 -63.316002 0.468802 0.883303 0.000000 0.298700 -0.818100 1 0 1.000000 
0 38.187801 0.732702 -31.343000 0.468802 0.883303 0.000000 0.298700 -0.568300 1 0 1.000000 
train_utilities001a
0 38.187801 0.732702 -63.316002 0.468802 0.883303 0.000000 0.298700 -0.818100 1 0 1.000000 
0 39.606899 -0.020598 -31.343000 0.468802 0.883303 0.000000 0.292800 -0.568300 1 0 1.000000 
0 39.606899 -0.020598 -63.316002 0.468802 0.883303 0.000000 0.292800 -0.818100 1 0 1.000000 
train_utilities001a
0 -127.977303 -0.002406 -36.584599 0.181703 -0.566310 -0.803914 0.052800 0.999900 1 0 1.000000 
0 -84.075401 -0.472304 -25.659300 -0.152491 -0.847350 0.508670 0.049100 0.656900 1 0 1.000000 
0 -127.977303 -0.472306 -35.583401 -0.191101 -0.498602 0.845504 0.049100 0.999900 1 0 1.000000 
train_utilities001a
0 -84.075401 0.527096 -25.659300 -0.113005 0.860637 0.496521 0.056900 0.656900 1 0 1.000000 
0 -127.977303 -0.472306 -35.583401 -0.191101 -0.498602 0.845504 0.049100 0.999900 1 0 1.000000 
0 -84.075401 -0.472304 -25.659300 -0.152491 -0.847350 0.508670 0.049100 0.656900 1 0 1.000000 
train_utilities001a
0 -127.977303 -0.472306 -35.583401 -0.191101 -0.498602 0.845504 0.049100 0.999900 1 0 1.000000 
0 -84.075401 0.527096 -25.659300 -0.113005 0.860637 0.496521 0.056900 0.656900 1 0 1.000000 
0 -127.977303 0.527094 -35.583401 -0.005900 0.999644 0.026001 0.056900 0.999900 1 0 1.000000 
train_utilities001a
0 -84.073700 -0.002404 -26.660400 0.256493 -0.022999 -0.966272 0.052800 0.656900 1 0 1.000000 
0 -127.977303 0.527094 -35.583401 -0.005900 0.999644 0.026001 0.056900 0.999900 1 0 1.000000 
0 -84.075401 0.527096 -25.659300 -0.113005 0.860637 0.496521 0.056900 0.656900 1 0 1.000000 
train_utilities001a
0 -84.075401 0.527096 -25.659300 -0.113005 0.860637 0.496521 0.056900 0.656900 1 0 1.000000 
0 -34.073700 -0.002401 -11.347200 0.325488 -0.022999 -0.945266 0.052800 0.266300 1 0 1.000000 
0 -84.073700 -0.002404 -26.660400 0.256493 -0.022999 -0.966272 0.052800 0.656900 1 0 1.000000 
train_utilities001a
0 -34.075401 -0.472301 -10.346000 -0.186608 -0.849537 0.493421 0.049100 0.266300 1 0 1.000000 
0 -84.073700 -0.002404 -26.660400 0.256493 -0.022999 -0.966272 0.052800 0.656900 1 0 1.000000 
0 -34.073700 -0.002401 -11.347200 0.325488 -0.022999 -0.945266 0.052800 0.266300 1 0 1.000000 
train_utilities001a
0 -34.073700 -0.002401 -11.347200 0.325488 -0.022999 -0.945266 0.052800 0.266300 1 0 1.000000 
0 15.924600 -0.472399 8.842800 -0.208403 -0.851813 0.480607 0.049100 -0.124300 1 0 1.000000 
0 -34.075401 -0.472301 -10.346000 -0.186608 -0.849537 0.493421 0.049100 0.266300 1 0 1.000000 
train_utilities001a
0 15.924600 0.527001 8.842800 -0.179605 0.865224 0.468113 0.056900 -0.124300 1 0 1.000000 
0 -34.075401 -0.472301 -10.346000 -0.186608 -0.849537 0.493421 0.049100 0.266300 1 0 1.000000 
0 15.924600 -0.472399 8.842800 -0.208403 -0.851813 0.480607 0.049100 -0.124300 1 0 1.000000 
train_utilities001a
0 15.924600 -0.472399 8.842800 -0.208403 -0.851813 0.480607 0.049100 -0.124300 1 0 1.000000 
0 65.924599 0.527003 30.690901 -0.198609 0.867840 0.455421 0.056900 -0.514900 1 0 1.000000 
0 15.924600 0.527001 8.842800 -0.179605 0.865224 0.468113 0.056900 -0.124300 1 0 1.000000 
train_utilities001a
0 65.926300 -0.002497 29.689699 0.425686 -0.023299 -0.904571 0.052800 -0.514900 1 0 1.000000 
0 15.924600 0.527001 8.842800 -0.179605 0.865224 0.468113 0.056900 -0.124300 1 0 1.000000 
0 65.924599 0.527003 30.690901 -0.198609 0.867840 0.455421 0.056900 -0.514900 1 0 1.000000 
train_utilities001a
0 65.924599 0.527003 30.690901 -0.198609 0.867840 0.455421 0.056900 -0.514900 1 0 1.000000 
0 127.925598 -0.001194 61.025700 0.393093 0.490592 -0.777687 0.052800 -0.999300 1 0 1.000000 
0 65.926300 -0.002497 29.689699 0.425686 -0.023299 -0.904571 0.052800 -0.514900 1 0 1.000000 
train_utilities001a
0 65.926300 -0.002497 29.689699 0.425686 -0.023299 -0.904571 0.052800 -0.514900 1 0 1.000000 
0 127.925598 -0.001194 61.025700 0.393093 0.490592 -0.777687 0.052800 -0.999300 1 0 1.000000 
0 127.925201 -0.471094 62.026901 -0.017700 -0.999230 0.035001 0.049100 -0.999300 1 0 1.000000 
train_utilities001a
0 65.926300 -0.002497 29.689699 0.425686 -0.023299 -0.904571 0.052800 -0.514900 1 0 1.000000 
0 127.925201 -0.471094 62.026901 -0.017700 -0.999230 0.035001 0.049100 -0.999300 1 0 1.000000 
0 65.924500 -0.472397 30.690901 -0.233189 -0.854060 0.464978 0.049100 -0.514900 1 0 1.000000 
train_utilities001a
0 65.924500 -0.472397 30.690901 -0.233189 -0.854060 0.464978 0.049100 -0.514900 1 0 1.000000 
0 127.925201 -0.471094 62.026901 -0.017700 -0.999230 0.035001 0.049100 -0.999300 1 0 1.000000 
0 127.925201 0.528306 62.026901 -0.390696 0.499995 0.772892 0.056900 -0.999300 1 0 1.000000 
train_utilities001a
0 65.924500 -0.472397 30.690901 -0.233189 -0.854060 0.464978 0.049100 -0.514900 1 0 1.000000 
0 127.925201 0.528306 62.026901 -0.390696 0.499995 0.772892 0.056900 -0.999300 1 0 1.000000 
0 65.924599 0.527003 30.690901 -0.198609 0.867840 0.455421 0.056900 -0.514900 1 0 1.000000 
train_utilities001a
0 65.924599 0.527003 30.690901 -0.198609 0.867840 0.455421 0.056900 -0.514900 1 0 1.000000 
0 127.925201 0.528306 62.026901 -0.390696 0.499995 0.772892 0.056900 -0.999300 1 0 1.000000 
0 127.925598 -0.001194 61.025700 0.393093 0.490592 -0.777687 0.052800 -0.999300 1 0 1.000000 
train_utilities001a
0 -127.977303 0.527094 -35.583401 -0.005900 0.999644 0.026001 0.056900 0.999900 1 0 1.000000 
0 -84.073700 -0.002404 -26.660400 0.256493 -0.022999 -0.966272 0.052800 0.656900 1 0 1.000000 
0 -127.977303 -0.002406 -36.584599 0.181703 -0.566310 -0.803914 0.052800 0.999900 1 0 1.000000 
train_utilities001a
0 -84.075401 -0.472304 -25.659300 -0.152491 -0.847350 0.508670 0.049100 0.656900 1 0 1.000000 
0 -127.977303 -0.002406 -36.584599 0.181703 -0.566310 -0.803914 0.052800 0.999900 1 0 1.000000 
0 -84.073700 -0.002404 -26.660400 0.256493 -0.022999 -0.966272 0.052800 0.656900 1 0 1.000000 
train_utilities001a
0 -84.073700 -0.002404 -26.660400 0.256493 -0.022999 -0.966272 0.052800 0.656900 1 0 1.000000 
0 -34.075401 -0.472301 -10.346000 -0.186608 -0.849537 0.493421 0.049100 0.266300 1 0 1.000000 
0 -84.075401 -0.472304 -25.659300 -0.152491 -0.847350 0.508670 0.049100 0.656900 1 0 1.000000 
train_utilities001a
0 -34.075401 0.526999 -10.346000 -0.148206 0.863032 0.482918 0.056900 0.266300 1 0 1.000000 
0 -84.075401 -0.472304 -25.659300 -0.152491 -0.847350 0.508670 0.049100 0.656900 1 0 1.000000 
0 -34.075401 -0.472301 -10.346000 -0.186608 -0.849537 0.493421 0.049100 0.266300 1 0 1.000000 
train_utilities001a
0 -34.075401 -0.472301 -10.346000 -0.186608 -0.849537 0.493421 0.049100 0.266300 1 0 1.000000 
0 15.924600 0.527001 8.842800 -0.179605 0.865224 0.468113 0.056900 -0.124300 1 0 1.000000 
0 -34.075401 0.526999 -10.346000 -0.148206 0.863032 0.482918 0.056900 0.266300 1 0 1.000000 
train_utilities001a
0 15.926300 -0.002399 7.841600 0.379205 -0.023600 -0.925012 0.052800 -0.124300 1 0 1.000000 
0 -34.075401 0.526999 -10.346000 -0.148206 0.863032 0.482918 0.056900 0.266300 1 0 1.000000 
0 15.924600 0.527001 8.842800 -0.179605 0.865224 0.468113 0.056900 -0.124300 1 0 1.000000 
train_utilities001a
0 15.924600 0.527001 8.842800 -0.179605 0.865224 0.468113 0.056900 -0.124300 1 0 1.000000 
0 65.926300 -0.002497 29.689699 0.425686 -0.023299 -0.904571 0.052800 -0.514900 1 0 1.000000 
0 15.926300 -0.002399 7.841600 0.379205 -0.023600 -0.925012 0.052800 -0.124300 1 0 1.000000 
train_utilities001a
0 65.924500 -0.472397 30.690901 -0.233189 -0.854060 0.464978 0.049100 -0.514900 1 0 1.000000 
0 15.926300 -0.002399 7.841600 0.379205 -0.023600 -0.925012 0.052800 -0.124300 1 0 1.000000 
0 65.926300 -0.002497 29.689699 0.425686 -0.023299 -0.904571 0.052800 -0.514900 1 0 1.000000 
train_utilities001a
0 15.926300 -0.002399 7.841600 0.379205 -0.023600 -0.925012 0.052800 -0.124300 1 0 1.000000 
0 65.924500 -0.472397 30.690901 -0.233189 -0.854060 0.464978 0.049100 -0.514900 1 0 1.000000 
0 15.924600 -0.472399 8.842800 -0.208403 -0.851813 0.480607 0.049100 -0.124300 1 0 1.000000 
train_utilities001a
0 65.924599 0.527003 30.690901 -0.198609 0.867840 0.455421 0.056900 -0.514900 1 0 1.000000 
0 15.924600 -0.472399 8.842800 -0.208403 -0.851813 0.480607 0.049100 -0.124300 1 0 1.000000 
0 65.924500 -0.472397 30.690901 -0.233189 -0.854060 0.464978 0.049100 -0.514900 1 0 1.000000 
train_utilities001a
0 15.924600 -0.472399 8.842800 -0.208403 -0.851813 0.480607 0.049100 -0.124300 1 0 1.000000 
0 -34.073700 -0.002401 -11.347200 0.325488 -0.022999 -0.945266 0.052800 0.266300 1 0 1.000000 
0 15.926300 -0.002399 7.841600 0.379205 -0.023600 -0.925012 0.052800 -0.124300 1 0 1.000000 
train_utilities001a
0 -34.075401 0.526999 -10.346000 -0.148206 0.863032 0.482918 0.056900 0.266300 1 0 1.000000 
0 15.926300 -0.002399 7.841600 0.379205 -0.023600 -0.925012 0.052800 -0.124300 1 0 1.000000 
0 -34.073700 -0.002401 -11.347200 0.325488 -0.022999 -0.945266 0.052800 0.266300 1 0 1.000000 
train_utilities001a
0 -34.073700 -0.002401 -11.347200 0.325488 -0.022999 -0.945266 0.052800 0.266300 1 0 1.000000 
0 -84.075401 0.527096 -25.659300 -0.113005 0.860637 0.496521 0.056900 0.656900 1 0 1.000000 
0 -34.075401 0.526999 -10.346000 -0.148206 0.863032 0.482918 0.056900 0.266300 1 0 1.000000 
train_utilities001a
0 -84.075401 -0.472304 -25.659300 -0.152491 -0.847350 0.508670 0.049100 0.656900 1 0 1.000000 
0 -34.075401 0.526999 -10.346000 -0.148206 0.863032 0.482918 0.056900 0.266300 1 0 1.000000 
0 -84.075401 0.527096 -25.659300 -0.113005 0.860637 0.496521 0.056900 0.656900 1 0 1.000000 
train_utilities001a
0 77.795303 2.213603 -29.706400 0.000000 0.000000 1.000000 0.133000 -0.308800 1 0 1.000000 
0 77.824997 -2.207197 -29.706301 0.000000 0.000000 1.000000 0.132800 -0.343400 1 0 1.000000 
0 80.020599 -0.011597 -29.706400 0.000000 0.000000 1.000000 0.115600 -0.326200 1 0 1.000000 
train_utilities001a
0 127.928596 0.040306 -62.385799 0.000000 -0.535704 0.844406 0.059200 -0.995200 1 0 1.000000 
0 -127.977303 -0.489206 -63.401901 0.000000 -0.999322 -0.036801 0.055000 1.004000 1 0 1.000000 
0 127.927002 -0.489094 -63.386902 0.000100 -0.499699 -0.866199 0.055000 -0.995200 1 0 1.000000 
train_utilities001a
0 -127.977303 0.510194 -63.401901 0.000100 0.498302 -0.867003 0.062800 1.004000 1 0 1.000000 
0 127.927002 -0.489094 -63.386902 0.000100 -0.499699 -0.866199 0.055000 -0.995200 1 0 1.000000 
0 -127.977303 -0.489206 -63.401901 0.000000 -0.999322 -0.036801 0.055000 1.004000 1 0 1.000000 
train_utilities001a
0 127.927002 -0.489094 -63.386902 0.000100 -0.499699 -0.866199 0.055000 -0.995200 1 0 1.000000 
0 -127.977303 0.510194 -63.401901 0.000100 0.498302 -0.867003 0.062800 1.004000 1 0 1.000000 
0 127.927002 0.510306 -63.386902 -0.000000 0.996575 -0.082698 0.062800 -0.995200 1 0 1.000000 
train_utilities001a
0 -127.977303 0.040294 -62.400700 -0.000000 0.575320 0.817928 0.059200 1.004000 1 0 1.000000 
0 127.927002 0.510306 -63.386902 -0.000000 0.996575 -0.082698 0.062800 -0.995200 1 0 1.000000 
0 -127.977303 0.510194 -63.401901 0.000100 0.498302 -0.867003 0.062800 1.004000 1 0 1.000000 
train_utilities001a
0 127.927002 0.510306 -63.386902 -0.000000 0.996575 -0.082698 0.062800 -0.995200 1 0 1.000000 
0 -127.977303 0.040294 -62.400700 -0.000000 0.575320 0.817928 0.059200 1.004000 1 0 1.000000 
0 127.928596 0.040306 -62.385799 0.000000 -0.535704 0.844406 0.059200 -0.995200 1 0 1.000000 
train_utilities001a
0 -127.977303 -0.489206 -63.401901 0.000000 -0.999322 -0.036801 0.055000 1.004000 1 0 1.000000 
0 127.928596 0.040306 -62.385799 0.000000 -0.535704 0.844406 0.059200 -0.995200 1 0 1.000000 
0 -127.977303 0.040294 -62.400700 -0.000000 0.575320 0.817928 0.059200 1.004000 1 0 1.000000 
train_utilities001a
0 80.020599 -0.011597 -54.918301 0.000000 0.000000 -1.000000 0.115600 -0.326200 1 0 1.000000 
0 77.824997 -2.207197 -54.918301 0.000000 0.000000 -1.000000 0.132800 -0.343400 1 0 1.000000 
0 77.795303 2.213603 -54.918301 0.000000 0.000000 -1.000000 0.133000 -0.308800 1 0 1.000000 
train_utilities001a
0 -10.920600 2.930300 -49.567001 -1.000000 -0.000000 0.000000 0.164500 -0.072500 1 0 1.000000 
0 -21.051001 2.930299 -49.567001 -1.000000 -0.000000 0.000000 0.204100 -0.049600 1 0 1.000000 
0 -15.985900 -5.842900 -49.567001 -1.000000 -0.000000 0.000000 0.204100 -0.095300 1 0 1.000000 
train_utilities001a
0 -10.920600 2.930300 -49.567001 -1.000000 -0.000000 0.000000 0.164500 -0.072500 1 0 1.000000 
0 -15.985900 -5.842900 -49.567001 -1.000000 -0.000000 0.000000 0.204100 -0.095300 1 0 1.000000 
0 -21.051001 2.930299 -49.567001 -1.000000 -0.000000 0.000000 0.204100 -0.049600 1 0 1.000000 
train_utilities001a
0 41.329102 -2.079598 -64.771202 1.000000 0.000000 0.000000 0.177100 -0.988900 1 0 1.000000 
0 41.329102 2.065002 -64.766197 1.000000 0.000000 0.000000 0.177100 -0.988900 1 0 1.000000 
0 41.329102 -0.025398 -61.149601 1.000000 0.000000 0.000000 0.177100 -0.960600 1 0 1.000000 
train_utilities001a
0 76.583702 -1.208697 37.934601 -0.004500 -0.000000 0.999990 0.213600 -0.702100 1 0 1.000000 
0 79.135201 -1.208696 37.946098 -0.004500 -0.000000 0.999990 0.186500 -0.702100 1 0 1.000000 
0 79.135201 1.202303 37.946098 -0.004500 -0.000000 0.999990 0.186500 -0.723000 1 0 1.000000 
train_utilities001a
0 37.826900 -3.017498 -17.346500 -0.477198 -0.000000 0.878796 0.151600 -0.070000 1 0 1.000000 
0 33.375500 5.755702 -19.763399 -0.477198 -0.000000 0.878796 0.191100 -0.047200 1 0 1.000000 
0 28.924200 -3.017499 -22.180300 -0.477198 -0.000000 0.878796 0.191100 -0.092900 1 0 1.000000 
train_utilities001a
0 77.025597 -0.791097 22.275600 0.000000 0.000000 -1.000000 0.208900 -0.705700 1 0 1.000000 
0 78.693298 0.784703 22.275600 0.000000 0.000000 -1.000000 0.191200 -0.719400 1 0 1.000000 
0 78.693298 -0.791097 22.275600 0.000000 0.000000 -1.000000 0.191200 -0.705700 1 0 1.000000 
train_utilities001a
0 28.924200 -3.017499 -22.180300 0.477198 0.000000 -0.878796 0.151600 -0.070000 1 0 1.000000 
0 33.375500 5.755702 -19.763399 0.477198 0.000000 -0.878796 0.112000 -0.047200 1 0 1.000000 
0 37.826900 -3.017498 -17.346500 0.477198 0.000000 -0.878796 0.112000 -0.092900 1 0 1.000000 
train_utilities001a
0 87.407600 1.269704 -64.046700 1.000000 0.000000 0.000000 0.235000 -0.387500 1 0 1.000000 
0 87.407600 0.032104 -61.842999 1.000000 0.000000 0.000000 0.256900 -0.400100 1 0 1.000000 
0 87.407600 -1.227296 -64.043701 1.000000 0.000000 0.000000 0.234800 -0.412400 1 0 1.000000 
train_utilities001a
0 35.044701 2.831301 -12.976300 -0.477198 -0.000000 0.878796 0.154400 -0.070000 1 0 1.000000 
0 26.142000 2.831301 -17.810101 -0.477198 -0.000000 0.878796 0.194000 -0.047200 1 0 1.000000 
0 30.593300 -5.941898 -15.393300 -0.477198 -0.000000 0.878796 0.194000 -0.092900 1 0 1.000000 
train_utilities001a
0 68.317101 0.032103 -61.842999 -1.000000 -0.000000 0.000000 0.256900 -0.400100 1 0 1.000000 
0 68.317101 1.269703 -64.046700 -1.000000 -0.000000 0.000000 0.235000 -0.387500 1 0 1.000000 
0 68.317101 -1.227297 -64.043701 -1.000000 -0.000000 0.000000 0.234800 -0.412400 1 0 1.000000 
train_utilities001a
0 26.142000 2.831301 -17.810101 0.477198 0.000000 -0.878796 0.154400 -0.070000 1 0 1.000000 
0 35.044701 2.831301 -12.976300 0.477198 0.000000 -0.878796 0.114800 -0.047200 1 0 1.000000 
0 30.593300 -5.941898 -15.393300 0.477198 0.000000 -0.878796 0.114800 -0.092900 1 0 1.000000 
train_utilities001a
0 -16.903601 -1.208701 -2.403500 -0.004500 -0.000000 0.999990 0.213600 -0.702100 1 0 1.000000 
0 -14.352100 -1.208701 -2.392100 -0.004500 -0.000000 0.999990 0.186500 -0.702100 1 0 1.000000 
0 -14.352100 1.202299 -2.392100 -0.004500 -0.000000 0.999990 0.186500 -0.723000 1 0 1.000000 
train_utilities001a
0 32.421001 -3.017498 -8.446000 -0.477198 -0.000000 0.878796 0.155500 -0.070000 1 0 1.000000 
0 27.969601 5.755702 -10.862900 -0.477198 -0.000000 0.878796 0.195100 -0.047200 1 0 1.000000 
0 23.518200 -3.017499 -13.279700 -0.477198 -0.000000 0.878796 0.195100 -0.092900 1 0 1.000000 
train_utilities001a
0 -16.461700 -0.791101 -18.062500 0.000000 0.000000 -1.000000 0.208900 -0.705700 1 0 1.000000 
0 -14.794000 0.784699 -18.062500 0.000000 0.000000 -1.000000 0.191200 -0.719400 1 0 1.000000 
0 -14.794000 -0.791101 -18.062500 0.000000 0.000000 -1.000000 0.191200 -0.705700 1 0 1.000000 
train_utilities001a
0 23.518200 -3.017499 -13.279700 0.477198 0.000000 -0.878796 0.155500 -0.070000 1 0 1.000000 
0 27.969601 5.755702 -10.862900 0.477198 0.000000 -0.878796 0.115900 -0.047200 1 0 1.000000 
0 32.421001 -3.017498 -8.446000 0.477198 0.000000 -0.878796 0.115900 -0.092900 1 0 1.000000 
train_utilities001a
0 19.232901 2.052901 11.096600 0.927188 0.000000 0.374595 0.299100 -0.596100 1 0 1.000000 
0 19.234800 -2.091699 11.092000 0.927188 0.000000 0.374595 0.266700 -0.596200 1 0 1.000000 
0 20.589600 -0.001299 7.738800 0.927188 0.000000 0.374595 0.283100 -0.624300 1 0 1.000000 
train_utilities001a
0 29.816299 2.831301 -4.234500 -0.477198 -0.000000 0.878796 0.157700 -0.070000 1 0 1.000000 
0 20.913500 2.831301 -9.068400 -0.477198 -0.000000 0.878796 0.197300 -0.047200 1 0 1.000000 
0 25.364799 -5.941899 -6.651500 -0.477198 -0.000000 0.878796 0.197300 -0.092900 1 0 1.000000 
train_utilities001a
0 14.588500 2.052901 9.220200 -0.374595 -0.001200 0.927188 0.238700 -0.032100 1 0 1.000000 
0 19.234800 -2.091699 11.092000 -0.374595 -0.001200 0.927188 0.277800 -0.064500 1 0 1.000000 
0 19.232901 2.052901 11.096600 -0.374595 -0.001200 0.927188 0.277800 -0.032100 1 0 1.000000 
train_utilities001a
0 29.816299 2.831301 -4.234500 0.477198 0.000000 -0.878796 0.157700 -0.070000 1 0 1.000000 
0 25.364799 -5.941899 -6.651500 0.477198 0.000000 -0.878796 0.197300 -0.092900 1 0 1.000000 
0 20.913500 2.831301 -9.068400 0.477198 0.000000 -0.878796 0.197300 -0.047200 1 0 1.000000 
train_utilities001a
0 -10.920600 -2.918500 -46.814800 -1.000000 -0.000000 0.000000 0.164500 -0.072500 1 0 1.000000 
0 -21.051001 -2.918501 -46.814800 -1.000000 -0.000000 0.000000 0.204100 -0.095300 1 0 1.000000 
0 -15.985900 5.854700 -46.814800 -1.000000 -0.000000 0.000000 0.204100 -0.049600 1 0 1.000000 
train_utilities001a
0 -10.920600 -2.918500 -46.814800 -1.000000 -0.000000 0.000000 0.164500 -0.072500 1 0 1.000000 
0 -15.985900 5.854700 -46.814800 -1.000000 -0.000000 0.000000 0.204100 -0.049600 1 0 1.000000 
0 -21.051001 -2.918501 -46.814800 -1.000000 -0.000000 0.000000 0.204100 -0.095300 1 0 1.000000 
train_utilities001a
0 1.879200 1.504100 -63.238400 1.000000 0.000000 0.000000 0.296500 -0.036800 1 0 1.000000 
0 1.879200 -1.469900 -63.216000 1.000000 0.000000 0.000000 0.273300 -0.036600 1 0 1.000000 
0 1.879200 0.001000 -64.816200 1.000000 0.000000 0.000000 0.284800 -0.049100 1 0 1.000000 
train_utilities001a
0 128.001297 -12.314494 62.541599 0.000000 -1.000000 0.000000 0.289100 -0.570600 1 0 1.000000 
0 124.913399 -12.314494 62.541599 0.000000 -1.000000 0.000000 0.264900 -0.570600 1 0 1.000000 
0 128.001297 -12.314494 56.502499 0.000000 -1.000000 0.000000 0.289100 -0.617800 1 0 1.000000 
train_utilities001a
0 -7.642900 -2.918500 -57.904900 1.000000 0.000000 0.000000 0.170400 -0.058000 1 0 1.000000 
0 -7.642900 -2.918500 -68.035202 1.000000 0.000000 0.000000 0.147600 -0.097500 1 0 1.000000 
0 -7.642900 5.854700 -62.970100 1.000000 0.000000 0.000000 0.193300 -0.097500 1 0 1.000000 
train_utilities001a
0 128.001297 12.710505 56.502499 -0.000000 1.000000 0.000000 0.289000 -0.617800 1 0 1.000000 
0 124.913399 12.710505 56.502499 -0.000000 1.000000 0.000000 0.264900 -0.617800 1 0 1.000000 
0 128.001297 12.710505 62.541599 -0.000000 1.000000 0.000000 0.289000 -0.570600 1 0 1.000000 
train_utilities001a
0 -7.642900 -2.918500 -57.904900 -1.000000 -0.000000 0.000000 0.170400 -0.058000 1 0 1.000000 
0 -7.642900 5.854700 -62.970100 -1.000000 -0.000000 0.000000 0.193300 -0.097500 1 0 1.000000 
0 -7.642900 -2.918500 -68.035202 -1.000000 -0.000000 0.000000 0.147600 -0.097500 1 0 1.000000 
train_utilities001a
0 104.979698 -3.017495 55.576801 -0.882925 -0.000000 -0.469513 0.160500 -0.066600 1 0 1.000000 
0 107.357697 5.755705 51.104599 -0.882925 -0.000000 -0.469513 0.183400 -0.106000 1 0 1.000000 
0 109.735603 -3.017495 46.632301 -0.882925 -0.000000 -0.469513 0.137700 -0.106000 1 0 1.000000 
train_utilities001a
0 -2.153300 -2.918500 -57.904900 1.000000 0.000000 0.000000 0.170400 -0.058000 1 0 1.000000 
0 -2.153300 -2.918500 -68.035202 1.000000 0.000000 0.000000 0.147600 -0.097500 1 0 1.000000 
0 -2.153300 5.854700 -62.970100 1.000000 0.000000 0.000000 0.193300 -0.097500 1 0 1.000000 
train_utilities001a
0 109.735603 -3.017495 46.632301 0.882925 0.000000 0.469513 0.160500 -0.066300 1 0 1.000000 
0 107.357697 5.755705 51.104599 0.882925 0.000000 0.469513 0.183400 -0.026900 1 0 1.000000 
0 104.979698 -3.017495 55.576801 0.882925 0.000000 0.469513 0.137700 -0.026900 1 0 1.000000 
train_utilities001a
0 -2.153300 -2.918500 -57.904900 -1.000000 -0.000000 0.000000 0.170400 -0.058000 1 0 1.000000 
0 -2.153300 5.854700 -62.970100 -1.000000 -0.000000 0.000000 0.193300 -0.097500 1 0 1.000000 
0 -2.153300 -2.918500 -68.035202 -1.000000 -0.000000 0.000000 0.147600 -0.097500 1 0 1.000000 
train_utilities001a
0 100.585297 -3.017496 52.832901 -0.882925 -0.000000 -0.469513 0.160500 -0.069800 1 0 1.000000 
0 102.963402 5.755704 48.360600 -0.882925 -0.000000 -0.469513 0.183400 -0.109200 1 0 1.000000 
0 105.341301 -3.017495 43.888302 -0.882925 -0.000000 -0.469513 0.137700 -0.109200 1 0 1.000000 
train_utilities001a
0 -33.420200 1.504099 -63.238400 -1.000000 -0.000000 0.000000 0.296500 -0.036800 1 0 1.000000 
0 -33.420200 0.000999 -64.816200 -1.000000 -0.000000 0.000000 0.284800 -0.049100 1 0 1.000000 
0 -33.420200 -1.469901 -63.216000 -1.000000 -0.000000 0.000000 0.273300 -0.036600 1 0 1.000000 
train_utilities001a
0 100.585297 -3.017496 52.832901 0.882925 0.000000 0.469513 0.160500 -0.069500 1 0 1.000000 
0 105.341301 -3.017495 43.888302 0.882925 0.000000 0.469513 0.137700 -0.109200 1 0 1.000000 
0 102.963402 5.755704 48.360600 0.882925 0.000000 0.469513 0.183400 -0.109200 1 0 1.000000 
train_utilities001a
0 -23.896700 -2.918501 -68.035202 -1.000000 -0.000000 0.000000 0.170400 -0.058000 1 0 1.000000 
0 -23.896700 -2.918501 -57.904900 -1.000000 -0.000000 0.000000 0.147600 -0.018400 1 0 1.000000 
0 -23.896700 5.854699 -62.970100 -1.000000 -0.000000 0.000000 0.193300 -0.018400 1 0 1.000000 
train_utilities001a
0 96.032303 -3.017496 50.248901 -0.882947 -0.000000 -0.469472 0.160500 -0.071300 1 0 1.000000 
0 98.410301 5.755704 45.776600 -0.882947 -0.000000 -0.469472 0.183400 -0.110700 1 0 1.000000 
0 100.788200 -3.017496 41.304199 -0.882947 -0.000000 -0.469472 0.137700 -0.110700 1 0 1.000000 
train_utilities001a
0 -23.896700 -2.918501 -57.904900 1.000000 0.000000 0.000000 0.170400 -0.058000 1 0 1.000000 
0 -23.896700 -2.918501 -68.035202 1.000000 0.000000 0.000000 0.147600 -0.097500 1 0 1.000000 
0 -23.896700 5.854699 -62.970100 1.000000 0.000000 0.000000 0.193300 -0.097500 1 0 1.000000 
train_utilities001a
0 100.788200 -3.017496 41.304199 0.882947 0.000000 0.469472 0.160500 -0.070900 1 0 1.000000 
0 98.410301 5.755704 45.776600 0.882947 0.000000 0.469472 0.183400 -0.031500 1 0 1.000000 
0 96.032303 -3.017496 50.248901 0.882947 0.000000 0.469472 0.137700 -0.031500 1 0 1.000000 
train_utilities001a
0 -29.386400 -2.918501 -57.904900 -1.000000 -0.000000 0.000000 0.170400 -0.058000 1 0 1.000000 
0 -29.386400 5.854699 -62.970100 -1.000000 -0.000000 0.000000 0.193300 -0.097500 1 0 1.000000 
0 -29.386400 -2.918501 -68.035202 -1.000000 -0.000000 0.000000 0.147600 -0.097500 1 0 1.000000 
train_utilities001a
0 94.176300 5.755704 43.208698 -0.882925 -0.000000 -0.469513 0.160500 -0.073800 1 0 1.000000 
0 96.554199 -3.017496 38.736401 -0.882925 -0.000000 -0.469513 0.137700 -0.113200 1 0 1.000000 
0 91.798203 -3.017496 47.681000 -0.882925 -0.000000 -0.469513 0.114900 -0.073600 1 0 1.000000 
train_utilities001a
0 -29.386400 -2.918501 -57.904900 1.000000 0.000000 0.000000 0.170400 -0.058000 1 0 1.000000 
0 -29.386400 -2.918501 -68.035202 1.000000 0.000000 0.000000 0.147600 -0.097500 1 0 1.000000 
0 -29.386400 5.854699 -62.970100 1.000000 0.000000 0.000000 0.193300 -0.097500 1 0 1.000000 
train_utilities001a
0 91.798203 -3.017496 47.681000 0.882925 0.000000 0.469513 0.160500 -0.073500 1 0 1.000000 
0 96.554199 -3.017496 38.736401 0.882925 0.000000 0.469513 0.137700 -0.113200 1 0 1.000000 
0 94.176300 5.755704 43.208698 0.882925 0.000000 0.469513 0.183400 -0.113200 1 0 1.000000 
train_utilities001a
0 99.961098 4.325904 -63.171200 1.000000 0.000000 0.000000 0.216100 -0.043500 1 0 1.000000 
0 99.961098 -2.172796 -59.456299 1.000000 0.000000 0.000000 0.165300 -0.014500 1 0 1.000000 
0 99.961098 -2.172796 -66.886002 1.000000 0.000000 0.000000 0.165300 -0.072500 1 0 1.000000 
train_utilities001a
0 77.217598 -0.752397 -63.287899 -1.000000 -0.000000 0.000000 0.277100 -0.978100 1 0 1.000000 
0 77.217598 -0.752397 22.306299 -1.000000 -0.000000 0.000000 0.277100 -0.309400 1 0 1.000000 
0 77.217598 0.754103 -63.287899 -1.000000 -0.000000 0.000000 0.288900 -0.978100 1 0 1.000000 
train_utilities001a
0 99.961098 -2.172796 -66.886002 -1.000000 -0.000000 0.000000 0.182300 -0.043500 1 0 1.000000 
0 99.961098 -2.172796 -59.456299 -1.000000 -0.000000 0.000000 0.165300 -0.014500 1 0 1.000000 
0 99.961098 4.325904 -63.171200 -1.000000 -0.000000 0.000000 0.199200 -0.014500 1 0 1.000000 
train_utilities001a
0 -16.337900 -0.752101 -62.783798 -1.000000 -0.000000 0.000000 0.277100 -0.974100 1 0 1.000000 
0 -16.337900 -0.752101 -15.841300 -1.000000 -0.000000 0.000000 0.277100 -0.607400 1 0 1.000000 
0 -16.337900 0.754399 -62.783798 -1.000000 -0.000000 0.000000 0.288900 -0.974100 1 0 1.000000 
train_utilities001a
0 104.521004 4.325905 -63.171200 1.000000 0.000000 0.000000 0.216100 -0.043500 1 0 1.000000 
0 104.521004 -2.172796 -59.456299 1.000000 0.000000 0.000000 0.165300 -0.014500 1 0 1.000000 
0 104.521004 -2.172796 -66.886002 1.000000 0.000000 0.000000 0.165300 -0.072500 1 0 1.000000 
train_utilities001a
0 -76.221199 2.064997 -65.045898 -0.000000 0.001200 -0.999999 0.253500 -0.495900 1 0 1.000000 
0 -71.211998 2.064997 -65.045898 -0.000000 0.001200 -0.999999 0.292600 -0.495900 1 0 1.000000 
0 -71.211998 -2.079603 -65.050797 -0.000000 0.001200 -0.999999 0.292600 -0.528300 1 0 1.000000 
train_utilities001a
0 104.521004 -2.172796 -66.886002 -1.000000 -0.000000 0.000000 0.182300 -0.043500 1 0 1.000000 
0 104.521004 -2.172796 -59.456299 -1.000000 -0.000000 0.000000 0.165300 -0.014500 1 0 1.000000 
0 104.521004 4.325905 -63.171200 -1.000000 -0.000000 0.000000 0.199200 -0.014500 1 0 1.000000 
train_utilities001a
0 -71.211998 -2.079603 -65.050797 1.000000 0.000000 0.000000 0.292600 -0.528300 1 0 1.000000 
0 -71.211998 2.064997 -65.045898 1.000000 0.000000 0.000000 0.292600 -0.495900 1 0 1.000000 
0 -71.211998 -0.025403 -61.429298 1.000000 0.000000 0.000000 0.292600 -0.512200 1 0 1.000000 
train_utilities001a
0 109.080902 4.325905 -63.171200 1.000000 0.000000 0.000000 0.216100 -0.043500 1 0 1.000000 
0 109.080902 -2.172795 -59.456299 1.000000 0.000000 0.000000 0.165300 -0.014500 1 0 1.000000 
0 109.080902 -2.172795 -66.886002 1.000000 0.000000 0.000000 0.165300 -0.072500 1 0 1.000000 
train_utilities001a
0 -76.464996 2.052897 -22.686001 -0.267210 -0.001200 0.963637 0.238700 -0.032100 1 0 1.000000 
0 -71.636703 -2.091703 -21.352200 -0.267210 -0.001200 0.963637 0.277800 -0.064500 1 0 1.000000 
0 -71.638100 2.052897 -21.347401 -0.267210 -0.001200 0.963637 0.277800 -0.032100 1 0 1.000000 
train_utilities001a
0 109.080902 -2.172795 -66.886002 -1.000000 -0.000000 0.000000 0.182300 -0.043500 1 0 1.000000 
0 109.080902 -2.172795 -59.456299 -1.000000 -0.000000 0.000000 0.165300 -0.014500 1 0 1.000000 
0 109.080902 4.325905 -63.171200 -1.000000 -0.000000 0.000000 0.199200 -0.014500 1 0 1.000000 
train_utilities001a
0 -71.638100 2.052897 -21.347401 0.963638 0.000000 0.267211 0.299100 -0.596100 1 0 1.000000 
0 -71.636703 -2.091703 -21.352200 0.963638 0.000000 0.267211 0.266700 -0.596200 1 0 1.000000 
0 -70.670197 -0.001303 -24.837299 0.963638 0.000000 0.267211 0.283100 -0.624300 1 0 1.000000 
train_utilities001a
0 113.640800 4.325905 -63.171200 1.000000 0.000000 0.000000 0.216100 -0.043500 1 0 1.000000 
0 113.640800 -2.172795 -59.456299 1.000000 0.000000 0.000000 0.165300 -0.014500 1 0 1.000000 
0 113.640800 -2.172795 -66.886002 1.000000 0.000000 0.000000 0.165300 -0.072500 1 0 1.000000 
train_utilities001a
0 -76.215302 2.064997 -43.322498 -0.000000 0.001200 -0.999999 0.253500 -0.495900 1 0 1.000000 
0 -71.206100 2.064997 -43.322498 -0.000000 0.001200 -0.999999 0.292600 -0.495900 1 0 1.000000 
0 -71.206100 -2.079603 -43.327499 -0.000000 0.001200 -0.999999 0.292600 -0.528300 1 0 1.000000 
train_utilities001a
0 113.640800 -2.172795 -66.886002 -1.000000 -0.000000 0.000000 0.182300 -0.043500 1 0 1.000000 
0 113.640800 -2.172795 -59.456299 -1.000000 -0.000000 0.000000 0.165300 -0.014500 1 0 1.000000 
0 113.640800 4.325905 -63.171200 -1.000000 -0.000000 0.000000 0.199200 -0.014500 1 0 1.000000 
train_utilities001a
0 -71.206100 -2.079603 -43.327499 1.000000 0.000000 0.000000 0.292600 -0.528300 1 0 1.000000 
0 -71.206100 2.064997 -43.322498 1.000000 0.000000 0.000000 0.292600 -0.495900 1 0 1.000000 
0 -71.206100 -0.025403 -39.705898 1.000000 0.000000 0.000000 0.292600 -0.512200 1 0 1.000000 
end
