$cd ".\"
$modelname "props_junk/terracotta_chunk01d.mdl"
$model "Body" "terracotta_chunk01d_reference.smd"
$cdmaterials "models/props_junk/"
$surfaceprop "pottery"
$eyeposition 0.000 0.000 0.000
$illumposition 2.887 -2.766 5.011
$sequence idle "idle" ACT_IDLE 1 fps 30.000000

$keyvalues
{
	prop_data 
	{
		"base"		"Pottery.Small"
	}
}