version 1
nodes
  0 "static_prop" -1
end
skeleton
time 0
0 0.000000 0.000000 0.000000 0.000000 0.000000 0.000000
end
triangles
PLASTERWALL010I
0 -0.000001 21.247999 -30.978600 -1.000000 -0.000000 0.000000 0.589300 -0.320000 1 0 1.000000 
0 -0.000001 15.197000 -30.978600 -1.000000 -0.000000 0.000000 0.589300 -0.320000 1 0 1.000000 
0 -0.000001 15.197000 23.306601 -1.000000 -0.000000 0.000000 0.380100 -0.320000 1 0 1.000000 
PLASTERWALL010I
0 -0.000001 15.197000 23.306601 -1.000000 -0.000000 0.000000 0.380100 -0.320000 1 0 1.000000 
0 -0.000001 21.247999 35.157799 -1.000000 -0.000000 0.000000 0.334400 -0.320000 1 0 1.000000 
0 -0.000001 21.247999 -30.978600 -1.000000 -0.000000 0.000000 0.589300 -0.320000 1 0 1.000000 
PLASTERWALL010I
0 -0.000001 14.405200 47.931801 -1.000000 -0.000000 0.000000 0.576000 -0.277600 1 0 1.000000 
0 -0.000001 23.105900 43.365299 -1.000000 -0.000000 0.000000 0.621600 -0.277600 1 0 1.000000 
0 -0.000000 4.864500 50.283298 -1.000000 -0.000000 0.000000 0.526000 -0.277600 1 0 1.000000 
PLASTERWALL010I
0 0.000000 -4.961700 50.283298 -1.000000 -0.000000 0.000000 0.474500 -0.277600 1 0 1.000000 
0 -0.000000 4.864500 50.283298 -1.000000 -0.000000 0.000000 0.526000 -0.277600 1 0 1.000000 
0 0.000001 -14.502400 47.931801 -1.000000 -0.000000 0.000000 0.424500 -0.277600 1 0 1.000000 
PLASTERWALL010I
0 0.000001 -25.659201 39.139999 -1.000000 -0.000000 0.000000 0.366000 -0.277600 1 0 1.000000 
0 0.000001 -14.502400 47.931801 -1.000000 -0.000000 0.000000 0.424500 -0.277600 1 0 1.000000 
0 -0.000000 4.864500 50.283298 -1.000000 -0.000000 0.000000 0.526000 -0.277600 1 0 1.000000 
PLASTERWALL010I
0 -0.000000 4.864500 50.283298 -1.000000 -0.000000 0.000000 0.526000 -0.277600 1 0 1.000000 
0 -0.000001 23.105900 43.365299 -1.000000 -0.000000 0.000000 0.621600 -0.277600 1 0 1.000000 
0 0.000001 -25.659201 39.139999 -1.000000 -0.000000 0.000000 0.366000 -0.277600 1 0 1.000000 
PLASTERWALL010I
0 -0.000001 26.570101 40.296299 -1.000000 -0.000000 0.000000 0.639800 -0.277600 1 0 1.000000 
0 0.000001 -25.659201 39.139999 -1.000000 -0.000000 0.000000 0.366000 -0.277600 1 0 1.000000 
0 -0.000001 23.105900 43.365299 -1.000000 -0.000000 0.000000 0.621600 -0.277600 1 0 1.000000 
PLASTERWALL010I
0 -0.000001 25.397900 39.139999 -1.000000 -0.000000 0.000000 0.633600 -0.277600 1 0 1.000000 
0 0.000001 -25.659201 39.139999 -1.000000 -0.000000 0.000000 0.366000 -0.277600 1 0 1.000000 
0 -0.000001 26.570101 40.296299 -1.000000 -0.000000 0.000000 0.639800 -0.277600 1 0 1.000000 
PLASTERWALL010I
0 0.000001 -26.757200 40.216599 -1.000000 -0.000000 0.000000 0.360200 -0.277600 1 0 1.000000 
0 0.000001 -14.502400 47.931801 -1.000000 -0.000000 0.000000 0.424500 -0.277600 1 0 1.000000 
0 0.000001 -25.659201 39.139999 -1.000000 -0.000000 0.000000 0.366000 -0.277600 1 0 1.000000 
PLASTERWALL010I
0 5.554701 -20.451099 39.139999 0.000000 0.000000 -1.000000 0.393300 -0.299700 1 0 1.000000 
0 5.554701 -25.659201 39.139999 0.000000 -0.301490 -0.953469 0.366000 -0.299700 1 0 1.000000 
0 1.857901 -12.385000 39.139999 0.000000 0.000000 -1.000000 0.435600 -0.285900 1 0 1.000000 
PLASTERWALL010I
0 1.857899 12.287900 39.139999 0.000000 0.000000 -1.000000 0.564900 -0.285900 1 0 1.000000 
0 5.554699 25.397900 39.139999 -0.000000 0.302605 -0.953116 0.633600 -0.299700 1 0 1.000000 
0 5.554699 20.353901 39.139999 0.000000 0.000000 -1.000000 0.607200 -0.299700 1 0 1.000000 
PLASTERWALL010I
0 -0.000001 25.397900 39.139999 -0.000000 0.185894 -0.982570 0.633600 -0.277600 1 0 1.000000 
0 5.554699 25.397900 39.139999 -0.000000 0.302605 -0.953116 0.633600 -0.299700 1 0 1.000000 
0 1.857899 12.287900 39.139999 0.000000 0.000000 -1.000000 0.564900 -0.285900 1 0 1.000000 
PLASTERWALL010I
0 1.857899 12.287900 39.139999 0.000000 0.000000 -1.000000 0.564900 -0.285900 1 0 1.000000 
0 1.857901 -12.385000 39.139999 0.000000 0.000000 -1.000000 0.435600 -0.285900 1 0 1.000000 
0 -0.000001 25.397900 39.139999 -0.000000 0.185894 -0.982570 0.633600 -0.277600 1 0 1.000000 
PLASTERWALL010I
0 0.000001 -25.659201 39.139999 0.000000 -0.249799 -0.968297 0.366000 -0.277600 1 0 1.000000 
0 -0.000001 25.397900 39.139999 -0.000000 0.185894 -0.982570 0.633600 -0.277600 1 0 1.000000 
0 1.857901 -12.385000 39.139999 0.000000 0.000000 -1.000000 0.435600 -0.285900 1 0 1.000000 
PLASTERWALL010I
0 5.554701 -25.659201 39.139999 0.000000 -0.301490 -0.953469 0.366000 -0.299700 1 0 1.000000 
0 0.000001 -25.659201 39.139999 0.000000 -0.249799 -0.968297 0.366000 -0.277600 1 0 1.000000 
0 1.857901 -12.385000 39.139999 0.000000 0.000000 -1.000000 0.435600 -0.285900 1 0 1.000000 
PLASTERWALL010I
0 5.554701 -25.659201 39.139999 0.000000 -0.301490 -0.953469 0.366000 -0.299700 1 0 1.000000 
0 0.000001 -26.757200 40.216599 0.000000 -0.700122 -0.714023 0.360200 -0.277600 1 0 1.000000 
0 0.000001 -25.659201 39.139999 0.000000 -0.249799 -0.968297 0.366000 -0.277600 1 0 1.000000 
PLASTERWALL010I
0 5.554701 -25.659201 39.139999 0.000000 -0.301490 -0.953469 0.366000 -0.299700 1 0 1.000000 
0 5.554701 -26.757200 40.216599 0.000000 -0.700122 -0.714023 0.360200 -0.299700 1 0 1.000000 
0 0.000001 -26.757200 40.216599 0.000000 -0.700122 -0.714023 0.360200 -0.277600 1 0 1.000000 
PLASTERWALL010I
0 -0.000001 26.570101 40.296299 -0.000000 0.702290 -0.711890 0.639800 -0.277600 1 0 1.000000 
0 5.554699 25.397900 39.139999 -0.000000 0.302605 -0.953116 0.633600 -0.299700 1 0 1.000000 
0 -0.000001 25.397900 39.139999 -0.000000 0.185894 -0.982570 0.633600 -0.277600 1 0 1.000000 
PLASTERWALL010I
0 5.554699 26.570101 40.296299 -0.000000 0.702290 -0.711890 0.639800 -0.299700 1 0 1.000000 
0 5.554699 25.397900 39.139999 -0.000000 0.302605 -0.953116 0.633600 -0.299700 1 0 1.000000 
0 -0.000001 26.570101 40.296299 -0.000000 0.702290 -0.711890 0.639800 -0.277600 1 0 1.000000 
PLASTERWALL010I
0 0.000001 -20.854900 -30.978600 0.000000 0.000000 -1.000000 0.589300 -0.320000 1 0 1.000000 
0 0.000001 -15.195900 -30.978600 0.000000 0.000000 -1.000000 0.589300 -0.320000 1 0 1.000000 
0 1.831101 -20.854900 -30.978600 0.000000 0.000000 -1.000000 0.589300 -0.313000 1 0 1.000000 
PLASTERWALL010I
0 1.831101 -15.195900 -30.978600 0.000000 0.000000 -1.000000 0.589300 -0.313000 1 0 1.000000 
0 1.831101 -20.854900 -30.978600 0.000000 0.000000 -1.000000 0.589300 -0.313000 1 0 1.000000 
0 0.000001 -15.195900 -30.978600 0.000000 0.000000 -1.000000 0.589300 -0.320000 1 0 1.000000 
PLASTERWALL010I
0 -0.000001 15.197000 23.306601 0.000000 -1.000000 0.000000 0.380100 -0.320000 1 0 1.000000 
0 -0.000001 15.197000 -30.978600 0.000000 -1.000000 0.000000 0.589300 -0.320000 1 0 1.000000 
0 1.831099 15.197000 23.306601 0.000000 -1.000000 0.000000 0.380100 -0.313000 1 0 1.000000 
PLASTERWALL010I
0 1.831099 15.197000 -30.978600 0.000000 -1.000000 0.000000 0.589300 -0.313000 1 0 1.000000 
0 1.831099 15.197000 23.306601 0.000000 -1.000000 0.000000 0.380100 -0.313000 1 0 1.000000 
0 -0.000001 15.197000 -30.978600 0.000000 -1.000000 0.000000 0.589300 -0.320000 1 0 1.000000 
PLASTERWALL010I
0 1.857900 -3.897000 41.514599 1.000000 0.000000 0.000000 0.469100 -0.221000 1 0 1.000000 
0 1.857901 -12.385000 39.139999 1.000000 0.000000 0.000000 0.403000 -0.239600 1 0 1.000000 
0 1.857900 3.799800 41.514599 1.000000 0.000000 0.000000 0.529100 -0.221000 1 0 1.000000 
PLASTERWALL010I
0 1.857901 -12.385000 39.139999 1.000000 0.000000 0.000000 0.403000 -0.239600 1 0 1.000000 
0 1.857899 12.287900 39.139999 1.000000 0.000000 0.000000 0.595100 -0.239600 1 0 1.000000 
0 1.857900 3.799800 41.514599 1.000000 0.000000 0.000000 0.529100 -0.221000 1 0 1.000000 
PLASTERWALL010I
0 0.104599 21.054300 35.819599 -0.999304 -0.000000 0.037300 0.331800 -0.319600 1 0 1.000000 
0 0.104599 23.761400 35.819599 -0.999304 -0.000000 0.037300 0.331800 -0.319600 1 0 1.000000 
0 -0.000001 21.054300 21.673201 -1.000000 -0.000000 0.000000 0.386400 -0.320000 1 0 1.000000 
PLASTERWALL010I
0 -0.000001 23.470400 21.673201 -1.000000 -0.000000 0.000000 0.386400 -0.320000 1 0 1.000000 
0 -0.000001 21.054300 21.673201 -1.000000 -0.000000 0.000000 0.386400 -0.320000 1 0 1.000000 
0 0.104599 23.761400 35.819599 -0.999304 -0.000000 0.037300 0.331800 -0.319600 1 0 1.000000 
PLASTERWALL010I
0 -0.000001 21.048401 -55.909100 -0.000000 0.990982 -0.133998 0.685400 -0.320000 1 0 1.000000 
0 -0.000001 21.600599 -51.826698 -0.000000 0.998996 -0.044800 0.669700 -0.320000 1 0 1.000000 
0 1.959399 21.600599 -51.826698 -0.000000 0.995987 -0.089499 0.669700 -0.312500 1 0 1.000000 
PLASTERWALL010I
0 4.011999 21.600599 -43.661800 -0.000000 1.000000 0.000000 0.638200 -0.304700 1 0 1.000000 
0 1.959399 21.600599 -51.826698 -0.000000 0.995987 -0.089499 0.669700 -0.312500 1 0 1.000000 
0 -0.000001 21.600599 -51.826698 -0.000000 0.998996 -0.044800 0.669700 -0.320000 1 0 1.000000 
PLASTERWALL010I
0 -0.000001 21.600599 -51.826698 -0.000000 0.998996 -0.044800 0.669700 -0.320000 1 0 1.000000 
0 -0.000001 21.600599 -36.069000 -0.000000 1.000000 0.000000 0.608900 -0.320000 1 0 1.000000 
0 4.011999 21.600599 -43.661800 -0.000000 1.000000 0.000000 0.638200 -0.304700 1 0 1.000000 
PLASTERWALL010I
0 4.518699 21.600599 -36.069901 -0.000000 1.000000 0.000000 0.608900 -0.302700 1 0 1.000000 
0 4.011999 21.600599 -43.661800 -0.000000 1.000000 0.000000 0.638200 -0.304700 1 0 1.000000 
0 -0.000001 21.600599 -36.069000 -0.000000 1.000000 0.000000 0.608900 -0.320000 1 0 1.000000 
PLASTERWALL010I
0 3.812801 -20.779499 35.819599 0.988625 0.000000 -0.150404 0.337700 -0.265400 1 0 1.000000 
0 3.812801 -23.486500 35.819599 0.988625 0.000000 -0.150404 0.316600 -0.265400 1 0 1.000000 
0 2.576901 -23.486500 27.693600 0.998546 0.000000 -0.053902 0.316600 -0.328800 1 0 1.000000 
PLASTERWALL010I
0 2.576901 -23.486500 27.693600 0.998546 0.000000 -0.053902 0.316600 -0.328800 1 0 1.000000 
0 2.576901 -20.779499 27.693600 0.999939 0.000000 -0.011000 0.337700 -0.328800 1 0 1.000000 
0 3.812801 -20.779499 35.819599 0.988625 0.000000 -0.150404 0.337700 -0.265400 1 0 1.000000 
PLASTERWALL010I
0 2.576901 -20.779499 27.693600 0.999939 0.000000 -0.011000 0.337700 -0.328800 1 0 1.000000 
0 2.576901 -23.486500 27.693600 0.998546 0.000000 -0.053902 0.316600 -0.328800 1 0 1.000000 
0 2.805901 -23.486500 26.080700 0.996103 0.000000 -0.088200 0.316600 -0.341400 1 0 1.000000 
PLASTERWALL010I
0 2.805901 -23.486500 26.080700 0.996103 0.000000 -0.088200 0.316600 -0.341400 1 0 1.000000 
0 2.805901 -20.779499 26.080700 0.989285 0.000000 -0.145998 0.337700 -0.341400 1 0 1.000000 
0 2.576901 -20.779499 27.693600 0.999939 0.000000 -0.011000 0.337700 -0.328800 1 0 1.000000 
PLASTERWALL010I
0 2.805901 -20.779499 26.080700 0.989285 0.000000 -0.145998 0.337700 -0.341400 1 0 1.000000 
0 2.805901 -23.486500 26.080700 0.996103 0.000000 -0.088200 0.316600 -0.341400 1 0 1.000000 
0 1.508601 -23.195499 21.714800 0.958588 0.000000 -0.284796 0.318900 -0.375400 1 0 1.000000 
PLASTERWALL010I
0 1.508601 -23.195499 21.714800 0.958588 0.000000 -0.284796 0.318900 -0.375400 1 0 1.000000 
0 1.508601 -20.779499 21.714800 0.958588 0.000000 -0.284796 0.337700 -0.375400 1 0 1.000000 
0 2.805901 -20.779499 26.080700 0.989285 0.000000 -0.145998 0.337700 -0.341400 1 0 1.000000 
PLASTERWALL010I
0 1.508601 -23.195499 21.714800 -0.000500 -0.994649 -0.103305 0.386200 -0.314300 1 0 1.000000 
0 2.805901 -23.486500 26.080700 0.000000 -1.000000 0.000000 0.369400 -0.309300 1 0 1.000000 
0 0.000001 -23.195499 21.673201 0.002800 -0.994821 -0.101602 0.386400 -0.320000 1 0 1.000000 
PLASTERWALL010I
0 0.104601 -23.486500 35.819599 0.000000 -1.000000 0.000000 0.331800 -0.319600 1 0 1.000000 
0 0.000001 -23.195499 21.673201 0.002800 -0.994821 -0.101602 0.386400 -0.320000 1 0 1.000000 
0 2.805901 -23.486500 26.080700 0.000000 -1.000000 0.000000 0.369400 -0.309300 1 0 1.000000 
PLASTERWALL010I
0 2.805901 -23.486500 26.080700 0.000000 -1.000000 0.000000 0.369400 -0.309300 1 0 1.000000 
0 2.576901 -23.486500 27.693600 0.000000 -1.000000 0.000000 0.363200 -0.310200 1 0 1.000000 
0 0.104601 -23.486500 35.819599 0.000000 -1.000000 0.000000 0.331800 -0.319600 1 0 1.000000 
PLASTERWALL010I
0 2.576901 -23.486500 27.693600 0.000000 -1.000000 0.000000 0.363200 -0.310200 1 0 1.000000 
0 3.812801 -23.486500 35.819599 0.000000 -1.000000 0.000000 0.331800 -0.305400 1 0 1.000000 
0 0.104601 -23.486500 35.819599 0.000000 -1.000000 0.000000 0.331800 -0.319600 1 0 1.000000 
PLASTERWALL010I
0 1.508599 21.054300 21.714800 0.027601 0.000000 -0.999619 0.386200 -0.314300 1 0 1.000000 
0 -0.000001 23.470400 21.673201 0.027601 0.000000 -0.999619 0.386400 -0.320000 1 0 1.000000 
0 1.508599 23.470400 21.714800 0.027601 0.000000 -0.999619 0.386200 -0.314300 1 0 1.000000 
PLASTERWALL010I
0 -0.000001 23.470400 21.673201 0.027601 0.000000 -0.999619 0.386400 -0.320000 1 0 1.000000 
0 1.508599 21.054300 21.714800 0.027601 0.000000 -0.999619 0.386200 -0.314300 1 0 1.000000 
0 -0.000001 21.054300 21.673201 0.027601 0.000000 -0.999619 0.386400 -0.320000 1 0 1.000000 
PLASTERWALL010I
0 0.000001 -23.195499 21.673201 0.027601 0.000000 -0.999619 0.386400 -0.320000 1 0 1.000000 
0 0.000001 -20.779499 21.673201 0.027601 0.000000 -0.999619 0.386400 -0.320000 1 0 1.000000 
0 1.508601 -20.779499 21.714800 0.027601 0.000000 -0.999619 0.386200 -0.314300 1 0 1.000000 
PLASTERWALL010I
0 1.508601 -20.779499 21.714800 0.027601 0.000000 -0.999619 0.386200 -0.314300 1 0 1.000000 
0 1.508601 -23.195499 21.714800 0.027601 0.000000 -0.999619 0.386200 -0.314300 1 0 1.000000 
0 0.000001 -23.195499 21.673201 0.027601 0.000000 -0.999619 0.386400 -0.320000 1 0 1.000000 
PLASTERWALL010I
0 1.831099 21.247999 -30.978600 0.000000 0.000000 -1.000000 0.589300 -0.313000 1 0 1.000000 
0 -0.000001 15.197000 -30.978600 0.000000 0.000000 -1.000000 0.589300 -0.320000 1 0 1.000000 
0 -0.000001 21.247999 -30.978600 0.000000 0.000000 -1.000000 0.589300 -0.320000 1 0 1.000000 
PLASTERWALL010I
0 -0.000001 15.197000 -30.978600 0.000000 0.000000 -1.000000 0.589300 -0.320000 1 0 1.000000 
0 1.831099 21.247999 -30.978600 0.000000 0.000000 -1.000000 0.589300 -0.313000 1 0 1.000000 
0 1.831099 15.197000 -30.978600 0.000000 0.000000 -1.000000 0.589300 -0.313000 1 0 1.000000 
PLASTERWALL010I
0 1.831101 -15.195900 23.306601 -0.000000 1.000000 0.000000 0.380100 -0.313000 1 0 1.000000 
0 1.831101 -15.195900 -30.978600 -0.000000 1.000000 0.000000 0.589300 -0.313000 1 0 1.000000 
0 0.000001 -15.195900 -30.978600 -0.000000 1.000000 0.000000 0.589300 -0.320000 1 0 1.000000 
PLASTERWALL010I
0 0.000001 -15.195900 -30.978600 -0.000000 1.000000 0.000000 0.589300 -0.320000 1 0 1.000000 
0 0.000001 -15.195900 23.306601 -0.000000 1.000000 0.000000 0.380100 -0.320000 1 0 1.000000 
0 1.831101 -15.195900 23.306601 -0.000000 1.000000 0.000000 0.380100 -0.313000 1 0 1.000000 
PLASTERWALL010I
0 1.831099 15.197000 23.306601 0.000000 0.000000 -1.000000 0.617800 -0.363000 1 0 1.000000 
0 0.000001 -15.195900 23.306601 0.000000 0.000000 -1.000000 0.381200 -0.363000 1 0 1.000000 
0 -0.000001 15.197000 23.306601 0.000000 0.000000 -1.000000 0.617800 -0.363000 1 0 1.000000 
PLASTERWALL010I
0 1.831099 15.197000 23.306601 0.000000 0.000000 -1.000000 0.617800 -0.363000 1 0 1.000000 
0 1.831101 -15.195900 23.306601 0.000000 0.000000 -1.000000 0.381200 -0.363000 1 0 1.000000 
0 0.000001 -15.195900 23.306601 0.000000 0.000000 -1.000000 0.381200 -0.363000 1 0 1.000000 
PLASTERWALL010I
0 0.000001 -20.396099 -55.909100 0.158199 -0.982894 -0.094299 0.685400 -0.320000 1 0 1.000000 
0 2.432601 -20.787701 -47.744301 0.079501 -0.995712 -0.047301 0.653900 -0.310700 1 0 1.000000 
0 0.000001 -20.787701 -51.826698 0.000000 -0.997969 -0.063698 0.669700 -0.320000 1 0 1.000000 
PLASTERWALL010I
0 2.432601 -20.787701 -47.744301 0.079501 -0.995712 -0.047301 0.653900 -0.310700 1 0 1.000000 
0 4.012001 -20.787701 -43.661800 0.000000 -1.000000 0.000000 0.638200 -0.304700 1 0 1.000000 
0 0.000001 -20.787701 -51.826698 0.000000 -0.997969 -0.063698 0.669700 -0.320000 1 0 1.000000 
PLASTERWALL010I
0 4.012001 -20.787701 -43.661800 0.000000 -1.000000 0.000000 0.638200 -0.304700 1 0 1.000000 
0 4.518701 -20.787701 -36.069901 0.000000 -1.000000 0.000000 0.608900 -0.302700 1 0 1.000000 
0 0.000001 -20.787701 -51.826698 0.000000 -0.997969 -0.063698 0.669700 -0.320000 1 0 1.000000 
PLASTERWALL010I
0 0.000001 -20.787701 -36.069000 0.000000 -1.000000 0.000000 0.608900 -0.320000 1 0 1.000000 
0 0.000001 -20.787701 -51.826698 0.000000 -0.997969 -0.063698 0.669700 -0.320000 1 0 1.000000 
0 4.518701 -20.787701 -36.069901 0.000000 -1.000000 0.000000 0.608900 -0.302700 1 0 1.000000 
PLASTERWALL010I
0 3.812801 -20.779499 35.819599 -0.000000 1.000000 0.000000 0.331800 -0.305400 1 0 1.000000 
0 2.576901 -20.779499 27.693600 -0.000000 1.000000 0.000000 0.363200 -0.310200 1 0 1.000000 
0 0.104601 -20.779499 35.819599 -0.000000 1.000000 0.000000 0.331800 -0.319600 1 0 1.000000 
PLASTERWALL010I
0 0.000001 -20.779499 21.673201 -0.000000 1.000000 0.000000 0.386400 -0.320000 1 0 1.000000 
0 0.104601 -20.779499 35.819599 -0.000000 1.000000 0.000000 0.331800 -0.319600 1 0 1.000000 
0 2.576901 -20.779499 27.693600 -0.000000 1.000000 0.000000 0.363200 -0.310200 1 0 1.000000 
PLASTERWALL010I
0 2.576901 -20.779499 27.693600 -0.000000 1.000000 0.000000 0.363200 -0.310200 1 0 1.000000 
0 2.805901 -20.779499 26.080700 -0.000000 1.000000 0.000000 0.369400 -0.309300 1 0 1.000000 
0 0.000001 -20.779499 21.673201 -0.000000 1.000000 0.000000 0.386400 -0.320000 1 0 1.000000 
PLASTERWALL010I
0 2.805901 -20.779499 26.080700 -0.000000 1.000000 0.000000 0.369400 -0.309300 1 0 1.000000 
0 1.508601 -20.779499 21.714800 -0.000000 1.000000 0.000000 0.386200 -0.314300 1 0 1.000000 
0 0.000001 -20.779499 21.673201 -0.000000 1.000000 0.000000 0.386400 -0.320000 1 0 1.000000 
PLASTERWALL010I
0 3.812799 21.054300 35.819599 0.000000 -1.000000 0.000000 0.331800 -0.305400 1 0 1.000000 
0 0.104599 21.054300 35.819599 0.000000 -1.000000 0.000000 0.331800 -0.319600 1 0 1.000000 
0 2.576899 21.054300 27.693600 0.000000 -1.000000 0.000000 0.363200 -0.310200 1 0 1.000000 
PLASTERWALL010I
0 -0.000001 21.054300 21.673201 0.000000 -1.000000 0.000000 0.386400 -0.320000 1 0 1.000000 
0 2.576899 21.054300 27.693600 0.000000 -1.000000 0.000000 0.363200 -0.310200 1 0 1.000000 
0 0.104599 21.054300 35.819599 0.000000 -1.000000 0.000000 0.331800 -0.319600 1 0 1.000000 
PLASTERWALL010I
0 2.576899 21.054300 27.693600 0.000000 -1.000000 0.000000 0.363200 -0.310200 1 0 1.000000 
0 -0.000001 21.054300 21.673201 0.000000 -1.000000 0.000000 0.386400 -0.320000 1 0 1.000000 
0 2.805899 21.054300 26.080700 0.000000 -1.000000 0.000000 0.369400 -0.309300 1 0 1.000000 
PLASTERWALL010I
0 2.805899 21.054300 26.080700 0.000000 -1.000000 0.000000 0.369400 -0.309300 1 0 1.000000 
0 -0.000001 21.054300 21.673201 0.000000 -1.000000 0.000000 0.386400 -0.320000 1 0 1.000000 
0 1.508599 21.054300 21.714800 0.000000 -1.000000 0.000000 0.386200 -0.314300 1 0 1.000000 
PLASTERWALL010I
0 -0.000001 24.278400 37.131199 -0.000000 0.841286 -0.540591 0.688500 -0.255200 1 0 1.000000 
0 -0.000001 25.115801 38.861301 -0.065201 0.898210 -0.434705 0.695000 -0.241700 1 0 1.000000 
0 6.575999 25.115801 37.874599 -0.000000 0.841286 -0.540591 0.695000 -0.249400 1 0 1.000000 
PLASTERWALL010I
0 6.575999 25.115801 37.874599 -0.000000 0.841286 -0.540591 0.695000 -0.249400 1 0 1.000000 
0 4.095499 24.278400 37.131199 -0.000000 0.912088 -0.409995 0.688500 -0.255200 1 0 1.000000 
0 -0.000001 24.278400 37.131199 -0.000000 0.841286 -0.540591 0.688500 -0.255200 1 0 1.000000 
PLASTERWALL010I
0 0.000001 -25.421801 37.874599 0.046697 -0.686156 -0.725954 0.301500 -0.249400 1 0 1.000000 
0 0.000001 -24.356800 37.131199 0.000000 -0.952771 -0.303691 0.309800 -0.255200 1 0 1.000000 
0 4.095501 -24.356800 37.131199 0.033401 -0.853625 -0.519815 0.309800 -0.255200 1 0 1.000000 
PLASTERWALL010I
0 4.095501 -24.356800 37.131199 0.033401 -0.853625 -0.519815 0.309800 -0.255200 1 0 1.000000 
0 6.576001 -25.421801 38.861301 0.092201 -0.783506 -0.614505 0.301500 -0.241700 1 0 1.000000 
0 0.000001 -25.421801 37.874599 0.046697 -0.686156 -0.725954 0.301500 -0.249400 1 0 1.000000 
PLASTERWALL010I
0 0.000001 -20.854900 35.157799 0.000000 -0.914277 -0.405090 0.334400 -0.320000 1 0 1.000000 
0 0.000001 -20.854900 -30.978600 0.000000 -1.000000 0.000000 0.589300 -0.320000 1 0 1.000000 
0 1.831101 -20.854900 -30.978600 0.000000 -1.000000 0.000000 0.589300 -0.313000 1 0 1.000000 
PLASTERWALL010I
0 1.831101 -20.854900 -30.978600 0.000000 -1.000000 0.000000 0.589300 -0.313000 1 0 1.000000 
0 1.831101 -20.854900 35.157799 0.000000 -0.586118 -0.810225 0.334400 -0.313000 1 0 1.000000 
0 0.000001 -20.854900 35.157799 0.000000 -0.914277 -0.405090 0.334400 -0.320000 1 0 1.000000 
PLASTERWALL010I
0 0.000001 -24.356800 35.901199 0.000000 -0.586118 -0.810225 0.331500 -0.320000 1 0 1.000000 
0 0.000001 -20.854900 35.157799 0.000000 -0.914277 -0.405090 0.334400 -0.320000 1 0 1.000000 
0 1.831101 -20.854900 35.157799 0.000000 -0.586118 -0.810225 0.334400 -0.313000 1 0 1.000000 
PLASTERWALL010I
0 1.831101 -20.854900 35.157799 0.000000 -0.586118 -0.810225 0.334400 -0.313000 1 0 1.000000 
0 4.095501 -24.356800 35.901199 0.000000 -0.914277 -0.405090 0.331500 -0.304400 1 0 1.000000 
0 0.000001 -24.356800 35.901199 0.000000 -0.586118 -0.810225 0.331500 -0.320000 1 0 1.000000 
PLASTERWALL010I
0 0.000001 -24.356800 37.131199 0.000000 -0.952771 -0.303691 0.326800 -0.320000 1 0 1.000000 
0 0.000001 -24.356800 35.901199 0.000000 -0.586118 -0.810225 0.331500 -0.320000 1 0 1.000000 
0 4.095501 -24.356800 35.901199 0.000000 -0.914277 -0.405090 0.331500 -0.304400 1 0 1.000000 
PLASTERWALL010I
0 4.095501 -24.356800 35.901199 0.000000 -0.914277 -0.405090 0.331500 -0.304400 1 0 1.000000 
0 4.095501 -24.356800 37.131199 0.033401 -0.853625 -0.519815 0.309800 -0.255200 1 0 1.000000 
0 0.000001 -24.356800 37.131199 0.000000 -0.952771 -0.303691 0.326800 -0.320000 1 0 1.000000 
PLASTERWALL010I
0 0.104599 21.054300 35.819599 0.000000 0.000000 1.000000 0.331800 -0.319600 1 0 1.000000 
0 3.812799 23.761400 35.819599 0.000000 0.000000 1.000000 0.331800 -0.305400 1 0 1.000000 
0 0.104599 23.761400 35.819599 0.000000 0.000000 1.000000 0.331800 -0.319600 1 0 1.000000 
PLASTERWALL010I
0 3.812799 23.761400 35.819599 0.000000 0.000000 1.000000 0.331800 -0.305400 1 0 1.000000 
0 0.104599 21.054300 35.819599 0.000000 0.000000 1.000000 0.331800 -0.319600 1 0 1.000000 
0 3.812799 21.054300 35.819599 0.000000 0.000000 1.000000 0.331800 -0.305400 1 0 1.000000 
PLASTERWALL010I
0 3.812801 -23.486500 35.819599 0.000000 0.000000 1.000000 0.331800 -0.305400 1 0 1.000000 
0 3.812801 -20.779499 35.819599 0.000000 0.000000 1.000000 0.331800 -0.305400 1 0 1.000000 
0 0.104601 -20.779499 35.819599 0.000000 0.000000 1.000000 0.331800 -0.319600 1 0 1.000000 
PLASTERWALL010I
0 0.104601 -20.779499 35.819599 0.000000 0.000000 1.000000 0.331800 -0.319600 1 0 1.000000 
0 0.104601 -23.486500 35.819599 0.000000 0.000000 1.000000 0.331800 -0.319600 1 0 1.000000 
0 3.812801 -23.486500 35.819599 0.000000 0.000000 1.000000 0.331800 -0.305400 1 0 1.000000 
PLASTERWALL010I
0 -0.000001 21.600599 -36.069000 0.000200 0.000000 1.000000 0.608900 -0.320000 1 0 1.000000 
0 -0.000001 16.098200 -36.069000 0.000200 0.000000 1.000000 0.608900 -0.320000 1 0 1.000000 
0 4.518700 16.098200 -36.069901 0.000200 0.000000 1.000000 0.608900 -0.302700 1 0 1.000000 
PLASTERWALL010I
0 4.518700 16.098200 -36.069901 0.000200 0.000000 1.000000 0.608900 -0.302700 1 0 1.000000 
0 4.518699 21.600599 -36.069901 0.000200 0.000000 1.000000 0.608900 -0.302700 1 0 1.000000 
0 -0.000001 21.600599 -36.069000 0.000200 0.000000 1.000000 0.608900 -0.320000 1 0 1.000000 
PLASTERWALL010I
0 1.508599 23.470400 21.714800 0.958588 0.000000 -0.284796 0.682200 -0.375400 1 0 1.000000 
0 2.805899 21.054300 26.080700 0.989285 0.000000 -0.145998 0.663400 -0.341400 1 0 1.000000 
0 1.508599 21.054300 21.714800 0.958588 0.000000 -0.284796 0.663400 -0.375400 1 0 1.000000 
PLASTERWALL010I
0 2.805899 21.054300 26.080700 0.989285 0.000000 -0.145998 0.663400 -0.341400 1 0 1.000000 
0 1.508599 23.470400 21.714800 0.958588 0.000000 -0.284796 0.682200 -0.375400 1 0 1.000000 
0 2.805899 23.761400 26.080700 0.996103 0.000000 -0.088200 0.684500 -0.341400 1 0 1.000000 
PLASTERWALL010I
0 2.805899 23.761400 26.080700 0.996103 0.000000 -0.088200 0.684500 -0.341400 1 0 1.000000 
0 2.576899 21.054300 27.693600 0.999939 0.000000 -0.011000 0.663400 -0.328800 1 0 1.000000 
0 2.805899 21.054300 26.080700 0.989285 0.000000 -0.145998 0.663400 -0.341400 1 0 1.000000 
PLASTERWALL010I
0 2.576899 21.054300 27.693600 0.999939 0.000000 -0.011000 0.663400 -0.328800 1 0 1.000000 
0 2.805899 23.761400 26.080700 0.996103 0.000000 -0.088200 0.684500 -0.341400 1 0 1.000000 
0 2.576899 23.761400 27.693600 0.998546 0.000000 -0.053902 0.684500 -0.328800 1 0 1.000000 
PLASTERWALL010I
0 2.576899 23.761400 27.693600 0.998546 0.000000 -0.053902 0.684500 -0.328800 1 0 1.000000 
0 3.812799 21.054300 35.819599 0.988625 0.000000 -0.150404 0.663400 -0.265400 1 0 1.000000 
0 2.576899 21.054300 27.693600 0.999939 0.000000 -0.011000 0.663400 -0.328800 1 0 1.000000 
PLASTERWALL010I
0 3.812799 21.054300 35.819599 0.988625 0.000000 -0.150404 0.663400 -0.265400 1 0 1.000000 
0 2.576899 23.761400 27.693600 0.998546 0.000000 -0.053902 0.684500 -0.328800 1 0 1.000000 
0 3.812799 23.761400 35.819599 0.988625 0.000000 -0.150404 0.684500 -0.265400 1 0 1.000000 
PLASTERWALL010I
0 0.000001 -15.044300 -36.069000 0.000200 0.000000 1.000000 0.608900 -0.320000 1 0 1.000000 
0 0.000001 -20.787701 -36.069000 0.000200 0.000000 1.000000 0.608900 -0.320000 1 0 1.000000 
0 4.518701 -20.787701 -36.069901 0.000200 0.000000 1.000000 0.608900 -0.302700 1 0 1.000000 
PLASTERWALL010I
0 4.518701 -20.787701 -36.069901 0.000200 0.000000 1.000000 0.608900 -0.302700 1 0 1.000000 
0 4.518701 -15.044300 -36.069901 0.000200 0.000000 1.000000 0.608900 -0.302700 1 0 1.000000 
0 0.000001 -15.044300 -36.069000 0.000200 0.000000 1.000000 0.608900 -0.320000 1 0 1.000000 
PLASTERWALL010I
0 4.518701 -15.044300 -36.069901 -0.000000 1.000000 0.000000 0.608900 -0.302700 1 0 1.000000 
0 4.012001 -15.044300 -43.661800 -0.000000 1.000000 0.000000 0.638200 -0.304700 1 0 1.000000 
0 0.000001 -15.044300 -36.069000 -0.000000 1.000000 0.000000 0.608900 -0.320000 1 0 1.000000 
PLASTERWALL010I
0 4.012001 -15.044300 -43.661800 -0.000000 1.000000 0.000000 0.638200 -0.304700 1 0 1.000000 
0 1.959401 -15.044300 -51.826698 -0.000000 0.998714 -0.050701 0.669700 -0.312500 1 0 1.000000 
0 0.000001 -15.044300 -36.069000 -0.000000 1.000000 0.000000 0.608900 -0.320000 1 0 1.000000 
PLASTERWALL010I
0 0.000001 -15.355500 -55.909100 -0.125103 0.992021 -0.015600 0.685400 -0.320000 1 0 1.000000 
0 0.000001 -15.044300 -36.069000 -0.000000 1.000000 0.000000 0.608900 -0.320000 1 0 1.000000 
0 1.959401 -15.044300 -51.826698 -0.000000 0.998714 -0.050701 0.669700 -0.312500 1 0 1.000000 
PLASTERWALL010I
0 5.107001 -21.297899 -36.024300 0.655711 0.000000 -0.755012 0.333600 -0.825500 1 0 1.000000 
0 5.106999 22.138300 -36.024300 0.655711 0.000000 -0.755012 0.671800 -0.825500 1 0 1.000000 
0 6.716699 23.256500 -34.626499 0.837153 0.000000 -0.546969 0.680500 -0.814600 1 0 1.000000 
PLASTERWALL010I
0 6.716699 23.256500 -34.626499 0.837153 0.000000 -0.546969 0.680500 -0.814600 1 0 1.000000 
0 6.716701 -22.502199 -34.626499 0.961874 0.000000 -0.273493 0.324300 -0.814600 1 0 1.000000 
0 5.107001 -21.297899 -36.024300 0.655711 0.000000 -0.755012 0.333600 -0.825500 1 0 1.000000 
PLASTERWALL010I
0 6.716701 -22.502199 -34.626499 0.961874 0.000000 -0.273493 0.324300 -0.814600 1 0 1.000000 
0 6.716699 23.256500 -34.626499 0.837153 0.000000 -0.546969 0.680500 -0.814600 1 0 1.000000 
0 6.716699 23.238701 -33.146000 0.939038 0.000000 -0.343814 0.680400 -0.803100 1 0 1.000000 
PLASTERWALL010I
0 6.716699 23.238701 -33.146000 0.939038 0.000000 -0.343814 0.680400 -0.803100 1 0 1.000000 
0 6.716701 -22.477600 -33.146000 0.795729 -0.006000 -0.605622 0.324500 -0.803100 1 0 1.000000 
0 6.716701 -22.502199 -34.626499 0.961874 0.000000 -0.273493 0.324300 -0.814600 1 0 1.000000 
PLASTERWALL010I
0 6.716701 -22.477600 -33.146000 0.795729 -0.006000 -0.605622 0.324500 -0.803100 1 0 1.000000 
0 6.716699 23.238701 -33.146000 0.939038 0.000000 -0.343814 0.680400 -0.803100 1 0 1.000000 
0 9.011799 23.876900 -32.004501 0.572074 -0.008100 -0.820162 0.685400 -0.794200 1 0 1.000000 
PLASTERWALL010I
0 9.011799 23.876900 -32.004501 0.572074 -0.008100 -0.820162 0.685400 -0.794200 1 0 1.000000 
0 9.011801 -23.215200 -30.962999 0.686373 -0.016099 -0.727071 0.318700 -0.786100 1 0 1.000000 
0 6.716701 -22.477600 -33.146000 0.795729 -0.006000 -0.605622 0.324500 -0.803100 1 0 1.000000 
PLASTERWALL010I
0 0.000001 -23.195499 21.673201 -1.000000 -0.000000 0.000000 0.386400 -0.320000 1 0 1.000000 
0 0.104601 -23.486500 35.819599 -0.999304 -0.000000 0.037300 0.331800 -0.319600 1 0 1.000000 
0 0.104601 -20.779499 35.819599 -0.999304 -0.000000 0.037300 0.331800 -0.319600 1 0 1.000000 
PLASTERWALL010I
0 0.104601 -20.779499 35.819599 -0.999304 -0.000000 0.037300 0.331800 -0.319600 1 0 1.000000 
0 0.000001 -20.779499 21.673201 -1.000000 -0.000000 0.000000 0.386400 -0.320000 1 0 1.000000 
0 0.000001 -23.195499 21.673201 -1.000000 -0.000000 0.000000 0.386400 -0.320000 1 0 1.000000 
PLASTERWALL010I
0 -0.000001 25.115801 38.861301 0.000000 0.000000 1.000000 0.632100 -0.277600 1 0 1.000000 
0 0.000001 -25.421801 37.874599 -0.148406 -0.019301 0.988738 0.367200 -0.277600 1 0 1.000000 
0 6.576001 -25.421801 38.861301 0.000000 0.000000 1.000000 0.367200 -0.304300 1 0 1.000000 
PLASTERWALL010I
0 6.576001 -25.421801 38.861301 0.000000 0.000000 1.000000 0.367200 -0.304300 1 0 1.000000 
0 6.575999 25.115801 37.874599 0.148406 0.019301 0.988738 0.632100 -0.304300 1 0 1.000000 
0 -0.000001 25.115801 38.861301 0.000000 0.000000 1.000000 0.632100 -0.277600 1 0 1.000000 
PLASTERWALL010I
0 -0.000001 23.876900 -30.962999 0.000000 0.000000 1.000000 0.625600 -0.277600 1 0 1.000000 
0 0.000001 -23.215200 -30.962999 0.000000 0.000000 1.000000 0.378800 -0.277600 1 0 1.000000 
0 9.011801 -23.215200 -30.962999 0.000000 0.000000 1.000000 0.378800 -0.324700 1 0 1.000000 
PLASTERWALL010I
0 9.011801 -23.215200 -30.962999 0.000000 0.000000 1.000000 0.378800 -0.324700 1 0 1.000000 
0 9.011799 23.876900 -32.004501 0.114805 0.022001 0.993144 0.625600 -0.324700 1 0 1.000000 
0 -0.000001 23.876900 -30.962999 0.000000 0.000000 1.000000 0.625600 -0.277600 1 0 1.000000 
PLASTERWALL010I
0 5.106999 22.138300 -36.024300 0.104503 0.000000 -0.994524 0.671800 -0.825500 1 0 1.000000 
0 5.107001 -21.297899 -36.024300 0.104503 0.000000 -0.994524 0.333600 -0.825500 1 0 1.000000 
0 0.000001 -21.297899 -36.560799 0.104503 0.000000 -0.994524 0.333600 -0.829700 1 0 1.000000 
PLASTERWALL010I
0 0.000001 -21.297899 -36.560799 0.104503 0.000000 -0.994524 0.333600 -0.829700 1 0 1.000000 
0 -0.000001 22.138300 -36.560799 0.104503 0.000000 -0.994524 0.671800 -0.829700 1 0 1.000000 
0 5.106999 22.138300 -36.024300 0.104503 0.000000 -0.994524 0.671800 -0.825500 1 0 1.000000 
PLASTERWALL010I
0 4.518700 16.098200 -36.069901 0.999964 0.000000 0.008500 0.624800 -0.825900 1 0 1.000000 
0 4.011999 21.600599 -43.661800 0.982283 -0.024500 -0.185797 0.667600 -0.885100 1 0 1.000000 
0 4.518699 21.600599 -36.069901 0.999964 0.000000 0.008500 0.667600 -0.825900 1 0 1.000000 
PLASTERWALL010I
0 4.011999 21.600599 -43.661800 0.982283 -0.024500 -0.185797 0.667600 -0.885100 1 0 1.000000 
0 4.518700 16.098200 -36.069901 0.999964 0.000000 0.008500 0.624800 -0.825900 1 0 1.000000 
0 4.012000 16.098200 -43.661800 0.978021 0.000000 -0.208505 0.624800 -0.885100 1 0 1.000000 
PLASTERWALL010I
0 4.011999 21.600599 -43.661800 0.982283 -0.024500 -0.185797 0.667600 -0.885100 1 0 1.000000 
0 4.012000 16.098200 -43.661800 0.978021 0.000000 -0.208505 0.624800 -0.885100 1 0 1.000000 
0 2.432599 16.098200 -47.744301 0.959734 0.000000 -0.280910 0.624800 -0.916900 1 0 1.000000 
PLASTERWALL010I
0 2.432599 16.098200 -47.744301 0.959734 0.000000 -0.280910 0.624800 -0.916900 1 0 1.000000 
0 1.959399 21.600599 -51.826698 0.943020 -0.077402 -0.323607 0.667600 -0.948700 1 0 1.000000 
0 4.011999 21.600599 -43.661800 0.982283 -0.024500 -0.185797 0.667600 -0.885100 1 0 1.000000 
PLASTERWALL010I
0 1.959399 21.600599 -51.826698 0.943020 -0.077402 -0.323607 0.667600 -0.948700 1 0 1.000000 
0 2.432599 16.098200 -47.744301 0.959734 0.000000 -0.280910 0.624800 -0.916900 1 0 1.000000 
0 -0.000001 16.594801 -55.909100 0.929199 -0.067300 -0.363400 0.628700 -0.980500 1 0 1.000000 
PLASTERWALL010I
0 -0.000001 16.594801 -55.909100 0.929199 -0.067300 -0.363400 0.628700 -0.980500 1 0 1.000000 
0 -0.000001 21.048401 -55.909100 0.901531 0.000000 -0.432715 0.663300 -0.980500 1 0 1.000000 
0 1.959399 21.600599 -51.826698 0.943020 -0.077402 -0.323607 0.667600 -0.948700 1 0 1.000000 
PLASTERWALL010I
0 6.575999 25.115801 37.874599 0.432499 -0.008100 -0.901598 0.695000 -0.249400 1 0 1.000000 
0 6.576001 -25.421801 38.861301 0.567325 -0.016101 -0.823336 0.301500 -0.241700 1 0 1.000000 
0 4.095501 -24.356800 37.131199 0.721199 -0.006300 -0.692699 0.309800 -0.255200 1 0 1.000000 
PLASTERWALL010I
0 4.095501 -24.356800 37.131199 0.721199 -0.006300 -0.692699 0.309800 -0.255200 1 0 1.000000 
0 4.095499 24.278400 37.131199 0.922377 0.000000 -0.386290 0.688500 -0.255200 1 0 1.000000 
0 6.575999 25.115801 37.874599 0.432499 -0.008100 -0.901598 0.695000 -0.249400 1 0 1.000000 
PLASTERWALL010I
0 4.095499 24.278400 37.131199 0.922377 0.000000 -0.386290 0.688500 -0.255200 1 0 1.000000 
0 4.095501 -24.356800 37.131199 0.721199 -0.006300 -0.692699 0.309800 -0.255200 1 0 1.000000 
0 4.095501 -24.356800 35.901199 0.924939 0.000000 -0.380116 0.309800 -0.264800 1 0 1.000000 
PLASTERWALL010I
0 4.095501 -24.356800 35.901199 0.924939 0.000000 -0.380116 0.309800 -0.264800 1 0 1.000000 
0 4.095499 24.278400 35.901199 0.649638 0.000000 -0.760244 0.688500 -0.264800 1 0 1.000000 
0 4.095499 24.278400 37.131199 0.922377 0.000000 -0.386290 0.688500 -0.255200 1 0 1.000000 
PLASTERWALL010I
0 4.095499 24.278400 35.901199 0.649638 0.000000 -0.760244 0.688500 -0.264800 1 0 1.000000 
0 4.095501 -24.356800 35.901199 0.924939 0.000000 -0.380116 0.309800 -0.264800 1 0 1.000000 
0 1.831101 -20.854900 35.157799 0.885620 0.000000 -0.464410 0.337100 -0.270600 1 0 1.000000 
PLASTERWALL010I
0 1.831101 -20.854900 35.157799 0.885620 0.000000 -0.464410 0.337100 -0.270600 1 0 1.000000 
0 1.831099 21.247999 35.157799 0.924939 0.000000 -0.380116 0.664900 -0.270600 1 0 1.000000 
0 4.095499 24.278400 35.901199 0.649638 0.000000 -0.760244 0.688500 -0.264800 1 0 1.000000 
PLASTERWALL010I
0 1.831099 15.197000 -30.978600 1.000000 0.000000 0.000000 0.617800 -0.786200 1 0 1.000000 
0 1.831099 21.247999 -30.978600 1.000000 0.000000 0.000000 0.664900 -0.786200 1 0 1.000000 
0 1.831099 15.197000 23.306601 1.000000 0.000000 0.000000 0.617800 -0.363000 1 0 1.000000 
PLASTERWALL010I
0 1.831099 21.247999 35.157799 0.924939 0.000000 -0.380116 0.664900 -0.270600 1 0 1.000000 
0 1.831099 15.197000 23.306601 1.000000 0.000000 0.000000 0.617800 -0.363000 1 0 1.000000 
0 1.831099 21.247999 -30.978600 1.000000 0.000000 0.000000 0.664900 -0.786200 1 0 1.000000 
PLASTERWALL010I
0 1.831099 21.247999 35.157799 0.924939 0.000000 -0.380116 0.664900 -0.270600 1 0 1.000000 
0 1.831101 -20.854900 35.157799 0.885620 0.000000 -0.464410 0.337100 -0.270600 1 0 1.000000 
0 1.831099 15.197000 23.306601 1.000000 0.000000 0.000000 0.617800 -0.363000 1 0 1.000000 
PLASTERWALL010I
0 1.831099 15.197000 23.306601 1.000000 0.000000 0.000000 0.617800 -0.363000 1 0 1.000000 
0 1.831101 -20.854900 35.157799 0.885620 0.000000 -0.464410 0.337100 -0.270600 1 0 1.000000 
0 1.831101 -15.195900 23.306601 1.000000 0.000000 0.000000 0.381200 -0.363000 1 0 1.000000 
PLASTERWALL010I
0 1.831101 -20.854900 35.157799 0.885620 0.000000 -0.464410 0.337100 -0.270600 1 0 1.000000 
0 1.831101 -20.854900 -30.978600 1.000000 0.000000 0.000000 0.337100 -0.786200 1 0 1.000000 
0 1.831101 -15.195900 23.306601 1.000000 0.000000 0.000000 0.381200 -0.363000 1 0 1.000000 
PLASTERWALL010I
0 1.831101 -15.195900 23.306601 1.000000 0.000000 0.000000 0.381200 -0.363000 1 0 1.000000 
0 1.831101 -20.854900 -30.978600 1.000000 0.000000 0.000000 0.337100 -0.786200 1 0 1.000000 
0 1.831101 -15.195900 -30.978600 1.000000 0.000000 0.000000 0.381200 -0.786200 1 0 1.000000 
PLASTERWALL010I
0 5.554700 -12.720800 43.234001 1.000000 0.000000 0.000000 0.400400 -0.207600 1 0 1.000000 
0 5.554701 -25.659201 39.139999 1.000000 0.000000 0.000000 0.299700 -0.239600 1 0 1.000000 
0 5.554701 -20.451099 39.139999 1.000000 0.000000 0.000000 0.340200 -0.239600 1 0 1.000000 
PLASTERWALL010I
0 5.554701 -26.757200 40.216599 1.000000 0.000000 0.000000 0.291100 -0.231200 1 0 1.000000 
0 5.554701 -25.659201 39.139999 1.000000 0.000000 0.000000 0.299700 -0.239600 1 0 1.000000 
0 5.554700 -12.720800 43.234001 1.000000 0.000000 0.000000 0.400400 -0.207600 1 0 1.000000 
PLASTERWALL010I
0 5.554701 -26.757200 40.216599 1.000000 0.000000 0.000000 0.291100 -0.231200 1 0 1.000000 
0 5.554700 -12.720800 43.234001 1.000000 0.000000 0.000000 0.400400 -0.207600 1 0 1.000000 
0 5.554701 -23.203100 43.365299 1.000000 0.000000 0.000000 0.318800 -0.206600 1 0 1.000000 
PLASTERWALL010I
0 5.554700 -4.356100 45.295700 1.000000 0.000000 0.000000 0.465600 -0.191600 1 0 1.000000 
0 5.554701 -23.203100 43.365299 1.000000 0.000000 0.000000 0.318800 -0.206600 1 0 1.000000 
0 5.554700 -12.720800 43.234001 1.000000 0.000000 0.000000 0.400400 -0.207600 1 0 1.000000 
PLASTERWALL010I
0 5.554700 -14.502400 47.931801 1.000000 0.000000 0.000000 0.386600 -0.171000 1 0 1.000000 
0 5.554701 -23.203100 43.365299 1.000000 0.000000 0.000000 0.318800 -0.206600 1 0 1.000000 
0 5.554700 -4.356100 45.295700 1.000000 0.000000 0.000000 0.465600 -0.191600 1 0 1.000000 
PLASTERWALL010I
0 5.554700 4.258901 45.295700 1.000000 0.000000 0.000000 0.532600 -0.191600 1 0 1.000000 
0 5.554700 -14.502400 47.931801 1.000000 0.000000 0.000000 0.386600 -0.171000 1 0 1.000000 
0 5.554700 -4.356100 45.295700 1.000000 0.000000 0.000000 0.465600 -0.191600 1 0 1.000000 
PLASTERWALL010I
0 5.554700 -4.961699 50.283298 1.000000 0.000000 0.000000 0.460800 -0.152700 1 0 1.000000 
0 5.554700 -14.502400 47.931801 1.000000 0.000000 0.000000 0.386600 -0.171000 1 0 1.000000 
0 5.554700 4.258901 45.295700 1.000000 0.000000 0.000000 0.532600 -0.191600 1 0 1.000000 
PLASTERWALL010I
0 5.554699 12.623600 43.234001 1.000000 0.000000 0.000000 0.597800 -0.207600 1 0 1.000000 
0 5.554700 -4.961699 50.283298 1.000000 0.000000 0.000000 0.460800 -0.152700 1 0 1.000000 
0 5.554700 4.258901 45.295700 1.000000 0.000000 0.000000 0.532600 -0.191600 1 0 1.000000 
PLASTERWALL010I
0 5.554700 4.864501 50.283298 1.000000 0.000000 0.000000 0.537300 -0.152700 1 0 1.000000 
0 5.554700 -4.961699 50.283298 1.000000 0.000000 0.000000 0.460800 -0.152700 1 0 1.000000 
0 5.554699 12.623600 43.234001 1.000000 0.000000 0.000000 0.597800 -0.207600 1 0 1.000000 
PLASTERWALL010I
0 5.554699 20.353901 39.139999 1.000000 0.000000 0.000000 0.657900 -0.239600 1 0 1.000000 
0 5.554700 4.864501 50.283298 1.000000 0.000000 0.000000 0.537300 -0.152700 1 0 1.000000 
0 5.554699 12.623600 43.234001 1.000000 0.000000 0.000000 0.597800 -0.207600 1 0 1.000000 
PLASTERWALL010I
0 5.554699 14.405200 47.931801 1.000000 0.000000 0.000000 0.611600 -0.171000 1 0 1.000000 
0 5.554700 4.864501 50.283298 1.000000 0.000000 0.000000 0.537300 -0.152700 1 0 1.000000 
0 5.554699 20.353901 39.139999 1.000000 0.000000 0.000000 0.657900 -0.239600 1 0 1.000000 
PLASTERWALL010I
0 5.554699 14.405200 47.931801 1.000000 0.000000 0.000000 0.611600 -0.171000 1 0 1.000000 
0 5.554699 20.353901 39.139999 1.000000 0.000000 0.000000 0.657900 -0.239600 1 0 1.000000 
0 5.554699 26.570101 40.296299 1.000000 0.000000 0.000000 0.706300 -0.230500 1 0 1.000000 
PLASTERWALL010I
0 5.554699 20.353901 39.139999 1.000000 0.000000 0.000000 0.657900 -0.239600 1 0 1.000000 
0 5.554699 25.397900 39.139999 1.000000 0.000000 0.000000 0.697200 -0.239600 1 0 1.000000 
0 5.554699 26.570101 40.296299 1.000000 0.000000 0.000000 0.706300 -0.230500 1 0 1.000000 
PLASTERWALL010I
0 -0.000001 21.600599 -51.826698 -1.000000 -0.000000 0.000000 0.669700 -0.320000 1 0 1.000000 
0 -0.000001 21.048401 -55.909100 -1.000000 -0.000000 0.000000 0.685400 -0.320000 1 0 1.000000 
0 -0.000001 16.594801 -55.909100 -1.000000 -0.000000 0.000000 0.685400 -0.320000 1 0 1.000000 
PLASTERWALL010I
0 -0.000001 16.594801 -55.909100 -1.000000 -0.000000 0.000000 0.685400 -0.320000 1 0 1.000000 
0 -0.000001 16.098200 -51.826698 -1.000000 -0.000000 0.000000 0.669700 -0.320000 1 0 1.000000 
0 -0.000001 21.600599 -51.826698 -1.000000 -0.000000 0.000000 0.669700 -0.320000 1 0 1.000000 
PLASTERWALL010I
0 -0.000001 21.600599 -36.069000 -1.000000 -0.000000 0.000000 0.608900 -0.320000 1 0 1.000000 
0 -0.000001 21.600599 -51.826698 -1.000000 -0.000000 0.000000 0.669700 -0.320000 1 0 1.000000 
0 -0.000001 16.098200 -51.826698 -1.000000 -0.000000 0.000000 0.669700 -0.320000 1 0 1.000000 
PLASTERWALL010I
0 -0.000001 16.098200 -51.826698 -1.000000 -0.000000 0.000000 0.669700 -0.320000 1 0 1.000000 
0 -0.000001 16.098200 -36.069000 -1.000000 -0.000000 0.000000 0.608900 -0.320000 1 0 1.000000 
0 -0.000001 21.600599 -36.069000 -1.000000 -0.000000 0.000000 0.608900 -0.320000 1 0 1.000000 
PLASTERWALL010I
0 0.000001 -20.787701 -51.826698 -1.000000 -0.000000 0.000000 0.669700 -0.320000 1 0 1.000000 
0 0.000001 -20.787701 -36.069000 -1.000000 -0.000000 0.000000 0.608900 -0.320000 1 0 1.000000 
0 0.000001 -15.044300 -36.069000 -1.000000 -0.000000 0.000000 0.608900 -0.320000 1 0 1.000000 
PLASTERWALL010I
0 0.000001 -15.044300 -36.069000 -1.000000 -0.000000 0.000000 0.608900 -0.320000 1 0 1.000000 
0 0.000001 -15.355500 -55.909100 -1.000000 -0.000000 0.000000 0.685400 -0.320000 1 0 1.000000 
0 0.000001 -20.787701 -51.826698 -1.000000 -0.000000 0.000000 0.669700 -0.320000 1 0 1.000000 
PLASTERWALL010I
0 0.000001 -20.396099 -55.909100 -1.000000 -0.000000 0.000000 0.685400 -0.320000 1 0 1.000000 
0 0.000001 -20.787701 -51.826698 -1.000000 -0.000000 0.000000 0.669700 -0.320000 1 0 1.000000 
0 0.000001 -15.355500 -55.909100 -1.000000 -0.000000 0.000000 0.685400 -0.320000 1 0 1.000000 
PLASTERWALL010I
0 5.554699 26.570101 40.296299 0.067999 0.598291 0.798388 0.639800 -0.299700 1 0 1.000000 
0 -0.000001 26.570101 40.296299 -0.000000 0.663115 0.748517 0.639800 -0.277600 1 0 1.000000 
0 -0.000001 23.105900 43.365299 -0.000000 0.534298 0.845296 0.621600 -0.277600 1 0 1.000000 
PLASTERWALL010I
0 -0.000001 23.105900 43.365299 -0.000000 0.534298 0.845296 0.621600 -0.277600 1 0 1.000000 
0 5.554699 14.405200 47.931801 -0.000000 0.392108 0.919919 0.576000 -0.299700 1 0 1.000000 
0 5.554699 26.570101 40.296299 0.067999 0.598291 0.798388 0.639800 -0.299700 1 0 1.000000 
PLASTERWALL010I
0 -0.000001 23.105900 43.365299 -0.000000 0.534298 0.845296 0.621600 -0.277600 1 0 1.000000 
0 -0.000001 14.405200 47.931801 -0.000000 0.316498 0.948593 0.576000 -0.277600 1 0 1.000000 
0 5.554699 14.405200 47.931801 -0.000000 0.392108 0.919919 0.576000 -0.299700 1 0 1.000000 
PLASTERWALL010I
0 -0.000001 14.405200 47.931801 -0.000000 0.316498 0.948593 0.576000 -0.277600 1 0 1.000000 
0 5.554700 4.864501 50.283298 -0.000000 0.160603 0.987019 0.526000 -0.299700 1 0 1.000000 
0 5.554699 14.405200 47.931801 -0.000000 0.392108 0.919919 0.576000 -0.299700 1 0 1.000000 
PLASTERWALL010I
0 -0.000001 14.405200 47.931801 -0.000000 0.316498 0.948593 0.576000 -0.277600 1 0 1.000000 
0 -0.000000 4.864500 50.283298 -0.000000 0.080298 0.996771 0.526000 -0.277600 1 0 1.000000 
0 5.554700 4.864501 50.283298 -0.000000 0.160603 0.987019 0.526000 -0.299700 1 0 1.000000 
PLASTERWALL010I
0 -0.000000 4.864500 50.283298 -0.000000 0.080298 0.996771 0.526000 -0.277600 1 0 1.000000 
0 5.554700 -4.961699 50.283298 0.000000 -0.080298 0.996771 0.474500 -0.299700 1 0 1.000000 
0 5.554700 4.864501 50.283298 -0.000000 0.160603 0.987019 0.526000 -0.299700 1 0 1.000000 
PLASTERWALL010I
0 -0.000000 4.864500 50.283298 -0.000000 0.080298 0.996771 0.526000 -0.277600 1 0 1.000000 
0 0.000000 -4.961700 50.283298 0.000000 -0.160603 0.987019 0.474500 -0.277600 1 0 1.000000 
0 5.554700 -4.961699 50.283298 0.000000 -0.080298 0.996771 0.474500 -0.299700 1 0 1.000000 
PLASTERWALL010I
0 0.000000 -4.961700 50.283298 0.000000 -0.160603 0.987019 0.474500 -0.277600 1 0 1.000000 
0 5.554700 -14.502400 47.931801 0.000000 -0.316498 0.948593 0.424500 -0.299700 1 0 1.000000 
0 5.554700 -4.961699 50.283298 0.000000 -0.080298 0.996771 0.474500 -0.299700 1 0 1.000000 
PLASTERWALL010I
0 0.000000 -4.961700 50.283298 0.000000 -0.160603 0.987019 0.474500 -0.277600 1 0 1.000000 
0 0.000001 -14.502400 47.931801 0.000000 -0.392108 0.919919 0.424500 -0.277600 1 0 1.000000 
0 5.554700 -14.502400 47.931801 0.000000 -0.316498 0.948593 0.424500 -0.299700 1 0 1.000000 
PLASTERWALL010I
0 0.000001 -14.502400 47.931801 0.000000 -0.392108 0.919919 0.424500 -0.277600 1 0 1.000000 
0 5.554701 -23.203100 43.365299 0.000000 -0.568081 0.822973 0.378900 -0.299700 1 0 1.000000 
0 5.554700 -14.502400 47.931801 0.000000 -0.316498 0.948593 0.424500 -0.299700 1 0 1.000000 
PLASTERWALL010I
0 0.000001 -14.502400 47.931801 0.000000 -0.392108 0.919919 0.424500 -0.277600 1 0 1.000000 
0 0.000001 -26.757200 40.216599 -0.069101 -0.598806 0.797908 0.360200 -0.277600 1 0 1.000000 
0 5.554701 -23.203100 43.365299 0.000000 -0.568081 0.822973 0.378900 -0.299700 1 0 1.000000 
PLASTERWALL010I
0 5.554701 -26.757200 40.216599 0.000000 -0.663115 0.748517 0.360200 -0.299700 1 0 1.000000 
0 5.554701 -23.203100 43.365299 0.000000 -0.568081 0.822973 0.378900 -0.299700 1 0 1.000000 
0 0.000001 -26.757200 40.216599 -0.069101 -0.598806 0.797908 0.360200 -0.277600 1 0 1.000000 
PLASTERWALL010I
0 0.000001 -15.195900 23.306601 -1.000000 -0.000000 0.000000 0.381200 -0.363000 1 0 1.000000 
0 0.000001 -15.195900 -30.978600 -1.000000 -0.000000 0.000000 0.589300 -0.320000 1 0 1.000000 
0 0.000001 -20.854900 -30.978600 -1.000000 -0.000000 0.000000 0.589300 -0.320000 1 0 1.000000 
PLASTERWALL010I
0 0.000001 -20.854900 -30.978600 -1.000000 -0.000000 0.000000 0.589300 -0.320000 1 0 1.000000 
0 0.000001 -20.854900 35.157799 -1.000000 -0.000000 0.000000 0.337100 -0.270600 1 0 1.000000 
0 0.000001 -15.195900 23.306601 -1.000000 -0.000000 0.000000 0.381200 -0.363000 1 0 1.000000 
PLASTERWALL010I
0 0.000001 -15.195900 23.306601 -1.000000 -0.000000 0.000000 0.381200 -0.363000 1 0 1.000000 
0 0.000001 -20.854900 35.157799 -1.000000 -0.000000 0.000000 0.337100 -0.270600 1 0 1.000000 
0 -0.000001 15.197000 23.306601 -1.000000 -0.000000 0.000000 0.617800 -0.363000 1 0 1.000000 
PLASTERWALL010I
0 0.000001 -20.854900 35.157799 -1.000000 -0.000000 0.000000 0.337100 -0.270600 1 0 1.000000 
0 -0.000001 21.247999 35.157799 -1.000000 -0.000000 0.000000 0.664900 -0.270600 1 0 1.000000 
0 -0.000001 15.197000 23.306601 -1.000000 -0.000000 0.000000 0.617800 -0.363000 1 0 1.000000 
PLASTERWALL010I
0 -0.000001 24.278400 37.131199 -1.000000 -0.000000 0.000000 0.688500 -0.255200 1 0 1.000000 
0 -0.000001 21.247999 35.157799 -1.000000 -0.000000 0.000000 0.664900 -0.270600 1 0 1.000000 
0 0.000001 -20.854900 35.157799 -1.000000 -0.000000 0.000000 0.337100 -0.270600 1 0 1.000000 
PLASTERWALL010I
0 0.000001 -20.854900 35.157799 -1.000000 -0.000000 0.000000 0.337100 -0.270600 1 0 1.000000 
0 0.000001 -24.356800 35.901199 -1.000000 -0.000000 0.000000 0.309800 -0.264800 1 0 1.000000 
0 -0.000001 24.278400 37.131199 -1.000000 -0.000000 0.000000 0.688500 -0.255200 1 0 1.000000 
PLASTERWALL010I
0 0.000001 -24.356800 35.901199 -1.000000 -0.000000 0.000000 0.309800 -0.264800 1 0 1.000000 
0 0.000001 -24.356800 37.131199 -1.000000 -0.000000 0.000000 0.309800 -0.255200 1 0 1.000000 
0 -0.000001 24.278400 37.131199 -1.000000 -0.000000 0.000000 0.688500 -0.255200 1 0 1.000000 
PLASTERWALL010I
0 -0.000001 25.115801 38.861301 -1.000000 -0.000000 0.000000 0.695000 -0.241700 1 0 1.000000 
0 -0.000001 24.278400 37.131199 -1.000000 -0.000000 0.000000 0.688500 -0.255200 1 0 1.000000 
0 0.000001 -24.356800 37.131199 -1.000000 -0.000000 0.000000 0.309800 -0.255200 1 0 1.000000 
PLASTERWALL010I
0 0.000001 -24.356800 37.131199 -1.000000 -0.000000 0.000000 0.309800 -0.255200 1 0 1.000000 
0 0.000001 -25.421801 37.874599 -1.000000 -0.000000 0.000000 0.301500 -0.249400 1 0 1.000000 
0 -0.000001 25.115801 38.861301 -1.000000 -0.000000 0.000000 0.695000 -0.241700 1 0 1.000000 
PLASTERWALL010I
0 1.857899 12.287900 39.139999 0.724499 -0.226500 -0.650999 0.595100 -0.239600 1 0 1.000000 
0 5.554699 20.353901 39.139999 0.714478 -0.327490 -0.618281 0.657900 -0.239600 1 0 1.000000 
0 5.554699 12.623600 43.234001 0.717286 -0.273195 -0.640988 0.597800 -0.207600 1 0 1.000000 
PLASTERWALL010I
0 5.554699 12.623600 43.234001 0.717286 -0.273195 -0.640988 0.597800 -0.207600 1 0 1.000000 
0 5.554700 4.258901 45.295700 0.717310 -0.111902 -0.687709 0.532600 -0.191600 1 0 1.000000 
0 1.857899 12.287900 39.139999 0.724499 -0.226500 -0.650999 0.595100 -0.239600 1 0 1.000000 
PLASTERWALL010I
0 1.857900 3.799800 41.514599 0.717309 -0.055901 -0.694509 0.529100 -0.221000 1 0 1.000000 
0 1.857899 12.287900 39.139999 0.724499 -0.226500 -0.650999 0.595100 -0.239600 1 0 1.000000 
0 5.554700 4.258901 45.295700 0.717310 -0.111902 -0.687709 0.532600 -0.191600 1 0 1.000000 
PLASTERWALL010I
0 5.554700 4.258901 45.295700 0.717310 -0.111902 -0.687709 0.532600 -0.191600 1 0 1.000000 
0 5.554700 -4.356100 45.295700 0.717309 0.055901 -0.694509 0.465600 -0.191600 1 0 1.000000 
0 1.857900 3.799800 41.514599 0.717309 -0.055901 -0.694509 0.529100 -0.221000 1 0 1.000000 
PLASTERWALL010I
0 1.857900 -3.897000 41.514599 0.717310 0.111902 -0.687709 0.469100 -0.221000 1 0 1.000000 
0 1.857900 3.799800 41.514599 0.717309 -0.055901 -0.694509 0.529100 -0.221000 1 0 1.000000 
0 5.554700 -4.356100 45.295700 0.717309 0.055901 -0.694509 0.465600 -0.191600 1 0 1.000000 
PLASTERWALL010I
0 5.554700 -4.356100 45.295700 0.717309 0.055901 -0.694509 0.465600 -0.191600 1 0 1.000000 
0 5.554700 -12.720800 43.234001 0.729761 0.256986 -0.633566 0.400400 -0.207600 1 0 1.000000 
0 1.857900 -3.897000 41.514599 0.717310 0.111902 -0.687709 0.469100 -0.221000 1 0 1.000000 
PLASTERWALL010I
0 1.857901 -12.385000 39.139999 0.714896 0.325598 -0.618797 0.403000 -0.239600 1 0 1.000000 
0 1.857900 -3.897000 41.514599 0.717310 0.111902 -0.687709 0.469100 -0.221000 1 0 1.000000 
0 5.554700 -12.720800 43.234001 0.729761 0.256986 -0.633566 0.400400 -0.207600 1 0 1.000000 
PLASTERWALL010I
0 5.554701 -20.451099 39.139999 0.714478 0.327490 -0.618281 0.340200 -0.239600 1 0 1.000000 
0 1.857901 -12.385000 39.139999 0.714896 0.325598 -0.618797 0.403000 -0.239600 1 0 1.000000 
0 5.554700 -12.720800 43.234001 0.729761 0.256986 -0.633566 0.400400 -0.207600 1 0 1.000000 
PLASTERWALL010I
0 4.518701 -20.787701 -36.069901 0.999964 0.000000 0.008500 0.337600 -0.825900 1 0 1.000000 
0 4.012001 -15.044300 -43.661800 0.982288 -0.023500 -0.185898 0.382300 -0.885100 1 0 1.000000 
0 4.518701 -15.044300 -36.069901 0.999964 0.000000 0.008500 0.382300 -0.825900 1 0 1.000000 
PLASTERWALL010I
0 4.012001 -15.044300 -43.661800 0.982288 -0.023500 -0.185898 0.382300 -0.885100 1 0 1.000000 
0 4.518701 -20.787701 -36.069901 0.999964 0.000000 0.008500 0.337600 -0.825900 1 0 1.000000 
0 4.012001 -20.787701 -43.661800 0.978021 0.000000 -0.208505 0.337600 -0.885100 1 0 1.000000 
PLASTERWALL010I
0 4.012001 -15.044300 -43.661800 0.982288 -0.023500 -0.185898 0.382300 -0.885100 1 0 1.000000 
0 4.012001 -20.787701 -43.661800 0.978021 0.000000 -0.208505 0.337600 -0.885100 1 0 1.000000 
0 2.432601 -20.787701 -47.744301 0.959734 0.000000 -0.280910 0.337600 -0.916900 1 0 1.000000 
PLASTERWALL010I
0 2.432601 -20.787701 -47.744301 0.959734 0.000000 -0.280910 0.337600 -0.916900 1 0 1.000000 
0 1.959401 -15.044300 -51.826698 0.943492 -0.073699 -0.323097 0.382300 -0.948700 1 0 1.000000 
0 4.012001 -15.044300 -43.661800 0.982288 -0.023500 -0.185898 0.382300 -0.885100 1 0 1.000000 
PLASTERWALL010I
0 1.959401 -15.044300 -51.826698 0.943492 -0.073699 -0.323097 0.382300 -0.948700 1 0 1.000000 
0 2.432601 -20.787701 -47.744301 0.959734 0.000000 -0.280910 0.337600 -0.916900 1 0 1.000000 
0 0.000001 -20.396099 -55.909100 0.929792 -0.063899 -0.362497 0.340700 -0.980500 1 0 1.000000 
PLASTERWALL010I
0 0.000001 -20.396099 -55.909100 0.929792 -0.063899 -0.362497 0.340700 -0.980500 1 0 1.000000 
0 0.000001 -15.355500 -55.909100 0.901531 0.000000 -0.432715 0.379900 -0.980500 1 0 1.000000 
0 1.959401 -15.044300 -51.826698 0.943492 -0.073699 -0.323097 0.382300 -0.948700 1 0 1.000000 
PLASTERWALL010I
0 4.012000 16.098200 -43.661800 0.000000 -1.000000 0.000000 0.638200 -0.304700 1 0 1.000000 
0 4.518700 16.098200 -36.069901 0.000000 -1.000000 0.000000 0.608900 -0.302700 1 0 1.000000 
0 -0.000001 16.098200 -36.069000 0.000000 -1.000000 0.000000 0.608900 -0.320000 1 0 1.000000 
PLASTERWALL010I
0 -0.000001 16.098200 -36.069000 0.000000 -1.000000 0.000000 0.608900 -0.320000 1 0 1.000000 
0 -0.000001 16.098200 -51.826698 0.000000 -0.996746 -0.080604 0.669700 -0.320000 1 0 1.000000 
0 4.012000 16.098200 -43.661800 0.000000 -1.000000 0.000000 0.638200 -0.304700 1 0 1.000000 
PLASTERWALL010I
0 2.432599 16.098200 -47.744301 0.100000 -0.993201 -0.059600 0.653900 -0.310700 1 0 1.000000 
0 4.012000 16.098200 -43.661800 0.000000 -1.000000 0.000000 0.638200 -0.304700 1 0 1.000000 
0 -0.000001 16.098200 -51.826698 0.000000 -0.996746 -0.080604 0.669700 -0.320000 1 0 1.000000 
PLASTERWALL010I
0 -0.000001 16.594801 -55.909100 0.198603 -0.972914 -0.118302 0.685400 -0.320000 1 0 1.000000 
0 2.432599 16.098200 -47.744301 0.100000 -0.993201 -0.059600 0.653900 -0.310700 1 0 1.000000 
0 -0.000001 16.098200 -51.826698 0.000000 -0.996746 -0.080604 0.669700 -0.320000 1 0 1.000000 
PLASTERWALL010I
0 1.508599 23.470400 21.714800 -0.000500 0.994649 -0.103305 0.386200 -0.314300 1 0 1.000000 
0 -0.000001 23.470400 21.673201 0.002800 0.994821 -0.101602 0.386400 -0.320000 1 0 1.000000 
0 2.805899 23.761400 26.080700 -0.000000 1.000000 0.000000 0.369400 -0.309300 1 0 1.000000 
PLASTERWALL010I
0 0.104599 23.761400 35.819599 -0.000000 1.000000 0.000000 0.331800 -0.319600 1 0 1.000000 
0 2.805899 23.761400 26.080700 -0.000000 1.000000 0.000000 0.369400 -0.309300 1 0 1.000000 
0 -0.000001 23.470400 21.673201 0.002800 0.994821 -0.101602 0.386400 -0.320000 1 0 1.000000 
PLASTERWALL010I
0 2.805899 23.761400 26.080700 -0.000000 1.000000 0.000000 0.369400 -0.309300 1 0 1.000000 
0 0.104599 23.761400 35.819599 -0.000000 1.000000 0.000000 0.331800 -0.319600 1 0 1.000000 
0 2.576899 23.761400 27.693600 -0.000000 1.000000 0.000000 0.363200 -0.310200 1 0 1.000000 
PLASTERWALL010I
0 2.576899 23.761400 27.693600 -0.000000 1.000000 0.000000 0.363200 -0.310200 1 0 1.000000 
0 0.104599 23.761400 35.819599 -0.000000 1.000000 0.000000 0.331800 -0.319600 1 0 1.000000 
0 3.812799 23.761400 35.819599 -0.000000 1.000000 0.000000 0.331800 -0.305400 1 0 1.000000 
PLASTERWALL010I
0 6.716699 23.256500 -34.626499 0.024700 0.913186 -0.406794 0.680500 -0.814600 1 0 1.000000 
0 5.106999 22.138300 -36.024300 0.070502 0.737719 -0.671417 0.671800 -0.825500 1 0 1.000000 
0 -0.000001 22.138300 -36.560799 0.000300 0.865280 -0.501288 0.671800 -0.829700 1 0 1.000000 
PLASTERWALL010I
0 -0.000001 22.138300 -36.560799 0.000300 0.865280 -0.501288 0.671800 -0.829700 1 0 1.000000 
0 -0.000001 23.238701 -33.146000 -0.000000 0.943523 -0.331308 0.680400 -0.803100 1 0 1.000000 
0 6.716699 23.256500 -34.626499 0.024700 0.913186 -0.406794 0.680500 -0.814600 1 0 1.000000 
PLASTERWALL010I
0 6.716699 23.238701 -33.146000 -0.000000 0.969194 -0.246298 0.680400 -0.803100 1 0 1.000000 
0 6.716699 23.256500 -34.626499 0.024700 0.913186 -0.406794 0.680500 -0.814600 1 0 1.000000 
0 -0.000001 23.238701 -33.146000 -0.000000 0.943523 -0.331308 0.680400 -0.803100 1 0 1.000000 
PLASTERWALL010I
0 9.011799 23.876900 -32.004501 -0.000000 0.942248 -0.334917 0.685400 -0.794200 1 0 1.000000 
0 6.716699 23.238701 -33.146000 -0.000000 0.969194 -0.246298 0.680400 -0.803100 1 0 1.000000 
0 -0.000001 23.238701 -33.146000 -0.000000 0.943523 -0.331308 0.680400 -0.803100 1 0 1.000000 
PLASTERWALL010I
0 -0.000001 23.238701 -33.146000 -0.000000 0.943523 -0.331308 0.680400 -0.803100 1 0 1.000000 
0 -0.000001 23.876900 -30.962999 -0.032401 0.959333 -0.280410 0.685400 -0.786100 1 0 1.000000 
0 9.011799 23.876900 -32.004501 -0.000000 0.942248 -0.334917 0.685400 -0.794200 1 0 1.000000 
PLASTERWALL010I
0 0.000001 -22.477600 -33.146000 -1.000000 -0.000000 0.000000 0.324500 -0.803100 1 0 1.000000 
0 0.000001 -23.215200 -30.962999 -1.000000 -0.000000 0.000000 0.318700 -0.786100 1 0 1.000000 
0 -0.000001 23.876900 -30.962999 -1.000000 -0.000000 0.000000 0.685400 -0.786100 1 0 1.000000 
PLASTERWALL010I
0 -0.000001 23.876900 -30.962999 -1.000000 -0.000000 0.000000 0.685400 -0.786100 1 0 1.000000 
0 -0.000001 23.238701 -33.146000 -1.000000 -0.000000 0.000000 0.680400 -0.803100 1 0 1.000000 
0 0.000001 -22.477600 -33.146000 -1.000000 -0.000000 0.000000 0.324500 -0.803100 1 0 1.000000 
PLASTERWALL010I
0 0.000001 -22.502199 -34.626499 -1.000000 -0.000000 0.000000 0.324300 -0.814600 1 0 1.000000 
0 0.000001 -22.477600 -33.146000 -1.000000 -0.000000 0.000000 0.324500 -0.803100 1 0 1.000000 
0 -0.000001 23.238701 -33.146000 -1.000000 -0.000000 0.000000 0.680400 -0.803100 1 0 1.000000 
PLASTERWALL010I
0 0.000001 -21.297899 -36.560799 -1.000000 -0.000000 0.000000 0.333600 -0.829700 1 0 1.000000 
0 0.000001 -22.502199 -34.626499 -1.000000 -0.000000 0.000000 0.324300 -0.814600 1 0 1.000000 
0 -0.000001 23.238701 -33.146000 -1.000000 -0.000000 0.000000 0.680400 -0.803100 1 0 1.000000 
PLASTERWALL010I
0 -0.000001 23.238701 -33.146000 -1.000000 -0.000000 0.000000 0.680400 -0.803100 1 0 1.000000 
0 -0.000001 22.138300 -36.560799 -1.000000 -0.000000 0.000000 0.671800 -0.829700 1 0 1.000000 
0 0.000001 -21.297899 -36.560799 -1.000000 -0.000000 0.000000 0.333600 -0.829700 1 0 1.000000 
PLASTERWALL010I
0 1.831099 21.247999 35.157799 -0.000000 0.917351 -0.398079 0.334400 -0.313000 1 0 1.000000 
0 1.831099 21.247999 -30.978600 -0.000000 1.000000 0.000000 0.589300 -0.313000 1 0 1.000000 
0 -0.000001 21.247999 -30.978600 -0.000000 1.000000 0.000000 0.589300 -0.320000 1 0 1.000000 
PLASTERWALL010I
0 -0.000001 21.247999 -30.978600 -0.000000 1.000000 0.000000 0.589300 -0.320000 1 0 1.000000 
0 -0.000001 21.247999 35.157799 -0.096705 0.700535 -0.707035 0.334400 -0.320000 1 0 1.000000 
0 1.831099 21.247999 35.157799 -0.000000 0.917351 -0.398079 0.334400 -0.313000 1 0 1.000000 
PLASTERWALL010I
0 4.095499 24.278400 35.901199 -0.096705 0.700535 -0.707035 0.331500 -0.304400 1 0 1.000000 
0 1.831099 21.247999 35.157799 -0.000000 0.917351 -0.398079 0.334400 -0.313000 1 0 1.000000 
0 -0.000001 21.247999 35.157799 -0.096705 0.700535 -0.707035 0.334400 -0.320000 1 0 1.000000 
PLASTERWALL010I
0 -0.000001 21.247999 35.157799 -0.096705 0.700535 -0.707035 0.334400 -0.320000 1 0 1.000000 
0 -0.000001 24.278400 37.131199 -0.000000 0.841286 -0.540591 0.326800 -0.320000 1 0 1.000000 
0 4.095499 24.278400 35.901199 -0.096705 0.700535 -0.707035 0.331500 -0.304400 1 0 1.000000 
PLASTERWALL010I
0 4.095499 24.278400 37.131199 -0.000000 0.912088 -0.409995 0.326800 -0.304400 1 0 1.000000 
0 4.095499 24.278400 35.901199 -0.096705 0.700535 -0.707035 0.331500 -0.304400 1 0 1.000000 
0 -0.000001 24.278400 37.131199 -0.000000 0.841286 -0.540591 0.326800 -0.320000 1 0 1.000000 
PLASTERWALL010I
0 0.000001 -22.502199 -34.626499 0.019399 -0.912871 -0.407787 0.324300 -0.814600 1 0 1.000000 
0 0.000001 -21.297899 -36.560799 0.055401 -0.847616 -0.527710 0.333600 -0.829700 1 0 1.000000 
0 5.107001 -21.297899 -36.024300 0.027800 -0.805307 -0.592205 0.333600 -0.825500 1 0 1.000000 
PLASTERWALL010I
0 5.107001 -21.297899 -36.024300 0.027800 -0.805307 -0.592205 0.333600 -0.825500 1 0 1.000000 
0 6.716701 -22.502199 -34.626499 0.000000 -0.975681 -0.219196 0.324300 -0.814600 1 0 1.000000 
0 0.000001 -22.502199 -34.626499 0.019399 -0.912871 -0.407787 0.324300 -0.814600 1 0 1.000000 
PLASTERWALL010I
0 0.000001 -22.477600 -33.146000 0.000000 -0.984283 -0.176597 0.324500 -0.803100 1 0 1.000000 
0 0.000001 -22.502199 -34.626499 0.019399 -0.912871 -0.407787 0.324300 -0.814600 1 0 1.000000 
0 6.716701 -22.502199 -34.626499 0.000000 -0.975681 -0.219196 0.324300 -0.814600 1 0 1.000000 
PLASTERWALL010I
0 6.716701 -22.502199 -34.626499 0.000000 -0.975681 -0.219196 0.324300 -0.814600 1 0 1.000000 
0 6.716701 -22.477600 -33.146000 0.000000 -0.988071 -0.153996 0.324500 -0.803100 1 0 1.000000 
0 0.000001 -22.477600 -33.146000 0.000000 -0.984283 -0.176597 0.324500 -0.803100 1 0 1.000000 
PLASTERWALL010I
0 6.716701 -22.477600 -33.146000 0.000000 -0.988071 -0.153996 0.324500 -0.803100 1 0 1.000000 
0 9.011801 -23.215200 -30.962999 0.000000 -0.947385 -0.320095 0.318700 -0.786100 1 0 1.000000 
0 0.000001 -22.477600 -33.146000 0.000000 -0.984283 -0.176597 0.324500 -0.803100 1 0 1.000000 
PLASTERWALL010I
0 0.000001 -23.215200 -30.962999 0.000000 -0.947385 -0.320095 0.318700 -0.786100 1 0 1.000000 
0 0.000001 -22.477600 -33.146000 0.000000 -0.984283 -0.176597 0.324500 -0.803100 1 0 1.000000 
0 9.011801 -23.215200 -30.962999 0.000000 -0.947385 -0.320095 0.318700 -0.786100 1 0 1.000000 
end
