version 1
nodes
  0 "static_prop" -1
end
skeleton
time 0
0 0.000000 0.000000 0.000000 0.000000 0.000000 0.000000
end
triangles
PLASTERWALL010I
0 1.959401 -15.044300 -51.826698 -0.000000 0.998714 -0.050701 0.382300 -0.948700 1 0 1.000000 
0 0.825601 -15.355500 -55.909100 -0.000000 0.997108 -0.076001 0.379900 -0.980500 1 0 1.000000 
0 0.000001 -15.355500 -55.909100 -0.000000 0.997108 -0.076001 0.379900 -0.980500 1 0 1.000000 
PLASTERWALL010I
0 -0.000001 26.570101 40.296299 -1.000000 -0.000000 0.000000 0.639800 -0.277600 1 0 1.000000 
0 0.000001 -25.659201 39.139999 -1.000000 -0.000000 0.000000 0.366000 -0.277600 1 0 1.000000 
0 -0.000001 23.105900 43.365299 -1.000000 -0.000000 0.000000 0.621600 -0.277600 1 0 1.000000 
PLASTERWALL010I
0 -0.000001 25.397900 39.139999 -1.000000 -0.000000 0.000000 0.633600 -0.277600 1 0 1.000000 
0 0.000001 -25.659201 39.139999 -1.000000 -0.000000 0.000000 0.366000 -0.277600 1 0 1.000000 
0 -0.000001 26.570101 40.296299 -1.000000 -0.000000 0.000000 0.639800 -0.277600 1 0 1.000000 
PLASTERWALL010I
0 0.000001 -25.659201 39.139999 -1.000000 -0.000000 0.000000 0.366000 -0.277600 1 0 1.000000 
0 0.000001 -26.757200 40.216599 -1.000000 -0.000000 0.000000 0.360200 -0.277600 1 0 1.000000 
0 0.000001 -23.203100 43.365299 -1.000000 -0.000000 0.000000 0.378900 -0.277600 1 0 1.000000 
PLASTERWALL010I
0 0.000001 -23.203100 43.365299 -1.000000 -0.000000 0.000000 0.378900 -0.277600 1 0 1.000000 
0 0.000001 -14.502400 47.931801 -1.000000 -0.000000 0.000000 0.424500 -0.277600 1 0 1.000000 
0 0.000001 -25.659201 39.139999 -1.000000 -0.000000 0.000000 0.366000 -0.277600 1 0 1.000000 
PLASTERWALL010I
0 0.000001 -25.659201 39.139999 -1.000000 -0.000000 0.000000 0.366000 -0.277600 1 0 1.000000 
0 0.000001 -14.502400 47.931801 -1.000000 -0.000000 0.000000 0.424500 -0.277600 1 0 1.000000 
0 -0.000000 4.864500 50.283298 -1.000000 -0.000000 0.000000 0.526000 -0.277600 1 0 1.000000 
PLASTERWALL010I
0 -0.000000 4.864500 50.283298 -1.000000 -0.000000 0.000000 0.526000 -0.277600 1 0 1.000000 
0 -0.000001 23.105900 43.365299 -1.000000 -0.000000 0.000000 0.621600 -0.277600 1 0 1.000000 
0 0.000001 -25.659201 39.139999 -1.000000 -0.000000 0.000000 0.366000 -0.277600 1 0 1.000000 
PLASTERWALL010I
0 -0.000001 14.405200 47.931801 -1.000000 -0.000000 0.000000 0.576000 -0.277600 1 0 1.000000 
0 -0.000001 23.105900 43.365299 -1.000000 -0.000000 0.000000 0.621600 -0.277600 1 0 1.000000 
0 -0.000000 4.864500 50.283298 -1.000000 -0.000000 0.000000 0.526000 -0.277600 1 0 1.000000 
PLASTERWALL010I
0 0.000000 -4.961700 50.283298 -1.000000 -0.000000 0.000000 0.474500 -0.277600 1 0 1.000000 
0 -0.000000 4.864500 50.283298 -1.000000 -0.000000 0.000000 0.526000 -0.277600 1 0 1.000000 
0 0.000001 -14.502400 47.931801 -1.000000 -0.000000 0.000000 0.424500 -0.277600 1 0 1.000000 
PLASTERWALL010I
0 1.959399 21.600599 -51.826698 -0.000000 0.995987 -0.089499 0.667600 -0.948700 1 0 1.000000 
0 0.825599 21.048401 -55.909100 -0.000000 0.990982 -0.133998 0.663300 -0.980500 1 0 1.000000 
0 -0.000001 21.048401 -55.909100 -0.000000 0.990982 -0.133998 0.663300 -0.980500 1 0 1.000000 
PLASTERWALL010I
0 0.000001 -20.779499 33.015099 -0.000000 1.000000 0.000000 0.342600 -0.320000 1 0 1.000000 
0 0.104601 -20.779499 35.819599 -0.000000 1.000000 0.000000 0.331800 -0.319600 1 0 1.000000 
0 3.812801 -20.779499 35.819599 -0.000000 1.000000 0.000000 0.331800 -0.305400 1 0 1.000000 
PLASTERWALL010I
0 3.812801 -20.779499 35.819599 -0.000000 1.000000 0.000000 0.331800 -0.305400 1 0 1.000000 
0 3.812801 -20.779499 33.015099 -0.000000 1.000000 0.000000 0.342600 -0.305400 1 0 1.000000 
0 0.000001 -20.779499 33.015099 -0.000000 1.000000 0.000000 0.342600 -0.320000 1 0 1.000000 
PLASTERWALL010I
0 3.812801 -20.779499 33.015099 -0.000000 1.000000 0.000000 0.342600 -0.305400 1 0 1.000000 
0 3.372101 -20.779499 30.102900 -0.000000 1.000000 0.000000 0.353900 -0.307100 1 0 1.000000 
0 0.000001 -20.779499 33.015099 -0.000000 1.000000 0.000000 0.342600 -0.320000 1 0 1.000000 
PLASTERWALL010I
0 3.372101 -20.779499 30.102900 -0.000000 1.000000 0.000000 0.353900 -0.307100 1 0 1.000000 
0 2.576901 -20.779499 27.693600 -0.000000 1.000000 0.000000 0.363200 -0.310200 1 0 1.000000 
0 0.000001 -20.779499 33.015099 -0.000000 1.000000 0.000000 0.342600 -0.320000 1 0 1.000000 
PLASTERWALL010I
0 0.000001 -20.779499 21.673201 -0.000000 1.000000 0.000000 0.386400 -0.320000 1 0 1.000000 
0 0.000001 -20.779499 33.015099 -0.000000 1.000000 0.000000 0.342600 -0.320000 1 0 1.000000 
0 2.576901 -20.779499 27.693600 -0.000000 1.000000 0.000000 0.363200 -0.310200 1 0 1.000000 
PLASTERWALL010I
0 2.576901 -20.779499 27.693600 -0.000000 1.000000 0.000000 0.363200 -0.310200 1 0 1.000000 
0 2.805901 -20.779499 26.080700 -0.000000 1.000000 0.000000 0.369400 -0.309300 1 0 1.000000 
0 0.000001 -20.779499 21.673201 -0.000000 1.000000 0.000000 0.386400 -0.320000 1 0 1.000000 
PLASTERWALL010I
0 2.805901 -20.779499 26.080700 -0.000000 1.000000 0.000000 0.369400 -0.309300 1 0 1.000000 
0 1.787401 -20.779499 24.457300 -0.000000 1.000000 0.000000 0.375600 -0.313200 1 0 1.000000 
0 0.000001 -20.779499 21.673201 -0.000000 1.000000 0.000000 0.386400 -0.320000 1 0 1.000000 
PLASTERWALL010I
0 1.787401 -20.779499 24.457300 -0.000000 1.000000 0.000000 0.375600 -0.313200 1 0 1.000000 
0 1.508601 -20.779499 21.714800 -0.000000 1.000000 0.000000 0.386200 -0.314300 1 0 1.000000 
0 0.000001 -20.779499 21.673201 -0.000000 1.000000 0.000000 0.386400 -0.320000 1 0 1.000000 
PLASTERWALL010I
0 5.554701 -20.451099 39.139999 0.000000 0.000000 -1.000000 0.393300 -0.299700 1 0 1.000000 
0 5.554701 -25.659201 39.139999 0.000000 -0.301490 -0.953469 0.366000 -0.299700 1 0 1.000000 
0 1.857901 -12.385000 39.139999 0.000000 0.000000 -1.000000 0.435600 -0.285900 1 0 1.000000 
PLASTERWALL010I
0 1.857899 12.287900 39.139999 0.000000 0.000000 -1.000000 0.564900 -0.285900 1 0 1.000000 
0 5.554699 25.397900 39.139999 -0.000000 0.302605 -0.953116 0.633600 -0.299700 1 0 1.000000 
0 5.554699 20.353901 39.139999 0.000000 0.000000 -1.000000 0.607200 -0.299700 1 0 1.000000 
PLASTERWALL010I
0 -0.000001 25.397900 39.139999 -0.000000 0.185894 -0.982570 0.633600 -0.277600 1 0 1.000000 
0 5.554699 25.397900 39.139999 -0.000000 0.302605 -0.953116 0.633600 -0.299700 1 0 1.000000 
0 1.857899 12.287900 39.139999 0.000000 0.000000 -1.000000 0.564900 -0.285900 1 0 1.000000 
PLASTERWALL010I
0 1.857899 12.287900 39.139999 0.000000 0.000000 -1.000000 0.564900 -0.285900 1 0 1.000000 
0 1.857901 -12.385000 39.139999 0.000000 0.000000 -1.000000 0.435600 -0.285900 1 0 1.000000 
0 -0.000001 25.397900 39.139999 -0.000000 0.185894 -0.982570 0.633600 -0.277600 1 0 1.000000 
PLASTERWALL010I
0 0.000001 -25.659201 39.139999 0.000000 -0.249799 -0.968297 0.366000 -0.277600 1 0 1.000000 
0 -0.000001 25.397900 39.139999 -0.000000 0.185894 -0.982570 0.633600 -0.277600 1 0 1.000000 
0 1.857901 -12.385000 39.139999 0.000000 0.000000 -1.000000 0.435600 -0.285900 1 0 1.000000 
PLASTERWALL010I
0 5.554701 -25.659201 39.139999 0.000000 -0.301490 -0.953469 0.366000 -0.299700 1 0 1.000000 
0 0.000001 -25.659201 39.139999 0.000000 -0.249799 -0.968297 0.366000 -0.277600 1 0 1.000000 
0 1.857901 -12.385000 39.139999 0.000000 0.000000 -1.000000 0.435600 -0.285900 1 0 1.000000 
PLASTERWALL010I
0 5.554701 -25.659201 39.139999 0.000000 -0.301490 -0.953469 0.366000 -0.299700 1 0 1.000000 
0 0.000001 -26.757200 40.216599 0.000000 -0.700122 -0.714023 0.360200 -0.277600 1 0 1.000000 
0 0.000001 -25.659201 39.139999 0.000000 -0.249799 -0.968297 0.366000 -0.277600 1 0 1.000000 
PLASTERWALL010I
0 5.554701 -25.659201 39.139999 0.000000 -0.301490 -0.953469 0.366000 -0.299700 1 0 1.000000 
0 5.554701 -26.757200 40.216599 0.000000 -0.700122 -0.714023 0.360200 -0.299700 1 0 1.000000 
0 0.000001 -26.757200 40.216599 0.000000 -0.700122 -0.714023 0.360200 -0.277600 1 0 1.000000 
PLASTERWALL010I
0 -0.000001 26.570101 40.296299 -0.000000 0.702290 -0.711890 0.639800 -0.277600 1 0 1.000000 
0 5.554699 25.397900 39.139999 -0.000000 0.302605 -0.953116 0.633600 -0.299700 1 0 1.000000 
0 -0.000001 25.397900 39.139999 -0.000000 0.185894 -0.982570 0.633600 -0.277600 1 0 1.000000 
PLASTERWALL010I
0 5.554699 26.570101 40.296299 -0.000000 0.702290 -0.711890 0.639800 -0.299700 1 0 1.000000 
0 5.554699 25.397900 39.139999 -0.000000 0.302605 -0.953116 0.633600 -0.299700 1 0 1.000000 
0 -0.000001 26.570101 40.296299 -0.000000 0.702290 -0.711890 0.639800 -0.277600 1 0 1.000000 
PLASTERWALL010I
0 0.000001 -20.854900 -30.978600 0.000000 0.000000 -1.000000 0.589300 -0.320000 1 0 1.000000 
0 0.000001 -15.195900 -30.978600 0.000000 0.000000 -1.000000 0.589300 -0.320000 1 0 1.000000 
0 1.831101 -20.854900 -30.978600 0.000000 0.000000 -1.000000 0.589300 -0.313000 1 0 1.000000 
PLASTERWALL010I
0 1.831101 -15.195900 -30.978600 0.000000 0.000000 -1.000000 0.589300 -0.313000 1 0 1.000000 
0 1.831101 -20.854900 -30.978600 0.000000 0.000000 -1.000000 0.589300 -0.313000 1 0 1.000000 
0 0.000001 -15.195900 -30.978600 0.000000 0.000000 -1.000000 0.589300 -0.320000 1 0 1.000000 
PLASTERWALL010I
0 -0.000001 15.197000 23.306601 0.000000 -1.000000 0.000000 0.380100 -0.320000 1 0 1.000000 
0 -0.000001 15.197000 -30.978600 0.000000 -1.000000 0.000000 0.589300 -0.320000 1 0 1.000000 
0 1.831099 15.197000 23.306601 0.000000 -1.000000 0.000000 0.380100 -0.313000 1 0 1.000000 
PLASTERWALL010I
0 1.831099 15.197000 -30.978600 0.000000 -1.000000 0.000000 0.589300 -0.313000 1 0 1.000000 
0 1.831099 15.197000 23.306601 0.000000 -1.000000 0.000000 0.380100 -0.313000 1 0 1.000000 
0 -0.000001 15.197000 -30.978600 0.000000 -1.000000 0.000000 0.589300 -0.320000 1 0 1.000000 
PLASTERWALL010I
0 1.857900 -3.897000 41.514599 1.000000 0.000000 0.000000 0.469100 -0.221000 1 0 1.000000 
0 1.857901 -12.385000 39.139999 1.000000 0.000000 0.000000 0.403000 -0.239600 1 0 1.000000 
0 1.857900 3.799800 41.514599 1.000000 0.000000 0.000000 0.529100 -0.221000 1 0 1.000000 
PLASTERWALL010I
0 1.857901 -12.385000 39.139999 1.000000 0.000000 0.000000 0.403000 -0.239600 1 0 1.000000 
0 1.857899 12.287900 39.139999 1.000000 0.000000 0.000000 0.595100 -0.239600 1 0 1.000000 
0 1.857900 3.799800 41.514599 1.000000 0.000000 0.000000 0.529100 -0.221000 1 0 1.000000 
PLASTERWALL010I
0 -0.000001 21.048401 -55.909100 -0.000000 0.990982 -0.133998 0.685400 -0.320000 1 0 1.000000 
0 -0.000001 21.600599 -51.826698 -0.000000 0.998996 -0.044800 0.669700 -0.320000 1 0 1.000000 
0 1.959399 21.600599 -51.826698 -0.000000 0.995987 -0.089499 0.669700 -0.312500 1 0 1.000000 
PLASTERWALL010I
0 2.432599 21.600599 -47.744301 -0.000000 1.000000 0.000000 0.653900 -0.310700 1 0 1.000000 
0 1.959399 21.600599 -51.826698 -0.000000 0.995987 -0.089499 0.669700 -0.312500 1 0 1.000000 
0 -0.000001 21.600599 -51.826698 -0.000000 0.998996 -0.044800 0.669700 -0.320000 1 0 1.000000 
PLASTERWALL010I
0 4.011999 21.600599 -43.661800 -0.000000 1.000000 0.000000 0.638200 -0.304700 1 0 1.000000 
0 2.432599 21.600599 -47.744301 -0.000000 1.000000 0.000000 0.653900 -0.310700 1 0 1.000000 
0 -0.000001 21.600599 -51.826698 -0.000000 0.998996 -0.044800 0.669700 -0.320000 1 0 1.000000 
PLASTERWALL010I
0 -0.000001 21.600599 -51.826698 -0.000000 0.998996 -0.044800 0.669700 -0.320000 1 0 1.000000 
0 -0.000001 21.600599 -36.069000 -0.000000 1.000000 0.000000 0.608900 -0.320000 1 0 1.000000 
0 4.011999 21.600599 -43.661800 -0.000000 1.000000 0.000000 0.638200 -0.304700 1 0 1.000000 
PLASTERWALL010I
0 4.548599 21.600599 -39.579399 -0.000000 1.000000 0.000000 0.622500 -0.302600 1 0 1.000000 
0 4.011999 21.600599 -43.661800 -0.000000 1.000000 0.000000 0.638200 -0.304700 1 0 1.000000 
0 -0.000001 21.600599 -36.069000 -0.000000 1.000000 0.000000 0.608900 -0.320000 1 0 1.000000 
PLASTERWALL010I
0 4.518699 21.600599 -36.069901 -0.000000 1.000000 0.000000 0.608900 -0.302700 1 0 1.000000 
0 4.548599 21.600599 -39.579399 -0.000000 1.000000 0.000000 0.622500 -0.302600 1 0 1.000000 
0 -0.000001 21.600599 -36.069000 -0.000000 1.000000 0.000000 0.608900 -0.320000 1 0 1.000000 
PLASTERWALL010I
0 6.576001 -25.421801 38.861301 0.000000 0.000000 1.000000 0.367200 -0.304300 1 0 1.000000 
0 6.575999 25.115801 38.861301 0.000000 0.000000 1.000000 0.632100 -0.304300 1 0 1.000000 
0 -0.000001 25.115801 38.861301 0.000000 0.000000 1.000000 0.632100 -0.277600 1 0 1.000000 
PLASTERWALL010I
0 -0.000001 25.115801 38.861301 0.000000 0.000000 1.000000 0.632100 -0.277600 1 0 1.000000 
0 0.000001 -25.421801 38.861301 0.000000 0.000000 1.000000 0.367200 -0.277600 1 0 1.000000 
0 6.576001 -25.421801 38.861301 0.000000 0.000000 1.000000 0.367200 -0.304300 1 0 1.000000 
PLASTERWALL010I
0 -0.000001 16.594801 -55.909100 0.000000 0.000000 -1.000000 0.628700 -0.980500 1 0 1.000000 
0 -0.000001 21.048401 -55.909100 0.000000 0.000000 -1.000000 0.663300 -0.980500 1 0 1.000000 
0 0.825599 21.048401 -55.909100 0.000000 0.000000 -1.000000 0.663300 -0.980500 1 0 1.000000 
PLASTERWALL010I
0 0.825599 21.048401 -55.909100 0.000000 0.000000 -1.000000 0.663300 -0.980500 1 0 1.000000 
0 0.825599 16.594801 -55.909100 0.000000 0.000000 -1.000000 0.628700 -0.980500 1 0 1.000000 
0 -0.000001 16.594801 -55.909100 0.000000 0.000000 -1.000000 0.628700 -0.980500 1 0 1.000000 
PLASTERWALL010I
0 0.000001 -20.396099 -55.909100 0.000000 0.000000 -1.000000 0.340700 -0.980500 1 0 1.000000 
0 0.000001 -15.355500 -55.909100 0.000000 0.000000 -1.000000 0.379900 -0.980500 1 0 1.000000 
0 0.825601 -15.355500 -55.909100 0.000000 0.000000 -1.000000 0.379900 -0.980500 1 0 1.000000 
PLASTERWALL010I
0 0.825601 -15.355500 -55.909100 0.000000 0.000000 -1.000000 0.379900 -0.980500 1 0 1.000000 
0 0.825601 -20.396099 -55.909100 0.000000 0.000000 -1.000000 0.340700 -0.980500 1 0 1.000000 
0 0.000001 -20.396099 -55.909100 0.000000 0.000000 -1.000000 0.340700 -0.980500 1 0 1.000000 
PLASTERWALL010I
0 1.508599 21.054300 21.714800 0.027601 0.000000 -0.999619 0.386200 -0.314300 1 0 1.000000 
0 -0.000001 23.470400 21.673201 0.027601 0.000000 -0.999619 0.386400 -0.320000 1 0 1.000000 
0 1.508599 23.470400 21.714800 0.027601 0.000000 -0.999619 0.386200 -0.314300 1 0 1.000000 
PLASTERWALL010I
0 -0.000001 23.470400 21.673201 0.027601 0.000000 -0.999619 0.386400 -0.320000 1 0 1.000000 
0 1.508599 21.054300 21.714800 0.027601 0.000000 -0.999619 0.386200 -0.314300 1 0 1.000000 
0 -0.000001 21.054300 21.673201 0.027601 0.000000 -0.999619 0.386400 -0.320000 1 0 1.000000 
PLASTERWALL010I
0 0.000001 -23.195499 21.673201 0.027601 0.000000 -0.999619 0.386400 -0.320000 1 0 1.000000 
0 0.000001 -20.779499 21.673201 0.027601 0.000000 -0.999619 0.386400 -0.320000 1 0 1.000000 
0 1.508601 -20.779499 21.714800 0.027601 0.000000 -0.999619 0.386200 -0.314300 1 0 1.000000 
PLASTERWALL010I
0 1.508601 -20.779499 21.714800 0.027601 0.000000 -0.999619 0.386200 -0.314300 1 0 1.000000 
0 1.508601 -23.195499 21.714800 0.027601 0.000000 -0.999619 0.386200 -0.314300 1 0 1.000000 
0 0.000001 -23.195499 21.673201 0.027601 0.000000 -0.999619 0.386400 -0.320000 1 0 1.000000 
PLASTERWALL010I
0 1.831099 21.247999 -30.978600 0.000000 0.000000 -1.000000 0.589300 -0.313000 1 0 1.000000 
0 -0.000001 15.197000 -30.978600 0.000000 0.000000 -1.000000 0.589300 -0.320000 1 0 1.000000 
0 -0.000001 21.247999 -30.978600 0.000000 0.000000 -1.000000 0.589300 -0.320000 1 0 1.000000 
PLASTERWALL010I
0 -0.000001 15.197000 -30.978600 0.000000 0.000000 -1.000000 0.589300 -0.320000 1 0 1.000000 
0 1.831099 21.247999 -30.978600 0.000000 0.000000 -1.000000 0.589300 -0.313000 1 0 1.000000 
0 1.831099 15.197000 -30.978600 0.000000 0.000000 -1.000000 0.589300 -0.313000 1 0 1.000000 
PLASTERWALL010I
0 1.831101 -15.195900 23.306601 -0.000000 1.000000 0.000000 0.380100 -0.313000 1 0 1.000000 
0 1.831101 -15.195900 -30.978600 -0.000000 1.000000 0.000000 0.589300 -0.313000 1 0 1.000000 
0 0.000001 -15.195900 -30.978600 -0.000000 1.000000 0.000000 0.589300 -0.320000 1 0 1.000000 
PLASTERWALL010I
0 0.000001 -15.195900 -30.978600 -0.000000 1.000000 0.000000 0.589300 -0.320000 1 0 1.000000 
0 0.000001 -15.195900 23.306601 -0.000000 1.000000 0.000000 0.380100 -0.320000 1 0 1.000000 
0 1.831101 -15.195900 23.306601 -0.000000 1.000000 0.000000 0.380100 -0.313000 1 0 1.000000 
PLASTERWALL010I
0 1.831099 15.197000 23.306601 0.000000 0.000000 -1.000000 0.617800 -0.363000 1 0 1.000000 
0 0.000001 -15.195900 23.306601 0.000000 0.000000 -1.000000 0.381200 -0.363000 1 0 1.000000 
0 -0.000001 15.197000 23.306601 0.000000 0.000000 -1.000000 0.617800 -0.363000 1 0 1.000000 
PLASTERWALL010I
0 1.831099 15.197000 23.306601 0.000000 0.000000 -1.000000 0.617800 -0.363000 1 0 1.000000 
0 1.831101 -15.195900 23.306601 0.000000 0.000000 -1.000000 0.381200 -0.363000 1 0 1.000000 
0 0.000001 -15.195900 23.306601 0.000000 0.000000 -1.000000 0.381200 -0.363000 1 0 1.000000 
PLASTERWALL010I
0 0.000001 -20.787701 -51.826698 0.000000 -0.997969 -0.063698 0.669700 -0.320000 1 0 1.000000 
0 0.000001 -20.396099 -55.909100 0.000000 -0.995429 -0.095503 0.685400 -0.320000 1 0 1.000000 
0 0.825601 -20.396099 -55.909100 0.000000 -0.995429 -0.095503 0.685400 -0.316900 1 0 1.000000 
PLASTERWALL010I
0 0.825601 -20.396099 -55.909100 0.000000 -0.995429 -0.095503 0.685400 -0.316900 1 0 1.000000 
0 1.959401 -20.787701 -51.826698 0.000000 -0.999491 -0.031900 0.669700 -0.312500 1 0 1.000000 
0 0.000001 -20.787701 -51.826698 0.000000 -0.997969 -0.063698 0.669700 -0.320000 1 0 1.000000 
PLASTERWALL010I
0 1.959401 -20.787701 -51.826698 0.000000 -0.999491 -0.031900 0.669700 -0.312500 1 0 1.000000 
0 2.432601 -20.787701 -47.744301 0.000000 -1.000000 0.000000 0.653900 -0.310700 1 0 1.000000 
0 0.000001 -20.787701 -51.826698 0.000000 -0.997969 -0.063698 0.669700 -0.320000 1 0 1.000000 
PLASTERWALL010I
0 2.432601 -20.787701 -47.744301 0.000000 -1.000000 0.000000 0.653900 -0.310700 1 0 1.000000 
0 4.012001 -20.787701 -43.661800 0.000000 -1.000000 0.000000 0.638200 -0.304700 1 0 1.000000 
0 0.000001 -20.787701 -51.826698 0.000000 -0.997969 -0.063698 0.669700 -0.320000 1 0 1.000000 
PLASTERWALL010I
0 4.012001 -20.787701 -43.661800 0.000000 -1.000000 0.000000 0.638200 -0.304700 1 0 1.000000 
0 4.548601 -20.787701 -39.579399 0.000000 -1.000000 0.000000 0.622500 -0.302600 1 0 1.000000 
0 0.000001 -20.787701 -51.826698 0.000000 -0.997969 -0.063698 0.669700 -0.320000 1 0 1.000000 
PLASTERWALL010I
0 0.000001 -20.787701 -36.069000 0.000000 -1.000000 0.000000 0.608900 -0.320000 1 0 1.000000 
0 0.000001 -20.787701 -51.826698 0.000000 -0.997969 -0.063698 0.669700 -0.320000 1 0 1.000000 
0 4.548601 -20.787701 -39.579399 0.000000 -1.000000 0.000000 0.622500 -0.302600 1 0 1.000000 
PLASTERWALL010I
0 4.548601 -20.787701 -39.579399 0.000000 -1.000000 0.000000 0.622500 -0.302600 1 0 1.000000 
0 4.518701 -20.787701 -36.069901 0.000000 -1.000000 0.000000 0.608900 -0.302700 1 0 1.000000 
0 0.000001 -20.787701 -36.069000 0.000000 -1.000000 0.000000 0.608900 -0.320000 1 0 1.000000 
PLASTERWALL010I
0 -0.000001 23.256500 -34.626499 -1.000000 -0.000000 0.000000 0.680500 -0.814600 1 0 1.000000 
0 -0.000001 22.138300 -36.560799 -1.000000 -0.000000 0.000000 0.671800 -0.829700 1 0 1.000000 
0 0.000001 -21.297899 -36.560799 -1.000000 -0.000000 0.000000 0.333600 -0.829700 1 0 1.000000 
PLASTERWALL010I
0 0.000001 -21.297899 -36.560799 -1.000000 -0.000000 0.000000 0.333600 -0.829700 1 0 1.000000 
0 0.000001 -22.502199 -34.626499 -1.000000 -0.000000 0.000000 0.324300 -0.814600 1 0 1.000000 
0 -0.000001 23.256500 -34.626499 -1.000000 -0.000000 0.000000 0.680500 -0.814600 1 0 1.000000 
PLASTERWALL010I
0 -0.000001 23.238701 -33.146000 -1.000000 -0.000000 0.000000 0.680400 -0.803100 1 0 1.000000 
0 -0.000001 23.256500 -34.626499 -1.000000 -0.000000 0.000000 0.680500 -0.814600 1 0 1.000000 
0 0.000001 -22.502199 -34.626499 -1.000000 -0.000000 0.000000 0.324300 -0.814600 1 0 1.000000 
PLASTERWALL010I
0 0.000001 -22.502199 -34.626499 -1.000000 -0.000000 0.000000 0.324300 -0.814600 1 0 1.000000 
0 0.000001 -22.477600 -33.146000 -1.000000 -0.000000 0.000000 0.324500 -0.803100 1 0 1.000000 
0 -0.000001 23.238701 -33.146000 -1.000000 -0.000000 0.000000 0.680400 -0.803100 1 0 1.000000 
PLASTERWALL010I
0 -0.000001 23.876900 -32.004501 -1.000000 -0.000000 0.000000 0.685400 -0.794200 1 0 1.000000 
0 -0.000001 23.238701 -33.146000 -1.000000 -0.000000 0.000000 0.680400 -0.803100 1 0 1.000000 
0 0.000001 -22.477600 -33.146000 -1.000000 -0.000000 0.000000 0.324500 -0.803100 1 0 1.000000 
PLASTERWALL010I
0 0.000001 -22.477600 -33.146000 -1.000000 -0.000000 0.000000 0.324500 -0.803100 1 0 1.000000 
0 0.000001 -23.215200 -32.004501 -1.000000 -0.000000 0.000000 0.318700 -0.794200 1 0 1.000000 
0 -0.000001 23.876900 -32.004501 -1.000000 -0.000000 0.000000 0.685400 -0.794200 1 0 1.000000 
PLASTERWALL010I
0 -0.000001 23.876900 -30.962999 -1.000000 -0.000000 0.000000 0.685400 -0.786100 1 0 1.000000 
0 -0.000001 23.876900 -32.004501 -1.000000 -0.000000 0.000000 0.685400 -0.794200 1 0 1.000000 
0 0.000001 -23.215200 -32.004501 -1.000000 -0.000000 0.000000 0.318700 -0.794200 1 0 1.000000 
PLASTERWALL010I
0 0.000001 -23.215200 -32.004501 -1.000000 -0.000000 0.000000 0.318700 -0.794200 1 0 1.000000 
0 0.000001 -23.215200 -30.962999 -1.000000 -0.000000 0.000000 0.318700 -0.786100 1 0 1.000000 
0 -0.000001 23.876900 -30.962999 -1.000000 -0.000000 0.000000 0.685400 -0.786100 1 0 1.000000 
PLASTERWALL010I
0 0.104599 21.054300 35.819599 0.000000 0.000000 1.000000 0.331800 -0.319600 1 0 1.000000 
0 3.812799 23.761400 35.819599 0.000000 0.000000 1.000000 0.331800 -0.305400 1 0 1.000000 
0 0.104599 23.761400 35.819599 0.000000 0.000000 1.000000 0.331800 -0.319600 1 0 1.000000 
PLASTERWALL010I
0 3.812799 23.761400 35.819599 0.000000 0.000000 1.000000 0.331800 -0.305400 1 0 1.000000 
0 0.104599 21.054300 35.819599 0.000000 0.000000 1.000000 0.331800 -0.319600 1 0 1.000000 
0 3.812799 21.054300 35.819599 0.000000 0.000000 1.000000 0.331800 -0.305400 1 0 1.000000 
PLASTERWALL010I
0 1.831099 21.247999 35.157799 -0.000000 0.917351 -0.398079 0.334400 -0.313000 1 0 1.000000 
0 1.831099 21.247999 -30.978600 -0.000000 1.000000 0.000000 0.589300 -0.313000 1 0 1.000000 
0 -0.000001 21.247999 -30.978600 -0.000000 1.000000 0.000000 0.589300 -0.320000 1 0 1.000000 
PLASTERWALL010I
0 -0.000001 21.247999 -30.978600 -0.000000 1.000000 0.000000 0.589300 -0.320000 1 0 1.000000 
0 -0.000001 21.247999 35.157799 -0.000000 0.605124 -0.796131 0.334400 -0.320000 1 0 1.000000 
0 1.831099 21.247999 35.157799 -0.000000 0.917351 -0.398079 0.334400 -0.313000 1 0 1.000000 
PLASTERWALL010I
0 4.095499 24.278400 35.901199 -0.000000 0.605124 -0.796131 0.331500 -0.304400 1 0 1.000000 
0 1.831099 21.247999 35.157799 -0.000000 0.917351 -0.398079 0.334400 -0.313000 1 0 1.000000 
0 -0.000001 21.247999 35.157799 -0.000000 0.605124 -0.796131 0.334400 -0.320000 1 0 1.000000 
PLASTERWALL010I
0 -0.000001 21.247999 35.157799 -0.000000 0.605124 -0.796131 0.334400 -0.320000 1 0 1.000000 
0 -0.000001 24.278400 35.901199 -0.000000 0.917351 -0.398079 0.331500 -0.320000 1 0 1.000000 
0 4.095499 24.278400 35.901199 -0.000000 0.605124 -0.796131 0.331500 -0.304400 1 0 1.000000 
PLASTERWALL010I
0 4.095499 24.278400 37.131199 -0.000000 0.962778 -0.270294 0.326800 -0.304400 1 0 1.000000 
0 4.095499 24.278400 35.901199 -0.000000 0.605124 -0.796131 0.331500 -0.304400 1 0 1.000000 
0 -0.000001 24.278400 35.901199 -0.000000 0.917351 -0.398079 0.331500 -0.320000 1 0 1.000000 
PLASTERWALL010I
0 -0.000001 24.278400 35.901199 -0.000000 0.917351 -0.398079 0.331500 -0.320000 1 0 1.000000 
0 -0.000001 24.278400 37.131199 -0.000000 0.841286 -0.540591 0.326800 -0.320000 1 0 1.000000 
0 4.095499 24.278400 37.131199 -0.000000 0.962778 -0.270294 0.326800 -0.304400 1 0 1.000000 
PLASTERWALL010I
0 0.000001 -20.854900 35.157799 0.000000 -0.914277 -0.405090 0.334400 -0.320000 1 0 1.000000 
0 0.000001 -20.854900 -30.978600 0.000000 -1.000000 0.000000 0.589300 -0.320000 1 0 1.000000 
0 1.831101 -20.854900 -30.978600 0.000000 -1.000000 0.000000 0.589300 -0.313000 1 0 1.000000 
PLASTERWALL010I
0 1.831101 -20.854900 -30.978600 0.000000 -1.000000 0.000000 0.589300 -0.313000 1 0 1.000000 
0 1.831101 -20.854900 35.157799 0.000000 -0.586118 -0.810225 0.334400 -0.313000 1 0 1.000000 
0 0.000001 -20.854900 35.157799 0.000000 -0.914277 -0.405090 0.334400 -0.320000 1 0 1.000000 
PLASTERWALL010I
0 0.000001 -24.356800 35.901199 0.000000 -0.586118 -0.810225 0.331500 -0.320000 1 0 1.000000 
0 0.000001 -20.854900 35.157799 0.000000 -0.914277 -0.405090 0.334400 -0.320000 1 0 1.000000 
0 1.831101 -20.854900 35.157799 0.000000 -0.586118 -0.810225 0.334400 -0.313000 1 0 1.000000 
PLASTERWALL010I
0 1.831101 -20.854900 35.157799 0.000000 -0.586118 -0.810225 0.334400 -0.313000 1 0 1.000000 
0 4.095501 -24.356800 35.901199 0.000000 -0.914277 -0.405090 0.331500 -0.304400 1 0 1.000000 
0 0.000001 -24.356800 35.901199 0.000000 -0.586118 -0.810225 0.331500 -0.320000 1 0 1.000000 
PLASTERWALL010I
0 0.000001 -24.356800 37.131199 0.000000 -0.952771 -0.303691 0.326800 -0.320000 1 0 1.000000 
0 0.000001 -24.356800 35.901199 0.000000 -0.586118 -0.810225 0.331500 -0.320000 1 0 1.000000 
0 4.095501 -24.356800 35.901199 0.000000 -0.914277 -0.405090 0.331500 -0.304400 1 0 1.000000 
PLASTERWALL010I
0 4.095501 -24.356800 35.901199 0.000000 -0.914277 -0.405090 0.331500 -0.304400 1 0 1.000000 
0 4.095501 -24.356800 37.131199 0.000000 -0.794397 -0.607398 0.309800 -0.255200 1 0 1.000000 
0 0.000001 -24.356800 37.131199 0.000000 -0.952771 -0.303691 0.326800 -0.320000 1 0 1.000000 
PLASTERWALL010I
0 0.000001 -25.421801 37.874599 0.000000 -0.794397 -0.607398 0.301500 -0.249400 1 0 1.000000 
0 0.000001 -24.356800 37.131199 0.000000 -0.952771 -0.303691 0.309800 -0.255200 1 0 1.000000 
0 4.095501 -24.356800 37.131199 0.000000 -0.794397 -0.607398 0.309800 -0.255200 1 0 1.000000 
PLASTERWALL010I
0 4.095501 -24.356800 37.131199 0.000000 -0.794397 -0.607398 0.309800 -0.255200 1 0 1.000000 
0 6.576001 -25.421801 37.874599 0.000000 -0.952771 -0.303691 0.301500 -0.249400 1 0 1.000000 
0 0.000001 -25.421801 37.874599 0.000000 -0.794397 -0.607398 0.301500 -0.249400 1 0 1.000000 
PLASTERWALL010I
0 0.000001 -25.421801 38.861301 0.000000 -1.000000 0.000000 0.301500 -0.241700 1 0 1.000000 
0 0.000001 -25.421801 37.874599 0.000000 -0.794397 -0.607398 0.301500 -0.249400 1 0 1.000000 
0 6.576001 -25.421801 37.874599 0.000000 -0.952771 -0.303691 0.301500 -0.249400 1 0 1.000000 
PLASTERWALL010I
0 6.576001 -25.421801 37.874599 0.000000 -0.952771 -0.303691 0.301500 -0.249400 1 0 1.000000 
0 6.576001 -25.421801 38.861301 0.000000 -1.000000 0.000000 0.301500 -0.241700 1 0 1.000000 
0 0.000001 -25.421801 38.861301 0.000000 -1.000000 0.000000 0.301500 -0.241700 1 0 1.000000 
PLASTERWALL010I
0 3.812801 -23.486500 35.819599 0.000000 0.000000 1.000000 0.331800 -0.305400 1 0 1.000000 
0 3.812801 -20.779499 35.819599 0.000000 0.000000 1.000000 0.331800 -0.305400 1 0 1.000000 
0 0.104601 -20.779499 35.819599 0.000000 0.000000 1.000000 0.331800 -0.319600 1 0 1.000000 
PLASTERWALL010I
0 0.104601 -20.779499 35.819599 0.000000 0.000000 1.000000 0.331800 -0.319600 1 0 1.000000 
0 0.104601 -23.486500 35.819599 0.000000 0.000000 1.000000 0.331800 -0.319600 1 0 1.000000 
0 3.812801 -23.486500 35.819599 0.000000 0.000000 1.000000 0.331800 -0.305400 1 0 1.000000 
PLASTERWALL010I
0 -0.000001 21.600599 -36.069000 0.000200 0.000000 1.000000 0.608900 -0.320000 1 0 1.000000 
0 -0.000001 16.098200 -36.069000 0.000200 0.000000 1.000000 0.608900 -0.320000 1 0 1.000000 
0 4.518700 16.098200 -36.069901 0.000200 0.000000 1.000000 0.608900 -0.302700 1 0 1.000000 
PLASTERWALL010I
0 4.518700 16.098200 -36.069901 0.000200 0.000000 1.000000 0.608900 -0.302700 1 0 1.000000 
0 4.518699 21.600599 -36.069901 0.000200 0.000000 1.000000 0.608900 -0.302700 1 0 1.000000 
0 -0.000001 21.600599 -36.069000 0.000200 0.000000 1.000000 0.608900 -0.320000 1 0 1.000000 
PLASTERWALL010I
0 1.508599 23.470400 21.714800 0.994876 0.000000 -0.101098 0.682200 -0.375400 1 0 1.000000 
0 1.787399 21.054300 24.457300 0.968140 0.000000 -0.250410 0.663400 -0.354000 1 0 1.000000 
0 1.508599 21.054300 21.714800 0.994876 0.000000 -0.101098 0.663400 -0.375400 1 0 1.000000 
PLASTERWALL010I
0 1.787399 21.054300 24.457300 0.968140 0.000000 -0.250410 0.663400 -0.354000 1 0 1.000000 
0 1.508599 23.470400 21.714800 0.994876 0.000000 -0.101098 0.682200 -0.375400 1 0 1.000000 
0 1.787399 23.761400 24.457300 0.917690 0.000000 -0.397296 0.684500 -0.354000 1 0 1.000000 
PLASTERWALL010I
0 1.787399 23.761400 24.457300 0.917690 0.000000 -0.397296 0.684500 -0.354000 1 0 1.000000 
0 2.805899 21.054300 26.080700 0.945712 0.000000 -0.325004 0.663400 -0.341400 1 0 1.000000 
0 1.787399 21.054300 24.457300 0.968140 0.000000 -0.250410 0.663400 -0.354000 1 0 1.000000 
PLASTERWALL010I
0 2.805899 21.054300 26.080700 0.945712 0.000000 -0.325004 0.663400 -0.341400 1 0 1.000000 
0 1.787399 23.761400 24.457300 0.917690 0.000000 -0.397296 0.684500 -0.354000 1 0 1.000000 
0 2.805899 23.761400 26.080700 0.996103 0.000000 -0.088200 0.684500 -0.341400 1 0 1.000000 
PLASTERWALL010I
0 2.805899 23.761400 26.080700 0.996103 0.000000 -0.088200 0.684500 -0.341400 1 0 1.000000 
0 2.576899 21.054300 27.693600 0.999939 0.000000 -0.011000 0.663400 -0.328800 1 0 1.000000 
0 2.805899 21.054300 26.080700 0.945712 0.000000 -0.325004 0.663400 -0.341400 1 0 1.000000 
PLASTERWALL010I
0 2.576899 21.054300 27.693600 0.999939 0.000000 -0.011000 0.663400 -0.328800 1 0 1.000000 
0 2.805899 23.761400 26.080700 0.996103 0.000000 -0.088200 0.684500 -0.341400 1 0 1.000000 
0 2.576899 23.761400 27.693600 0.986125 0.000000 -0.166004 0.684500 -0.328800 1 0 1.000000 
PLASTERWALL010I
0 2.576899 23.761400 27.693600 0.986125 0.000000 -0.166004 0.684500 -0.328800 1 0 1.000000 
0 3.372099 21.054300 30.102900 0.965690 0.000000 -0.259697 0.663400 -0.310000 1 0 1.000000 
0 2.576899 21.054300 27.693600 0.999939 0.000000 -0.011000 0.663400 -0.328800 1 0 1.000000 
PLASTERWALL010I
0 3.372099 21.054300 30.102900 0.965690 0.000000 -0.259697 0.663400 -0.310000 1 0 1.000000 
0 2.576899 23.761400 27.693600 0.986125 0.000000 -0.166004 0.684500 -0.328800 1 0 1.000000 
0 3.372099 23.761400 30.102900 0.978783 0.000000 -0.204897 0.684500 -0.310000 1 0 1.000000 
PLASTERWALL010I
0 3.372099 23.761400 30.102900 0.978783 0.000000 -0.204897 0.684500 -0.310000 1 0 1.000000 
0 3.812799 21.054300 33.015099 0.994987 0.000000 -0.099999 0.663400 -0.287300 1 0 1.000000 
0 3.372099 21.054300 30.102900 0.965690 0.000000 -0.259697 0.663400 -0.310000 1 0 1.000000 
PLASTERWALL010I
0 3.812799 21.054300 33.015099 0.994987 0.000000 -0.099999 0.663400 -0.287300 1 0 1.000000 
0 3.372099 23.761400 30.102900 0.978783 0.000000 -0.204897 0.684500 -0.310000 1 0 1.000000 
0 3.812799 23.761400 33.015099 0.998749 0.000000 -0.050002 0.684500 -0.287300 1 0 1.000000 
PLASTERWALL010I
0 3.812799 23.761400 33.015099 0.998749 0.000000 -0.050002 0.684500 -0.287300 1 0 1.000000 
0 3.812799 21.054300 35.819599 1.000000 0.000000 0.000000 0.663400 -0.265400 1 0 1.000000 
0 3.812799 21.054300 33.015099 0.994987 0.000000 -0.099999 0.663400 -0.287300 1 0 1.000000 
PLASTERWALL010I
0 3.812799 21.054300 35.819599 1.000000 0.000000 0.000000 0.663400 -0.265400 1 0 1.000000 
0 3.812799 23.761400 33.015099 0.998749 0.000000 -0.050002 0.684500 -0.287300 1 0 1.000000 
0 3.812799 23.761400 35.819599 1.000000 0.000000 0.000000 0.684500 -0.265400 1 0 1.000000 
PLASTERWALL010I
0 0.000001 -15.044300 -36.069000 0.000200 0.000000 1.000000 0.608900 -0.320000 1 0 1.000000 
0 0.000001 -20.787701 -36.069000 0.000200 0.000000 1.000000 0.608900 -0.320000 1 0 1.000000 
0 4.518701 -20.787701 -36.069901 0.000200 0.000000 1.000000 0.608900 -0.302700 1 0 1.000000 
PLASTERWALL010I
0 4.518701 -20.787701 -36.069901 0.000200 0.000000 1.000000 0.608900 -0.302700 1 0 1.000000 
0 4.518701 -15.044300 -36.069901 0.000200 0.000000 1.000000 0.608900 -0.302700 1 0 1.000000 
0 0.000001 -15.044300 -36.069000 0.000200 0.000000 1.000000 0.608900 -0.320000 1 0 1.000000 
PLASTERWALL010I
0 -0.000001 23.876900 -30.962999 0.000000 0.000000 1.000000 0.625600 -0.277600 1 0 1.000000 
0 0.000001 -23.215200 -30.962999 0.000000 0.000000 1.000000 0.378800 -0.277600 1 0 1.000000 
0 9.011801 -23.215200 -30.962999 0.000000 0.000000 1.000000 0.378800 -0.324700 1 0 1.000000 
PLASTERWALL010I
0 9.011801 -23.215200 -30.962999 0.000000 0.000000 1.000000 0.378800 -0.324700 1 0 1.000000 
0 9.011799 23.876900 -30.962999 0.000000 0.000000 1.000000 0.625600 -0.324700 1 0 1.000000 
0 -0.000001 23.876900 -30.962999 0.000000 0.000000 1.000000 0.625600 -0.277600 1 0 1.000000 
PLASTERWALL010I
0 5.106999 22.138300 -36.024300 0.104503 0.000000 -0.994524 0.671800 -0.825500 1 0 1.000000 
0 5.107001 -21.297899 -36.024300 0.104503 0.000000 -0.994524 0.333600 -0.825500 1 0 1.000000 
0 0.000001 -21.297899 -36.560799 0.104503 0.000000 -0.994524 0.333600 -0.829700 1 0 1.000000 
PLASTERWALL010I
0 0.000001 -21.297899 -36.560799 0.104503 0.000000 -0.994524 0.333600 -0.829700 1 0 1.000000 
0 -0.000001 22.138300 -36.560799 0.104503 0.000000 -0.994524 0.671800 -0.829700 1 0 1.000000 
0 5.106999 22.138300 -36.024300 0.104503 0.000000 -0.994524 0.671800 -0.825500 1 0 1.000000 
PLASTERWALL010I
0 -0.000001 21.600599 -51.826698 -1.000000 -0.000000 0.000000 0.669700 -0.320000 1 0 1.000000 
0 -0.000001 21.048401 -55.909100 -1.000000 -0.000000 0.000000 0.685400 -0.320000 1 0 1.000000 
0 -0.000001 16.594801 -55.909100 -1.000000 -0.000000 0.000000 0.685400 -0.320000 1 0 1.000000 
PLASTERWALL010I
0 -0.000001 16.594801 -55.909100 -1.000000 -0.000000 0.000000 0.685400 -0.320000 1 0 1.000000 
0 -0.000001 16.098200 -51.826698 -1.000000 -0.000000 0.000000 0.669700 -0.320000 1 0 1.000000 
0 -0.000001 21.600599 -51.826698 -1.000000 -0.000000 0.000000 0.669700 -0.320000 1 0 1.000000 
PLASTERWALL010I
0 -0.000001 21.600599 -36.069000 -1.000000 -0.000000 0.000000 0.608900 -0.320000 1 0 1.000000 
0 -0.000001 21.600599 -51.826698 -1.000000 -0.000000 0.000000 0.669700 -0.320000 1 0 1.000000 
0 -0.000001 16.098200 -51.826698 -1.000000 -0.000000 0.000000 0.669700 -0.320000 1 0 1.000000 
PLASTERWALL010I
0 -0.000001 16.098200 -51.826698 -1.000000 -0.000000 0.000000 0.669700 -0.320000 1 0 1.000000 
0 -0.000001 16.098200 -36.069000 -1.000000 -0.000000 0.000000 0.608900 -0.320000 1 0 1.000000 
0 -0.000001 21.600599 -36.069000 -1.000000 -0.000000 0.000000 0.608900 -0.320000 1 0 1.000000 
PLASTERWALL010I
0 -0.000001 21.247999 -30.978600 -1.000000 -0.000000 0.000000 0.589300 -0.320000 1 0 1.000000 
0 -0.000001 15.197000 -30.978600 -1.000000 -0.000000 0.000000 0.589300 -0.320000 1 0 1.000000 
0 -0.000001 15.197000 23.306601 -1.000000 -0.000000 0.000000 0.380100 -0.320000 1 0 1.000000 
PLASTERWALL010I
0 -0.000001 15.197000 23.306601 -1.000000 -0.000000 0.000000 0.380100 -0.320000 1 0 1.000000 
0 -0.000001 21.247999 35.157799 -1.000000 -0.000000 0.000000 0.334400 -0.320000 1 0 1.000000 
0 -0.000001 21.247999 -30.978600 -1.000000 -0.000000 0.000000 0.589300 -0.320000 1 0 1.000000 
PLASTERWALL010I
0 -0.000001 25.115801 37.874599 -0.000000 0.962778 -0.270294 0.695000 -0.249400 1 0 1.000000 
0 -0.000001 25.115801 38.861301 -0.000000 1.000000 0.000000 0.695000 -0.241700 1 0 1.000000 
0 6.575999 25.115801 38.861301 -0.000000 1.000000 0.000000 0.695000 -0.241700 1 0 1.000000 
PLASTERWALL010I
0 6.575999 25.115801 38.861301 -0.000000 1.000000 0.000000 0.695000 -0.241700 1 0 1.000000 
0 6.575999 25.115801 37.874599 -0.000000 0.841286 -0.540591 0.695000 -0.249400 1 0 1.000000 
0 -0.000001 25.115801 37.874599 -0.000000 0.962778 -0.270294 0.695000 -0.249400 1 0 1.000000 
PLASTERWALL010I
0 -0.000001 24.278400 37.131199 -0.000000 0.841286 -0.540591 0.688500 -0.255200 1 0 1.000000 
0 -0.000001 25.115801 37.874599 -0.000000 0.962778 -0.270294 0.695000 -0.249400 1 0 1.000000 
0 6.575999 25.115801 37.874599 -0.000000 0.841286 -0.540591 0.695000 -0.249400 1 0 1.000000 
PLASTERWALL010I
0 6.575999 25.115801 37.874599 -0.000000 0.841286 -0.540591 0.695000 -0.249400 1 0 1.000000 
0 4.095499 24.278400 37.131199 -0.000000 0.962778 -0.270294 0.688500 -0.255200 1 0 1.000000 
0 -0.000001 24.278400 37.131199 -0.000000 0.841286 -0.540591 0.688500 -0.255200 1 0 1.000000 
PLASTERWALL010I
0 4.518701 -15.044300 -36.069901 -0.000000 1.000000 0.000000 0.608900 -0.302700 1 0 1.000000 
0 4.548601 -15.044300 -39.579399 -0.000000 1.000000 0.000000 0.622500 -0.302600 1 0 1.000000 
0 0.000001 -15.044300 -36.069000 -0.000000 1.000000 0.000000 0.608900 -0.320000 1 0 1.000000 
PLASTERWALL010I
0 4.548601 -15.044300 -39.579399 -0.000000 1.000000 0.000000 0.622500 -0.302600 1 0 1.000000 
0 4.012001 -15.044300 -43.661800 -0.000000 1.000000 0.000000 0.638200 -0.304700 1 0 1.000000 
0 0.000001 -15.044300 -36.069000 -0.000000 1.000000 0.000000 0.608900 -0.320000 1 0 1.000000 
PLASTERWALL010I
0 4.012001 -15.044300 -43.661800 -0.000000 1.000000 0.000000 0.638200 -0.304700 1 0 1.000000 
0 2.432601 -15.044300 -47.744301 -0.000000 1.000000 0.000000 0.653900 -0.310700 1 0 1.000000 
0 0.000001 -15.044300 -36.069000 -0.000000 1.000000 0.000000 0.608900 -0.320000 1 0 1.000000 
PLASTERWALL010I
0 0.000001 -15.044300 -51.826698 -0.000000 0.999680 -0.025299 0.669700 -0.320000 1 0 1.000000 
0 0.000001 -15.044300 -36.069000 -0.000000 1.000000 0.000000 0.608900 -0.320000 1 0 1.000000 
0 2.432601 -15.044300 -47.744301 -0.000000 1.000000 0.000000 0.653900 -0.310700 1 0 1.000000 
PLASTERWALL010I
0 2.432601 -15.044300 -47.744301 -0.000000 1.000000 0.000000 0.653900 -0.310700 1 0 1.000000 
0 1.959401 -15.044300 -51.826698 -0.000000 0.998714 -0.050701 0.669700 -0.312500 1 0 1.000000 
0 0.000001 -15.044300 -51.826698 -0.000000 0.999680 -0.025299 0.669700 -0.320000 1 0 1.000000 
PLASTERWALL010I
0 0.000001 -15.355500 -55.909100 -0.000000 0.997108 -0.076001 0.685400 -0.320000 1 0 1.000000 
0 0.000001 -15.044300 -51.826698 -0.000000 0.999680 -0.025299 0.669700 -0.320000 1 0 1.000000 
0 1.959401 -15.044300 -51.826698 -0.000000 0.998714 -0.050701 0.669700 -0.312500 1 0 1.000000 
PLASTERWALL010I
0 -0.000001 23.761400 24.523199 -0.000400 0.997616 -0.069001 0.375400 -0.320000 1 0 1.000000 
0 1.508599 23.470400 21.714800 -0.000500 0.994649 -0.103305 0.386200 -0.314300 1 0 1.000000 
0 -0.000001 23.470400 21.673201 0.002800 0.994821 -0.101602 0.386400 -0.320000 1 0 1.000000 
PLASTERWALL010I
0 1.508599 23.470400 21.714800 -0.000500 0.994649 -0.103305 0.386200 -0.314300 1 0 1.000000 
0 -0.000001 23.761400 24.523199 -0.000400 0.997616 -0.069001 0.375400 -0.320000 1 0 1.000000 
0 1.787399 23.761400 24.457300 -0.001300 0.999383 -0.035099 0.375600 -0.313200 1 0 1.000000 
PLASTERWALL010I
0 -0.000001 23.761400 33.015099 -0.000000 1.000000 0.000000 0.342600 -0.320000 1 0 1.000000 
0 1.787399 23.761400 24.457300 -0.001300 0.999383 -0.035099 0.375600 -0.313200 1 0 1.000000 
0 -0.000001 23.761400 24.523199 -0.000400 0.997616 -0.069001 0.375400 -0.320000 1 0 1.000000 
PLASTERWALL010I
0 1.787399 23.761400 24.457300 -0.001300 0.999383 -0.035099 0.375600 -0.313200 1 0 1.000000 
0 -0.000001 23.761400 33.015099 -0.000000 1.000000 0.000000 0.342600 -0.320000 1 0 1.000000 
0 2.805899 23.761400 26.080700 -0.000000 1.000000 0.000000 0.369400 -0.309300 1 0 1.000000 
PLASTERWALL010I
0 2.805899 23.761400 26.080700 -0.000000 1.000000 0.000000 0.369400 -0.309300 1 0 1.000000 
0 -0.000001 23.761400 33.015099 -0.000000 1.000000 0.000000 0.342600 -0.320000 1 0 1.000000 
0 2.576899 23.761400 27.693600 -0.000000 1.000000 0.000000 0.363200 -0.310200 1 0 1.000000 
PLASTERWALL010I
0 2.576899 23.761400 27.693600 -0.000000 1.000000 0.000000 0.363200 -0.310200 1 0 1.000000 
0 -0.000001 23.761400 33.015099 -0.000000 1.000000 0.000000 0.342600 -0.320000 1 0 1.000000 
0 3.372099 23.761400 30.102900 -0.000000 1.000000 0.000000 0.353900 -0.307100 1 0 1.000000 
PLASTERWALL010I
0 3.372099 23.761400 30.102900 -0.000000 1.000000 0.000000 0.353900 -0.307100 1 0 1.000000 
0 -0.000001 23.761400 33.015099 -0.000000 1.000000 0.000000 0.342600 -0.320000 1 0 1.000000 
0 3.812799 23.761400 33.015099 -0.000000 1.000000 0.000000 0.342600 -0.305400 1 0 1.000000 
PLASTERWALL010I
0 0.104599 23.761400 35.819599 -0.000000 1.000000 0.000000 0.331800 -0.319600 1 0 1.000000 
0 3.812799 23.761400 33.015099 -0.000000 1.000000 0.000000 0.342600 -0.305400 1 0 1.000000 
0 -0.000001 23.761400 33.015099 -0.000000 1.000000 0.000000 0.342600 -0.320000 1 0 1.000000 
PLASTERWALL010I
0 3.812799 23.761400 33.015099 -0.000000 1.000000 0.000000 0.342600 -0.305400 1 0 1.000000 
0 0.104599 23.761400 35.819599 -0.000000 1.000000 0.000000 0.331800 -0.319600 1 0 1.000000 
0 3.812799 23.761400 35.819599 -0.000000 1.000000 0.000000 0.331800 -0.305400 1 0 1.000000 
PLASTERWALL010I
0 4.518701 -15.044300 -36.069901 0.999964 0.000000 0.008500 0.382300 -0.825900 1 0 1.000000 
0 4.518701 -20.787701 -36.069901 0.999964 0.000000 0.008500 0.337600 -0.825900 1 0 1.000000 
0 4.548601 -20.787701 -39.579399 0.999285 0.000000 -0.037799 0.337600 -0.853200 1 0 1.000000 
PLASTERWALL010I
0 4.548601 -20.787701 -39.579399 0.999285 0.000000 -0.037799 0.337600 -0.853200 1 0 1.000000 
0 4.548601 -15.044300 -39.579399 0.996448 0.000000 -0.084204 0.382300 -0.853200 1 0 1.000000 
0 4.518701 -15.044300 -36.069901 0.999964 0.000000 0.008500 0.382300 -0.825900 1 0 1.000000 
PLASTERWALL010I
0 4.548601 -15.044300 -39.579399 0.996448 0.000000 -0.084204 0.382300 -0.853200 1 0 1.000000 
0 4.548601 -20.787701 -39.579399 0.999285 0.000000 -0.037799 0.337600 -0.853200 1 0 1.000000 
0 4.012001 -20.787701 -43.661800 0.978021 0.000000 -0.208505 0.337600 -0.885100 1 0 1.000000 
PLASTERWALL010I
0 4.012001 -20.787701 -43.661800 0.978021 0.000000 -0.208505 0.337600 -0.885100 1 0 1.000000 
0 4.012001 -15.044300 -43.661800 0.958290 0.000000 -0.285797 0.382300 -0.885100 1 0 1.000000 
0 4.548601 -15.044300 -39.579399 0.996448 0.000000 -0.084204 0.382300 -0.853200 1 0 1.000000 
PLASTERWALL010I
0 4.012001 -15.044300 -43.661800 0.958290 0.000000 -0.285797 0.382300 -0.885100 1 0 1.000000 
0 4.012001 -20.787701 -43.661800 0.978021 0.000000 -0.208505 0.337600 -0.885100 1 0 1.000000 
0 2.432601 -20.787701 -47.744301 0.959734 0.000000 -0.280910 0.337600 -0.916900 1 0 1.000000 
PLASTERWALL010I
0 2.432601 -20.787701 -47.744301 0.959734 0.000000 -0.280910 0.337600 -0.916900 1 0 1.000000 
0 2.432601 -15.044300 -47.744301 0.980120 0.000000 -0.198404 0.382300 -0.916900 1 0 1.000000 
0 4.012001 -15.044300 -43.661800 0.958290 0.000000 -0.285797 0.382300 -0.885100 1 0 1.000000 
PLASTERWALL010I
0 2.432601 -15.044300 -47.744301 0.980120 0.000000 -0.198404 0.382300 -0.916900 1 0 1.000000 
0 2.432601 -20.787701 -47.744301 0.959734 0.000000 -0.280910 0.337600 -0.916900 1 0 1.000000 
0 1.959401 -20.787701 -51.826698 0.986059 0.000000 -0.166393 0.337600 -0.948700 1 0 1.000000 
PLASTERWALL010I
0 1.959401 -20.787701 -51.826698 0.986059 0.000000 -0.166393 0.337600 -0.948700 1 0 1.000000 
0 1.959401 -15.044300 -51.826698 0.976083 0.000000 -0.217396 0.382300 -0.948700 1 0 1.000000 
0 2.432601 -15.044300 -47.744301 0.980120 0.000000 -0.198404 0.382300 -0.916900 1 0 1.000000 
PLASTERWALL010I
0 1.959401 -15.044300 -51.826698 0.976083 0.000000 -0.217396 0.382300 -0.948700 1 0 1.000000 
0 1.959401 -20.787701 -51.826698 0.986059 0.000000 -0.166393 0.337600 -0.948700 1 0 1.000000 
0 0.825601 -20.396099 -55.909100 0.963528 0.000000 -0.267608 0.340700 -0.980500 1 0 1.000000 
PLASTERWALL010I
0 0.825601 -20.396099 -55.909100 0.963528 0.000000 -0.267608 0.340700 -0.980500 1 0 1.000000 
0 0.825601 -15.355500 -55.909100 0.963528 0.000000 -0.267608 0.379900 -0.980500 1 0 1.000000 
0 1.959401 -15.044300 -51.826698 0.976083 0.000000 -0.217396 0.382300 -0.948700 1 0 1.000000 
PLASTERWALL010I
0 4.518699 21.600599 -36.069901 0.999964 0.000000 0.008500 0.667600 -0.825900 1 0 1.000000 
0 4.518700 16.098200 -36.069901 0.999964 0.000000 0.008500 0.624800 -0.825900 1 0 1.000000 
0 4.548600 16.098200 -39.579399 0.999285 0.000000 -0.037799 0.624800 -0.853200 1 0 1.000000 
PLASTERWALL010I
0 4.548600 16.098200 -39.579399 0.999285 0.000000 -0.037799 0.624800 -0.853200 1 0 1.000000 
0 4.548599 21.600599 -39.579399 0.996448 0.000000 -0.084204 0.667600 -0.853200 1 0 1.000000 
0 4.518699 21.600599 -36.069901 0.999964 0.000000 0.008500 0.667600 -0.825900 1 0 1.000000 
PLASTERWALL010I
0 4.548599 21.600599 -39.579399 0.996448 0.000000 -0.084204 0.667600 -0.853200 1 0 1.000000 
0 4.548600 16.098200 -39.579399 0.999285 0.000000 -0.037799 0.624800 -0.853200 1 0 1.000000 
0 4.012000 16.098200 -43.661800 0.978021 0.000000 -0.208505 0.624800 -0.885100 1 0 1.000000 
PLASTERWALL010I
0 4.012000 16.098200 -43.661800 0.978021 0.000000 -0.208505 0.624800 -0.885100 1 0 1.000000 
0 4.011999 21.600599 -43.661800 0.958290 0.000000 -0.285797 0.667600 -0.885100 1 0 1.000000 
0 4.548599 21.600599 -39.579399 0.996448 0.000000 -0.084204 0.667600 -0.853200 1 0 1.000000 
PLASTERWALL010I
0 4.011999 21.600599 -43.661800 0.958290 0.000000 -0.285797 0.667600 -0.885100 1 0 1.000000 
0 4.012000 16.098200 -43.661800 0.978021 0.000000 -0.208505 0.624800 -0.885100 1 0 1.000000 
0 2.432599 16.098200 -47.744301 0.959734 0.000000 -0.280910 0.624800 -0.916900 1 0 1.000000 
PLASTERWALL010I
0 2.432599 16.098200 -47.744301 0.959734 0.000000 -0.280910 0.624800 -0.916900 1 0 1.000000 
0 2.432599 21.600599 -47.744301 0.980120 0.000000 -0.198404 0.667600 -0.916900 1 0 1.000000 
0 4.011999 21.600599 -43.661800 0.958290 0.000000 -0.285797 0.667600 -0.885100 1 0 1.000000 
PLASTERWALL010I
0 2.432599 21.600599 -47.744301 0.980120 0.000000 -0.198404 0.667600 -0.916900 1 0 1.000000 
0 2.432599 16.098200 -47.744301 0.959734 0.000000 -0.280910 0.624800 -0.916900 1 0 1.000000 
0 1.959399 16.098200 -51.826698 0.986059 0.000000 -0.166393 0.624800 -0.948700 1 0 1.000000 
PLASTERWALL010I
0 1.959399 16.098200 -51.826698 0.986059 0.000000 -0.166393 0.624800 -0.948700 1 0 1.000000 
0 1.959399 21.600599 -51.826698 0.976083 0.000000 -0.217396 0.667600 -0.948700 1 0 1.000000 
0 2.432599 21.600599 -47.744301 0.980120 0.000000 -0.198404 0.667600 -0.916900 1 0 1.000000 
PLASTERWALL010I
0 1.959399 21.600599 -51.826698 0.976083 0.000000 -0.217396 0.667600 -0.948700 1 0 1.000000 
0 1.959399 16.098200 -51.826698 0.986059 0.000000 -0.166393 0.624800 -0.948700 1 0 1.000000 
0 0.825599 16.594801 -55.909100 0.963528 0.000000 -0.267608 0.628700 -0.980500 1 0 1.000000 
PLASTERWALL010I
0 0.825599 16.594801 -55.909100 0.963528 0.000000 -0.267608 0.628700 -0.980500 1 0 1.000000 
0 0.825599 21.048401 -55.909100 0.963528 0.000000 -0.267608 0.663300 -0.980500 1 0 1.000000 
0 1.959399 21.600599 -51.826698 0.976083 0.000000 -0.217396 0.667600 -0.948700 1 0 1.000000 
PLASTERWALL010I
0 -0.000001 23.470400 21.673201 -1.000000 -0.000000 0.000000 0.386400 -0.320000 1 0 1.000000 
0 -0.000001 21.054300 21.673201 -1.000000 -0.000000 0.000000 0.386400 -0.320000 1 0 1.000000 
0 -0.000001 23.761400 24.523199 -1.000000 -0.000000 0.000000 0.375400 -0.320000 1 0 1.000000 
PLASTERWALL010I
0 -0.000001 23.761400 24.523199 -1.000000 -0.000000 0.000000 0.375400 -0.320000 1 0 1.000000 
0 -0.000001 21.054300 21.673201 -1.000000 -0.000000 0.000000 0.386400 -0.320000 1 0 1.000000 
0 -0.000001 23.761400 33.015099 -0.999692 -0.000000 0.024800 0.342600 -0.320000 1 0 1.000000 
PLASTERWALL010I
0 0.104599 21.054300 35.819599 -0.999304 -0.000000 0.037300 0.331800 -0.319600 1 0 1.000000 
0 -0.000001 23.761400 33.015099 -0.999692 -0.000000 0.024800 0.342600 -0.320000 1 0 1.000000 
0 -0.000001 21.054300 21.673201 -1.000000 -0.000000 0.000000 0.386400 -0.320000 1 0 1.000000 
PLASTERWALL010I
0 -0.000001 23.761400 33.015099 -0.999692 -0.000000 0.024800 0.342600 -0.320000 1 0 1.000000 
0 0.104599 21.054300 35.819599 -0.999304 -0.000000 0.037300 0.331800 -0.319600 1 0 1.000000 
0 0.104599 23.761400 35.819599 -0.999304 -0.000000 0.037300 0.331800 -0.319600 1 0 1.000000 
PLASTERWALL010I
0 0.104601 -20.779499 35.819599 -0.999304 -0.000000 0.037300 0.331800 -0.319600 1 0 1.000000 
0 0.000001 -20.779499 33.015099 -0.999923 -0.000000 0.012400 0.342600 -0.320000 1 0 1.000000 
0 0.104601 -23.486500 35.819599 -0.999304 -0.000000 0.037300 0.331800 -0.319600 1 0 1.000000 
PLASTERWALL010I
0 0.000001 -23.486500 24.523199 -1.000000 -0.000000 0.000000 0.375400 -0.320000 1 0 1.000000 
0 0.104601 -23.486500 35.819599 -0.999304 -0.000000 0.037300 0.331800 -0.319600 1 0 1.000000 
0 0.000001 -20.779499 33.015099 -0.999923 -0.000000 0.012400 0.342600 -0.320000 1 0 1.000000 
PLASTERWALL010I
0 0.000001 -20.779499 33.015099 -0.999923 -0.000000 0.012400 0.342600 -0.320000 1 0 1.000000 
0 0.000001 -20.779499 21.673201 -1.000000 -0.000000 0.000000 0.386400 -0.320000 1 0 1.000000 
0 0.000001 -23.486500 24.523199 -1.000000 -0.000000 0.000000 0.375400 -0.320000 1 0 1.000000 
PLASTERWALL010I
0 0.000001 -23.195499 21.673201 -1.000000 -0.000000 0.000000 0.386400 -0.320000 1 0 1.000000 
0 0.000001 -23.486500 24.523199 -1.000000 -0.000000 0.000000 0.375400 -0.320000 1 0 1.000000 
0 0.000001 -20.779499 21.673201 -1.000000 -0.000000 0.000000 0.386400 -0.320000 1 0 1.000000 
PLASTERWALL010I
0 6.575999 25.115801 38.861301 1.000000 0.000000 0.000000 0.695000 -0.241700 1 0 1.000000 
0 6.576001 -25.421801 38.861301 1.000000 0.000000 0.000000 0.301500 -0.241700 1 0 1.000000 
0 6.576001 -25.421801 37.874599 0.922377 0.000000 -0.386290 0.301500 -0.249400 1 0 1.000000 
PLASTERWALL010I
0 6.576001 -25.421801 37.874599 0.922377 0.000000 -0.386290 0.301500 -0.249400 1 0 1.000000 
0 6.575999 25.115801 37.874599 0.634837 0.000000 -0.772646 0.695000 -0.249400 1 0 1.000000 
0 6.575999 25.115801 38.861301 1.000000 0.000000 0.000000 0.695000 -0.241700 1 0 1.000000 
PLASTERWALL010I
0 6.575999 25.115801 37.874599 0.634837 0.000000 -0.772646 0.695000 -0.249400 1 0 1.000000 
0 6.576001 -25.421801 37.874599 0.922377 0.000000 -0.386290 0.301500 -0.249400 1 0 1.000000 
0 4.095501 -24.356800 37.131199 0.634837 0.000000 -0.772646 0.309800 -0.255200 1 0 1.000000 
PLASTERWALL010I
0 4.095501 -24.356800 37.131199 0.634837 0.000000 -0.772646 0.309800 -0.255200 1 0 1.000000 
0 4.095499 24.278400 37.131199 0.922377 0.000000 -0.386290 0.688500 -0.255200 1 0 1.000000 
0 6.575999 25.115801 37.874599 0.634837 0.000000 -0.772646 0.695000 -0.249400 1 0 1.000000 
PLASTERWALL010I
0 4.095499 24.278400 37.131199 0.922377 0.000000 -0.386290 0.688500 -0.255200 1 0 1.000000 
0 4.095501 -24.356800 37.131199 0.634837 0.000000 -0.772646 0.309800 -0.255200 1 0 1.000000 
0 4.095501 -24.356800 35.901199 0.924939 0.000000 -0.380116 0.309800 -0.264800 1 0 1.000000 
PLASTERWALL010I
0 4.095501 -24.356800 35.901199 0.924939 0.000000 -0.380116 0.309800 -0.264800 1 0 1.000000 
0 4.095499 24.278400 35.901199 0.649638 0.000000 -0.760244 0.688500 -0.264800 1 0 1.000000 
0 4.095499 24.278400 37.131199 0.922377 0.000000 -0.386290 0.688500 -0.255200 1 0 1.000000 
PLASTERWALL010I
0 4.095499 24.278400 35.901199 0.649638 0.000000 -0.760244 0.688500 -0.264800 1 0 1.000000 
0 4.095501 -24.356800 35.901199 0.924939 0.000000 -0.380116 0.309800 -0.264800 1 0 1.000000 
0 1.831101 -20.854900 35.157799 0.885620 0.000000 -0.464410 0.337100 -0.270600 1 0 1.000000 
PLASTERWALL010I
0 1.831101 -20.854900 35.157799 0.885620 0.000000 -0.464410 0.337100 -0.270600 1 0 1.000000 
0 1.831099 21.247999 35.157799 0.924939 0.000000 -0.380116 0.664900 -0.270600 1 0 1.000000 
0 4.095499 24.278400 35.901199 0.649638 0.000000 -0.760244 0.688500 -0.264800 1 0 1.000000 
PLASTERWALL010I
0 1.831099 15.197000 -30.978600 1.000000 0.000000 0.000000 0.617800 -0.786200 1 0 1.000000 
0 1.831099 21.247999 -30.978600 1.000000 0.000000 0.000000 0.664900 -0.786200 1 0 1.000000 
0 1.831099 15.197000 23.306601 1.000000 0.000000 0.000000 0.617800 -0.363000 1 0 1.000000 
PLASTERWALL010I
0 1.831099 21.247999 35.157799 0.924939 0.000000 -0.380116 0.664900 -0.270600 1 0 1.000000 
0 1.831099 15.197000 23.306601 1.000000 0.000000 0.000000 0.617800 -0.363000 1 0 1.000000 
0 1.831099 21.247999 -30.978600 1.000000 0.000000 0.000000 0.664900 -0.786200 1 0 1.000000 
PLASTERWALL010I
0 1.831099 21.247999 35.157799 0.924939 0.000000 -0.380116 0.664900 -0.270600 1 0 1.000000 
0 1.831101 -20.854900 35.157799 0.885620 0.000000 -0.464410 0.337100 -0.270600 1 0 1.000000 
0 1.831099 15.197000 23.306601 1.000000 0.000000 0.000000 0.617800 -0.363000 1 0 1.000000 
PLASTERWALL010I
0 1.831099 15.197000 23.306601 1.000000 0.000000 0.000000 0.617800 -0.363000 1 0 1.000000 
0 1.831101 -20.854900 35.157799 0.885620 0.000000 -0.464410 0.337100 -0.270600 1 0 1.000000 
0 1.831101 -15.195900 23.306601 1.000000 0.000000 0.000000 0.381200 -0.363000 1 0 1.000000 
PLASTERWALL010I
0 1.831101 -20.854900 35.157799 0.885620 0.000000 -0.464410 0.337100 -0.270600 1 0 1.000000 
0 1.831101 -20.854900 -30.978600 1.000000 0.000000 0.000000 0.337100 -0.786200 1 0 1.000000 
0 1.831101 -15.195900 23.306601 1.000000 0.000000 0.000000 0.381200 -0.363000 1 0 1.000000 
PLASTERWALL010I
0 1.831101 -15.195900 23.306601 1.000000 0.000000 0.000000 0.381200 -0.363000 1 0 1.000000 
0 1.831101 -20.854900 -30.978600 1.000000 0.000000 0.000000 0.337100 -0.786200 1 0 1.000000 
0 1.831101 -15.195900 -30.978600 1.000000 0.000000 0.000000 0.381200 -0.786200 1 0 1.000000 
PLASTERWALL010I
0 4.548600 16.098200 -39.579399 0.000000 -1.000000 0.000000 0.622500 -0.302600 1 0 1.000000 
0 4.518700 16.098200 -36.069901 0.000000 -1.000000 0.000000 0.608900 -0.302700 1 0 1.000000 
0 -0.000001 16.098200 -36.069000 0.000000 -1.000000 0.000000 0.608900 -0.320000 1 0 1.000000 
PLASTERWALL010I
0 4.012000 16.098200 -43.661800 0.000000 -1.000000 0.000000 0.638200 -0.304700 1 0 1.000000 
0 4.548600 16.098200 -39.579399 0.000000 -1.000000 0.000000 0.622500 -0.302600 1 0 1.000000 
0 -0.000001 16.098200 -36.069000 0.000000 -1.000000 0.000000 0.608900 -0.320000 1 0 1.000000 
PLASTERWALL010I
0 -0.000001 16.098200 -36.069000 0.000000 -1.000000 0.000000 0.608900 -0.320000 1 0 1.000000 
0 -0.000001 16.098200 -51.826698 0.000000 -0.996746 -0.080604 0.669700 -0.320000 1 0 1.000000 
0 4.012000 16.098200 -43.661800 0.000000 -1.000000 0.000000 0.638200 -0.304700 1 0 1.000000 
PLASTERWALL010I
0 2.432599 16.098200 -47.744301 0.000000 -1.000000 0.000000 0.653900 -0.310700 1 0 1.000000 
0 4.012000 16.098200 -43.661800 0.000000 -1.000000 0.000000 0.638200 -0.304700 1 0 1.000000 
0 -0.000001 16.098200 -51.826698 0.000000 -0.996746 -0.080604 0.669700 -0.320000 1 0 1.000000 
PLASTERWALL010I
0 1.959399 16.098200 -51.826698 0.000000 -0.999188 -0.040299 0.669700 -0.312500 1 0 1.000000 
0 2.432599 16.098200 -47.744301 0.000000 -1.000000 0.000000 0.653900 -0.310700 1 0 1.000000 
0 -0.000001 16.098200 -51.826698 0.000000 -0.996746 -0.080604 0.669700 -0.320000 1 0 1.000000 
PLASTERWALL010I
0 0.825599 16.594801 -55.909100 0.000000 -0.992689 -0.120699 0.685400 -0.316900 1 0 1.000000 
0 1.959399 16.098200 -51.826698 0.000000 -0.999188 -0.040299 0.669700 -0.312500 1 0 1.000000 
0 -0.000001 16.098200 -51.826698 0.000000 -0.996746 -0.080604 0.669700 -0.320000 1 0 1.000000 
PLASTERWALL010I
0 -0.000001 16.098200 -51.826698 0.000000 -0.996746 -0.080604 0.669700 -0.320000 1 0 1.000000 
0 -0.000001 16.594801 -55.909100 0.000000 -0.992689 -0.120699 0.685400 -0.320000 1 0 1.000000 
0 0.825599 16.594801 -55.909100 0.000000 -0.992689 -0.120699 0.685400 -0.316900 1 0 1.000000 
PLASTERWALL010I
0 0.000001 -20.787701 -51.826698 -1.000000 -0.000000 0.000000 0.669700 -0.320000 1 0 1.000000 
0 0.000001 -20.787701 -36.069000 -1.000000 -0.000000 0.000000 0.608900 -0.320000 1 0 1.000000 
0 0.000001 -15.044300 -36.069000 -1.000000 -0.000000 0.000000 0.608900 -0.320000 1 0 1.000000 
PLASTERWALL010I
0 0.000001 -15.044300 -36.069000 -1.000000 -0.000000 0.000000 0.608900 -0.320000 1 0 1.000000 
0 0.000001 -15.044300 -51.826698 -1.000000 -0.000000 0.000000 0.669700 -0.320000 1 0 1.000000 
0 0.000001 -20.787701 -51.826698 -1.000000 -0.000000 0.000000 0.669700 -0.320000 1 0 1.000000 
PLASTERWALL010I
0 0.000001 -20.396099 -55.909100 -1.000000 -0.000000 0.000000 0.685400 -0.320000 1 0 1.000000 
0 0.000001 -20.787701 -51.826698 -1.000000 -0.000000 0.000000 0.669700 -0.320000 1 0 1.000000 
0 0.000001 -15.044300 -51.826698 -1.000000 -0.000000 0.000000 0.669700 -0.320000 1 0 1.000000 
PLASTERWALL010I
0 0.000001 -15.044300 -51.826698 -1.000000 -0.000000 0.000000 0.669700 -0.320000 1 0 1.000000 
0 0.000001 -15.355500 -55.909100 -1.000000 -0.000000 0.000000 0.685400 -0.320000 1 0 1.000000 
0 0.000001 -20.396099 -55.909100 -1.000000 -0.000000 0.000000 0.685400 -0.320000 1 0 1.000000 
PLASTERWALL010I
0 3.812799 21.054300 35.819599 0.000000 -1.000000 0.000000 0.331800 -0.305400 1 0 1.000000 
0 0.104599 21.054300 35.819599 0.000000 -1.000000 0.000000 0.331800 -0.319600 1 0 1.000000 
0 3.812799 21.054300 33.015099 0.000000 -1.000000 0.000000 0.342600 -0.305400 1 0 1.000000 
PLASTERWALL010I
0 3.812799 21.054300 33.015099 0.000000 -1.000000 0.000000 0.342600 -0.305400 1 0 1.000000 
0 0.104599 21.054300 35.819599 0.000000 -1.000000 0.000000 0.331800 -0.319600 1 0 1.000000 
0 3.372099 21.054300 30.102900 0.000000 -1.000000 0.000000 0.353900 -0.307100 1 0 1.000000 
PLASTERWALL010I
0 -0.000001 21.054300 21.673201 0.000000 -1.000000 0.000000 0.386400 -0.320000 1 0 1.000000 
0 3.372099 21.054300 30.102900 0.000000 -1.000000 0.000000 0.353900 -0.307100 1 0 1.000000 
0 0.104599 21.054300 35.819599 0.000000 -1.000000 0.000000 0.331800 -0.319600 1 0 1.000000 
PLASTERWALL010I
0 3.372099 21.054300 30.102900 0.000000 -1.000000 0.000000 0.353900 -0.307100 1 0 1.000000 
0 -0.000001 21.054300 21.673201 0.000000 -1.000000 0.000000 0.386400 -0.320000 1 0 1.000000 
0 2.576899 21.054300 27.693600 0.000000 -1.000000 0.000000 0.363200 -0.310200 1 0 1.000000 
PLASTERWALL010I
0 2.576899 21.054300 27.693600 0.000000 -1.000000 0.000000 0.363200 -0.310200 1 0 1.000000 
0 -0.000001 21.054300 21.673201 0.000000 -1.000000 0.000000 0.386400 -0.320000 1 0 1.000000 
0 2.805899 21.054300 26.080700 0.000000 -1.000000 0.000000 0.369400 -0.309300 1 0 1.000000 
PLASTERWALL010I
0 2.805899 21.054300 26.080700 0.000000 -1.000000 0.000000 0.369400 -0.309300 1 0 1.000000 
0 -0.000001 21.054300 21.673201 0.000000 -1.000000 0.000000 0.386400 -0.320000 1 0 1.000000 
0 1.787399 21.054300 24.457300 0.000000 -1.000000 0.000000 0.375600 -0.313200 1 0 1.000000 
PLASTERWALL010I
0 1.787399 21.054300 24.457300 0.000000 -1.000000 0.000000 0.375600 -0.313200 1 0 1.000000 
0 -0.000001 21.054300 21.673201 0.000000 -1.000000 0.000000 0.386400 -0.320000 1 0 1.000000 
0 1.508599 21.054300 21.714800 0.000000 -1.000000 0.000000 0.386200 -0.314300 1 0 1.000000 
PLASTERWALL010I
0 0.000001 -15.195900 23.306601 -1.000000 -0.000000 0.000000 0.381200 -0.363000 1 0 1.000000 
0 0.000001 -15.195900 -30.978600 -1.000000 -0.000000 0.000000 0.589300 -0.320000 1 0 1.000000 
0 0.000001 -20.854900 -30.978600 -1.000000 -0.000000 0.000000 0.589300 -0.320000 1 0 1.000000 
PLASTERWALL010I
0 0.000001 -20.854900 -30.978600 -1.000000 -0.000000 0.000000 0.589300 -0.320000 1 0 1.000000 
0 0.000001 -20.854900 35.157799 -1.000000 -0.000000 0.000000 0.337100 -0.270600 1 0 1.000000 
0 0.000001 -15.195900 23.306601 -1.000000 -0.000000 0.000000 0.381200 -0.363000 1 0 1.000000 
PLASTERWALL010I
0 0.000001 -15.195900 23.306601 -1.000000 -0.000000 0.000000 0.381200 -0.363000 1 0 1.000000 
0 0.000001 -20.854900 35.157799 -1.000000 -0.000000 0.000000 0.337100 -0.270600 1 0 1.000000 
0 -0.000001 15.197000 23.306601 -1.000000 -0.000000 0.000000 0.617800 -0.363000 1 0 1.000000 
PLASTERWALL010I
0 0.000001 -20.854900 35.157799 -1.000000 -0.000000 0.000000 0.337100 -0.270600 1 0 1.000000 
0 -0.000001 21.247999 35.157799 -1.000000 -0.000000 0.000000 0.664900 -0.270600 1 0 1.000000 
0 -0.000001 15.197000 23.306601 -1.000000 -0.000000 0.000000 0.617800 -0.363000 1 0 1.000000 
PLASTERWALL010I
0 -0.000001 24.278400 35.901199 -1.000000 -0.000000 0.000000 0.688500 -0.264800 1 0 1.000000 
0 -0.000001 21.247999 35.157799 -1.000000 -0.000000 0.000000 0.664900 -0.270600 1 0 1.000000 
0 0.000001 -20.854900 35.157799 -1.000000 -0.000000 0.000000 0.337100 -0.270600 1 0 1.000000 
PLASTERWALL010I
0 0.000001 -20.854900 35.157799 -1.000000 -0.000000 0.000000 0.337100 -0.270600 1 0 1.000000 
0 0.000001 -24.356800 35.901199 -1.000000 -0.000000 0.000000 0.309800 -0.264800 1 0 1.000000 
0 -0.000001 24.278400 35.901199 -1.000000 -0.000000 0.000000 0.688500 -0.264800 1 0 1.000000 
PLASTERWALL010I
0 -0.000001 24.278400 37.131199 -1.000000 -0.000000 0.000000 0.688500 -0.255200 1 0 1.000000 
0 -0.000001 24.278400 35.901199 -1.000000 -0.000000 0.000000 0.688500 -0.264800 1 0 1.000000 
0 0.000001 -24.356800 35.901199 -1.000000 -0.000000 0.000000 0.309800 -0.264800 1 0 1.000000 
PLASTERWALL010I
0 0.000001 -24.356800 35.901199 -1.000000 -0.000000 0.000000 0.309800 -0.264800 1 0 1.000000 
0 0.000001 -24.356800 37.131199 -1.000000 -0.000000 0.000000 0.309800 -0.255200 1 0 1.000000 
0 -0.000001 24.278400 37.131199 -1.000000 -0.000000 0.000000 0.688500 -0.255200 1 0 1.000000 
PLASTERWALL010I
0 -0.000001 25.115801 37.874599 -1.000000 -0.000000 0.000000 0.695000 -0.249400 1 0 1.000000 
0 -0.000001 24.278400 37.131199 -1.000000 -0.000000 0.000000 0.688500 -0.255200 1 0 1.000000 
0 0.000001 -24.356800 37.131199 -1.000000 -0.000000 0.000000 0.309800 -0.255200 1 0 1.000000 
PLASTERWALL010I
0 0.000001 -24.356800 37.131199 -1.000000 -0.000000 0.000000 0.309800 -0.255200 1 0 1.000000 
0 0.000001 -25.421801 37.874599 -1.000000 -0.000000 0.000000 0.301500 -0.249400 1 0 1.000000 
0 -0.000001 25.115801 37.874599 -1.000000 -0.000000 0.000000 0.695000 -0.249400 1 0 1.000000 
PLASTERWALL010I
0 -0.000001 25.115801 38.861301 -1.000000 -0.000000 0.000000 0.695000 -0.241700 1 0 1.000000 
0 -0.000001 25.115801 37.874599 -1.000000 -0.000000 0.000000 0.695000 -0.249400 1 0 1.000000 
0 0.000001 -25.421801 37.874599 -1.000000 -0.000000 0.000000 0.301500 -0.249400 1 0 1.000000 
PLASTERWALL010I
0 0.000001 -25.421801 37.874599 -1.000000 -0.000000 0.000000 0.301500 -0.249400 1 0 1.000000 
0 0.000001 -25.421801 38.861301 -1.000000 -0.000000 0.000000 0.301500 -0.241700 1 0 1.000000 
0 -0.000001 25.115801 38.861301 -1.000000 -0.000000 0.000000 0.695000 -0.241700 1 0 1.000000 
PLASTERWALL010I
0 6.716699 23.256500 -34.626499 0.024700 0.913186 -0.406794 0.680500 -0.814600 1 0 1.000000 
0 5.106999 22.138300 -36.024300 0.070502 0.737719 -0.671417 0.671800 -0.825500 1 0 1.000000 
0 -0.000001 22.138300 -36.560799 0.035498 0.806862 -0.589672 0.671800 -0.829700 1 0 1.000000 
PLASTERWALL010I
0 -0.000001 22.138300 -36.560799 0.035498 0.806862 -0.589672 0.671800 -0.829700 1 0 1.000000 
0 -0.000001 23.256500 -34.626499 -0.000000 0.986461 -0.163994 0.680500 -0.814600 1 0 1.000000 
0 6.716699 23.256500 -34.626499 0.024700 0.913186 -0.406794 0.680500 -0.814600 1 0 1.000000 
PLASTERWALL010I
0 6.716699 23.238701 -33.146000 -0.000000 0.987214 -0.159402 0.680400 -0.803100 1 0 1.000000 
0 6.716699 23.256500 -34.626499 0.024700 0.913186 -0.406794 0.680500 -0.814600 1 0 1.000000 
0 -0.000001 23.256500 -34.626499 -0.000000 0.986461 -0.163994 0.680500 -0.814600 1 0 1.000000 
PLASTERWALL010I
0 -0.000001 23.256500 -34.626499 -0.000000 0.986461 -0.163994 0.680500 -0.814600 1 0 1.000000 
0 -0.000001 23.238701 -33.146000 -0.000000 0.943523 -0.331308 0.680400 -0.803100 1 0 1.000000 
0 6.716699 23.238701 -33.146000 -0.000000 0.987214 -0.159402 0.680400 -0.803100 1 0 1.000000 
PLASTERWALL010I
0 9.011799 23.876900 -32.004501 -0.000000 0.942248 -0.334917 0.685400 -0.794200 1 0 1.000000 
0 6.716699 23.238701 -33.146000 -0.000000 0.987214 -0.159402 0.680400 -0.803100 1 0 1.000000 
0 -0.000001 23.238701 -33.146000 -0.000000 0.943523 -0.331308 0.680400 -0.803100 1 0 1.000000 
PLASTERWALL010I
0 -0.000001 23.238701 -33.146000 -0.000000 0.943523 -0.331308 0.680400 -0.803100 1 0 1.000000 
0 -0.000001 23.876900 -32.004501 -0.000000 0.985873 -0.167495 0.685400 -0.794200 1 0 1.000000 
0 9.011799 23.876900 -32.004501 -0.000000 0.942248 -0.334917 0.685400 -0.794200 1 0 1.000000 
PLASTERWALL010I
0 9.011799 23.876900 -30.962999 -0.000000 1.000000 0.000000 0.685400 -0.786100 1 0 1.000000 
0 9.011799 23.876900 -32.004501 -0.000000 0.942248 -0.334917 0.685400 -0.794200 1 0 1.000000 
0 -0.000001 23.876900 -32.004501 -0.000000 0.985873 -0.167495 0.685400 -0.794200 1 0 1.000000 
PLASTERWALL010I
0 -0.000001 23.876900 -32.004501 -0.000000 0.985873 -0.167495 0.685400 -0.794200 1 0 1.000000 
0 -0.000001 23.876900 -30.962999 -0.000000 1.000000 0.000000 0.685400 -0.786100 1 0 1.000000 
0 9.011799 23.876900 -30.962999 -0.000000 1.000000 0.000000 0.685400 -0.786100 1 0 1.000000 
PLASTERWALL010I
0 0.000001 -22.502199 -34.626499 0.019399 -0.912871 -0.407787 0.324300 -0.814600 1 0 1.000000 
0 0.000001 -21.297899 -36.560799 0.055401 -0.847616 -0.527710 0.333600 -0.829700 1 0 1.000000 
0 5.107001 -21.297899 -36.024300 0.027800 -0.805307 -0.592205 0.333600 -0.825500 1 0 1.000000 
PLASTERWALL010I
0 5.107001 -21.297899 -36.024300 0.027800 -0.805307 -0.592205 0.333600 -0.825500 1 0 1.000000 
0 6.716701 -22.502199 -34.626499 0.000000 -0.975681 -0.219196 0.324300 -0.814600 1 0 1.000000 
0 0.000001 -22.502199 -34.626499 0.019399 -0.912871 -0.407787 0.324300 -0.814600 1 0 1.000000 
PLASTERWALL010I
0 0.000001 -22.477600 -33.146000 0.000000 -0.984283 -0.176597 0.324500 -0.803100 1 0 1.000000 
0 0.000001 -22.502199 -34.626499 0.019399 -0.912871 -0.407787 0.324300 -0.814600 1 0 1.000000 
0 6.716701 -22.502199 -34.626499 0.000000 -0.975681 -0.219196 0.324300 -0.814600 1 0 1.000000 
PLASTERWALL010I
0 6.716701 -22.502199 -34.626499 0.000000 -0.975681 -0.219196 0.324300 -0.814600 1 0 1.000000 
0 6.716701 -22.477600 -33.146000 0.000000 -0.928828 -0.370511 0.324500 -0.803100 1 0 1.000000 
0 0.000001 -22.477600 -33.146000 0.000000 -0.984283 -0.176597 0.324500 -0.803100 1 0 1.000000 
PLASTERWALL010I
0 0.000001 -23.215200 -32.004501 0.000000 -0.926868 -0.375387 0.318700 -0.794200 1 0 1.000000 
0 0.000001 -22.477600 -33.146000 0.000000 -0.984283 -0.176597 0.324500 -0.803100 1 0 1.000000 
0 6.716701 -22.477600 -33.146000 0.000000 -0.928828 -0.370511 0.324500 -0.803100 1 0 1.000000 
PLASTERWALL010I
0 6.716701 -22.477600 -33.146000 0.000000 -0.928828 -0.370511 0.324500 -0.803100 1 0 1.000000 
0 9.011801 -23.215200 -32.004501 0.000000 -0.982225 -0.187705 0.318700 -0.794200 1 0 1.000000 
0 0.000001 -23.215200 -32.004501 0.000000 -0.926868 -0.375387 0.318700 -0.794200 1 0 1.000000 
PLASTERWALL010I
0 0.000001 -23.215200 -30.962999 0.000000 -1.000000 0.000000 0.318700 -0.786100 1 0 1.000000 
0 0.000001 -23.215200 -32.004501 0.000000 -0.926868 -0.375387 0.318700 -0.794200 1 0 1.000000 
0 9.011801 -23.215200 -32.004501 0.000000 -0.982225 -0.187705 0.318700 -0.794200 1 0 1.000000 
PLASTERWALL010I
0 9.011801 -23.215200 -32.004501 0.000000 -0.982225 -0.187705 0.318700 -0.794200 1 0 1.000000 
0 9.011801 -23.215200 -30.962999 0.000000 -1.000000 0.000000 0.318700 -0.786100 1 0 1.000000 
0 0.000001 -23.215200 -30.962999 0.000000 -1.000000 0.000000 0.318700 -0.786100 1 0 1.000000 
PLASTERWALL010I
0 1.857899 12.287900 39.139999 0.724499 -0.226500 -0.650999 0.595100 -0.239600 1 0 1.000000 
0 5.554699 20.353901 39.139999 0.714478 -0.327490 -0.618281 0.657900 -0.239600 1 0 1.000000 
0 5.554699 12.623600 43.234001 0.717286 -0.273195 -0.640988 0.597800 -0.207600 1 0 1.000000 
PLASTERWALL010I
0 5.554699 12.623600 43.234001 0.717286 -0.273195 -0.640988 0.597800 -0.207600 1 0 1.000000 
0 5.554700 4.258901 45.295700 0.717310 -0.111902 -0.687709 0.532600 -0.191600 1 0 1.000000 
0 1.857899 12.287900 39.139999 0.724499 -0.226500 -0.650999 0.595100 -0.239600 1 0 1.000000 
PLASTERWALL010I
0 1.857900 3.799800 41.514599 0.717309 -0.055901 -0.694509 0.529100 -0.221000 1 0 1.000000 
0 1.857899 12.287900 39.139999 0.724499 -0.226500 -0.650999 0.595100 -0.239600 1 0 1.000000 
0 5.554700 4.258901 45.295700 0.717310 -0.111902 -0.687709 0.532600 -0.191600 1 0 1.000000 
PLASTERWALL010I
0 5.554700 4.258901 45.295700 0.717310 -0.111902 -0.687709 0.532600 -0.191600 1 0 1.000000 
0 5.554700 -4.356100 45.295700 0.717309 0.055901 -0.694509 0.465600 -0.191600 1 0 1.000000 
0 1.857900 3.799800 41.514599 0.717309 -0.055901 -0.694509 0.529100 -0.221000 1 0 1.000000 
PLASTERWALL010I
0 1.857900 -3.897000 41.514599 0.717310 0.111902 -0.687709 0.469100 -0.221000 1 0 1.000000 
0 1.857900 3.799800 41.514599 0.717309 -0.055901 -0.694509 0.529100 -0.221000 1 0 1.000000 
0 5.554700 -4.356100 45.295700 0.717309 0.055901 -0.694509 0.465600 -0.191600 1 0 1.000000 
PLASTERWALL010I
0 5.554700 -4.356100 45.295700 0.717309 0.055901 -0.694509 0.465600 -0.191600 1 0 1.000000 
0 5.554700 -12.720800 43.234001 0.729761 0.256986 -0.633566 0.400400 -0.207600 1 0 1.000000 
0 1.857900 -3.897000 41.514599 0.717310 0.111902 -0.687709 0.469100 -0.221000 1 0 1.000000 
PLASTERWALL010I
0 1.857901 -12.385000 39.139999 0.714896 0.325598 -0.618797 0.403000 -0.239600 1 0 1.000000 
0 1.857900 -3.897000 41.514599 0.717310 0.111902 -0.687709 0.469100 -0.221000 1 0 1.000000 
0 5.554700 -12.720800 43.234001 0.729761 0.256986 -0.633566 0.400400 -0.207600 1 0 1.000000 
PLASTERWALL010I
0 5.554701 -20.451099 39.139999 0.714478 0.327490 -0.618281 0.340200 -0.239600 1 0 1.000000 
0 1.857901 -12.385000 39.139999 0.714896 0.325598 -0.618797 0.403000 -0.239600 1 0 1.000000 
0 5.554700 -12.720800 43.234001 0.729761 0.256986 -0.633566 0.400400 -0.207600 1 0 1.000000 
PLASTERWALL010I
0 5.554701 -26.757200 40.216599 0.000000 -0.663115 0.748517 0.360200 -0.299700 1 0 1.000000 
0 5.554701 -23.203100 43.365299 0.000000 -0.568081 0.822973 0.378900 -0.299700 1 0 1.000000 
0 0.000001 -26.757200 40.216599 0.000000 -0.663115 0.748517 0.360200 -0.277600 1 0 1.000000 
PLASTERWALL010I
0 0.000001 -23.203100 43.365299 0.000000 -0.568081 0.822973 0.378900 -0.277600 1 0 1.000000 
0 0.000001 -26.757200 40.216599 0.000000 -0.663115 0.748517 0.360200 -0.277600 1 0 1.000000 
0 5.554701 -23.203100 43.365299 0.000000 -0.568081 0.822973 0.378900 -0.299700 1 0 1.000000 
PLASTERWALL010I
0 0.000001 -14.502400 47.931801 0.000000 -0.392108 0.919919 0.424500 -0.277600 1 0 1.000000 
0 0.000001 -23.203100 43.365299 0.000000 -0.568081 0.822973 0.378900 -0.277600 1 0 1.000000 
0 5.554701 -23.203100 43.365299 0.000000 -0.568081 0.822973 0.378900 -0.299700 1 0 1.000000 
PLASTERWALL010I
0 0.000001 -14.502400 47.931801 0.000000 -0.392108 0.919919 0.424500 -0.277600 1 0 1.000000 
0 5.554701 -23.203100 43.365299 0.000000 -0.568081 0.822973 0.378900 -0.299700 1 0 1.000000 
0 5.554700 -14.502400 47.931801 0.000000 -0.316498 0.948593 0.424500 -0.299700 1 0 1.000000 
PLASTERWALL010I
0 0.000000 -4.961700 50.283298 0.000000 -0.160603 0.987019 0.474500 -0.277600 1 0 1.000000 
0 0.000001 -14.502400 47.931801 0.000000 -0.392108 0.919919 0.424500 -0.277600 1 0 1.000000 
0 5.554700 -14.502400 47.931801 0.000000 -0.316498 0.948593 0.424500 -0.299700 1 0 1.000000 
PLASTERWALL010I
0 0.000000 -4.961700 50.283298 0.000000 -0.160603 0.987019 0.474500 -0.277600 1 0 1.000000 
0 5.554700 -14.502400 47.931801 0.000000 -0.316498 0.948593 0.424500 -0.299700 1 0 1.000000 
0 5.554700 -4.961699 50.283298 0.000000 -0.080298 0.996771 0.474500 -0.299700 1 0 1.000000 
PLASTERWALL010I
0 -0.000000 4.864500 50.283298 -0.000000 0.080298 0.996771 0.526000 -0.277600 1 0 1.000000 
0 0.000000 -4.961700 50.283298 0.000000 -0.160603 0.987019 0.474500 -0.277600 1 0 1.000000 
0 5.554700 -4.961699 50.283298 0.000000 -0.080298 0.996771 0.474500 -0.299700 1 0 1.000000 
PLASTERWALL010I
0 -0.000000 4.864500 50.283298 -0.000000 0.080298 0.996771 0.526000 -0.277600 1 0 1.000000 
0 5.554700 -4.961699 50.283298 0.000000 -0.080298 0.996771 0.474500 -0.299700 1 0 1.000000 
0 5.554700 4.864501 50.283298 -0.000000 0.160603 0.987019 0.526000 -0.299700 1 0 1.000000 
PLASTERWALL010I
0 -0.000001 14.405200 47.931801 -0.000000 0.316498 0.948593 0.576000 -0.277600 1 0 1.000000 
0 -0.000000 4.864500 50.283298 -0.000000 0.080298 0.996771 0.526000 -0.277600 1 0 1.000000 
0 5.554700 4.864501 50.283298 -0.000000 0.160603 0.987019 0.526000 -0.299700 1 0 1.000000 
PLASTERWALL010I
0 -0.000001 14.405200 47.931801 -0.000000 0.316498 0.948593 0.576000 -0.277600 1 0 1.000000 
0 5.554700 4.864501 50.283298 -0.000000 0.160603 0.987019 0.526000 -0.299700 1 0 1.000000 
0 5.554699 14.405200 47.931801 -0.000000 0.392108 0.919919 0.576000 -0.299700 1 0 1.000000 
PLASTERWALL010I
0 -0.000001 23.105900 43.365299 -0.000000 0.534298 0.845296 0.621600 -0.277600 1 0 1.000000 
0 -0.000001 14.405200 47.931801 -0.000000 0.316498 0.948593 0.576000 -0.277600 1 0 1.000000 
0 5.554699 14.405200 47.931801 -0.000000 0.392108 0.919919 0.576000 -0.299700 1 0 1.000000 
PLASTERWALL010I
0 -0.000001 23.105900 43.365299 -0.000000 0.534298 0.845296 0.621600 -0.277600 1 0 1.000000 
0 5.554699 14.405200 47.931801 -0.000000 0.392108 0.919919 0.576000 -0.299700 1 0 1.000000 
0 5.554699 23.105900 43.365299 -0.000000 0.600912 0.799315 0.621600 -0.299700 1 0 1.000000 
PLASTERWALL010I
0 5.554699 23.105900 43.365299 -0.000000 0.600912 0.799315 0.621600 -0.299700 1 0 1.000000 
0 -0.000001 26.570101 40.296299 -0.000000 0.663115 0.748517 0.639800 -0.277600 1 0 1.000000 
0 -0.000001 23.105900 43.365299 -0.000000 0.534298 0.845296 0.621600 -0.277600 1 0 1.000000 
PLASTERWALL010I
0 -0.000001 26.570101 40.296299 -0.000000 0.663115 0.748517 0.639800 -0.277600 1 0 1.000000 
0 5.554699 23.105900 43.365299 -0.000000 0.600912 0.799315 0.621600 -0.299700 1 0 1.000000 
0 5.554699 26.570101 40.296299 -0.000000 0.663115 0.748517 0.639800 -0.299700 1 0 1.000000 
PLASTERWALL010I
0 5.107001 -21.297899 -36.024300 0.655711 0.000000 -0.755012 0.333600 -0.825500 1 0 1.000000 
0 5.106999 22.138300 -36.024300 0.655711 0.000000 -0.755012 0.671800 -0.825500 1 0 1.000000 
0 6.716699 23.256500 -34.626499 0.837153 0.000000 -0.546969 0.680500 -0.814600 1 0 1.000000 
PLASTERWALL010I
0 6.716699 23.256500 -34.626499 0.837153 0.000000 -0.546969 0.680500 -0.814600 1 0 1.000000 
0 6.716701 -22.502199 -34.626499 0.961874 0.000000 -0.273493 0.324300 -0.814600 1 0 1.000000 
0 5.107001 -21.297899 -36.024300 0.655711 0.000000 -0.755012 0.333600 -0.825500 1 0 1.000000 
PLASTERWALL010I
0 6.716701 -22.502199 -34.626499 0.961874 0.000000 -0.273493 0.324300 -0.814600 1 0 1.000000 
0 6.716699 23.256500 -34.626499 0.837153 0.000000 -0.546969 0.680500 -0.814600 1 0 1.000000 
0 6.716699 23.238701 -33.146000 0.939038 0.000000 -0.343814 0.680400 -0.803100 1 0 1.000000 
PLASTERWALL010I
0 6.716699 23.238701 -33.146000 0.939038 0.000000 -0.343814 0.680400 -0.803100 1 0 1.000000 
0 6.716701 -22.477600 -33.146000 0.725997 0.000000 -0.687697 0.324500 -0.803100 1 0 1.000000 
0 6.716701 -22.502199 -34.626499 0.961874 0.000000 -0.273493 0.324300 -0.814600 1 0 1.000000 
PLASTERWALL010I
0 6.716701 -22.477600 -33.146000 0.725997 0.000000 -0.687697 0.324500 -0.803100 1 0 1.000000 
0 6.716699 23.238701 -33.146000 0.939038 0.000000 -0.343814 0.680400 -0.803100 1 0 1.000000 
0 9.011799 23.876900 -32.004501 0.725997 0.000000 -0.687697 0.685400 -0.794200 1 0 1.000000 
PLASTERWALL010I
0 9.011799 23.876900 -32.004501 0.725997 0.000000 -0.687697 0.685400 -0.794200 1 0 1.000000 
0 9.011801 -23.215200 -32.004501 0.939038 0.000000 -0.343814 0.318700 -0.794200 1 0 1.000000 
0 6.716701 -22.477600 -33.146000 0.725997 0.000000 -0.687697 0.324500 -0.803100 1 0 1.000000 
PLASTERWALL010I
0 9.011801 -23.215200 -32.004501 0.939038 0.000000 -0.343814 0.318700 -0.794200 1 0 1.000000 
0 9.011799 23.876900 -32.004501 0.725997 0.000000 -0.687697 0.685400 -0.794200 1 0 1.000000 
0 9.011799 23.876900 -30.962999 1.000000 0.000000 0.000000 0.685400 -0.786100 1 0 1.000000 
PLASTERWALL010I
0 9.011799 23.876900 -30.962999 1.000000 0.000000 0.000000 0.685400 -0.786100 1 0 1.000000 
0 9.011801 -23.215200 -30.962999 1.000000 0.000000 0.000000 0.318700 -0.786100 1 0 1.000000 
0 9.011801 -23.215200 -32.004501 0.939038 0.000000 -0.343814 0.318700 -0.794200 1 0 1.000000 
PLASTERWALL010I
0 3.812801 -20.779499 35.819599 1.000000 0.000000 0.000000 0.337700 -0.265400 1 0 1.000000 
0 3.812801 -23.486500 35.819599 1.000000 0.000000 0.000000 0.316600 -0.265400 1 0 1.000000 
0 3.812801 -23.486500 33.015099 0.998749 0.000000 -0.050002 0.316600 -0.287300 1 0 1.000000 
PLASTERWALL010I
0 3.812801 -23.486500 33.015099 0.998749 0.000000 -0.050002 0.316600 -0.287300 1 0 1.000000 
0 3.812801 -20.779499 33.015099 0.994987 0.000000 -0.099999 0.337700 -0.287300 1 0 1.000000 
0 3.812801 -20.779499 35.819599 1.000000 0.000000 0.000000 0.337700 -0.265400 1 0 1.000000 
PLASTERWALL010I
0 3.812801 -20.779499 33.015099 0.994987 0.000000 -0.099999 0.337700 -0.287300 1 0 1.000000 
0 3.812801 -23.486500 33.015099 0.998749 0.000000 -0.050002 0.316600 -0.287300 1 0 1.000000 
0 3.372101 -23.486500 30.102900 0.978783 0.000000 -0.204897 0.316600 -0.310000 1 0 1.000000 
PLASTERWALL010I
0 3.372101 -23.486500 30.102900 0.978783 0.000000 -0.204897 0.316600 -0.310000 1 0 1.000000 
0 3.372101 -20.779499 30.102900 0.965690 0.000000 -0.259697 0.337700 -0.310000 1 0 1.000000 
0 3.812801 -20.779499 33.015099 0.994987 0.000000 -0.099999 0.337700 -0.287300 1 0 1.000000 
PLASTERWALL010I
0 3.372101 -20.779499 30.102900 0.965690 0.000000 -0.259697 0.337700 -0.310000 1 0 1.000000 
0 3.372101 -23.486500 30.102900 0.978783 0.000000 -0.204897 0.316600 -0.310000 1 0 1.000000 
0 2.576901 -23.486500 27.693600 0.986125 0.000000 -0.166004 0.316600 -0.328800 1 0 1.000000 
PLASTERWALL010I
0 2.576901 -23.486500 27.693600 0.986125 0.000000 -0.166004 0.316600 -0.328800 1 0 1.000000 
0 2.576901 -20.779499 27.693600 0.999939 0.000000 -0.011000 0.337700 -0.328800 1 0 1.000000 
0 3.372101 -20.779499 30.102900 0.965690 0.000000 -0.259697 0.337700 -0.310000 1 0 1.000000 
PLASTERWALL010I
0 2.576901 -20.779499 27.693600 0.999939 0.000000 -0.011000 0.337700 -0.328800 1 0 1.000000 
0 2.576901 -23.486500 27.693600 0.986125 0.000000 -0.166004 0.316600 -0.328800 1 0 1.000000 
0 2.805901 -23.486500 26.080700 0.996103 0.000000 -0.088200 0.316600 -0.341400 1 0 1.000000 
PLASTERWALL010I
0 2.805901 -23.486500 26.080700 0.996103 0.000000 -0.088200 0.316600 -0.341400 1 0 1.000000 
0 2.805901 -20.779499 26.080700 0.945712 0.000000 -0.325004 0.337700 -0.341400 1 0 1.000000 
0 2.576901 -20.779499 27.693600 0.999939 0.000000 -0.011000 0.337700 -0.328800 1 0 1.000000 
PLASTERWALL010I
0 2.805901 -20.779499 26.080700 0.945712 0.000000 -0.325004 0.337700 -0.341400 1 0 1.000000 
0 2.805901 -23.486500 26.080700 0.996103 0.000000 -0.088200 0.316600 -0.341400 1 0 1.000000 
0 1.787401 -23.486500 24.457300 0.917690 0.000000 -0.397296 0.316600 -0.354000 1 0 1.000000 
PLASTERWALL010I
0 1.787401 -23.486500 24.457300 0.917690 0.000000 -0.397296 0.316600 -0.354000 1 0 1.000000 
0 1.787401 -20.779499 24.457300 0.968140 0.000000 -0.250410 0.337700 -0.354000 1 0 1.000000 
0 2.805901 -20.779499 26.080700 0.945712 0.000000 -0.325004 0.337700 -0.341400 1 0 1.000000 
PLASTERWALL010I
0 1.787401 -20.779499 24.457300 0.968140 0.000000 -0.250410 0.337700 -0.354000 1 0 1.000000 
0 1.787401 -23.486500 24.457300 0.917690 0.000000 -0.397296 0.316600 -0.354000 1 0 1.000000 
0 1.508601 -23.195499 21.714800 0.994876 0.000000 -0.101098 0.318900 -0.375400 1 0 1.000000 
PLASTERWALL010I
0 1.508601 -23.195499 21.714800 0.994876 0.000000 -0.101098 0.318900 -0.375400 1 0 1.000000 
0 1.508601 -20.779499 21.714800 0.994876 0.000000 -0.101098 0.337700 -0.375400 1 0 1.000000 
0 1.787401 -20.779499 24.457300 0.968140 0.000000 -0.250410 0.337700 -0.354000 1 0 1.000000 
PLASTERWALL010I
0 3.812801 -23.486500 33.015099 0.000000 -1.000000 0.000000 0.342600 -0.305400 1 0 1.000000 
0 3.812801 -23.486500 35.819599 0.000000 -1.000000 0.000000 0.331800 -0.305400 1 0 1.000000 
0 0.104601 -23.486500 35.819599 0.000000 -1.000000 0.000000 0.331800 -0.319600 1 0 1.000000 
PLASTERWALL010I
0 3.372101 -23.486500 30.102900 0.000000 -1.000000 0.000000 0.353900 -0.307100 1 0 1.000000 
0 3.812801 -23.486500 33.015099 0.000000 -1.000000 0.000000 0.342600 -0.305400 1 0 1.000000 
0 0.104601 -23.486500 35.819599 0.000000 -1.000000 0.000000 0.331800 -0.319600 1 0 1.000000 
PLASTERWALL010I
0 2.576901 -23.486500 27.693600 0.000000 -1.000000 0.000000 0.363200 -0.310200 1 0 1.000000 
0 3.372101 -23.486500 30.102900 0.000000 -1.000000 0.000000 0.353900 -0.307100 1 0 1.000000 
0 0.104601 -23.486500 35.819599 0.000000 -1.000000 0.000000 0.331800 -0.319600 1 0 1.000000 
PLASTERWALL010I
0 2.805901 -23.486500 26.080700 0.000000 -1.000000 0.000000 0.369400 -0.309300 1 0 1.000000 
0 2.576901 -23.486500 27.693600 0.000000 -1.000000 0.000000 0.363200 -0.310200 1 0 1.000000 
0 0.104601 -23.486500 35.819599 0.000000 -1.000000 0.000000 0.331800 -0.319600 1 0 1.000000 
PLASTERWALL010I
0 0.104601 -23.486500 35.819599 0.000000 -1.000000 0.000000 0.331800 -0.319600 1 0 1.000000 
0 0.000001 -23.486500 24.523199 -0.000400 -0.997616 -0.069001 0.375400 -0.320000 1 0 1.000000 
0 2.805901 -23.486500 26.080700 0.000000 -1.000000 0.000000 0.369400 -0.309300 1 0 1.000000 
PLASTERWALL010I
0 1.787401 -23.486500 24.457300 -0.001300 -0.999383 -0.035099 0.375600 -0.313200 1 0 1.000000 
0 2.805901 -23.486500 26.080700 0.000000 -1.000000 0.000000 0.369400 -0.309300 1 0 1.000000 
0 0.000001 -23.486500 24.523199 -0.000400 -0.997616 -0.069001 0.375400 -0.320000 1 0 1.000000 
PLASTERWALL010I
0 1.508601 -23.195499 21.714800 -0.000500 -0.994649 -0.103305 0.386200 -0.314300 1 0 1.000000 
0 1.787401 -23.486500 24.457300 -0.001300 -0.999383 -0.035099 0.375600 -0.313200 1 0 1.000000 
0 0.000001 -23.486500 24.523199 -0.000400 -0.997616 -0.069001 0.375400 -0.320000 1 0 1.000000 
PLASTERWALL010I
0 0.000001 -23.486500 24.523199 -0.000400 -0.997616 -0.069001 0.375400 -0.320000 1 0 1.000000 
0 0.000001 -23.195499 21.673201 0.002800 -0.994821 -0.101602 0.386400 -0.320000 1 0 1.000000 
0 1.508601 -23.195499 21.714800 -0.000500 -0.994649 -0.103305 0.386200 -0.314300 1 0 1.000000 
PLASTERWALL010I
0 5.554700 -12.720800 43.234001 1.000000 0.000000 0.000000 0.400400 -0.207600 1 0 1.000000 
0 5.554701 -25.659201 39.139999 1.000000 0.000000 0.000000 0.299700 -0.239600 1 0 1.000000 
0 5.554701 -20.451099 39.139999 1.000000 0.000000 0.000000 0.340200 -0.239600 1 0 1.000000 
PLASTERWALL010I
0 5.554701 -26.757200 40.216599 1.000000 0.000000 0.000000 0.291100 -0.231200 1 0 1.000000 
0 5.554701 -25.659201 39.139999 1.000000 0.000000 0.000000 0.299700 -0.239600 1 0 1.000000 
0 5.554700 -12.720800 43.234001 1.000000 0.000000 0.000000 0.400400 -0.207600 1 0 1.000000 
PLASTERWALL010I
0 5.554701 -26.757200 40.216599 1.000000 0.000000 0.000000 0.291100 -0.231200 1 0 1.000000 
0 5.554700 -12.720800 43.234001 1.000000 0.000000 0.000000 0.400400 -0.207600 1 0 1.000000 
0 5.554701 -23.203100 43.365299 1.000000 0.000000 0.000000 0.318800 -0.206600 1 0 1.000000 
PLASTERWALL010I
0 5.554700 -4.356100 45.295700 1.000000 0.000000 0.000000 0.465600 -0.191600 1 0 1.000000 
0 5.554701 -23.203100 43.365299 1.000000 0.000000 0.000000 0.318800 -0.206600 1 0 1.000000 
0 5.554700 -12.720800 43.234001 1.000000 0.000000 0.000000 0.400400 -0.207600 1 0 1.000000 
PLASTERWALL010I
0 5.554700 -14.502400 47.931801 1.000000 0.000000 0.000000 0.386600 -0.171000 1 0 1.000000 
0 5.554701 -23.203100 43.365299 1.000000 0.000000 0.000000 0.318800 -0.206600 1 0 1.000000 
0 5.554700 -4.356100 45.295700 1.000000 0.000000 0.000000 0.465600 -0.191600 1 0 1.000000 
PLASTERWALL010I
0 5.554700 4.258901 45.295700 1.000000 0.000000 0.000000 0.532600 -0.191600 1 0 1.000000 
0 5.554700 -14.502400 47.931801 1.000000 0.000000 0.000000 0.386600 -0.171000 1 0 1.000000 
0 5.554700 -4.356100 45.295700 1.000000 0.000000 0.000000 0.465600 -0.191600 1 0 1.000000 
PLASTERWALL010I
0 5.554700 -4.961699 50.283298 1.000000 0.000000 0.000000 0.460800 -0.152700 1 0 1.000000 
0 5.554700 -14.502400 47.931801 1.000000 0.000000 0.000000 0.386600 -0.171000 1 0 1.000000 
0 5.554700 4.258901 45.295700 1.000000 0.000000 0.000000 0.532600 -0.191600 1 0 1.000000 
PLASTERWALL010I
0 5.554699 12.623600 43.234001 1.000000 0.000000 0.000000 0.597800 -0.207600 1 0 1.000000 
0 5.554700 -4.961699 50.283298 1.000000 0.000000 0.000000 0.460800 -0.152700 1 0 1.000000 
0 5.554700 4.258901 45.295700 1.000000 0.000000 0.000000 0.532600 -0.191600 1 0 1.000000 
PLASTERWALL010I
0 5.554700 4.864501 50.283298 1.000000 0.000000 0.000000 0.537300 -0.152700 1 0 1.000000 
0 5.554700 -4.961699 50.283298 1.000000 0.000000 0.000000 0.460800 -0.152700 1 0 1.000000 
0 5.554699 12.623600 43.234001 1.000000 0.000000 0.000000 0.597800 -0.207600 1 0 1.000000 
PLASTERWALL010I
0 5.554699 20.353901 39.139999 1.000000 0.000000 0.000000 0.657900 -0.239600 1 0 1.000000 
0 5.554700 4.864501 50.283298 1.000000 0.000000 0.000000 0.537300 -0.152700 1 0 1.000000 
0 5.554699 12.623600 43.234001 1.000000 0.000000 0.000000 0.597800 -0.207600 1 0 1.000000 
PLASTERWALL010I
0 5.554699 14.405200 47.931801 1.000000 0.000000 0.000000 0.611600 -0.171000 1 0 1.000000 
0 5.554700 4.864501 50.283298 1.000000 0.000000 0.000000 0.537300 -0.152700 1 0 1.000000 
0 5.554699 20.353901 39.139999 1.000000 0.000000 0.000000 0.657900 -0.239600 1 0 1.000000 
PLASTERWALL010I
0 5.554699 14.405200 47.931801 1.000000 0.000000 0.000000 0.611600 -0.171000 1 0 1.000000 
0 5.554699 20.353901 39.139999 1.000000 0.000000 0.000000 0.657900 -0.239600 1 0 1.000000 
0 5.554699 23.105900 43.365299 1.000000 0.000000 0.000000 0.679400 -0.206600 1 0 1.000000 
PLASTERWALL010I
0 5.554699 20.353901 39.139999 1.000000 0.000000 0.000000 0.657900 -0.239600 1 0 1.000000 
0 5.554699 25.397900 39.139999 1.000000 0.000000 0.000000 0.697200 -0.239600 1 0 1.000000 
0 5.554699 23.105900 43.365299 1.000000 0.000000 0.000000 0.679400 -0.206600 1 0 1.000000 
PLASTERWALL010I
0 5.554699 26.570101 40.296299 1.000000 0.000000 0.000000 0.706300 -0.230500 1 0 1.000000 
0 5.554699 23.105900 43.365299 1.000000 0.000000 0.000000 0.679400 -0.206600 1 0 1.000000 
0 5.554699 25.397900 39.139999 1.000000 0.000000 0.000000 0.697200 -0.239600 1 0 1.000000 
end
