version 1
nodes
  0 "static_prop" -1
end
skeleton
time 0
0 0.000000 0.000000 0.000000 0.000000 0.000000 0.000000
end
triangles
metcombinebridge
0 16.998611 -256.250488 41.244400 1.000000 0.000000 0.000000 0.051200 -0.392000 1 0 1.000000 
0 16.998611 -253.663193 39.750599 1.000000 0.000000 0.000000 0.055700 -0.396000 1 0 1.000000 
0 16.998611 -253.663193 42.738098 1.000000 0.000000 0.000000 0.055700 -0.388100 1 0 1.000000 
metcombinebridge
0 -16.470789 -241.946198 -133.469193 -1.000000 -0.000000 0.000000 0.076300 -0.849400 1 0 1.000000 
0 -16.470789 -241.946198 -161.045700 -1.000000 -0.000000 0.000000 0.076300 -0.921500 1 0 1.000000 
0 -16.470789 -265.332489 -153.490494 -1.000000 -0.000000 0.000000 0.035300 -0.901800 1 0 1.000000 
metcombinebridge
0 -16.470789 -241.946198 -133.469193 -1.000000 -0.000000 0.000000 0.076300 -0.849400 1 0 1.000000 
0 -16.470789 -265.332489 -153.490494 -1.000000 -0.000000 0.000000 0.035300 -0.901800 1 0 1.000000 
0 -16.470789 -265.332489 -133.469193 -1.000000 -0.000000 0.000000 0.035300 -0.849400 1 0 1.000000 
metcombinebridge
0 -16.470789 -262.102295 -66.107101 -1.000000 -0.000000 0.000000 0.041000 -0.673000 1 0 1.000000 
0 -16.470789 -241.946198 -133.469193 -1.000000 -0.000000 0.000000 0.076300 -0.849400 1 0 1.000000 
0 -16.470789 -265.332489 -133.469193 -1.000000 -0.000000 0.000000 0.035300 -0.849400 1 0 1.000000 
metcombinebridge
0 -16.470789 -262.102295 -66.107101 -1.000000 -0.000000 0.000000 0.041000 -0.673000 1 0 1.000000 
0 -16.470789 -265.332489 -133.469193 -1.000000 -0.000000 0.000000 0.035300 -0.849400 1 0 1.000000 
0 -16.470787 -285.488586 -66.107101 -1.000000 -0.000000 0.000000 0.000000 -0.673000 1 0 1.000000 
metcombinebridge
0 -16.470787 -285.488586 -66.107101 -1.000000 -0.000000 0.000000 0.000000 -0.673000 1 0 1.000000 
0 -16.470789 -262.102295 24.851801 -1.000000 -0.000000 0.000000 0.041000 -0.435000 1 0 1.000000 
0 -16.470789 -262.102295 -66.107101 -1.000000 -0.000000 0.000000 0.041000 -0.673000 1 0 1.000000 
metcombinebridge
0 -16.470787 -285.488586 -66.107101 -1.000000 -0.000000 0.000000 0.000000 -0.673000 1 0 1.000000 
0 -16.470787 -285.488586 24.851801 -1.000000 -0.000000 0.000000 0.000000 -0.435000 1 0 1.000000 
0 -16.470789 -262.102295 24.851801 -1.000000 -0.000000 0.000000 0.041000 -0.435000 1 0 1.000000 
metcombinebridge
0 -16.470787 -285.488586 24.851801 -1.000000 -0.000000 0.000000 0.000000 -0.435000 1 0 1.000000 
0 -16.470789 -250.572205 36.030201 -1.000000 -0.000000 0.000000 0.061200 -0.405700 1 0 1.000000 
0 -16.470789 -262.102295 24.851801 -1.000000 -0.000000 0.000000 0.041000 -0.435000 1 0 1.000000 
metcombinebridge
0 -16.470787 -285.488586 24.851801 -1.000000 -0.000000 0.000000 0.000000 -0.435000 1 0 1.000000 
0 -16.470789 -273.958496 36.030201 -1.000000 -0.000000 0.000000 0.020200 -0.405700 1 0 1.000000 
0 -16.470789 -250.572205 36.030201 -1.000000 -0.000000 0.000000 0.061200 -0.405700 1 0 1.000000 
metcombinebridge
0 -16.470789 -273.958496 36.030201 -1.000000 -0.000000 0.000000 0.020200 -0.405700 1 0 1.000000 
0 -16.470789 -250.572205 91.153702 -1.000000 -0.000000 0.000000 0.061200 -0.261400 1 0 1.000000 
0 -16.470789 -250.572205 36.030201 -1.000000 -0.000000 0.000000 0.061200 -0.405700 1 0 1.000000 
metcombinebridge
0 -16.470789 -273.958496 36.030201 -1.000000 -0.000000 0.000000 0.020200 -0.405700 1 0 1.000000 
0 -16.470789 -273.958496 73.139099 -1.000000 -0.000000 0.000000 0.020200 -0.308600 1 0 1.000000 
0 -16.470789 -250.572205 91.153702 -1.000000 -0.000000 0.000000 0.061200 -0.261400 1 0 1.000000 
metcombinebridge
0 -3.898695 -110.932899 -165.028000 -1.000000 -0.000000 0.000000 0.305700 -0.932000 1 0 1.000000 
0 -3.898695 -113.428299 -177.572906 -1.000000 -0.000000 0.000000 0.301300 -0.964800 1 0 1.000000 
0 -3.898694 -137.775803 -180.102203 -1.000000 -0.000000 0.000000 0.258700 -0.971400 1 0 1.000000 
metcombinebridge
0 -3.898695 -110.932899 -165.028000 -1.000000 -0.000000 0.000000 0.305700 -0.932000 1 0 1.000000 
0 -3.898694 -137.775803 -180.102203 -1.000000 -0.000000 0.000000 0.258700 -0.971400 1 0 1.000000 
0 -3.898694 -133.869797 -160.465607 -1.000000 -0.000000 0.000000 0.265500 -0.920000 1 0 1.000000 
metcombinebridge
0 -3.898696 -88.836502 -101.611702 -1.000000 -0.000000 0.000000 0.344400 -0.766000 1 0 1.000000 
0 -3.898695 -110.932899 -165.028000 -1.000000 -0.000000 0.000000 0.305700 -0.932000 1 0 1.000000 
0 -3.898694 -133.869797 -160.465607 -1.000000 -0.000000 0.000000 0.265500 -0.920000 1 0 1.000000 
metcombinebridge
0 -3.898696 -88.836502 -101.611702 -1.000000 -0.000000 0.000000 0.344400 -0.766000 1 0 1.000000 
0 -3.898694 -133.869797 -160.465607 -1.000000 -0.000000 0.000000 0.265500 -0.920000 1 0 1.000000 
0 -3.898695 -111.773399 -97.049301 -1.000000 -0.000000 0.000000 0.304200 -0.754000 1 0 1.000000 
metcombinebridge
0 -3.898695 -111.773399 -97.049301 -1.000000 -0.000000 0.000000 0.304200 -0.754000 1 0 1.000000 
0 -3.898797 -64.382301 21.327700 -1.000000 -0.000000 0.000000 0.387200 -0.444200 1 0 1.000000 
0 -3.898696 -88.836502 -101.611702 -1.000000 -0.000000 0.000000 0.344400 -0.766000 1 0 1.000000 
metcombinebridge
0 -3.898695 -111.773399 -97.049301 -1.000000 -0.000000 0.000000 0.304200 -0.754000 1 0 1.000000 
0 -3.898796 -87.319199 25.890100 -1.000000 -0.000000 0.000000 0.347100 -0.432200 1 0 1.000000 
0 -3.898797 -64.382301 21.327700 -1.000000 -0.000000 0.000000 0.387200 -0.444200 1 0 1.000000 
metcombinebridge
0 -3.898796 -87.319199 25.890100 -1.000000 -0.000000 0.000000 0.347100 -0.432200 1 0 1.000000 
0 -3.898797 -74.159798 34.669899 -1.000000 -0.000000 0.000000 0.370100 -0.409300 1 0 1.000000 
0 -3.898797 -64.382301 21.327700 -1.000000 -0.000000 0.000000 0.387200 -0.444200 1 0 1.000000 
metcombinebridge
0 -3.898796 -87.319199 25.890100 -1.000000 -0.000000 0.000000 0.347100 -0.432200 1 0 1.000000 
0 -3.898796 -97.096703 39.232300 -1.000000 -0.000000 0.000000 0.329900 -0.397300 1 0 1.000000 
0 -3.898797 -74.159798 34.669899 -1.000000 -0.000000 0.000000 0.370100 -0.409300 1 0 1.000000 
metcombinebridge
0 -3.898796 -97.096703 39.232300 -1.000000 -0.000000 0.000000 0.329900 -0.397300 1 0 1.000000 
0 -3.898797 -70.153000 54.813702 -1.000000 -0.000000 0.000000 0.377100 -0.356500 1 0 1.000000 
0 -3.898797 -74.159798 34.669899 -1.000000 -0.000000 0.000000 0.370100 -0.409300 1 0 1.000000 
metcombinebridge
0 -3.898796 -97.096703 39.232300 -1.000000 -0.000000 0.000000 0.329900 -0.397300 1 0 1.000000 
0 -3.898796 -89.839798 75.715302 -1.000000 -0.000000 0.000000 0.342700 -0.301800 1 0 1.000000 
0 -3.898797 -70.153000 54.813702 -1.000000 -0.000000 0.000000 0.377100 -0.356500 1 0 1.000000 
metcombinebridge
0 -11.980289 -265.622894 -16.860701 0.500011 0.000000 0.866019 0.034800 -0.544100 1 0 1.000000 
0 -9.392992 -182.930099 -18.354500 0.500011 0.000000 0.866019 0.179600 -0.548000 1 0 1.000000 
0 -11.980292 -182.930099 -16.860701 0.500011 0.000000 0.866019 0.179600 -0.544100 1 0 1.000000 
metcombinebridge
0 -11.980289 -265.622894 -16.860701 0.500011 0.000000 0.866019 0.034800 -0.544100 1 0 1.000000 
0 -9.392988 -265.622894 -18.354500 0.500011 0.000000 0.866019 0.034800 -0.548000 1 0 1.000000 
0 -9.392992 -182.930099 -18.354500 0.500011 0.000000 0.866019 0.179600 -0.548000 1 0 1.000000 
metcombinebridge
0 -9.392988 -265.622894 -18.354500 0.500011 0.000000 -0.866019 0.034800 -0.548000 1 0 1.000000 
0 -11.980292 -182.930099 -19.848200 0.500011 0.000000 -0.866019 0.179600 -0.552000 1 0 1.000000 
0 -9.392992 -182.930099 -18.354500 0.500011 0.000000 -0.866019 0.179600 -0.548000 1 0 1.000000 
metcombinebridge
0 -9.392988 -265.622894 -18.354500 0.500011 0.000000 -0.866019 0.034800 -0.548000 1 0 1.000000 
0 -11.980289 -265.622894 -19.848200 0.500011 0.000000 -0.866019 0.034800 -0.552000 1 0 1.000000 
0 -11.980292 -182.930099 -19.848200 0.500011 0.000000 -0.866019 0.179600 -0.552000 1 0 1.000000 
metcombinebridge
0 -11.980289 -265.622894 -19.848200 -1.000000 -0.000000 0.000000 0.034800 -0.552000 1 0 1.000000 
0 -11.980292 -182.930099 -16.860701 -1.000000 -0.000000 0.000000 0.179600 -0.544100 1 0 1.000000 
0 -11.980292 -182.930099 -19.848200 -1.000000 -0.000000 0.000000 0.179600 -0.552000 1 0 1.000000 
metcombinebridge
0 -11.980289 -265.622894 -19.848200 -1.000000 -0.000000 0.000000 0.034800 -0.552000 1 0 1.000000 
0 -11.980289 -265.622894 -16.860701 -1.000000 -0.000000 0.000000 0.034800 -0.544100 1 0 1.000000 
0 -11.980292 -182.930099 -16.860701 -1.000000 -0.000000 0.000000 0.179600 -0.544100 1 0 1.000000 
metcombinebridge
0 15.428310 -231.788101 -160.257706 0.000000 -0.271391 -0.962469 0.592600 -0.813500 1 0 1.000000 
0 29.545506 -131.809906 -188.454407 0.000000 -0.271391 -0.962469 0.672400 -0.260900 1 0 1.000000 
0 29.545509 -231.788101 -160.257706 0.000000 -0.271391 -0.962469 0.672400 -0.813500 1 0 1.000000 
metcombinebridge
0 15.428310 -231.788101 -160.257706 0.000000 -0.271391 -0.962469 0.592600 -0.813500 1 0 1.000000 
0 15.428306 -131.809906 -188.454407 0.000000 -0.271391 -0.962469 0.592600 -0.260900 1 0 1.000000 
0 29.545506 -131.809906 -188.454407 0.000000 -0.271391 -0.962469 0.672400 -0.260900 1 0 1.000000 
metcombinebridge
0 -23.058094 -132.160599 -174.668793 0.000000 -0.500011 0.866019 0.268500 -0.957200 1 0 1.000000 
0 25.163906 -134.747894 -176.162598 0.000000 -0.500011 0.866019 0.264000 -0.961100 1 0 1.000000 
0 25.163906 -132.160599 -174.668793 0.000000 -0.500011 0.866019 0.268500 -0.957200 1 0 1.000000 
metcombinebridge
0 -23.058094 -132.160599 -174.668793 0.000000 -0.500011 0.866019 0.268500 -0.957200 1 0 1.000000 
0 -23.058094 -134.747894 -176.162598 0.000000 -0.500011 0.866019 0.264000 -0.961100 1 0 1.000000 
0 25.163906 -134.747894 -176.162598 0.000000 -0.500011 0.866019 0.264000 -0.961100 1 0 1.000000 
metcombinebridge
0 -23.058094 -134.747894 -176.162598 0.000000 -0.500011 -0.866019 0.264000 -0.961100 1 0 1.000000 
0 25.163906 -132.160599 -177.656296 0.000000 -0.500011 -0.866019 0.268500 -0.965000 1 0 1.000000 
0 25.163906 -134.747894 -176.162598 0.000000 -0.500011 -0.866019 0.264000 -0.961100 1 0 1.000000 
metcombinebridge
0 -23.058094 -134.747894 -176.162598 0.000000 -0.500011 -0.866019 0.264000 -0.961100 1 0 1.000000 
0 -23.058094 -132.160599 -177.656296 0.000000 -0.500011 -0.866019 0.268500 -0.965000 1 0 1.000000 
0 25.163906 -132.160599 -177.656296 0.000000 -0.500011 -0.866019 0.268500 -0.965000 1 0 1.000000 
metcombinebridge
0 -23.058094 -132.160599 -177.656296 -0.000000 1.000000 0.000000 0.268500 -0.965000 1 0 1.000000 
0 25.163906 -132.160599 -174.668793 -0.000000 1.000000 0.000000 0.268500 -0.957200 1 0 1.000000 
0 25.163906 -132.160599 -177.656296 -0.000000 1.000000 0.000000 0.268500 -0.965000 1 0 1.000000 
metcombinebridge
0 -23.058094 -132.160599 -177.656296 -0.000000 1.000000 0.000000 0.268500 -0.965000 1 0 1.000000 
0 -23.058094 -132.160599 -174.668793 -0.000000 1.000000 0.000000 0.268500 -0.957200 1 0 1.000000 
0 25.163906 -132.160599 -174.668793 -0.000000 1.000000 0.000000 0.268500 -0.957200 1 0 1.000000 
metcombinebridge
0 22.170908 -194.385696 -22.555000 1.000000 0.000000 0.000000 0.159600 -0.559000 1 0 1.000000 
0 22.170906 -138.621201 -13.882100 1.000000 0.000000 0.000000 0.257200 -0.536300 1 0 1.000000 
0 22.170908 -194.385696 -13.882100 1.000000 0.000000 0.000000 0.159600 -0.536300 1 0 1.000000 
metcombinebridge
0 22.170908 -194.385696 -22.555000 1.000000 0.000000 0.000000 0.159600 -0.559000 1 0 1.000000 
0 22.170906 -138.621201 -22.555000 1.000000 0.000000 0.000000 0.257200 -0.559000 1 0 1.000000 
0 22.170906 -138.621201 -13.882100 1.000000 0.000000 0.000000 0.257200 -0.536300 1 0 1.000000 
metcombinebridge
0 -25.829092 -194.385696 -13.882100 0.000000 0.000000 1.000000 0.359400 -0.544900 1 0 1.000000 
0 22.170906 -138.621201 -13.882100 0.000000 0.000000 1.000000 0.630700 -0.230500 1 0 1.000000 
0 -25.829094 -138.621201 -13.882100 0.000000 0.000000 1.000000 0.359400 -0.230500 1 0 1.000000 
metcombinebridge
0 -25.829092 -194.385696 -13.882100 0.000000 0.000000 1.000000 0.359400 -0.544900 1 0 1.000000 
0 22.170908 -194.385696 -13.882100 0.000000 0.000000 1.000000 0.630700 -0.544900 1 0 1.000000 
0 22.170906 -138.621201 -13.882100 0.000000 0.000000 1.000000 0.630700 -0.230500 1 0 1.000000 
metcombinebridge
0 -25.829094 -138.621201 -22.555000 -0.000000 1.000000 0.000000 0.368700 -0.558500 1 0 1.000000 
0 22.170906 -138.621201 -13.882100 -0.000000 1.000000 0.000000 0.494400 -0.535800 1 0 1.000000 
0 22.170906 -138.621201 -22.555000 -0.000000 1.000000 0.000000 0.494400 -0.558500 1 0 1.000000 
metcombinebridge
0 -25.829094 -138.621201 -22.555000 -0.000000 1.000000 0.000000 0.368700 -0.558500 1 0 1.000000 
0 -25.829094 -138.621201 -13.882100 -0.000000 1.000000 0.000000 0.368700 -0.535800 1 0 1.000000 
0 22.170906 -138.621201 -13.882100 -0.000000 1.000000 0.000000 0.494400 -0.535800 1 0 1.000000 
metcombinebridge
0 -25.829092 -194.385696 -22.555000 0.000000 -1.000000 0.000000 0.368700 -0.556600 1 0 1.000000 
0 22.170908 -194.385696 -13.882100 0.000000 -1.000000 0.000000 0.494400 -0.533900 1 0 1.000000 
0 -25.829092 -194.385696 -13.882100 0.000000 -1.000000 0.000000 0.368700 -0.533900 1 0 1.000000 
metcombinebridge
0 -25.829092 -194.385696 -22.555000 0.000000 -1.000000 0.000000 0.368700 -0.556600 1 0 1.000000 
0 22.170908 -194.385696 -22.555000 0.000000 -1.000000 0.000000 0.494400 -0.556600 1 0 1.000000 
0 22.170908 -194.385696 -13.882100 0.000000 -1.000000 0.000000 0.494400 -0.533900 1 0 1.000000 
metcombinebridge
0 -25.829092 -194.385696 -22.555000 0.000000 0.000000 -1.000000 0.359400 -0.548300 1 0 1.000000 
0 22.170906 -138.621201 -22.555000 0.000000 0.000000 -1.000000 0.630700 -0.233900 1 0 1.000000 
0 22.170908 -194.385696 -22.555000 0.000000 0.000000 -1.000000 0.630700 -0.548300 1 0 1.000000 
metcombinebridge
0 -25.829092 -194.385696 -22.555000 0.000000 0.000000 -1.000000 0.359400 -0.548300 1 0 1.000000 
0 -25.829094 -138.621201 -22.555000 0.000000 0.000000 -1.000000 0.359400 -0.233900 1 0 1.000000 
0 22.170906 -138.621201 -22.555000 0.000000 0.000000 -1.000000 0.630700 -0.233900 1 0 1.000000 
metcombinebridge
0 -25.829092 -194.385696 -22.555000 -1.000000 -0.000000 0.000000 0.159600 -0.559000 1 0 1.000000 
0 -25.829094 -138.621201 -13.882100 -1.000000 -0.000000 0.000000 0.257200 -0.536300 1 0 1.000000 
0 -25.829094 -138.621201 -22.555000 -1.000000 -0.000000 0.000000 0.257200 -0.559000 1 0 1.000000 
metcombinebridge
0 -25.829092 -194.385696 -22.555000 -1.000000 -0.000000 0.000000 0.159600 -0.559000 1 0 1.000000 
0 -25.829092 -194.385696 -13.882100 -1.000000 -0.000000 0.000000 0.159600 -0.536300 1 0 1.000000 
0 -25.829094 -138.621201 -13.882100 -1.000000 -0.000000 0.000000 0.257200 -0.536300 1 0 1.000000 
metcombinebridge
0 2.036692 192.333801 112.427200 1.000000 0.000000 0.000000 0.836800 -0.205700 1 0 1.000000 
0 2.036688 285.488586 144.730499 1.000000 0.000000 0.000000 1.000000 -0.121200 1 0 1.000000 
0 2.036688 283.976288 149.091400 1.000000 0.000000 0.000000 0.997400 -0.109800 1 0 1.000000 
metcombinebridge
0 2.036692 192.333801 112.427200 1.000000 0.000000 0.000000 0.836800 -0.205700 1 0 1.000000 
0 2.036688 283.976288 149.091400 1.000000 0.000000 0.000000 0.997400 -0.109800 1 0 1.000000 
0 2.036692 190.821594 116.788101 1.000000 0.000000 0.000000 0.834200 -0.194300 1 0 1.000000 
metcombinebridge
0 2.036692 180.721603 103.722198 1.000000 0.000000 0.000000 0.816500 -0.228500 1 0 1.000000 
0 2.036692 192.333801 112.427200 1.000000 0.000000 0.000000 0.836800 -0.205700 1 0 1.000000 
0 2.036692 190.821594 116.788101 1.000000 0.000000 0.000000 0.834200 -0.194300 1 0 1.000000 
metcombinebridge
0 2.036692 180.721603 103.722198 1.000000 0.000000 0.000000 0.816500 -0.228500 1 0 1.000000 
0 2.036692 190.821594 116.788101 1.000000 0.000000 0.000000 0.834200 -0.194300 1 0 1.000000 
0 2.036692 177.761307 112.259201 1.000000 0.000000 0.000000 0.811300 -0.206200 1 0 1.000000 
metcombinebridge
0 2.036705 -115.884697 4.240300 1.000000 0.000000 0.000000 0.297000 -0.488900 1 0 1.000000 
0 2.036692 180.721603 103.722198 1.000000 0.000000 0.000000 0.816500 -0.228500 1 0 1.000000 
0 2.036692 177.761307 112.259201 1.000000 0.000000 0.000000 0.811300 -0.206200 1 0 1.000000 
metcombinebridge
0 2.036705 -115.884697 4.240300 1.000000 0.000000 0.000000 0.297000 -0.488900 1 0 1.000000 
0 2.036705 -109.646698 -3.160000 1.000000 0.000000 0.000000 0.308000 -0.508300 1 0 1.000000 
0 2.036692 180.721603 103.722198 1.000000 0.000000 0.000000 0.816500 -0.228500 1 0 1.000000 
metcombinebridge
0 -2.161095 -109.646698 -3.160000 -0.000000 0.345418 -0.938449 0.308000 -0.508300 1 0 1.000000 
0 2.036692 180.721603 103.722198 -0.000000 0.434288 -0.900774 0.816500 -0.228500 1 0 1.000000 
0 2.036705 -109.646698 -3.160000 -0.000000 0.345418 -0.938449 0.308000 -0.508300 1 0 1.000000 
metcombinebridge
0 -2.161095 -109.646698 -3.160000 -0.000000 0.345418 -0.938449 0.308000 -0.508300 1 0 1.000000 
0 -2.161108 180.721603 103.722198 -0.000000 0.519912 -0.854220 0.816500 -0.228500 1 0 1.000000 
0 2.036692 180.721603 103.722198 -0.000000 0.434288 -0.900774 0.816500 -0.228500 1 0 1.000000 
metcombinebridge
0 -2.161108 180.721603 103.722198 -0.000000 0.519912 -0.854220 0.816500 -0.228500 1 0 1.000000 
0 2.036692 192.333801 112.427200 -0.000000 0.514569 -0.857449 0.836800 -0.205700 1 0 1.000000 
0 2.036692 180.721603 103.722198 -0.000000 0.434288 -0.900774 0.816500 -0.228500 1 0 1.000000 
metcombinebridge
0 -2.161108 180.721603 103.722198 -0.000000 0.519912 -0.854220 0.816500 -0.228500 1 0 1.000000 
0 -2.161108 192.333801 112.427200 -0.000000 0.422809 -0.906219 0.836800 -0.205700 1 0 1.000000 
0 2.036692 192.333801 112.427200 -0.000000 0.514569 -0.857449 0.836800 -0.205700 1 0 1.000000 
metcombinebridge
0 -2.161108 192.333801 112.427200 -0.000000 0.422809 -0.906219 0.836800 -0.205700 1 0 1.000000 
0 2.036688 285.488586 144.730499 -0.000000 0.327605 -0.944815 1.000000 -0.121200 1 0 1.000000 
0 2.036692 192.333801 112.427200 -0.000000 0.514569 -0.857449 0.836800 -0.205700 1 0 1.000000 
metcombinebridge
0 -2.161108 192.333801 112.427200 -0.000000 0.422809 -0.906219 0.836800 -0.205700 1 0 1.000000 
0 -2.161112 285.488586 144.730499 -0.000000 0.327605 -0.944815 1.000000 -0.121200 1 0 1.000000 
0 2.036688 285.488586 144.730499 -0.000000 0.327605 -0.944815 1.000000 -0.121200 1 0 1.000000 
metcombinebridge
0 2.036692 190.821594 116.788101 0.000000 -0.327605 0.944815 0.834200 -0.194300 1 0 1.000000 
0 2.036688 283.976288 149.091400 0.000000 -0.327605 0.944815 0.997400 -0.109800 1 0 1.000000 
0 -2.161112 283.976288 149.091400 0.000000 -0.327605 0.944815 0.997400 -0.109800 1 0 1.000000 
metcombinebridge
0 2.036692 190.821594 116.788101 0.000000 -0.327605 0.944815 0.834200 -0.194300 1 0 1.000000 
0 -2.161112 283.976288 149.091400 0.000000 -0.327605 0.944815 0.997400 -0.109800 1 0 1.000000 
0 -2.161108 190.821594 116.788101 0.000000 -0.327605 0.944815 0.834200 -0.194300 1 0 1.000000 
metcombinebridge
0 2.036692 177.761307 112.259201 0.000000 -0.336406 0.941717 0.811300 -0.206200 1 0 1.000000 
0 2.036692 190.821594 116.788101 0.000000 -0.327605 0.944815 0.834200 -0.194300 1 0 1.000000 
0 -2.161108 190.821594 116.788101 0.000000 -0.327605 0.944815 0.834200 -0.194300 1 0 1.000000 
metcombinebridge
0 2.036692 177.761307 112.259201 0.000000 -0.336406 0.941717 0.811300 -0.206200 1 0 1.000000 
0 -2.161108 190.821594 116.788101 0.000000 -0.327605 0.944815 0.834200 -0.194300 1 0 1.000000 
0 -2.161108 177.761307 112.259201 0.000000 -0.336406 0.941717 0.811300 -0.206200 1 0 1.000000 
metcombinebridge
0 -2.161095 -115.884697 4.240300 0.000000 -0.345209 0.938526 0.297000 -0.488900 1 0 1.000000 
0 2.036692 177.761307 112.259201 0.000000 -0.336406 0.941717 0.811300 -0.206200 1 0 1.000000 
0 -2.161108 177.761307 112.259201 0.000000 -0.336406 0.941717 0.811300 -0.206200 1 0 1.000000 
metcombinebridge
0 -2.161095 -115.884697 4.240300 0.000000 -0.345209 0.938526 0.297000 -0.488900 1 0 1.000000 
0 2.036705 -115.884697 4.240300 0.000000 -0.345209 0.938526 0.297000 -0.488900 1 0 1.000000 
0 2.036692 177.761307 112.259201 0.000000 -0.336406 0.941717 0.811300 -0.206200 1 0 1.000000 
metcombinebridge
0 -2.161112 283.976288 149.091400 -0.000000 0.944815 0.327605 0.997400 -0.109800 1 0 1.000000 
0 2.036688 285.488586 144.730499 -0.000000 0.944815 0.327605 1.000000 -0.121200 1 0 1.000000 
0 -2.161112 285.488586 144.730499 -0.000000 0.944815 0.327605 1.000000 -0.121200 1 0 1.000000 
metcombinebridge
0 -2.161112 283.976288 149.091400 -0.000000 0.944815 0.327605 0.997400 -0.109800 1 0 1.000000 
0 2.036688 283.976288 149.091400 -0.000000 0.944815 0.327605 0.997400 -0.109800 1 0 1.000000 
0 2.036688 285.488586 144.730499 -0.000000 0.944815 0.327605 1.000000 -0.121200 1 0 1.000000 
metcombinebridge
0 -2.161095 -115.884697 4.240300 -1.000000 -0.000000 0.000000 0.297000 -0.488900 1 0 1.000000 
0 -2.161108 180.721603 103.722198 -1.000000 -0.000000 0.000000 0.816500 -0.228500 1 0 1.000000 
0 -2.161095 -109.646698 -3.160000 -1.000000 -0.000000 0.000000 0.308000 -0.508300 1 0 1.000000 
metcombinebridge
0 -2.161095 -115.884697 4.240300 -1.000000 -0.000000 0.000000 0.297000 -0.488900 1 0 1.000000 
0 -2.161108 177.761307 112.259201 -1.000000 -0.000000 0.000000 0.811300 -0.206200 1 0 1.000000 
0 -2.161108 180.721603 103.722198 -1.000000 -0.000000 0.000000 0.816500 -0.228500 1 0 1.000000 
metcombinebridge
0 -2.161108 177.761307 112.259201 -1.000000 -0.000000 0.000000 0.811300 -0.206200 1 0 1.000000 
0 -2.161108 192.333801 112.427200 -1.000000 -0.000000 0.000000 0.836800 -0.205700 1 0 1.000000 
0 -2.161108 180.721603 103.722198 -1.000000 -0.000000 0.000000 0.816500 -0.228500 1 0 1.000000 
metcombinebridge
0 -2.161108 177.761307 112.259201 -1.000000 -0.000000 0.000000 0.811300 -0.206200 1 0 1.000000 
0 -2.161108 190.821594 116.788101 -1.000000 -0.000000 0.000000 0.834200 -0.194300 1 0 1.000000 
0 -2.161108 192.333801 112.427200 -1.000000 -0.000000 0.000000 0.836800 -0.205700 1 0 1.000000 
metcombinebridge
0 -2.161108 190.821594 116.788101 -1.000000 -0.000000 0.000000 0.834200 -0.194300 1 0 1.000000 
0 -2.161112 285.488586 144.730499 -1.000000 -0.000000 0.000000 1.000000 -0.121200 1 0 1.000000 
0 -2.161108 192.333801 112.427200 -1.000000 -0.000000 0.000000 0.836800 -0.205700 1 0 1.000000 
metcombinebridge
0 -2.161108 190.821594 116.788101 -1.000000 -0.000000 0.000000 0.834200 -0.194300 1 0 1.000000 
0 -2.161112 283.976288 149.091400 -1.000000 -0.000000 0.000000 0.997400 -0.109800 1 0 1.000000 
0 -2.161112 285.488586 144.730499 -1.000000 -0.000000 0.000000 1.000000 -0.121200 1 0 1.000000 
metcombinebridge
0 3.303407 -170.145203 -16.860701 0.500011 0.000000 0.866019 0.202000 -0.544100 1 0 1.000000 
0 5.890604 -87.452400 -18.354500 0.500011 0.000000 0.866019 0.346800 -0.548000 1 0 1.000000 
0 3.303404 -87.452400 -16.860701 0.500011 0.000000 0.866019 0.346800 -0.544100 1 0 1.000000 
metcombinebridge
0 3.303407 -170.145203 -16.860701 0.500011 0.000000 0.866019 0.202000 -0.544100 1 0 1.000000 
0 5.890608 -170.145203 -18.354500 0.500011 0.000000 0.866019 0.202000 -0.548000 1 0 1.000000 
0 5.890604 -87.452400 -18.354500 0.500011 0.000000 0.866019 0.346800 -0.548000 1 0 1.000000 
metcombinebridge
0 5.890608 -170.145203 -18.354500 0.500011 0.000000 -0.866019 0.202000 -0.548000 1 0 1.000000 
0 3.303404 -87.452400 -19.848200 0.500011 0.000000 -0.866019 0.346800 -0.552000 1 0 1.000000 
0 5.890604 -87.452400 -18.354500 0.500011 0.000000 -0.866019 0.346800 -0.548000 1 0 1.000000 
metcombinebridge
0 5.890608 -170.145203 -18.354500 0.500011 0.000000 -0.866019 0.202000 -0.548000 1 0 1.000000 
0 3.303407 -170.145203 -19.848200 0.500011 0.000000 -0.866019 0.202000 -0.552000 1 0 1.000000 
0 3.303404 -87.452400 -19.848200 0.500011 0.000000 -0.866019 0.346800 -0.552000 1 0 1.000000 
metcombinebridge
0 3.303407 -170.145203 -19.848200 -1.000000 -0.000000 0.000000 0.202000 -0.552000 1 0 1.000000 
0 3.303404 -87.452400 -16.860701 -1.000000 -0.000000 0.000000 0.346800 -0.544100 1 0 1.000000 
0 3.303404 -87.452400 -19.848200 -1.000000 -0.000000 0.000000 0.346800 -0.552000 1 0 1.000000 
metcombinebridge
0 3.303407 -170.145203 -19.848200 -1.000000 -0.000000 0.000000 0.202000 -0.552000 1 0 1.000000 
0 3.303407 -170.145203 -16.860701 -1.000000 -0.000000 0.000000 0.202000 -0.544100 1 0 1.000000 
0 3.303404 -87.452400 -16.860701 -1.000000 -0.000000 0.000000 0.346800 -0.544100 1 0 1.000000 
metcombinebridge
0 -3.898796 -89.839798 75.715302 -0.000000 0.727942 0.685639 0.426100 -0.302900 1 0 1.000000 
0 8.007503 -70.153000 54.813702 -0.000000 0.727942 0.685639 0.457300 -0.358300 1 0 1.000000 
0 -3.898797 -70.153000 54.813702 -0.000000 0.727942 0.685639 0.426100 -0.358300 1 0 1.000000 
metcombinebridge
0 -3.898796 -89.839798 75.715302 -0.000000 0.727942 0.685639 0.426100 -0.302900 1 0 1.000000 
0 8.007504 -89.839798 75.715302 -0.000000 0.727942 0.685639 0.457300 -0.302900 1 0 1.000000 
0 8.007503 -70.153000 54.813702 -0.000000 0.727942 0.685639 0.457300 -0.358300 1 0 1.000000 
metcombinebridge
0 -3.898797 -74.159798 34.669899 -0.000000 0.980784 -0.195097 0.426100 -0.410900 1 0 1.000000 
0 8.007503 -70.153000 54.813702 -0.000000 0.980784 -0.195097 0.457300 -0.358300 1 0 1.000000 
0 8.007503 -74.159798 34.669899 -0.000000 0.980784 -0.195097 0.457300 -0.410900 1 0 1.000000 
metcombinebridge
0 -3.898797 -74.159798 34.669899 -0.000000 0.980784 -0.195097 0.426100 -0.410900 1 0 1.000000 
0 -3.898797 -70.153000 54.813702 -0.000000 0.980784 -0.195097 0.426100 -0.358300 1 0 1.000000 
0 8.007503 -70.153000 54.813702 -0.000000 0.980784 -0.195097 0.457300 -0.358300 1 0 1.000000 
metcombinebridge
0 8.007504 -97.096703 39.232300 0.000000 -0.980784 0.195097 0.457300 -0.398200 1 0 1.000000 
0 -3.898796 -89.839798 75.715302 0.000000 -0.980784 0.195097 0.426100 -0.302900 1 0 1.000000 
0 -3.898796 -97.096703 39.232300 0.000000 -0.980784 0.195097 0.426100 -0.398200 1 0 1.000000 
metcombinebridge
0 8.007504 -97.096703 39.232300 0.000000 -0.980784 0.195097 0.457300 -0.398200 1 0 1.000000 
0 8.007504 -89.839798 75.715302 0.000000 -0.980784 0.195097 0.457300 -0.302900 1 0 1.000000 
0 -3.898796 -89.839798 75.715302 0.000000 -0.980784 0.195097 0.426100 -0.302900 1 0 1.000000 
metcombinebridge
0 -3.898797 -64.382301 21.327700 -0.000000 0.806599 0.591099 0.426100 -0.446200 1 0 1.000000 
0 8.007503 -74.159798 34.669899 -0.000000 0.806599 0.591099 0.457300 -0.410900 1 0 1.000000 
0 8.007503 -64.382301 21.327700 -0.000000 0.806599 0.591099 0.457300 -0.446200 1 0 1.000000 
metcombinebridge
0 -3.898797 -64.382301 21.327700 -0.000000 0.806599 0.591099 0.426100 -0.446200 1 0 1.000000 
0 -3.898797 -74.159798 34.669899 -0.000000 0.806599 0.591099 0.426100 -0.410900 1 0 1.000000 
0 8.007503 -74.159798 34.669899 -0.000000 0.806599 0.591099 0.457300 -0.410900 1 0 1.000000 
metcombinebridge
0 8.007504 -87.319199 25.890100 0.000000 -0.806599 -0.591099 0.457300 -0.433400 1 0 1.000000 
0 -3.898796 -97.096703 39.232300 0.000000 -0.806599 -0.591099 0.426100 -0.398200 1 0 1.000000 
0 -3.898796 -87.319199 25.890100 0.000000 -0.806599 -0.591099 0.426100 -0.433400 1 0 1.000000 
metcombinebridge
0 8.007504 -87.319199 25.890100 0.000000 -0.806599 -0.591099 0.457300 -0.433400 1 0 1.000000 
0 8.007504 -97.096703 39.232300 0.000000 -0.806599 -0.591099 0.457300 -0.398200 1 0 1.000000 
0 -3.898796 -97.096703 39.232300 0.000000 -0.806599 -0.591099 0.426100 -0.398200 1 0 1.000000 
metcombinebridge
0 -3.898694 -137.775803 -180.102203 -0.000000 0.103305 -0.994650 0.483300 -0.291200 1 0 1.000000 
0 8.007504 -113.428299 -177.572906 -0.000000 0.103305 -0.994650 0.550600 -0.152900 1 0 1.000000 
0 8.007505 -137.775803 -180.102203 -0.000000 0.103305 -0.994650 0.550600 -0.291200 1 0 1.000000 
metcombinebridge
0 -3.898694 -137.775803 -180.102203 -0.000000 0.103305 -0.994650 0.483300 -0.291200 1 0 1.000000 
0 -3.898695 -113.428299 -177.572906 -0.000000 0.103305 -0.994650 0.483300 -0.152900 1 0 1.000000 
0 8.007504 -113.428299 -177.572906 -0.000000 0.103305 -0.994650 0.550600 -0.152900 1 0 1.000000 
metcombinebridge
0 -29.545389 -243.930603 -133.483795 0.000000 -0.500011 0.866019 0.072800 -0.849400 1 0 1.000000 
0 25.163912 -246.517899 -134.977600 0.000000 -0.500011 0.866019 0.068300 -0.853300 1 0 1.000000 
0 25.163912 -243.930603 -133.483795 0.000000 -0.500011 0.866019 0.072800 -0.849400 1 0 1.000000 
metcombinebridge
0 -29.545389 -243.930603 -133.483795 0.000000 -0.500011 0.866019 0.072800 -0.849400 1 0 1.000000 
0 -29.545389 -246.517899 -134.977600 0.000000 -0.500011 0.866019 0.068300 -0.853300 1 0 1.000000 
0 25.163912 -246.517899 -134.977600 0.000000 -0.500011 0.866019 0.068300 -0.853300 1 0 1.000000 
metcombinebridge
0 -29.545389 -246.517899 -134.977600 0.000000 -0.500011 -0.866019 0.068300 -0.853300 1 0 1.000000 
0 25.163912 -243.930603 -136.471298 0.000000 -0.500011 -0.866019 0.072800 -0.857200 1 0 1.000000 
0 25.163912 -246.517899 -134.977600 0.000000 -0.500011 -0.866019 0.068300 -0.853300 1 0 1.000000 
metcombinebridge
0 -29.545389 -246.517899 -134.977600 0.000000 -0.500011 -0.866019 0.068300 -0.853300 1 0 1.000000 
0 -29.545389 -243.930603 -136.471298 0.000000 -0.500011 -0.866019 0.072800 -0.857200 1 0 1.000000 
0 25.163912 -243.930603 -136.471298 0.000000 -0.500011 -0.866019 0.072800 -0.857200 1 0 1.000000 
metcombinebridge
0 -29.545389 -243.930603 -136.471298 -0.000000 1.000000 0.000000 0.072800 -0.857200 1 0 1.000000 
0 25.163912 -243.930603 -133.483795 -0.000000 1.000000 0.000000 0.072800 -0.849400 1 0 1.000000 
0 25.163912 -243.930603 -136.471298 -0.000000 1.000000 0.000000 0.072800 -0.857200 1 0 1.000000 
metcombinebridge
0 -29.545389 -243.930603 -136.471298 -0.000000 1.000000 0.000000 0.072800 -0.857200 1 0 1.000000 
0 -29.545389 -243.930603 -133.483795 -0.000000 1.000000 0.000000 0.072800 -0.849400 1 0 1.000000 
0 25.163912 -243.930603 -133.483795 -0.000000 1.000000 0.000000 0.072800 -0.849400 1 0 1.000000 
metcombinebridge
0 -5.748789 -254.714005 -143.518402 0.000000 -0.976769 0.214293 0.421300 -0.871300 1 0 1.000000 
0 -2.098189 -251.162292 -127.330399 0.000000 -0.976769 0.214293 0.430800 -0.829100 1 0 1.000000 
0 -5.748789 -251.162292 -127.330399 0.000000 -0.976769 0.214293 0.421300 -0.829100 1 0 1.000000 
metcombinebridge
0 -5.748789 -254.714005 -143.518402 0.000000 -0.976769 0.214293 0.421300 -0.871300 1 0 1.000000 
0 -2.098189 -254.714005 -143.518402 0.000000 -0.976769 0.214293 0.430800 -0.871300 1 0 1.000000 
0 -2.098189 -251.162292 -127.330399 0.000000 -0.976769 0.214293 0.430800 -0.829100 1 0 1.000000 
metcombinebridge
0 -5.748790 -227.857697 -152.572403 -0.000000 0.734746 0.678342 0.100900 -0.899400 1 0 1.000000 
0 -2.098189 -251.162292 -127.330399 -0.000000 0.734746 0.678342 0.060100 -0.833300 1 0 1.000000 
0 -2.098190 -227.857697 -152.572403 -0.000000 0.734746 0.678342 0.100900 -0.899400 1 0 1.000000 
metcombinebridge
0 -5.748790 -227.857697 -152.572403 -0.000000 0.734746 0.678342 0.100900 -0.899400 1 0 1.000000 
0 -5.748789 -251.162292 -127.330399 -0.000000 0.734746 0.678342 0.060100 -0.833300 1 0 1.000000 
0 -2.098189 -251.162292 -127.330399 -0.000000 0.734746 0.678342 0.060100 -0.833300 1 0 1.000000 
metcombinebridge
0 -2.098190 -231.409500 -168.760406 0.000000 -0.734746 -0.678342 0.430800 -0.938200 1 0 1.000000 
0 -5.748789 -254.714005 -143.518402 0.000000 -0.734746 -0.678342 0.421300 -0.871300 1 0 1.000000 
0 -5.748790 -231.409500 -168.760406 0.000000 -0.734746 -0.678342 0.421300 -0.938200 1 0 1.000000 
metcombinebridge
0 -2.098190 -231.409500 -168.760406 0.000000 -0.734746 -0.678342 0.430800 -0.938200 1 0 1.000000 
0 -2.098189 -254.714005 -143.518402 0.000000 -0.734746 -0.678342 0.430800 -0.871300 1 0 1.000000 
0 -5.748789 -254.714005 -143.518402 0.000000 -0.734746 -0.678342 0.421300 -0.871300 1 0 1.000000 
metcombinebridge
0 -5.748790 -227.857697 -152.572403 -0.000000 0.214293 0.976769 0.100900 -0.899400 1 0 1.000000 
0 -2.098195 -110.737297 -178.269394 -0.000000 0.214293 0.976769 0.306100 -0.966600 1 0 1.000000 
0 -5.748795 -110.737297 -178.269394 -0.000000 0.214293 0.976769 0.306100 -0.966600 1 0 1.000000 
metcombinebridge
0 -5.748790 -227.857697 -152.572403 -0.000000 0.214293 0.976769 0.100900 -0.899400 1 0 1.000000 
0 -2.098190 -227.857697 -152.572403 -0.000000 0.214293 0.976769 0.100900 -0.899400 1 0 1.000000 
0 -2.098195 -110.737297 -178.269394 -0.000000 0.214293 0.976769 0.306100 -0.966600 1 0 1.000000 
metcombinebridge
0 -5.748794 -129.944702 -191.022507 -0.000000 0.553107 -0.833110 0.421300 -1.000000 1 0 1.000000 
0 -2.098195 -110.737297 -178.269394 -0.000000 0.553107 -0.833110 0.430800 -0.967300 1 0 1.000000 
0 -2.098194 -129.944702 -191.022507 -0.000000 0.553107 -0.833110 0.430800 -1.000000 1 0 1.000000 
metcombinebridge
0 -5.748794 -129.944702 -191.022507 -0.000000 0.553107 -0.833110 0.421300 -1.000000 1 0 1.000000 
0 -5.748795 -110.737297 -178.269394 -0.000000 0.553107 -0.833110 0.421300 -0.967300 1 0 1.000000 
0 -2.098195 -110.737297 -178.269394 -0.000000 0.553107 -0.833110 0.430800 -0.967300 1 0 1.000000 
metcombinebridge
0 -2.098190 -227.857697 -152.572403 1.000000 0.000000 0.000000 0.100900 -0.899400 1 0 1.000000 
0 -2.098189 -251.162292 -127.330399 1.000000 0.000000 0.000000 0.060100 -0.833300 1 0 1.000000 
0 -2.098189 -254.714005 -143.518402 1.000000 0.000000 0.000000 0.053900 -0.875700 1 0 1.000000 
metcombinebridge
0 -2.098190 -227.857697 -152.572403 1.000000 0.000000 0.000000 0.100900 -0.899400 1 0 1.000000 
0 -2.098189 -254.714005 -143.518402 1.000000 0.000000 0.000000 0.053900 -0.875700 1 0 1.000000 
0 -2.098190 -231.409500 -168.760406 1.000000 0.000000 0.000000 0.094700 -0.941700 1 0 1.000000 
metcombinebridge
0 -2.098190 -231.409500 -168.760406 1.000000 0.000000 0.000000 0.094700 -0.941700 1 0 1.000000 
0 -2.098195 -110.737297 -178.269394 1.000000 0.000000 0.000000 0.306100 -0.966600 1 0 1.000000 
0 -2.098190 -227.857697 -152.572403 1.000000 0.000000 0.000000 0.100900 -0.899400 1 0 1.000000 
metcombinebridge
0 -2.098190 -231.409500 -168.760406 1.000000 0.000000 0.000000 0.094700 -0.941700 1 0 1.000000 
0 -2.098194 -129.944702 -191.022507 1.000000 0.000000 0.000000 0.272400 -1.000000 1 0 1.000000 
0 -2.098195 -110.737297 -178.269394 1.000000 0.000000 0.000000 0.306100 -0.966600 1 0 1.000000 
metcombinebridge
0 -5.748790 -231.409500 -168.760406 0.000000 -0.214293 -0.976769 0.472900 -0.814700 1 0 1.000000 
0 -2.098194 -129.944702 -191.022507 0.000000 -0.214293 -0.976769 0.493500 -0.251400 1 0 1.000000 
0 -2.098190 -231.409500 -168.760406 0.000000 -0.214293 -0.976769 0.493500 -0.814700 1 0 1.000000 
metcombinebridge
0 -5.748790 -231.409500 -168.760406 0.000000 -0.214293 -0.976769 0.472900 -0.814700 1 0 1.000000 
0 -5.748794 -129.944702 -191.022507 0.000000 -0.214293 -0.976769 0.472900 -0.251400 1 0 1.000000 
0 -2.098194 -129.944702 -191.022507 0.000000 -0.214293 -0.976769 0.493500 -0.251400 1 0 1.000000 
metcombinebridge
0 15.428311 -253.566299 -133.687500 0.000000 -0.962469 0.271391 0.476700 -0.845600 1 0 1.000000 
0 29.545511 -249.067703 -117.736702 0.000000 -0.962469 0.271391 0.513700 -0.804000 1 0 1.000000 
0 15.428210 -249.067703 -117.736702 0.000000 -0.962469 0.271391 0.476700 -0.804000 1 0 1.000000 
metcombinebridge
0 15.428311 -253.566299 -133.687500 0.000000 -0.962469 0.271391 0.476700 -0.845600 1 0 1.000000 
0 29.545511 -253.566299 -133.687500 0.000000 -0.962469 0.271391 0.513700 -0.845600 1 0 1.000000 
0 29.545511 -249.067703 -117.736702 0.000000 -0.962469 0.271391 0.513700 -0.804000 1 0 1.000000 
metcombinebridge
0 15.428309 -227.289597 -144.306793 -0.000000 0.773409 0.633907 0.476700 -0.874300 1 0 1.000000 
0 29.545511 -249.067703 -117.736702 -0.000000 0.773409 0.633907 0.513700 -0.804000 1 0 1.000000 
0 29.545509 -227.289597 -144.306793 -0.000000 0.773409 0.633907 0.513700 -0.874300 1 0 1.000000 
metcombinebridge
0 15.428309 -227.289597 -144.306793 -0.000000 0.773409 0.633907 0.476700 -0.874300 1 0 1.000000 
0 15.428210 -249.067703 -117.736702 -0.000000 0.773409 0.633907 0.476700 -0.804000 1 0 1.000000 
0 29.545511 -249.067703 -117.736702 -0.000000 0.773409 0.633907 0.513700 -0.804000 1 0 1.000000 
metcombinebridge
0 29.545509 -231.788101 -160.257706 0.000000 -0.773409 -0.633907 0.513700 -0.915900 1 0 1.000000 
0 15.428311 -253.566299 -133.687500 0.000000 -0.773409 -0.633907 0.476700 -0.845600 1 0 1.000000 
0 15.428310 -231.788101 -160.257706 0.000000 -0.773409 -0.633907 0.476700 -0.915900 1 0 1.000000 
metcombinebridge
0 29.545509 -231.788101 -160.257706 0.000000 -0.773409 -0.633907 0.513700 -0.915900 1 0 1.000000 
0 29.545511 -253.566299 -133.687500 0.000000 -0.773409 -0.633907 0.513700 -0.845600 1 0 1.000000 
0 15.428311 -253.566299 -133.687500 0.000000 -0.773409 -0.633907 0.476700 -0.845600 1 0 1.000000 
metcombinebridge
0 15.428309 -227.289597 -144.306793 -0.000000 0.271391 0.962469 0.592600 -0.781900 1 0 1.000000 
0 29.545506 -111.885002 -176.854294 -0.000000 0.271391 0.962469 0.672400 -0.144000 1 0 1.000000 
0 15.428305 -111.885002 -176.854294 -0.000000 0.271391 0.962469 0.592600 -0.144000 1 0 1.000000 
metcombinebridge
0 15.428309 -227.289597 -144.306793 -0.000000 0.271391 0.962469 0.592600 -0.781900 1 0 1.000000 
0 29.545509 -227.289597 -144.306793 -0.000000 0.271391 0.962469 0.672400 -0.781900 1 0 1.000000 
0 29.545506 -111.885002 -176.854294 -0.000000 0.271391 0.962469 0.672400 -0.144000 1 0 1.000000 
metcombinebridge
0 15.428306 -131.809906 -188.454407 -0.000000 0.503112 -0.864221 0.592600 -0.260900 1 0 1.000000 
0 29.545506 -111.885002 -176.854294 -0.000000 0.503112 -0.864221 0.672400 -0.144000 1 0 1.000000 
0 29.545506 -131.809906 -188.454407 -0.000000 0.503112 -0.864221 0.672400 -0.260900 1 0 1.000000 
metcombinebridge
0 15.428306 -131.809906 -188.454407 -0.000000 0.503112 -0.864221 0.592600 -0.260900 1 0 1.000000 
0 15.428305 -111.885002 -176.854294 -0.000000 0.503112 -0.864221 0.592600 -0.144000 1 0 1.000000 
0 29.545506 -111.885002 -176.854294 -0.000000 0.503112 -0.864221 0.672400 -0.144000 1 0 1.000000 
metcombinebridge
0 -9.438889 -253.663193 42.738098 0.000000 -0.500011 0.866019 0.055700 -0.388100 1 0 1.000000 
0 16.998611 -256.250488 41.244400 0.000000 -0.500011 0.866019 0.051200 -0.392000 1 0 1.000000 
0 16.998611 -253.663193 42.738098 0.000000 -0.500011 0.866019 0.055700 -0.388100 1 0 1.000000 
metcombinebridge
0 -9.438889 -253.663193 42.738098 0.000000 -0.500011 0.866019 0.055700 -0.388100 1 0 1.000000 
0 -9.438889 -256.250488 41.244400 0.000000 -0.500011 0.866019 0.051200 -0.392000 1 0 1.000000 
0 16.998611 -256.250488 41.244400 0.000000 -0.500011 0.866019 0.051200 -0.392000 1 0 1.000000 
metcombinebridge
0 -9.438889 -256.250488 41.244400 0.000000 -0.500011 -0.866019 0.051200 -0.392000 1 0 1.000000 
0 16.998611 -253.663193 39.750599 0.000000 -0.500011 -0.866019 0.055700 -0.396000 1 0 1.000000 
0 16.998611 -256.250488 41.244400 0.000000 -0.500011 -0.866019 0.051200 -0.392000 1 0 1.000000 
metcombinebridge
0 -9.438889 -256.250488 41.244400 0.000000 -0.500011 -0.866019 0.051200 -0.392000 1 0 1.000000 
0 -9.438889 -253.663193 39.750599 0.000000 -0.500011 -0.866019 0.055700 -0.396000 1 0 1.000000 
0 16.998611 -253.663193 39.750599 0.000000 -0.500011 -0.866019 0.055700 -0.396000 1 0 1.000000 
metcombinebridge
0 -9.438889 -253.663193 39.750599 -0.000000 1.000000 0.000000 0.055700 -0.396000 1 0 1.000000 
0 16.998611 -253.663193 42.738098 -0.000000 1.000000 0.000000 0.055700 -0.388100 1 0 1.000000 
0 16.998611 -253.663193 39.750599 -0.000000 1.000000 0.000000 0.055700 -0.396000 1 0 1.000000 
metcombinebridge
0 -9.438889 -253.663193 39.750599 -0.000000 1.000000 0.000000 0.055700 -0.396000 1 0 1.000000 
0 -9.438889 -253.663193 42.738098 -0.000000 1.000000 0.000000 0.055700 -0.388100 1 0 1.000000 
0 16.998611 -253.663193 42.738098 -0.000000 1.000000 0.000000 0.055700 -0.388100 1 0 1.000000 
metcombinebridge
0 -2.161095 -116.694397 191.022400 0.000000 0.000000 1.000000 0.493100 -0.026000 1 0 1.000000 
0 2.036705 -112.078796 191.022400 0.000000 0.000000 1.000000 0.516900 -0.000000 1 0 1.000000 
0 -2.161095 -112.078796 191.022400 0.000000 0.000000 1.000000 0.493100 -0.000000 1 0 1.000000 
metcombinebridge
0 -2.161095 -116.694397 191.022400 0.000000 0.000000 1.000000 0.493100 -0.026000 1 0 1.000000 
0 2.036705 -116.694397 191.022400 0.000000 0.000000 1.000000 0.516900 -0.026000 1 0 1.000000 
0 2.036705 -112.078796 191.022400 0.000000 0.000000 1.000000 0.516900 -0.000000 1 0 1.000000 
metcombinebridge
0 -2.161095 -116.694397 -117.789398 -1.000000 -0.000000 0.000000 0.295600 -0.808300 1 0 1.000000 
0 -2.161095 -107.658798 78.602501 -1.000000 -0.000000 0.000000 0.311400 -0.294300 1 0 1.000000 
0 -2.161095 -107.658798 -114.320198 -1.000000 -0.000000 0.000000 0.311400 -0.799200 1 0 1.000000 
metcombinebridge
0 -2.161095 -116.694397 -117.789398 -1.000000 -0.000000 0.000000 0.295600 -0.808300 1 0 1.000000 
0 -2.161095 -116.694397 78.602501 -1.000000 -0.000000 0.000000 0.295600 -0.294300 1 0 1.000000 
0 -2.161095 -107.658798 78.602501 -1.000000 -0.000000 0.000000 0.311400 -0.294300 1 0 1.000000 
metcombinebridge
0 -2.161095 -116.694397 78.602501 -1.000000 -0.000000 0.000000 0.295600 -0.294300 1 0 1.000000 
0 -2.161095 -112.078796 92.425697 -1.000000 -0.000000 0.000000 0.303700 -0.258100 1 0 1.000000 
0 -2.161095 -107.658798 78.602501 -1.000000 -0.000000 0.000000 0.311400 -0.294300 1 0 1.000000 
metcombinebridge
0 -2.161095 -116.694397 78.602501 -1.000000 -0.000000 0.000000 0.295600 -0.294300 1 0 1.000000 
0 -2.161095 -116.694397 92.425697 -1.000000 -0.000000 0.000000 0.295600 -0.258100 1 0 1.000000 
0 -2.161095 -112.078796 92.425697 -1.000000 -0.000000 0.000000 0.303700 -0.258100 1 0 1.000000 
metcombinebridge
0 -2.161095 -116.694397 92.425697 -1.000000 -0.000000 0.000000 0.295600 -0.258100 1 0 1.000000 
0 -2.161095 -112.078796 191.022400 -1.000000 -0.000000 0.000000 0.303700 -0.000000 1 0 1.000000 
0 -2.161095 -112.078796 92.425697 -1.000000 -0.000000 0.000000 0.303700 -0.258100 1 0 1.000000 
metcombinebridge
0 -2.161095 -116.694397 92.425697 -1.000000 -0.000000 0.000000 0.295600 -0.258100 1 0 1.000000 
0 -2.161095 -116.694397 191.022400 -1.000000 -0.000000 0.000000 0.295600 -0.000000 1 0 1.000000 
0 -2.161095 -112.078796 191.022400 -1.000000 -0.000000 0.000000 0.303700 -0.000000 1 0 1.000000 
metcombinebridge
0 10.059711 -258.635986 48.827702 0.000000 -0.406111 0.913824 0.562200 -0.882500 1 0 1.000000 
0 13.126310 -246.661697 54.149700 0.000000 -0.406111 0.913824 0.579600 -0.812800 1 0 1.000000 
0 10.059711 -246.661697 54.149700 0.000000 -0.406111 0.913824 0.562200 -0.812800 1 0 1.000000 
metcombinebridge
0 10.059711 -258.635986 48.827702 0.000000 -0.406111 0.913824 0.562200 -0.882500 1 0 1.000000 
0 13.126311 -258.635986 48.827702 0.000000 -0.406111 0.913824 0.579600 -0.882500 1 0 1.000000 
0 13.126310 -246.661697 54.149700 0.000000 -0.406111 0.913824 0.579600 -0.812800 1 0 1.000000 
metcombinebridge
0 10.059711 -246.661697 36.030201 -0.000000 1.000000 0.000000 0.068000 -0.405700 1 0 1.000000 
0 13.126310 -246.661697 54.149700 -0.000000 1.000000 0.000000 0.068000 -0.358300 1 0 1.000000 
0 13.126310 -246.661697 36.030201 -0.000000 1.000000 0.000000 0.068000 -0.405700 1 0 1.000000 
metcombinebridge
0 10.059711 -246.661697 36.030201 -0.000000 1.000000 0.000000 0.068000 -0.405700 1 0 1.000000 
0 10.059711 -246.661697 54.149700 -0.000000 1.000000 0.000000 0.068000 -0.358300 1 0 1.000000 
0 13.126310 -246.661697 54.149700 -0.000000 1.000000 0.000000 0.068000 -0.358300 1 0 1.000000 
metcombinebridge
0 13.126311 -258.635986 36.030201 0.000000 -1.000000 0.000000 0.470700 -0.401000 1 0 1.000000 
0 10.059711 -258.635986 48.827702 0.000000 -1.000000 0.000000 0.462700 -0.367500 1 0 1.000000 
0 10.059711 -258.635986 36.030201 0.000000 -1.000000 0.000000 0.462700 -0.401000 1 0 1.000000 
metcombinebridge
0 13.126311 -258.635986 36.030201 0.000000 -1.000000 0.000000 0.470700 -0.401000 1 0 1.000000 
0 13.126311 -258.635986 48.827702 0.000000 -1.000000 0.000000 0.470700 -0.367500 1 0 1.000000 
0 10.059711 -258.635986 48.827702 0.000000 -1.000000 0.000000 0.462700 -0.367500 1 0 1.000000 
metcombinebridge
0 10.059711 -257.192108 24.851801 -0.000000 0.727892 -0.685692 0.049600 -0.435000 1 0 1.000000 
0 13.126310 -246.661697 36.030201 -0.000000 0.727892 -0.685692 0.068000 -0.405700 1 0 1.000000 
0 13.126311 -257.192108 24.851801 -0.000000 0.727892 -0.685692 0.049600 -0.435000 1 0 1.000000 
metcombinebridge
0 10.059711 -257.192108 24.851801 -0.000000 0.727892 -0.685692 0.049600 -0.435000 1 0 1.000000 
0 10.059711 -246.661697 36.030201 -0.000000 0.727892 -0.685692 0.068000 -0.405700 1 0 1.000000 
0 13.126310 -246.661697 36.030201 -0.000000 0.727892 -0.685692 0.068000 -0.405700 1 0 1.000000 
metcombinebridge
0 13.126311 -269.166412 24.851801 0.000000 -0.727892 0.685692 0.470700 -0.429900 1 0 1.000000 
0 10.059711 -258.635986 36.030201 0.000000 -0.727892 0.685692 0.462700 -0.401000 1 0 1.000000 
0 10.059711 -269.166412 24.851801 0.000000 -0.727892 0.685692 0.462700 -0.429900 1 0 1.000000 
metcombinebridge
0 13.126311 -269.166412 24.851801 0.000000 -0.727892 0.685692 0.470700 -0.429900 1 0 1.000000 
0 13.126311 -258.635986 36.030201 0.000000 -0.727892 0.685692 0.470700 -0.401000 1 0 1.000000 
0 10.059711 -258.635986 36.030201 0.000000 -0.727892 0.685692 0.462700 -0.401000 1 0 1.000000 
metcombinebridge
0 10.059711 -250.757904 -147.101196 0.000000 -0.533617 -0.845726 0.462700 -0.880800 1 0 1.000000 
0 13.126310 -238.783600 -154.656403 0.000000 -0.533617 -0.845726 0.470700 -0.901000 1 0 1.000000 
0 13.126310 -250.757904 -147.101196 0.000000 -0.533617 -0.845726 0.470700 -0.880800 1 0 1.000000 
metcombinebridge
0 10.059711 -250.757904 -147.101196 0.000000 -0.533617 -0.845726 0.462700 -0.880800 1 0 1.000000 
0 10.059711 -238.783600 -154.656403 0.000000 -0.533617 -0.845726 0.462700 -0.901000 1 0 1.000000 
0 13.126310 -238.783600 -154.656403 0.000000 -0.533617 -0.845726 0.470700 -0.901000 1 0 1.000000 
metcombinebridge
0 13.126310 -246.661697 36.030201 1.000000 0.000000 0.000000 0.068000 -0.405700 1 0 1.000000 
0 13.126310 -246.661697 54.149700 1.000000 0.000000 0.000000 0.068000 -0.358300 1 0 1.000000 
0 13.126311 -258.635986 48.827702 1.000000 0.000000 0.000000 0.047000 -0.372200 1 0 1.000000 
metcombinebridge
0 13.126310 -246.661697 36.030201 1.000000 0.000000 0.000000 0.068000 -0.405700 1 0 1.000000 
0 13.126311 -258.635986 48.827702 1.000000 0.000000 0.000000 0.047000 -0.372200 1 0 1.000000 
0 13.126311 -258.635986 36.030201 1.000000 0.000000 0.000000 0.047000 -0.405700 1 0 1.000000 
metcombinebridge
0 13.126311 -257.192108 24.851801 1.000000 0.000000 0.000000 0.049600 -0.435000 1 0 1.000000 
0 13.126310 -246.661697 36.030201 1.000000 0.000000 0.000000 0.068000 -0.405700 1 0 1.000000 
0 13.126311 -258.635986 36.030201 1.000000 0.000000 0.000000 0.047000 -0.405700 1 0 1.000000 
metcombinebridge
0 13.126311 -257.192108 24.851801 1.000000 0.000000 0.000000 0.049600 -0.435000 1 0 1.000000 
0 13.126311 -258.635986 36.030201 1.000000 0.000000 0.000000 0.047000 -0.405700 1 0 1.000000 
0 13.126311 -269.166412 24.851801 1.000000 0.000000 0.000000 0.028600 -0.435000 1 0 1.000000 
metcombinebridge
0 13.126311 -269.166412 -66.107101 1.000000 0.000000 0.000000 0.028600 -0.673000 1 0 1.000000 
0 13.126311 -257.192108 24.851801 1.000000 0.000000 0.000000 0.049600 -0.435000 1 0 1.000000 
0 13.126311 -269.166412 24.851801 1.000000 0.000000 0.000000 0.028600 -0.435000 1 0 1.000000 
metcombinebridge
0 13.126311 -269.166412 -66.107101 1.000000 0.000000 0.000000 0.028600 -0.673000 1 0 1.000000 
0 13.126311 -257.192108 -66.107101 1.000000 0.000000 0.000000 0.049600 -0.673000 1 0 1.000000 
0 13.126311 -257.192108 24.851801 1.000000 0.000000 0.000000 0.049600 -0.435000 1 0 1.000000 
metcombinebridge
0 13.126311 -269.166412 -66.107101 1.000000 0.000000 0.000000 0.028600 -0.673000 1 0 1.000000 
0 13.126310 -238.783600 -133.469193 1.000000 0.000000 0.000000 0.081800 -0.849400 1 0 1.000000 
0 13.126311 -257.192108 -66.107101 1.000000 0.000000 0.000000 0.049600 -0.673000 1 0 1.000000 
metcombinebridge
0 13.126311 -269.166412 -66.107101 1.000000 0.000000 0.000000 0.028600 -0.673000 1 0 1.000000 
0 13.126310 -250.757904 -133.469193 1.000000 0.000000 0.000000 0.060800 -0.849400 1 0 1.000000 
0 13.126310 -238.783600 -133.469193 1.000000 0.000000 0.000000 0.081800 -0.849400 1 0 1.000000 
metcombinebridge
0 13.126310 -250.757904 -133.469193 1.000000 0.000000 0.000000 0.060800 -0.849400 1 0 1.000000 
0 13.126310 -238.783600 -154.656403 1.000000 0.000000 0.000000 0.081800 -0.904800 1 0 1.000000 
0 13.126310 -238.783600 -133.469193 1.000000 0.000000 0.000000 0.081800 -0.849400 1 0 1.000000 
metcombinebridge
0 13.126310 -250.757904 -133.469193 1.000000 0.000000 0.000000 0.060800 -0.849400 1 0 1.000000 
0 13.126310 -250.757904 -147.101196 1.000000 0.000000 0.000000 0.060800 -0.885000 1 0 1.000000 
0 13.126310 -238.783600 -154.656403 1.000000 0.000000 0.000000 0.081800 -0.904800 1 0 1.000000 
metcombinebridge
0 10.059711 -238.783600 -133.469193 -1.000000 -0.000000 0.000000 0.081800 -0.849400 1 0 1.000000 
0 10.059711 -238.783600 -154.656403 -1.000000 -0.000000 0.000000 0.081800 -0.904800 1 0 1.000000 
0 10.059711 -250.757904 -147.101196 -1.000000 -0.000000 0.000000 0.060800 -0.885000 1 0 1.000000 
metcombinebridge
0 10.059711 -238.783600 -133.469193 -1.000000 -0.000000 0.000000 0.081800 -0.849400 1 0 1.000000 
0 10.059711 -250.757904 -147.101196 -1.000000 -0.000000 0.000000 0.060800 -0.885000 1 0 1.000000 
0 10.059711 -250.757904 -133.469193 -1.000000 -0.000000 0.000000 0.060800 -0.849400 1 0 1.000000 
metcombinebridge
0 10.059711 -257.192108 -66.107101 -1.000000 -0.000000 0.000000 0.049600 -0.673000 1 0 1.000000 
0 10.059711 -238.783600 -133.469193 -1.000000 -0.000000 0.000000 0.081800 -0.849400 1 0 1.000000 
0 10.059711 -250.757904 -133.469193 -1.000000 -0.000000 0.000000 0.060800 -0.849400 1 0 1.000000 
metcombinebridge
0 10.059711 -257.192108 -66.107101 -1.000000 -0.000000 0.000000 0.049600 -0.673000 1 0 1.000000 
0 10.059711 -250.757904 -133.469193 -1.000000 -0.000000 0.000000 0.060800 -0.849400 1 0 1.000000 
0 10.059711 -269.166412 -66.107101 -1.000000 -0.000000 0.000000 0.028600 -0.673000 1 0 1.000000 
metcombinebridge
0 10.059711 -269.166412 -66.107101 -1.000000 -0.000000 0.000000 0.028600 -0.673000 1 0 1.000000 
0 10.059711 -257.192108 24.851801 -1.000000 -0.000000 0.000000 0.049600 -0.435000 1 0 1.000000 
0 10.059711 -257.192108 -66.107101 -1.000000 -0.000000 0.000000 0.049600 -0.673000 1 0 1.000000 
metcombinebridge
0 10.059711 -269.166412 -66.107101 -1.000000 -0.000000 0.000000 0.028600 -0.673000 1 0 1.000000 
0 10.059711 -269.166412 24.851801 -1.000000 -0.000000 0.000000 0.028600 -0.435000 1 0 1.000000 
0 10.059711 -257.192108 24.851801 -1.000000 -0.000000 0.000000 0.049600 -0.435000 1 0 1.000000 
metcombinebridge
0 10.059711 -269.166412 24.851801 -1.000000 -0.000000 0.000000 0.028600 -0.435000 1 0 1.000000 
0 10.059711 -246.661697 36.030201 -1.000000 -0.000000 0.000000 0.068000 -0.405700 1 0 1.000000 
0 10.059711 -257.192108 24.851801 -1.000000 -0.000000 0.000000 0.049600 -0.435000 1 0 1.000000 
metcombinebridge
0 10.059711 -269.166412 24.851801 -1.000000 -0.000000 0.000000 0.028600 -0.435000 1 0 1.000000 
0 10.059711 -258.635986 36.030201 -1.000000 -0.000000 0.000000 0.047000 -0.405700 1 0 1.000000 
0 10.059711 -246.661697 36.030201 -1.000000 -0.000000 0.000000 0.068000 -0.405700 1 0 1.000000 
metcombinebridge
0 10.059711 -258.635986 36.030201 -1.000000 -0.000000 0.000000 0.047000 -0.405700 1 0 1.000000 
0 10.059711 -246.661697 54.149700 -1.000000 -0.000000 0.000000 0.068000 -0.358300 1 0 1.000000 
0 10.059711 -246.661697 36.030201 -1.000000 -0.000000 0.000000 0.068000 -0.405700 1 0 1.000000 
metcombinebridge
0 10.059711 -258.635986 36.030201 -1.000000 -0.000000 0.000000 0.047000 -0.405700 1 0 1.000000 
0 10.059711 -258.635986 48.827702 -1.000000 -0.000000 0.000000 0.047000 -0.372200 1 0 1.000000 
0 10.059711 -246.661697 54.149700 -1.000000 -0.000000 0.000000 0.068000 -0.358300 1 0 1.000000 
metcombinebridge
0 -26.987490 -238.172897 48.807400 0.000000 -0.314607 0.949222 0.352800 -0.767100 1 0 1.000000 
0 -23.713390 -225.734604 52.930099 0.000000 -0.314607 0.949222 0.371300 -0.695300 1 0 1.000000 
0 -26.987490 -225.734604 52.930099 0.000000 -0.314607 0.949222 0.352800 -0.695300 1 0 1.000000 
metcombinebridge
0 -26.987490 -238.172897 48.807400 0.000000 -0.314607 0.949222 0.352800 -0.767100 1 0 1.000000 
0 -23.713390 -238.172897 48.807400 0.000000 -0.314607 0.949222 0.371300 -0.767100 1 0 1.000000 
0 -23.713390 -225.734604 52.930099 0.000000 -0.314607 0.949222 0.371300 -0.695300 1 0 1.000000 
metcombinebridge
0 -26.987490 -227.510605 34.897800 -0.000000 0.995186 -0.097999 0.365600 -0.405000 1 0 1.000000 
0 -23.713390 -225.734604 52.930099 -0.000000 0.995186 -0.097999 0.374200 -0.357900 1 0 1.000000 
0 -23.713390 -227.510605 34.897800 -0.000000 0.995186 -0.097999 0.374200 -0.405000 1 0 1.000000 
metcombinebridge
0 -26.987490 -227.510605 34.897800 -0.000000 0.995186 -0.097999 0.365600 -0.405000 1 0 1.000000 
0 -26.987490 -225.734604 52.930099 -0.000000 0.995186 -0.097999 0.365600 -0.357900 1 0 1.000000 
0 -23.713390 -225.734604 52.930099 -0.000000 0.995186 -0.097999 0.374200 -0.357900 1 0 1.000000 
metcombinebridge
0 -23.713390 -239.427307 36.071602 0.000000 -0.995186 0.097999 0.374200 -0.401600 1 0 1.000000 
0 -26.987490 -238.172897 48.807400 0.000000 -0.995186 0.097999 0.365600 -0.368300 1 0 1.000000 
0 -26.987490 -239.427307 36.071602 0.000000 -0.995186 0.097999 0.365600 -0.401600 1 0 1.000000 
metcombinebridge
0 -23.713390 -239.427307 36.071602 0.000000 -0.995186 0.097999 0.374200 -0.401600 1 0 1.000000 
0 -23.713390 -238.172897 48.807400 0.000000 -0.995186 0.097999 0.374200 -0.368300 1 0 1.000000 
0 -26.987490 -238.172897 48.807400 0.000000 -0.995186 0.097999 0.365600 -0.368300 1 0 1.000000 
metcombinebridge
0 -26.987490 -239.085907 24.805500 -0.000000 0.657208 -0.753709 0.081300 -0.435100 1 0 1.000000 
0 -23.713390 -227.510605 34.897800 -0.000000 0.657208 -0.753709 0.101500 -0.408700 1 0 1.000000 
0 -23.713390 -239.085907 24.805500 -0.000000 0.657208 -0.753709 0.081300 -0.435100 1 0 1.000000 
metcombinebridge
0 -26.987490 -239.085907 24.805500 -0.000000 0.657208 -0.753709 0.081300 -0.435100 1 0 1.000000 
0 -26.987490 -227.510605 34.897800 -0.000000 0.657208 -0.753709 0.101500 -0.408700 1 0 1.000000 
0 -23.713390 -227.510605 34.897800 -0.000000 0.657208 -0.753709 0.101500 -0.408700 1 0 1.000000 
metcombinebridge
0 -23.713388 -251.002594 25.979099 0.000000 -0.657208 0.753709 0.374200 -0.427600 1 0 1.000000 
0 -26.987490 -239.427307 36.071602 0.000000 -0.657208 0.753709 0.365600 -0.401600 1 0 1.000000 
0 -26.987488 -251.002594 25.979099 0.000000 -0.657208 0.753709 0.365600 -0.427600 1 0 1.000000 
metcombinebridge
0 -23.713388 -251.002594 25.979099 0.000000 -0.657208 0.753709 0.374200 -0.427600 1 0 1.000000 
0 -23.713390 -239.427307 36.071602 0.000000 -0.657208 0.753709 0.374200 -0.401600 1 0 1.000000 
0 -26.987490 -239.427307 36.071602 0.000000 -0.657208 0.753709 0.365600 -0.401600 1 0 1.000000 
metcombinebridge
0 -23.713390 -236.284302 -134.557495 -0.000000 0.999955 -0.009500 0.086200 -0.852200 1 0 1.000000 
0 -26.987490 -238.360992 -155.642700 -0.000000 0.995186 -0.097999 0.082500 -0.907400 1 0 1.000000 
0 -26.987490 -236.284302 -134.557495 -0.000000 0.996811 0.079801 0.086200 -0.852200 1 0 1.000000 
metcombinebridge
0 -23.713390 -236.284302 -134.557495 -0.000000 0.999955 -0.009500 0.086200 -0.852200 1 0 1.000000 
0 -23.713390 -238.360992 -155.642700 -0.000000 0.995186 -0.097999 0.082500 -0.907400 1 0 1.000000 
0 -26.987490 -238.360992 -155.642700 -0.000000 0.995186 -0.097999 0.082500 -0.907400 1 0 1.000000 
metcombinebridge
0 -26.987488 -249.537094 -146.950195 0.000000 -0.613892 -0.789390 0.365600 -0.880500 1 0 1.000000 
0 -23.713390 -238.360992 -155.642700 0.000000 -0.613892 -0.789390 0.374200 -0.903600 1 0 1.000000 
0 -23.713388 -249.537094 -146.950195 0.000000 -0.613892 -0.789390 0.374200 -0.880500 1 0 1.000000 
metcombinebridge
0 -26.987488 -249.537094 -146.950195 0.000000 -0.613892 -0.789390 0.365600 -0.880500 1 0 1.000000 
0 -26.987490 -238.360992 -155.642700 0.000000 -0.613892 -0.789390 0.365600 -0.903600 1 0 1.000000 
0 -23.713390 -238.360992 -155.642700 0.000000 -0.613892 -0.789390 0.374200 -0.903600 1 0 1.000000 
metcombinebridge
0 -16.470789 -273.958496 73.139099 0.000000 -0.610223 0.792230 0.412300 -0.959300 1 0 1.000000 
0 -3.749889 -250.572205 91.153702 0.000000 -0.610223 0.792230 0.484200 -0.820300 1 0 1.000000 
0 -16.470789 -250.572205 91.153702 0.000000 -0.610223 0.792230 0.412300 -0.820300 1 0 1.000000 
metcombinebridge
0 -16.470789 -273.958496 73.139099 0.000000 -0.610223 0.792230 0.412300 -0.959300 1 0 1.000000 
0 -3.749888 -273.958496 73.139099 0.000000 -0.610223 0.792230 0.484200 -0.959300 1 0 1.000000 
0 -3.749889 -250.572205 91.153702 0.000000 -0.610223 0.792230 0.484200 -0.820300 1 0 1.000000 
metcombinebridge
0 -16.470789 -250.572205 36.030201 -0.000000 1.000000 0.000000 0.393200 -0.401300 1 0 1.000000 
0 -3.749889 -250.572205 91.153702 -0.000000 1.000000 0.000000 0.426500 -0.256900 1 0 1.000000 
0 -3.749889 -250.572205 36.030201 -0.000000 1.000000 0.000000 0.426500 -0.401300 1 0 1.000000 
metcombinebridge
0 -16.470789 -250.572205 36.030201 -0.000000 1.000000 0.000000 0.393200 -0.401300 1 0 1.000000 
0 -16.470789 -250.572205 91.153702 -0.000000 1.000000 0.000000 0.393200 -0.256900 1 0 1.000000 
0 -3.749889 -250.572205 91.153702 -0.000000 1.000000 0.000000 0.426500 -0.256900 1 0 1.000000 
metcombinebridge
0 -3.749888 -273.958496 36.030201 0.000000 -1.000000 0.000000 0.426500 -0.400500 1 0 1.000000 
0 -16.470789 -273.958496 73.139099 0.000000 -1.000000 0.000000 0.393200 -0.303300 1 0 1.000000 
0 -16.470789 -273.958496 36.030201 0.000000 -1.000000 0.000000 0.393200 -0.400500 1 0 1.000000 
metcombinebridge
0 -3.749888 -273.958496 36.030201 0.000000 -1.000000 0.000000 0.426500 -0.400500 1 0 1.000000 
0 -3.749888 -273.958496 73.139099 0.000000 -1.000000 0.000000 0.426500 -0.303300 1 0 1.000000 
0 -16.470789 -273.958496 73.139099 0.000000 -1.000000 0.000000 0.393200 -0.303300 1 0 1.000000 
metcombinebridge
0 -16.470789 -262.102295 24.851801 -0.000000 0.696072 -0.717972 0.041000 -0.435000 1 0 1.000000 
0 -3.749889 -250.572205 36.030201 -0.000000 0.696072 -0.717972 0.061200 -0.405700 1 0 1.000000 
0 -3.749889 -262.102295 24.851801 -0.000000 0.696072 -0.717972 0.041000 -0.435000 1 0 1.000000 
metcombinebridge
0 -16.470789 -262.102295 24.851801 -0.000000 0.696072 -0.717972 0.041000 -0.435000 1 0 1.000000 
0 -16.470789 -250.572205 36.030201 -0.000000 0.696072 -0.717972 0.061200 -0.405700 1 0 1.000000 
0 -3.749889 -250.572205 36.030201 -0.000000 0.696072 -0.717972 0.061200 -0.405700 1 0 1.000000 
metcombinebridge
0 -3.749888 -285.488586 24.851801 0.000000 -0.696072 0.717972 0.426500 -0.429400 1 0 1.000000 
0 -16.470789 -273.958496 36.030201 0.000000 -0.696072 0.717972 0.393200 -0.400500 1 0 1.000000 
0 -16.470787 -285.488586 24.851801 0.000000 -0.696072 0.717972 0.393200 -0.429400 1 0 1.000000 
metcombinebridge
0 -3.749888 -285.488586 24.851801 0.000000 -0.696072 0.717972 0.426500 -0.429400 1 0 1.000000 
0 -3.749888 -273.958496 36.030201 0.000000 -0.696072 0.717972 0.426500 -0.400500 1 0 1.000000 
0 -16.470789 -273.958496 36.030201 0.000000 -0.696072 0.717972 0.393200 -0.400500 1 0 1.000000 
metcombinebridge
0 -3.749890 -241.946198 -133.469193 -0.000000 0.995333 0.096503 0.076300 -0.849400 1 0 1.000000 
0 -16.470789 -241.946198 -161.045700 -0.000000 1.000000 0.000000 0.076300 -0.921500 1 0 1.000000 
0 -16.470789 -241.946198 -133.469193 -0.000000 0.981218 0.192903 0.076300 -0.849400 1 0 1.000000 
metcombinebridge
0 -3.749890 -241.946198 -133.469193 -0.000000 0.995333 0.096503 0.076300 -0.849400 1 0 1.000000 
0 -3.749890 -241.946198 -161.045700 -0.000000 1.000000 0.000000 0.076300 -0.921500 1 0 1.000000 
0 -16.470789 -241.946198 -161.045700 -0.000000 1.000000 0.000000 0.076300 -0.921500 1 0 1.000000 
metcombinebridge
0 -16.470789 -265.332489 -153.490494 0.000000 -0.307394 -0.951582 0.412300 -1.000000 1 0 1.000000 
0 -3.749890 -241.946198 -161.045700 0.000000 -0.307394 -0.951582 0.484200 -0.871100 1 0 1.000000 
0 -3.749888 -265.332489 -153.490494 0.000000 -0.307394 -0.951582 0.484200 -1.000000 1 0 1.000000 
metcombinebridge
0 -16.470789 -265.332489 -153.490494 0.000000 -0.307394 -0.951582 0.412300 -1.000000 1 0 1.000000 
0 -16.470789 -241.946198 -161.045700 0.000000 -0.307394 -0.951582 0.412300 -0.871100 1 0 1.000000 
0 -3.749890 -241.946198 -161.045700 0.000000 -0.307394 -0.951582 0.484200 -0.871100 1 0 1.000000 
metcombinebridge
0 29.545509 -227.289597 -144.306793 1.000000 0.000000 0.000000 0.101900 -0.877700 1 0 1.000000 
0 29.545511 -249.067703 -117.736702 1.000000 0.000000 0.000000 0.063800 -0.808200 1 0 1.000000 
0 29.545511 -253.566299 -133.687500 1.000000 0.000000 0.000000 0.055900 -0.849900 1 0 1.000000 
metcombinebridge
0 29.545509 -227.289597 -144.306793 1.000000 0.000000 0.000000 0.101900 -0.877700 1 0 1.000000 
0 29.545511 -253.566299 -133.687500 1.000000 0.000000 0.000000 0.055900 -0.849900 1 0 1.000000 
0 29.545509 -231.788101 -160.257706 1.000000 0.000000 0.000000 0.094000 -0.919500 1 0 1.000000 
metcombinebridge
0 29.545509 -231.788101 -160.257706 1.000000 0.000000 0.000000 0.094000 -0.919500 1 0 1.000000 
0 29.545506 -111.885002 -176.854294 1.000000 0.000000 0.000000 0.304000 -0.962900 1 0 1.000000 
0 29.545509 -227.289597 -144.306793 1.000000 0.000000 0.000000 0.101900 -0.877700 1 0 1.000000 
metcombinebridge
0 29.545509 -231.788101 -160.257706 1.000000 0.000000 0.000000 0.094000 -0.919500 1 0 1.000000 
0 29.545506 -131.809906 -188.454407 1.000000 0.000000 0.000000 0.269100 -0.993300 1 0 1.000000 
0 29.545506 -111.885002 -176.854294 1.000000 0.000000 0.000000 0.304000 -0.962900 1 0 1.000000 
metcombinebridge
0 -23.713388 -248.001495 -65.715401 -0.000000 0.996811 0.079801 0.374200 -0.667800 1 0 1.000000 
0 -23.713390 -236.284302 -134.557495 -0.000000 0.999955 -0.009500 0.374200 -0.848500 1 0 1.000000 
0 -26.987490 -236.284302 -134.557495 -0.000000 0.996811 0.079801 0.365600 -0.848500 1 0 1.000000 
metcombinebridge
0 -23.713388 -248.001495 -65.715401 -0.000000 0.996811 0.079801 0.374200 -0.667800 1 0 1.000000 
0 -26.987490 -236.284302 -134.557495 -0.000000 0.996811 0.079801 0.365600 -0.848500 1 0 1.000000 
0 -26.987488 -248.001495 -65.715401 -0.000000 0.999955 -0.009500 0.365600 -0.667800 1 0 1.000000 
metcombinebridge
0 -26.987488 -248.001495 -65.715401 -0.000000 0.999955 -0.009500 0.365600 -0.667800 1 0 1.000000 
0 -23.713390 -239.085907 24.805500 -0.000000 0.995186 -0.097999 0.374200 -0.431100 1 0 1.000000 
0 -23.713388 -248.001495 -65.715401 -0.000000 0.996811 0.079801 0.374200 -0.667800 1 0 1.000000 
metcombinebridge
0 -26.987488 -248.001495 -65.715401 -0.000000 0.999955 -0.009500 0.365600 -0.667800 1 0 1.000000 
0 -26.987490 -239.085907 24.805500 -0.000000 0.995186 -0.097999 0.365600 -0.431100 1 0 1.000000 
0 -23.713390 -239.085907 24.805500 -0.000000 0.995186 -0.097999 0.374200 -0.431100 1 0 1.000000 
metcombinebridge
0 -3.749889 -262.102295 -66.107101 -0.000000 0.981218 0.192903 0.426500 -0.668400 1 0 1.000000 
0 -3.749890 -241.946198 -133.469193 -0.000000 0.995333 0.096503 0.426500 -0.845400 1 0 1.000000 
0 -16.470789 -241.946198 -133.469193 -0.000000 0.981218 0.192903 0.393200 -0.845400 1 0 1.000000 
metcombinebridge
0 -3.749889 -262.102295 -66.107101 -0.000000 0.981218 0.192903 0.426500 -0.668400 1 0 1.000000 
0 -16.470789 -241.946198 -133.469193 -0.000000 0.981218 0.192903 0.393200 -0.845400 1 0 1.000000 
0 -16.470789 -262.102295 -66.107101 -0.000000 0.995333 0.096503 0.393200 -0.668400 1 0 1.000000 
metcombinebridge
0 -16.470789 -262.102295 -66.107101 -0.000000 0.995333 0.096503 0.393200 -0.668400 1 0 1.000000 
0 -3.749889 -262.102295 24.851801 -0.000000 1.000000 0.000000 0.426500 -0.430200 1 0 1.000000 
0 -3.749889 -262.102295 -66.107101 -0.000000 0.981218 0.192903 0.426500 -0.668400 1 0 1.000000 
metcombinebridge
0 -16.470789 -262.102295 -66.107101 -0.000000 0.995333 0.096503 0.393200 -0.668400 1 0 1.000000 
0 -16.470789 -262.102295 24.851801 -0.000000 1.000000 0.000000 0.393200 -0.430200 1 0 1.000000 
0 -3.749889 -262.102295 24.851801 -0.000000 1.000000 0.000000 0.426500 -0.430200 1 0 1.000000 
metcombinebridge
0 8.007504 -110.932899 -165.028000 -0.000000 0.970699 -0.240300 0.457300 -0.932600 1 0 1.000000 
0 8.007504 -113.428299 -177.572906 -0.000000 0.980784 -0.195097 0.457300 -0.965300 1 0 1.000000 
0 -3.898695 -113.428299 -177.572906 -0.000000 0.980784 -0.195097 0.426100 -0.965300 1 0 1.000000 
metcombinebridge
0 8.007504 -110.932899 -165.028000 -0.000000 0.970699 -0.240300 0.457300 -0.932600 1 0 1.000000 
0 -3.898695 -113.428299 -177.572906 -0.000000 0.980784 -0.195097 0.426100 -0.965300 1 0 1.000000 
0 -3.898695 -110.932899 -165.028000 -0.000000 0.958525 -0.285007 0.426100 -0.932600 1 0 1.000000 
metcombinebridge
0 8.007504 -88.836502 -101.611702 -0.000000 0.958525 -0.285007 0.457300 -0.767300 1 0 1.000000 
0 8.007504 -110.932899 -165.028000 -0.000000 0.970699 -0.240300 0.457300 -0.932600 1 0 1.000000 
0 -3.898695 -110.932899 -165.028000 -0.000000 0.958525 -0.285007 0.426100 -0.932600 1 0 1.000000 
metcombinebridge
0 8.007504 -88.836502 -101.611702 -0.000000 0.958525 -0.285007 0.457300 -0.767300 1 0 1.000000 
0 -3.898695 -110.932899 -165.028000 -0.000000 0.958525 -0.285007 0.426100 -0.932600 1 0 1.000000 
0 -3.898696 -88.836502 -101.611702 -0.000000 0.970699 -0.240300 0.426100 -0.767300 1 0 1.000000 
metcombinebridge
0 -3.898696 -88.836502 -101.611702 -0.000000 0.970699 -0.240300 0.426100 -0.767300 1 0 1.000000 
0 8.007503 -64.382301 21.327700 -0.000000 0.980784 -0.195097 0.457300 -0.446200 1 0 1.000000 
0 8.007504 -88.836502 -101.611702 -0.000000 0.958525 -0.285007 0.457300 -0.767300 1 0 1.000000 
metcombinebridge
0 -3.898696 -88.836502 -101.611702 -0.000000 0.970699 -0.240300 0.426100 -0.767300 1 0 1.000000 
0 -3.898797 -64.382301 21.327700 -0.000000 0.980784 -0.195097 0.426100 -0.446200 1 0 1.000000 
0 8.007503 -64.382301 21.327700 -0.000000 0.980784 -0.195097 0.457300 -0.446200 1 0 1.000000 
metcombinebridge
0 2.036705 -112.078796 92.425697 1.000000 0.000000 0.000000 0.303700 -0.258100 1 0 1.000000 
0 2.036705 -112.078796 191.022400 1.000000 0.000000 0.000000 0.303700 -0.000000 1 0 1.000000 
0 2.036705 -116.694397 191.022400 1.000000 0.000000 0.000000 0.295600 -0.000000 1 0 1.000000 
metcombinebridge
0 2.036705 -112.078796 92.425697 1.000000 0.000000 0.000000 0.303700 -0.258100 1 0 1.000000 
0 2.036705 -116.694397 191.022400 1.000000 0.000000 0.000000 0.295600 -0.000000 1 0 1.000000 
0 2.036705 -116.694397 92.425697 1.000000 0.000000 0.000000 0.295600 -0.258100 1 0 1.000000 
metcombinebridge
0 2.036705 -107.658798 78.602501 1.000000 0.000000 0.000000 0.311400 -0.294300 1 0 1.000000 
0 2.036705 -112.078796 92.425697 1.000000 0.000000 0.000000 0.303700 -0.258100 1 0 1.000000 
0 2.036705 -116.694397 92.425697 1.000000 0.000000 0.000000 0.295600 -0.258100 1 0 1.000000 
metcombinebridge
0 2.036705 -107.658798 78.602501 1.000000 0.000000 0.000000 0.311400 -0.294300 1 0 1.000000 
0 2.036705 -116.694397 92.425697 1.000000 0.000000 0.000000 0.295600 -0.258100 1 0 1.000000 
0 2.036705 -116.694397 78.602501 1.000000 0.000000 0.000000 0.295600 -0.294300 1 0 1.000000 
metcombinebridge
0 2.036705 -116.694397 -117.789398 1.000000 0.000000 0.000000 0.295600 -0.808300 1 0 1.000000 
0 2.036705 -107.658798 78.602501 1.000000 0.000000 0.000000 0.311400 -0.294300 1 0 1.000000 
0 2.036705 -116.694397 78.602501 1.000000 0.000000 0.000000 0.295600 -0.294300 1 0 1.000000 
metcombinebridge
0 2.036705 -116.694397 -117.789398 1.000000 0.000000 0.000000 0.295600 -0.808300 1 0 1.000000 
0 2.036705 -107.658798 -114.320198 1.000000 0.000000 0.000000 0.311400 -0.799200 1 0 1.000000 
0 2.036705 -107.658798 78.602501 1.000000 0.000000 0.000000 0.311400 -0.294300 1 0 1.000000 
metcombinebridge
0 -2.161095 -107.658798 -114.320198 -0.000000 1.000000 0.000000 0.430700 -0.799900 1 0 1.000000 
0 2.036705 -107.658798 78.602501 -0.000000 0.994722 0.102602 0.441700 -0.294700 1 0 1.000000 
0 2.036705 -107.658798 -114.320198 -0.000000 1.000000 0.000000 0.441700 -0.799900 1 0 1.000000 
metcombinebridge
0 -2.161095 -107.658798 -114.320198 -0.000000 1.000000 0.000000 0.430700 -0.799900 1 0 1.000000 
0 -2.161095 -107.658798 78.602501 -0.000000 0.978719 0.205204 0.430700 -0.294700 1 0 1.000000 
0 2.036705 -107.658798 78.602501 -0.000000 0.994722 0.102602 0.441700 -0.294700 1 0 1.000000 
metcombinebridge
0 -2.161095 -107.658798 78.602501 -0.000000 0.978719 0.205204 0.430700 -0.294700 1 0 1.000000 
0 2.036705 -112.078796 92.425697 -0.000000 0.978719 0.205204 0.441700 -0.258400 1 0 1.000000 
0 2.036705 -107.658798 78.602501 -0.000000 0.994722 0.102602 0.441700 -0.294700 1 0 1.000000 
metcombinebridge
0 -2.161095 -107.658798 78.602501 -0.000000 0.978719 0.205204 0.430700 -0.294700 1 0 1.000000 
0 -2.161095 -112.078796 92.425697 -0.000000 0.994722 0.102602 0.430700 -0.258400 1 0 1.000000 
0 2.036705 -112.078796 92.425697 -0.000000 0.978719 0.205204 0.441700 -0.258400 1 0 1.000000 
metcombinebridge
0 -2.161095 -112.078796 92.425697 -0.000000 0.994722 0.102602 0.430700 -0.258400 1 0 1.000000 
0 2.036705 -112.078796 191.022400 -0.000000 1.000000 0.000000 0.441700 -0.000200 1 0 1.000000 
0 2.036705 -112.078796 92.425697 -0.000000 0.978719 0.205204 0.441700 -0.258400 1 0 1.000000 
metcombinebridge
0 -2.161095 -112.078796 92.425697 -0.000000 0.994722 0.102602 0.430700 -0.258400 1 0 1.000000 
0 -2.161095 -112.078796 191.022400 -0.000000 1.000000 0.000000 0.430700 -0.000200 1 0 1.000000 
0 2.036705 -112.078796 191.022400 -0.000000 1.000000 0.000000 0.441700 -0.000200 1 0 1.000000 
metcombinebridge
0 2.036705 -116.694397 92.425697 0.000000 -1.000000 0.000000 0.441700 -0.258200 1 0 1.000000 
0 2.036705 -116.694397 191.022400 0.000000 -1.000000 0.000000 0.441700 -0.000000 1 0 1.000000 
0 -2.161095 -116.694397 191.022400 0.000000 -1.000000 0.000000 0.430700 -0.000000 1 0 1.000000 
metcombinebridge
0 2.036705 -116.694397 92.425697 0.000000 -1.000000 0.000000 0.441700 -0.258200 1 0 1.000000 
0 -2.161095 -116.694397 191.022400 0.000000 -1.000000 0.000000 0.430700 -0.000000 1 0 1.000000 
0 -2.161095 -116.694397 92.425697 0.000000 -1.000000 0.000000 0.430700 -0.258200 1 0 1.000000 
metcombinebridge
0 2.036705 -116.694397 78.602501 0.000000 -1.000000 0.000000 0.441700 -0.294400 1 0 1.000000 
0 2.036705 -116.694397 92.425697 0.000000 -1.000000 0.000000 0.441700 -0.258200 1 0 1.000000 
0 -2.161095 -116.694397 92.425697 0.000000 -1.000000 0.000000 0.430700 -0.258200 1 0 1.000000 
metcombinebridge
0 2.036705 -116.694397 78.602501 0.000000 -1.000000 0.000000 0.441700 -0.294400 1 0 1.000000 
0 -2.161095 -116.694397 92.425697 0.000000 -1.000000 0.000000 0.430700 -0.258200 1 0 1.000000 
0 -2.161095 -116.694397 78.602501 0.000000 -1.000000 0.000000 0.430700 -0.294400 1 0 1.000000 
metcombinebridge
0 -2.161095 -116.694397 -117.789398 0.000000 -1.000000 0.000000 0.430700 -0.808700 1 0 1.000000 
0 2.036705 -116.694397 78.602501 0.000000 -1.000000 0.000000 0.441700 -0.294400 1 0 1.000000 
0 -2.161095 -116.694397 78.602501 0.000000 -1.000000 0.000000 0.430700 -0.294400 1 0 1.000000 
metcombinebridge
0 -2.161095 -116.694397 -117.789398 0.000000 -1.000000 0.000000 0.430700 -0.808700 1 0 1.000000 
0 2.036705 -116.694397 -117.789398 0.000000 -1.000000 0.000000 0.441700 -0.808700 1 0 1.000000 
0 2.036705 -116.694397 78.602501 0.000000 -1.000000 0.000000 0.441700 -0.294400 1 0 1.000000 
metcombinebridge
0 13.126310 -238.783600 -133.469193 -0.000000 0.996067 0.088597 0.081800 -0.849400 1 0 1.000000 
0 13.126310 -238.783600 -154.656403 -0.000000 1.000000 0.000000 0.081800 -0.904800 1 0 1.000000 
0 10.059711 -238.783600 -154.656403 -0.000000 1.000000 0.000000 0.081800 -0.904800 1 0 1.000000 
metcombinebridge
0 13.126310 -238.783600 -133.469193 -0.000000 0.996067 0.088597 0.081800 -0.849400 1 0 1.000000 
0 10.059711 -238.783600 -154.656403 -0.000000 1.000000 0.000000 0.081800 -0.904800 1 0 1.000000 
0 10.059711 -238.783600 -133.469193 -0.000000 0.984193 0.177099 0.081800 -0.849400 1 0 1.000000 
metcombinebridge
0 13.126311 -257.192108 -66.107101 -0.000000 0.984193 0.177099 0.049600 -0.673000 1 0 1.000000 
0 13.126310 -238.783600 -133.469193 -0.000000 0.996067 0.088597 0.081800 -0.849400 1 0 1.000000 
0 10.059711 -238.783600 -133.469193 -0.000000 0.984193 0.177099 0.081800 -0.849400 1 0 1.000000 
metcombinebridge
0 13.126311 -257.192108 -66.107101 -0.000000 0.984193 0.177099 0.049600 -0.673000 1 0 1.000000 
0 10.059711 -238.783600 -133.469193 -0.000000 0.984193 0.177099 0.081800 -0.849400 1 0 1.000000 
0 10.059711 -257.192108 -66.107101 -0.000000 0.996067 0.088597 0.049600 -0.673000 1 0 1.000000 
metcombinebridge
0 10.059711 -257.192108 -66.107101 -0.000000 0.996067 0.088597 0.049600 -0.673000 1 0 1.000000 
0 13.126311 -257.192108 24.851801 -0.000000 1.000000 0.000000 0.049600 -0.435000 1 0 1.000000 
0 13.126311 -257.192108 -66.107101 -0.000000 0.984193 0.177099 0.049600 -0.673000 1 0 1.000000 
metcombinebridge
0 10.059711 -257.192108 -66.107101 -0.000000 0.996067 0.088597 0.049600 -0.673000 1 0 1.000000 
0 10.059711 -257.192108 24.851801 -0.000000 1.000000 0.000000 0.049600 -0.435000 1 0 1.000000 
0 13.126311 -257.192108 24.851801 -0.000000 1.000000 0.000000 0.049600 -0.435000 1 0 1.000000 
metcombinebridge
0 10.059711 -269.166412 -66.107101 0.000000 -0.991116 -0.133002 0.462700 -0.668100 1 0 1.000000 
0 13.126311 -269.166412 24.851801 0.000000 -1.000000 0.000000 0.470700 -0.429900 1 0 1.000000 
0 10.059711 -269.166412 24.851801 0.000000 -1.000000 0.000000 0.462700 -0.429900 1 0 1.000000 
metcombinebridge
0 10.059711 -269.166412 -66.107101 0.000000 -0.991116 -0.133002 0.462700 -0.668100 1 0 1.000000 
0 13.126311 -269.166412 -66.107101 0.000000 -0.991116 -0.133002 0.470700 -0.668100 1 0 1.000000 
0 13.126311 -269.166412 24.851801 0.000000 -1.000000 0.000000 0.470700 -0.429900 1 0 1.000000 
metcombinebridge
0 10.059711 -269.166412 -66.107101 0.000000 -0.991116 -0.133002 0.462700 -0.668100 1 0 1.000000 
0 13.126310 -250.757904 -133.469193 0.000000 -0.984193 -0.177099 0.470700 -0.845100 1 0 1.000000 
0 13.126311 -269.166412 -66.107101 0.000000 -0.991116 -0.133002 0.470700 -0.668100 1 0 1.000000 
metcombinebridge
0 10.059711 -269.166412 -66.107101 0.000000 -0.991116 -0.133002 0.462700 -0.668100 1 0 1.000000 
0 10.059711 -250.757904 -133.469193 0.000000 -0.996067 -0.088597 0.462700 -0.845100 1 0 1.000000 
0 13.126310 -250.757904 -133.469193 0.000000 -0.984193 -0.177099 0.470700 -0.845100 1 0 1.000000 
metcombinebridge
0 10.059711 -250.757904 -133.469193 0.000000 -0.996067 -0.088597 0.462700 -0.845100 1 0 1.000000 
0 13.126310 -250.757904 -147.101196 0.000000 -1.000000 0.000000 0.470700 -0.880800 1 0 1.000000 
0 13.126310 -250.757904 -133.469193 0.000000 -0.984193 -0.177099 0.470700 -0.845100 1 0 1.000000 
metcombinebridge
0 10.059711 -250.757904 -133.469193 0.000000 -0.996067 -0.088597 0.462700 -0.845100 1 0 1.000000 
0 10.059711 -250.757904 -147.101196 0.000000 -1.000000 0.000000 0.462700 -0.880800 1 0 1.000000 
0 13.126310 -250.757904 -147.101196 0.000000 -1.000000 0.000000 0.470700 -0.880800 1 0 1.000000 
metcombinebridge
0 8.007505 -133.869797 -160.465607 1.000000 0.000000 0.000000 0.265500 -0.920000 1 0 1.000000 
0 8.007505 -137.775803 -180.102203 1.000000 0.000000 0.000000 0.258700 -0.971400 1 0 1.000000 
0 8.007504 -113.428299 -177.572906 1.000000 0.000000 0.000000 0.301300 -0.964800 1 0 1.000000 
metcombinebridge
0 8.007505 -133.869797 -160.465607 1.000000 0.000000 0.000000 0.265500 -0.920000 1 0 1.000000 
0 8.007504 -113.428299 -177.572906 1.000000 0.000000 0.000000 0.301300 -0.964800 1 0 1.000000 
0 8.007504 -110.932899 -165.028000 1.000000 0.000000 0.000000 0.305700 -0.932000 1 0 1.000000 
metcombinebridge
0 8.007504 -111.773399 -97.049301 1.000000 0.000000 0.000000 0.304200 -0.754000 1 0 1.000000 
0 8.007505 -133.869797 -160.465607 1.000000 0.000000 0.000000 0.265500 -0.920000 1 0 1.000000 
0 8.007504 -110.932899 -165.028000 1.000000 0.000000 0.000000 0.305700 -0.932000 1 0 1.000000 
metcombinebridge
0 8.007504 -111.773399 -97.049301 1.000000 0.000000 0.000000 0.304200 -0.754000 1 0 1.000000 
0 8.007504 -110.932899 -165.028000 1.000000 0.000000 0.000000 0.305700 -0.932000 1 0 1.000000 
0 8.007504 -88.836502 -101.611702 1.000000 0.000000 0.000000 0.344400 -0.766000 1 0 1.000000 
metcombinebridge
0 8.007504 -111.773399 -97.049301 1.000000 0.000000 0.000000 0.304200 -0.754000 1 0 1.000000 
0 8.007504 -88.836502 -101.611702 1.000000 0.000000 0.000000 0.344400 -0.766000 1 0 1.000000 
0 8.007503 -64.382301 21.327700 1.000000 0.000000 0.000000 0.387200 -0.444200 1 0 1.000000 
metcombinebridge
0 8.007504 -111.773399 -97.049301 1.000000 0.000000 0.000000 0.304200 -0.754000 1 0 1.000000 
0 8.007503 -64.382301 21.327700 1.000000 0.000000 0.000000 0.387200 -0.444200 1 0 1.000000 
0 8.007504 -87.319199 25.890100 1.000000 0.000000 0.000000 0.347100 -0.432200 1 0 1.000000 
metcombinebridge
0 8.007503 -64.382301 21.327700 1.000000 0.000000 0.000000 0.387200 -0.444200 1 0 1.000000 
0 8.007504 -97.096703 39.232300 1.000000 0.000000 0.000000 0.329900 -0.397300 1 0 1.000000 
0 8.007504 -87.319199 25.890100 1.000000 0.000000 0.000000 0.347100 -0.432200 1 0 1.000000 
metcombinebridge
0 8.007503 -64.382301 21.327700 1.000000 0.000000 0.000000 0.387200 -0.444200 1 0 1.000000 
0 8.007503 -74.159798 34.669899 1.000000 0.000000 0.000000 0.370100 -0.409300 1 0 1.000000 
0 8.007504 -97.096703 39.232300 1.000000 0.000000 0.000000 0.329900 -0.397300 1 0 1.000000 
metcombinebridge
0 8.007503 -74.159798 34.669899 1.000000 0.000000 0.000000 0.370100 -0.409300 1 0 1.000000 
0 8.007504 -89.839798 75.715302 1.000000 0.000000 0.000000 0.342700 -0.301800 1 0 1.000000 
0 8.007504 -97.096703 39.232300 1.000000 0.000000 0.000000 0.329900 -0.397300 1 0 1.000000 
metcombinebridge
0 8.007503 -74.159798 34.669899 1.000000 0.000000 0.000000 0.370100 -0.409300 1 0 1.000000 
0 8.007503 -70.153000 54.813702 1.000000 0.000000 0.000000 0.377100 -0.356500 1 0 1.000000 
0 8.007504 -89.839798 75.715302 1.000000 0.000000 0.000000 0.342700 -0.301800 1 0 1.000000 
metcombinebridge
0 -23.058094 -132.160599 -174.668793 -1.000000 -0.000000 0.000000 0.268500 -0.957200 1 0 1.000000 
0 -23.058094 -132.160599 -177.656296 -1.000000 -0.000000 0.000000 0.268500 -0.965000 1 0 1.000000 
0 -23.058094 -134.747894 -176.162598 -1.000000 -0.000000 0.000000 0.264000 -0.961100 1 0 1.000000 
metcombinebridge
0 -26.987490 -239.427307 36.071602 -1.000000 -0.000000 0.000000 0.080700 -0.405600 1 0 1.000000 
0 -26.987490 -238.172897 48.807400 -1.000000 -0.000000 0.000000 0.082900 -0.372200 1 0 1.000000 
0 -26.987490 -225.734604 52.930099 -1.000000 -0.000000 0.000000 0.104700 -0.361500 1 0 1.000000 
metcombinebridge
0 -26.987490 -239.427307 36.071602 -1.000000 -0.000000 0.000000 0.080700 -0.405600 1 0 1.000000 
0 -26.987490 -225.734604 52.930099 -1.000000 -0.000000 0.000000 0.104700 -0.361500 1 0 1.000000 
0 -26.987490 -227.510605 34.897800 -1.000000 -0.000000 0.000000 0.101500 -0.408700 1 0 1.000000 
metcombinebridge
0 -26.987488 -251.002594 25.979099 -1.000000 -0.000000 0.000000 0.060400 -0.432000 1 0 1.000000 
0 -26.987490 -239.427307 36.071602 -1.000000 -0.000000 0.000000 0.080700 -0.405600 1 0 1.000000 
0 -26.987490 -227.510605 34.897800 -1.000000 -0.000000 0.000000 0.101500 -0.408700 1 0 1.000000 
metcombinebridge
0 -26.987488 -251.002594 25.979099 -1.000000 -0.000000 0.000000 0.060400 -0.432000 1 0 1.000000 
0 -26.987490 -227.510605 34.897800 -1.000000 -0.000000 0.000000 0.101500 -0.408700 1 0 1.000000 
0 -26.987490 -239.085907 24.805500 -1.000000 -0.000000 0.000000 0.081300 -0.435100 1 0 1.000000 
metcombinebridge
0 -26.987488 -259.918091 -64.541702 -1.000000 -0.000000 0.000000 0.044800 -0.668900 1 0 1.000000 
0 -26.987488 -251.002594 25.979099 -1.000000 -0.000000 0.000000 0.060400 -0.432000 1 0 1.000000 
0 -26.987490 -239.085907 24.805500 -1.000000 -0.000000 0.000000 0.081300 -0.435100 1 0 1.000000 
metcombinebridge
0 -26.987488 -259.918091 -64.541702 -1.000000 -0.000000 0.000000 0.044800 -0.668900 1 0 1.000000 
0 -26.987490 -239.085907 24.805500 -1.000000 -0.000000 0.000000 0.081300 -0.435100 1 0 1.000000 
0 -26.987488 -248.001495 -65.715401 -1.000000 -0.000000 0.000000 0.065700 -0.672000 1 0 1.000000 
metcombinebridge
0 -26.987488 -248.001495 -65.715401 -1.000000 -0.000000 0.000000 0.065700 -0.672000 1 0 1.000000 
0 -26.987488 -248.200897 -133.383896 -1.000000 -0.000000 0.000000 0.065300 -0.849100 1 0 1.000000 
0 -26.987488 -259.918091 -64.541702 -1.000000 -0.000000 0.000000 0.044800 -0.668900 1 0 1.000000 
metcombinebridge
0 -26.987488 -248.001495 -65.715401 -1.000000 -0.000000 0.000000 0.065700 -0.672000 1 0 1.000000 
0 -26.987490 -236.284302 -134.557495 -1.000000 -0.000000 0.000000 0.086200 -0.852200 1 0 1.000000 
0 -26.987488 -248.200897 -133.383896 -1.000000 -0.000000 0.000000 0.065300 -0.849100 1 0 1.000000 
metcombinebridge
0 -26.987490 -236.284302 -134.557495 -1.000000 -0.000000 0.000000 0.086200 -0.852200 1 0 1.000000 
0 -26.987488 -249.537094 -146.950195 -1.000000 -0.000000 0.000000 0.063000 -0.884600 1 0 1.000000 
0 -26.987488 -248.200897 -133.383896 -1.000000 -0.000000 0.000000 0.065300 -0.849100 1 0 1.000000 
metcombinebridge
0 -26.987490 -236.284302 -134.557495 -1.000000 -0.000000 0.000000 0.086200 -0.852200 1 0 1.000000 
0 -26.987490 -238.360992 -155.642700 -1.000000 -0.000000 0.000000 0.082500 -0.907400 1 0 1.000000 
0 -26.987488 -249.537094 -146.950195 -1.000000 -0.000000 0.000000 0.063000 -0.884600 1 0 1.000000 
metcombinebridge
0 -3.749888 -265.332489 -133.469193 1.000000 0.000000 0.000000 0.035300 -0.849400 1 0 1.000000 
0 -3.749888 -265.332489 -153.490494 1.000000 0.000000 0.000000 0.035300 -0.901800 1 0 1.000000 
0 -3.749890 -241.946198 -161.045700 1.000000 0.000000 0.000000 0.076300 -0.921500 1 0 1.000000 
metcombinebridge
0 -3.749888 -265.332489 -133.469193 1.000000 0.000000 0.000000 0.035300 -0.849400 1 0 1.000000 
0 -3.749890 -241.946198 -161.045700 1.000000 0.000000 0.000000 0.076300 -0.921500 1 0 1.000000 
0 -3.749890 -241.946198 -133.469193 1.000000 0.000000 0.000000 0.076300 -0.849400 1 0 1.000000 
metcombinebridge
0 -3.749888 -285.488586 -66.107101 1.000000 0.000000 0.000000 0.000000 -0.673000 1 0 1.000000 
0 -3.749888 -265.332489 -133.469193 1.000000 0.000000 0.000000 0.035300 -0.849400 1 0 1.000000 
0 -3.749890 -241.946198 -133.469193 1.000000 0.000000 0.000000 0.076300 -0.849400 1 0 1.000000 
metcombinebridge
0 -3.749888 -285.488586 -66.107101 1.000000 0.000000 0.000000 0.000000 -0.673000 1 0 1.000000 
0 -3.749890 -241.946198 -133.469193 1.000000 0.000000 0.000000 0.076300 -0.849400 1 0 1.000000 
0 -3.749889 -262.102295 -66.107101 1.000000 0.000000 0.000000 0.041000 -0.673000 1 0 1.000000 
metcombinebridge
0 -3.749888 -285.488586 -66.107101 1.000000 0.000000 0.000000 0.000000 -0.673000 1 0 1.000000 
0 -3.749889 -262.102295 -66.107101 1.000000 0.000000 0.000000 0.041000 -0.673000 1 0 1.000000 
0 -3.749889 -262.102295 24.851801 1.000000 0.000000 0.000000 0.041000 -0.435000 1 0 1.000000 
metcombinebridge
0 -3.749888 -285.488586 -66.107101 1.000000 0.000000 0.000000 0.000000 -0.673000 1 0 1.000000 
0 -3.749889 -262.102295 24.851801 1.000000 0.000000 0.000000 0.041000 -0.435000 1 0 1.000000 
0 -3.749888 -285.488586 24.851801 1.000000 0.000000 0.000000 0.000000 -0.435000 1 0 1.000000 
metcombinebridge
0 -3.749889 -262.102295 24.851801 1.000000 0.000000 0.000000 0.041000 -0.435000 1 0 1.000000 
0 -3.749888 -273.958496 36.030201 1.000000 0.000000 0.000000 0.020200 -0.405700 1 0 1.000000 
0 -3.749888 -285.488586 24.851801 1.000000 0.000000 0.000000 0.000000 -0.435000 1 0 1.000000 
metcombinebridge
0 -3.749889 -262.102295 24.851801 1.000000 0.000000 0.000000 0.041000 -0.435000 1 0 1.000000 
0 -3.749889 -250.572205 36.030201 1.000000 0.000000 0.000000 0.061200 -0.405700 1 0 1.000000 
0 -3.749888 -273.958496 36.030201 1.000000 0.000000 0.000000 0.020200 -0.405700 1 0 1.000000 
metcombinebridge
0 -3.749889 -250.572205 36.030201 1.000000 0.000000 0.000000 0.061200 -0.405700 1 0 1.000000 
0 -3.749888 -273.958496 73.139099 1.000000 0.000000 0.000000 0.020200 -0.308600 1 0 1.000000 
0 -3.749888 -273.958496 36.030201 1.000000 0.000000 0.000000 0.020200 -0.405700 1 0 1.000000 
metcombinebridge
0 -3.749889 -250.572205 36.030201 1.000000 0.000000 0.000000 0.061200 -0.405700 1 0 1.000000 
0 -3.749889 -250.572205 91.153702 1.000000 0.000000 0.000000 0.061200 -0.261400 1 0 1.000000 
0 -3.749888 -273.958496 73.139099 1.000000 0.000000 0.000000 0.020200 -0.308600 1 0 1.000000 
metcombinebridge
0 -29.545389 -243.930603 -133.483795 -1.000000 -0.000000 0.000000 0.072800 -0.849400 1 0 1.000000 
0 -29.545389 -243.930603 -136.471298 -1.000000 -0.000000 0.000000 0.072800 -0.857200 1 0 1.000000 
0 -29.545389 -246.517899 -134.977600 -1.000000 -0.000000 0.000000 0.068300 -0.853300 1 0 1.000000 
metcombinebridge
0 -23.713390 -227.510605 34.897800 1.000000 0.000000 0.000000 0.101500 -0.408700 1 0 1.000000 
0 -23.713390 -225.734604 52.930099 1.000000 0.000000 0.000000 0.104700 -0.361500 1 0 1.000000 
0 -23.713390 -238.172897 48.807400 1.000000 0.000000 0.000000 0.082900 -0.372200 1 0 1.000000 
metcombinebridge
0 -23.713390 -227.510605 34.897800 1.000000 0.000000 0.000000 0.101500 -0.408700 1 0 1.000000 
0 -23.713390 -238.172897 48.807400 1.000000 0.000000 0.000000 0.082900 -0.372200 1 0 1.000000 
0 -23.713390 -239.427307 36.071602 1.000000 0.000000 0.000000 0.080700 -0.405600 1 0 1.000000 
metcombinebridge
0 -23.713390 -239.085907 24.805500 1.000000 0.000000 0.000000 0.081300 -0.435100 1 0 1.000000 
0 -23.713390 -227.510605 34.897800 1.000000 0.000000 0.000000 0.101500 -0.408700 1 0 1.000000 
0 -23.713390 -239.427307 36.071602 1.000000 0.000000 0.000000 0.080700 -0.405600 1 0 1.000000 
metcombinebridge
0 -23.713390 -239.085907 24.805500 1.000000 0.000000 0.000000 0.081300 -0.435100 1 0 1.000000 
0 -23.713390 -239.427307 36.071602 1.000000 0.000000 0.000000 0.080700 -0.405600 1 0 1.000000 
0 -23.713388 -251.002594 25.979099 1.000000 0.000000 0.000000 0.060400 -0.432000 1 0 1.000000 
metcombinebridge
0 -23.713388 -259.918091 -64.541702 1.000000 0.000000 0.000000 0.044800 -0.668900 1 0 1.000000 
0 -23.713390 -239.085907 24.805500 1.000000 0.000000 0.000000 0.081300 -0.435100 1 0 1.000000 
0 -23.713388 -251.002594 25.979099 1.000000 0.000000 0.000000 0.060400 -0.432000 1 0 1.000000 
metcombinebridge
0 -23.713388 -259.918091 -64.541702 1.000000 0.000000 0.000000 0.044800 -0.668900 1 0 1.000000 
0 -23.713388 -248.001495 -65.715401 1.000000 0.000000 0.000000 0.065700 -0.672000 1 0 1.000000 
0 -23.713390 -239.085907 24.805500 1.000000 0.000000 0.000000 0.081300 -0.435100 1 0 1.000000 
metcombinebridge
0 -23.713388 -259.918091 -64.541702 1.000000 0.000000 0.000000 0.044800 -0.668900 1 0 1.000000 
0 -23.713390 -236.284302 -134.557495 1.000000 0.000000 0.000000 0.086200 -0.852200 1 0 1.000000 
0 -23.713388 -248.001495 -65.715401 1.000000 0.000000 0.000000 0.065700 -0.672000 1 0 1.000000 
metcombinebridge
0 -23.713388 -259.918091 -64.541702 1.000000 0.000000 0.000000 0.044800 -0.668900 1 0 1.000000 
0 -23.713388 -248.200897 -133.383896 1.000000 0.000000 0.000000 0.065300 -0.849100 1 0 1.000000 
0 -23.713390 -236.284302 -134.557495 1.000000 0.000000 0.000000 0.086200 -0.852200 1 0 1.000000 
metcombinebridge
0 -23.713388 -248.200897 -133.383896 1.000000 0.000000 0.000000 0.065300 -0.849100 1 0 1.000000 
0 -23.713390 -238.360992 -155.642700 1.000000 0.000000 0.000000 0.082500 -0.907400 1 0 1.000000 
0 -23.713390 -236.284302 -134.557495 1.000000 0.000000 0.000000 0.086200 -0.852200 1 0 1.000000 
metcombinebridge
0 -23.713388 -248.200897 -133.383896 1.000000 0.000000 0.000000 0.065300 -0.849100 1 0 1.000000 
0 -23.713388 -249.537094 -146.950195 1.000000 0.000000 0.000000 0.063000 -0.884600 1 0 1.000000 
0 -23.713390 -238.360992 -155.642700 1.000000 0.000000 0.000000 0.082500 -0.907400 1 0 1.000000 
metcombinebridge
0 -16.470787 -285.488586 -66.107101 0.000000 -0.989447 -0.144892 0.393200 -0.667600 1 0 1.000000 
0 -3.749888 -285.488586 24.851801 0.000000 -1.000000 0.000000 0.426500 -0.429400 1 0 1.000000 
0 -16.470787 -285.488586 24.851801 0.000000 -1.000000 0.000000 0.393200 -0.429400 1 0 1.000000 
metcombinebridge
0 -16.470787 -285.488586 -66.107101 0.000000 -0.989447 -0.144892 0.393200 -0.667600 1 0 1.000000 
0 -3.749888 -285.488586 -66.107101 0.000000 -0.989447 -0.144892 0.426500 -0.667600 1 0 1.000000 
0 -3.749888 -285.488586 24.851801 0.000000 -1.000000 0.000000 0.426500 -0.429400 1 0 1.000000 
metcombinebridge
0 -16.470787 -285.488586 -66.107101 0.000000 -0.989447 -0.144892 0.393200 -0.667600 1 0 1.000000 
0 -3.749888 -265.332489 -133.469193 0.000000 -0.981218 -0.192903 0.426500 -0.844600 1 0 1.000000 
0 -3.749888 -285.488586 -66.107101 0.000000 -0.989447 -0.144892 0.426500 -0.667600 1 0 1.000000 
metcombinebridge
0 -16.470787 -285.488586 -66.107101 0.000000 -0.989447 -0.144892 0.393200 -0.667600 1 0 1.000000 
0 -16.470789 -265.332489 -133.469193 0.000000 -0.995333 -0.096503 0.393200 -0.844600 1 0 1.000000 
0 -3.749888 -265.332489 -133.469193 0.000000 -0.981218 -0.192903 0.426500 -0.844600 1 0 1.000000 
metcombinebridge
0 -16.470789 -265.332489 -133.469193 0.000000 -0.995333 -0.096503 0.393200 -0.844600 1 0 1.000000 
0 -3.749888 -265.332489 -153.490494 0.000000 -1.000000 0.000000 0.426500 -0.897100 1 0 1.000000 
0 -3.749888 -265.332489 -133.469193 0.000000 -0.981218 -0.192903 0.426500 -0.844600 1 0 1.000000 
metcombinebridge
0 -16.470789 -265.332489 -133.469193 0.000000 -0.995333 -0.096503 0.393200 -0.844600 1 0 1.000000 
0 -16.470789 -265.332489 -153.490494 0.000000 -1.000000 0.000000 0.393200 -0.897100 1 0 1.000000 
0 -3.749888 -265.332489 -153.490494 0.000000 -1.000000 0.000000 0.426500 -0.897100 1 0 1.000000 
metcombinebridge
0 15.428310 -231.788101 -160.257706 -1.000000 -0.000000 0.000000 0.094000 -0.919500 1 0 1.000000 
0 15.428305 -111.885002 -176.854294 -1.000000 -0.000000 0.000000 0.304000 -0.962900 1 0 1.000000 
0 15.428306 -131.809906 -188.454407 -1.000000 -0.000000 0.000000 0.269100 -0.993300 1 0 1.000000 
metcombinebridge
0 15.428310 -231.788101 -160.257706 -1.000000 -0.000000 0.000000 0.094000 -0.919500 1 0 1.000000 
0 15.428309 -227.289597 -144.306793 -1.000000 -0.000000 0.000000 0.101900 -0.877700 1 0 1.000000 
0 15.428305 -111.885002 -176.854294 -1.000000 -0.000000 0.000000 0.304000 -0.962900 1 0 1.000000 
metcombinebridge
0 15.428310 -231.788101 -160.257706 -1.000000 -0.000000 0.000000 0.094000 -0.919500 1 0 1.000000 
0 15.428210 -249.067703 -117.736702 -1.000000 -0.000000 0.000000 0.063800 -0.808200 1 0 1.000000 
0 15.428309 -227.289597 -144.306793 -1.000000 -0.000000 0.000000 0.101900 -0.877700 1 0 1.000000 
metcombinebridge
0 15.428310 -231.788101 -160.257706 -1.000000 -0.000000 0.000000 0.094000 -0.919500 1 0 1.000000 
0 15.428311 -253.566299 -133.687500 -1.000000 -0.000000 0.000000 0.055900 -0.849900 1 0 1.000000 
0 15.428210 -249.067703 -117.736702 -1.000000 -0.000000 0.000000 0.063800 -0.808200 1 0 1.000000 
metcombinebridge
0 -26.987488 -259.918091 -64.541702 0.000000 -0.999380 -0.035199 0.365600 -0.664300 1 0 1.000000 
0 -23.713388 -251.002594 25.979099 0.000000 -0.995186 0.097999 0.374200 -0.427600 1 0 1.000000 
0 -26.987488 -251.002594 25.979099 0.000000 -0.995186 0.097999 0.365600 -0.427600 1 0 1.000000 
metcombinebridge
0 -26.987488 -259.918091 -64.541702 0.000000 -0.999380 -0.035199 0.365600 -0.664300 1 0 1.000000 
0 -23.713388 -259.918091 -64.541702 0.000000 -0.999380 -0.035199 0.374200 -0.664300 1 0 1.000000 
0 -23.713388 -251.002594 25.979099 0.000000 -0.995186 0.097999 0.374200 -0.427600 1 0 1.000000 
metcombinebridge
0 -26.987488 -259.918091 -64.541702 0.000000 -0.999380 -0.035199 0.365600 -0.664300 1 0 1.000000 
0 -23.713388 -248.200897 -133.383896 0.000000 -0.996811 -0.079801 0.374200 -0.845000 1 0 1.000000 
0 -23.713388 -259.918091 -64.541702 0.000000 -0.999380 -0.035199 0.374200 -0.664300 1 0 1.000000 
metcombinebridge
0 -26.987488 -259.918091 -64.541702 0.000000 -0.999380 -0.035199 0.365600 -0.664300 1 0 1.000000 
0 -26.987488 -248.200897 -133.383896 0.000000 -0.999955 0.009500 0.365600 -0.845000 1 0 1.000000 
0 -23.713388 -248.200897 -133.383896 0.000000 -0.996811 -0.079801 0.374200 -0.845000 1 0 1.000000 
metcombinebridge
0 -26.987488 -248.200897 -133.383896 0.000000 -0.999955 0.009500 0.365600 -0.845000 1 0 1.000000 
0 -23.713388 -249.537094 -146.950195 0.000000 -0.995186 0.097999 0.374200 -0.880500 1 0 1.000000 
0 -23.713388 -248.200897 -133.383896 0.000000 -0.996811 -0.079801 0.374200 -0.845000 1 0 1.000000 
metcombinebridge
0 -26.987488 -248.200897 -133.383896 0.000000 -0.999955 0.009500 0.365600 -0.845000 1 0 1.000000 
0 -26.987488 -249.537094 -146.950195 0.000000 -0.995186 0.097999 0.365600 -0.880500 1 0 1.000000 
0 -23.713388 -249.537094 -146.950195 0.000000 -0.995186 0.097999 0.374200 -0.880500 1 0 1.000000 
metcombinebridge
0 -9.438889 -253.663193 42.738098 -1.000000 -0.000000 0.000000 0.055700 -0.388100 1 0 1.000000 
0 -9.438889 -253.663193 39.750599 -1.000000 -0.000000 0.000000 0.055700 -0.396000 1 0 1.000000 
0 -9.438889 -256.250488 41.244400 -1.000000 -0.000000 0.000000 0.051200 -0.392000 1 0 1.000000 
metcombinebridge
0 -3.898695 -111.773399 -97.049301 0.000000 -0.964879 0.262694 0.426100 -0.754500 1 0 1.000000 
0 8.007504 -87.319199 25.890100 0.000000 -0.980784 0.195097 0.457300 -0.433400 1 0 1.000000 
0 -3.898796 -87.319199 25.890100 0.000000 -0.980784 0.195097 0.426100 -0.433400 1 0 1.000000 
metcombinebridge
0 -3.898695 -111.773399 -97.049301 0.000000 -0.964879 0.262694 0.426100 -0.754500 1 0 1.000000 
0 8.007504 -111.773399 -97.049301 0.000000 -0.964879 0.262694 0.457300 -0.754500 1 0 1.000000 
0 8.007504 -87.319199 25.890100 0.000000 -0.980784 0.195097 0.457300 -0.433400 1 0 1.000000 
metcombinebridge
0 -3.898695 -111.773399 -97.049301 0.000000 -0.964879 0.262694 0.426100 -0.754500 1 0 1.000000 
0 8.007505 -133.869797 -160.465607 0.000000 -0.958525 0.285007 0.457300 -0.919800 1 0 1.000000 
0 8.007504 -111.773399 -97.049301 0.000000 -0.964879 0.262694 0.457300 -0.754500 1 0 1.000000 
metcombinebridge
0 -3.898695 -111.773399 -97.049301 0.000000 -0.964879 0.262694 0.426100 -0.754500 1 0 1.000000 
0 -3.898694 -133.869797 -160.465607 0.000000 -0.970699 0.240300 0.426100 -0.919800 1 0 1.000000 
0 8.007505 -133.869797 -160.465607 0.000000 -0.958525 0.285007 0.457300 -0.919800 1 0 1.000000 
metcombinebridge
0 -3.898694 -133.869797 -160.465607 0.000000 -0.970699 0.240300 0.426100 -0.919800 1 0 1.000000 
0 8.007505 -137.775803 -180.102203 0.000000 -0.980784 0.195097 0.457300 -0.971100 1 0 1.000000 
0 8.007505 -133.869797 -160.465607 0.000000 -0.958525 0.285007 0.457300 -0.919800 1 0 1.000000 
metcombinebridge
0 -3.898694 -133.869797 -160.465607 0.000000 -0.970699 0.240300 0.426100 -0.919800 1 0 1.000000 
0 -3.898694 -137.775803 -180.102203 0.000000 -0.980784 0.195097 0.426100 -0.971100 1 0 1.000000 
0 8.007505 -137.775803 -180.102203 0.000000 -0.980784 0.195097 0.457300 -0.971100 1 0 1.000000 
metcombinebridge
0 -5.748790 -231.409500 -168.760406 -1.000000 -0.000000 0.000000 0.094700 -0.941700 1 0 1.000000 
0 -5.748795 -110.737297 -178.269394 -1.000000 -0.000000 0.000000 0.306100 -0.966600 1 0 1.000000 
0 -5.748794 -129.944702 -191.022507 -1.000000 -0.000000 0.000000 0.272400 -1.000000 1 0 1.000000 
metcombinebridge
0 -5.748790 -231.409500 -168.760406 -1.000000 -0.000000 0.000000 0.094700 -0.941700 1 0 1.000000 
0 -5.748790 -227.857697 -152.572403 -1.000000 -0.000000 0.000000 0.100900 -0.899400 1 0 1.000000 
0 -5.748795 -110.737297 -178.269394 -1.000000 -0.000000 0.000000 0.306100 -0.966600 1 0 1.000000 
metcombinebridge
0 -5.748790 -231.409500 -168.760406 -1.000000 -0.000000 0.000000 0.094700 -0.941700 1 0 1.000000 
0 -5.748789 -251.162292 -127.330399 -1.000000 -0.000000 0.000000 0.060100 -0.833300 1 0 1.000000 
0 -5.748790 -227.857697 -152.572403 -1.000000 -0.000000 0.000000 0.100900 -0.899400 1 0 1.000000 
metcombinebridge
0 -5.748790 -231.409500 -168.760406 -1.000000 -0.000000 0.000000 0.094700 -0.941700 1 0 1.000000 
0 -5.748789 -254.714005 -143.518402 -1.000000 -0.000000 0.000000 0.053900 -0.875700 1 0 1.000000 
0 -5.748789 -251.162292 -127.330399 -1.000000 -0.000000 0.000000 0.060100 -0.833300 1 0 1.000000 
end
