version 1
nodes
  0 "static_prop" -1
end
skeleton
time 0
0 0.000000 0.000000 0.000000 0.000000 0.000000 0.000000
end
triangles
dock01a
0 24.063639 -255.478424 195.800476 0.995700 0.092586 -0.003067 0.003412 -0.618556 1 0 1.000000 
0 2.389768 -22.440735 194.321518 0.995685 0.092788 0.000749 0.474753 -0.613964 1 0 1.000000 
0 24.063641 -255.117554 206.693970 0.995685 0.092788 0.000749 0.003440 -0.589157 1 0 1.000000 
dock01a
0 24.063641 -255.117554 206.693970 0.995685 0.092788 0.000749 0.003440 -0.589157 1 0 1.000000 
0 2.389768 -22.440735 194.321518 0.995685 0.092788 0.000749 0.474753 -0.613964 1 0 1.000000 
0 2.389768 -22.991484 205.537735 0.995657 0.092988 0.004566 0.474782 -0.584565 1 0 1.000000 
dock01a
0 2.389768 -22.991484 205.537735 0.003083 0.998792 0.049044 0.144439 -0.582675 1 0 1.000000 
0 2.389768 -22.440735 194.321518 -0.023277 0.999003 0.038090 0.144257 -0.612252 1 0 1.000000 
0 -2.175228 -22.965611 205.297821 -0.023277 0.999003 0.038090 0.149084 -0.582748 1 0 1.000000 
dock01a
0 -2.175228 -22.965611 205.297821 -0.023277 0.999003 0.038090 0.149084 -0.582748 1 0 1.000000 
0 2.389768 -22.440735 194.321518 -0.023277 0.999003 0.038090 0.144257 -0.612252 1 0 1.000000 
0 -2.175228 -22.704557 195.682419 -0.049619 0.998400 0.027106 0.148902 -0.612325 1 0 1.000000 
dock01a
0 19.498644 -254.673553 207.017471 -0.093072 -0.994336 0.051311 0.152021 -0.582806 1 0 1.000000 
0 19.498642 -255.304520 194.790283 -0.069235 -0.996707 0.042207 0.151839 -0.612383 1 0 1.000000 
0 24.063641 -255.117554 206.693970 -0.069235 -0.996707 0.042207 0.147377 -0.582734 1 0 1.000000 
dock01a
0 24.063641 -255.117554 206.693970 -0.069235 -0.996707 0.042207 0.147377 -0.582734 1 0 1.000000 
0 19.498642 -255.304520 194.790283 -0.069235 -0.996707 0.042207 0.151839 -0.612383 1 0 1.000000 
0 24.063639 -255.478424 195.800476 -0.045352 -0.998423 0.033075 0.147194 -0.612311 1 0 1.000000 
dock01a
0 24.063639 -255.478424 195.800476 0.216549 0.013945 -0.976172 0.457002 -0.588732 1 0 1.000000 
0 19.498642 -255.304520 194.790283 -0.035054 -0.004587 -0.999375 0.456730 -0.609040 1 0 1.000000 
0 2.389768 -22.440735 194.321518 -0.035054 -0.004587 -0.999375 0.002518 -0.594872 1 0 1.000000 
dock01a
0 2.389768 -22.440735 194.321518 -0.035054 -0.004587 -0.999375 0.002518 -0.594872 1 0 1.000000 
0 19.498642 -255.304520 194.790283 -0.035054 -0.004587 -0.999375 0.456730 -0.609040 1 0 1.000000 
0 -2.175228 -22.704557 195.682419 -0.284407 -0.022825 -0.958432 0.002247 -0.615179 1 0 1.000000 
dock01a
0 -5.819398 -15.936656 165.635818 0.003076 -0.998785 -0.049186 0.148412 -0.581736 1 0 1.000000 
0 -5.819398 -15.385814 154.450287 -0.023267 -0.998999 -0.038210 0.148229 -0.611313 1 0 1.000000 
0 -1.254401 -15.910783 165.395905 -0.023267 -0.998999 -0.038210 0.153056 -0.581809 1 0 1.000000 
dock01a
0 -1.254401 -15.910783 165.395905 -0.023267 -0.998999 -0.038210 0.153056 -0.581809 1 0 1.000000 
0 -5.819398 -15.385814 154.450287 -0.023267 -0.998999 -0.038210 0.148229 -0.611313 1 0 1.000000 
0 -1.254401 -15.649637 155.811188 -0.049591 -0.998399 -0.027202 0.152874 -0.611385 1 0 1.000000 
dock01a
0 21.079140 248.813416 181.529007 -0.092733 0.994126 -0.055808 0.155994 -0.581867 1 0 1.000000 
0 21.079140 248.128662 169.331345 -0.069616 0.996467 -0.046968 0.155812 -0.611444 1 0 1.000000 
0 16.514143 248.369431 181.205505 -0.069616 0.996467 -0.046968 0.151349 -0.581795 1 0 1.000000 
dock01a
0 16.514143 248.369431 181.205505 -0.069616 0.996467 -0.046968 0.151349 -0.581795 1 0 1.000000 
0 21.079140 248.128662 169.331345 -0.069616 0.996467 -0.046968 0.155812 -0.611444 1 0 1.000000 
0 16.514143 247.954773 170.341537 -0.046455 0.998193 -0.038099 0.151167 -0.611371 1 0 1.000000 
dock01a
0 16.514143 247.954773 170.341537 -0.218222 0.077213 -0.972840 0.460974 -0.587793 1 0 1.000000 
0 21.079140 248.128662 169.331345 0.035514 0.052732 -0.997977 0.460703 -0.608101 1 0 1.000000 
0 -5.819398 -15.385814 154.450287 0.035514 0.052732 -0.997977 0.006491 -0.593933 1 0 1.000000 
dock01a
0 -5.819398 -15.385814 154.450287 0.035514 0.052732 -0.997977 0.006491 -0.593933 1 0 1.000000 
0 21.079140 248.128662 169.331345 0.035514 0.052732 -0.997977 0.460703 -0.608101 1 0 1.000000 
0 -1.254401 -15.649637 155.811188 0.286921 0.024791 -0.957633 0.006220 -0.614240 1 0 1.000000 
dock01a
0 21.843987 254.822342 205.537735 0.002589 0.998290 0.058394 0.144439 -0.582675 1 0 1.000000 
0 21.843985 255.478424 194.321518 -0.021888 0.998596 0.048231 0.144257 -0.612252 1 0 1.000000 
0 17.278990 254.848221 205.297821 -0.021888 0.998596 0.048231 0.149084 -0.582748 1 0 1.000000 
dock01a
0 17.278990 254.848221 205.297821 -0.021888 0.998596 0.048231 0.149084 -0.582748 1 0 1.000000 
0 21.843985 255.478424 194.321518 -0.021888 0.998596 0.048231 0.144257 -0.612252 1 0 1.000000 
0 17.278988 255.214600 195.682419 -0.046350 0.998201 0.038035 0.148902 -0.612325 1 0 1.000000 
dock01a
0 -5.054552 -15.764586 204.085571 -0.092425 -0.993918 0.059876 0.152021 -0.582806 1 0 1.000000 
0 -5.054552 -16.501179 191.858398 -0.069969 -0.996228 0.051321 0.151839 -0.612383 1 0 1.000000 
0 -0.489555 -16.208576 203.762085 -0.069969 -0.996228 0.051321 0.147377 -0.582734 1 0 1.000000 
dock01a
0 -0.489555 -16.208576 203.762085 -0.069969 -0.996228 0.051321 0.147377 -0.582734 1 0 1.000000 
0 -5.054552 -16.501179 191.858398 -0.069969 -0.996228 0.051321 0.151839 -0.612383 1 0 1.000000 
0 -0.489556 -16.675072 192.868591 -0.047472 -0.997958 0.042736 0.147194 -0.612311 1 0 1.000000 
dock01a
0 -0.489556 -16.675072 192.868591 0.215594 -0.012479 -0.976403 0.457002 -0.588732 1 0 1.000000 
0 -5.054552 -16.501179 191.858398 -0.037143 0.012723 -0.999229 0.456730 -0.609040 1 0 1.000000 
0 21.843985 255.478424 194.321518 -0.037143 0.012723 -0.999229 0.002518 -0.594872 1 0 1.000000 
dock01a
0 21.843985 255.478424 194.321518 -0.037143 0.012723 -0.999229 0.002518 -0.594872 1 0 1.000000 
0 -5.054552 -16.501179 191.858398 -0.037143 0.012723 -0.999229 0.456730 -0.609040 1 0 1.000000 
0 17.278988 255.214600 195.682419 -0.287465 0.037098 -0.957072 0.002247 -0.615179 1 0 1.000000 
dock01a
0 22.242487 -244.406433 187.330170 0.002831 -0.998546 -0.053821 0.148412 -0.581736 1 0 1.000000 
0 22.242487 -243.803543 176.144638 -0.022578 -0.998810 -0.043237 0.148229 -0.611313 1 0 1.000000 
0 26.807484 -244.380569 187.090256 -0.022578 -0.998810 -0.043237 0.153056 -0.581809 1 0 1.000000 
dock01a
0 26.807484 -244.380569 187.090256 -0.022578 -0.998810 -0.043237 0.153056 -0.581809 1 0 1.000000 
0 22.242487 -243.803543 176.144638 -0.022578 -0.998810 -0.043237 0.148229 -0.611313 1 0 1.000000 
0 26.807484 -244.067368 177.505554 -0.047970 -0.998316 -0.032621 0.152874 -0.611385 1 0 1.000000 
dock01a
0 1.090822 -21.934620 179.280121 -0.092414 0.993910 -0.060013 0.155994 -0.581867 1 0 1.000000 
0 1.090821 -22.671116 167.082458 -0.069975 0.996221 -0.051443 0.155812 -0.611444 1 0 1.000000 
0 -3.474174 -22.378609 178.956619 -0.069975 0.996221 -0.051443 0.151349 -0.581795 1 0 1.000000 
dock01a
0 -3.474174 -22.378609 178.956619 -0.069975 0.996221 -0.051443 0.151349 -0.581795 1 0 1.000000 
0 1.090821 -22.671116 167.082458 -0.069975 0.996221 -0.051443 0.155812 -0.611444 1 0 1.000000 
0 -3.474175 -22.845011 168.092651 -0.047496 0.997952 -0.042843 0.151167 -0.611371 1 0 1.000000 
dock01a
0 -3.474175 -22.845011 168.092651 -0.213477 -0.060379 -0.975080 0.460974 -0.587793 1 0 1.000000 
0 1.090821 -22.671116 167.082458 0.036958 -0.037389 -0.998617 0.460703 -0.608101 1 0 1.000000 
0 22.242487 -243.803543 176.144638 0.036958 -0.037389 -0.998617 0.006491 -0.593933 1 0 1.000000 
dock01a
0 22.242487 -243.803543 176.144638 0.036958 -0.037389 -0.998617 0.006491 -0.593933 1 0 1.000000 
0 1.090821 -22.671116 167.082458 0.036958 -0.037389 -0.998617 0.460703 -0.608101 1 0 1.000000 
0 26.807484 -244.067368 177.505554 0.285035 -0.012014 -0.958442 0.006220 -0.614240 1 0 1.000000 
dock01a
0 -14.852669 95.897507 245.020752 0.018261 0.064335 0.997761 0.881284 -0.546814 1 0 1.000000 
0 -22.145298 108.500099 243.718765 0.018261 0.064335 0.997761 0.881284 -0.517242 1 0 1.000000 
0 -19.937305 101.518021 245.260895 0.018261 0.064335 0.997761 0.876480 -0.532028 1 0 1.000000 
dock01a
0 -14.852669 95.897507 245.020752 0.018261 0.064335 0.997761 0.881284 -0.546814 1 0 1.000000 
0 -18.355011 114.321045 242.908020 0.018261 0.064335 0.997761 0.893862 -0.508104 1 0 1.000000 
0 -22.145298 108.500099 243.718765 0.018261 0.064335 0.997761 0.881284 -0.517242 1 0 1.000000 
dock01a
0 -14.852669 95.897507 245.020752 0.018261 0.064335 0.997761 0.881284 -0.546814 1 0 1.000000 
0 -12.413160 118.680466 242.784149 0.018261 0.064335 0.997761 0.909408 -0.508104 1 0 1.000000 
0 -18.355011 114.321045 242.908020 0.018261 0.064335 0.997761 0.893862 -0.508104 1 0 1.000000 
dock01a
0 -14.852669 95.897507 245.020752 0.018261 0.064335 0.997761 0.881284 -0.546814 1 0 1.000000 
0 -4.877897 118.142014 244.472839 0.018261 0.064335 0.997761 0.921986 -0.517242 1 0 1.000000 
0 -12.413160 118.680466 242.784149 0.018261 0.064335 0.997761 0.909408 -0.508104 1 0 1.000000 
dock01a
0 -14.852669 95.897507 245.020752 0.018261 0.064335 0.997761 0.881284 -0.546814 1 0 1.000000 
0 1.346590 112.418251 243.110687 0.018261 0.064335 0.997761 0.926790 -0.532028 1 0 1.000000 
0 -4.877897 118.142014 244.472839 0.018261 0.064335 0.997761 0.921986 -0.517242 1 0 1.000000 
dock01a
0 -14.852669 95.897507 245.020752 0.018261 0.064335 0.997761 0.881284 -0.546814 1 0 1.000000 
0 1.521014 105.558014 243.293793 0.018261 0.064335 0.997761 0.921986 -0.546814 1 0 1.000000 
0 1.346590 112.418251 243.110687 0.018261 0.064335 0.997761 0.926790 -0.532028 1 0 1.000000 
dock01a
0 -14.852669 95.897507 245.020752 0.018261 0.064335 0.997761 0.881284 -0.546814 1 0 1.000000 
0 -1.504840 98.224426 244.532364 0.018261 0.064335 0.997761 0.909408 -0.555952 1 0 1.000000 
0 1.521014 105.558014 243.293793 0.018261 0.064335 0.997761 0.921986 -0.546814 1 0 1.000000 
dock01a
0 -14.852669 95.897507 245.020752 0.018261 0.064335 0.997761 0.881284 -0.546814 1 0 1.000000 
0 -7.337229 94.274254 244.258072 0.018261 0.064335 0.997761 0.893862 -0.555952 1 0 1.000000 
0 -1.504840 98.224426 244.532364 0.018261 0.064335 0.997761 0.909408 -0.555952 1 0 1.000000 
dock01a
0 -2.175228 -22.965611 205.297821 -0.995672 -0.092933 0.001143 0.474782 -0.584565 1 0 1.000000 
0 19.498642 -255.304520 194.790283 -0.995672 -0.092933 0.001143 0.003412 -0.618556 1 0 1.000000 
0 19.498644 -254.673553 207.017471 -0.995645 -0.093097 0.004804 0.003440 -0.589157 1 0 1.000000 
dock01a
0 -2.175228 -22.704557 195.682419 -0.995684 -0.092769 -0.002519 0.474753 -0.613964 1 0 1.000000 
0 19.498642 -255.304520 194.790283 -0.995672 -0.092933 0.001143 0.003412 -0.618556 1 0 1.000000 
0 -2.175228 -22.965611 205.297821 -0.995672 -0.092933 0.001143 0.474782 -0.584565 1 0 1.000000 
dock01a
0 -2.175228 -22.965611 205.297821 0.009803 0.007121 0.999926 0.021191 -0.614388 1 0 1.000000 
0 24.063641 -255.117554 206.693970 0.009803 0.007121 0.999926 0.475946 -0.587941 1 0 1.000000 
0 2.389768 -22.991484 205.537735 -0.052482 0.000074 0.998622 0.021462 -0.594081 1 0 1.000000 
dock01a
0 19.498644 -254.673553 207.017471 0.072050 0.014141 0.997301 0.475675 -0.608249 1 0 1.000000 
0 24.063641 -255.117554 206.693970 0.009803 0.007121 0.999926 0.475946 -0.587941 1 0 1.000000 
0 -2.175228 -22.965611 205.297821 0.009803 0.007121 0.999926 0.021191 -0.614388 1 0 1.000000 
dock01a
0 16.514143 248.369431 181.205505 -0.996438 0.084328 0.000451 0.007412 -0.588218 1 0 1.000000 
0 -5.819398 -15.385814 154.450287 -0.996438 0.084328 0.000451 0.478726 -0.613025 1 0 1.000000 
0 -5.819398 -15.936656 165.635818 -0.996461 0.083956 0.004135 0.478754 -0.583625 1 0 1.000000 
dock01a
0 16.514143 247.954773 170.341537 -0.996401 0.084699 -0.003233 0.007384 -0.617617 1 0 1.000000 
0 -5.819398 -15.385814 154.450287 -0.996438 0.084328 0.000451 0.478726 -0.613025 1 0 1.000000 
0 16.514143 248.369431 181.205505 -0.996438 0.084328 0.000451 0.007412 -0.588218 1 0 1.000000 
dock01a
0 -1.254401 -15.910783 165.395905 0.996439 -0.084301 0.001220 0.478754 -0.583625 1 0 1.000000 
0 21.079140 248.128662 169.331345 0.996439 -0.084301 0.001220 0.007384 -0.617617 1 0 1.000000 
0 21.079140 248.813416 181.529007 0.996425 -0.084352 0.004735 0.007412 -0.588218 1 0 1.000000 
dock01a
0 -1.254401 -15.649637 155.811188 0.996442 -0.084249 -0.002295 0.478726 -0.613025 1 0 1.000000 
0 21.079140 248.128662 169.331345 0.996439 -0.084301 0.001220 0.007384 -0.617617 1 0 1.000000 
0 -1.254401 -15.910783 165.395905 0.996439 -0.084301 0.001220 0.478754 -0.583625 1 0 1.000000 
dock01a
0 -1.254401 -15.910783 165.395905 -0.006262 -0.059294 0.998221 0.025164 -0.613449 1 0 1.000000 
0 16.514143 248.369431 181.205505 -0.006262 -0.059294 0.998221 0.479919 -0.587002 1 0 1.000000 
0 -5.819398 -15.936656 165.635818 0.052735 -0.063164 0.996609 0.025435 -0.593142 1 0 1.000000 
dock01a
0 21.079140 248.813416 181.529007 -0.065236 -0.055216 0.996341 0.479648 -0.607310 1 0 1.000000 
0 16.514143 248.369431 181.205505 -0.006262 -0.059294 0.998221 0.479919 -0.587002 1 0 1.000000 
0 -1.254401 -15.910783 165.395905 -0.006262 -0.059294 0.998221 0.025164 -0.613449 1 0 1.000000 
dock01a
0 -0.489555 -16.208576 203.762085 0.996636 -0.081949 -0.000649 0.003440 -0.589157 1 0 1.000000 
0 21.843985 255.478424 194.321518 0.996636 -0.081949 -0.000649 0.474753 -0.613964 1 0 1.000000 
0 21.843987 254.822342 205.537735 0.996613 -0.082092 -0.004802 0.474782 -0.584565 1 0 1.000000 
dock01a
0 -0.489556 -16.675072 192.868591 0.996642 -0.081805 0.003503 0.003412 -0.618556 1 0 1.000000 
0 21.843985 255.478424 194.321518 0.996636 -0.081949 -0.000649 0.474753 -0.613964 1 0 1.000000 
0 -0.489555 -16.208576 203.762085 0.996636 -0.081949 -0.000649 0.003440 -0.589157 1 0 1.000000 
dock01a
0 17.278990 254.848221 205.297821 -0.996626 0.082073 -0.000918 0.474782 -0.584565 1 0 1.000000 
0 -5.054552 -16.501179 191.858398 -0.996626 0.082073 -0.000918 0.003412 -0.618556 1 0 1.000000 
0 -5.054552 -15.764586 204.085571 -0.996598 0.082271 -0.004956 0.003440 -0.589157 1 0 1.000000 
dock01a
0 17.278988 255.214600 195.682419 -0.996638 0.081874 0.003120 0.474753 -0.613964 1 0 1.000000 
0 -5.054552 -16.501179 191.858398 -0.996626 0.082073 -0.000918 0.003412 -0.618556 1 0 1.000000 
0 17.278990 254.848221 205.297821 -0.996626 0.082073 -0.000918 0.474782 -0.584565 1 0 1.000000 
dock01a
0 17.278990 254.848221 205.297821 0.008616 -0.006230 0.999943 0.021191 -0.614388 1 0 1.000000 
0 -0.489555 -16.208576 203.762085 0.008616 -0.006230 0.999943 0.475946 -0.587941 1 0 1.000000 
0 21.843987 254.822342 205.537735 -0.052495 -0.002217 0.998619 0.021462 -0.594081 1 0 1.000000 
dock01a
0 -5.054552 -15.764586 204.085571 0.069695 -0.010220 0.997516 0.475675 -0.608249 1 0 1.000000 
0 -0.489555 -16.208576 203.762085 0.008616 -0.006230 0.999943 0.475946 -0.587941 1 0 1.000000 
0 17.278990 254.848221 205.297821 0.008616 -0.006230 0.999943 0.021191 -0.614388 1 0 1.000000 
dock01a
0 -3.474174 -22.378609 178.956619 -0.993324 -0.115358 -0.000629 0.007412 -0.588218 1 0 1.000000 
0 22.242487 -243.803543 176.144638 -0.993324 -0.115358 -0.000629 0.478726 -0.613025 1 0 1.000000 
0 22.242487 -244.406433 187.330170 -0.993313 -0.115286 -0.006214 0.478754 -0.583625 1 0 1.000000 
dock01a
0 -3.474175 -22.845011 168.092651 -0.993303 -0.115427 0.004955 0.007384 -0.617617 1 0 1.000000 
0 22.242487 -243.803543 176.144638 -0.993324 -0.115358 -0.000629 0.478726 -0.613025 1 0 1.000000 
0 -3.474174 -22.378609 178.956619 -0.993324 -0.115358 -0.000629 0.007412 -0.588218 1 0 1.000000 
dock01a
0 26.807484 -244.380569 187.090256 0.993355 0.115080 -0.001572 0.478754 -0.583625 1 0 1.000000 
0 1.090821 -22.671116 167.082458 0.993355 0.115080 -0.001572 0.007384 -0.617617 1 0 1.000000 
0 1.090822 -21.934620 179.280121 0.993387 0.114601 -0.006920 0.007412 -0.588218 1 0 1.000000 
dock01a
0 26.807484 -244.067368 177.505554 0.993294 0.115555 0.003776 0.478726 -0.613025 1 0 1.000000 
0 1.090821 -22.671116 167.082458 0.993355 0.115080 -0.001572 0.007384 -0.617617 1 0 1.000000 
0 26.807484 -244.380569 187.090256 0.993355 0.115080 -0.001572 0.478754 -0.583625 1 0 1.000000 
dock01a
0 26.807484 -244.380569 187.090256 -0.010544 0.035175 0.999325 0.025164 -0.613449 1 0 1.000000 
0 -3.474174 -22.378609 178.956619 -0.010544 0.035175 0.999325 0.479919 -0.587002 1 0 1.000000 
0 22.242487 -244.406433 187.330170 0.052186 0.043671 0.997682 0.025435 -0.593142 1 0 1.000000 
dock01a
0 1.090822 -21.934620 179.280121 -0.073231 0.026537 0.996962 0.479648 -0.607310 1 0 1.000000 
0 -3.474174 -22.378609 178.956619 -0.010544 0.035175 0.999325 0.479919 -0.587002 1 0 1.000000 
0 26.807484 -244.380569 187.090256 -0.010544 0.035175 0.999325 0.025164 -0.613449 1 0 1.000000 
dock01a
0 -18.598810 104.754295 -256.173676 -0.734323 0.678670 -0.013327 0.590935 -1.000418 1 0 1.000000 
0 -21.703745 106.011353 150.880096 -0.992607 0.121349 -0.002537 0.603345 0.000028 1 0 1.000000 
0 -18.598795 112.745209 150.747864 -0.732865 0.680225 -0.014246 0.589891 -0.000047 1 0 1.000000 
dock01a
0 -18.598810 104.754295 -256.173676 -0.734323 0.678670 -0.013327 0.590935 -1.000418 1 0 1.000000 
0 -21.703762 98.020439 -256.041443 -0.993068 0.117515 -0.002308 0.606065 -1.000343 1 0 1.000000 
0 -21.703745 106.011353 150.880096 -0.992607 0.121349 -0.002537 0.603345 0.000028 1 0 1.000000 
dock01a
0 -21.703762 98.020439 -256.041443 -0.993068 0.117515 -0.002308 0.606065 -1.000343 1 0 1.000000 
0 -20.256874 98.738846 151.022919 -0.871352 -0.490523 0.011537 0.617238 0.000149 1 0 1.000000 
0 -21.703745 106.011353 150.880096 -0.992607 0.121349 -0.002537 0.603345 0.000028 1 0 1.000000 
dock01a
0 -21.703762 98.020439 -256.041443 -0.993068 0.117515 -0.002308 0.606065 -1.000343 1 0 1.000000 
0 -20.256891 90.747932 -255.898636 -0.872496 -0.488527 0.009593 0.620592 -1.000222 1 0 1.000000 
0 -20.256874 98.738846 151.022919 -0.871352 -0.490523 0.011537 0.617238 0.000149 1 0 1.000000 
dock01a
0 -20.256891 90.747932 -255.898636 -0.872496 -0.488527 0.009593 0.620592 -1.000222 1 0 1.000000 
0 -14.810839 93.705551 151.121765 -0.439446 -0.898065 0.019125 0.631765 0.000270 1 0 1.000000 
0 -20.256874 98.738846 151.022919 -0.871352 -0.490523 0.011537 0.617238 0.000149 1 0 1.000000 
dock01a
0 -20.256891 90.747932 -255.898636 -0.872496 -0.488527 0.009593 0.620592 -1.000222 1 0 1.000000 
0 -14.810857 85.714645 -255.799789 -0.418660 -0.907968 0.017830 0.634486 -1.000101 1 0 1.000000 
0 -14.810839 93.705551 151.121765 -0.439446 -0.898065 0.019125 0.631765 0.000270 1 0 1.000000 
dock01a
0 -14.810857 85.714645 -255.799789 -0.418660 -0.907968 0.017830 0.634486 -1.000101 1 0 1.000000 
0 -7.445838 92.834015 151.138870 0.193545 -0.980908 0.018983 0.646895 0.000345 1 0 1.000000 
0 -14.810839 93.705551 151.121765 -0.439446 -0.898065 0.019125 0.631765 0.000270 1 0 1.000000 
dock01a
0 -14.810857 85.714645 -255.799789 -0.418660 -0.907968 0.017830 0.634486 -1.000101 1 0 1.000000 
0 -7.445856 84.843102 -255.782669 0.195090 -0.980596 0.019256 0.647939 -1.000026 1 0 1.000000 
0 -7.445838 92.834015 151.138870 0.193545 -0.980908 0.018983 0.646895 0.000345 1 0 1.000000 
dock01a
0 -7.445856 84.843102 -255.782669 0.195090 -0.980596 0.019256 0.647939 -1.000026 1 0 1.000000 
0 -0.975051 96.457130 151.067719 0.744944 -0.666967 0.014609 0.662281 0.000345 1 0 1.000000 
0 -7.445838 92.834015 151.138870 0.193545 -0.980908 0.018983 0.646895 0.000345 1 0 1.000000 
dock01a
0 -7.445856 84.843102 -255.782669 0.195090 -0.980596 0.019256 0.647939 -1.000026 1 0 1.000000 
0 -0.975069 88.466217 -255.853821 0.734323 -0.678670 0.013327 0.661238 -1.000026 1 0 1.000000 
0 -0.975051 96.457130 151.067719 0.744944 -0.666967 0.014609 0.662281 0.000345 1 0 1.000000 
dock01a
0 -0.975069 88.466217 -255.853821 0.734323 -0.678670 0.013327 0.661238 -1.000026 1 0 1.000000 
0 2.129900 103.190994 150.935486 0.991174 -0.132498 0.004151 0.677412 0.000270 1 0 1.000000 
0 -0.975051 96.457130 151.067719 0.744944 -0.666967 0.014609 0.662281 0.000345 1 0 1.000000 
dock01a
0 -0.975069 88.466217 -255.853821 0.734323 -0.678670 0.013327 0.661238 -1.000026 1 0 1.000000 
0 2.129882 95.200081 -255.986053 0.993068 -0.117515 0.002308 0.674691 -1.000101 1 0 1.000000 
0 2.129900 103.190994 150.935486 0.991174 -0.132498 0.004151 0.677412 0.000270 1 0 1.000000 
dock01a
0 2.129882 95.200081 -255.986053 0.993068 -0.117515 0.002308 0.674691 -1.000101 1 0 1.000000 
0 0.683030 110.463493 150.792679 0.881899 0.471311 -0.010966 0.691939 0.000149 1 0 1.000000 
0 2.129900 103.190994 150.935486 0.991174 -0.132498 0.004151 0.677412 0.000270 1 0 1.000000 
dock01a
0 2.129882 95.200081 -255.986053 0.993068 -0.117515 0.002308 0.674691 -1.000101 1 0 1.000000 
0 0.683013 102.472588 -256.128876 0.872496 0.488527 -0.009593 0.688584 -1.000222 1 0 1.000000 
0 0.683030 110.463493 150.792679 0.881899 0.471311 -0.010966 0.691939 0.000149 1 0 1.000000 
dock01a
0 0.683013 102.472588 -256.128876 0.872496 0.488527 -0.009593 0.688584 -1.000222 1 0 1.000000 
0 -4.763006 115.496788 150.693832 0.413275 0.910360 -0.021173 0.705832 0.000028 1 0 1.000000 
0 0.683030 110.463493 150.792679 0.881899 0.471311 -0.010966 0.691939 0.000149 1 0 1.000000 
dock01a
0 0.683013 102.472588 -256.128876 0.872496 0.488527 -0.009593 0.688584 -1.000222 1 0 1.000000 
0 -4.763024 107.505875 -256.227722 0.418660 0.907968 -0.017830 0.703111 -1.000343 1 0 1.000000 
0 -4.763006 115.496788 150.693832 0.413275 0.910360 -0.021173 0.705832 0.000028 1 0 1.000000 
dock01a
0 -4.763024 107.505875 -256.227722 0.418660 0.907968 -0.017830 0.703111 -1.000343 1 0 1.000000 
0 -12.128007 116.368324 150.676712 -0.214996 0.976382 -0.021320 0.719285 -0.000047 1 0 1.000000 
0 -4.763006 115.496788 150.693832 0.413275 0.910360 -0.021173 0.705832 0.000028 1 0 1.000000 
dock01a
0 -4.763024 107.505875 -256.227722 0.418660 0.907968 -0.017830 0.703111 -1.000343 1 0 1.000000 
0 -12.128025 108.377411 -256.244843 -0.195090 0.980596 -0.019256 0.718242 -1.000418 1 0 1.000000 
0 -12.128007 116.368324 150.676712 -0.214996 0.976382 -0.021320 0.719285 -0.000047 1 0 1.000000 
dock01a
0 -12.128025 108.377411 -256.244843 -0.195090 0.980596 -0.019256 0.718242 -1.000418 1 0 1.000000 
0 -18.598795 112.745209 150.747864 -0.732865 0.680225 -0.014246 0.732584 -0.000047 1 0 1.000000 
0 -12.128007 116.368324 150.676712 -0.214996 0.976382 -0.021320 0.719285 -0.000047 1 0 1.000000 
dock01a
0 -12.128025 108.377411 -256.244843 -0.195090 0.980596 -0.019256 0.718242 -1.000418 1 0 1.000000 
0 -18.598810 104.754295 -256.173676 -0.734323 0.678670 -0.013327 0.733628 -1.000418 1 0 1.000000 
0 -18.598795 112.745209 150.747864 -0.732865 0.680225 -0.014246 0.732584 -0.000047 1 0 1.000000 
dock01a
0 -12.128007 116.368324 150.676712 -0.214996 0.976382 -0.021320 0.816435 -1.000614 1 0 1.000000 
0 -18.355011 114.321045 242.908020 -0.731431 0.681747 -0.015147 0.830832 -0.793660 1 0 1.000000 
0 -12.413160 118.680466 242.784149 -0.234947 0.971727 -0.023390 0.816705 -0.793660 1 0 1.000000 
dock01a
0 -12.128007 116.368324 150.676712 -0.214996 0.976382 -0.021320 0.816435 -1.000614 1 0 1.000000 
0 -18.598795 112.745209 150.747864 -0.732865 0.680225 -0.014246 0.831102 -1.000614 1 0 1.000000 
0 -18.355011 114.321045 242.908020 -0.731431 0.681747 -0.015147 0.830832 -0.793660 1 0 1.000000 
dock01a
0 -18.598795 112.745209 150.747864 -0.732865 0.680225 -0.014246 0.831102 -1.000614 1 0 1.000000 
0 -22.145298 108.500099 243.718765 -0.992119 0.125268 -0.002772 0.845006 -0.793581 1 0 1.000000 
0 -18.355011 114.321045 242.908020 -0.731431 0.681747 -0.015147 0.830832 -0.793660 1 0 1.000000 
dock01a
0 -18.598795 112.745209 150.747864 -0.732865 0.680225 -0.014246 0.831102 -1.000614 1 0 1.000000 
0 -21.703745 106.011353 150.880096 -0.992607 0.121349 -0.002537 0.845714 -1.000536 1 0 1.000000 
0 -22.145298 108.500099 243.718765 -0.992119 0.125268 -0.002772 0.845006 -0.793581 1 0 1.000000 
dock01a
0 -21.703745 106.011353 150.880096 -0.992607 0.121349 -0.002537 0.845714 -1.000536 1 0 1.000000 
0 -19.937305 101.518021 245.260895 -0.870216 -0.492486 0.013452 0.859311 -0.793454 1 0 1.000000 
0 -22.145298 108.500099 243.718765 -0.992119 0.125268 -0.002772 0.845006 -0.793581 1 0 1.000000 
dock01a
0 -21.703745 106.011353 150.880096 -0.992607 0.121349 -0.002537 0.845714 -1.000536 1 0 1.000000 
0 -20.256874 98.738846 151.022919 -0.871352 -0.490523 0.011537 0.860185 -1.000409 1 0 1.000000 
0 -19.937305 101.518021 245.260895 -0.870216 -0.492486 0.013452 0.859311 -0.793454 1 0 1.000000 
dock01a
0 -20.256874 98.738846 151.022919 -0.871352 -0.490523 0.011537 0.860185 -1.000409 1 0 1.000000 
0 -14.852669 95.897507 245.020752 -0.459990 -0.887689 0.020409 0.873782 -0.793327 1 0 1.000000 
0 -19.937305 101.518021 245.260895 -0.870216 -0.492486 0.013452 0.859311 -0.793454 1 0 1.000000 
dock01a
0 -20.256874 98.738846 151.022919 -0.871352 -0.490523 0.011537 0.860185 -1.000409 1 0 1.000000 
0 -14.810839 93.705551 151.121765 -0.439446 -0.898065 0.019125 0.874489 -1.000282 1 0 1.000000 
0 -14.852669 95.897507 245.020752 -0.459990 -0.887689 0.020409 0.873782 -0.793327 1 0 1.000000 
dock01a
0 -14.810839 93.705551 151.121765 -0.439446 -0.898065 0.019125 0.874489 -1.000282 1 0 1.000000 
0 -7.337229 94.274254 244.258072 0.191975 -0.981221 0.018705 0.888394 -0.793249 1 0 1.000000 
0 -14.852669 95.897507 245.020752 -0.459990 -0.887689 0.020409 0.873782 -0.793327 1 0 1.000000 
dock01a
0 -14.810839 93.705551 151.121765 -0.439446 -0.898065 0.019125 0.874489 -1.000282 1 0 1.000000 
0 -7.445838 92.834015 151.138870 0.193545 -0.980908 0.018983 0.888664 -1.000203 1 0 1.000000 
0 -7.337229 94.274254 244.258072 0.191975 -0.981221 0.018705 0.888394 -0.793249 1 0 1.000000 
dock01a
0 -7.445838 92.834015 151.138870 0.193545 -0.980908 0.018983 0.888664 -1.000203 1 0 1.000000 
0 -1.504840 98.224426 244.532364 0.755347 -0.655133 0.015884 0.903061 -0.793249 1 0 1.000000 
0 -7.337229 94.274254 244.258072 0.191975 -0.981221 0.018705 0.888394 -0.793249 1 0 1.000000 
dock01a
0 -7.445838 92.834015 151.138870 0.193545 -0.980908 0.018983 0.888664 -1.000203 1 0 1.000000 
0 -0.975051 96.457130 151.067719 0.744944 -0.666967 0.014609 0.902790 -1.000203 1 0 1.000000 
0 -1.504840 98.224426 244.532364 0.755347 -0.655133 0.015884 0.903061 -0.793249 1 0 1.000000 
dock01a
0 -0.975051 96.457130 151.067719 0.744944 -0.666967 0.014609 0.902790 -1.000203 1 0 1.000000 
0 1.521014 105.558014 243.293793 0.989085 -0.147222 0.005965 0.917673 -0.793327 1 0 1.000000 
0 -1.504840 98.224426 244.532364 0.755347 -0.655133 0.015884 0.903061 -0.793249 1 0 1.000000 
dock01a
0 -0.975051 96.457130 151.067719 0.744944 -0.666967 0.014609 0.902790 -1.000203 1 0 1.000000 
0 2.129900 103.190994 150.935486 0.991174 -0.132498 0.004151 0.916965 -1.000282 1 0 1.000000 
0 1.521014 105.558014 243.293793 0.989085 -0.147222 0.005965 0.917673 -0.793327 1 0 1.000000 
dock01a
0 2.129900 103.190994 150.935486 0.991174 -0.132498 0.004151 0.916965 -1.000282 1 0 1.000000 
0 1.346590 112.418251 243.110687 0.891094 0.453650 -0.012354 0.932144 -0.793454 1 0 1.000000 
0 1.521014 105.558014 243.293793 0.989085 -0.147222 0.005965 0.917673 -0.793327 1 0 1.000000 
dock01a
0 2.129900 103.190994 150.935486 0.991174 -0.132498 0.004151 0.916965 -1.000282 1 0 1.000000 
0 0.683030 110.463493 150.792679 0.881899 0.471311 -0.010966 0.931269 -1.000409 1 0 1.000000 
0 1.346590 112.418251 243.110687 0.891094 0.453650 -0.012354 0.932144 -0.793454 1 0 1.000000 
dock01a
0 0.683030 110.463493 150.792679 0.881899 0.471311 -0.010966 0.931269 -1.000409 1 0 1.000000 
0 -4.877897 118.142014 244.472839 0.407857 0.912716 -0.024525 0.946448 -0.793581 1 0 1.000000 
0 1.346590 112.418251 243.110687 0.891094 0.453650 -0.012354 0.932144 -0.793454 1 0 1.000000 
dock01a
0 0.683030 110.463493 150.792679 0.881899 0.471311 -0.010966 0.931269 -1.000409 1 0 1.000000 
0 -4.763006 115.496788 150.693832 0.413275 0.910360 -0.021173 0.945740 -1.000536 1 0 1.000000 
0 -4.877897 118.142014 244.472839 0.407857 0.912716 -0.024525 0.946448 -0.793581 1 0 1.000000 
dock01a
0 -4.763006 115.496788 150.693832 0.413275 0.910360 -0.021173 0.945740 -1.000536 1 0 1.000000 
0 -12.413160 118.680466 242.784149 -0.234947 0.971727 -0.023390 0.960623 -0.793660 1 0 1.000000 
0 -4.877897 118.142014 244.472839 0.407857 0.912716 -0.024525 0.946448 -0.793581 1 0 1.000000 
dock01a
0 -4.763006 115.496788 150.693832 0.413275 0.910360 -0.021173 0.945740 -1.000536 1 0 1.000000 
0 -12.128007 116.368324 150.676712 -0.214996 0.976382 -0.021320 0.960352 -1.000614 1 0 1.000000 
0 -12.413160 118.680466 242.784149 -0.234947 0.971727 -0.023390 0.960623 -0.793660 1 0 1.000000 
dock01a
0 -21.199621 158.564270 -256.063965 -0.951056 -0.309017 0.000000 0.590935 -1.000418 1 0 1.000000 
0 -16.840347 152.564270 150.936035 -0.590907 -0.806739 0.000000 0.603345 0.000028 1 0 1.000000 
0 -21.199604 158.564270 150.936035 -0.951722 -0.306961 -0.000038 0.589891 -0.000047 1 0 1.000000 
dock01a
0 -21.199621 158.564270 -256.063965 -0.951056 -0.309017 0.000000 0.590935 -1.000418 1 0 1.000000 
0 -16.840364 152.564270 -256.063965 -0.587785 -0.809017 0.000000 0.606065 -1.000343 1 0 1.000000 
0 -16.840347 152.564270 150.936035 -0.590907 -0.806739 0.000000 0.603345 0.000028 1 0 1.000000 
dock01a
0 -16.840364 152.564270 -256.063965 -0.587785 -0.809017 0.000000 0.606065 -1.000343 1 0 1.000000 
0 -9.786924 150.272476 150.936035 0.002338 -0.999996 0.001163 0.617238 0.000149 1 0 1.000000 
0 -16.840347 152.564270 150.936035 -0.590907 -0.806739 0.000000 0.603345 0.000028 1 0 1.000000 
dock01a
0 -16.840364 152.564270 -256.063965 -0.587785 -0.809017 0.000000 0.606065 -1.000343 1 0 1.000000 
0 -9.786942 150.272476 -256.063965 0.000000 -1.000000 0.000000 0.620592 -1.000222 1 0 1.000000 
0 -9.786924 150.272476 150.936035 0.002338 -0.999996 0.001163 0.617238 0.000149 1 0 1.000000 
dock01a
0 -9.786942 150.272476 -256.063965 0.000000 -1.000000 0.000000 0.620592 -1.000222 1 0 1.000000 
0 -2.733501 152.564270 150.936035 0.568979 -0.822352 0.000370 0.631765 0.000270 1 0 1.000000 
0 -9.786924 150.272476 150.936035 0.002338 -0.999996 0.001163 0.617238 0.000149 1 0 1.000000 
dock01a
0 -9.786942 150.272476 -256.063965 0.000000 -1.000000 0.000000 0.620592 -1.000222 1 0 1.000000 
0 -2.733519 152.564270 -256.063965 0.587785 -0.809017 0.000000 0.634486 -1.000101 1 0 1.000000 
0 -2.733501 152.564270 150.936035 0.568979 -0.822352 0.000370 0.631765 0.000270 1 0 1.000000 
dock01a
0 -2.733519 152.564270 -256.063965 0.587785 -0.809017 0.000000 0.634486 -1.000101 1 0 1.000000 
0 1.625754 158.564270 150.936035 0.950562 -0.310531 -0.001300 0.646895 0.000345 1 0 1.000000 
0 -2.733501 152.564270 150.936035 0.568979 -0.822352 0.000370 0.631765 0.000270 1 0 1.000000 
dock01a
0 -2.733519 152.564270 -256.063965 0.587785 -0.809017 0.000000 0.634486 -1.000101 1 0 1.000000 
0 1.625736 158.564270 -256.063965 0.951056 -0.309017 0.000000 0.647939 -1.000026 1 0 1.000000 
0 1.625754 158.564270 150.936035 0.950562 -0.310531 -0.001300 0.646895 0.000345 1 0 1.000000 
dock01a
0 1.625736 158.564270 -256.063965 0.951056 -0.309017 0.000000 0.647939 -1.000026 1 0 1.000000 
0 1.625754 165.980682 150.936035 0.946066 0.323973 0.000634 0.662281 0.000345 1 0 1.000000 
0 1.625754 158.564270 150.936035 0.950562 -0.310531 -0.001300 0.646895 0.000345 1 0 1.000000 
dock01a
0 1.625736 158.564270 -256.063965 0.951056 -0.309017 0.000000 0.647939 -1.000026 1 0 1.000000 
0 1.625736 165.980682 -256.063965 0.951056 0.309017 0.000000 0.661238 -1.000026 1 0 1.000000 
0 1.625754 165.980682 150.936035 0.946066 0.323973 0.000634 0.662281 0.000345 1 0 1.000000 
dock01a
0 1.625736 165.980682 -256.063965 0.951056 0.309017 0.000000 0.661238 -1.000026 1 0 1.000000 
0 -2.733502 171.980682 150.936035 0.599985 0.800010 0.001217 0.677412 0.000270 1 0 1.000000 
0 1.625754 165.980682 150.936035 0.946066 0.323973 0.000634 0.662281 0.000345 1 0 1.000000 
dock01a
0 1.625736 165.980682 -256.063965 0.951056 0.309017 0.000000 0.661238 -1.000026 1 0 1.000000 
0 -2.733520 171.980682 -256.063965 0.587785 0.809017 0.000000 0.674691 -1.000101 1 0 1.000000 
0 -2.733502 171.980682 150.936035 0.599985 0.800010 0.001217 0.677412 0.000270 1 0 1.000000 
dock01a
0 -2.733520 171.980682 -256.063965 0.587785 0.809017 0.000000 0.674691 -1.000101 1 0 1.000000 
0 -9.786925 174.272476 150.936035 0.019640 0.999806 -0.001033 0.691939 0.000149 1 0 1.000000 
0 -2.733502 171.980682 150.936035 0.599985 0.800010 0.001217 0.677412 0.000270 1 0 1.000000 
dock01a
0 -2.733520 171.980682 -256.063965 0.587785 0.809017 0.000000 0.674691 -1.000101 1 0 1.000000 
0 -9.786943 174.272476 -256.063965 -0.000000 1.000000 0.000000 0.688584 -1.000222 1 0 1.000000 
0 -9.786925 174.272476 150.936035 0.019640 0.999806 -0.001033 0.691939 0.000149 1 0 1.000000 
dock01a
0 -9.786943 174.272476 -256.063965 -0.000000 1.000000 0.000000 0.688584 -1.000222 1 0 1.000000 
0 -16.840349 171.980682 150.936035 -0.592586 0.805505 -0.001944 0.705832 0.000028 1 0 1.000000 
0 -9.786925 174.272476 150.936035 0.019640 0.999806 -0.001033 0.691939 0.000149 1 0 1.000000 
dock01a
0 -9.786943 174.272476 -256.063965 -0.000000 1.000000 0.000000 0.688584 -1.000222 1 0 1.000000 
0 -16.840366 171.980682 -256.063965 -0.587785 0.809017 0.000000 0.703111 -1.000343 1 0 1.000000 
0 -16.840349 171.980682 150.936035 -0.592586 0.805505 -0.001944 0.705832 0.000028 1 0 1.000000 
dock01a
0 -16.840366 171.980682 -256.063965 -0.587785 0.809017 0.000000 0.703111 -1.000343 1 0 1.000000 
0 -21.199604 165.980682 150.936035 -0.957167 0.289535 -0.000855 0.719285 -0.000047 1 0 1.000000 
0 -16.840349 171.980682 150.936035 -0.592586 0.805505 -0.001944 0.705832 0.000028 1 0 1.000000 
dock01a
0 -16.840366 171.980682 -256.063965 -0.587785 0.809017 0.000000 0.703111 -1.000343 1 0 1.000000 
0 -21.199621 165.980682 -256.063965 -0.951056 0.309017 0.000000 0.718242 -1.000418 1 0 1.000000 
0 -21.199604 165.980682 150.936035 -0.957167 0.289535 -0.000855 0.719285 -0.000047 1 0 1.000000 
dock01a
0 -21.199621 165.980682 -256.063965 -0.951056 0.309017 0.000000 0.718242 -1.000418 1 0 1.000000 
0 -21.199604 158.564270 150.936035 -0.951722 -0.306961 -0.000038 0.732584 -0.000047 1 0 1.000000 
0 -21.199604 165.980682 150.936035 -0.957167 0.289535 -0.000855 0.719285 -0.000047 1 0 1.000000 
dock01a
0 -21.199621 165.980682 -256.063965 -0.951056 0.309017 0.000000 0.718242 -1.000418 1 0 1.000000 
0 -21.199621 158.564270 -256.063965 -0.951056 -0.309017 0.000000 0.733628 -1.000418 1 0 1.000000 
0 -21.199604 158.564270 150.936035 -0.951722 -0.306961 -0.000038 0.732584 -0.000047 1 0 1.000000 
dock01a
0 -21.199604 165.980682 150.936035 -0.957167 0.289535 -0.000855 0.816435 -1.000614 1 0 1.000000 
0 -20.678608 158.551910 254.653046 -0.952371 -0.304943 -0.000075 0.830832 -0.793660 1 0 1.000000 
0 -21.580259 165.867035 254.614807 -0.962915 0.269799 -0.001715 0.816705 -0.793660 1 0 1.000000 
dock01a
0 -21.199604 165.980682 150.936035 -0.957167 0.289535 -0.000855 0.816435 -1.000614 1 0 1.000000 
0 -21.199604 158.564270 150.936035 -0.951722 -0.306961 -0.000038 0.831102 -1.000614 1 0 1.000000 
0 -20.678608 158.551910 254.653046 -0.952371 -0.304943 -0.000075 0.830832 -0.793660 1 0 1.000000 
dock01a
0 -21.199604 158.564270 150.936035 -0.951722 -0.306961 -0.000038 0.831102 -1.000614 1 0 1.000000 
0 -17.438963 152.393433 255.349350 -0.594091 -0.804398 0.000000 0.845006 -0.793581 1 0 1.000000 
0 -20.678608 158.551910 254.653046 -0.952371 -0.304943 -0.000075 0.830832 -0.793660 1 0 1.000000 
dock01a
0 -21.199604 158.564270 150.936035 -0.951722 -0.306961 -0.000038 0.831102 -1.000614 1 0 1.000000 
0 -16.840347 152.564270 150.936035 -0.590907 -0.806739 0.000000 0.845714 -1.000536 1 0 1.000000 
0 -17.438963 152.393433 255.349350 -0.594091 -0.804398 0.000000 0.845006 -0.793581 1 0 1.000000 
dock01a
0 -16.840347 152.564270 150.936035 -0.590907 -0.806739 0.000000 0.845714 -1.000536 1 0 1.000000 
0 -10.243011 150.894165 256.754089 0.004643 -0.999986 0.002308 0.859311 -0.793454 1 0 1.000000 
0 -17.438963 152.393433 255.349350 -0.594091 -0.804398 0.000000 0.845006 -0.793581 1 0 1.000000 
dock01a
0 -16.840347 152.564270 150.936035 -0.590907 -0.806739 0.000000 0.845714 -1.000536 1 0 1.000000 
0 -9.786924 150.272476 150.936035 0.002338 -0.999996 0.001163 0.860185 -1.000409 1 0 1.000000 
0 -10.243011 150.894165 256.754089 0.004643 -0.999986 0.002308 0.859311 -0.793454 1 0 1.000000 
dock01a
0 -9.786924 150.272476 150.936035 0.002338 -0.999996 0.001163 0.860185 -1.000409 1 0 1.000000 
0 -2.859731 152.587021 256.403656 0.549878 -0.835245 0.000740 0.873782 -0.793327 1 0 1.000000 
0 -10.243011 150.894165 256.754089 0.004643 -0.999986 0.002308 0.859311 -0.793454 1 0 1.000000 
dock01a
0 -9.786924 150.272476 150.936035 0.002338 -0.999996 0.001163 0.860185 -1.000409 1 0 1.000000 
0 -2.733501 152.564270 150.936035 0.568979 -0.822352 0.000370 0.874489 -1.000282 1 0 1.000000 
0 -2.859731 152.587021 256.403656 0.549878 -0.835245 0.000740 0.873782 -0.793327 1 0 1.000000 
dock01a
0 -2.733501 152.564270 150.936035 0.568979 -0.822352 0.000370 0.874489 -1.000282 1 0 1.000000 
0 2.215413 158.358521 255.609253 0.950057 -0.312066 -0.002621 0.888394 -0.793249 1 0 1.000000 
0 -2.859731 152.587021 256.403656 0.549878 -0.835245 0.000740 0.873782 -0.793327 1 0 1.000000 
dock01a
0 -2.733501 152.564270 150.936035 0.568979 -0.822352 0.000370 0.874489 -1.000282 1 0 1.000000 
0 1.625754 158.564270 150.936035 0.950562 -0.310531 -0.001300 0.888664 -1.000203 1 0 1.000000 
0 2.215413 158.358521 255.609253 0.950057 -0.312066 -0.002621 0.888394 -0.793249 1 0 1.000000 
dock01a
0 1.625754 158.564270 150.936035 0.950562 -0.310531 -0.001300 0.888664 -1.000203 1 0 1.000000 
0 1.624093 165.374405 255.961044 0.940856 0.338804 0.001266 0.903061 -0.793249 1 0 1.000000 
0 2.215413 158.358521 255.609253 0.950057 -0.312066 -0.002621 0.888394 -0.793249 1 0 1.000000 
dock01a
0 1.625754 158.564270 150.936035 0.950562 -0.310531 -0.001300 0.888664 -1.000203 1 0 1.000000 
0 1.625754 165.980682 150.936035 0.946066 0.323973 0.000634 0.902790 -1.000203 1 0 1.000000 
0 1.624093 165.374405 255.961044 0.940856 0.338804 0.001266 0.903061 -0.793249 1 0 1.000000 
dock01a
0 1.625754 165.980682 150.936035 0.946066 0.323973 0.000634 0.902790 -1.000203 1 0 1.000000 
0 -3.315915 171.608978 254.866699 0.611863 0.790960 0.002415 0.917673 -0.793327 1 0 1.000000 
0 1.624093 165.374405 255.961044 0.940856 0.338804 0.001266 0.903061 -0.793249 1 0 1.000000 
dock01a
0 1.625754 165.980682 150.936035 0.946066 0.323973 0.000634 0.902790 -1.000203 1 0 1.000000 
0 -2.733502 171.980682 150.936035 0.599985 0.800010 0.001217 0.916965 -1.000282 1 0 1.000000 
0 -3.315915 171.608978 254.866699 0.611863 0.790960 0.002415 0.917673 -0.793327 1 0 1.000000 
dock01a
0 -2.733502 171.980682 150.936035 0.599985 0.800010 0.001217 0.916965 -1.000282 1 0 1.000000 
0 -9.388655 174.809967 254.818314 0.039566 0.999215 -0.002081 0.932144 -0.793454 1 0 1.000000 
0 -3.315915 171.608978 254.866699 0.611863 0.790960 0.002415 0.917673 -0.793327 1 0 1.000000 
dock01a
0 -2.733502 171.980682 150.936035 0.599985 0.800010 0.001217 0.916965 -1.000282 1 0 1.000000 
0 -9.786925 174.272476 150.936035 0.019640 0.999806 -0.001033 0.931269 -1.000409 1 0 1.000000 
0 -9.388655 174.809967 254.818314 0.039566 0.999215 -0.002081 0.932144 -0.793454 1 0 1.000000 
dock01a
0 -9.786925 174.272476 150.936035 0.019640 0.999806 -0.001033 0.931269 -1.000409 1 0 1.000000 
0 -17.399738 172.162277 256.292603 -0.597377 0.801951 -0.003893 0.946448 -0.793581 1 0 1.000000 
0 -9.388655 174.809967 254.818314 0.039566 0.999215 -0.002081 0.932144 -0.793454 1 0 1.000000 
dock01a
0 -9.786925 174.272476 150.936035 0.019640 0.999806 -0.001033 0.931269 -1.000409 1 0 1.000000 
0 -16.840349 171.980682 150.936035 -0.592586 0.805505 -0.001944 0.945740 -1.000536 1 0 1.000000 
0 -17.399738 172.162277 256.292603 -0.597377 0.801951 -0.003893 0.946448 -0.793581 1 0 1.000000 
dock01a
0 -16.840349 171.980682 150.936035 -0.592586 0.805505 -0.001944 0.945740 -1.000536 1 0 1.000000 
0 -21.580259 165.867035 254.614807 -0.962915 0.269799 -0.001715 0.960623 -0.793660 1 0 1.000000 
0 -17.399738 172.162277 256.292603 -0.597377 0.801951 -0.003893 0.946448 -0.793581 1 0 1.000000 
dock01a
0 -16.840349 171.980682 150.936035 -0.592586 0.805505 -0.001944 0.945740 -1.000536 1 0 1.000000 
0 -21.199604 165.980682 150.936035 -0.957167 0.289535 -0.000855 0.960352 -1.000614 1 0 1.000000 
0 -21.580259 165.867035 254.614807 -0.962915 0.269799 -0.001715 0.960623 -0.793660 1 0 1.000000 
dock01a
0 1.934263 -178.876373 -255.977341 0.976766 0.214144 -0.008414 0.590935 -1.000418 1 0 1.000000 
0 -1.815881 -156.504166 150.457672 0.667076 0.744372 -0.030341 0.603345 0.000028 1 0 1.000000 
0 1.934280 -162.897629 150.708878 0.977223 0.212037 -0.008690 0.589891 -0.000047 1 0 1.000000 
dock01a
0 1.934263 -178.876373 -255.977341 0.976766 0.214144 -0.008414 0.590935 -1.000418 1 0 1.000000 
0 -1.815899 -172.482910 -256.228546 0.664252 0.746932 -0.029347 0.606065 -1.000343 1 0 1.000000 
0 -1.815881 -156.504166 150.457672 0.667076 0.744372 -0.030341 0.603345 0.000028 1 0 1.000000 
dock01a
0 -1.815899 -172.482910 -256.228546 0.664252 0.746932 -0.029347 0.606065 -1.000343 1 0 1.000000 
0 -8.610705 -153.534348 150.340988 0.095640 0.994639 -0.039314 0.617238 0.000149 1 0 1.000000 
0 -1.815881 -156.504166 150.457672 0.667076 0.744372 -0.030341 0.603345 0.000028 1 0 1.000000 
dock01a
0 -1.815899 -172.482910 -256.228546 0.664252 0.746932 -0.029347 0.606065 -1.000343 1 0 1.000000 
0 -8.610723 -169.513092 -256.345215 0.098017 0.994417 -0.039071 0.620592 -1.000222 1 0 1.000000 
0 -8.610705 -153.534348 150.340988 0.095640 0.994639 -0.039314 0.617238 0.000149 1 0 1.000000 
dock01a
0 -8.610723 -169.513092 -256.345215 0.098017 0.994417 -0.039071 0.620592 -1.000222 1 0 1.000000 
0 -15.854799 -155.122528 150.403381 -0.485594 0.873474 -0.035232 0.631765 0.000270 1 0 1.000000 
0 -8.610705 -153.534348 150.340988 0.095640 0.994639 -0.039314 0.617238 0.000149 1 0 1.000000 
dock01a
0 -8.610723 -169.513092 -256.345215 0.098017 0.994417 -0.039071 0.620592 -1.000222 1 0 1.000000 
0 -15.854816 -171.101273 -256.282837 -0.505657 0.862069 -0.033871 0.634486 -1.000101 1 0 1.000000 
0 -15.854799 -155.122528 150.403381 -0.485594 0.873474 -0.035232 0.631765 0.000270 1 0 1.000000 
dock01a
0 -15.854816 -171.101273 -256.282837 -0.505657 0.862069 -0.033871 0.634486 -1.000101 1 0 1.000000 
0 -20.781166 -160.662079 150.621033 -0.915536 0.401842 -0.017783 0.646895 0.000345 1 0 1.000000 
0 -15.854799 -155.122528 150.403381 -0.485594 0.873474 -0.035232 0.631765 0.000270 1 0 1.000000 
dock01a
0 -15.854816 -171.101273 -256.282837 -0.505657 0.862069 -0.033871 0.634486 -1.000101 1 0 1.000000 
0 -20.781183 -176.640823 -256.065186 -0.916188 0.400440 -0.015733 0.647939 -1.000026 1 0 1.000000 
0 -20.781166 -160.662079 150.621033 -0.915536 0.401842 -0.017783 0.646895 0.000345 1 0 1.000000 
dock01a
0 -20.781183 -176.640823 -256.065186 -0.916188 0.400440 -0.015733 0.647939 -1.000026 1 0 1.000000 
0 -21.508102 -168.037079 150.910797 -0.973257 -0.229499 0.010067 0.662281 0.000345 1 0 1.000000 
0 -20.781166 -160.662079 150.621033 -0.915536 0.401842 -0.017783 0.646895 0.000345 1 0 1.000000 
dock01a
0 -20.781183 -176.640823 -256.065186 -0.916188 0.400440 -0.015733 0.647939 -1.000026 1 0 1.000000 
0 -21.508120 -184.015823 -255.775421 -0.976766 -0.214144 0.008414 0.661238 -1.000026 1 0 1.000000 
0 -21.508102 -168.037079 150.910797 -0.973257 -0.229499 0.010067 0.662281 0.000345 1 0 1.000000 
dock01a
0 -21.508120 -184.015823 -255.775421 -0.976766 -0.214144 0.008414 0.661238 -1.000026 1 0 1.000000 
0 -17.757940 -174.430542 151.162003 -0.675481 -0.736710 0.031356 0.677412 0.000270 1 0 1.000000 
0 -21.508102 -168.037079 150.910797 -0.973257 -0.229499 0.010067 0.662281 0.000345 1 0 1.000000 
dock01a
0 -21.508120 -184.015823 -255.775421 -0.976766 -0.214144 0.008414 0.661238 -1.000026 1 0 1.000000 
0 -17.757957 -190.409286 -255.524216 -0.664252 -0.746932 0.029347 0.674691 -1.000101 1 0 1.000000 
0 -17.757940 -174.430542 151.162003 -0.675481 -0.736710 0.031356 0.677412 0.000270 1 0 1.000000 
dock01a
0 -17.757957 -190.409286 -255.524216 -0.664252 -0.746932 0.029347 0.674691 -1.000101 1 0 1.000000 
0 -10.963116 -177.400360 151.278687 -0.117602 -0.992281 0.039348 0.691939 0.000149 1 0 1.000000 
0 -17.757940 -174.430542 151.162003 -0.675481 -0.736710 0.031356 0.677412 0.000270 1 0 1.000000 
dock01a
0 -17.757957 -190.409286 -255.524216 -0.664252 -0.746932 0.029347 0.674691 -1.000101 1 0 1.000000 
0 -10.963133 -193.379105 -255.407532 -0.098017 -0.994417 0.039071 0.688584 -1.000222 1 0 1.000000 
0 -10.963116 -177.400360 151.278687 -0.117602 -0.992281 0.039348 0.691939 0.000149 1 0 1.000000 
dock01a
0 -10.963133 -193.379105 -255.407532 -0.098017 -0.994417 0.039071 0.688584 -1.000222 1 0 1.000000 
0 -3.719021 -175.812180 151.216293 0.510766 -0.859088 0.032938 0.705832 0.000028 1 0 1.000000 
0 -10.963116 -177.400360 151.278687 -0.117602 -0.992281 0.039348 0.691939 0.000149 1 0 1.000000 
dock01a
0 -10.963133 -193.379105 -255.407532 -0.098017 -0.994417 0.039071 0.688584 -1.000222 1 0 1.000000 
0 -3.719039 -191.790939 -255.469925 0.505657 -0.862069 0.033871 0.703111 -1.000343 1 0 1.000000 
0 -3.719021 -175.812180 151.216293 0.510766 -0.859088 0.032938 0.705832 0.000028 1 0 1.000000 
dock01a
0 -3.719039 -191.790939 -255.469925 0.505657 -0.862069 0.033871 0.703111 -1.000343 1 0 1.000000 
0 1.207344 -170.272629 150.998642 0.924196 -0.381638 0.014615 0.719285 -0.000047 1 0 1.000000 
0 -3.719021 -175.812180 151.216293 0.510766 -0.859088 0.032938 0.705832 0.000028 1 0 1.000000 
dock01a
0 -3.719039 -191.790939 -255.469925 0.505657 -0.862069 0.033871 0.703111 -1.000343 1 0 1.000000 
0 1.207328 -186.251373 -255.687576 0.916188 -0.400440 0.015733 0.718242 -1.000418 1 0 1.000000 
0 1.207344 -170.272629 150.998642 0.924196 -0.381638 0.014615 0.719285 -0.000047 1 0 1.000000 
dock01a
0 1.207328 -186.251373 -255.687576 0.916188 -0.400440 0.015733 0.718242 -1.000418 1 0 1.000000 
0 1.934280 -162.897629 150.708878 0.977223 0.212037 -0.008690 0.732584 -0.000047 1 0 1.000000 
0 1.207344 -170.272629 150.998642 0.924196 -0.381638 0.014615 0.719285 -0.000047 1 0 1.000000 
dock01a
0 1.207328 -186.251373 -255.687576 0.916188 -0.400440 0.015733 0.718242 -1.000418 1 0 1.000000 
0 1.934263 -178.876373 -255.977341 0.976766 0.214144 -0.008414 0.733628 -1.000418 1 0 1.000000 
0 1.934280 -162.897629 150.708878 0.977223 0.212037 -0.008690 0.732584 -0.000047 1 0 1.000000 
dock01a
0 1.207344 -170.272629 150.998642 0.924196 -0.381638 0.014615 0.816435 -1.000614 1 0 1.000000 
0 1.417014 -158.762390 246.954025 0.977667 0.209968 -0.008961 0.830832 -0.793660 1 0 1.000000 
0 1.597316 -166.126495 247.205078 0.931867 -0.362548 0.013483 0.816705 -0.793660 1 0 1.000000 
dock01a
0 1.207344 -170.272629 150.998642 0.924196 -0.381638 0.014615 0.816435 -1.000614 1 0 1.000000 
0 1.934280 -162.897629 150.708878 0.977223 0.212037 -0.008690 0.831102 -1.000614 1 0 1.000000 
0 1.417014 -158.762390 246.954025 0.977667 0.209968 -0.008961 0.830832 -0.793660 1 0 1.000000 
dock01a
0 1.934280 -162.897629 150.708878 0.977223 0.212037 -0.008690 0.831102 -1.000614 1 0 1.000000 
0 -1.203393 -152.293671 247.396698 0.669952 0.741742 -0.031356 0.845006 -0.793581 1 0 1.000000 
0 1.417014 -158.762390 246.954025 0.977667 0.209968 -0.008961 0.830832 -0.793660 1 0 1.000000 
dock01a
0 1.934280 -162.897629 150.708878 0.977223 0.212037 -0.008690 0.831102 -1.000614 1 0 1.000000 
0 -1.815881 -156.504166 150.457672 0.667076 0.744372 -0.030341 0.845714 -1.000536 1 0 1.000000 
0 -1.203393 -152.293671 247.396698 0.669952 0.741742 -0.031356 0.845006 -0.793581 1 0 1.000000 
dock01a
0 -1.815881 -156.504166 150.457672 0.667076 0.744372 -0.030341 0.845714 -1.000536 1 0 1.000000 
0 -8.217743 -150.042831 248.714096 0.093296 0.994852 -0.039553 0.859311 -0.793454 1 0 1.000000 
0 -1.203393 -152.293671 247.396698 0.669952 0.741742 -0.031356 0.845006 -0.793581 1 0 1.000000 
dock01a
0 -1.815881 -156.504166 150.457672 0.667076 0.744372 -0.030341 0.845714 -1.000536 1 0 1.000000 
0 -8.610705 -153.534348 150.340988 0.095640 0.994639 -0.039314 0.860185 -1.000409 1 0 1.000000 
0 -8.217743 -150.042831 248.714096 0.093296 0.994852 -0.039553 0.859311 -0.793454 1 0 1.000000 
dock01a
0 -8.610705 -153.534348 150.340988 0.095640 0.994639 -0.039314 0.860185 -1.000409 1 0 1.000000 
0 -15.731400 -151.016876 248.401657 -0.465280 0.884408 -0.036575 0.873782 -0.793327 1 0 1.000000 
0 -8.217743 -150.042831 248.714096 0.093296 0.994852 -0.039553 0.859311 -0.793454 1 0 1.000000 
dock01a
0 -8.610705 -153.534348 150.340988 0.095640 0.994639 -0.039314 0.860185 -1.000409 1 0 1.000000 
0 -15.854799 -155.122528 150.403381 -0.485594 0.873474 -0.035232 0.874489 -1.000282 1 0 1.000000 
0 -15.731400 -151.016876 248.401657 -0.465280 0.884408 -0.036575 0.873782 -0.793327 1 0 1.000000 
dock01a
0 -15.854799 -155.122528 150.403381 -0.485594 0.873474 -0.035232 0.874489 -1.000282 1 0 1.000000 
0 -21.347811 -156.290283 247.813828 -0.914868 0.403264 -0.019865 0.888394 -0.793249 1 0 1.000000 
0 -15.731400 -151.016876 248.401657 -0.465280 0.884408 -0.036575 0.873782 -0.793327 1 0 1.000000 
dock01a
0 -15.854799 -155.122528 150.403381 -0.485594 0.873474 -0.035232 0.874489 -1.000282 1 0 1.000000 
0 -20.781166 -160.662079 150.621033 -0.915536 0.401842 -0.017783 0.888664 -1.000203 1 0 1.000000 
0 -21.347811 -156.290283 247.813828 -0.914868 0.403264 -0.019865 0.888394 -0.793249 1 0 1.000000 
dock01a
0 -20.781166 -160.662079 150.621033 -0.915536 0.401842 -0.017783 0.888664 -1.000203 1 0 1.000000 
0 -21.447014 -163.311081 248.441742 -0.969515 -0.244751 0.011713 0.903061 -0.793249 1 0 1.000000 
0 -21.347811 -156.290283 247.813828 -0.914868 0.403264 -0.019865 0.888394 -0.793249 1 0 1.000000 
dock01a
0 -20.781166 -160.662079 150.621033 -0.915536 0.401842 -0.017783 0.888664 -1.000203 1 0 1.000000 
0 -21.508102 -168.037079 150.910797 -0.973257 -0.229499 0.010067 0.902790 -1.000203 1 0 1.000000 
0 -21.447014 -163.311081 248.441742 -0.969515 -0.244751 0.011713 0.903061 -0.793249 1 0 1.000000 
dock01a
0 -21.508102 -168.037079 150.910797 -0.973257 -0.229499 0.010067 0.902790 -1.000203 1 0 1.000000 
0 -17.141890 -170.037659 247.610840 -0.686384 -0.726476 0.033326 0.917673 -0.793327 1 0 1.000000 
0 -21.447014 -163.311081 248.441742 -0.969515 -0.244751 0.011713 0.903061 -0.793249 1 0 1.000000 
dock01a
0 -21.508102 -168.037079 150.910797 -0.973257 -0.229499 0.010067 0.902790 -1.000203 1 0 1.000000 
0 -17.757940 -174.430542 151.162003 -0.675481 -0.736710 0.031356 0.916965 -1.000282 1 0 1.000000 
0 -17.141890 -170.037659 247.610840 -0.686384 -0.726476 0.033326 0.917673 -0.793327 1 0 1.000000 
dock01a
0 -17.757940 -174.430542 151.162003 -0.675481 -0.736710 0.031356 0.916965 -1.000282 1 0 1.000000 
0 -11.412143 -173.817444 247.710938 -0.137432 -0.989719 0.039614 0.932144 -0.793454 1 0 1.000000 
0 -17.141890 -170.037659 247.610840 -0.686384 -0.726476 0.033326 0.917673 -0.793327 1 0 1.000000 
dock01a
0 -17.757940 -174.430542 151.162003 -0.675481 -0.736710 0.031356 0.916965 -1.000282 1 0 1.000000 
0 -10.963116 -177.400360 151.278687 -0.117602 -0.992281 0.039348 0.931269 -1.000409 1 0 1.000000 
0 -11.412143 -173.817444 247.710938 -0.137432 -0.989719 0.039614 0.932144 -0.793454 1 0 1.000000 
dock01a
0 -10.963116 -177.400360 151.278687 -0.117602 -0.992281 0.039348 0.931269 -1.000409 1 0 1.000000 
0 -3.180116 -171.911270 249.111450 0.515872 -0.856068 0.032001 0.946448 -0.793581 1 0 1.000000 
0 -11.412143 -173.817444 247.710938 -0.137432 -0.989719 0.039614 0.932144 -0.793454 1 0 1.000000 
dock01a
0 -10.963116 -177.400360 151.278687 -0.117602 -0.992281 0.039348 0.931269 -1.000409 1 0 1.000000 
0 -3.719021 -175.812180 151.216293 0.510766 -0.859088 0.032938 0.945740 -1.000536 1 0 1.000000 
0 -3.180116 -171.911270 249.111450 0.515872 -0.856068 0.032001 0.946448 -0.793581 1 0 1.000000 
dock01a
0 -3.719021 -175.812180 151.216293 0.510766 -0.859088 0.032938 0.945740 -1.000536 1 0 1.000000 
0 1.597316 -166.126495 247.205078 0.931867 -0.362548 0.013483 0.960623 -0.793660 1 0 1.000000 
0 -3.180116 -171.911270 249.111450 0.515872 -0.856068 0.032001 0.946448 -0.793581 1 0 1.000000 
dock01a
0 -3.719021 -175.812180 151.216293 0.510766 -0.859088 0.032938 0.945740 -1.000536 1 0 1.000000 
0 1.207344 -170.272629 150.998642 0.924196 -0.381638 0.014615 0.960352 -1.000614 1 0 1.000000 
0 1.597316 -166.126495 247.205078 0.931867 -0.362548 0.013483 0.960623 -0.793660 1 0 1.000000 
dock01a
0 2.740414 -91.303520 150.824097 0.784442 0.620187 -0.004250 0.816435 -1.000614 1 0 1.000000 
0 -1.616340 -89.524483 247.211182 0.294005 0.955702 0.013919 0.830832 -0.793660 1 0 1.000000 
0 4.899872 -92.961029 246.977493 0.771535 0.636170 -0.004711 0.816705 -0.793660 1 0 1.000000 
dock01a
0 2.740414 -91.303520 150.824097 0.784442 0.620187 -0.004250 0.816435 -1.000614 1 0 1.000000 
0 -3.344479 -87.068413 151.026749 0.291953 0.956337 0.013512 0.831102 -1.000614 1 0 1.000000 
0 -1.616340 -89.524483 247.211182 0.294005 0.955702 0.013919 0.830832 -0.793660 1 0 1.000000 
dock01a
0 -3.344479 -87.068413 151.026749 0.291953 0.956337 0.013512 0.831102 -1.000614 1 0 1.000000 
0 -8.506487 -88.680107 248.059647 -0.320369 0.946914 0.026800 0.845006 -0.793581 1 0 1.000000 
0 -1.616340 -89.524483 247.211182 0.294005 0.955702 0.013919 0.830832 -0.793660 1 0 1.000000 
dock01a
0 -3.344479 -87.068413 151.026749 0.291953 0.956337 0.013512 0.831102 -1.000614 1 0 1.000000 
0 -10.757973 -87.219711 151.169357 -0.324195 0.945636 0.025881 0.845714 -1.000536 1 0 1.000000 
0 -8.506487 -88.680107 248.059647 -0.320369 0.946914 0.026800 0.845006 -0.793581 1 0 1.000000 
dock01a
0 -10.757973 -87.219711 151.169357 -0.324195 0.945636 0.025881 0.845714 -1.000536 1 0 1.000000 
0 -13.820495 -93.757126 249.469604 -0.822964 0.567198 0.031872 0.859311 -0.793454 1 0 1.000000 
0 -8.506487 -88.680107 248.059647 -0.320369 0.946914 0.026800 0.845006 -0.793581 1 0 1.000000 
dock01a
0 -10.757973 -87.219711 151.169357 -0.324195 0.945636 0.025881 0.845714 -1.000536 1 0 1.000000 
0 -16.668364 -91.699623 151.197464 -0.821727 0.569111 0.029615 0.860185 -1.000409 1 0 1.000000 
0 -13.820495 -93.757126 249.469604 -0.822964 0.567198 0.031872 0.859311 -0.793454 1 0 1.000000 
dock01a
0 -16.668364 -91.699623 151.197464 -0.821727 0.569111 0.029615 0.860185 -1.000409 1 0 1.000000 
0 -16.656969 -100.776283 249.036911 -0.999420 0.025591 0.022465 0.873782 -0.793327 1 0 1.000000 
0 -13.820495 -93.757126 249.469604 -0.822964 0.567198 0.031872 0.859311 -0.793454 1 0 1.000000 
dock01a
0 -16.668364 -91.699623 151.197464 -0.821727 0.569111 0.029615 0.860185 -1.000409 1 0 1.000000 
0 -18.818083 -98.796974 151.100327 -0.999779 0.002601 0.020853 0.874489 -1.000282 1 0 1.000000 
0 -16.656969 -100.776283 249.036911 -0.999420 0.025591 0.022465 0.873782 -0.793327 1 0 1.000000 
dock01a
0 -18.818083 -98.796974 151.100327 -0.999779 0.002601 0.020853 0.874489 -1.000282 1 0 1.000000 
0 -14.836993 -108.221573 248.060287 -0.798897 -0.601466 0.001354 0.888394 -0.793249 1 0 1.000000 
0 -16.656969 -100.776283 249.036911 -0.999420 0.025591 0.022465 0.873782 -0.793327 1 0 1.000000 
dock01a
0 -18.818083 -98.796974 151.100327 -0.999779 0.002601 0.020853 0.874489 -1.000282 1 0 1.000000 
0 -16.386011 -105.800819 150.915070 -0.797909 -0.602772 0.002581 0.888664 -1.000203 1 0 1.000000 
0 -14.836993 -108.221573 248.060287 -0.798897 -0.601466 0.001354 0.888394 -0.793249 1 0 1.000000 
dock01a
0 -16.386011 -105.800819 150.915070 -0.797909 -0.602772 0.002581 0.888664 -1.000203 1 0 1.000000 
0 -8.735962 -111.749573 248.223129 -0.259619 -0.965616 -0.013566 0.903061 -0.793249 1 0 1.000000 
0 -14.836993 -108.221573 248.060287 -0.798897 -0.601466 0.001354 0.888394 -0.793249 1 0 1.000000 
dock01a
0 -16.386011 -105.800819 150.915070 -0.797909 -0.602772 0.002581 0.888664 -1.000203 1 0 1.000000 
0 -10.301114 -110.035919 150.712418 -0.274750 -0.961423 -0.013333 0.902790 -1.000203 1 0 1.000000 
0 -8.735962 -111.749573 248.223129 -0.259619 -0.965616 -0.013566 0.903061 -0.793249 1 0 1.000000 
dock01a
0 -10.301114 -110.035919 150.712418 -0.274750 -0.961423 -0.013333 0.902790 -1.000203 1 0 1.000000 
0 -0.819664 -111.234138 246.983032 0.299329 -0.953850 -0.023911 0.917673 -0.793327 1 0 1.000000 
0 -8.735962 -111.749573 248.223129 -0.259619 -0.965616 -0.013566 0.903061 -0.793249 1 0 1.000000 
dock01a
0 -10.301114 -110.035919 150.712418 -0.274750 -0.961423 -0.013333 0.902790 -1.000203 1 0 1.000000 
0 -2.887622 -109.884621 150.569809 0.313555 -0.949255 -0.024445 0.916965 -1.000282 1 0 1.000000 
0 -0.819664 -111.234138 246.983032 0.299329 -0.953850 -0.023911 0.917673 -0.793327 1 0 1.000000 
dock01a
0 -2.887622 -109.884621 150.569809 0.313555 -0.949255 -0.024445 0.916965 -1.000282 1 0 1.000000 
0 5.275406 -108.077301 246.876923 0.797179 -0.602902 -0.031863 0.932144 -0.793454 1 0 1.000000 
0 -0.819664 -111.234138 246.983032 0.299329 -0.953850 -0.023911 0.917673 -0.793327 1 0 1.000000 
dock01a
0 -2.887622 -109.884621 150.569809 0.313555 -0.949255 -0.024445 0.916965 -1.000282 1 0 1.000000 
0 3.022768 -105.404709 150.541702 0.809067 -0.586971 -0.029582 0.931269 -1.000409 1 0 1.000000 
0 5.275406 -108.077301 246.876923 0.797179 -0.602902 -0.031863 0.932144 -0.793454 1 0 1.000000 
dock01a
0 3.022768 -105.404709 150.541702 0.809067 -0.586971 -0.029582 0.931269 -1.000409 1 0 1.000000 
0 7.709234 -100.019714 248.462173 0.999169 0.032452 -0.024644 0.946448 -0.793581 1 0 1.000000 
0 5.275406 -108.077301 246.876923 0.797179 -0.602902 -0.031863 0.932144 -0.793454 1 0 1.000000 
dock01a
0 3.022768 -105.404709 150.541702 0.809067 -0.586971 -0.029582 0.931269 -1.000409 1 0 1.000000 
0 5.172486 -98.307358 150.638840 0.999410 0.026418 -0.021933 0.945740 -1.000536 1 0 1.000000 
0 7.709234 -100.019714 248.462173 0.999169 0.032452 -0.024644 0.946448 -0.793581 1 0 1.000000 
dock01a
0 5.172486 -98.307358 150.638840 0.999410 0.026418 -0.021933 0.945740 -1.000536 1 0 1.000000 
0 4.899872 -92.961029 246.977493 0.771535 0.636170 -0.004711 0.960623 -0.793660 1 0 1.000000 
0 7.709234 -100.019714 248.462173 0.999169 0.032452 -0.024644 0.946448 -0.793581 1 0 1.000000 
dock01a
0 5.172486 -98.307358 150.638840 0.999410 0.026418 -0.021933 0.945740 -1.000536 1 0 1.000000 
0 2.740414 -91.303520 150.824097 0.784442 0.620187 -0.004250 0.960352 -1.000614 1 0 1.000000 
0 4.899872 -92.961029 246.977493 0.771535 0.636170 -0.004711 0.960623 -0.793660 1 0 1.000000 
dock01a
0 -11.333871 -79.080582 -255.816422 0.289860 0.956979 0.013097 0.590935 -1.000418 1 0 1.000000 
0 -10.757973 -87.219711 151.169357 -0.324195 0.945636 0.025881 0.603345 0.000028 1 0 1.000000 
0 -3.344479 -87.068413 151.026749 0.291953 0.956337 0.013512 0.589891 -0.000047 1 0 1.000000 
dock01a
0 -11.333871 -79.080582 -255.816422 0.289860 0.956979 0.013097 0.590935 -1.000418 1 0 1.000000 
0 -18.747364 -79.231880 -255.673813 -0.327931 0.944371 0.024981 0.606065 -1.000343 1 0 1.000000 
0 -10.757973 -87.219711 151.169357 -0.324195 0.945636 0.025881 0.603345 0.000028 1 0 1.000000 
dock01a
0 -18.747364 -79.231880 -255.673813 -0.327931 0.944371 0.024981 0.606065 -1.000343 1 0 1.000000 
0 -16.668364 -91.699623 151.197464 -0.821727 0.569111 0.029615 0.617238 0.000149 1 0 1.000000 
0 -10.757973 -87.219711 151.169357 -0.324195 0.945636 0.025881 0.603345 0.000028 1 0 1.000000 
dock01a
0 -18.747364 -79.231880 -255.673813 -0.327931 0.944371 0.024981 0.606065 -1.000343 1 0 1.000000 
0 -24.657753 -83.711792 -255.645706 -0.820464 0.571045 0.027324 0.620592 -1.000222 1 0 1.000000 
0 -16.668364 -91.699623 151.197464 -0.821727 0.569111 0.029615 0.617238 0.000149 1 0 1.000000 
dock01a
0 -24.657753 -83.711792 -255.645706 -0.820464 0.571045 0.027324 0.620592 -1.000222 1 0 1.000000 
0 -18.818083 -98.796974 151.100327 -0.999779 0.002601 0.020853 0.631765 0.000270 1 0 1.000000 
0 -16.668364 -91.699623 151.197464 -0.821727 0.569111 0.029615 0.617238 0.000149 1 0 1.000000 
dock01a
0 -24.657753 -83.711792 -255.645706 -0.820464 0.571045 0.027324 0.620592 -1.000222 1 0 1.000000 
0 -26.807472 -90.809143 -255.742828 -0.999607 -0.020401 0.019229 0.634486 -1.000101 1 0 1.000000 
0 -18.818083 -98.796974 151.100327 -0.999779 0.002601 0.020853 0.631765 0.000270 1 0 1.000000 
dock01a
0 -26.807472 -90.809143 -255.742828 -0.999607 -0.020401 0.019229 0.634486 -1.000101 1 0 1.000000 
0 -16.386011 -105.800819 150.915070 -0.797909 -0.602772 0.002581 0.646895 0.000345 1 0 1.000000 
0 -18.818083 -98.796974 151.100327 -0.999779 0.002601 0.020853 0.631765 0.000270 1 0 1.000000 
dock01a
0 -26.807472 -90.809143 -255.742828 -0.999607 -0.020401 0.019229 0.634486 -1.000101 1 0 1.000000 
0 -24.375401 -97.812981 -255.928101 -0.796934 -0.604054 0.003790 0.647939 -1.000026 1 0 1.000000 
0 -16.386011 -105.800819 150.915070 -0.797909 -0.602772 0.002581 0.646895 0.000345 1 0 1.000000 
dock01a
0 -24.375401 -97.812981 -255.928101 -0.796934 -0.604054 0.003790 0.647939 -1.000026 1 0 1.000000 
0 -10.301114 -110.035919 150.712418 -0.274750 -0.961423 -0.013333 0.662281 0.000345 1 0 1.000000 
0 -16.386011 -105.800819 150.915070 -0.797909 -0.602772 0.002581 0.646895 0.000345 1 0 1.000000 
dock01a
0 -24.375401 -97.812981 -255.928101 -0.796934 -0.604054 0.003790 0.647939 -1.000026 1 0 1.000000 
0 -18.290506 -102.048088 -256.130737 -0.289860 -0.956979 -0.013097 0.661238 -1.000026 1 0 1.000000 
0 -10.301114 -110.035919 150.712418 -0.274750 -0.961423 -0.013333 0.662281 0.000345 1 0 1.000000 
dock01a
0 -18.290506 -102.048088 -256.130737 -0.289860 -0.956979 -0.013097 0.661238 -1.000026 1 0 1.000000 
0 -2.887622 -109.884621 150.569809 0.313555 -0.949255 -0.024445 0.677412 0.000270 1 0 1.000000 
0 -10.301114 -110.035919 150.712418 -0.274750 -0.961423 -0.013333 0.662281 0.000345 1 0 1.000000 
dock01a
0 -18.290506 -102.048088 -256.130737 -0.289860 -0.956979 -0.013097 0.661238 -1.000026 1 0 1.000000 
0 -10.877013 -101.896790 -256.273376 0.327931 -0.944371 -0.024981 0.674691 -1.000101 1 0 1.000000 
0 -2.887622 -109.884621 150.569809 0.313555 -0.949255 -0.024445 0.677412 0.000270 1 0 1.000000 
dock01a
0 -10.877013 -101.896790 -256.273376 0.327931 -0.944371 -0.024981 0.674691 -1.000101 1 0 1.000000 
0 3.022768 -105.404709 150.541702 0.809067 -0.586971 -0.029582 0.691939 0.000149 1 0 1.000000 
0 -2.887622 -109.884621 150.569809 0.313555 -0.949255 -0.024445 0.677412 0.000270 1 0 1.000000 
dock01a
0 -10.877013 -101.896790 -256.273376 0.327931 -0.944371 -0.024981 0.674691 -1.000101 1 0 1.000000 
0 -4.966623 -97.416878 -256.301483 0.820464 -0.571045 -0.027324 0.688584 -1.000222 1 0 1.000000 
0 3.022768 -105.404709 150.541702 0.809067 -0.586971 -0.029582 0.691939 0.000149 1 0 1.000000 
dock01a
0 -4.966623 -97.416878 -256.301483 0.820464 -0.571045 -0.027324 0.688584 -1.000222 1 0 1.000000 
0 5.172486 -98.307358 150.638840 0.999410 0.026418 -0.021933 0.705832 0.000028 1 0 1.000000 
0 3.022768 -105.404709 150.541702 0.809067 -0.586971 -0.029582 0.691939 0.000149 1 0 1.000000 
dock01a
0 -4.966623 -97.416878 -256.301483 0.820464 -0.571045 -0.027324 0.688584 -1.000222 1 0 1.000000 
0 -2.816905 -90.319527 -256.204346 0.999607 0.020401 -0.019229 0.703111 -1.000343 1 0 1.000000 
0 5.172486 -98.307358 150.638840 0.999410 0.026418 -0.021933 0.705832 0.000028 1 0 1.000000 
dock01a
0 -2.816905 -90.319527 -256.204346 0.999607 0.020401 -0.019229 0.703111 -1.000343 1 0 1.000000 
0 2.740414 -91.303520 150.824097 0.784442 0.620187 -0.004250 0.719285 -0.000047 1 0 1.000000 
0 5.172486 -98.307358 150.638840 0.999410 0.026418 -0.021933 0.705832 0.000028 1 0 1.000000 
dock01a
0 -2.816905 -90.319527 -256.204346 0.999607 0.020401 -0.019229 0.703111 -1.000343 1 0 1.000000 
0 -5.248977 -83.315681 -256.019073 0.796934 0.604054 -0.003790 0.718242 -1.000418 1 0 1.000000 
0 2.740414 -91.303520 150.824097 0.784442 0.620187 -0.004250 0.719285 -0.000047 1 0 1.000000 
dock01a
0 -5.248977 -83.315681 -256.019073 0.796934 0.604054 -0.003790 0.718242 -1.000418 1 0 1.000000 
0 -3.344479 -87.068413 151.026749 0.291953 0.956337 0.013512 0.732584 -0.000047 1 0 1.000000 
0 2.740414 -91.303520 150.824097 0.784442 0.620187 -0.004250 0.719285 -0.000047 1 0 1.000000 
dock01a
0 -5.248977 -83.315681 -256.019073 0.796934 0.604054 -0.003790 0.718242 -1.000418 1 0 1.000000 
0 -11.333871 -79.080582 -255.816422 0.289860 0.956979 0.013097 0.733628 -1.000418 1 0 1.000000 
0 -3.344479 -87.068413 151.026749 0.291953 0.956337 0.013512 0.732584 -0.000047 1 0 1.000000 
dock01a
0 -16.656969 -100.776283 249.036911 0.067814 -0.016475 0.997562 0.888362 -0.362550 1 0 1.000000 
0 -8.506487 -88.680107 248.059647 0.067814 -0.016475 0.997562 0.888362 -0.332978 1 0 1.000000 
0 -13.820495 -93.757126 249.469604 0.067814 -0.016475 0.997562 0.883558 -0.347764 1 0 1.000000 
dock01a
0 -16.656969 -100.776283 249.036911 0.067814 -0.016475 0.997562 0.888362 -0.362550 1 0 1.000000 
0 -1.616340 -89.524483 247.211182 0.067814 -0.016475 0.997562 0.900940 -0.323840 1 0 1.000000 
0 -8.506487 -88.680107 248.059647 0.067814 -0.016475 0.997562 0.888362 -0.332978 1 0 1.000000 
dock01a
0 -16.656969 -100.776283 249.036911 0.067814 -0.016475 0.997562 0.888362 -0.362550 1 0 1.000000 
0 4.899872 -92.961029 246.977493 0.067814 -0.016475 0.997562 0.916487 -0.323840 1 0 1.000000 
0 -1.616340 -89.524483 247.211182 0.067814 -0.016475 0.997562 0.900940 -0.323840 1 0 1.000000 
dock01a
0 -16.656969 -100.776283 249.036911 0.067814 -0.016475 0.997562 0.888362 -0.362550 1 0 1.000000 
0 7.709234 -100.019714 248.462173 0.067814 -0.016475 0.997562 0.929064 -0.332978 1 0 1.000000 
0 4.899872 -92.961029 246.977493 0.067814 -0.016475 0.997562 0.916487 -0.323840 1 0 1.000000 
dock01a
0 -16.656969 -100.776283 249.036911 0.067814 -0.016475 0.997562 0.888362 -0.362550 1 0 1.000000 
0 5.275406 -108.077301 246.876923 0.067814 -0.016475 0.997562 0.933869 -0.347764 1 0 1.000000 
0 7.709234 -100.019714 248.462173 0.067814 -0.016475 0.997562 0.929064 -0.332978 1 0 1.000000 
dock01a
0 -16.656969 -100.776283 249.036911 0.067814 -0.016475 0.997562 0.888362 -0.362550 1 0 1.000000 
0 -0.819664 -111.234138 246.983032 0.067814 -0.016475 0.997562 0.929064 -0.362550 1 0 1.000000 
0 5.275406 -108.077301 246.876923 0.067814 -0.016475 0.997562 0.933869 -0.347764 1 0 1.000000 
dock01a
0 -16.656969 -100.776283 249.036911 0.067814 -0.016475 0.997562 0.888362 -0.362550 1 0 1.000000 
0 -8.735962 -111.749573 248.223129 0.067814 -0.016475 0.997562 0.916487 -0.371689 1 0 1.000000 
0 -0.819664 -111.234138 246.983032 0.067814 -0.016475 0.997562 0.929064 -0.362550 1 0 1.000000 
dock01a
0 -16.656969 -100.776283 249.036911 0.067814 -0.016475 0.997562 0.888362 -0.362550 1 0 1.000000 
0 -14.836993 -108.221573 248.060287 0.067814 -0.016475 0.997562 0.900940 -0.371689 1 0 1.000000 
0 -8.735962 -111.749573 248.223129 0.067814 -0.016475 0.997562 0.916487 -0.371689 1 0 1.000000 
dock01a
0 -2.859731 152.587021 256.403656 -0.030106 0.037790 0.998832 0.803422 -0.196005 1 0 1.000000 
0 -17.438963 152.393433 255.349350 -0.030106 0.037790 0.998832 0.803422 -0.166433 1 0 1.000000 
0 -10.243011 150.894165 256.754089 -0.030106 0.037790 0.998832 0.798618 -0.181219 1 0 1.000000 
dock01a
0 -2.859731 152.587021 256.403656 -0.030106 0.037790 0.998832 0.803422 -0.196005 1 0 1.000000 
0 -20.678608 158.551910 254.653046 -0.030106 0.037790 0.998832 0.816000 -0.157294 1 0 1.000000 
0 -17.438963 152.393433 255.349350 -0.030106 0.037790 0.998832 0.803422 -0.166433 1 0 1.000000 
dock01a
0 -2.859731 152.587021 256.403656 -0.030106 0.037790 0.998832 0.803422 -0.196005 1 0 1.000000 
0 -21.580259 165.867035 254.614807 -0.030106 0.037790 0.998832 0.831547 -0.157294 1 0 1.000000 
0 -20.678608 158.551910 254.653046 -0.030106 0.037790 0.998832 0.816000 -0.157294 1 0 1.000000 
dock01a
0 -2.859731 152.587021 256.403656 -0.030106 0.037790 0.998832 0.803422 -0.196005 1 0 1.000000 
0 -17.399738 172.162277 256.292603 -0.030106 0.037790 0.998832 0.844125 -0.166433 1 0 1.000000 
0 -21.580259 165.867035 254.614807 -0.030106 0.037790 0.998832 0.831547 -0.157294 1 0 1.000000 
dock01a
0 -2.859731 152.587021 256.403656 -0.030106 0.037790 0.998832 0.803422 -0.196005 1 0 1.000000 
0 -9.388655 174.809967 254.818314 -0.030106 0.037790 0.998832 0.848929 -0.181219 1 0 1.000000 
0 -17.399738 172.162277 256.292603 -0.030106 0.037790 0.998832 0.844125 -0.166433 1 0 1.000000 
dock01a
0 -2.859731 152.587021 256.403656 -0.030106 0.037790 0.998832 0.803422 -0.196005 1 0 1.000000 
0 -3.315915 171.608978 254.866699 -0.030106 0.037790 0.998832 0.844125 -0.196005 1 0 1.000000 
0 -9.388655 174.809967 254.818314 -0.030106 0.037790 0.998832 0.848929 -0.181219 1 0 1.000000 
dock01a
0 -2.859731 152.587021 256.403656 -0.030106 0.037790 0.998832 0.803422 -0.196005 1 0 1.000000 
0 1.624093 165.374405 255.961044 -0.030106 0.037790 0.998832 0.831547 -0.205143 1 0 1.000000 
0 -3.315915 171.608978 254.866699 -0.030106 0.037790 0.998832 0.844125 -0.196005 1 0 1.000000 
dock01a
0 -2.859731 152.587021 256.403656 -0.030106 0.037790 0.998832 0.803422 -0.196005 1 0 1.000000 
0 2.215413 158.358521 255.609253 -0.030106 0.037790 0.998832 0.816000 -0.205143 1 0 1.000000 
0 1.624093 165.374405 255.961044 -0.030106 0.037790 0.998832 0.831547 -0.205143 1 0 1.000000 
dock01a
0 -15.731400 -151.016876 248.401657 0.026257 -0.001314 0.999654 0.877745 -0.337746 1 0 1.000000 
0 -1.203393 -152.293671 247.396698 0.026257 -0.001314 0.999654 0.877745 -0.308174 1 0 1.000000 
0 -8.217743 -150.042831 248.714096 0.026257 -0.001314 0.999654 0.872941 -0.322960 1 0 1.000000 
dock01a
0 -15.731400 -151.016876 248.401657 0.026257 -0.001314 0.999654 0.877745 -0.337746 1 0 1.000000 
0 1.417014 -158.762390 246.954025 0.026257 -0.001314 0.999654 0.890322 -0.299036 1 0 1.000000 
0 -1.203393 -152.293671 247.396698 0.026257 -0.001314 0.999654 0.877745 -0.308174 1 0 1.000000 
dock01a
0 -15.731400 -151.016876 248.401657 0.026257 -0.001314 0.999654 0.877745 -0.337746 1 0 1.000000 
0 1.597316 -166.126495 247.205078 0.026257 -0.001314 0.999654 0.905869 -0.299036 1 0 1.000000 
0 1.417014 -158.762390 246.954025 0.026257 -0.001314 0.999654 0.890322 -0.299036 1 0 1.000000 
dock01a
0 -15.731400 -151.016876 248.401657 0.026257 -0.001314 0.999654 0.877745 -0.337746 1 0 1.000000 
0 -3.180116 -171.911270 249.111450 0.026257 -0.001314 0.999654 0.918447 -0.308174 1 0 1.000000 
0 1.597316 -166.126495 247.205078 0.026257 -0.001314 0.999654 0.905869 -0.299036 1 0 1.000000 
dock01a
0 -15.731400 -151.016876 248.401657 0.026257 -0.001314 0.999654 0.877745 -0.337746 1 0 1.000000 
0 -11.412143 -173.817444 247.710938 0.026257 -0.001314 0.999654 0.923251 -0.322960 1 0 1.000000 
0 -3.180116 -171.911270 249.111450 0.026257 -0.001314 0.999654 0.918447 -0.308174 1 0 1.000000 
dock01a
0 -15.731400 -151.016876 248.401657 0.026257 -0.001314 0.999654 0.877745 -0.337746 1 0 1.000000 
0 -17.141890 -170.037659 247.610840 0.026257 -0.001314 0.999654 0.918447 -0.337746 1 0 1.000000 
0 -11.412143 -173.817444 247.710938 0.026257 -0.001314 0.999654 0.923251 -0.322960 1 0 1.000000 
dock01a
0 -15.731400 -151.016876 248.401657 0.026257 -0.001314 0.999654 0.877745 -0.337746 1 0 1.000000 
0 -21.447014 -163.311081 248.441742 0.026257 -0.001314 0.999654 0.905869 -0.346884 1 0 1.000000 
0 -17.141890 -170.037659 247.610840 0.026257 -0.001314 0.999654 0.918447 -0.337746 1 0 1.000000 
dock01a
0 -15.731400 -151.016876 248.401657 0.026257 -0.001314 0.999654 0.877745 -0.337746 1 0 1.000000 
0 -21.347811 -156.290283 247.813828 0.026257 -0.001314 0.999654 0.890322 -0.346884 1 0 1.000000 
0 -21.447014 -163.311081 248.441742 0.026257 -0.001314 0.999654 0.905869 -0.346884 1 0 1.000000 
end
