version 1
nodes
  0 "static_prop" -1
end
skeleton
time 0
0 0.000000 0.000000 0.000000 0.000000 0.000000 0.000000
end
triangles
handrail01_exterior_system
0 -0.000003 65.287903 9.004800 -0.014700 -0.113701 0.993406 0.750000 -0.895000 1 0 1.000000 
0 -0.723403 65.287903 8.587100 -0.865243 -0.077504 0.495325 0.916700 -0.895000 1 0 1.000000 
0 -0.607902 43.965801 8.587100 -0.773989 -0.003000 0.633191 0.916700 -0.567500 1 0 1.000000 
handrail01_exterior_system
0 -0.607902 43.965801 8.587100 -0.773989 -0.003000 0.633191 0.916700 -0.567500 1 0 1.000000 
0 -0.000002 43.965801 9.004800 0.195000 -0.001200 0.980802 0.750000 -0.567500 1 0 1.000000 
0 -0.000003 65.287903 9.004800 -0.014700 -0.113701 0.993406 0.750000 -0.895000 1 0 1.000000 
handrail01_exterior_system
0 0.723397 65.287903 8.587100 0.872814 -0.038801 0.486508 0.583300 -0.895000 1 0 1.000000 
0 -0.000003 65.287903 9.004800 -0.014700 -0.113701 0.993406 0.750000 -0.895000 1 0 1.000000 
0 -0.000002 43.965801 9.004800 0.195000 -0.001200 0.980802 0.750000 -0.567500 1 0 1.000000 
handrail01_exterior_system
0 -0.000002 43.965801 9.004800 0.195000 -0.001200 0.980802 0.750000 -0.567500 1 0 1.000000 
0 0.607898 43.965801 8.587100 0.952083 -0.005200 0.305795 0.583300 -0.567500 1 0 1.000000 
0 0.723397 65.287903 8.587100 0.872814 -0.038801 0.486508 0.583300 -0.895000 1 0 1.000000 
handrail01_exterior_system
0 0.723397 65.287903 7.751800 0.865595 0.072300 -0.495497 0.416700 -0.895000 1 0 1.000000 
0 0.723397 65.287903 8.587100 0.872814 -0.038801 0.486508 0.583300 -0.895000 1 0 1.000000 
0 0.607898 43.965801 8.587100 0.952083 -0.005200 0.305795 0.583300 -0.567500 1 0 1.000000 
handrail01_exterior_system
0 0.607898 43.965801 8.587100 0.952083 -0.005200 0.305795 0.583300 -0.567500 1 0 1.000000 
0 0.607898 43.965801 7.751800 0.773989 -0.003000 -0.633191 0.416700 -0.567500 1 0 1.000000 
0 0.723397 65.287903 7.751800 0.865595 0.072300 -0.495497 0.416700 -0.895000 1 0 1.000000 
handrail01_exterior_system
0 -0.000003 65.287903 7.334100 0.014700 0.112702 -0.993520 0.250000 -0.895000 1 0 1.000000 
0 0.723397 65.287903 7.751800 0.865595 0.072300 -0.495497 0.416700 -0.895000 1 0 1.000000 
0 0.607898 43.965801 7.751800 0.773989 -0.003000 -0.633191 0.416700 -0.567500 1 0 1.000000 
handrail01_exterior_system
0 0.607898 43.965801 7.751800 0.773989 -0.003000 -0.633191 0.416700 -0.567500 1 0 1.000000 
0 -0.000002 43.965801 7.334100 -0.195000 -0.001200 -0.980802 0.250000 -0.567500 1 0 1.000000 
0 -0.000003 65.287903 7.334100 0.014700 0.112702 -0.993520 0.250000 -0.895000 1 0 1.000000 
handrail01_exterior_system
0 -0.723403 65.287903 7.751800 -0.872945 0.035502 -0.486525 0.083300 -0.895000 1 0 1.000000 
0 -0.000003 65.287903 7.334100 0.014700 0.112702 -0.993520 0.250000 -0.895000 1 0 1.000000 
0 -0.000002 43.965801 7.334100 -0.195000 -0.001200 -0.980802 0.250000 -0.567500 1 0 1.000000 
handrail01_exterior_system
0 -0.000002 43.965801 7.334100 -0.195000 -0.001200 -0.980802 0.250000 -0.567500 1 0 1.000000 
0 -0.607902 43.965801 7.751800 -0.952083 -0.005200 -0.305795 0.083300 -0.567500 1 0 1.000000 
0 -0.723403 65.287903 7.751800 -0.872945 0.035502 -0.486525 0.083300 -0.895000 1 0 1.000000 
handrail01_exterior_system
0 -0.723403 65.287903 8.587100 -0.865243 -0.077504 0.495325 -0.083300 -0.895000 1 0 1.000000 
0 -0.723403 65.287903 7.751800 -0.872945 0.035502 -0.486525 0.083300 -0.895000 1 0 1.000000 
0 -0.607902 43.965801 7.751800 -0.952083 -0.005200 -0.305795 0.083300 -0.567500 1 0 1.000000 
handrail01_exterior_system
0 -0.607902 43.965801 7.751800 -0.952083 -0.005200 -0.305795 0.083300 -0.567500 1 0 1.000000 
0 -0.607902 43.965801 8.587100 -0.773989 -0.003000 0.633191 -0.083300 -0.567500 1 0 1.000000 
0 -0.723403 65.287903 8.587100 -0.865243 -0.077504 0.495325 -0.083300 -0.895000 1 0 1.000000 
handrail01_exterior_system
0 0.000003 -72.018997 10.804400 0.000000 -0.781814 -0.623511 0.330400 -0.866400 1 0 1.000000 
0 0.723403 -71.692497 11.064800 0.868167 -0.363386 -0.337987 0.350800 -0.858200 1 0 1.000000 
0 0.723403 -73.391602 14.593000 0.868160 -0.474078 -0.146793 0.244600 -0.748000 1 0 1.000000 
handrail01_exterior_system
0 0.723403 -71.692497 11.064800 0.868167 -0.363386 -0.337987 0.350800 -0.858200 1 0 1.000000 
0 0.723403 -72.577202 14.778900 0.868181 0.490789 0.073398 0.295500 -0.742200 1 0 1.000000 
0 0.723403 -73.391602 14.593000 0.868160 -0.474078 -0.146793 0.244600 -0.748000 1 0 1.000000 
handrail01_exterior_system
0 0.723403 -71.692497 11.064800 0.868167 -0.363386 -0.337987 0.350800 -0.858200 1 0 1.000000 
0 0.723403 -71.039398 11.585600 0.868158 0.410380 0.279087 0.391700 -0.841900 1 0 1.000000 
0 0.723403 -72.577202 14.778900 0.868181 0.490789 0.073398 0.295500 -0.742200 1 0 1.000000 
handrail01_exterior_system
0 0.723403 -71.039398 11.585600 0.868158 0.410380 0.279087 0.391700 -0.841900 1 0 1.000000 
0 0.000003 -72.169998 14.871800 -0.000000 0.974931 0.222507 0.321000 -0.739200 1 0 1.000000 
0 0.723403 -72.577202 14.778900 0.868181 0.490789 0.073398 0.295500 -0.742200 1 0 1.000000 
handrail01_exterior_system
0 0.723403 -71.039398 11.585600 0.868158 0.410380 0.279087 0.391700 -0.841900 1 0 1.000000 
0 0.000003 -70.712898 11.846000 -0.000000 0.781814 0.623511 0.412100 -0.833800 1 0 1.000000 
0 0.000003 -72.169998 14.871800 -0.000000 0.974931 0.222507 0.321000 -0.739200 1 0 1.000000 
handrail01_exterior_system
0 0.000003 -70.712898 11.846000 -0.000000 0.781814 0.623511 0.412100 -0.833800 1 0 1.000000 
0 -0.723397 -72.577202 14.778900 -0.868160 0.474078 0.146793 0.295500 -0.742200 1 0 1.000000 
0 0.000003 -72.169998 14.871800 -0.000000 0.974931 0.222507 0.321000 -0.739200 1 0 1.000000 
handrail01_exterior_system
0 -0.723397 -71.692497 11.064800 -0.868158 -0.410380 -0.279087 0.350800 -0.858200 1 0 1.000000 
0 0.000003 -72.018997 10.804400 0.000000 -0.781814 -0.623511 0.330400 -0.866400 1 0 1.000000 
0 0.000003 -73.798798 14.500100 0.000000 -0.974931 -0.222507 0.219200 -0.750900 1 0 1.000000 
handrail01_exterior_system
0 0.000003 -72.018997 10.804400 0.000000 -0.781814 -0.623511 0.330400 -0.866400 1 0 1.000000 
0 0.723403 -73.391602 14.593000 0.868160 -0.474078 -0.146793 0.244600 -0.748000 1 0 1.000000 
0 0.000003 -73.798798 14.500100 0.000000 -0.974931 -0.222507 0.219200 -0.750900 1 0 1.000000 
handrail01_exterior_system
0 0.000003 -73.798798 14.500100 0.000000 -0.974931 -0.222507 0.219200 -0.750900 1 0 1.000000 
0 0.723403 -73.391602 14.593000 0.868160 -0.474078 -0.146793 0.244600 -0.748000 1 0 1.000000 
0 0.723403 -73.391602 18.509001 0.868181 -0.490789 0.073398 0.244600 -0.625600 1 0 1.000000 
handrail01_exterior_system
0 0.723403 -73.391602 14.593000 0.868160 -0.474078 -0.146793 0.244600 -0.748000 1 0 1.000000 
0 0.723403 -72.577202 18.323200 0.868160 0.474078 -0.146793 0.295500 -0.631400 1 0 1.000000 
0 0.723403 -73.391602 18.509001 0.868181 -0.490789 0.073398 0.244600 -0.625600 1 0 1.000000 
handrail01_exterior_system
0 0.723403 -73.391602 14.593000 0.868160 -0.474078 -0.146793 0.244600 -0.748000 1 0 1.000000 
0 0.723403 -72.577202 14.778900 0.868181 0.490789 0.073398 0.295500 -0.742200 1 0 1.000000 
0 0.723403 -72.577202 18.323200 0.868160 0.474078 -0.146793 0.295500 -0.631400 1 0 1.000000 
handrail01_exterior_system
0 0.723403 -72.577202 14.778900 0.868181 0.490789 0.073398 0.295500 -0.742200 1 0 1.000000 
0 0.000003 -72.169998 18.230200 -0.000000 0.974931 -0.222507 0.321000 -0.634300 1 0 1.000000 
0 0.723403 -72.577202 18.323200 0.868160 0.474078 -0.146793 0.295500 -0.631400 1 0 1.000000 
handrail01_exterior_system
0 0.723403 -72.577202 14.778900 0.868181 0.490789 0.073398 0.295500 -0.742200 1 0 1.000000 
0 0.000003 -72.169998 14.871800 -0.000000 0.974931 0.222507 0.321000 -0.739200 1 0 1.000000 
0 0.000003 -72.169998 18.230200 -0.000000 0.974931 -0.222507 0.321000 -0.634300 1 0 1.000000 
handrail01_exterior_system
0 0.000003 -72.169998 14.871800 -0.000000 0.974931 0.222507 0.321000 -0.739200 1 0 1.000000 
0 -0.723397 -72.577202 18.323200 -0.868181 0.490789 -0.073398 0.295500 -0.631400 1 0 1.000000 
0 0.000003 -72.169998 18.230200 -0.000000 0.974931 -0.222507 0.321000 -0.634300 1 0 1.000000 
handrail01_exterior_system
0 0.000003 -72.169998 14.871800 -0.000000 0.974931 0.222507 0.321000 -0.739200 1 0 1.000000 
0 -0.723397 -72.577202 14.778900 -0.868160 0.474078 0.146793 0.295500 -0.742200 1 0 1.000000 
0 -0.723397 -72.577202 18.323200 -0.868181 0.490789 -0.073398 0.295500 -0.631400 1 0 1.000000 
handrail01_exterior_system
0 -0.723397 -72.577202 14.778900 -0.868160 0.474078 0.146793 0.295500 -0.742200 1 0 1.000000 
0 -0.723397 -73.391602 18.509001 -0.868160 -0.474078 0.146793 0.244600 -0.625600 1 0 1.000000 
0 -0.723397 -72.577202 18.323200 -0.868181 0.490789 -0.073398 0.295500 -0.631400 1 0 1.000000 
handrail01_exterior_system
0 -0.723397 -72.577202 18.323200 -0.868181 0.490789 -0.073398 0.295500 -0.631400 1 0 1.000000 
0 -0.723397 -73.391602 18.509001 -0.868160 -0.474078 0.146793 0.244600 -0.625600 1 0 1.000000 
0 -0.723397 -71.692497 22.037201 -0.868167 -0.363386 0.337987 0.350800 -0.515300 1 0 1.000000 
handrail01_exterior_system
0 -0.723397 -73.391602 18.509001 -0.868160 -0.474078 0.146793 0.244600 -0.625600 1 0 1.000000 
0 0.000003 -72.018997 22.297701 0.000000 -0.781814 0.623511 0.330400 -0.507200 1 0 1.000000 
0 -0.723397 -71.692497 22.037201 -0.868167 -0.363386 0.337987 0.350800 -0.515300 1 0 1.000000 
handrail01_exterior_system
0 -0.723397 -71.692497 22.037201 -0.868167 -0.363386 0.337987 0.350800 -0.515300 1 0 1.000000 
0 0.000003 -72.018997 22.297701 0.000000 -0.781814 0.623511 0.330400 -0.507200 1 0 1.000000 
0 0.000003 -68.811996 24.855101 0.000000 -0.433885 0.900968 0.530900 -0.427300 1 0 1.000000 
handrail01_exterior_system
0 0.000003 -72.018997 22.297701 0.000000 -0.781814 0.623511 0.330400 -0.507200 1 0 1.000000 
0 0.723403 -68.630798 24.478800 0.868181 -0.248595 0.429491 0.542200 -0.439000 1 0 1.000000 
0 0.000003 -68.811996 24.855101 0.000000 -0.433885 0.900968 0.530900 -0.427300 1 0 1.000000 
handrail01_exterior_system
0 -0.723397 -71.692497 22.037201 -0.868167 -0.363386 0.337987 0.350800 -0.515300 1 0 1.000000 
0 0.000003 -68.811996 24.855101 0.000000 -0.433885 0.900968 0.530900 -0.427300 1 0 1.000000 
0 -0.723397 -68.630798 24.478800 -0.868161 -0.180792 0.462179 0.542200 -0.439000 1 0 1.000000 
handrail01_exterior_system
0 -0.723397 -71.039398 21.516399 -0.868158 0.410380 -0.279087 0.391700 -0.531600 1 0 1.000000 
0 -0.723397 -71.692497 22.037201 -0.868167 -0.363386 0.337987 0.350800 -0.515300 1 0 1.000000 
0 -0.723397 -68.630798 24.478800 -0.868161 -0.180792 0.462179 0.542200 -0.439000 1 0 1.000000 
handrail01_exterior_system
0 -0.723397 -72.577202 18.323200 -0.868181 0.490789 -0.073398 0.295500 -0.631400 1 0 1.000000 
0 -0.723397 -71.692497 22.037201 -0.868167 -0.363386 0.337987 0.350800 -0.515300 1 0 1.000000 
0 -0.723397 -71.039398 21.516399 -0.868158 0.410380 -0.279087 0.391700 -0.531600 1 0 1.000000 
handrail01_exterior_system
0 0.000003 -72.169998 18.230200 -0.000000 0.974931 -0.222507 0.321000 -0.634300 1 0 1.000000 
0 -0.723397 -72.577202 18.323200 -0.868181 0.490789 -0.073398 0.295500 -0.631400 1 0 1.000000 
0 -0.723397 -71.039398 21.516399 -0.868158 0.410380 -0.279087 0.391700 -0.531600 1 0 1.000000 
handrail01_exterior_system
0 0.000003 -72.169998 18.230200 -0.000000 0.974931 -0.222507 0.321000 -0.634300 1 0 1.000000 
0 -0.723397 -71.039398 21.516399 -0.868158 0.410380 -0.279087 0.391700 -0.531600 1 0 1.000000 
0 0.000003 -70.712898 21.256001 -0.000000 0.781814 -0.623511 0.412100 -0.539700 1 0 1.000000 
handrail01_exterior_system
0 0.723403 -72.577202 18.323200 0.868160 0.474078 -0.146793 0.295500 -0.631400 1 0 1.000000 
0 0.000003 -72.169998 18.230200 -0.000000 0.974931 -0.222507 0.321000 -0.634300 1 0 1.000000 
0 0.000003 -70.712898 21.256001 -0.000000 0.781814 -0.623511 0.412100 -0.539700 1 0 1.000000 
handrail01_exterior_system
0 0.723403 -72.577202 18.323200 0.868160 0.474078 -0.146793 0.295500 -0.631400 1 0 1.000000 
0 0.000003 -70.712898 21.256001 -0.000000 0.781814 -0.623511 0.412100 -0.539700 1 0 1.000000 
0 0.723403 -71.039398 21.516399 0.868167 0.363386 -0.337987 0.391700 -0.531600 1 0 1.000000 
handrail01_exterior_system
0 0.723403 -73.391602 18.509001 0.868181 -0.490789 0.073398 0.244600 -0.625600 1 0 1.000000 
0 0.723403 -72.577202 18.323200 0.868160 0.474078 -0.146793 0.295500 -0.631400 1 0 1.000000 
0 0.723403 -71.039398 21.516399 0.868167 0.363386 -0.337987 0.391700 -0.531600 1 0 1.000000 
handrail01_exterior_system
0 0.723403 -71.039398 21.516399 0.868167 0.363386 -0.337987 0.391700 -0.531600 1 0 1.000000 
0 0.000003 -70.712898 21.256001 -0.000000 0.781814 -0.623511 0.412100 -0.539700 1 0 1.000000 
0 0.000003 -68.087196 23.349899 -0.000000 0.433885 -0.900968 0.576200 -0.474300 1 0 1.000000 
handrail01_exterior_system
0 0.000003 -70.712898 21.256001 -0.000000 0.781814 -0.623511 0.412100 -0.539700 1 0 1.000000 
0 -0.723397 -68.268402 23.726200 -0.868181 0.248595 -0.429491 0.564800 -0.462500 1 0 1.000000 
0 0.000003 -68.087196 23.349899 -0.000000 0.433885 -0.900968 0.576200 -0.474300 1 0 1.000000 
handrail01_exterior_system
0 0.000003 -70.712898 21.256001 -0.000000 0.781814 -0.623511 0.412100 -0.539700 1 0 1.000000 
0 -0.723397 -71.039398 21.516399 -0.868158 0.410380 -0.279087 0.391700 -0.531600 1 0 1.000000 
0 -0.723397 -68.268402 23.726200 -0.868181 0.248595 -0.429491 0.564800 -0.462500 1 0 1.000000 
handrail01_exterior_system
0 -0.723397 -71.039398 21.516399 -0.868158 0.410380 -0.279087 0.391700 -0.531600 1 0 1.000000 
0 -0.723397 -68.630798 24.478800 -0.868161 -0.180792 0.462179 0.542200 -0.439000 1 0 1.000000 
0 -0.723397 -68.268402 23.726200 -0.868181 0.248595 -0.429491 0.564800 -0.462500 1 0 1.000000 
handrail01_exterior_system
0 0.723403 -71.692497 22.037201 0.868158 -0.410380 0.279087 0.350800 -0.515300 1 0 1.000000 
0 0.723403 -71.039398 21.516399 0.868167 0.363386 -0.337987 0.391700 -0.531600 1 0 1.000000 
0 0.723403 -68.268402 23.726200 0.868161 0.180792 -0.462179 0.564800 -0.462500 1 0 1.000000 
handrail01_exterior_system
0 0.723403 -71.039398 21.516399 0.868167 0.363386 -0.337987 0.391700 -0.531600 1 0 1.000000 
0 0.000003 -68.087196 23.349899 -0.000000 0.433885 -0.900968 0.576200 -0.474300 1 0 1.000000 
0 0.723403 -68.268402 23.726200 0.868161 0.180792 -0.462179 0.564800 -0.462500 1 0 1.000000 
handrail01_exterior_system
0 0.723403 -68.268402 23.726200 0.868161 0.180792 -0.462179 0.564800 -0.462500 1 0 1.000000 
0 0.000003 -68.087196 23.349899 -0.000000 0.433885 -0.900968 0.576200 -0.474300 1 0 1.000000 
0 0.000003 -64.813004 24.097300 -0.001800 0.112297 -0.993673 0.780800 -0.451000 1 0 1.000000 
handrail01_exterior_system
0 0.000003 -68.087196 23.349899 -0.000000 0.433885 -0.900968 0.576200 -0.474300 1 0 1.000000 
0 -0.723397 -64.813004 24.514900 -0.865422 0.074902 -0.495413 0.780800 -0.437900 1 0 1.000000 
0 0.000003 -64.813004 24.097300 -0.001800 0.112297 -0.993673 0.780800 -0.451000 1 0 1.000000 
handrail01_exterior_system
0 0.000003 -68.087196 23.349899 -0.000000 0.433885 -0.900968 0.576200 -0.474300 1 0 1.000000 
0 -0.723397 -68.268402 23.726200 -0.868181 0.248595 -0.429491 0.564800 -0.462500 1 0 1.000000 
0 -0.723397 -64.813004 24.514900 -0.865422 0.074902 -0.495413 0.780800 -0.437900 1 0 1.000000 
handrail01_exterior_system
0 -0.723397 -68.268402 23.726200 -0.868181 0.248595 -0.429491 0.564800 -0.462500 1 0 1.000000 
0 -0.723397 -64.813004 25.350201 -0.866309 -0.037400 0.498105 0.780800 -0.411800 1 0 1.000000 
0 -0.723397 -64.813004 24.514900 -0.865422 0.074902 -0.495413 0.780800 -0.437900 1 0 1.000000 
handrail01_exterior_system
0 -0.723397 -68.268402 23.726200 -0.868181 0.248595 -0.429491 0.564800 -0.462500 1 0 1.000000 
0 -0.723397 -68.630798 24.478800 -0.868161 -0.180792 0.462179 0.542200 -0.439000 1 0 1.000000 
0 -0.723397 -64.813004 25.350201 -0.866309 -0.037400 0.498105 0.780800 -0.411800 1 0 1.000000 
handrail01_exterior_system
0 -0.723397 -68.630798 24.478800 -0.868161 -0.180792 0.462179 0.542200 -0.439000 1 0 1.000000 
0 0.000003 -64.813004 25.767900 0.001800 -0.112297 0.993673 0.780800 -0.398700 1 0 1.000000 
0 -0.723397 -64.813004 25.350201 -0.866309 -0.037400 0.498105 0.780800 -0.411800 1 0 1.000000 
handrail01_exterior_system
0 -0.723397 -68.630798 24.478800 -0.868161 -0.180792 0.462179 0.542200 -0.439000 1 0 1.000000 
0 0.000003 -68.811996 24.855101 0.000000 -0.433885 0.900968 0.530900 -0.427300 1 0 1.000000 
0 0.000003 -64.813004 25.767900 0.001800 -0.112297 0.993673 0.780800 -0.398700 1 0 1.000000 
handrail01_exterior_system
0 0.000003 -68.811996 24.855101 0.000000 -0.433885 0.900968 0.530900 -0.427300 1 0 1.000000 
0 0.723403 -64.813004 25.350201 0.865422 -0.074902 0.495413 0.780800 -0.411800 1 0 1.000000 
0 0.000003 -64.813004 25.767900 0.001800 -0.112297 0.993673 0.780800 -0.398700 1 0 1.000000 
handrail01_exterior_system
0 0.000003 -68.811996 24.855101 0.000000 -0.433885 0.900968 0.530900 -0.427300 1 0 1.000000 
0 0.723403 -68.630798 24.478800 0.868181 -0.248595 0.429491 0.542200 -0.439000 1 0 1.000000 
0 0.723403 -64.813004 25.350201 0.865422 -0.074902 0.495413 0.780800 -0.411800 1 0 1.000000 
handrail01_exterior_system
0 0.723403 -68.630798 24.478800 0.868181 -0.248595 0.429491 0.542200 -0.439000 1 0 1.000000 
0 0.723403 -64.813004 24.514900 0.866309 0.037400 -0.498105 0.780800 -0.437900 1 0 1.000000 
0 0.723403 -64.813004 25.350201 0.865422 -0.074902 0.495413 0.780800 -0.411800 1 0 1.000000 
handrail01_exterior_system
0 0.723403 -68.630798 24.478800 0.868181 -0.248595 0.429491 0.542200 -0.439000 1 0 1.000000 
0 0.723403 -68.268402 23.726200 0.868161 0.180792 -0.462179 0.564800 -0.462500 1 0 1.000000 
0 0.723403 -64.813004 24.514900 0.866309 0.037400 -0.498105 0.780800 -0.437900 1 0 1.000000 
handrail01_exterior_system
0 0.723403 -68.268402 23.726200 0.868161 0.180792 -0.462179 0.564800 -0.462500 1 0 1.000000 
0 0.000003 -64.813004 24.097300 -0.001800 0.112297 -0.993673 0.780800 -0.451000 1 0 1.000000 
0 0.723403 -64.813004 24.514900 0.866309 0.037400 -0.498105 0.780800 -0.437900 1 0 1.000000 
handrail01_exterior_system
0 0.000003 -64.813004 9.004800 0.014700 0.113701 0.993406 0.780800 -0.922600 1 0 1.000000 
0 -0.723397 -64.813004 8.587100 -0.872811 0.038900 0.486506 0.780800 -0.935600 1 0 1.000000 
0 -0.723397 -68.268402 9.375800 -0.868161 0.180792 0.462179 0.564800 -0.911000 1 0 1.000000 
handrail01_exterior_system
0 -0.723397 -64.813004 8.587100 -0.872811 0.038900 0.486506 0.780800 -0.935600 1 0 1.000000 
0 -0.723397 -68.630798 8.623200 -0.868181 -0.248595 -0.429491 0.542200 -0.934500 1 0 1.000000 
0 -0.723397 -68.268402 9.375800 -0.868161 0.180792 0.462179 0.564800 -0.911000 1 0 1.000000 
handrail01_exterior_system
0 -0.723397 -68.268402 9.375800 -0.868161 0.180792 0.462179 0.564800 -0.911000 1 0 1.000000 
0 -0.723397 -68.630798 8.623200 -0.868181 -0.248595 -0.429491 0.542200 -0.934500 1 0 1.000000 
0 -0.723397 -71.692497 11.064800 -0.868158 -0.410380 -0.279087 0.350800 -0.858200 1 0 1.000000 
handrail01_exterior_system
0 -0.723397 -68.630798 8.623200 -0.868181 -0.248595 -0.429491 0.542200 -0.934500 1 0 1.000000 
0 0.000003 -72.018997 10.804400 0.000000 -0.781814 -0.623511 0.330400 -0.866400 1 0 1.000000 
0 -0.723397 -71.692497 11.064800 -0.868158 -0.410380 -0.279087 0.350800 -0.858200 1 0 1.000000 
handrail01_exterior_system
0 -0.723397 -68.630798 8.623200 -0.868181 -0.248595 -0.429491 0.542200 -0.934500 1 0 1.000000 
0 0.000003 -68.811996 8.246900 0.000000 -0.433885 -0.900968 0.530900 -0.946300 1 0 1.000000 
0 0.000003 -72.018997 10.804400 0.000000 -0.781814 -0.623511 0.330400 -0.866400 1 0 1.000000 
handrail01_exterior_system
0 0.000003 -68.811996 8.246900 0.000000 -0.433885 -0.900968 0.530900 -0.946300 1 0 1.000000 
0 0.723403 -71.692497 11.064800 0.868167 -0.363386 -0.337987 0.350800 -0.858200 1 0 1.000000 
0 0.000003 -72.018997 10.804400 0.000000 -0.781814 -0.623511 0.330400 -0.866400 1 0 1.000000 
handrail01_exterior_system
0 0.000003 -68.811996 8.246900 0.000000 -0.433885 -0.900968 0.530900 -0.946300 1 0 1.000000 
0 0.723403 -68.630798 8.623200 0.868161 -0.180792 -0.462179 0.542200 -0.934500 1 0 1.000000 
0 0.723403 -71.692497 11.064800 0.868167 -0.363386 -0.337987 0.350800 -0.858200 1 0 1.000000 
handrail01_exterior_system
0 0.723403 -68.630798 8.623200 0.868161 -0.180792 -0.462179 0.542200 -0.934500 1 0 1.000000 
0 0.723403 -71.039398 11.585600 0.868158 0.410380 0.279087 0.391700 -0.841900 1 0 1.000000 
0 0.723403 -71.692497 11.064800 0.868167 -0.363386 -0.337987 0.350800 -0.858200 1 0 1.000000 
handrail01_exterior_system
0 0.723403 -68.630798 8.623200 0.868161 -0.180792 -0.462179 0.542200 -0.934500 1 0 1.000000 
0 0.723403 -68.268402 9.375800 0.868181 0.248595 0.429491 0.564800 -0.911000 1 0 1.000000 
0 0.723403 -71.039398 11.585600 0.868158 0.410380 0.279087 0.391700 -0.841900 1 0 1.000000 
handrail01_exterior_system
0 0.723403 -68.268402 9.375800 0.868181 0.248595 0.429491 0.564800 -0.911000 1 0 1.000000 
0 0.000003 -70.712898 11.846000 -0.000000 0.781814 0.623511 0.412100 -0.833800 1 0 1.000000 
0 0.723403 -71.039398 11.585600 0.868158 0.410380 0.279087 0.391700 -0.841900 1 0 1.000000 
handrail01_exterior_system
0 0.723403 -68.268402 9.375800 0.868181 0.248595 0.429491 0.564800 -0.911000 1 0 1.000000 
0 0.000003 -68.087196 9.752100 -0.000000 0.433885 0.900968 0.576200 -0.899200 1 0 1.000000 
0 0.000003 -70.712898 11.846000 -0.000000 0.781814 0.623511 0.412100 -0.833800 1 0 1.000000 
handrail01_exterior_system
0 0.000003 -68.087196 9.752100 -0.000000 0.433885 0.900968 0.576200 -0.899200 1 0 1.000000 
0 -0.723397 -71.039398 11.585600 -0.868167 0.363386 0.337987 0.391700 -0.841900 1 0 1.000000 
0 0.000003 -70.712898 11.846000 -0.000000 0.781814 0.623511 0.412100 -0.833800 1 0 1.000000 
handrail01_exterior_system
0 0.000003 -70.712898 11.846000 -0.000000 0.781814 0.623511 0.412100 -0.833800 1 0 1.000000 
0 -0.723397 -71.039398 11.585600 -0.868167 0.363386 0.337987 0.391700 -0.841900 1 0 1.000000 
0 -0.723397 -72.577202 14.778900 -0.868160 0.474078 0.146793 0.295500 -0.742200 1 0 1.000000 
handrail01_exterior_system
0 -0.723397 -71.039398 11.585600 -0.868167 0.363386 0.337987 0.391700 -0.841900 1 0 1.000000 
0 -0.723397 -73.391602 14.593000 -0.868181 -0.490789 -0.073398 0.244600 -0.748000 1 0 1.000000 
0 -0.723397 -72.577202 14.778900 -0.868160 0.474078 0.146793 0.295500 -0.742200 1 0 1.000000 
handrail01_exterior_system
0 -0.723397 -72.577202 14.778900 -0.868160 0.474078 0.146793 0.295500 -0.742200 1 0 1.000000 
0 -0.723397 -73.391602 14.593000 -0.868181 -0.490789 -0.073398 0.244600 -0.748000 1 0 1.000000 
0 -0.723397 -73.391602 18.509001 -0.868160 -0.474078 0.146793 0.244600 -0.625600 1 0 1.000000 
handrail01_exterior_system
0 -0.723397 -73.391602 14.593000 -0.868181 -0.490789 -0.073398 0.244600 -0.748000 1 0 1.000000 
0 0.000003 -73.798798 18.601999 0.000000 -0.974931 0.222507 0.219200 -0.622700 1 0 1.000000 
0 -0.723397 -73.391602 18.509001 -0.868160 -0.474078 0.146793 0.244600 -0.625600 1 0 1.000000 
handrail01_exterior_system
0 -0.723397 -73.391602 18.509001 -0.868160 -0.474078 0.146793 0.244600 -0.625600 1 0 1.000000 
0 0.000003 -73.798798 18.601999 0.000000 -0.974931 0.222507 0.219200 -0.622700 1 0 1.000000 
0 0.000003 -72.018997 22.297701 0.000000 -0.781814 0.623511 0.330400 -0.507200 1 0 1.000000 
handrail01_exterior_system
0 0.000003 -73.798798 18.601999 0.000000 -0.974931 0.222507 0.219200 -0.622700 1 0 1.000000 
0 0.723403 -71.692497 22.037201 0.868158 -0.410380 0.279087 0.350800 -0.515300 1 0 1.000000 
0 0.000003 -72.018997 22.297701 0.000000 -0.781814 0.623511 0.330400 -0.507200 1 0 1.000000 
handrail01_exterior_system
0 0.000003 -72.018997 22.297701 0.000000 -0.781814 0.623511 0.330400 -0.507200 1 0 1.000000 
0 0.723403 -71.692497 22.037201 0.868158 -0.410380 0.279087 0.350800 -0.515300 1 0 1.000000 
0 0.723403 -68.630798 24.478800 0.868181 -0.248595 0.429491 0.542200 -0.439000 1 0 1.000000 
handrail01_exterior_system
0 0.723403 -71.692497 22.037201 0.868158 -0.410380 0.279087 0.350800 -0.515300 1 0 1.000000 
0 0.723403 -68.268402 23.726200 0.868161 0.180792 -0.462179 0.564800 -0.462500 1 0 1.000000 
0 0.723403 -68.630798 24.478800 0.868181 -0.248595 0.429491 0.542200 -0.439000 1 0 1.000000 
handrail01_exterior_system
0 -0.723397 -64.813004 8.587100 -0.872811 0.038900 0.486506 0.780800 -0.935600 1 0 1.000000 
0 -0.723397 -64.813004 7.751800 -0.865608 -0.072101 -0.495504 0.780800 -0.961700 1 0 1.000000 
0 -0.723397 -68.630798 8.623200 -0.868181 -0.248595 -0.429491 0.542200 -0.934500 1 0 1.000000 
handrail01_exterior_system
0 -0.723397 -64.813004 7.751800 -0.865608 -0.072101 -0.495504 0.780800 -0.961700 1 0 1.000000 
0 0.000003 -68.811996 8.246900 0.000000 -0.433885 -0.900968 0.530900 -0.946300 1 0 1.000000 
0 -0.723397 -68.630798 8.623200 -0.868181 -0.248595 -0.429491 0.542200 -0.934500 1 0 1.000000 
handrail01_exterior_system
0 -0.723397 -64.813004 7.751800 -0.865608 -0.072101 -0.495504 0.780800 -0.961700 1 0 1.000000 
0 0.000003 -64.813004 7.334100 -0.014700 -0.112604 -0.993531 0.780800 -0.974800 1 0 1.000000 
0 0.000003 -68.811996 8.246900 0.000000 -0.433885 -0.900968 0.530900 -0.946300 1 0 1.000000 
handrail01_exterior_system
0 0.000003 -64.813004 7.334100 -0.014700 -0.112604 -0.993531 0.780800 -0.974800 1 0 1.000000 
0 0.723403 -68.630798 8.623200 0.868161 -0.180792 -0.462179 0.542200 -0.934500 1 0 1.000000 
0 0.000003 -68.811996 8.246900 0.000000 -0.433885 -0.900968 0.530900 -0.946300 1 0 1.000000 
handrail01_exterior_system
0 0.000003 -64.813004 7.334100 -0.014700 -0.112604 -0.993531 0.780800 -0.974800 1 0 1.000000 
0 0.723403 -64.813004 7.751800 0.872939 -0.035702 -0.486522 0.780800 -0.961700 1 0 1.000000 
0 0.723403 -68.630798 8.623200 0.868161 -0.180792 -0.462179 0.542200 -0.934500 1 0 1.000000 
handrail01_exterior_system
0 0.723403 -64.813004 7.751800 0.872939 -0.035702 -0.486522 0.780800 -0.961700 1 0 1.000000 
0 0.723403 -68.268402 9.375800 0.868181 0.248595 0.429491 0.564800 -0.911000 1 0 1.000000 
0 0.723403 -68.630798 8.623200 0.868161 -0.180792 -0.462179 0.542200 -0.934500 1 0 1.000000 
handrail01_exterior_system
0 0.723403 -64.813004 7.751800 0.872939 -0.035702 -0.486522 0.780800 -0.961700 1 0 1.000000 
0 0.723403 -64.813004 8.587100 0.865282 0.077298 0.495290 0.780800 -0.935600 1 0 1.000000 
0 0.723403 -68.268402 9.375800 0.868181 0.248595 0.429491 0.564800 -0.911000 1 0 1.000000 
handrail01_exterior_system
0 0.723403 -64.813004 8.587100 0.865282 0.077298 0.495290 0.780800 -0.935600 1 0 1.000000 
0 0.000003 -68.087196 9.752100 -0.000000 0.433885 0.900968 0.576200 -0.899200 1 0 1.000000 
0 0.723403 -68.268402 9.375800 0.868181 0.248595 0.429491 0.564800 -0.911000 1 0 1.000000 
handrail01_exterior_system
0 0.723403 -64.813004 8.587100 0.865282 0.077298 0.495290 0.780800 -0.935600 1 0 1.000000 
0 0.000003 -64.813004 9.004800 0.014700 0.113701 0.993406 0.780800 -0.922600 1 0 1.000000 
0 0.000003 -68.087196 9.752100 -0.000000 0.433885 0.900968 0.576200 -0.899200 1 0 1.000000 
handrail01_exterior_system
0 0.000003 -64.813004 9.004800 0.014700 0.113701 0.993406 0.780800 -0.922600 1 0 1.000000 
0 -0.723397 -68.268402 9.375800 -0.868161 0.180792 0.462179 0.564800 -0.911000 1 0 1.000000 
0 0.000003 -68.087196 9.752100 -0.000000 0.433885 0.900968 0.576200 -0.899200 1 0 1.000000 
handrail01_exterior_system
0 0.000003 -68.087196 9.752100 -0.000000 0.433885 0.900968 0.576200 -0.899200 1 0 1.000000 
0 -0.723397 -68.268402 9.375800 -0.868161 0.180792 0.462179 0.564800 -0.911000 1 0 1.000000 
0 -0.723397 -71.039398 11.585600 -0.868167 0.363386 0.337987 0.391700 -0.841900 1 0 1.000000 
handrail01_exterior_system
0 -0.723397 -68.268402 9.375800 -0.868161 0.180792 0.462179 0.564800 -0.911000 1 0 1.000000 
0 -0.723397 -71.692497 11.064800 -0.868158 -0.410380 -0.279087 0.350800 -0.858200 1 0 1.000000 
0 -0.723397 -71.039398 11.585600 -0.868167 0.363386 0.337987 0.391700 -0.841900 1 0 1.000000 
handrail01_exterior_system
0 -0.723397 -71.039398 11.585600 -0.868167 0.363386 0.337987 0.391700 -0.841900 1 0 1.000000 
0 -0.723397 -71.692497 11.064800 -0.868158 -0.410380 -0.279087 0.350800 -0.858200 1 0 1.000000 
0 -0.723397 -73.391602 14.593000 -0.868181 -0.490789 -0.073398 0.244600 -0.748000 1 0 1.000000 
handrail01_exterior_system
0 -0.723397 -71.692497 11.064800 -0.868158 -0.410380 -0.279087 0.350800 -0.858200 1 0 1.000000 
0 0.000003 -73.798798 14.500100 0.000000 -0.974931 -0.222507 0.219200 -0.750900 1 0 1.000000 
0 -0.723397 -73.391602 14.593000 -0.868181 -0.490789 -0.073398 0.244600 -0.748000 1 0 1.000000 
handrail01_exterior_system
0 -0.723397 -73.391602 14.593000 -0.868181 -0.490789 -0.073398 0.244600 -0.748000 1 0 1.000000 
0 0.000003 -73.798798 14.500100 0.000000 -0.974931 -0.222507 0.219200 -0.750900 1 0 1.000000 
0 0.000003 -73.798798 18.601999 0.000000 -0.974931 0.222507 0.219200 -0.622700 1 0 1.000000 
handrail01_exterior_system
0 0.000003 -73.798798 14.500100 0.000000 -0.974931 -0.222507 0.219200 -0.750900 1 0 1.000000 
0 0.723403 -73.391602 18.509001 0.868181 -0.490789 0.073398 0.244600 -0.625600 1 0 1.000000 
0 0.000003 -73.798798 18.601999 0.000000 -0.974931 0.222507 0.219200 -0.622700 1 0 1.000000 
handrail01_exterior_system
0 0.000003 -73.798798 18.601999 0.000000 -0.974931 0.222507 0.219200 -0.622700 1 0 1.000000 
0 0.723403 -73.391602 18.509001 0.868181 -0.490789 0.073398 0.244600 -0.625600 1 0 1.000000 
0 0.723403 -71.692497 22.037201 0.868158 -0.410380 0.279087 0.350800 -0.515300 1 0 1.000000 
handrail01_exterior_system
0 0.723403 -73.391602 18.509001 0.868181 -0.490789 0.073398 0.244600 -0.625600 1 0 1.000000 
0 0.723403 -71.039398 21.516399 0.868167 0.363386 -0.337987 0.391700 -0.531600 1 0 1.000000 
0 0.723403 -71.692497 22.037201 0.868158 -0.410380 0.279087 0.350800 -0.515300 1 0 1.000000 
handrail01_exterior_system
0 0.026800 -0.650500 0.000000 0.000000 0.000000 -1.000000 0.034200 -1.000000 1 0 1.000000 
0 0.026800 0.121700 0.000000 0.000000 0.000000 -1.000000 0.000000 -1.000000 1 0 1.000000 
0 0.695600 -0.264400 0.000000 0.000000 0.000000 -1.000000 0.000000 -1.000000 1 0 1.000000 
handrail01_exterior_system
0 0.026800 -0.650500 0.000000 0.000000 0.000000 -1.000000 0.034200 -1.000000 1 0 1.000000 
0 -0.641900 -0.264400 0.000000 0.000000 0.000000 -1.000000 0.000000 -1.000000 1 0 1.000000 
0 0.026800 0.121700 0.000000 0.000000 0.000000 -1.000000 0.000000 -1.000000 1 0 1.000000 
handrail01_exterior_system
0 0.026800 -0.650500 0.000000 0.000000 0.000000 -1.000000 0.034200 -1.000000 1 0 1.000000 
0 -0.641900 -1.036600 0.000000 0.000000 0.000000 -1.000000 0.000000 -0.982400 1 0 1.000000 
0 -0.641900 -0.264400 0.000000 0.000000 0.000000 -1.000000 0.000000 -1.000000 1 0 1.000000 
handrail01_exterior_system
0 0.026800 -0.650500 0.000000 0.000000 0.000000 -1.000000 0.034200 -1.000000 1 0 1.000000 
0 0.026800 -1.422700 0.000000 0.000000 0.000000 -1.000000 0.000000 -1.000000 1 0 1.000000 
0 -0.641900 -1.036600 0.000000 0.000000 0.000000 -1.000000 0.000000 -0.982400 1 0 1.000000 
handrail01_exterior_system
0 0.026800 -0.650500 0.000000 0.000000 0.000000 -1.000000 0.034200 -1.000000 1 0 1.000000 
0 0.695600 -1.036600 0.000000 0.000000 0.000000 -1.000000 0.000000 -1.000000 1 0 1.000000 
0 0.026800 -1.422700 0.000000 0.000000 0.000000 -1.000000 0.000000 -1.000000 1 0 1.000000 
handrail01_exterior_system
0 0.026800 -0.650500 0.000000 0.000000 0.000000 -1.000000 0.034200 -1.000000 1 0 1.000000 
0 0.695600 -0.264400 0.000000 0.000000 0.000000 -1.000000 0.000000 -1.000000 1 0 1.000000 
0 0.695600 -1.036600 0.000000 0.000000 0.000000 -1.000000 0.000000 -1.000000 1 0 1.000000 
handrail01_exterior_system
0 0.026800 -0.650500 24.911301 0.000000 0.000000 1.000000 0.000000 -1.000000 1 0 1.000000 
0 0.657800 -0.286200 24.911301 0.000000 0.000000 1.000000 0.000000 -1.000000 1 0 1.000000 
0 0.026800 0.078000 24.911301 0.000000 0.000000 1.000000 0.000000 -1.000000 1 0 1.000000 
handrail01_exterior_system
0 0.026800 -0.650500 24.911301 0.000000 0.000000 1.000000 0.000000 -1.000000 1 0 1.000000 
0 0.657800 -1.014700 24.911301 0.000000 0.000000 1.000000 0.000000 -1.000000 1 0 1.000000 
0 0.657800 -0.286200 24.911301 0.000000 0.000000 1.000000 0.000000 -1.000000 1 0 1.000000 
handrail01_exterior_system
0 0.026800 -0.650500 24.911301 0.000000 0.000000 1.000000 0.000000 -1.000000 1 0 1.000000 
0 0.026800 -1.379000 24.911301 0.000000 0.000000 1.000000 0.000000 -1.000000 1 0 1.000000 
0 0.657800 -1.014700 24.911301 0.000000 0.000000 1.000000 0.000000 -1.000000 1 0 1.000000 
handrail01_exterior_system
0 0.026800 -0.650500 24.911301 0.000000 0.000000 1.000000 0.000000 -1.000000 1 0 1.000000 
0 -0.604100 -1.014700 24.911301 0.000000 0.000000 1.000000 0.000000 -1.000000 1 0 1.000000 
0 0.026800 -1.379000 24.911301 0.000000 0.000000 1.000000 0.000000 -1.000000 1 0 1.000000 
handrail01_exterior_system
0 0.026800 -0.650500 24.911301 0.000000 0.000000 1.000000 0.000000 -1.000000 1 0 1.000000 
0 -0.604100 -0.286200 24.911301 0.000000 0.000000 1.000000 0.000000 -1.000000 1 0 1.000000 
0 -0.604100 -1.014700 24.911301 0.000000 0.000000 1.000000 0.000000 -1.000000 1 0 1.000000 
handrail01_exterior_system
0 0.026800 -0.650500 24.911301 0.000000 0.000000 1.000000 0.000000 -1.000000 1 0 1.000000 
0 0.026800 0.078000 24.911301 0.000000 0.000000 1.000000 0.000000 -1.000000 1 0 1.000000 
0 -0.604100 -0.286200 24.911301 0.000000 0.000000 1.000000 0.000000 -1.000000 1 0 1.000000 
handrail01_exterior_system
0 -0.026802 43.784100 0.000000 0.000000 0.000000 -1.000000 0.000000 -1.000000 1 0 1.000000 
0 -0.026802 43.011902 0.000000 0.000000 0.000000 -1.000000 0.000000 -1.000000 1 0 1.000000 
0 -0.695602 43.397999 0.000000 0.000000 0.000000 -1.000000 0.000000 -1.000000 1 0 1.000000 
handrail01_exterior_system
0 -0.026802 43.784100 0.000000 0.000000 0.000000 -1.000000 0.000000 -1.000000 1 0 1.000000 
0 0.641898 43.397999 0.000000 0.000000 0.000000 -1.000000 0.000000 -1.000000 1 0 1.000000 
0 -0.026802 43.011902 0.000000 0.000000 0.000000 -1.000000 0.000000 -1.000000 1 0 1.000000 
handrail01_exterior_system
0 -0.026802 43.784100 0.000000 0.000000 0.000000 -1.000000 0.000000 -1.000000 1 0 1.000000 
0 0.641898 44.170200 0.000000 0.000000 0.000000 -1.000000 0.000000 -1.000000 1 0 1.000000 
0 0.641898 43.397999 0.000000 0.000000 0.000000 -1.000000 0.000000 -1.000000 1 0 1.000000 
handrail01_exterior_system
0 -0.026802 43.784100 0.000000 0.000000 0.000000 -1.000000 0.000000 -1.000000 1 0 1.000000 
0 -0.026802 44.556301 0.000000 0.000000 0.000000 -1.000000 0.000000 -1.000000 1 0 1.000000 
0 0.641898 44.170200 0.000000 0.000000 0.000000 -1.000000 0.000000 -1.000000 1 0 1.000000 
handrail01_exterior_system
0 -0.026802 43.784100 0.000000 0.000000 0.000000 -1.000000 0.000000 -1.000000 1 0 1.000000 
0 -0.695602 44.170200 0.000000 0.000000 0.000000 -1.000000 0.000000 -1.000000 1 0 1.000000 
0 -0.026802 44.556301 0.000000 0.000000 0.000000 -1.000000 0.000000 -1.000000 1 0 1.000000 
handrail01_exterior_system
0 -0.026802 43.784100 0.000000 0.000000 0.000000 -1.000000 0.000000 -1.000000 1 0 1.000000 
0 -0.695602 43.397999 0.000000 0.000000 0.000000 -1.000000 0.000000 -1.000000 1 0 1.000000 
0 -0.695602 44.170200 0.000000 0.000000 0.000000 -1.000000 0.000000 -1.000000 1 0 1.000000 
handrail01_exterior_system
0 0.026802 -43.157299 0.000000 0.000000 0.000000 -1.000000 0.000000 -1.000000 1 0 1.000000 
0 0.026802 -42.385101 0.000000 0.000000 0.000000 -1.000000 0.000000 -1.000000 1 0 1.000000 
0 0.695602 -42.771198 0.000000 0.000000 0.000000 -1.000000 0.000000 -1.000000 1 0 1.000000 
handrail01_exterior_system
0 0.026802 -43.157299 0.000000 0.000000 0.000000 -1.000000 0.000000 -1.000000 1 0 1.000000 
0 -0.641898 -42.771198 0.000000 0.000000 0.000000 -1.000000 0.000000 -1.000000 1 0 1.000000 
0 0.026802 -42.385101 0.000000 0.000000 0.000000 -1.000000 0.000000 -1.000000 1 0 1.000000 
handrail01_exterior_system
0 0.026802 -43.157299 0.000000 0.000000 0.000000 -1.000000 0.000000 -1.000000 1 0 1.000000 
0 -0.641898 -43.543400 0.000000 0.000000 0.000000 -1.000000 0.000000 -1.000000 1 0 1.000000 
0 -0.641898 -42.771198 0.000000 0.000000 0.000000 -1.000000 0.000000 -1.000000 1 0 1.000000 
handrail01_exterior_system
0 0.026802 -43.157299 0.000000 0.000000 0.000000 -1.000000 0.000000 -1.000000 1 0 1.000000 
0 0.026802 -43.929501 0.000000 0.000000 0.000000 -1.000000 0.000000 -1.000000 1 0 1.000000 
0 -0.641898 -43.543400 0.000000 0.000000 0.000000 -1.000000 0.000000 -1.000000 1 0 1.000000 
handrail01_exterior_system
0 0.026802 -43.157299 0.000000 0.000000 0.000000 -1.000000 0.000000 -1.000000 1 0 1.000000 
0 0.695602 -43.543400 0.000000 0.000000 0.000000 -1.000000 0.000000 -1.000000 1 0 1.000000 
0 0.026802 -43.929501 0.000000 0.000000 0.000000 -1.000000 0.000000 -1.000000 1 0 1.000000 
handrail01_exterior_system
0 0.026802 -43.157299 0.000000 0.000000 0.000000 -1.000000 0.000000 -1.000000 1 0 1.000000 
0 0.695602 -42.771198 0.000000 0.000000 0.000000 -1.000000 0.000000 -1.000000 1 0 1.000000 
0 0.695602 -43.543400 0.000000 0.000000 0.000000 -1.000000 0.000000 -1.000000 1 0 1.000000 
handrail01_exterior_system
0 0.026802 -43.157299 24.911301 0.000000 0.000000 1.000000 0.000000 -1.000000 1 0 1.000000 
0 0.695602 -42.771198 24.911301 0.000000 0.000000 1.000000 0.000000 -1.000000 1 0 1.000000 
0 0.026802 -42.385101 24.911301 0.000000 0.000000 1.000000 0.000000 -1.000000 1 0 1.000000 
handrail01_exterior_system
0 0.026802 -43.157299 24.911301 0.000000 0.000000 1.000000 0.000000 -1.000000 1 0 1.000000 
0 0.695602 -43.543400 24.911301 0.000000 0.000000 1.000000 0.000000 -1.000000 1 0 1.000000 
0 0.695602 -42.771198 24.911301 0.000000 0.000000 1.000000 0.000000 -1.000000 1 0 1.000000 
handrail01_exterior_system
0 0.026802 -43.157299 24.911301 0.000000 0.000000 1.000000 0.000000 -1.000000 1 0 1.000000 
0 0.026802 -43.929501 24.911301 0.000000 0.000000 1.000000 0.000000 -1.000000 1 0 1.000000 
0 0.695602 -43.543400 24.911301 0.000000 0.000000 1.000000 0.000000 -1.000000 1 0 1.000000 
handrail01_exterior_system
0 0.026802 -43.157299 24.911301 0.000000 0.000000 1.000000 0.000000 -1.000000 1 0 1.000000 
0 -0.641898 -43.543400 24.911301 0.000000 0.000000 1.000000 0.000000 -1.000000 1 0 1.000000 
0 0.026802 -43.929501 24.911301 0.000000 0.000000 1.000000 0.000000 -1.000000 1 0 1.000000 
handrail01_exterior_system
0 0.026802 -43.157299 24.911301 0.000000 0.000000 1.000000 0.000000 -1.000000 1 0 1.000000 
0 -0.641898 -42.771198 24.911301 0.000000 0.000000 1.000000 0.000000 -1.000000 1 0 1.000000 
0 -0.641898 -43.543400 24.911301 0.000000 0.000000 1.000000 0.000000 -1.000000 1 0 1.000000 
handrail01_exterior_system
0 0.026802 -43.157299 24.911301 0.000000 0.000000 1.000000 0.000000 -1.000000 1 0 1.000000 
0 0.026802 -42.385101 24.911301 0.000000 0.000000 1.000000 0.000000 -1.000000 1 0 1.000000 
0 -0.641898 -42.771198 24.911301 0.000000 0.000000 1.000000 0.000000 -1.000000 1 0 1.000000 
handrail01_exterior_system
0 0.723397 72.167397 22.037201 0.868167 0.363386 0.337987 0.928900 -0.210700 1 0 1.000000 
0 -0.000003 72.494003 22.297600 -0.000000 0.781814 0.623511 0.949300 -0.202600 1 0 1.000000 
0 -0.000003 69.287003 24.855101 -0.000000 0.433885 0.900968 0.748900 -0.122700 1 0 1.000000 
handrail01_exterior_system
0 0.723397 72.167397 22.037201 0.868167 0.363386 0.337987 0.928900 -0.210700 1 0 1.000000 
0 -0.000003 69.287003 24.855101 -0.000000 0.433885 0.900968 0.748900 -0.122700 1 0 1.000000 
0 0.723397 69.105797 24.478800 0.868161 0.180792 0.462179 0.737500 -0.134400 1 0 1.000000 
handrail01_exterior_system
0 0.723397 73.866501 18.509001 0.868160 0.474078 0.146793 1.035100 -0.321000 1 0 1.000000 
0 -0.000003 74.273697 18.601900 -0.000000 0.974931 0.222507 1.060500 -0.318100 1 0 1.000000 
0 -0.000003 72.494003 22.297600 -0.000000 0.781814 0.623511 0.949300 -0.202600 1 0 1.000000 
handrail01_exterior_system
0 0.723397 73.866501 18.509001 0.868160 0.474078 0.146793 1.035100 -0.321000 1 0 1.000000 
0 -0.000003 72.494003 22.297600 -0.000000 0.781814 0.623511 0.949300 -0.202600 1 0 1.000000 
0 0.723397 72.167397 22.037201 0.868167 0.363386 0.337987 0.928900 -0.210700 1 0 1.000000 
handrail01_exterior_system
0 0.723397 73.052200 18.323099 0.868181 -0.490789 -0.073398 0.984200 -0.326800 1 0 1.000000 
0 0.723397 73.866501 18.509001 0.868160 0.474078 0.146793 1.035100 -0.321000 1 0 1.000000 
0 0.723397 72.167397 22.037201 0.868167 0.363386 0.337987 0.928900 -0.210700 1 0 1.000000 
handrail01_exterior_system
0 0.723397 73.052200 18.323099 0.868181 -0.490789 -0.073398 0.984200 -0.326800 1 0 1.000000 
0 0.723397 72.167397 22.037201 0.868167 0.363386 0.337987 0.928900 -0.210700 1 0 1.000000 
0 0.723397 71.514297 21.516399 0.868158 -0.410380 -0.279087 0.888100 -0.227000 1 0 1.000000 
handrail01_exterior_system
0 0.723397 71.514297 21.516399 0.868158 -0.410380 -0.279087 0.888100 -0.227000 1 0 1.000000 
0 0.723397 72.167397 22.037201 0.868167 0.363386 0.337987 0.928900 -0.210700 1 0 1.000000 
0 0.723397 69.105797 24.478800 0.868161 0.180792 0.462179 0.737500 -0.134400 1 0 1.000000 
handrail01_exterior_system
0 0.723397 71.514297 21.516399 0.868158 -0.410380 -0.279087 0.888100 -0.227000 1 0 1.000000 
0 0.723397 69.105797 24.478800 0.868161 0.180792 0.462179 0.737500 -0.134400 1 0 1.000000 
0 0.723397 68.743301 23.726200 0.868181 -0.248595 -0.429491 0.714900 -0.158000 1 0 1.000000 
handrail01_exterior_system
0 0.723397 73.866501 14.593000 0.868181 0.490789 -0.073398 1.035100 -0.443400 1 0 1.000000 
0 -0.000003 74.273697 14.500100 -0.000000 0.974931 -0.222507 1.060500 -0.446300 1 0 1.000000 
0 -0.000003 74.273697 18.601900 -0.000000 0.974931 0.222507 1.060500 -0.318100 1 0 1.000000 
handrail01_exterior_system
0 0.723397 73.866501 14.593000 0.868181 0.490789 -0.073398 1.035100 -0.443400 1 0 1.000000 
0 -0.000003 74.273697 18.601900 -0.000000 0.974931 0.222507 1.060500 -0.318100 1 0 1.000000 
0 0.723397 73.866501 18.509001 0.868160 0.474078 0.146793 1.035100 -0.321000 1 0 1.000000 
handrail01_exterior_system
0 0.723397 73.052200 14.778900 0.868160 -0.474078 0.146793 0.984200 -0.437600 1 0 1.000000 
0 0.723397 73.866501 14.593000 0.868181 0.490789 -0.073398 1.035100 -0.443400 1 0 1.000000 
0 0.723397 73.866501 18.509001 0.868160 0.474078 0.146793 1.035100 -0.321000 1 0 1.000000 
handrail01_exterior_system
0 0.723397 73.052200 14.778900 0.868160 -0.474078 0.146793 0.984200 -0.437600 1 0 1.000000 
0 0.723397 73.866501 18.509001 0.868160 0.474078 0.146793 1.035100 -0.321000 1 0 1.000000 
0 0.723397 73.052200 18.323099 0.868181 -0.490789 -0.073398 0.984200 -0.326800 1 0 1.000000 
handrail01_exterior_system
0 -0.000003 72.644997 14.871800 0.000000 -0.974931 0.222507 0.958700 -0.434700 1 0 1.000000 
0 0.723397 73.052200 14.778900 0.868160 -0.474078 0.146793 0.984200 -0.437600 1 0 1.000000 
0 0.723397 73.052200 18.323099 0.868181 -0.490789 -0.073398 0.984200 -0.326800 1 0 1.000000 
handrail01_exterior_system
0 -0.000003 72.644997 14.871800 0.000000 -0.974931 0.222507 0.958700 -0.434700 1 0 1.000000 
0 0.723397 73.052200 18.323099 0.868181 -0.490789 -0.073398 0.984200 -0.326800 1 0 1.000000 
0 -0.000003 72.644997 18.230200 0.000000 -0.974931 -0.222507 0.958700 -0.329700 1 0 1.000000 
handrail01_exterior_system
0 -0.000003 72.644997 18.230200 0.000000 -0.974931 -0.222507 0.958700 -0.329700 1 0 1.000000 
0 0.723397 73.052200 18.323099 0.868181 -0.490789 -0.073398 0.984200 -0.326800 1 0 1.000000 
0 0.723397 71.514297 21.516399 0.868158 -0.410380 -0.279087 0.888100 -0.227000 1 0 1.000000 
handrail01_exterior_system
0 -0.000003 72.644997 18.230200 0.000000 -0.974931 -0.222507 0.958700 -0.329700 1 0 1.000000 
0 0.723397 71.514297 21.516399 0.868158 -0.410380 -0.279087 0.888100 -0.227000 1 0 1.000000 
0 -0.000003 71.187798 21.256001 0.000000 -0.781814 -0.623511 0.867700 -0.235200 1 0 1.000000 
handrail01_exterior_system
0 -0.000003 71.187798 21.256001 0.000000 -0.781814 -0.623511 0.867700 -0.235200 1 0 1.000000 
0 0.723397 71.514297 21.516399 0.868158 -0.410380 -0.279087 0.888100 -0.227000 1 0 1.000000 
0 0.723397 68.743301 23.726200 0.868181 -0.248595 -0.429491 0.714900 -0.158000 1 0 1.000000 
handrail01_exterior_system
0 -0.000003 71.187798 21.256001 0.000000 -0.781814 -0.623511 0.867700 -0.235200 1 0 1.000000 
0 0.723397 68.743301 23.726200 0.868181 -0.248595 -0.429491 0.714900 -0.158000 1 0 1.000000 
0 -0.000003 68.562103 23.349899 0.000000 -0.433885 -0.900968 0.703600 -0.169700 1 0 1.000000 
handrail01_exterior_system
0 0.723397 72.167397 11.064800 0.868158 0.410380 -0.279087 0.928900 -0.553600 1 0 1.000000 
0 -0.000003 72.494003 10.804400 -0.000000 0.781814 -0.623511 0.949300 -0.561800 1 0 1.000000 
0 -0.000003 74.273697 14.500100 -0.000000 0.974931 -0.222507 1.060500 -0.446300 1 0 1.000000 
handrail01_exterior_system
0 0.723397 72.167397 11.064800 0.868158 0.410380 -0.279087 0.928900 -0.553600 1 0 1.000000 
0 -0.000003 74.273697 14.500100 -0.000000 0.974931 -0.222507 1.060500 -0.446300 1 0 1.000000 
0 0.723397 73.866501 14.593000 0.868181 0.490789 -0.073398 1.035100 -0.443400 1 0 1.000000 
handrail01_exterior_system
0 0.723397 71.514297 11.585600 0.868167 -0.363386 0.337987 0.888100 -0.537400 1 0 1.000000 
0 0.723397 72.167397 11.064800 0.868158 0.410380 -0.279087 0.928900 -0.553600 1 0 1.000000 
0 0.723397 73.866501 14.593000 0.868181 0.490789 -0.073398 1.035100 -0.443400 1 0 1.000000 
handrail01_exterior_system
0 0.723397 71.514297 11.585600 0.868167 -0.363386 0.337987 0.888100 -0.537400 1 0 1.000000 
0 0.723397 73.866501 14.593000 0.868181 0.490789 -0.073398 1.035100 -0.443400 1 0 1.000000 
0 0.723397 73.052200 14.778900 0.868160 -0.474078 0.146793 0.984200 -0.437600 1 0 1.000000 
handrail01_exterior_system
0 -0.000003 71.187798 11.846000 0.000000 -0.781814 0.623511 0.867700 -0.529200 1 0 1.000000 
0 0.723397 71.514297 11.585600 0.868167 -0.363386 0.337987 0.888100 -0.537400 1 0 1.000000 
0 0.723397 73.052200 14.778900 0.868160 -0.474078 0.146793 0.984200 -0.437600 1 0 1.000000 
handrail01_exterior_system
0 -0.000003 71.187798 11.846000 0.000000 -0.781814 0.623511 0.867700 -0.529200 1 0 1.000000 
0 0.723397 73.052200 14.778900 0.868160 -0.474078 0.146793 0.984200 -0.437600 1 0 1.000000 
0 -0.000003 72.644997 14.871800 0.000000 -0.974931 0.222507 0.958700 -0.434700 1 0 1.000000 
handrail01_exterior_system
0 -0.723403 71.514297 11.585600 -0.868158 -0.410380 0.279087 0.888100 -0.537400 1 0 1.000000 
0 -0.000003 71.187798 11.846000 0.000000 -0.781814 0.623511 0.867700 -0.529200 1 0 1.000000 
0 -0.000003 72.644997 14.871800 0.000000 -0.974931 0.222507 0.958700 -0.434700 1 0 1.000000 
handrail01_exterior_system
0 -0.723403 71.514297 11.585600 -0.868158 -0.410380 0.279087 0.888100 -0.537400 1 0 1.000000 
0 -0.000003 72.644997 14.871800 0.000000 -0.974931 0.222507 0.958700 -0.434700 1 0 1.000000 
0 -0.723403 73.052200 14.778900 -0.868181 -0.490789 0.073398 0.984200 -0.437600 1 0 1.000000 
handrail01_exterior_system
0 -0.723403 73.052200 14.778900 -0.868181 -0.490789 0.073398 0.984200 -0.437600 1 0 1.000000 
0 -0.000003 72.644997 14.871800 0.000000 -0.974931 0.222507 0.958700 -0.434700 1 0 1.000000 
0 -0.000003 72.644997 18.230200 0.000000 -0.974931 -0.222507 0.958700 -0.329700 1 0 1.000000 
handrail01_exterior_system
0 -0.723403 73.052200 14.778900 -0.868181 -0.490789 0.073398 0.984200 -0.437600 1 0 1.000000 
0 -0.000003 72.644997 18.230200 0.000000 -0.974931 -0.222507 0.958700 -0.329700 1 0 1.000000 
0 -0.723403 73.052200 18.323099 -0.868160 -0.474078 -0.146793 0.984200 -0.326800 1 0 1.000000 
handrail01_exterior_system
0 -0.723403 73.052200 18.323099 -0.868160 -0.474078 -0.146793 0.984200 -0.326800 1 0 1.000000 
0 -0.000003 72.644997 18.230200 0.000000 -0.974931 -0.222507 0.958700 -0.329700 1 0 1.000000 
0 -0.000003 71.187798 21.256001 0.000000 -0.781814 -0.623511 0.867700 -0.235200 1 0 1.000000 
handrail01_exterior_system
0 -0.723403 73.052200 18.323099 -0.868160 -0.474078 -0.146793 0.984200 -0.326800 1 0 1.000000 
0 -0.000003 71.187798 21.256001 0.000000 -0.781814 -0.623511 0.867700 -0.235200 1 0 1.000000 
0 -0.723403 71.514297 21.516399 -0.868167 -0.363386 -0.337987 0.888100 -0.227000 1 0 1.000000 
handrail01_exterior_system
0 -0.723403 71.514297 21.516399 -0.868167 -0.363386 -0.337987 0.888100 -0.227000 1 0 1.000000 
0 -0.000003 71.187798 21.256001 0.000000 -0.781814 -0.623511 0.867700 -0.235200 1 0 1.000000 
0 -0.000003 68.562103 23.349899 0.000000 -0.433885 -0.900968 0.703600 -0.169700 1 0 1.000000 
handrail01_exterior_system
0 -0.723403 71.514297 21.516399 -0.868167 -0.363386 -0.337987 0.888100 -0.227000 1 0 1.000000 
0 -0.000003 68.562103 23.349899 0.000000 -0.433885 -0.900968 0.703600 -0.169700 1 0 1.000000 
0 -0.723403 68.743301 23.726200 -0.868161 -0.180792 -0.462179 0.714900 -0.158000 1 0 1.000000 
handrail01_exterior_system
0 -0.723403 72.167397 22.037201 -0.868158 0.410380 0.279087 0.928900 -0.210700 1 0 1.000000 
0 -0.723403 68.743301 23.726200 -0.868161 -0.180792 -0.462179 0.714900 -0.158000 1 0 1.000000 
0 -0.723403 69.105797 24.478800 -0.868181 0.248595 0.429491 0.737500 -0.134400 1 0 1.000000 
handrail01_exterior_system
0 -0.723403 72.167397 22.037201 -0.868158 0.410380 0.279087 0.928900 -0.210700 1 0 1.000000 
0 -0.723403 71.514297 21.516399 -0.868167 -0.363386 -0.337987 0.888100 -0.227000 1 0 1.000000 
0 -0.723403 68.743301 23.726200 -0.868161 -0.180792 -0.462179 0.714900 -0.158000 1 0 1.000000 
handrail01_exterior_system
0 -0.723403 73.866501 18.509001 -0.868181 0.490789 0.073398 1.035100 -0.321000 1 0 1.000000 
0 -0.723403 71.514297 21.516399 -0.868167 -0.363386 -0.337987 0.888100 -0.227000 1 0 1.000000 
0 -0.723403 72.167397 22.037201 -0.868158 0.410380 0.279087 0.928900 -0.210700 1 0 1.000000 
handrail01_exterior_system
0 -0.723403 73.866501 18.509001 -0.868181 0.490789 0.073398 1.035100 -0.321000 1 0 1.000000 
0 -0.723403 73.052200 18.323099 -0.868160 -0.474078 -0.146793 0.984200 -0.326800 1 0 1.000000 
0 -0.723403 71.514297 21.516399 -0.868167 -0.363386 -0.337987 0.888100 -0.227000 1 0 1.000000 
handrail01_exterior_system
0 -0.723403 73.866501 14.593000 -0.868160 0.474078 -0.146793 1.035100 -0.443400 1 0 1.000000 
0 -0.723403 73.052200 18.323099 -0.868160 -0.474078 -0.146793 0.984200 -0.326800 1 0 1.000000 
0 -0.723403 73.866501 18.509001 -0.868181 0.490789 0.073398 1.035100 -0.321000 1 0 1.000000 
handrail01_exterior_system
0 -0.723403 73.866501 14.593000 -0.868160 0.474078 -0.146793 1.035100 -0.443400 1 0 1.000000 
0 -0.723403 73.052200 14.778900 -0.868181 -0.490789 0.073398 0.984200 -0.437600 1 0 1.000000 
0 -0.723403 73.052200 18.323099 -0.868160 -0.474078 -0.146793 0.984200 -0.326800 1 0 1.000000 
handrail01_exterior_system
0 -0.723403 72.167397 11.064800 -0.868167 0.363386 -0.337987 0.928900 -0.553600 1 0 1.000000 
0 -0.723403 73.052200 14.778900 -0.868181 -0.490789 0.073398 0.984200 -0.437600 1 0 1.000000 
0 -0.723403 73.866501 14.593000 -0.868160 0.474078 -0.146793 1.035100 -0.443400 1 0 1.000000 
handrail01_exterior_system
0 -0.723403 72.167397 11.064800 -0.868167 0.363386 -0.337987 0.928900 -0.553600 1 0 1.000000 
0 -0.723403 71.514297 11.585600 -0.868158 -0.410380 0.279087 0.888100 -0.537400 1 0 1.000000 
0 -0.723403 73.052200 14.778900 -0.868181 -0.490789 0.073398 0.984200 -0.437600 1 0 1.000000 
handrail01_exterior_system
0 -0.723403 69.105797 8.623200 -0.868161 0.180792 -0.462179 0.737500 -0.629900 1 0 1.000000 
0 -0.723403 71.514297 11.585600 -0.868158 -0.410380 0.279087 0.888100 -0.537400 1 0 1.000000 
0 -0.723403 72.167397 11.064800 -0.868167 0.363386 -0.337987 0.928900 -0.553600 1 0 1.000000 
handrail01_exterior_system
0 -0.723403 69.105797 8.623200 -0.868161 0.180792 -0.462179 0.737500 -0.629900 1 0 1.000000 
0 -0.723403 68.743301 9.375800 -0.868181 -0.248595 0.429491 0.714900 -0.606400 1 0 1.000000 
0 -0.723403 71.514297 11.585600 -0.868158 -0.410380 0.279087 0.888100 -0.537400 1 0 1.000000 
handrail01_exterior_system
0 -0.723403 68.743301 9.375800 -0.868181 -0.248595 0.429491 0.714900 -0.606400 1 0 1.000000 
0 -0.000003 71.187798 11.846000 0.000000 -0.781814 0.623511 0.867700 -0.529200 1 0 1.000000 
0 -0.723403 71.514297 11.585600 -0.868158 -0.410380 0.279087 0.888100 -0.537400 1 0 1.000000 
handrail01_exterior_system
0 -0.723403 68.743301 9.375800 -0.868181 -0.248595 0.429491 0.714900 -0.606400 1 0 1.000000 
0 -0.000003 68.562103 9.752100 0.000000 -0.433885 0.900968 0.703600 -0.594700 1 0 1.000000 
0 -0.000003 71.187798 11.846000 0.000000 -0.781814 0.623511 0.867700 -0.529200 1 0 1.000000 
handrail01_exterior_system
0 -0.000003 68.562103 9.752100 0.000000 -0.433885 0.900968 0.703600 -0.594700 1 0 1.000000 
0 0.723397 71.514297 11.585600 0.868167 -0.363386 0.337987 0.888100 -0.537400 1 0 1.000000 
0 -0.000003 71.187798 11.846000 0.000000 -0.781814 0.623511 0.867700 -0.529200 1 0 1.000000 
handrail01_exterior_system
0 -0.000003 68.562103 9.752100 0.000000 -0.433885 0.900968 0.703600 -0.594700 1 0 1.000000 
0 0.723397 68.743301 9.375800 0.868161 -0.180792 0.462179 0.714900 -0.606400 1 0 1.000000 
0 0.723397 71.514297 11.585600 0.868167 -0.363386 0.337987 0.888100 -0.537400 1 0 1.000000 
handrail01_exterior_system
0 0.723397 68.743301 9.375800 0.868161 -0.180792 0.462179 0.714900 -0.606400 1 0 1.000000 
0 0.723397 72.167397 11.064800 0.868158 0.410380 -0.279087 0.928900 -0.553600 1 0 1.000000 
0 0.723397 71.514297 11.585600 0.868167 -0.363386 0.337987 0.888100 -0.537400 1 0 1.000000 
handrail01_exterior_system
0 0.723397 68.743301 9.375800 0.868161 -0.180792 0.462179 0.714900 -0.606400 1 0 1.000000 
0 0.723397 69.105797 8.623200 0.868181 0.248595 -0.429491 0.737500 -0.629900 1 0 1.000000 
0 0.723397 72.167397 11.064800 0.868158 0.410380 -0.279087 0.928900 -0.553600 1 0 1.000000 
handrail01_exterior_system
0 0.723397 69.105797 8.623200 0.868181 0.248595 -0.429491 0.737500 -0.629900 1 0 1.000000 
0 -0.000003 72.494003 10.804400 -0.000000 0.781814 -0.623511 0.949300 -0.561800 1 0 1.000000 
0 0.723397 72.167397 11.064800 0.868158 0.410380 -0.279087 0.928900 -0.553600 1 0 1.000000 
handrail01_exterior_system
0 0.723397 69.105797 8.623200 0.868181 0.248595 -0.429491 0.737500 -0.629900 1 0 1.000000 
0 -0.000003 69.287003 8.246900 -0.000000 0.433885 -0.900968 0.748900 -0.641700 1 0 1.000000 
0 -0.000003 72.494003 10.804400 -0.000000 0.781814 -0.623511 0.949300 -0.561800 1 0 1.000000 
handrail01_exterior_system
0 -0.000003 72.494003 10.804400 -0.000000 0.781814 -0.623511 0.949300 -0.561800 1 0 1.000000 
0 -0.723403 73.866501 14.593000 -0.868160 0.474078 -0.146793 1.035100 -0.443400 1 0 1.000000 
0 -0.000003 74.273697 14.500100 -0.000000 0.974931 -0.222507 1.060500 -0.446300 1 0 1.000000 
handrail01_exterior_system
0 -0.000003 72.494003 10.804400 -0.000000 0.781814 -0.623511 0.949300 -0.561800 1 0 1.000000 
0 -0.723403 72.167397 11.064800 -0.868167 0.363386 -0.337987 0.928900 -0.553600 1 0 1.000000 
0 -0.723403 73.866501 14.593000 -0.868160 0.474078 -0.146793 1.035100 -0.443400 1 0 1.000000 
handrail01_exterior_system
0 -0.000003 69.287003 8.246900 -0.000000 0.433885 -0.900968 0.748900 -0.641700 1 0 1.000000 
0 -0.723403 72.167397 11.064800 -0.868167 0.363386 -0.337987 0.928900 -0.553600 1 0 1.000000 
0 -0.000003 72.494003 10.804400 -0.000000 0.781814 -0.623511 0.949300 -0.561800 1 0 1.000000 
handrail01_exterior_system
0 -0.000003 69.287003 8.246900 -0.000000 0.433885 -0.900968 0.748900 -0.641700 1 0 1.000000 
0 -0.723403 69.105797 8.623200 -0.868161 0.180792 -0.462179 0.737500 -0.629900 1 0 1.000000 
0 -0.723403 72.167397 11.064800 -0.868167 0.363386 -0.337987 0.928900 -0.553600 1 0 1.000000 
handrail01_exterior_system
0 -0.000003 65.287903 7.334100 0.014700 0.112702 -0.993520 0.498900 -0.670200 1 0 1.000000 
0 -0.723403 69.105797 8.623200 -0.868161 0.180792 -0.462179 0.737500 -0.629900 1 0 1.000000 
0 -0.000003 69.287003 8.246900 -0.000000 0.433885 -0.900968 0.748900 -0.641700 1 0 1.000000 
handrail01_exterior_system
0 -0.000003 65.287903 7.334100 0.014700 0.112702 -0.993520 0.498900 -0.670200 1 0 1.000000 
0 -0.723403 65.287903 7.751800 -0.872945 0.035502 -0.486525 0.498900 -0.657200 1 0 1.000000 
0 -0.723403 69.105797 8.623200 -0.868161 0.180792 -0.462179 0.737500 -0.629900 1 0 1.000000 
handrail01_exterior_system
0 -0.723403 65.287903 7.751800 -0.872945 0.035502 -0.486525 0.498900 -0.657200 1 0 1.000000 
0 -0.723403 68.743301 9.375800 -0.868181 -0.248595 0.429491 0.714900 -0.606400 1 0 1.000000 
0 -0.723403 69.105797 8.623200 -0.868161 0.180792 -0.462179 0.737500 -0.629900 1 0 1.000000 
handrail01_exterior_system
0 -0.723403 65.287903 7.751800 -0.872945 0.035502 -0.486525 0.498900 -0.657200 1 0 1.000000 
0 -0.723403 65.287903 8.587100 -0.865243 -0.077504 0.495325 0.498900 -0.631100 1 0 1.000000 
0 -0.723403 68.743301 9.375800 -0.868181 -0.248595 0.429491 0.714900 -0.606400 1 0 1.000000 
handrail01_exterior_system
0 -0.723403 65.287903 8.587100 -0.865243 -0.077504 0.495325 0.498900 -0.631100 1 0 1.000000 
0 -0.000003 68.562103 9.752100 0.000000 -0.433885 0.900968 0.703600 -0.594700 1 0 1.000000 
0 -0.723403 68.743301 9.375800 -0.868181 -0.248595 0.429491 0.714900 -0.606400 1 0 1.000000 
handrail01_exterior_system
0 -0.723403 65.287903 8.587100 -0.865243 -0.077504 0.495325 0.498900 -0.631100 1 0 1.000000 
0 -0.000003 65.287903 9.004800 -0.014700 -0.113701 0.993406 0.498900 -0.618000 1 0 1.000000 
0 -0.000003 68.562103 9.752100 0.000000 -0.433885 0.900968 0.703600 -0.594700 1 0 1.000000 
handrail01_exterior_system
0 -0.000003 65.287903 9.004800 -0.014700 -0.113701 0.993406 0.498900 -0.618000 1 0 1.000000 
0 0.723397 68.743301 9.375800 0.868161 -0.180792 0.462179 0.714900 -0.606400 1 0 1.000000 
0 -0.000003 68.562103 9.752100 0.000000 -0.433885 0.900968 0.703600 -0.594700 1 0 1.000000 
handrail01_exterior_system
0 -0.000003 65.287903 9.004800 -0.014700 -0.113701 0.993406 0.498900 -0.618000 1 0 1.000000 
0 0.723397 65.287903 8.587100 0.872814 -0.038801 0.486508 0.498900 -0.631100 1 0 1.000000 
0 0.723397 68.743301 9.375800 0.868161 -0.180792 0.462179 0.714900 -0.606400 1 0 1.000000 
handrail01_exterior_system
0 0.723397 65.287903 8.587100 0.872814 -0.038801 0.486508 0.498900 -0.631100 1 0 1.000000 
0 0.723397 69.105797 8.623200 0.868181 0.248595 -0.429491 0.737500 -0.629900 1 0 1.000000 
0 0.723397 68.743301 9.375800 0.868161 -0.180792 0.462179 0.714900 -0.606400 1 0 1.000000 
handrail01_exterior_system
0 0.723397 65.287903 8.587100 0.872814 -0.038801 0.486508 0.498900 -0.631100 1 0 1.000000 
0 0.723397 65.287903 7.751800 0.865595 0.072300 -0.495497 0.498900 -0.657200 1 0 1.000000 
0 0.723397 69.105797 8.623200 0.868181 0.248595 -0.429491 0.737500 -0.629900 1 0 1.000000 
handrail01_exterior_system
0 0.723397 65.287903 7.751800 0.865595 0.072300 -0.495497 0.498900 -0.657200 1 0 1.000000 
0 -0.000003 69.287003 8.246900 -0.000000 0.433885 -0.900968 0.748900 -0.641700 1 0 1.000000 
0 0.723397 69.105797 8.623200 0.868181 0.248595 -0.429491 0.737500 -0.629900 1 0 1.000000 
handrail01_exterior_system
0 0.723397 65.287903 7.751800 0.865595 0.072300 -0.495497 0.498900 -0.657200 1 0 1.000000 
0 -0.000003 65.287903 7.334100 0.014700 0.112702 -0.993520 0.498900 -0.670200 1 0 1.000000 
0 -0.000003 69.287003 8.246900 -0.000000 0.433885 -0.900968 0.748900 -0.641700 1 0 1.000000 
handrail01_exterior_system
0 -0.723403 69.105797 24.478800 -0.868181 0.248595 0.429491 0.737500 -0.134400 1 0 1.000000 
0 -0.723403 65.286903 24.514900 -0.866309 -0.037400 -0.498105 0.498900 -0.133300 1 0 1.000000 
0 -0.723403 65.286903 25.350201 -0.865422 0.074902 0.495413 0.498900 -0.107200 1 0 1.000000 
handrail01_exterior_system
0 -0.723403 69.105797 24.478800 -0.868181 0.248595 0.429491 0.737500 -0.134400 1 0 1.000000 
0 -0.723403 68.743301 23.726200 -0.868161 -0.180792 -0.462179 0.714900 -0.158000 1 0 1.000000 
0 -0.723403 65.286903 24.514900 -0.866309 -0.037400 -0.498105 0.498900 -0.133300 1 0 1.000000 
handrail01_exterior_system
0 -0.723403 68.743301 23.726200 -0.868161 -0.180792 -0.462179 0.714900 -0.158000 1 0 1.000000 
0 -0.000003 65.286903 24.097200 0.001800 -0.112297 -0.993673 0.498900 -0.146400 1 0 1.000000 
0 -0.723403 65.286903 24.514900 -0.866309 -0.037400 -0.498105 0.498900 -0.133300 1 0 1.000000 
handrail01_exterior_system
0 -0.723403 68.743301 23.726200 -0.868161 -0.180792 -0.462179 0.714900 -0.158000 1 0 1.000000 
0 -0.000003 68.562103 23.349899 0.000000 -0.433885 -0.900968 0.703600 -0.169700 1 0 1.000000 
0 -0.000003 65.286903 24.097200 0.001800 -0.112297 -0.993673 0.498900 -0.146400 1 0 1.000000 
handrail01_exterior_system
0 -0.000003 68.562103 23.349899 0.000000 -0.433885 -0.900968 0.703600 -0.169700 1 0 1.000000 
0 0.723397 65.286903 24.514900 0.865422 -0.074902 -0.495413 0.498900 -0.133300 1 0 1.000000 
0 -0.000003 65.286903 24.097200 0.001800 -0.112297 -0.993673 0.498900 -0.146400 1 0 1.000000 
handrail01_exterior_system
0 -0.000003 68.562103 23.349899 0.000000 -0.433885 -0.900968 0.703600 -0.169700 1 0 1.000000 
0 0.723397 68.743301 23.726200 0.868181 -0.248595 -0.429491 0.714900 -0.158000 1 0 1.000000 
0 0.723397 65.286903 24.514900 0.865422 -0.074902 -0.495413 0.498900 -0.133300 1 0 1.000000 
handrail01_exterior_system
0 0.723397 68.743301 23.726200 0.868181 -0.248595 -0.429491 0.714900 -0.158000 1 0 1.000000 
0 0.723397 65.286903 25.350201 0.866309 0.037400 0.498105 0.498900 -0.107200 1 0 1.000000 
0 0.723397 65.286903 24.514900 0.865422 -0.074902 -0.495413 0.498900 -0.133300 1 0 1.000000 
handrail01_exterior_system
0 0.723397 68.743301 23.726200 0.868181 -0.248595 -0.429491 0.714900 -0.158000 1 0 1.000000 
0 0.723397 69.105797 24.478800 0.868161 0.180792 0.462179 0.737500 -0.134400 1 0 1.000000 
0 0.723397 65.286903 25.350201 0.866309 0.037400 0.498105 0.498900 -0.107200 1 0 1.000000 
handrail01_exterior_system
0 0.723397 69.105797 24.478800 0.868161 0.180792 0.462179 0.737500 -0.134400 1 0 1.000000 
0 -0.000003 65.286903 25.767900 -0.001800 0.112297 0.993673 0.498900 -0.094200 1 0 1.000000 
0 0.723397 65.286903 25.350201 0.866309 0.037400 0.498105 0.498900 -0.107200 1 0 1.000000 
handrail01_exterior_system
0 0.723397 69.105797 24.478800 0.868161 0.180792 0.462179 0.737500 -0.134400 1 0 1.000000 
0 -0.000003 69.287003 24.855101 -0.000000 0.433885 0.900968 0.748900 -0.122700 1 0 1.000000 
0 -0.000003 65.286903 25.767900 -0.001800 0.112297 0.993673 0.498900 -0.094200 1 0 1.000000 
handrail01_exterior_system
0 -0.000003 69.287003 24.855101 -0.000000 0.433885 0.900968 0.748900 -0.122700 1 0 1.000000 
0 -0.723403 65.286903 25.350201 -0.865422 0.074902 0.495413 0.498900 -0.107200 1 0 1.000000 
0 -0.000003 65.286903 25.767900 -0.001800 0.112297 0.993673 0.498900 -0.094200 1 0 1.000000 
handrail01_exterior_system
0 -0.000003 69.287003 24.855101 -0.000000 0.433885 0.900968 0.748900 -0.122700 1 0 1.000000 
0 -0.723403 69.105797 24.478800 -0.868181 0.248595 0.429491 0.737500 -0.134400 1 0 1.000000 
0 -0.723403 65.286903 25.350201 -0.865422 0.074902 0.495413 0.498900 -0.107200 1 0 1.000000 
handrail01_exterior_system
0 -0.000003 72.494003 22.297600 -0.000000 0.781814 0.623511 0.949300 -0.202600 1 0 1.000000 
0 -0.723403 69.105797 24.478800 -0.868181 0.248595 0.429491 0.737500 -0.134400 1 0 1.000000 
0 -0.000003 69.287003 24.855101 -0.000000 0.433885 0.900968 0.748900 -0.122700 1 0 1.000000 
handrail01_exterior_system
0 -0.000003 72.494003 22.297600 -0.000000 0.781814 0.623511 0.949300 -0.202600 1 0 1.000000 
0 -0.723403 72.167397 22.037201 -0.868158 0.410380 0.279087 0.928900 -0.210700 1 0 1.000000 
0 -0.723403 69.105797 24.478800 -0.868181 0.248595 0.429491 0.737500 -0.134400 1 0 1.000000 
handrail01_exterior_system
0 -0.000003 74.273697 18.601900 -0.000000 0.974931 0.222507 1.060500 -0.318100 1 0 1.000000 
0 -0.723403 72.167397 22.037201 -0.868158 0.410380 0.279087 0.928900 -0.210700 1 0 1.000000 
0 -0.000003 72.494003 22.297600 -0.000000 0.781814 0.623511 0.949300 -0.202600 1 0 1.000000 
handrail01_exterior_system
0 -0.000003 74.273697 18.601900 -0.000000 0.974931 0.222507 1.060500 -0.318100 1 0 1.000000 
0 -0.723403 73.866501 18.509001 -0.868181 0.490789 0.073398 1.035100 -0.321000 1 0 1.000000 
0 -0.723403 72.167397 22.037201 -0.868158 0.410380 0.279087 0.928900 -0.210700 1 0 1.000000 
handrail01_exterior_system
0 -0.000003 74.273697 14.500100 -0.000000 0.974931 -0.222507 1.060500 -0.446300 1 0 1.000000 
0 -0.723403 73.866501 18.509001 -0.868181 0.490789 0.073398 1.035100 -0.321000 1 0 1.000000 
0 -0.000003 74.273697 18.601900 -0.000000 0.974931 0.222507 1.060500 -0.318100 1 0 1.000000 
handrail01_exterior_system
0 -0.000003 74.273697 14.500100 -0.000000 0.974931 -0.222507 1.060500 -0.446300 1 0 1.000000 
0 -0.723403 73.866501 14.593000 -0.868160 0.474078 -0.146793 1.035100 -0.443400 1 0 1.000000 
0 -0.723403 73.866501 18.509001 -0.868181 0.490789 0.073398 1.035100 -0.321000 1 0 1.000000 
handrail01_exterior_system
0 -0.604100 -0.286200 24.911301 -0.755892 0.654693 0.001700 0.916700 -0.027200 1 0 1.000000 
0 0.026800 0.121700 0.000000 -0.188995 0.981976 0.001700 0.750000 -0.416500 1 0 1.000000 
0 -0.641900 -0.264400 0.000000 -0.944917 0.327306 0.001700 0.916700 -0.416500 1 0 1.000000 
handrail01_exterior_system
0 -0.604100 -0.286200 24.911301 -0.755892 0.654693 0.001700 0.916700 -0.027200 1 0 1.000000 
0 0.026800 0.078000 24.911301 0.188995 0.981976 0.001700 0.750000 -0.027200 1 0 1.000000 
0 0.026800 0.121700 0.000000 -0.188995 0.981976 0.001700 0.750000 -0.416500 1 0 1.000000 
handrail01_exterior_system
0 0.026800 0.078000 24.911301 0.188995 0.981976 0.001700 0.750000 -0.027200 1 0 1.000000 
0 0.695600 -0.264400 0.000000 0.755892 0.654693 0.001700 0.583300 -0.416500 1 0 1.000000 
0 0.026800 0.121700 0.000000 -0.188995 0.981976 0.001700 0.750000 -0.416500 1 0 1.000000 
handrail01_exterior_system
0 0.026800 0.078000 24.911301 0.188995 0.981976 0.001700 0.750000 -0.027200 1 0 1.000000 
0 0.657800 -0.286200 24.911301 0.944917 0.327306 0.001700 0.583300 -0.027200 1 0 1.000000 
0 0.695600 -0.264400 0.000000 0.755892 0.654693 0.001700 0.583300 -0.416500 1 0 1.000000 
handrail01_exterior_system
0 0.657800 -0.286200 24.911301 0.944917 0.327306 0.001700 0.583300 -0.027200 1 0 1.000000 
0 0.695600 -1.036600 0.000000 0.944917 -0.327306 0.001700 0.416700 -0.416500 1 0 1.000000 
0 0.695600 -0.264400 0.000000 0.755892 0.654693 0.001700 0.583300 -0.416500 1 0 1.000000 
handrail01_exterior_system
0 0.657800 -0.286200 24.911301 0.944917 0.327306 0.001700 0.583300 -0.027200 1 0 1.000000 
0 0.657800 -1.014700 24.911301 0.755892 -0.654693 0.001700 0.416700 -0.027200 1 0 1.000000 
0 0.695600 -1.036600 0.000000 0.944917 -0.327306 0.001700 0.416700 -0.416500 1 0 1.000000 
handrail01_exterior_system
0 0.657800 -1.014700 24.911301 0.755892 -0.654693 0.001700 0.416700 -0.027200 1 0 1.000000 
0 0.026800 -1.422700 0.000000 0.188995 -0.981976 0.001700 0.250000 -0.416500 1 0 1.000000 
0 0.695600 -1.036600 0.000000 0.944917 -0.327306 0.001700 0.416700 -0.416500 1 0 1.000000 
handrail01_exterior_system
0 0.657800 -1.014700 24.911301 0.755892 -0.654693 0.001700 0.416700 -0.027200 1 0 1.000000 
0 0.026800 -1.379000 24.911301 -0.188995 -0.981976 0.001700 0.250000 -0.027200 1 0 1.000000 
0 0.026800 -1.422700 0.000000 0.188995 -0.981976 0.001700 0.250000 -0.416500 1 0 1.000000 
handrail01_exterior_system
0 0.026800 -1.379000 24.911301 -0.188995 -0.981976 0.001700 0.250000 -0.027200 1 0 1.000000 
0 -0.641900 -1.036600 0.000000 -0.755892 -0.654693 0.001700 0.083300 -0.416500 1 0 1.000000 
0 0.026800 -1.422700 0.000000 0.188995 -0.981976 0.001700 0.250000 -0.416500 1 0 1.000000 
handrail01_exterior_system
0 0.026800 -1.379000 24.911301 -0.188995 -0.981976 0.001700 0.250000 -0.027200 1 0 1.000000 
0 -0.604100 -1.014700 24.911301 -0.944917 -0.327306 0.001700 0.083300 -0.027200 1 0 1.000000 
0 -0.641900 -1.036600 0.000000 -0.755892 -0.654693 0.001700 0.083300 -0.416500 1 0 1.000000 
handrail01_exterior_system
0 -0.604100 -1.014700 24.911301 -0.944917 -0.327306 0.001700 0.083300 -0.027200 1 0 1.000000 
0 -0.641900 -0.264400 0.000000 -0.944917 0.327306 0.001700 -0.083300 -0.416500 1 0 1.000000 
0 -0.641900 -1.036600 0.000000 -0.755892 -0.654693 0.001700 0.083300 -0.416500 1 0 1.000000 
handrail01_exterior_system
0 -0.604100 -1.014700 24.911301 -0.944917 -0.327306 0.001700 0.083300 -0.027200 1 0 1.000000 
0 -0.604100 -0.286200 24.911301 -0.755892 0.654693 0.001700 -0.083300 -0.027200 1 0 1.000000 
0 -0.641900 -0.264400 0.000000 -0.944917 0.327306 0.001700 -0.083300 -0.416500 1 0 1.000000 
handrail01_exterior_system
0 -0.673402 44.170200 24.911301 -0.755893 0.654694 0.000700 0.916700 -0.041800 1 0 1.000000 
0 -0.026802 44.556301 0.000000 -0.188996 0.981978 0.000200 0.750000 -0.431000 1 0 1.000000 
0 -0.695602 44.170200 0.000000 -0.944918 0.327306 0.000800 0.916700 -0.431000 1 0 1.000000 
handrail01_exterior_system
0 -0.673402 44.170200 24.911301 -0.755893 0.654694 0.000700 0.916700 -0.041800 1 0 1.000000 
0 -0.004702 44.556301 24.911301 0.188996 0.981978 -0.000200 0.750000 -0.041800 1 0 1.000000 
0 -0.026802 44.556301 0.000000 -0.188996 0.981978 0.000200 0.750000 -0.431000 1 0 1.000000 
handrail01_exterior_system
0 -0.004702 44.556301 24.911301 0.188996 0.981978 -0.000200 0.750000 -0.041800 1 0 1.000000 
0 0.641898 44.170200 0.000000 0.755893 0.654694 -0.000700 0.583300 -0.431000 1 0 1.000000 
0 -0.026802 44.556301 0.000000 -0.188996 0.981978 0.000200 0.750000 -0.431000 1 0 1.000000 
handrail01_exterior_system
0 -0.004702 44.556301 24.911301 0.188996 0.981978 -0.000200 0.750000 -0.041800 1 0 1.000000 
0 0.664098 44.170200 24.911301 0.944918 0.327306 -0.000800 0.583300 -0.041800 1 0 1.000000 
0 0.641898 44.170200 0.000000 0.755893 0.654694 -0.000700 0.583300 -0.431000 1 0 1.000000 
handrail01_exterior_system
0 0.664098 44.170200 24.911301 0.944918 0.327306 -0.000800 0.583300 -0.041800 1 0 1.000000 
0 0.641898 43.397999 0.000000 0.944918 -0.327306 -0.000800 0.416700 -0.431000 1 0 1.000000 
0 0.641898 44.170200 0.000000 0.755893 0.654694 -0.000700 0.583300 -0.431000 1 0 1.000000 
handrail01_exterior_system
0 0.664098 44.170200 24.911301 0.944918 0.327306 -0.000800 0.583300 -0.041800 1 0 1.000000 
0 0.664098 43.397999 24.911301 0.755893 -0.654694 -0.000700 0.416700 -0.041800 1 0 1.000000 
0 0.641898 43.397999 0.000000 0.944918 -0.327306 -0.000800 0.416700 -0.431000 1 0 1.000000 
handrail01_exterior_system
0 0.664098 43.397999 24.911301 0.755893 -0.654694 -0.000700 0.416700 -0.041800 1 0 1.000000 
0 -0.026802 43.011902 0.000000 0.188996 -0.981978 -0.000200 0.250000 -0.431000 1 0 1.000000 
0 0.641898 43.397999 0.000000 0.944918 -0.327306 -0.000800 0.416700 -0.431000 1 0 1.000000 
handrail01_exterior_system
0 0.664098 43.397999 24.911301 0.755893 -0.654694 -0.000700 0.416700 -0.041800 1 0 1.000000 
0 -0.004702 43.011902 24.911301 -0.188996 -0.981978 0.000200 0.250000 -0.041800 1 0 1.000000 
0 -0.026802 43.011902 0.000000 0.188996 -0.981978 -0.000200 0.250000 -0.431000 1 0 1.000000 
handrail01_exterior_system
0 -0.004702 43.011902 24.911301 -0.188996 -0.981978 0.000200 0.250000 -0.041800 1 0 1.000000 
0 -0.695602 43.397999 0.000000 -0.755893 -0.654694 0.000700 0.083300 -0.431000 1 0 1.000000 
0 -0.026802 43.011902 0.000000 0.188996 -0.981978 -0.000200 0.250000 -0.431000 1 0 1.000000 
handrail01_exterior_system
0 -0.004702 43.011902 24.911301 -0.188996 -0.981978 0.000200 0.250000 -0.041800 1 0 1.000000 
0 -0.673402 43.397999 24.911301 -0.944918 -0.327306 0.000800 0.083300 -0.041800 1 0 1.000000 
0 -0.695602 43.397999 0.000000 -0.755893 -0.654694 0.000700 0.083300 -0.431000 1 0 1.000000 
handrail01_exterior_system
0 -0.673402 43.397999 24.911301 -0.944918 -0.327306 0.000800 0.083300 -0.041800 1 0 1.000000 
0 -0.695602 44.170200 0.000000 -0.944918 0.327306 0.000800 -0.083300 -0.431000 1 0 1.000000 
0 -0.695602 43.397999 0.000000 -0.755893 -0.654694 0.000700 0.083300 -0.431000 1 0 1.000000 
handrail01_exterior_system
0 -0.673402 43.397999 24.911301 -0.944918 -0.327306 0.000800 0.083300 -0.041800 1 0 1.000000 
0 -0.673402 44.170200 24.911301 -0.755893 0.654694 0.000700 -0.083300 -0.041800 1 0 1.000000 
0 -0.695602 44.170200 0.000000 -0.944918 0.327306 0.000800 -0.083300 -0.431000 1 0 1.000000 
handrail01_exterior_system
0 -0.641898 -42.771198 24.911301 -0.755894 0.654694 0.000000 0.906400 -0.305400 1 0 1.000000 
0 0.026802 -42.385101 0.000000 -0.188996 0.981978 0.000000 0.750000 -0.694600 1 0 1.000000 
0 -0.641898 -42.771198 0.000000 -0.944918 0.327306 0.000000 0.906400 -0.694600 1 0 1.000000 
handrail01_exterior_system
0 -0.641898 -42.771198 24.911301 -0.755894 0.654694 0.000000 0.906400 -0.305400 1 0 1.000000 
0 0.026802 -42.385101 24.911301 0.188996 0.981978 0.000000 0.750000 -0.305400 1 0 1.000000 
0 0.026802 -42.385101 0.000000 -0.188996 0.981978 0.000000 0.750000 -0.694600 1 0 1.000000 
handrail01_exterior_system
0 0.026802 -42.385101 24.911301 0.188996 0.981978 0.000000 0.750000 -0.305400 1 0 1.000000 
0 0.695602 -42.771198 0.000000 0.755894 0.654694 0.000000 0.593600 -0.694600 1 0 1.000000 
0 0.026802 -42.385101 0.000000 -0.188996 0.981978 0.000000 0.750000 -0.694600 1 0 1.000000 
handrail01_exterior_system
0 0.026802 -42.385101 24.911301 0.188996 0.981978 0.000000 0.750000 -0.305400 1 0 1.000000 
0 0.695602 -42.771198 24.911301 0.944918 0.327306 0.000000 0.593600 -0.305400 1 0 1.000000 
0 0.695602 -42.771198 0.000000 0.755894 0.654694 0.000000 0.593600 -0.694600 1 0 1.000000 
handrail01_exterior_system
0 0.695602 -42.771198 24.911301 0.944918 0.327306 0.000000 0.593600 -0.305400 1 0 1.000000 
0 0.695602 -43.543400 0.000000 0.944918 -0.327306 0.000000 0.406400 -0.694600 1 0 1.000000 
0 0.695602 -42.771198 0.000000 0.755894 0.654694 0.000000 0.593600 -0.694600 1 0 1.000000 
handrail01_exterior_system
0 0.695602 -42.771198 24.911301 0.944918 0.327306 0.000000 0.593600 -0.305400 1 0 1.000000 
0 0.695602 -43.543400 24.911301 0.755894 -0.654694 0.000000 0.406400 -0.305400 1 0 1.000000 
0 0.695602 -43.543400 0.000000 0.944918 -0.327306 0.000000 0.406400 -0.694600 1 0 1.000000 
handrail01_exterior_system
0 0.695602 -43.543400 24.911301 0.755894 -0.654694 0.000000 0.406400 -0.305400 1 0 1.000000 
0 0.026802 -43.929501 0.000000 0.188996 -0.981978 0.000000 0.250000 -0.694600 1 0 1.000000 
0 0.695602 -43.543400 0.000000 0.944918 -0.327306 0.000000 0.406400 -0.694600 1 0 1.000000 
handrail01_exterior_system
0 0.695602 -43.543400 24.911301 0.755894 -0.654694 0.000000 0.406400 -0.305400 1 0 1.000000 
0 0.026802 -43.929501 24.911301 -0.188996 -0.981978 0.000000 0.250000 -0.305400 1 0 1.000000 
0 0.026802 -43.929501 0.000000 0.188996 -0.981978 0.000000 0.250000 -0.694600 1 0 1.000000 
handrail01_exterior_system
0 0.026802 -43.929501 24.911301 -0.188996 -0.981978 0.000000 0.250000 -0.305400 1 0 1.000000 
0 -0.641898 -43.543400 0.000000 -0.755894 -0.654694 0.000000 0.093600 -0.694600 1 0 1.000000 
0 0.026802 -43.929501 0.000000 0.188996 -0.981978 0.000000 0.250000 -0.694600 1 0 1.000000 
handrail01_exterior_system
0 0.026802 -43.929501 24.911301 -0.188996 -0.981978 0.000000 0.250000 -0.305400 1 0 1.000000 
0 -0.641898 -43.543400 24.911301 -0.944918 -0.327306 0.000000 0.093600 -0.305400 1 0 1.000000 
0 -0.641898 -43.543400 0.000000 -0.755894 -0.654694 0.000000 0.093600 -0.694600 1 0 1.000000 
handrail01_exterior_system
0 -0.641898 -43.543400 24.911301 -0.944918 -0.327306 0.000000 0.093600 -0.305400 1 0 1.000000 
0 -0.641898 -42.771198 0.000000 -0.944918 0.327306 0.000000 -0.093600 -0.694600 1 0 1.000000 
0 -0.641898 -43.543400 0.000000 -0.755894 -0.654694 0.000000 0.093600 -0.694600 1 0 1.000000 
handrail01_exterior_system
0 -0.641898 -43.543400 24.911301 -0.944918 -0.327306 0.000000 0.093600 -0.305400 1 0 1.000000 
0 -0.641898 -42.771198 24.911301 -0.755894 0.654694 0.000000 -0.093600 -0.305400 1 0 1.000000 
0 -0.641898 -42.771198 0.000000 -0.944918 0.327306 0.000000 -0.093600 -0.694600 1 0 1.000000 
handrail01_exterior_system
0 -0.723397 -64.813004 24.514900 -0.865422 0.074902 -0.495413 0.083300 0.999000 1 0 1.000000 
0 -0.723397 -64.813004 25.350201 -0.866309 -0.037400 0.498105 -0.083300 0.999000 1 0 1.000000 
0 -0.723403 65.286903 25.350201 -0.865422 0.074902 0.495413 -0.083300 -0.999000 1 0 1.000000 
handrail01_exterior_system
0 -0.723403 65.286903 25.350201 -0.865422 0.074902 0.495413 -0.083300 -0.999000 1 0 1.000000 
0 -0.723403 65.286903 24.514900 -0.866309 -0.037400 -0.498105 0.083300 -0.999000 1 0 1.000000 
0 -0.723397 -64.813004 24.514900 -0.865422 0.074902 -0.495413 0.083300 0.999000 1 0 1.000000 
handrail01_exterior_system
0 0.000003 -64.813004 24.097300 -0.001800 0.112297 -0.993673 0.250000 0.999000 1 0 1.000000 
0 -0.723397 -64.813004 24.514900 -0.865422 0.074902 -0.495413 0.083300 0.999000 1 0 1.000000 
0 -0.723403 65.286903 24.514900 -0.866309 -0.037400 -0.498105 0.083300 -0.999000 1 0 1.000000 
handrail01_exterior_system
0 -0.723403 65.286903 24.514900 -0.866309 -0.037400 -0.498105 0.083300 -0.999000 1 0 1.000000 
0 -0.000003 65.286903 24.097200 0.001800 -0.112297 -0.993673 0.250000 -0.999000 1 0 1.000000 
0 0.000003 -64.813004 24.097300 -0.001800 0.112297 -0.993673 0.250000 0.999000 1 0 1.000000 
handrail01_exterior_system
0 0.723403 -64.813004 24.514900 0.866309 0.037400 -0.498105 0.416700 0.999000 1 0 1.000000 
0 0.000003 -64.813004 24.097300 -0.001800 0.112297 -0.993673 0.250000 0.999000 1 0 1.000000 
0 -0.000003 65.286903 24.097200 0.001800 -0.112297 -0.993673 0.250000 -0.999000 1 0 1.000000 
handrail01_exterior_system
0 -0.000003 65.286903 24.097200 0.001800 -0.112297 -0.993673 0.250000 -0.999000 1 0 1.000000 
0 0.723397 65.286903 24.514900 0.865422 -0.074902 -0.495413 0.416700 -0.999000 1 0 1.000000 
0 0.723403 -64.813004 24.514900 0.866309 0.037400 -0.498105 0.416700 0.999000 1 0 1.000000 
handrail01_exterior_system
0 0.723403 -64.813004 25.350201 0.865422 -0.074902 0.495413 0.583300 0.999000 1 0 1.000000 
0 0.723403 -64.813004 24.514900 0.866309 0.037400 -0.498105 0.416700 0.999000 1 0 1.000000 
0 0.723397 65.286903 24.514900 0.865422 -0.074902 -0.495413 0.416700 -0.999000 1 0 1.000000 
handrail01_exterior_system
0 0.723397 65.286903 24.514900 0.865422 -0.074902 -0.495413 0.416700 -0.999000 1 0 1.000000 
0 0.723397 65.286903 25.350201 0.866309 0.037400 0.498105 0.583300 -0.999000 1 0 1.000000 
0 0.723403 -64.813004 25.350201 0.865422 -0.074902 0.495413 0.583300 0.999000 1 0 1.000000 
handrail01_exterior_system
0 0.000003 -64.813004 25.767900 0.001800 -0.112297 0.993673 0.750000 0.999000 1 0 1.000000 
0 0.723403 -64.813004 25.350201 0.865422 -0.074902 0.495413 0.583300 0.999000 1 0 1.000000 
0 0.723397 65.286903 25.350201 0.866309 0.037400 0.498105 0.583300 -0.999000 1 0 1.000000 
handrail01_exterior_system
0 0.723397 65.286903 25.350201 0.866309 0.037400 0.498105 0.583300 -0.999000 1 0 1.000000 
0 -0.000003 65.286903 25.767900 -0.001800 0.112297 0.993673 0.750000 -0.999000 1 0 1.000000 
0 0.000003 -64.813004 25.767900 0.001800 -0.112297 0.993673 0.750000 0.999000 1 0 1.000000 
handrail01_exterior_system
0 -0.723397 -64.813004 25.350201 -0.866309 -0.037400 0.498105 0.916700 0.999000 1 0 1.000000 
0 0.000003 -64.813004 25.767900 0.001800 -0.112297 0.993673 0.750000 0.999000 1 0 1.000000 
0 -0.000003 65.286903 25.767900 -0.001800 0.112297 0.993673 0.750000 -0.999000 1 0 1.000000 
handrail01_exterior_system
0 -0.000003 65.286903 25.767900 -0.001800 0.112297 0.993673 0.750000 -0.999000 1 0 1.000000 
0 -0.723403 65.286903 25.350201 -0.865422 0.074902 0.495413 0.916700 -0.999000 1 0 1.000000 
0 -0.723397 -64.813004 25.350201 -0.866309 -0.037400 0.498105 0.916700 0.999000 1 0 1.000000 
handrail01_exterior_system
0 0.009302 -43.376598 9.004800 -0.195000 0.001300 0.980802 0.750000 -0.664900 1 0 1.000000 
0 -0.598598 -43.376598 8.587100 -0.952082 0.005500 0.305794 0.916700 -0.664900 1 0 1.000000 
0 -0.723397 -64.813004 8.587100 -0.872811 0.038900 0.486506 0.916700 -0.335100 1 0 1.000000 
handrail01_exterior_system
0 -0.723397 -64.813004 8.587100 -0.872811 0.038900 0.486506 0.916700 -0.335100 1 0 1.000000 
0 0.000003 -64.813004 9.004800 0.014700 0.113701 0.993406 0.750000 -0.335100 1 0 1.000000 
0 0.009302 -43.376598 9.004800 -0.195000 0.001300 0.980802 0.750000 -0.664900 1 0 1.000000 
handrail01_exterior_system
0 0.617202 -43.376598 8.587100 0.773990 0.002700 0.633192 0.583300 -0.664900 1 0 1.000000 
0 0.009302 -43.376598 9.004800 -0.195000 0.001300 0.980802 0.750000 -0.664900 1 0 1.000000 
0 0.000003 -64.813004 9.004800 0.014700 0.113701 0.993406 0.750000 -0.335100 1 0 1.000000 
handrail01_exterior_system
0 0.000003 -64.813004 9.004800 0.014700 0.113701 0.993406 0.750000 -0.335100 1 0 1.000000 
0 0.723403 -64.813004 8.587100 0.865282 0.077298 0.495290 0.583300 -0.335100 1 0 1.000000 
0 0.617202 -43.376598 8.587100 0.773990 0.002700 0.633192 0.583300 -0.664900 1 0 1.000000 
handrail01_exterior_system
0 0.617202 -43.376598 7.751800 0.952086 0.004700 -0.305795 0.416700 -0.664900 1 0 1.000000 
0 0.617202 -43.376598 8.587100 0.773990 0.002700 0.633192 0.583300 -0.664900 1 0 1.000000 
0 0.723403 -64.813004 8.587100 0.865282 0.077298 0.495290 0.583300 -0.335100 1 0 1.000000 
handrail01_exterior_system
0 0.723403 -64.813004 8.587100 0.865282 0.077298 0.495290 0.583300 -0.335100 1 0 1.000000 
0 0.723403 -64.813004 7.751800 0.872939 -0.035702 -0.486522 0.416700 -0.335100 1 0 1.000000 
0 0.617202 -43.376598 7.751800 0.952086 0.004700 -0.305795 0.416700 -0.664900 1 0 1.000000 
handrail01_exterior_system
0 0.009302 -43.376598 7.334100 0.195000 0.001100 -0.980802 0.250000 -0.664900 1 0 1.000000 
0 0.617202 -43.376598 7.751800 0.952086 0.004700 -0.305795 0.416700 -0.664900 1 0 1.000000 
0 0.723403 -64.813004 7.751800 0.872939 -0.035702 -0.486522 0.416700 -0.335100 1 0 1.000000 
handrail01_exterior_system
0 0.723403 -64.813004 7.751800 0.872939 -0.035702 -0.486522 0.416700 -0.335100 1 0 1.000000 
0 0.000003 -64.813004 7.334100 -0.014700 -0.112604 -0.993531 0.250000 -0.335100 1 0 1.000000 
0 0.009302 -43.376598 7.334100 0.195000 0.001100 -0.980802 0.250000 -0.664900 1 0 1.000000 
handrail01_exterior_system
0 -0.598598 -43.376598 7.751800 -0.773988 0.003400 -0.633191 0.083300 -0.664900 1 0 1.000000 
0 0.009302 -43.376598 7.334100 0.195000 0.001100 -0.980802 0.250000 -0.664900 1 0 1.000000 
0 0.000003 -64.813004 7.334100 -0.014700 -0.112604 -0.993531 0.250000 -0.335100 1 0 1.000000 
handrail01_exterior_system
0 0.000003 -64.813004 7.334100 -0.014700 -0.112604 -0.993531 0.250000 -0.335100 1 0 1.000000 
0 -0.723397 -64.813004 7.751800 -0.865608 -0.072101 -0.495504 0.083300 -0.335100 1 0 1.000000 
0 -0.598598 -43.376598 7.751800 -0.773988 0.003400 -0.633191 0.083300 -0.664900 1 0 1.000000 
handrail01_exterior_system
0 -0.598598 -43.376598 8.587100 -0.952082 0.005500 0.305794 -0.083300 -0.664900 1 0 1.000000 
0 -0.598598 -43.376598 7.751800 -0.773988 0.003400 -0.633191 0.083300 -0.664900 1 0 1.000000 
0 -0.723397 -64.813004 7.751800 -0.865608 -0.072101 -0.495504 0.083300 -0.335100 1 0 1.000000 
handrail01_exterior_system
0 -0.723397 -64.813004 7.751800 -0.865608 -0.072101 -0.495504 0.083300 -0.335100 1 0 1.000000 
0 -0.723397 -64.813004 8.587100 -0.872811 0.038900 0.486506 -0.083300 -0.335100 1 0 1.000000 
0 -0.598598 -43.376598 8.587100 -0.952082 0.005500 0.305794 -0.083300 -0.664900 1 0 1.000000 
end
