// Created by Crowbar 0.50.0.0
version 1
nodes
  0 "static_prop" -1
end
skeleton
  time 0
    0 0.000000 0.000000 0.000000 0.000000 0.000000 0.000000
end
triangles
case
  0 -5.445400 -13.958100 9.246500 -0.987230 0.106903 -0.118104 0.242300 0.088000 1 0 1.000000
  0 -3.150599 -10.150000 11.479100 -0.798888 0.567291 0.199897 0.151100 0.171400 1 0 1.000000
  0 -5.079800 -13.239900 6.841400 -0.854591 0.048899 0.516994 0.291800 0.110700 1 0 1.000000
case
  0 -10.504400 3.546000 5.266500 -0.911884 -0.279695 0.300395 0.660900 0.390100 1 0 1.000000
  0 -9.506000 2.603800 6.945500 -0.863872 -0.272891 0.423386 0.523800 0.363800 1 0 1.000000
  0 -13.585901 11.961099 2.922900 -0.867883 -0.405692 0.286694 0.846200 0.524200 1 0 1.000000
case
  0 -9.506000 2.603800 6.945500 -0.863872 -0.272891 0.423386 0.523800 0.363800 1 0 1.000000
  0 -10.504400 3.546000 5.266500 -0.911884 -0.279695 0.300395 0.660900 0.390100 1 0 1.000000
  0 -7.636400 -5.798400 4.092000 -0.937889 -0.191198 0.289496 0.499700 0.232400 1 0 1.000000
case
  0 -8.134800 -5.514400 1.278700 -0.993758 -0.006000 0.111395 0.600100 0.242600 1 0 1.000000
  0 -7.636400 -5.798400 4.092000 -0.937889 -0.191198 0.289496 0.499700 0.232400 1 0 1.000000
  0 -10.504400 3.546000 5.266500 -0.911884 -0.279695 0.300395 0.660900 0.390100 1 0 1.000000
case
  0 -7.636400 -5.798400 4.092000 -0.937889 -0.191198 0.289496 0.499700 0.232400 1 0 1.000000
  0 -8.134800 -5.514400 1.278700 -0.993758 -0.006000 0.111395 0.600100 0.242600 1 0 1.000000
  0 -9.109600 -10.890200 -0.612700 -0.910918 0.374007 0.174203 0.644000 0.143500 1 0 1.000000
case
  0 -6.311399 -6.566700 6.823900 -0.849273 -0.207693 0.485385 0.375500 0.220800 1 0 1.000000
  0 -7.636400 -5.798400 4.092000 -0.937889 -0.191198 0.289496 0.499700 0.232400 1 0 1.000000
  0 -9.109600 -10.890200 -0.612700 -0.910918 0.374007 0.174203 0.644000 0.143500 1 0 1.000000
case
  0 -9.109600 -10.890200 -0.612700 -0.910918 0.374007 0.174203 0.644000 0.143500 1 0 1.000000
  0 -7.371500 -10.745300 3.160400 -0.789217 0.261806 0.555512 0.483900 0.148400 1 0 1.000000
  0 -6.311399 -6.566700 6.823900 -0.849273 -0.207693 0.485385 0.375500 0.220800 1 0 1.000000
case
  0 -7.371500 -10.745300 3.160400 -0.789217 0.261806 0.555512 0.483900 0.148400 1 0 1.000000
  0 -5.079800 -13.239900 6.841400 -0.854591 0.048899 0.516994 0.291800 0.110700 1 0 1.000000
  0 -6.311399 -6.566700 6.823900 -0.849273 -0.207693 0.485385 0.375500 0.220800 1 0 1.000000
case
  0 -7.371500 -10.745300 3.160400 -0.789217 0.261806 0.555512 0.483900 0.148400 1 0 1.000000
  0 -8.609799 -14.258500 3.845200 -0.747306 -0.162101 0.644405 0.471300 0.072300 1 0 1.000000
  0 -5.079800 -13.239900 6.841400 -0.854591 0.048899 0.516994 0.291800 0.110700 1 0 1.000000
case
  0 -7.636400 -5.798400 4.092000 -0.937889 -0.191198 0.289496 0.499700 0.232400 1 0 1.000000
  0 -6.311399 -6.566700 6.823900 -0.849273 -0.207693 0.485385 0.375500 0.220800 1 0 1.000000
  0 -9.506000 2.603800 6.945500 -0.863872 -0.272891 0.423386 0.523800 0.363800 1 0 1.000000
case
  0 -9.728699 -12.163600 2.092900 -0.813182 0.370692 0.448690 0.570200 0.106400 1 0 1.000000
  0 -7.371500 -10.745300 3.160400 -0.789217 0.261806 0.555512 0.483900 0.148400 1 0 1.000000
  0 -9.109600 -10.890200 -0.612700 -0.910918 0.374007 0.174203 0.644000 0.143500 1 0 1.000000
case
  0 -9.239399 -11.533000 -3.391100 -0.843904 0.530003 -0.083200 0.726400 0.140000 1 0 1.000000
  0 -9.109600 -10.890200 -0.612700 -0.910918 0.374007 0.174203 0.644000 0.143500 1 0 1.000000
  0 -8.134800 -5.514400 1.278700 -0.993758 -0.006000 0.111395 0.600100 0.242600 1 0 1.000000
case
  0 -9.109600 -10.890200 -0.612700 -0.910918 0.374007 0.174203 0.644000 0.143500 1 0 1.000000
  0 -9.239399 -11.533000 -3.391100 -0.843904 0.530003 -0.083200 0.726400 0.140000 1 0 1.000000
  0 -10.693999 -12.652900 -3.783600 -0.719799 0.693699 -0.025900 0.769800 0.108800 1 0 1.000000
case
  0 -9.109600 -10.890200 -0.612700 -0.910918 0.374007 0.174203 0.644000 0.143500 1 0 1.000000
  0 -10.693999 -12.652900 -3.783600 -0.719799 0.693699 -0.025900 0.769800 0.108800 1 0 1.000000
  0 -10.556999 -13.292100 0.511000 -0.895919 0.388608 0.215205 0.632200 0.084200 1 0 1.000000
case
  0 -10.556999 -13.292100 0.511000 -0.895919 0.388608 0.215205 0.632200 0.084200 1 0 1.000000
  0 -9.728699 -12.163600 2.092900 -0.813182 0.370692 0.448690 0.570200 0.106400 1 0 1.000000
  0 -9.109600 -10.890200 -0.612700 -0.910918 0.374007 0.174203 0.644000 0.143500 1 0 1.000000
case
  0 -9.728699 -12.163600 2.092900 -0.813182 0.370692 0.448690 0.570200 0.106400 1 0 1.000000
  0 -10.556999 -13.292100 0.511000 -0.895919 0.388608 0.215205 0.632200 0.084200 1 0 1.000000
  0 -10.070999 -14.807300 1.570900 -0.827666 -0.176093 0.532878 0.575800 0.057500 1 0 1.000000
case
  0 -13.585901 11.961099 2.922900 -0.867883 -0.405692 0.286694 0.846200 0.524200 1 0 1.000000
  0 -11.730000 10.747099 7.314600 -0.777669 -0.416083 0.471281 0.656000 0.494000 1 0 1.000000
  0 -17.870300 16.202299 2.232300 -0.887076 -0.279893 0.367090 0.999500 0.565900 1 0 1.000000
case
  0 -11.730000 10.747099 7.314600 -0.777669 -0.416083 0.471281 0.656000 0.494000 1 0 1.000000
  0 -13.585901 11.961099 2.922900 -0.867883 -0.405692 0.286694 0.846200 0.524200 1 0 1.000000
  0 -9.506000 2.603800 6.945500 -0.863872 -0.272891 0.423386 0.523800 0.363800 1 0 1.000000
case
  0 -9.506000 2.603800 6.945500 -0.863872 -0.272891 0.423386 0.523800 0.363800 1 0 1.000000
  0 -7.121900 1.066500 9.609200 -0.689784 -0.211995 0.692284 0.371200 0.342100 1 0 1.000000
  0 -11.730000 10.747099 7.314600 -0.777669 -0.416083 0.471281 0.656000 0.494000 1 0 1.000000
case
  0 -7.121900 1.066500 9.609200 -0.689784 -0.211995 0.692284 0.371200 0.342100 1 0 1.000000
  0 -9.506000 2.603800 6.945500 -0.863872 -0.272891 0.423386 0.523800 0.363800 1 0 1.000000
  0 -6.311399 -6.566700 6.823900 -0.849273 -0.207693 0.485385 0.375500 0.220800 1 0 1.000000
case
  0 -6.311399 -6.566700 6.823900 -0.849273 -0.207693 0.485385 0.375500 0.220800 1 0 1.000000
  0 -4.331600 -7.646200 8.930800 -0.532390 -0.308494 0.788285 0.249800 0.211100 1 0 1.000000
  0 -7.121900 1.066500 9.609200 -0.689784 -0.211995 0.692284 0.371200 0.342100 1 0 1.000000
case
  0 -4.331600 -7.646200 8.930800 -0.532390 -0.308494 0.788285 0.249800 0.211100 1 0 1.000000
  0 -6.311399 -6.566700 6.823900 -0.849273 -0.207693 0.485385 0.375500 0.220800 1 0 1.000000
  0 -5.079800 -13.239900 6.841400 -0.854591 0.048899 0.516994 0.291800 0.110700 1 0 1.000000
case
  0 -3.768300 -9.331500 8.262800 -0.653502 0.252401 0.713602 0.242000 0.187600 1 0 1.000000
  0 -4.331600 -7.646200 8.930800 -0.532390 -0.308494 0.788285 0.249800 0.211100 1 0 1.000000
  0 -5.079800 -13.239900 6.841400 -0.854591 0.048899 0.516994 0.291800 0.110700 1 0 1.000000
case
  0 -3.150599 -10.150000 11.479100 -0.798888 0.567291 0.199897 0.151100 0.171400 1 0 1.000000
  0 -3.768300 -9.331500 8.262800 -0.653502 0.252401 0.713602 0.242000 0.187600 1 0 1.000000
  0 -5.079800 -13.239900 6.841400 -0.854591 0.048899 0.516994 0.291800 0.110700 1 0 1.000000
case
  0 -3.768300 -9.331500 8.262800 -0.653502 0.252401 0.713602 0.242000 0.187600 1 0 1.000000
  0 -3.150599 -10.150000 11.479100 -0.798888 0.567291 0.199897 0.151100 0.171400 1 0 1.000000
  0 -0.700600 -9.363100 12.770800 -0.528092 0.766888 0.364694 0.043700 0.209700 1 0 1.000000
case
  0 -3.768300 -9.331500 8.262800 -0.653502 0.252401 0.713602 0.242000 0.187600 1 0 1.000000
  0 -0.700600 -9.363100 12.770800 -0.528092 0.766888 0.364694 0.043700 0.209700 1 0 1.000000
  0 -0.840900 -8.242500 10.798500 -0.516085 -0.062198 0.854276 0.091300 0.222300 1 0 1.000000
case
  0 -4.331600 -7.646200 8.930800 -0.532390 -0.308494 0.788285 0.249800 0.211100 1 0 1.000000
  0 -3.768300 -9.331500 8.262800 -0.653502 0.252401 0.713602 0.242000 0.187600 1 0 1.000000
  0 -0.840900 -8.242500 10.798500 -0.516085 -0.062198 0.854276 0.091300 0.222300 1 0 1.000000
case
  0 -4.331600 -7.646200 8.930800 -0.532390 -0.308494 0.788285 0.249800 0.211100 1 0 1.000000
  0 -0.840900 -8.242500 10.798500 -0.516085 -0.062198 0.854276 0.091300 0.222300 1 0 1.000000
  0 -4.220500 -0.564700 11.302100 -0.398689 -0.139096 0.906476 0.233800 0.328700 1 0 1.000000
case
  0 -4.220500 -0.564700 11.302100 -0.398689 -0.139096 0.906476 0.233800 0.328700 1 0 1.000000
  0 -7.121900 1.066500 9.609200 -0.689784 -0.211995 0.692284 0.371200 0.342100 1 0 1.000000
  0 -4.331600 -7.646200 8.930800 -0.532390 -0.308494 0.788285 0.249800 0.211100 1 0 1.000000
case
  0 -7.121900 1.066500 9.609200 -0.689784 -0.211995 0.692284 0.371200 0.342100 1 0 1.000000
  0 -4.220500 -0.564700 11.302100 -0.398689 -0.139096 0.906476 0.233800 0.328700 1 0 1.000000
  0 -7.552001 8.734600 10.198200 -0.515399 -0.174000 0.839099 0.445700 0.478000 1 0 1.000000
case
  0 -7.552001 8.734600 10.198200 -0.515399 -0.174000 0.839099 0.445700 0.478000 1 0 1.000000
  0 -11.730000 10.747099 7.314600 -0.777669 -0.416083 0.471281 0.656000 0.494000 1 0 1.000000
  0 -7.121900 1.066500 9.609200 -0.689784 -0.211995 0.692284 0.371200 0.342100 1 0 1.000000
case
  0 -11.730000 10.747099 7.314600 -0.777669 -0.416083 0.471281 0.656000 0.494000 1 0 1.000000
  0 -7.552001 8.734600 10.198200 -0.515399 -0.174000 0.839099 0.445700 0.478000 1 0 1.000000
  0 -15.280401 15.175499 7.001000 -0.615297 0.252399 0.746796 0.778100 0.543100 1 0 1.000000
case
  0 -15.280401 15.175499 7.001000 -0.615297 0.252399 0.746796 0.778100 0.543100 1 0 1.000000
  0 -17.870300 16.202299 2.232300 -0.887076 -0.279893 0.367090 0.999500 0.565900 1 0 1.000000
  0 -11.730000 10.747099 7.314600 -0.777669 -0.416083 0.471281 0.656000 0.494000 1 0 1.000000
case
  0 -15.280401 15.175499 7.001000 -0.615297 0.252399 0.746796 0.778100 0.543100 1 0 1.000000
  0 -16.020000 17.479601 2.964900 -0.221598 0.850792 0.476495 0.930500 0.599700 1 0 1.000000
  0 -17.870300 16.202299 2.232300 -0.887076 -0.279893 0.367090 0.999500 0.565900 1 0 1.000000
case
  0 -16.020000 17.479601 2.964900 -0.221598 0.850792 0.476495 0.930500 0.599700 1 0 1.000000
  0 -15.280401 15.175499 7.001000 -0.615297 0.252399 0.746796 0.778100 0.543100 1 0 1.000000
  0 -10.305101 15.557900 6.923300 -0.501088 0.635984 0.586886 0.664800 0.623800 1 0 1.000000
case
  0 -9.515801 13.657200 10.164000 -0.431897 0.150399 0.889294 0.517400 0.547500 1 0 1.000000
  0 -15.280401 15.175499 7.001000 -0.615297 0.252399 0.746796 0.778100 0.543100 1 0 1.000000
  0 -7.552001 8.734600 10.198200 -0.515399 -0.174000 0.839099 0.445700 0.478000 1 0 1.000000
case
  0 -3.294701 14.994800 12.399700 -0.309787 0.084297 0.947062 0.282300 0.611000 1 0 1.000000
  0 -0.629101 14.329000 13.142500 -0.252493 -0.073898 0.964773 0.184000 0.617700 1 0 1.000000
  0 -0.629101 18.034500 12.534800 -0.271098 0.240998 0.931893 0.215300 0.685900 1 0 1.000000
case
  0 -0.629101 14.329000 13.142500 -0.252493 -0.073898 0.964773 0.184000 0.617700 1 0 1.000000
  0 -3.294701 14.994800 12.399700 -0.309787 0.084297 0.947062 0.282300 0.611000 1 0 1.000000
  0 -3.611300 12.274700 11.917000 -0.252111 -0.106305 0.961842 0.296600 0.563500 1 0 1.000000
case
  0 -9.515801 13.657200 10.164000 -0.431897 0.150399 0.889294 0.517400 0.547500 1 0 1.000000
  0 -3.611300 12.274700 11.917000 -0.252111 -0.106305 0.961842 0.296600 0.563500 1 0 1.000000
  0 -3.294701 14.994800 12.399700 -0.309787 0.084297 0.947062 0.282300 0.611000 1 0 1.000000
case
  0 -3.611300 12.274700 11.917000 -0.252111 -0.106305 0.961842 0.296600 0.563500 1 0 1.000000
  0 -9.515801 13.657200 10.164000 -0.431897 0.150399 0.889294 0.517400 0.547500 1 0 1.000000
  0 -3.146400 6.804400 11.773900 -0.267386 -0.056197 0.961949 0.269600 0.472700 1 0 1.000000
case
  0 -7.552001 8.734600 10.198200 -0.515399 -0.174000 0.839099 0.445700 0.478000 1 0 1.000000
  0 -3.146400 6.804400 11.773900 -0.267386 -0.056197 0.961949 0.269600 0.472700 1 0 1.000000
  0 -9.515801 13.657200 10.164000 -0.431897 0.150399 0.889294 0.517400 0.547500 1 0 1.000000
case
  0 -3.146400 6.804400 11.773900 -0.267386 -0.056197 0.961949 0.269600 0.472700 1 0 1.000000
  0 -7.552001 8.734600 10.198200 -0.515399 -0.174000 0.839099 0.445700 0.478000 1 0 1.000000
  0 -4.220500 -0.564700 11.302100 -0.398689 -0.139096 0.906476 0.233800 0.328700 1 0 1.000000
case
  0 -4.220500 -0.564700 11.302100 -0.398689 -0.139096 0.906476 0.233800 0.328700 1 0 1.000000
  0 -0.809200 -1.720400 11.855900 -0.194107 -0.079703 0.977737 0.116400 0.335100 1 0 1.000000
  0 -3.146400 6.804400 11.773900 -0.267386 -0.056197 0.961949 0.269600 0.472700 1 0 1.000000
case
  0 -0.809200 -1.720400 11.855900 -0.194107 -0.079703 0.977737 0.116400 0.335100 1 0 1.000000
  0 -4.220500 -0.564700 11.302100 -0.398689 -0.139096 0.906476 0.233800 0.328700 1 0 1.000000
  0 -0.840900 -8.242500 10.798500 -0.516085 -0.062198 0.854276 0.091300 0.222300 1 0 1.000000
case
  0 -0.629100 5.837500 12.242100 -0.194295 -0.041299 0.980073 0.182800 0.474500 1 0 1.000000
  0 -3.146400 6.804400 11.773900 -0.267386 -0.056197 0.961949 0.269600 0.472700 1 0 1.000000
  0 -0.809200 -1.720400 11.855900 -0.194107 -0.079703 0.977737 0.116400 0.335100 1 0 1.000000
case
  0 -3.146400 6.804400 11.773900 -0.267386 -0.056197 0.961949 0.269600 0.472700 1 0 1.000000
  0 -0.629100 5.837500 12.242100 -0.194295 -0.041299 0.980073 0.182800 0.474500 1 0 1.000000
  0 -3.611300 12.274700 11.917000 -0.252111 -0.106305 0.961842 0.296600 0.563500 1 0 1.000000
case
  0 -0.629101 11.655100 12.455900 -0.204210 -0.140107 0.968849 0.196000 0.574900 1 0 1.000000
  0 -3.611300 12.274700 11.917000 -0.252111 -0.106305 0.961842 0.296600 0.563500 1 0 1.000000
  0 -0.629100 5.837500 12.242100 -0.194295 -0.041299 0.980073 0.182800 0.474500 1 0 1.000000
case
  0 -3.611300 12.274700 11.917000 -0.252111 -0.106305 0.961842 0.296600 0.563500 1 0 1.000000
  0 -0.629101 11.655100 12.455900 -0.204210 -0.140107 0.968849 0.196000 0.574900 1 0 1.000000
  0 -0.629101 14.329000 13.142500 -0.252493 -0.073898 0.964773 0.184000 0.617700 1 0 1.000000
case
  0 -9.515801 13.657200 10.164000 -0.431897 0.150399 0.889294 0.517400 0.547500 1 0 1.000000
  0 -10.305101 15.557900 6.923300 -0.501088 0.635984 0.586886 0.664800 0.623800 1 0 1.000000
  0 -15.280401 15.175499 7.001000 -0.615297 0.252399 0.746796 0.778100 0.543100 1 0 1.000000
case
  0 -10.305101 15.557900 6.923300 -0.501088 0.635984 0.586886 0.664800 0.623800 1 0 1.000000
  0 -9.515801 13.657200 10.164000 -0.431897 0.150399 0.889294 0.517400 0.547500 1 0 1.000000
  0 -7.588801 16.535601 10.462000 -0.535333 0.445427 0.717644 0.465000 0.612500 1 0 1.000000
case
  0 -3.294701 14.994800 12.399700 -0.309787 0.084297 0.947062 0.282300 0.611000 1 0 1.000000
  0 -7.588801 16.535601 10.462000 -0.535333 0.445427 0.717644 0.465000 0.612500 1 0 1.000000
  0 -9.515801 13.657200 10.164000 -0.431897 0.150399 0.889294 0.517400 0.547500 1 0 1.000000
case
  0 -7.588801 16.535601 10.462000 -0.535333 0.445427 0.717644 0.465000 0.612500 1 0 1.000000
  0 -3.294701 14.994800 12.399700 -0.309787 0.084297 0.947062 0.282300 0.611000 1 0 1.000000
  0 -2.619101 18.439699 11.775200 -0.386484 0.392383 0.834665 0.294600 0.680400 1 0 1.000000
case
  0 -0.629101 18.034500 12.534800 -0.271098 0.240998 0.931893 0.215300 0.685900 1 0 1.000000
  0 -2.619101 18.439699 11.775200 -0.386484 0.392383 0.834665 0.294600 0.680400 1 0 1.000000
  0 -3.294701 14.994800 12.399700 -0.309787 0.084297 0.947062 0.282300 0.611000 1 0 1.000000
case
  0 -0.629101 21.942801 11.079900 -0.506710 0.388108 0.769816 0.273300 0.762300 1 0 1.000000
  0 -2.619101 18.439699 11.775200 -0.386484 0.392383 0.834665 0.294600 0.680400 1 0 1.000000
  0 -0.629101 18.034500 12.534800 -0.271098 0.240998 0.931893 0.215300 0.685900 1 0 1.000000
case
  0 -0.629101 21.942801 11.079900 -0.506710 0.388108 0.769816 0.273300 0.762300 1 0 1.000000
  0 -2.979601 22.801701 8.477600 -0.629831 0.491524 0.601429 0.420800 0.772100 1 0 1.000000
  0 -2.619101 18.439699 11.775200 -0.386484 0.392383 0.834665 0.294600 0.680400 1 0 1.000000
case
  0 -2.979601 22.801701 8.477600 -0.629831 0.491524 0.601429 0.420800 0.772100 1 0 1.000000
  0 -0.629101 21.942801 11.079900 -0.506710 0.388108 0.769816 0.273300 0.762300 1 0 1.000000
  0 -0.629101 26.862000 8.622600 -0.736944 0.367022 0.567634 0.365600 0.862100 1 0 1.000000
case
  0 -2.063101 27.372900 6.009900 -0.805678 0.337091 0.487086 0.487200 0.873500 1 0 1.000000
  0 -2.979601 22.801701 8.477600 -0.629831 0.491524 0.601429 0.420800 0.772100 1 0 1.000000
  0 -0.629101 26.862000 8.622600 -0.736944 0.367022 0.567634 0.365600 0.862100 1 0 1.000000
case
  0 -2.063101 27.372900 6.009900 -0.805678 0.337091 0.487086 0.487200 0.873500 1 0 1.000000
  0 -0.629101 26.862000 8.622600 -0.736944 0.367022 0.567634 0.365600 0.862100 1 0 1.000000
  0 -0.629101 31.123600 5.844400 -0.768265 0.383182 0.512777 0.465600 0.952100 1 0 1.000000
case
  0 -1.731401 30.109699 5.047800 -0.782696 0.364098 0.504797 0.517000 0.929600 1 0 1.000000
  0 -2.063101 27.372900 6.009900 -0.805678 0.337091 0.487086 0.487200 0.873500 1 0 1.000000
  0 -0.629101 31.123600 5.844400 -0.768265 0.383182 0.512777 0.465600 0.952100 1 0 1.000000
case
  0 -1.731401 30.109699 5.047800 -0.782696 0.364098 0.504797 0.517000 0.929600 1 0 1.000000
  0 -0.629101 31.123600 5.844400 -0.768265 0.383182 0.512777 0.465600 0.952100 1 0 1.000000
  0 -0.629101 33.058800 3.426900 -0.760091 0.507294 0.406095 0.546600 0.999500 1 0 1.000000
case
  0 -2.979601 22.801701 8.477600 -0.629831 0.491524 0.601429 0.420800 0.772100 1 0 1.000000
  0 -2.063101 27.372900 6.009900 -0.805678 0.337091 0.487086 0.487200 0.873500 1 0 1.000000
  0 -3.459301 24.815901 4.996800 -0.705263 0.519073 0.482875 0.548000 0.822700 1 0 1.000000
case
  0 -2.063101 27.372900 6.009900 -0.805678 0.337091 0.487086 0.487200 0.873500 1 0 1.000000
  0 -1.731401 30.109699 5.047800 -0.782696 0.364098 0.504797 0.517000 0.929600 1 0 1.000000
  0 -3.459301 24.815901 4.996800 -0.705263 0.519073 0.482875 0.548000 0.822700 1 0 1.000000
case
  0 -10.348501 21.102301 6.033300 -0.604044 0.388128 0.696051 0.692600 0.693800 1 0 1.000000
  0 -10.305101 15.557900 6.923300 -0.501088 0.635984 0.586886 0.664800 0.623800 1 0 1.000000
  0 -5.906701 20.649500 8.123300 -0.469803 0.566404 0.677105 0.504800 0.711700 1 0 1.000000
case
  0 -4.513001 19.463600 10.063600 -0.521173 0.553572 0.649567 0.402800 0.691900 1 0 1.000000
  0 -5.906701 20.649500 8.123300 -0.469803 0.566404 0.677105 0.504800 0.711700 1 0 1.000000
  0 -10.305101 15.557900 6.923300 -0.501088 0.635984 0.586886 0.664800 0.623800 1 0 1.000000
case
  0 -10.305101 15.557900 6.923300 -0.501088 0.635984 0.586886 0.664800 0.623800 1 0 1.000000
  0 -7.588801 16.535601 10.462000 -0.535333 0.445427 0.717644 0.465000 0.612500 1 0 1.000000
  0 -4.513001 19.463600 10.063600 -0.521173 0.553572 0.649567 0.402800 0.691900 1 0 1.000000
case
  0 -2.619101 18.439699 11.775200 -0.386484 0.392383 0.834665 0.294600 0.680400 1 0 1.000000
  0 -4.513001 19.463600 10.063600 -0.521173 0.553572 0.649567 0.402800 0.691900 1 0 1.000000
  0 -7.588801 16.535601 10.462000 -0.535333 0.445427 0.717644 0.465000 0.612500 1 0 1.000000
case
  0 -2.979601 22.801701 8.477600 -0.629831 0.491524 0.601429 0.420800 0.772100 1 0 1.000000
  0 -4.513001 19.463600 10.063600 -0.521173 0.553572 0.649567 0.402800 0.691900 1 0 1.000000
  0 -2.619101 18.439699 11.775200 -0.386484 0.392383 0.834665 0.294600 0.680400 1 0 1.000000
case
  0 -2.979601 22.801701 8.477600 -0.629831 0.491524 0.601429 0.420800 0.772100 1 0 1.000000
  0 -5.906701 20.649500 8.123300 -0.469803 0.566404 0.677105 0.504800 0.711700 1 0 1.000000
  0 -4.513001 19.463600 10.063600 -0.521173 0.553572 0.649567 0.402800 0.691900 1 0 1.000000
case
  0 -5.906701 20.649500 8.123300 -0.469803 0.566404 0.677105 0.504800 0.711700 1 0 1.000000
  0 -2.979601 22.801701 8.477600 -0.629831 0.491524 0.601429 0.420800 0.772100 1 0 1.000000
  0 -3.459301 24.815901 4.996800 -0.705263 0.519073 0.482875 0.548000 0.822700 1 0 1.000000
case
  0 -5.906701 20.649500 8.123300 -0.469803 0.566404 0.677105 0.504800 0.711700 1 0 1.000000
  0 -3.459301 24.815901 4.996800 -0.705263 0.519073 0.482875 0.548000 0.822700 1 0 1.000000
  0 -6.430301 21.540199 6.677100 -0.310101 0.755202 0.577501 0.566700 0.730900 1 0 1.000000
case
  0 -5.906701 20.649500 8.123300 -0.469803 0.566404 0.677105 0.504800 0.711700 1 0 1.000000
  0 -6.430301 21.540199 6.677100 -0.310101 0.755202 0.577501 0.566700 0.730900 1 0 1.000000
  0 -10.348501 21.102301 6.033300 -0.604044 0.388128 0.696051 0.692600 0.693800 1 0 1.000000
case
  0 -10.556999 -13.292100 0.511000 -0.914593 -0.399197 -0.064500 0.632200 0.084200 1 0 1.000000
  0 -10.693999 -12.652900 -3.783600 -0.558305 0.220102 -0.799907 0.769800 0.108800 1 0 1.000000
  0 -7.779199 -18.378300 -7.393700 -0.686120 -0.644719 -0.337010 0.614500 0.115100 1 0 1.000000
case
  0 -10.693999 -12.652900 -3.783600 -0.558305 0.220102 -0.799907 0.769800 0.108800 1 0 1.000000
  0 -7.391699 -14.414500 -3.388100 0.806480 0.379391 -0.453489 0.654300 0.103600 1 0 1.000000
  0 -7.779199 -18.378300 -7.393700 -0.686120 -0.644719 -0.337010 0.614500 0.115100 1 0 1.000000
case
  0 -0.629101 33.058800 3.426900 1.000000 0.000000 0.000000 0.546600 0.999500 1 0 1.000000
  0 -0.629101 31.123600 5.844400 1.000000 0.000000 0.000000 0.465600 0.952100 1 0 1.000000
  0 -0.629101 19.451500 10.081200 1.000000 0.000000 0.000000 0.295600 0.724400 1 0 1.000000
case
  0 -0.629101 31.123600 5.844400 1.000000 0.000000 0.000000 0.465600 0.952100 1 0 1.000000
  0 -0.629101 26.862000 8.622600 1.000000 0.000000 0.000000 0.365600 0.862100 1 0 1.000000
  0 -0.629101 19.451500 10.081200 1.000000 0.000000 0.000000 0.295600 0.724400 1 0 1.000000
case
  0 -0.629101 26.862000 8.622600 1.000000 0.000000 0.000000 0.365600 0.862100 1 0 1.000000
  0 -0.629101 21.942801 11.079900 1.000000 0.000000 0.000000 0.273300 0.762300 1 0 1.000000
  0 -0.629101 19.451500 10.081200 1.000000 0.000000 0.000000 0.295600 0.724400 1 0 1.000000
case
  0 -0.629101 21.942801 11.079900 1.000000 0.000000 0.000000 0.273300 0.762300 1 0 1.000000
  0 -0.629101 18.034500 12.534800 1.000000 0.000000 0.000000 0.215300 0.685900 1 0 1.000000
  0 -0.629101 19.451500 10.081200 1.000000 0.000000 0.000000 0.295600 0.724400 1 0 1.000000
case
  0 -0.629101 18.034500 12.534800 1.000000 0.000000 0.000000 0.215300 0.685900 1 0 1.000000
  0 -0.629101 14.329000 13.142500 1.000000 0.000000 0.000000 0.184000 0.617700 1 0 1.000000
  0 -0.629101 19.451500 10.081200 1.000000 0.000000 0.000000 0.295600 0.724400 1 0 1.000000
case
  0 -0.629101 14.329000 13.142500 1.000000 0.000000 0.000000 0.184000 0.617700 1 0 1.000000
  0 -0.629101 13.620400 10.154000 1.000000 0.000000 0.000000 0.273500 0.622100 1 0 1.000000
  0 -0.629101 19.451500 10.081200 1.000000 0.000000 0.000000 0.295600 0.724400 1 0 1.000000
case
  0 -0.629101 14.329000 13.142500 1.000000 0.000000 0.000000 0.184000 0.617700 1 0 1.000000
  0 -0.629101 11.655100 12.455900 1.000000 0.000000 0.000000 0.196000 0.574900 1 0 1.000000
  0 -0.629101 13.620400 10.154000 1.000000 0.000000 0.000000 0.273500 0.622100 1 0 1.000000
case
  0 -0.629101 11.655100 12.455900 1.000000 0.000000 0.000000 0.196000 0.574900 1 0 1.000000
  0 -0.629100 5.837500 12.242100 1.000000 0.000000 0.000000 0.182800 0.474500 1 0 1.000000
  0 -0.629101 13.620400 10.154000 1.000000 0.000000 0.000000 0.273500 0.622100 1 0 1.000000
antlion_innards
  0 -0.706399 -20.221800 7.776600 1.000000 0.000000 0.000000 0.881800 -0.578500 1 0 1.000000
  0 -0.706400 -6.489400 7.948300 1.000000 0.000000 0.000000 0.890900 0.138300 1 0 1.000000
  0 -0.706399 -13.643700 9.177100 1.000000 0.000000 0.000000 0.956600 -0.235100 1 0 1.000000
antlion_innards
  0 -0.813000 -7.618800 9.581400 0.999401 0.015600 0.030900 0.975200 0.079400 1 0 1.000000
  0 -0.840900 -8.242500 10.798500 0.999401 0.015600 0.030900 1.039400 0.046800 1 0 1.000000
  0 -0.706399 -13.643700 9.177100 1.000000 0.000000 0.000000 0.956600 -0.235100 1 0 1.000000
antlion_innards
  0 -0.706399 -13.643700 9.177100 0.998041 0.039402 -0.048602 0.956600 -0.235100 1 0 1.000000
  0 -0.840900 -8.242500 10.798500 0.998041 0.039402 -0.048602 1.039400 0.046800 1 0 1.000000
  0 -0.700600 -9.363100 12.770800 0.998041 0.039402 -0.048602 1.148700 -0.011700 1 0 1.000000
antlion_innards
  0 -10.305101 15.557900 6.923300 -0.501088 0.635984 0.586886 0.564200 1.289100 1 0 1.000000
  0 -11.051301 16.581400 4.513900 -0.603698 0.649198 0.462699 0.414400 1.342500 1 0 1.000000
  0 -16.020000 17.479601 2.964900 -0.221598 0.850792 0.476495 0.190800 1.389400 1 0 1.000000
antlion_innards
  0 -10.305101 15.557900 6.923300 -0.501088 0.635984 0.586886 0.564200 1.289100 1 0 1.000000
  0 -10.348501 21.102301 6.033300 -0.604044 0.388128 0.696051 0.515400 1.578500 1 0 1.000000
  0 -11.051301 16.581400 4.513900 -0.603698 0.649198 0.462699 0.414400 1.342500 1 0 1.000000
antlion_innards
  0 -6.806299 -18.018299 0.149800 0.801125 -0.410413 -0.435614 0.301500 -0.463500 1 0 1.000000
  0 -4.740600 -12.690300 -1.070400 0.861851 0.066904 -0.502730 0.294900 -0.185400 1 0 1.000000
  0 -5.186999 -17.366600 3.575900 0.835803 0.050500 -0.546702 0.530400 -0.429400 1 0 1.000000
antlion_innards
  0 -6.806299 -18.018299 0.149800 0.801125 -0.410413 -0.435614 0.301500 -0.463500 1 0 1.000000
  0 -7.391699 -14.414500 -3.388100 0.519397 0.008100 -0.854495 0.095900 -0.275400 1 0 1.000000
  0 -4.740600 -12.690300 -1.070400 0.861851 0.066904 -0.502730 0.294900 -0.185400 1 0 1.000000
antlion_innards
  0 -9.239399 -11.533000 -3.391100 0.401998 0.310198 -0.861495 0.043400 -0.124900 1 0 1.000000
  0 -4.740600 -12.690300 -1.070400 0.861851 0.066904 -0.502730 0.294900 -0.185400 1 0 1.000000
  0 -7.391699 -14.414500 -3.388100 0.519397 0.008100 -0.854495 0.095900 -0.275400 1 0 1.000000
antlion_innards
  0 -4.740600 -12.690300 -1.070400 0.861851 0.066904 -0.502730 0.294900 -0.185400 1 0 1.000000
  0 -9.239399 -11.533000 -3.391100 0.401998 0.310198 -0.861495 0.043400 -0.124900 1 0 1.000000
  0 -8.134800 -5.514400 1.278700 0.732252 0.402773 -0.549164 0.324200 0.189200 1 0 1.000000
antlion_innards
  0 -4.740600 -12.690300 -1.070400 0.861851 0.066904 -0.502730 0.294900 -0.185400 1 0 1.000000
  0 -8.134800 -5.514400 1.278700 0.732252 0.402773 -0.549164 0.324200 0.189200 1 0 1.000000
  0 -5.186999 -17.366600 3.575900 0.835803 0.050500 -0.546702 0.530400 -0.429400 1 0 1.000000
antlion_innards
  0 -5.186999 -17.366600 3.575900 0.835803 0.050500 -0.546702 0.530400 -0.429400 1 0 1.000000
  0 -8.134800 -5.514400 1.278700 0.732252 0.402773 -0.549164 0.324200 0.189200 1 0 1.000000
  0 -7.310100 -1.521400 3.353900 0.572719 0.314011 -0.757225 0.458400 0.397600 1 0 1.000000
antlion_innards
  0 -5.186999 -17.366600 3.575900 0.835803 0.050500 -0.546702 0.530400 -0.429400 1 0 1.000000
  0 -7.310100 -1.521400 3.353900 0.572719 0.314011 -0.757225 0.458400 0.397600 1 0 1.000000
  0 -0.757600 -0.195600 9.318800 0.503508 0.230004 -0.832813 0.962700 0.466800 1 0 1.000000
antlion_innards
  0 -0.757600 -0.195600 9.318800 0.503508 0.230004 -0.832813 0.962700 0.466800 1 0 1.000000
  0 -0.706400 -6.489400 7.948300 0.590109 0.068501 -0.804412 0.890900 0.138300 1 0 1.000000
  0 -5.186999 -17.366600 3.575900 0.835803 0.050500 -0.546702 0.530400 -0.429400 1 0 1.000000
antlion_innards
  0 -0.706400 -6.489400 7.948300 0.590109 0.068501 -0.804412 0.890900 0.138300 1 0 1.000000
  0 -2.411399 -19.483700 6.361100 0.674278 0.001700 -0.738476 0.757800 -0.539900 1 0 1.000000
  0 -5.186999 -17.366600 3.575900 0.835803 0.050500 -0.546702 0.530400 -0.429400 1 0 1.000000
antlion_innards
  0 -0.706399 -20.221800 7.776600 0.952692 -0.217598 0.212198 0.881800 -0.578500 1 0 1.000000
  0 -2.411399 -19.483700 6.361100 0.674278 0.001700 -0.738476 0.757800 -0.539900 1 0 1.000000
  0 -0.706400 -6.489400 7.948300 0.590109 0.068501 -0.804412 0.890900 0.138300 1 0 1.000000
antlion_innards
  0 -0.700600 -9.363100 12.770800 -0.193707 -0.630623 0.751527 1.148700 -0.011700 1 0 1.000000
  0 -3.150599 -10.150000 11.479100 -0.073902 -0.584218 0.808225 1.010300 -0.052800 1 0 1.000000
  0 -0.706399 -13.643700 9.177100 0.020999 -0.369291 0.929076 0.956600 -0.235100 1 0 1.000000
antlion_innards
  0 -5.445400 -13.958100 9.246500 0.033801 -0.298805 0.953715 0.826000 -0.251500 1 0 1.000000
  0 -0.706399 -13.643700 9.177100 0.020999 -0.369291 0.929076 0.956600 -0.235100 1 0 1.000000
  0 -3.150599 -10.150000 11.479100 -0.073902 -0.584218 0.808225 1.010300 -0.052800 1 0 1.000000
antlion_innards
  0 -0.706399 -13.643700 9.177100 0.020999 -0.369291 0.929076 0.956600 -0.235100 1 0 1.000000
  0 -5.445400 -13.958100 9.246500 0.033801 -0.298805 0.953715 0.826000 -0.251500 1 0 1.000000
  0 -4.064899 -17.830000 9.017900 0.114204 -0.129104 0.985033 0.852900 -0.453600 1 0 1.000000
antlion_innards
  0 -0.706399 -20.221800 7.776600 0.952692 -0.217598 0.212198 0.881800 -0.578500 1 0 1.000000
  0 -0.706399 -13.643700 9.177100 0.020999 -0.369291 0.929076 0.956600 -0.235100 1 0 1.000000
  0 -4.064899 -17.830000 9.017900 0.114204 -0.129104 0.985033 0.852900 -0.453600 1 0 1.000000
antlion_innards
  0 -4.064899 -17.830000 9.017900 -0.797846 -0.571533 0.191811 0.852900 -0.453600 1 0 1.000000
  0 -2.411399 -19.483700 6.361100 -0.586986 -0.798781 0.131897 0.757800 -0.539900 1 0 1.000000
  0 -0.706399 -20.221800 7.776600 -0.520627 -0.831542 0.193610 0.881800 -0.578500 1 0 1.000000
antlion_innards
  0 -4.064899 -17.830000 9.017900 -0.797846 -0.571533 0.191811 0.852900 -0.453600 1 0 1.000000
  0 -5.186999 -17.366600 3.575900 -0.553192 -0.784589 0.279996 0.530400 -0.429400 1 0 1.000000
  0 -2.411399 -19.483700 6.361100 -0.586986 -0.798781 0.131897 0.757800 -0.539900 1 0 1.000000
antlion_innards
  0 -5.186999 -17.366600 3.575900 -0.553192 -0.784589 0.279996 0.530400 -0.429400 1 0 1.000000
  0 -4.064899 -17.830000 9.017900 -0.797846 -0.571533 0.191811 0.852900 -0.453600 1 0 1.000000
  0 -8.609799 -14.258500 3.845200 -0.747306 -0.162101 0.644405 0.447800 -0.267200 1 0 1.000000
antlion_innards
  0 -8.615999 -17.100000 1.038500 -0.499005 -0.702808 0.507006 0.297700 -0.415500 1 0 1.000000
  0 -5.186999 -17.366600 3.575900 -0.553192 -0.784589 0.279996 0.530400 -0.429400 1 0 1.000000
  0 -8.609799 -14.258500 3.845200 -0.747306 -0.162101 0.644405 0.447800 -0.267200 1 0 1.000000
antlion_innards
  0 -8.609799 -14.258500 3.845200 -0.747306 -0.162101 0.644405 0.447800 -0.267200 1 0 1.000000
  0 -10.070999 -14.807300 1.570900 -0.827666 -0.176093 0.532878 0.284900 -0.295900 1 0 1.000000
  0 -8.615999 -17.100000 1.038500 -0.499005 -0.702808 0.507006 0.297700 -0.415500 1 0 1.000000
antlion_innards
  0 -8.609799 -14.258500 3.845200 -0.747306 -0.162101 0.644405 0.447800 -0.267200 1 0 1.000000
  0 -9.728699 -12.163600 2.092900 -0.813182 0.370692 0.448690 0.322500 -0.157900 1 0 1.000000
  0 -10.070999 -14.807300 1.570900 -0.827666 -0.176093 0.532878 0.284900 -0.295900 1 0 1.000000
antlion_innards
  0 -7.371500 -10.745300 3.160400 -0.789217 0.261806 0.555512 0.446300 -0.083800 1 0 1.000000
  0 -9.728699 -12.163600 2.092900 -0.813182 0.370692 0.448690 0.322500 -0.157900 1 0 1.000000
  0 -8.609799 -14.258500 3.845200 -0.747306 -0.162101 0.644405 0.447800 -0.267200 1 0 1.000000
antlion_innards
  0 -5.186999 -17.366600 3.575900 -0.553192 -0.784589 0.279996 0.530400 -0.429400 1 0 1.000000
  0 -8.615999 -17.100000 1.038500 -0.499005 -0.702808 0.507006 0.297700 -0.415500 1 0 1.000000
  0 -6.806299 -18.018299 0.149800 -0.302411 -0.899934 0.314112 0.301500 -0.463500 1 0 1.000000
antlion_innards
  0 -5.445400 -13.958100 9.246500 -0.987230 0.106903 -0.118104 0.826000 -0.251500 1 0 1.000000
  0 -5.079800 -13.239900 6.841400 -0.854591 0.048899 0.516994 0.707900 -0.214000 1 0 1.000000
  0 -4.064899 -17.830000 9.017900 -0.797846 -0.571533 0.191811 0.852900 -0.453600 1 0 1.000000
antlion_innards
  0 -5.079800 -13.239900 6.841400 -0.854591 0.048899 0.516994 0.707900 -0.214000 1 0 1.000000
  0 -8.609799 -14.258500 3.845200 -0.747306 -0.162101 0.644405 0.447800 -0.267200 1 0 1.000000
  0 -4.064899 -17.830000 9.017900 -0.797846 -0.571533 0.191811 0.852900 -0.453600 1 0 1.000000
antlion_innards
  0 -0.706399 -13.643700 9.177100 0.997192 0.012700 0.073799 0.956600 -0.235100 1 0 1.000000
  0 -0.706400 -6.489400 7.948300 0.997192 0.012700 0.073799 0.890900 0.138300 1 0 1.000000
  0 -0.813000 -7.618800 9.581400 0.997192 0.012700 0.073799 0.975200 0.079400 1 0 1.000000
caseback
  0 -9.239399 -11.533000 -3.391100 0.401998 0.310198 -0.861495 0.751200 0.133600 1 0 1.000000
  0 -7.391699 -14.414500 -3.388100 0.519397 0.008100 -0.854495 0.698100 0.081000 1 0 1.000000
  0 -10.693999 -12.652900 -3.783600 0.177105 0.112603 -0.977729 0.793100 0.111500 1 0 1.000000
caseback
  0 -7.310100 -1.521400 3.353900 0.572719 0.314011 -0.757225 0.695700 0.345000 1 0 1.000000
  0 -8.134800 -5.514400 1.278700 0.732252 0.402773 -0.549164 0.719400 0.263300 1 0 1.000000
  0 -10.504400 3.546000 5.266500 0.403809 0.258306 -0.877620 0.787600 0.452000 1 0 1.000000
caseback
  0 -7.310100 -1.521400 3.353900 0.572719 0.314011 -0.757225 0.695700 0.345000 1 0 1.000000
  0 -10.504400 3.546000 5.266500 0.403809 0.258306 -0.877620 0.787600 0.452000 1 0 1.000000
  0 -0.757600 -0.195600 9.318800 0.503508 0.230004 -0.832813 0.505500 0.388300 1 0 1.000000
caseback
  0 -0.757600 -0.195600 9.318800 0.503508 0.230004 -0.832813 0.505500 0.388300 1 0 1.000000
  0 -10.504400 3.546000 5.266500 0.403809 0.258306 -0.877620 0.787600 0.452000 1 0 1.000000
  0 -0.629101 13.620400 10.154000 0.463219 0.003800 -0.886236 0.503500 0.648800 1 0 1.000000
caseback
  0 -13.585901 11.961099 2.922900 0.398181 0.064197 -0.915057 0.876200 0.604800 1 0 1.000000
  0 -0.629101 13.620400 10.154000 0.463219 0.003800 -0.886236 0.503500 0.648800 1 0 1.000000
  0 -10.504400 3.546000 5.266500 0.403809 0.258306 -0.877620 0.787600 0.452000 1 0 1.000000
caseback
  0 -11.051301 16.581400 4.513900 0.423707 0.102202 -0.900015 0.874600 0.747100 1 0 1.000000
  0 -0.629101 13.620400 10.154000 0.463219 0.003800 -0.886236 0.503500 0.648800 1 0 1.000000
  0 -13.585901 11.961099 2.922900 0.398181 0.064197 -0.915057 0.876200 0.604800 1 0 1.000000
caseback
  0 -11.051301 16.581400 4.513900 0.423707 0.102202 -0.900015 0.874600 0.747100 1 0 1.000000
  0 -0.629101 19.451500 10.081200 0.347890 -0.313191 -0.883676 0.503500 0.757500 1 0 1.000000
  0 -0.629101 13.620400 10.154000 0.463219 0.003800 -0.886236 0.503500 0.648800 1 0 1.000000
caseback
  0 -10.348501 21.102301 6.033300 0.338797 -0.237498 -0.910391 0.783100 0.781000 1 0 1.000000
  0 -0.629101 19.451500 10.081200 0.347890 -0.313191 -0.883676 0.503500 0.757500 1 0 1.000000
  0 -11.051301 16.581400 4.513900 0.423707 0.102202 -0.900015 0.874600 0.747100 1 0 1.000000
caseback
  0 -6.430301 21.540199 6.677100 0.212604 -0.628710 -0.748012 0.670400 0.790400 1 0 1.000000
  0 -0.629101 19.451500 10.081200 0.347890 -0.313191 -0.883676 0.503500 0.757500 1 0 1.000000
  0 -10.348501 21.102301 6.033300 0.338797 -0.237498 -0.910391 0.783100 0.781000 1 0 1.000000
caseback
  0 -0.629101 19.451500 10.081200 0.347890 -0.313191 -0.883676 0.503500 0.757500 1 0 1.000000
  0 -6.430301 21.540199 6.677100 0.212604 -0.628710 -0.748012 0.670400 0.790400 1 0 1.000000
  0 -3.459301 24.815901 4.996800 0.504483 -0.438685 -0.743675 0.584900 0.848500 1 0 1.000000
caseback
  0 -0.629101 19.451500 10.081200 0.347890 -0.313191 -0.883676 0.503500 0.757500 1 0 1.000000
  0 -3.459301 24.815901 4.996800 0.504483 -0.438685 -0.743675 0.584900 0.848500 1 0 1.000000
  0 -1.731401 30.109699 5.047800 0.328292 -0.375391 -0.866779 0.535200 0.947400 1 0 1.000000
caseback
  0 -0.629101 19.451500 10.081200 0.347890 -0.313191 -0.883676 0.503500 0.757500 1 0 1.000000
  0 -1.731401 30.109699 5.047800 0.328292 -0.375391 -0.866779 0.535200 0.947400 1 0 1.000000
  0 -0.629101 33.058800 3.426900 -0.144096 -0.434689 -0.888978 0.503500 0.999500 1 0 1.000000
caseback
  0 -11.051301 16.581400 4.513900 0.423707 0.102202 -0.900015 0.874600 0.747100 1 0 1.000000
  0 -13.585901 11.961099 2.922900 0.398181 0.064197 -0.915057 0.876200 0.604800 1 0 1.000000
  0 -16.020000 17.479601 2.964900 0.301501 0.140200 -0.943102 0.946300 0.707900 1 0 1.000000
caseback
  0 -16.020000 17.479601 2.964900 0.301501 0.140200 -0.943102 0.946300 0.707900 1 0 1.000000
  0 -13.585901 11.961099 2.922900 0.398181 0.064197 -0.915057 0.876200 0.604800 1 0 1.000000
  0 -17.870300 16.202299 2.232300 0.284394 0.132697 -0.949480 0.999500 0.682700 1 0 1.000000
caseback
  0 -7.779199 -18.378300 -7.393700 -0.686120 -0.644719 -0.337010 0.709200 0.110700 1 0 1.000000
  0 -10.070999 -14.807300 1.570900 -0.891024 -0.451412 -0.048001 0.775100 0.094700 1 0 1.000000
  0 -10.556999 -13.292100 0.511000 -0.914593 -0.399197 -0.064500 0.789100 0.118000 1 0 1.000000
caseback
  0 -7.779199 -18.378300 -7.393700 -0.686120 -0.644719 -0.337010 0.709200 0.110700 1 0 1.000000
  0 -8.615999 -17.100000 1.038500 -0.656467 -0.752762 0.048998 0.733300 0.050600 1 0 1.000000
  0 -10.070999 -14.807300 1.570900 -0.891024 -0.451412 -0.048001 0.775100 0.094700 1 0 1.000000
caseback
  0 -7.779199 -18.378300 -7.393700 -0.686120 -0.644719 -0.337010 0.709200 0.110700 1 0 1.000000
  0 -6.806299 -18.018299 0.149800 0.552693 -0.832789 -0.031500 0.695400 0.023000 1 0 1.000000
  0 -8.615999 -17.100000 1.038500 -0.656467 -0.752762 0.048998 0.733300 0.050600 1 0 1.000000
caseback
  0 -6.806299 -18.018299 0.149800 0.552693 -0.832789 -0.031500 0.695400 0.023000 1 0 1.000000
  0 -7.779199 -18.378300 -7.393700 -0.686120 -0.644719 -0.337010 0.709200 0.110700 1 0 1.000000
  0 -7.391699 -14.414500 -3.388100 0.806480 0.379391 -0.453489 0.698100 0.081000 1 0 1.000000
caseback
  0 -0.629100 5.837500 12.242100 0.999570 -0.007600 -0.028299 0.503500 0.507300 1 0 1.000000
  0 -0.757600 -0.195600 9.318800 0.999570 -0.007600 -0.028299 0.505500 0.388300 1 0 1.000000
  0 -0.629101 13.620400 10.154000 0.999570 -0.007600 -0.028299 0.503500 0.648800 1 0 1.000000
caseback
  0 -0.629100 5.837500 12.242100 0.999693 -0.024100 0.005800 0.503500 0.507300 1 0 1.000000
  0 -0.809200 -1.720400 11.855900 0.999693 -0.024100 0.005800 0.505700 0.370000 1 0 1.000000
  0 -0.757600 -0.195600 9.318800 0.999693 -0.024100 0.005800 0.505500 0.388300 1 0 1.000000
antlion_parts
  0 -0.813000 -7.618800 9.581400 0.998093 -0.005300 0.061500 0.500000 0.500000 1 0 1.000000
  0 -0.706400 -6.489400 7.948300 0.998093 -0.005300 0.061500 0.505700 0.095600 1 0 1.000000
  0 -0.757600 -0.195600 9.318800 0.998093 -0.005300 0.061500 0.505500 0.388300 1 0 1.000000
antlion_parts
  0 -0.840900 -8.242500 10.798500 0.999790 -0.007900 0.018900 0.091300 0.222300 1 0 1.000000
  0 -0.813000 -7.618800 9.581400 0.999845 -0.006900 0.016201 0.500000 0.500000 1 0 1.000000
  0 -0.809200 -1.720400 11.855900 0.999845 -0.006900 0.016201 0.116400 0.335100 1 0 1.000000
antlion_parts
  0 -0.813000 -7.618800 9.581400 0.999845 -0.006900 0.016201 0.500000 0.500000 1 0 1.000000
  0 -0.757600 -0.195600 9.318800 0.999845 -0.006900 0.016201 0.505500 0.388300 1 0 1.000000
  0 -0.809200 -1.720400 11.855900 0.999845 -0.006900 0.016201 0.116400 0.335100 1 0 1.000000
end
