"VertexLitGeneric"
{
	// Original shader: VertexLitMaskedEnvMappedTexture
	"$basetexture" "models/gibs/hc_gibs/M1CL2"
	"$envmap" "models/gibs/hc_gibs/HC_env"
	"$envmapmask" "models/gibs/hc_gibs/M1CLmask"
	//"$envmapsphere" 1
}
