version 1
nodes
  0 "static_prop" -1
end
skeleton
time 0
0 0.000000 0.000000 0.000000 0.000000 0.000000 0.000000
end
triangles
Rebar_MedNorm01
0 0.000000 0.000000 -0.259900 0.000000 0.000000 -1.000000 0.254600 -0.984200 1 0 1.000000 
0 1.299000 -0.750000 -0.259900 0.000000 0.000000 -1.000000 0.165600 -0.974400 1 0 1.000000 
0 0.000000 -1.500000 -0.259900 0.000000 0.000000 -1.000000 0.087100 -0.984200 1 0 1.000000 
Rebar_MedNorm01
0 0.000000 0.000000 -0.259900 0.000000 0.000000 -1.000000 0.254600 -0.984200 1 0 1.000000 
0 1.299000 0.750000 -0.259900 0.000000 0.000000 -1.000000 0.332300 -0.974400 1 0 1.000000 
0 1.299000 -0.750000 -0.259900 0.000000 0.000000 -1.000000 0.165600 -0.974400 1 0 1.000000 
Rebar_MedNorm01
0 0.000000 0.000000 -0.259900 0.000000 0.000000 -1.000000 0.254600 -0.984200 1 0 1.000000 
0 -0.000000 1.500000 -0.259900 0.000000 0.000000 -1.000000 0.422100 -0.984200 1 0 1.000000 
0 1.299000 0.750000 -0.259900 0.000000 0.000000 -1.000000 0.332300 -0.974400 1 0 1.000000 
Rebar_MedNorm01
0 0.000000 0.000000 -0.259900 0.000000 0.000000 -1.000000 0.254600 -0.984200 1 0 1.000000 
0 -1.299000 0.750000 -0.259900 0.000000 0.000000 -1.000000 0.338300 -0.993900 1 0 1.000000 
0 -0.000000 1.500000 -0.259900 0.000000 0.000000 -1.000000 0.422100 -0.984200 1 0 1.000000 
Rebar_MedNorm01
0 0.000000 0.000000 -0.259900 0.000000 0.000000 -1.000000 0.254600 -0.984200 1 0 1.000000 
0 -1.299000 -0.750000 -0.259900 0.000000 0.000000 -1.000000 0.170900 -0.993900 1 0 1.000000 
0 -1.299000 0.750000 -0.259900 0.000000 0.000000 -1.000000 0.338300 -0.993900 1 0 1.000000 
Rebar_MedNorm01
0 0.000000 0.000000 -0.259900 0.000000 0.000000 -1.000000 0.254600 -0.984200 1 0 1.000000 
0 0.000000 -1.500000 -0.259900 0.000000 0.000000 -1.000000 0.087100 -0.984200 1 0 1.000000 
0 -1.299000 -0.750000 -0.259900 0.000000 0.000000 -1.000000 0.170900 -0.993900 1 0 1.000000 
Rebar_MedNorm01
0 2.284299 15.312500 80.168602 0.159806 -0.839133 0.519921 -0.003400 -0.404100 1 0 1.000000 
0 1.590999 32.112000 101.097504 0.920094 -0.283298 0.270498 0.162900 -0.214000 1 0 1.000000 
0 0.437599 31.153299 101.120796 0.138402 -0.896013 0.421906 -0.003400 -0.214000 1 0 1.000000 
Rebar_MedNorm01
0 1.299000 -0.750000 -0.259900 0.945074 -0.326391 0.017400 0.165600 -0.974400 1 0 1.000000 
0 1.299000 0.750000 -0.259900 0.755210 0.655408 0.009900 0.332300 -0.974400 1 0 1.000000 
0 0.802000 0.878600 29.248800 0.847612 0.530008 -0.025400 0.329300 -0.784300 1 0 1.000000 
Rebar_MedNorm01
0 1.299000 -0.750000 -0.259900 0.945074 -0.326391 0.017400 0.165600 -0.974400 1 0 1.000000 
0 0.802000 0.878600 29.248800 0.847612 0.530008 -0.025400 0.329300 -0.784300 1 0 1.000000 
0 0.802300 -0.610300 29.451700 0.885744 -0.459823 0.063403 0.162900 -0.784300 1 0 1.000000 
Rebar_MedNorm01
0 0.000000 -1.500000 -0.259900 0.188007 -0.982136 0.007900 -0.003400 -0.974300 1 0 1.000000 
0 1.299000 -0.750000 -0.259900 0.945074 -0.326391 0.017400 0.165600 -0.974400 1 0 1.000000 
0 0.802300 -0.610300 29.451700 0.885744 -0.459823 0.063403 0.162900 -0.784300 1 0 1.000000 
Rebar_MedNorm01
0 0.000000 -1.500000 -0.259900 0.188007 -0.982136 0.007900 -0.003400 -0.974300 1 0 1.000000 
0 0.802300 -0.610300 29.451700 0.885744 -0.459823 0.063403 0.162900 -0.784300 1 0 1.000000 
0 -0.496500 -1.353600 29.565701 0.032900 -0.995113 0.093101 -0.003400 -0.784300 1 0 1.000000 
Rebar_MedNorm01
0 -0.496500 -1.353600 29.565701 0.032900 -0.995113 0.093101 -0.003400 -0.784300 1 0 1.000000 
0 0.802300 -0.610300 29.451700 0.885744 -0.459823 0.063403 0.162900 -0.784300 1 0 1.000000 
0 -0.720700 3.736000 53.465698 0.933677 -0.356391 0.035099 0.162900 -0.594200 1 0 1.000000 
Rebar_MedNorm01
0 -0.496500 -1.353600 29.565701 0.032900 -0.995113 0.093101 -0.003400 -0.784300 1 0 1.000000 
0 -0.720700 3.736000 53.465698 0.933677 -0.356391 0.035099 0.162900 -0.594200 1 0 1.000000 
0 -1.824600 2.846100 54.008900 0.176304 -0.948521 0.263106 -0.003400 -0.594200 1 0 1.000000 
Rebar_MedNorm01
0 -1.824600 2.846100 54.008900 0.176304 -0.948521 0.263106 -0.003400 -0.594200 1 0 1.000000 
0 -0.720700 3.736000 53.465698 0.933677 -0.356391 0.035099 0.162900 -0.594200 1 0 1.000000 
0 3.429199 16.199400 79.735199 0.942697 -0.306299 0.132300 0.162900 -0.404100 1 0 1.000000 
Rebar_MedNorm01
0 -1.824600 2.846100 54.008900 0.176304 -0.948521 0.263106 -0.003400 -0.594200 1 0 1.000000 
0 3.429199 16.199400 79.735199 0.942697 -0.306299 0.132300 0.162900 -0.404100 1 0 1.000000 
0 2.284299 15.312500 80.168602 0.159806 -0.839133 0.519921 -0.003400 -0.404100 1 0 1.000000 
Rebar_MedNorm01
0 2.284299 15.312500 80.168602 0.159806 -0.839133 0.519921 -0.003400 -0.404100 1 0 1.000000 
0 3.429199 16.199400 79.735199 0.942697 -0.306299 0.132300 0.162900 -0.404100 1 0 1.000000 
0 1.590999 32.112000 101.097504 0.920094 -0.283298 0.270498 0.162900 -0.214000 1 0 1.000000 
Rebar_MedNorm01
0 3.429199 16.199400 79.735199 0.942697 -0.306299 0.132300 0.162900 -0.404100 1 0 1.000000 
0 1.355699 33.561901 100.760002 0.783803 0.604202 -0.143501 0.329300 -0.214000 1 0 1.000000 
0 1.590999 32.112000 101.097504 0.920094 -0.283298 0.270498 0.162900 -0.214000 1 0 1.000000 
Rebar_MedNorm01
0 3.429199 16.199400 79.735199 0.942697 -0.306299 0.132300 0.162900 -0.404100 1 0 1.000000 
0 3.164299 17.514400 78.990303 0.766654 0.520969 -0.375277 0.329300 -0.404100 1 0 1.000000 
0 1.355699 33.561901 100.760002 0.783803 0.604202 -0.143501 0.329300 -0.214000 1 0 1.000000 
Rebar_MedNorm01
0 3.164299 17.514400 78.990303 0.766654 0.520969 -0.375277 0.329300 -0.404100 1 0 1.000000 
0 -0.033101 34.053101 100.445801 -0.138999 0.898494 -0.416397 0.497700 -0.214000 1 0 1.000000 
0 1.355699 33.561901 100.760002 0.783803 0.604202 -0.143501 0.329300 -0.214000 1 0 1.000000 
Rebar_MedNorm01
0 3.164299 17.514400 78.990303 0.766654 0.520969 -0.375277 0.329300 -0.404100 1 0 1.000000 
0 1.754399 17.942600 78.678703 -0.160498 0.840991 -0.516695 0.497700 -0.404100 1 0 1.000000 
0 -0.033101 34.053101 100.445801 -0.138999 0.898494 -0.416397 0.497700 -0.214000 1 0 1.000000 
Rebar_MedNorm01
0 1.754399 17.942600 78.678703 -0.160498 0.840991 -0.516695 0.497700 -0.404100 1 0 1.000000 
0 -1.186501 33.094299 100.469002 -0.920467 0.284090 -0.268390 0.664900 -0.214000 1 0 1.000000 
0 -0.033101 34.053101 100.445801 -0.138999 0.898494 -0.416397 0.497700 -0.214000 1 0 1.000000 
Rebar_MedNorm01
0 1.754399 17.942600 78.678703 -0.160498 0.840991 -0.516695 0.497700 -0.404100 1 0 1.000000 
0 0.609399 17.055700 79.112099 -0.942710 0.306603 -0.131501 0.666000 -0.404100 1 0 1.000000 
0 -1.186501 33.094299 100.469002 -0.920467 0.284090 -0.268390 0.664900 -0.214000 1 0 1.000000 
Rebar_MedNorm01
0 -2.477000 5.477200 52.582298 -0.176795 0.948072 -0.264392 0.497700 -0.594200 1 0 1.000000 
0 0.609399 17.055700 79.112099 -0.942710 0.306603 -0.131501 0.666000 -0.404100 1 0 1.000000 
0 1.754399 17.942600 78.678703 -0.160498 0.840991 -0.516695 0.497700 -0.404100 1 0 1.000000 
Rebar_MedNorm01
0 -2.477000 5.477200 52.582298 -0.176795 0.948072 -0.264392 0.497700 -0.594200 1 0 1.000000 
0 -3.581000 4.587300 53.125500 -0.934247 0.354618 -0.037802 0.664900 -0.594200 1 0 1.000000 
0 0.609399 17.055700 79.112099 -0.942710 0.306603 -0.131501 0.666000 -0.404100 1 0 1.000000 
Rebar_MedNorm01
0 -0.497200 1.624100 29.159800 -0.033401 0.995525 -0.088402 0.497700 -0.784300 1 0 1.000000 
0 -3.581000 4.587300 53.125500 -0.934247 0.354618 -0.037802 0.664900 -0.594200 1 0 1.000000 
0 -2.477000 5.477200 52.582298 -0.176795 0.948072 -0.264392 0.497700 -0.594200 1 0 1.000000 
Rebar_MedNorm01
0 -0.497200 1.624100 29.159800 -0.033401 0.995525 -0.088402 0.497700 -0.784300 1 0 1.000000 
0 -1.796000 0.880700 29.273800 -0.886108 0.459604 -0.059801 0.664900 -0.784300 1 0 1.000000 
0 -3.581000 4.587300 53.125500 -0.934247 0.354618 -0.037802 0.664900 -0.594200 1 0 1.000000 
Rebar_MedNorm01
0 -0.000000 1.500000 -0.259900 -0.187989 0.982143 -0.007400 0.498500 -0.974300 1 0 1.000000 
0 -1.796000 0.880700 29.273800 -0.886108 0.459604 -0.059801 0.664900 -0.784300 1 0 1.000000 
0 -0.497200 1.624100 29.159800 -0.033401 0.995525 -0.088402 0.497700 -0.784300 1 0 1.000000 
Rebar_MedNorm01
0 -0.000000 1.500000 -0.259900 -0.187989 0.982143 -0.007400 0.498500 -0.974300 1 0 1.000000 
0 -1.299000 0.750000 -0.259900 -0.945076 0.326392 -0.017300 0.666000 -0.974300 1 0 1.000000 
0 -1.796000 0.880700 29.273800 -0.886108 0.459604 -0.059801 0.664900 -0.784300 1 0 1.000000 
Rebar_MedNorm01
0 -1.046900 5.051500 52.752399 0.771018 0.593514 -0.230806 0.329300 -0.594200 1 0 1.000000 
0 1.754399 17.942600 78.678703 -0.160498 0.840991 -0.516695 0.497700 -0.404100 1 0 1.000000 
0 3.164299 17.514400 78.990303 0.766654 0.520969 -0.375277 0.329300 -0.404100 1 0 1.000000 
Rebar_MedNorm01
0 -1.046900 5.051500 52.752399 0.771018 0.593514 -0.230806 0.329300 -0.594200 1 0 1.000000 
0 -2.477000 5.477200 52.582298 -0.176795 0.948072 -0.264392 0.497700 -0.594200 1 0 1.000000 
0 1.754399 17.942600 78.678703 -0.160498 0.840991 -0.516695 0.497700 -0.404100 1 0 1.000000 
Rebar_MedNorm01
0 -0.720700 3.736000 53.465698 0.933677 -0.356391 0.035099 0.162900 -0.594200 1 0 1.000000 
0 3.164299 17.514400 78.990303 0.766654 0.520969 -0.375277 0.329300 -0.404100 1 0 1.000000 
0 3.429199 16.199400 79.735199 0.942697 -0.306299 0.132300 0.162900 -0.404100 1 0 1.000000 
Rebar_MedNorm01
0 -0.720700 3.736000 53.465698 0.933677 -0.356391 0.035099 0.162900 -0.594200 1 0 1.000000 
0 -1.046900 5.051500 52.752399 0.771018 0.593514 -0.230806 0.329300 -0.594200 1 0 1.000000 
0 3.164299 17.514400 78.990303 0.766654 0.520969 -0.375277 0.329300 -0.404100 1 0 1.000000 
Rebar_MedNorm01
0 0.802300 -0.610300 29.451700 0.885744 -0.459823 0.063403 0.162900 -0.784300 1 0 1.000000 
0 -1.046900 5.051500 52.752399 0.771018 0.593514 -0.230806 0.329300 -0.594200 1 0 1.000000 
0 -0.720700 3.736000 53.465698 0.933677 -0.356391 0.035099 0.162900 -0.594200 1 0 1.000000 
Rebar_MedNorm01
0 0.802300 -0.610300 29.451700 0.885744 -0.459823 0.063403 0.162900 -0.784300 1 0 1.000000 
0 0.802000 0.878600 29.248800 0.847612 0.530008 -0.025400 0.329300 -0.784300 1 0 1.000000 
0 -1.046900 5.051500 52.752399 0.771018 0.593514 -0.230806 0.329300 -0.594200 1 0 1.000000 
Rebar_MedNorm01
0 0.802000 0.878600 29.248800 0.847612 0.530008 -0.025400 0.329300 -0.784300 1 0 1.000000 
0 -2.477000 5.477200 52.582298 -0.176795 0.948072 -0.264392 0.497700 -0.594200 1 0 1.000000 
0 -1.046900 5.051500 52.752399 0.771018 0.593514 -0.230806 0.329300 -0.594200 1 0 1.000000 
Rebar_MedNorm01
0 0.802000 0.878600 29.248800 0.847612 0.530008 -0.025400 0.329300 -0.784300 1 0 1.000000 
0 -0.497200 1.624100 29.159800 -0.033401 0.995525 -0.088402 0.497700 -0.784300 1 0 1.000000 
0 -2.477000 5.477200 52.582298 -0.176795 0.948072 -0.264392 0.497700 -0.594200 1 0 1.000000 
Rebar_MedNorm01
0 1.299000 0.750000 -0.259900 0.755210 0.655408 0.009900 0.332300 -0.974400 1 0 1.000000 
0 -0.497200 1.624100 29.159800 -0.033401 0.995525 -0.088402 0.497700 -0.784300 1 0 1.000000 
0 0.802000 0.878600 29.248800 0.847612 0.530008 -0.025400 0.329300 -0.784300 1 0 1.000000 
Rebar_MedNorm01
0 1.299000 0.750000 -0.259900 0.755210 0.655408 0.009900 0.332300 -0.974400 1 0 1.000000 
0 -0.000000 1.500000 -0.259900 -0.187989 0.982143 -0.007400 0.496800 -0.974300 1 0 1.000000 
0 -0.497200 1.624100 29.159800 -0.033401 0.995525 -0.088402 0.497700 -0.784300 1 0 1.000000 
Rebar_MedNorm01
0 0.609399 17.055700 79.112099 -0.942710 0.306603 -0.131501 0.663700 -0.404100 1 0 1.000000 
0 -0.951201 31.644400 100.806503 -0.784205 -0.603104 0.145901 0.831200 -0.214000 1 0 1.000000 
0 -1.186501 33.094299 100.469002 -0.920467 0.284090 -0.268390 0.664900 -0.214000 1 0 1.000000 
Rebar_MedNorm01
0 0.609399 17.055700 79.112099 -0.942710 0.306603 -0.131501 0.663700 -0.404100 1 0 1.000000 
0 0.874299 15.740600 79.857002 -0.766560 -0.518273 0.379180 0.831200 -0.404100 1 0 1.000000 
0 -0.951201 31.644400 100.806503 -0.784205 -0.603104 0.145901 0.831200 -0.214000 1 0 1.000000 
Rebar_MedNorm01
0 -3.581000 4.587300 53.125500 -0.934247 0.354618 -0.037802 0.664900 -0.594200 1 0 1.000000 
0 0.874299 15.740600 79.857002 -0.766560 -0.518273 0.379180 0.831200 -0.404100 1 0 1.000000 
0 0.609399 17.055700 79.112099 -0.942710 0.306603 -0.131501 0.663700 -0.404100 1 0 1.000000 
Rebar_MedNorm01
0 -3.581000 4.587300 53.125500 -0.934247 0.354618 -0.037802 0.664900 -0.594200 1 0 1.000000 
0 -3.254700 3.271800 53.838799 -0.770483 -0.594987 0.228795 0.831200 -0.594200 1 0 1.000000 
0 0.874299 15.740600 79.857002 -0.766560 -0.518273 0.379180 0.831200 -0.404100 1 0 1.000000 
Rebar_MedNorm01
0 -1.796000 0.880700 29.273800 -0.886108 0.459604 -0.059801 0.664900 -0.784300 1 0 1.000000 
0 -3.254700 3.271800 53.838799 -0.770483 -0.594987 0.228795 0.831200 -0.594200 1 0 1.000000 
0 -3.581000 4.587300 53.125500 -0.934247 0.354618 -0.037802 0.664900 -0.594200 1 0 1.000000 
Rebar_MedNorm01
0 -1.796000 0.880700 29.273800 -0.886108 0.459604 -0.059801 0.664900 -0.784300 1 0 1.000000 
0 -1.795700 -0.608100 29.476700 -0.847759 -0.529475 0.030999 0.831200 -0.784300 1 0 1.000000 
0 -3.254700 3.271800 53.838799 -0.770483 -0.594987 0.228795 0.831200 -0.594200 1 0 1.000000 
Rebar_MedNorm01
0 -1.299000 0.750000 -0.259900 -0.945076 0.326392 -0.017300 0.663700 -0.974300 1 0 1.000000 
0 -1.795700 -0.608100 29.476700 -0.847759 -0.529475 0.030999 0.831200 -0.784300 1 0 1.000000 
0 -1.796000 0.880700 29.273800 -0.886108 0.459604 -0.059801 0.664900 -0.784300 1 0 1.000000 
Rebar_MedNorm01
0 -1.299000 0.750000 -0.259900 -0.945076 0.326392 -0.017300 0.663700 -0.974300 1 0 1.000000 
0 -1.299000 -0.750000 -0.259900 -0.755213 -0.655412 -0.009400 0.831200 -0.974300 1 0 1.000000 
0 -1.795700 -0.608100 29.476700 -0.847759 -0.529475 0.030999 0.831200 -0.784300 1 0 1.000000 
Rebar_MedNorm01
0 0.437599 31.153299 101.120796 0.138402 -0.896013 0.421906 -0.003400 -0.214000 1 0 1.000000 
0 -1.839702 36.784302 127.730797 0.844509 -0.498305 0.196202 0.166900 -0.024000 1 0 1.000000 
0 -2.993102 35.825600 127.753998 -0.030999 -0.985164 0.168794 -0.003400 -0.023900 1 0 1.000000 
Rebar_MedNorm01
0 0.437599 31.153299 101.120796 0.138402 -0.896013 0.421906 -0.003400 -0.214000 1 0 1.000000 
0 1.590999 32.112000 101.097504 0.920094 -0.283298 0.270498 0.162900 -0.214000 1 0 1.000000 
0 -1.839702 36.784302 127.730797 0.844509 -0.498305 0.196202 0.166900 -0.024000 1 0 1.000000 
Rebar_MedNorm01
0 1.590999 32.112000 101.097504 0.920094 -0.283298 0.270498 0.162900 -0.214000 1 0 1.000000 
0 -2.075002 38.234200 127.393303 0.873095 0.486797 0.027100 0.333800 -0.024000 1 0 1.000000 
0 -1.839702 36.784302 127.730797 0.844509 -0.498305 0.196202 0.166900 -0.024000 1 0 1.000000 
Rebar_MedNorm01
0 1.590999 32.112000 101.097504 0.920094 -0.283298 0.270498 0.162900 -0.214000 1 0 1.000000 
0 1.355699 33.561901 100.760002 0.783803 0.604202 -0.143501 0.329300 -0.214000 1 0 1.000000 
0 -2.075002 38.234200 127.393303 0.873095 0.486797 0.027100 0.333800 -0.024000 1 0 1.000000 
Rebar_MedNorm01
0 1.355699 33.561901 100.760002 0.783803 0.604202 -0.143501 0.329300 -0.214000 1 0 1.000000 
0 -3.463802 38.725399 127.079002 0.030999 0.985164 -0.168794 0.497700 -0.023900 1 0 1.000000 
0 -2.075002 38.234200 127.393303 0.873095 0.486797 0.027100 0.333800 -0.024000 1 0 1.000000 
Rebar_MedNorm01
0 1.355699 33.561901 100.760002 0.783803 0.604202 -0.143501 0.329300 -0.214000 1 0 1.000000 
0 -0.033101 34.053101 100.445801 -0.138999 0.898494 -0.416397 0.497700 -0.214000 1 0 1.000000 
0 -3.463802 38.725399 127.079002 0.030999 0.985164 -0.168794 0.497700 -0.023900 1 0 1.000000 
Rebar_MedNorm01
0 -0.033101 34.053101 100.445801 -0.138999 0.898494 -0.416397 0.497700 -0.214000 1 0 1.000000 
0 -4.617201 37.766602 127.102303 -0.844509 0.498305 -0.196202 0.664900 -0.023900 1 0 1.000000 
0 -3.463802 38.725399 127.079002 0.030999 0.985164 -0.168794 0.497700 -0.023900 1 0 1.000000 
Rebar_MedNorm01
0 -0.033101 34.053101 100.445801 -0.138999 0.898494 -0.416397 0.497700 -0.214000 1 0 1.000000 
0 -1.186501 33.094299 100.469002 -0.920467 0.284090 -0.268390 0.664900 -0.214000 1 0 1.000000 
0 -4.617201 37.766602 127.102303 -0.844509 0.498305 -0.196202 0.664900 -0.023900 1 0 1.000000 
Rebar_MedNorm01
0 -1.186501 33.094299 100.469002 -0.920467 0.284090 -0.268390 0.664900 -0.214000 1 0 1.000000 
0 -4.381901 36.316700 127.439796 -0.873095 -0.486797 -0.027100 0.831200 -0.023900 1 0 1.000000 
0 -4.617201 37.766602 127.102303 -0.844509 0.498305 -0.196202 0.664900 -0.023900 1 0 1.000000 
Rebar_MedNorm01
0 -1.186501 33.094299 100.469002 -0.920467 0.284090 -0.268390 0.664900 -0.214000 1 0 1.000000 
0 -0.951201 31.644400 100.806503 -0.784205 -0.603104 0.145901 0.831200 -0.214000 1 0 1.000000 
0 -4.381901 36.316700 127.439796 -0.873095 -0.486797 -0.027100 0.831200 -0.023900 1 0 1.000000 
Rebar_MedNorm01
0 -0.951201 31.644400 100.806503 -0.784205 -0.603104 0.145901 0.831200 -0.214000 1 0 1.000000 
0 -2.993102 35.825600 127.753998 -0.030999 -0.985164 0.168794 0.998700 -0.023900 1 0 1.000000 
0 -4.381901 36.316700 127.439796 -0.873095 -0.486797 -0.027100 0.831200 -0.023900 1 0 1.000000 
Rebar_MedNorm01
0 -0.951201 31.644400 100.806503 -0.784205 -0.603104 0.145901 0.831200 -0.214000 1 0 1.000000 
0 0.437599 31.153299 101.120796 0.138402 -0.896013 0.421906 0.998700 -0.214000 1 0 1.000000 
0 -2.993102 35.825600 127.753998 -0.030999 -0.985164 0.168794 0.998700 -0.023900 1 0 1.000000 
Rebar_MedNorm01
0 0.874299 15.740600 79.857002 -0.766560 -0.518273 0.379180 0.831200 -0.404100 1 0 1.000000 
0 0.437599 31.153299 101.120796 0.138402 -0.896013 0.421906 0.998700 -0.214000 1 0 1.000000 
0 -0.951201 31.644400 100.806503 -0.784205 -0.603104 0.145901 0.831200 -0.214000 1 0 1.000000 
Rebar_MedNorm01
0 0.874299 15.740600 79.857002 -0.766560 -0.518273 0.379180 0.831200 -0.404100 1 0 1.000000 
0 2.284299 15.312500 80.168602 0.159806 -0.839133 0.519921 0.998700 -0.404100 1 0 1.000000 
0 0.437599 31.153299 101.120796 0.138402 -0.896013 0.421906 0.998700 -0.214000 1 0 1.000000 
Rebar_MedNorm01
0 -3.254700 3.271800 53.838799 -0.770483 -0.594987 0.228795 0.831200 -0.594200 1 0 1.000000 
0 2.284299 15.312500 80.168602 0.159806 -0.839133 0.519921 0.998700 -0.404100 1 0 1.000000 
0 0.874299 15.740600 79.857002 -0.766560 -0.518273 0.379180 0.831200 -0.404100 1 0 1.000000 
Rebar_MedNorm01
0 -3.254700 3.271800 53.838799 -0.770483 -0.594987 0.228795 0.831200 -0.594200 1 0 1.000000 
0 -1.824600 2.846100 54.008900 0.176304 -0.948521 0.263106 0.998700 -0.594200 1 0 1.000000 
0 2.284299 15.312500 80.168602 0.159806 -0.839133 0.519921 0.998700 -0.404100 1 0 1.000000 
Rebar_MedNorm01
0 -1.795700 -0.608100 29.476700 -0.847759 -0.529475 0.030999 0.831200 -0.784300 1 0 1.000000 
0 -1.824600 2.846100 54.008900 0.176304 -0.948521 0.263106 0.998700 -0.594200 1 0 1.000000 
0 -3.254700 3.271800 53.838799 -0.770483 -0.594987 0.228795 0.831200 -0.594200 1 0 1.000000 
Rebar_MedNorm01
0 -1.795700 -0.608100 29.476700 -0.847759 -0.529475 0.030999 0.831200 -0.784300 1 0 1.000000 
0 -0.496500 -1.353600 29.565701 0.032900 -0.995113 0.093101 0.998700 -0.784300 1 0 1.000000 
0 -1.824600 2.846100 54.008900 0.176304 -0.948521 0.263106 0.998700 -0.594200 1 0 1.000000 
Rebar_MedNorm01
0 -1.299000 -0.750000 -0.259900 -0.755213 -0.655412 -0.009400 0.831200 -0.974300 1 0 1.000000 
0 -0.496500 -1.353600 29.565701 0.032900 -0.995113 0.093101 0.998700 -0.784300 1 0 1.000000 
0 -1.795700 -0.608100 29.476700 -0.847759 -0.529475 0.030999 0.831200 -0.784300 1 0 1.000000 
Rebar_MedNorm01
0 -1.299000 -0.750000 -0.259900 -0.755213 -0.655412 -0.009400 0.831200 -0.974300 1 0 1.000000 
0 0.000000 -1.500000 -0.259900 0.188007 -0.982136 0.007900 0.998700 -0.974300 1 0 1.000000 
0 -0.496500 -1.353600 29.565701 0.032900 -0.995113 0.093101 0.998700 -0.784300 1 0 1.000000 
Rebar_MedNorm01
0 -3.228502 37.275501 127.416603 -0.147897 0.201396 0.968280 0.254600 -0.014400 1 0 1.000000 
0 -3.463802 38.725399 127.079002 -0.147897 0.201396 0.968280 0.422100 -0.014400 1 0 1.000000 
0 -4.617201 37.766602 127.102303 -0.147897 0.201396 0.968280 0.338300 -0.004800 1 0 1.000000 
Rebar_MedNorm01
0 -3.228502 37.275501 127.416603 -0.147897 0.201396 0.968280 0.254600 -0.014400 1 0 1.000000 
0 -2.075002 38.234200 127.393303 -0.147897 0.201396 0.968280 0.333800 -0.024000 1 0 1.000000 
0 -3.463802 38.725399 127.079002 -0.147897 0.201396 0.968280 0.422100 -0.014400 1 0 1.000000 
Rebar_MedNorm01
0 -3.228502 37.275501 127.416603 -0.147897 0.201396 0.968280 0.254600 -0.014400 1 0 1.000000 
0 -1.839702 36.784302 127.730797 -0.147897 0.201396 0.968280 0.166900 -0.024000 1 0 1.000000 
0 -2.075002 38.234200 127.393303 -0.147897 0.201396 0.968280 0.333800 -0.024000 1 0 1.000000 
Rebar_MedNorm01
0 -3.228502 37.275501 127.416603 -0.147897 0.201396 0.968280 0.254600 -0.014400 1 0 1.000000 
0 -2.993102 35.825600 127.753998 -0.147897 0.201396 0.968280 0.087100 -0.014400 1 0 1.000000 
0 -1.839702 36.784302 127.730797 -0.147897 0.201396 0.968280 0.166900 -0.024000 1 0 1.000000 
Rebar_MedNorm01
0 -3.228502 37.275501 127.416603 -0.147897 0.201396 0.968280 0.254600 -0.014400 1 0 1.000000 
0 -4.381901 36.316700 127.439796 -0.147897 0.201396 0.968280 0.170900 -0.004800 1 0 1.000000 
0 -2.993102 35.825600 127.753998 -0.147897 0.201396 0.968280 0.087100 -0.014400 1 0 1.000000 
Rebar_MedNorm01
0 -3.228502 37.275501 127.416603 -0.147897 0.201396 0.968280 0.254600 -0.014400 1 0 1.000000 
0 -4.617201 37.766602 127.102303 -0.147897 0.201396 0.968280 0.338300 -0.004800 1 0 1.000000 
0 -4.381901 36.316700 127.439796 -0.147897 0.201396 0.968280 0.170900 -0.004800 1 0 1.000000 
end
