version 1
nodes
  0 "static_prop" -1
end
skeleton
time 0
0 0.000000 0.000000 0.000000 0.000000 0.000000 0.000000
end
triangles
Elevator_Shaft01a
0 -2.452299 -23.972900 48.043400 0.000000 0.000000 -1.000000 1.005400 -0.051200 1 0 1.000000 
0 -0.469299 -23.972900 48.043400 0.000000 0.000000 -1.000000 1.005400 -0.051200 1 0 1.000000 
0 -0.469299 -28.031300 48.043400 0.000000 0.000000 -1.000000 0.972500 -0.051200 1 0 1.000000 
Elevator_Shaft01a
0 -0.448999 -24.465401 26.596300 0.000000 0.000000 -1.000000 0.900300 -0.130900 1 0 1.000000 
0 0.712501 -25.309299 26.596300 0.000000 0.000000 -1.000000 0.897900 -0.137700 1 0 1.000000 
0 -0.174799 -25.309299 26.596300 0.000000 0.000000 -1.000000 0.897900 -0.132500 1 0 1.000000 
Elevator_Shaft01a
0 -0.448999 -24.465401 26.596300 0.000000 0.000000 -1.000000 0.900300 -0.130900 1 0 1.000000 
0 0.986701 -24.465401 26.596300 0.000000 0.000000 -1.000000 0.900300 -0.139300 1 0 1.000000 
0 0.712501 -25.309299 26.596300 0.000000 0.000000 -1.000000 0.897900 -0.137700 1 0 1.000000 
Elevator_Shaft01a
0 -0.448999 -24.465401 26.596300 0.000000 0.000000 -1.000000 0.900300 -0.130900 1 0 1.000000 
0 0.268901 -23.943800 26.596300 0.000000 0.000000 -1.000000 0.901800 -0.135100 1 0 1.000000 
0 0.986701 -24.465401 26.596300 0.000000 0.000000 -1.000000 0.900300 -0.139300 1 0 1.000000 
Elevator_Shaft01a
0 -0.469301 24.076500 44.067902 0.000500 0.000000 -1.000000 0.824300 -0.032400 1 0 1.000000 
0 -0.468399 -24.004400 44.065899 -0.001000 -0.000000 -0.999999 0.388400 -0.032400 1 0 1.000000 
0 -2.452299 -24.004299 44.067902 0.000500 0.000000 -1.000000 0.388400 -0.013500 1 0 1.000000 
Elevator_Shaft01a
0 -2.452299 -24.004299 44.067902 0.000500 0.000000 -1.000000 0.388400 -0.013500 1 0 1.000000 
0 -2.452901 24.076099 44.063999 0.001900 -0.000100 -0.999998 0.824300 -0.013500 1 0 1.000000 
0 -0.469301 24.076500 44.067902 0.000500 0.000000 -1.000000 0.824300 -0.032400 1 0 1.000000 
Elevator_Shaft01a
0 -2.452301 24.082701 48.043400 -1.000000 -0.000000 0.000100 0.799700 -0.071500 1 0 1.000000 
0 -2.452901 24.076099 44.063999 -1.000000 0.000100 0.000100 0.799600 -0.104300 1 0 1.000000 
0 -2.452299 -24.004299 44.067902 -1.000000 -0.000000 0.000000 0.395500 -0.104300 1 0 1.000000 
Elevator_Shaft01a
0 -2.452299 -24.004299 44.067902 -1.000000 -0.000000 0.000000 0.395500 -0.104300 1 0 1.000000 
0 -2.452299 -23.972900 48.043400 -1.000000 -0.000000 0.000000 0.395500 -0.071500 1 0 1.000000 
0 -2.452301 24.082701 48.043400 -1.000000 -0.000000 0.000100 0.799700 -0.071500 1 0 1.000000 
Elevator_Shaft01a
0 -2.452301 24.082701 48.043400 -1.000000 -0.000000 0.000100 0.799700 -0.071500 1 0 1.000000 
0 -2.452299 -23.972900 48.043400 -1.000000 -0.000000 0.000000 0.395500 -0.071500 1 0 1.000000 
0 -2.452299 -23.972900 56.006599 -1.000000 -0.000000 0.000000 0.395500 -0.005900 1 0 1.000000 
Elevator_Shaft01a
0 -2.452299 -23.972900 56.006599 -1.000000 -0.000000 0.000000 0.395500 -0.005900 1 0 1.000000 
0 -2.452301 24.082701 56.006599 -1.000000 -0.000000 0.000000 0.799700 -0.005900 1 0 1.000000 
0 -2.452301 24.082701 48.043400 -1.000000 -0.000000 0.000100 0.799700 -0.071500 1 0 1.000000 
Elevator_Shaft01a
0 -2.452299 -23.972900 48.043400 -1.000000 -0.000000 0.000000 0.801700 -0.075100 1 0 1.000000 
0 -2.452299 -24.004299 44.067902 -1.000000 -0.000000 0.000000 0.801700 -0.107500 1 0 1.000000 
0 -2.452299 -28.027300 44.063999 -1.000000 -0.000000 0.000000 0.835400 -0.107500 1 0 1.000000 
Elevator_Shaft01a
0 -2.452299 -28.027300 44.063999 -1.000000 -0.000000 0.000000 0.835400 -0.107500 1 0 1.000000 
0 -2.452299 -28.031300 48.043400 -1.000000 -0.000000 0.000000 0.835400 -0.075100 1 0 1.000000 
0 -2.452299 -23.972900 48.043400 -1.000000 -0.000000 0.000000 0.801700 -0.075100 1 0 1.000000 
Elevator_Shaft01a
0 -2.452299 -28.027300 44.063999 -1.000000 -0.000000 0.000000 0.835400 -0.107500 1 0 1.000000 
0 -2.451698 -44.000000 48.043400 -1.000000 -0.000000 -0.000200 0.968300 -0.075100 1 0 1.000000 
0 -2.452299 -28.031300 48.043400 -1.000000 -0.000000 0.000000 0.835400 -0.075100 1 0 1.000000 
Elevator_Shaft01a
0 -2.452299 -28.031300 48.043400 -1.000000 -0.000000 0.000000 0.835400 -0.075100 1 0 1.000000 
0 -2.451698 -44.000000 48.043400 -1.000000 -0.000000 -0.000200 0.968300 -0.075100 1 0 1.000000 
0 -2.453198 -44.000000 56.003201 -1.000000 -0.000000 -0.000200 0.968300 -0.010200 1 0 1.000000 
Elevator_Shaft01a
0 -2.453198 -44.000000 56.003201 -1.000000 -0.000000 -0.000200 0.968300 -0.010200 1 0 1.000000 
0 -2.452299 -28.031300 56.006599 -1.000000 -0.000000 0.000000 0.835400 -0.010200 1 0 1.000000 
0 -2.452299 -28.031300 48.043400 -1.000000 -0.000000 0.000000 0.835400 -0.075100 1 0 1.000000 
Elevator_Shaft01a
0 -2.452299 -23.972900 48.043400 -1.000000 -0.000000 0.000000 0.801700 -0.075100 1 0 1.000000 
0 -2.452299 -28.031300 48.043400 -1.000000 -0.000000 0.000000 0.835400 -0.075100 1 0 1.000000 
0 -2.452299 -28.031300 56.006599 -1.000000 -0.000000 0.000000 0.835400 -0.010200 1 0 1.000000 
Elevator_Shaft01a
0 -2.452299 -28.031300 56.006599 -1.000000 -0.000000 0.000000 0.835400 -0.010200 1 0 1.000000 
0 -2.452299 -23.972900 56.006599 -1.000000 -0.000000 0.000000 0.801700 -0.010200 1 0 1.000000 
0 -2.452299 -23.972900 48.043400 -1.000000 -0.000000 0.000000 0.801700 -0.075100 1 0 1.000000 
Elevator_Shaft01a
0 -0.518501 32.335400 31.639000 -1.000000 -0.000000 0.000000 0.105700 -0.289900 1 0 1.000000 
0 -0.518501 32.335400 18.153400 -1.000000 -0.000000 0.000000 0.105700 -0.289900 1 0 1.000000 
0 -0.518501 32.035400 17.853399 -1.000000 -0.000000 0.000000 0.105600 -0.289900 1 0 1.000000 
Elevator_Shaft01a
0 -0.518501 32.335400 31.639000 -1.000000 -0.000000 0.000000 0.105700 -0.289900 1 0 1.000000 
0 -0.518501 32.035400 17.853399 -1.000000 -0.000000 0.000000 0.105600 -0.289900 1 0 1.000000 
0 -0.518501 24.075899 17.853399 -1.000000 -0.000000 0.000000 0.104000 -0.289900 1 0 1.000000 
Elevator_Shaft01a
0 -0.518501 24.075899 17.853399 -1.000000 -0.000000 0.000000 0.104000 -0.289900 1 0 1.000000 
0 -0.518501 32.035400 31.938999 -1.000000 -0.000000 0.000000 0.105600 -0.289900 1 0 1.000000 
0 -0.518501 32.335400 31.639000 -1.000000 -0.000000 0.000000 0.105700 -0.289900 1 0 1.000000 
Elevator_Shaft01a
0 -0.518501 24.075899 17.853399 -1.000000 -0.000000 0.000000 0.104000 -0.289900 1 0 1.000000 
0 -0.518501 24.075899 31.938999 -1.000000 -0.000000 0.000000 0.104000 -0.289900 1 0 1.000000 
0 -0.518501 32.035400 31.938999 -1.000000 -0.000000 0.000000 0.105600 -0.289900 1 0 1.000000 
Elevator_Shaft01a
0 -0.257601 30.960100 10.277600 0.000300 -1.000000 0.000000 0.194200 -0.605900 1 0 1.000000 
0 -0.257601 30.960100 14.834500 0.000300 -1.000000 0.000000 0.194200 -0.539500 1 0 1.000000 
0 -0.469601 30.960100 14.834500 0.000300 -1.000000 0.000000 0.194200 -0.539500 1 0 1.000000 
Elevator_Shaft01a
0 -0.469601 30.960100 14.834500 0.000300 -1.000000 0.000000 0.194200 -0.539500 1 0 1.000000 
0 -0.469601 30.960100 10.277600 0.000300 -1.000000 0.000000 0.194200 -0.605900 1 0 1.000000 
0 -0.257601 30.960100 10.277600 0.000300 -1.000000 0.000000 0.194200 -0.605900 1 0 1.000000 
Elevator_Shaft01a
0 -0.257601 30.960100 14.834500 0.000000 0.000000 1.000000 0.194200 -0.539500 1 0 1.000000 
0 -0.258302 37.634899 14.834500 0.000000 0.000000 1.000000 0.295100 -0.539500 1 0 1.000000 
0 -0.470202 37.634800 14.834500 0.000000 0.000000 1.000000 0.295100 -0.539500 1 0 1.000000 
Elevator_Shaft01a
0 -0.470202 37.634800 14.834500 0.000000 0.000000 1.000000 0.295100 -0.539500 1 0 1.000000 
0 -0.469601 30.960100 14.834500 0.000000 0.000000 1.000000 0.194200 -0.539500 1 0 1.000000 
0 -0.257601 30.960100 14.834500 0.000000 0.000000 1.000000 0.194200 -0.539500 1 0 1.000000 
Elevator_Shaft01a
0 -0.258302 37.634899 14.834500 -0.000400 1.000000 0.000000 0.295100 -0.539500 1 0 1.000000 
0 -0.258302 37.634899 10.277600 -0.000400 1.000000 0.000000 0.295100 -0.605900 1 0 1.000000 
0 -0.470202 37.634800 10.277600 -0.000400 1.000000 0.000000 0.295100 -0.605900 1 0 1.000000 
Elevator_Shaft01a
0 -0.470202 37.634800 10.277600 -0.000400 1.000000 0.000000 0.295100 -0.605900 1 0 1.000000 
0 -0.470202 37.634800 14.834500 -0.000400 1.000000 0.000000 0.295100 -0.539500 1 0 1.000000 
0 -0.258302 37.634899 14.834500 -0.000400 1.000000 0.000000 0.295100 -0.539500 1 0 1.000000 
Elevator_Shaft01a
0 -0.258302 37.634899 10.277600 0.000000 0.000000 -1.000000 0.295100 -0.605900 1 0 1.000000 
0 -0.257601 30.960100 10.277600 0.000000 0.000000 -1.000000 0.194200 -0.605900 1 0 1.000000 
0 -0.469601 30.960100 10.277600 0.000000 0.000000 -1.000000 0.194200 -0.605900 1 0 1.000000 
Elevator_Shaft01a
0 -0.469601 30.960100 10.277600 0.000000 0.000000 -1.000000 0.194200 -0.605900 1 0 1.000000 
0 -0.470202 37.634800 10.277600 0.000000 0.000000 -1.000000 0.295100 -0.605900 1 0 1.000000 
0 -0.258302 37.634899 10.277600 0.000000 0.000000 -1.000000 0.295100 -0.605900 1 0 1.000000 
Elevator_Shaft01a
0 -0.258302 37.634899 14.834500 1.000000 0.000100 0.000000 0.295100 -0.539500 1 0 1.000000 
0 -0.257601 30.960100 14.834500 1.000000 0.000100 0.000000 0.194200 -0.539500 1 0 1.000000 
0 -0.257601 30.960100 10.277600 1.000000 0.000100 0.000000 0.194200 -0.605900 1 0 1.000000 
Elevator_Shaft01a
0 -0.257601 30.960100 10.277600 1.000000 0.000100 0.000000 0.194200 -0.605900 1 0 1.000000 
0 -0.258302 37.634899 10.277600 1.000000 0.000100 0.000000 0.295100 -0.605900 1 0 1.000000 
0 -0.258302 37.634899 14.834500 1.000000 0.000100 0.000000 0.295100 -0.539500 1 0 1.000000 
Elevator_Shaft01a
0 -0.448999 -24.465401 -57.652500 -0.997070 0.076498 0.000000 0.894600 -0.197700 1 0 1.000000 
0 -0.174799 -25.309299 -50.102402 -0.761715 -0.647913 0.000000 0.901200 -0.121400 1 0 1.000000 
0 -0.448999 -24.465401 -50.102402 -0.851596 0.524198 0.000000 0.894600 -0.121400 1 0 1.000000 
Elevator_Shaft01a
0 -0.448999 -24.465401 -57.652500 -0.997070 0.076498 0.000000 0.894600 -0.197700 1 0 1.000000 
0 -0.174799 -25.309299 -57.652500 -0.380820 -0.924649 0.000000 0.901200 -0.197700 1 0 1.000000 
0 -0.174799 -25.309299 -50.102402 -0.761715 -0.647913 0.000000 0.901200 -0.121400 1 0 1.000000 
Elevator_Shaft01a
0 -0.174799 -25.309299 -57.652500 -0.380820 -0.924649 0.000000 0.901200 -0.197700 1 0 1.000000 
0 0.712501 -25.309299 -50.102402 0.380820 -0.924649 0.000000 0.908000 -0.121400 1 0 1.000000 
0 -0.174799 -25.309299 -50.102402 -0.761715 -0.647913 0.000000 0.901200 -0.121400 1 0 1.000000 
Elevator_Shaft01a
0 -0.174799 -25.309299 -57.652500 -0.380820 -0.924649 0.000000 0.901200 -0.197700 1 0 1.000000 
0 0.712501 -25.309299 -57.652500 0.761715 -0.647912 0.000000 0.908000 -0.197700 1 0 1.000000 
0 0.712501 -25.309299 -50.102402 0.380820 -0.924649 0.000000 0.908000 -0.121400 1 0 1.000000 
Elevator_Shaft01a
0 0.712501 -25.309299 -57.652500 0.761715 -0.647912 0.000000 0.908000 -0.197700 1 0 1.000000 
0 0.986701 -24.465401 -50.102402 0.997070 0.076498 0.000000 0.914600 -0.121400 1 0 1.000000 
0 0.712501 -25.309299 -50.102402 0.380820 -0.924649 0.000000 0.908000 -0.121400 1 0 1.000000 
Elevator_Shaft01a
0 0.712501 -25.309299 -57.652500 0.761715 -0.647912 0.000000 0.908000 -0.197700 1 0 1.000000 
0 0.986701 -24.465401 -57.652500 0.851596 0.524198 0.000000 0.914600 -0.197700 1 0 1.000000 
0 0.986701 -24.465401 -50.102402 0.997070 0.076498 0.000000 0.914600 -0.121400 1 0 1.000000 
Elevator_Shaft01a
0 0.986701 -24.465401 -57.652500 0.851596 0.524198 0.000000 0.914600 -0.197700 1 0 1.000000 
0 0.268801 -23.943800 -50.102402 0.235400 0.971899 0.000000 0.922300 -0.121400 1 0 1.000000 
0 0.986701 -24.465401 -50.102402 0.997070 0.076498 0.000000 0.914600 -0.121400 1 0 1.000000 
Elevator_Shaft01a
0 0.986701 -24.465401 -57.652500 0.851596 0.524198 0.000000 0.914600 -0.197700 1 0 1.000000 
0 0.268801 -23.943800 -57.652500 -0.235400 0.971898 0.000000 0.922300 -0.197700 1 0 1.000000 
0 0.268801 -23.943800 -50.102402 0.235400 0.971899 0.000000 0.922300 -0.121400 1 0 1.000000 
Elevator_Shaft01a
0 0.268801 -23.943800 -57.652500 -0.235400 0.971898 0.000000 0.922300 -0.197700 1 0 1.000000 
0 -0.448999 -24.465401 -50.102402 -0.851596 0.524198 0.000000 0.929900 -0.121400 1 0 1.000000 
0 0.268801 -23.943800 -50.102402 0.235400 0.971899 0.000000 0.922300 -0.121400 1 0 1.000000 
Elevator_Shaft01a
0 0.268801 -23.943800 -57.652500 -0.235400 0.971898 0.000000 0.922300 -0.197700 1 0 1.000000 
0 -0.448999 -24.465401 -57.652500 -0.997070 0.076498 0.000000 0.929900 -0.197700 1 0 1.000000 
0 -0.448999 -24.465401 -50.102402 -0.851596 0.524198 0.000000 0.929900 -0.121400 1 0 1.000000 
Elevator_Shaft01a
0 -0.448999 -24.465401 -57.652500 0.000000 0.000000 -1.000000 0.900300 -0.130900 1 0 1.000000 
0 0.712501 -25.309299 -57.652500 0.000000 0.000000 -1.000000 0.897900 -0.137700 1 0 1.000000 
0 -0.174799 -25.309299 -57.652500 0.000000 0.000000 -1.000000 0.897900 -0.132500 1 0 1.000000 
Elevator_Shaft01a
0 -0.448999 -24.465401 -57.652500 0.000000 0.000000 -1.000000 0.900300 -0.130900 1 0 1.000000 
0 0.986701 -24.465401 -57.652500 0.000000 0.000000 -1.000000 0.900300 -0.139300 1 0 1.000000 
0 0.712501 -25.309299 -57.652500 0.000000 0.000000 -1.000000 0.897900 -0.137700 1 0 1.000000 
Elevator_Shaft01a
0 -0.448999 -24.465401 -57.652500 0.000000 0.000000 -1.000000 0.900300 -0.130900 1 0 1.000000 
0 0.268801 -23.943800 -57.652500 0.000000 0.000000 -1.000000 0.901800 -0.135100 1 0 1.000000 
0 0.986701 -24.465401 -57.652500 0.000000 0.000000 -1.000000 0.900300 -0.139300 1 0 1.000000 
Elevator_Shaft01a
0 0.077399 29.315100 -11.148000 0.000700 -1.000000 0.000000 0.517200 -0.892600 1 0 1.000000 
0 0.077399 29.315100 8.984700 0.000700 -1.000000 0.000000 0.517200 -0.716000 1 0 1.000000 
0 -0.493601 29.314699 8.984700 0.000700 -1.000000 0.000000 0.509300 -0.716000 1 0 1.000000 
Elevator_Shaft01a
0 -0.493601 29.314699 8.984700 0.000700 -1.000000 0.000000 0.509300 -0.716000 1 0 1.000000 
0 -0.493601 29.314699 -11.148000 0.000700 -1.000000 0.000000 0.509300 -0.892600 1 0 1.000000 
0 0.077399 29.315100 -11.148000 0.000700 -1.000000 0.000000 0.517200 -0.892600 1 0 1.000000 
Elevator_Shaft01a
0 0.077399 29.315100 8.984700 0.000000 0.000000 1.000000 0.517200 -0.716000 1 0 1.000000 
0 0.076498 39.639500 8.984700 0.000000 0.000000 1.000000 0.517200 -0.639700 1 0 1.000000 
0 -0.494502 39.639099 8.984700 0.000000 0.000000 1.000000 0.509300 -0.639700 1 0 1.000000 
Elevator_Shaft01a
0 -0.494502 39.639099 8.984700 0.000000 0.000000 1.000000 0.509300 -0.639700 1 0 1.000000 
0 -0.493601 29.314699 8.984700 0.000000 0.000000 1.000000 0.509300 -0.716000 1 0 1.000000 
0 0.077399 29.315100 8.984700 0.000000 0.000000 1.000000 0.517200 -0.716000 1 0 1.000000 
Elevator_Shaft01a
0 0.076498 39.639500 8.984700 -0.000700 1.000000 0.000000 0.517200 -0.639700 1 0 1.000000 
0 0.076498 39.639500 -11.148000 -0.000700 1.000000 0.000000 0.517200 -0.463000 1 0 1.000000 
0 -0.494502 39.639099 -11.148000 -0.000700 1.000000 0.000000 0.509300 -0.463000 1 0 1.000000 
Elevator_Shaft01a
0 -0.494502 39.639099 -11.148000 -0.000700 1.000000 0.000000 0.509300 -0.463000 1 0 1.000000 
0 -0.494502 39.639099 8.984700 -0.000700 1.000000 0.000000 0.509300 -0.639700 1 0 1.000000 
0 0.076498 39.639500 8.984700 -0.000700 1.000000 0.000000 0.517200 -0.639700 1 0 1.000000 
Elevator_Shaft01a
0 0.076498 39.639500 -11.148000 0.000000 0.000000 -1.000000 0.517200 -0.969000 1 0 1.000000 
0 0.077399 29.315100 -11.148000 0.000000 0.000000 -1.000000 0.517200 -0.892600 1 0 1.000000 
0 -0.493601 29.314699 -11.148000 0.000000 0.000000 -1.000000 0.509300 -0.892600 1 0 1.000000 
Elevator_Shaft01a
0 -0.493601 29.314699 -11.148000 0.000000 0.000000 -1.000000 0.509300 -0.892600 1 0 1.000000 
0 -0.494502 39.639099 -11.148000 0.000000 0.000000 -1.000000 0.509300 -0.969000 1 0 1.000000 
0 0.076498 39.639500 -11.148000 0.000000 0.000000 -1.000000 0.517200 -0.969000 1 0 1.000000 
Elevator_Shaft01a
0 0.076498 39.639500 8.984700 1.000000 0.000100 0.000000 0.416200 -0.160200 1 0 1.000000 
0 0.077399 29.315100 8.984700 1.000000 0.000100 0.000000 0.279500 -0.160200 1 0 1.000000 
0 0.077399 29.315100 -11.148000 1.000000 0.000100 0.000000 0.279500 -0.421500 1 0 1.000000 
Elevator_Shaft01a
0 0.077399 29.315100 -11.148000 1.000000 0.000100 0.000000 0.279500 -0.421500 1 0 1.000000 
0 0.076498 39.639500 -11.148000 1.000000 0.000100 0.000000 0.416200 -0.421500 1 0 1.000000 
0 0.076498 39.639500 8.984700 1.000000 0.000100 0.000000 0.416200 -0.160200 1 0 1.000000 
Elevator_Shaft01a
0 -0.468399 -24.004400 44.065899 0.000100 1.000000 0.000000 0.917700 -0.088600 1 0 1.000000 
0 -0.468399 -24.007099 -64.000000 0.000100 1.000000 0.000000 0.917000 -0.996600 1 0 1.000000 
0 -2.452299 -24.007000 -64.000000 0.000100 1.000000 0.000000 0.900000 -0.996600 1 0 1.000000 
Elevator_Shaft01a
0 -2.452299 -24.007000 -64.000000 0.000100 1.000000 0.000000 0.900000 -0.996600 1 0 1.000000 
0 -2.452299 -24.004299 44.067902 0.000100 1.000000 0.000000 0.900800 -0.088600 1 0 1.000000 
0 -0.468399 -24.004400 44.065899 0.000100 1.000000 0.000000 0.917700 -0.088600 1 0 1.000000 
Elevator_Shaft01a
0 -0.546198 -44.000000 56.003700 0.999999 0.000000 -0.001100 0.495000 -0.988000 1 0 1.000000 
0 -0.546402 44.000000 56.003700 0.999999 0.000000 -0.001100 0.495000 -0.226000 1 0 1.000000 
0 -0.537302 44.000000 64.000000 0.999999 0.000000 -0.001100 0.422400 -0.226000 1 0 1.000000 
Elevator_Shaft01a
0 -0.537302 44.000000 64.000000 0.999999 0.000000 -0.001100 0.422400 -0.226000 1 0 1.000000 
0 -0.537298 -44.000000 64.000000 0.999999 0.000000 -0.001100 0.422400 -0.988000 1 0 1.000000 
0 -0.546198 -44.000000 56.003700 0.999999 0.000000 -0.001100 0.495000 -0.988000 1 0 1.000000 
Elevator_Shaft01a
0 1.401202 -44.000000 56.006599 -0.001500 -0.000000 0.999999 0.932800 -0.888700 1 0 1.000000 
0 1.400698 44.000000 56.006599 -0.001500 -0.000000 0.999999 0.932800 -0.127500 1 0 1.000000 
0 -0.546402 44.000000 56.003700 -0.001500 -0.000000 0.999999 0.949800 -0.127500 1 0 1.000000 
Elevator_Shaft01a
0 -0.546402 44.000000 56.003700 -0.001500 -0.000000 0.999999 0.949800 -0.127500 1 0 1.000000 
0 -0.546198 -44.000000 56.003700 -0.001500 -0.000000 0.999999 0.949800 -0.888700 1 0 1.000000 
0 1.401202 -44.000000 56.006599 -0.001500 -0.000000 0.999999 0.932800 -0.888700 1 0 1.000000 
Elevator_Shaft01a
0 1.400698 44.000000 54.039700 0.436398 0.218199 -0.872895 0.825800 -0.948300 1 0 1.000000 
0 1.401202 -44.000000 56.006599 0.894427 -0.447214 0.000000 0.841400 -0.295300 1 0 1.000000 
0 1.401202 -44.000000 54.039700 0.267297 -0.534494 -0.801791 0.825800 -0.295300 1 0 1.000000 
Elevator_Shaft01a
0 1.400698 44.000000 54.039700 0.436398 0.218199 -0.872895 0.825800 -0.948300 1 0 1.000000 
0 1.400698 44.000000 56.006599 0.447214 0.894427 0.000000 0.841400 -0.948300 1 0 1.000000 
0 1.401202 -44.000000 56.006599 0.894427 -0.447214 0.000000 0.841400 -0.295300 1 0 1.000000 
Elevator_Shaft01a
0 -2.452299 -28.027300 44.063999 -1.000000 -0.000000 0.000000 0.835400 -0.088300 1 0 1.000000 
0 -2.452299 -24.004299 44.067902 -1.000000 -0.000000 0.000000 0.801700 -0.088300 1 0 1.000000 
0 -2.452299 -24.007000 -64.000000 -1.000000 -0.000000 0.000000 0.801700 -0.988400 1 0 1.000000 
Elevator_Shaft01a
0 -2.452299 -24.007000 -64.000000 -1.000000 -0.000000 0.000000 0.801700 -0.988400 1 0 1.000000 
0 -2.452299 -28.023199 -64.000000 -1.000000 -0.000000 0.000000 0.835400 -0.988400 1 0 1.000000 
0 -2.452299 -28.027300 44.063999 -1.000000 -0.000000 0.000000 0.835400 -0.088300 1 0 1.000000 
Elevator_Shaft01a
0 -2.452299 -28.027300 44.063999 -1.000000 -0.000000 0.000000 0.835400 -0.088300 1 0 1.000000 
0 -2.452299 -28.023199 -64.000000 -1.000000 -0.000000 0.000000 0.835400 -0.988400 1 0 1.000000 
0 -2.451698 -44.000000 -64.000000 -1.000000 -0.000000 0.000000 0.968300 -0.988400 1 0 1.000000 
Elevator_Shaft01a
0 -2.451698 -44.000000 -64.000000 -1.000000 -0.000000 0.000000 0.968300 -0.988400 1 0 1.000000 
0 -2.451698 -44.000000 48.043400 -1.000000 -0.000000 0.000000 0.968300 -0.055900 1 0 1.000000 
0 -2.452299 -28.027300 44.063999 -1.000000 -0.000000 0.000000 0.835400 -0.088300 1 0 1.000000 
Elevator_Shaft01a
0 -0.471002 44.000000 48.043400 -0.000000 1.000000 0.000000 0.907400 -0.071300 1 0 1.000000 
0 -0.471002 44.000000 -64.000000 -0.000000 1.000000 0.000000 0.908100 -0.996600 1 0 1.000000 
0 -2.451702 44.000000 -64.000000 -0.000000 1.000000 0.000000 0.925100 -0.996600 1 0 1.000000 
Elevator_Shaft01a
0 -2.451702 44.000000 -64.000000 -0.000000 1.000000 0.000000 0.925100 -0.996600 1 0 1.000000 
0 -2.451702 44.000000 48.043400 -0.000000 1.000000 0.000000 0.924400 -0.071300 1 0 1.000000 
0 -0.471002 44.000000 48.043400 -0.000000 1.000000 0.000000 0.907400 -0.071300 1 0 1.000000 
Elevator_Shaft01a
0 2.453799 24.075899 17.853399 0.000000 -1.000000 0.000000 0.803300 -0.166900 1 0 1.000000 
0 2.453799 24.075899 31.938999 0.000000 -1.000000 0.000000 0.913800 -0.166900 1 0 1.000000 
0 -0.518501 24.075899 31.938999 0.000000 -1.000000 0.000000 0.913800 -0.136700 1 0 1.000000 
Elevator_Shaft01a
0 -0.518501 24.075899 31.938999 0.000000 -1.000000 0.000000 0.913800 -0.136700 1 0 1.000000 
0 -0.518501 24.075899 17.853399 0.000000 -1.000000 0.000000 0.803300 -0.136700 1 0 1.000000 
0 2.453799 24.075899 17.853399 0.000000 -1.000000 0.000000 0.803300 -0.166900 1 0 1.000000 
Elevator_Shaft01a
0 2.453799 24.075899 31.938999 0.000000 0.000000 1.000000 0.913800 -0.166900 1 0 1.000000 
0 2.453799 32.035400 31.938999 0.000000 0.000000 1.000000 0.968400 -0.166900 1 0 1.000000 
0 -0.518501 32.035400 31.938999 0.000000 0.000000 1.000000 0.968400 -0.136700 1 0 1.000000 
Elevator_Shaft01a
0 -0.518501 32.035400 31.938999 0.000000 0.000000 1.000000 0.968400 -0.136700 1 0 1.000000 
0 -0.518501 24.075899 31.938999 0.000000 0.000000 1.000000 0.913800 -0.136700 1 0 1.000000 
0 2.453799 24.075899 31.938999 0.000000 0.000000 1.000000 0.913800 -0.166900 1 0 1.000000 
Elevator_Shaft01a
0 2.453799 32.335400 31.639000 -0.000000 1.000000 0.000000 0.964400 -0.166900 1 0 1.000000 
0 2.453799 32.335400 18.153400 -0.000000 1.000000 0.000000 0.856000 -0.166900 1 0 1.000000 
0 -0.518501 32.335400 18.153400 -0.000000 1.000000 0.000000 0.856000 -0.136700 1 0 1.000000 
Elevator_Shaft01a
0 -0.518501 32.335400 18.153400 -0.000000 1.000000 0.000000 0.856000 -0.136700 1 0 1.000000 
0 -0.518501 32.335400 31.639000 -0.000000 1.000000 0.000000 0.964400 -0.136700 1 0 1.000000 
0 2.453799 32.335400 31.639000 -0.000000 1.000000 0.000000 0.964400 -0.166900 1 0 1.000000 
Elevator_Shaft01a
0 2.453799 32.035400 17.853399 0.000000 0.000000 -1.000000 0.852700 -0.166900 1 0 1.000000 
0 2.453799 24.075899 17.853399 0.000000 0.000000 -1.000000 0.803300 -0.166900 1 0 1.000000 
0 -0.518501 24.075899 17.853399 0.000000 0.000000 -1.000000 0.803300 -0.136700 1 0 1.000000 
Elevator_Shaft01a
0 -0.518501 24.075899 17.853399 0.000000 0.000000 -1.000000 0.803300 -0.136700 1 0 1.000000 
0 -0.518501 32.035400 17.853399 0.000000 0.000000 -1.000000 0.852700 -0.136700 1 0 1.000000 
0 2.453799 32.035400 17.853399 0.000000 0.000000 -1.000000 0.852700 -0.166900 1 0 1.000000 
Elevator_Shaft01a
0 -0.469299 -28.023199 -64.000000 0.000000 0.000000 -1.000000 0.950100 -0.260200 1 0 1.000000 
0 -0.470998 -44.000000 -64.000000 0.000000 0.000000 -1.000000 0.946900 -0.260200 1 0 1.000000 
0 -2.451698 -44.000000 -64.000000 0.000000 0.000000 -1.000000 0.946900 -0.253000 1 0 1.000000 
Elevator_Shaft01a
0 -2.451698 -44.000000 -64.000000 0.000000 0.000000 -1.000000 0.946900 -0.253000 1 0 1.000000 
0 -2.452299 -28.023199 -64.000000 0.000000 0.000000 -1.000000 0.950100 -0.253000 1 0 1.000000 
0 -0.469299 -28.023199 -64.000000 0.000000 0.000000 -1.000000 0.950100 -0.260200 1 0 1.000000 
Elevator_Shaft01a
0 -0.468399 -24.007099 -64.000000 0.000000 0.000000 -1.000000 0.950900 -0.260200 1 0 1.000000 
0 -0.469299 -28.023199 -64.000000 0.000000 0.000000 -1.000000 0.950100 -0.260200 1 0 1.000000 
0 -2.452299 -28.023199 -64.000000 0.000000 0.000000 -1.000000 0.950100 -0.253000 1 0 1.000000 
Elevator_Shaft01a
0 -2.452299 -28.023199 -64.000000 0.000000 0.000000 -1.000000 0.950100 -0.253000 1 0 1.000000 
0 -2.452299 -24.007000 -64.000000 0.000000 0.000000 -1.000000 0.950900 -0.253000 1 0 1.000000 
0 -0.468399 -24.007099 -64.000000 0.000000 0.000000 -1.000000 0.950900 -0.260200 1 0 1.000000 
Elevator_Shaft01a
0 -0.469301 28.063900 -64.000000 0.000000 0.000000 -1.000000 0.948300 -0.261200 1 0 1.000000 
0 -0.469301 24.076599 -64.000000 0.000000 0.000000 -1.000000 0.947500 -0.261200 1 0 1.000000 
0 -2.453001 24.076401 -64.000000 0.000000 0.000000 -1.000000 0.947500 -0.254000 1 0 1.000000 
Elevator_Shaft01a
0 -2.453001 24.076401 -64.000000 0.000000 0.000000 -1.000000 0.947500 -0.254000 1 0 1.000000 
0 -2.452301 28.063900 -64.000000 0.000000 0.000000 -1.000000 0.948300 -0.254000 1 0 1.000000 
0 -0.469301 28.063900 -64.000000 0.000000 0.000000 -1.000000 0.948300 -0.261200 1 0 1.000000 
Elevator_Shaft01a
0 -0.471002 44.000000 -64.000000 0.000000 0.000000 -1.000000 0.951500 -0.261200 1 0 1.000000 
0 -0.469301 28.063900 -64.000000 0.000000 0.000000 -1.000000 0.948300 -0.261200 1 0 1.000000 
0 -2.452301 28.063900 -64.000000 0.000000 0.000000 -1.000000 0.948300 -0.254000 1 0 1.000000 
Elevator_Shaft01a
0 -2.452301 28.063900 -64.000000 0.000000 0.000000 -1.000000 0.948300 -0.254000 1 0 1.000000 
0 -2.451702 44.000000 -64.000000 0.000000 0.000000 -1.000000 0.951500 -0.254000 1 0 1.000000 
0 -0.471002 44.000000 -64.000000 0.000000 0.000000 -1.000000 0.951500 -0.261200 1 0 1.000000 
Elevator_Shaft01a
0 -0.469301 24.076500 44.067902 1.000000 0.000000 0.000000 0.799600 -0.104300 1 0 1.000000 
0 -0.469301 28.065599 44.063999 1.000000 0.000100 0.000000 0.833200 -0.104300 1 0 1.000000 
0 -0.469301 28.067301 48.043400 1.000000 0.000000 0.000000 0.833200 -0.071500 1 0 1.000000 
Elevator_Shaft01a
0 -0.469301 28.067301 48.043400 1.000000 0.000000 0.000000 0.833200 -0.071500 1 0 1.000000 
0 -0.469301 24.082701 48.043400 1.000000 0.000000 0.000100 0.799700 -0.071500 1 0 1.000000 
0 -0.469301 24.076500 44.067902 1.000000 0.000000 0.000000 0.799600 -0.104300 1 0 1.000000 
Elevator_Shaft01a
0 -0.468399 -24.004400 44.065899 1.000000 -0.000100 0.000100 0.395500 -0.104300 1 0 1.000000 
0 -0.469301 24.076500 44.067902 1.000000 0.000000 0.000000 0.799600 -0.104300 1 0 1.000000 
0 -0.469301 24.082701 48.043400 1.000000 0.000000 0.000100 0.799700 -0.071500 1 0 1.000000 
Elevator_Shaft01a
0 -0.469301 24.082701 48.043400 1.000000 0.000000 0.000100 0.799700 -0.071500 1 0 1.000000 
0 -0.469299 -23.972900 48.043400 1.000000 -0.000100 0.000200 0.395500 -0.071500 1 0 1.000000 
0 -0.468399 -24.004400 44.065899 1.000000 -0.000100 0.000100 0.395500 -0.104300 1 0 1.000000 
Elevator_Shaft01a
0 -0.469301 24.076500 44.067902 1.000000 0.000000 0.000000 0.799600 -0.104300 1 0 1.000000 
0 -0.469301 24.076599 -64.000000 1.000000 0.000000 0.000000 0.799600 -0.995000 1 0 1.000000 
0 -0.469301 28.063900 -64.000000 1.000000 0.000100 0.000000 0.833100 -0.995000 1 0 1.000000 
Elevator_Shaft01a
0 -0.469301 28.063900 -64.000000 1.000000 0.000100 0.000000 0.833100 -0.995000 1 0 1.000000 
0 -0.469301 28.065599 44.063999 1.000000 0.000100 0.000000 0.833200 -0.104300 1 0 1.000000 
0 -0.469301 24.076500 44.067902 1.000000 0.000000 0.000000 0.799600 -0.104300 1 0 1.000000 
Elevator_Shaft01a
0 -0.471002 44.000000 48.043400 1.000000 0.000100 0.000000 0.967200 -0.071500 1 0 1.000000 
0 -0.469301 28.065599 44.063999 1.000000 0.000100 0.000000 0.833200 -0.104300 1 0 1.000000 
0 -0.469301 28.063900 -64.000000 1.000000 0.000100 0.000000 0.833100 -0.995000 1 0 1.000000 
Elevator_Shaft01a
0 -0.471002 44.000000 48.043400 1.000000 0.000100 0.000000 0.967200 -0.071500 1 0 1.000000 
0 -0.469301 28.067301 48.043400 1.000000 0.000000 0.000000 0.833200 -0.071500 1 0 1.000000 
0 -0.469301 28.065599 44.063999 1.000000 0.000100 0.000000 0.833200 -0.104300 1 0 1.000000 
Elevator_Shaft01a
0 -0.469301 28.067301 48.043400 1.000000 0.000000 0.000000 0.833200 -0.071500 1 0 1.000000 
0 -0.471002 44.000000 48.043400 1.000000 0.000100 0.000000 0.967200 -0.071500 1 0 1.000000 
0 -0.471002 44.000000 54.039700 1.000000 0.000100 0.000000 0.967200 -0.022100 1 0 1.000000 
Elevator_Shaft01a
0 -0.471002 44.000000 54.039700 1.000000 0.000100 0.000000 0.967200 -0.022100 1 0 1.000000 
0 -0.469301 28.067301 54.039700 1.000000 0.000100 0.000000 0.833200 -0.022100 1 0 1.000000 
0 -0.469301 28.067301 48.043400 1.000000 0.000000 0.000000 0.833200 -0.071500 1 0 1.000000 
Elevator_Shaft01a
0 -0.469301 24.082701 48.043400 1.000000 0.000000 0.000100 0.799700 -0.071500 1 0 1.000000 
0 -0.469301 28.067301 48.043400 1.000000 0.000000 0.000000 0.833200 -0.071500 1 0 1.000000 
0 -0.469301 28.067301 54.039700 1.000000 0.000100 0.000000 0.833200 -0.022100 1 0 1.000000 
Elevator_Shaft01a
0 -0.469301 28.067301 54.039700 1.000000 0.000100 0.000000 0.833200 -0.022100 1 0 1.000000 
0 -0.469301 24.082701 54.039700 1.000000 0.000000 0.000000 0.799700 -0.022100 1 0 1.000000 
0 -0.469301 24.082701 48.043400 1.000000 0.000000 0.000100 0.799700 -0.071500 1 0 1.000000 
Elevator_Shaft01a
0 -0.469299 -23.972900 48.043400 1.000000 -0.000100 0.000200 0.395500 -0.071500 1 0 1.000000 
0 -0.469301 24.082701 48.043400 1.000000 0.000000 0.000100 0.799700 -0.071500 1 0 1.000000 
0 -0.469301 24.082701 54.039700 1.000000 0.000000 0.000000 0.799700 -0.022100 1 0 1.000000 
Elevator_Shaft01a
0 -0.469301 24.082701 54.039700 1.000000 0.000000 0.000000 0.799700 -0.022100 1 0 1.000000 
0 -0.469299 -23.972900 54.039700 1.000000 0.000000 0.000000 0.395500 -0.022100 1 0 1.000000 
0 -0.469299 -23.972900 48.043400 1.000000 -0.000100 0.000200 0.395500 -0.071500 1 0 1.000000 
Elevator_Shaft01a
0 -0.469301 28.063900 -64.000000 1.000000 0.000100 0.000000 0.833100 -0.995000 1 0 1.000000 
0 -0.471002 44.000000 -64.000000 1.000000 0.000100 0.000000 0.967200 -0.995000 1 0 1.000000 
0 -0.471002 44.000000 48.043400 1.000000 0.000100 0.000000 0.967200 -0.071500 1 0 1.000000 
Elevator_Shaft01a
0 -2.452301 28.067301 56.006599 -1.000000 -0.000000 0.000000 0.835200 -0.010200 1 0 1.000000 
0 -2.453202 44.000000 56.003201 -1.000000 -0.000100 -0.000200 0.967700 -0.010200 1 0 1.000000 
0 -2.451702 44.000000 48.043400 -1.000000 -0.000000 0.000000 0.967700 -0.075100 1 0 1.000000 
Elevator_Shaft01a
0 -2.451702 44.000000 48.043400 -1.000000 -0.000000 0.000000 0.967700 -0.075100 1 0 1.000000 
0 -2.452301 28.067301 48.043400 -1.000000 0.000100 0.000100 0.835200 -0.075100 1 0 1.000000 
0 -2.452301 28.067301 56.006599 -1.000000 -0.000000 0.000000 0.835200 -0.010200 1 0 1.000000 
Elevator_Shaft01a
0 -2.452301 24.082701 56.006599 -1.000000 -0.000000 0.000000 0.802000 -0.010200 1 0 1.000000 
0 -2.452301 28.067301 56.006599 -1.000000 -0.000000 0.000000 0.835200 -0.010200 1 0 1.000000 
0 -2.452301 28.067301 48.043400 -1.000000 0.000100 0.000100 0.835200 -0.075100 1 0 1.000000 
Elevator_Shaft01a
0 -2.452301 28.067301 48.043400 -1.000000 0.000100 0.000100 0.835200 -0.075100 1 0 1.000000 
0 -2.452301 24.082701 48.043400 -1.000000 -0.000000 0.000100 0.802000 -0.075100 1 0 1.000000 
0 -2.452301 24.082701 56.006599 -1.000000 -0.000000 0.000000 0.802000 -0.010200 1 0 1.000000 
Elevator_Shaft01a
0 -2.452901 24.076099 44.063999 -1.000000 0.000100 0.000100 0.802000 -0.107500 1 0 1.000000 
0 -2.452301 24.082701 48.043400 -1.000000 -0.000000 0.000100 0.802000 -0.075100 1 0 1.000000 
0 -2.452301 28.067301 48.043400 -1.000000 0.000100 0.000100 0.835200 -0.075100 1 0 1.000000 
Elevator_Shaft01a
0 -2.452301 28.067301 48.043400 -1.000000 0.000100 0.000100 0.835200 -0.075100 1 0 1.000000 
0 -2.452301 28.065599 44.063999 -1.000000 0.000100 0.000000 0.835200 -0.107500 1 0 1.000000 
0 -2.452901 24.076099 44.063999 -1.000000 0.000100 0.000100 0.802000 -0.107500 1 0 1.000000 
Elevator_Shaft01a
0 -2.452301 28.065599 44.063999 -1.000000 0.000100 0.000000 0.835200 -0.107500 1 0 1.000000 
0 -2.452301 28.067301 48.043400 -1.000000 0.000100 0.000100 0.835200 -0.075100 1 0 1.000000 
0 -2.451702 44.000000 48.043400 -1.000000 -0.000000 0.000000 0.967700 -0.075100 1 0 1.000000 
Elevator_Shaft01a
0 -0.469299 -28.031300 54.039700 1.000000 -0.000100 0.000000 0.839800 -0.005600 1 0 1.000000 
0 -0.470998 -44.000000 54.039700 1.000000 -0.000100 0.000000 0.968000 -0.005600 1 0 1.000000 
0 -0.470998 -44.000000 48.043400 1.000000 -0.000100 0.000000 0.968000 -0.055900 1 0 1.000000 
Elevator_Shaft01a
0 -0.470998 -44.000000 48.043400 1.000000 -0.000100 0.000000 0.968000 -0.055900 1 0 1.000000 
0 -0.469299 -28.031300 48.043400 1.000000 -0.000100 0.000000 0.839800 -0.055900 1 0 1.000000 
0 -0.469299 -28.031300 54.039700 1.000000 -0.000100 0.000000 0.839800 -0.005600 1 0 1.000000 
Elevator_Shaft01a
0 -0.469299 -23.972900 54.039700 1.000000 0.000000 0.000000 0.807200 -0.005600 1 0 1.000000 
0 -0.469299 -28.031300 54.039700 1.000000 -0.000100 0.000000 0.839800 -0.005600 1 0 1.000000 
0 -0.469299 -28.031300 48.043400 1.000000 -0.000100 0.000000 0.839800 -0.055900 1 0 1.000000 
Elevator_Shaft01a
0 -0.469299 -28.031300 48.043400 1.000000 -0.000100 0.000000 0.839800 -0.055900 1 0 1.000000 
0 -0.469299 -23.972900 48.043400 1.000000 -0.000100 0.000200 0.807200 -0.055900 1 0 1.000000 
0 -0.469299 -23.972900 54.039700 1.000000 0.000000 0.000000 0.807200 -0.005600 1 0 1.000000 
Elevator_Shaft01a
0 -0.469299 -23.972900 48.043400 1.000000 -0.000100 0.000200 0.807200 -0.055900 1 0 1.000000 
0 -0.469299 -28.031300 48.043400 1.000000 -0.000100 0.000000 0.839800 -0.055900 1 0 1.000000 
0 -0.469299 -28.027300 44.063999 1.000000 -0.000100 0.000000 0.839800 -0.089200 1 0 1.000000 
Elevator_Shaft01a
0 -0.469299 -28.027300 44.063999 1.000000 -0.000100 0.000000 0.839800 -0.089200 1 0 1.000000 
0 -0.468399 -24.004400 44.065899 1.000000 -0.000100 0.000100 0.807300 -0.089200 1 0 1.000000 
0 -0.469299 -23.972900 48.043400 1.000000 -0.000100 0.000200 0.807200 -0.055900 1 0 1.000000 
Elevator_Shaft01a
0 -0.468399 -24.007099 -64.000000 1.000000 -0.000200 0.000000 0.807300 -0.985100 1 0 1.000000 
0 -0.468399 -24.004400 44.065899 1.000000 -0.000100 0.000100 0.807300 -0.089200 1 0 1.000000 
0 -0.469299 -28.027300 44.063999 1.000000 -0.000100 0.000000 0.839800 -0.089200 1 0 1.000000 
Elevator_Shaft01a
0 -0.469299 -28.027300 44.063999 1.000000 -0.000100 0.000000 0.839800 -0.089200 1 0 1.000000 
0 -0.469299 -28.023199 -64.000000 1.000000 -0.000200 0.000000 0.839800 -0.985100 1 0 1.000000 
0 -0.468399 -24.007099 -64.000000 1.000000 -0.000200 0.000000 0.807300 -0.985100 1 0 1.000000 
Elevator_Shaft01a
0 -0.470998 -44.000000 -64.000000 1.000000 -0.000100 0.000000 0.968000 -0.985100 1 0 1.000000 
0 -0.469299 -28.023199 -64.000000 1.000000 -0.000200 0.000000 0.839800 -0.985100 1 0 1.000000 
0 -0.469299 -28.027300 44.063999 1.000000 -0.000100 0.000000 0.839800 -0.089200 1 0 1.000000 
Elevator_Shaft01a
0 -0.469299 -28.027300 44.063999 1.000000 -0.000100 0.000000 0.839800 -0.089200 1 0 1.000000 
0 -0.470998 -44.000000 48.043400 1.000000 -0.000100 0.000000 0.968000 -0.055900 1 0 1.000000 
0 -0.470998 -44.000000 -64.000000 1.000000 -0.000100 0.000000 0.968000 -0.985100 1 0 1.000000 
Elevator_Shaft01a
0 -0.470998 -44.000000 48.043400 1.000000 -0.000100 0.000000 0.968000 -0.055900 1 0 1.000000 
0 -0.469299 -28.027300 44.063999 1.000000 -0.000100 0.000000 0.839800 -0.089200 1 0 1.000000 
0 -0.469299 -28.031300 48.043400 1.000000 -0.000100 0.000000 0.839800 -0.055900 1 0 1.000000 
Elevator_Shaft01a
0 -0.448999 -24.465401 26.596300 -0.997070 0.076498 0.000000 0.894600 -0.197700 1 0 1.000000 
0 -0.174799 -25.309299 34.146400 -0.761715 -0.647913 0.000000 0.901200 -0.121400 1 0 1.000000 
0 -0.448999 -24.465401 34.146400 -0.851596 0.524198 0.000000 0.894600 -0.121400 1 0 1.000000 
Elevator_Shaft01a
0 -0.448999 -24.465401 26.596300 -0.997070 0.076498 0.000000 0.894600 -0.197700 1 0 1.000000 
0 -0.174799 -25.309299 26.596300 -0.380820 -0.924649 0.000000 0.901200 -0.197700 1 0 1.000000 
0 -0.174799 -25.309299 34.146400 -0.761715 -0.647913 0.000000 0.901200 -0.121400 1 0 1.000000 
Elevator_Shaft01a
0 -0.174799 -25.309299 26.596300 -0.380820 -0.924649 0.000000 0.901200 -0.197700 1 0 1.000000 
0 0.712501 -25.309299 34.146400 0.380820 -0.924649 0.000000 0.908000 -0.121400 1 0 1.000000 
0 -0.174799 -25.309299 34.146400 -0.761715 -0.647913 0.000000 0.901200 -0.121400 1 0 1.000000 
Elevator_Shaft01a
0 -0.174799 -25.309299 26.596300 -0.380820 -0.924649 0.000000 0.901200 -0.197700 1 0 1.000000 
0 0.712501 -25.309299 26.596300 0.761715 -0.647912 0.000000 0.908000 -0.197700 1 0 1.000000 
0 0.712501 -25.309299 34.146400 0.380820 -0.924649 0.000000 0.908000 -0.121400 1 0 1.000000 
Elevator_Shaft01a
0 0.712501 -25.309299 26.596300 0.761715 -0.647912 0.000000 0.908000 -0.197700 1 0 1.000000 
0 0.986701 -24.465401 34.146400 0.997070 0.076498 0.000000 0.914600 -0.121400 1 0 1.000000 
0 0.712501 -25.309299 34.146400 0.380820 -0.924649 0.000000 0.908000 -0.121400 1 0 1.000000 
Elevator_Shaft01a
0 0.712501 -25.309299 26.596300 0.761715 -0.647912 0.000000 0.908000 -0.197700 1 0 1.000000 
0 0.986701 -24.465401 26.596300 0.851596 0.524198 0.000000 0.914600 -0.197700 1 0 1.000000 
0 0.986701 -24.465401 34.146400 0.997070 0.076498 0.000000 0.914600 -0.121400 1 0 1.000000 
Elevator_Shaft01a
0 0.986701 -24.465401 26.596300 0.851596 0.524198 0.000000 0.914600 -0.197700 1 0 1.000000 
0 0.268901 -23.943800 34.146400 0.235400 0.971899 0.000000 0.922300 -0.121400 1 0 1.000000 
0 0.986701 -24.465401 34.146400 0.997070 0.076498 0.000000 0.914600 -0.121400 1 0 1.000000 
Elevator_Shaft01a
0 0.986701 -24.465401 26.596300 0.851596 0.524198 0.000000 0.914600 -0.197700 1 0 1.000000 
0 0.268901 -23.943800 26.596300 -0.235400 0.971898 0.000000 0.922300 -0.197700 1 0 1.000000 
0 0.268901 -23.943800 34.146400 0.235400 0.971899 0.000000 0.922300 -0.121400 1 0 1.000000 
Elevator_Shaft01a
0 0.268901 -23.943800 26.596300 -0.235400 0.971898 0.000000 0.922300 -0.197700 1 0 1.000000 
0 -0.448999 -24.465401 34.146400 -0.851596 0.524198 0.000000 0.929900 -0.121400 1 0 1.000000 
0 0.268901 -23.943800 34.146400 0.235400 0.971899 0.000000 0.922300 -0.121400 1 0 1.000000 
Elevator_Shaft01a
0 0.268901 -23.943800 26.596300 -0.235400 0.971898 0.000000 0.922300 -0.197700 1 0 1.000000 
0 -0.448999 -24.465401 26.596300 -0.997070 0.076498 0.000000 0.929900 -0.197700 1 0 1.000000 
0 -0.448999 -24.465401 34.146400 -0.851596 0.524198 0.000000 0.929900 -0.121400 1 0 1.000000 
Elevator_Shaft01a
0 2.453799 32.035400 31.938999 1.000000 0.000000 0.000000 0.409000 -0.433800 1 0 1.000000 
0 2.453799 24.075899 31.938999 1.000000 0.000000 0.000000 0.312300 -0.433800 1 0 1.000000 
0 2.453799 24.075899 17.853399 1.000000 0.000000 0.000000 0.312300 -0.606000 1 0 1.000000 
Elevator_Shaft01a
0 2.453799 24.075899 17.853399 1.000000 0.000000 0.000000 0.312300 -0.606000 1 0 1.000000 
0 2.453799 32.335400 31.639000 1.000000 0.000000 0.000000 0.412500 -0.437500 1 0 1.000000 
0 2.453799 32.035400 31.938999 1.000000 0.000000 0.000000 0.409000 -0.433800 1 0 1.000000 
Elevator_Shaft01a
0 2.453799 24.075899 17.853399 1.000000 0.000000 0.000000 0.312300 -0.606000 1 0 1.000000 
0 2.453799 32.335400 18.153400 1.000000 0.000000 0.000000 0.412500 -0.602300 1 0 1.000000 
0 2.453799 32.335400 31.639000 1.000000 0.000000 0.000000 0.412500 -0.437500 1 0 1.000000 
Elevator_Shaft01a
0 2.453799 24.075899 17.853399 1.000000 0.000000 0.000000 0.312300 -0.606000 1 0 1.000000 
0 2.453799 32.035400 17.853399 1.000000 0.000000 0.000000 0.409000 -0.606000 1 0 1.000000 
0 2.453799 32.335400 18.153400 1.000000 0.000000 0.000000 0.412500 -0.602300 1 0 1.000000 
Elevator_Shaft01a
0 1.401202 -44.000000 54.039700 0.267297 -0.534494 -0.801791 0.901800 -0.017600 1 0 1.000000 
0 1.401202 -44.000000 56.006599 0.894427 -0.447214 0.000000 0.901800 -0.001200 1 0 1.000000 
0 -2.453198 -44.000000 56.003201 0.000000 -1.000000 0.000000 0.934700 -0.001200 1 0 1.000000 
Elevator_Shaft01a
0 -2.453198 -44.000000 56.003201 0.000000 -1.000000 0.000000 0.934700 -0.001200 1 0 1.000000 
0 -0.470998 -44.000000 54.039700 0.000000 -0.948693 -0.316198 0.917800 -0.017600 1 0 1.000000 
0 1.401202 -44.000000 54.039700 0.267297 -0.534494 -0.801791 0.901800 -0.017600 1 0 1.000000 
Elevator_Shaft01a
0 -0.470998 -44.000000 54.039700 0.000000 -0.948693 -0.316198 0.917800 -0.017600 1 0 1.000000 
0 -2.453198 -44.000000 56.003201 0.000000 -1.000000 0.000000 0.934700 -0.001200 1 0 1.000000 
0 -2.451698 -44.000000 48.043400 0.000000 -1.000000 0.000000 0.934700 -0.056000 1 0 1.000000 
Elevator_Shaft01a
0 -2.451698 -44.000000 48.043400 0.000000 -1.000000 0.000000 0.934700 -0.056000 1 0 1.000000 
0 -0.470998 -44.000000 48.043400 0.000000 -1.000000 0.000000 0.917800 -0.056000 1 0 1.000000 
0 -0.470998 -44.000000 54.039700 0.000000 -0.948693 -0.316198 0.917800 -0.017600 1 0 1.000000 
Elevator_Shaft01a
0 -0.470998 -44.000000 -64.000000 0.000000 -1.000000 0.000000 0.918500 -0.996600 1 0 1.000000 
0 -0.470998 -44.000000 48.043400 0.000000 -1.000000 0.000000 0.917800 -0.056000 1 0 1.000000 
0 -2.451698 -44.000000 48.043400 0.000000 -1.000000 0.000000 0.934700 -0.056000 1 0 1.000000 
Elevator_Shaft01a
0 -2.451698 -44.000000 48.043400 0.000000 -1.000000 0.000000 0.934700 -0.056000 1 0 1.000000 
0 -2.451698 -44.000000 -64.000000 0.000000 -1.000000 0.000000 0.935400 -0.996600 1 0 1.000000 
0 -0.470998 -44.000000 -64.000000 0.000000 -1.000000 0.000000 0.918500 -0.996600 1 0 1.000000 
Elevator_Shaft01a
0 -0.448999 -24.465401 -50.102402 0.000000 0.000000 1.000000 0.900300 -0.130900 1 0 1.000000 
0 0.986701 -24.465401 -50.102402 0.000000 0.000000 1.000000 0.900300 -0.139300 1 0 1.000000 
0 0.268801 -23.943800 -50.102402 0.000000 0.000000 1.000000 0.901800 -0.135100 1 0 1.000000 
Elevator_Shaft01a
0 -0.448999 -24.465401 -50.102402 0.000000 0.000000 1.000000 0.900300 -0.130900 1 0 1.000000 
0 0.712501 -25.309299 -50.102402 0.000000 0.000000 1.000000 0.897900 -0.137700 1 0 1.000000 
0 0.986701 -24.465401 -50.102402 0.000000 0.000000 1.000000 0.900300 -0.139300 1 0 1.000000 
Elevator_Shaft01a
0 -0.448999 -24.465401 -50.102402 0.000000 0.000000 1.000000 0.900300 -0.130900 1 0 1.000000 
0 -0.174799 -25.309299 -50.102402 0.000000 0.000000 1.000000 0.897900 -0.132500 1 0 1.000000 
0 0.712501 -25.309299 -50.102402 0.000000 0.000000 1.000000 0.897900 -0.137700 1 0 1.000000 
Elevator_Shaft01a
0 1.400698 44.000000 56.006599 0.447214 0.894427 0.000000 0.891400 -0.001200 1 0 1.000000 
0 1.400698 44.000000 54.039700 0.436398 0.218199 -0.872895 0.891400 -0.017600 1 0 1.000000 
0 -0.471002 44.000000 54.039700 -0.000000 0.948693 -0.316198 0.907400 -0.017600 1 0 1.000000 
Elevator_Shaft01a
0 -0.471002 44.000000 54.039700 -0.000000 0.948693 -0.316198 0.907400 -0.017600 1 0 1.000000 
0 -2.453202 44.000000 56.003201 -0.000000 1.000000 0.000000 0.924400 -0.001200 1 0 1.000000 
0 1.400698 44.000000 56.006599 0.447214 0.894427 0.000000 0.891400 -0.001200 1 0 1.000000 
Elevator_Shaft01a
0 -2.453202 44.000000 56.003201 -0.000000 1.000000 0.000000 0.924400 -0.001200 1 0 1.000000 
0 -0.471002 44.000000 54.039700 -0.000000 0.948693 -0.316198 0.907400 -0.017600 1 0 1.000000 
0 -0.471002 44.000000 48.043400 -0.000000 1.000000 0.000000 0.907400 -0.067500 1 0 1.000000 
Elevator_Shaft01a
0 -0.471002 44.000000 48.043400 -0.000000 1.000000 0.000000 0.907400 -0.067500 1 0 1.000000 
0 -2.451702 44.000000 48.043400 -0.000000 1.000000 0.000000 0.924400 -0.067500 1 0 1.000000 
0 -2.453202 44.000000 56.003201 -0.000000 1.000000 0.000000 0.924400 -0.001200 1 0 1.000000 
Elevator_Shaft01a
0 -0.470998 -44.000000 54.039700 0.000000 -0.948693 -0.316198 0.949200 -0.888700 1 0 1.000000 
0 -0.469299 -28.031300 54.039700 0.000000 0.000000 -1.000000 0.949100 -0.750500 1 0 1.000000 
0 1.401202 -44.000000 54.039700 0.267297 -0.534494 -0.801791 0.932800 -0.888700 1 0 1.000000 
Elevator_Shaft01a
0 -0.469299 -28.031300 54.039700 0.000000 0.000000 -1.000000 0.949100 -0.750500 1 0 1.000000 
0 -0.469299 -23.972900 54.039700 0.000000 0.000000 -1.000000 0.949100 -0.715400 1 0 1.000000 
0 1.401202 -44.000000 54.039700 0.267297 -0.534494 -0.801791 0.932800 -0.888700 1 0 1.000000 
Elevator_Shaft01a
0 1.400698 44.000000 54.039700 0.436398 0.218199 -0.872895 0.932800 -0.127500 1 0 1.000000 
0 1.401202 -44.000000 54.039700 0.267297 -0.534494 -0.801791 0.932800 -0.888700 1 0 1.000000 
0 -0.469299 -23.972900 54.039700 0.000000 0.000000 -1.000000 0.949100 -0.715400 1 0 1.000000 
Elevator_Shaft01a
0 -0.469299 -23.972900 54.039700 0.000000 0.000000 -1.000000 0.949100 -0.715400 1 0 1.000000 
0 -0.469301 24.082701 54.039700 0.000000 0.000000 -1.000000 0.949100 -0.299800 1 0 1.000000 
0 1.400698 44.000000 54.039700 0.436398 0.218199 -0.872895 0.932800 -0.127500 1 0 1.000000 
Elevator_Shaft01a
0 -0.469301 24.082701 54.039700 0.000000 0.000000 -1.000000 0.949100 -0.299800 1 0 1.000000 
0 -0.469301 28.067301 54.039700 0.000000 0.000000 -1.000000 0.949100 -0.265300 1 0 1.000000 
0 1.400698 44.000000 54.039700 0.436398 0.218199 -0.872895 0.932800 -0.127500 1 0 1.000000 
Elevator_Shaft01a
0 -0.469301 28.067301 54.039700 0.000000 0.000000 -1.000000 0.949100 -0.265300 1 0 1.000000 
0 -0.471002 44.000000 54.039700 -0.000000 0.948693 -0.316198 0.949200 -0.127500 1 0 1.000000 
0 1.400698 44.000000 54.039700 0.436398 0.218199 -0.872895 0.932800 -0.127500 1 0 1.000000 
Elevator_Shaft01a
0 -0.448999 -24.465401 34.146400 0.000000 0.000000 1.000000 0.900300 -0.130900 1 0 1.000000 
0 0.986701 -24.465401 34.146400 0.000000 0.000000 1.000000 0.900300 -0.139300 1 0 1.000000 
0 0.268901 -23.943800 34.146400 0.000000 0.000000 1.000000 0.901800 -0.135100 1 0 1.000000 
Elevator_Shaft01a
0 -0.448999 -24.465401 34.146400 0.000000 0.000000 1.000000 0.900300 -0.130900 1 0 1.000000 
0 0.712501 -25.309299 34.146400 0.000000 0.000000 1.000000 0.897900 -0.137700 1 0 1.000000 
0 0.986701 -24.465401 34.146400 0.000000 0.000000 1.000000 0.900300 -0.139300 1 0 1.000000 
Elevator_Shaft01a
0 -0.448999 -24.465401 34.146400 0.000000 0.000000 1.000000 0.900300 -0.130900 1 0 1.000000 
0 -0.174799 -25.309299 34.146400 0.000000 0.000000 1.000000 0.897900 -0.132500 1 0 1.000000 
0 0.712501 -25.309299 34.146400 0.000000 0.000000 1.000000 0.897900 -0.137700 1 0 1.000000 
Elevator_Shaft01a
0 -2.451701 24.076900 44.071701 -0.000200 -1.000000 0.000000 0.908100 -0.103900 1 0 1.000000 
0 -2.451701 24.076900 -64.000000 -0.000200 -1.000000 0.000000 0.907400 -0.996600 1 0 1.000000 
0 -0.469301 24.076500 44.067902 -0.000200 -1.000000 0.000000 0.925100 -0.103900 1 0 1.000000 
Elevator_Shaft01a
0 -0.469301 24.076599 -64.000000 -0.000100 -1.000000 0.000000 0.924400 -0.996600 1 0 1.000000 
0 -0.469301 24.076500 44.067902 -0.000200 -1.000000 0.000000 0.925100 -0.103900 1 0 1.000000 
0 -2.451701 24.076900 -64.000000 -0.000200 -1.000000 0.000000 0.907400 -0.996600 1 0 1.000000 
Elevator_Shaft01a
0 -0.537302 44.000000 64.000000 -0.000000 1.000000 0.000000 0.422300 -0.285000 1 0 1.000000 
0 -0.546402 44.000000 56.003700 -0.000000 1.000000 0.000000 0.496500 -0.285000 1 0 1.000000 
0 -2.453802 44.000000 64.000000 -0.000000 1.000000 0.000000 0.422300 -0.301500 1 0 1.000000 
Elevator_Shaft01a
0 -2.453202 44.000000 56.003201 -0.000000 1.000000 0.000000 0.496500 -0.301500 1 0 1.000000 
0 -2.453802 44.000000 64.000000 -0.000000 1.000000 0.000000 0.422300 -0.301500 1 0 1.000000 
0 -0.546402 44.000000 56.003700 -0.000000 1.000000 0.000000 0.496500 -0.285000 1 0 1.000000 
Elevator_Shaft01a
0 -0.546402 44.000000 56.003700 0.000300 0.000000 -1.000000 0.108000 -0.289800 1 0 1.000000 
0 -0.546198 -44.000000 56.003700 0.000300 0.000000 -1.000000 0.090100 -0.289800 1 0 1.000000 
0 -2.453202 44.000000 56.003201 0.000300 0.000000 -1.000000 0.108000 -0.282800 1 0 1.000000 
Elevator_Shaft01a
0 -2.453198 -44.000000 56.003201 0.000300 0.000000 -1.000000 0.090100 -0.282800 1 0 1.000000 
0 -2.453202 44.000000 56.003201 0.000300 0.000000 -1.000000 0.108000 -0.282800 1 0 1.000000 
0 -0.546198 -44.000000 56.003700 0.000300 0.000000 -1.000000 0.090100 -0.289800 1 0 1.000000 
Elevator_Shaft01a
0 -0.546198 -44.000000 56.003700 0.000000 -1.000000 0.000000 0.496500 -0.285000 1 0 1.000000 
0 -0.537298 -44.000000 64.000000 0.000000 -1.000000 0.000000 0.421100 -0.285000 1 0 1.000000 
0 -2.453198 -44.000000 56.003201 0.000000 -1.000000 0.000000 0.496500 -0.301500 1 0 1.000000 
Elevator_Shaft01a
0 -2.453798 -44.000000 64.000000 0.000000 -1.000000 0.000000 0.421100 -0.301500 1 0 1.000000 
0 -2.453198 -44.000000 56.003201 0.000000 -1.000000 0.000000 0.496500 -0.301500 1 0 1.000000 
0 -0.537298 -44.000000 64.000000 0.000000 -1.000000 0.000000 0.421100 -0.285000 1 0 1.000000 
Elevator_Shaft01a
0 -0.537298 -44.000000 64.000000 0.000000 0.000000 1.000000 0.421100 -0.988000 1 0 1.000000 
0 -0.537302 44.000000 64.000000 0.000000 0.000000 1.000000 0.421100 -0.226000 1 0 1.000000 
0 -2.453798 -44.000000 64.000000 0.000000 0.000000 1.000000 0.421100 -0.988000 1 0 1.000000 
Elevator_Shaft01a
0 -2.453802 44.000000 64.000000 0.000000 0.000000 1.000000 0.421100 -0.226000 1 0 1.000000 
0 -2.453798 -44.000000 64.000000 0.000000 0.000000 1.000000 0.421100 -0.988000 1 0 1.000000 
0 -0.537302 44.000000 64.000000 0.000000 0.000000 1.000000 0.421100 -0.226000 1 0 1.000000 
Elevator_Shaft01a
0 -2.453798 -44.000000 64.000000 -1.000000 -0.000000 -0.000100 0.421100 -0.988000 1 0 1.000000 
0 -2.453802 44.000000 64.000000 -1.000000 -0.000000 -0.000100 0.421100 -0.226000 1 0 1.000000 
0 -2.453198 -44.000000 56.003201 -1.000000 -0.000000 -0.000100 0.495000 -0.988000 1 0 1.000000 
Elevator_Shaft01a
0 -2.453202 44.000000 56.003201 -1.000000 -0.000000 -0.000100 0.495000 -0.226000 1 0 1.000000 
0 -2.453198 -44.000000 56.003201 -1.000000 -0.000000 -0.000100 0.495000 -0.988000 1 0 1.000000 
0 -2.453802 44.000000 64.000000 -1.000000 -0.000000 -0.000100 0.421100 -0.226000 1 0 1.000000 
Elevator_Shaft01a
0 -2.451702 44.000000 48.043400 -1.000000 -0.000000 0.000000 0.967700 -0.071200 1 0 1.000000 
0 -2.451702 44.000000 -64.000000 -1.000000 -0.000000 0.000000 0.967700 -0.988400 1 0 1.000000 
0 -2.452301 28.063900 -64.000000 -1.000000 0.000100 0.000000 0.835100 -0.988400 1 0 1.000000 
Elevator_Shaft01a
0 -2.452301 28.063900 -64.000000 -1.000000 0.000100 0.000000 0.835100 -0.988400 1 0 1.000000 
0 -2.452301 28.065599 44.063999 -1.000000 0.000100 0.000000 0.835200 -0.103700 1 0 1.000000 
0 -2.451702 44.000000 48.043400 -1.000000 -0.000000 0.000000 0.967700 -0.071200 1 0 1.000000 
Elevator_Shaft01a
0 -2.452901 24.076099 44.063999 -1.000000 0.000100 0.000100 0.802000 -0.103700 1 0 1.000000 
0 -2.452301 28.065599 44.063999 -1.000000 0.000100 0.000000 0.835200 -0.103700 1 0 1.000000 
0 -2.452301 28.063900 -64.000000 -1.000000 0.000100 0.000000 0.835100 -0.988400 1 0 1.000000 
Elevator_Shaft01a
0 -2.452301 28.063900 -64.000000 -1.000000 0.000100 0.000000 0.835100 -0.988400 1 0 1.000000 
0 -2.453001 24.076401 -64.000000 -1.000000 0.000200 0.000000 0.802000 -0.988400 1 0 1.000000 
0 -2.452901 24.076099 44.063999 -1.000000 0.000100 0.000100 0.802000 -0.103700 1 0 1.000000 
Elevator_Shaft01a
0 -0.518501 32.035400 17.853399 -0.000000 0.707107 -0.707107 0.853300 -0.136700 1 0 1.000000 
0 -0.518501 32.335400 18.153400 -0.000000 0.707107 -0.707107 0.856000 -0.136700 1 0 1.000000 
0 2.453799 32.035400 17.853399 -0.000000 0.707107 -0.707107 0.853300 -0.166900 1 0 1.000000 
Elevator_Shaft01a
0 2.453799 32.335400 18.153400 -0.000000 0.707107 -0.707107 0.856000 -0.166900 1 0 1.000000 
0 2.453799 32.035400 17.853399 -0.000000 0.707107 -0.707107 0.853300 -0.166900 1 0 1.000000 
0 -0.518501 32.335400 18.153400 -0.000000 0.707107 -0.707107 0.856000 -0.136700 1 0 1.000000 
Elevator_Shaft01a
0 -0.518501 32.335400 31.639000 -0.000000 0.707107 0.707107 0.964400 -0.136700 1 0 1.000000 
0 -0.518501 32.035400 31.938999 -0.000000 0.707107 0.707107 0.968400 -0.136700 1 0 1.000000 
0 2.453799 32.335400 31.639000 -0.000000 0.707107 0.707107 0.964400 -0.166900 1 0 1.000000 
Elevator_Shaft01a
0 2.453799 32.035400 31.938999 -0.000000 0.707107 0.707107 0.968400 -0.166900 1 0 1.000000 
0 2.453799 32.335400 31.639000 -0.000000 0.707107 0.707107 0.964400 -0.166900 1 0 1.000000 
0 -0.518501 32.035400 31.938999 -0.000000 0.707107 0.707107 0.968400 -0.136700 1 0 1.000000 
end
