version 1
nodes
  0 "Dummy06" -1
  1 "Dummy05" 0
  2 "Dummy03" 0
  3 "Dummy02" 0
  4 "Dummy04" 0
  5 "Dummy01" 0
  6 "view" 0
  7 "Box01" -1
end
skeleton
time 0
0 0.025609 0.202221 33.386700 0.000000 -0.000000 -1.570793
1 101.442551 0.184170 13.185070 0.000000 -0.000000 3.141592
2 40.250458 -42.362553 -4.659029 -1.570797 1.178097 3.141592
3 -73.039337 -42.673664 -4.659029 -1.570797 1.178097 3.141592
4 40.250465 42.750309 -4.632235 -1.570797 1.178097 3.141592
5 -73.039337 43.018772 -4.632235 -1.570797 1.178097 3.141592
6 20.891270 0.329391 37.053486 0.000000 -0.000000 0.000000
7 0.000000 0.041086 38.500462 1.570796 -0.000000 -3.141592
end
