version 1
nodes
  0 "static_prop" -1
end
skeleton
time 0
0 0.000000 0.000000 0.000000 0.000000 0.000000 0.000000
end
triangles
citizen_trap001
0 5.647699 22.282000 11.579500 0.438392 0.000000 0.898784 0.674100 -0.409500 1 0 1.000000 
0 8.901899 20.191601 9.992300 0.438392 0.000000 0.898784 0.657700 -0.421900 1 0 1.000000 
0 7.526499 21.721901 10.663100 0.438392 0.000000 0.898784 0.669700 -0.416700 1 0 1.000000 
citizen_trap001
0 5.647699 22.282000 11.579500 0.438392 0.000000 0.898784 0.674100 -0.409500 1 0 1.000000 
0 9.405299 18.101200 9.746800 0.438392 0.000000 0.898784 0.641400 -0.423900 1 0 1.000000 
0 8.901899 20.191601 9.992300 0.438392 0.000000 0.898784 0.657700 -0.421900 1 0 1.000000 
citizen_trap001
0 5.647699 22.282000 11.579500 0.438392 0.000000 0.898784 0.674100 -0.409500 1 0 1.000000 
0 8.901899 16.010900 9.992300 0.438392 0.000000 0.898784 0.625100 -0.421900 1 0 1.000000 
0 9.405299 18.101200 9.746800 0.438392 0.000000 0.898784 0.641400 -0.423900 1 0 1.000000 
citizen_trap001
0 5.647699 22.282000 11.579500 0.438392 0.000000 0.898784 0.674100 -0.409500 1 0 1.000000 
0 7.526500 14.480600 10.663100 0.438392 0.000000 0.898784 0.613100 -0.416700 1 0 1.000000 
0 8.901899 16.010900 9.992300 0.438392 0.000000 0.898784 0.625100 -0.421900 1 0 1.000000 
citizen_trap001
0 5.647699 22.282000 11.579500 0.438392 0.000000 0.898784 0.674100 -0.409500 1 0 1.000000 
0 5.647699 13.920500 11.579500 0.438392 0.000000 0.898784 0.608800 -0.409500 1 0 1.000000 
0 7.526500 14.480600 10.663100 0.438392 0.000000 0.898784 0.613100 -0.416700 1 0 1.000000 
citizen_trap001
0 5.647699 22.282000 11.579500 0.438392 0.000000 0.898784 0.674100 -0.409500 1 0 1.000000 
0 3.768899 14.480600 12.495900 0.438392 0.000000 0.898784 0.613100 -0.402400 1 0 1.000000 
0 5.647699 13.920500 11.579500 0.438392 0.000000 0.898784 0.608800 -0.409500 1 0 1.000000 
citizen_trap001
0 5.647699 22.282000 11.579500 0.438392 0.000000 0.898784 0.674100 -0.409500 1 0 1.000000 
0 2.393499 16.010900 13.166700 0.438392 0.000000 0.898784 0.625100 -0.397100 1 0 1.000000 
0 3.768899 14.480600 12.495900 0.438392 0.000000 0.898784 0.613100 -0.402400 1 0 1.000000 
citizen_trap001
0 5.647699 22.282000 11.579500 0.438392 0.000000 0.898784 0.674100 -0.409500 1 0 1.000000 
0 1.890099 18.101200 13.412200 0.438392 0.000000 0.898784 0.641400 -0.395200 1 0 1.000000 
0 2.393499 16.010900 13.166700 0.438392 0.000000 0.898784 0.625100 -0.397100 1 0 1.000000 
citizen_trap001
0 5.647699 22.282000 11.579500 0.438392 0.000000 0.898784 0.674100 -0.409500 1 0 1.000000 
0 2.393499 20.191601 13.166700 0.438392 0.000000 0.898784 0.657700 -0.397100 1 0 1.000000 
0 1.890099 18.101200 13.412200 0.438392 0.000000 0.898784 0.641400 -0.395200 1 0 1.000000 
citizen_trap001
0 5.647699 22.282000 11.579500 0.438392 0.000000 0.898784 0.674100 -0.409500 1 0 1.000000 
0 3.768899 21.721901 12.495900 0.438392 0.000000 0.898784 0.669700 -0.402400 1 0 1.000000 
0 2.393499 20.191601 13.166700 0.438392 0.000000 0.898784 0.657700 -0.397100 1 0 1.000000 
citizen_trap001
0 8.007401 -20.900000 12.615900 0.516893 -0.818089 -0.252096 0.336700 -0.401400 1 0 1.000000 
0 -3.915099 -19.680000 -14.611800 0.735300 -0.575100 -0.358600 0.346300 -0.614200 1 0 1.000000 
0 9.103901 -19.680000 12.081100 0.815283 -0.420991 -0.397592 0.346300 -0.405600 1 0 1.000000 
citizen_trap001
0 9.103901 -19.680000 12.081100 0.815283 -0.420991 -0.397592 0.346300 -0.405600 1 0 1.000000 
0 -3.915099 -19.680000 -14.611800 0.735300 -0.575100 -0.358600 0.346300 -0.614200 1 0 1.000000 
0 -3.513699 -18.013399 -14.807600 0.895234 -0.089003 -0.436617 0.359300 -0.615700 1 0 1.000000 
citizen_trap001
0 9.103901 -19.680000 12.081100 0.815283 -0.420991 -0.397592 0.346300 -0.405600 1 0 1.000000 
0 -3.513699 -18.013399 -14.807600 0.895234 -0.089003 -0.436617 0.359300 -0.615700 1 0 1.000000 
0 9.505301 -18.013399 11.885300 0.895234 0.089003 -0.436617 0.359300 -0.407100 1 0 1.000000 
citizen_trap001
0 9.505301 -18.013399 11.885300 0.895234 0.089003 -0.436617 0.359300 -0.407100 1 0 1.000000 
0 -3.513699 -18.013399 -14.807600 0.895234 -0.089003 -0.436617 0.359300 -0.615700 1 0 1.000000 
0 -3.915099 -16.346800 -14.611800 0.815283 0.420991 -0.397592 0.372300 -0.614200 1 0 1.000000 
citizen_trap001
0 9.505301 -18.013399 11.885300 0.895234 0.089003 -0.436617 0.359300 -0.407100 1 0 1.000000 
0 -3.915099 -16.346800 -14.611800 0.815283 0.420991 -0.397592 0.372300 -0.614200 1 0 1.000000 
0 9.103901 -16.346800 12.081100 0.735300 0.575100 -0.358600 0.372300 -0.405600 1 0 1.000000 
citizen_trap001
0 9.103901 -16.346800 12.081100 0.735300 0.575100 -0.358600 0.372300 -0.405600 1 0 1.000000 
0 -3.915099 -16.346800 -14.611800 0.815283 0.420991 -0.397592 0.372300 -0.614200 1 0 1.000000 
0 -5.011600 -15.126800 -14.077000 0.516893 0.818089 -0.252097 0.381800 -0.610000 1 0 1.000000 
citizen_trap001
0 9.103901 -16.346800 12.081100 0.735300 0.575100 -0.358600 0.372300 -0.405600 1 0 1.000000 
0 -5.011600 -15.126800 -14.077000 0.516893 0.818089 -0.252097 0.381800 -0.610000 1 0 1.000000 
0 8.007401 -15.126800 12.615900 0.378389 0.907074 -0.184495 0.381800 -0.401400 1 0 1.000000 
citizen_trap001
0 8.007401 -15.126800 12.615900 0.378389 0.907074 -0.184495 0.381800 -0.401400 1 0 1.000000 
0 -5.011600 -15.126800 -14.077000 0.516893 0.818089 -0.252097 0.381800 -0.610000 1 0 1.000000 
0 -6.509500 -14.680300 -13.346400 0.080002 0.996031 -0.039001 0.385300 -0.604300 1 0 1.000000 
citizen_trap001
0 8.007401 -15.126800 12.615900 0.378389 0.907074 -0.184495 0.381800 -0.401400 1 0 1.000000 
0 -6.509500 -14.680300 -13.346400 0.080002 0.996031 -0.039001 0.385300 -0.604300 1 0 1.000000 
0 6.509501 -14.680300 13.346400 -0.080003 0.996031 0.039001 0.385300 -0.395700 1 0 1.000000 
citizen_trap001
0 6.509501 -14.680300 13.346400 -0.080003 0.996031 0.039001 0.385300 -0.395700 1 0 1.000000 
0 -6.509500 -14.680300 -13.346400 0.080002 0.996031 -0.039001 0.385300 -0.604300 1 0 1.000000 
0 -8.007399 -15.126800 -12.615900 -0.378389 0.907074 0.184495 0.381800 -0.598600 1 0 1.000000 
citizen_trap001
0 6.509501 -14.680300 13.346400 -0.080003 0.996031 0.039001 0.385300 -0.395700 1 0 1.000000 
0 -8.007399 -15.126800 -12.615900 -0.378389 0.907074 0.184495 0.381800 -0.598600 1 0 1.000000 
0 5.011600 -15.126800 14.077000 -0.516893 0.818089 0.252096 0.381800 -0.390000 1 0 1.000000 
citizen_trap001
0 5.011600 -15.126800 14.077000 -0.516893 0.818089 0.252096 0.381800 -0.390000 1 0 1.000000 
0 -8.007399 -15.126800 -12.615900 -0.378389 0.907074 0.184495 0.381800 -0.598600 1 0 1.000000 
0 -9.103899 -16.346800 -12.081100 -0.735300 0.575100 0.358600 0.372300 -0.594400 1 0 1.000000 
citizen_trap001
0 5.011600 -15.126800 14.077000 -0.516893 0.818089 0.252096 0.381800 -0.390000 1 0 1.000000 
0 -9.103899 -16.346800 -12.081100 -0.735300 0.575100 0.358600 0.372300 -0.594400 1 0 1.000000 
0 3.915101 -16.346800 14.611800 -0.815283 0.420991 0.397592 0.372300 -0.385800 1 0 1.000000 
citizen_trap001
0 3.915101 -16.346800 14.611800 -0.815283 0.420991 0.397592 0.372300 -0.385800 1 0 1.000000 
0 -9.103899 -16.346800 -12.081100 -0.735300 0.575100 0.358600 0.372300 -0.594400 1 0 1.000000 
0 -9.505299 -18.013399 -11.885300 -0.895234 0.089003 0.436617 0.359300 -0.592900 1 0 1.000000 
citizen_trap001
0 3.915101 -16.346800 14.611800 -0.815283 0.420991 0.397592 0.372300 -0.385800 1 0 1.000000 
0 -9.505299 -18.013399 -11.885300 -0.895234 0.089003 0.436617 0.359300 -0.592900 1 0 1.000000 
0 3.513701 -18.013399 14.807600 -0.895234 -0.089003 0.436617 0.359300 -0.384300 1 0 1.000000 
citizen_trap001
0 3.513701 -18.013399 14.807600 -0.895234 -0.089003 0.436617 0.359300 -0.384300 1 0 1.000000 
0 -9.505299 -18.013399 -11.885300 -0.895234 0.089003 0.436617 0.359300 -0.592900 1 0 1.000000 
0 -9.103899 -19.680000 -12.081100 -0.815283 -0.420991 0.397592 0.346300 -0.594400 1 0 1.000000 
citizen_trap001
0 3.513701 -18.013399 14.807600 -0.895234 -0.089003 0.436617 0.359300 -0.384300 1 0 1.000000 
0 -9.103899 -19.680000 -12.081100 -0.815283 -0.420991 0.397592 0.346300 -0.594400 1 0 1.000000 
0 3.915101 -19.680000 14.611800 -0.735300 -0.575100 0.358600 0.346300 -0.385800 1 0 1.000000 
citizen_trap001
0 3.915101 -19.680000 14.611800 -0.735300 -0.575100 0.358600 0.346300 -0.385800 1 0 1.000000 
0 -9.103899 -19.680000 -12.081100 -0.815283 -0.420991 0.397592 0.346300 -0.594400 1 0 1.000000 
0 -8.007399 -20.900000 -12.615900 -0.516893 -0.818089 0.252097 0.336700 -0.598600 1 0 1.000000 
citizen_trap001
0 3.915101 -19.680000 14.611800 -0.735300 -0.575100 0.358600 0.346300 -0.385800 1 0 1.000000 
0 -8.007399 -20.900000 -12.615900 -0.516893 -0.818089 0.252097 0.336700 -0.598600 1 0 1.000000 
0 5.011601 -20.900000 14.077000 -0.378389 -0.907074 0.184495 0.336700 -0.390000 1 0 1.000000 
citizen_trap001
0 5.011601 -20.900000 14.077000 -0.378389 -0.907074 0.184495 0.336700 -0.390000 1 0 1.000000 
0 -8.007399 -20.900000 -12.615900 -0.516893 -0.818089 0.252097 0.336700 -0.598600 1 0 1.000000 
0 -6.509499 -21.346500 -13.346400 -0.080002 -0.996031 0.039001 0.333200 -0.604300 1 0 1.000000 
citizen_trap001
0 5.011601 -20.900000 14.077000 -0.378389 -0.907074 0.184495 0.336700 -0.390000 1 0 1.000000 
0 -6.509499 -21.346500 -13.346400 -0.080002 -0.996031 0.039001 0.333200 -0.604300 1 0 1.000000 
0 6.509501 -21.346500 13.346400 0.080003 -0.996031 -0.039001 0.333200 -0.395700 1 0 1.000000 
citizen_trap001
0 6.509501 -21.346500 13.346400 0.080003 -0.996031 -0.039001 0.333200 -0.395700 1 0 1.000000 
0 -6.509499 -21.346500 -13.346400 -0.080002 -0.996031 0.039001 0.333200 -0.604300 1 0 1.000000 
0 -5.011599 -20.900000 -14.077000 0.378389 -0.907074 -0.184495 0.336700 -0.610000 1 0 1.000000 
citizen_trap001
0 6.509501 -21.346500 13.346400 0.080003 -0.996031 -0.039001 0.333200 -0.395700 1 0 1.000000 
0 -5.011599 -20.900000 -14.077000 0.378389 -0.907074 -0.184495 0.336700 -0.610000 1 0 1.000000 
0 8.007401 -20.900000 12.615900 0.516893 -0.818089 -0.252096 0.336700 -0.401400 1 0 1.000000 
citizen_trap001
0 8.007401 -20.900000 12.615900 0.516893 -0.818089 -0.252096 0.336700 -0.401400 1 0 1.000000 
0 -5.011599 -20.900000 -14.077000 0.378389 -0.907074 -0.184495 0.336700 -0.610000 1 0 1.000000 
0 -3.915099 -19.680000 -14.611800 0.735300 -0.575100 -0.358600 0.346300 -0.614200 1 0 1.000000 
citizen_trap001
0 -3.513699 -18.013399 -14.807600 -0.438392 -0.000000 -0.898784 0.359300 -0.615700 1 0 1.000000 
0 -5.011600 -15.126800 -14.077000 -0.438392 -0.000000 -0.898784 0.381800 -0.610000 1 0 1.000000 
0 -3.915099 -16.346800 -14.611800 -0.438392 -0.000000 -0.898784 0.372300 -0.614200 1 0 1.000000 
citizen_trap001
0 -3.513699 -18.013399 -14.807600 -0.438392 -0.000000 -0.898784 0.359300 -0.615700 1 0 1.000000 
0 -6.509500 -14.680300 -13.346400 -0.438392 -0.000000 -0.898784 0.385300 -0.604300 1 0 1.000000 
0 -5.011600 -15.126800 -14.077000 -0.438392 -0.000000 -0.898784 0.381800 -0.610000 1 0 1.000000 
citizen_trap001
0 -3.513699 -18.013399 -14.807600 -0.438392 -0.000000 -0.898784 0.359300 -0.615700 1 0 1.000000 
0 -8.007399 -15.126800 -12.615900 -0.438392 -0.000000 -0.898784 0.381800 -0.598600 1 0 1.000000 
0 -6.509500 -14.680300 -13.346400 -0.438392 -0.000000 -0.898784 0.385300 -0.604300 1 0 1.000000 
citizen_trap001
0 -3.513699 -18.013399 -14.807600 -0.438392 -0.000000 -0.898784 0.359300 -0.615700 1 0 1.000000 
0 -9.103899 -16.346800 -12.081100 -0.438392 -0.000000 -0.898784 0.372300 -0.594400 1 0 1.000000 
0 -8.007399 -15.126800 -12.615900 -0.438392 -0.000000 -0.898784 0.381800 -0.598600 1 0 1.000000 
citizen_trap001
0 -3.513699 -18.013399 -14.807600 -0.438392 -0.000000 -0.898784 0.359300 -0.615700 1 0 1.000000 
0 -9.505299 -18.013399 -11.885300 -0.438392 -0.000000 -0.898784 0.359300 -0.592900 1 0 1.000000 
0 -9.103899 -16.346800 -12.081100 -0.438392 -0.000000 -0.898784 0.372300 -0.594400 1 0 1.000000 
citizen_trap001
0 -3.513699 -18.013399 -14.807600 -0.438392 -0.000000 -0.898784 0.359300 -0.615700 1 0 1.000000 
0 -9.103899 -19.680000 -12.081100 -0.438392 -0.000000 -0.898784 0.346300 -0.594400 1 0 1.000000 
0 -9.505299 -18.013399 -11.885300 -0.438392 -0.000000 -0.898784 0.359300 -0.592900 1 0 1.000000 
citizen_trap001
0 -3.513699 -18.013399 -14.807600 -0.438392 -0.000000 -0.898784 0.359300 -0.615700 1 0 1.000000 
0 -8.007399 -20.900000 -12.615900 -0.438392 -0.000000 -0.898784 0.336700 -0.598600 1 0 1.000000 
0 -9.103899 -19.680000 -12.081100 -0.438392 -0.000000 -0.898784 0.346300 -0.594400 1 0 1.000000 
citizen_trap001
0 -3.513699 -18.013399 -14.807600 -0.438392 -0.000000 -0.898784 0.359300 -0.615700 1 0 1.000000 
0 -6.509499 -21.346500 -13.346400 -0.438392 -0.000000 -0.898784 0.333200 -0.604300 1 0 1.000000 
0 -8.007399 -20.900000 -12.615900 -0.438392 -0.000000 -0.898784 0.336700 -0.598600 1 0 1.000000 
citizen_trap001
0 -3.513699 -18.013399 -14.807600 -0.438392 -0.000000 -0.898784 0.359300 -0.615700 1 0 1.000000 
0 -5.011599 -20.900000 -14.077000 -0.438392 -0.000000 -0.898784 0.336700 -0.610000 1 0 1.000000 
0 -6.509499 -21.346500 -13.346400 -0.438392 -0.000000 -0.898784 0.333200 -0.604300 1 0 1.000000 
citizen_trap001
0 -3.513699 -18.013399 -14.807600 -0.438392 -0.000000 -0.898784 0.359300 -0.615700 1 0 1.000000 
0 -3.915099 -19.680000 -14.611800 -0.438392 -0.000000 -0.898784 0.346300 -0.614200 1 0 1.000000 
0 -5.011599 -20.900000 -14.077000 -0.438392 -0.000000 -0.898784 0.336700 -0.610000 1 0 1.000000 
citizen_trap001
0 -3.915101 19.767799 -14.611800 -0.438392 -0.000000 -0.898784 0.654400 -0.614200 1 0 1.000000 
0 -6.509501 21.434401 -13.346500 -0.438392 -0.000000 -0.898784 0.667500 -0.604300 1 0 1.000000 
0 -5.011601 20.987801 -14.077000 -0.438392 -0.000000 -0.898784 0.664000 -0.610000 1 0 1.000000 
citizen_trap001
0 -3.915101 19.767799 -14.611800 -0.438392 -0.000000 -0.898784 0.654400 -0.614200 1 0 1.000000 
0 -8.007401 20.987801 -12.615900 -0.438392 -0.000000 -0.898784 0.664000 -0.598600 1 0 1.000000 
0 -6.509501 21.434401 -13.346500 -0.438392 -0.000000 -0.898784 0.667500 -0.604300 1 0 1.000000 
citizen_trap001
0 -3.915101 19.767799 -14.611800 -0.438392 -0.000000 -0.898784 0.654400 -0.614200 1 0 1.000000 
0 -9.103901 19.767799 -12.081100 -0.438392 -0.000000 -0.898784 0.654400 -0.594400 1 0 1.000000 
0 -8.007401 20.987801 -12.615900 -0.438392 -0.000000 -0.898784 0.664000 -0.598600 1 0 1.000000 
citizen_trap001
0 -3.915101 19.767799 -14.611800 -0.438392 -0.000000 -0.898784 0.654400 -0.614200 1 0 1.000000 
0 -9.505301 18.101200 -11.885300 -0.438392 -0.000000 -0.898784 0.641400 -0.592900 1 0 1.000000 
0 -9.103901 19.767799 -12.081100 -0.438392 -0.000000 -0.898784 0.654400 -0.594400 1 0 1.000000 
citizen_trap001
0 -3.915101 19.767799 -14.611800 -0.438392 -0.000000 -0.898784 0.654400 -0.614200 1 0 1.000000 
0 -9.103901 16.434700 -12.081100 -0.438392 -0.000000 -0.898784 0.628400 -0.594400 1 0 1.000000 
0 -9.505301 18.101200 -11.885300 -0.438392 -0.000000 -0.898784 0.641400 -0.592900 1 0 1.000000 
citizen_trap001
0 -3.915101 19.767799 -14.611800 -0.438392 -0.000000 -0.898784 0.654400 -0.614200 1 0 1.000000 
0 -8.007401 15.214700 -12.615900 -0.438392 -0.000000 -0.898784 0.618900 -0.598600 1 0 1.000000 
0 -9.103901 16.434700 -12.081100 -0.438392 -0.000000 -0.898784 0.628400 -0.594400 1 0 1.000000 
citizen_trap001
0 -3.915101 19.767799 -14.611800 -0.438392 -0.000000 -0.898784 0.654400 -0.614200 1 0 1.000000 
0 -6.509501 14.768100 -13.346400 -0.438392 -0.000000 -0.898784 0.615400 -0.604300 1 0 1.000000 
0 -8.007401 15.214700 -12.615900 -0.438392 -0.000000 -0.898784 0.618900 -0.598600 1 0 1.000000 
citizen_trap001
0 -3.915101 19.767799 -14.611800 -0.438392 -0.000000 -0.898784 0.654400 -0.614200 1 0 1.000000 
0 -5.011600 15.214700 -14.077000 -0.438392 -0.000000 -0.898784 0.618900 -0.610000 1 0 1.000000 
0 -6.509501 14.768100 -13.346400 -0.438392 -0.000000 -0.898784 0.615400 -0.604300 1 0 1.000000 
citizen_trap001
0 -3.915101 19.767799 -14.611800 -0.438392 -0.000000 -0.898784 0.654400 -0.614200 1 0 1.000000 
0 -3.915101 16.434700 -14.611800 -0.438392 -0.000000 -0.898784 0.628400 -0.614200 1 0 1.000000 
0 -5.011600 15.214700 -14.077000 -0.438392 -0.000000 -0.898784 0.618900 -0.610000 1 0 1.000000 
citizen_trap001
0 -3.915101 19.767799 -14.611800 -0.438392 -0.000000 -0.898784 0.654400 -0.614200 1 0 1.000000 
0 -3.513701 18.101200 -14.807600 -0.438392 -0.000000 -0.898784 0.641400 -0.615700 1 0 1.000000 
0 -3.915101 16.434700 -14.611800 -0.438392 -0.000000 -0.898784 0.628400 -0.614200 1 0 1.000000 
citizen_trap001
0 6.509501 -14.680300 13.346400 0.438392 0.000000 0.898784 0.385300 -0.395700 1 0 1.000000 
0 9.103901 -16.346800 12.081100 0.438392 0.000000 0.898784 0.372300 -0.405600 1 0 1.000000 
0 8.007401 -15.126800 12.615900 0.438392 0.000000 0.898784 0.381800 -0.401400 1 0 1.000000 
citizen_trap001
0 6.509501 -14.680300 13.346400 0.438392 0.000000 0.898784 0.385300 -0.395700 1 0 1.000000 
0 9.505301 -18.013399 11.885300 0.438392 0.000000 0.898784 0.359300 -0.407100 1 0 1.000000 
0 9.103901 -16.346800 12.081100 0.438392 0.000000 0.898784 0.372300 -0.405600 1 0 1.000000 
citizen_trap001
0 6.509501 -14.680300 13.346400 0.438392 0.000000 0.898784 0.385300 -0.395700 1 0 1.000000 
0 9.103901 -19.680000 12.081100 0.438392 0.000000 0.898784 0.346300 -0.405600 1 0 1.000000 
0 9.505301 -18.013399 11.885300 0.438392 0.000000 0.898784 0.359300 -0.407100 1 0 1.000000 
citizen_trap001
0 6.509501 -14.680300 13.346400 0.438392 0.000000 0.898784 0.385300 -0.395700 1 0 1.000000 
0 8.007401 -20.900000 12.615900 0.438392 0.000000 0.898784 0.336700 -0.401400 1 0 1.000000 
0 9.103901 -19.680000 12.081100 0.438392 0.000000 0.898784 0.346300 -0.405600 1 0 1.000000 
citizen_trap001
0 6.509501 -14.680300 13.346400 0.438392 0.000000 0.898784 0.385300 -0.395700 1 0 1.000000 
0 6.509501 -21.346500 13.346400 0.438392 0.000000 0.898784 0.333200 -0.395700 1 0 1.000000 
0 8.007401 -20.900000 12.615900 0.438392 0.000000 0.898784 0.336700 -0.401400 1 0 1.000000 
citizen_trap001
0 6.509501 -14.680300 13.346400 0.438392 0.000000 0.898784 0.385300 -0.395700 1 0 1.000000 
0 5.011601 -20.900000 14.077000 0.438392 0.000000 0.898784 0.336700 -0.390000 1 0 1.000000 
0 6.509501 -21.346500 13.346400 0.438392 0.000000 0.898784 0.333200 -0.395700 1 0 1.000000 
citizen_trap001
0 6.509501 -14.680300 13.346400 0.438392 0.000000 0.898784 0.385300 -0.395700 1 0 1.000000 
0 3.915101 -19.680000 14.611800 0.438392 0.000000 0.898784 0.346300 -0.385800 1 0 1.000000 
0 5.011601 -20.900000 14.077000 0.438392 0.000000 0.898784 0.336700 -0.390000 1 0 1.000000 
citizen_trap001
0 6.509501 -14.680300 13.346400 0.438392 0.000000 0.898784 0.385300 -0.395700 1 0 1.000000 
0 3.513701 -18.013399 14.807600 0.438392 0.000000 0.898784 0.359300 -0.384300 1 0 1.000000 
0 3.915101 -19.680000 14.611800 0.438392 0.000000 0.898784 0.346300 -0.385800 1 0 1.000000 
citizen_trap001
0 6.509501 -14.680300 13.346400 0.438392 0.000000 0.898784 0.385300 -0.395700 1 0 1.000000 
0 3.915101 -16.346800 14.611800 0.438392 0.000000 0.898784 0.372300 -0.385800 1 0 1.000000 
0 3.513701 -18.013399 14.807600 0.438392 0.000000 0.898784 0.359300 -0.384300 1 0 1.000000 
citizen_trap001
0 6.509501 -14.680300 13.346400 0.438392 0.000000 0.898784 0.385300 -0.395700 1 0 1.000000 
0 5.011600 -15.126800 14.077000 0.438392 0.000000 0.898784 0.381800 -0.390000 1 0 1.000000 
0 3.915101 -16.346800 14.611800 0.438392 0.000000 0.898784 0.372300 -0.385800 1 0 1.000000 
citizen_trap001
0 1.761401 -22.282000 3.611500 -0.438392 -0.000000 -0.898784 0.325900 -0.471800 1 0 1.000000 
0 5.015601 -20.191601 2.024300 -0.438392 -0.000000 -0.898784 0.342300 -0.484200 1 0 1.000000 
0 3.640201 -21.721901 2.695100 -0.438392 -0.000000 -0.898784 0.330300 -0.478900 1 0 1.000000 
citizen_trap001
0 1.761401 -22.282000 3.611500 -0.438392 -0.000000 -0.898784 0.325900 -0.471800 1 0 1.000000 
0 5.519101 -18.101200 1.778800 -0.438392 -0.000000 -0.898784 0.358600 -0.486100 1 0 1.000000 
0 5.015601 -20.191601 2.024300 -0.438392 -0.000000 -0.898784 0.342300 -0.484200 1 0 1.000000 
citizen_trap001
0 1.761401 -22.282000 3.611500 -0.438392 -0.000000 -0.898784 0.325900 -0.471800 1 0 1.000000 
0 5.015601 -16.010900 2.024300 -0.438392 -0.000000 -0.898784 0.374900 -0.484200 1 0 1.000000 
0 5.519101 -18.101200 1.778800 -0.438392 -0.000000 -0.898784 0.358600 -0.486100 1 0 1.000000 
citizen_trap001
0 1.761401 -22.282000 3.611500 -0.438392 -0.000000 -0.898784 0.325900 -0.471800 1 0 1.000000 
0 3.640201 -14.480600 2.695100 -0.438392 -0.000000 -0.898784 0.386900 -0.478900 1 0 1.000000 
0 5.015601 -16.010900 2.024300 -0.438392 -0.000000 -0.898784 0.374900 -0.484200 1 0 1.000000 
citizen_trap001
0 1.761401 -22.282000 3.611500 -0.438392 -0.000000 -0.898784 0.325900 -0.471800 1 0 1.000000 
0 1.761401 -13.920500 3.611500 -0.438392 -0.000000 -0.898784 0.391200 -0.471800 1 0 1.000000 
0 3.640201 -14.480600 2.695100 -0.438392 -0.000000 -0.898784 0.386900 -0.478900 1 0 1.000000 
citizen_trap001
0 1.761401 -22.282000 3.611500 -0.438392 -0.000000 -0.898784 0.325900 -0.471800 1 0 1.000000 
0 -0.117399 -14.480600 4.527800 -0.438392 -0.000000 -0.898784 0.386900 -0.464600 1 0 1.000000 
0 1.761401 -13.920500 3.611500 -0.438392 -0.000000 -0.898784 0.391200 -0.471800 1 0 1.000000 
citizen_trap001
0 1.761401 -22.282000 3.611500 -0.438392 -0.000000 -0.898784 0.325900 -0.471800 1 0 1.000000 
0 -1.492799 -16.010900 5.198700 -0.438392 -0.000000 -0.898784 0.374900 -0.459400 1 0 1.000000 
0 -0.117399 -14.480600 4.527800 -0.438392 -0.000000 -0.898784 0.386900 -0.464600 1 0 1.000000 
citizen_trap001
0 1.761401 -22.282000 3.611500 -0.438392 -0.000000 -0.898784 0.325900 -0.471800 1 0 1.000000 
0 -1.996199 -18.101200 5.444200 -0.438392 -0.000000 -0.898784 0.358600 -0.457500 1 0 1.000000 
0 -1.492799 -16.010900 5.198700 -0.438392 -0.000000 -0.898784 0.374900 -0.459400 1 0 1.000000 
citizen_trap001
0 1.761401 -22.282000 3.611500 -0.438392 -0.000000 -0.898784 0.325900 -0.471800 1 0 1.000000 
0 -1.492799 -20.191601 5.198700 -0.438392 -0.000000 -0.898784 0.342300 -0.459400 1 0 1.000000 
0 -1.996199 -18.101200 5.444200 -0.438392 -0.000000 -0.898784 0.358600 -0.457500 1 0 1.000000 
citizen_trap001
0 1.761401 -22.282000 3.611500 -0.438392 -0.000000 -0.898784 0.325900 -0.471800 1 0 1.000000 
0 -0.117399 -21.721901 4.527800 -0.438392 -0.000000 -0.898784 0.330300 -0.464600 1 0 1.000000 
0 -1.492799 -20.191601 5.198700 -0.438392 -0.000000 -0.898784 0.342300 -0.459400 1 0 1.000000 
citizen_trap001
0 5.647700 -13.920500 11.579500 0.438392 0.000000 0.898784 0.391200 -0.409500 1 0 1.000000 
0 8.901901 -16.010900 9.992300 0.438392 0.000000 0.898784 0.374900 -0.421900 1 0 1.000000 
0 7.526501 -14.480600 10.663100 0.438392 0.000000 0.898784 0.386900 -0.416700 1 0 1.000000 
citizen_trap001
0 5.647700 -13.920500 11.579500 0.438392 0.000000 0.898784 0.391200 -0.409500 1 0 1.000000 
0 9.405301 -18.101200 9.746800 0.438392 0.000000 0.898784 0.358600 -0.423900 1 0 1.000000 
0 8.901901 -16.010900 9.992300 0.438392 0.000000 0.898784 0.374900 -0.421900 1 0 1.000000 
citizen_trap001
0 5.647700 -13.920500 11.579500 0.438392 0.000000 0.898784 0.391200 -0.409500 1 0 1.000000 
0 8.901901 -20.191601 9.992300 0.438392 0.000000 0.898784 0.342300 -0.421900 1 0 1.000000 
0 9.405301 -18.101200 9.746800 0.438392 0.000000 0.898784 0.358600 -0.423900 1 0 1.000000 
citizen_trap001
0 5.647700 -13.920500 11.579500 0.438392 0.000000 0.898784 0.391200 -0.409500 1 0 1.000000 
0 7.526501 -21.721901 10.663100 0.438392 0.000000 0.898784 0.330300 -0.416700 1 0 1.000000 
0 8.901901 -20.191601 9.992300 0.438392 0.000000 0.898784 0.342300 -0.421900 1 0 1.000000 
citizen_trap001
0 5.647700 -13.920500 11.579500 0.438392 0.000000 0.898784 0.391200 -0.409500 1 0 1.000000 
0 5.647701 -22.282000 11.579500 0.438392 0.000000 0.898784 0.325900 -0.409500 1 0 1.000000 
0 7.526501 -21.721901 10.663100 0.438392 0.000000 0.898784 0.330300 -0.416700 1 0 1.000000 
citizen_trap001
0 5.647700 -13.920500 11.579500 0.438392 0.000000 0.898784 0.391200 -0.409500 1 0 1.000000 
0 3.768901 -21.721901 12.495900 0.438392 0.000000 0.898784 0.330300 -0.402400 1 0 1.000000 
0 5.647701 -22.282000 11.579500 0.438392 0.000000 0.898784 0.325900 -0.409500 1 0 1.000000 
citizen_trap001
0 5.647700 -13.920500 11.579500 0.438392 0.000000 0.898784 0.391200 -0.409500 1 0 1.000000 
0 2.393501 -20.191601 13.166700 0.438392 0.000000 0.898784 0.342300 -0.397100 1 0 1.000000 
0 3.768901 -21.721901 12.495900 0.438392 0.000000 0.898784 0.330300 -0.402400 1 0 1.000000 
citizen_trap001
0 5.647700 -13.920500 11.579500 0.438392 0.000000 0.898784 0.391200 -0.409500 1 0 1.000000 
0 1.890101 -18.101200 13.412200 0.438392 0.000000 0.898784 0.358600 -0.395200 1 0 1.000000 
0 2.393501 -20.191601 13.166700 0.438392 0.000000 0.898784 0.342300 -0.397100 1 0 1.000000 
citizen_trap001
0 5.647700 -13.920500 11.579500 0.438392 0.000000 0.898784 0.391200 -0.409500 1 0 1.000000 
0 2.393501 -16.010900 13.166700 0.438392 0.000000 0.898784 0.374900 -0.397100 1 0 1.000000 
0 1.890101 -18.101200 13.412200 0.438392 0.000000 0.898784 0.358600 -0.395200 1 0 1.000000 
citizen_trap001
0 5.647700 -13.920500 11.579500 0.438392 0.000000 0.898784 0.391200 -0.409500 1 0 1.000000 
0 3.768901 -14.480600 12.495900 0.438392 0.000000 0.898784 0.386900 -0.402400 1 0 1.000000 
0 2.393501 -16.010900 13.166700 0.438392 0.000000 0.898784 0.374900 -0.397100 1 0 1.000000 
citizen_trap001
0 6.509499 21.434401 13.346400 0.438392 0.000000 0.898784 0.667500 -0.395700 1 0 1.000000 
0 9.103899 19.767799 12.081100 0.438392 0.000000 0.898784 0.654400 -0.405600 1 0 1.000000 
0 8.007399 20.987801 12.615900 0.438392 0.000000 0.898784 0.664000 -0.401400 1 0 1.000000 
citizen_trap001
0 6.509499 21.434401 13.346400 0.438392 0.000000 0.898784 0.667500 -0.395700 1 0 1.000000 
0 9.505299 18.101200 11.885300 0.438392 0.000000 0.898784 0.641400 -0.407100 1 0 1.000000 
0 9.103899 19.767799 12.081100 0.438392 0.000000 0.898784 0.654400 -0.405600 1 0 1.000000 
citizen_trap001
0 6.509499 21.434401 13.346400 0.438392 0.000000 0.898784 0.667500 -0.395700 1 0 1.000000 
0 9.103899 16.434700 12.081100 0.438392 0.000000 0.898784 0.628400 -0.405600 1 0 1.000000 
0 9.505299 18.101200 11.885300 0.438392 0.000000 0.898784 0.641400 -0.407100 1 0 1.000000 
citizen_trap001
0 6.509499 21.434401 13.346400 0.438392 0.000000 0.898784 0.667500 -0.395700 1 0 1.000000 
0 8.007399 15.214700 12.615900 0.438392 0.000000 0.898784 0.618900 -0.401400 1 0 1.000000 
0 9.103899 16.434700 12.081100 0.438392 0.000000 0.898784 0.628400 -0.405600 1 0 1.000000 
citizen_trap001
0 6.509499 21.434401 13.346400 0.438392 0.000000 0.898784 0.667500 -0.395700 1 0 1.000000 
0 6.509500 14.768100 13.346400 0.438392 0.000000 0.898784 0.615400 -0.395700 1 0 1.000000 
0 8.007399 15.214700 12.615900 0.438392 0.000000 0.898784 0.618900 -0.401400 1 0 1.000000 
citizen_trap001
0 6.509499 21.434401 13.346400 0.438392 0.000000 0.898784 0.667500 -0.395700 1 0 1.000000 
0 5.011600 15.214700 14.077000 0.438392 0.000000 0.898784 0.618900 -0.390000 1 0 1.000000 
0 6.509500 14.768100 13.346400 0.438392 0.000000 0.898784 0.615400 -0.395700 1 0 1.000000 
citizen_trap001
0 6.509499 21.434401 13.346400 0.438392 0.000000 0.898784 0.667500 -0.395700 1 0 1.000000 
0 3.915099 16.434700 14.611800 0.438392 0.000000 0.898784 0.628400 -0.385800 1 0 1.000000 
0 5.011600 15.214700 14.077000 0.438392 0.000000 0.898784 0.618900 -0.390000 1 0 1.000000 
citizen_trap001
0 6.509499 21.434401 13.346400 0.438392 0.000000 0.898784 0.667500 -0.395700 1 0 1.000000 
0 3.513699 18.101200 14.807600 0.438392 0.000000 0.898784 0.641400 -0.384300 1 0 1.000000 
0 3.915099 16.434700 14.611800 0.438392 0.000000 0.898784 0.628400 -0.385800 1 0 1.000000 
citizen_trap001
0 6.509499 21.434401 13.346400 0.438392 0.000000 0.898784 0.667500 -0.395700 1 0 1.000000 
0 3.915099 19.767799 14.611800 0.438392 0.000000 0.898784 0.654400 -0.385800 1 0 1.000000 
0 3.513699 18.101200 14.807600 0.438392 0.000000 0.898784 0.641400 -0.384300 1 0 1.000000 
citizen_trap001
0 6.509499 21.434401 13.346400 0.438392 0.000000 0.898784 0.667500 -0.395700 1 0 1.000000 
0 5.011599 20.987801 14.077000 0.438392 0.000000 0.898784 0.664000 -0.390000 1 0 1.000000 
0 3.915099 19.767799 14.611800 0.438392 0.000000 0.898784 0.654400 -0.385800 1 0 1.000000 
citizen_trap001
0 1.761399 13.920500 3.611500 -0.438392 -0.000000 -0.898784 0.608800 -0.471800 1 0 1.000000 
0 5.015600 16.010900 2.024300 -0.438392 -0.000000 -0.898784 0.625100 -0.484200 1 0 1.000000 
0 3.640199 14.480600 2.695100 -0.438392 -0.000000 -0.898784 0.613100 -0.478900 1 0 1.000000 
citizen_trap001
0 1.761399 13.920500 3.611500 -0.438392 -0.000000 -0.898784 0.608800 -0.471800 1 0 1.000000 
0 5.519099 18.101200 1.778800 -0.438392 -0.000000 -0.898784 0.641400 -0.486100 1 0 1.000000 
0 5.015600 16.010900 2.024300 -0.438392 -0.000000 -0.898784 0.625100 -0.484200 1 0 1.000000 
citizen_trap001
0 1.761399 13.920500 3.611500 -0.438392 -0.000000 -0.898784 0.608800 -0.471800 1 0 1.000000 
0 5.015599 20.191601 2.024300 -0.438392 -0.000000 -0.898784 0.657700 -0.484200 1 0 1.000000 
0 5.519099 18.101200 1.778800 -0.438392 -0.000000 -0.898784 0.641400 -0.486100 1 0 1.000000 
citizen_trap001
0 1.761399 13.920500 3.611500 -0.438392 -0.000000 -0.898784 0.608800 -0.471800 1 0 1.000000 
0 3.640199 21.721901 2.695100 -0.438392 -0.000000 -0.898784 0.669700 -0.478900 1 0 1.000000 
0 5.015599 20.191601 2.024300 -0.438392 -0.000000 -0.898784 0.657700 -0.484200 1 0 1.000000 
citizen_trap001
0 1.761399 13.920500 3.611500 -0.438392 -0.000000 -0.898784 0.608800 -0.471800 1 0 1.000000 
0 1.761399 22.282000 3.611500 -0.438392 -0.000000 -0.898784 0.674100 -0.471800 1 0 1.000000 
0 3.640199 21.721901 2.695100 -0.438392 -0.000000 -0.898784 0.669700 -0.478900 1 0 1.000000 
citizen_trap001
0 1.761399 13.920500 3.611500 -0.438392 -0.000000 -0.898784 0.608800 -0.471800 1 0 1.000000 
0 -0.117401 21.721901 4.527800 -0.438392 -0.000000 -0.898784 0.669700 -0.464600 1 0 1.000000 
0 1.761399 22.282000 3.611500 -0.438392 -0.000000 -0.898784 0.674100 -0.471800 1 0 1.000000 
citizen_trap001
0 1.761399 13.920500 3.611500 -0.438392 -0.000000 -0.898784 0.608800 -0.471800 1 0 1.000000 
0 -1.492801 20.191601 5.198700 -0.438392 -0.000000 -0.898784 0.657700 -0.459400 1 0 1.000000 
0 -0.117401 21.721901 4.527800 -0.438392 -0.000000 -0.898784 0.669700 -0.464600 1 0 1.000000 
citizen_trap001
0 1.761399 13.920500 3.611500 -0.438392 -0.000000 -0.898784 0.608800 -0.471800 1 0 1.000000 
0 -1.996201 18.101200 5.444200 -0.438392 -0.000000 -0.898784 0.641400 -0.457500 1 0 1.000000 
0 -1.492801 20.191601 5.198700 -0.438392 -0.000000 -0.898784 0.657700 -0.459400 1 0 1.000000 
citizen_trap001
0 1.761399 13.920500 3.611500 -0.438392 -0.000000 -0.898784 0.608800 -0.471800 1 0 1.000000 
0 -1.492801 16.010900 5.198700 -0.438392 -0.000000 -0.898784 0.625100 -0.459400 1 0 1.000000 
0 -1.996201 18.101200 5.444200 -0.438392 -0.000000 -0.898784 0.641400 -0.457500 1 0 1.000000 
citizen_trap001
0 1.761399 13.920500 3.611500 -0.438392 -0.000000 -0.898784 0.608800 -0.471800 1 0 1.000000 
0 -0.117401 14.480600 4.527800 -0.438392 -0.000000 -0.898784 0.613100 -0.464600 1 0 1.000000 
0 -1.492801 16.010900 5.198700 -0.438392 -0.000000 -0.898784 0.625100 -0.459400 1 0 1.000000 
citizen_trap001
0 5.647701 -22.282000 11.579500 0.080003 -0.996031 -0.039001 0.325900 -0.409500 1 0 1.000000 
0 1.761401 -22.282000 3.611500 -0.080002 -0.996031 0.039001 0.325900 -0.471800 1 0 1.000000 
0 3.640201 -21.721901 2.695100 0.378389 -0.907074 -0.184495 0.330300 -0.478900 1 0 1.000000 
citizen_trap001
0 3.768901 -21.721901 12.495900 -0.378389 -0.907074 0.184495 0.330300 -0.402400 1 0 1.000000 
0 1.761401 -22.282000 3.611500 -0.080002 -0.996031 0.039001 0.325900 -0.471800 1 0 1.000000 
0 5.647701 -22.282000 11.579500 0.080003 -0.996031 -0.039001 0.325900 -0.409500 1 0 1.000000 
citizen_trap001
0 3.768901 -21.721901 12.495900 -0.378389 -0.907074 0.184495 0.330300 -0.402400 1 0 1.000000 
0 -0.117399 -21.721901 4.527800 -0.516893 -0.818089 0.252097 0.330300 -0.464600 1 0 1.000000 
0 1.761401 -22.282000 3.611500 -0.080002 -0.996031 0.039001 0.325900 -0.471800 1 0 1.000000 
citizen_trap001
0 2.393501 -20.191601 13.166700 -0.735300 -0.575100 0.358600 0.342300 -0.397100 1 0 1.000000 
0 -0.117399 -21.721901 4.527800 -0.516893 -0.818089 0.252097 0.330300 -0.464600 1 0 1.000000 
0 3.768901 -21.721901 12.495900 -0.378389 -0.907074 0.184495 0.330300 -0.402400 1 0 1.000000 
citizen_trap001
0 2.393501 -20.191601 13.166700 -0.735300 -0.575100 0.358600 0.342300 -0.397100 1 0 1.000000 
0 -1.492799 -20.191601 5.198700 -0.815283 -0.420991 0.397592 0.342300 -0.459400 1 0 1.000000 
0 -0.117399 -21.721901 4.527800 -0.516893 -0.818089 0.252097 0.330300 -0.464600 1 0 1.000000 
citizen_trap001
0 1.890101 -18.101200 13.412200 -0.895234 -0.089003 0.436617 0.358600 -0.395200 1 0 1.000000 
0 -1.492799 -20.191601 5.198700 -0.815283 -0.420991 0.397592 0.342300 -0.459400 1 0 1.000000 
0 2.393501 -20.191601 13.166700 -0.735300 -0.575100 0.358600 0.342300 -0.397100 1 0 1.000000 
citizen_trap001
0 1.890101 -18.101200 13.412200 -0.895234 -0.089003 0.436617 0.358600 -0.395200 1 0 1.000000 
0 -1.996199 -18.101200 5.444200 -0.895234 0.089003 0.436617 0.358600 -0.457500 1 0 1.000000 
0 -1.492799 -20.191601 5.198700 -0.815283 -0.420991 0.397592 0.342300 -0.459400 1 0 1.000000 
citizen_trap001
0 2.393501 -16.010900 13.166700 -0.815283 0.420991 0.397592 0.374900 -0.397100 1 0 1.000000 
0 -1.996199 -18.101200 5.444200 -0.895234 0.089003 0.436617 0.358600 -0.457500 1 0 1.000000 
0 1.890101 -18.101200 13.412200 -0.895234 -0.089003 0.436617 0.358600 -0.395200 1 0 1.000000 
citizen_trap001
0 2.393501 -16.010900 13.166700 -0.815283 0.420991 0.397592 0.374900 -0.397100 1 0 1.000000 
0 -1.492799 -16.010900 5.198700 -0.735300 0.575100 0.358600 0.374900 -0.459400 1 0 1.000000 
0 -1.996199 -18.101200 5.444200 -0.895234 0.089003 0.436617 0.358600 -0.457500 1 0 1.000000 
citizen_trap001
0 3.768901 -14.480600 12.495900 -0.516893 0.818089 0.252096 0.386900 -0.402400 1 0 1.000000 
0 -1.492799 -16.010900 5.198700 -0.735300 0.575100 0.358600 0.374900 -0.459400 1 0 1.000000 
0 2.393501 -16.010900 13.166700 -0.815283 0.420991 0.397592 0.374900 -0.397100 1 0 1.000000 
citizen_trap001
0 3.768901 -14.480600 12.495900 -0.516893 0.818089 0.252096 0.386900 -0.402400 1 0 1.000000 
0 -0.117399 -14.480600 4.527800 -0.378389 0.907074 0.184495 0.386900 -0.464600 1 0 1.000000 
0 -1.492799 -16.010900 5.198700 -0.735300 0.575100 0.358600 0.374900 -0.459400 1 0 1.000000 
citizen_trap001
0 5.647700 -13.920500 11.579500 -0.080003 0.996031 0.039001 0.391200 -0.409500 1 0 1.000000 
0 -0.117399 -14.480600 4.527800 -0.378389 0.907074 0.184495 0.386900 -0.464600 1 0 1.000000 
0 3.768901 -14.480600 12.495900 -0.516893 0.818089 0.252096 0.386900 -0.402400 1 0 1.000000 
citizen_trap001
0 5.647700 -13.920500 11.579500 -0.080003 0.996031 0.039001 0.391200 -0.409500 1 0 1.000000 
0 1.761401 -13.920500 3.611500 0.080002 0.996031 -0.039001 0.391200 -0.471800 1 0 1.000000 
0 -0.117399 -14.480600 4.527800 -0.378389 0.907074 0.184495 0.386900 -0.464600 1 0 1.000000 
citizen_trap001
0 7.526501 -14.480600 10.663100 0.378389 0.907074 -0.184495 0.386900 -0.416700 1 0 1.000000 
0 1.761401 -13.920500 3.611500 0.080002 0.996031 -0.039001 0.391200 -0.471800 1 0 1.000000 
0 5.647700 -13.920500 11.579500 -0.080003 0.996031 0.039001 0.391200 -0.409500 1 0 1.000000 
citizen_trap001
0 7.526501 -14.480600 10.663100 0.378389 0.907074 -0.184495 0.386900 -0.416700 1 0 1.000000 
0 3.640201 -14.480600 2.695100 0.516893 0.818089 -0.252097 0.386900 -0.478900 1 0 1.000000 
0 1.761401 -13.920500 3.611500 0.080002 0.996031 -0.039001 0.391200 -0.471800 1 0 1.000000 
citizen_trap001
0 8.901901 -16.010900 9.992300 0.735300 0.575100 -0.358600 0.374900 -0.421900 1 0 1.000000 
0 3.640201 -14.480600 2.695100 0.516893 0.818089 -0.252097 0.386900 -0.478900 1 0 1.000000 
0 7.526501 -14.480600 10.663100 0.378389 0.907074 -0.184495 0.386900 -0.416700 1 0 1.000000 
citizen_trap001
0 8.901901 -16.010900 9.992300 0.735300 0.575100 -0.358600 0.374900 -0.421900 1 0 1.000000 
0 5.015601 -16.010900 2.024300 0.815283 0.420991 -0.397592 0.374900 -0.484200 1 0 1.000000 
0 3.640201 -14.480600 2.695100 0.516893 0.818089 -0.252097 0.386900 -0.478900 1 0 1.000000 
citizen_trap001
0 9.405301 -18.101200 9.746800 0.895234 0.089003 -0.436617 0.358600 -0.423900 1 0 1.000000 
0 5.015601 -16.010900 2.024300 0.815283 0.420991 -0.397592 0.374900 -0.484200 1 0 1.000000 
0 8.901901 -16.010900 9.992300 0.735300 0.575100 -0.358600 0.374900 -0.421900 1 0 1.000000 
citizen_trap001
0 9.405301 -18.101200 9.746800 0.895234 0.089003 -0.436617 0.358600 -0.423900 1 0 1.000000 
0 5.519101 -18.101200 1.778800 0.895234 -0.089003 -0.436617 0.358600 -0.486100 1 0 1.000000 
0 5.015601 -16.010900 2.024300 0.815283 0.420991 -0.397592 0.374900 -0.484200 1 0 1.000000 
citizen_trap001
0 8.901901 -20.191601 9.992300 0.815283 -0.420991 -0.397592 0.342300 -0.421900 1 0 1.000000 
0 5.519101 -18.101200 1.778800 0.895234 -0.089003 -0.436617 0.358600 -0.486100 1 0 1.000000 
0 9.405301 -18.101200 9.746800 0.895234 0.089003 -0.436617 0.358600 -0.423900 1 0 1.000000 
citizen_trap001
0 8.901901 -20.191601 9.992300 0.815283 -0.420991 -0.397592 0.342300 -0.421900 1 0 1.000000 
0 5.015601 -20.191601 2.024300 0.735300 -0.575100 -0.358600 0.342300 -0.484200 1 0 1.000000 
0 5.519101 -18.101200 1.778800 0.895234 -0.089003 -0.436617 0.358600 -0.486100 1 0 1.000000 
citizen_trap001
0 7.526501 -21.721901 10.663100 0.516893 -0.818089 -0.252096 0.330300 -0.416700 1 0 1.000000 
0 5.015601 -20.191601 2.024300 0.735300 -0.575100 -0.358600 0.342300 -0.484200 1 0 1.000000 
0 8.901901 -20.191601 9.992300 0.815283 -0.420991 -0.397592 0.342300 -0.421900 1 0 1.000000 
citizen_trap001
0 7.526501 -21.721901 10.663100 0.516893 -0.818089 -0.252096 0.330300 -0.416700 1 0 1.000000 
0 3.640201 -21.721901 2.695100 0.378389 -0.907074 -0.184495 0.330300 -0.478900 1 0 1.000000 
0 5.015601 -20.191601 2.024300 0.735300 -0.575100 -0.358600 0.342300 -0.484200 1 0 1.000000 
citizen_trap001
0 5.647701 -22.282000 11.579500 0.080003 -0.996031 -0.039001 0.325900 -0.409500 1 0 1.000000 
0 3.640201 -21.721901 2.695100 0.378389 -0.907074 -0.184495 0.330300 -0.478900 1 0 1.000000 
0 7.526501 -21.721901 10.663100 0.516893 -0.818089 -0.252096 0.330300 -0.416700 1 0 1.000000 
citizen_trap001
0 9.103899 16.434700 12.081100 0.815283 -0.420991 -0.397592 0.628400 -0.405600 1 0 1.000000 
0 -3.513701 18.101200 -14.807600 0.895234 -0.089003 -0.436617 0.641400 -0.615700 1 0 1.000000 
0 9.505299 18.101200 11.885300 0.895234 0.089003 -0.436617 0.641400 -0.407100 1 0 1.000000 
citizen_trap001
0 9.505299 18.101200 11.885300 0.895234 0.089003 -0.436617 0.641400 -0.407100 1 0 1.000000 
0 -3.513701 18.101200 -14.807600 0.895234 -0.089003 -0.436617 0.641400 -0.615700 1 0 1.000000 
0 -3.915101 19.767799 -14.611800 0.815283 0.420991 -0.397592 0.654400 -0.614200 1 0 1.000000 
citizen_trap001
0 9.505299 18.101200 11.885300 0.895234 0.089003 -0.436617 0.641400 -0.407100 1 0 1.000000 
0 -3.915101 19.767799 -14.611800 0.815283 0.420991 -0.397592 0.654400 -0.614200 1 0 1.000000 
0 9.103899 19.767799 12.081100 0.735300 0.575100 -0.358600 0.654400 -0.405600 1 0 1.000000 
citizen_trap001
0 9.103899 19.767799 12.081100 0.735300 0.575100 -0.358600 0.654400 -0.405600 1 0 1.000000 
0 -3.915101 19.767799 -14.611800 0.815283 0.420991 -0.397592 0.654400 -0.614200 1 0 1.000000 
0 -5.011601 20.987801 -14.077000 0.516893 0.818089 -0.252097 0.664000 -0.610000 1 0 1.000000 
citizen_trap001
0 9.103899 19.767799 12.081100 0.735300 0.575100 -0.358600 0.654400 -0.405600 1 0 1.000000 
0 -5.011601 20.987801 -14.077000 0.516893 0.818089 -0.252097 0.664000 -0.610000 1 0 1.000000 
0 8.007399 20.987801 12.615900 0.378389 0.907074 -0.184495 0.664000 -0.401400 1 0 1.000000 
citizen_trap001
0 8.007399 20.987801 12.615900 0.378389 0.907074 -0.184495 0.664000 -0.401400 1 0 1.000000 
0 -5.011601 20.987801 -14.077000 0.516893 0.818089 -0.252097 0.664000 -0.610000 1 0 1.000000 
0 -6.509501 21.434401 -13.346500 0.080002 0.996031 -0.039001 0.667500 -0.604300 1 0 1.000000 
citizen_trap001
0 8.007399 20.987801 12.615900 0.378389 0.907074 -0.184495 0.664000 -0.401400 1 0 1.000000 
0 -6.509501 21.434401 -13.346500 0.080002 0.996031 -0.039001 0.667500 -0.604300 1 0 1.000000 
0 6.509499 21.434401 13.346400 -0.080003 0.996031 0.039001 0.667500 -0.395700 1 0 1.000000 
citizen_trap001
0 6.509499 21.434401 13.346400 -0.080003 0.996031 0.039001 0.667500 -0.395700 1 0 1.000000 
0 -6.509501 21.434401 -13.346500 0.080002 0.996031 -0.039001 0.667500 -0.604300 1 0 1.000000 
0 -8.007401 20.987801 -12.615900 -0.378389 0.907074 0.184495 0.664000 -0.598600 1 0 1.000000 
citizen_trap001
0 6.509499 21.434401 13.346400 -0.080003 0.996031 0.039001 0.667500 -0.395700 1 0 1.000000 
0 -8.007401 20.987801 -12.615900 -0.378389 0.907074 0.184495 0.664000 -0.598600 1 0 1.000000 
0 5.011599 20.987801 14.077000 -0.516893 0.818089 0.252096 0.664000 -0.390000 1 0 1.000000 
citizen_trap001
0 5.011599 20.987801 14.077000 -0.516893 0.818089 0.252096 0.664000 -0.390000 1 0 1.000000 
0 -8.007401 20.987801 -12.615900 -0.378389 0.907074 0.184495 0.664000 -0.598600 1 0 1.000000 
0 -9.103901 19.767799 -12.081100 -0.735300 0.575100 0.358600 0.654400 -0.594400 1 0 1.000000 
citizen_trap001
0 5.011599 20.987801 14.077000 -0.516893 0.818089 0.252096 0.664000 -0.390000 1 0 1.000000 
0 -9.103901 19.767799 -12.081100 -0.735300 0.575100 0.358600 0.654400 -0.594400 1 0 1.000000 
0 3.915099 19.767799 14.611800 -0.815283 0.420991 0.397592 0.654400 -0.385800 1 0 1.000000 
citizen_trap001
0 3.915099 19.767799 14.611800 -0.815283 0.420991 0.397592 0.654400 -0.385800 1 0 1.000000 
0 -9.103901 19.767799 -12.081100 -0.735300 0.575100 0.358600 0.654400 -0.594400 1 0 1.000000 
0 -9.505301 18.101200 -11.885300 -0.895234 0.089003 0.436617 0.641400 -0.592900 1 0 1.000000 
citizen_trap001
0 3.915099 19.767799 14.611800 -0.815283 0.420991 0.397592 0.654400 -0.385800 1 0 1.000000 
0 -9.505301 18.101200 -11.885300 -0.895234 0.089003 0.436617 0.641400 -0.592900 1 0 1.000000 
0 3.513699 18.101200 14.807600 -0.895234 -0.089003 0.436617 0.641400 -0.384300 1 0 1.000000 
citizen_trap001
0 3.513699 18.101200 14.807600 -0.895234 -0.089003 0.436617 0.641400 -0.384300 1 0 1.000000 
0 -9.505301 18.101200 -11.885300 -0.895234 0.089003 0.436617 0.641400 -0.592900 1 0 1.000000 
0 -9.103901 16.434700 -12.081100 -0.815283 -0.420991 0.397592 0.628400 -0.594400 1 0 1.000000 
citizen_trap001
0 3.513699 18.101200 14.807600 -0.895234 -0.089003 0.436617 0.641400 -0.384300 1 0 1.000000 
0 -9.103901 16.434700 -12.081100 -0.815283 -0.420991 0.397592 0.628400 -0.594400 1 0 1.000000 
0 3.915099 16.434700 14.611800 -0.735300 -0.575100 0.358600 0.628400 -0.385800 1 0 1.000000 
citizen_trap001
0 3.915099 16.434700 14.611800 -0.735300 -0.575100 0.358600 0.628400 -0.385800 1 0 1.000000 
0 -9.103901 16.434700 -12.081100 -0.815283 -0.420991 0.397592 0.628400 -0.594400 1 0 1.000000 
0 -8.007401 15.214700 -12.615900 -0.516893 -0.818089 0.252097 0.618900 -0.598600 1 0 1.000000 
citizen_trap001
0 3.915099 16.434700 14.611800 -0.735300 -0.575100 0.358600 0.628400 -0.385800 1 0 1.000000 
0 -8.007401 15.214700 -12.615900 -0.516893 -0.818089 0.252097 0.618900 -0.598600 1 0 1.000000 
0 5.011600 15.214700 14.077000 -0.378389 -0.907074 0.184495 0.618900 -0.390000 1 0 1.000000 
citizen_trap001
0 5.011600 15.214700 14.077000 -0.378389 -0.907074 0.184495 0.618900 -0.390000 1 0 1.000000 
0 -8.007401 15.214700 -12.615900 -0.516893 -0.818089 0.252097 0.618900 -0.598600 1 0 1.000000 
0 -6.509501 14.768100 -13.346400 -0.080002 -0.996031 0.039001 0.615400 -0.604300 1 0 1.000000 
citizen_trap001
0 5.011600 15.214700 14.077000 -0.378389 -0.907074 0.184495 0.618900 -0.390000 1 0 1.000000 
0 -6.509501 14.768100 -13.346400 -0.080002 -0.996031 0.039001 0.615400 -0.604300 1 0 1.000000 
0 6.509500 14.768100 13.346400 0.080003 -0.996031 -0.039001 0.615400 -0.395700 1 0 1.000000 
citizen_trap001
0 6.509500 14.768100 13.346400 0.080003 -0.996031 -0.039001 0.615400 -0.395700 1 0 1.000000 
0 -6.509501 14.768100 -13.346400 -0.080002 -0.996031 0.039001 0.615400 -0.604300 1 0 1.000000 
0 -5.011600 15.214700 -14.077000 0.378389 -0.907074 -0.184495 0.618900 -0.610000 1 0 1.000000 
citizen_trap001
0 6.509500 14.768100 13.346400 0.080003 -0.996031 -0.039001 0.615400 -0.395700 1 0 1.000000 
0 -5.011600 15.214700 -14.077000 0.378389 -0.907074 -0.184495 0.618900 -0.610000 1 0 1.000000 
0 8.007399 15.214700 12.615900 0.516893 -0.818089 -0.252096 0.618900 -0.401400 1 0 1.000000 
citizen_trap001
0 8.007399 15.214700 12.615900 0.516893 -0.818089 -0.252096 0.618900 -0.401400 1 0 1.000000 
0 -5.011600 15.214700 -14.077000 0.378389 -0.907074 -0.184495 0.618900 -0.610000 1 0 1.000000 
0 -3.915101 16.434700 -14.611800 0.735300 -0.575100 -0.358600 0.628400 -0.614200 1 0 1.000000 
citizen_trap001
0 8.007399 15.214700 12.615900 0.516893 -0.818089 -0.252096 0.618900 -0.401400 1 0 1.000000 
0 -3.915101 16.434700 -14.611800 0.735300 -0.575100 -0.358600 0.628400 -0.614200 1 0 1.000000 
0 9.103899 16.434700 12.081100 0.815283 -0.420991 -0.397592 0.628400 -0.405600 1 0 1.000000 
citizen_trap001
0 9.103899 16.434700 12.081100 0.815283 -0.420991 -0.397592 0.628400 -0.405600 1 0 1.000000 
0 -3.915101 16.434700 -14.611800 0.735300 -0.575100 -0.358600 0.628400 -0.614200 1 0 1.000000 
0 -3.513701 18.101200 -14.807600 0.895234 -0.089003 -0.436617 0.641400 -0.615700 1 0 1.000000 
citizen_trap001
0 7.526499 21.721901 10.663100 0.378389 0.907074 -0.184495 0.669700 -0.416700 1 0 1.000000 
0 1.761399 22.282000 3.611500 0.080002 0.996031 -0.039001 0.674100 -0.471800 1 0 1.000000 
0 5.647699 22.282000 11.579500 -0.080003 0.996031 0.039001 0.674100 -0.409500 1 0 1.000000 
citizen_trap001
0 5.647699 22.282000 11.579500 -0.080003 0.996031 0.039001 0.674100 -0.409500 1 0 1.000000 
0 1.761399 22.282000 3.611500 0.080002 0.996031 -0.039001 0.674100 -0.471800 1 0 1.000000 
0 -0.117401 21.721901 4.527800 -0.378389 0.907074 0.184495 0.669700 -0.464600 1 0 1.000000 
citizen_trap001
0 5.647699 22.282000 11.579500 -0.080003 0.996031 0.039001 0.674100 -0.409500 1 0 1.000000 
0 -0.117401 21.721901 4.527800 -0.378389 0.907074 0.184495 0.669700 -0.464600 1 0 1.000000 
0 3.768899 21.721901 12.495900 -0.516893 0.818089 0.252096 0.669700 -0.402400 1 0 1.000000 
citizen_trap001
0 3.768899 21.721901 12.495900 -0.516893 0.818089 0.252096 0.669700 -0.402400 1 0 1.000000 
0 -0.117401 21.721901 4.527800 -0.378389 0.907074 0.184495 0.669700 -0.464600 1 0 1.000000 
0 -1.492801 20.191601 5.198700 -0.735300 0.575100 0.358600 0.657700 -0.459400 1 0 1.000000 
citizen_trap001
0 3.768899 21.721901 12.495900 -0.516893 0.818089 0.252096 0.669700 -0.402400 1 0 1.000000 
0 -1.492801 20.191601 5.198700 -0.735300 0.575100 0.358600 0.657700 -0.459400 1 0 1.000000 
0 2.393499 20.191601 13.166700 -0.815283 0.420991 0.397592 0.657700 -0.397100 1 0 1.000000 
citizen_trap001
0 2.393499 20.191601 13.166700 -0.815283 0.420991 0.397592 0.657700 -0.397100 1 0 1.000000 
0 -1.492801 20.191601 5.198700 -0.735300 0.575100 0.358600 0.657700 -0.459400 1 0 1.000000 
0 -1.996201 18.101200 5.444200 -0.895234 0.089003 0.436617 0.641400 -0.457500 1 0 1.000000 
citizen_trap001
0 2.393499 20.191601 13.166700 -0.815283 0.420991 0.397592 0.657700 -0.397100 1 0 1.000000 
0 -1.996201 18.101200 5.444200 -0.895234 0.089003 0.436617 0.641400 -0.457500 1 0 1.000000 
0 1.890099 18.101200 13.412200 -0.895234 -0.089003 0.436617 0.641400 -0.395200 1 0 1.000000 
citizen_trap001
0 1.890099 18.101200 13.412200 -0.895234 -0.089003 0.436617 0.641400 -0.395200 1 0 1.000000 
0 -1.996201 18.101200 5.444200 -0.895234 0.089003 0.436617 0.641400 -0.457500 1 0 1.000000 
0 -1.492801 16.010900 5.198700 -0.815283 -0.420991 0.397592 0.625100 -0.459400 1 0 1.000000 
citizen_trap001
0 1.890099 18.101200 13.412200 -0.895234 -0.089003 0.436617 0.641400 -0.395200 1 0 1.000000 
0 -1.492801 16.010900 5.198700 -0.815283 -0.420991 0.397592 0.625100 -0.459400 1 0 1.000000 
0 2.393499 16.010900 13.166700 -0.735300 -0.575100 0.358600 0.625100 -0.397100 1 0 1.000000 
citizen_trap001
0 2.393499 16.010900 13.166700 -0.735300 -0.575100 0.358600 0.625100 -0.397100 1 0 1.000000 
0 -1.492801 16.010900 5.198700 -0.815283 -0.420991 0.397592 0.625100 -0.459400 1 0 1.000000 
0 -0.117401 14.480600 4.527800 -0.516893 -0.818089 0.252097 0.613100 -0.464600 1 0 1.000000 
citizen_trap001
0 2.393499 16.010900 13.166700 -0.735300 -0.575100 0.358600 0.625100 -0.397100 1 0 1.000000 
0 -0.117401 14.480600 4.527800 -0.516893 -0.818089 0.252097 0.613100 -0.464600 1 0 1.000000 
0 3.768899 14.480600 12.495900 -0.378389 -0.907074 0.184495 0.613100 -0.402400 1 0 1.000000 
citizen_trap001
0 3.768899 14.480600 12.495900 -0.378389 -0.907074 0.184495 0.613100 -0.402400 1 0 1.000000 
0 -0.117401 14.480600 4.527800 -0.516893 -0.818089 0.252097 0.613100 -0.464600 1 0 1.000000 
0 1.761399 13.920500 3.611500 -0.080002 -0.996031 0.039001 0.608800 -0.471800 1 0 1.000000 
citizen_trap001
0 3.768899 14.480600 12.495900 -0.378389 -0.907074 0.184495 0.613100 -0.402400 1 0 1.000000 
0 1.761399 13.920500 3.611500 -0.080002 -0.996031 0.039001 0.608800 -0.471800 1 0 1.000000 
0 5.647699 13.920500 11.579500 0.080003 -0.996031 -0.039001 0.608800 -0.409500 1 0 1.000000 
citizen_trap001
0 5.647699 13.920500 11.579500 0.080003 -0.996031 -0.039001 0.608800 -0.409500 1 0 1.000000 
0 1.761399 13.920500 3.611500 -0.080002 -0.996031 0.039001 0.608800 -0.471800 1 0 1.000000 
0 3.640199 14.480600 2.695100 0.378389 -0.907074 -0.184495 0.613100 -0.478900 1 0 1.000000 
citizen_trap001
0 5.647699 13.920500 11.579500 0.080003 -0.996031 -0.039001 0.608800 -0.409500 1 0 1.000000 
0 3.640199 14.480600 2.695100 0.378389 -0.907074 -0.184495 0.613100 -0.478900 1 0 1.000000 
0 7.526500 14.480600 10.663100 0.516893 -0.818089 -0.252096 0.613100 -0.416700 1 0 1.000000 
citizen_trap001
0 7.526500 14.480600 10.663100 0.516893 -0.818089 -0.252096 0.613100 -0.416700 1 0 1.000000 
0 3.640199 14.480600 2.695100 0.378389 -0.907074 -0.184495 0.613100 -0.478900 1 0 1.000000 
0 5.015600 16.010900 2.024300 0.735300 -0.575100 -0.358600 0.625100 -0.484200 1 0 1.000000 
citizen_trap001
0 7.526500 14.480600 10.663100 0.516893 -0.818089 -0.252096 0.613100 -0.416700 1 0 1.000000 
0 5.015600 16.010900 2.024300 0.735300 -0.575100 -0.358600 0.625100 -0.484200 1 0 1.000000 
0 8.901899 16.010900 9.992300 0.815283 -0.420991 -0.397592 0.625100 -0.421900 1 0 1.000000 
citizen_trap001
0 8.901899 16.010900 9.992300 0.815283 -0.420991 -0.397592 0.625100 -0.421900 1 0 1.000000 
0 5.015600 16.010900 2.024300 0.735300 -0.575100 -0.358600 0.625100 -0.484200 1 0 1.000000 
0 5.519099 18.101200 1.778800 0.895234 -0.089003 -0.436617 0.641400 -0.486100 1 0 1.000000 
citizen_trap001
0 8.901899 16.010900 9.992300 0.815283 -0.420991 -0.397592 0.625100 -0.421900 1 0 1.000000 
0 5.519099 18.101200 1.778800 0.895234 -0.089003 -0.436617 0.641400 -0.486100 1 0 1.000000 
0 9.405299 18.101200 9.746800 0.895234 0.089003 -0.436617 0.641400 -0.423900 1 0 1.000000 
citizen_trap001
0 9.405299 18.101200 9.746800 0.895234 0.089003 -0.436617 0.641400 -0.423900 1 0 1.000000 
0 5.519099 18.101200 1.778800 0.895234 -0.089003 -0.436617 0.641400 -0.486100 1 0 1.000000 
0 5.015599 20.191601 2.024300 0.815283 0.420991 -0.397592 0.657700 -0.484200 1 0 1.000000 
citizen_trap001
0 9.405299 18.101200 9.746800 0.895234 0.089003 -0.436617 0.641400 -0.423900 1 0 1.000000 
0 5.015599 20.191601 2.024300 0.815283 0.420991 -0.397592 0.657700 -0.484200 1 0 1.000000 
0 8.901899 20.191601 9.992300 0.735300 0.575100 -0.358600 0.657700 -0.421900 1 0 1.000000 
citizen_trap001
0 8.901899 20.191601 9.992300 0.735300 0.575100 -0.358600 0.657700 -0.421900 1 0 1.000000 
0 5.015599 20.191601 2.024300 0.815283 0.420991 -0.397592 0.657700 -0.484200 1 0 1.000000 
0 3.640199 21.721901 2.695100 0.516893 0.818089 -0.252097 0.669700 -0.478900 1 0 1.000000 
citizen_trap001
0 8.901899 20.191601 9.992300 0.735300 0.575100 -0.358600 0.657700 -0.421900 1 0 1.000000 
0 3.640199 21.721901 2.695100 0.516893 0.818089 -0.252097 0.669700 -0.478900 1 0 1.000000 
0 7.526499 21.721901 10.663100 0.378389 0.907074 -0.184495 0.669700 -0.416700 1 0 1.000000 
citizen_trap001
0 7.526499 21.721901 10.663100 0.378389 0.907074 -0.184495 0.669700 -0.416700 1 0 1.000000 
0 3.640199 21.721901 2.695100 0.516893 0.818089 -0.252097 0.669700 -0.478900 1 0 1.000000 
0 1.761399 22.282000 3.611500 0.080002 0.996031 -0.039001 0.674100 -0.471800 1 0 1.000000 
end
