$cd ".\"
$modelname "props_debris/Building_Skybridge256Chunk12.mdl"
$model "Body" "Building_Skybridge256Chunk12_reference.smd"
$cdmaterials "models/props_debris/"
$surfaceprop "plaster"
$eyeposition 0.000 0.000 0.000
$illumposition -0.008 14.397 23.232
$sequence idle "idle" ACT_IDLE 1 fps 30.000000
$keyvalues
{
	prop_data
	{
		base	Stone.Medium
		health	"0"
	}
}