version 1
nodes
  0 "static_prop" -1
end
skeleton
time 0
0 0.000000 0.000000 0.000000 0.000000 0.000000 0.000000
end
triangles
dockpole01
0 -5.243800 3.731900 258.424896 -0.714286 -0.022700 0.699486 0.302700 -0.527300 1 0 1.000000 
0 -6.528400 0.175900 253.659897 -0.714286 -0.022700 0.699486 0.330500 -0.504200 1 0 1.000000 
0 -4.060900 -1.388300 261.902191 -0.714286 -0.022700 0.699486 0.317800 -0.479400 1 0 1.000000 
dockpole01
0 0.277900 5.917300 -263.569305 -0.087403 0.996139 -0.008200 0.324100 -0.999500 1 0 1.000000 
0 -2.847400 6.370900 256.632599 -0.433791 0.900981 -0.007700 0.337600 -0.011700 1 0 1.000000 
0 0.277900 7.191500 256.075287 0.088901 0.996007 -0.008200 0.324300 -0.012700 1 0 1.000000 
dockpole01
0 0.277900 5.917300 -263.569305 -0.087403 0.996139 -0.008200 0.324100 -0.999500 1 0 1.000000 
0 -2.642900 5.134700 -263.569305 -0.588533 0.808445 -0.006800 0.339200 -0.999500 1 0 1.000000 
0 -2.847400 6.370900 256.632599 -0.433791 0.900981 -0.007700 0.337600 -0.011700 1 0 1.000000 
dockpole01
0 -2.642900 5.134700 -263.569305 -0.588533 0.808445 -0.006800 0.339200 -0.999500 1 0 1.000000 
0 -5.243800 3.731900 258.424896 -0.811431 0.584422 -0.005500 0.353100 -0.008300 1 0 1.000000 
0 -2.847400 6.370900 256.632599 -0.433791 0.900981 -0.007700 0.337600 -0.011700 1 0 1.000000 
dockpole01
0 -2.642900 5.134700 -263.569305 -0.588533 0.808445 -0.006800 0.339200 -0.999500 1 0 1.000000 
0 -4.781100 2.996500 -263.569305 -0.894314 0.447407 -0.005500 0.354800 -0.999500 1 0 1.000000 
0 -5.243800 3.731900 258.424896 -0.811431 0.584422 -0.005500 0.353100 -0.008300 1 0 1.000000 
dockpole01
0 -4.781100 2.996500 -263.569305 -0.894314 0.447407 -0.005500 0.354800 -0.999500 1 0 1.000000 
0 -6.528400 0.175900 253.659897 -0.992997 0.118000 -0.005700 0.370200 -0.017300 1 0 1.000000 
0 -5.243800 3.731900 258.424896 -0.811431 0.584422 -0.005500 0.353100 -0.008300 1 0 1.000000 
dockpole01
0 -4.781100 2.996500 -263.569305 -0.894314 0.447407 -0.005500 0.354800 -0.999500 1 0 1.000000 
0 -5.563700 0.075700 -263.569305 -0.996013 -0.089001 -0.006100 0.370600 -0.999500 1 0 1.000000 
0 -6.528400 0.175900 253.659897 -0.992997 0.118000 -0.005700 0.370200 -0.017300 1 0 1.000000 
dockpole01
0 -5.563700 0.075700 -263.569305 -0.996013 -0.089001 -0.006100 0.188300 -0.999500 1 0 1.000000 
0 -5.541400 -3.507800 253.659897 -0.907049 -0.420977 -0.006300 0.205100 -0.017300 1 0 1.000000 
0 -6.528400 0.175900 253.659897 -0.992997 0.118000 -0.005700 0.187900 -0.017300 1 0 1.000000 
dockpole01
0 -5.563700 0.075700 -263.569305 -0.996013 -0.089001 -0.006100 0.188300 -0.999500 1 0 1.000000 
0 -4.781100 -2.845100 -263.569305 -0.818118 -0.575013 -0.006500 0.204300 -0.999500 1 0 1.000000 
0 -5.541400 -3.507800 253.659897 -0.907049 -0.420977 -0.006300 0.205100 -0.017300 1 0 1.000000 
dockpole01
0 -4.781100 -2.845100 -263.569305 -0.818118 -0.575013 -0.006500 0.204300 -0.999500 1 0 1.000000 
0 -2.844700 -6.204500 253.659897 -0.575010 -0.818114 -0.007200 0.221800 -0.017300 1 0 1.000000 
0 -5.541400 -3.507800 253.659897 -0.907049 -0.420977 -0.006300 0.205100 -0.017300 1 0 1.000000 
dockpole01
0 -4.781100 -2.845100 -263.569305 -0.818118 -0.575013 -0.006500 0.204300 -0.999500 1 0 1.000000 
0 -2.642900 -4.983300 -263.569305 -0.421011 -0.907023 -0.007700 0.220100 -0.999500 1 0 1.000000 
0 -2.844700 -6.204500 253.659897 -0.575010 -0.818114 -0.007200 0.221800 -0.017300 1 0 1.000000 
dockpole01
0 -2.642900 -4.983300 -263.569305 -0.421011 -0.907023 -0.007700 0.220100 -0.999500 1 0 1.000000 
0 0.838900 -7.191500 253.659897 -0.088999 -0.995993 -0.008800 0.237700 -0.017300 1 0 1.000000 
0 -2.844700 -6.204500 253.659897 -0.575010 -0.818114 -0.007200 0.221800 -0.017300 1 0 1.000000 
dockpole01
0 -2.642900 -4.983300 -263.569305 -0.421011 -0.907023 -0.007700 0.220100 -0.999500 1 0 1.000000 
0 0.277900 -5.765900 -263.569305 0.088999 -0.995986 -0.009500 0.235700 -0.999500 1 0 1.000000 
0 0.838900 -7.191500 253.659897 -0.088999 -0.995993 -0.008800 0.237700 -0.017300 1 0 1.000000 
dockpole01
0 0.277900 -5.765900 -263.569305 0.088999 -0.995986 -0.009500 0.235700 -0.999500 1 0 1.000000 
0 4.522601 -6.204500 253.659897 0.572216 -0.820023 -0.011400 0.252600 -0.017300 1 0 1.000000 
0 0.838900 -7.191500 253.659897 -0.088999 -0.995993 -0.008800 0.237700 -0.017300 1 0 1.000000 
dockpole01
0 0.277900 -5.765900 -263.569305 0.088999 -0.995986 -0.009500 0.235700 -0.999500 1 0 1.000000 
0 3.198700 -4.983300 -263.569305 0.718006 -0.696006 -0.006500 0.250800 -0.999500 1 0 1.000000 
0 4.522601 -6.204500 253.659897 0.572216 -0.820023 -0.011400 0.252600 -0.017300 1 0 1.000000 
dockpole01
0 3.198700 -4.983300 -263.569305 0.718006 -0.696006 -0.006500 0.250800 -0.999500 1 0 1.000000 
0 5.394400 -2.286700 262.512512 0.904868 -0.425685 -0.002400 0.268200 -0.000500 1 0 1.000000 
0 4.522601 -6.204500 253.659897 0.572216 -0.820023 -0.011400 0.252600 -0.017300 1 0 1.000000 
dockpole01
0 3.198700 -4.983300 -263.569305 0.718006 -0.696006 -0.006500 0.250800 -0.999500 1 0 1.000000 
0 5.336900 -2.845100 -263.569305 0.897703 -0.440601 0.000700 0.265600 -0.999500 1 0 1.000000 
0 5.394400 -2.286700 262.512512 0.904868 -0.425685 -0.002400 0.268200 -0.000500 1 0 1.000000 
dockpole01
0 5.336900 -2.845100 -263.569305 0.897703 -0.440601 0.000700 0.265600 -0.999500 1 0 1.000000 
0 6.528400 1.066400 260.235107 0.994018 -0.109202 -0.001500 0.284600 -0.004800 1 0 1.000000 
0 5.394400 -2.286700 262.512512 0.904868 -0.425685 -0.002400 0.268200 -0.000500 1 0 1.000000 
dockpole01
0 5.336900 -2.845100 -263.569305 0.897703 -0.440601 0.000700 0.265600 -0.999500 1 0 1.000000 
0 6.119500 0.075700 -263.569305 0.995901 0.090400 -0.003100 0.280200 -0.999500 1 0 1.000000 
0 6.528400 1.066400 260.235107 0.994018 -0.109202 -0.001500 0.284600 -0.004800 1 0 1.000000 
dockpole01
0 6.119500 0.075700 -263.569305 0.995901 0.090400 -0.003100 0.280200 -0.999500 1 0 1.000000 
0 5.691000 4.129001 258.155212 0.905182 0.424992 -0.005200 0.298100 -0.008800 1 0 1.000000 
0 6.528400 1.066400 260.235107 0.994018 -0.109202 -0.001500 0.284600 -0.004800 1 0 1.000000 
dockpole01
0 6.119500 0.075700 -263.569305 0.995901 0.090400 -0.003100 0.280200 -0.999500 1 0 1.000000 
0 5.336900 2.996500 -263.569305 0.816298 0.577599 -0.006000 0.294700 -0.999500 1 0 1.000000 
0 5.691000 4.129001 258.155212 0.905182 0.424992 -0.005200 0.298100 -0.008800 1 0 1.000000 
dockpole01
0 5.336900 2.996500 -263.569305 0.816298 0.577599 -0.006000 0.294700 -0.999500 1 0 1.000000 
0 3.403100 6.370900 256.632599 0.571304 0.820706 -0.007300 0.311200 -0.011700 1 0 1.000000 
0 5.691000 4.129001 258.155212 0.905182 0.424992 -0.005200 0.298100 -0.008800 1 0 1.000000 
dockpole01
0 5.336900 2.996500 -263.569305 0.816298 0.577599 -0.006000 0.294700 -0.999500 1 0 1.000000 
0 3.198700 5.134700 -263.569305 0.419509 0.907719 -0.007700 0.309300 -0.999500 1 0 1.000000 
0 3.403100 6.370900 256.632599 0.571304 0.820706 -0.007300 0.311200 -0.011700 1 0 1.000000 
dockpole01
0 3.198700 5.134700 -263.569305 0.419509 0.907719 -0.007700 0.309300 -0.999500 1 0 1.000000 
0 0.277900 7.191500 256.075287 0.088901 0.996007 -0.008200 0.324300 -0.012700 1 0 1.000000 
0 3.403100 6.370900 256.632599 0.571304 0.820706 -0.007300 0.311200 -0.011700 1 0 1.000000 
dockpole01
0 3.198700 5.134700 -263.569305 0.419509 0.907719 -0.007700 0.309300 -0.999500 1 0 1.000000 
0 0.277900 5.917300 -263.569305 -0.087403 0.996139 -0.008200 0.324100 -0.999500 1 0 1.000000 
0 0.277900 7.191500 256.075287 0.088901 0.996007 -0.008200 0.324300 -0.012700 1 0 1.000000 
dockpole01
0 -5.243800 3.731900 258.424896 -0.000000 0.199404 0.979917 0.302700 -0.527300 1 0 1.000000 
0 0.277900 7.191500 256.075287 -0.000000 0.199404 0.979917 0.240600 -0.529000 1 0 1.000000 
0 -2.847400 6.370900 256.632599 -0.000000 0.199404 0.979917 0.270300 -0.537300 1 0 1.000000 
dockpole01
0 -5.243800 3.731900 258.424896 -0.000000 0.199404 0.979917 0.302700 -0.527300 1 0 1.000000 
0 3.403100 6.370900 256.632599 -0.000000 0.199404 0.979917 0.218900 -0.507100 1 0 1.000000 
0 0.277900 7.191500 256.075287 -0.000000 0.199404 0.979917 0.240600 -0.529000 1 0 1.000000 
dockpole01
0 -5.243800 3.731900 258.424896 -0.000000 0.199404 0.979917 0.302700 -0.527300 1 0 1.000000 
0 5.691000 4.129001 258.155212 -0.000000 0.199404 0.979917 0.210900 -0.477600 1 0 1.000000 
0 3.403100 6.370900 256.632599 -0.000000 0.199404 0.979917 0.218900 -0.507100 1 0 1.000000 
dockpole01
0 -5.243800 3.731900 258.424896 -0.000000 0.199404 0.979917 0.302700 -0.527300 1 0 1.000000 
0 6.528400 1.066400 260.235107 -0.000000 0.199404 0.979917 0.218900 -0.448300 1 0 1.000000 
0 5.691000 4.129001 258.155212 -0.000000 0.199404 0.979917 0.210900 -0.477600 1 0 1.000000 
dockpole01
0 -5.243800 3.731900 258.424896 -0.000000 0.199404 0.979917 0.302700 -0.527300 1 0 1.000000 
0 5.394400 -2.286700 262.512512 -0.000000 0.199404 0.979917 0.244400 -0.426300 1 0 1.000000 
0 6.528400 1.066400 260.235107 -0.000000 0.199404 0.979917 0.218900 -0.448300 1 0 1.000000 
dockpole01
0 -5.243800 3.731900 258.424896 -0.000000 0.199404 0.979917 0.302700 -0.527300 1 0 1.000000 
0 0.277900 -3.843000 263.569305 -0.000000 0.199404 0.979917 0.294000 -0.438200 1 0 1.000000 
0 5.394400 -2.286700 262.512512 -0.000000 0.199404 0.979917 0.244400 -0.426300 1 0 1.000000 
dockpole01
0 -5.243800 3.731900 258.424896 -0.000000 0.199404 0.979917 0.302700 -0.527300 1 0 1.000000 
0 -2.227100 -3.185200 263.122711 -0.000000 0.199404 0.979917 0.311400 -0.455800 1 0 1.000000 
0 0.277900 -3.843000 263.569305 -0.000000 0.199404 0.979917 0.294000 -0.438200 1 0 1.000000 
dockpole01
0 -5.243800 3.731900 258.424896 -0.000000 0.199404 0.979917 0.302700 -0.527300 1 0 1.000000 
0 -4.060900 -1.388300 261.902191 -0.000000 0.199404 0.979917 0.317800 -0.479400 1 0 1.000000 
0 -2.227100 -3.185200 263.122711 -0.000000 0.199404 0.979917 0.311400 -0.455800 1 0 1.000000 
dockpole01
0 4.522601 -6.204500 253.659897 0.154702 -0.577207 0.801810 0.270600 -0.398300 1 0 1.000000 
0 5.394400 -2.286700 262.512512 0.154702 -0.577207 0.801810 0.244400 -0.426300 1 0 1.000000 
0 0.838900 -7.191500 253.659897 0.154702 -0.577207 0.801810 0.305600 -0.408000 1 0 1.000000 
dockpole01
0 -5.541400 -3.507800 253.659897 -0.753793 -0.201998 0.625294 0.340200 -0.469200 1 0 1.000000 
0 -4.060900 -1.388300 261.902191 -0.753793 -0.201998 0.625294 0.317800 -0.479400 1 0 1.000000 
0 -6.528400 0.175900 253.659897 -0.753793 -0.201998 0.625294 0.330500 -0.504200 1 0 1.000000 
dockpole01
0 0.277900 -3.843000 263.569305 0.235502 -0.622306 0.746507 0.294000 -0.438200 1 0 1.000000 
0 0.838900 -7.191500 253.659897 0.235502 -0.622306 0.746507 0.305600 -0.408000 1 0 1.000000 
0 5.394400 -2.286700 262.512512 0.235502 -0.622306 0.746507 0.244400 -0.426300 1 0 1.000000 
dockpole01
0 -4.060900 -1.388300 261.902191 -0.562292 -0.430094 0.706290 0.317800 -0.479400 1 0 1.000000 
0 -5.541400 -3.507800 253.659897 -0.562292 -0.430094 0.706290 0.340200 -0.469200 1 0 1.000000 
0 -2.227100 -3.185200 263.122711 -0.562292 -0.430094 0.706290 0.311400 -0.455800 1 0 1.000000 
dockpole01
0 0.838900 -7.191500 253.659897 -0.179304 -0.669316 0.721017 0.305600 -0.408000 1 0 1.000000 
0 0.277900 -3.843000 263.569305 -0.179304 -0.669316 0.721017 0.294000 -0.438200 1 0 1.000000 
0 -2.844700 -6.204500 253.659897 -0.179304 -0.669316 0.721017 0.331100 -0.434000 1 0 1.000000 
dockpole01
0 -2.844700 -6.204500 253.659897 -0.523707 -0.523707 0.671909 0.331100 -0.434000 1 0 1.000000 
0 -2.227100 -3.185200 263.122711 -0.523707 -0.523707 0.671909 0.311400 -0.455800 1 0 1.000000 
0 -5.541400 -3.507800 253.659897 -0.523707 -0.523707 0.671909 0.340200 -0.469200 1 0 1.000000 
dockpole01
0 -2.227100 -3.185200 263.122711 -0.208905 -0.646315 0.733917 0.311400 -0.455800 1 0 1.000000 
0 -2.844700 -6.204500 253.659897 -0.208905 -0.646315 0.733917 0.331100 -0.434000 1 0 1.000000 
0 0.277900 -3.843000 263.569305 -0.208905 -0.646315 0.733917 0.294000 -0.438200 1 0 1.000000 
end
