version 1
nodes
  0 "static_prop" -1
end
skeleton
time 0
0 0.000000 0.000000 0.000000 0.000000 0.000000 0.000000
end
triangles
rooftop01a
0 -5.425509 37.377075 -14.335802 -0.917324 0.298057 0.263967 0.209305 -0.315633 1 0 1.000000 
0 -4.903441 34.265270 -12.330009 -0.941982 -0.306069 0.137811 0.225459 -0.303787 1 0 1.000000 
0 -4.903441 37.207443 -12.330009 -0.941982 0.306069 0.137811 0.209305 -0.303787 1 0 1.000000 
rooftop01a
0 -3.034003 32.077793 14.335802 -0.587762 -0.808985 0.008936 0.242134 -0.146302 1 0 1.000000 
0 -4.676803 34.338909 14.335802 -0.951018 -0.309005 0.008936 0.225459 -0.146302 1 0 1.000000 
0 -4.903441 34.265270 -12.330009 -0.941982 -0.306069 0.137811 0.225459 -0.303787 1 0 1.000000 
rooftop01a
0 -4.676803 34.338909 14.335802 -0.951018 -0.309005 0.008936 0.394791 -0.146302 1 0 1.000000 
0 -4.903441 37.207443 -12.330009 -0.941982 0.306069 0.137811 0.378636 -0.303787 1 0 1.000000 
0 -4.903441 34.265270 -12.330009 -0.941982 -0.306069 0.137811 0.394791 -0.303787 1 0 1.000000 
rooftop01a
0 -4.676803 34.338909 14.335802 -0.951018 -0.309005 0.008936 0.394791 -0.146302 1 0 1.000000 
0 -4.676803 37.133804 14.335802 -0.951018 0.309005 0.008936 0.378636 -0.146302 1 0 1.000000 
0 -4.903441 37.207443 -12.330009 -0.941982 0.306069 0.137811 0.378636 -0.303787 1 0 1.000000 
rooftop01a
0 -4.676803 37.133804 14.335802 -0.951018 0.309005 0.008936 0.378636 -0.146302 1 0 1.000000 
0 -3.174076 39.587711 -12.330009 -0.582177 0.801298 0.137811 0.361962 -0.303787 1 0 1.000000 
0 -4.903441 37.207443 -12.330009 -0.941982 0.306069 0.137811 0.378636 -0.303787 1 0 1.000000 
rooftop01a
0 -4.676803 37.133804 14.335802 -0.951018 0.309005 0.008936 0.378636 -0.146302 1 0 1.000000 
0 -3.034004 39.394920 14.335802 -0.587762 0.808985 0.008936 0.361962 -0.146302 1 0 1.000000 
0 -3.174076 39.587711 -12.330009 -0.582177 0.801298 0.137811 0.361962 -0.303787 1 0 1.000000 
rooftop01a
0 -3.034004 39.394920 14.335802 -0.587762 0.808985 0.008936 0.361962 -0.146302 1 0 1.000000 
0 -0.375904 40.496895 -12.330009 -0.000000 0.990458 0.137811 0.344381 -0.303787 1 0 1.000000 
0 -3.174076 39.587711 -12.330009 -0.582177 0.801298 0.137811 0.361962 -0.303787 1 0 1.000000 
rooftop01a
0 -3.034004 39.394920 14.335802 -0.587762 0.808985 0.008936 0.361962 -0.146302 1 0 1.000000 
0 -0.375902 40.258591 14.335802 -0.000000 0.999960 0.008936 0.344381 -0.146302 1 0 1.000000 
0 -0.375904 40.496895 -12.330009 -0.000000 0.990458 0.137811 0.344381 -0.303787 1 0 1.000000 
rooftop01a
0 -0.375902 40.258591 14.335802 -0.000000 0.999960 0.008936 0.344381 -0.146302 1 0 1.000000 
0 2.422269 39.587711 -12.330009 0.582177 0.801298 0.137811 0.326800 -0.303787 1 0 1.000000 
0 -0.375904 40.496895 -12.330009 -0.000000 0.990458 0.137811 0.344381 -0.303787 1 0 1.000000 
rooftop01a
0 -0.375902 40.258591 14.335802 -0.000000 0.999960 0.008936 0.344381 -0.146302 1 0 1.000000 
0 2.282200 39.394920 14.335802 0.587762 0.808985 0.008936 0.326800 -0.146302 1 0 1.000000 
0 2.422269 39.587711 -12.330009 0.582177 0.801298 0.137811 0.326800 -0.303787 1 0 1.000000 
rooftop01a
0 2.282200 39.394920 14.335802 0.587762 0.808985 0.008936 0.326800 -0.146302 1 0 1.000000 
0 4.151637 37.207443 -12.330009 0.941982 0.306069 0.137811 0.310125 -0.303787 1 0 1.000000 
0 2.422269 39.587711 -12.330009 0.582177 0.801298 0.137811 0.326800 -0.303787 1 0 1.000000 
rooftop01a
0 2.282200 39.394920 14.335802 0.587762 0.808985 0.008936 0.326800 -0.146302 1 0 1.000000 
0 3.924998 37.133804 14.335802 0.951018 0.309005 0.008936 0.310125 -0.146302 1 0 1.000000 
0 4.151637 37.207443 -12.330009 0.941982 0.306069 0.137811 0.310125 -0.303787 1 0 1.000000 
rooftop01a
0 3.924998 37.133804 14.335802 0.951018 0.309005 0.008936 0.310125 -0.146302 1 0 1.000000 
0 4.151637 34.265270 -12.330009 0.941982 -0.306069 0.137811 0.293971 -0.303787 1 0 1.000000 
0 4.151637 37.207443 -12.330009 0.941982 0.306069 0.137811 0.310125 -0.303787 1 0 1.000000 
rooftop01a
0 3.924998 37.133804 14.335802 0.951018 0.309005 0.008936 0.310125 -0.146302 1 0 1.000000 
0 3.924999 34.338909 14.335802 0.951018 -0.309005 0.008936 0.293971 -0.146302 1 0 1.000000 
0 4.151637 34.265270 -12.330009 0.941982 -0.306069 0.137811 0.293971 -0.303787 1 0 1.000000 
rooftop01a
0 3.924999 34.338909 14.335802 0.951018 -0.309005 0.008936 0.293971 -0.146302 1 0 1.000000 
0 2.422270 31.885004 -12.330009 0.582177 -0.801298 0.137811 0.277296 -0.303787 1 0 1.000000 
0 4.151637 34.265270 -12.330009 0.941982 -0.306069 0.137811 0.293971 -0.303787 1 0 1.000000 
rooftop01a
0 3.924999 34.338909 14.335802 0.951018 -0.309005 0.008936 0.293971 -0.146302 1 0 1.000000 
0 2.282201 32.077793 14.335802 0.587762 -0.808985 0.008936 0.277296 -0.146302 1 0 1.000000 
0 2.422270 31.885004 -12.330009 0.582177 -0.801298 0.137811 0.277296 -0.303787 1 0 1.000000 
rooftop01a
0 2.282201 32.077793 14.335802 0.587762 -0.808985 0.008936 0.277296 -0.146302 1 0 1.000000 
0 -0.375903 30.975822 -12.330009 0.000000 -0.990458 0.137811 0.259715 -0.303787 1 0 1.000000 
0 2.422270 31.885004 -12.330009 0.582177 -0.801298 0.137811 0.277296 -0.303787 1 0 1.000000 
rooftop01a
0 2.282201 32.077793 14.335802 0.587762 -0.808985 0.008936 0.277296 -0.146302 1 0 1.000000 
0 -0.375901 31.214125 14.335802 0.000000 -0.999960 0.008936 0.259715 -0.146302 1 0 1.000000 
0 -0.375903 30.975822 -12.330009 0.000000 -0.990458 0.137811 0.259715 -0.303787 1 0 1.000000 
rooftop01a
0 -0.375901 31.214125 14.335802 0.000000 -0.999960 0.008936 0.259715 -0.146302 1 0 1.000000 
0 -3.174075 31.885004 -12.330009 -0.582177 -0.801298 0.137811 0.242134 -0.303787 1 0 1.000000 
0 -0.375903 30.975822 -12.330009 0.000000 -0.990458 0.137811 0.259715 -0.303787 1 0 1.000000 
rooftop01a
0 -0.375901 31.214125 14.335802 0.000000 -0.999960 0.008936 0.259715 -0.146302 1 0 1.000000 
0 -3.034003 32.077793 14.335802 -0.587762 -0.808985 0.008936 0.242134 -0.146302 1 0 1.000000 
0 -3.174075 31.885004 -12.330009 -0.582177 -0.801298 0.137811 0.242134 -0.303787 1 0 1.000000 
rooftop01a
0 -3.034003 32.077793 14.335802 -0.587762 -0.808985 0.008936 0.242134 -0.146302 1 0 1.000000 
0 -4.903441 34.265270 -12.330009 -0.941982 -0.306069 0.137811 0.225459 -0.303787 1 0 1.000000 
0 -3.174075 31.885004 -12.330009 -0.582177 -0.801298 0.137811 0.242134 -0.303787 1 0 1.000000 
rooftop01a
0 -5.425509 34.095642 -14.335802 -0.917324 -0.298057 0.263967 0.225459 -0.315633 1 0 1.000000 
0 -3.174075 31.885004 -12.330009 -0.582177 -0.801298 0.137811 0.242134 -0.303787 1 0 1.000000 
0 -4.903441 34.265270 -12.330009 -0.941982 -0.306069 0.137811 0.225459 -0.303787 1 0 1.000000 
rooftop01a
0 -5.425509 37.377075 -14.335802 -0.917324 0.298057 0.263967 0.209305 -0.315633 1 0 1.000000 
0 -5.425509 34.095642 -14.335802 -0.917324 -0.298057 0.263967 0.225459 -0.315633 1 0 1.000000 
0 -4.903441 34.265270 -12.330009 -0.941982 -0.306069 0.137811 0.225459 -0.303787 1 0 1.000000 
rooftop01a
0 -5.425509 34.095642 -14.335802 -0.917324 -0.298057 0.263967 0.225459 -0.315633 1 0 1.000000 
0 -3.496732 31.440907 -14.335802 -0.566938 -0.780322 0.263967 0.242134 -0.315633 1 0 1.000000 
0 -3.174075 31.885004 -12.330009 -0.582177 -0.801298 0.137811 0.242134 -0.303787 1 0 1.000000 
rooftop01a
0 -3.496732 31.440907 -14.335802 -0.566938 -0.780322 0.263967 0.242134 -0.315633 1 0 1.000000 
0 -0.375903 30.975822 -12.330009 0.000000 -0.990458 0.137811 0.259715 -0.303787 1 0 1.000000 
0 -3.174075 31.885004 -12.330009 -0.582177 -0.801298 0.137811 0.242134 -0.303787 1 0 1.000000 
rooftop01a
0 -3.496732 31.440907 -14.335802 -0.566938 -0.780322 0.263967 0.242134 -0.315633 1 0 1.000000 
0 -0.375903 30.426889 -14.335802 0.000000 -0.964532 0.263967 0.259715 -0.315633 1 0 1.000000 
0 -0.375903 30.975822 -12.330009 0.000000 -0.990458 0.137811 0.259715 -0.303787 1 0 1.000000 
rooftop01a
0 -0.375903 30.426889 -14.335802 0.000000 -0.964532 0.263967 0.259715 -0.315633 1 0 1.000000 
0 2.422270 31.885004 -12.330009 0.582177 -0.801298 0.137811 0.277296 -0.303787 1 0 1.000000 
0 -0.375903 30.975822 -12.330009 0.000000 -0.990458 0.137811 0.259715 -0.303787 1 0 1.000000 
rooftop01a
0 -0.375903 30.426889 -14.335802 0.000000 -0.964532 0.263967 0.259715 -0.315633 1 0 1.000000 
0 2.744925 31.440907 -14.335802 0.566938 -0.780322 0.263967 0.277296 -0.315633 1 0 1.000000 
0 2.422270 31.885004 -12.330009 0.582177 -0.801298 0.137811 0.277296 -0.303787 1 0 1.000000 
rooftop01a
0 2.744925 31.440907 -14.335802 0.566938 -0.780322 0.263967 0.277296 -0.315633 1 0 1.000000 
0 4.151637 34.265270 -12.330009 0.941982 -0.306069 0.137811 0.293971 -0.303787 1 0 1.000000 
0 2.422270 31.885004 -12.330009 0.582177 -0.801298 0.137811 0.277296 -0.303787 1 0 1.000000 
rooftop01a
0 2.744925 31.440907 -14.335802 0.566938 -0.780322 0.263967 0.277296 -0.315633 1 0 1.000000 
0 4.673704 34.095642 -14.335802 0.917324 -0.298057 0.263967 0.293971 -0.315633 1 0 1.000000 
0 4.151637 34.265270 -12.330009 0.941982 -0.306069 0.137811 0.293971 -0.303787 1 0 1.000000 
rooftop01a
0 4.673704 34.095642 -14.335802 0.917324 -0.298057 0.263967 0.293971 -0.315633 1 0 1.000000 
0 4.151637 37.207443 -12.330009 0.941982 0.306069 0.137811 0.310125 -0.303787 1 0 1.000000 
0 4.151637 34.265270 -12.330009 0.941982 -0.306069 0.137811 0.293971 -0.303787 1 0 1.000000 
rooftop01a
0 4.673704 34.095642 -14.335802 0.917324 -0.298057 0.263967 0.293971 -0.315633 1 0 1.000000 
0 4.673704 37.377075 -14.335802 0.917324 0.298057 0.263967 0.310125 -0.315633 1 0 1.000000 
0 4.151637 37.207443 -12.330009 0.941982 0.306069 0.137811 0.310125 -0.303787 1 0 1.000000 
rooftop01a
0 4.673704 37.377075 -14.335802 0.917324 0.298057 0.263967 0.310125 -0.315633 1 0 1.000000 
0 2.422269 39.587711 -12.330009 0.582177 0.801298 0.137811 0.326800 -0.303787 1 0 1.000000 
0 4.151637 37.207443 -12.330009 0.941982 0.306069 0.137811 0.310125 -0.303787 1 0 1.000000 
rooftop01a
0 4.673704 37.377075 -14.335802 0.917324 0.298057 0.263967 0.310125 -0.315633 1 0 1.000000 
0 2.744924 40.031811 -14.335802 0.566938 0.780322 0.263967 0.326800 -0.315633 1 0 1.000000 
0 2.422269 39.587711 -12.330009 0.582177 0.801298 0.137811 0.326800 -0.303787 1 0 1.000000 
rooftop01a
0 2.744924 40.031811 -14.335802 0.566938 0.780322 0.263967 0.326800 -0.315633 1 0 1.000000 
0 -0.375904 40.496895 -12.330009 -0.000000 0.990458 0.137811 0.344381 -0.303787 1 0 1.000000 
0 2.422269 39.587711 -12.330009 0.582177 0.801298 0.137811 0.326800 -0.303787 1 0 1.000000 
rooftop01a
0 2.744924 40.031811 -14.335802 0.566938 0.780322 0.263967 0.326800 -0.315633 1 0 1.000000 
0 -0.375904 41.045826 -14.335802 -0.000000 0.964532 0.263967 0.344381 -0.315633 1 0 1.000000 
0 -0.375904 40.496895 -12.330009 -0.000000 0.990458 0.137811 0.344381 -0.303787 1 0 1.000000 
rooftop01a
0 -0.375904 41.045826 -14.335802 -0.000000 0.964532 0.263967 0.344381 -0.315633 1 0 1.000000 
0 -3.174076 39.587711 -12.330009 -0.582177 0.801298 0.137811 0.361962 -0.303787 1 0 1.000000 
0 -0.375904 40.496895 -12.330009 -0.000000 0.990458 0.137811 0.344381 -0.303787 1 0 1.000000 
rooftop01a
0 -0.375904 41.045826 -14.335802 -0.000000 0.964532 0.263967 0.344381 -0.315633 1 0 1.000000 
0 -3.496732 40.031811 -14.335802 -0.566938 0.780322 0.263967 0.361962 -0.315633 1 0 1.000000 
0 -3.174076 39.587711 -12.330009 -0.582177 0.801298 0.137811 0.361962 -0.303787 1 0 1.000000 
rooftop01a
0 -3.496732 40.031811 -14.335802 -0.566938 0.780322 0.263967 0.361962 -0.315633 1 0 1.000000 
0 -4.903441 37.207443 -12.330009 -0.941982 0.306069 0.137811 0.378636 -0.303787 1 0 1.000000 
0 -3.174076 39.587711 -12.330009 -0.582177 0.801298 0.137811 0.361962 -0.303787 1 0 1.000000 
rooftop01a
0 -3.496732 40.031811 -14.335802 -0.566938 0.780322 0.263967 0.361962 -0.315633 1 0 1.000000 
0 -5.425509 37.377075 -14.335802 -0.917324 0.298057 0.263967 0.378636 -0.315633 1 0 1.000000 
0 -4.903441 37.207443 -12.330009 -0.941982 0.306069 0.137811 0.378636 -0.303787 1 0 1.000000 
rooftop01a
0 0.501130 -28.868174 -14.335802 -0.000000 0.981693 0.190472 0.426847 -0.552745 1 0 1.000000 
0 -3.077791 -30.031036 -14.335802 -0.577024 0.794206 0.190472 0.442709 -0.552745 1 0 1.000000 
0 -2.819962 -30.385908 -12.075018 -0.584660 0.804715 0.102990 0.442709 -0.540098 1 0 1.000000 
rooftop01a
0 0.501130 -28.868174 -14.335802 -0.000000 0.981693 0.190472 0.426847 -0.552745 1 0 1.000000 
0 -2.819962 -30.385908 -12.075018 -0.584660 0.804715 0.102990 0.442709 -0.540098 1 0 1.000000 
0 0.501130 -29.306820 -12.075018 -0.000000 0.994682 0.102990 0.426847 -0.540098 1 0 1.000000 
rooftop01a
0 4.080053 -30.031036 -14.335802 0.577024 0.794206 0.190472 0.410985 -0.552745 1 0 1.000000 
0 0.501130 -28.868174 -14.335802 -0.000000 0.981693 0.190472 0.426847 -0.552745 1 0 1.000000 
0 0.501130 -29.306820 -12.075018 -0.000000 0.994682 0.102990 0.426847 -0.540098 1 0 1.000000 
rooftop01a
0 4.080053 -30.031036 -14.335802 0.577024 0.794206 0.190472 0.410985 -0.552745 1 0 1.000000 
0 0.501130 -29.306820 -12.075018 -0.000000 0.994682 0.102990 0.426847 -0.540098 1 0 1.000000 
0 3.822223 -30.385908 -12.075018 0.584660 0.804715 0.102990 0.410986 -0.540098 1 0 1.000000 
rooftop01a
0 6.291949 -33.075451 -14.335802 0.933645 0.303360 0.190472 0.395941 -0.552745 1 0 1.000000 
0 4.080053 -30.031036 -14.335802 0.577024 0.794206 0.190472 0.410985 -0.552745 1 0 1.000000 
0 3.822223 -30.385908 -12.075018 0.584660 0.804715 0.102990 0.410986 -0.540098 1 0 1.000000 
rooftop01a
0 6.291949 -33.075451 -14.335802 0.933645 0.303360 0.190472 0.395941 -0.552745 1 0 1.000000 
0 3.822223 -30.385908 -12.075018 0.584660 0.804715 0.102990 0.410986 -0.540098 1 0 1.000000 
0 5.874774 -33.210999 -12.075018 0.945999 0.307374 0.102990 0.395941 -0.540098 1 0 1.000000 
rooftop01a
0 6.291949 -36.838551 -14.335802 0.933645 -0.303360 0.190472 0.381367 -0.552745 1 0 1.000000 
0 6.291949 -33.075451 -14.335802 0.933645 0.303360 0.190472 0.395941 -0.552745 1 0 1.000000 
0 5.874774 -33.210999 -12.075018 0.945999 0.307374 0.102990 0.395941 -0.540098 1 0 1.000000 
rooftop01a
0 6.291949 -36.838551 -14.335802 0.933645 -0.303360 0.190472 0.381367 -0.552745 1 0 1.000000 
0 5.874774 -33.210999 -12.075018 0.945999 0.307374 0.102990 0.395941 -0.540098 1 0 1.000000 
0 5.874774 -36.703003 -12.075018 0.945999 -0.307374 0.102990 0.381367 -0.540098 1 0 1.000000 
rooftop01a
0 4.080054 -39.882965 -14.335802 0.577024 -0.794206 0.190472 0.366322 -0.552745 1 0 1.000000 
0 6.291949 -36.838551 -14.335802 0.933645 -0.303360 0.190472 0.381367 -0.552745 1 0 1.000000 
0 5.874774 -36.703003 -12.075018 0.945999 -0.307374 0.102990 0.381367 -0.540098 1 0 1.000000 
rooftop01a
0 4.080054 -39.882965 -14.335802 0.577024 -0.794206 0.190472 0.366322 -0.552745 1 0 1.000000 
0 5.874774 -36.703003 -12.075018 0.945999 -0.307374 0.102990 0.381367 -0.540098 1 0 1.000000 
0 3.822224 -39.528091 -12.075018 0.584660 -0.804715 0.102990 0.366323 -0.540098 1 0 1.000000 
rooftop01a
0 0.501131 -41.045826 -14.335802 0.000000 -0.981693 0.190472 0.350461 -0.552745 1 0 1.000000 
0 4.080054 -39.882965 -14.335802 0.577024 -0.794206 0.190472 0.366322 -0.552745 1 0 1.000000 
0 3.822224 -39.528091 -12.075018 0.584660 -0.804715 0.102990 0.366323 -0.540098 1 0 1.000000 
rooftop01a
0 0.501131 -41.045826 -14.335802 0.000000 -0.981693 0.190472 0.350461 -0.552745 1 0 1.000000 
0 3.822224 -39.528091 -12.075018 0.584660 -0.804715 0.102990 0.366323 -0.540098 1 0 1.000000 
0 0.501131 -40.607182 -12.075018 0.000000 -0.994682 0.102990 0.350461 -0.540098 1 0 1.000000 
rooftop01a
0 -3.077791 -39.882965 -14.335802 -0.577024 -0.794206 0.190472 0.334599 -0.552745 1 0 1.000000 
0 0.501131 -41.045826 -14.335802 0.000000 -0.981693 0.190472 0.350461 -0.552745 1 0 1.000000 
0 0.501131 -40.607182 -12.075018 0.000000 -0.994682 0.102990 0.350461 -0.540098 1 0 1.000000 
rooftop01a
0 -3.077791 -39.882965 -14.335802 -0.577024 -0.794206 0.190472 0.334599 -0.552745 1 0 1.000000 
0 0.501131 -40.607182 -12.075018 0.000000 -0.994682 0.102990 0.350461 -0.540098 1 0 1.000000 
0 -2.819961 -39.528091 -12.075018 -0.584660 -0.804715 0.102990 0.334599 -0.540098 1 0 1.000000 
rooftop01a
0 -5.289688 -36.838551 -14.335802 -0.933645 -0.303360 0.190472 0.319555 -0.552745 1 0 1.000000 
0 -3.077791 -39.882965 -14.335802 -0.577024 -0.794206 0.190472 0.334599 -0.552745 1 0 1.000000 
0 -2.819961 -39.528091 -12.075018 -0.584660 -0.804715 0.102990 0.334599 -0.540098 1 0 1.000000 
rooftop01a
0 -5.289688 -36.838551 -14.335802 -0.933645 -0.303360 0.190472 0.319555 -0.552745 1 0 1.000000 
0 -2.819961 -39.528091 -12.075018 -0.584660 -0.804715 0.102990 0.334599 -0.540098 1 0 1.000000 
0 -4.872509 -36.703003 -12.075018 -0.945999 -0.307374 0.102990 0.319555 -0.540098 1 0 1.000000 
rooftop01a
0 -5.289688 -33.075451 -14.335802 -0.933645 0.303360 0.190472 0.304980 -0.552745 1 0 1.000000 
0 -5.289688 -36.838551 -14.335802 -0.933645 -0.303360 0.190472 0.319555 -0.552745 1 0 1.000000 
0 -4.872509 -36.703003 -12.075018 -0.945999 -0.307374 0.102990 0.319555 -0.540098 1 0 1.000000 
rooftop01a
0 -5.289688 -33.075451 -14.335802 -0.933645 0.303360 0.190472 0.304980 -0.552745 1 0 1.000000 
0 -4.872509 -36.703003 -12.075018 -0.945999 -0.307374 0.102990 0.319555 -0.540098 1 0 1.000000 
0 -4.872509 -33.210999 -12.075018 -0.945999 0.307374 0.102990 0.304980 -0.540098 1 0 1.000000 
rooftop01a
0 -2.672629 -39.325310 5.151557 -0.587723 -0.808931 0.014549 0.334599 -0.399972 1 0 1.000000 
0 -4.872509 -36.703003 -12.075018 -0.945999 -0.307374 0.102990 0.319555 -0.540098 1 0 1.000000 
0 -2.819961 -39.528091 -12.075018 -0.584660 -0.804715 0.102990 0.334599 -0.540098 1 0 1.000000 
rooftop01a
0 -2.672629 -39.325310 5.151557 -0.587723 -0.808931 0.014549 0.334599 -0.399972 1 0 1.000000 
0 -4.634122 -36.625546 5.151557 -0.950956 -0.308984 0.014549 0.319555 -0.399972 1 0 1.000000 
0 -4.872509 -36.703003 -12.075018 -0.945999 -0.307374 0.102990 0.319555 -0.540098 1 0 1.000000 
rooftop01a
0 -4.634122 -36.625546 5.151557 -0.950956 -0.308984 0.014549 0.319555 -0.399972 1 0 1.000000 
0 -4.872509 -33.210999 -12.075018 -0.945999 0.307374 0.102990 0.304980 -0.540098 1 0 1.000000 
0 -4.872509 -36.703003 -12.075018 -0.945999 -0.307374 0.102990 0.319555 -0.540098 1 0 1.000000 
rooftop01a
0 -4.634122 -36.625546 5.151557 -0.950956 -0.308984 0.014549 0.319555 -0.399972 1 0 1.000000 
0 -4.634122 -33.288456 5.151557 -0.950956 0.308984 0.014549 0.304980 -0.399972 1 0 1.000000 
0 -4.872509 -33.210999 -12.075018 -0.945999 0.307374 0.102990 0.304980 -0.540098 1 0 1.000000 
rooftop01a
0 -3.077791 -30.031036 -14.335802 -0.577024 0.794206 0.190472 0.442709 -0.552745 1 0 1.000000 
0 -5.289688 -33.075451 -14.335802 -0.933645 0.303360 0.190472 0.457753 -0.552745 1 0 1.000000 
0 -4.872509 -33.210999 -12.075018 -0.945999 0.307374 0.102990 0.457753 -0.540098 1 0 1.000000 
rooftop01a
0 -3.077791 -30.031036 -14.335802 -0.577024 0.794206 0.190472 0.442709 -0.552745 1 0 1.000000 
0 -4.872509 -33.210999 -12.075018 -0.945999 0.307374 0.102990 0.457753 -0.540098 1 0 1.000000 
0 -2.819962 -30.385908 -12.075018 -0.584660 0.804715 0.102990 0.442709 -0.540098 1 0 1.000000 
rooftop01a
0 -4.634122 -33.288456 5.151557 -0.950956 0.308984 0.014549 0.457753 -0.399972 1 0 1.000000 
0 -2.819962 -30.385908 -12.075018 -0.584660 0.804715 0.102990 0.442709 -0.540098 1 0 1.000000 
0 -4.872509 -33.210999 -12.075018 -0.945999 0.307374 0.102990 0.457753 -0.540098 1 0 1.000000 
rooftop01a
0 -4.634122 -33.288456 5.151557 -0.950956 0.308984 0.014549 0.457753 -0.399972 1 0 1.000000 
0 -2.672630 -30.588692 5.151557 -0.587723 0.808931 0.014549 0.442709 -0.399972 1 0 1.000000 
0 -2.819962 -30.385908 -12.075018 -0.584660 0.804715 0.102990 0.442709 -0.540098 1 0 1.000000 
rooftop01a
0 -2.672630 -30.588692 5.151557 -0.587723 0.808931 0.014549 0.442709 -0.399972 1 0 1.000000 
0 0.501130 -29.306820 -12.075018 -0.000000 0.994682 0.102990 0.426847 -0.540098 1 0 1.000000 
0 -2.819962 -30.385908 -12.075018 -0.584660 0.804715 0.102990 0.442709 -0.540098 1 0 1.000000 
rooftop01a
0 -2.672630 -30.588692 5.151557 -0.587723 0.808931 0.014549 0.442709 -0.399972 1 0 1.000000 
0 0.501131 -29.557474 5.151557 -0.000000 0.999894 0.014549 0.426847 -0.399972 1 0 1.000000 
0 0.501130 -29.306820 -12.075018 -0.000000 0.994682 0.102990 0.426847 -0.540098 1 0 1.000000 
rooftop01a
0 0.501131 -29.557474 5.151557 -0.000000 0.999894 0.014549 0.426847 -0.399972 1 0 1.000000 
0 3.822223 -30.385908 -12.075018 0.584660 0.804715 0.102990 0.410986 -0.540098 1 0 1.000000 
0 0.501130 -29.306820 -12.075018 -0.000000 0.994682 0.102990 0.426847 -0.540098 1 0 1.000000 
rooftop01a
0 0.501131 -29.557474 5.151557 -0.000000 0.999894 0.014549 0.426847 -0.399972 1 0 1.000000 
0 3.674893 -30.588692 5.151557 0.587723 0.808931 0.014549 0.410985 -0.399972 1 0 1.000000 
0 3.822223 -30.385908 -12.075018 0.584660 0.804715 0.102990 0.410986 -0.540098 1 0 1.000000 
rooftop01a
0 3.674893 -30.588692 5.151557 0.587723 0.808931 0.014549 0.410985 -0.399972 1 0 1.000000 
0 5.874774 -33.210999 -12.075018 0.945999 0.307374 0.102990 0.395941 -0.540098 1 0 1.000000 
0 3.822223 -30.385908 -12.075018 0.584660 0.804715 0.102990 0.410986 -0.540098 1 0 1.000000 
rooftop01a
0 3.674893 -30.588692 5.151557 0.587723 0.808931 0.014549 0.410985 -0.399972 1 0 1.000000 
0 5.636385 -33.288456 5.151556 0.950956 0.308984 0.014549 0.395941 -0.399972 1 0 1.000000 
0 5.874774 -33.210999 -12.075018 0.945999 0.307374 0.102990 0.395941 -0.540098 1 0 1.000000 
rooftop01a
0 5.636385 -33.288456 5.151556 0.950956 0.308984 0.014549 0.395941 -0.399972 1 0 1.000000 
0 5.874774 -36.703003 -12.075018 0.945999 -0.307374 0.102990 0.381367 -0.540098 1 0 1.000000 
0 5.874774 -33.210999 -12.075018 0.945999 0.307374 0.102990 0.395941 -0.540098 1 0 1.000000 
rooftop01a
0 5.636385 -33.288456 5.151556 0.950956 0.308984 0.014549 0.395941 -0.399972 1 0 1.000000 
0 5.636385 -36.625546 5.151556 0.950956 -0.308984 0.014549 0.381367 -0.399972 1 0 1.000000 
0 5.874774 -36.703003 -12.075018 0.945999 -0.307374 0.102990 0.381367 -0.540098 1 0 1.000000 
rooftop01a
0 5.636385 -36.625546 5.151556 0.950956 -0.308984 0.014549 0.381367 -0.399972 1 0 1.000000 
0 3.822224 -39.528091 -12.075018 0.584660 -0.804715 0.102990 0.366323 -0.540098 1 0 1.000000 
0 5.874774 -36.703003 -12.075018 0.945999 -0.307374 0.102990 0.381367 -0.540098 1 0 1.000000 
rooftop01a
0 5.636385 -36.625546 5.151556 0.950956 -0.308984 0.014549 0.381367 -0.399972 1 0 1.000000 
0 3.674894 -39.325310 5.151557 0.587723 -0.808931 0.014549 0.366323 -0.399972 1 0 1.000000 
0 3.822224 -39.528091 -12.075018 0.584660 -0.804715 0.102990 0.366323 -0.540098 1 0 1.000000 
rooftop01a
0 3.674894 -39.325310 5.151557 0.587723 -0.808931 0.014549 0.366323 -0.399972 1 0 1.000000 
0 0.501131 -40.607182 -12.075018 0.000000 -0.994682 0.102990 0.350461 -0.540098 1 0 1.000000 
0 3.822224 -39.528091 -12.075018 0.584660 -0.804715 0.102990 0.366323 -0.540098 1 0 1.000000 
rooftop01a
0 3.674894 -39.325310 5.151557 0.587723 -0.808931 0.014549 0.366323 -0.399972 1 0 1.000000 
0 0.501132 -40.356525 5.151557 0.000000 -0.999894 0.014549 0.350461 -0.399972 1 0 1.000000 
0 0.501131 -40.607182 -12.075018 0.000000 -0.994682 0.102990 0.350461 -0.540098 1 0 1.000000 
rooftop01a
0 0.501132 -40.356525 5.151557 0.000000 -0.999894 0.014549 0.350461 -0.399972 1 0 1.000000 
0 -2.819961 -39.528091 -12.075018 -0.584660 -0.804715 0.102990 0.334599 -0.540098 1 0 1.000000 
0 0.501131 -40.607182 -12.075018 0.000000 -0.994682 0.102990 0.350461 -0.540098 1 0 1.000000 
rooftop01a
0 0.501132 -40.356525 5.151557 0.000000 -0.999894 0.014549 0.350461 -0.399972 1 0 1.000000 
0 -2.672629 -39.325310 5.151557 -0.587723 -0.808931 0.014549 0.334599 -0.399972 1 0 1.000000 
0 -2.819961 -39.528091 -12.075018 -0.584660 -0.804715 0.102990 0.334599 -0.540098 1 0 1.000000 
rooftop01a
0 -3.597943 -15.208226 9.517814 -0.587755 -0.808975 0.010221 0.280933 -0.083013 1 0 1.000000 
0 -5.821597 -12.147632 9.517814 -0.951007 -0.309001 0.010221 0.263371 -0.083013 1 0 1.000000 
0 -6.024282 -12.213488 -11.332637 -0.945271 -0.307137 0.110134 0.263371 -0.238903 1 0 1.000000 
rooftop01a
0 -5.821597 -12.147632 9.517814 -0.951007 -0.309001 0.010221 0.263371 -0.083013 1 0 1.000000 
0 -5.821597 -8.364529 9.517814 -0.951007 0.309001 0.010221 0.246357 -0.083013 1 0 1.000000 
0 -6.024282 -8.298672 -11.332637 -0.945271 0.307137 0.110134 0.246357 -0.238903 1 0 1.000000 
rooftop01a
0 -5.821597 -12.147632 9.517814 -0.951007 -0.309001 0.010221 0.263371 -0.083013 1 0 1.000000 
0 -6.024282 -8.298672 -11.332637 -0.945271 0.307137 0.110134 0.246357 -0.238903 1 0 1.000000 
0 -6.024282 -12.213488 -11.332637 -0.945271 -0.307137 0.110134 0.263371 -0.238903 1 0 1.000000 
rooftop01a
0 -6.633914 -8.100591 -14.335802 -0.930106 0.302210 0.208740 0.246357 -0.261356 1 0 1.000000 
0 -6.024282 -12.213488 -11.332637 -0.945271 -0.307137 0.110134 0.263371 -0.238903 1 0 1.000000 
0 -6.024282 -8.298672 -11.332637 -0.945271 0.307137 0.110134 0.246357 -0.238903 1 0 1.000000 
rooftop01a
0 -6.633914 -8.100591 -14.335802 -0.930106 0.302210 0.208740 0.246357 -0.261356 1 0 1.000000 
0 -6.633914 -12.411569 -14.335802 -0.930106 -0.302210 0.208740 0.263371 -0.261356 1 0 1.000000 
0 -6.024282 -12.213488 -11.332637 -0.945271 -0.307137 0.110134 0.263371 -0.238903 1 0 1.000000 
rooftop01a
0 -6.633914 -12.411569 -14.335802 -0.930106 -0.302210 0.208740 0.263371 -0.261356 1 0 1.000000 
0 -3.723211 -15.380641 -11.332637 -0.584210 -0.804095 0.110134 0.280933 -0.238903 1 0 1.000000 
0 -6.024282 -12.213488 -11.332637 -0.945271 -0.307137 0.110134 0.263371 -0.238903 1 0 1.000000 
rooftop01a
0 -3.597943 -15.208226 9.517814 -0.587755 -0.808975 0.010221 0.280933 -0.083013 1 0 1.000000 
0 -6.024282 -12.213488 -11.332637 -0.945271 -0.307137 0.110134 0.263371 -0.238903 1 0 1.000000 
0 -3.723211 -15.380641 -11.332637 -0.584210 -0.804095 0.110134 0.280933 -0.238903 1 0 1.000000 
rooftop01a
0 0.000001 -16.377270 9.517814 0.000000 -0.999948 0.010221 0.299450 -0.083013 1 0 1.000000 
0 -3.597943 -15.208226 9.517814 -0.587755 -0.808975 0.010221 0.280933 -0.083013 1 0 1.000000 
0 -3.723211 -15.380641 -11.332637 -0.584210 -0.804095 0.110134 0.280933 -0.238903 1 0 1.000000 
rooftop01a
0 0.000001 -16.377270 9.517814 0.000000 -0.999948 0.010221 0.299450 -0.083013 1 0 1.000000 
0 -3.723211 -15.380641 -11.332637 -0.584210 -0.804095 0.110134 0.280933 -0.238903 1 0 1.000000 
0 0.000001 -16.590385 -11.332637 0.000000 -0.993917 0.110134 0.299450 -0.238903 1 0 1.000000 
rooftop01a
0 3.597946 -15.208226 9.517814 0.587755 -0.808974 0.010221 0.317966 -0.083013 1 0 1.000000 
0 0.000001 -16.377270 9.517814 0.000000 -0.999948 0.010221 0.299450 -0.083013 1 0 1.000000 
0 0.000001 -16.590385 -11.332637 0.000000 -0.993917 0.110134 0.299450 -0.238903 1 0 1.000000 
rooftop01a
0 3.597946 -15.208226 9.517814 0.587755 -0.808974 0.010221 0.317966 -0.083013 1 0 1.000000 
0 0.000001 -16.590385 -11.332637 0.000000 -0.993917 0.110134 0.299450 -0.238903 1 0 1.000000 
0 3.723213 -15.380641 -11.332637 0.584210 -0.804095 0.110134 0.317966 -0.238903 1 0 1.000000 
rooftop01a
0 5.821599 -12.147632 9.517814 0.951007 -0.309001 0.010221 0.335528 -0.083013 1 0 1.000000 
0 3.597946 -15.208226 9.517814 0.587755 -0.808974 0.010221 0.317966 -0.083013 1 0 1.000000 
0 3.723213 -15.380641 -11.332637 0.584210 -0.804095 0.110134 0.317966 -0.238903 1 0 1.000000 
rooftop01a
0 5.821599 -12.147632 9.517814 0.951007 -0.309001 0.010221 0.335528 -0.083013 1 0 1.000000 
0 3.723213 -15.380641 -11.332637 0.584210 -0.804095 0.110134 0.317966 -0.238903 1 0 1.000000 
0 6.024282 -12.213488 -11.332637 0.945271 -0.307137 0.110134 0.335528 -0.238903 1 0 1.000000 
rooftop01a
0 5.821599 -8.364529 9.517814 0.951007 0.309001 0.010221 0.352542 -0.083013 1 0 1.000000 
0 5.821599 -12.147632 9.517814 0.951007 -0.309001 0.010221 0.335528 -0.083013 1 0 1.000000 
0 6.024282 -12.213488 -11.332637 0.945271 -0.307137 0.110134 0.335528 -0.238903 1 0 1.000000 
rooftop01a
0 5.821599 -8.364529 9.517814 0.951007 0.309001 0.010221 0.352542 -0.083013 1 0 1.000000 
0 6.024282 -12.213488 -11.332637 0.945271 -0.307137 0.110134 0.335528 -0.238903 1 0 1.000000 
0 6.024282 -8.298672 -11.332637 0.945271 0.307137 0.110134 0.352542 -0.238903 1 0 1.000000 
rooftop01a
0 3.597945 -5.303934 9.517814 0.587755 0.808975 0.010221 0.370105 -0.083013 1 0 1.000000 
0 5.821599 -8.364529 9.517814 0.951007 0.309001 0.010221 0.352542 -0.083013 1 0 1.000000 
0 6.024282 -8.298672 -11.332637 0.945271 0.307137 0.110134 0.352542 -0.238903 1 0 1.000000 
rooftop01a
0 3.597945 -5.303934 9.517814 0.587755 0.808975 0.010221 0.370105 -0.083013 1 0 1.000000 
0 6.024282 -8.298672 -11.332637 0.945271 0.307137 0.110134 0.352542 -0.238903 1 0 1.000000 
0 3.723212 -5.131519 -11.332637 0.584210 0.804095 0.110134 0.370105 -0.238903 1 0 1.000000 
rooftop01a
0 0.000000 -4.134891 9.517814 -0.000000 0.999948 0.010221 0.388621 -0.083013 1 0 1.000000 
0 3.597945 -5.303934 9.517814 0.587755 0.808975 0.010221 0.370105 -0.083013 1 0 1.000000 
0 3.723212 -5.131519 -11.332637 0.584210 0.804095 0.110134 0.370105 -0.238903 1 0 1.000000 
rooftop01a
0 0.000000 -4.134891 9.517814 -0.000000 0.999948 0.010221 0.388621 -0.083013 1 0 1.000000 
0 3.723212 -5.131519 -11.332637 0.584210 0.804095 0.110134 0.370105 -0.238903 1 0 1.000000 
0 0.000000 -3.921774 -11.332637 -0.000000 0.993917 0.110134 0.388621 -0.238903 1 0 1.000000 
rooftop01a
0 -6.633914 -12.411569 -14.335802 -0.930106 -0.302210 0.208740 0.263371 -0.261356 1 0 1.000000 
0 -4.099984 -15.899223 -14.335802 -0.574837 -0.791195 0.208740 0.280933 -0.261356 1 0 1.000000 
0 -3.723211 -15.380641 -11.332637 -0.584210 -0.804095 0.110134 0.280933 -0.238903 1 0 1.000000 
rooftop01a
0 -4.099984 -15.899223 -14.335802 -0.574837 -0.791195 0.208740 0.280933 -0.261356 1 0 1.000000 
0 0.000001 -16.590385 -11.332637 0.000000 -0.993917 0.110134 0.299450 -0.238903 1 0 1.000000 
0 -3.723211 -15.380641 -11.332637 -0.584210 -0.804095 0.110134 0.280933 -0.238903 1 0 1.000000 
rooftop01a
0 -4.099984 -15.899223 -14.335802 -0.574837 -0.791195 0.208740 0.280933 -0.261356 1 0 1.000000 
0 -0.000000 -17.231388 -14.335802 0.000000 -0.977971 0.208740 0.299450 -0.261356 1 0 1.000000 
0 0.000001 -16.590385 -11.332637 0.000000 -0.993917 0.110134 0.299450 -0.238903 1 0 1.000000 
rooftop01a
0 -0.000000 -17.231388 -14.335802 0.000000 -0.977971 0.208740 0.299450 -0.261356 1 0 1.000000 
0 3.723213 -15.380641 -11.332637 0.584210 -0.804095 0.110134 0.317966 -0.238903 1 0 1.000000 
0 0.000001 -16.590385 -11.332637 0.000000 -0.993917 0.110134 0.299450 -0.238903 1 0 1.000000 
rooftop01a
0 -0.000000 -17.231388 -14.335802 0.000000 -0.977971 0.208740 0.299450 -0.261356 1 0 1.000000 
0 4.099984 -15.899223 -14.335802 0.574837 -0.791195 0.208740 0.317966 -0.261356 1 0 1.000000 
0 3.723213 -15.380641 -11.332637 0.584210 -0.804095 0.110134 0.317966 -0.238903 1 0 1.000000 
rooftop01a
0 4.099984 -15.899223 -14.335802 0.574837 -0.791195 0.208740 0.317966 -0.261356 1 0 1.000000 
0 6.024282 -12.213488 -11.332637 0.945271 -0.307137 0.110134 0.335528 -0.238903 1 0 1.000000 
0 3.723213 -15.380641 -11.332637 0.584210 -0.804095 0.110134 0.317966 -0.238903 1 0 1.000000 
rooftop01a
0 4.099984 -15.899223 -14.335802 0.574837 -0.791195 0.208740 0.317966 -0.261356 1 0 1.000000 
0 6.633914 -12.411569 -14.335802 0.930106 -0.302210 0.208740 0.335528 -0.261356 1 0 1.000000 
0 6.024282 -12.213488 -11.332637 0.945271 -0.307137 0.110134 0.335528 -0.238903 1 0 1.000000 
rooftop01a
0 6.633914 -12.411569 -14.335802 0.930106 -0.302210 0.208740 0.335528 -0.261356 1 0 1.000000 
0 6.024282 -8.298672 -11.332637 0.945271 0.307137 0.110134 0.352542 -0.238903 1 0 1.000000 
0 6.024282 -12.213488 -11.332637 0.945271 -0.307137 0.110134 0.335528 -0.238903 1 0 1.000000 
rooftop01a
0 6.633914 -12.411569 -14.335802 0.930106 -0.302210 0.208740 0.335528 -0.261356 1 0 1.000000 
0 6.633914 -8.100591 -14.335802 0.930106 0.302210 0.208740 0.352542 -0.261356 1 0 1.000000 
0 6.024282 -8.298672 -11.332637 0.945271 0.307137 0.110134 0.352542 -0.238903 1 0 1.000000 
rooftop01a
0 6.633914 -8.100591 -14.335802 0.930106 0.302210 0.208740 0.352542 -0.261356 1 0 1.000000 
0 3.723212 -5.131519 -11.332637 0.584210 0.804095 0.110134 0.370105 -0.238903 1 0 1.000000 
0 6.024282 -8.298672 -11.332637 0.945271 0.307137 0.110134 0.352542 -0.238903 1 0 1.000000 
rooftop01a
0 6.633914 -8.100591 -14.335802 0.930106 0.302210 0.208740 0.352542 -0.261356 1 0 1.000000 
0 4.099983 -4.612937 -14.335802 0.574837 0.791195 0.208740 0.370105 -0.261356 1 0 1.000000 
0 3.723212 -5.131519 -11.332637 0.584210 0.804095 0.110134 0.370105 -0.238903 1 0 1.000000 
rooftop01a
0 4.099983 -4.612937 -14.335802 0.574837 0.791195 0.208740 0.370105 -0.261356 1 0 1.000000 
0 0.000000 -3.921774 -11.332637 -0.000000 0.993917 0.110134 0.388621 -0.238903 1 0 1.000000 
0 3.723212 -5.131519 -11.332637 0.584210 0.804095 0.110134 0.370105 -0.238903 1 0 1.000000 
rooftop01a
0 4.099983 -4.612937 -14.335802 0.574837 0.791195 0.208740 0.370105 -0.261356 1 0 1.000000 
0 -0.000001 -3.280771 -14.335802 -0.000000 0.977971 0.208740 0.388621 -0.261356 1 0 1.000000 
0 0.000000 -3.921774 -11.332637 -0.000000 0.993917 0.110134 0.388621 -0.238903 1 0 1.000000 
rooftop01a
0 -0.000001 -3.280771 -14.335802 -0.000000 0.977971 0.208740 0.388621 -0.261356 1 0 1.000000 
0 -3.723212 -5.131519 -11.332637 -0.584210 0.804095 0.110134 0.407138 -0.238903 1 0 1.000000 
0 0.000000 -3.921774 -11.332637 -0.000000 0.993917 0.110134 0.388621 -0.238903 1 0 1.000000 
rooftop01a
0 -0.000001 -3.280771 -14.335802 -0.000000 0.977971 0.208740 0.388621 -0.261356 1 0 1.000000 
0 -4.099984 -4.612937 -14.335802 -0.574837 0.791195 0.208740 0.407138 -0.261356 1 0 1.000000 
0 -3.723212 -5.131519 -11.332637 -0.584210 0.804095 0.110134 0.407138 -0.238903 1 0 1.000000 
rooftop01a
0 -3.597944 -5.303934 9.517814 -0.587755 0.808974 0.010221 0.407138 -0.083013 1 0 1.000000 
0 0.000000 -4.134891 9.517814 -0.000000 0.999948 0.010221 0.388621 -0.083013 1 0 1.000000 
0 0.000000 -3.921774 -11.332637 -0.000000 0.993917 0.110134 0.388621 -0.238903 1 0 1.000000 
rooftop01a
0 -3.597944 -5.303934 9.517814 -0.587755 0.808974 0.010221 0.407138 -0.083013 1 0 1.000000 
0 0.000000 -3.921774 -11.332637 -0.000000 0.993917 0.110134 0.388621 -0.238903 1 0 1.000000 
0 -3.723212 -5.131519 -11.332637 -0.584210 0.804095 0.110134 0.407138 -0.238903 1 0 1.000000 
rooftop01a
0 -5.821597 -8.364529 9.517814 -0.951007 0.309001 0.010221 0.424700 -0.083013 1 0 1.000000 
0 -3.597944 -5.303934 9.517814 -0.587755 0.808974 0.010221 0.407138 -0.083013 1 0 1.000000 
0 -3.723212 -5.131519 -11.332637 -0.584210 0.804095 0.110134 0.407138 -0.238903 1 0 1.000000 
rooftop01a
0 -5.821597 -8.364529 9.517814 -0.951007 0.309001 0.010221 0.424700 -0.083013 1 0 1.000000 
0 -3.723212 -5.131519 -11.332637 -0.584210 0.804095 0.110134 0.407138 -0.238903 1 0 1.000000 
0 -6.024282 -8.298672 -11.332637 -0.945271 0.307137 0.110134 0.424700 -0.238903 1 0 1.000000 
rooftop01a
0 -4.099984 -4.612937 -14.335802 -0.574837 0.791195 0.208740 0.407138 -0.261356 1 0 1.000000 
0 -6.024282 -8.298672 -11.332637 -0.945271 0.307137 0.110134 0.424700 -0.238903 1 0 1.000000 
0 -3.723212 -5.131519 -11.332637 -0.584210 0.804095 0.110134 0.407138 -0.238903 1 0 1.000000 
rooftop01a
0 -4.099984 -4.612937 -14.335802 -0.574837 0.791195 0.208740 0.407138 -0.261356 1 0 1.000000 
0 -6.633914 -8.100591 -14.335802 -0.930106 0.302210 0.208740 0.424700 -0.261356 1 0 1.000000 
0 -6.024282 -8.298672 -11.332637 -0.945271 0.307137 0.110134 0.424700 -0.238903 1 0 1.000000 
rooftop01a
0 -0.375903 30.426889 -14.335802 0.000000 0.000000 -1.000000 0.259715 -0.315633 1 0 1.000000 
0 4.673704 34.095642 -14.335802 0.000000 0.000000 -1.000000 0.293971 -0.315633 1 0 1.000000 
0 2.744925 31.440907 -14.335802 0.000000 0.000000 -1.000000 0.277296 -0.315633 1 0 1.000000 
rooftop01a
0 -0.375903 30.426889 -14.335802 0.000000 0.000000 -1.000000 0.259715 -0.315633 1 0 1.000000 
0 4.673704 37.377075 -14.335802 0.000000 0.000000 -1.000000 0.310125 -0.315633 1 0 1.000000 
0 4.673704 34.095642 -14.335802 0.000000 0.000000 -1.000000 0.293971 -0.315633 1 0 1.000000 
rooftop01a
0 -0.375903 30.426889 -14.335802 0.000000 0.000000 -1.000000 0.259715 -0.315633 1 0 1.000000 
0 2.744924 40.031811 -14.335802 0.000000 0.000000 -1.000000 0.326800 -0.315633 1 0 1.000000 
0 4.673704 37.377075 -14.335802 0.000000 0.000000 -1.000000 0.310125 -0.315633 1 0 1.000000 
rooftop01a
0 -0.375903 30.426889 -14.335802 0.000000 0.000000 -1.000000 0.259715 -0.315633 1 0 1.000000 
0 -0.375904 41.045826 -14.335802 0.000000 0.000000 -1.000000 0.344381 -0.315633 1 0 1.000000 
0 2.744924 40.031811 -14.335802 0.000000 0.000000 -1.000000 0.326800 -0.315633 1 0 1.000000 
rooftop01a
0 -0.375903 30.426889 -14.335802 0.000000 0.000000 -1.000000 0.259715 -0.315633 1 0 1.000000 
0 -3.496732 40.031811 -14.335802 0.000000 0.000000 -1.000000 0.361962 -0.315633 1 0 1.000000 
0 -0.375904 41.045826 -14.335802 0.000000 0.000000 -1.000000 0.344381 -0.315633 1 0 1.000000 
rooftop01a
0 -0.375903 30.426889 -14.335802 0.000000 0.000000 -1.000000 0.259715 -0.315633 1 0 1.000000 
0 -5.425509 37.377075 -14.335802 0.000000 0.000000 -1.000000 0.209305 -0.315633 1 0 1.000000 
0 -3.496732 40.031811 -14.335802 0.000000 0.000000 -1.000000 0.361962 -0.315633 1 0 1.000000 
rooftop01a
0 -0.375903 30.426889 -14.335802 0.000000 0.000000 -1.000000 0.259715 -0.315633 1 0 1.000000 
0 -5.425509 34.095642 -14.335802 0.000000 0.000000 -1.000000 0.225459 -0.315633 1 0 1.000000 
0 -5.425509 37.377075 -14.335802 0.000000 0.000000 -1.000000 0.209305 -0.315633 1 0 1.000000 
rooftop01a
0 -0.375903 30.426889 -14.335802 0.000000 0.000000 -1.000000 0.259715 -0.315633 1 0 1.000000 
0 -3.496732 31.440907 -14.335802 0.000000 0.000000 -1.000000 0.242134 -0.315633 1 0 1.000000 
0 -5.425509 34.095642 -14.335802 0.000000 0.000000 -1.000000 0.225459 -0.315633 1 0 1.000000 
rooftop01a
0 0.501132 -40.356525 5.151557 -0.000000 0.944847 0.327513 0.372196 -0.490131 1 0 1.000000 
0 3.674894 -39.325310 5.151557 -0.555367 0.764397 0.327513 0.383425 -0.524689 1 0 1.000000 
0 0.501132 -34.957001 -10.425591 0.000000 0.000000 1.000000 0.430990 -0.490131 1 0 1.000000 
rooftop01a
0 3.674894 -39.325310 5.151557 -0.555367 0.764397 0.327513 0.383425 -0.524689 1 0 1.000000 
0 5.636385 -36.625546 5.151556 -0.898602 0.291974 0.327513 0.412822 -0.546047 1 0 1.000000 
0 0.501132 -34.957001 -10.425591 0.000000 0.000000 1.000000 0.430990 -0.490131 1 0 1.000000 
rooftop01a
0 5.636385 -36.625546 5.151556 -0.898602 0.291974 0.327513 0.412822 -0.546047 1 0 1.000000 
0 5.636385 -33.288456 5.151556 -0.898602 -0.291974 0.327513 0.449158 -0.546047 1 0 1.000000 
0 0.501132 -34.957001 -10.425591 0.000000 0.000000 1.000000 0.430990 -0.490131 1 0 1.000000 
rooftop01a
0 5.636385 -33.288456 5.151556 -0.898602 -0.291974 0.327513 0.449158 -0.546047 1 0 1.000000 
0 3.674893 -30.588692 5.151557 -0.555367 -0.764397 0.327513 0.478555 -0.524689 1 0 1.000000 
0 0.501132 -34.957001 -10.425591 0.000000 0.000000 1.000000 0.430990 -0.490131 1 0 1.000000 
rooftop01a
0 3.674893 -30.588692 5.151557 -0.555367 -0.764397 0.327513 0.478555 -0.524689 1 0 1.000000 
0 0.501131 -29.557474 5.151557 0.000000 -0.944847 0.327513 0.489783 -0.490131 1 0 1.000000 
0 0.501132 -34.957001 -10.425591 0.000000 0.000000 1.000000 0.430990 -0.490131 1 0 1.000000 
rooftop01a
0 0.501131 -29.557474 5.151557 0.000000 -0.944847 0.327513 0.489783 -0.490131 1 0 1.000000 
0 -2.672630 -30.588692 5.151557 0.555367 -0.764397 0.327513 0.478555 -0.455573 1 0 1.000000 
0 0.501132 -34.957001 -10.425591 0.000000 0.000000 1.000000 0.430990 -0.490131 1 0 1.000000 
rooftop01a
0 -2.672630 -30.588692 5.151557 0.555367 -0.764397 0.327513 0.478555 -0.455573 1 0 1.000000 
0 -4.634122 -33.288456 5.151557 0.898602 -0.291974 0.327513 0.449158 -0.434215 1 0 1.000000 
0 0.501132 -34.957001 -10.425591 0.000000 0.000000 1.000000 0.430990 -0.490131 1 0 1.000000 
rooftop01a
0 -4.634122 -33.288456 5.151557 0.898602 -0.291974 0.327513 0.449158 -0.434215 1 0 1.000000 
0 -4.634122 -36.625546 5.151557 0.898602 0.291974 0.327513 0.412822 -0.434215 1 0 1.000000 
0 0.501132 -34.957001 -10.425591 0.000000 0.000000 1.000000 0.430990 -0.490131 1 0 1.000000 
rooftop01a
0 -4.634122 -36.625546 5.151557 0.898602 0.291974 0.327513 0.412822 -0.434215 1 0 1.000000 
0 -2.672629 -39.325310 5.151557 0.555367 0.764397 0.327513 0.383425 -0.455573 1 0 1.000000 
0 0.501132 -34.957001 -10.425591 0.000000 0.000000 1.000000 0.430990 -0.490131 1 0 1.000000 
rooftop01a
0 -2.672629 -39.325310 5.151557 0.555367 0.764397 0.327513 0.383425 -0.455573 1 0 1.000000 
0 0.501132 -40.356525 5.151557 -0.000000 0.944847 0.327513 0.372196 -0.490131 1 0 1.000000 
0 0.501132 -34.957001 -10.425591 0.000000 0.000000 1.000000 0.430990 -0.490131 1 0 1.000000 
rooftop01a
0 0.000001 -16.377270 9.517814 -0.000000 0.948145 0.317837 0.320991 -0.194018 1 0 1.000000 
0 3.597946 -15.208226 9.517814 -0.557306 0.767066 0.317837 0.328819 -0.218111 1 0 1.000000 
0 0.000000 -10.256080 -8.742402 0.000000 0.000000 1.000000 0.361980 -0.194018 1 0 1.000000 
rooftop01a
0 3.597946 -15.208226 9.517814 -0.557306 0.767066 0.317837 0.328819 -0.218111 1 0 1.000000 
0 5.821599 -12.147632 9.517814 -0.901740 0.292993 0.317837 0.349313 -0.233001 1 0 1.000000 
0 0.000000 -10.256080 -8.742402 0.000000 0.000000 1.000000 0.361980 -0.194018 1 0 1.000000 
rooftop01a
0 5.821599 -12.147632 9.517814 -0.901740 0.292993 0.317837 0.349313 -0.233001 1 0 1.000000 
0 5.821599 -8.364529 9.517814 -0.901740 -0.292993 0.317837 0.374646 -0.233001 1 0 1.000000 
0 0.000000 -10.256080 -8.742402 0.000000 0.000000 1.000000 0.361980 -0.194018 1 0 1.000000 
rooftop01a
0 5.821599 -8.364529 9.517814 -0.901740 -0.292993 0.317837 0.374646 -0.233001 1 0 1.000000 
0 3.597945 -5.303934 9.517814 -0.557306 -0.767066 0.317837 0.395140 -0.218111 1 0 1.000000 
0 0.000000 -10.256080 -8.742402 0.000000 0.000000 1.000000 0.361980 -0.194018 1 0 1.000000 
rooftop01a
0 3.597945 -5.303934 9.517814 -0.557306 -0.767066 0.317837 0.395140 -0.218111 1 0 1.000000 
0 0.000000 -4.134891 9.517814 0.000000 -0.948145 0.317837 0.402968 -0.194018 1 0 1.000000 
0 0.000000 -10.256080 -8.742402 0.000000 0.000000 1.000000 0.361980 -0.194018 1 0 1.000000 
rooftop01a
0 0.000000 -4.134891 9.517814 0.000000 -0.948145 0.317837 0.402968 -0.194018 1 0 1.000000 
0 -3.597944 -5.303934 9.517814 0.557306 -0.767066 0.317837 0.395140 -0.169926 1 0 1.000000 
0 0.000000 -10.256080 -8.742402 0.000000 0.000000 1.000000 0.361980 -0.194018 1 0 1.000000 
rooftop01a
0 -3.597944 -5.303934 9.517814 0.557306 -0.767066 0.317837 0.395140 -0.169926 1 0 1.000000 
0 -5.821597 -8.364529 9.517814 0.901740 -0.292993 0.317837 0.374646 -0.155036 1 0 1.000000 
0 0.000000 -10.256080 -8.742402 0.000000 0.000000 1.000000 0.361980 -0.194018 1 0 1.000000 
rooftop01a
0 -5.821597 -8.364529 9.517814 0.901740 -0.292993 0.317837 0.374646 -0.155036 1 0 1.000000 
0 -5.821597 -12.147632 9.517814 0.901740 0.292993 0.317837 0.349313 -0.155036 1 0 1.000000 
0 0.000000 -10.256080 -8.742402 0.000000 0.000000 1.000000 0.361980 -0.194018 1 0 1.000000 
rooftop01a
0 -5.821597 -12.147632 9.517814 0.901740 0.292993 0.317837 0.349313 -0.155036 1 0 1.000000 
0 -3.597943 -15.208226 9.517814 0.557306 0.767066 0.317837 0.328819 -0.169926 1 0 1.000000 
0 0.000000 -10.256080 -8.742402 0.000000 0.000000 1.000000 0.361980 -0.194018 1 0 1.000000 
rooftop01a
0 -3.597943 -15.208226 9.517814 0.557306 0.767066 0.317837 0.328819 -0.169926 1 0 1.000000 
0 0.000001 -16.377270 9.517814 -0.000000 0.948145 0.317837 0.320991 -0.194018 1 0 1.000000 
0 0.000000 -10.256080 -8.742402 0.000000 0.000000 1.000000 0.361980 -0.194018 1 0 1.000000 
rooftop01a
0 3.924999 34.338909 14.335802 -0.934811 0.303739 0.184039 0.316900 -0.341169 1 0 1.000000 
0 3.924998 37.133804 14.335802 -0.934811 -0.303739 0.184039 0.367625 -0.341169 1 0 1.000000 
0 -0.375903 35.736359 -9.816692 0.000000 0.000000 1.000000 0.342262 -0.263113 1 0 1.000000 
rooftop01a
0 3.924998 37.133804 14.335802 -0.934811 -0.303739 0.184039 0.367625 -0.341169 1 0 1.000000 
0 2.282200 39.394920 14.335802 -0.577745 -0.795198 0.184039 0.408662 -0.311355 1 0 1.000000 
0 -0.375903 35.736359 -9.816692 0.000000 0.000000 1.000000 0.342262 -0.263113 1 0 1.000000 
rooftop01a
0 2.282200 39.394920 14.335802 -0.577745 -0.795198 0.184039 0.408662 -0.311355 1 0 1.000000 
0 -0.375902 40.258591 14.335802 0.000000 -0.982919 0.184039 0.424336 -0.263113 1 0 1.000000 
0 -0.375903 35.736359 -9.816692 0.000000 0.000000 1.000000 0.342262 -0.263113 1 0 1.000000 
rooftop01a
0 -0.375902 40.258591 14.335802 0.000000 -0.982919 0.184039 0.424336 -0.263113 1 0 1.000000 
0 -3.034004 39.394920 14.335802 0.577745 -0.795198 0.184039 0.408662 -0.214871 1 0 1.000000 
0 -0.375903 35.736359 -9.816692 0.000000 0.000000 1.000000 0.342262 -0.263113 1 0 1.000000 
rooftop01a
0 -3.034004 39.394920 14.335802 0.577745 -0.795198 0.184039 0.408662 -0.214871 1 0 1.000000 
0 -4.676803 37.133804 14.335802 0.934811 -0.303739 0.184039 0.367625 -0.185056 1 0 1.000000 
0 -0.375903 35.736359 -9.816692 0.000000 0.000000 1.000000 0.342262 -0.263113 1 0 1.000000 
rooftop01a
0 -4.676803 37.133804 14.335802 0.934811 -0.303739 0.184039 0.367625 -0.185056 1 0 1.000000 
0 -4.676803 34.338909 14.335802 0.934811 0.303739 0.184039 0.316900 -0.185056 1 0 1.000000 
0 -0.375903 35.736359 -9.816692 0.000000 0.000000 1.000000 0.342262 -0.263113 1 0 1.000000 
rooftop01a
0 -4.676803 34.338909 14.335802 0.934811 0.303739 0.184039 0.316900 -0.185056 1 0 1.000000 
0 -3.034003 32.077793 14.335802 0.577745 0.795198 0.184039 0.275863 -0.214871 1 0 1.000000 
0 -0.375903 35.736359 -9.816692 0.000000 0.000000 1.000000 0.342262 -0.263113 1 0 1.000000 
rooftop01a
0 -3.034003 32.077793 14.335802 0.577745 0.795198 0.184039 0.275863 -0.214871 1 0 1.000000 
0 -0.375901 31.214125 14.335802 -0.000000 0.982919 0.184039 0.260188 -0.263113 1 0 1.000000 
0 -0.375903 35.736359 -9.816692 0.000000 0.000000 1.000000 0.342262 -0.263113 1 0 1.000000 
rooftop01a
0 -0.375901 31.214125 14.335802 -0.000000 0.982919 0.184039 0.260188 -0.263113 1 0 1.000000 
0 2.282201 32.077793 14.335802 -0.577745 0.795198 0.184039 0.275863 -0.311355 1 0 1.000000 
0 -0.375903 35.736359 -9.816692 0.000000 0.000000 1.000000 0.342262 -0.263113 1 0 1.000000 
rooftop01a
0 2.282201 32.077793 14.335802 -0.577745 0.795198 0.184039 0.275863 -0.311355 1 0 1.000000 
0 3.924999 34.338909 14.335802 -0.934811 0.303739 0.184039 0.316900 -0.341169 1 0 1.000000 
0 -0.375903 35.736359 -9.816692 0.000000 0.000000 1.000000 0.342262 -0.263113 1 0 1.000000 
rooftop01a
0 0.501131 -41.045826 -14.335802 0.000000 0.000000 -1.000000 0.350461 -0.552745 1 0 1.000000 
0 6.291949 -36.838551 -14.335802 0.000000 0.000000 -1.000000 0.381367 -0.552745 1 0 1.000000 
0 4.080054 -39.882965 -14.335802 0.000000 0.000000 -1.000000 0.366322 -0.552745 1 0 1.000000 
rooftop01a
0 0.501131 -41.045826 -14.335802 0.000000 0.000000 -1.000000 0.350461 -0.552745 1 0 1.000000 
0 6.291949 -33.075451 -14.335802 0.000000 0.000000 -1.000000 0.395941 -0.552745 1 0 1.000000 
0 6.291949 -36.838551 -14.335802 0.000000 0.000000 -1.000000 0.381367 -0.552745 1 0 1.000000 
rooftop01a
0 0.501131 -41.045826 -14.335802 0.000000 0.000000 -1.000000 0.350461 -0.552745 1 0 1.000000 
0 4.080053 -30.031036 -14.335802 0.000000 0.000000 -1.000000 0.410985 -0.552745 1 0 1.000000 
0 6.291949 -33.075451 -14.335802 0.000000 0.000000 -1.000000 0.395941 -0.552745 1 0 1.000000 
rooftop01a
0 0.501131 -41.045826 -14.335802 0.000000 0.000000 -1.000000 0.350461 -0.552745 1 0 1.000000 
0 0.501130 -28.868174 -14.335802 0.000000 0.000000 -1.000000 0.426847 -0.552745 1 0 1.000000 
0 4.080053 -30.031036 -14.335802 0.000000 0.000000 -1.000000 0.410985 -0.552745 1 0 1.000000 
rooftop01a
0 0.501131 -41.045826 -14.335802 0.000000 0.000000 -1.000000 0.350461 -0.552745 1 0 1.000000 
0 -3.077791 -30.031036 -14.335802 0.000000 0.000000 -1.000000 0.442709 -0.552745 1 0 1.000000 
0 0.501130 -28.868174 -14.335802 0.000000 0.000000 -1.000000 0.426847 -0.552745 1 0 1.000000 
rooftop01a
0 0.501131 -41.045826 -14.335802 0.000000 0.000000 -1.000000 0.350461 -0.552745 1 0 1.000000 
0 -5.289688 -33.075451 -14.335802 0.000000 0.000000 -1.000000 0.304980 -0.552745 1 0 1.000000 
0 -3.077791 -30.031036 -14.335802 0.000000 0.000000 -1.000000 0.442709 -0.552745 1 0 1.000000 
rooftop01a
0 0.501131 -41.045826 -14.335802 0.000000 0.000000 -1.000000 0.350461 -0.552745 1 0 1.000000 
0 -5.289688 -36.838551 -14.335802 0.000000 0.000000 -1.000000 0.319555 -0.552745 1 0 1.000000 
0 -5.289688 -33.075451 -14.335802 0.000000 0.000000 -1.000000 0.304980 -0.552745 1 0 1.000000 
rooftop01a
0 0.501131 -41.045826 -14.335802 0.000000 0.000000 -1.000000 0.350461 -0.552745 1 0 1.000000 
0 -3.077791 -39.882965 -14.335802 0.000000 0.000000 -1.000000 0.334599 -0.552745 1 0 1.000000 
0 -5.289688 -36.838551 -14.335802 0.000000 0.000000 -1.000000 0.319555 -0.552745 1 0 1.000000 
rooftop01a
0 -0.000000 -17.231388 -14.335802 0.000000 0.000000 -1.000000 0.299450 -0.261356 1 0 1.000000 
0 6.633914 -12.411569 -14.335802 0.000000 0.000000 -1.000000 0.335528 -0.261356 1 0 1.000000 
0 4.099984 -15.899223 -14.335802 0.000000 0.000000 -1.000000 0.317966 -0.261356 1 0 1.000000 
rooftop01a
0 -0.000000 -17.231388 -14.335802 0.000000 0.000000 -1.000000 0.299450 -0.261356 1 0 1.000000 
0 6.633914 -8.100591 -14.335802 0.000000 0.000000 -1.000000 0.352542 -0.261356 1 0 1.000000 
0 6.633914 -12.411569 -14.335802 0.000000 0.000000 -1.000000 0.335528 -0.261356 1 0 1.000000 
rooftop01a
0 -0.000000 -17.231388 -14.335802 0.000000 0.000000 -1.000000 0.299450 -0.261356 1 0 1.000000 
0 4.099983 -4.612937 -14.335802 0.000000 0.000000 -1.000000 0.370105 -0.261356 1 0 1.000000 
0 6.633914 -8.100591 -14.335802 0.000000 0.000000 -1.000000 0.352542 -0.261356 1 0 1.000000 
rooftop01a
0 -0.000000 -17.231388 -14.335802 0.000000 0.000000 -1.000000 0.299450 -0.261356 1 0 1.000000 
0 -0.000001 -3.280771 -14.335802 0.000000 0.000000 -1.000000 0.388621 -0.261356 1 0 1.000000 
0 4.099983 -4.612937 -14.335802 0.000000 0.000000 -1.000000 0.370105 -0.261356 1 0 1.000000 
rooftop01a
0 -0.000000 -17.231388 -14.335802 0.000000 0.000000 -1.000000 0.299450 -0.261356 1 0 1.000000 
0 -4.099984 -4.612937 -14.335802 0.000000 0.000000 -1.000000 0.407138 -0.261356 1 0 1.000000 
0 -0.000001 -3.280771 -14.335802 0.000000 0.000000 -1.000000 0.388621 -0.261356 1 0 1.000000 
rooftop01a
0 -0.000000 -17.231388 -14.335802 0.000000 0.000000 -1.000000 0.299450 -0.261356 1 0 1.000000 
0 -6.633914 -8.100591 -14.335802 0.000000 0.000000 -1.000000 0.424700 -0.261356 1 0 1.000000 
0 -4.099984 -4.612937 -14.335802 0.000000 0.000000 -1.000000 0.407138 -0.261356 1 0 1.000000 
rooftop01a
0 -0.000000 -17.231388 -14.335802 0.000000 0.000000 -1.000000 0.299450 -0.261356 1 0 1.000000 
0 -6.633914 -12.411569 -14.335802 0.000000 0.000000 -1.000000 0.263371 -0.261356 1 0 1.000000 
0 -6.633914 -8.100591 -14.335802 0.000000 0.000000 -1.000000 0.424700 -0.261356 1 0 1.000000 
rooftop01a
0 -0.000000 -17.231388 -14.335802 0.000000 0.000000 -1.000000 0.299450 -0.261356 1 0 1.000000 
0 -4.099984 -15.899223 -14.335802 0.000000 0.000000 -1.000000 0.280933 -0.261356 1 0 1.000000 
0 -6.633914 -12.411569 -14.335802 0.000000 0.000000 -1.000000 0.263371 -0.261356 1 0 1.000000 
end
