version 1
nodes
  0 "static_prop" -1
end
skeleton
time 0
0 0.000000 0.000000 0.000000 0.000000 0.000000 0.000000
end
triangles
metaldoor001b
0 1.596699 17.190300 -0.631800 0.009100 0.085797 -0.996271 1.000000 -0.523800 1 0 1.000000 
0 0.596701 -17.427000 -0.631800 0.000000 -0.065298 -0.997866 0.000000 -0.490400 1 0 1.000000 
0 0.596699 17.190300 -0.631800 -0.048002 0.210810 -0.976348 1.000000 -0.490400 1 0 1.000000 
metaldoor001b
0 1.596699 17.190300 -0.631800 0.009100 0.085797 -0.996271 1.000000 -0.523800 1 0 1.000000 
0 1.596701 -17.427000 -0.631800 0.024100 -0.146698 -0.988888 0.000000 -0.523800 1 0 1.000000 
0 0.596701 -17.427000 -0.631800 0.000000 -0.065298 -0.997866 0.000000 -0.490400 1 0 1.000000 
metaldoor001b
0 0.596701 -24.240400 4.375400 -1.000000 -0.000000 0.000000 0.893400 -0.943800 1 0 1.000000 
0 0.596701 -24.868401 43.201302 -1.000000 -0.000000 0.000000 0.904300 -0.630000 1 0 1.000000 
0 0.596699 17.481600 43.201302 -1.000000 -0.000000 0.000000 0.169400 -0.630000 1 0 1.000000 
metaldoor001b
0 0.596700 8.681600 60.641300 -1.000000 -0.000000 0.000000 0.322100 -0.489000 1 0 1.000000 
0 0.596701 -24.868401 43.201302 -1.000000 -0.000000 0.000000 0.904300 -0.630000 1 0 1.000000 
0 0.596701 -24.868401 60.641300 -1.000000 -0.000000 0.000000 0.904300 -0.489000 1 0 1.000000 
metaldoor001b
0 0.596700 8.681600 60.641300 -1.000000 -0.000000 0.000000 0.322100 -0.489000 1 0 1.000000 
0 0.596700 8.681600 43.201302 -1.000000 -0.000000 0.000000 0.322100 -0.630000 1 0 1.000000 
0 0.596701 -24.868401 43.201302 -1.000000 -0.000000 0.000000 0.904300 -0.630000 1 0 1.000000 
metaldoor001b
0 0.596699 17.481600 60.641300 -1.000000 -0.000000 0.000000 0.169400 -0.489000 1 0 1.000000 
0 0.596700 8.681600 43.201302 -1.000000 -0.000000 0.000000 0.322100 -0.630000 1 0 1.000000 
0 0.596700 8.681600 60.641300 -1.000000 -0.000000 0.000000 0.322100 -0.489000 1 0 1.000000 
metaldoor001b
0 0.596699 17.481600 60.641300 -1.000000 -0.000000 0.000000 0.169400 -0.489000 1 0 1.000000 
0 0.596699 17.481600 43.201302 -1.000000 -0.000000 0.000000 0.169400 -0.630000 1 0 1.000000 
0 0.596700 8.681600 43.201302 -1.000000 -0.000000 0.000000 0.322100 -0.630000 1 0 1.000000 
metaldoor001b
0 0.596699 24.631599 60.641300 -1.000000 -0.000000 0.000000 0.045300 -0.489000 1 0 1.000000 
0 0.596699 17.481600 43.201302 -1.000000 -0.000000 0.000000 0.169400 -0.630000 1 0 1.000000 
0 0.596699 17.481600 60.641300 -1.000000 -0.000000 0.000000 0.169400 -0.489000 1 0 1.000000 
metaldoor001b
0 0.596699 24.631599 60.641300 -1.000000 -0.000000 0.000000 0.045300 -0.489000 1 0 1.000000 
0 0.596699 24.591900 6.702600 -1.000000 -0.000000 0.000000 0.046000 -0.925000 1 0 1.000000 
0 0.596699 17.481600 43.201302 -1.000000 -0.000000 0.000000 0.169400 -0.630000 1 0 1.000000 
metaldoor001b
0 0.596701 -24.240400 4.375400 -1.000000 -0.000000 0.000000 0.893400 -0.943800 1 0 1.000000 
0 0.596699 17.481600 43.201302 -1.000000 -0.000000 0.000000 0.169400 -0.630000 1 0 1.000000 
0 0.596699 24.591900 6.702600 -1.000000 -0.000000 0.000000 0.046000 -0.925000 1 0 1.000000 
metaldoor001b
0 0.596699 24.591900 6.702600 -1.000000 -0.000000 0.000000 0.046000 -0.925000 1 0 1.000000 
0 0.596701 -22.995701 2.317700 -1.000000 -0.000000 0.000000 0.871800 -0.960400 1 0 1.000000 
0 0.596701 -24.240400 4.375400 -1.000000 -0.000000 0.000000 0.893400 -0.943800 1 0 1.000000 
metaldoor001b
0 0.596699 24.591900 6.702600 -1.000000 -0.000000 0.000000 0.046000 -0.925000 1 0 1.000000 
0 0.596701 -20.507401 0.294100 -1.000000 -0.000000 0.000000 0.828600 -0.976800 1 0 1.000000 
0 0.596701 -22.995701 2.317700 -1.000000 -0.000000 0.000000 0.871800 -0.960400 1 0 1.000000 
metaldoor001b
0 0.596699 24.591900 6.702600 -1.000000 -0.000000 0.000000 0.046000 -0.925000 1 0 1.000000 
0 0.596701 -17.427000 -0.631800 -1.000000 -0.000000 0.000000 0.775100 -0.984300 1 0 1.000000 
0 0.596701 -20.507401 0.294100 -1.000000 -0.000000 0.000000 0.828600 -0.976800 1 0 1.000000 
metaldoor001b
0 0.596699 24.591900 6.702600 -1.000000 -0.000000 0.000000 0.046000 -0.925000 1 0 1.000000 
0 0.596699 17.190300 -0.631800 -1.000000 -0.000000 0.000000 0.174400 -0.984300 1 0 1.000000 
0 0.596701 -17.427000 -0.631800 -1.000000 -0.000000 0.000000 0.775100 -0.984300 1 0 1.000000 
metaldoor001b
0 0.596699 24.591900 6.702600 -1.000000 -0.000000 0.000000 0.046000 -0.925000 1 0 1.000000 
0 0.596699 20.965099 0.706600 -1.000000 -0.000000 0.000000 0.108900 -0.973400 1 0 1.000000 
0 0.596699 17.190300 -0.631800 -1.000000 -0.000000 0.000000 0.174400 -0.984300 1 0 1.000000 
metaldoor001b
0 0.596699 24.591900 6.702600 -1.000000 -0.000000 0.000000 0.046000 -0.925000 1 0 1.000000 
0 0.596699 24.003599 4.375400 -1.000000 -0.000000 0.000000 0.056200 -0.943800 1 0 1.000000 
0 0.596699 20.965099 0.706600 -1.000000 -0.000000 0.000000 0.108900 -0.973400 1 0 1.000000 
metaldoor001b
0 0.596701 -24.868401 60.641300 -1.000000 -0.000000 0.000000 0.904300 -0.489000 1 0 1.000000 
0 0.596699 24.276400 99.801903 -1.000000 -0.000000 0.000000 0.051400 -0.172500 1 0 1.000000 
0 0.596699 24.631599 60.641300 -1.000000 -0.000000 0.000000 0.045300 -0.489000 1 0 1.000000 
metaldoor001b
0 0.596701 -24.868401 60.641300 -1.000000 -0.000000 0.000000 0.904300 -0.489000 1 0 1.000000 
0 0.596699 23.241301 101.970596 -1.000000 -0.000000 0.000000 0.069400 -0.154900 1 0 1.000000 
0 0.596699 24.276400 99.801903 -1.000000 -0.000000 0.000000 0.051400 -0.172500 1 0 1.000000 
metaldoor001b
0 0.596701 -24.868401 60.641300 -1.000000 -0.000000 0.000000 0.904300 -0.489000 1 0 1.000000 
0 0.596699 19.538799 104.981598 -1.000000 -0.000000 0.000000 0.133700 -0.130600 1 0 1.000000 
0 0.596699 23.241301 101.970596 -1.000000 -0.000000 0.000000 0.069400 -0.154900 1 0 1.000000 
metaldoor001b
0 0.596701 -24.868401 60.641300 -1.000000 -0.000000 0.000000 0.904300 -0.489000 1 0 1.000000 
0 0.596701 -18.227900 105.446800 -1.000000 -0.000000 0.000000 0.789000 -0.126800 1 0 1.000000 
0 0.596699 19.538799 104.981598 -1.000000 -0.000000 0.000000 0.133700 -0.130600 1 0 1.000000 
metaldoor001b
0 0.596701 -24.868401 60.641300 -1.000000 -0.000000 0.000000 0.904300 -0.489000 1 0 1.000000 
0 0.596701 -21.201799 104.226097 -1.000000 -0.000000 0.000000 0.840700 -0.136700 1 0 1.000000 
0 0.596701 -18.227900 105.446800 -1.000000 -0.000000 0.000000 0.789000 -0.126800 1 0 1.000000 
metaldoor001b
0 0.596701 -24.868401 60.641300 -1.000000 -0.000000 0.000000 0.904300 -0.489000 1 0 1.000000 
0 0.596701 -23.478001 101.970596 -1.000000 -0.000000 0.000000 0.880200 -0.154900 1 0 1.000000 
0 0.596701 -21.201799 104.226097 -1.000000 -0.000000 0.000000 0.840700 -0.136700 1 0 1.000000 
metaldoor001b
0 0.596701 -24.868401 60.641300 -1.000000 -0.000000 0.000000 0.904300 -0.489000 1 0 1.000000 
0 0.596701 -24.828600 98.230103 -1.000000 -0.000000 0.000000 0.903600 -0.185200 1 0 1.000000 
0 0.596701 -23.478001 101.970596 -1.000000 -0.000000 0.000000 0.880200 -0.154900 1 0 1.000000 
metaldoor001b
0 0.784199 12.669100 43.201302 0.986365 -0.164394 -0.007700 0.968600 -0.716900 1 0 1.000000 
0 0.784199 13.494100 60.641300 0.986365 0.164394 0.007700 0.978800 -0.499900 1 0 1.000000 
0 0.659199 12.669100 60.641300 -0.986365 -0.164394 0.007700 0.968600 -0.499900 1 0 1.000000 
metaldoor001b
0 0.659199 12.669100 60.641300 -0.986365 -0.164394 0.007700 0.968600 -0.499900 1 0 1.000000 
0 0.784199 13.494100 60.641300 0.986365 0.164394 0.007700 0.978800 -0.499900 1 0 1.000000 
0 0.659199 13.494100 43.201302 -0.986365 0.164394 -0.007700 0.978800 -0.716900 1 0 1.000000 
metaldoor001b
0 0.784199 12.669100 43.201302 0.986365 -0.164394 -0.007700 0.968600 -0.716900 1 0 1.000000 
0 0.659199 13.494100 43.201302 -0.986365 0.164394 -0.007700 0.978800 -0.716900 1 0 1.000000 
0 0.784199 13.494100 60.641300 0.986365 0.164394 0.007700 0.978800 -0.499900 1 0 1.000000 
metaldoor001b
0 0.659199 12.669100 60.641300 -0.986365 -0.164394 0.007700 0.968600 -0.499900 1 0 1.000000 
0 0.659199 13.494100 43.201302 -0.986365 0.164394 -0.007700 0.978800 -0.716900 1 0 1.000000 
0 0.784199 12.669100 43.201302 0.986365 -0.164394 -0.007700 0.968600 -0.716900 1 0 1.000000 
metaldoor001b
0 1.596699 24.631599 7.503800 0.133996 0.980871 -0.141196 0.970700 -0.767200 1 0 1.000000 
0 0.596699 24.591900 6.702600 -0.011900 0.995086 -0.098299 0.976700 -0.767200 1 0 1.000000 
0 0.596699 24.631599 60.641300 -0.093601 0.995606 0.002800 0.976700 -0.473800 1 0 1.000000 
metaldoor001b
0 0.596699 24.631599 60.641300 -0.093601 0.995606 0.002800 0.976700 -0.473800 1 0 1.000000 
0 1.596699 24.591900 98.230103 -0.000000 0.996657 0.081696 0.953500 -0.314000 1 0 1.000000 
0 1.596699 24.631599 7.503800 0.133996 0.980871 -0.141196 0.970700 -0.767200 1 0 1.000000 
metaldoor001b
0 0.596699 24.631599 60.641300 -0.093601 0.995606 0.002800 0.976700 -0.473800 1 0 1.000000 
0 0.596699 24.276400 99.801903 -0.000000 0.952067 0.305889 0.980300 -0.333800 1 0 1.000000 
0 1.596699 24.591900 98.230103 -0.000000 0.996657 0.081696 0.953500 -0.314000 1 0 1.000000 
metaldoor001b
0 1.596699 23.241301 101.970596 -0.000000 0.840460 0.541874 0.953500 -0.314000 1 0 1.000000 
0 1.596699 24.591900 98.230103 -0.000000 0.996657 0.081696 0.953500 -0.314000 1 0 1.000000 
0 0.596699 24.276400 99.801903 -0.000000 0.952067 0.305889 0.980300 -0.333800 1 0 1.000000 
metaldoor001b
0 1.596699 23.241301 101.970596 -0.000000 0.840460 0.541874 0.953500 -0.314000 1 0 1.000000 
0 0.596699 24.276400 99.801903 -0.000000 0.952067 0.305889 0.980300 -0.333800 1 0 1.000000 
0 0.596699 23.241301 101.970596 -0.000000 0.740193 0.672394 0.980300 -0.333800 1 0 1.000000 
metaldoor001b
0 1.596699 19.538799 104.981598 0.105602 0.344806 0.932715 0.953500 -0.314000 1 0 1.000000 
0 1.596699 23.241301 101.970596 -0.000000 0.840460 0.541874 0.953500 -0.314000 1 0 1.000000 
0 0.596699 23.241301 101.970596 -0.000000 0.740193 0.672394 0.980300 -0.333800 1 0 1.000000 
metaldoor001b
0 1.596699 19.538799 104.981598 0.105602 0.344806 0.932715 0.953500 -0.314000 1 0 1.000000 
0 0.596699 23.241301 101.970596 -0.000000 0.740193 0.672394 0.980300 -0.333800 1 0 1.000000 
0 0.596699 19.538799 104.981598 -0.000000 0.367508 0.930020 0.980300 -0.314000 1 0 1.000000 
metaldoor001b
0 1.596699 19.538799 104.981598 0.105602 0.344806 0.932715 1.000000 -0.509600 1 0 1.000000 
0 0.596701 -18.227900 105.446800 0.087098 -0.127698 0.987981 0.000000 -0.476200 1 0 1.000000 
0 1.596701 -19.775499 104.981598 0.187098 -0.351795 0.917188 0.000000 -0.509600 1 0 1.000000 
metaldoor001b
0 1.596699 19.538799 104.981598 0.105602 0.344806 0.932715 1.000000 -0.509600 1 0 1.000000 
0 0.596699 19.538799 104.981598 -0.000000 0.342714 0.939440 1.000000 -0.476200 1 0 1.000000 
0 0.596701 -18.227900 105.446800 0.087098 -0.127698 0.987981 0.000000 -0.476200 1 0 1.000000 
metaldoor001b
0 1.596701 -17.427000 -0.631800 0.048002 -0.210810 -0.976348 0.980300 -0.333800 1 0 1.000000 
0 0.596701 -20.507401 0.294100 0.000000 -0.456907 -0.889514 0.953500 -0.333800 1 0 1.000000 
0 0.596701 -17.427000 -0.631800 0.000000 -0.081696 -0.996657 0.953500 -0.333800 1 0 1.000000 
metaldoor001b
0 1.596701 -17.427000 -0.631800 0.048002 -0.210810 -0.976348 0.980300 -0.333800 1 0 1.000000 
0 1.596701 -21.201799 0.706600 0.118608 -0.589441 -0.799056 0.980300 -0.333800 1 0 1.000000 
0 0.596701 -20.507401 0.294100 0.000000 -0.456907 -0.889514 0.953500 -0.333800 1 0 1.000000 
metaldoor001b
0 1.596701 -21.201799 0.706600 0.118608 -0.589441 -0.799056 0.980300 -0.333800 1 0 1.000000 
0 0.596701 -22.995701 2.317700 0.000000 -0.762494 -0.646995 0.953500 -0.333800 1 0 1.000000 
0 0.596701 -20.507401 0.294100 0.000000 -0.456907 -0.889514 0.953500 -0.333800 1 0 1.000000 
metaldoor001b
0 1.596701 -21.201799 0.706600 0.118608 -0.589441 -0.799056 0.980300 -0.333800 1 0 1.000000 
0 1.596701 -24.240400 4.375400 0.105802 -0.885818 -0.451809 0.980300 -0.314000 1 0 1.000000 
0 0.596701 -22.995701 2.317700 0.000000 -0.762494 -0.646995 0.953500 -0.333800 1 0 1.000000 
metaldoor001b
0 1.596701 -24.240400 4.375400 0.105802 -0.885818 -0.451809 0.980300 -0.314000 1 0 1.000000 
0 0.596701 -24.240400 4.375400 -0.162701 -0.953607 -0.253302 0.953500 -0.314000 1 0 1.000000 
0 0.596701 -22.995701 2.317700 0.000000 -0.762494 -0.646995 0.953500 -0.333800 1 0 1.000000 
metaldoor001b
0 1.596701 -24.240400 4.375400 0.105802 -0.885818 -0.451809 0.980300 -0.314000 1 0 1.000000 
0 1.596701 -24.868401 7.503800 0.000000 -0.999865 -0.016399 0.980300 -0.314000 1 0 1.000000 
0 0.596701 -24.240400 4.375400 -0.162701 -0.953607 -0.253302 0.953500 -0.314000 1 0 1.000000 
metaldoor001b
0 0.596699 17.190300 -0.631800 -0.048002 0.210810 -0.976348 0.980300 -0.333800 1 0 1.000000 
0 1.596699 20.270700 0.294100 -0.000000 0.456907 -0.889514 0.953500 -0.314000 1 0 1.000000 
0 1.596699 17.190300 -0.631800 -0.000000 0.081696 -0.996657 0.953500 -0.333800 1 0 1.000000 
metaldoor001b
0 0.596699 17.190300 -0.631800 -0.048002 0.210810 -0.976348 0.980300 -0.333800 1 0 1.000000 
0 0.596699 20.965099 0.706600 -0.118608 0.589441 -0.799056 0.980300 -0.333800 1 0 1.000000 
0 1.596699 20.270700 0.294100 -0.000000 0.456907 -0.889514 0.953500 -0.314000 1 0 1.000000 
metaldoor001b
0 0.596699 20.965099 0.706600 -0.118608 0.589441 -0.799056 0.980300 -0.333800 1 0 1.000000 
0 1.596699 22.759001 2.317700 0.069499 0.796683 -0.600388 0.953500 -0.314000 1 0 1.000000 
0 1.596699 20.270700 0.294100 -0.000000 0.456907 -0.889514 0.953500 -0.314000 1 0 1.000000 
metaldoor001b
0 0.596699 20.965099 0.706600 -0.118608 0.589441 -0.799056 0.980300 -0.333800 1 0 1.000000 
0 0.596699 24.003599 4.375400 0.081401 0.908714 -0.409406 0.980300 -0.314000 1 0 1.000000 
0 1.596699 22.759001 2.317700 0.069499 0.796683 -0.600388 0.953500 -0.314000 1 0 1.000000 
metaldoor001b
0 0.596699 24.003599 4.375400 0.081401 0.908714 -0.409406 0.980300 -0.314000 1 0 1.000000 
0 1.596699 24.631599 7.503800 0.133996 0.980871 -0.141196 0.953500 -0.314000 1 0 1.000000 
0 1.596699 22.759001 2.317700 0.069499 0.796683 -0.600388 0.953500 -0.314000 1 0 1.000000 
metaldoor001b
0 0.596699 24.003599 4.375400 0.081401 0.908714 -0.409406 0.980300 -0.314000 1 0 1.000000 
0 0.596699 24.591900 6.702600 -0.000000 0.996657 -0.081696 0.980300 -0.314000 1 0 1.000000 
0 1.596699 24.631599 7.503800 0.133996 0.980871 -0.141196 0.953500 -0.314000 1 0 1.000000 
metaldoor001b
0 0.596701 -18.227900 105.446800 0.087098 -0.127698 0.987981 0.953500 -0.314000 1 0 1.000000 
0 0.596701 -21.201799 104.226097 0.000000 -0.569085 0.822278 0.953500 -0.333800 1 0 1.000000 
0 1.596701 -19.775499 104.981598 0.187098 -0.351795 0.917188 0.980300 -0.314000 1 0 1.000000 
metaldoor001b
0 0.596701 -21.201799 104.226097 0.000000 -0.569085 0.822278 0.953500 -0.333800 1 0 1.000000 
0 1.596701 -23.478001 101.970596 0.094400 -0.760197 0.642798 0.980300 -0.314000 1 0 1.000000 
0 1.596701 -19.775499 104.981598 0.187098 -0.351795 0.917188 0.980300 -0.314000 1 0 1.000000 
metaldoor001b
0 0.596701 -21.201799 104.226097 0.000000 -0.569085 0.822278 0.953500 -0.333800 1 0 1.000000 
0 0.596701 -23.478001 101.970596 0.000000 -0.840460 0.541874 0.953500 -0.314000 1 0 1.000000 
0 1.596701 -23.478001 101.970596 0.094400 -0.760197 0.642798 0.980300 -0.314000 1 0 1.000000 
metaldoor001b
0 0.596701 -23.478001 101.970596 0.000000 -0.840460 0.541874 0.953500 -0.314000 1 0 1.000000 
0 1.596701 -24.513100 99.801903 0.000000 -0.952067 0.305889 0.980300 -0.314000 1 0 1.000000 
0 1.596701 -23.478001 101.970596 0.094400 -0.760197 0.642798 0.980300 -0.314000 1 0 1.000000 
metaldoor001b
0 0.596701 -23.478001 101.970596 0.000000 -0.840460 0.541874 0.953500 -0.314000 1 0 1.000000 
0 0.596701 -24.828600 98.230103 0.000000 -0.996657 0.081696 0.953500 -0.314000 1 0 1.000000 
0 1.596701 -24.513100 99.801903 0.000000 -0.952067 0.305889 0.980300 -0.314000 1 0 1.000000 
metaldoor001b
0 1.596701 -24.868401 7.503800 0.000000 -0.999865 -0.016399 0.970700 -0.767200 1 0 1.000000 
0 1.596701 -24.513100 99.801903 0.000000 -0.952067 0.305889 0.980300 -0.314000 1 0 1.000000 
0 0.596701 -24.828600 98.230103 0.000000 -0.996657 0.081696 0.953500 -0.314000 1 0 1.000000 
metaldoor001b
0 1.596701 -24.868401 7.503800 0.000000 -0.999865 -0.016399 0.970700 -0.767200 1 0 1.000000 
0 0.596701 -24.828600 98.230103 0.000000 -0.996657 0.081696 0.953500 -0.314000 1 0 1.000000 
0 0.596701 -24.868401 60.641300 0.000000 -1.000000 0.000000 0.976700 -0.473800 1 0 1.000000 
metaldoor001b
0 0.596701 -24.868401 60.641300 0.000000 -1.000000 0.000000 0.976700 -0.473800 1 0 1.000000 
0 0.596701 -24.868401 43.201302 -0.239304 -0.970917 -0.007300 0.976700 -0.570100 1 0 1.000000 
0 1.596701 -24.868401 7.503800 0.000000 -0.999865 -0.016399 0.970700 -0.767200 1 0 1.000000 
metaldoor001b
0 0.596701 -24.868401 43.201302 -0.239304 -0.970917 -0.007300 0.976700 -0.570100 1 0 1.000000 
0 0.596701 -24.240400 4.375400 -0.162701 -0.953607 -0.253302 0.976700 -0.767200 1 0 1.000000 
0 1.596701 -24.868401 7.503800 0.000000 -0.999865 -0.016399 0.970700 -0.767200 1 0 1.000000 
metaldoor001a
0 1.596701 -23.633400 1.799100 0.021300 -0.831107 -0.555705 0.058600 -0.241100 1 0 1.000000 
0 1.596701 -21.660200 0.026900 0.060302 -0.484819 -0.872533 0.058600 -0.263700 1 0 1.000000 
0 3.346701 -22.375500 0.552500 0.099000 -0.654901 -0.749202 0.107500 -0.263700 1 0 1.000000 
metaldoor001a
0 3.782401 -29.335100 12.000100 0.770748 -0.637140 0.000000 0.092300 -0.146000 1 0 1.000000 
0 2.721701 -29.818399 11.182600 0.523705 -0.809108 -0.266603 0.014400 -0.196900 1 0 1.000000 
0 4.221702 -28.168400 11.182600 0.986798 -0.020900 -0.160600 0.092300 -0.196900 1 0 1.000000 
metaldoor001a
0 3.782401 -29.335100 12.000100 0.770748 -0.637140 0.000000 0.092300 -0.146000 1 0 1.000000 
0 2.721701 -29.818399 12.000100 0.382690 -0.923877 0.000000 0.014400 -0.146000 1 0 1.000000 
0 2.721701 -29.818399 11.182600 0.523705 -0.809108 -0.266603 0.014400 -0.196900 1 0 1.000000 
metaldoor001a
0 3.782401 -27.001600 12.000100 0.959629 0.223007 -0.171405 0.092300 -0.146000 1 0 1.000000 
0 4.221702 -28.168400 11.182600 0.986798 -0.020900 -0.160600 0.014400 -0.196900 1 0 1.000000 
0 3.252101 -26.760000 11.182600 0.818680 0.295493 -0.492388 0.092300 -0.196900 1 0 1.000000 
metaldoor001a
0 3.782401 -27.001600 12.000100 0.959629 0.223007 -0.171405 0.092300 -0.146000 1 0 1.000000 
0 3.782401 -29.335100 12.000100 0.770748 -0.637140 0.000000 0.014400 -0.146000 1 0 1.000000 
0 4.221702 -28.168400 11.182600 0.986798 -0.020900 -0.160600 0.014400 -0.196900 1 0 1.000000 
metaldoor001a
0 1.596701 -18.388800 106.248596 0.011400 -0.134703 0.990820 0.055400 -0.248500 1 0 1.000000 
0 3.346699 18.152100 106.248596 -0.011400 0.134703 0.990820 0.015800 -0.927100 1 0 1.000000 
0 1.596699 19.854500 105.736801 -0.085701 0.296403 0.951210 0.055400 -0.927100 1 0 1.000000 
metaldoor001a
0 1.596701 -18.388800 106.248596 0.011400 -0.134703 0.990820 0.055400 -0.248500 1 0 1.000000 
0 3.346701 -20.091200 105.736801 0.085701 -0.296403 0.951210 0.015800 -0.248500 1 0 1.000000 
0 3.346699 18.152100 106.248596 -0.011400 0.134703 0.990820 0.015800 -0.927100 1 0 1.000000 
metaldoor001a
0 1.596701 -25.649700 6.622400 -0.005700 -0.996296 -0.085800 0.046500 -0.935500 1 0 1.000000 
0 3.346701 -25.302601 100.039200 0.063600 -0.970897 0.230899 0.030400 -0.174800 1 0 1.000000 
0 1.596701 -25.518999 99.183197 -0.037900 -0.979991 0.195398 0.046500 -0.174800 1 0 1.000000 
metaldoor001a
0 1.596701 -25.649700 6.622400 -0.005700 -0.996296 -0.085800 0.046500 -0.935500 1 0 1.000000 
0 3.346701 -25.518999 5.749500 0.060800 -0.950794 -0.303798 0.030400 -0.935500 1 0 1.000000 
0 3.346701 -25.302601 100.039200 0.063600 -0.970897 0.230899 0.030400 -0.174800 1 0 1.000000 
metaldoor001a
0 3.346699 24.385099 3.264800 -0.030499 0.857076 -0.514286 0.058600 -0.952500 1 0 1.000000 
0 1.596699 22.138800 0.552500 -0.114398 0.618787 -0.777184 0.107500 -0.975100 1 0 1.000000 
0 1.596699 25.282301 5.749500 -0.090197 0.958572 -0.270192 0.107500 -0.952500 1 0 1.000000 
metaldoor001a
0 3.346699 24.385099 3.264800 -0.030499 0.857076 -0.514286 0.058600 -0.952500 1 0 1.000000 
0 3.346699 21.423401 0.026900 -0.000000 0.541874 -0.840460 0.058600 -0.975100 1 0 1.000000 
0 1.596699 22.138800 0.552500 -0.114398 0.618787 -0.777184 0.107500 -0.975100 1 0 1.000000 
metaldoor001a
0 2.721701 -29.818399 93.750099 -0.382690 -0.923877 0.000000 0.092300 -0.146000 1 0 1.000000 
0 1.661101 -29.335100 92.932602 -0.382690 -0.923877 0.000000 0.014400 -0.196900 1 0 1.000000 
0 3.782401 -29.335100 92.932602 0.566419 -0.763626 -0.309911 0.092300 -0.196900 1 0 1.000000 
metaldoor001a
0 2.721701 -29.818399 93.750099 -0.382690 -0.923877 0.000000 0.092300 -0.146000 1 0 1.000000 
0 1.221701 -28.168400 93.750099 -0.610139 -0.610139 0.505432 0.014400 -0.146000 1 0 1.000000 
0 1.661101 -29.335100 92.932602 -0.382690 -0.923877 0.000000 0.014400 -0.196900 1 0 1.000000 
metaldoor001a
0 1.596701 -21.660200 0.026900 0.060302 -0.484819 -0.872533 0.058600 -0.712000 1 0 1.000000 
0 3.346701 -17.507900 -1.445400 0.083599 -0.193198 -0.977592 0.107500 -0.734600 1 0 1.000000 
0 3.346701 -22.375500 0.552500 0.099000 -0.654901 -0.749202 0.107500 -0.712000 1 0 1.000000 
metaldoor001a
0 1.596701 -21.660200 0.026900 0.060302 -0.484819 -0.872533 0.058600 -0.712000 1 0 1.000000 
0 1.596701 -18.388800 -1.315900 0.000000 -0.179009 -0.983847 0.058600 -0.734600 1 0 1.000000 
0 3.346701 -17.507900 -1.445400 0.083599 -0.193198 -0.977592 0.107500 -0.734600 1 0 1.000000 
metaldoor001a
0 3.782401 -27.001600 93.750099 0.959629 0.223007 -0.171405 0.092300 -0.146000 1 0 1.000000 
0 4.221702 -28.168400 92.932602 0.940312 0.329604 0.084701 0.014400 -0.196900 1 0 1.000000 
0 3.252101 -26.760000 92.932602 0.818680 0.295493 -0.492388 0.092300 -0.196900 1 0 1.000000 
metaldoor001a
0 3.782401 -27.001600 93.750099 0.959629 0.223007 -0.171405 0.092300 -0.146000 1 0 1.000000 
0 3.782401 -29.335100 93.750099 0.763626 -0.566419 0.309911 0.014400 -0.146000 1 0 1.000000 
0 4.221702 -28.168400 92.932602 0.940312 0.329604 0.084701 0.014400 -0.196900 1 0 1.000000 
metaldoor001a
0 3.346701 -25.302601 100.039200 0.063600 -0.970897 0.230899 0.107500 -0.721000 1 0 1.000000 
0 1.596701 -24.163900 102.424797 0.000000 -0.840460 0.541874 0.058600 -0.698400 1 0 1.000000 
0 1.596701 -25.518999 99.183197 0.000000 -0.983847 0.179009 0.058600 -0.734600 1 0 1.000000 
metaldoor001a
0 3.346701 -25.302601 100.039200 0.063600 -0.970897 0.230899 0.107500 -0.721000 1 0 1.000000 
0 3.346701 -23.035400 103.787498 0.000000 -0.671557 0.740953 0.107500 -0.721000 1 0 1.000000 
0 1.596701 -24.163900 102.424797 0.000000 -0.840460 0.541874 0.058600 -0.698400 1 0 1.000000 
metaldoor001a
0 3.346701 -23.035400 103.787498 0.000000 -0.671557 0.740953 0.107500 -0.721000 1 0 1.000000 
0 3.346701 -20.091200 105.736801 0.085701 -0.296403 0.951210 0.107500 -0.698400 1 0 1.000000 
0 1.596701 -20.091200 105.736801 -0.060199 -0.498692 0.864686 0.058600 -0.698400 1 0 1.000000 
metaldoor001a
0 3.346701 -20.091200 105.736801 0.085701 -0.296403 0.951210 0.107500 -0.698400 1 0 1.000000 
0 1.596701 -18.388800 106.248596 0.000000 -0.099801 0.995007 0.058600 -0.712000 1 0 1.000000 
0 1.596701 -20.091200 105.736801 -0.060199 -0.498692 0.864686 0.058600 -0.698400 1 0 1.000000 
metaldoor001a
0 1.596699 25.065901 100.039200 -0.063600 0.970897 0.230899 0.107500 -0.721000 1 0 1.000000 
0 3.346699 23.927200 102.424797 -0.000000 0.840460 0.541874 0.058600 -0.698400 1 0 1.000000 
0 3.346699 25.282301 99.183197 -0.000000 0.983847 0.179009 0.058600 -0.734600 1 0 1.000000 
metaldoor001a
0 1.596699 25.065901 100.039200 -0.063600 0.970897 0.230899 0.107500 -0.721000 1 0 1.000000 
0 1.596699 22.798599 103.787498 -0.000000 0.671557 0.740953 0.107500 -0.721000 1 0 1.000000 
0 3.346699 23.927200 102.424797 -0.000000 0.840460 0.541874 0.058600 -0.698400 1 0 1.000000 
metaldoor001a
0 1.596699 22.798599 103.787498 -0.000000 0.671557 0.740953 0.107500 -0.721000 1 0 1.000000 
0 1.596699 19.854500 105.736801 -0.085701 0.296403 0.951210 0.107500 -0.698400 1 0 1.000000 
0 3.346699 19.854500 105.736801 0.060199 0.498692 0.864686 0.058600 -0.698400 1 0 1.000000 
metaldoor001a
0 1.596699 19.854500 105.736801 -0.085701 0.296403 0.951210 0.107500 -0.698400 1 0 1.000000 
0 3.346699 18.152100 106.248596 -0.000000 0.099801 0.995007 0.058600 -0.712000 1 0 1.000000 
0 3.346699 19.854500 105.736801 0.060199 0.498692 0.864686 0.058600 -0.698400 1 0 1.000000 
metaldoor001a
0 1.596699 25.065901 100.039200 -0.063600 0.970897 0.230899 0.046500 -0.174800 1 0 1.000000 
0 3.346699 25.412901 6.622400 0.005700 0.996296 -0.085800 0.030400 -0.935500 1 0 1.000000 
0 1.596699 25.282301 5.749500 -0.090197 0.958572 -0.270192 0.046500 -0.935500 1 0 1.000000 
metaldoor001a
0 1.596699 25.065901 100.039200 -0.063600 0.970897 0.230899 0.046500 -0.174800 1 0 1.000000 
0 3.346699 25.282301 99.183197 0.037900 0.979991 0.195398 0.030400 -0.174800 1 0 1.000000 
0 3.346699 25.412901 6.622400 0.005700 0.996296 -0.085800 0.030400 -0.935500 1 0 1.000000 
metaldoor001a
0 1.596699 17.271099 -1.445400 -0.000000 0.065298 -0.997866 0.055400 -0.936900 1 0 1.000000 
0 3.346701 -17.507900 -1.445400 0.083599 -0.193198 -0.977592 0.015800 -0.258300 1 0 1.000000 
0 1.596701 -18.388800 -1.315900 0.023401 -0.196409 -0.980243 0.055400 -0.258300 1 0 1.000000 
metaldoor001a
0 1.596699 17.271099 -1.445400 -0.000000 0.065298 -0.997866 0.055400 -0.936900 1 0 1.000000 
0 3.346699 19.016001 -1.101400 -0.033699 0.278789 -0.959761 0.015800 -0.936900 1 0 1.000000 
0 3.346701 -17.507900 -1.445400 0.083599 -0.193198 -0.977592 0.015800 -0.258300 1 0 1.000000 
metaldoor001a
0 1.221701 -28.168400 12.000100 -0.854784 0.484891 0.184997 0.092300 -0.146000 1 0 1.000000 
0 1.661101 -27.001600 11.182600 -0.881268 0.335588 0.332788 0.030600 -0.192500 1 0 1.000000 
0 1.221701 -28.168400 11.182600 -0.923877 0.382690 0.000000 0.092300 -0.196900 1 0 1.000000 
metaldoor001a
0 1.221701 -28.168400 12.000100 -0.854784 0.484891 0.184997 0.092300 -0.146000 1 0 1.000000 
0 2.191401 -26.760000 12.000100 -0.818680 0.295493 0.492388 0.014400 -0.146000 1 0 1.000000 
0 1.661101 -27.001600 11.182600 -0.881268 0.335588 0.332788 0.030600 -0.192500 1 0 1.000000 
metaldoor001a
0 2.191401 -26.760000 12.000100 -0.818680 0.295493 0.492388 0.014400 -0.146000 1 0 1.000000 
0 2.191401 -25.693399 12.000100 -0.816474 -0.000000 0.577382 0.076200 -0.157200 1 0 1.000000 
0 1.661101 -27.001600 11.182600 -0.881268 0.335588 0.332788 0.030600 -0.192500 1 0 1.000000 
metaldoor001a
0 3.782401 -29.335100 93.750099 0.763626 -0.566419 0.309911 0.092300 -0.146000 1 0 1.000000 
0 2.721701 -29.818399 93.750099 0.382690 -0.923877 0.000000 0.014400 -0.146000 1 0 1.000000 
0 3.782401 -29.335100 92.932602 0.382690 -0.923877 0.000000 0.092300 -0.196900 1 0 1.000000 
metaldoor001a
0 1.221701 -28.168400 93.750099 -0.940312 0.329604 -0.084701 0.092300 -0.146000 1 0 1.000000 
0 1.661101 -27.001600 92.932602 -0.959629 0.223007 0.171405 0.014400 -0.196900 1 0 1.000000 
0 1.661101 -29.335100 92.932602 -0.862889 -0.000000 -0.505393 0.092300 -0.196900 1 0 1.000000 
metaldoor001a
0 1.221701 -28.168400 93.750099 -0.940312 0.329604 -0.084701 0.092300 -0.146000 1 0 1.000000 
0 2.191401 -26.760000 93.750099 -0.818680 0.295493 0.492388 0.014400 -0.146000 1 0 1.000000 
0 1.661101 -27.001600 92.932602 -0.959629 0.223007 0.171405 0.014400 -0.196900 1 0 1.000000 
metaldoor001a
0 2.191401 -26.760000 93.750099 -0.818680 0.295493 0.492388 0.014400 -0.146000 1 0 1.000000 
0 2.191401 -25.693399 93.750099 -0.816474 -0.000000 0.577382 0.076200 -0.157200 1 0 1.000000 
0 1.661101 -27.001600 92.932602 -0.959629 0.223007 0.171405 0.014400 -0.196900 1 0 1.000000 
metaldoor001a
0 3.782401 -29.335100 93.750099 0.923877 -0.382690 0.000000 0.014400 -0.146000 1 0 1.000000 
0 3.782401 -29.335100 92.932602 0.566419 -0.763626 -0.309911 0.014400 -0.196900 1 0 1.000000 
0 4.221702 -28.168400 92.932602 0.923877 -0.382690 0.000000 0.092300 -0.196900 1 0 1.000000 
metaldoor001a
0 5.721700 12.669100 44.291302 -0.000000 1.000000 0.000000 0.060800 -0.971500 1 0 1.000000 
0 4.971700 12.669100 58.870098 -0.000000 1.000000 0.000000 0.060800 -0.767000 1 0 1.000000 
0 5.721700 13.494100 59.551300 -0.000000 1.000000 0.000000 0.041500 -0.756900 1 0 1.000000 
metaldoor001a
0 5.721700 12.669100 44.291302 -0.000000 1.000000 0.000000 0.060800 -0.971500 1 0 1.000000 
0 5.721700 13.494100 59.551300 -0.000000 1.000000 0.000000 0.041500 -0.756900 1 0 1.000000 
0 4.971700 12.669100 58.870098 -0.000000 1.000000 0.000000 0.060800 -0.767000 1 0 1.000000 
metaldoor001a
0 5.721700 12.669100 44.291302 -0.000000 1.000000 0.000000 0.060800 -0.971500 1 0 1.000000 
0 5.721700 13.494100 59.551300 -0.000000 1.000000 0.000000 0.041500 -0.756900 1 0 1.000000 
0 5.721700 13.494100 44.291302 -0.000000 1.000000 0.000000 0.041500 -0.981500 1 0 1.000000 
metaldoor001a
0 5.721700 12.669100 44.291302 -0.000000 1.000000 0.000000 0.060800 -0.971500 1 0 1.000000 
0 5.721700 13.494100 44.291302 -0.000000 1.000000 0.000000 0.041500 -0.981500 1 0 1.000000 
0 5.721700 13.494100 59.551300 -0.000000 1.000000 0.000000 0.041500 -0.756900 1 0 1.000000 
metaldoor001a
0 3.252101 -26.760000 92.932602 0.818680 0.295493 -0.492388 0.030600 -0.192500 1 0 1.000000 
0 3.252101 -25.693399 92.932602 0.816474 0.000000 -0.577382 0.076200 -0.192500 1 0 1.000000 
0 3.782401 -27.001600 93.750099 0.959629 0.223007 -0.171405 0.030600 -0.157200 1 0 1.000000 
metaldoor001a
0 3.782401 -27.001600 93.750099 0.165908 0.221911 0.960848 0.187900 -0.047000 1 0 1.000000 
0 2.191401 -25.693399 93.750099 -0.000000 0.773993 0.633194 0.230200 -0.085800 1 0 1.000000 
0 2.191401 -26.760000 93.750099 0.000000 0.000000 1.000000 0.230200 -0.047000 1 0 1.000000 
metaldoor001a
0 3.782401 -27.001600 93.750099 0.165908 0.221911 0.960848 0.187900 -0.047000 1 0 1.000000 
0 3.252101 -25.693399 92.932602 -0.000000 0.773993 -0.633194 0.187900 -0.085700 1 0 1.000000 
0 2.191401 -25.693399 93.750099 -0.000000 0.773993 0.633194 0.230200 -0.085800 1 0 1.000000 
metaldoor001a
0 1.661101 -27.001600 92.932602 -0.165908 0.221911 -0.960848 0.230200 -0.047100 1 0 1.000000 
0 2.191401 -25.693399 93.750099 -0.000000 0.773993 0.633194 0.230200 -0.085800 1 0 1.000000 
0 3.252101 -25.693399 92.932602 -0.000000 0.773993 -0.633194 0.187900 -0.085700 1 0 1.000000 
metaldoor001a
0 1.661101 -27.001600 92.932602 -0.165908 0.221911 -0.960848 0.230200 -0.047100 1 0 1.000000 
0 3.252101 -25.693399 92.932602 -0.000000 0.773993 -0.633194 0.187900 -0.085700 1 0 1.000000 
0 3.252101 -26.760000 92.932602 0.000000 0.000000 -1.000000 0.187900 -0.047100 1 0 1.000000 
metaldoor001a
0 1.661101 -27.001600 11.182600 -0.165908 0.221911 -0.960848 0.230200 -0.047100 1 0 1.000000 
0 3.252101 -25.693399 11.182600 -0.000000 0.773993 -0.633194 0.187900 -0.085700 1 0 1.000000 
0 3.252101 -26.760000 11.182600 0.000000 0.000000 -1.000000 0.187900 -0.047100 1 0 1.000000 
metaldoor001a
0 1.661101 -27.001600 11.182600 -0.165908 0.221911 -0.960848 0.230200 -0.047100 1 0 1.000000 
0 2.191401 -25.693399 12.000100 -0.000000 0.773993 0.633194 0.230200 -0.085800 1 0 1.000000 
0 3.252101 -25.693399 11.182600 -0.000000 0.773993 -0.633194 0.187900 -0.085700 1 0 1.000000 
metaldoor001a
0 3.782401 -27.001600 12.000100 0.165908 0.221911 0.960848 0.187900 -0.047000 1 0 1.000000 
0 3.252101 -25.693399 11.182600 -0.000000 0.773993 -0.633194 0.187900 -0.085700 1 0 1.000000 
0 2.191401 -25.693399 12.000100 -0.000000 0.773993 0.633194 0.230200 -0.085800 1 0 1.000000 
metaldoor001a
0 3.782401 -27.001600 12.000100 0.165908 0.221911 0.960848 0.187900 -0.047000 1 0 1.000000 
0 2.191401 -25.693399 12.000100 -0.000000 0.773993 0.633194 0.230200 -0.085800 1 0 1.000000 
0 2.191401 -26.760000 12.000100 0.000000 0.000000 1.000000 0.230200 -0.047000 1 0 1.000000 
metaldoor001a
0 1.596699 19.854500 105.736801 -1.000000 -0.000000 0.000000 0.809300 -0.152700 1 0 1.000000 
0 1.596701 -20.091200 105.736801 -1.000000 -0.000000 0.000000 0.152800 -0.152700 1 0 1.000000 
0 1.596701 -18.388800 106.248596 -1.000000 -0.000000 0.000000 0.180800 -0.148700 1 0 1.000000 
metaldoor001a
0 1.596699 19.854500 105.736801 -1.000000 -0.000000 0.000000 0.809300 -0.152700 1 0 1.000000 
0 1.596701 -24.163900 102.424797 -1.000000 -0.000000 0.000000 0.085900 -0.178500 1 0 1.000000 
0 1.596701 -20.091200 105.736801 -1.000000 -0.000000 0.000000 0.152800 -0.152700 1 0 1.000000 
metaldoor001a
0 1.596699 19.854500 105.736801 -1.000000 -0.000000 0.000000 0.809300 -0.152700 1 0 1.000000 
0 1.596701 -25.518999 99.183197 -1.000000 -0.000000 0.000000 0.063600 -0.203800 1 0 1.000000 
0 1.596701 -24.163900 102.424797 -1.000000 -0.000000 0.000000 0.085900 -0.178500 1 0 1.000000 
metaldoor001a
0 1.596699 19.854500 105.736801 -1.000000 -0.000000 0.000000 0.809300 -0.152700 1 0 1.000000 
0 1.596701 -25.649700 6.622400 -1.000000 -0.000000 0.000000 0.061400 -0.924800 1 0 1.000000 
0 1.596701 -25.518999 99.183197 -1.000000 -0.000000 0.000000 0.063600 -0.203800 1 0 1.000000 
metaldoor001a
0 1.596699 19.854500 105.736801 -1.000000 -0.000000 0.000000 0.809300 -0.152700 1 0 1.000000 
0 1.596701 -23.633400 1.799100 -1.000000 -0.000000 0.000000 0.094600 -0.962400 1 0 1.000000 
0 1.596701 -25.649700 6.622400 -1.000000 -0.000000 0.000000 0.061400 -0.924800 1 0 1.000000 
metaldoor001a
0 1.596699 19.854500 105.736801 -1.000000 -0.000000 0.000000 0.809300 -0.152700 1 0 1.000000 
0 1.596701 -21.660200 0.026900 -1.000000 -0.000000 0.000000 0.127000 -0.976200 1 0 1.000000 
0 1.596701 -23.633400 1.799100 -1.000000 -0.000000 0.000000 0.094600 -0.962400 1 0 1.000000 
metaldoor001a
0 1.596699 19.854500 105.736801 -1.000000 -0.000000 0.000000 0.809300 -0.152700 1 0 1.000000 
0 1.596701 -18.388800 -1.315900 -1.000000 -0.000000 0.000000 0.180800 -0.986600 1 0 1.000000 
0 1.596701 -21.660200 0.026900 -1.000000 -0.000000 0.000000 0.127000 -0.976200 1 0 1.000000 
metaldoor001a
0 1.596699 19.854500 105.736801 -1.000000 -0.000000 0.000000 0.809300 -0.152700 1 0 1.000000 
0 1.596699 17.271099 -1.445400 -1.000000 -0.000000 0.000000 0.766800 -0.987600 1 0 1.000000 
0 1.596701 -18.388800 -1.315900 -1.000000 -0.000000 0.000000 0.180800 -0.986600 1 0 1.000000 
metaldoor001a
0 1.596699 19.854500 105.736801 -1.000000 -0.000000 0.000000 0.809300 -0.152700 1 0 1.000000 
0 1.596699 22.138800 0.552500 -1.000000 -0.000000 0.000000 0.846800 -0.972100 1 0 1.000000 
0 1.596699 17.271099 -1.445400 -1.000000 -0.000000 0.000000 0.766800 -0.987600 1 0 1.000000 
metaldoor001a
0 1.596699 19.854500 105.736801 -1.000000 -0.000000 0.000000 0.809300 -0.152700 1 0 1.000000 
0 1.596699 25.282301 5.749500 -1.000000 -0.000000 0.000000 0.898500 -0.931600 1 0 1.000000 
0 1.596699 22.138800 0.552500 -1.000000 -0.000000 0.000000 0.846800 -0.972100 1 0 1.000000 
metaldoor001a
0 1.596699 19.854500 105.736801 -1.000000 -0.000000 0.000000 0.809300 -0.152700 1 0 1.000000 
0 1.596699 25.065901 100.039200 -1.000000 -0.000000 0.000000 0.894900 -0.197100 1 0 1.000000 
0 1.596699 25.282301 5.749500 -1.000000 -0.000000 0.000000 0.898500 -0.931600 1 0 1.000000 
metaldoor001a
0 1.596699 19.854500 105.736801 -1.000000 -0.000000 0.000000 0.809300 -0.152700 1 0 1.000000 
0 1.596699 22.798599 103.787498 -1.000000 -0.000000 0.000000 0.857700 -0.167900 1 0 1.000000 
0 1.596699 25.065901 100.039200 -1.000000 -0.000000 0.000000 0.894900 -0.197100 1 0 1.000000 
metaldoor001a
0 3.252101 -26.760000 11.182600 0.818680 0.295493 -0.492388 0.030600 -0.192500 1 0 1.000000 
0 3.252101 -25.693399 11.182600 0.816474 0.000000 -0.577382 0.076200 -0.192500 1 0 1.000000 
0 3.782401 -27.001600 12.000100 0.959629 0.223007 -0.171405 0.030600 -0.157200 1 0 1.000000 
metaldoor001a
0 3.346701 -20.091200 105.736801 1.000000 0.000000 0.000000 0.152800 -0.152700 1 0 1.000000 
0 3.346699 19.854500 105.736801 1.000000 0.000000 0.000000 0.809300 -0.152700 1 0 1.000000 
0 3.346699 18.152100 106.248596 1.000000 0.000000 0.000000 0.781300 -0.148700 1 0 1.000000 
metaldoor001a
0 3.346701 -20.091200 105.736801 1.000000 0.000000 0.000000 0.152800 -0.152700 1 0 1.000000 
0 3.346699 23.927200 102.424797 1.000000 0.000000 0.000000 0.876200 -0.178500 1 0 1.000000 
0 3.346699 19.854500 105.736801 1.000000 0.000000 0.000000 0.809300 -0.152700 1 0 1.000000 
metaldoor001a
0 3.346701 -20.091200 105.736801 1.000000 0.000000 0.000000 0.152800 -0.152700 1 0 1.000000 
0 3.346699 25.282301 99.183197 1.000000 0.000000 0.000000 0.898500 -0.203800 1 0 1.000000 
0 3.346699 23.927200 102.424797 1.000000 0.000000 0.000000 0.876200 -0.178500 1 0 1.000000 
metaldoor001a
0 3.346701 -20.091200 105.736801 1.000000 0.000000 0.000000 0.152800 -0.152700 1 0 1.000000 
0 3.346699 25.412901 6.622400 1.000000 0.000000 0.000000 0.900600 -0.924800 1 0 1.000000 
0 3.346699 25.282301 99.183197 1.000000 0.000000 0.000000 0.898500 -0.203800 1 0 1.000000 
metaldoor001a
0 3.346701 -20.091200 105.736801 1.000000 0.000000 0.000000 0.152800 -0.152700 1 0 1.000000 
0 3.346699 24.385099 3.264800 1.000000 0.000000 0.000000 0.883700 -0.950900 1 0 1.000000 
0 3.346699 25.412901 6.622400 1.000000 0.000000 0.000000 0.900600 -0.924800 1 0 1.000000 
metaldoor001a
0 3.346701 -20.091200 105.736801 1.000000 0.000000 0.000000 0.152800 -0.152700 1 0 1.000000 
0 3.346699 21.423401 0.026900 1.000000 0.000000 0.000000 0.835100 -0.976200 1 0 1.000000 
0 3.346699 24.385099 3.264800 1.000000 0.000000 0.000000 0.883700 -0.950900 1 0 1.000000 
metaldoor001a
0 3.346701 -20.091200 105.736801 1.000000 0.000000 0.000000 0.152800 -0.152700 1 0 1.000000 
0 3.346699 19.016001 -1.101400 1.000000 0.000000 0.000000 0.795500 -0.985000 1 0 1.000000 
0 3.346699 21.423401 0.026900 1.000000 0.000000 0.000000 0.835100 -0.976200 1 0 1.000000 
metaldoor001a
0 3.346701 -20.091200 105.736801 1.000000 0.000000 0.000000 0.152800 -0.152700 1 0 1.000000 
0 3.346701 -17.507900 -1.445400 1.000000 0.000000 0.000000 0.195300 -0.987600 1 0 1.000000 
0 3.346699 19.016001 -1.101400 1.000000 0.000000 0.000000 0.795500 -0.985000 1 0 1.000000 
metaldoor001a
0 3.346701 -20.091200 105.736801 1.000000 0.000000 0.000000 0.152800 -0.152700 1 0 1.000000 
0 3.346701 -22.375500 0.552500 1.000000 0.000000 0.000000 0.115300 -0.972100 1 0 1.000000 
0 3.346701 -17.507900 -1.445400 1.000000 0.000000 0.000000 0.195300 -0.987600 1 0 1.000000 
metaldoor001a
0 3.346701 -20.091200 105.736801 1.000000 0.000000 0.000000 0.152800 -0.152700 1 0 1.000000 
0 3.346701 -25.518999 5.749500 1.000000 0.000000 0.000000 0.063600 -0.931600 1 0 1.000000 
0 3.346701 -22.375500 0.552500 1.000000 0.000000 0.000000 0.115300 -0.972100 1 0 1.000000 
metaldoor001a
0 3.346701 -20.091200 105.736801 1.000000 0.000000 0.000000 0.152800 -0.152700 1 0 1.000000 
0 3.346701 -25.302601 100.039200 1.000000 0.000000 0.000000 0.067200 -0.197100 1 0 1.000000 
0 3.346701 -25.518999 5.749500 1.000000 0.000000 0.000000 0.063600 -0.931600 1 0 1.000000 
metaldoor001a
0 3.346701 -20.091200 105.736801 1.000000 0.000000 0.000000 0.152800 -0.152700 1 0 1.000000 
0 3.346701 -23.035400 103.787498 1.000000 0.000000 0.000000 0.104400 -0.167900 1 0 1.000000 
0 3.346701 -25.302601 100.039200 1.000000 0.000000 0.000000 0.067200 -0.197100 1 0 1.000000 
metaldoor001a
0 3.346699 25.412901 6.622400 -0.037900 0.994611 -0.096501 0.058600 -0.712000 1 0 1.000000 
0 3.346699 24.385099 3.264800 -0.000000 0.874077 -0.485787 0.058600 -0.721000 1 0 1.000000 
0 1.596699 25.282301 5.749500 -0.090197 0.958572 -0.270192 0.107500 -0.712000 1 0 1.000000 
metaldoor001a
0 4.971700 12.669100 58.870098 0.133694 -0.667768 -0.732265 0.182200 -0.935900 1 0 1.000000 
0 3.346699 13.494100 58.870098 -0.258197 0.495594 -0.829289 0.287900 -0.969200 1 0 1.000000 
0 5.721700 13.494100 59.551300 0.381491 0.523887 0.761582 0.215600 -0.969400 1 0 1.000000 
metaldoor001a
0 5.721700 13.494100 59.551300 0.381491 0.523887 0.761582 0.215600 -0.969400 1 0 1.000000 
0 3.346699 13.494100 58.870098 -0.258197 0.495594 -0.829289 0.287900 -0.969200 1 0 1.000000 
0 3.346699 12.669100 59.551300 -0.244000 -0.735899 0.631599 0.287900 -0.936000 1 0 1.000000 
metaldoor001a
0 4.971700 12.669100 58.870098 0.133694 -0.667768 -0.732265 0.182200 -0.935900 1 0 1.000000 
0 3.346699 12.669100 59.551300 -0.244000 -0.735899 0.631599 0.287900 -0.936000 1 0 1.000000 
0 3.346699 13.494100 58.870098 -0.258197 0.495594 -0.829289 0.287900 -0.969200 1 0 1.000000 
metaldoor001a
0 3.346699 12.669100 59.551300 -0.244000 -0.735899 0.631599 0.287900 -0.936000 1 0 1.000000 
0 4.971700 12.669100 58.870098 0.133694 -0.667768 -0.732265 0.182200 -0.935900 1 0 1.000000 
0 5.721700 13.494100 59.551300 0.381491 0.523887 0.761582 0.215600 -0.969400 1 0 1.000000 
metaldoor001a
0 2.191401 -26.760000 93.750099 0.000000 0.000000 1.000000 0.022000 -0.079100 1 0 1.000000 
0 3.782401 -29.335100 93.750099 0.000000 0.000000 1.000000 0.147200 -0.038100 1 0 1.000000 
0 3.782401 -27.001600 93.750099 0.165908 0.221911 0.960848 0.033800 -0.038100 1 0 1.000000 
metaldoor001a
0 2.191401 -26.760000 93.750099 0.000000 0.000000 1.000000 0.022000 -0.079100 1 0 1.000000 
0 2.721701 -29.818399 93.750099 0.000000 0.000000 1.000000 0.170600 -0.065500 1 0 1.000000 
0 3.782401 -29.335100 93.750099 0.000000 0.000000 1.000000 0.147200 -0.038100 1 0 1.000000 
metaldoor001a
0 2.191401 -26.760000 93.750099 0.000000 0.000000 1.000000 0.022000 -0.079100 1 0 1.000000 
0 1.221701 -28.168400 93.750099 0.000000 0.000000 1.000000 0.090500 -0.104100 1 0 1.000000 
0 2.721701 -29.818399 93.750099 0.000000 0.000000 1.000000 0.170600 -0.065500 1 0 1.000000 
metaldoor001a
0 1.596701 -25.649700 6.622400 -0.022801 -0.987046 -0.158807 0.058600 -0.712000 1 0 1.000000 
0 1.596701 -23.633400 1.799100 0.000000 -0.803204 -0.595703 0.058600 -0.721000 1 0 1.000000 
0 3.346701 -25.518999 5.749500 0.060800 -0.950794 -0.303798 0.107500 -0.712000 1 0 1.000000 
metaldoor001a
0 3.252101 -26.760000 92.932602 0.000000 0.000000 -1.000000 0.022000 -0.051900 1 0 1.000000 
0 1.661101 -29.335100 92.932602 0.000000 0.000000 -1.000000 0.147200 -0.092900 1 0 1.000000 
0 1.661101 -27.001600 92.932602 -0.165908 0.221911 -0.960848 0.033800 -0.092900 1 0 1.000000 
metaldoor001a
0 3.252101 -26.760000 92.932602 0.000000 0.000000 -1.000000 0.022000 -0.051900 1 0 1.000000 
0 3.782401 -29.335100 92.932602 0.000000 0.000000 -1.000000 0.147200 -0.038200 1 0 1.000000 
0 1.661101 -29.335100 92.932602 0.000000 0.000000 -1.000000 0.147200 -0.092900 1 0 1.000000 
metaldoor001a
0 3.252101 -26.760000 92.932602 0.000000 0.000000 -1.000000 0.022000 -0.051900 1 0 1.000000 
0 4.221702 -28.168400 92.932602 0.000000 0.000000 -1.000000 0.090500 -0.026900 1 0 1.000000 
0 3.782401 -29.335100 92.932602 0.000000 0.000000 -1.000000 0.147200 -0.038200 1 0 1.000000 
metaldoor001a
0 3.346701 -23.035400 103.787498 0.005700 -0.715692 0.698392 0.107500 -0.952500 1 0 1.000000 
0 1.596701 -20.091200 105.736801 0.000000 -0.471683 0.881768 0.058600 -0.952500 1 0 1.000000 
0 1.596701 -24.163900 102.424797 0.000000 -0.840460 0.541874 0.058600 -0.975100 1 0 1.000000 
metaldoor001a
0 3.252101 -26.760000 11.182600 0.000000 0.000000 -1.000000 0.022000 -0.051900 1 0 1.000000 
0 1.221701 -28.168400 11.182600 0.000000 0.000000 -1.000000 0.090500 -0.104200 1 0 1.000000 
0 1.661101 -27.001600 11.182600 -0.165908 0.221911 -0.960848 0.033800 -0.092900 1 0 1.000000 
metaldoor001a
0 3.252101 -26.760000 11.182600 0.000000 0.000000 -1.000000 0.022000 -0.051900 1 0 1.000000 
0 2.721701 -29.818399 11.182600 0.000000 0.000000 -1.000000 0.170600 -0.065600 1 0 1.000000 
0 1.221701 -28.168400 11.182600 0.000000 0.000000 -1.000000 0.090500 -0.104200 1 0 1.000000 
metaldoor001a
0 3.252101 -26.760000 11.182600 0.000000 0.000000 -1.000000 0.022000 -0.051900 1 0 1.000000 
0 4.221702 -28.168400 11.182600 0.000000 0.000000 -1.000000 0.090500 -0.026900 1 0 1.000000 
0 2.721701 -29.818399 11.182600 0.000000 0.000000 -1.000000 0.170600 -0.065600 1 0 1.000000 
metaldoor001a
0 1.596699 22.798599 103.787498 -0.005700 0.715692 0.698392 0.107500 -0.952500 1 0 1.000000 
0 3.346699 19.854500 105.736801 -0.000000 0.471683 0.881768 0.058600 -0.952500 1 0 1.000000 
0 3.346699 23.927200 102.424797 -0.000000 0.840460 0.541874 0.058600 -0.975100 1 0 1.000000 
metaldoor001a
0 2.191401 -26.760000 12.000100 0.000000 0.000000 1.000000 0.022000 -0.079100 1 0 1.000000 
0 3.782401 -29.335100 12.000100 0.000000 0.000000 1.000000 0.147200 -0.038100 1 0 1.000000 
0 3.782401 -27.001600 12.000100 0.165908 0.221911 0.960848 0.033800 -0.038100 1 0 1.000000 
metaldoor001a
0 2.191401 -26.760000 12.000100 0.000000 0.000000 1.000000 0.022000 -0.079100 1 0 1.000000 
0 2.721701 -29.818399 12.000100 0.000000 0.000000 1.000000 0.170600 -0.065500 1 0 1.000000 
0 3.782401 -29.335100 12.000100 0.000000 0.000000 1.000000 0.147200 -0.038100 1 0 1.000000 
metaldoor001a
0 2.191401 -26.760000 12.000100 0.000000 0.000000 1.000000 0.022000 -0.079100 1 0 1.000000 
0 1.221701 -28.168400 12.000100 0.000000 0.000000 1.000000 0.090500 -0.104100 1 0 1.000000 
0 2.721701 -29.818399 12.000100 0.000000 0.000000 1.000000 0.170600 -0.065500 1 0 1.000000 
metaldoor001a
0 1.596701 -23.633400 1.799100 0.021300 -0.831107 -0.555705 0.058600 -0.975100 1 0 1.000000 
0 3.346701 -22.375500 0.552500 0.099000 -0.654901 -0.749202 0.107500 -0.975100 1 0 1.000000 
0 3.346701 -25.518999 5.749500 0.060800 -0.950794 -0.303798 0.107500 -0.952500 1 0 1.000000 
metaldoor001a
0 5.721700 13.494100 44.291302 0.252600 0.635399 0.729699 0.182200 -0.972000 1 0 1.000000 
0 3.346699 12.669100 44.972599 0.000000 0.000000 1.000000 0.287900 -0.938500 1 0 1.000000 
0 5.721700 12.669100 44.291302 0.055901 -0.623011 -0.780213 0.215600 -0.938500 1 0 1.000000 
metaldoor001a
0 5.721700 12.669100 44.291302 0.055901 -0.623011 -0.780213 0.215600 -0.938500 1 0 1.000000 
0 3.346699 12.669100 44.972599 0.000000 0.000000 1.000000 0.287900 -0.938500 1 0 1.000000 
0 3.346699 13.494100 44.291302 -0.197293 0.012600 -0.980264 0.287900 -0.971800 1 0 1.000000 
metaldoor001a
0 5.721700 13.494100 44.291302 0.252600 0.635399 0.729699 0.182200 -0.972000 1 0 1.000000 
0 3.346699 13.494100 44.291302 -0.197293 0.012600 -0.980264 0.287900 -0.971800 1 0 1.000000 
0 3.346699 12.669100 44.972599 0.000000 0.000000 1.000000 0.287900 -0.938500 1 0 1.000000 
metaldoor001a
0 5.721700 12.669100 44.291302 0.055901 -0.623011 -0.780213 0.215600 -0.938500 1 0 1.000000 
0 3.346699 13.494100 44.291302 -0.197293 0.012600 -0.980264 0.287900 -0.971800 1 0 1.000000 
0 5.721700 13.494100 44.291302 0.252600 0.635399 0.729699 0.182200 -0.972000 1 0 1.000000 
metaldoor001a
0 3.346699 21.423401 0.026900 -0.000000 0.541874 -0.840460 0.058600 -0.698400 1 0 1.000000 
0 3.346699 19.016001 -1.101400 -0.000000 0.274589 -0.961562 0.058600 -0.734600 1 0 1.000000 
0 1.596699 22.138800 0.552500 -0.114398 0.618787 -0.777184 0.107500 -0.712000 1 0 1.000000 
metaldoor001a
0 3.346699 19.016001 -1.101400 -0.000000 0.274589 -0.961562 0.058600 -0.734600 1 0 1.000000 
0 1.596699 17.271099 -1.445400 -0.039402 0.121206 -0.991845 0.107500 -0.734600 1 0 1.000000 
0 1.596699 22.138800 0.552500 -0.114398 0.618787 -0.777184 0.107500 -0.712000 1 0 1.000000 
metaldoor001a
0 2.721701 -29.818399 12.000100 -0.707107 -0.707107 0.000000 0.092300 -0.146000 1 0 1.000000 
0 1.221701 -28.168400 12.000100 -0.707107 -0.707107 0.000000 0.014400 -0.146000 1 0 1.000000 
0 2.721701 -29.818399 11.182600 -0.707107 -0.707107 0.000000 0.092300 -0.196900 1 0 1.000000 
metaldoor001a
0 1.221701 -28.168400 12.000100 -0.707107 -0.707107 0.000000 0.014400 -0.146000 1 0 1.000000 
0 1.221701 -28.168400 11.182600 -0.707107 -0.707107 0.000000 0.014400 -0.196900 1 0 1.000000 
0 2.721701 -29.818399 11.182600 -0.707107 -0.707107 0.000000 0.092300 -0.196900 1 0 1.000000 
end
