version 1
nodes
  0 "static_prop" -1
end
skeleton
time 0
0 0.000000 0.000000 0.000000 0.000000 0.000000 0.000000
end
triangles
METALROOF002A
0 -4.000000 -4.000000 31.367201 -0.999796 -0.000000 0.020200 0.414600 -0.414600 1 0 1.000000 
0 -0.247700 -0.066300 217.060501 -0.999796 -0.000000 0.020200 0.498600 -0.494700 1 0 1.000000 
0 -4.000000 4.000000 31.367201 -0.999796 -0.000000 0.020200 0.585400 -0.414600 1 0 1.000000 
METALROOF002A
0 -4.000000 -4.000000 31.367201 0.000000 0.000000 -1.000000 0.414600 -0.414600 1 0 1.000000 
0 4.000000 4.000000 31.367201 0.000000 0.000000 -1.000000 0.585400 -0.585400 1 0 1.000000 
0 4.000000 -4.000000 31.367201 0.000000 0.000000 -1.000000 0.414600 -0.585400 1 0 1.000000 
METALROOF002A
0 -4.000000 -4.000000 31.367201 0.000000 0.000000 -1.000000 0.414600 -0.414600 1 0 1.000000 
0 -4.000000 4.000000 31.367201 0.000000 0.000000 -1.000000 0.585400 -0.414600 1 0 1.000000 
0 4.000000 4.000000 31.367201 0.000000 0.000000 -1.000000 0.585400 -0.585400 1 0 1.000000 
METALROOF002A
0 0.000001 -16.791599 31.033800 -0.033800 -0.454104 0.890307 0.554400 -0.061200 1 0 1.000000 
0 8.395801 -14.542000 31.033800 0.197798 -0.410195 0.890290 0.693900 -0.061200 1 0 1.000000 
0 0.000000 0.000000 34.171799 0.000000 0.000000 1.000000 0.490300 -0.000000 1 0 1.000000 
METALROOF002A
0 0.000001 -33.722099 17.788900 -0.011400 -0.760702 0.649001 0.614400 -0.319600 1 0 1.000000 
0 8.395801 -14.542000 31.033800 0.197798 -0.410195 0.890290 0.693900 -0.061200 1 0 1.000000 
0 0.000001 -16.791599 31.033800 -0.033800 -0.454104 0.890307 0.554400 -0.061200 1 0 1.000000 
METALROOF002A
0 0.000001 -33.722099 17.788900 -0.011400 -0.760702 0.649001 0.614400 -0.319600 1 0 1.000000 
0 16.861002 -29.204201 17.788900 0.370494 -0.664489 0.648990 0.873000 -0.319600 1 0 1.000000 
0 8.395801 -14.542000 31.033800 0.197798 -0.410195 0.890290 0.693900 -0.061200 1 0 1.000000 
METALROOF002A
0 -21.702898 -37.590599 0.192600 -0.466605 -0.800609 0.375904 0.304500 -0.662800 1 0 1.000000 
0 0.000001 -33.722099 17.788900 -0.011400 -0.760702 0.649001 0.614400 -0.319600 1 0 1.000000 
0 -16.860998 -29.204201 17.788900 -0.390201 -0.653101 0.649001 0.339300 -0.319600 1 0 1.000000 
METALROOF002A
0 -21.702898 -37.590599 0.192600 -0.466605 -0.800609 0.375904 0.304500 -0.662800 1 0 1.000000 
0 0.000002 -43.405899 0.192600 -0.003700 -0.926645 0.375918 0.644200 -0.662800 1 0 1.000000 
0 0.000001 -33.722099 17.788900 -0.011400 -0.760702 0.649001 0.614400 -0.319600 1 0 1.000000 
METALROOF002A
0 0.000002 -43.405899 0.192600 -0.003700 -0.926645 0.375918 0.644200 -0.662800 1 0 1.000000 
0 16.861002 -29.204201 17.788900 0.370494 -0.664489 0.648990 0.873000 -0.319600 1 0 1.000000 
0 0.000001 -33.722099 17.788900 -0.011400 -0.760702 0.649001 0.614400 -0.319600 1 0 1.000000 
METALROOF002A
0 0.000002 -43.405899 0.192600 -0.003700 -0.926645 0.375918 0.644200 -0.662800 1 0 1.000000 
0 21.702902 -37.590599 0.192600 0.460088 -0.804379 0.375890 0.963600 -0.662800 1 0 1.000000 
0 16.861002 -29.204201 17.788900 0.370494 -0.664489 0.648990 0.873000 -0.319600 1 0 1.000000 
METALROOF002A
0 -16.860998 -29.204201 17.788900 -0.390201 -0.653101 0.649001 0.339300 -0.319600 1 0 1.000000 
0 0.000001 -33.722099 17.788900 -0.011400 -0.760702 0.649001 0.614400 -0.319600 1 0 1.000000 
0 0.000001 -16.791599 31.033800 -0.033800 -0.454104 0.890307 0.554400 -0.061200 1 0 1.000000 
METALROOF002A
0 -16.860998 -29.204201 17.788900 -0.390201 -0.653101 0.649001 0.339300 -0.319600 1 0 1.000000 
0 0.000001 -16.791599 31.033800 -0.033800 -0.454104 0.890307 0.554400 -0.061200 1 0 1.000000 
0 -8.395799 -14.542000 31.033800 -0.256300 -0.376400 0.890300 0.407300 -0.061200 1 0 1.000000 
METALROOF002A
0 -8.395799 -14.542000 31.033800 -0.256300 -0.376400 0.890300 0.407300 -0.061200 1 0 1.000000 
0 0.000001 -16.791599 31.033800 -0.033800 -0.454104 0.890307 0.554400 -0.061200 1 0 1.000000 
0 0.000000 0.000000 34.171799 0.000000 0.000000 1.000000 0.490300 -0.000000 1 0 1.000000 
METALROOF002A
0 -14.542000 -8.395801 31.033800 -0.410195 -0.197798 0.890290 0.289300 -0.061200 1 0 1.000000 
0 -8.395799 -14.542000 31.033800 -0.256300 -0.376400 0.890300 0.407300 -0.061200 1 0 1.000000 
0 0.000000 0.000000 34.171799 0.000000 0.000000 1.000000 0.490300 -0.000000 1 0 1.000000 
METALROOF002A
0 -29.204201 -16.861002 17.788900 -0.664489 -0.370494 0.648990 0.118600 -0.319600 1 0 1.000000 
0 -8.395799 -14.542000 31.033800 -0.256300 -0.376400 0.890300 0.407300 -0.061200 1 0 1.000000 
0 -14.542000 -8.395801 31.033800 -0.410195 -0.197798 0.890290 0.289300 -0.061200 1 0 1.000000 
METALROOF002A
0 -29.204201 -16.861002 17.788900 -0.664489 -0.370494 0.648990 0.118600 -0.319600 1 0 1.000000 
0 -16.860998 -29.204201 17.788900 -0.390201 -0.653101 0.649001 0.339300 -0.319600 1 0 1.000000 
0 -8.395799 -14.542000 31.033800 -0.256300 -0.376400 0.890300 0.407300 -0.061200 1 0 1.000000 
METALROOF002A
0 -37.590599 -21.702902 0.192600 -0.804379 -0.460088 0.375890 0.035500 -0.662800 1 0 1.000000 
0 -16.860998 -29.204201 17.788900 -0.390201 -0.653101 0.649001 0.339300 -0.319600 1 0 1.000000 
0 -29.204201 -16.861002 17.788900 -0.664489 -0.370494 0.648990 0.118600 -0.319600 1 0 1.000000 
METALROOF002A
0 -37.590599 -21.702902 0.192600 -0.804379 -0.460088 0.375890 0.035500 -0.662800 1 0 1.000000 
0 -21.702898 -37.590599 0.192600 -0.466605 -0.800609 0.375904 0.304500 -0.662800 1 0 1.000000 
0 -16.860998 -29.204201 17.788900 -0.390201 -0.653101 0.649001 0.339300 -0.319600 1 0 1.000000 
METALROOF002A
0 -41.687000 -24.068003 -17.093800 -0.789313 -0.554809 0.263004 0.000000 -1.000000 1 0 1.000000 
0 -21.702898 -37.590599 0.192600 -0.466605 -0.800609 0.375904 0.304500 -0.662800 1 0 1.000000 
0 -37.590599 -21.702902 0.192600 -0.804379 -0.460088 0.375890 0.035500 -0.662800 1 0 1.000000 
METALROOF002A
0 -41.687000 -24.068003 -17.093800 -0.789313 -0.554809 0.263004 0.000000 -1.000000 1 0 1.000000 
0 -24.067999 -41.687000 -17.093800 -0.406171 -0.875138 0.262981 0.293000 -1.000000 1 0 1.000000 
0 -21.702898 -37.590599 0.192600 -0.466605 -0.800609 0.375904 0.304500 -0.662800 1 0 1.000000 
METALROOF002A
0 -24.067999 -41.687000 -17.093800 -0.406171 -0.875138 0.262981 0.293000 -1.000000 1 0 1.000000 
0 0.000002 -43.405899 0.192600 -0.003700 -0.926645 0.375918 0.644200 -0.662800 1 0 1.000000 
0 -21.702898 -37.590599 0.192600 -0.466605 -0.800609 0.375904 0.304500 -0.662800 1 0 1.000000 
METALROOF002A
0 -24.067999 -41.687000 -17.093800 -0.406171 -0.875138 0.262981 0.293000 -1.000000 1 0 1.000000 
0 0.000002 -48.136002 -17.093800 0.085798 -0.960975 0.262993 0.655900 -1.000000 1 0 1.000000 
0 0.000002 -43.405899 0.192600 -0.003700 -0.926645 0.375918 0.644200 -0.662800 1 0 1.000000 
METALROOF002A
0 0.000002 -48.136002 -17.093800 0.085798 -0.960975 0.262993 0.655900 -1.000000 1 0 1.000000 
0 21.702902 -37.590599 0.192600 0.460088 -0.804379 0.375890 0.963600 -0.662800 1 0 1.000000 
0 0.000002 -43.405899 0.192600 -0.003700 -0.926645 0.375918 0.644200 -0.662800 1 0 1.000000 
METALROOF002A
0 0.000002 -48.136002 -17.093800 0.085798 -0.960975 0.262993 0.655900 -1.000000 1 0 1.000000 
0 24.068003 -41.687000 -17.093800 0.554809 -0.789313 0.263004 1.000000 -1.000000 1 0 1.000000 
0 21.702902 -37.590599 0.192600 0.460088 -0.804379 0.375890 0.963600 -0.662800 1 0 1.000000 
METALROOF002A
0 -33.722099 -0.000001 17.788900 -0.760702 0.011400 0.649001 0.614400 -0.319600 1 0 1.000000 
0 -29.204201 -16.861002 17.788900 -0.664489 -0.370494 0.648990 0.873000 -0.319600 1 0 1.000000 
0 -14.542000 -8.395801 31.033800 -0.410195 -0.197798 0.890290 0.693900 -0.061200 1 0 1.000000 
METALROOF002A
0 -33.722099 -0.000001 17.788900 -0.760702 0.011400 0.649001 0.614400 -0.319600 1 0 1.000000 
0 -14.542000 -8.395801 31.033800 -0.410195 -0.197798 0.890290 0.693900 -0.061200 1 0 1.000000 
0 -16.791599 -0.000001 31.033800 -0.454104 0.033800 0.890307 0.554400 -0.061200 1 0 1.000000 
METALROOF002A
0 -16.791599 -0.000001 31.033800 -0.454104 0.033800 0.890307 0.554400 -0.061200 1 0 1.000000 
0 -14.542000 -8.395801 31.033800 -0.410195 -0.197798 0.890290 0.693900 -0.061200 1 0 1.000000 
0 0.000000 0.000000 34.171799 0.000000 0.000000 1.000000 0.490300 -0.000000 1 0 1.000000 
METALROOF002A
0 -14.542000 8.395799 31.033800 -0.376400 0.256300 0.890300 0.407300 -0.061200 1 0 1.000000 
0 -16.791599 -0.000001 31.033800 -0.454104 0.033800 0.890307 0.554400 -0.061200 1 0 1.000000 
0 0.000000 0.000000 34.171799 0.000000 0.000000 1.000000 0.490300 -0.000000 1 0 1.000000 
METALROOF002A
0 -8.395801 14.542000 31.033800 -0.197798 0.410195 0.890290 0.289300 -0.061200 1 0 1.000000 
0 -14.542000 8.395799 31.033800 -0.376400 0.256300 0.890300 0.407300 -0.061200 1 0 1.000000 
0 0.000000 0.000000 34.171799 0.000000 0.000000 1.000000 0.490300 -0.000000 1 0 1.000000 
METALROOF002A
0 -16.861002 29.204201 17.788900 -0.370494 0.664489 0.648990 0.118600 -0.319600 1 0 1.000000 
0 -14.542000 8.395799 31.033800 -0.376400 0.256300 0.890300 0.407300 -0.061200 1 0 1.000000 
0 -8.395801 14.542000 31.033800 -0.197798 0.410195 0.890290 0.289300 -0.061200 1 0 1.000000 
METALROOF002A
0 -16.861002 29.204201 17.788900 -0.370494 0.664489 0.648990 0.118600 -0.319600 1 0 1.000000 
0 -29.204201 16.860998 17.788900 -0.653101 0.390201 0.649001 0.339300 -0.319600 1 0 1.000000 
0 -14.542000 8.395799 31.033800 -0.376400 0.256300 0.890300 0.407300 -0.061200 1 0 1.000000 
METALROOF002A
0 -21.702902 37.590599 0.192600 -0.460088 0.804379 0.375890 0.035500 -0.662800 1 0 1.000000 
0 -29.204201 16.860998 17.788900 -0.653101 0.390201 0.649001 0.339300 -0.319600 1 0 1.000000 
0 -16.861002 29.204201 17.788900 -0.370494 0.664489 0.648990 0.118600 -0.319600 1 0 1.000000 
METALROOF002A
0 -21.702902 37.590599 0.192600 -0.460088 0.804379 0.375890 0.035500 -0.662800 1 0 1.000000 
0 -37.590599 21.702898 0.192600 -0.800609 0.466605 0.375904 0.304500 -0.662800 1 0 1.000000 
0 -29.204201 16.860998 17.788900 -0.653101 0.390201 0.649001 0.339300 -0.319600 1 0 1.000000 
METALROOF002A
0 -24.068003 41.687000 -17.093800 -0.554809 0.789313 0.263004 0.000000 -1.000000 1 0 1.000000 
0 -37.590599 21.702898 0.192600 -0.800609 0.466605 0.375904 0.304500 -0.662800 1 0 1.000000 
0 -21.702902 37.590599 0.192600 -0.460088 0.804379 0.375890 0.035500 -0.662800 1 0 1.000000 
METALROOF002A
0 -24.068003 41.687000 -17.093800 -0.554809 0.789313 0.263004 0.000000 -1.000000 1 0 1.000000 
0 -41.687000 24.067999 -17.093800 -0.875138 0.406171 0.262981 0.293000 -1.000000 1 0 1.000000 
0 -37.590599 21.702898 0.192600 -0.800609 0.466605 0.375904 0.304500 -0.662800 1 0 1.000000 
METALROOF002A
0 -41.687000 24.067999 -17.093800 -0.875138 0.406171 0.262981 0.293000 -1.000000 1 0 1.000000 
0 -43.405899 -0.000002 0.192600 -0.926645 0.003700 0.375918 0.644200 -0.662800 1 0 1.000000 
0 -37.590599 21.702898 0.192600 -0.800609 0.466605 0.375904 0.304500 -0.662800 1 0 1.000000 
METALROOF002A
0 -41.687000 24.067999 -17.093800 -0.875138 0.406171 0.262981 0.293000 -1.000000 1 0 1.000000 
0 -48.136002 -0.000002 -17.093800 -0.960975 -0.085798 0.262993 0.655900 -1.000000 1 0 1.000000 
0 -43.405899 -0.000002 0.192600 -0.926645 0.003700 0.375918 0.644200 -0.662800 1 0 1.000000 
METALROOF002A
0 -48.136002 -0.000002 -17.093800 -0.960975 -0.085798 0.262993 0.655900 -1.000000 1 0 1.000000 
0 -37.590599 -21.702902 0.192600 -0.804379 -0.460088 0.375890 0.963600 -0.662800 1 0 1.000000 
0 -43.405899 -0.000002 0.192600 -0.926645 0.003700 0.375918 0.644200 -0.662800 1 0 1.000000 
METALROOF002A
0 -48.136002 -0.000002 -17.093800 -0.960975 -0.085798 0.262993 0.655900 -1.000000 1 0 1.000000 
0 -41.687000 -24.068003 -17.093800 -0.789313 -0.554809 0.263004 1.000000 -1.000000 1 0 1.000000 
0 -37.590599 -21.702902 0.192600 -0.804379 -0.460088 0.375890 0.963600 -0.662800 1 0 1.000000 
METALROOF002A
0 -29.204201 16.860998 17.788900 -0.653101 0.390201 0.649001 0.339300 -0.319600 1 0 1.000000 
0 -16.791599 -0.000001 31.033800 -0.454104 0.033800 0.890307 0.554400 -0.061200 1 0 1.000000 
0 -14.542000 8.395799 31.033800 -0.376400 0.256300 0.890300 0.407300 -0.061200 1 0 1.000000 
METALROOF002A
0 -29.204201 16.860998 17.788900 -0.653101 0.390201 0.649001 0.339300 -0.319600 1 0 1.000000 
0 -33.722099 -0.000001 17.788900 -0.760702 0.011400 0.649001 0.614400 -0.319600 1 0 1.000000 
0 -16.791599 -0.000001 31.033800 -0.454104 0.033800 0.890307 0.554400 -0.061200 1 0 1.000000 
METALROOF002A
0 -37.590599 21.702898 0.192600 -0.800609 0.466605 0.375904 0.304500 -0.662800 1 0 1.000000 
0 -33.722099 -0.000001 17.788900 -0.760702 0.011400 0.649001 0.614400 -0.319600 1 0 1.000000 
0 -29.204201 16.860998 17.788900 -0.653101 0.390201 0.649001 0.339300 -0.319600 1 0 1.000000 
METALROOF002A
0 -37.590599 21.702898 0.192600 -0.800609 0.466605 0.375904 0.304500 -0.662800 1 0 1.000000 
0 -43.405899 -0.000002 0.192600 -0.926645 0.003700 0.375918 0.644200 -0.662800 1 0 1.000000 
0 -33.722099 -0.000001 17.788900 -0.760702 0.011400 0.649001 0.614400 -0.319600 1 0 1.000000 
METALROOF002A
0 -43.405899 -0.000002 0.192600 -0.926645 0.003700 0.375918 0.644200 -0.662800 1 0 1.000000 
0 -29.204201 -16.861002 17.788900 -0.664489 -0.370494 0.648990 0.873000 -0.319600 1 0 1.000000 
0 -33.722099 -0.000001 17.788900 -0.760702 0.011400 0.649001 0.614400 -0.319600 1 0 1.000000 
METALROOF002A
0 -43.405899 -0.000002 0.192600 -0.926645 0.003700 0.375918 0.644200 -0.662800 1 0 1.000000 
0 -37.590599 -21.702902 0.192600 -0.804379 -0.460088 0.375890 0.963600 -0.662800 1 0 1.000000 
0 -29.204201 -16.861002 17.788900 -0.664489 -0.370494 0.648990 0.873000 -0.319600 1 0 1.000000 
METALROOF002A
0 41.687000 -24.067999 -17.093800 0.875138 -0.406171 0.262981 0.293000 -1.000000 1 0 1.000000 
0 43.405899 0.000002 0.192600 0.926645 -0.003700 0.375918 0.644200 -0.662800 1 0 1.000000 
0 37.590599 -21.702898 0.192600 0.800609 -0.466605 0.375904 0.304500 -0.662800 1 0 1.000000 
METALROOF002A
0 24.068003 -41.687000 -17.093800 0.554809 -0.789313 0.263004 0.000000 -1.000000 1 0 1.000000 
0 41.687000 -24.067999 -17.093800 0.875138 -0.406171 0.262981 0.293000 -1.000000 1 0 1.000000 
0 37.590599 -21.702898 0.192600 0.800609 -0.466605 0.375904 0.304500 -0.662800 1 0 1.000000 
METALROOF002A
0 24.068003 -41.687000 -17.093800 0.554809 -0.789313 0.263004 0.000000 -1.000000 1 0 1.000000 
0 37.590599 -21.702898 0.192600 0.800609 -0.466605 0.375904 0.304500 -0.662800 1 0 1.000000 
0 21.702902 -37.590599 0.192600 0.460088 -0.804379 0.375890 0.035500 -0.662800 1 0 1.000000 
METALROOF002A
0 21.702902 -37.590599 0.192600 0.460088 -0.804379 0.375890 0.035500 -0.662800 1 0 1.000000 
0 37.590599 -21.702898 0.192600 0.800609 -0.466605 0.375904 0.304500 -0.662800 1 0 1.000000 
0 29.204201 -16.860998 17.788900 0.653101 -0.390201 0.649001 0.339300 -0.319600 1 0 1.000000 
METALROOF002A
0 21.702902 -37.590599 0.192600 0.460088 -0.804379 0.375890 0.035500 -0.662800 1 0 1.000000 
0 29.204201 -16.860998 17.788900 0.653101 -0.390201 0.649001 0.339300 -0.319600 1 0 1.000000 
0 16.861002 -29.204201 17.788900 0.370494 -0.664489 0.648990 0.118600 -0.319600 1 0 1.000000 
METALROOF002A
0 16.861002 -29.204201 17.788900 0.370494 -0.664489 0.648990 0.118600 -0.319600 1 0 1.000000 
0 29.204201 -16.860998 17.788900 0.653101 -0.390201 0.649001 0.339300 -0.319600 1 0 1.000000 
0 14.542000 -8.395799 31.033800 0.376400 -0.256300 0.890300 0.407300 -0.061200 1 0 1.000000 
METALROOF002A
0 16.861002 -29.204201 17.788900 0.370494 -0.664489 0.648990 0.118600 -0.319600 1 0 1.000000 
0 14.542000 -8.395799 31.033800 0.376400 -0.256300 0.890300 0.407300 -0.061200 1 0 1.000000 
0 8.395801 -14.542000 31.033800 0.197798 -0.410195 0.890290 0.289300 -0.061200 1 0 1.000000 
METALROOF002A
0 8.395801 -14.542000 31.033800 0.197798 -0.410195 0.890290 0.289300 -0.061200 1 0 1.000000 
0 14.542000 -8.395799 31.033800 0.376400 -0.256300 0.890300 0.407300 -0.061200 1 0 1.000000 
0 0.000000 0.000000 34.171799 0.000000 0.000000 1.000000 0.490300 -0.000000 1 0 1.000000 
METALROOF002A
0 14.542000 -8.395799 31.033800 0.376400 -0.256300 0.890300 0.407300 -0.061200 1 0 1.000000 
0 16.791599 0.000001 31.033800 0.454104 -0.033800 0.890307 0.554400 -0.061200 1 0 1.000000 
0 0.000000 0.000000 34.171799 0.000000 0.000000 1.000000 0.490300 -0.000000 1 0 1.000000 
METALROOF002A
0 16.791599 0.000001 31.033800 0.454104 -0.033800 0.890307 0.554400 -0.061200 1 0 1.000000 
0 14.542000 8.395801 31.033800 0.410195 0.197798 0.890290 0.693900 -0.061200 1 0 1.000000 
0 0.000000 0.000000 34.171799 0.000000 0.000000 1.000000 0.490300 -0.000000 1 0 1.000000 
METALROOF002A
0 33.722099 0.000001 17.788900 0.760702 -0.011400 0.649001 0.614400 -0.319600 1 0 1.000000 
0 14.542000 8.395801 31.033800 0.410195 0.197798 0.890290 0.693900 -0.061200 1 0 1.000000 
0 16.791599 0.000001 31.033800 0.454104 -0.033800 0.890307 0.554400 -0.061200 1 0 1.000000 
METALROOF002A
0 33.722099 0.000001 17.788900 0.760702 -0.011400 0.649001 0.614400 -0.319600 1 0 1.000000 
0 29.204201 16.861002 17.788900 0.664489 0.370494 0.648990 0.873000 -0.319600 1 0 1.000000 
0 14.542000 8.395801 31.033800 0.410195 0.197798 0.890290 0.693900 -0.061200 1 0 1.000000 
METALROOF002A
0 43.405899 0.000002 0.192600 0.926645 -0.003700 0.375918 0.644200 -0.662800 1 0 1.000000 
0 29.204201 16.861002 17.788900 0.664489 0.370494 0.648990 0.873000 -0.319600 1 0 1.000000 
0 33.722099 0.000001 17.788900 0.760702 -0.011400 0.649001 0.614400 -0.319600 1 0 1.000000 
METALROOF002A
0 43.405899 0.000002 0.192600 0.926645 -0.003700 0.375918 0.644200 -0.662800 1 0 1.000000 
0 37.590599 21.702902 0.192600 0.804379 0.460088 0.375890 0.963600 -0.662800 1 0 1.000000 
0 29.204201 16.861002 17.788900 0.664489 0.370494 0.648990 0.873000 -0.319600 1 0 1.000000 
METALROOF002A
0 48.136002 0.000002 -17.093800 0.960975 0.085798 0.262993 0.655900 -1.000000 1 0 1.000000 
0 37.590599 21.702902 0.192600 0.804379 0.460088 0.375890 0.963600 -0.662800 1 0 1.000000 
0 43.405899 0.000002 0.192600 0.926645 -0.003700 0.375918 0.644200 -0.662800 1 0 1.000000 
METALROOF002A
0 48.136002 0.000002 -17.093800 0.960975 0.085798 0.262993 0.655900 -1.000000 1 0 1.000000 
0 41.687000 24.068003 -17.093800 0.789313 0.554809 0.263004 1.000000 -1.000000 1 0 1.000000 
0 37.590599 21.702902 0.192600 0.804379 0.460088 0.375890 0.963600 -0.662800 1 0 1.000000 
METALROOF002A
0 29.204201 -16.860998 17.788900 0.653101 -0.390201 0.649001 0.339300 -0.319600 1 0 1.000000 
0 16.791599 0.000001 31.033800 0.454104 -0.033800 0.890307 0.554400 -0.061200 1 0 1.000000 
0 14.542000 -8.395799 31.033800 0.376400 -0.256300 0.890300 0.407300 -0.061200 1 0 1.000000 
METALROOF002A
0 29.204201 -16.860998 17.788900 0.653101 -0.390201 0.649001 0.339300 -0.319600 1 0 1.000000 
0 33.722099 0.000001 17.788900 0.760702 -0.011400 0.649001 0.614400 -0.319600 1 0 1.000000 
0 16.791599 0.000001 31.033800 0.454104 -0.033800 0.890307 0.554400 -0.061200 1 0 1.000000 
METALROOF002A
0 37.590599 -21.702898 0.192600 0.800609 -0.466605 0.375904 0.304500 -0.662800 1 0 1.000000 
0 33.722099 0.000001 17.788900 0.760702 -0.011400 0.649001 0.614400 -0.319600 1 0 1.000000 
0 29.204201 -16.860998 17.788900 0.653101 -0.390201 0.649001 0.339300 -0.319600 1 0 1.000000 
METALROOF002A
0 37.590599 -21.702898 0.192600 0.800609 -0.466605 0.375904 0.304500 -0.662800 1 0 1.000000 
0 43.405899 0.000002 0.192600 0.926645 -0.003700 0.375918 0.644200 -0.662800 1 0 1.000000 
0 33.722099 0.000001 17.788900 0.760702 -0.011400 0.649001 0.614400 -0.319600 1 0 1.000000 
METALROOF002A
0 41.687000 -24.067999 -17.093800 0.875138 -0.406171 0.262981 0.293000 -1.000000 1 0 1.000000 
0 48.136002 0.000002 -17.093800 0.960975 0.085798 0.262993 0.655900 -1.000000 1 0 1.000000 
0 43.405899 0.000002 0.192600 0.926645 -0.003700 0.375918 0.644200 -0.662800 1 0 1.000000 
METALROOF002A
0 -0.000002 43.405899 0.192600 0.003700 0.926645 0.375918 0.644200 -0.662800 1 0 1.000000 
0 -16.861002 29.204201 17.788900 -0.370494 0.664489 0.648990 0.873000 -0.319600 1 0 1.000000 
0 -0.000001 33.722099 17.788900 0.011400 0.760702 0.649001 0.614400 -0.319600 1 0 1.000000 
METALROOF002A
0 -0.000001 33.722099 17.788900 0.011400 0.760702 0.649001 0.614400 -0.319600 1 0 1.000000 
0 -16.861002 29.204201 17.788900 -0.370494 0.664489 0.648990 0.873000 -0.319600 1 0 1.000000 
0 -8.395801 14.542000 31.033800 -0.197798 0.410195 0.890290 0.693900 -0.061200 1 0 1.000000 
METALROOF002A
0 -0.000001 33.722099 17.788900 0.011400 0.760702 0.649001 0.614400 -0.319600 1 0 1.000000 
0 -8.395801 14.542000 31.033800 -0.197798 0.410195 0.890290 0.693900 -0.061200 1 0 1.000000 
0 -0.000001 16.791599 31.033800 0.033800 0.454104 0.890307 0.554400 -0.061200 1 0 1.000000 
METALROOF002A
0 -0.000001 16.791599 31.033800 0.033800 0.454104 0.890307 0.554400 -0.061200 1 0 1.000000 
0 -8.395801 14.542000 31.033800 -0.197798 0.410195 0.890290 0.693900 -0.061200 1 0 1.000000 
0 0.000000 0.000000 34.171799 0.000000 0.000000 1.000000 0.490300 -0.000000 1 0 1.000000 
METALROOF002A
0 8.395799 14.542000 31.033800 0.256300 0.376400 0.890300 0.407300 -0.061200 1 0 1.000000 
0 -0.000001 16.791599 31.033800 0.033800 0.454104 0.890307 0.554400 -0.061200 1 0 1.000000 
0 0.000000 0.000000 34.171799 0.000000 0.000000 1.000000 0.490300 -0.000000 1 0 1.000000 
METALROOF002A
0 14.542000 8.395801 31.033800 0.410195 0.197798 0.890290 0.289300 -0.061200 1 0 1.000000 
0 8.395799 14.542000 31.033800 0.256300 0.376400 0.890300 0.407300 -0.061200 1 0 1.000000 
0 0.000000 0.000000 34.171799 0.000000 0.000000 1.000000 0.490300 -0.000000 1 0 1.000000 
METALROOF002A
0 29.204201 16.861002 17.788900 0.664489 0.370494 0.648990 0.118600 -0.319600 1 0 1.000000 
0 8.395799 14.542000 31.033800 0.256300 0.376400 0.890300 0.407300 -0.061200 1 0 1.000000 
0 14.542000 8.395801 31.033800 0.410195 0.197798 0.890290 0.289300 -0.061200 1 0 1.000000 
METALROOF002A
0 29.204201 16.861002 17.788900 0.664489 0.370494 0.648990 0.118600 -0.319600 1 0 1.000000 
0 16.860998 29.204201 17.788900 0.390201 0.653101 0.649001 0.339300 -0.319600 1 0 1.000000 
0 8.395799 14.542000 31.033800 0.256300 0.376400 0.890300 0.407300 -0.061200 1 0 1.000000 
METALROOF002A
0 37.590599 21.702902 0.192600 0.804379 0.460088 0.375890 0.035500 -0.662800 1 0 1.000000 
0 16.860998 29.204201 17.788900 0.390201 0.653101 0.649001 0.339300 -0.319600 1 0 1.000000 
0 29.204201 16.861002 17.788900 0.664489 0.370494 0.648990 0.118600 -0.319600 1 0 1.000000 
METALROOF002A
0 37.590599 21.702902 0.192600 0.804379 0.460088 0.375890 0.035500 -0.662800 1 0 1.000000 
0 21.702898 37.590599 0.192600 0.466605 0.800609 0.375904 0.304500 -0.662800 1 0 1.000000 
0 16.860998 29.204201 17.788900 0.390201 0.653101 0.649001 0.339300 -0.319600 1 0 1.000000 
METALROOF002A
0 41.687000 24.068003 -17.093800 0.789313 0.554809 0.263004 0.000000 -1.000000 1 0 1.000000 
0 21.702898 37.590599 0.192600 0.466605 0.800609 0.375904 0.304500 -0.662800 1 0 1.000000 
0 37.590599 21.702902 0.192600 0.804379 0.460088 0.375890 0.035500 -0.662800 1 0 1.000000 
METALROOF002A
0 41.687000 24.068003 -17.093800 0.789313 0.554809 0.263004 0.000000 -1.000000 1 0 1.000000 
0 24.067999 41.687000 -17.093800 0.406171 0.875138 0.262981 0.293000 -1.000000 1 0 1.000000 
0 21.702898 37.590599 0.192600 0.466605 0.800609 0.375904 0.304500 -0.662800 1 0 1.000000 
METALROOF002A
0 24.067999 41.687000 -17.093800 0.406171 0.875138 0.262981 0.293000 -1.000000 1 0 1.000000 
0 -0.000002 43.405899 0.192600 0.003700 0.926645 0.375918 0.644200 -0.662800 1 0 1.000000 
0 21.702898 37.590599 0.192600 0.466605 0.800609 0.375904 0.304500 -0.662800 1 0 1.000000 
METALROOF002A
0 24.067999 41.687000 -17.093800 0.406171 0.875138 0.262981 0.293000 -1.000000 1 0 1.000000 
0 -0.000002 48.136002 -17.093800 -0.085798 0.960975 0.262993 0.655900 -1.000000 1 0 1.000000 
0 -0.000002 43.405899 0.192600 0.003700 0.926645 0.375918 0.644200 -0.662800 1 0 1.000000 
METALROOF002A
0 -0.000002 48.136002 -17.093800 -0.085798 0.960975 0.262993 0.655900 -1.000000 1 0 1.000000 
0 -21.702902 37.590599 0.192600 -0.460088 0.804379 0.375890 0.963600 -0.662800 1 0 1.000000 
0 -0.000002 43.405899 0.192600 0.003700 0.926645 0.375918 0.644200 -0.662800 1 0 1.000000 
METALROOF002A
0 -0.000002 48.136002 -17.093800 -0.085798 0.960975 0.262993 0.655900 -1.000000 1 0 1.000000 
0 -24.068003 41.687000 -17.093800 -0.554809 0.789313 0.263004 1.000000 -1.000000 1 0 1.000000 
0 -21.702902 37.590599 0.192600 -0.460088 0.804379 0.375890 0.963600 -0.662800 1 0 1.000000 
METALROOF002A
0 -0.000002 43.405899 0.192600 0.003700 0.926645 0.375918 0.644200 -0.662800 1 0 1.000000 
0 -21.702902 37.590599 0.192600 -0.460088 0.804379 0.375890 0.963600 -0.662800 1 0 1.000000 
0 -16.861002 29.204201 17.788900 -0.370494 0.664489 0.648990 0.873000 -0.319600 1 0 1.000000 
METALROOF002A
0 16.860998 29.204201 17.788900 0.390201 0.653101 0.649001 0.339300 -0.319600 1 0 1.000000 
0 -0.000001 16.791599 31.033800 0.033800 0.454104 0.890307 0.554400 -0.061200 1 0 1.000000 
0 8.395799 14.542000 31.033800 0.256300 0.376400 0.890300 0.407300 -0.061200 1 0 1.000000 
METALROOF002A
0 16.860998 29.204201 17.788900 0.390201 0.653101 0.649001 0.339300 -0.319600 1 0 1.000000 
0 -0.000001 33.722099 17.788900 0.011400 0.760702 0.649001 0.614400 -0.319600 1 0 1.000000 
0 -0.000001 16.791599 31.033800 0.033800 0.454104 0.890307 0.554400 -0.061200 1 0 1.000000 
METALROOF002A
0 21.702898 37.590599 0.192600 0.466605 0.800609 0.375904 0.304500 -0.662800 1 0 1.000000 
0 -0.000001 33.722099 17.788900 0.011400 0.760702 0.649001 0.614400 -0.319600 1 0 1.000000 
0 16.860998 29.204201 17.788900 0.390201 0.653101 0.649001 0.339300 -0.319600 1 0 1.000000 
METALROOF002A
0 21.702898 37.590599 0.192600 0.466605 0.800609 0.375904 0.304500 -0.662800 1 0 1.000000 
0 -0.000002 43.405899 0.192600 0.003700 0.926645 0.375918 0.644200 -0.662800 1 0 1.000000 
0 -0.000001 33.722099 17.788900 0.011400 0.760702 0.649001 0.614400 -0.319600 1 0 1.000000 
METALROOF002A
0 41.687000 24.068003 -17.093800 0.000000 0.000000 -1.000000 1.000000 -1.000000 1 0 1.000000 
0 48.136002 0.000002 -17.093800 0.000000 0.000000 -1.000000 0.655900 -1.000000 1 0 1.000000 
0 0.000000 0.000000 -17.093800 0.000000 0.000000 -1.000000 0.655900 -1.000000 1 0 1.000000 
METALROOF002A
0 48.136002 0.000002 -17.093800 0.000000 0.000000 -1.000000 0.655900 -1.000000 1 0 1.000000 
0 41.687000 -24.067999 -17.093800 0.000000 0.000000 -1.000000 0.293000 -1.000000 1 0 1.000000 
0 0.000000 0.000000 -17.093800 0.000000 0.000000 -1.000000 0.655900 -1.000000 1 0 1.000000 
METALROOF002A
0 41.687000 -24.067999 -17.093800 0.000000 0.000000 -1.000000 0.293000 -1.000000 1 0 1.000000 
0 24.068003 -41.687000 -17.093800 0.000000 0.000000 -1.000000 0.000000 -1.000000 1 0 1.000000 
0 0.000000 0.000000 -17.093800 0.000000 0.000000 -1.000000 0.655900 -1.000000 1 0 1.000000 
METALROOF002A
0 24.068003 -41.687000 -17.093800 0.000000 0.000000 -1.000000 1.000000 -1.000000 1 0 1.000000 
0 0.000002 -48.136002 -17.093800 0.000000 0.000000 -1.000000 0.655900 -1.000000 1 0 1.000000 
0 0.000000 0.000000 -17.093800 0.000000 0.000000 -1.000000 0.655900 -1.000000 1 0 1.000000 
METALROOF002A
0 0.000002 -48.136002 -17.093800 0.000000 0.000000 -1.000000 0.655900 -1.000000 1 0 1.000000 
0 -24.067999 -41.687000 -17.093800 0.000000 0.000000 -1.000000 0.293000 -1.000000 1 0 1.000000 
0 0.000000 0.000000 -17.093800 0.000000 0.000000 -1.000000 0.655900 -1.000000 1 0 1.000000 
METALROOF002A
0 -24.067999 -41.687000 -17.093800 0.000000 0.000000 -1.000000 0.293000 -1.000000 1 0 1.000000 
0 -41.687000 -24.068003 -17.093800 0.000000 0.000000 -1.000000 0.000000 -1.000000 1 0 1.000000 
0 0.000000 0.000000 -17.093800 0.000000 0.000000 -1.000000 0.655900 -1.000000 1 0 1.000000 
METALROOF002A
0 -41.687000 -24.068003 -17.093800 0.000000 0.000000 -1.000000 1.000000 -1.000000 1 0 1.000000 
0 -48.136002 -0.000002 -17.093800 0.000000 0.000000 -1.000000 0.655900 -1.000000 1 0 1.000000 
0 0.000000 0.000000 -17.093800 0.000000 0.000000 -1.000000 0.655900 -1.000000 1 0 1.000000 
METALROOF002A
0 -48.136002 -0.000002 -17.093800 0.000000 0.000000 -1.000000 0.655900 -1.000000 1 0 1.000000 
0 -41.687000 24.067999 -17.093800 0.000000 0.000000 -1.000000 0.293000 -1.000000 1 0 1.000000 
0 0.000000 0.000000 -17.093800 0.000000 0.000000 -1.000000 0.655900 -1.000000 1 0 1.000000 
METALROOF002A
0 -41.687000 24.067999 -17.093800 0.000000 0.000000 -1.000000 0.293000 -1.000000 1 0 1.000000 
0 -24.068003 41.687000 -17.093800 0.000000 0.000000 -1.000000 0.000000 -1.000000 1 0 1.000000 
0 0.000000 0.000000 -17.093800 0.000000 0.000000 -1.000000 0.655900 -1.000000 1 0 1.000000 
METALROOF002A
0 -24.068003 41.687000 -17.093800 0.000000 0.000000 -1.000000 1.000000 -1.000000 1 0 1.000000 
0 -0.000002 48.136002 -17.093800 0.000000 0.000000 -1.000000 0.655900 -1.000000 1 0 1.000000 
0 0.000000 0.000000 -17.093800 0.000000 0.000000 -1.000000 0.655900 -1.000000 1 0 1.000000 
METALROOF002A
0 -0.000002 48.136002 -17.093800 0.000000 0.000000 -1.000000 0.655900 -1.000000 1 0 1.000000 
0 24.067999 41.687000 -17.093800 0.000000 0.000000 -1.000000 0.293000 -1.000000 1 0 1.000000 
0 0.000000 0.000000 -17.093800 0.000000 0.000000 -1.000000 0.655900 -1.000000 1 0 1.000000 
METALROOF002A
0 24.067999 41.687000 -17.093800 0.000000 0.000000 -1.000000 0.293000 -1.000000 1 0 1.000000 
0 41.687000 24.068003 -17.093800 0.000000 0.000000 -1.000000 0.000000 -1.000000 1 0 1.000000 
0 0.000000 0.000000 -17.093800 0.000000 0.000000 -1.000000 0.655900 -1.000000 1 0 1.000000 
METALROOF002A
0 3.642300 -3.332500 89.699203 0.296202 -0.370102 0.880505 0.375000 -0.146000 1 0 1.000000 
0 5.151100 0.309800 89.699203 0.471189 -0.052299 0.880480 0.500000 -0.146000 1 0 1.000000 
0 -0.000000 0.309800 90.874802 0.000000 0.000000 1.000000 0.000000 -0.000000 1 0 1.000000 
METALROOF002A
0 6.563301 -6.253500 86.404900 0.538502 -0.563702 0.626303 0.375000 -0.289600 1 0 1.000000 
0 5.151100 0.309800 89.699203 0.471189 -0.052299 0.880480 0.500000 -0.146000 1 0 1.000000 
0 3.642300 -3.332500 89.699203 0.296202 -0.370102 0.880505 0.375000 -0.146000 1 0 1.000000 
METALROOF002A
0 6.563301 -6.253500 86.404900 0.538502 -0.563702 0.626303 0.375000 -0.289600 1 0 1.000000 
0 9.281900 0.309800 86.404900 0.779386 -0.017900 0.626288 0.500000 -0.289600 1 0 1.000000 
0 5.151100 0.309800 89.699203 0.471189 -0.052299 0.880480 0.500000 -0.146000 1 0 1.000000 
METALROOF002A
0 8.184300 -7.874499 81.644600 0.887882 -0.367793 0.276394 0.375000 -0.430300 1 0 1.000000 
0 9.281900 0.309800 86.404900 0.779386 -0.017900 0.626288 0.500000 -0.289600 1 0 1.000000 
0 6.563301 -6.253500 86.404900 0.538502 -0.563702 0.626303 0.375000 -0.289600 1 0 1.000000 
METALROOF002A
0 8.184300 -7.874499 81.644600 0.887882 -0.367793 0.276394 0.375000 -0.430300 1 0 1.000000 
0 11.574300 0.309801 81.644600 0.915016 -0.379007 0.138202 0.500000 -0.430300 1 0 1.000000 
0 9.281900 0.309800 86.404900 0.779386 -0.017900 0.626288 0.500000 -0.289600 1 0 1.000000 
METALROOF002A
0 8.184300 -7.874499 76.361099 0.915016 -0.379007 -0.138202 0.375000 -0.569700 1 0 1.000000 
0 11.574300 0.309801 81.644600 0.915016 -0.379007 0.138202 0.500000 -0.430300 1 0 1.000000 
0 8.184300 -7.874499 81.644600 0.887882 -0.367793 0.276394 0.375000 -0.430300 1 0 1.000000 
METALROOF002A
0 8.184300 -7.874499 76.361099 0.915016 -0.379007 -0.138202 0.375000 -0.569700 1 0 1.000000 
0 11.574300 0.309801 76.361099 0.887882 -0.367793 -0.276394 0.500000 -0.569700 1 0 1.000000 
0 11.574300 0.309801 81.644600 0.915016 -0.379007 0.138202 0.500000 -0.430300 1 0 1.000000 
METALROOF002A
0 6.563301 -6.253500 71.600800 0.563702 -0.538502 -0.626303 0.375000 -0.710400 1 0 1.000000 
0 11.574300 0.309801 76.361099 0.887882 -0.367793 -0.276394 0.500000 -0.569700 1 0 1.000000 
0 8.184300 -7.874499 76.361099 0.915016 -0.379007 -0.138202 0.375000 -0.569700 1 0 1.000000 
METALROOF002A
0 6.563301 -6.253500 71.600800 0.563702 -0.538502 -0.626303 0.375000 -0.710400 1 0 1.000000 
0 9.281900 0.309800 71.600800 0.779386 0.017900 -0.626288 0.500000 -0.710400 1 0 1.000000 
0 11.574300 0.309801 76.361099 0.887882 -0.367793 -0.276394 0.500000 -0.569700 1 0 1.000000 
METALROOF002A
0 3.642300 -3.332500 68.306503 0.370102 -0.296202 -0.880505 0.375000 -0.854000 1 0 1.000000 
0 9.281900 0.309800 71.600800 0.779386 0.017900 -0.626288 0.500000 -0.710400 1 0 1.000000 
0 6.563301 -6.253500 71.600800 0.563702 -0.538502 -0.626303 0.375000 -0.710400 1 0 1.000000 
METALROOF002A
0 0.000000 -11.264500 76.361099 0.379007 -0.915016 -0.138202 0.250000 -0.569700 1 0 1.000000 
0 8.184300 -7.874499 76.361099 0.367793 -0.887882 -0.276394 0.375000 -0.569700 1 0 1.000000 
0 8.184300 -7.874499 81.644600 0.379007 -0.915016 0.138202 0.375000 -0.430300 1 0 1.000000 
METALROOF002A
0 0.000000 -8.972100 71.600800 0.017900 -0.779386 -0.626288 0.250000 -0.710400 1 0 1.000000 
0 8.184300 -7.874499 76.361099 0.367793 -0.887882 -0.276394 0.375000 -0.569700 1 0 1.000000 
0 0.000000 -11.264500 76.361099 0.379007 -0.915016 -0.138202 0.250000 -0.569700 1 0 1.000000 
METALROOF002A
0 0.000000 -8.972100 71.600800 0.017900 -0.779386 -0.626288 0.250000 -0.710400 1 0 1.000000 
0 6.563301 -6.253500 71.600800 0.563702 -0.538502 -0.626303 0.375000 -0.710400 1 0 1.000000 
0 8.184300 -7.874499 76.361099 0.367793 -0.887882 -0.276394 0.375000 -0.569700 1 0 1.000000 
METALROOF002A
0 0.000000 -4.841200 68.306503 0.052299 -0.471189 -0.880480 0.250000 -0.854000 1 0 1.000000 
0 6.563301 -6.253500 71.600800 0.563702 -0.538502 -0.626303 0.375000 -0.710400 1 0 1.000000 
0 0.000000 -8.972100 71.600800 0.017900 -0.779386 -0.626288 0.250000 -0.710400 1 0 1.000000 
METALROOF002A
0 0.000000 -4.841200 68.306503 0.052299 -0.471189 -0.880480 0.250000 -0.854000 1 0 1.000000 
0 3.642300 -3.332500 68.306503 0.370102 -0.296202 -0.880505 0.375000 -0.854000 1 0 1.000000 
0 6.563301 -6.253500 71.600800 0.563702 -0.538502 -0.626303 0.375000 -0.710400 1 0 1.000000 
METALROOF002A
0 3.642300 -3.332500 68.306503 0.370102 -0.296202 -0.880505 0.375000 -0.854000 1 0 1.000000 
0 0.000000 -4.841200 68.306503 0.052299 -0.471189 -0.880480 0.250000 -0.854000 1 0 1.000000 
0 -0.000000 0.309800 67.130898 0.000000 0.000000 -1.000000 0.000000 -1.000000 1 0 1.000000 
METALROOF002A
0 5.151100 0.309800 68.306503 0.471189 0.052299 -0.880480 0.500000 -0.854000 1 0 1.000000 
0 3.642300 -3.332500 68.306503 0.370102 -0.296202 -0.880505 0.375000 -0.854000 1 0 1.000000 
0 -0.000000 0.309800 67.130898 0.000000 0.000000 -1.000000 0.000000 -1.000000 1 0 1.000000 
METALROOF002A
0 3.642300 -3.332500 68.306503 0.370102 -0.296202 -0.880505 0.375000 -0.854000 1 0 1.000000 
0 5.151100 0.309800 68.306503 0.471189 0.052299 -0.880480 0.500000 -0.854000 1 0 1.000000 
0 9.281900 0.309800 71.600800 0.779386 0.017900 -0.626288 0.500000 -0.710400 1 0 1.000000 
METALROOF002A
0 5.151100 0.309800 68.306503 0.471189 0.052299 -0.880480 0.500000 -0.854000 1 0 1.000000 
0 6.563300 6.873100 71.600800 0.538502 0.563702 -0.626303 0.625000 -0.710400 1 0 1.000000 
0 9.281900 0.309800 71.600800 0.779386 0.017900 -0.626288 0.500000 -0.710400 1 0 1.000000 
METALROOF002A
0 9.281900 0.309800 71.600800 0.779386 0.017900 -0.626288 0.500000 -0.710400 1 0 1.000000 
0 6.563300 6.873100 71.600800 0.538502 0.563702 -0.626303 0.625000 -0.710400 1 0 1.000000 
0 8.184300 8.494100 76.361099 0.887882 0.367793 -0.276394 0.625000 -0.569700 1 0 1.000000 
METALROOF002A
0 9.281900 0.309800 71.600800 0.779386 0.017900 -0.626288 0.500000 -0.710400 1 0 1.000000 
0 8.184300 8.494100 76.361099 0.887882 0.367793 -0.276394 0.625000 -0.569700 1 0 1.000000 
0 11.574300 0.309801 76.361099 0.915016 0.379007 -0.138202 0.500000 -0.569700 1 0 1.000000 
METALROOF002A
0 11.574300 0.309801 76.361099 0.915016 0.379007 -0.138202 0.500000 -0.569700 1 0 1.000000 
0 8.184300 8.494100 76.361099 0.887882 0.367793 -0.276394 0.625000 -0.569700 1 0 1.000000 
0 8.184300 8.494100 81.644600 0.915016 0.379007 0.138202 0.625000 -0.430300 1 0 1.000000 
METALROOF002A
0 11.574300 0.309801 76.361099 0.915016 0.379007 -0.138202 0.500000 -0.569700 1 0 1.000000 
0 8.184300 8.494100 81.644600 0.915016 0.379007 0.138202 0.625000 -0.430300 1 0 1.000000 
0 11.574300 0.309801 81.644600 0.887882 0.367793 0.276394 0.500000 -0.430300 1 0 1.000000 
METALROOF002A
0 11.574300 0.309801 81.644600 0.887882 0.367793 0.276394 0.500000 -0.430300 1 0 1.000000 
0 8.184300 8.494100 81.644600 0.915016 0.379007 0.138202 0.625000 -0.430300 1 0 1.000000 
0 6.563300 6.873100 86.404900 0.563702 0.538502 0.626303 0.625000 -0.289600 1 0 1.000000 
METALROOF002A
0 11.574300 0.309801 81.644600 0.887882 0.367793 0.276394 0.500000 -0.430300 1 0 1.000000 
0 6.563300 6.873100 86.404900 0.563702 0.538502 0.626303 0.625000 -0.289600 1 0 1.000000 
0 9.281900 0.309800 86.404900 0.779386 -0.017900 0.626288 0.500000 -0.289600 1 0 1.000000 
METALROOF002A
0 9.281900 0.309800 86.404900 0.779386 -0.017900 0.626288 0.500000 -0.289600 1 0 1.000000 
0 6.563300 6.873100 86.404900 0.563702 0.538502 0.626303 0.625000 -0.289600 1 0 1.000000 
0 3.642300 3.952200 89.699203 0.370102 0.296202 0.880505 0.625000 -0.146000 1 0 1.000000 
METALROOF002A
0 9.281900 0.309800 86.404900 0.779386 -0.017900 0.626288 0.500000 -0.289600 1 0 1.000000 
0 3.642300 3.952200 89.699203 0.370102 0.296202 0.880505 0.625000 -0.146000 1 0 1.000000 
0 5.151100 0.309800 89.699203 0.471189 -0.052299 0.880480 0.500000 -0.146000 1 0 1.000000 
METALROOF002A
0 5.151100 0.309800 89.699203 0.471189 -0.052299 0.880480 0.500000 -0.146000 1 0 1.000000 
0 3.642300 3.952200 89.699203 0.370102 0.296202 0.880505 0.625000 -0.146000 1 0 1.000000 
0 -0.000000 0.309800 90.874802 0.000000 0.000000 1.000000 1.000000 -0.000000 1 0 1.000000 
METALROOF002A
0 6.563300 6.873100 86.404900 0.563702 0.538502 0.626303 0.625000 -0.289600 1 0 1.000000 
0 -0.000000 5.460900 89.699203 0.052299 0.471189 0.880480 0.750000 -0.146000 1 0 1.000000 
0 3.642300 3.952200 89.699203 0.370102 0.296202 0.880505 0.625000 -0.146000 1 0 1.000000 
METALROOF002A
0 6.563300 6.873100 86.404900 0.563702 0.538502 0.626303 0.625000 -0.289600 1 0 1.000000 
0 -0.000000 9.591700 86.404900 0.017900 0.779386 0.626288 0.750000 -0.289600 1 0 1.000000 
0 -0.000000 5.460900 89.699203 0.052299 0.471189 0.880480 0.750000 -0.146000 1 0 1.000000 
METALROOF002A
0 8.184300 8.494100 81.644600 0.367793 0.887882 0.276394 0.625000 -0.430300 1 0 1.000000 
0 -0.000000 9.591700 86.404900 0.017900 0.779386 0.626288 0.750000 -0.289600 1 0 1.000000 
0 6.563300 6.873100 86.404900 0.563702 0.538502 0.626303 0.625000 -0.289600 1 0 1.000000 
METALROOF002A
0 8.184300 8.494100 81.644600 0.367793 0.887882 0.276394 0.625000 -0.430300 1 0 1.000000 
0 -0.000001 11.884200 81.644600 0.379007 0.915016 0.138202 0.750000 -0.430300 1 0 1.000000 
0 -0.000000 9.591700 86.404900 0.017900 0.779386 0.626288 0.750000 -0.289600 1 0 1.000000 
METALROOF002A
0 8.184300 8.494100 76.361099 0.379007 0.915016 -0.138202 0.625000 -0.569700 1 0 1.000000 
0 -0.000001 11.884200 81.644600 0.379007 0.915016 0.138202 0.750000 -0.430300 1 0 1.000000 
0 8.184300 8.494100 81.644600 0.367793 0.887882 0.276394 0.625000 -0.430300 1 0 1.000000 
METALROOF002A
0 8.184300 8.494100 76.361099 0.379007 0.915016 -0.138202 0.625000 -0.569700 1 0 1.000000 
0 -0.000001 11.884200 76.361099 0.367793 0.887882 -0.276394 0.750000 -0.569700 1 0 1.000000 
0 -0.000001 11.884200 81.644600 0.379007 0.915016 0.138202 0.750000 -0.430300 1 0 1.000000 
METALROOF002A
0 6.563300 6.873100 71.600800 0.538502 0.563702 -0.626303 0.625000 -0.710400 1 0 1.000000 
0 -0.000001 11.884200 76.361099 0.367793 0.887882 -0.276394 0.750000 -0.569700 1 0 1.000000 
0 8.184300 8.494100 76.361099 0.379007 0.915016 -0.138202 0.625000 -0.569700 1 0 1.000000 
METALROOF002A
0 6.563300 6.873100 71.600800 0.538502 0.563702 -0.626303 0.625000 -0.710400 1 0 1.000000 
0 -0.000000 9.591700 71.600800 -0.017900 0.779386 -0.626288 0.750000 -0.710400 1 0 1.000000 
0 -0.000001 11.884200 76.361099 0.367793 0.887882 -0.276394 0.750000 -0.569700 1 0 1.000000 
METALROOF002A
0 3.642300 3.952200 68.306503 0.296202 0.370102 -0.880505 0.625000 -0.854000 1 0 1.000000 
0 -0.000000 9.591700 71.600800 -0.017900 0.779386 -0.626288 0.750000 -0.710400 1 0 1.000000 
0 6.563300 6.873100 71.600800 0.538502 0.563702 -0.626303 0.625000 -0.710400 1 0 1.000000 
METALROOF002A
0 3.642300 3.952200 68.306503 0.296202 0.370102 -0.880505 0.625000 -0.854000 1 0 1.000000 
0 -0.000000 5.460900 68.306503 -0.052299 0.471189 -0.880480 0.750000 -0.854000 1 0 1.000000 
0 -0.000000 9.591700 71.600800 -0.017900 0.779386 -0.626288 0.750000 -0.710400 1 0 1.000000 
METALROOF002A
0 -0.000000 5.460900 68.306503 -0.052299 0.471189 -0.880480 0.750000 -0.854000 1 0 1.000000 
0 3.642300 3.952200 68.306503 0.296202 0.370102 -0.880505 0.625000 -0.854000 1 0 1.000000 
0 -0.000000 0.309800 67.130898 0.000000 0.000000 -1.000000 1.000000 -1.000000 1 0 1.000000 
METALROOF002A
0 3.642300 3.952200 68.306503 0.296202 0.370102 -0.880505 0.625000 -0.854000 1 0 1.000000 
0 5.151100 0.309800 68.306503 0.471189 0.052299 -0.880480 0.500000 -0.854000 1 0 1.000000 
0 -0.000000 0.309800 67.130898 0.000000 0.000000 -1.000000 1.000000 -1.000000 1 0 1.000000 
METALROOF002A
0 5.151100 0.309800 68.306503 0.471189 0.052299 -0.880480 0.500000 -0.854000 1 0 1.000000 
0 3.642300 3.952200 68.306503 0.296202 0.370102 -0.880505 0.625000 -0.854000 1 0 1.000000 
0 6.563300 6.873100 71.600800 0.538502 0.563702 -0.626303 0.625000 -0.710400 1 0 1.000000 
METALROOF002A
0 3.642300 3.952200 89.699203 0.370102 0.296202 0.880505 0.625000 -0.146000 1 0 1.000000 
0 -0.000000 5.460900 89.699203 0.052299 0.471189 0.880480 0.750000 -0.146000 1 0 1.000000 
0 -0.000000 0.309800 90.874802 0.000000 0.000000 1.000000 1.000000 -0.000000 1 0 1.000000 
METALROOF002A
0 -0.000000 5.460900 89.699203 0.052299 0.471189 0.880480 0.750000 -0.146000 1 0 1.000000 
0 -3.642400 3.952200 89.699203 -0.296202 0.370102 0.880505 0.875000 -0.146000 1 0 1.000000 
0 -0.000000 0.309800 90.874802 0.000000 0.000000 1.000000 1.000000 -0.000000 1 0 1.000000 
METALROOF002A
0 -0.000000 9.591700 86.404900 0.017900 0.779386 0.626288 0.750000 -0.289600 1 0 1.000000 
0 -3.642400 3.952200 89.699203 -0.296202 0.370102 0.880505 0.875000 -0.146000 1 0 1.000000 
0 -0.000000 5.460900 89.699203 0.052299 0.471189 0.880480 0.750000 -0.146000 1 0 1.000000 
METALROOF002A
0 -0.000000 9.591700 86.404900 0.017900 0.779386 0.626288 0.750000 -0.289600 1 0 1.000000 
0 -6.563301 6.873099 86.404900 -0.538502 0.563702 0.626303 0.875000 -0.289600 1 0 1.000000 
0 -3.642400 3.952200 89.699203 -0.296202 0.370102 0.880505 0.875000 -0.146000 1 0 1.000000 
METALROOF002A
0 -0.000001 11.884200 81.644600 -0.367793 0.887882 0.276394 0.750000 -0.430300 1 0 1.000000 
0 -6.563301 6.873099 86.404900 -0.538502 0.563702 0.626303 0.875000 -0.289600 1 0 1.000000 
0 -0.000000 9.591700 86.404900 0.017900 0.779386 0.626288 0.750000 -0.289600 1 0 1.000000 
METALROOF002A
0 -0.000001 11.884200 81.644600 -0.367793 0.887882 0.276394 0.750000 -0.430300 1 0 1.000000 
0 -8.184300 8.494100 81.644600 -0.379007 0.915016 0.138202 0.875000 -0.430300 1 0 1.000000 
0 -6.563301 6.873099 86.404900 -0.538502 0.563702 0.626303 0.875000 -0.289600 1 0 1.000000 
METALROOF002A
0 -0.000001 11.884200 76.361099 -0.379007 0.915016 -0.138202 0.750000 -0.569700 1 0 1.000000 
0 -8.184300 8.494100 81.644600 -0.379007 0.915016 0.138202 0.875000 -0.430300 1 0 1.000000 
0 -0.000001 11.884200 81.644600 -0.367793 0.887882 0.276394 0.750000 -0.430300 1 0 1.000000 
METALROOF002A
0 -0.000001 11.884200 76.361099 -0.379007 0.915016 -0.138202 0.750000 -0.569700 1 0 1.000000 
0 -8.184300 8.494100 76.361099 -0.367793 0.887882 -0.276394 0.875000 -0.569700 1 0 1.000000 
0 -8.184300 8.494100 81.644600 -0.379007 0.915016 0.138202 0.875000 -0.430300 1 0 1.000000 
METALROOF002A
0 -0.000000 9.591700 71.600800 -0.017900 0.779386 -0.626288 0.750000 -0.710400 1 0 1.000000 
0 -8.184300 8.494100 76.361099 -0.367793 0.887882 -0.276394 0.875000 -0.569700 1 0 1.000000 
0 -0.000001 11.884200 76.361099 -0.379007 0.915016 -0.138202 0.750000 -0.569700 1 0 1.000000 
METALROOF002A
0 -0.000000 9.591700 71.600800 -0.017900 0.779386 -0.626288 0.750000 -0.710400 1 0 1.000000 
0 -6.563301 6.873099 71.600800 -0.563702 0.538502 -0.626303 0.875000 -0.710400 1 0 1.000000 
0 -8.184300 8.494100 76.361099 -0.367793 0.887882 -0.276394 0.875000 -0.569700 1 0 1.000000 
METALROOF002A
0 -0.000000 5.460900 68.306503 -0.052299 0.471189 -0.880480 0.750000 -0.854000 1 0 1.000000 
0 -6.563301 6.873099 71.600800 -0.563702 0.538502 -0.626303 0.875000 -0.710400 1 0 1.000000 
0 -0.000000 9.591700 71.600800 -0.017900 0.779386 -0.626288 0.750000 -0.710400 1 0 1.000000 
METALROOF002A
0 -0.000000 5.460900 68.306503 -0.052299 0.471189 -0.880480 0.750000 -0.854000 1 0 1.000000 
0 -3.642400 3.952200 68.306503 -0.370102 0.296202 -0.880505 0.875000 -0.854000 1 0 1.000000 
0 -6.563301 6.873099 71.600800 -0.563702 0.538502 -0.626303 0.875000 -0.710400 1 0 1.000000 
METALROOF002A
0 -3.642400 3.952200 68.306503 -0.370102 0.296202 -0.880505 0.875000 -0.854000 1 0 1.000000 
0 -0.000000 5.460900 68.306503 -0.052299 0.471189 -0.880480 0.750000 -0.854000 1 0 1.000000 
0 -0.000000 0.309800 67.130898 0.000000 0.000000 -1.000000 1.000000 -1.000000 1 0 1.000000 
METALROOF002A
0 -5.151100 0.309800 68.306503 -0.471189 -0.052299 -0.880480 1.000000 -0.854000 1 0 1.000000 
0 -3.642400 3.952200 68.306503 -0.370102 0.296202 -0.880505 0.875000 -0.854000 1 0 1.000000 
0 -0.000000 0.309800 67.130898 0.000000 0.000000 -1.000000 1.000000 -1.000000 1 0 1.000000 
METALROOF002A
0 -3.642400 3.952200 68.306503 -0.370102 0.296202 -0.880505 0.875000 -0.854000 1 0 1.000000 
0 -5.151100 0.309800 68.306503 -0.471189 -0.052299 -0.880480 1.000000 -0.854000 1 0 1.000000 
0 -9.281900 0.309800 71.600800 -0.779386 -0.017900 -0.626288 1.000000 -0.710400 1 0 1.000000 
METALROOF002A
0 -3.642400 3.952200 68.306503 -0.370102 0.296202 -0.880505 0.875000 -0.854000 1 0 1.000000 
0 -9.281900 0.309800 71.600800 -0.779386 -0.017900 -0.626288 1.000000 -0.710400 1 0 1.000000 
0 -6.563301 6.873099 71.600800 -0.563702 0.538502 -0.626303 0.875000 -0.710400 1 0 1.000000 
METALROOF002A
0 -6.563301 6.873099 71.600800 -0.563702 0.538502 -0.626303 0.875000 -0.710400 1 0 1.000000 
0 -9.281900 0.309800 71.600800 -0.779386 -0.017900 -0.626288 1.000000 -0.710400 1 0 1.000000 
0 -11.574300 0.309799 76.361099 -0.887882 0.367793 -0.276394 1.000000 -0.569700 1 0 1.000000 
METALROOF002A
0 -6.563301 6.873099 71.600800 -0.563702 0.538502 -0.626303 0.875000 -0.710400 1 0 1.000000 
0 -11.574300 0.309799 76.361099 -0.887882 0.367793 -0.276394 1.000000 -0.569700 1 0 1.000000 
0 -8.184300 8.494100 76.361099 -0.915016 0.379007 -0.138202 0.875000 -0.569700 1 0 1.000000 
METALROOF002A
0 -8.184300 8.494100 76.361099 -0.915016 0.379007 -0.138202 0.875000 -0.569700 1 0 1.000000 
0 -11.574300 0.309799 76.361099 -0.887882 0.367793 -0.276394 1.000000 -0.569700 1 0 1.000000 
0 -11.574300 0.309799 81.644600 -0.915016 0.379007 0.138202 1.000000 -0.430300 1 0 1.000000 
METALROOF002A
0 -8.184300 8.494100 76.361099 -0.915016 0.379007 -0.138202 0.875000 -0.569700 1 0 1.000000 
0 -11.574300 0.309799 81.644600 -0.915016 0.379007 0.138202 1.000000 -0.430300 1 0 1.000000 
0 -8.184300 8.494100 81.644600 -0.887882 0.367793 0.276394 0.875000 -0.430300 1 0 1.000000 
METALROOF002A
0 -8.184300 8.494100 81.644600 -0.887882 0.367793 0.276394 0.875000 -0.430300 1 0 1.000000 
0 -11.574300 0.309799 81.644600 -0.915016 0.379007 0.138202 1.000000 -0.430300 1 0 1.000000 
0 -9.281900 0.309800 86.404900 -0.779386 0.017900 0.626288 1.000000 -0.289600 1 0 1.000000 
METALROOF002A
0 -8.184300 8.494100 81.644600 -0.887882 0.367793 0.276394 0.875000 -0.430300 1 0 1.000000 
0 -9.281900 0.309800 86.404900 -0.779386 0.017900 0.626288 1.000000 -0.289600 1 0 1.000000 
0 -6.563301 6.873099 86.404900 -0.538502 0.563702 0.626303 0.875000 -0.289600 1 0 1.000000 
METALROOF002A
0 -6.563301 6.873099 86.404900 -0.538502 0.563702 0.626303 0.875000 -0.289600 1 0 1.000000 
0 -9.281900 0.309800 86.404900 -0.779386 0.017900 0.626288 1.000000 -0.289600 1 0 1.000000 
0 -5.151100 0.309800 89.699203 -0.471189 0.052299 0.880480 1.000000 -0.146000 1 0 1.000000 
METALROOF002A
0 -6.563301 6.873099 86.404900 -0.538502 0.563702 0.626303 0.875000 -0.289600 1 0 1.000000 
0 -5.151100 0.309800 89.699203 -0.471189 0.052299 0.880480 1.000000 -0.146000 1 0 1.000000 
0 -3.642400 3.952200 89.699203 -0.296202 0.370102 0.880505 0.875000 -0.146000 1 0 1.000000 
METALROOF002A
0 -3.642400 3.952200 89.699203 -0.296202 0.370102 0.880505 0.875000 -0.146000 1 0 1.000000 
0 -5.151100 0.309800 89.699203 -0.471189 0.052299 0.880480 1.000000 -0.146000 1 0 1.000000 
0 -0.000000 0.309800 90.874802 0.000000 0.000000 1.000000 1.000000 -0.000000 1 0 1.000000 
METALROOF002A
0 -5.151100 0.309800 68.306503 -0.471189 -0.052299 -0.880480 0.000000 -0.854000 1 0 1.000000 
0 -3.642400 -3.332500 68.306503 -0.296202 -0.370102 -0.880505 0.125000 -0.854000 1 0 1.000000 
0 -6.563300 -6.253500 71.600800 -0.538502 -0.563702 -0.626303 0.125000 -0.710400 1 0 1.000000 
METALROOF002A
0 -5.151100 0.309800 68.306503 -0.471189 -0.052299 -0.880480 0.000000 -0.854000 1 0 1.000000 
0 -6.563300 -6.253500 71.600800 -0.538502 -0.563702 -0.626303 0.125000 -0.710400 1 0 1.000000 
0 -9.281900 0.309800 71.600800 -0.779386 -0.017900 -0.626288 0.000000 -0.710400 1 0 1.000000 
METALROOF002A
0 -9.281900 0.309800 71.600800 -0.779386 -0.017900 -0.626288 0.000000 -0.710400 1 0 1.000000 
0 -6.563300 -6.253500 71.600800 -0.538502 -0.563702 -0.626303 0.125000 -0.710400 1 0 1.000000 
0 -8.184300 -7.874500 76.361099 -0.887882 -0.367793 -0.276394 0.125000 -0.569700 1 0 1.000000 
METALROOF002A
0 -9.281900 0.309800 71.600800 -0.779386 -0.017900 -0.626288 0.000000 -0.710400 1 0 1.000000 
0 -8.184300 -7.874500 76.361099 -0.887882 -0.367793 -0.276394 0.125000 -0.569700 1 0 1.000000 
0 -11.574300 0.309799 76.361099 -0.915016 -0.379007 -0.138202 0.000000 -0.569700 1 0 1.000000 
METALROOF002A
0 -11.574300 0.309799 76.361099 -0.915016 -0.379007 -0.138202 0.000000 -0.569700 1 0 1.000000 
0 -8.184300 -7.874500 76.361099 -0.887882 -0.367793 -0.276394 0.125000 -0.569700 1 0 1.000000 
0 -8.184300 -7.874500 81.644600 -0.915016 -0.379007 0.138202 0.125000 -0.430300 1 0 1.000000 
METALROOF002A
0 -11.574300 0.309799 76.361099 -0.915016 -0.379007 -0.138202 0.000000 -0.569700 1 0 1.000000 
0 -8.184300 -7.874500 81.644600 -0.915016 -0.379007 0.138202 0.125000 -0.430300 1 0 1.000000 
0 -11.574300 0.309799 81.644600 -0.887882 -0.367793 0.276394 0.000000 -0.430300 1 0 1.000000 
METALROOF002A
0 -11.574300 0.309799 81.644600 -0.887882 -0.367793 0.276394 0.000000 -0.430300 1 0 1.000000 
0 -8.184300 -7.874500 81.644600 -0.915016 -0.379007 0.138202 0.125000 -0.430300 1 0 1.000000 
0 -6.563300 -6.253500 86.404900 -0.563702 -0.538502 0.626303 0.125000 -0.289600 1 0 1.000000 
METALROOF002A
0 -11.574300 0.309799 81.644600 -0.887882 -0.367793 0.276394 0.000000 -0.430300 1 0 1.000000 
0 -6.563300 -6.253500 86.404900 -0.563702 -0.538502 0.626303 0.125000 -0.289600 1 0 1.000000 
0 -9.281900 0.309800 86.404900 -0.779386 0.017900 0.626288 0.000000 -0.289600 1 0 1.000000 
METALROOF002A
0 -9.281900 0.309800 86.404900 -0.779386 0.017900 0.626288 0.000000 -0.289600 1 0 1.000000 
0 -6.563300 -6.253500 86.404900 -0.563702 -0.538502 0.626303 0.125000 -0.289600 1 0 1.000000 
0 -3.642400 -3.332500 89.699203 -0.370102 -0.296202 0.880505 0.125000 -0.146000 1 0 1.000000 
METALROOF002A
0 -9.281900 0.309800 86.404900 -0.779386 0.017900 0.626288 0.000000 -0.289600 1 0 1.000000 
0 -3.642400 -3.332500 89.699203 -0.370102 -0.296202 0.880505 0.125000 -0.146000 1 0 1.000000 
0 -5.151100 0.309800 89.699203 -0.471189 0.052299 0.880480 0.000000 -0.146000 1 0 1.000000 
METALROOF002A
0 -5.151100 0.309800 89.699203 -0.471189 0.052299 0.880480 0.000000 -0.146000 1 0 1.000000 
0 -3.642400 -3.332500 89.699203 -0.370102 -0.296202 0.880505 0.125000 -0.146000 1 0 1.000000 
0 -0.000000 0.309800 90.874802 0.000000 0.000000 1.000000 0.000000 -0.000000 1 0 1.000000 
METALROOF002A
0 -3.642400 -3.332500 89.699203 -0.370102 -0.296202 0.880505 0.125000 -0.146000 1 0 1.000000 
0 0.000000 -4.841200 89.699203 -0.052299 -0.471189 0.880480 0.250000 -0.146000 1 0 1.000000 
0 -0.000000 0.309800 90.874802 0.000000 0.000000 1.000000 0.000000 -0.000000 1 0 1.000000 
METALROOF002A
0 0.000000 -4.841200 89.699203 -0.052299 -0.471189 0.880480 0.250000 -0.146000 1 0 1.000000 
0 3.642300 -3.332500 89.699203 0.296202 -0.370102 0.880505 0.375000 -0.146000 1 0 1.000000 
0 -0.000000 0.309800 90.874802 0.000000 0.000000 1.000000 0.000000 -0.000000 1 0 1.000000 
METALROOF002A
0 0.000000 -8.972100 86.404900 -0.017900 -0.779386 0.626288 0.250000 -0.289600 1 0 1.000000 
0 3.642300 -3.332500 89.699203 0.296202 -0.370102 0.880505 0.375000 -0.146000 1 0 1.000000 
0 0.000000 -4.841200 89.699203 -0.052299 -0.471189 0.880480 0.250000 -0.146000 1 0 1.000000 
METALROOF002A
0 0.000000 -8.972100 86.404900 -0.017900 -0.779386 0.626288 0.250000 -0.289600 1 0 1.000000 
0 6.563301 -6.253500 86.404900 0.538502 -0.563702 0.626303 0.375000 -0.289600 1 0 1.000000 
0 3.642300 -3.332500 89.699203 0.296202 -0.370102 0.880505 0.375000 -0.146000 1 0 1.000000 
METALROOF002A
0 0.000000 -11.264500 81.644600 0.367793 -0.887882 0.276394 0.250000 -0.430300 1 0 1.000000 
0 6.563301 -6.253500 86.404900 0.538502 -0.563702 0.626303 0.375000 -0.289600 1 0 1.000000 
0 0.000000 -8.972100 86.404900 -0.017900 -0.779386 0.626288 0.250000 -0.289600 1 0 1.000000 
METALROOF002A
0 0.000000 -11.264500 81.644600 0.367793 -0.887882 0.276394 0.250000 -0.430300 1 0 1.000000 
0 8.184300 -7.874499 81.644600 0.379007 -0.915016 0.138202 0.375000 -0.430300 1 0 1.000000 
0 6.563301 -6.253500 86.404900 0.538502 -0.563702 0.626303 0.375000 -0.289600 1 0 1.000000 
METALROOF002A
0 0.000000 -11.264500 76.361099 0.379007 -0.915016 -0.138202 0.250000 -0.569700 1 0 1.000000 
0 8.184300 -7.874499 81.644600 0.379007 -0.915016 0.138202 0.375000 -0.430300 1 0 1.000000 
0 0.000000 -11.264500 81.644600 0.367793 -0.887882 0.276394 0.250000 -0.430300 1 0 1.000000 
METALROOF002A
0 -6.563300 -6.253500 86.404900 -0.563702 -0.538502 0.626303 0.125000 -0.289600 1 0 1.000000 
0 0.000000 -4.841200 89.699203 -0.052299 -0.471189 0.880480 0.250000 -0.146000 1 0 1.000000 
0 -3.642400 -3.332500 89.699203 -0.370102 -0.296202 0.880505 0.125000 -0.146000 1 0 1.000000 
METALROOF002A
0 -6.563300 -6.253500 86.404900 -0.563702 -0.538502 0.626303 0.125000 -0.289600 1 0 1.000000 
0 0.000000 -8.972100 86.404900 -0.017900 -0.779386 0.626288 0.250000 -0.289600 1 0 1.000000 
0 0.000000 -4.841200 89.699203 -0.052299 -0.471189 0.880480 0.250000 -0.146000 1 0 1.000000 
METALROOF002A
0 -8.184300 -7.874500 81.644600 -0.367793 -0.887882 0.276394 0.125000 -0.430300 1 0 1.000000 
0 0.000000 -8.972100 86.404900 -0.017900 -0.779386 0.626288 0.250000 -0.289600 1 0 1.000000 
0 -6.563300 -6.253500 86.404900 -0.563702 -0.538502 0.626303 0.125000 -0.289600 1 0 1.000000 
METALROOF002A
0 -8.184300 -7.874500 81.644600 -0.367793 -0.887882 0.276394 0.125000 -0.430300 1 0 1.000000 
0 0.000000 -11.264500 81.644600 -0.379007 -0.915016 0.138202 0.250000 -0.430300 1 0 1.000000 
0 0.000000 -8.972100 86.404900 -0.017900 -0.779386 0.626288 0.250000 -0.289600 1 0 1.000000 
METALROOF002A
0 -8.184300 -7.874500 76.361099 -0.379007 -0.915016 -0.138202 0.125000 -0.569700 1 0 1.000000 
0 0.000000 -11.264500 81.644600 -0.379007 -0.915016 0.138202 0.250000 -0.430300 1 0 1.000000 
0 -8.184300 -7.874500 81.644600 -0.367793 -0.887882 0.276394 0.125000 -0.430300 1 0 1.000000 
METALROOF002A
0 -8.184300 -7.874500 76.361099 -0.379007 -0.915016 -0.138202 0.125000 -0.569700 1 0 1.000000 
0 0.000000 -11.264500 76.361099 -0.367793 -0.887882 -0.276394 0.250000 -0.569700 1 0 1.000000 
0 0.000000 -11.264500 81.644600 -0.379007 -0.915016 0.138202 0.250000 -0.430300 1 0 1.000000 
METALROOF002A
0 -6.563300 -6.253500 71.600800 -0.538502 -0.563702 -0.626303 0.125000 -0.710400 1 0 1.000000 
0 0.000000 -11.264500 76.361099 -0.367793 -0.887882 -0.276394 0.250000 -0.569700 1 0 1.000000 
0 -8.184300 -7.874500 76.361099 -0.379007 -0.915016 -0.138202 0.125000 -0.569700 1 0 1.000000 
METALROOF002A
0 -6.563300 -6.253500 71.600800 -0.538502 -0.563702 -0.626303 0.125000 -0.710400 1 0 1.000000 
0 0.000000 -8.972100 71.600800 0.017900 -0.779386 -0.626288 0.250000 -0.710400 1 0 1.000000 
0 0.000000 -11.264500 76.361099 -0.367793 -0.887882 -0.276394 0.250000 -0.569700 1 0 1.000000 
METALROOF002A
0 -3.642400 -3.332500 68.306503 -0.296202 -0.370102 -0.880505 0.125000 -0.854000 1 0 1.000000 
0 0.000000 -8.972100 71.600800 0.017900 -0.779386 -0.626288 0.250000 -0.710400 1 0 1.000000 
0 -6.563300 -6.253500 71.600800 -0.538502 -0.563702 -0.626303 0.125000 -0.710400 1 0 1.000000 
METALROOF002A
0 -3.642400 -3.332500 68.306503 -0.296202 -0.370102 -0.880505 0.125000 -0.854000 1 0 1.000000 
0 0.000000 -4.841200 68.306503 0.052299 -0.471189 -0.880480 0.250000 -0.854000 1 0 1.000000 
0 0.000000 -8.972100 71.600800 0.017900 -0.779386 -0.626288 0.250000 -0.710400 1 0 1.000000 
METALROOF002A
0 0.000000 -4.841200 68.306503 0.052299 -0.471189 -0.880480 0.250000 -0.854000 1 0 1.000000 
0 -3.642400 -3.332500 68.306503 -0.296202 -0.370102 -0.880505 0.125000 -0.854000 1 0 1.000000 
0 -0.000000 0.309800 67.130898 0.000000 0.000000 -1.000000 0.000000 -1.000000 1 0 1.000000 
METALROOF002A
0 -3.642400 -3.332500 68.306503 -0.296202 -0.370102 -0.880505 0.125000 -0.854000 1 0 1.000000 
0 -5.151100 0.309800 68.306503 -0.471189 -0.052299 -0.880480 0.000000 -0.854000 1 0 1.000000 
0 -0.000000 0.309800 67.130898 0.000000 0.000000 -1.000000 0.000000 -1.000000 1 0 1.000000 
METALROOF002A
0 -4.000000 -4.000000 31.367201 0.000000 -0.999775 0.021199 0.414600 -0.414600 1 0 1.000000 
0 4.000000 -4.000000 31.367201 0.000000 -0.999775 0.021199 0.414600 -0.585400 1 0 1.000000 
0 -0.247700 -0.066300 217.060501 0.000000 -0.999775 0.021199 0.498600 -0.494700 1 0 1.000000 
METALROOF002A
0 4.000000 -4.000000 31.367201 0.999738 0.000000 0.022901 0.414600 -0.585400 1 0 1.000000 
0 4.000000 4.000000 31.367201 0.999738 0.000000 0.022901 0.585400 -0.585400 1 0 1.000000 
0 -0.247700 -0.066300 217.060501 0.999738 0.000000 0.022901 0.498600 -0.494700 1 0 1.000000 
METALROOF002A
0 -4.000000 4.000000 31.367201 -0.000000 0.999760 0.021899 0.585400 -0.414600 1 0 1.000000 
0 -0.247700 -0.066300 217.060501 -0.000000 0.999760 0.021899 0.498600 -0.494700 1 0 1.000000 
0 4.000000 4.000000 31.367201 -0.000000 0.999760 0.021899 0.585400 -0.585400 1 0 1.000000 
end
