version 1
nodes
  0 "static_prop" -1
end
skeleton
time 0
0 0.000000 0.000000 0.000000 0.000000 0.000000 0.000000
end
triangles
treebark01
0 -7.920500 4.572899 0.000000 -0.944892 0.327297 0.007500 0.256100 -0.989800 1 0 1.000000 
0 -2.834300 -1.636400 768.000000 -0.944892 -0.327297 0.007500 0.296000 3.010200 1 0 1.000000 
0 -2.834300 1.636400 768.000000 -0.755922 0.654619 0.007500 0.256100 3.010200 1 0 1.000000 
treebark01
0 -7.920500 4.572899 0.000000 -0.944892 0.327297 0.007500 0.256100 -0.989800 1 0 1.000000 
0 -7.920500 -4.572900 0.000000 -0.755922 -0.654619 0.007500 0.296000 -0.989800 1 0 1.000000 
0 -2.834300 -1.636400 768.000000 -0.944892 -0.327297 0.007500 0.296000 3.010200 1 0 1.000000 
treebark01
0 -7.920500 -4.572900 0.000000 -0.755922 -0.654619 0.007500 0.296000 -0.989800 1 0 1.000000 
0 0.000000 -3.272700 768.000000 -0.188990 -0.981950 0.007500 0.335800 3.010200 1 0 1.000000 
0 -2.834300 -1.636400 768.000000 -0.944892 -0.327297 0.007500 0.296000 3.010200 1 0 1.000000 
treebark01
0 -7.920500 -4.572900 0.000000 -0.755922 -0.654619 0.007500 0.296000 -0.989800 1 0 1.000000 
0 0.000000 -9.145800 0.000000 0.188990 -0.981950 0.007500 0.335800 -0.989800 1 0 1.000000 
0 0.000000 -3.272700 768.000000 -0.188990 -0.981950 0.007500 0.335800 3.010200 1 0 1.000000 
treebark01
0 0.000000 -9.145800 0.000000 0.188990 -0.981950 0.007500 0.335800 -0.989800 1 0 1.000000 
0 2.834300 -1.636400 768.000000 0.755922 -0.654619 0.007500 0.375700 3.010200 1 0 1.000000 
0 0.000000 -3.272700 768.000000 -0.188990 -0.981950 0.007500 0.335800 3.010200 1 0 1.000000 
treebark01
0 0.000000 -9.145800 0.000000 0.188990 -0.981950 0.007500 0.335800 -0.989800 1 0 1.000000 
0 7.920500 -4.572899 0.000000 0.944892 -0.327297 0.007500 0.375700 -0.989800 1 0 1.000000 
0 2.834300 -1.636400 768.000000 0.755922 -0.654619 0.007500 0.375700 3.010200 1 0 1.000000 
treebark01
0 7.920500 -4.572899 0.000000 0.944892 -0.327297 0.007500 0.375700 -0.989800 1 0 1.000000 
0 2.834300 1.636400 768.000000 0.944892 0.327297 0.007500 0.415500 3.010200 1 0 1.000000 
0 2.834300 -1.636400 768.000000 0.755922 -0.654619 0.007500 0.375700 3.010200 1 0 1.000000 
treebark01
0 7.920500 -4.572899 0.000000 0.944892 -0.327297 0.007500 0.375700 -0.989800 1 0 1.000000 
0 7.920500 4.572900 0.000000 0.755922 0.654619 0.007500 0.415500 -0.989800 1 0 1.000000 
0 2.834300 1.636400 768.000000 0.944892 0.327297 0.007500 0.415500 3.010200 1 0 1.000000 
treebark01
0 7.920500 4.572900 0.000000 0.755922 0.654619 0.007500 0.415500 -0.989800 1 0 1.000000 
0 -0.000000 3.272700 768.000000 0.188990 0.981950 0.007500 0.455400 3.010200 1 0 1.000000 
0 2.834300 1.636400 768.000000 0.944892 0.327297 0.007500 0.415500 3.010200 1 0 1.000000 
treebark01
0 7.920500 4.572900 0.000000 0.755922 0.654619 0.007500 0.415500 -0.989800 1 0 1.000000 
0 -0.000000 9.145800 0.000000 -0.188990 0.981950 0.007500 0.455400 -0.989800 1 0 1.000000 
0 -0.000000 3.272700 768.000000 0.188990 0.981950 0.007500 0.455400 3.010200 1 0 1.000000 
treebark01
0 -0.000000 9.145800 0.000000 -0.188990 0.981950 0.007500 0.455400 -0.989800 1 0 1.000000 
0 -2.834300 1.636400 768.000000 -0.755922 0.654619 0.007500 0.495200 3.010200 1 0 1.000000 
0 -0.000000 3.272700 768.000000 0.188990 0.981950 0.007500 0.455400 3.010200 1 0 1.000000 
treebark01
0 -0.000000 9.145800 0.000000 -0.188990 0.981950 0.007500 0.455400 -0.989800 1 0 1.000000 
0 -7.920500 4.572899 0.000000 -0.944892 0.327297 0.007500 0.495200 -0.989800 1 0 1.000000 
0 -2.834300 1.636400 768.000000 -0.755922 0.654619 0.007500 0.495200 3.010200 1 0 1.000000 
treepine01
0 65.717293 113.824203 283.526093 -0.866019 0.500011 0.000000 0.506300 -0.244700 1 0 1.000000 
0 2.689600 4.657000 261.299103 -0.866019 0.500011 0.000000 0.993000 -0.244700 1 0 1.000000 
0 62.938995 109.011902 315.040009 -0.866019 0.500011 0.000000 0.506300 -0.122800 1 0 1.000000 
treepine01
0 -0.088700 -0.155200 292.812988 -0.866019 0.500011 0.000000 0.993000 -0.122800 1 0 1.000000 
0 62.938995 109.011902 315.040009 -0.866019 0.500011 0.000000 0.506300 -0.122800 1 0 1.000000 
0 2.689600 4.657000 261.299103 -0.866019 0.500011 0.000000 0.993000 -0.244700 1 0 1.000000 
treepine01
0 9.060794 135.974197 336.632996 0.214605 -0.312308 0.925423 0.008900 -0.489700 1 0 1.000000 
0 -53.966900 26.806997 314.406006 0.214605 -0.312308 0.925423 0.497700 -0.489700 1 0 1.000000 
0 63.044395 109.195801 315.076202 0.214605 -0.312308 0.925423 0.008900 -0.246300 1 0 1.000000 
treepine01
0 0.016700 0.028600 292.849213 0.214605 -0.312308 0.925423 0.497700 -0.246300 1 0 1.000000 
0 63.044395 109.195801 315.076202 0.214605 -0.312308 0.925423 0.008900 -0.246300 1 0 1.000000 
0 -53.966900 26.806997 314.406006 0.214605 -0.312308 0.925423 0.497700 -0.489700 1 0 1.000000 
treepine01
0 24.869600 14.680901 665.550415 0.296198 0.170999 -0.939694 0.749000 -0.499200 1 0 1.000000 
0 56.869598 -40.744698 665.550415 0.296198 0.170999 -0.939694 0.502000 -0.499200 1 0 1.000000 
0 -1.171900 -0.354200 654.605713 0.296198 0.170999 -0.939694 0.749000 -0.375700 1 0 1.000000 
treepine01
0 30.828102 -55.779800 654.605713 0.296198 0.170999 -0.939694 0.502000 -0.375700 1 0 1.000000 
0 -1.171900 -0.354200 654.605713 0.296198 0.170999 -0.939694 0.749000 -0.375700 1 0 1.000000 
0 56.869598 -40.744698 665.550415 0.296198 0.170999 -0.939694 0.502000 -0.499200 1 0 1.000000 
treepine01
0 -1.172000 -0.354200 654.605713 -0.296198 -0.170999 -0.939694 0.749000 -0.373900 1 0 1.000000 
0 30.828001 -55.779800 654.605713 -0.296198 -0.170999 -0.939694 0.502000 -0.373900 1 0 1.000000 
0 -27.213499 -15.389301 665.550415 -0.296198 -0.170999 -0.939694 0.749000 -0.250500 1 0 1.000000 
treepine01
0 4.786503 -70.814903 665.550415 -0.296198 -0.170999 -0.939694 0.502000 -0.250500 1 0 1.000000 
0 -27.213499 -15.389301 665.550415 -0.296198 -0.170999 -0.939694 0.749000 -0.250500 1 0 1.000000 
0 30.828001 -55.779800 654.605713 -0.296198 -0.170999 -0.939694 0.502000 -0.373900 1 0 1.000000 
treepine01
0 -1.171900 -0.354300 638.605713 0.866019 0.500011 0.000000 0.996800 -0.251600 1 0 1.000000 
0 -1.171900 -0.354300 654.605713 0.866019 0.500011 0.000000 0.996800 -0.312400 1 0 1.000000 
0 30.828102 -55.779900 638.605713 0.866019 0.500011 0.000000 0.754100 -0.251600 1 0 1.000000 
treepine01
0 30.828102 -55.779900 654.605713 0.866019 0.500011 0.000000 0.754100 -0.312400 1 0 1.000000 
0 30.828102 -55.779900 638.605713 0.866019 0.500011 0.000000 0.754100 -0.251600 1 0 1.000000 
0 -1.171900 -0.354300 654.605713 0.866019 0.500011 0.000000 0.996800 -0.312400 1 0 1.000000 
treepine01
0 -24.598101 17.244799 684.595520 -0.280194 0.196196 -0.939680 0.749000 -0.499200 1 0 1.000000 
0 12.110797 69.670502 684.595520 -0.280194 0.196196 -0.939680 0.502000 -0.499200 1 0 1.000000 
0 0.034000 -0.002700 673.650818 -0.280194 0.196196 -0.939680 0.749000 -0.375700 1 0 1.000000 
treepine01
0 36.742798 52.423000 673.650818 -0.280194 0.196196 -0.939680 0.502000 -0.375700 1 0 1.000000 
0 0.034000 -0.002700 673.650818 -0.280194 0.196196 -0.939680 0.749000 -0.375700 1 0 1.000000 
0 12.110797 69.670502 684.595520 -0.280194 0.196196 -0.939680 0.502000 -0.499200 1 0 1.000000 
treepine01
0 0.034000 -0.002800 673.650818 0.280194 -0.196196 -0.939680 0.749000 -0.373900 1 0 1.000000 
0 36.742897 52.422901 673.650818 0.280194 -0.196196 -0.939680 0.502000 -0.373900 1 0 1.000000 
0 24.666100 -17.250298 684.595520 0.280194 -0.196196 -0.939680 0.749000 -0.250500 1 0 1.000000 
treepine01
0 61.374901 35.175404 684.595520 0.280194 -0.196196 -0.939680 0.502000 -0.250500 1 0 1.000000 
0 24.666100 -17.250298 684.595520 0.280194 -0.196196 -0.939680 0.749000 -0.250500 1 0 1.000000 
0 36.742897 52.422901 673.650818 0.280194 -0.196196 -0.939680 0.502000 -0.373900 1 0 1.000000 
treepine01
0 0.034100 -0.002600 657.650818 -0.819157 0.573570 0.000000 0.996800 -0.251600 1 0 1.000000 
0 0.034100 -0.002600 673.650818 -0.819157 0.573570 0.000000 0.996800 -0.312400 1 0 1.000000 
0 36.742996 52.423100 657.650818 -0.819157 0.573570 0.000000 0.754100 -0.251600 1 0 1.000000 
treepine01
0 36.742996 52.423100 673.650818 -0.819157 0.573570 0.000000 0.754100 -0.312400 1 0 1.000000 
0 36.742996 52.423100 657.650818 -0.819157 0.573570 0.000000 0.754100 -0.251600 1 0 1.000000 
0 0.034100 -0.002600 673.650818 -0.819157 0.573570 0.000000 0.996800 -0.312400 1 0 1.000000 
treepine01
0 29.751600 4.954601 724.228271 0.354913 -0.132705 -0.925433 0.749000 -0.499200 1 0 1.000000 
0 35.244804 -57.833199 735.341797 0.354913 -0.132705 -0.925433 0.502000 -0.499200 1 0 1.000000 
0 -0.038500 0.440600 713.450012 0.354913 -0.132705 -0.925433 0.749000 -0.375700 1 0 1.000000 
treepine01
0 5.454703 -62.347301 724.563477 0.354913 -0.132705 -0.925433 0.502000 -0.375700 1 0 1.000000 
0 -0.038500 0.440600 713.450012 0.354913 -0.132705 -0.925433 0.749000 -0.375700 1 0 1.000000 
0 35.244804 -57.833199 735.341797 0.354913 -0.132705 -0.925433 0.502000 -0.499200 1 0 1.000000 
treepine01
0 -0.038500 0.440600 713.450012 -0.326502 -0.192401 -0.925407 0.749000 -0.373900 1 0 1.000000 
0 5.454703 -62.347301 724.563477 -0.326502 -0.192401 -0.925407 0.502000 -0.373900 1 0 1.000000 
0 -30.159901 -0.286901 724.228271 -0.326502 -0.192401 -0.925407 0.749000 -0.250500 1 0 1.000000 
treepine01
0 -24.666698 -63.074799 735.341797 -0.326502 -0.192401 -0.925407 0.502000 -0.250500 1 0 1.000000 
0 -30.159901 -0.286901 724.228271 -0.326502 -0.192401 -0.925407 0.749000 -0.250500 1 0 1.000000 
0 5.454703 -62.347301 724.563477 -0.326502 -0.192401 -0.925407 0.502000 -0.373900 1 0 1.000000 
treepine01
0 0.203600 -2.327400 697.693115 0.996191 0.087199 0.000000 0.996800 -0.251600 1 0 1.000000 
0 -0.038500 0.440400 713.450012 0.996191 0.087199 0.000000 0.996800 -0.312400 1 0 1.000000 
0 5.696903 -65.115196 708.806519 0.996191 0.087199 0.000000 0.754100 -0.251600 1 0 1.000000 
treepine01
0 5.454703 -62.347401 724.563416 0.996191 0.087199 0.000000 0.754100 -0.312400 1 0 1.000000 
0 5.696903 -65.115196 708.806519 0.996191 0.087199 0.000000 0.754100 -0.251600 1 0 1.000000 
0 -0.038500 0.440400 713.450012 0.996191 0.087199 0.000000 0.996800 -0.312400 1 0 1.000000 
treepine01
0 27.786600 -12.012499 754.554077 0.174598 -0.381596 -0.907689 0.749000 -0.499200 1 0 1.000000 
0 -3.122997 -65.549500 771.118530 0.174598 -0.381596 -0.907689 0.502000 -0.499200 1 0 1.000000 
0 0.328800 0.569400 743.982422 0.174598 -0.381596 -0.907689 0.749000 -0.375700 1 0 1.000000 
treepine01
0 -30.580797 -52.967602 760.546875 0.174598 -0.381596 -0.907689 0.502000 -0.375700 1 0 1.000000 
0 0.328800 0.569400 743.982422 0.174598 -0.381596 -0.907689 0.749000 -0.375700 1 0 1.000000 
0 -3.122997 -65.549500 771.118530 0.174598 -0.381596 -0.907689 0.502000 -0.499200 1 0 1.000000 
treepine01
0 0.328700 0.569400 743.982422 -0.417791 -0.039599 -0.907680 0.749000 -0.373900 1 0 1.000000 
0 -30.580898 -52.967602 760.546814 -0.417791 -0.039599 -0.907680 0.502000 -0.373900 1 0 1.000000 
0 -24.296499 18.057697 754.554077 -0.417791 -0.039599 -0.907680 0.749000 -0.250500 1 0 1.000000 
treepine01
0 -55.206001 -35.479404 771.118530 -0.417791 -0.039599 -0.907680 0.502000 -0.250500 1 0 1.000000 
0 -24.296499 18.057697 754.554077 -0.417791 -0.039599 -0.907680 0.749000 -0.250500 1 0 1.000000 
0 -30.580898 -52.967602 760.546814 -0.417791 -0.039599 -0.907680 0.502000 -0.373900 1 0 1.000000 
treepine01
0 -1.741900 -3.017100 728.527588 0.866019 -0.500011 0.000000 0.996800 -0.251600 1 0 1.000000 
0 0.328600 0.569200 743.982422 0.866019 -0.500011 0.000000 0.996800 -0.312400 1 0 1.000000 
0 -32.651497 -56.554100 745.091980 0.866019 -0.500011 0.000000 0.754100 -0.251600 1 0 1.000000 
treepine01
0 -30.580997 -52.967800 760.546875 0.866019 -0.500011 0.000000 0.754100 -0.312400 1 0 1.000000 
0 -32.651497 -56.554100 745.091980 0.866019 -0.500011 0.000000 0.754100 -0.251600 1 0 1.000000 
0 0.328600 0.569200 743.982422 0.866019 -0.500011 0.000000 0.996800 -0.312400 1 0 1.000000 
treepine01
0 -3.490101 30.070200 767.429871 0.243196 0.341995 -0.907686 0.749000 -0.499200 1 0 1.000000 
0 58.329102 30.070202 783.994385 0.243196 0.341995 -0.907686 0.502000 -0.499200 1 0 1.000000 
0 -0.657400 -0.000000 756.858215 0.243196 0.341995 -0.907686 0.749000 -0.375700 1 0 1.000000 
treepine01
0 61.161800 0.000003 773.422729 0.243196 0.341995 -0.907686 0.502000 -0.375700 1 0 1.000000 
0 -0.657400 -0.000000 756.858215 0.243196 0.341995 -0.907686 0.749000 -0.375700 1 0 1.000000 
0 58.329102 30.070202 783.994385 0.243196 0.341995 -0.907686 0.502000 -0.499200 1 0 1.000000 
treepine01
0 -0.657400 -0.000000 756.858215 0.243196 -0.341995 -0.907686 0.749000 -0.373900 1 0 1.000000 
0 61.161800 0.000003 773.422729 0.243196 -0.341995 -0.907686 0.502000 -0.373900 1 0 1.000000 
0 -3.490098 -30.070200 767.429871 0.243196 -0.341995 -0.907686 0.749000 -0.250500 1 0 1.000000 
treepine01
0 58.329102 -30.070198 783.994385 0.243196 -0.341995 -0.907686 0.502000 -0.250500 1 0 1.000000 
0 -3.490098 -30.070200 767.429871 0.243196 -0.341995 -0.907686 0.749000 -0.250500 1 0 1.000000 
0 61.161800 0.000003 773.422729 0.243196 -0.341995 -0.907686 0.502000 -0.373900 1 0 1.000000 
treepine01
0 3.483800 0.000000 741.403381 -0.000000 1.000000 0.000000 0.996800 -0.251600 1 0 1.000000 
0 -0.657300 -0.000000 756.858215 -0.000000 1.000000 0.000000 0.996800 -0.312400 1 0 1.000000 
0 65.303101 0.000003 757.967773 -0.000000 1.000000 0.000000 0.754100 -0.251600 1 0 1.000000 
treepine01
0 61.161999 0.000003 773.422729 -0.000000 1.000000 0.000000 0.754100 -0.312400 1 0 1.000000 
0 65.303101 0.000003 757.967773 -0.000000 1.000000 0.000000 0.754100 -0.251600 1 0 1.000000 
0 -0.657300 -0.000000 756.858215 -0.000000 1.000000 0.000000 0.996800 -0.312400 1 0 1.000000 
treepine01
0 -5.519799 -29.651899 696.263672 -0.246108 -0.288110 -0.925431 0.749000 -0.499200 1 0 1.000000 
0 -66.399803 -13.339203 707.377197 -0.246108 -0.288110 -0.925431 0.502000 -0.499200 1 0 1.000000 
0 0.427200 -0.114500 685.485291 -0.246108 -0.288110 -0.925431 0.749000 -0.375700 1 0 1.000000 
treepine01
0 -60.452900 16.198298 696.598816 -0.246108 -0.288110 -0.925431 0.502000 -0.375700 1 0 1.000000 
0 0.427200 -0.114500 685.485291 -0.246108 -0.288110 -0.925431 0.749000 -0.375700 1 0 1.000000 
0 -66.399803 -13.339203 707.377197 -0.246108 -0.288110 -0.925431 0.502000 -0.499200 1 0 1.000000 
treepine01
0 0.427200 -0.114400 685.485291 -0.069101 0.372605 -0.925413 0.749000 -0.373900 1 0 1.000000 
0 -60.452900 16.198298 696.598816 -0.069101 0.372605 -0.925413 0.502000 -0.373900 1 0 1.000000 
0 10.045699 28.439199 696.263672 -0.069101 0.372605 -0.925413 0.749000 -0.250500 1 0 1.000000 
treepine01
0 -50.834404 44.751995 707.377197 -0.069101 0.372605 -0.925413 0.502000 -0.250500 1 0 1.000000 
0 10.045699 28.439199 696.263672 -0.069101 0.372605 -0.925413 0.749000 -0.250500 1 0 1.000000 
0 -60.452900 16.198298 696.598816 -0.069101 0.372605 -0.925413 0.502000 -0.373900 1 0 1.000000 
treepine01
0 -2.256700 0.604700 669.728394 -0.258808 -0.965929 0.000000 0.996800 -0.251600 1 0 1.000000 
0 0.427000 -0.114400 685.485291 -0.258808 -0.965929 0.000000 0.996800 -0.312400 1 0 1.000000 
0 -63.136700 16.917498 680.841919 -0.258808 -0.965929 0.000000 0.754100 -0.251600 1 0 1.000000 
treepine01
0 -60.452999 16.198399 696.598816 -0.258808 -0.965929 0.000000 0.754100 -0.312400 1 0 1.000000 
0 -63.136700 16.917498 680.841919 -0.258808 -0.965929 0.000000 0.754100 -0.251600 1 0 1.000000 
0 0.427000 -0.114400 685.485291 -0.258808 -0.965929 0.000000 0.996800 -0.312400 1 0 1.000000 
treepine01
0 20.106499 22.630199 754.871582 -0.003100 0.419684 -0.907665 0.749000 -0.499200 1 0 1.000000 
0 0.538600 -0.377100 744.299927 -0.003100 0.419684 -0.907665 0.749000 -0.375700 1 0 1.000000 
0 -30.532803 58.088200 771.435974 -0.003100 0.419684 -0.907665 0.502000 -0.499200 1 0 1.000000 
treepine01
0 -50.100700 35.080997 760.864319 -0.003100 0.419684 -0.907665 0.502000 -0.375700 1 0 1.000000 
0 -30.532803 58.088200 771.435974 -0.003100 0.419684 -0.907665 0.502000 -0.499200 1 0 1.000000 
0 0.538600 -0.377100 744.299927 -0.003100 0.419684 -0.907665 0.749000 -0.375700 1 0 1.000000 
treepine01
0 0.538600 -0.377100 744.299927 -0.395389 -0.140696 -0.907674 0.749000 -0.373900 1 0 1.000000 
0 -14.388599 -26.633900 754.871582 -0.395389 -0.140696 -0.907674 0.749000 -0.250500 1 0 1.000000 
0 -50.100800 35.080894 760.864319 -0.395389 -0.140696 -0.907674 0.502000 -0.373900 1 0 1.000000 
treepine01
0 -65.027901 8.824097 771.435974 -0.395389 -0.140696 -0.907674 0.502000 -0.250500 1 0 1.000000 
0 -50.100800 35.080894 760.864319 -0.395389 -0.140696 -0.907674 0.502000 -0.373900 1 0 1.000000 
0 -14.388599 -26.633900 754.871582 -0.395389 -0.140696 -0.907674 0.749000 -0.250500 1 0 1.000000 
treepine01
0 -2.853700 1.998300 728.845215 -0.573570 -0.819157 0.000000 0.996800 -0.373800 1 0 1.000000 
0 0.538400 -0.377000 744.299927 -0.573570 -0.819157 0.000000 0.996800 -0.313000 1 0 1.000000 
0 -53.493099 37.456295 745.409485 -0.573570 -0.819157 0.000000 0.754000 -0.373800 1 0 1.000000 
treepine01
0 -50.100899 35.081097 760.864319 -0.573570 -0.819157 0.000000 0.754000 -0.313000 1 0 1.000000 
0 -53.493099 37.456295 745.409485 -0.573570 -0.819157 0.000000 0.754000 -0.373800 1 0 1.000000 
0 0.538400 -0.377000 744.299927 -0.573570 -0.819157 0.000000 0.996800 -0.313000 1 0 1.000000 
treepine01
0 118.318100 -55.169098 493.246613 0.422606 0.906313 0.000000 0.506300 -0.000300 1 0 1.000000 
0 4.073200 -1.895800 471.019592 0.422606 0.906313 0.000000 0.993000 -0.000300 1 0 1.000000 
0 113.281998 -52.820698 524.760376 0.422606 0.906313 0.000000 0.506300 -0.122200 1 0 1.000000 
treepine01
0 -0.963000 0.452600 502.533386 0.422606 0.906313 0.000000 0.993000 -0.122200 1 0 1.000000 
0 113.281998 -52.820698 524.760376 0.422606 0.906313 0.000000 0.506300 -0.122200 1 0 1.000000 
0 4.073200 -1.895800 471.019592 0.422606 0.906313 0.000000 0.993000 -0.000300 1 0 1.000000 
treepine01
0 113.473602 -52.910995 524.797485 -0.292408 -0.241007 0.925426 0.008900 -0.246800 1 0 1.000000 
0 135.445099 3.201006 546.354187 -0.292408 -0.241007 0.925426 0.008900 -0.003300 1 0 1.000000 
0 -0.771400 0.362300 502.570587 -0.292408 -0.241007 0.925426 0.497700 -0.246800 1 0 1.000000 
treepine01
0 21.200098 56.474300 524.127319 -0.292408 -0.241007 0.925426 0.497700 -0.003300 1 0 1.000000 
0 -0.771400 0.362300 502.570587 -0.292408 -0.241007 0.925426 0.497700 -0.246800 1 0 1.000000 
0 135.445099 3.201006 546.354187 -0.292408 -0.241007 0.925426 0.008900 -0.003300 1 0 1.000000 
treepine01
0 84.612511 -105.810097 546.353394 -0.003300 0.378911 0.925427 0.008900 -0.489700 1 0 1.000000 
0 113.473801 -52.910797 524.796570 -0.003300 0.378911 0.925427 0.008900 -0.246300 1 0 1.000000 
0 -29.632498 -52.536800 524.126404 -0.003300 0.378911 0.925427 0.497700 -0.489700 1 0 1.000000 
treepine01
0 -0.771100 0.362500 502.569702 -0.003300 0.378911 0.925427 0.497700 -0.246300 1 0 1.000000 
0 -29.632498 -52.536800 524.126404 -0.003300 0.378911 0.925427 0.497700 -0.489700 1 0 1.000000 
0 113.473801 -52.910797 524.796570 -0.003300 0.378911 0.925427 0.008900 -0.246300 1 0 1.000000 
treepine01
0 -127.810699 -0.000806 238.999893 0.000000 -1.000000 0.000000 0.506300 -0.000300 1 0 1.000000 
0 0.189300 -0.000800 238.999893 0.000000 -1.000000 0.000000 0.993000 -0.000300 1 0 1.000000 
0 -127.810699 -0.000806 270.999908 0.000000 -1.000000 0.000000 0.506300 -0.122200 1 0 1.000000 
treepine01
0 0.189300 -0.000800 270.999908 0.000000 -1.000000 0.000000 0.993000 -0.122200 1 0 1.000000 
0 -127.810699 -0.000806 270.999908 0.000000 -1.000000 0.000000 0.506300 -0.122200 1 0 1.000000 
0 0.189300 -0.000800 238.999893 0.000000 -1.000000 0.000000 0.993000 -0.000300 1 0 1.000000 
treepine01
0 -128.025696 0.000094 270.999695 -0.000000 0.342000 0.939700 0.008900 -0.246800 1 0 1.000000 
0 -128.025696 -60.140205 292.889008 -0.000000 0.342000 0.939700 0.008900 -0.003300 1 0 1.000000 
0 -0.025700 0.000100 270.999695 -0.000000 0.342000 0.939700 0.497700 -0.246800 1 0 1.000000 
treepine01
0 -0.025697 -60.140202 292.889008 -0.000000 0.342000 0.939700 0.497700 -0.003300 1 0 1.000000 
0 -0.025700 0.000100 270.999695 -0.000000 0.342000 0.939700 0.497700 -0.246800 1 0 1.000000 
0 -128.025696 -60.140205 292.889008 -0.000000 0.342000 0.939700 0.008900 -0.003300 1 0 1.000000 
treepine01
0 -128.025696 60.140198 292.888092 0.000000 -0.342000 0.939700 0.008900 -0.489700 1 0 1.000000 
0 -128.025696 -0.000106 270.998810 0.000000 -0.342000 0.939700 0.008900 -0.246300 1 0 1.000000 
0 -0.025703 60.140202 292.888092 0.000000 -0.342000 0.939700 0.497700 -0.489700 1 0 1.000000 
treepine01
0 -0.025700 -0.000200 270.998810 0.000000 -0.342000 0.939700 0.497700 -0.246300 1 0 1.000000 
0 -0.025703 60.140202 292.888092 0.000000 -0.342000 0.939700 0.497700 -0.489700 1 0 1.000000 
0 -128.025696 -0.000106 270.998810 0.000000 -0.342000 0.939700 0.008900 -0.246300 1 0 1.000000 
treepine01
0 -97.164001 -80.713409 349.040009 0.302312 -0.119105 0.945738 0.008900 -0.246800 1 0 1.000000 
0 -0.024000 -0.019100 328.153412 0.302312 -0.119105 0.945738 0.497700 -0.246800 1 0 1.000000 
0 -134.077194 -31.622005 367.024902 0.302312 -0.119105 0.945738 0.008900 -0.003300 1 0 1.000000 
treepine01
0 -36.937103 49.072201 346.138397 0.302312 -0.119105 0.945738 0.497700 -0.003300 1 0 1.000000 
0 -134.077194 -31.622005 367.024902 0.302312 -0.119105 0.945738 0.008900 -0.003300 1 0 1.000000 
0 -0.024000 -0.019100 328.153412 0.302312 -0.119105 0.945738 0.497700 -0.246800 1 0 1.000000 
treepine01
0 -56.450096 -123.221100 374.167603 -0.139100 0.401800 0.905101 0.008900 -0.489700 1 0 1.000000 
0 40.689999 -42.526798 353.281097 -0.139100 0.401800 0.905101 0.497700 -0.489700 1 0 1.000000 
0 -97.164299 -80.713310 349.039093 -0.139100 0.401800 0.905101 0.008900 -0.246300 1 0 1.000000 
treepine01
0 -0.024200 -0.019000 328.152496 -0.139100 0.401800 0.905101 0.497700 -0.246300 1 0 1.000000 
0 -97.164299 -80.713310 349.039093 -0.139100 0.401800 0.905101 0.008900 -0.246300 1 0 1.000000 
0 40.689999 -42.526798 353.281097 -0.139100 0.401800 0.905101 0.497700 -0.489700 1 0 1.000000 
treepine01
0 -99.779800 -85.389404 317.491211 0.645415 -0.761518 0.059401 0.506300 -0.244700 1 0 1.000000 
0 -2.639700 -4.695100 296.604614 0.645415 -0.761518 0.059401 0.993000 -0.244700 1 0 1.000000 
0 -97.001404 -80.577110 349.005005 0.645415 -0.761518 0.059401 0.506300 -0.122800 1 0 1.000000 
treepine01
0 0.138600 0.117200 328.118500 0.645415 -0.761518 0.059401 0.993000 -0.122800 1 0 1.000000 
0 -97.001404 -80.577110 349.005005 0.645415 -0.761518 0.059401 0.506300 -0.122800 1 0 1.000000 
0 -2.639700 -4.695100 296.604614 0.645415 -0.761518 0.059401 0.993000 -0.244700 1 0 1.000000 
treepine01
0 91.723000 78.502304 399.148010 -0.459593 0.055599 0.886387 0.008900 -0.246800 1 0 1.000000 
0 0.024400 0.022000 356.530792 -0.459593 0.055599 0.886387 0.497700 -0.246800 1 0 1.000000 
0 125.319504 28.068806 419.733093 -0.459593 0.055599 0.886387 0.008900 -0.003300 1 0 1.000000 
treepine01
0 33.620903 -50.411400 377.115906 -0.459593 0.055599 0.886387 0.497700 -0.003300 1 0 1.000000 
0 125.319504 28.068806 419.733093 -0.459593 0.055599 0.886387 0.008900 -0.003300 1 0 1.000000 
0 0.024400 0.022000 356.530792 -0.459593 0.055599 0.886387 0.497700 -0.246800 1 0 1.000000 
treepine01
0 47.080795 119.425598 419.842896 -0.014600 -0.463886 0.885774 0.008900 -0.489700 1 0 1.000000 
0 -44.617802 40.945396 377.225708 -0.014600 -0.463886 0.885774 0.497700 -0.489700 1 0 1.000000 
0 91.723396 78.502205 399.147186 -0.014600 -0.463886 0.885774 0.008900 -0.246300 1 0 1.000000 
treepine01
0 0.024800 0.022000 356.529999 -0.014600 -0.463886 0.885774 0.497700 -0.246300 1 0 1.000000 
0 91.723396 78.502205 399.147186 -0.014600 -0.463886 0.885774 0.008900 -0.246300 1 0 1.000000 
0 -44.617802 40.945396 377.225708 -0.014600 -0.463886 0.885774 0.497700 -0.489700 1 0 1.000000 
treepine01
0 99.643700 85.321106 368.902405 -0.650503 0.759503 0.000900 0.506300 -0.244700 1 0 1.000000 
0 7.945099 6.840900 326.285187 -0.650503 0.759503 0.000900 0.993000 -0.244700 1 0 1.000000 
0 91.569504 78.369705 399.076599 -0.650503 0.759503 0.000900 0.506300 -0.122800 1 0 1.000000 
treepine01
0 -0.129100 -0.110500 356.459412 -0.650503 0.759503 0.000900 0.993000 -0.122800 1 0 1.000000 
0 91.569504 78.369705 399.076599 -0.650503 0.759503 0.000900 0.506300 -0.122800 1 0 1.000000 
0 7.945099 6.840900 326.285187 -0.650503 0.759503 0.000900 0.993000 -0.244700 1 0 1.000000 
treepine01
0 32.633995 116.081299 511.652313 -0.372590 -0.228694 0.899375 0.008900 -0.246800 1 0 1.000000 
0 0.008400 0.030600 468.619598 -0.372590 -0.228694 0.899375 0.497700 -0.246800 1 0 1.000000 
0 89.741295 93.393311 529.541077 -0.372590 -0.228694 0.899375 0.008900 -0.003300 1 0 1.000000 
treepine01
0 57.115700 -22.657398 486.508392 -0.372590 -0.228694 0.899375 0.497700 -0.003300 1 0 1.000000 
0 89.741295 93.393311 529.541077 -0.372590 -0.228694 0.899375 0.008900 -0.003300 1 0 1.000000 
0 0.008400 0.030600 468.619598 -0.372590 -0.228694 0.899375 0.497700 -0.246800 1 0 1.000000 
treepine01
0 -26.440605 124.051498 534.945984 0.288106 -0.403109 0.868618 0.008900 -0.489700 1 0 1.000000 
0 -59.066200 8.000797 491.913300 0.288106 -0.403109 0.868618 0.497700 -0.489700 1 0 1.000000 
0 32.634296 116.081497 511.651489 0.288106 -0.403109 0.868618 0.008900 -0.246300 1 0 1.000000 
treepine01
0 0.008700 0.030900 468.618713 0.288106 -0.403109 0.868618 0.497700 -0.246300 1 0 1.000000 
0 32.634296 116.081497 511.651489 0.288106 -0.403109 0.868618 0.008900 -0.246300 1 0 1.000000 
0 -59.066200 8.000797 491.913300 0.288106 -0.403109 0.868618 0.497700 -0.489700 1 0 1.000000 
treepine01
0 34.018196 126.644203 481.477203 -0.965923 0.254906 0.044901 0.506300 -0.244700 1 0 1.000000 
0 1.392699 10.593600 438.444397 -0.965923 0.254906 0.044901 0.993000 -0.244700 1 0 1.000000 
0 32.579998 115.886002 511.580200 -0.965923 0.254906 0.044901 0.506300 -0.122800 1 0 1.000000 
treepine01
0 -0.045500 -0.164600 468.547394 -0.965923 0.254906 0.044901 0.993000 -0.122800 1 0 1.000000 
0 32.579998 115.886002 511.580200 -0.965923 0.254906 0.044901 0.506300 -0.122800 1 0 1.000000 
0 1.392699 10.593600 438.444397 -0.965923 0.254906 0.044901 0.993000 -0.244700 1 0 1.000000 
treepine01
0 107.102501 61.836803 590.608887 -0.381596 0.174598 0.907689 0.008900 -0.246800 1 0 1.000000 
0 0.028400 0.017600 557.479980 -0.381596 0.174598 0.907689 0.497700 -0.246800 1 0 1.000000 
0 132.266296 6.921106 611.752319 -0.381596 0.174598 0.907689 0.008900 -0.003300 1 0 1.000000 
treepine01
0 25.192202 -54.898102 578.623474 -0.381596 0.174598 0.907689 0.497700 -0.003300 1 0 1.000000 
0 132.266296 6.921106 611.752319 -0.381596 0.174598 0.907689 0.008900 -0.003300 1 0 1.000000 
0 0.028400 0.017600 557.479980 -0.381596 0.174598 0.907689 0.497700 -0.246800 1 0 1.000000 
treepine01
0 72.126289 111.087097 611.751526 -0.039599 -0.417791 0.907680 0.008900 -0.489700 1 0 1.000000 
0 -34.947803 49.267799 578.622620 -0.039599 -0.417791 0.907680 0.497700 -0.489700 1 0 1.000000 
0 107.102798 61.836704 590.607971 -0.039599 -0.417791 0.907680 0.008900 -0.246300 1 0 1.000000 
treepine01
0 0.028700 0.017500 557.479187 -0.039599 -0.417791 0.907680 0.497700 -0.246300 1 0 1.000000 
0 107.102798 61.836704 590.607971 -0.039599 -0.417791 0.907680 0.008900 -0.246300 1 0 1.000000 
0 -34.947803 49.267799 578.622620 -0.039599 -0.417791 0.907680 0.497700 -0.489700 1 0 1.000000 
treepine01
0 114.095596 65.873306 559.643799 -0.500011 0.866019 0.000000 0.506300 -0.244700 1 0 1.000000 
0 7.021500 4.054101 526.515015 -0.500011 0.866019 0.000000 0.993000 -0.244700 1 0 1.000000 
0 106.922997 61.732204 590.553528 -0.500011 0.866019 0.000000 0.506300 -0.122800 1 0 1.000000 
treepine01
0 -0.151100 -0.087100 557.424622 -0.500011 0.866019 0.000000 0.993000 -0.122800 1 0 1.000000 
0 106.922997 61.732204 590.553528 -0.500011 0.866019 0.000000 0.506300 -0.122800 1 0 1.000000 
0 7.021500 4.054101 526.515015 -0.500011 0.866019 0.000000 0.993000 -0.244700 1 0 1.000000 
treepine01
0 -116.212402 38.271194 653.737427 0.156702 -0.409806 0.898612 0.008900 -0.246800 1 0 1.000000 
0 -0.030300 0.011200 616.029785 0.156702 -0.409806 0.898612 0.497700 -0.246800 1 0 1.000000 
0 -91.295509 93.426895 674.546021 0.156702 -0.409806 0.898612 0.008900 -0.003300 1 0 1.000000 
treepine01
0 24.886698 55.166801 636.838379 0.156702 -0.409806 0.898612 0.497700 -0.003300 1 0 1.000000 
0 -91.295509 93.426895 674.546021 0.156702 -0.409806 0.898612 0.008900 -0.003300 1 0 1.000000 
0 -0.030300 0.011200 616.029785 0.156702 -0.409806 0.898612 0.497700 -0.246800 1 0 1.000000 
treepine01
0 -128.853897 -20.839006 674.763672 0.370291 0.239994 0.897378 0.008900 -0.489700 1 0 1.000000 
0 -12.671697 -59.098999 637.056091 0.370291 0.239994 0.897378 0.497700 -0.489700 1 0 1.000000 
0 -116.212601 38.271595 653.736572 0.370291 0.239994 0.897378 0.008900 -0.246300 1 0 1.000000 
treepine01
0 -0.030400 0.011500 616.028870 0.370291 0.239994 0.897378 0.497700 -0.246300 1 0 1.000000 
0 -116.212601 38.271595 653.736572 0.370291 0.239994 0.897378 0.008900 -0.246300 1 0 1.000000 
0 -12.671697 -59.098999 637.056091 0.370291 0.239994 0.897378 0.497700 -0.489700 1 0 1.000000 
treepine01
0 -124.989899 41.098595 623.094421 -0.312295 -0.949983 0.001800 0.506300 -0.244700 1 0 1.000000 
0 -8.807700 2.838599 585.386780 -0.312295 -0.949983 0.001800 0.993000 -0.244700 1 0 1.000000 
0 -116.016899 38.207798 653.674316 -0.312295 -0.949983 0.001800 0.506300 -0.122800 1 0 1.000000 
treepine01
0 0.165300 -0.052300 615.966675 -0.312295 -0.949983 0.001800 0.993000 -0.122800 1 0 1.000000 
0 -116.016899 38.207798 653.674316 -0.312295 -0.949983 0.001800 0.506300 -0.122800 1 0 1.000000 
0 -8.807700 2.838599 585.386780 -0.312295 -0.949983 0.001800 0.993000 -0.244700 1 0 1.000000 
treepine01
0 -63.042797 -109.193604 563.050781 0.377804 -0.029700 0.925409 0.008900 -0.246800 1 0 1.000000 
0 -0.015100 -0.026500 540.823792 0.377804 -0.029700 0.925409 0.497700 -0.246800 1 0 1.000000 
0 -113.225304 -75.831711 584.607483 0.377804 -0.029700 0.925409 0.008900 -0.003300 1 0 1.000000 
treepine01
0 -50.197601 33.335495 562.380493 0.377804 -0.029700 0.925409 0.497700 -0.003300 1 0 1.000000 
0 -113.225304 -75.831711 584.607483 0.377804 -0.029700 0.925409 0.008900 -0.003300 1 0 1.000000 
0 -0.015100 -0.026500 540.823792 0.377804 -0.029700 0.925409 0.497700 -0.246800 1 0 1.000000 
treepine01
0 -9.059594 -135.972000 584.606628 -0.214605 0.312308 0.925423 0.008900 -0.489700 1 0 1.000000 
0 53.968102 -26.804798 562.379578 -0.214605 0.312308 0.925423 0.497700 -0.489700 1 0 1.000000 
0 -63.043095 -109.193604 563.049927 -0.214605 0.312308 0.925423 0.008900 -0.246300 1 0 1.000000 
treepine01
0 -0.015400 -0.026500 540.822876 -0.214605 0.312308 0.925423 0.497700 -0.246300 1 0 1.000000 
0 -63.043095 -109.193604 563.049927 -0.214605 0.312308 0.925423 0.008900 -0.246300 1 0 1.000000 
0 53.968102 -26.804798 562.379578 -0.214605 0.312308 0.925423 0.497700 -0.489700 1 0 1.000000 
treepine01
0 -65.716095 -113.821999 531.499817 0.866019 -0.500011 0.000000 0.506300 -0.244700 1 0 1.000000 
0 -2.688400 -4.654900 509.272797 0.866019 -0.500011 0.000000 0.993000 -0.244700 1 0 1.000000 
0 -62.937695 -109.009804 563.013672 0.866019 -0.500011 0.000000 0.506300 -0.122800 1 0 1.000000 
treepine01
0 0.090000 0.157400 540.786682 0.866019 -0.500011 0.000000 0.993000 -0.122800 1 0 1.000000 
0 -62.937695 -109.009804 563.013672 0.866019 -0.500011 0.000000 0.506300 -0.122800 1 0 1.000000 
0 -2.688400 -4.654900 509.272797 0.866019 -0.500011 0.000000 0.993000 -0.244700 1 0 1.000000 
treepine01
0 124.129898 11.596605 441.309113 -0.244896 0.326595 0.912886 0.008900 -0.246800 1 0 1.000000 
0 0.032500 0.003200 412.163910 -0.244896 0.326595 0.912886 0.497700 -0.246800 1 0 1.000000 
0 124.661598 -48.614697 462.996002 -0.244896 0.326595 0.912886 0.008900 -0.003300 1 0 1.000000 
treepine01
0 0.564303 -60.208099 433.850891 -0.244896 0.326595 0.912886 0.497700 -0.003300 1 0 1.000000 
0 124.661598 -48.614697 462.996002 -0.244896 0.326595 0.912886 0.008900 -0.003300 1 0 1.000000 
0 0.032500 0.003200 412.163910 -0.244896 0.326595 0.912886 0.497700 -0.246800 1 0 1.000000 
treepine01
0 113.647697 71.158005 462.249115 -0.182302 -0.354504 0.917111 0.008900 -0.489700 1 0 1.000000 
0 -10.449703 59.564602 433.103912 -0.182302 -0.354504 0.917111 0.497700 -0.489700 1 0 1.000000 
0 124.130096 11.596306 441.308289 -0.182302 -0.354504 0.917111 0.008900 -0.246300 1 0 1.000000 
treepine01
0 0.032800 0.002900 412.163086 -0.182302 -0.354504 0.917111 0.497700 -0.246300 1 0 1.000000 
0 124.130096 11.596306 441.308289 -0.182302 -0.354504 0.917111 0.008900 -0.246300 1 0 1.000000 
0 -10.449703 59.564602 433.103912 -0.182302 -0.354504 0.917111 0.497700 -0.489700 1 0 1.000000 
treepine01
0 131.195007 12.051005 410.101593 -0.091598 0.995777 -0.006200 0.506300 -0.244700 1 0 1.000000 
0 7.097600 0.457600 380.956390 -0.091598 0.995777 -0.006200 0.993000 -0.244700 1 0 1.000000 
0 123.921501 11.576205 441.260406 -0.091598 0.995777 -0.006200 0.506300 -0.122800 1 0 1.000000 
treepine01
0 -0.175900 -0.017200 412.115204 -0.091598 0.995777 -0.006200 0.993000 -0.122800 1 0 1.000000 
0 123.921501 11.576205 441.260406 -0.091598 0.995777 -0.006200 0.506300 -0.122800 1 0 1.000000 
0 7.097600 0.457600 380.956390 -0.091598 0.995777 -0.006200 0.993000 -0.244700 1 0 1.000000 
treepine01
0 50.198898 -33.333397 314.406891 -0.377804 0.029700 0.925409 0.497700 -0.003300 1 0 1.000000 
0 113.226601 75.833809 336.633911 -0.377804 0.029700 0.925409 0.008900 -0.003300 1 0 1.000000 
0 0.016400 0.028600 292.850098 -0.377804 0.029700 0.925409 0.497700 -0.246800 1 0 1.000000 
treepine01
0 63.044098 109.195801 315.077087 -0.377804 0.029700 0.925409 0.008900 -0.246800 1 0 1.000000 
0 0.016400 0.028600 292.850098 -0.377804 0.029700 0.925409 0.497700 -0.246800 1 0 1.000000 
0 113.226601 75.833809 336.633911 -0.377804 0.029700 0.925409 0.008900 -0.003300 1 0 1.000000 
end
