$cd ".\"
$modelname "props_junk/terracotta_chunk01i.mdl"
$model "Body" "terracotta_chunk01i_reference.smd"
$cdmaterials "models/props_junk/"
$surfaceprop "pottery"
$eyeposition 0.000 0.000 0.000
$illumposition -4.643 1.188 5.053
$sequence idle "idle" ACT_IDLE 1 fps 30.000000

$keyvalues
{
	prop_data 
	{
		"base"		"Pottery.Small"
	}
}
