version 1
nodes
  0 "static_prop" -1
end
skeleton
time 0
0 0.000000 0.000000 0.000000 0.000000 0.000000 0.000000
end
triangles
lab_objects04
0 0.035800 -2.270200 0.031900 0.000000 0.000000 -1.000000 0.746500 -0.393600 1 0 1.000000 
0 1.495100 -1.739100 0.031900 0.000000 0.000000 -1.000000 0.760300 -0.355600 1 0 1.000000 
0 0.812300 -2.133300 0.031900 0.000000 0.000000 -1.000000 0.750000 -0.373400 1 0 1.000000 
lab_objects04
0 0.035800 -2.270200 0.031900 0.000000 0.000000 -1.000000 0.746500 -0.393600 1 0 1.000000 
0 2.001900 -1.135100 0.031900 0.000000 0.000000 -1.000000 0.776000 -0.342500 1 0 1.000000 
0 1.495100 -1.739100 0.031900 0.000000 0.000000 -1.000000 0.760300 -0.355600 1 0 1.000000 
lab_objects04
0 0.035800 -2.270200 0.031900 0.000000 0.000000 -1.000000 0.746500 -0.393600 1 0 1.000000 
0 2.271500 -0.394200 0.031900 0.000000 0.000000 -1.000000 0.795200 -0.335500 1 0 1.000000 
0 2.001900 -1.135100 0.031900 0.000000 0.000000 -1.000000 0.776000 -0.342500 1 0 1.000000 
lab_objects04
0 0.035800 -2.270200 0.031900 0.000000 0.000000 -1.000000 0.746500 -0.393600 1 0 1.000000 
0 2.271500 0.394200 0.031900 0.000000 0.000000 -1.000000 0.815700 -0.335500 1 0 1.000000 
0 2.271500 -0.394200 0.031900 0.000000 0.000000 -1.000000 0.795200 -0.335500 1 0 1.000000 
lab_objects04
0 0.035800 -2.270200 0.031900 0.000000 0.000000 -1.000000 0.746500 -0.393600 1 0 1.000000 
0 2.001900 1.135100 0.031900 0.000000 0.000000 -1.000000 0.835000 -0.342500 1 0 1.000000 
0 2.271500 0.394200 0.031900 0.000000 0.000000 -1.000000 0.815700 -0.335500 1 0 1.000000 
lab_objects04
0 0.035800 -2.270200 0.031900 0.000000 0.000000 -1.000000 0.746500 -0.393600 1 0 1.000000 
0 1.495100 1.739100 0.031900 0.000000 0.000000 -1.000000 0.850700 -0.355600 1 0 1.000000 
0 2.001900 1.135100 0.031900 0.000000 0.000000 -1.000000 0.835000 -0.342500 1 0 1.000000 
lab_objects04
0 0.035800 -2.270200 0.031900 0.000000 0.000000 -1.000000 0.746500 -0.393600 1 0 1.000000 
0 0.812300 2.133300 0.031900 0.000000 0.000000 -1.000000 0.860900 -0.373400 1 0 1.000000 
0 1.495100 1.739100 0.031900 0.000000 0.000000 -1.000000 0.850700 -0.355600 1 0 1.000000 
lab_objects04
0 0.035800 -2.270200 0.031900 0.000000 0.000000 -1.000000 0.746500 -0.393600 1 0 1.000000 
0 0.035800 2.270200 0.031900 0.000000 0.000000 -1.000000 0.864500 -0.393600 1 0 1.000000 
0 0.812300 2.133300 0.031900 0.000000 0.000000 -1.000000 0.860900 -0.373400 1 0 1.000000 
lab_objects04
0 0.035800 -2.270200 0.031900 0.000000 0.000000 -1.000000 0.746500 -0.393600 1 0 1.000000 
0 -0.740700 2.133300 0.031900 0.000000 0.000000 -1.000000 0.860900 -0.413800 1 0 1.000000 
0 0.035800 2.270200 0.031900 0.000000 0.000000 -1.000000 0.864500 -0.393600 1 0 1.000000 
lab_objects04
0 0.035800 -2.270200 0.031900 0.000000 0.000000 -1.000000 0.746500 -0.393600 1 0 1.000000 
0 -1.423500 1.739100 0.031900 0.000000 0.000000 -1.000000 0.850700 -0.431500 1 0 1.000000 
0 -0.740700 2.133300 0.031900 0.000000 0.000000 -1.000000 0.860900 -0.413800 1 0 1.000000 
lab_objects04
0 0.035800 -2.270200 0.031900 0.000000 0.000000 -1.000000 0.746500 -0.393600 1 0 1.000000 
0 -1.930300 1.135100 0.031900 0.000000 0.000000 -1.000000 0.835000 -0.444700 1 0 1.000000 
0 -1.423500 1.739100 0.031900 0.000000 0.000000 -1.000000 0.850700 -0.431500 1 0 1.000000 
lab_objects04
0 0.035800 -2.270200 0.031900 0.000000 0.000000 -1.000000 0.746500 -0.393600 1 0 1.000000 
0 -2.200000 0.394200 0.031900 0.000000 0.000000 -1.000000 0.815700 -0.451700 1 0 1.000000 
0 -1.930300 1.135100 0.031900 0.000000 0.000000 -1.000000 0.835000 -0.444700 1 0 1.000000 
lab_objects04
0 0.035800 -2.270200 0.031900 0.000000 0.000000 -1.000000 0.746500 -0.393600 1 0 1.000000 
0 -2.200000 -0.394200 0.031900 0.000000 0.000000 -1.000000 0.795200 -0.451700 1 0 1.000000 
0 -2.200000 0.394200 0.031900 0.000000 0.000000 -1.000000 0.815700 -0.451700 1 0 1.000000 
lab_objects04
0 0.035800 -2.270200 0.031900 0.000000 0.000000 -1.000000 0.746500 -0.393600 1 0 1.000000 
0 -1.930300 -1.135100 0.031900 0.000000 0.000000 -1.000000 0.776000 -0.444700 1 0 1.000000 
0 -2.200000 -0.394200 0.031900 0.000000 0.000000 -1.000000 0.795200 -0.451700 1 0 1.000000 
lab_objects04
0 0.035800 -2.270200 0.031900 0.000000 0.000000 -1.000000 0.746500 -0.393600 1 0 1.000000 
0 -1.423500 -1.739100 0.031900 0.000000 0.000000 -1.000000 0.760300 -0.431500 1 0 1.000000 
0 -1.930300 -1.135100 0.031900 0.000000 0.000000 -1.000000 0.776000 -0.444700 1 0 1.000000 
lab_objects04
0 0.035800 -2.270200 0.031900 0.000000 0.000000 -1.000000 0.746500 -0.393600 1 0 1.000000 
0 -0.740700 -2.133300 0.031900 0.000000 0.000000 -1.000000 0.750000 -0.413800 1 0 1.000000 
0 -1.423500 -1.739100 0.031900 0.000000 0.000000 -1.000000 0.760300 -0.431500 1 0 1.000000 
lab_objects04
0 -0.740700 2.133300 0.341200 0.000000 0.000000 1.000000 0.863700 -0.372700 1 0 1.000000 
0 -0.625500 1.816900 0.341200 0.000000 0.000000 1.000000 0.861500 -0.373500 1 0 1.000000 
0 0.035800 1.933500 0.341200 0.000000 0.000000 1.000000 0.865100 -0.393400 1 0 1.000000 
lab_objects04
0 -1.423500 1.739100 0.341200 0.000000 0.000000 1.000000 0.853200 -0.354500 1 0 1.000000 
0 -0.625500 1.816900 0.341200 0.000000 0.000000 1.000000 0.861500 -0.373500 1 0 1.000000 
0 -0.740700 2.133300 0.341200 0.000000 0.000000 1.000000 0.863700 -0.372700 1 0 1.000000 
lab_objects04
0 -1.423500 1.739100 0.341200 0.000000 0.000000 1.000000 0.853200 -0.354500 1 0 1.000000 
0 -1.207000 1.481100 0.341200 0.000000 0.000000 1.000000 0.851500 -0.356000 1 0 1.000000 
0 -0.625500 1.816900 0.341200 0.000000 0.000000 1.000000 0.861500 -0.373500 1 0 1.000000 
lab_objects04
0 -1.930300 1.135100 0.341200 0.000000 0.000000 1.000000 0.837100 -0.341000 1 0 1.000000 
0 -1.207000 1.481100 0.341200 0.000000 0.000000 1.000000 0.851500 -0.356000 1 0 1.000000 
0 -1.423500 1.739100 0.341200 0.000000 0.000000 1.000000 0.853200 -0.354500 1 0 1.000000 
lab_objects04
0 -1.930300 1.135100 0.341200 0.000000 0.000000 1.000000 0.837100 -0.341000 1 0 1.000000 
0 -1.638700 0.966700 0.341200 0.000000 0.000000 1.000000 0.836000 -0.343000 1 0 1.000000 
0 -1.207000 1.481100 0.341200 0.000000 0.000000 1.000000 0.851500 -0.356000 1 0 1.000000 
lab_objects04
0 -2.200000 0.394200 0.341200 0.000000 0.000000 1.000000 0.817400 -0.333800 1 0 1.000000 
0 -1.638700 0.966700 0.341200 0.000000 0.000000 1.000000 0.836000 -0.343000 1 0 1.000000 
0 -1.930300 1.135100 0.341200 0.000000 0.000000 1.000000 0.837100 -0.341000 1 0 1.000000 
lab_objects04
0 -2.200000 0.394200 0.341200 0.000000 0.000000 1.000000 0.817400 -0.333800 1 0 1.000000 
0 -1.868300 0.335700 0.341200 0.000000 0.000000 1.000000 0.817000 -0.336100 1 0 1.000000 
0 -1.638700 0.966700 0.341200 0.000000 0.000000 1.000000 0.836000 -0.343000 1 0 1.000000 
lab_objects04
0 -2.200000 -0.394200 0.341200 0.000000 0.000000 1.000000 0.796400 -0.333800 1 0 1.000000 
0 -1.868300 0.335700 0.341200 0.000000 0.000000 1.000000 0.817000 -0.336100 1 0 1.000000 
0 -2.200000 0.394200 0.341200 0.000000 0.000000 1.000000 0.817400 -0.333800 1 0 1.000000 
lab_objects04
0 -2.200000 -0.394200 0.341200 0.000000 0.000000 1.000000 0.796400 -0.333800 1 0 1.000000 
0 -1.868300 -0.335700 0.341200 0.000000 0.000000 1.000000 0.796800 -0.336100 1 0 1.000000 
0 -1.868300 0.335700 0.341200 0.000000 0.000000 1.000000 0.817000 -0.336100 1 0 1.000000 
lab_objects04
0 -1.930300 -1.135100 0.341200 0.000000 0.000000 1.000000 0.776700 -0.341000 1 0 1.000000 
0 -1.868300 -0.335700 0.341200 0.000000 0.000000 1.000000 0.796800 -0.336100 1 0 1.000000 
0 -2.200000 -0.394200 0.341200 0.000000 0.000000 1.000000 0.796400 -0.333800 1 0 1.000000 
lab_objects04
0 -1.930300 -1.135100 0.341200 0.000000 0.000000 1.000000 0.776700 -0.341000 1 0 1.000000 
0 -1.638700 -0.966700 0.341200 0.000000 0.000000 1.000000 0.777800 -0.343000 1 0 1.000000 
0 -1.868300 -0.335700 0.341200 0.000000 0.000000 1.000000 0.796800 -0.336100 1 0 1.000000 
lab_objects04
0 -1.423500 -1.739100 0.341200 0.000000 0.000000 1.000000 0.760600 -0.354500 1 0 1.000000 
0 -1.638700 -0.966700 0.341200 0.000000 0.000000 1.000000 0.777800 -0.343000 1 0 1.000000 
0 -1.930300 -1.135100 0.341200 0.000000 0.000000 1.000000 0.776700 -0.341000 1 0 1.000000 
lab_objects04
0 -1.423500 -1.739100 0.341200 0.000000 0.000000 1.000000 0.760600 -0.354500 1 0 1.000000 
0 -1.207000 -1.481100 0.341200 0.000000 0.000000 1.000000 0.762400 -0.356000 1 0 1.000000 
0 -1.638700 -0.966700 0.341200 0.000000 0.000000 1.000000 0.777800 -0.343000 1 0 1.000000 
lab_objects04
0 -0.740700 -2.133300 0.341200 0.000000 0.000000 1.000000 0.750100 -0.372700 1 0 1.000000 
0 -1.207000 -1.481100 0.341200 0.000000 0.000000 1.000000 0.762400 -0.356000 1 0 1.000000 
0 -1.423500 -1.739100 0.341200 0.000000 0.000000 1.000000 0.760600 -0.354500 1 0 1.000000 
lab_objects04
0 -0.740700 -2.133300 0.341200 0.000000 0.000000 1.000000 0.750100 -0.372700 1 0 1.000000 
0 -0.625500 -1.816900 0.341200 0.000000 0.000000 1.000000 0.752300 -0.373500 1 0 1.000000 
0 -1.207000 -1.481100 0.341200 0.000000 0.000000 1.000000 0.762400 -0.356000 1 0 1.000000 
lab_objects04
0 0.035800 -2.270200 0.341200 0.000000 0.000000 1.000000 0.746500 -0.393400 1 0 1.000000 
0 -0.625500 -1.816900 0.341200 0.000000 0.000000 1.000000 0.752300 -0.373500 1 0 1.000000 
0 -0.740700 -2.133300 0.341200 0.000000 0.000000 1.000000 0.750100 -0.372700 1 0 1.000000 
lab_objects04
0 0.035800 -2.270200 0.341200 0.000000 0.000000 1.000000 0.746500 -0.393400 1 0 1.000000 
0 0.035800 -1.933500 0.341200 0.000000 0.000000 1.000000 0.748800 -0.393400 1 0 1.000000 
0 -0.625500 -1.816900 0.341200 0.000000 0.000000 1.000000 0.752300 -0.373500 1 0 1.000000 
lab_objects04
0 0.812300 -2.133300 0.341200 0.000000 0.000000 1.000000 0.750100 -0.414100 1 0 1.000000 
0 0.035800 -1.933500 0.341200 0.000000 0.000000 1.000000 0.748800 -0.393400 1 0 1.000000 
0 0.035800 -2.270200 0.341200 0.000000 0.000000 1.000000 0.746500 -0.393400 1 0 1.000000 
lab_objects04
0 0.812300 -2.133300 0.341200 0.000000 0.000000 1.000000 0.750100 -0.414100 1 0 1.000000 
0 0.697100 -1.816900 0.341200 0.000000 0.000000 1.000000 0.752300 -0.413300 1 0 1.000000 
0 0.035800 -1.933500 0.341200 0.000000 0.000000 1.000000 0.748800 -0.393400 1 0 1.000000 
lab_objects04
0 1.495100 -1.739100 0.341200 0.000000 0.000000 1.000000 0.760600 -0.432200 1 0 1.000000 
0 0.697100 -1.816900 0.341200 0.000000 0.000000 1.000000 0.752300 -0.413300 1 0 1.000000 
0 0.812300 -2.133300 0.341200 0.000000 0.000000 1.000000 0.750100 -0.414100 1 0 1.000000 
lab_objects04
0 1.495100 -1.739100 0.341200 0.000000 0.000000 1.000000 0.760600 -0.432200 1 0 1.000000 
0 1.278600 -1.481100 0.341200 0.000000 0.000000 1.000000 0.762400 -0.430800 1 0 1.000000 
0 0.697100 -1.816900 0.341200 0.000000 0.000000 1.000000 0.752300 -0.413300 1 0 1.000000 
lab_objects04
0 2.001900 -1.135100 0.341200 0.000000 0.000000 1.000000 0.776700 -0.445700 1 0 1.000000 
0 1.278600 -1.481100 0.341200 0.000000 0.000000 1.000000 0.762400 -0.430800 1 0 1.000000 
0 1.495100 -1.739100 0.341200 0.000000 0.000000 1.000000 0.760600 -0.432200 1 0 1.000000 
lab_objects04
0 2.001900 -1.135100 0.341200 0.000000 0.000000 1.000000 0.776700 -0.445700 1 0 1.000000 
0 1.710200 -0.966700 0.341200 0.000000 0.000000 1.000000 0.777800 -0.443700 1 0 1.000000 
0 1.278600 -1.481100 0.341200 0.000000 0.000000 1.000000 0.762400 -0.430800 1 0 1.000000 
lab_objects04
0 2.271500 -0.394200 0.341200 0.000000 0.000000 1.000000 0.796400 -0.452900 1 0 1.000000 
0 1.710200 -0.966700 0.341200 0.000000 0.000000 1.000000 0.777800 -0.443700 1 0 1.000000 
0 2.001900 -1.135100 0.341200 0.000000 0.000000 1.000000 0.776700 -0.445700 1 0 1.000000 
lab_objects04
0 2.271500 -0.394200 0.341200 0.000000 0.000000 1.000000 0.796400 -0.452900 1 0 1.000000 
0 1.939900 -0.335700 0.341200 0.000000 0.000000 1.000000 0.796800 -0.450600 1 0 1.000000 
0 1.710200 -0.966700 0.341200 0.000000 0.000000 1.000000 0.777800 -0.443700 1 0 1.000000 
lab_objects04
0 2.271500 0.394200 0.341200 0.000000 0.000000 1.000000 0.817400 -0.452900 1 0 1.000000 
0 1.939900 -0.335700 0.341200 0.000000 0.000000 1.000000 0.796800 -0.450600 1 0 1.000000 
0 2.271500 -0.394200 0.341200 0.000000 0.000000 1.000000 0.796400 -0.452900 1 0 1.000000 
lab_objects04
0 2.271500 0.394200 0.341200 0.000000 0.000000 1.000000 0.817400 -0.452900 1 0 1.000000 
0 1.939900 0.335700 0.341200 0.000000 0.000000 1.000000 0.817000 -0.450600 1 0 1.000000 
0 1.939900 -0.335700 0.341200 0.000000 0.000000 1.000000 0.796800 -0.450600 1 0 1.000000 
lab_objects04
0 2.001900 1.135100 0.341200 0.000000 0.000000 1.000000 0.837100 -0.445700 1 0 1.000000 
0 1.939900 0.335700 0.341200 0.000000 0.000000 1.000000 0.817000 -0.450600 1 0 1.000000 
0 2.271500 0.394200 0.341200 0.000000 0.000000 1.000000 0.817400 -0.452900 1 0 1.000000 
lab_objects04
0 2.001900 1.135100 0.341200 0.000000 0.000000 1.000000 0.837100 -0.445700 1 0 1.000000 
0 1.710200 0.966700 0.341200 0.000000 0.000000 1.000000 0.836000 -0.443700 1 0 1.000000 
0 1.939900 0.335700 0.341200 0.000000 0.000000 1.000000 0.817000 -0.450600 1 0 1.000000 
lab_objects04
0 1.495100 1.739100 0.341200 0.000000 0.000000 1.000000 0.853200 -0.432200 1 0 1.000000 
0 1.710200 0.966700 0.341200 0.000000 0.000000 1.000000 0.836000 -0.443700 1 0 1.000000 
0 2.001900 1.135100 0.341200 0.000000 0.000000 1.000000 0.837100 -0.445700 1 0 1.000000 
lab_objects04
0 1.495100 1.739100 0.341200 0.000000 0.000000 1.000000 0.853200 -0.432200 1 0 1.000000 
0 1.278600 1.481100 0.341200 0.000000 0.000000 1.000000 0.851500 -0.430800 1 0 1.000000 
0 1.710200 0.966700 0.341200 0.000000 0.000000 1.000000 0.836000 -0.443700 1 0 1.000000 
lab_objects04
0 0.812300 2.133300 0.341200 0.000000 0.000000 1.000000 0.863700 -0.414100 1 0 1.000000 
0 1.278600 1.481100 0.341200 0.000000 0.000000 1.000000 0.851500 -0.430800 1 0 1.000000 
0 1.495100 1.739100 0.341200 0.000000 0.000000 1.000000 0.853200 -0.432200 1 0 1.000000 
lab_objects04
0 0.812300 2.133300 0.341200 0.000000 0.000000 1.000000 0.863700 -0.414100 1 0 1.000000 
0 0.697100 1.816900 0.341200 0.000000 0.000000 1.000000 0.861500 -0.413300 1 0 1.000000 
0 1.278600 1.481100 0.341200 0.000000 0.000000 1.000000 0.851500 -0.430800 1 0 1.000000 
lab_objects04
0 0.035800 2.270200 0.341200 0.000000 0.000000 1.000000 0.867400 -0.393400 1 0 1.000000 
0 0.697100 1.816900 0.341200 0.000000 0.000000 1.000000 0.861500 -0.413300 1 0 1.000000 
0 0.812300 2.133300 0.341200 0.000000 0.000000 1.000000 0.863700 -0.414100 1 0 1.000000 
lab_objects04
0 0.035800 2.270200 0.341200 0.000000 0.000000 1.000000 0.867400 -0.393400 1 0 1.000000 
0 0.035800 1.933500 0.341200 0.000000 0.000000 1.000000 0.865100 -0.393400 1 0 1.000000 
0 0.697100 1.816900 0.341200 0.000000 0.000000 1.000000 0.861500 -0.413300 1 0 1.000000 
lab_objects04
0 -0.740700 2.133300 0.341200 0.000000 0.000000 1.000000 0.863700 -0.372700 1 0 1.000000 
0 0.035800 1.933500 0.341200 0.000000 0.000000 1.000000 0.865100 -0.393400 1 0 1.000000 
0 0.035800 2.270200 0.341200 0.000000 0.000000 1.000000 0.867400 -0.393400 1 0 1.000000 
lab_objects04
0 -0.740700 2.133300 3.796500 0.000000 0.000000 -1.000000 0.863300 -0.414300 1 0 1.000000 
0 -0.625500 1.816900 3.796500 0.000000 0.000000 -1.000000 0.861200 -0.413500 1 0 1.000000 
0 -1.207000 1.481100 3.796500 0.000000 0.000000 -1.000000 0.851100 -0.431000 1 0 1.000000 
lab_objects04
0 0.035800 2.270200 3.796500 0.000000 0.000000 -1.000000 0.867000 -0.393600 1 0 1.000000 
0 -0.625500 1.816900 3.796500 0.000000 0.000000 -1.000000 0.861200 -0.413500 1 0 1.000000 
0 -0.740700 2.133300 3.796500 0.000000 0.000000 -1.000000 0.863300 -0.414300 1 0 1.000000 
lab_objects04
0 0.035800 2.270200 3.796500 0.000000 0.000000 -1.000000 0.867000 -0.393600 1 0 1.000000 
0 0.035800 1.933500 3.796500 0.000000 0.000000 -1.000000 0.864700 -0.393600 1 0 1.000000 
0 -0.625500 1.816900 3.796500 0.000000 0.000000 -1.000000 0.861200 -0.413500 1 0 1.000000 
lab_objects04
0 0.812300 2.133300 3.796500 0.000000 0.000000 -1.000000 0.863300 -0.373000 1 0 1.000000 
0 0.035800 1.933500 3.796500 0.000000 0.000000 -1.000000 0.864700 -0.393600 1 0 1.000000 
0 0.035800 2.270200 3.796500 0.000000 0.000000 -1.000000 0.867000 -0.393600 1 0 1.000000 
lab_objects04
0 0.812300 2.133300 3.796500 0.000000 0.000000 -1.000000 0.863300 -0.373000 1 0 1.000000 
0 0.697100 1.816900 3.796500 0.000000 0.000000 -1.000000 0.861200 -0.373800 1 0 1.000000 
0 0.035800 1.933500 3.796500 0.000000 0.000000 -1.000000 0.864700 -0.393600 1 0 1.000000 
lab_objects04
0 1.495100 1.739100 3.796500 0.000000 0.000000 -1.000000 0.852800 -0.354800 1 0 1.000000 
0 0.697100 1.816900 3.796500 0.000000 0.000000 -1.000000 0.861200 -0.373800 1 0 1.000000 
0 0.812300 2.133300 3.796500 0.000000 0.000000 -1.000000 0.863300 -0.373000 1 0 1.000000 
lab_objects04
0 1.495100 1.739100 3.796500 0.000000 0.000000 -1.000000 0.852800 -0.354800 1 0 1.000000 
0 1.278600 1.481100 3.796500 0.000000 0.000000 -1.000000 0.851100 -0.356300 1 0 1.000000 
0 0.697100 1.816900 3.796500 0.000000 0.000000 -1.000000 0.861200 -0.373800 1 0 1.000000 
lab_objects04
0 2.001900 1.135100 3.796500 0.000000 0.000000 -1.000000 0.836800 -0.341300 1 0 1.000000 
0 1.278600 1.481100 3.796500 0.000000 0.000000 -1.000000 0.851100 -0.356300 1 0 1.000000 
0 1.495100 1.739100 3.796500 0.000000 0.000000 -1.000000 0.852800 -0.354800 1 0 1.000000 
lab_objects04
0 2.001900 1.135100 3.796500 0.000000 0.000000 -1.000000 0.836800 -0.341300 1 0 1.000000 
0 1.710200 0.966700 3.796500 0.000000 0.000000 -1.000000 0.835600 -0.343300 1 0 1.000000 
0 1.278600 1.481100 3.796500 0.000000 0.000000 -1.000000 0.851100 -0.356300 1 0 1.000000 
lab_objects04
0 2.271500 0.394200 3.796500 0.000000 0.000000 -1.000000 0.817100 -0.334200 1 0 1.000000 
0 1.710200 0.966700 3.796500 0.000000 0.000000 -1.000000 0.835600 -0.343300 1 0 1.000000 
0 2.001900 1.135100 3.796500 0.000000 0.000000 -1.000000 0.836800 -0.341300 1 0 1.000000 
lab_objects04
0 2.271500 0.394200 3.796500 0.000000 0.000000 -1.000000 0.817100 -0.334200 1 0 1.000000 
0 1.939900 0.335700 3.796500 0.000000 0.000000 -1.000000 0.816700 -0.336400 1 0 1.000000 
0 1.710200 0.966700 3.796500 0.000000 0.000000 -1.000000 0.835600 -0.343300 1 0 1.000000 
lab_objects04
0 2.271500 -0.394200 3.796500 0.000000 0.000000 -1.000000 0.796100 -0.334200 1 0 1.000000 
0 1.939900 0.335700 3.796500 0.000000 0.000000 -1.000000 0.816700 -0.336400 1 0 1.000000 
0 2.271500 0.394200 3.796500 0.000000 0.000000 -1.000000 0.817100 -0.334200 1 0 1.000000 
lab_objects04
0 2.271500 -0.394200 3.796500 0.000000 0.000000 -1.000000 0.796100 -0.334200 1 0 1.000000 
0 1.939900 -0.335700 3.796500 0.000000 0.000000 -1.000000 0.796500 -0.336400 1 0 1.000000 
0 1.939900 0.335700 3.796500 0.000000 0.000000 -1.000000 0.816700 -0.336400 1 0 1.000000 
lab_objects04
0 2.001900 -1.135100 3.796500 0.000000 0.000000 -1.000000 0.776400 -0.341300 1 0 1.000000 
0 1.939900 -0.335700 3.796500 0.000000 0.000000 -1.000000 0.796500 -0.336400 1 0 1.000000 
0 2.271500 -0.394200 3.796500 0.000000 0.000000 -1.000000 0.796100 -0.334200 1 0 1.000000 
lab_objects04
0 2.001900 -1.135100 3.796500 0.000000 0.000000 -1.000000 0.776400 -0.341300 1 0 1.000000 
0 1.710200 -0.966700 3.796500 0.000000 0.000000 -1.000000 0.777600 -0.343300 1 0 1.000000 
0 1.939900 -0.335700 3.796500 0.000000 0.000000 -1.000000 0.796500 -0.336400 1 0 1.000000 
lab_objects04
0 1.495100 -1.739100 3.796500 0.000000 0.000000 -1.000000 0.760300 -0.354800 1 0 1.000000 
0 1.710200 -0.966700 3.796500 0.000000 0.000000 -1.000000 0.777600 -0.343300 1 0 1.000000 
0 2.001900 -1.135100 3.796500 0.000000 0.000000 -1.000000 0.776400 -0.341300 1 0 1.000000 
lab_objects04
0 1.495100 -1.739100 3.796500 0.000000 0.000000 -1.000000 0.760300 -0.354800 1 0 1.000000 
0 1.278600 -1.481100 3.796500 0.000000 0.000000 -1.000000 0.762100 -0.356300 1 0 1.000000 
0 1.710200 -0.966700 3.796500 0.000000 0.000000 -1.000000 0.777600 -0.343300 1 0 1.000000 
lab_objects04
0 0.812300 -2.133300 3.796500 0.000000 0.000000 -1.000000 0.749800 -0.373000 1 0 1.000000 
0 1.278600 -1.481100 3.796500 0.000000 0.000000 -1.000000 0.762100 -0.356300 1 0 1.000000 
0 1.495100 -1.739100 3.796500 0.000000 0.000000 -1.000000 0.760300 -0.354800 1 0 1.000000 
lab_objects04
0 0.812300 -2.133300 3.796500 0.000000 0.000000 -1.000000 0.749800 -0.373000 1 0 1.000000 
0 0.697100 -1.816900 3.796500 0.000000 0.000000 -1.000000 0.752000 -0.373800 1 0 1.000000 
0 1.278600 -1.481100 3.796500 0.000000 0.000000 -1.000000 0.762100 -0.356300 1 0 1.000000 
lab_objects04
0 0.035800 -2.270200 3.796500 0.000000 0.000000 -1.000000 0.746200 -0.393600 1 0 1.000000 
0 0.697100 -1.816900 3.796500 0.000000 0.000000 -1.000000 0.752000 -0.373800 1 0 1.000000 
0 0.812300 -2.133300 3.796500 0.000000 0.000000 -1.000000 0.749800 -0.373000 1 0 1.000000 
lab_objects04
0 0.035800 -2.270200 3.796500 0.000000 0.000000 -1.000000 0.746200 -0.393600 1 0 1.000000 
0 0.035800 -1.933500 3.796500 0.000000 0.000000 -1.000000 0.748500 -0.393600 1 0 1.000000 
0 0.697100 -1.816900 3.796500 0.000000 0.000000 -1.000000 0.752000 -0.373800 1 0 1.000000 
lab_objects04
0 -0.740700 -2.133300 3.796500 0.000000 0.000000 -1.000000 0.749800 -0.414300 1 0 1.000000 
0 0.035800 -1.933500 3.796500 0.000000 0.000000 -1.000000 0.748500 -0.393600 1 0 1.000000 
0 0.035800 -2.270200 3.796500 0.000000 0.000000 -1.000000 0.746200 -0.393600 1 0 1.000000 
lab_objects04
0 -0.740700 -2.133300 3.796500 0.000000 0.000000 -1.000000 0.749800 -0.414300 1 0 1.000000 
0 -0.625500 -1.816900 3.796500 0.000000 0.000000 -1.000000 0.752000 -0.413500 1 0 1.000000 
0 0.035800 -1.933500 3.796500 0.000000 0.000000 -1.000000 0.748500 -0.393600 1 0 1.000000 
lab_objects04
0 -1.423500 -1.739100 3.796500 0.000000 0.000000 -1.000000 0.760300 -0.432400 1 0 1.000000 
0 -0.625500 -1.816900 3.796500 0.000000 0.000000 -1.000000 0.752000 -0.413500 1 0 1.000000 
0 -0.740700 -2.133300 3.796500 0.000000 0.000000 -1.000000 0.749800 -0.414300 1 0 1.000000 
lab_objects04
0 -1.423500 -1.739100 3.796500 0.000000 0.000000 -1.000000 0.760300 -0.432400 1 0 1.000000 
0 -1.207000 -1.481100 3.796500 0.000000 0.000000 -1.000000 0.762100 -0.431000 1 0 1.000000 
0 -0.625500 -1.816900 3.796500 0.000000 0.000000 -1.000000 0.752000 -0.413500 1 0 1.000000 
lab_objects04
0 -1.930300 -1.135100 3.796500 0.000000 0.000000 -1.000000 0.776400 -0.445900 1 0 1.000000 
0 -1.207000 -1.481100 3.796500 0.000000 0.000000 -1.000000 0.762100 -0.431000 1 0 1.000000 
0 -1.423500 -1.739100 3.796500 0.000000 0.000000 -1.000000 0.760300 -0.432400 1 0 1.000000 
lab_objects04
0 -1.930300 -1.135100 3.796500 0.000000 0.000000 -1.000000 0.776400 -0.445900 1 0 1.000000 
0 -1.638700 -0.966700 3.796500 0.000000 0.000000 -1.000000 0.777600 -0.443900 1 0 1.000000 
0 -1.207000 -1.481100 3.796500 0.000000 0.000000 -1.000000 0.762100 -0.431000 1 0 1.000000 
lab_objects04
0 -2.200000 -0.394200 3.796500 0.000000 0.000000 -1.000000 0.796100 -0.453100 1 0 1.000000 
0 -1.638700 -0.966700 3.796500 0.000000 0.000000 -1.000000 0.777600 -0.443900 1 0 1.000000 
0 -1.930300 -1.135100 3.796500 0.000000 0.000000 -1.000000 0.776400 -0.445900 1 0 1.000000 
lab_objects04
0 -2.200000 -0.394200 3.796500 0.000000 0.000000 -1.000000 0.796100 -0.453100 1 0 1.000000 
0 -1.868300 -0.335700 3.796500 0.000000 0.000000 -1.000000 0.796500 -0.450800 1 0 1.000000 
0 -1.638700 -0.966700 3.796500 0.000000 0.000000 -1.000000 0.777600 -0.443900 1 0 1.000000 
lab_objects04
0 -2.200000 0.394200 3.796500 0.000000 0.000000 -1.000000 0.817100 -0.453100 1 0 1.000000 
0 -1.868300 -0.335700 3.796500 0.000000 0.000000 -1.000000 0.796500 -0.450800 1 0 1.000000 
0 -2.200000 -0.394200 3.796500 0.000000 0.000000 -1.000000 0.796100 -0.453100 1 0 1.000000 
lab_objects04
0 -2.200000 0.394200 3.796500 0.000000 0.000000 -1.000000 0.817100 -0.453100 1 0 1.000000 
0 -1.868300 0.335700 3.796500 0.000000 0.000000 -1.000000 0.816700 -0.450800 1 0 1.000000 
0 -1.868300 -0.335700 3.796500 0.000000 0.000000 -1.000000 0.796500 -0.450800 1 0 1.000000 
lab_objects04
0 -1.930300 1.135100 3.796500 0.000000 0.000000 -1.000000 0.836800 -0.445900 1 0 1.000000 
0 -1.868300 0.335700 3.796500 0.000000 0.000000 -1.000000 0.816700 -0.450800 1 0 1.000000 
0 -2.200000 0.394200 3.796500 0.000000 0.000000 -1.000000 0.817100 -0.453100 1 0 1.000000 
lab_objects04
0 -1.930300 1.135100 3.796500 0.000000 0.000000 -1.000000 0.836800 -0.445900 1 0 1.000000 
0 -1.638700 0.966700 3.796500 0.000000 0.000000 -1.000000 0.835600 -0.443900 1 0 1.000000 
0 -1.868300 0.335700 3.796500 0.000000 0.000000 -1.000000 0.816700 -0.450800 1 0 1.000000 
lab_objects04
0 -1.423500 1.739100 3.796500 0.000000 0.000000 -1.000000 0.852800 -0.432400 1 0 1.000000 
0 -1.638700 0.966700 3.796500 0.000000 0.000000 -1.000000 0.835600 -0.443900 1 0 1.000000 
0 -1.930300 1.135100 3.796500 0.000000 0.000000 -1.000000 0.836800 -0.445900 1 0 1.000000 
lab_objects04
0 -1.423500 1.739100 3.796500 0.000000 0.000000 -1.000000 0.852800 -0.432400 1 0 1.000000 
0 -1.207000 1.481100 3.796500 0.000000 0.000000 -1.000000 0.851100 -0.431000 1 0 1.000000 
0 -1.638700 0.966700 3.796500 0.000000 0.000000 -1.000000 0.835600 -0.443900 1 0 1.000000 
lab_objects04
0 -0.740700 2.133300 3.796500 0.000000 0.000000 -1.000000 0.863300 -0.414300 1 0 1.000000 
0 -1.207000 1.481100 3.796500 0.000000 0.000000 -1.000000 0.851100 -0.431000 1 0 1.000000 
0 -1.423500 1.739100 3.796500 0.000000 0.000000 -1.000000 0.852800 -0.432400 1 0 1.000000 
lab_objects04
0 -1.930300 -1.135100 0.341200 -0.835175 -0.549984 0.000000 0.776700 -0.341000 1 0 1.000000 
0 -1.930300 -1.135100 0.031900 -0.893886 -0.448293 0.000000 0.776700 -0.341000 1 0 1.000000 
0 -1.423500 -1.739100 0.031900 -0.686618 -0.727019 0.000000 0.760600 -0.354500 1 0 1.000000 
lab_objects04
0 -2.200000 -0.394200 0.341200 -0.972928 -0.231107 0.000000 0.796400 -0.333800 1 0 1.000000 
0 -1.930300 -1.135100 0.031900 -0.893886 -0.448293 0.000000 0.776700 -0.341000 1 0 1.000000 
0 -1.930300 -1.135100 0.341200 -0.835175 -0.549984 0.000000 0.776700 -0.341000 1 0 1.000000 
lab_objects04
0 -2.200000 -0.394200 0.341200 -0.972928 -0.231107 0.000000 0.796400 -0.333800 1 0 1.000000 
0 -2.200000 -0.394200 0.031900 -0.993296 -0.115600 0.000000 0.796400 -0.333800 1 0 1.000000 
0 -1.930300 -1.135100 0.031900 -0.893886 -0.448293 0.000000 0.776700 -0.341000 1 0 1.000000 
lab_objects04
0 -2.200000 0.394200 0.341200 -0.993296 0.115599 0.000000 0.817400 -0.333800 1 0 1.000000 
0 -2.200000 -0.394200 0.031900 -0.993296 -0.115600 0.000000 0.796400 -0.333800 1 0 1.000000 
0 -2.200000 -0.394200 0.341200 -0.972928 -0.231107 0.000000 0.796400 -0.333800 1 0 1.000000 
lab_objects04
0 -2.200000 0.394200 0.341200 -0.993296 0.115599 0.000000 0.817400 -0.333800 1 0 1.000000 
0 -2.200000 0.394200 0.031900 -0.972928 0.231107 0.000000 0.817400 -0.333800 1 0 1.000000 
0 -2.200000 -0.394200 0.031900 -0.993296 -0.115600 0.000000 0.796400 -0.333800 1 0 1.000000 
lab_objects04
0 -1.930300 1.135100 0.341200 -0.893886 0.448293 0.000000 0.837100 -0.341000 1 0 1.000000 
0 -2.200000 0.394200 0.031900 -0.972928 0.231107 0.000000 0.817400 -0.333800 1 0 1.000000 
0 -2.200000 0.394200 0.341200 -0.993296 0.115599 0.000000 0.817400 -0.333800 1 0 1.000000 
lab_objects04
0 -1.930300 1.135100 0.341200 -0.893886 0.448293 0.000000 0.837100 -0.341000 1 0 1.000000 
0 -1.930300 1.135100 0.031900 -0.835175 0.549984 0.000000 0.837100 -0.341000 1 0 1.000000 
0 -2.200000 0.394200 0.031900 -0.972928 0.231107 0.000000 0.817400 -0.333800 1 0 1.000000 
lab_objects04
0 -1.423500 1.739100 0.341200 -0.686618 0.727019 0.000000 0.853200 -0.354500 1 0 1.000000 
0 -1.930300 1.135100 0.031900 -0.835175 0.549984 0.000000 0.837100 -0.341000 1 0 1.000000 
0 -1.930300 1.135100 0.341200 -0.893886 0.448293 0.000000 0.837100 -0.341000 1 0 1.000000 
lab_objects04
0 -1.423500 1.739100 0.341200 -0.686618 0.727019 0.000000 0.853200 -0.354500 1 0 1.000000 
0 -1.423500 1.739100 0.031900 -0.596731 0.802441 0.000000 0.853200 -0.354500 1 0 1.000000 
0 -1.930300 1.135100 0.031900 -0.835175 0.549984 0.000000 0.837100 -0.341000 1 0 1.000000 
lab_objects04
0 -0.740700 2.133300 0.341200 -0.396597 0.917993 0.000000 0.863700 -0.372700 1 0 1.000000 
0 -1.423500 1.739100 0.031900 -0.596731 0.802441 0.000000 0.853200 -0.354500 1 0 1.000000 
0 -1.423500 1.739100 0.341200 -0.686618 0.727019 0.000000 0.853200 -0.354500 1 0 1.000000 
lab_objects04
0 -0.740700 2.133300 0.341200 -0.396597 0.917993 0.000000 0.863700 -0.372700 1 0 1.000000 
0 -0.740700 2.133300 0.031900 -0.286311 0.958137 0.000000 0.863700 -0.372700 1 0 1.000000 
0 -1.423500 1.739100 0.031900 -0.596731 0.802441 0.000000 0.853200 -0.354500 1 0 1.000000 
lab_objects04
0 0.035800 2.270200 0.341200 -0.058699 0.998276 0.000000 0.867400 -0.393400 1 0 1.000000 
0 -0.740700 2.133300 0.031900 -0.286311 0.958137 0.000000 0.863700 -0.372700 1 0 1.000000 
0 -0.740700 2.133300 0.341200 -0.396597 0.917993 0.000000 0.863700 -0.372700 1 0 1.000000 
lab_objects04
0 0.035800 2.270200 0.341200 -0.058699 0.998276 0.000000 0.867400 -0.393400 1 0 1.000000 
0 0.035800 2.270200 0.031900 0.058699 0.998276 0.000000 0.867400 -0.393400 1 0 1.000000 
0 -0.740700 2.133300 0.031900 -0.286311 0.958137 0.000000 0.863700 -0.372700 1 0 1.000000 
lab_objects04
0 0.812300 2.133300 0.341200 0.286311 0.958137 0.000000 0.863700 -0.414100 1 0 1.000000 
0 0.035800 2.270200 0.031900 0.058699 0.998276 0.000000 0.867400 -0.393400 1 0 1.000000 
0 0.035800 2.270200 0.341200 -0.058699 0.998276 0.000000 0.867400 -0.393400 1 0 1.000000 
lab_objects04
0 0.812300 2.133300 0.341200 0.286311 0.958137 0.000000 0.863700 -0.414100 1 0 1.000000 
0 0.812300 2.133300 0.031900 0.396597 0.917993 0.000000 0.863700 -0.414100 1 0 1.000000 
0 0.035800 2.270200 0.031900 0.058699 0.998276 0.000000 0.867400 -0.393400 1 0 1.000000 
lab_objects04
0 1.495100 1.739100 0.341200 0.596731 0.802441 0.000000 0.853200 -0.432200 1 0 1.000000 
0 0.812300 2.133300 0.031900 0.396597 0.917993 0.000000 0.863700 -0.414100 1 0 1.000000 
0 0.812300 2.133300 0.341200 0.286311 0.958137 0.000000 0.863700 -0.414100 1 0 1.000000 
lab_objects04
0 1.495100 1.739100 0.341200 0.596731 0.802441 0.000000 0.853200 -0.432200 1 0 1.000000 
0 1.495100 1.739100 0.031900 0.686618 0.727019 0.000000 0.853200 -0.432200 1 0 1.000000 
0 0.812300 2.133300 0.031900 0.396597 0.917993 0.000000 0.863700 -0.414100 1 0 1.000000 
lab_objects04
0 2.001900 1.135100 0.341200 0.835175 0.549984 0.000000 0.837100 -0.445700 1 0 1.000000 
0 1.495100 1.739100 0.031900 0.686618 0.727019 0.000000 0.853200 -0.432200 1 0 1.000000 
0 1.495100 1.739100 0.341200 0.596731 0.802441 0.000000 0.853200 -0.432200 1 0 1.000000 
lab_objects04
0 2.001900 1.135100 0.341200 0.835175 0.549984 0.000000 0.837100 -0.445700 1 0 1.000000 
0 2.001900 1.135100 0.031900 0.893886 0.448293 0.000000 0.837100 -0.445700 1 0 1.000000 
0 1.495100 1.739100 0.031900 0.686618 0.727019 0.000000 0.853200 -0.432200 1 0 1.000000 
lab_objects04
0 2.271500 0.394200 0.341200 0.972928 0.231107 0.000000 0.817400 -0.452900 1 0 1.000000 
0 2.001900 1.135100 0.031900 0.893886 0.448293 0.000000 0.837100 -0.445700 1 0 1.000000 
0 2.001900 1.135100 0.341200 0.835175 0.549984 0.000000 0.837100 -0.445700 1 0 1.000000 
lab_objects04
0 2.271500 0.394200 0.341200 0.972928 0.231107 0.000000 0.817400 -0.452900 1 0 1.000000 
0 2.271500 0.394200 0.031900 0.993296 0.115600 0.000000 0.817400 -0.452900 1 0 1.000000 
0 2.001900 1.135100 0.031900 0.893886 0.448293 0.000000 0.837100 -0.445700 1 0 1.000000 
lab_objects04
0 2.271500 -0.394200 0.341200 0.993296 -0.115599 0.000000 0.796400 -0.452900 1 0 1.000000 
0 2.271500 0.394200 0.031900 0.993296 0.115600 0.000000 0.817400 -0.452900 1 0 1.000000 
0 2.271500 0.394200 0.341200 0.972928 0.231107 0.000000 0.817400 -0.452900 1 0 1.000000 
lab_objects04
0 2.271500 -0.394200 0.341200 0.993296 -0.115599 0.000000 0.796400 -0.452900 1 0 1.000000 
0 2.271500 -0.394200 0.031900 0.972928 -0.231107 0.000000 0.796400 -0.452900 1 0 1.000000 
0 2.271500 0.394200 0.031900 0.993296 0.115600 0.000000 0.817400 -0.452900 1 0 1.000000 
lab_objects04
0 2.001900 -1.135100 0.341200 0.893886 -0.448293 0.000000 0.776700 -0.445700 1 0 1.000000 
0 2.271500 -0.394200 0.031900 0.972928 -0.231107 0.000000 0.796400 -0.452900 1 0 1.000000 
0 2.271500 -0.394200 0.341200 0.993296 -0.115599 0.000000 0.796400 -0.452900 1 0 1.000000 
lab_objects04
0 2.001900 -1.135100 0.341200 0.893886 -0.448293 0.000000 0.776700 -0.445700 1 0 1.000000 
0 2.001900 -1.135100 0.031900 0.835175 -0.549984 0.000000 0.776700 -0.445700 1 0 1.000000 
0 2.271500 -0.394200 0.031900 0.972928 -0.231107 0.000000 0.796400 -0.452900 1 0 1.000000 
lab_objects04
0 1.495100 -1.739100 0.341200 0.686618 -0.727019 0.000000 0.760600 -0.432200 1 0 1.000000 
0 2.001900 -1.135100 0.031900 0.835175 -0.549984 0.000000 0.776700 -0.445700 1 0 1.000000 
0 2.001900 -1.135100 0.341200 0.893886 -0.448293 0.000000 0.776700 -0.445700 1 0 1.000000 
lab_objects04
0 1.495100 -1.739100 0.341200 0.686618 -0.727019 0.000000 0.760600 -0.432200 1 0 1.000000 
0 1.495100 -1.739100 0.031900 0.596731 -0.802441 0.000000 0.760600 -0.432200 1 0 1.000000 
0 2.001900 -1.135100 0.031900 0.835175 -0.549984 0.000000 0.776700 -0.445700 1 0 1.000000 
lab_objects04
0 0.812300 -2.133300 0.341200 0.396597 -0.917993 0.000000 0.750100 -0.414100 1 0 1.000000 
0 1.495100 -1.739100 0.031900 0.596731 -0.802441 0.000000 0.760600 -0.432200 1 0 1.000000 
0 1.495100 -1.739100 0.341200 0.686618 -0.727019 0.000000 0.760600 -0.432200 1 0 1.000000 
lab_objects04
0 0.812300 -2.133300 0.341200 0.396597 -0.917993 0.000000 0.750100 -0.414100 1 0 1.000000 
0 0.812300 -2.133300 0.031900 0.286311 -0.958137 0.000000 0.750100 -0.414100 1 0 1.000000 
0 1.495100 -1.739100 0.031900 0.596731 -0.802441 0.000000 0.760600 -0.432200 1 0 1.000000 
lab_objects04
0 0.035800 -2.270200 0.341200 0.058699 -0.998276 0.000000 0.746500 -0.393400 1 0 1.000000 
0 0.812300 -2.133300 0.031900 0.286311 -0.958137 0.000000 0.750100 -0.414100 1 0 1.000000 
0 0.812300 -2.133300 0.341200 0.396597 -0.917993 0.000000 0.750100 -0.414100 1 0 1.000000 
lab_objects04
0 0.035800 -2.270200 0.341200 0.058699 -0.998276 0.000000 0.746500 -0.393400 1 0 1.000000 
0 0.035800 -2.270200 0.031900 -0.058699 -0.998276 0.000000 0.746500 -0.393400 1 0 1.000000 
0 0.812300 -2.133300 0.031900 0.286311 -0.958137 0.000000 0.750100 -0.414100 1 0 1.000000 
lab_objects04
0 -0.740700 -2.133300 0.341200 -0.286311 -0.958137 0.000000 0.750100 -0.372700 1 0 1.000000 
0 0.035800 -2.270200 0.031900 -0.058699 -0.998276 0.000000 0.746500 -0.393400 1 0 1.000000 
0 0.035800 -2.270200 0.341200 0.058699 -0.998276 0.000000 0.746500 -0.393400 1 0 1.000000 
lab_objects04
0 -0.740700 -2.133300 0.341200 -0.286311 -0.958137 0.000000 0.750100 -0.372700 1 0 1.000000 
0 -0.740700 -2.133300 0.031900 -0.396597 -0.917993 0.000000 0.750100 -0.372700 1 0 1.000000 
0 0.035800 -2.270200 0.031900 -0.058699 -0.998276 0.000000 0.746500 -0.393400 1 0 1.000000 
lab_objects04
0 -1.423500 -1.739100 0.341200 -0.596731 -0.802441 0.000000 0.760600 -0.354500 1 0 1.000000 
0 -0.740700 -2.133300 0.031900 -0.396597 -0.917993 0.000000 0.750100 -0.372700 1 0 1.000000 
0 -0.740700 -2.133300 0.341200 -0.286311 -0.958137 0.000000 0.750100 -0.372700 1 0 1.000000 
lab_objects04
0 -1.423500 -1.739100 0.341200 -0.596731 -0.802441 0.000000 0.760600 -0.354500 1 0 1.000000 
0 -1.423500 -1.739100 0.031900 -0.686618 -0.727019 0.000000 0.760600 -0.354500 1 0 1.000000 
0 -0.740700 -2.133300 0.031900 -0.396597 -0.917993 0.000000 0.750100 -0.372700 1 0 1.000000 
lab_objects04
0 -1.930300 -1.135100 0.341200 -0.835175 -0.549984 0.000000 0.776700 -0.341000 1 0 1.000000 
0 -1.423500 -1.739100 0.031900 -0.686618 -0.727019 0.000000 0.760600 -0.354500 1 0 1.000000 
0 -1.423500 -1.739100 0.341200 -0.596731 -0.802441 0.000000 0.760600 -0.354500 1 0 1.000000 
lab_objects04
0 0.812300 -2.133300 3.796500 0.286311 -0.958137 0.000000 0.749800 -0.373000 1 0 1.000000 
0 0.035800 -2.270200 4.107000 0.058699 -0.998276 0.000000 0.746200 -0.393600 1 0 1.000000 
0 0.035800 -2.270200 3.796500 -0.058699 -0.998276 0.000000 0.746200 -0.393600 1 0 1.000000 
lab_objects04
0 0.035800 -2.270200 3.796500 -0.058699 -0.998276 0.000000 0.746200 -0.393600 1 0 1.000000 
0 0.035800 -2.270200 4.107000 0.058699 -0.998276 0.000000 0.746200 -0.393600 1 0 1.000000 
0 -0.740700 -2.133300 4.107000 -0.286311 -0.958137 0.000000 0.749800 -0.414300 1 0 1.000000 
lab_objects04
0 0.035800 -2.270200 3.796500 -0.058699 -0.998276 0.000000 0.746200 -0.393600 1 0 1.000000 
0 -0.740700 -2.133300 4.107000 -0.286311 -0.958137 0.000000 0.749800 -0.414300 1 0 1.000000 
0 -0.740700 -2.133300 3.796500 -0.396597 -0.917993 0.000000 0.749800 -0.414300 1 0 1.000000 
lab_objects04
0 -0.740700 -2.133300 3.796500 -0.396597 -0.917993 0.000000 0.749800 -0.414300 1 0 1.000000 
0 -0.740700 -2.133300 4.107000 -0.286311 -0.958137 0.000000 0.749800 -0.414300 1 0 1.000000 
0 -1.423500 -1.739100 4.107000 -0.596731 -0.802441 0.000000 0.760300 -0.432400 1 0 1.000000 
lab_objects04
0 -0.740700 -2.133300 3.796500 -0.396597 -0.917993 0.000000 0.749800 -0.414300 1 0 1.000000 
0 -1.423500 -1.739100 4.107000 -0.596731 -0.802441 0.000000 0.760300 -0.432400 1 0 1.000000 
0 -1.423500 -1.739100 3.796500 -0.686618 -0.727019 0.000000 0.760300 -0.432400 1 0 1.000000 
lab_objects04
0 -1.423500 -1.739100 3.796500 -0.686618 -0.727019 0.000000 0.760300 -0.432400 1 0 1.000000 
0 -1.423500 -1.739100 4.107000 -0.596731 -0.802441 0.000000 0.760300 -0.432400 1 0 1.000000 
0 -1.930300 -1.135100 4.107000 -0.835175 -0.549984 0.000000 0.776400 -0.445900 1 0 1.000000 
lab_objects04
0 -1.423500 -1.739100 3.796500 -0.686618 -0.727019 0.000000 0.760300 -0.432400 1 0 1.000000 
0 -1.930300 -1.135100 4.107000 -0.835175 -0.549984 0.000000 0.776400 -0.445900 1 0 1.000000 
0 -1.930300 -1.135100 3.796500 -0.893886 -0.448293 0.000000 0.776400 -0.445900 1 0 1.000000 
lab_objects04
0 -1.930300 -1.135100 3.796500 -0.893886 -0.448293 0.000000 0.776400 -0.445900 1 0 1.000000 
0 -1.930300 -1.135100 4.107000 -0.835175 -0.549984 0.000000 0.776400 -0.445900 1 0 1.000000 
0 -2.200000 -0.394200 4.107000 -0.972928 -0.231107 0.000000 0.796100 -0.453100 1 0 1.000000 
lab_objects04
0 -1.930300 -1.135100 3.796500 -0.893886 -0.448293 0.000000 0.776400 -0.445900 1 0 1.000000 
0 -2.200000 -0.394200 4.107000 -0.972928 -0.231107 0.000000 0.796100 -0.453100 1 0 1.000000 
0 -2.200000 -0.394200 3.796500 -0.993296 -0.115600 0.000000 0.796100 -0.453100 1 0 1.000000 
lab_objects04
0 -2.200000 -0.394200 3.796500 -0.993296 -0.115600 0.000000 0.796100 -0.453100 1 0 1.000000 
0 -2.200000 -0.394200 4.107000 -0.972928 -0.231107 0.000000 0.796100 -0.453100 1 0 1.000000 
0 -2.200000 0.394200 4.107000 -0.993296 0.115599 0.000000 0.817100 -0.453100 1 0 1.000000 
lab_objects04
0 -2.200000 -0.394200 3.796500 -0.993296 -0.115600 0.000000 0.796100 -0.453100 1 0 1.000000 
0 -2.200000 0.394200 4.107000 -0.993296 0.115599 0.000000 0.817100 -0.453100 1 0 1.000000 
0 -2.200000 0.394200 3.796500 -0.972928 0.231107 0.000000 0.817100 -0.453100 1 0 1.000000 
lab_objects04
0 -2.200000 0.394200 3.796500 -0.972928 0.231107 0.000000 0.817100 -0.453100 1 0 1.000000 
0 -2.200000 0.394200 4.107000 -0.993296 0.115599 0.000000 0.817100 -0.453100 1 0 1.000000 
0 -1.930300 1.135100 4.107000 -0.893886 0.448293 0.000000 0.836800 -0.445900 1 0 1.000000 
lab_objects04
0 -2.200000 0.394200 3.796500 -0.972928 0.231107 0.000000 0.817100 -0.453100 1 0 1.000000 
0 -1.930300 1.135100 4.107000 -0.893886 0.448293 0.000000 0.836800 -0.445900 1 0 1.000000 
0 -1.930300 1.135100 3.796500 -0.835175 0.549984 0.000000 0.836800 -0.445900 1 0 1.000000 
lab_objects04
0 -1.930300 1.135100 3.796500 -0.835175 0.549984 0.000000 0.836800 -0.445900 1 0 1.000000 
0 -1.930300 1.135100 4.107000 -0.893886 0.448293 0.000000 0.836800 -0.445900 1 0 1.000000 
0 -1.423500 1.739100 4.107000 -0.686618 0.727019 0.000000 0.852800 -0.432400 1 0 1.000000 
lab_objects04
0 -1.930300 1.135100 3.796500 -0.835175 0.549984 0.000000 0.836800 -0.445900 1 0 1.000000 
0 -1.423500 1.739100 4.107000 -0.686618 0.727019 0.000000 0.852800 -0.432400 1 0 1.000000 
0 -1.423500 1.739100 3.796500 -0.596731 0.802441 0.000000 0.852800 -0.432400 1 0 1.000000 
lab_objects04
0 -1.423500 1.739100 3.796500 -0.596731 0.802441 0.000000 0.852800 -0.432400 1 0 1.000000 
0 -1.423500 1.739100 4.107000 -0.686618 0.727019 0.000000 0.852800 -0.432400 1 0 1.000000 
0 -0.740700 2.133300 4.107000 -0.396597 0.917993 0.000000 0.863300 -0.414300 1 0 1.000000 
lab_objects04
0 -1.423500 1.739100 3.796500 -0.596731 0.802441 0.000000 0.852800 -0.432400 1 0 1.000000 
0 -0.740700 2.133300 4.107000 -0.396597 0.917993 0.000000 0.863300 -0.414300 1 0 1.000000 
0 -0.740700 2.133300 3.796500 -0.286311 0.958137 0.000000 0.863300 -0.414300 1 0 1.000000 
lab_objects04
0 -0.740700 2.133300 3.796500 -0.286311 0.958137 0.000000 0.863300 -0.414300 1 0 1.000000 
0 -0.740700 2.133300 4.107000 -0.396597 0.917993 0.000000 0.863300 -0.414300 1 0 1.000000 
0 0.035800 2.270200 4.107000 -0.058699 0.998276 0.000000 0.867000 -0.393600 1 0 1.000000 
lab_objects04
0 -0.740700 2.133300 3.796500 -0.286311 0.958137 0.000000 0.863300 -0.414300 1 0 1.000000 
0 0.035800 2.270200 4.107000 -0.058699 0.998276 0.000000 0.867000 -0.393600 1 0 1.000000 
0 0.035800 2.270200 3.796500 0.058699 0.998276 0.000000 0.867000 -0.393600 1 0 1.000000 
lab_objects04
0 0.035800 2.270200 3.796500 0.058699 0.998276 0.000000 0.867000 -0.393600 1 0 1.000000 
0 0.035800 2.270200 4.107000 -0.058699 0.998276 0.000000 0.867000 -0.393600 1 0 1.000000 
0 0.812300 2.133300 4.107000 0.286311 0.958137 0.000000 0.863300 -0.373000 1 0 1.000000 
lab_objects04
0 0.035800 2.270200 3.796500 0.058699 0.998276 0.000000 0.867000 -0.393600 1 0 1.000000 
0 0.812300 2.133300 4.107000 0.286311 0.958137 0.000000 0.863300 -0.373000 1 0 1.000000 
0 0.812300 2.133300 3.796500 0.396597 0.917993 0.000000 0.863300 -0.373000 1 0 1.000000 
lab_objects04
0 0.812300 2.133300 3.796500 0.396597 0.917993 0.000000 0.863300 -0.373000 1 0 1.000000 
0 0.812300 2.133300 4.107000 0.286311 0.958137 0.000000 0.863300 -0.373000 1 0 1.000000 
0 1.495100 1.739100 4.107000 0.596731 0.802441 0.000000 0.852800 -0.354800 1 0 1.000000 
lab_objects04
0 0.812300 2.133300 3.796500 0.396597 0.917993 0.000000 0.863300 -0.373000 1 0 1.000000 
0 1.495100 1.739100 4.107000 0.596731 0.802441 0.000000 0.852800 -0.354800 1 0 1.000000 
0 1.495100 1.739100 3.796500 0.686618 0.727019 0.000000 0.852800 -0.354800 1 0 1.000000 
lab_objects04
0 1.495100 1.739100 3.796500 0.686618 0.727019 0.000000 0.852800 -0.354800 1 0 1.000000 
0 1.495100 1.739100 4.107000 0.596731 0.802441 0.000000 0.852800 -0.354800 1 0 1.000000 
0 2.001900 1.135100 4.107000 0.835175 0.549984 0.000000 0.836800 -0.341300 1 0 1.000000 
lab_objects04
0 1.495100 1.739100 3.796500 0.686618 0.727019 0.000000 0.852800 -0.354800 1 0 1.000000 
0 2.001900 1.135100 4.107000 0.835175 0.549984 0.000000 0.836800 -0.341300 1 0 1.000000 
0 2.001900 1.135100 3.796500 0.893886 0.448293 0.000000 0.836800 -0.341300 1 0 1.000000 
lab_objects04
0 2.001900 1.135100 3.796500 0.893886 0.448293 0.000000 0.836800 -0.341300 1 0 1.000000 
0 2.001900 1.135100 4.107000 0.835175 0.549984 0.000000 0.836800 -0.341300 1 0 1.000000 
0 2.271500 0.394200 4.107000 0.972928 0.231107 0.000000 0.817100 -0.334200 1 0 1.000000 
lab_objects04
0 2.001900 1.135100 3.796500 0.893886 0.448293 0.000000 0.836800 -0.341300 1 0 1.000000 
0 2.271500 0.394200 4.107000 0.972928 0.231107 0.000000 0.817100 -0.334200 1 0 1.000000 
0 2.271500 0.394200 3.796500 0.993296 0.115600 0.000000 0.817100 -0.334200 1 0 1.000000 
lab_objects04
0 2.271500 0.394200 3.796500 0.993296 0.115600 0.000000 0.817100 -0.334200 1 0 1.000000 
0 2.271500 0.394200 4.107000 0.972928 0.231107 0.000000 0.817100 -0.334200 1 0 1.000000 
0 2.271500 -0.394200 4.107000 0.993296 -0.115599 0.000000 0.796100 -0.334200 1 0 1.000000 
lab_objects04
0 2.271500 0.394200 3.796500 0.993296 0.115600 0.000000 0.817100 -0.334200 1 0 1.000000 
0 2.271500 -0.394200 4.107000 0.993296 -0.115599 0.000000 0.796100 -0.334200 1 0 1.000000 
0 2.271500 -0.394200 3.796500 0.972928 -0.231107 0.000000 0.796100 -0.334200 1 0 1.000000 
lab_objects04
0 2.271500 -0.394200 3.796500 0.972928 -0.231107 0.000000 0.796100 -0.334200 1 0 1.000000 
0 2.271500 -0.394200 4.107000 0.993296 -0.115599 0.000000 0.796100 -0.334200 1 0 1.000000 
0 2.001900 -1.135100 4.107000 0.893886 -0.448293 0.000000 0.776400 -0.341300 1 0 1.000000 
lab_objects04
0 2.271500 -0.394200 3.796500 0.972928 -0.231107 0.000000 0.796100 -0.334200 1 0 1.000000 
0 2.001900 -1.135100 4.107000 0.893886 -0.448293 0.000000 0.776400 -0.341300 1 0 1.000000 
0 2.001900 -1.135100 3.796500 0.835175 -0.549984 0.000000 0.776400 -0.341300 1 0 1.000000 
lab_objects04
0 2.001900 -1.135100 3.796500 0.835175 -0.549984 0.000000 0.776400 -0.341300 1 0 1.000000 
0 2.001900 -1.135100 4.107000 0.893886 -0.448293 0.000000 0.776400 -0.341300 1 0 1.000000 
0 1.495100 -1.739100 4.107000 0.686618 -0.727019 0.000000 0.760300 -0.354800 1 0 1.000000 
lab_objects04
0 2.001900 -1.135100 3.796500 0.835175 -0.549984 0.000000 0.776400 -0.341300 1 0 1.000000 
0 1.495100 -1.739100 4.107000 0.686618 -0.727019 0.000000 0.760300 -0.354800 1 0 1.000000 
0 1.495100 -1.739100 3.796500 0.596731 -0.802441 0.000000 0.760300 -0.354800 1 0 1.000000 
lab_objects04
0 1.495100 -1.739100 3.796500 0.596731 -0.802441 0.000000 0.760300 -0.354800 1 0 1.000000 
0 1.495100 -1.739100 4.107000 0.686618 -0.727019 0.000000 0.760300 -0.354800 1 0 1.000000 
0 0.812300 -2.133300 4.107000 0.396597 -0.917993 0.000000 0.749800 -0.373000 1 0 1.000000 
lab_objects04
0 1.495100 -1.739100 3.796500 0.596731 -0.802441 0.000000 0.760300 -0.354800 1 0 1.000000 
0 0.812300 -2.133300 4.107000 0.396597 -0.917993 0.000000 0.749800 -0.373000 1 0 1.000000 
0 0.812300 -2.133300 3.796500 0.286311 -0.958137 0.000000 0.749800 -0.373000 1 0 1.000000 
lab_objects04
0 0.812300 -2.133300 3.796500 0.286311 -0.958137 0.000000 0.749800 -0.373000 1 0 1.000000 
0 0.812300 -2.133300 4.107000 0.396597 -0.917993 0.000000 0.749800 -0.373000 1 0 1.000000 
0 0.035800 -2.270200 4.107000 0.058699 -0.998276 0.000000 0.746200 -0.393600 1 0 1.000000 
lab_objects04
0 0.812300 -2.133300 4.107000 0.000000 0.000000 1.000000 0.749300 -0.413900 1 0 1.000000 
0 -0.740700 -2.133300 4.107000 0.000000 0.000000 1.000000 0.749300 -0.373400 1 0 1.000000 
0 0.035800 -2.270200 4.107000 0.000000 0.000000 1.000000 0.745800 -0.393600 1 0 1.000000 
lab_objects04
0 0.812300 -2.133300 4.107000 0.000000 0.000000 1.000000 0.749300 -0.413900 1 0 1.000000 
0 -1.423500 -1.739100 4.107000 0.000000 0.000000 1.000000 0.759600 -0.355600 1 0 1.000000 
0 -0.740700 -2.133300 4.107000 0.000000 0.000000 1.000000 0.749300 -0.373400 1 0 1.000000 
lab_objects04
0 0.812300 -2.133300 4.107000 0.000000 0.000000 1.000000 0.749300 -0.413900 1 0 1.000000 
0 -1.930300 -1.135100 4.107000 0.000000 0.000000 1.000000 0.775400 -0.342400 1 0 1.000000 
0 -1.423500 -1.739100 4.107000 0.000000 0.000000 1.000000 0.759600 -0.355600 1 0 1.000000 
lab_objects04
0 0.812300 -2.133300 4.107000 0.000000 0.000000 1.000000 0.749300 -0.413900 1 0 1.000000 
0 -2.200000 -0.394200 4.107000 0.000000 0.000000 1.000000 0.794700 -0.335400 1 0 1.000000 
0 -1.930300 -1.135100 4.107000 0.000000 0.000000 1.000000 0.775400 -0.342400 1 0 1.000000 
lab_objects04
0 0.812300 -2.133300 4.107000 0.000000 0.000000 1.000000 0.749300 -0.413900 1 0 1.000000 
0 -2.200000 0.394200 4.107000 0.000000 0.000000 1.000000 0.815200 -0.335400 1 0 1.000000 
0 -2.200000 -0.394200 4.107000 0.000000 0.000000 1.000000 0.794700 -0.335400 1 0 1.000000 
lab_objects04
0 0.812300 -2.133300 4.107000 0.000000 0.000000 1.000000 0.749300 -0.413900 1 0 1.000000 
0 -1.930300 1.135100 4.107000 0.000000 0.000000 1.000000 0.834500 -0.342400 1 0 1.000000 
0 -2.200000 0.394200 4.107000 0.000000 0.000000 1.000000 0.815200 -0.335400 1 0 1.000000 
lab_objects04
0 0.812300 -2.133300 4.107000 0.000000 0.000000 1.000000 0.749300 -0.413900 1 0 1.000000 
0 -1.423500 1.739100 4.107000 0.000000 0.000000 1.000000 0.850300 -0.355600 1 0 1.000000 
0 -1.930300 1.135100 4.107000 0.000000 0.000000 1.000000 0.834500 -0.342400 1 0 1.000000 
lab_objects04
0 0.812300 -2.133300 4.107000 0.000000 0.000000 1.000000 0.749300 -0.413900 1 0 1.000000 
0 -0.740700 2.133300 4.107000 0.000000 0.000000 1.000000 0.860500 -0.373400 1 0 1.000000 
0 -1.423500 1.739100 4.107000 0.000000 0.000000 1.000000 0.850300 -0.355600 1 0 1.000000 
lab_objects04
0 0.812300 -2.133300 4.107000 0.000000 0.000000 1.000000 0.749300 -0.413900 1 0 1.000000 
0 0.035800 2.270200 4.107000 0.000000 0.000000 1.000000 0.864100 -0.393600 1 0 1.000000 
0 -0.740700 2.133300 4.107000 0.000000 0.000000 1.000000 0.860500 -0.373400 1 0 1.000000 
lab_objects04
0 0.812300 -2.133300 4.107000 0.000000 0.000000 1.000000 0.749300 -0.413900 1 0 1.000000 
0 0.812300 2.133300 4.107000 0.000000 0.000000 1.000000 0.860500 -0.413900 1 0 1.000000 
0 0.035800 2.270200 4.107000 0.000000 0.000000 1.000000 0.864100 -0.393600 1 0 1.000000 
lab_objects04
0 0.812300 -2.133300 4.107000 0.000000 0.000000 1.000000 0.749300 -0.413900 1 0 1.000000 
0 1.495100 1.739100 4.107000 0.000000 0.000000 1.000000 0.850300 -0.431700 1 0 1.000000 
0 0.812300 2.133300 4.107000 0.000000 0.000000 1.000000 0.860500 -0.413900 1 0 1.000000 
lab_objects04
0 0.812300 -2.133300 4.107000 0.000000 0.000000 1.000000 0.749300 -0.413900 1 0 1.000000 
0 2.001900 1.135100 4.107000 0.000000 0.000000 1.000000 0.834500 -0.444900 1 0 1.000000 
0 1.495100 1.739100 4.107000 0.000000 0.000000 1.000000 0.850300 -0.431700 1 0 1.000000 
lab_objects04
0 0.812300 -2.133300 4.107000 0.000000 0.000000 1.000000 0.749300 -0.413900 1 0 1.000000 
0 2.271500 0.394200 4.107000 0.000000 0.000000 1.000000 0.815200 -0.451900 1 0 1.000000 
0 2.001900 1.135100 4.107000 0.000000 0.000000 1.000000 0.834500 -0.444900 1 0 1.000000 
lab_objects04
0 0.812300 -2.133300 4.107000 0.000000 0.000000 1.000000 0.749300 -0.413900 1 0 1.000000 
0 2.271500 -0.394200 4.107000 0.000000 0.000000 1.000000 0.794700 -0.451900 1 0 1.000000 
0 2.271500 0.394200 4.107000 0.000000 0.000000 1.000000 0.815200 -0.451900 1 0 1.000000 
lab_objects04
0 0.812300 -2.133300 4.107000 0.000000 0.000000 1.000000 0.749300 -0.413900 1 0 1.000000 
0 2.001900 -1.135100 4.107000 0.000000 0.000000 1.000000 0.775400 -0.444900 1 0 1.000000 
0 2.271500 -0.394200 4.107000 0.000000 0.000000 1.000000 0.794700 -0.451900 1 0 1.000000 
lab_objects04
0 0.812300 -2.133300 4.107000 0.000000 0.000000 1.000000 0.749300 -0.413900 1 0 1.000000 
0 1.495100 -1.739100 4.107000 0.000000 0.000000 1.000000 0.759600 -0.431700 1 0 1.000000 
0 2.001900 -1.135100 4.107000 0.000000 0.000000 1.000000 0.775400 -0.444900 1 0 1.000000 
lab_objects04
0 0.035800 -1.933500 0.341200 0.058699 -0.998276 0.000000 0.672900 -0.421600 1 0 1.000000 
0 0.697100 -1.816900 0.341200 0.396597 -0.917993 0.000000 0.674700 -0.421600 1 0 1.000000 
0 0.697100 -1.816900 3.796500 0.286311 -0.958137 0.000000 0.674700 -0.386400 1 0 1.000000 
lab_objects04
0 0.697100 -1.816900 0.341200 0.396597 -0.917993 0.000000 0.674700 -0.421600 1 0 1.000000 
0 1.278600 -1.481100 3.796500 0.596731 -0.802441 0.000000 0.680000 -0.386400 1 0 1.000000 
0 0.697100 -1.816900 3.796500 0.286311 -0.958137 0.000000 0.674700 -0.386400 1 0 1.000000 
lab_objects04
0 0.697100 -1.816900 0.341200 0.396597 -0.917993 0.000000 0.674700 -0.421600 1 0 1.000000 
0 1.278600 -1.481100 0.341200 0.686618 -0.727019 0.000000 0.680000 -0.421600 1 0 1.000000 
0 1.278600 -1.481100 3.796500 0.596731 -0.802441 0.000000 0.680000 -0.386400 1 0 1.000000 
lab_objects04
0 1.278600 -1.481100 0.341200 0.686618 -0.727019 0.000000 0.680000 -0.421600 1 0 1.000000 
0 1.710200 -0.966700 3.796500 0.835175 -0.549984 0.000000 0.688100 -0.386400 1 0 1.000000 
0 1.278600 -1.481100 3.796500 0.596731 -0.802441 0.000000 0.680000 -0.386400 1 0 1.000000 
lab_objects04
0 1.278600 -1.481100 0.341200 0.686618 -0.727019 0.000000 0.680000 -0.421600 1 0 1.000000 
0 1.710200 -0.966700 0.341200 0.893886 -0.448293 0.000000 0.688100 -0.421600 1 0 1.000000 
0 1.710200 -0.966700 3.796500 0.835175 -0.549984 0.000000 0.688100 -0.386400 1 0 1.000000 
lab_objects04
0 1.710200 -0.966700 0.341200 0.893886 -0.448293 0.000000 0.688100 -0.421600 1 0 1.000000 
0 1.939900 -0.335700 3.796500 0.972928 -0.231107 0.000000 0.697900 -0.386400 1 0 1.000000 
0 1.710200 -0.966700 3.796500 0.835175 -0.549984 0.000000 0.688100 -0.386400 1 0 1.000000 
lab_objects04
0 1.710200 -0.966700 0.341200 0.893886 -0.448293 0.000000 0.688100 -0.421600 1 0 1.000000 
0 1.939900 -0.335700 0.341200 0.993296 -0.115599 0.000000 0.697900 -0.421600 1 0 1.000000 
0 1.939900 -0.335700 3.796500 0.972928 -0.231107 0.000000 0.697900 -0.386400 1 0 1.000000 
lab_objects04
0 1.939900 -0.335700 0.341200 0.993296 -0.115599 0.000000 0.697900 -0.421600 1 0 1.000000 
0 1.939900 0.335700 3.796500 0.993296 0.115600 0.000000 0.708500 -0.386400 1 0 1.000000 
0 1.939900 -0.335700 3.796500 0.972928 -0.231107 0.000000 0.697900 -0.386400 1 0 1.000000 
lab_objects04
0 1.939900 -0.335700 0.341200 0.993296 -0.115599 0.000000 0.697900 -0.421600 1 0 1.000000 
0 1.939900 0.335700 0.341200 0.972928 0.231107 0.000000 0.708500 -0.421600 1 0 1.000000 
0 1.939900 0.335700 3.796500 0.993296 0.115600 0.000000 0.708500 -0.386400 1 0 1.000000 
lab_objects04
0 1.939900 0.335700 0.341200 0.972928 0.231107 0.000000 0.708500 -0.421600 1 0 1.000000 
0 1.710200 0.966700 3.796500 0.893886 0.448293 0.000000 0.718300 -0.386400 1 0 1.000000 
0 1.939900 0.335700 3.796500 0.993296 0.115600 0.000000 0.708500 -0.386400 1 0 1.000000 
lab_objects04
0 1.939900 0.335700 0.341200 0.972928 0.231107 0.000000 0.708500 -0.421600 1 0 1.000000 
0 1.710200 0.966700 0.341200 0.835175 0.549984 0.000000 0.718300 -0.421600 1 0 1.000000 
0 1.710200 0.966700 3.796500 0.893886 0.448293 0.000000 0.718300 -0.386400 1 0 1.000000 
lab_objects04
0 1.710200 0.966700 0.341200 0.835175 0.549984 0.000000 0.718300 -0.421600 1 0 1.000000 
0 1.278600 1.481100 3.796500 0.686618 0.727019 0.000000 0.726400 -0.386400 1 0 1.000000 
0 1.710200 0.966700 3.796500 0.893886 0.448293 0.000000 0.718300 -0.386400 1 0 1.000000 
lab_objects04
0 1.710200 0.966700 0.341200 0.835175 0.549984 0.000000 0.718300 -0.421600 1 0 1.000000 
0 1.278600 1.481100 0.341200 0.596731 0.802441 0.000000 0.726400 -0.421600 1 0 1.000000 
0 1.278600 1.481100 3.796500 0.686618 0.727019 0.000000 0.726400 -0.386400 1 0 1.000000 
lab_objects04
0 1.278600 1.481100 0.341200 0.596731 0.802441 0.000000 0.726400 -0.421600 1 0 1.000000 
0 0.697100 1.816900 3.796500 0.396597 0.917993 0.000000 0.731700 -0.386400 1 0 1.000000 
0 1.278600 1.481100 3.796500 0.686618 0.727019 0.000000 0.726400 -0.386400 1 0 1.000000 
lab_objects04
0 1.278600 1.481100 0.341200 0.596731 0.802441 0.000000 0.726400 -0.421600 1 0 1.000000 
0 0.697100 1.816900 0.341200 0.286311 0.958137 0.000000 0.731700 -0.421600 1 0 1.000000 
0 0.697100 1.816900 3.796500 0.396597 0.917993 0.000000 0.731700 -0.386400 1 0 1.000000 
lab_objects04
0 0.697100 1.816900 0.341200 0.286311 0.958137 0.000000 0.731700 -0.421600 1 0 1.000000 
0 0.035800 1.933500 3.796500 0.058699 0.998276 0.000000 0.733500 -0.386400 1 0 1.000000 
0 0.697100 1.816900 3.796500 0.396597 0.917993 0.000000 0.731700 -0.386400 1 0 1.000000 
lab_objects04
0 0.697100 1.816900 0.341200 0.286311 0.958137 0.000000 0.731700 -0.421600 1 0 1.000000 
0 0.035800 1.933500 0.341200 -0.058699 0.998276 0.000000 0.733500 -0.421600 1 0 1.000000 
0 0.035800 1.933500 3.796500 0.058699 0.998276 0.000000 0.733500 -0.386400 1 0 1.000000 
lab_objects04
0 0.035800 1.933500 0.341200 -0.058699 0.998276 0.000000 0.733500 -0.421600 1 0 1.000000 
0 -0.625500 1.816900 3.796500 -0.286311 0.958137 0.000000 0.731700 -0.386400 1 0 1.000000 
0 0.035800 1.933500 3.796500 0.058699 0.998276 0.000000 0.733500 -0.386400 1 0 1.000000 
lab_objects04
0 0.035800 1.933500 0.341200 -0.058699 0.998276 0.000000 0.733500 -0.421600 1 0 1.000000 
0 -0.625500 1.816900 0.341200 -0.396597 0.917993 0.000000 0.731700 -0.421600 1 0 1.000000 
0 -0.625500 1.816900 3.796500 -0.286311 0.958137 0.000000 0.731700 -0.386400 1 0 1.000000 
lab_objects04
0 -0.625500 1.816900 0.341200 -0.396597 0.917993 0.000000 0.731700 -0.421600 1 0 1.000000 
0 -1.207000 1.481100 3.796500 -0.596731 0.802441 0.000000 0.726400 -0.386400 1 0 1.000000 
0 -0.625500 1.816900 3.796500 -0.286311 0.958137 0.000000 0.731700 -0.386400 1 0 1.000000 
lab_objects04
0 -0.625500 1.816900 0.341200 -0.396597 0.917993 0.000000 0.731700 -0.421600 1 0 1.000000 
0 -1.207000 1.481100 0.341200 -0.686618 0.727019 0.000000 0.726400 -0.421600 1 0 1.000000 
0 -1.207000 1.481100 3.796500 -0.596731 0.802441 0.000000 0.726400 -0.386400 1 0 1.000000 
lab_objects04
0 -1.207000 1.481100 0.341200 -0.686618 0.727019 0.000000 0.726400 -0.421600 1 0 1.000000 
0 -1.638700 0.966700 3.796500 -0.835175 0.549984 0.000000 0.718300 -0.386400 1 0 1.000000 
0 -1.207000 1.481100 3.796500 -0.596731 0.802441 0.000000 0.726400 -0.386400 1 0 1.000000 
lab_objects04
0 -1.207000 1.481100 0.341200 -0.686618 0.727019 0.000000 0.726400 -0.421600 1 0 1.000000 
0 -1.638700 0.966700 0.341200 -0.893886 0.448293 0.000000 0.718300 -0.421600 1 0 1.000000 
0 -1.638700 0.966700 3.796500 -0.835175 0.549984 0.000000 0.718300 -0.386400 1 0 1.000000 
lab_objects04
0 -1.638700 0.966700 0.341200 -0.893886 0.448293 0.000000 0.718300 -0.421600 1 0 1.000000 
0 -1.868300 0.335700 3.796500 -0.972928 0.231107 0.000000 0.708500 -0.386400 1 0 1.000000 
0 -1.638700 0.966700 3.796500 -0.835175 0.549984 0.000000 0.718300 -0.386400 1 0 1.000000 
lab_objects04
0 -1.638700 0.966700 0.341200 -0.893886 0.448293 0.000000 0.718300 -0.421600 1 0 1.000000 
0 -1.868300 0.335700 0.341200 -0.993296 0.115599 0.000000 0.708500 -0.421600 1 0 1.000000 
0 -1.868300 0.335700 3.796500 -0.972928 0.231107 0.000000 0.708500 -0.386400 1 0 1.000000 
lab_objects04
0 -1.868300 0.335700 0.341200 -0.993296 0.115599 0.000000 0.708500 -0.421600 1 0 1.000000 
0 -1.868300 -0.335700 3.796500 -0.993296 -0.115600 0.000000 0.697900 -0.386400 1 0 1.000000 
0 -1.868300 0.335700 3.796500 -0.972928 0.231107 0.000000 0.708500 -0.386400 1 0 1.000000 
lab_objects04
0 -1.868300 0.335700 0.341200 -0.993296 0.115599 0.000000 0.708500 -0.421600 1 0 1.000000 
0 -1.868300 -0.335700 0.341200 -0.972928 -0.231107 0.000000 0.697900 -0.421600 1 0 1.000000 
0 -1.868300 -0.335700 3.796500 -0.993296 -0.115600 0.000000 0.697900 -0.386400 1 0 1.000000 
lab_objects04
0 -1.868300 -0.335700 0.341200 -0.972928 -0.231107 0.000000 0.697900 -0.421600 1 0 1.000000 
0 -1.638700 -0.966700 3.796500 -0.893886 -0.448293 0.000000 0.688100 -0.386400 1 0 1.000000 
0 -1.868300 -0.335700 3.796500 -0.993296 -0.115600 0.000000 0.697900 -0.386400 1 0 1.000000 
lab_objects04
0 -1.868300 -0.335700 0.341200 -0.972928 -0.231107 0.000000 0.697900 -0.421600 1 0 1.000000 
0 -1.638700 -0.966700 0.341200 -0.835175 -0.549984 0.000000 0.688100 -0.421600 1 0 1.000000 
0 -1.638700 -0.966700 3.796500 -0.893886 -0.448293 0.000000 0.688100 -0.386400 1 0 1.000000 
lab_objects04
0 -1.638700 -0.966700 0.341200 -0.835175 -0.549984 0.000000 0.688100 -0.421600 1 0 1.000000 
0 -1.207000 -1.481100 3.796500 -0.686618 -0.727019 0.000000 0.680000 -0.386400 1 0 1.000000 
0 -1.638700 -0.966700 3.796500 -0.893886 -0.448293 0.000000 0.688100 -0.386400 1 0 1.000000 
lab_objects04
0 -1.638700 -0.966700 0.341200 -0.835175 -0.549984 0.000000 0.688100 -0.421600 1 0 1.000000 
0 -1.207000 -1.481100 0.341200 -0.596731 -0.802441 0.000000 0.680000 -0.421600 1 0 1.000000 
0 -1.207000 -1.481100 3.796500 -0.686618 -0.727019 0.000000 0.680000 -0.386400 1 0 1.000000 
lab_objects04
0 -1.207000 -1.481100 0.341200 -0.596731 -0.802441 0.000000 0.680000 -0.421600 1 0 1.000000 
0 -0.625500 -1.816900 3.796500 -0.396597 -0.917993 0.000000 0.674700 -0.386400 1 0 1.000000 
0 -1.207000 -1.481100 3.796500 -0.686618 -0.727019 0.000000 0.680000 -0.386400 1 0 1.000000 
lab_objects04
0 -1.207000 -1.481100 0.341200 -0.596731 -0.802441 0.000000 0.680000 -0.421600 1 0 1.000000 
0 -0.625500 -1.816900 0.341200 -0.286311 -0.958137 0.000000 0.674700 -0.421600 1 0 1.000000 
0 -0.625500 -1.816900 3.796500 -0.396597 -0.917993 0.000000 0.674700 -0.386400 1 0 1.000000 
lab_objects04
0 -0.625500 -1.816900 0.341200 -0.286311 -0.958137 0.000000 0.674700 -0.421600 1 0 1.000000 
0 0.035800 -1.933500 3.796500 -0.058699 -0.998276 0.000000 0.672900 -0.386400 1 0 1.000000 
0 -0.625500 -1.816900 3.796500 -0.396597 -0.917993 0.000000 0.674700 -0.386400 1 0 1.000000 
lab_objects04
0 -0.625500 -1.816900 0.341200 -0.286311 -0.958137 0.000000 0.674700 -0.421600 1 0 1.000000 
0 0.035800 -1.933500 0.341200 0.058699 -0.998276 0.000000 0.672900 -0.421600 1 0 1.000000 
0 0.035800 -1.933500 3.796500 -0.058699 -0.998276 0.000000 0.672900 -0.386400 1 0 1.000000 
lab_objects04
0 0.035800 -1.933500 0.341200 0.058699 -0.998276 0.000000 0.672900 -0.421600 1 0 1.000000 
0 0.697100 -1.816900 3.796500 0.286311 -0.958137 0.000000 0.674700 -0.386400 1 0 1.000000 
0 0.035800 -1.933500 3.796500 -0.058699 -0.998276 0.000000 0.672900 -0.386400 1 0 1.000000 
end
