version 1
nodes
  0 "static_prop" -1
end
skeleton
time 0
0 0.000000 0.000000 0.000000 0.000000 0.000000 0.000000
end
triangles
pipe_cap001
0 1.000000 7.500000 12.917600 -0.382690 -0.923877 0.000000 0.404700 -0.036600 1 0 1.000000 
0 0.646400 7.646400 -12.839300 -0.382690 -0.923877 0.000000 0.394100 -0.832400 1 0 1.000000 
0 1.000000 7.500000 -12.917600 0.196096 -0.980579 -0.003400 0.404700 -0.834900 1 0 1.000000 
pipe_cap001
0 1.353600 7.646400 12.839300 0.923877 -0.382690 0.000000 0.413400 -0.039000 1 0 1.000000 
0 1.500000 8.000000 -12.650300 0.923877 -0.382690 0.000000 0.425200 -0.826500 1 0 1.000000 
0 1.353600 8.353600 12.455600 0.690207 0.723608 0.002300 0.432300 -0.050800 1 0 1.000000 
pipe_cap001
0 1.353600 7.646400 12.839300 0.923877 -0.382690 0.000000 0.413400 -0.039000 1 0 1.000000 
0 1.000000 7.500000 -12.917600 0.196096 -0.980579 -0.003400 0.404700 -0.834900 1 0 1.000000 
0 1.500000 8.000000 -12.650300 0.923877 -0.382690 0.000000 0.425200 -0.826500 1 0 1.000000 
pipe_cap001
0 1.000000 8.500000 -12.335400 0.382690 0.923877 0.000000 0.442800 -0.816700 1 0 1.000000 
0 1.353600 8.353600 12.455600 0.690207 0.723608 0.002300 0.432300 -0.050800 1 0 1.000000 
0 1.353600 8.353600 -12.455600 0.382690 0.923877 0.000000 0.434200 -0.820500 1 0 1.000000 
pipe_cap001
0 1.000000 8.500000 -12.335400 0.382690 0.923877 0.000000 0.442800 -0.816700 1 0 1.000000 
0 1.000000 8.500000 12.335400 0.382690 0.923877 0.000000 0.442800 -0.054500 1 0 1.000000 
0 1.353600 8.353600 12.455600 0.690207 0.723608 0.002300 0.432300 -0.050800 1 0 1.000000 
pipe_cap001
0 1.353600 11.646400 9.339500 0.923877 -0.382690 0.000000 0.088700 -0.044000 1 0 1.000000 
0 1.500000 12.000000 -8.908700 0.923877 -0.382690 0.000000 0.102200 -0.809200 1 0 1.000000 
0 1.500000 12.000000 8.908700 0.923877 -0.382690 0.000000 0.102200 -0.062100 1 0 1.000000 
pipe_cap001
0 1.353600 11.646400 9.339500 0.923877 -0.382690 0.000000 0.088700 -0.044000 1 0 1.000000 
0 1.353600 11.646400 -9.339500 0.923877 -0.382690 0.000000 0.090500 -0.827300 1 0 1.000000 
0 1.500000 12.000000 -8.908700 0.923877 -0.382690 0.000000 0.102200 -0.809200 1 0 1.000000 
pipe_cap001
0 1.500000 -12.000000 8.908700 0.923877 0.382690 0.000000 0.063500 -0.062100 1 0 1.000000 
0 1.353601 -11.646400 -9.339500 0.923877 0.382690 0.000000 0.075100 -0.827300 1 0 1.000000 
0 1.353601 -11.646400 9.339500 0.923877 0.382690 0.000000 0.077000 -0.044000 1 0 1.000000 
pipe_cap001
0 1.500000 -12.000000 8.908700 0.923877 0.382690 0.000000 0.063500 -0.062100 1 0 1.000000 
0 1.500000 -12.000000 -8.908700 0.923877 0.382690 0.000000 0.063500 -0.809200 1 0 1.000000 
0 1.353601 -11.646400 -9.339500 0.923877 0.382690 0.000000 0.075100 -0.827300 1 0 1.000000 
pipe_cap001
0 1.000000 -11.500000 9.518000 -0.382690 0.923877 0.000000 0.089900 -0.036600 1 0 1.000000 
0 0.646401 -11.646400 -9.339500 -0.382690 0.923877 0.000000 0.100100 -0.827400 1 0 1.000000 
0 0.646401 -11.646400 9.339500 -0.382690 0.923877 0.000000 0.102000 -0.044200 1 0 1.000000 
pipe_cap001
0 1.000000 -11.500000 9.518000 -0.382690 0.923877 0.000000 0.089900 -0.036600 1 0 1.000000 
0 1.000000 -11.500000 -9.518000 -0.382690 0.923877 0.000000 0.087200 -0.834900 1 0 1.000000 
0 0.646401 -11.646400 -9.339500 -0.382690 0.923877 0.000000 0.100100 -0.827400 1 0 1.000000 
pipe_cap001
0 0.646399 11.646400 9.339500 -0.382690 -0.923877 0.000000 0.063700 -0.044200 1 0 1.000000 
0 1.000000 11.500000 -9.518000 -0.382690 -0.923877 0.000000 0.078400 -0.834900 1 0 1.000000 
0 1.000000 11.500000 9.518000 -0.382690 -0.923877 0.000000 0.075800 -0.036600 1 0 1.000000 
pipe_cap001
0 0.646399 11.646400 9.339500 -0.382690 -0.923877 0.000000 0.063700 -0.044200 1 0 1.000000 
0 0.646399 11.646400 -9.339500 -0.382690 -0.923877 0.000000 0.065600 -0.827400 1 0 1.000000 
0 1.000000 11.500000 -9.518000 -0.382690 -0.923877 0.000000 0.078400 -0.834900 1 0 1.000000 
pipe_cap001
0 1.000001 -12.500000 8.281300 0.382690 -0.923877 0.000000 0.037200 -0.088500 1 0 1.000000 
0 1.353601 -12.353600 -8.477900 0.382690 -0.923877 0.000000 0.051700 -0.791200 1 0 1.000000 
0 1.353601 -12.353600 8.477900 0.382690 -0.923877 0.000000 0.050000 -0.080200 1 0 1.000000 
pipe_cap001
0 1.000001 -12.500000 8.281300 0.382690 -0.923877 0.000000 0.037200 -0.088500 1 0 1.000000 
0 1.000001 -12.500000 -8.281300 0.382690 -0.923877 0.000000 0.039500 -0.783000 1 0 1.000000 
0 1.353601 -12.353600 -8.477900 0.382690 -0.923877 0.000000 0.051700 -0.791200 1 0 1.000000 
pipe_cap001
0 1.000000 11.500000 9.518000 0.382690 -0.923877 0.000000 0.075800 -0.036600 1 0 1.000000 
0 1.353600 11.646400 -9.339500 0.382690 -0.923877 0.000000 0.090500 -0.827300 1 0 1.000000 
0 1.353600 11.646400 9.339500 0.382690 -0.923877 0.000000 0.088700 -0.044000 1 0 1.000000 
pipe_cap001
0 1.000000 11.500000 9.518000 0.382690 -0.923877 0.000000 0.075800 -0.036600 1 0 1.000000 
0 1.000000 11.500000 -9.518000 0.382690 -0.923877 0.000000 0.078400 -0.834900 1 0 1.000000 
0 1.353600 11.646400 -9.339500 0.382690 -0.923877 0.000000 0.090500 -0.827300 1 0 1.000000 
pipe_cap001
0 1.353601 -11.646400 9.339500 0.382690 0.923877 0.000000 0.077000 -0.044000 1 0 1.000000 
0 1.000000 -11.500000 -9.518000 0.382690 0.923877 0.000000 0.087200 -0.834900 1 0 1.000000 
0 1.000000 -11.500000 9.518000 0.382690 0.923877 0.000000 0.089900 -0.036600 1 0 1.000000 
pipe_cap001
0 1.353601 -11.646400 9.339500 0.382690 0.923877 0.000000 0.077000 -0.044000 1 0 1.000000 
0 1.353601 -11.646400 -9.339500 0.382690 0.923877 0.000000 0.075100 -0.827300 1 0 1.000000 
0 1.000000 -11.500000 -9.518000 0.382690 0.923877 0.000000 0.087200 -0.834900 1 0 1.000000 
pipe_cap001
0 0.646400 8.353600 -12.455600 -0.923877 0.382690 0.000000 0.451500 -0.820500 1 0 1.000000 
0 0.500000 8.000000 12.650300 -0.923877 0.382690 0.000000 0.463200 -0.044800 1 0 1.000000 
0 0.638200 8.333600 12.472000 -0.923877 0.382690 0.000000 0.453900 -0.050300 1 0 1.000000 
pipe_cap001
0 0.646400 8.353600 -12.455600 -0.923877 0.382690 0.000000 0.451500 -0.820500 1 0 1.000000 
0 0.500000 8.000000 -12.650300 -0.923877 0.382690 0.000000 0.460500 -0.826500 1 0 1.000000 
0 0.500000 8.000000 12.650300 -0.923877 0.382690 0.000000 0.463200 -0.044800 1 0 1.000000 
pipe_cap001
0 0.638200 -8.333600 -12.472000 -0.923912 -0.382605 0.000100 0.126300 -0.821000 1 0 1.000000 
0 0.500000 -8.000000 12.650300 -0.923877 -0.382690 0.000000 0.115100 -0.044800 1 0 1.000000 
0 0.500000 -8.000000 -12.650300 -0.923877 -0.382690 0.000000 0.117700 -0.826500 1 0 1.000000 
pipe_cap001
0 0.638200 -8.333600 -12.472000 -0.923912 -0.382605 0.000100 0.126300 -0.821000 1 0 1.000000 
0 0.646400 -8.353600 12.455600 -0.923877 -0.382690 0.000000 0.124900 -0.050800 1 0 1.000000 
0 0.500000 -8.000000 12.650300 -0.923877 -0.382690 0.000000 0.115100 -0.044800 1 0 1.000000 
pipe_cap001
0 0.500000 8.000000 12.650300 -0.832062 -0.554675 0.002900 0.387000 -0.044800 1 0 1.000000 
0 0.646400 7.646400 -12.839300 -0.832062 -0.554675 0.002900 0.394100 -0.832400 1 0 1.000000 
0 1.000000 7.500000 12.917600 -0.196096 -0.980579 0.003400 0.404700 -0.036600 1 0 1.000000 
pipe_cap001
0 0.500000 8.000000 12.650300 -0.832062 -0.554675 0.002900 0.387000 -0.044800 1 0 1.000000 
0 0.500000 8.000000 -12.650300 -0.923877 -0.382690 0.000000 0.384300 -0.826500 1 0 1.000000 
0 0.646400 7.646400 -12.839300 -0.832062 -0.554675 0.002900 0.394100 -0.832400 1 0 1.000000 
pipe_cap001
0 1.000000 7.500000 12.917600 -0.196096 -0.980579 0.003400 0.404700 -0.036600 1 0 1.000000 
0 1.000000 7.500000 -12.917600 0.382690 -0.923877 0.000000 0.404700 -0.834900 1 0 1.000000 
0 1.353600 7.646400 12.839300 0.382690 -0.923877 0.000000 0.413400 -0.039000 1 0 1.000000 
pipe_cap001
0 1.353600 8.353600 -12.455600 0.923877 0.382690 0.000000 0.434200 -0.820500 1 0 1.000000 
0 1.353600 8.353600 12.455600 0.923877 0.382690 0.000000 0.432300 -0.050800 1 0 1.000000 
0 1.500000 8.000000 -12.650300 0.923877 0.382690 0.000000 0.425200 -0.826500 1 0 1.000000 
pipe_cap001
0 0.646400 -7.646400 12.839300 -0.832062 0.554675 -0.002900 0.182200 -0.039000 1 0 1.000000 
0 0.500000 -8.000000 -12.650300 -0.832062 0.554675 -0.002900 0.193900 -0.826500 1 0 1.000000 
0 0.500000 -8.000000 12.650300 -0.923877 0.382690 0.000000 0.191300 -0.044800 1 0 1.000000 
pipe_cap001
0 0.646400 -7.646400 12.839300 -0.832062 0.554675 -0.002900 0.182200 -0.039000 1 0 1.000000 
0 1.000000 -7.500000 -12.917600 -0.196096 0.980579 -0.003400 0.173500 -0.834900 1 0 1.000000 
0 0.500000 -8.000000 -12.650300 -0.832062 0.554675 -0.002900 0.193900 -0.826500 1 0 1.000000 
pipe_cap001
0 1.000000 -7.500000 12.917600 0.382690 0.923877 0.000000 0.173500 -0.036600 1 0 1.000000 
0 1.353600 -7.646400 -12.839300 0.832307 0.554304 -0.003500 0.162900 -0.832400 1 0 1.000000 
0 1.000000 -7.500000 -12.917600 -0.196096 0.980579 -0.003400 0.173500 -0.834900 1 0 1.000000 
pipe_cap001
0 1.353600 -8.353600 -12.455600 0.980480 -0.196596 -0.003000 0.144100 -0.820500 1 0 1.000000 
0 1.500000 -8.000000 12.650300 0.980480 -0.196596 -0.003000 0.155800 -0.044800 1 0 1.000000 
0 1.361800 -8.333600 12.472000 0.923877 -0.382690 0.000000 0.146500 -0.050300 1 0 1.000000 
pipe_cap001
0 1.353600 -8.353600 -12.455600 0.980480 -0.196596 -0.003000 0.144100 -0.820500 1 0 1.000000 
0 1.353600 -7.646400 -12.839300 0.832307 0.554304 -0.003500 0.162900 -0.832400 1 0 1.000000 
0 1.500000 -8.000000 12.650300 0.980480 -0.196596 -0.003000 0.155800 -0.044800 1 0 1.000000 
pipe_cap001
0 1.000000 4.500000 14.234400 0.382690 0.923877 0.000000 0.365900 -0.044800 1 0 1.000000 
0 1.353600 4.353600 -14.278800 0.382690 0.923877 0.000000 0.358200 -0.827700 1 0 1.000000 
0 1.000000 4.500000 -14.234400 -0.195097 0.980784 0.000000 0.365900 -0.826400 1 0 1.000000 
pipe_cap001
0 0.500000 4.000000 14.386100 -0.707107 0.707107 0.000000 0.384400 -0.040700 1 0 1.000000 
0 1.000000 4.500000 -14.234400 -0.195097 0.980784 0.000000 0.365900 -0.826400 1 0 1.000000 
0 0.500000 4.000000 -14.386100 -1.000000 -0.000000 0.000000 0.381700 -0.830600 1 0 1.000000 
pipe_cap001
0 1.000000 -4.500000 14.234400 -0.195097 -0.980784 0.000000 0.189400 -0.045100 1 0 1.000000 
0 1.000000 -4.500000 -14.234400 0.382690 -0.923877 0.000000 0.189400 -0.826700 1 0 1.000000 
0 1.353600 -4.353600 14.278800 0.382690 -0.923877 0.000000 0.197100 -0.043800 1 0 1.000000 
pipe_cap001
0 0.500000 -4.000000 14.386100 -1.000000 -0.000000 0.000000 0.173700 -0.040800 1 0 1.000000 
0 0.500000 -4.000000 -14.386100 -0.707107 -0.707107 0.000000 0.170900 -0.830800 1 0 1.000000 
0 1.000000 -4.500000 14.234400 -0.195097 -0.980784 0.000000 0.189400 -0.045100 1 0 1.000000 
pipe_cap001
0 0.999999 12.500000 8.281300 0.382690 0.923877 0.000000 0.128500 -0.088500 1 0 1.000000 
0 1.353599 12.353600 -8.477900 0.382690 0.923877 0.000000 0.114000 -0.791200 1 0 1.000000 
0 0.999999 12.500000 -8.281300 0.382690 0.923877 0.000000 0.126200 -0.783000 1 0 1.000000 
pipe_cap001
0 1.000000 -0.500000 -14.950800 0.707107 -0.707107 0.000000 0.286200 -0.833600 1 0 1.000000 
0 1.500000 0.000000 15.000000 0.707107 -0.707107 0.000000 0.301500 -0.036600 1 0 1.000000 
0 1.000000 -0.500000 14.950800 0.000000 -1.000000 0.000000 0.286200 -0.038000 1 0 1.000000 
pipe_cap001
0 1.500000 0.000000 -15.000000 0.707107 -0.707107 0.000000 0.304300 -0.834900 1 0 1.000000 
0 1.500000 0.000000 15.000000 0.707107 -0.707107 0.000000 0.301500 -0.036600 1 0 1.000000 
0 1.000000 -0.500000 -14.950800 0.707107 -0.707107 0.000000 0.286200 -0.833600 1 0 1.000000 
pipe_cap001
0 0.500000 0.000000 -15.000000 -0.707107 -0.707107 0.000000 0.268100 -0.834900 1 0 1.000000 
0 1.000000 -0.500000 14.950800 0.000000 -1.000000 0.000000 0.286200 -0.038000 1 0 1.000000 
0 0.500000 0.000000 15.000000 -0.707107 -0.707107 0.000000 0.270900 -0.036600 1 0 1.000000 
pipe_cap001
0 1.000000 -0.500000 -14.950800 -0.707107 -0.707107 0.000000 0.286200 -0.833600 1 0 1.000000 
0 1.000000 -0.500000 14.950800 -0.707107 -0.707107 0.000000 0.286200 -0.038000 1 0 1.000000 
0 0.500000 0.000000 -15.000000 -0.707107 -0.707107 0.000000 0.268100 -0.834900 1 0 1.000000 
pipe_cap001
0 0.499999 12.000000 8.908700 -0.923877 -0.382690 0.000000 0.052000 -0.062300 1 0 1.000000 
0 0.646399 11.646400 -9.339500 -0.923877 -0.382690 0.000000 0.065600 -0.827400 1 0 1.000000 
0 0.646399 11.646400 9.339500 -0.923877 -0.382690 0.000000 0.063700 -0.044200 1 0 1.000000 
pipe_cap001
0 0.499999 12.000000 8.908700 -0.923877 -0.382690 0.000000 0.052000 -0.062300 1 0 1.000000 
0 0.499999 12.000000 -8.908700 -0.923877 -0.382690 0.000000 0.052000 -0.809400 1 0 1.000000 
0 0.646399 11.646400 -9.339500 -0.923877 -0.382690 0.000000 0.065600 -0.827400 1 0 1.000000 
pipe_cap001
0 0.646401 -11.646400 9.339500 -0.923877 0.382690 0.000000 0.102000 -0.044200 1 0 1.000000 
0 0.500001 -12.000000 -8.908700 -0.923877 0.382690 0.000000 0.113700 -0.809400 1 0 1.000000 
0 0.500001 -12.000000 8.908700 -0.923877 0.382690 0.000000 0.113700 -0.062300 1 0 1.000000 
pipe_cap001
0 0.646401 -11.646400 9.339500 -0.923877 0.382690 0.000000 0.102000 -0.044200 1 0 1.000000 
0 0.646401 -11.646400 -9.339500 -0.923877 0.382690 0.000000 0.100100 -0.827400 1 0 1.000000 
0 0.500001 -12.000000 -8.908700 -0.923877 0.382690 0.000000 0.113700 -0.809400 1 0 1.000000 
pipe_cap001
0 0.646400 8.353600 -12.455600 -0.382690 0.923877 0.000000 0.451500 -0.820500 1 0 1.000000 
0 1.000000 8.500000 12.335400 -0.382690 0.923877 0.000000 0.442800 -0.054500 1 0 1.000000 
0 1.000000 8.500000 -12.335400 -0.382690 0.923877 0.000000 0.442800 -0.816700 1 0 1.000000 
pipe_cap001
0 0.646400 8.353600 -12.455600 -0.382690 0.923877 0.000000 0.451500 -0.820500 1 0 1.000000 
0 0.646400 8.353600 12.455600 -0.382690 0.923877 0.000000 0.453300 -0.050800 1 0 1.000000 
0 1.000000 8.500000 12.335400 -0.382690 0.923877 0.000000 0.442800 -0.054500 1 0 1.000000 
pipe_cap001
0 1.000000 -8.500000 -12.335400 -0.382690 -0.923877 0.000000 0.135400 -0.816700 1 0 1.000000 
0 0.646400 -8.353600 12.455600 -0.382690 -0.923877 0.000000 0.124900 -0.050800 1 0 1.000000 
0 0.646400 -8.353600 -12.455600 -0.382690 -0.923877 0.000000 0.126800 -0.820500 1 0 1.000000 
pipe_cap001
0 1.000000 -8.500000 -12.335400 -0.382690 -0.923877 0.000000 0.135400 -0.816700 1 0 1.000000 
0 1.000000 -8.500000 12.335400 -0.382690 -0.923877 0.000000 0.135400 -0.054500 1 0 1.000000 
0 0.646400 -8.353600 12.455600 -0.382690 -0.923877 0.000000 0.124900 -0.050800 1 0 1.000000 
pipe_cap001
0 1.353600 -8.353600 -12.455600 0.382690 -0.923877 0.000000 0.144100 -0.820500 1 0 1.000000 
0 1.000000 -8.500000 12.335400 0.382690 -0.923877 0.000000 0.135400 -0.054500 1 0 1.000000 
0 1.000000 -8.500000 -12.335400 0.382690 -0.923877 0.000000 0.135400 -0.816700 1 0 1.000000 
pipe_cap001
0 1.353600 -8.353600 -12.455600 0.382690 -0.923877 0.000000 0.144100 -0.820500 1 0 1.000000 
0 1.353600 -8.353600 12.455600 0.382690 -0.923877 0.000000 0.145900 -0.050800 1 0 1.000000 
0 1.000000 -8.500000 12.335400 0.382690 -0.923877 0.000000 0.135400 -0.054500 1 0 1.000000 
pipe_cap001
0 0.500001 -12.000000 8.908700 -0.829340 -0.558727 0.004400 0.013300 -0.062300 1 0 1.000000 
0 0.646401 -12.353600 -8.477900 -0.829340 -0.558727 0.004400 0.026700 -0.791300 1 0 1.000000 
0 1.000001 -12.500000 8.281300 -0.701710 -0.712410 0.008600 0.037200 -0.088500 1 0 1.000000 
pipe_cap001
0 0.500001 -12.000000 8.908700 -0.829340 -0.558727 0.004400 0.013300 -0.062300 1 0 1.000000 
0 0.500001 -12.000000 -8.908700 -0.923877 -0.382690 0.000000 0.013300 -0.809400 1 0 1.000000 
0 0.646401 -12.353600 -8.477900 -0.829340 -0.558727 0.004400 0.026700 -0.791300 1 0 1.000000 
pipe_cap001
0 1.353601 -12.353600 8.477900 0.923877 -0.382690 0.000000 0.050000 -0.080200 1 0 1.000000 
0 1.500000 -12.000000 -8.908700 0.923877 -0.382690 0.000000 0.063500 -0.809200 1 0 1.000000 
0 1.500000 -12.000000 8.908700 0.923877 -0.382690 0.000000 0.063500 -0.062100 1 0 1.000000 
pipe_cap001
0 1.353601 -12.353600 8.477900 0.923877 -0.382690 0.000000 0.050000 -0.080200 1 0 1.000000 
0 1.353601 -12.353600 -8.477900 0.923877 -0.382690 0.000000 0.051700 -0.791200 1 0 1.000000 
0 1.500000 -12.000000 -8.908700 0.923877 -0.382690 0.000000 0.063500 -0.809200 1 0 1.000000 
pipe_cap001
0 0.646399 12.353600 8.477900 -0.829340 0.558727 -0.004400 0.140700 -0.080300 1 0 1.000000 
0 0.499999 12.000000 -8.908700 -0.829340 0.558727 -0.004400 0.152400 -0.809400 1 0 1.000000 
0 0.499999 12.000000 8.908700 -0.923877 0.382690 0.000000 0.152400 -0.062300 1 0 1.000000 
pipe_cap001
0 0.646399 12.353600 8.477900 -0.829340 0.558727 -0.004400 0.140700 -0.080300 1 0 1.000000 
0 0.999999 12.500000 -8.281300 -0.701710 0.712410 -0.008600 0.126200 -0.783000 1 0 1.000000 
0 0.499999 12.000000 -8.908700 -0.829340 0.558727 -0.004400 0.152400 -0.809400 1 0 1.000000 
pipe_cap001
0 1.500000 12.000000 8.908700 0.829340 0.558727 0.004400 0.102200 -0.062100 1 0 1.000000 
0 1.353599 12.353600 -8.477900 0.829340 0.558727 0.004400 0.114000 -0.791200 1 0 1.000000 
0 0.999999 12.500000 8.281300 0.191303 0.981518 0.005100 0.128500 -0.088500 1 0 1.000000 
pipe_cap001
0 1.500000 12.000000 8.908700 0.829340 0.558727 0.004400 0.102200 -0.062100 1 0 1.000000 
0 1.500000 12.000000 -8.908700 0.923877 0.382690 0.000000 0.102200 -0.809200 1 0 1.000000 
0 1.353599 12.353600 -8.477900 0.829340 0.558727 0.004400 0.114000 -0.791200 1 0 1.000000 
pipe_cap001
0 0.999999 12.500000 8.281300 0.191303 0.981518 0.005100 0.128500 -0.088500 1 0 1.000000 
0 0.999999 12.500000 -8.281300 -0.382690 0.923877 0.000000 0.126200 -0.783000 1 0 1.000000 
0 0.646399 12.353600 8.477900 -0.382690 0.923877 0.000000 0.140700 -0.080300 1 0 1.000000 
pipe_cap001
0 1.000001 -12.500000 8.281300 -0.382690 -0.923877 0.000000 0.037200 -0.088500 1 0 1.000000 
0 0.646401 -12.353600 -8.477900 -0.382690 -0.923877 0.000000 0.026700 -0.791300 1 0 1.000000 
0 1.000001 -12.500000 -8.281300 -0.382690 -0.923877 0.000000 0.039500 -0.783000 1 0 1.000000 
pipe_cap001
0 4.000000 0.000000 -15.000000 1.000000 0.000000 0.000000 0.247900 -0.747300 1 0 1.000000 
0 4.000000 3.121400 -15.692600 1.000000 0.000000 0.000000 0.293600 -0.757400 1 0 1.000000 
0 4.000000 2.926400 -14.711800 1.000000 0.000000 0.000000 0.290700 -0.743100 1 0 1.000000 
pipe_cap001
0 4.000000 2.926400 -14.711800 1.000000 0.000000 0.000000 0.290700 -0.743100 1 0 1.000000 
0 4.000000 3.121400 -15.692600 1.000000 0.000000 0.000000 0.293600 -0.757400 1 0 1.000000 
0 4.000000 6.122900 -14.782100 1.000000 0.000000 0.000000 0.337600 -0.744100 1 0 1.000000 
pipe_cap001
0 4.000000 2.926400 -14.711800 1.000000 0.000000 0.000000 0.290700 -0.743100 1 0 1.000000 
0 4.000000 6.122900 -14.782100 1.000000 0.000000 0.000000 0.337600 -0.744100 1 0 1.000000 
0 4.000000 5.740300 -13.858200 1.000000 0.000000 0.000000 0.332000 -0.730600 1 0 1.000000 
pipe_cap001
0 4.000000 5.740300 -13.858200 1.000000 0.000000 0.000000 0.332000 -0.730600 1 0 1.000000 
0 4.000000 6.122900 -14.782100 1.000000 0.000000 0.000000 0.337600 -0.744100 1 0 1.000000 
0 4.000000 8.889100 -13.303500 1.000000 0.000000 0.000000 0.378100 -0.722400 1 0 1.000000 
pipe_cap001
0 4.000000 5.740300 -13.858200 1.000000 0.000000 0.000000 0.332000 -0.730600 1 0 1.000000 
0 4.000000 8.889100 -13.303500 1.000000 0.000000 0.000000 0.378100 -0.722400 1 0 1.000000 
0 4.000000 8.333600 -12.472000 1.000000 0.000000 0.000000 0.370000 -0.710200 1 0 1.000000 
pipe_cap001
0 4.000000 8.333600 -12.472000 1.000000 0.000000 0.000000 0.370000 -0.710200 1 0 1.000000 
0 4.000000 8.889100 -13.303500 1.000000 0.000000 0.000000 0.378100 -0.722400 1 0 1.000000 
0 4.000000 11.313700 -11.313700 1.000000 0.000000 0.000000 0.413600 -0.693300 1 0 1.000000 
pipe_cap001
0 4.000000 8.333600 -12.472000 1.000000 0.000000 0.000000 0.370000 -0.710200 1 0 1.000000 
0 4.000000 11.313700 -11.313700 1.000000 0.000000 0.000000 0.413600 -0.693300 1 0 1.000000 
0 4.000000 10.606600 -10.606600 1.000000 0.000000 0.000000 0.403300 -0.682900 1 0 1.000000 
pipe_cap001
0 4.000000 10.606600 -10.606600 1.000000 0.000000 0.000000 0.403300 -0.682900 1 0 1.000000 
0 4.000000 11.313700 -11.313700 1.000000 0.000000 0.000000 0.413600 -0.693300 1 0 1.000000 
0 4.000000 13.303500 -8.889100 1.000000 0.000000 0.000000 0.442800 -0.657800 1 0 1.000000 
pipe_cap001
0 4.000000 10.606600 -10.606600 1.000000 0.000000 0.000000 0.403300 -0.682900 1 0 1.000000 
0 4.000000 13.303500 -8.889100 1.000000 0.000000 0.000000 0.442800 -0.657800 1 0 1.000000 
0 4.000000 12.472000 -8.333600 1.000000 0.000000 0.000000 0.430600 -0.649600 1 0 1.000000 
pipe_cap001
0 4.000000 12.472000 -8.333600 1.000000 0.000000 0.000000 0.430600 -0.649600 1 0 1.000000 
0 4.000000 13.303500 -8.889100 1.000000 0.000000 0.000000 0.442800 -0.657800 1 0 1.000000 
0 3.999999 14.782100 -6.122900 1.000000 0.000000 0.000000 0.464400 -0.617200 1 0 1.000000 
pipe_cap001
0 4.000000 12.472000 -8.333600 1.000000 0.000000 0.000000 0.430600 -0.649600 1 0 1.000000 
0 3.999999 14.782100 -6.122900 1.000000 0.000000 0.000000 0.464400 -0.617200 1 0 1.000000 
0 3.999999 13.858200 -5.740300 1.000000 0.000000 0.000000 0.450900 -0.611600 1 0 1.000000 
pipe_cap001
0 3.999999 13.858200 -5.740300 1.000000 0.000000 0.000000 0.450900 -0.611600 1 0 1.000000 
0 3.999999 14.782100 -6.122900 1.000000 0.000000 0.000000 0.464400 -0.617200 1 0 1.000000 
0 3.999999 15.692600 -3.121400 1.000000 0.000000 0.000000 0.477800 -0.573300 1 0 1.000000 
pipe_cap001
0 3.999999 13.858200 -5.740300 1.000000 0.000000 0.000000 0.450900 -0.611600 1 0 1.000000 
0 3.999999 15.692600 -3.121400 1.000000 0.000000 0.000000 0.477800 -0.573300 1 0 1.000000 
0 3.999999 14.711800 -2.926400 1.000000 0.000000 0.000000 0.463400 -0.570400 1 0 1.000000 
pipe_cap001
0 3.999999 14.711800 -2.926400 1.000000 0.000000 0.000000 0.463400 -0.570400 1 0 1.000000 
0 3.999999 15.692600 -3.121400 1.000000 0.000000 0.000000 0.477800 -0.573300 1 0 1.000000 
0 3.999999 16.000000 0.000000 1.000000 0.000000 0.000000 0.482300 -0.527500 1 0 1.000000 
pipe_cap001
0 3.999999 14.711800 -2.926400 1.000000 0.000000 0.000000 0.463400 -0.570400 1 0 1.000000 
0 3.999999 16.000000 0.000000 1.000000 0.000000 0.000000 0.482300 -0.527500 1 0 1.000000 
0 3.999999 15.000000 0.000000 1.000000 0.000000 0.000000 0.467600 -0.527500 1 0 1.000000 
pipe_cap001
0 3.999999 15.000000 0.000000 1.000000 0.000000 0.000000 0.467600 -0.527500 1 0 1.000000 
0 3.999999 16.000000 0.000000 1.000000 0.000000 0.000000 0.482300 -0.527500 1 0 1.000000 
0 3.999999 15.692600 3.121400 1.000000 0.000000 0.000000 0.477800 -0.481800 1 0 1.000000 
pipe_cap001
0 3.999999 15.000000 0.000000 1.000000 0.000000 0.000000 0.467600 -0.527500 1 0 1.000000 
0 3.999999 15.692600 3.121400 1.000000 0.000000 0.000000 0.477800 -0.481800 1 0 1.000000 
0 3.999999 14.711800 2.926400 1.000000 0.000000 0.000000 0.463400 -0.484700 1 0 1.000000 
pipe_cap001
0 3.999999 14.711800 2.926400 1.000000 0.000000 0.000000 0.463400 -0.484700 1 0 1.000000 
0 3.999999 15.692600 3.121400 1.000000 0.000000 0.000000 0.477800 -0.481800 1 0 1.000000 
0 3.999999 14.782100 6.122900 1.000000 0.000000 0.000000 0.464400 -0.437800 1 0 1.000000 
pipe_cap001
0 3.999999 14.711800 2.926400 1.000000 0.000000 0.000000 0.463400 -0.484700 1 0 1.000000 
0 3.999999 14.782100 6.122900 1.000000 0.000000 0.000000 0.464400 -0.437800 1 0 1.000000 
0 3.999999 13.858200 5.740300 1.000000 0.000000 0.000000 0.450900 -0.443400 1 0 1.000000 
pipe_cap001
0 3.999999 13.858200 5.740300 1.000000 0.000000 0.000000 0.450900 -0.443400 1 0 1.000000 
0 3.999999 14.782100 6.122900 1.000000 0.000000 0.000000 0.464400 -0.437800 1 0 1.000000 
0 4.000000 13.303500 8.889100 1.000000 0.000000 0.000000 0.442800 -0.397300 1 0 1.000000 
pipe_cap001
0 3.999999 13.858200 5.740300 1.000000 0.000000 0.000000 0.450900 -0.443400 1 0 1.000000 
0 4.000000 13.303500 8.889100 1.000000 0.000000 0.000000 0.442800 -0.397300 1 0 1.000000 
0 4.000000 12.472000 8.333600 1.000000 0.000000 0.000000 0.430600 -0.405500 1 0 1.000000 
pipe_cap001
0 4.000000 12.472000 8.333600 1.000000 0.000000 0.000000 0.430600 -0.405500 1 0 1.000000 
0 4.000000 13.303500 8.889100 1.000000 0.000000 0.000000 0.442800 -0.397300 1 0 1.000000 
0 4.000000 11.313700 11.313700 1.000000 0.000000 0.000000 0.413600 -0.361800 1 0 1.000000 
pipe_cap001
0 4.000000 12.472000 8.333600 1.000000 0.000000 0.000000 0.430600 -0.405500 1 0 1.000000 
0 4.000000 11.313700 11.313700 1.000000 0.000000 0.000000 0.413600 -0.361800 1 0 1.000000 
0 4.000000 10.606600 10.606600 1.000000 0.000000 0.000000 0.403300 -0.372200 1 0 1.000000 
pipe_cap001
0 4.000000 10.606600 10.606600 1.000000 0.000000 0.000000 0.403300 -0.372200 1 0 1.000000 
0 4.000000 11.313700 11.313700 1.000000 0.000000 0.000000 0.413600 -0.361800 1 0 1.000000 
0 4.000000 8.889100 13.303500 1.000000 0.000000 0.000000 0.378100 -0.332600 1 0 1.000000 
pipe_cap001
0 4.000000 10.606600 10.606600 1.000000 0.000000 0.000000 0.403300 -0.372200 1 0 1.000000 
0 4.000000 8.889100 13.303500 1.000000 0.000000 0.000000 0.378100 -0.332600 1 0 1.000000 
0 4.000000 8.333600 12.472000 1.000000 0.000000 0.000000 0.370000 -0.344800 1 0 1.000000 
pipe_cap001
0 4.000000 8.333600 12.472000 1.000000 0.000000 0.000000 0.370000 -0.344800 1 0 1.000000 
0 4.000000 8.889100 13.303500 1.000000 0.000000 0.000000 0.378100 -0.332600 1 0 1.000000 
0 4.000000 6.122900 14.782100 1.000000 0.000000 0.000000 0.337600 -0.311000 1 0 1.000000 
pipe_cap001
0 4.000000 8.333600 12.472000 1.000000 0.000000 0.000000 0.370000 -0.344800 1 0 1.000000 
0 4.000000 6.122900 14.782100 1.000000 0.000000 0.000000 0.337600 -0.311000 1 0 1.000000 
0 4.000000 5.740300 13.858200 1.000000 0.000000 0.000000 0.332000 -0.324500 1 0 1.000000 
pipe_cap001
0 4.000000 5.740300 13.858200 1.000000 0.000000 0.000000 0.332000 -0.324500 1 0 1.000000 
0 4.000000 6.122900 14.782100 1.000000 0.000000 0.000000 0.337600 -0.311000 1 0 1.000000 
0 4.000000 3.121400 15.692600 1.000000 0.000000 0.000000 0.293600 -0.297600 1 0 1.000000 
pipe_cap001
0 4.000000 5.740300 13.858200 1.000000 0.000000 0.000000 0.332000 -0.324500 1 0 1.000000 
0 4.000000 3.121400 15.692600 1.000000 0.000000 0.000000 0.293600 -0.297600 1 0 1.000000 
0 4.000000 2.926400 14.711800 1.000000 0.000000 0.000000 0.290700 -0.312000 1 0 1.000000 
pipe_cap001
0 4.000000 2.926400 14.711800 1.000000 0.000000 0.000000 0.290700 -0.312000 1 0 1.000000 
0 4.000000 3.121400 15.692600 1.000000 0.000000 0.000000 0.293600 -0.297600 1 0 1.000000 
0 4.000000 0.000000 16.000000 1.000000 0.000000 0.000000 0.247900 -0.293100 1 0 1.000000 
pipe_cap001
0 4.000000 2.926400 14.711800 1.000000 0.000000 0.000000 0.290700 -0.312000 1 0 1.000000 
0 4.000000 0.000000 16.000000 1.000000 0.000000 0.000000 0.247900 -0.293100 1 0 1.000000 
0 4.000000 0.000000 15.000000 1.000000 0.000000 0.000000 0.247900 -0.307800 1 0 1.000000 
pipe_cap001
0 4.000000 0.000000 15.000000 1.000000 0.000000 0.000000 0.247900 -0.307800 1 0 1.000000 
0 4.000000 0.000000 16.000000 1.000000 0.000000 0.000000 0.247900 -0.293100 1 0 1.000000 
0 4.000000 -3.121400 15.692600 1.000000 0.000000 0.000000 0.202100 -0.297600 1 0 1.000000 
pipe_cap001
0 4.000000 0.000000 15.000000 1.000000 0.000000 0.000000 0.247900 -0.307800 1 0 1.000000 
0 4.000000 -3.121400 15.692600 1.000000 0.000000 0.000000 0.202100 -0.297600 1 0 1.000000 
0 4.000000 -2.926400 14.711800 1.000000 0.000000 0.000000 0.205000 -0.312000 1 0 1.000000 
pipe_cap001
0 4.000000 -2.926400 14.711800 1.000000 0.000000 0.000000 0.205000 -0.312000 1 0 1.000000 
0 4.000000 -3.121400 15.692600 1.000000 0.000000 0.000000 0.202100 -0.297600 1 0 1.000000 
0 4.000000 -6.122900 14.782100 1.000000 0.000000 0.000000 0.158200 -0.311000 1 0 1.000000 
pipe_cap001
0 4.000000 -2.926400 14.711800 1.000000 0.000000 0.000000 0.205000 -0.312000 1 0 1.000000 
0 4.000000 -6.122900 14.782100 1.000000 0.000000 0.000000 0.158200 -0.311000 1 0 1.000000 
0 4.000000 -5.740300 13.858200 1.000000 0.000000 0.000000 0.163800 -0.324500 1 0 1.000000 
pipe_cap001
0 4.000000 -5.740300 13.858200 1.000000 0.000000 0.000000 0.163800 -0.324500 1 0 1.000000 
0 4.000000 -6.122900 14.782100 1.000000 0.000000 0.000000 0.158200 -0.311000 1 0 1.000000 
0 4.000000 -8.889100 13.303500 1.000000 0.000000 0.000000 0.117600 -0.332600 1 0 1.000000 
pipe_cap001
0 4.000000 -5.740300 13.858200 1.000000 0.000000 0.000000 0.163800 -0.324500 1 0 1.000000 
0 4.000000 -8.889100 13.303500 1.000000 0.000000 0.000000 0.117600 -0.332600 1 0 1.000000 
0 4.000000 -8.333600 12.472000 1.000000 0.000000 0.000000 0.125800 -0.344800 1 0 1.000000 
pipe_cap001
0 4.000000 -8.333600 12.472000 1.000000 0.000000 0.000000 0.125800 -0.344800 1 0 1.000000 
0 4.000000 -8.889100 13.303500 1.000000 0.000000 0.000000 0.117600 -0.332600 1 0 1.000000 
0 4.000000 -11.313700 11.313700 1.000000 0.000000 0.000000 0.082100 -0.361800 1 0 1.000000 
pipe_cap001
0 4.000000 -8.333600 12.472000 1.000000 0.000000 0.000000 0.125800 -0.344800 1 0 1.000000 
0 4.000000 -11.313700 11.313700 1.000000 0.000000 0.000000 0.082100 -0.361800 1 0 1.000000 
0 4.000000 -10.606600 10.606600 1.000000 0.000000 0.000000 0.092500 -0.372200 1 0 1.000000 
pipe_cap001
0 4.000000 -10.606600 10.606600 1.000000 0.000000 0.000000 0.092500 -0.372200 1 0 1.000000 
0 4.000000 -11.313700 11.313700 1.000000 0.000000 0.000000 0.082100 -0.361800 1 0 1.000000 
0 4.000000 -13.303500 8.889100 1.000000 0.000000 0.000000 0.053000 -0.397300 1 0 1.000000 
pipe_cap001
0 4.000000 -10.606600 10.606600 1.000000 0.000000 0.000000 0.092500 -0.372200 1 0 1.000000 
0 4.000000 -13.303500 8.889100 1.000000 0.000000 0.000000 0.053000 -0.397300 1 0 1.000000 
0 4.000000 -12.472000 8.333600 1.000000 0.000000 0.000000 0.065200 -0.405500 1 0 1.000000 
pipe_cap001
0 4.000000 -12.472000 8.333600 1.000000 0.000000 0.000000 0.065200 -0.405500 1 0 1.000000 
0 4.000000 -13.303500 8.889100 1.000000 0.000000 0.000000 0.053000 -0.397300 1 0 1.000000 
0 4.000000 -14.782100 6.122900 1.000000 0.000000 0.000000 0.031300 -0.437800 1 0 1.000000 
pipe_cap001
0 4.000000 -12.472000 8.333600 1.000000 0.000000 0.000000 0.065200 -0.405500 1 0 1.000000 
0 4.000000 -14.782100 6.122900 1.000000 0.000000 0.000000 0.031300 -0.437800 1 0 1.000000 
0 4.000000 -13.858200 5.740300 1.000000 0.000000 0.000000 0.044900 -0.443400 1 0 1.000000 
pipe_cap001
0 4.000000 -13.858200 5.740300 1.000000 0.000000 0.000000 0.044900 -0.443400 1 0 1.000000 
0 4.000000 -14.782100 6.122900 1.000000 0.000000 0.000000 0.031300 -0.437800 1 0 1.000000 
0 4.000000 -15.692600 3.121400 1.000000 0.000000 0.000000 0.018000 -0.481800 1 0 1.000000 
pipe_cap001
0 4.000000 -13.858200 5.740300 1.000000 0.000000 0.000000 0.044900 -0.443400 1 0 1.000000 
0 4.000000 -15.692600 3.121400 1.000000 0.000000 0.000000 0.018000 -0.481800 1 0 1.000000 
0 4.000000 -14.711800 2.926400 1.000000 0.000000 0.000000 0.032300 -0.484700 1 0 1.000000 
pipe_cap001
0 4.000000 -14.711800 2.926400 1.000000 0.000000 0.000000 0.032300 -0.484700 1 0 1.000000 
0 4.000000 -15.692600 3.121400 1.000000 0.000000 0.000000 0.018000 -0.481800 1 0 1.000000 
0 4.000000 -16.000000 0.000000 1.000000 0.000000 0.000000 0.013500 -0.527500 1 0 1.000000 
pipe_cap001
0 4.000000 -14.711800 2.926400 1.000000 0.000000 0.000000 0.032300 -0.484700 1 0 1.000000 
0 4.000000 -16.000000 0.000000 1.000000 0.000000 0.000000 0.013500 -0.527500 1 0 1.000000 
0 4.000000 -15.000000 0.000000 1.000000 0.000000 0.000000 0.028100 -0.527500 1 0 1.000000 
pipe_cap001
0 4.000000 -15.000000 0.000000 1.000000 0.000000 0.000000 0.028100 -0.527500 1 0 1.000000 
0 4.000000 -16.000000 0.000000 1.000000 0.000000 0.000000 0.013500 -0.527500 1 0 1.000000 
0 4.000000 -15.692600 -3.121400 1.000000 0.000000 0.000000 0.018000 -0.573300 1 0 1.000000 
pipe_cap001
0 4.000000 -15.000000 0.000000 1.000000 0.000000 0.000000 0.028100 -0.527500 1 0 1.000000 
0 4.000000 -15.692600 -3.121400 1.000000 0.000000 0.000000 0.018000 -0.573300 1 0 1.000000 
0 4.000000 -14.711800 -2.926400 1.000000 0.000000 0.000000 0.032300 -0.570400 1 0 1.000000 
pipe_cap001
0 4.000000 -14.711800 -2.926400 1.000000 0.000000 0.000000 0.032300 -0.570400 1 0 1.000000 
0 4.000000 -15.692600 -3.121400 1.000000 0.000000 0.000000 0.018000 -0.573300 1 0 1.000000 
0 4.000000 -14.782100 -6.122900 1.000000 0.000000 0.000000 0.031300 -0.617200 1 0 1.000000 
pipe_cap001
0 4.000000 -14.711800 -2.926400 1.000000 0.000000 0.000000 0.032300 -0.570400 1 0 1.000000 
0 4.000000 -14.782100 -6.122900 1.000000 0.000000 0.000000 0.031300 -0.617200 1 0 1.000000 
0 4.000000 -13.858200 -5.740300 1.000000 0.000000 0.000000 0.044900 -0.611600 1 0 1.000000 
pipe_cap001
0 4.000000 -13.858200 -5.740300 1.000000 0.000000 0.000000 0.044900 -0.611600 1 0 1.000000 
0 4.000000 -14.782100 -6.122900 1.000000 0.000000 0.000000 0.031300 -0.617200 1 0 1.000000 
0 4.000000 -13.303500 -8.889100 1.000000 0.000000 0.000000 0.053000 -0.657800 1 0 1.000000 
pipe_cap001
0 4.000000 -13.858200 -5.740300 1.000000 0.000000 0.000000 0.044900 -0.611600 1 0 1.000000 
0 4.000000 -13.303500 -8.889100 1.000000 0.000000 0.000000 0.053000 -0.657800 1 0 1.000000 
0 4.000000 -12.472000 -8.333600 1.000000 0.000000 0.000000 0.065200 -0.649600 1 0 1.000000 
pipe_cap001
0 4.000000 -12.472000 -8.333600 1.000000 0.000000 0.000000 0.065200 -0.649600 1 0 1.000000 
0 4.000000 -13.303500 -8.889100 1.000000 0.000000 0.000000 0.053000 -0.657800 1 0 1.000000 
0 4.000000 -11.313700 -11.313700 1.000000 0.000000 0.000000 0.082100 -0.693300 1 0 1.000000 
pipe_cap001
0 4.000000 -12.472000 -8.333600 1.000000 0.000000 0.000000 0.065200 -0.649600 1 0 1.000000 
0 4.000000 -11.313700 -11.313700 1.000000 0.000000 0.000000 0.082100 -0.693300 1 0 1.000000 
0 4.000000 -10.606600 -10.606600 1.000000 0.000000 0.000000 0.092500 -0.682900 1 0 1.000000 
pipe_cap001
0 4.000000 -10.606600 -10.606600 1.000000 0.000000 0.000000 0.092500 -0.682900 1 0 1.000000 
0 4.000000 -11.313700 -11.313700 1.000000 0.000000 0.000000 0.082100 -0.693300 1 0 1.000000 
0 4.000000 -8.889100 -13.303500 1.000000 0.000000 0.000000 0.117600 -0.722400 1 0 1.000000 
pipe_cap001
0 4.000000 -10.606600 -10.606600 1.000000 0.000000 0.000000 0.092500 -0.682900 1 0 1.000000 
0 4.000000 -8.889100 -13.303500 1.000000 0.000000 0.000000 0.117600 -0.722400 1 0 1.000000 
0 4.000000 -8.333600 -12.472000 1.000000 0.000000 0.000000 0.125800 -0.710200 1 0 1.000000 
pipe_cap001
0 4.000000 -8.333600 -12.472000 1.000000 0.000000 0.000000 0.125800 -0.710200 1 0 1.000000 
0 4.000000 -8.889100 -13.303500 1.000000 0.000000 0.000000 0.117600 -0.722400 1 0 1.000000 
0 4.000000 -6.122900 -14.782100 1.000000 0.000000 0.000000 0.158200 -0.744100 1 0 1.000000 
pipe_cap001
0 4.000000 -8.333600 -12.472000 1.000000 0.000000 0.000000 0.125800 -0.710200 1 0 1.000000 
0 4.000000 -6.122900 -14.782100 1.000000 0.000000 0.000000 0.158200 -0.744100 1 0 1.000000 
0 4.000000 -5.740300 -13.858200 1.000000 0.000000 0.000000 0.163800 -0.730600 1 0 1.000000 
pipe_cap001
0 4.000000 -5.740300 -13.858200 1.000000 0.000000 0.000000 0.163800 -0.730600 1 0 1.000000 
0 4.000000 -6.122900 -14.782100 1.000000 0.000000 0.000000 0.158200 -0.744100 1 0 1.000000 
0 4.000000 -3.121400 -15.692600 1.000000 0.000000 0.000000 0.202100 -0.757400 1 0 1.000000 
pipe_cap001
0 4.000000 -5.740300 -13.858200 1.000000 0.000000 0.000000 0.163800 -0.730600 1 0 1.000000 
0 4.000000 -3.121400 -15.692600 1.000000 0.000000 0.000000 0.202100 -0.757400 1 0 1.000000 
0 4.000000 -2.926400 -14.711800 1.000000 0.000000 0.000000 0.205000 -0.743100 1 0 1.000000 
pipe_cap001
0 4.000000 -2.926400 -14.711800 1.000000 0.000000 0.000000 0.205000 -0.743100 1 0 1.000000 
0 4.000000 -3.121400 -15.692600 1.000000 0.000000 0.000000 0.202100 -0.757400 1 0 1.000000 
0 4.000000 0.000000 -16.000000 1.000000 0.000000 0.000000 0.247900 -0.761900 1 0 1.000000 
pipe_cap001
0 4.000000 -2.926400 -14.711800 1.000000 0.000000 0.000000 0.205000 -0.743100 1 0 1.000000 
0 4.000000 0.000000 -16.000000 1.000000 0.000000 0.000000 0.247900 -0.761900 1 0 1.000000 
0 4.000000 0.000000 -15.000000 1.000000 0.000000 0.000000 0.247900 -0.747300 1 0 1.000000 
pipe_cap001
0 4.000000 0.000000 -15.000000 1.000000 0.000000 0.000000 0.247900 -0.747300 1 0 1.000000 
0 4.000000 0.000000 -16.000000 1.000000 0.000000 0.000000 0.247900 -0.761900 1 0 1.000000 
0 4.000000 3.121400 -15.692600 1.000000 0.000000 0.000000 0.293600 -0.757400 1 0 1.000000 
pipe_cap001
0 1.500000 0.000000 15.000000 0.707107 0.707107 0.000000 0.301500 -0.036600 1 0 1.000000 
0 1.500000 0.000000 -15.000000 0.707107 0.707107 0.000000 0.304300 -0.834900 1 0 1.000000 
0 1.000000 0.500000 14.950800 -0.000000 1.000000 0.000000 0.319600 -0.037900 1 0 1.000000 
pipe_cap001
0 1.000000 0.500000 14.950800 0.707107 0.707107 0.000000 0.319600 -0.037900 1 0 1.000000 
0 1.500000 0.000000 -15.000000 0.707107 0.707107 0.000000 0.304300 -0.834900 1 0 1.000000 
0 1.000000 0.500000 -14.950800 0.707107 0.707107 0.000000 0.319600 -0.833500 1 0 1.000000 
pipe_cap001
0 1.000000 0.500000 14.950800 -0.000000 1.000000 0.000000 0.319600 -0.037900 1 0 1.000000 
0 1.000000 0.500000 -14.950800 -0.707107 0.707107 0.000000 0.319600 -0.833500 1 0 1.000000 
0 0.500000 0.000000 15.000000 -0.707107 0.707107 0.000000 0.337700 -0.036600 1 0 1.000000 
pipe_cap001
0 0.500000 0.000000 15.000000 -0.707107 0.707107 0.000000 0.337700 -0.036600 1 0 1.000000 
0 1.000000 0.500000 -14.950800 -0.707107 0.707107 0.000000 0.319600 -0.833500 1 0 1.000000 
0 0.500000 0.000000 -15.000000 -0.707107 0.707107 0.000000 0.334900 -0.834900 1 0 1.000000 
pipe_cap001
0 1.500000 -8.000000 12.650300 0.708594 0.705594 0.005700 0.155800 -0.044800 1 0 1.000000 
0 1.353600 -7.646400 -12.839300 0.708594 0.705594 0.005700 0.162900 -0.832400 1 0 1.000000 
0 1.000000 -7.500000 12.917600 0.196096 0.980579 0.003400 0.173500 -0.036600 1 0 1.000000 
pipe_cap001
0 1.000000 -7.500000 12.917600 0.196096 0.980579 0.003400 0.173500 -0.036600 1 0 1.000000 
0 1.000000 -7.500000 -12.917600 -0.382690 0.923877 0.000000 0.173500 -0.834900 1 0 1.000000 
0 0.646400 -7.646400 12.839300 -0.382690 0.923877 0.000000 0.182200 -0.039000 1 0 1.000000 
pipe_cap001
0 1.000000 -4.500000 14.234400 -0.707107 -0.707107 0.000000 0.189400 -0.045100 1 0 1.000000 
0 0.500000 -4.000000 -14.386100 -1.000000 -0.000000 0.000000 0.170900 -0.830800 1 0 1.000000 
0 1.000000 -4.500000 -14.234400 -0.000600 -0.999993 -0.003600 0.189400 -0.826700 1 0 1.000000 
pipe_cap001
0 1.353600 -3.646400 14.493300 0.788862 0.614570 0.000000 0.214100 -0.037800 1 0 1.000000 
0 1.000000 -3.500000 -14.537800 0.161901 0.986805 -0.002100 0.223800 -0.834900 1 0 1.000000 
0 1.000000 -3.500000 14.537800 0.382690 0.923877 0.000000 0.223800 -0.036600 1 0 1.000000 
pipe_cap001
0 1.353600 -3.646400 14.493300 0.788862 0.614570 0.000000 0.214100 -0.037800 1 0 1.000000 
0 1.500000 -4.000000 -14.386100 0.999997 -0.001300 -0.002100 0.208000 -0.830800 1 0 1.000000 
0 1.000000 -3.500000 -14.537800 0.161901 0.986805 -0.002100 0.223800 -0.834900 1 0 1.000000 
pipe_cap001
0 1.353600 -4.353600 14.278800 0.923877 -0.382690 0.000000 0.197100 -0.043800 1 0 1.000000 
0 1.500000 -4.000000 -14.386100 0.999997 -0.001300 -0.002100 0.208000 -0.830800 1 0 1.000000 
0 1.353600 -3.646400 14.493300 0.788862 0.614570 0.000000 0.214100 -0.037800 1 0 1.000000 
pipe_cap001
0 1.353600 -4.353600 14.278800 0.923877 -0.382690 0.000000 0.197100 -0.043800 1 0 1.000000 
0 1.000000 -4.500000 -14.234400 -0.000600 -0.999993 -0.003600 0.189400 -0.826700 1 0 1.000000 
0 1.500000 -4.000000 -14.386100 0.999997 -0.001300 -0.002100 0.208000 -0.830800 1 0 1.000000 
pipe_cap001
0 0.500000 -4.000000 14.386100 -0.707107 0.707107 0.000000 0.242300 -0.040800 1 0 1.000000 
0 1.000000 -3.500000 -14.537800 0.161901 0.986805 -0.002100 0.223800 -0.834900 1 0 1.000000 
0 0.500000 -4.000000 -14.386100 -1.000000 -0.000000 0.000000 0.239600 -0.830800 1 0 1.000000 
pipe_cap001
0 2.000001 -14.966500 10.000300 0.000000 -0.812773 0.582581 0.577900 -0.156200 1 0 1.000000 
0 0.000001 -12.727900 12.727900 0.000000 -0.729927 0.683525 0.552900 -0.125000 1 0 1.000000 
0 0.000001 -14.966500 10.000300 0.000000 -0.849260 0.527975 0.552900 -0.156200 1 0 1.000000 
pipe_cap001
0 2.000001 -14.966500 10.000300 0.000000 -0.812773 0.582581 0.577900 -0.156200 1 0 1.000000 
0 2.000000 -12.727900 12.727900 0.000000 -0.683525 0.729927 0.577900 -0.125000 1 0 1.000000 
0 0.000001 -12.727900 12.727900 0.000000 -0.729927 0.683525 0.552900 -0.125000 1 0 1.000000 
pipe_cap001
0 2.000000 -12.727900 12.727900 0.000000 -0.683525 0.729927 0.577900 -0.125000 1 0 1.000000 
0 0.000000 -10.000300 14.966500 0.000000 -0.582581 0.812773 0.552900 -0.093700 1 0 1.000000 
0 0.000001 -12.727900 12.727900 0.000000 -0.729927 0.683525 0.552900 -0.125000 1 0 1.000000 
pipe_cap001
0 2.000000 -12.727900 12.727900 0.000000 -0.683525 0.729927 0.577900 -0.125000 1 0 1.000000 
0 2.000000 -10.000300 14.966500 0.000000 -0.527975 0.849260 0.577900 -0.093700 1 0 1.000000 
0 0.000000 -10.000300 14.966500 0.000000 -0.582581 0.812773 0.552900 -0.093700 1 0 1.000000 
pipe_cap001
0 2.000000 -10.000300 14.966500 0.000000 -0.527975 0.849260 0.577900 -0.093700 1 0 1.000000 
0 0.000000 -6.888300 16.629801 0.000000 -0.412808 0.910818 0.552900 -0.062500 1 0 1.000000 
0 0.000000 -10.000300 14.966500 0.000000 -0.582581 0.812773 0.552900 -0.093700 1 0 1.000000 
pipe_cap001
0 2.000000 -10.000300 14.966500 0.000000 -0.527975 0.849260 0.577900 -0.093700 1 0 1.000000 
0 2.000000 -6.888300 16.629801 0.000000 -0.352208 0.935922 0.577900 -0.062500 1 0 1.000000 
0 0.000000 -6.888300 16.629801 0.000000 -0.412808 0.910818 0.552900 -0.062500 1 0 1.000000 
pipe_cap001
0 2.000000 -6.888300 16.629801 0.000000 -0.352208 0.935922 0.577900 -0.062500 1 0 1.000000 
0 0.000000 -3.511600 17.654100 0.000000 -0.227188 0.973851 0.552900 -0.031200 1 0 1.000000 
0 0.000000 -6.888300 16.629801 0.000000 -0.412808 0.910818 0.552900 -0.062500 1 0 1.000000 
pipe_cap001
0 2.000000 -6.888300 16.629801 0.000000 -0.352208 0.935922 0.577900 -0.062500 1 0 1.000000 
0 2.000000 -3.511600 17.654100 0.000000 -0.162793 0.986660 0.577900 -0.031200 1 0 1.000000 
0 0.000000 -3.511600 17.654100 0.000000 -0.227188 0.973851 0.552900 -0.031200 1 0 1.000000 
pipe_cap001
0 2.000000 -3.511600 17.654100 0.000000 -0.162793 0.986660 0.577900 -0.031200 1 0 1.000000 
0 0.000000 0.000000 18.000000 0.000000 -0.032799 0.999462 0.552900 -0.000000 1 0 1.000000 
0 0.000000 -3.511600 17.654100 0.000000 -0.227188 0.973851 0.552900 -0.031200 1 0 1.000000 
pipe_cap001
0 2.000000 -3.511600 17.654100 0.000000 -0.162793 0.986660 0.577900 -0.031200 1 0 1.000000 
0 2.000000 0.000000 18.000000 -0.000000 0.032799 0.999462 0.577900 -0.000000 1 0 1.000000 
0 0.000000 0.000000 18.000000 0.000000 -0.032799 0.999462 0.552900 -0.000000 1 0 1.000000 
pipe_cap001
0 2.000000 -6.888300 -16.629801 0.000000 -0.412808 -0.910818 0.577900 -0.437500 1 0 1.000000 
0 0.000000 -10.000300 -14.966500 0.000000 -0.527975 -0.849260 0.552900 -0.406200 1 0 1.000000 
0 0.000000 -6.888300 -16.629801 0.000000 -0.352208 -0.935922 0.552900 -0.437500 1 0 1.000000 
pipe_cap001
0 2.000000 -6.888300 -16.629801 0.000000 -0.412808 -0.910818 0.577900 -0.437500 1 0 1.000000 
0 2.000000 -10.000300 -14.966500 0.000000 -0.582581 -0.812773 0.577900 -0.406200 1 0 1.000000 
0 0.000000 -10.000300 -14.966500 0.000000 -0.527975 -0.849260 0.552900 -0.406200 1 0 1.000000 
pipe_cap001
0 2.000000 -10.000300 -14.966500 0.000000 -0.582581 -0.812773 0.577900 -0.406200 1 0 1.000000 
0 0.000001 -12.727900 -12.727900 0.000000 -0.683525 -0.729927 0.552900 -0.375000 1 0 1.000000 
0 0.000000 -10.000300 -14.966500 0.000000 -0.527975 -0.849260 0.552900 -0.406200 1 0 1.000000 
pipe_cap001
0 2.000000 -10.000300 -14.966500 0.000000 -0.582581 -0.812773 0.577900 -0.406200 1 0 1.000000 
0 2.000000 -12.727900 -12.727900 0.000000 -0.729927 -0.683525 0.577900 -0.375000 1 0 1.000000 
0 0.000001 -12.727900 -12.727900 0.000000 -0.683525 -0.729927 0.552900 -0.375000 1 0 1.000000 
pipe_cap001
0 2.000000 -12.727900 -12.727900 0.000000 -0.729927 -0.683525 0.577900 -0.375000 1 0 1.000000 
0 0.000001 -14.966500 -10.000300 0.000000 -0.812773 -0.582581 0.552900 -0.343700 1 0 1.000000 
0 0.000001 -12.727900 -12.727900 0.000000 -0.683525 -0.729927 0.552900 -0.375000 1 0 1.000000 
pipe_cap001
0 2.000000 -12.727900 -12.727900 0.000000 -0.729927 -0.683525 0.577900 -0.375000 1 0 1.000000 
0 2.000001 -14.966500 -10.000300 0.000000 -0.849260 -0.527975 0.577900 -0.343700 1 0 1.000000 
0 0.000001 -14.966500 -10.000300 0.000000 -0.812773 -0.582581 0.552900 -0.343700 1 0 1.000000 
pipe_cap001
0 2.000001 -14.966500 -10.000300 0.000000 -0.849260 -0.527975 0.577900 -0.343700 1 0 1.000000 
0 0.000001 -16.629801 -6.888300 0.000000 -0.910818 -0.412808 0.552900 -0.312500 1 0 1.000000 
0 0.000001 -14.966500 -10.000300 0.000000 -0.812773 -0.582581 0.552900 -0.343700 1 0 1.000000 
pipe_cap001
0 2.000001 -14.966500 -10.000300 0.000000 -0.849260 -0.527975 0.577900 -0.343700 1 0 1.000000 
0 2.000001 -16.629801 -6.888300 0.000000 -0.935922 -0.352208 0.577900 -0.312500 1 0 1.000000 
0 0.000001 -16.629801 -6.888300 0.000000 -0.910818 -0.412808 0.552900 -0.312500 1 0 1.000000 
pipe_cap001
0 2.000001 -16.629801 -6.888300 0.000000 -0.935922 -0.352208 0.577900 -0.312500 1 0 1.000000 
0 0.000001 -17.654100 -3.511600 0.000000 -0.973851 -0.227188 0.552900 -0.281200 1 0 1.000000 
0 0.000001 -16.629801 -6.888300 0.000000 -0.910818 -0.412808 0.552900 -0.312500 1 0 1.000000 
pipe_cap001
0 2.000001 -16.629801 -6.888300 0.000000 -0.935922 -0.352208 0.577900 -0.312500 1 0 1.000000 
0 2.000001 -17.654100 -3.511600 0.000000 -0.986660 -0.162793 0.577900 -0.281200 1 0 1.000000 
0 0.000001 -17.654100 -3.511600 0.000000 -0.973851 -0.227188 0.552900 -0.281200 1 0 1.000000 
pipe_cap001
0 2.000001 -17.654100 -3.511600 0.000000 -0.986660 -0.162793 0.577900 -0.281200 1 0 1.000000 
0 0.000001 -18.000000 0.000000 0.000000 -0.999462 -0.032799 0.552900 -0.250000 1 0 1.000000 
0 0.000001 -17.654100 -3.511600 0.000000 -0.973851 -0.227188 0.552900 -0.281200 1 0 1.000000 
pipe_cap001
0 2.000001 -17.654100 -3.511600 0.000000 -0.986660 -0.162793 0.577900 -0.281200 1 0 1.000000 
0 2.000001 -18.000000 0.000000 0.000000 -0.999462 0.032799 0.577900 -0.250000 1 0 1.000000 
0 0.000001 -18.000000 0.000000 0.000000 -0.999462 -0.032799 0.552900 -0.250000 1 0 1.000000 
pipe_cap001
0 2.000001 -18.000000 0.000000 0.000000 -0.999462 0.032799 0.577900 -0.250000 1 0 1.000000 
0 0.000001 -17.654100 3.511600 0.000000 -0.986660 0.162793 0.552900 -0.218700 1 0 1.000000 
0 0.000001 -18.000000 0.000000 0.000000 -0.999462 -0.032799 0.552900 -0.250000 1 0 1.000000 
pipe_cap001
0 2.000001 -18.000000 0.000000 0.000000 -0.999462 0.032799 0.577900 -0.250000 1 0 1.000000 
0 2.000001 -17.654100 3.511600 0.000000 -0.973851 0.227188 0.577900 -0.218700 1 0 1.000000 
0 0.000001 -17.654100 3.511600 0.000000 -0.986660 0.162793 0.552900 -0.218700 1 0 1.000000 
pipe_cap001
0 2.000001 -17.654100 3.511600 0.000000 -0.973851 0.227188 0.577900 -0.218700 1 0 1.000000 
0 0.000001 -16.629801 6.888300 0.000000 -0.935922 0.352208 0.552900 -0.187500 1 0 1.000000 
0 0.000001 -17.654100 3.511600 0.000000 -0.986660 0.162793 0.552900 -0.218700 1 0 1.000000 
pipe_cap001
0 2.000001 -17.654100 3.511600 0.000000 -0.973851 0.227188 0.577900 -0.218700 1 0 1.000000 
0 2.000001 -16.629801 6.888300 0.000000 -0.910818 0.412808 0.577900 -0.187500 1 0 1.000000 
0 0.000001 -16.629801 6.888300 0.000000 -0.935922 0.352208 0.552900 -0.187500 1 0 1.000000 
pipe_cap001
0 2.000001 -16.629801 6.888300 0.000000 -0.910818 0.412808 0.577900 -0.187500 1 0 1.000000 
0 0.000001 -14.966500 10.000300 0.000000 -0.849260 0.527975 0.552900 -0.156200 1 0 1.000000 
0 0.000001 -16.629801 6.888300 0.000000 -0.935922 0.352208 0.552900 -0.187500 1 0 1.000000 
pipe_cap001
0 2.000001 -16.629801 6.888300 0.000000 -0.910818 0.412808 0.577900 -0.187500 1 0 1.000000 
0 2.000001 -14.966500 10.000300 0.000000 -0.812773 0.582581 0.577900 -0.156200 1 0 1.000000 
0 0.000001 -14.966500 10.000300 0.000000 -0.849260 0.527975 0.552900 -0.156200 1 0 1.000000 
pipe_cap001
0 1.999999 17.654100 -3.511600 -0.000000 0.973851 -0.227188 0.577900 -0.718700 1 0 1.000000 
0 -0.000001 16.629801 -6.888300 -0.000000 0.935922 -0.352208 0.552900 -0.687500 1 0 1.000000 
0 -0.000001 17.654100 -3.511600 -0.000000 0.986660 -0.162793 0.552900 -0.718700 1 0 1.000000 
pipe_cap001
0 1.999999 17.654100 -3.511600 -0.000000 0.973851 -0.227188 0.577900 -0.718700 1 0 1.000000 
0 1.999999 16.629801 -6.888300 -0.000000 0.910818 -0.412808 0.577900 -0.687500 1 0 1.000000 
0 -0.000001 16.629801 -6.888300 -0.000000 0.935922 -0.352208 0.552900 -0.687500 1 0 1.000000 
pipe_cap001
0 1.999999 16.629801 -6.888300 -0.000000 0.910818 -0.412808 0.577900 -0.687500 1 0 1.000000 
0 -0.000001 14.966500 -10.000300 -0.000000 0.849260 -0.527975 0.552900 -0.656200 1 0 1.000000 
0 -0.000001 16.629801 -6.888300 -0.000000 0.935922 -0.352208 0.552900 -0.687500 1 0 1.000000 
pipe_cap001
0 1.999999 16.629801 -6.888300 -0.000000 0.910818 -0.412808 0.577900 -0.687500 1 0 1.000000 
0 1.999999 14.966500 -10.000300 -0.000000 0.812773 -0.582581 0.577900 -0.656200 1 0 1.000000 
0 -0.000001 14.966500 -10.000300 -0.000000 0.849260 -0.527975 0.552900 -0.656200 1 0 1.000000 
pipe_cap001
0 1.999999 14.966500 -10.000300 -0.000000 0.812773 -0.582581 0.577900 -0.656200 1 0 1.000000 
0 -0.000001 12.727900 -12.727900 -0.000000 0.729927 -0.683525 0.552900 -0.625000 1 0 1.000000 
0 -0.000001 14.966500 -10.000300 -0.000000 0.849260 -0.527975 0.552900 -0.656200 1 0 1.000000 
pipe_cap001
0 1.999999 14.966500 -10.000300 -0.000000 0.812773 -0.582581 0.577900 -0.656200 1 0 1.000000 
0 1.999999 12.727900 -12.727900 -0.000000 0.683525 -0.729927 0.577900 -0.625000 1 0 1.000000 
0 -0.000001 12.727900 -12.727900 -0.000000 0.729927 -0.683525 0.552900 -0.625000 1 0 1.000000 
pipe_cap001
0 1.999999 12.727900 -12.727900 -0.000000 0.683525 -0.729927 0.577900 -0.625000 1 0 1.000000 
0 -0.000000 10.000300 -14.966500 -0.000000 0.582581 -0.812773 0.552900 -0.593700 1 0 1.000000 
0 -0.000001 12.727900 -12.727900 -0.000000 0.729927 -0.683525 0.552900 -0.625000 1 0 1.000000 
pipe_cap001
0 1.999999 12.727900 -12.727900 -0.000000 0.683525 -0.729927 0.577900 -0.625000 1 0 1.000000 
0 2.000000 10.000300 -14.966500 -0.000000 0.527975 -0.849260 0.577900 -0.593700 1 0 1.000000 
0 -0.000000 10.000300 -14.966500 -0.000000 0.582581 -0.812773 0.552900 -0.593700 1 0 1.000000 
pipe_cap001
0 2.000000 10.000300 -14.966500 -0.000000 0.527975 -0.849260 0.577900 -0.593700 1 0 1.000000 
0 -0.000000 6.888300 -16.629801 -0.000000 0.412808 -0.910818 0.552900 -0.562500 1 0 1.000000 
0 -0.000000 10.000300 -14.966500 -0.000000 0.582581 -0.812773 0.552900 -0.593700 1 0 1.000000 
pipe_cap001
0 2.000000 10.000300 -14.966500 -0.000000 0.527975 -0.849260 0.577900 -0.593700 1 0 1.000000 
0 2.000000 6.888300 -16.629801 -0.000000 0.352208 -0.935922 0.577900 -0.562500 1 0 1.000000 
0 -0.000000 6.888300 -16.629801 -0.000000 0.412808 -0.910818 0.552900 -0.562500 1 0 1.000000 
pipe_cap001
0 2.000000 6.888300 -16.629801 -0.000000 0.352208 -0.935922 0.577900 -0.562500 1 0 1.000000 
0 -0.000000 3.511600 -17.654100 -0.000000 0.227188 -0.973851 0.552900 -0.531200 1 0 1.000000 
0 -0.000000 6.888300 -16.629801 -0.000000 0.412808 -0.910818 0.552900 -0.562500 1 0 1.000000 
pipe_cap001
0 2.000000 6.888300 -16.629801 -0.000000 0.352208 -0.935922 0.577900 -0.562500 1 0 1.000000 
0 2.000000 3.511600 -17.654100 -0.000000 0.162793 -0.986660 0.577900 -0.531200 1 0 1.000000 
0 -0.000000 3.511600 -17.654100 -0.000000 0.227188 -0.973851 0.552900 -0.531200 1 0 1.000000 
pipe_cap001
0 2.000000 3.511600 -17.654100 -0.000000 0.162793 -0.986660 0.577900 -0.531200 1 0 1.000000 
0 0.000000 0.000000 -18.000000 -0.000000 0.032799 -0.999462 0.552900 -0.500000 1 0 1.000000 
0 -0.000000 3.511600 -17.654100 -0.000000 0.227188 -0.973851 0.552900 -0.531200 1 0 1.000000 
pipe_cap001
0 2.000000 3.511600 -17.654100 -0.000000 0.162793 -0.986660 0.577900 -0.531200 1 0 1.000000 
0 2.000000 0.000000 -18.000000 0.000000 -0.032799 -0.999462 0.577900 -0.500000 1 0 1.000000 
0 0.000000 0.000000 -18.000000 -0.000000 0.032799 -0.999462 0.552900 -0.500000 1 0 1.000000 
pipe_cap001
0 2.000000 0.000000 -18.000000 0.000000 -0.032799 -0.999462 0.577900 -0.500000 1 0 1.000000 
0 0.000000 -3.511600 -17.654100 0.000000 -0.162793 -0.986660 0.552900 -0.468700 1 0 1.000000 
0 0.000000 0.000000 -18.000000 -0.000000 0.032799 -0.999462 0.552900 -0.500000 1 0 1.000000 
pipe_cap001
0 2.000000 0.000000 -18.000000 0.000000 -0.032799 -0.999462 0.577900 -0.500000 1 0 1.000000 
0 2.000000 -3.511600 -17.654100 0.000000 -0.227188 -0.973851 0.577900 -0.468700 1 0 1.000000 
0 0.000000 -3.511600 -17.654100 0.000000 -0.162793 -0.986660 0.552900 -0.468700 1 0 1.000000 
pipe_cap001
0 2.000000 -3.511600 -17.654100 0.000000 -0.227188 -0.973851 0.577900 -0.468700 1 0 1.000000 
0 0.000000 -6.888300 -16.629801 0.000000 -0.352208 -0.935922 0.552900 -0.437500 1 0 1.000000 
0 0.000000 -3.511600 -17.654100 0.000000 -0.162793 -0.986660 0.552900 -0.468700 1 0 1.000000 
pipe_cap001
0 2.000000 -3.511600 -17.654100 0.000000 -0.227188 -0.973851 0.577900 -0.468700 1 0 1.000000 
0 2.000000 -6.888300 -16.629801 0.000000 -0.412808 -0.910818 0.577900 -0.437500 1 0 1.000000 
0 0.000000 -6.888300 -16.629801 0.000000 -0.352208 -0.935922 0.552900 -0.437500 1 0 1.000000 
pipe_cap001
0 2.000000 0.000000 18.000000 -0.000000 0.032799 0.999462 0.577900 -1.000000 1 0 1.000000 
0 -0.000000 3.511600 17.654100 -0.000000 0.162793 0.986660 0.552900 -0.968700 1 0 1.000000 
0 0.000000 0.000000 18.000000 0.000000 -0.032799 0.999462 0.552900 -1.000000 1 0 1.000000 
pipe_cap001
0 2.000000 0.000000 18.000000 -0.000000 0.032799 0.999462 0.577900 -1.000000 1 0 1.000000 
0 2.000000 3.511600 17.654100 -0.000000 0.227188 0.973851 0.577900 -0.968700 1 0 1.000000 
0 -0.000000 3.511600 17.654100 -0.000000 0.162793 0.986660 0.552900 -0.968700 1 0 1.000000 
pipe_cap001
0 2.000000 3.511600 17.654100 -0.000000 0.227188 0.973851 0.577900 -0.968700 1 0 1.000000 
0 -0.000000 6.888300 16.629801 -0.000000 0.352208 0.935922 0.552900 -0.937500 1 0 1.000000 
0 -0.000000 3.511600 17.654100 -0.000000 0.162793 0.986660 0.552900 -0.968700 1 0 1.000000 
pipe_cap001
0 2.000000 3.511600 17.654100 -0.000000 0.227188 0.973851 0.577900 -0.968700 1 0 1.000000 
0 2.000000 6.888300 16.629801 -0.000000 0.412808 0.910818 0.577900 -0.937500 1 0 1.000000 
0 -0.000000 6.888300 16.629801 -0.000000 0.352208 0.935922 0.552900 -0.937500 1 0 1.000000 
pipe_cap001
0 2.000000 6.888300 16.629801 -0.000000 0.412808 0.910818 0.577900 -0.937500 1 0 1.000000 
0 -0.000000 10.000300 14.966500 -0.000000 0.527975 0.849260 0.552900 -0.906200 1 0 1.000000 
0 -0.000000 6.888300 16.629801 -0.000000 0.352208 0.935922 0.552900 -0.937500 1 0 1.000000 
pipe_cap001
0 2.000000 6.888300 16.629801 -0.000000 0.412808 0.910818 0.577900 -0.937500 1 0 1.000000 
0 2.000000 10.000300 14.966500 -0.000000 0.582581 0.812773 0.577900 -0.906200 1 0 1.000000 
0 -0.000000 10.000300 14.966500 -0.000000 0.527975 0.849260 0.552900 -0.906200 1 0 1.000000 
pipe_cap001
0 2.000000 10.000300 14.966500 -0.000000 0.582581 0.812773 0.577900 -0.906200 1 0 1.000000 
0 -0.000001 12.727900 12.727900 -0.000000 0.683525 0.729927 0.552900 -0.875000 1 0 1.000000 
0 -0.000000 10.000300 14.966500 -0.000000 0.527975 0.849260 0.552900 -0.906200 1 0 1.000000 
pipe_cap001
0 2.000000 10.000300 14.966500 -0.000000 0.582581 0.812773 0.577900 -0.906200 1 0 1.000000 
0 1.999999 12.727900 12.727900 -0.000000 0.729927 0.683525 0.577900 -0.875000 1 0 1.000000 
0 -0.000001 12.727900 12.727900 -0.000000 0.683525 0.729927 0.552900 -0.875000 1 0 1.000000 
pipe_cap001
0 1.999999 12.727900 12.727900 -0.000000 0.729927 0.683525 0.577900 -0.875000 1 0 1.000000 
0 -0.000001 14.966500 10.000300 -0.000000 0.812773 0.582581 0.552900 -0.843700 1 0 1.000000 
0 -0.000001 12.727900 12.727900 -0.000000 0.683525 0.729927 0.552900 -0.875000 1 0 1.000000 
pipe_cap001
0 1.999999 12.727900 12.727900 -0.000000 0.729927 0.683525 0.577900 -0.875000 1 0 1.000000 
0 1.999999 14.966500 10.000300 -0.000000 0.849260 0.527975 0.577900 -0.843700 1 0 1.000000 
0 -0.000001 14.966500 10.000300 -0.000000 0.812773 0.582581 0.552900 -0.843700 1 0 1.000000 
pipe_cap001
0 1.999999 14.966500 10.000300 -0.000000 0.849260 0.527975 0.577900 -0.843700 1 0 1.000000 
0 -0.000001 16.629801 6.888300 -0.000000 0.910818 0.412808 0.552900 -0.812500 1 0 1.000000 
0 -0.000001 14.966500 10.000300 -0.000000 0.812773 0.582581 0.552900 -0.843700 1 0 1.000000 
pipe_cap001
0 1.999999 14.966500 10.000300 -0.000000 0.849260 0.527975 0.577900 -0.843700 1 0 1.000000 
0 1.999999 16.629801 6.888300 -0.000000 0.935922 0.352208 0.577900 -0.812500 1 0 1.000000 
0 -0.000001 16.629801 6.888300 -0.000000 0.910818 0.412808 0.552900 -0.812500 1 0 1.000000 
pipe_cap001
0 1.999999 16.629801 6.888300 -0.000000 0.935922 0.352208 0.577900 -0.812500 1 0 1.000000 
0 -0.000001 17.654100 3.511600 -0.000000 0.973851 0.227188 0.552900 -0.781200 1 0 1.000000 
0 -0.000001 16.629801 6.888300 -0.000000 0.910818 0.412808 0.552900 -0.812500 1 0 1.000000 
pipe_cap001
0 1.999999 16.629801 6.888300 -0.000000 0.935922 0.352208 0.577900 -0.812500 1 0 1.000000 
0 1.999999 17.654100 3.511600 -0.000000 0.986660 0.162793 0.577900 -0.781200 1 0 1.000000 
0 -0.000001 17.654100 3.511600 -0.000000 0.973851 0.227188 0.552900 -0.781200 1 0 1.000000 
pipe_cap001
0 1.999999 17.654100 3.511600 -0.000000 0.986660 0.162793 0.577900 -0.781200 1 0 1.000000 
0 -0.000001 18.000000 0.000000 -0.000000 0.999462 0.032799 0.552900 -0.750000 1 0 1.000000 
0 -0.000001 17.654100 3.511600 -0.000000 0.973851 0.227188 0.552900 -0.781200 1 0 1.000000 
pipe_cap001
0 1.999999 17.654100 3.511600 -0.000000 0.986660 0.162793 0.577900 -0.781200 1 0 1.000000 
0 1.999999 18.000000 0.000000 -0.000000 0.999462 -0.032799 0.577900 -0.750000 1 0 1.000000 
0 -0.000001 18.000000 0.000000 -0.000000 0.999462 0.032799 0.552900 -0.750000 1 0 1.000000 
pipe_cap001
0 1.999999 18.000000 0.000000 -0.000000 0.999462 -0.032799 0.577900 -0.750000 1 0 1.000000 
0 -0.000001 17.654100 -3.511600 -0.000000 0.986660 -0.162793 0.552900 -0.718700 1 0 1.000000 
0 -0.000001 18.000000 0.000000 -0.000000 0.999462 0.032799 0.552900 -0.750000 1 0 1.000000 
pipe_cap001
0 1.999999 18.000000 0.000000 -0.000000 0.999462 -0.032799 0.577900 -0.750000 1 0 1.000000 
0 1.999999 17.654100 -3.511600 -0.000000 0.973851 -0.227188 0.577900 -0.718700 1 0 1.000000 
0 -0.000001 17.654100 -3.511600 -0.000000 0.986660 -0.162793 0.552900 -0.718700 1 0 1.000000 
pipe_cap001
0 4.000000 3.121400 15.692600 0.706885 0.115198 0.697885 0.602900 -0.968700 1 0 1.000000 
0 2.000000 0.000000 18.000000 0.706916 0.023201 0.706916 0.577900 -1.000000 1 0 1.000000 
0 4.000000 0.000000 16.000000 0.706916 -0.023201 0.706916 0.602900 -1.000000 1 0 1.000000 
pipe_cap001
0 4.000000 3.121400 15.692600 0.706885 0.115198 0.697885 0.602900 -0.968700 1 0 1.000000 
0 2.000000 3.511600 17.654100 0.706908 0.160702 0.688808 0.577900 -0.968700 1 0 1.000000 
0 2.000000 0.000000 18.000000 0.706916 0.023201 0.706916 0.577900 -1.000000 1 0 1.000000 
pipe_cap001
0 4.000000 6.122900 14.782100 0.706899 0.249100 0.661999 0.602900 -0.937500 1 0 1.000000 
0 2.000000 3.511600 17.654100 0.706908 0.160702 0.688808 0.577900 -0.968700 1 0 1.000000 
0 4.000000 3.121400 15.692600 0.706885 0.115198 0.697885 0.602900 -0.968700 1 0 1.000000 
pipe_cap001
0 4.000000 6.122900 14.782100 0.706899 0.249100 0.661999 0.602900 -0.937500 1 0 1.000000 
0 2.000000 6.888300 16.629801 0.706912 0.292005 0.644211 0.577900 -0.937500 1 0 1.000000 
0 2.000000 3.511600 17.654100 0.706908 0.160702 0.688808 0.577900 -0.968700 1 0 1.000000 
pipe_cap001
0 4.000000 8.889100 13.303500 0.706909 0.373405 0.600707 0.602900 -0.906200 1 0 1.000000 
0 2.000000 6.888300 16.629801 0.706912 0.292005 0.644211 0.577900 -0.937500 1 0 1.000000 
0 4.000000 6.122900 14.782100 0.706899 0.249100 0.661999 0.602900 -0.937500 1 0 1.000000 
pipe_cap001
0 4.000000 8.889100 13.303500 0.706909 0.373405 0.600707 0.602900 -0.906200 1 0 1.000000 
0 2.000000 10.000300 14.966500 0.706913 0.412008 0.574911 0.577900 -0.906200 1 0 1.000000 
0 2.000000 6.888300 16.629801 0.706912 0.292005 0.644211 0.577900 -0.937500 1 0 1.000000 
pipe_cap001
0 4.000000 11.313700 11.313700 0.706884 0.483489 0.516288 0.602900 -0.875000 1 0 1.000000 
0 2.000000 10.000300 14.966500 0.706913 0.412008 0.574911 0.577900 -0.906200 1 0 1.000000 
0 4.000000 8.889100 13.303500 0.706909 0.373405 0.600707 0.602900 -0.906200 1 0 1.000000 
pipe_cap001
0 4.000000 11.313700 11.313700 0.706884 0.483489 0.516288 0.602900 -0.875000 1 0 1.000000 
0 1.999999 12.727900 12.727900 0.706884 0.516288 0.483489 0.577900 -0.875000 1 0 1.000000 
0 2.000000 10.000300 14.966500 0.706913 0.412008 0.574911 0.577900 -0.906200 1 0 1.000000 
pipe_cap001
0 4.000000 13.303500 8.889100 0.706913 0.574911 0.412008 0.602900 -0.843700 1 0 1.000000 
0 1.999999 12.727900 12.727900 0.706884 0.516288 0.483489 0.577900 -0.875000 1 0 1.000000 
0 4.000000 11.313700 11.313700 0.706884 0.483489 0.516288 0.602900 -0.875000 1 0 1.000000 
pipe_cap001
0 4.000000 13.303500 8.889100 0.706913 0.574911 0.412008 0.602900 -0.843700 1 0 1.000000 
0 1.999999 14.966500 10.000300 0.706908 0.600707 0.373404 0.577900 -0.843700 1 0 1.000000 
0 1.999999 12.727900 12.727900 0.706884 0.516288 0.483489 0.577900 -0.875000 1 0 1.000000 
pipe_cap001
0 3.999999 14.782100 6.122900 0.706912 0.644211 0.292005 0.602900 -0.812500 1 0 1.000000 
0 1.999999 14.966500 10.000300 0.706908 0.600707 0.373404 0.577900 -0.843700 1 0 1.000000 
0 4.000000 13.303500 8.889100 0.706913 0.574911 0.412008 0.602900 -0.843700 1 0 1.000000 
pipe_cap001
0 3.999999 14.782100 6.122900 0.706912 0.644211 0.292005 0.602900 -0.812500 1 0 1.000000 
0 1.999999 16.629801 6.888300 0.706899 0.661999 0.249100 0.577900 -0.812500 1 0 1.000000 
0 1.999999 14.966500 10.000300 0.706908 0.600707 0.373404 0.577900 -0.843700 1 0 1.000000 
pipe_cap001
0 3.999999 15.692600 3.121400 0.706908 0.688808 0.160702 0.602900 -0.781200 1 0 1.000000 
0 1.999999 16.629801 6.888300 0.706899 0.661999 0.249100 0.577900 -0.812500 1 0 1.000000 
0 3.999999 14.782100 6.122900 0.706912 0.644211 0.292005 0.602900 -0.812500 1 0 1.000000 
pipe_cap001
0 3.999999 15.692600 3.121400 0.706908 0.688808 0.160702 0.602900 -0.781200 1 0 1.000000 
0 1.999999 17.654100 3.511600 0.706885 0.697885 0.115198 0.577900 -0.781200 1 0 1.000000 
0 1.999999 16.629801 6.888300 0.706899 0.661999 0.249100 0.577900 -0.812500 1 0 1.000000 
pipe_cap001
0 3.999999 16.000000 0.000000 0.706916 0.706916 0.023201 0.602900 -0.750000 1 0 1.000000 
0 1.999999 17.654100 3.511600 0.706885 0.697885 0.115198 0.577900 -0.781200 1 0 1.000000 
0 3.999999 15.692600 3.121400 0.706908 0.688808 0.160702 0.602900 -0.781200 1 0 1.000000 
pipe_cap001
0 3.999999 16.000000 0.000000 0.706916 0.706916 0.023201 0.602900 -0.750000 1 0 1.000000 
0 1.999999 18.000000 0.000000 0.706916 0.706916 -0.023201 0.577900 -0.750000 1 0 1.000000 
0 1.999999 17.654100 3.511600 0.706885 0.697885 0.115198 0.577900 -0.781200 1 0 1.000000 
pipe_cap001
0 3.999999 15.692600 -3.121400 0.706885 0.697885 -0.115198 0.602900 -0.718700 1 0 1.000000 
0 1.999999 18.000000 0.000000 0.706916 0.706916 -0.023201 0.577900 -0.750000 1 0 1.000000 
0 3.999999 16.000000 0.000000 0.706916 0.706916 0.023201 0.602900 -0.750000 1 0 1.000000 
pipe_cap001
0 3.999999 15.692600 -3.121400 0.706885 0.697885 -0.115198 0.602900 -0.718700 1 0 1.000000 
0 1.999999 17.654100 -3.511600 0.706908 0.688808 -0.160702 0.577900 -0.718700 1 0 1.000000 
0 1.999999 18.000000 0.000000 0.706916 0.706916 -0.023201 0.577900 -0.750000 1 0 1.000000 
pipe_cap001
0 3.999999 14.782100 -6.122900 0.706899 0.661999 -0.249100 0.602900 -0.687500 1 0 1.000000 
0 1.999999 17.654100 -3.511600 0.706908 0.688808 -0.160702 0.577900 -0.718700 1 0 1.000000 
0 3.999999 15.692600 -3.121400 0.706885 0.697885 -0.115198 0.602900 -0.718700 1 0 1.000000 
pipe_cap001
0 3.999999 14.782100 -6.122900 0.706899 0.661999 -0.249100 0.602900 -0.687500 1 0 1.000000 
0 1.999999 16.629801 -6.888300 0.706912 0.644211 -0.292005 0.577900 -0.687500 1 0 1.000000 
0 1.999999 17.654100 -3.511600 0.706908 0.688808 -0.160702 0.577900 -0.718700 1 0 1.000000 
pipe_cap001
0 4.000000 13.303500 -8.889100 0.706908 0.600707 -0.373404 0.602900 -0.656200 1 0 1.000000 
0 1.999999 16.629801 -6.888300 0.706912 0.644211 -0.292005 0.577900 -0.687500 1 0 1.000000 
0 3.999999 14.782100 -6.122900 0.706899 0.661999 -0.249100 0.602900 -0.687500 1 0 1.000000 
pipe_cap001
0 4.000000 13.303500 -8.889100 0.706908 0.600707 -0.373404 0.602900 -0.656200 1 0 1.000000 
0 1.999999 14.966500 -10.000300 0.706913 0.574911 -0.412008 0.577900 -0.656200 1 0 1.000000 
0 1.999999 16.629801 -6.888300 0.706912 0.644211 -0.292005 0.577900 -0.687500 1 0 1.000000 
pipe_cap001
0 4.000000 11.313700 -11.313700 0.706884 0.516288 -0.483489 0.602900 -0.625000 1 0 1.000000 
0 1.999999 14.966500 -10.000300 0.706913 0.574911 -0.412008 0.577900 -0.656200 1 0 1.000000 
0 4.000000 13.303500 -8.889100 0.706908 0.600707 -0.373404 0.602900 -0.656200 1 0 1.000000 
pipe_cap001
0 4.000000 11.313700 -11.313700 0.706884 0.516288 -0.483489 0.602900 -0.625000 1 0 1.000000 
0 1.999999 12.727900 -12.727900 0.706884 0.483489 -0.516288 0.577900 -0.625000 1 0 1.000000 
0 1.999999 14.966500 -10.000300 0.706913 0.574911 -0.412008 0.577900 -0.656200 1 0 1.000000 
pipe_cap001
0 4.000000 8.889100 -13.303500 0.706913 0.412008 -0.574911 0.602900 -0.593700 1 0 1.000000 
0 1.999999 12.727900 -12.727900 0.706884 0.483489 -0.516288 0.577900 -0.625000 1 0 1.000000 
0 4.000000 11.313700 -11.313700 0.706884 0.516288 -0.483489 0.602900 -0.625000 1 0 1.000000 
pipe_cap001
0 4.000000 8.889100 -13.303500 0.706913 0.412008 -0.574911 0.602900 -0.593700 1 0 1.000000 
0 2.000000 10.000300 -14.966500 0.706909 0.373405 -0.600707 0.577900 -0.593700 1 0 1.000000 
0 1.999999 12.727900 -12.727900 0.706884 0.483489 -0.516288 0.577900 -0.625000 1 0 1.000000 
pipe_cap001
0 4.000000 6.122900 -14.782100 0.706912 0.292005 -0.644211 0.602900 -0.562500 1 0 1.000000 
0 2.000000 10.000300 -14.966500 0.706909 0.373405 -0.600707 0.577900 -0.593700 1 0 1.000000 
0 4.000000 8.889100 -13.303500 0.706913 0.412008 -0.574911 0.602900 -0.593700 1 0 1.000000 
pipe_cap001
0 4.000000 6.122900 -14.782100 0.706912 0.292005 -0.644211 0.602900 -0.562500 1 0 1.000000 
0 2.000000 6.888300 -16.629801 0.706899 0.249100 -0.661999 0.577900 -0.562500 1 0 1.000000 
0 2.000000 10.000300 -14.966500 0.706909 0.373405 -0.600707 0.577900 -0.593700 1 0 1.000000 
pipe_cap001
0 4.000000 3.121400 -15.692600 0.706908 0.160702 -0.688808 0.602900 -0.531200 1 0 1.000000 
0 2.000000 6.888300 -16.629801 0.706899 0.249100 -0.661999 0.577900 -0.562500 1 0 1.000000 
0 4.000000 6.122900 -14.782100 0.706912 0.292005 -0.644211 0.602900 -0.562500 1 0 1.000000 
pipe_cap001
0 4.000000 3.121400 -15.692600 0.706908 0.160702 -0.688808 0.602900 -0.531200 1 0 1.000000 
0 2.000000 3.511600 -17.654100 0.706885 0.115198 -0.697885 0.577900 -0.531200 1 0 1.000000 
0 2.000000 6.888300 -16.629801 0.706899 0.249100 -0.661999 0.577900 -0.562500 1 0 1.000000 
pipe_cap001
0 4.000000 0.000000 -16.000000 0.706916 0.023201 -0.706916 0.602900 -0.500000 1 0 1.000000 
0 2.000000 3.511600 -17.654100 0.706885 0.115198 -0.697885 0.577900 -0.531200 1 0 1.000000 
0 4.000000 3.121400 -15.692600 0.706908 0.160702 -0.688808 0.602900 -0.531200 1 0 1.000000 
pipe_cap001
0 4.000000 0.000000 -16.000000 0.706916 0.023201 -0.706916 0.602900 -0.500000 1 0 1.000000 
0 2.000000 0.000000 -18.000000 0.706916 -0.023201 -0.706916 0.577900 -0.500000 1 0 1.000000 
0 2.000000 3.511600 -17.654100 0.706885 0.115198 -0.697885 0.577900 -0.531200 1 0 1.000000 
pipe_cap001
0 4.000000 -3.121400 -15.692600 0.706885 -0.115197 -0.697885 0.602900 -0.468700 1 0 1.000000 
0 2.000000 0.000000 -18.000000 0.706916 -0.023201 -0.706916 0.577900 -0.500000 1 0 1.000000 
0 4.000000 0.000000 -16.000000 0.706916 0.023201 -0.706916 0.602900 -0.500000 1 0 1.000000 
pipe_cap001
0 4.000000 -3.121400 -15.692600 0.706885 -0.115197 -0.697885 0.602900 -0.468700 1 0 1.000000 
0 2.000000 -3.511600 -17.654100 0.706908 -0.160702 -0.688808 0.577900 -0.468700 1 0 1.000000 
0 2.000000 0.000000 -18.000000 0.706916 -0.023201 -0.706916 0.577900 -0.500000 1 0 1.000000 
pipe_cap001
0 4.000000 -6.122900 -14.782100 0.706899 -0.249100 -0.661999 0.602900 -0.437500 1 0 1.000000 
0 2.000000 -3.511600 -17.654100 0.706908 -0.160702 -0.688808 0.577900 -0.468700 1 0 1.000000 
0 4.000000 -3.121400 -15.692600 0.706885 -0.115197 -0.697885 0.602900 -0.468700 1 0 1.000000 
pipe_cap001
0 4.000000 -6.122900 -14.782100 0.706899 -0.249100 -0.661999 0.602900 -0.437500 1 0 1.000000 
0 2.000000 -6.888300 -16.629801 0.706912 -0.292005 -0.644211 0.577900 -0.437500 1 0 1.000000 
0 2.000000 -3.511600 -17.654100 0.706908 -0.160702 -0.688808 0.577900 -0.468700 1 0 1.000000 
pipe_cap001
0 4.000000 -8.889100 -13.303500 0.706909 -0.373404 -0.600707 0.602900 -0.406200 1 0 1.000000 
0 2.000000 -6.888300 -16.629801 0.706912 -0.292005 -0.644211 0.577900 -0.437500 1 0 1.000000 
0 4.000000 -6.122900 -14.782100 0.706899 -0.249100 -0.661999 0.602900 -0.437500 1 0 1.000000 
pipe_cap001
0 4.000000 -8.889100 -13.303500 0.706909 -0.373404 -0.600707 0.602900 -0.406200 1 0 1.000000 
0 2.000000 -10.000300 -14.966500 0.706914 -0.412008 -0.574911 0.577900 -0.406200 1 0 1.000000 
0 2.000000 -6.888300 -16.629801 0.706912 -0.292005 -0.644211 0.577900 -0.437500 1 0 1.000000 
pipe_cap001
0 4.000000 -11.313700 -11.313700 0.706884 -0.483489 -0.516288 0.602900 -0.375000 1 0 1.000000 
0 2.000000 -10.000300 -14.966500 0.706914 -0.412008 -0.574911 0.577900 -0.406200 1 0 1.000000 
0 4.000000 -8.889100 -13.303500 0.706909 -0.373404 -0.600707 0.602900 -0.406200 1 0 1.000000 
pipe_cap001
0 4.000000 -11.313700 -11.313700 0.706884 -0.483489 -0.516288 0.602900 -0.375000 1 0 1.000000 
0 2.000000 -12.727900 -12.727900 0.706884 -0.516288 -0.483489 0.577900 -0.375000 1 0 1.000000 
0 2.000000 -10.000300 -14.966500 0.706914 -0.412008 -0.574911 0.577900 -0.406200 1 0 1.000000 
pipe_cap001
0 4.000000 -13.303500 -8.889100 0.706914 -0.574911 -0.412008 0.602900 -0.343700 1 0 1.000000 
0 2.000000 -12.727900 -12.727900 0.706884 -0.516288 -0.483489 0.577900 -0.375000 1 0 1.000000 
0 4.000000 -11.313700 -11.313700 0.706884 -0.483489 -0.516288 0.602900 -0.375000 1 0 1.000000 
pipe_cap001
0 4.000000 -13.303500 -8.889100 0.706914 -0.574911 -0.412008 0.602900 -0.343700 1 0 1.000000 
0 2.000001 -14.966500 -10.000300 0.706909 -0.600707 -0.373405 0.577900 -0.343700 1 0 1.000000 
0 2.000000 -12.727900 -12.727900 0.706884 -0.516288 -0.483489 0.577900 -0.375000 1 0 1.000000 
pipe_cap001
0 4.000000 -14.782100 -6.122900 0.706912 -0.644211 -0.292005 0.602900 -0.312500 1 0 1.000000 
0 2.000001 -14.966500 -10.000300 0.706909 -0.600707 -0.373405 0.577900 -0.343700 1 0 1.000000 
0 4.000000 -13.303500 -8.889100 0.706914 -0.574911 -0.412008 0.602900 -0.343700 1 0 1.000000 
pipe_cap001
0 4.000000 -14.782100 -6.122900 0.706912 -0.644211 -0.292005 0.602900 -0.312500 1 0 1.000000 
0 2.000001 -16.629801 -6.888300 0.706899 -0.661999 -0.249100 0.577900 -0.312500 1 0 1.000000 
0 2.000001 -14.966500 -10.000300 0.706909 -0.600707 -0.373405 0.577900 -0.343700 1 0 1.000000 
pipe_cap001
0 4.000000 -15.692600 -3.121400 0.706908 -0.688808 -0.160702 0.602900 -0.281200 1 0 1.000000 
0 2.000001 -16.629801 -6.888300 0.706899 -0.661999 -0.249100 0.577900 -0.312500 1 0 1.000000 
0 4.000000 -14.782100 -6.122900 0.706912 -0.644211 -0.292005 0.602900 -0.312500 1 0 1.000000 
pipe_cap001
0 4.000000 -15.692600 -3.121400 0.706908 -0.688808 -0.160702 0.602900 -0.281200 1 0 1.000000 
0 2.000001 -17.654100 -3.511600 0.706885 -0.697885 -0.115198 0.577900 -0.281200 1 0 1.000000 
0 2.000001 -16.629801 -6.888300 0.706899 -0.661999 -0.249100 0.577900 -0.312500 1 0 1.000000 
pipe_cap001
0 4.000000 -16.000000 0.000000 0.706916 -0.706916 -0.023201 0.602900 -0.250000 1 0 1.000000 
0 2.000001 -17.654100 -3.511600 0.706885 -0.697885 -0.115198 0.577900 -0.281200 1 0 1.000000 
0 4.000000 -15.692600 -3.121400 0.706908 -0.688808 -0.160702 0.602900 -0.281200 1 0 1.000000 
pipe_cap001
0 4.000000 -16.000000 0.000000 0.706916 -0.706916 -0.023201 0.602900 -0.250000 1 0 1.000000 
0 2.000001 -18.000000 0.000000 0.706916 -0.706916 0.023201 0.577900 -0.250000 1 0 1.000000 
0 2.000001 -17.654100 -3.511600 0.706885 -0.697885 -0.115198 0.577900 -0.281200 1 0 1.000000 
pipe_cap001
0 4.000000 -15.692600 3.121400 0.706885 -0.697885 0.115198 0.602900 -0.218700 1 0 1.000000 
0 2.000001 -18.000000 0.000000 0.706916 -0.706916 0.023201 0.577900 -0.250000 1 0 1.000000 
0 4.000000 -16.000000 0.000000 0.706916 -0.706916 -0.023201 0.602900 -0.250000 1 0 1.000000 
pipe_cap001
0 4.000000 -15.692600 3.121400 0.706885 -0.697885 0.115198 0.602900 -0.218700 1 0 1.000000 
0 2.000001 -17.654100 3.511600 0.706908 -0.688808 0.160702 0.577900 -0.218700 1 0 1.000000 
0 2.000001 -18.000000 0.000000 0.706916 -0.706916 0.023201 0.577900 -0.250000 1 0 1.000000 
pipe_cap001
0 4.000000 -14.782100 6.122900 0.706899 -0.661999 0.249100 0.602900 -0.187500 1 0 1.000000 
0 2.000001 -17.654100 3.511600 0.706908 -0.688808 0.160702 0.577900 -0.218700 1 0 1.000000 
0 4.000000 -15.692600 3.121400 0.706885 -0.697885 0.115198 0.602900 -0.218700 1 0 1.000000 
pipe_cap001
0 4.000000 -14.782100 6.122900 0.706899 -0.661999 0.249100 0.602900 -0.187500 1 0 1.000000 
0 2.000001 -16.629801 6.888300 0.706912 -0.644211 0.292005 0.577900 -0.187500 1 0 1.000000 
0 2.000001 -17.654100 3.511600 0.706908 -0.688808 0.160702 0.577900 -0.218700 1 0 1.000000 
pipe_cap001
0 4.000000 -13.303500 8.889100 0.706909 -0.600707 0.373405 0.602900 -0.156200 1 0 1.000000 
0 2.000001 -16.629801 6.888300 0.706912 -0.644211 0.292005 0.577900 -0.187500 1 0 1.000000 
0 4.000000 -14.782100 6.122900 0.706899 -0.661999 0.249100 0.602900 -0.187500 1 0 1.000000 
pipe_cap001
0 4.000000 -13.303500 8.889100 0.706909 -0.600707 0.373405 0.602900 -0.156200 1 0 1.000000 
0 2.000001 -14.966500 10.000300 0.706914 -0.574911 0.412008 0.577900 -0.156200 1 0 1.000000 
0 2.000001 -16.629801 6.888300 0.706912 -0.644211 0.292005 0.577900 -0.187500 1 0 1.000000 
pipe_cap001
0 4.000000 -11.313700 11.313700 0.706884 -0.516288 0.483489 0.602900 -0.125000 1 0 1.000000 
0 2.000001 -14.966500 10.000300 0.706914 -0.574911 0.412008 0.577900 -0.156200 1 0 1.000000 
0 4.000000 -13.303500 8.889100 0.706909 -0.600707 0.373405 0.602900 -0.156200 1 0 1.000000 
pipe_cap001
0 4.000000 -11.313700 11.313700 0.706884 -0.516288 0.483489 0.602900 -0.125000 1 0 1.000000 
0 2.000000 -12.727900 12.727900 0.706884 -0.483489 0.516288 0.577900 -0.125000 1 0 1.000000 
0 2.000001 -14.966500 10.000300 0.706914 -0.574911 0.412008 0.577900 -0.156200 1 0 1.000000 
pipe_cap001
0 4.000000 -8.889100 13.303500 0.706914 -0.412008 0.574911 0.602900 -0.093700 1 0 1.000000 
0 2.000000 -12.727900 12.727900 0.706884 -0.483489 0.516288 0.577900 -0.125000 1 0 1.000000 
0 4.000000 -11.313700 11.313700 0.706884 -0.516288 0.483489 0.602900 -0.125000 1 0 1.000000 
pipe_cap001
0 4.000000 -8.889100 13.303500 0.706914 -0.412008 0.574911 0.602900 -0.093700 1 0 1.000000 
0 2.000000 -10.000300 14.966500 0.706909 -0.373404 0.600707 0.577900 -0.093700 1 0 1.000000 
0 2.000000 -12.727900 12.727900 0.706884 -0.483489 0.516288 0.577900 -0.125000 1 0 1.000000 
pipe_cap001
0 4.000000 -6.122900 14.782100 0.706912 -0.292005 0.644211 0.602900 -0.062500 1 0 1.000000 
0 2.000000 -10.000300 14.966500 0.706909 -0.373404 0.600707 0.577900 -0.093700 1 0 1.000000 
0 4.000000 -8.889100 13.303500 0.706914 -0.412008 0.574911 0.602900 -0.093700 1 0 1.000000 
pipe_cap001
0 4.000000 -6.122900 14.782100 0.706912 -0.292005 0.644211 0.602900 -0.062500 1 0 1.000000 
0 2.000000 -6.888300 16.629801 0.706899 -0.249100 0.661999 0.577900 -0.062500 1 0 1.000000 
0 2.000000 -10.000300 14.966500 0.706909 -0.373404 0.600707 0.577900 -0.093700 1 0 1.000000 
pipe_cap001
0 4.000000 -3.121400 15.692600 0.706908 -0.160702 0.688808 0.602900 -0.031200 1 0 1.000000 
0 2.000000 -6.888300 16.629801 0.706899 -0.249100 0.661999 0.577900 -0.062500 1 0 1.000000 
0 4.000000 -6.122900 14.782100 0.706912 -0.292005 0.644211 0.602900 -0.062500 1 0 1.000000 
pipe_cap001
0 4.000000 -3.121400 15.692600 0.706908 -0.160702 0.688808 0.602900 -0.031200 1 0 1.000000 
0 2.000000 -3.511600 17.654100 0.706885 -0.115197 0.697885 0.577900 -0.031200 1 0 1.000000 
0 2.000000 -6.888300 16.629801 0.706899 -0.249100 0.661999 0.577900 -0.062500 1 0 1.000000 
pipe_cap001
0 4.000000 0.000000 16.000000 0.706916 -0.023201 0.706916 0.602900 -0.000000 1 0 1.000000 
0 2.000000 -3.511600 17.654100 0.706885 -0.115197 0.697885 0.577900 -0.031200 1 0 1.000000 
0 4.000000 -3.121400 15.692600 0.706908 -0.160702 0.688808 0.602900 -0.031200 1 0 1.000000 
pipe_cap001
0 4.000000 0.000000 16.000000 0.706916 -0.023201 0.706916 0.602900 -0.000000 1 0 1.000000 
0 2.000000 0.000000 18.000000 0.706916 0.023201 0.706916 0.577900 -0.000000 1 0 1.000000 
0 2.000000 -3.511600 17.654100 0.706885 -0.115197 0.697885 0.577900 -0.031200 1 0 1.000000 
pipe_cap001
0 4.000000 -2.926400 14.711800 -0.000000 0.162793 -0.986660 0.456700 -0.031200 1 0 1.000000 
0 0.000000 0.000000 15.000000 -0.000000 0.032799 -0.999462 0.396600 -0.000000 1 0 1.000000 
0 4.000000 0.000000 15.000000 0.000000 -0.032799 -0.999462 0.456700 -0.000000 1 0 1.000000 
pipe_cap001
0 4.000000 -2.926400 14.711800 -0.000000 0.162793 -0.986660 0.456700 -0.031200 1 0 1.000000 
0 0.000000 -2.926400 14.711800 -0.000000 0.227188 -0.973851 0.396600 -0.031200 1 0 1.000000 
0 0.000000 0.000000 15.000000 -0.000000 0.032799 -0.999462 0.396600 -0.000000 1 0 1.000000 
pipe_cap001
0 4.000000 -5.740300 13.858200 -0.000000 0.352208 -0.935922 0.456700 -0.062500 1 0 1.000000 
0 0.000000 -2.926400 14.711800 -0.000000 0.227188 -0.973851 0.396600 -0.031200 1 0 1.000000 
0 4.000000 -2.926400 14.711800 -0.000000 0.162793 -0.986660 0.456700 -0.031200 1 0 1.000000 
pipe_cap001
0 4.000000 -5.740300 13.858200 -0.000000 0.352208 -0.935922 0.456700 -0.062500 1 0 1.000000 
0 0.000000 -5.740300 13.858200 -0.000000 0.412808 -0.910818 0.396600 -0.062500 1 0 1.000000 
0 0.000000 -2.926400 14.711800 -0.000000 0.227188 -0.973851 0.396600 -0.031200 1 0 1.000000 
pipe_cap001
0 4.000000 -8.333600 12.472000 -0.000000 0.527975 -0.849260 0.456700 -0.093700 1 0 1.000000 
0 0.000000 -5.740300 13.858200 -0.000000 0.412808 -0.910818 0.396600 -0.062500 1 0 1.000000 
0 4.000000 -5.740300 13.858200 -0.000000 0.352208 -0.935922 0.456700 -0.062500 1 0 1.000000 
pipe_cap001
0 4.000000 -8.333600 12.472000 -0.000000 0.527975 -0.849260 0.456700 -0.093700 1 0 1.000000 
0 0.000000 -8.333600 12.472000 -0.000000 0.582581 -0.812773 0.396600 -0.093700 1 0 1.000000 
0 0.000000 -5.740300 13.858200 -0.000000 0.412808 -0.910818 0.396600 -0.062500 1 0 1.000000 
pipe_cap001
0 4.000000 -10.606600 10.606600 -0.000000 0.683525 -0.729927 0.456700 -0.125000 1 0 1.000000 
0 0.000000 -8.333600 12.472000 -0.000000 0.582581 -0.812773 0.396600 -0.093700 1 0 1.000000 
0 4.000000 -8.333600 12.472000 -0.000000 0.527975 -0.849260 0.456700 -0.093700 1 0 1.000000 
pipe_cap001
0 4.000000 -10.606600 10.606600 -0.000000 0.683525 -0.729927 0.456700 -0.125000 1 0 1.000000 
0 0.000000 -10.606600 10.606600 -0.000000 0.729927 -0.683525 0.396600 -0.125000 1 0 1.000000 
0 0.000000 -8.333600 12.472000 -0.000000 0.582581 -0.812773 0.396600 -0.093700 1 0 1.000000 
pipe_cap001
0 4.000000 -12.472000 8.333600 -0.000000 0.812773 -0.582581 0.456700 -0.156200 1 0 1.000000 
0 0.000000 -10.606600 10.606600 -0.000000 0.729927 -0.683525 0.396600 -0.125000 1 0 1.000000 
0 4.000000 -10.606600 10.606600 -0.000000 0.683525 -0.729927 0.456700 -0.125000 1 0 1.000000 
pipe_cap001
0 4.000000 -12.472000 8.333600 -0.000000 0.812773 -0.582581 0.456700 -0.156200 1 0 1.000000 
0 0.000001 -12.472000 8.333600 -0.000000 0.849260 -0.527975 0.396600 -0.156200 1 0 1.000000 
0 0.000000 -10.606600 10.606600 -0.000000 0.729927 -0.683525 0.396600 -0.125000 1 0 1.000000 
pipe_cap001
0 4.000000 -13.858200 5.740300 -0.000000 0.910818 -0.412808 0.456700 -0.187500 1 0 1.000000 
0 0.000001 -12.472000 8.333600 -0.000000 0.849260 -0.527975 0.396600 -0.156200 1 0 1.000000 
0 4.000000 -12.472000 8.333600 -0.000000 0.812773 -0.582581 0.456700 -0.156200 1 0 1.000000 
pipe_cap001
0 4.000000 -13.858200 5.740300 -0.000000 0.910818 -0.412808 0.456700 -0.187500 1 0 1.000000 
0 0.000001 -13.858200 5.740300 -0.000000 0.935922 -0.352208 0.396600 -0.187500 1 0 1.000000 
0 0.000001 -12.472000 8.333600 -0.000000 0.849260 -0.527975 0.396600 -0.156200 1 0 1.000000 
pipe_cap001
0 4.000000 -14.711800 2.926400 -0.000000 0.973851 -0.227188 0.456700 -0.218700 1 0 1.000000 
0 0.000001 -13.858200 5.740300 -0.000000 0.935922 -0.352208 0.396600 -0.187500 1 0 1.000000 
0 4.000000 -13.858200 5.740300 -0.000000 0.910818 -0.412808 0.456700 -0.187500 1 0 1.000000 
pipe_cap001
0 4.000000 -14.711800 2.926400 -0.000000 0.973851 -0.227188 0.456700 -0.218700 1 0 1.000000 
0 0.000001 -14.711800 2.926400 -0.000000 0.986660 -0.162793 0.396600 -0.218700 1 0 1.000000 
0 0.000001 -13.858200 5.740300 -0.000000 0.935922 -0.352208 0.396600 -0.187500 1 0 1.000000 
pipe_cap001
0 4.000000 -15.000000 0.000000 -0.000000 0.999462 -0.032799 0.456700 -0.250000 1 0 1.000000 
0 0.000001 -14.711800 2.926400 -0.000000 0.986660 -0.162793 0.396600 -0.218700 1 0 1.000000 
0 4.000000 -14.711800 2.926400 -0.000000 0.973851 -0.227188 0.456700 -0.218700 1 0 1.000000 
pipe_cap001
0 4.000000 -15.000000 0.000000 -0.000000 0.999462 -0.032799 0.456700 -0.250000 1 0 1.000000 
0 0.000001 -15.000000 0.000000 -0.000000 0.999462 0.032799 0.396600 -0.250000 1 0 1.000000 
0 0.000001 -14.711800 2.926400 -0.000000 0.986660 -0.162793 0.396600 -0.218700 1 0 1.000000 
pipe_cap001
0 4.000000 -14.711800 -2.926400 -0.000000 0.986660 0.162793 0.456700 -0.281200 1 0 1.000000 
0 0.000001 -15.000000 0.000000 -0.000000 0.999462 0.032799 0.396600 -0.250000 1 0 1.000000 
0 4.000000 -15.000000 0.000000 -0.000000 0.999462 -0.032799 0.456700 -0.250000 1 0 1.000000 
pipe_cap001
0 4.000000 -14.711800 -2.926400 -0.000000 0.986660 0.162793 0.456700 -0.281200 1 0 1.000000 
0 0.000001 -14.711800 -2.926400 -0.000000 0.973851 0.227188 0.396600 -0.281200 1 0 1.000000 
0 0.000001 -15.000000 0.000000 -0.000000 0.999462 0.032799 0.396600 -0.250000 1 0 1.000000 
pipe_cap001
0 4.000000 -13.858200 -5.740300 -0.000000 0.935922 0.352208 0.456700 -0.312500 1 0 1.000000 
0 0.000001 -14.711800 -2.926400 -0.000000 0.973851 0.227188 0.396600 -0.281200 1 0 1.000000 
0 4.000000 -14.711800 -2.926400 -0.000000 0.986660 0.162793 0.456700 -0.281200 1 0 1.000000 
pipe_cap001
0 4.000000 -13.858200 -5.740300 -0.000000 0.935922 0.352208 0.456700 -0.312500 1 0 1.000000 
0 0.000001 -13.858200 -5.740300 -0.000000 0.910818 0.412808 0.396600 -0.312500 1 0 1.000000 
0 0.000001 -14.711800 -2.926400 -0.000000 0.973851 0.227188 0.396600 -0.281200 1 0 1.000000 
pipe_cap001
0 4.000000 -12.472000 -8.333600 -0.000000 0.849260 0.527975 0.456700 -0.343700 1 0 1.000000 
0 0.000001 -13.858200 -5.740300 -0.000000 0.910818 0.412808 0.396600 -0.312500 1 0 1.000000 
0 4.000000 -13.858200 -5.740300 -0.000000 0.935922 0.352208 0.456700 -0.312500 1 0 1.000000 
pipe_cap001
0 4.000000 -12.472000 -8.333600 -0.000000 0.849260 0.527975 0.456700 -0.343700 1 0 1.000000 
0 0.000001 -12.472000 -8.333600 -0.000000 0.812773 0.582581 0.396600 -0.343700 1 0 1.000000 
0 0.000001 -13.858200 -5.740300 -0.000000 0.910818 0.412808 0.396600 -0.312500 1 0 1.000000 
pipe_cap001
0 4.000000 -10.606600 -10.606600 -0.000000 0.729927 0.683525 0.456700 -0.375000 1 0 1.000000 
0 0.000001 -12.472000 -8.333600 -0.000000 0.812773 0.582581 0.396600 -0.343700 1 0 1.000000 
0 4.000000 -12.472000 -8.333600 -0.000000 0.849260 0.527975 0.456700 -0.343700 1 0 1.000000 
pipe_cap001
0 4.000000 -10.606600 -10.606600 -0.000000 0.729927 0.683525 0.456700 -0.375000 1 0 1.000000 
0 0.000000 -10.606600 -10.606600 -0.000000 0.683525 0.729927 0.396600 -0.375000 1 0 1.000000 
0 0.000001 -12.472000 -8.333600 -0.000000 0.812773 0.582581 0.396600 -0.343700 1 0 1.000000 
pipe_cap001
0 4.000000 -8.333600 -12.472000 -0.000000 0.582581 0.812773 0.456700 -0.406200 1 0 1.000000 
0 0.000000 -10.606600 -10.606600 -0.000000 0.683525 0.729927 0.396600 -0.375000 1 0 1.000000 
0 4.000000 -10.606600 -10.606600 -0.000000 0.729927 0.683525 0.456700 -0.375000 1 0 1.000000 
pipe_cap001
0 4.000000 -8.333600 -12.472000 -0.000000 0.582581 0.812773 0.456700 -0.406200 1 0 1.000000 
0 0.000000 -8.333600 -12.472000 -0.000000 0.527975 0.849260 0.396600 -0.406200 1 0 1.000000 
0 0.000000 -10.606600 -10.606600 -0.000000 0.683525 0.729927 0.396600 -0.375000 1 0 1.000000 
pipe_cap001
0 4.000000 -5.740300 -13.858200 -0.000000 0.412808 0.910818 0.456700 -0.437500 1 0 1.000000 
0 0.000000 -8.333600 -12.472000 -0.000000 0.527975 0.849260 0.396600 -0.406200 1 0 1.000000 
0 4.000000 -8.333600 -12.472000 -0.000000 0.582581 0.812773 0.456700 -0.406200 1 0 1.000000 
pipe_cap001
0 4.000000 -5.740300 -13.858200 -0.000000 0.412808 0.910818 0.456700 -0.437500 1 0 1.000000 
0 0.000000 -5.740300 -13.858200 -0.000000 0.352208 0.935922 0.396600 -0.437500 1 0 1.000000 
0 0.000000 -8.333600 -12.472000 -0.000000 0.527975 0.849260 0.396600 -0.406200 1 0 1.000000 
pipe_cap001
0 4.000000 -2.926400 -14.711800 -0.000000 0.227188 0.973851 0.456700 -0.468700 1 0 1.000000 
0 0.000000 -5.740300 -13.858200 -0.000000 0.352208 0.935922 0.396600 -0.437500 1 0 1.000000 
0 4.000000 -5.740300 -13.858200 -0.000000 0.412808 0.910818 0.456700 -0.437500 1 0 1.000000 
pipe_cap001
0 4.000000 -2.926400 -14.711800 -0.000000 0.227188 0.973851 0.456700 -0.468700 1 0 1.000000 
0 0.000000 -2.926400 -14.711800 -0.000000 0.162793 0.986660 0.396600 -0.468700 1 0 1.000000 
0 0.000000 -5.740300 -13.858200 -0.000000 0.352208 0.935922 0.396600 -0.437500 1 0 1.000000 
pipe_cap001
0 4.000000 0.000000 -15.000000 -0.000000 0.032799 0.999462 0.456700 -0.500000 1 0 1.000000 
0 0.000000 -2.926400 -14.711800 -0.000000 0.162793 0.986660 0.396600 -0.468700 1 0 1.000000 
0 4.000000 -2.926400 -14.711800 -0.000000 0.227188 0.973851 0.456700 -0.468700 1 0 1.000000 
pipe_cap001
0 4.000000 0.000000 -15.000000 -0.000000 0.032799 0.999462 0.456700 -0.500000 1 0 1.000000 
0 0.000000 0.000000 -15.000000 0.000000 -0.032799 0.999462 0.396600 -0.500000 1 0 1.000000 
0 0.000000 -2.926400 -14.711800 -0.000000 0.162793 0.986660 0.396600 -0.468700 1 0 1.000000 
pipe_cap001
0 4.000000 2.926400 -14.711800 0.000000 -0.162793 0.986660 0.456700 -0.531200 1 0 1.000000 
0 0.000000 0.000000 -15.000000 0.000000 -0.032799 0.999462 0.396600 -0.500000 1 0 1.000000 
0 4.000000 0.000000 -15.000000 -0.000000 0.032799 0.999462 0.456700 -0.500000 1 0 1.000000 
pipe_cap001
0 4.000000 2.926400 -14.711800 0.000000 -0.162793 0.986660 0.456700 -0.531200 1 0 1.000000 
0 -0.000000 2.926400 -14.711800 0.000000 -0.227188 0.973851 0.396600 -0.531200 1 0 1.000000 
0 0.000000 0.000000 -15.000000 0.000000 -0.032799 0.999462 0.396600 -0.500000 1 0 1.000000 
pipe_cap001
0 4.000000 5.740300 -13.858200 0.000000 -0.352208 0.935922 0.456700 -0.562500 1 0 1.000000 
0 -0.000000 2.926400 -14.711800 0.000000 -0.227188 0.973851 0.396600 -0.531200 1 0 1.000000 
0 4.000000 2.926400 -14.711800 0.000000 -0.162793 0.986660 0.456700 -0.531200 1 0 1.000000 
pipe_cap001
0 4.000000 5.740300 -13.858200 0.000000 -0.352208 0.935922 0.456700 -0.562500 1 0 1.000000 
0 -0.000000 5.740300 -13.858200 0.000000 -0.412808 0.910818 0.396600 -0.562500 1 0 1.000000 
0 -0.000000 2.926400 -14.711800 0.000000 -0.227188 0.973851 0.396600 -0.531200 1 0 1.000000 
pipe_cap001
0 4.000000 8.333600 -12.472000 0.000000 -0.527975 0.849260 0.456700 -0.593700 1 0 1.000000 
0 -0.000000 5.740300 -13.858200 0.000000 -0.412808 0.910818 0.396600 -0.562500 1 0 1.000000 
0 4.000000 5.740300 -13.858200 0.000000 -0.352208 0.935922 0.456700 -0.562500 1 0 1.000000 
pipe_cap001
0 4.000000 8.333600 -12.472000 0.000000 -0.527975 0.849260 0.456700 -0.593700 1 0 1.000000 
0 -0.000000 8.333600 -12.472000 0.000000 -0.582581 0.812773 0.396600 -0.593700 1 0 1.000000 
0 -0.000000 5.740300 -13.858200 0.000000 -0.412808 0.910818 0.396600 -0.562500 1 0 1.000000 
pipe_cap001
0 4.000000 10.606600 -10.606600 0.000000 -0.683525 0.729927 0.456700 -0.625000 1 0 1.000000 
0 -0.000000 8.333600 -12.472000 0.000000 -0.582581 0.812773 0.396600 -0.593700 1 0 1.000000 
0 4.000000 8.333600 -12.472000 0.000000 -0.527975 0.849260 0.456700 -0.593700 1 0 1.000000 
pipe_cap001
0 4.000000 10.606600 -10.606600 0.000000 -0.683525 0.729927 0.456700 -0.625000 1 0 1.000000 
0 -0.000000 10.606600 -10.606600 0.000000 -0.729927 0.683525 0.396600 -0.625000 1 0 1.000000 
0 -0.000000 8.333600 -12.472000 0.000000 -0.582581 0.812773 0.396600 -0.593700 1 0 1.000000 
pipe_cap001
0 4.000000 12.472000 -8.333600 0.000000 -0.812773 0.582581 0.456700 -0.656200 1 0 1.000000 
0 -0.000000 10.606600 -10.606600 0.000000 -0.729927 0.683525 0.396600 -0.625000 1 0 1.000000 
0 4.000000 10.606600 -10.606600 0.000000 -0.683525 0.729927 0.456700 -0.625000 1 0 1.000000 
pipe_cap001
0 4.000000 12.472000 -8.333600 0.000000 -0.812773 0.582581 0.456700 -0.656200 1 0 1.000000 
0 -0.000001 12.472000 -8.333600 0.000000 -0.849260 0.527975 0.396600 -0.656200 1 0 1.000000 
0 -0.000000 10.606600 -10.606600 0.000000 -0.729927 0.683525 0.396600 -0.625000 1 0 1.000000 
pipe_cap001
0 3.999999 13.858200 -5.740300 0.000000 -0.910818 0.412808 0.456700 -0.687500 1 0 1.000000 
0 -0.000001 12.472000 -8.333600 0.000000 -0.849260 0.527975 0.396600 -0.656200 1 0 1.000000 
0 4.000000 12.472000 -8.333600 0.000000 -0.812773 0.582581 0.456700 -0.656200 1 0 1.000000 
pipe_cap001
0 3.999999 13.858200 -5.740300 0.000000 -0.910818 0.412808 0.456700 -0.687500 1 0 1.000000 
0 -0.000001 13.858200 -5.740300 0.000000 -0.935922 0.352208 0.396600 -0.687500 1 0 1.000000 
0 -0.000001 12.472000 -8.333600 0.000000 -0.849260 0.527975 0.396600 -0.656200 1 0 1.000000 
pipe_cap001
0 3.999999 14.711800 -2.926400 0.000000 -0.973851 0.227188 0.456700 -0.718700 1 0 1.000000 
0 -0.000001 13.858200 -5.740300 0.000000 -0.935922 0.352208 0.396600 -0.687500 1 0 1.000000 
0 3.999999 13.858200 -5.740300 0.000000 -0.910818 0.412808 0.456700 -0.687500 1 0 1.000000 
pipe_cap001
0 3.999999 14.711800 -2.926400 0.000000 -0.973851 0.227188 0.456700 -0.718700 1 0 1.000000 
0 -0.000001 14.711800 -2.926400 0.000000 -0.986660 0.162793 0.396600 -0.718700 1 0 1.000000 
0 -0.000001 13.858200 -5.740300 0.000000 -0.935922 0.352208 0.396600 -0.687500 1 0 1.000000 
pipe_cap001
0 3.999999 15.000000 0.000000 0.000000 -0.999462 0.032799 0.456700 -0.750000 1 0 1.000000 
0 -0.000001 14.711800 -2.926400 0.000000 -0.986660 0.162793 0.396600 -0.718700 1 0 1.000000 
0 3.999999 14.711800 -2.926400 0.000000 -0.973851 0.227188 0.456700 -0.718700 1 0 1.000000 
pipe_cap001
0 3.999999 15.000000 0.000000 0.000000 -0.999462 0.032799 0.456700 -0.750000 1 0 1.000000 
0 -0.000001 15.000000 0.000000 0.000000 -0.999462 -0.032799 0.396600 -0.750000 1 0 1.000000 
0 -0.000001 14.711800 -2.926400 0.000000 -0.986660 0.162793 0.396600 -0.718700 1 0 1.000000 
pipe_cap001
0 3.999999 14.711800 2.926400 0.000000 -0.986660 -0.162793 0.456700 -0.781200 1 0 1.000000 
0 -0.000001 15.000000 0.000000 0.000000 -0.999462 -0.032799 0.396600 -0.750000 1 0 1.000000 
0 3.999999 15.000000 0.000000 0.000000 -0.999462 0.032799 0.456700 -0.750000 1 0 1.000000 
pipe_cap001
0 3.999999 14.711800 2.926400 0.000000 -0.986660 -0.162793 0.456700 -0.781200 1 0 1.000000 
0 -0.000001 14.711800 2.926400 0.000000 -0.973851 -0.227188 0.396600 -0.781200 1 0 1.000000 
0 -0.000001 15.000000 0.000000 0.000000 -0.999462 -0.032799 0.396600 -0.750000 1 0 1.000000 
pipe_cap001
0 3.999999 13.858200 5.740300 0.000000 -0.935922 -0.352208 0.456700 -0.812500 1 0 1.000000 
0 -0.000001 14.711800 2.926400 0.000000 -0.973851 -0.227188 0.396600 -0.781200 1 0 1.000000 
0 3.999999 14.711800 2.926400 0.000000 -0.986660 -0.162793 0.456700 -0.781200 1 0 1.000000 
pipe_cap001
0 3.999999 13.858200 5.740300 0.000000 -0.935922 -0.352208 0.456700 -0.812500 1 0 1.000000 
0 -0.000001 13.858200 5.740300 0.000000 -0.910818 -0.412808 0.396600 -0.812500 1 0 1.000000 
0 -0.000001 14.711800 2.926400 0.000000 -0.973851 -0.227188 0.396600 -0.781200 1 0 1.000000 
pipe_cap001
0 4.000000 12.472000 8.333600 0.000000 -0.849260 -0.527975 0.456700 -0.843700 1 0 1.000000 
0 -0.000001 13.858200 5.740300 0.000000 -0.910818 -0.412808 0.396600 -0.812500 1 0 1.000000 
0 3.999999 13.858200 5.740300 0.000000 -0.935922 -0.352208 0.456700 -0.812500 1 0 1.000000 
pipe_cap001
0 4.000000 12.472000 8.333600 0.000000 -0.849260 -0.527975 0.456700 -0.843700 1 0 1.000000 
0 -0.000001 12.472000 8.333600 0.000000 -0.812773 -0.582581 0.396600 -0.843700 1 0 1.000000 
0 -0.000001 13.858200 5.740300 0.000000 -0.910818 -0.412808 0.396600 -0.812500 1 0 1.000000 
pipe_cap001
0 4.000000 10.606600 10.606600 0.000000 -0.729927 -0.683525 0.456700 -0.875000 1 0 1.000000 
0 -0.000001 12.472000 8.333600 0.000000 -0.812773 -0.582581 0.396600 -0.843700 1 0 1.000000 
0 4.000000 12.472000 8.333600 0.000000 -0.849260 -0.527975 0.456700 -0.843700 1 0 1.000000 
pipe_cap001
0 4.000000 10.606600 10.606600 0.000000 -0.729927 -0.683525 0.456700 -0.875000 1 0 1.000000 
0 -0.000000 10.606600 10.606600 0.000000 -0.683525 -0.729927 0.396600 -0.875000 1 0 1.000000 
0 -0.000001 12.472000 8.333600 0.000000 -0.812773 -0.582581 0.396600 -0.843700 1 0 1.000000 
pipe_cap001
0 4.000000 8.333600 12.472000 0.000000 -0.582581 -0.812773 0.456700 -0.906200 1 0 1.000000 
0 -0.000000 10.606600 10.606600 0.000000 -0.683525 -0.729927 0.396600 -0.875000 1 0 1.000000 
0 4.000000 10.606600 10.606600 0.000000 -0.729927 -0.683525 0.456700 -0.875000 1 0 1.000000 
pipe_cap001
0 4.000000 8.333600 12.472000 0.000000 -0.582581 -0.812773 0.456700 -0.906200 1 0 1.000000 
0 -0.000000 8.333600 12.472000 0.000000 -0.527975 -0.849260 0.396600 -0.906200 1 0 1.000000 
0 -0.000000 10.606600 10.606600 0.000000 -0.683525 -0.729927 0.396600 -0.875000 1 0 1.000000 
pipe_cap001
0 4.000000 5.740300 13.858200 0.000000 -0.412808 -0.910818 0.456700 -0.937500 1 0 1.000000 
0 -0.000000 8.333600 12.472000 0.000000 -0.527975 -0.849260 0.396600 -0.906200 1 0 1.000000 
0 4.000000 8.333600 12.472000 0.000000 -0.582581 -0.812773 0.456700 -0.906200 1 0 1.000000 
pipe_cap001
0 4.000000 5.740300 13.858200 0.000000 -0.412808 -0.910818 0.456700 -0.937500 1 0 1.000000 
0 -0.000000 5.740300 13.858200 0.000000 -0.352208 -0.935922 0.396600 -0.937500 1 0 1.000000 
0 -0.000000 8.333600 12.472000 0.000000 -0.527975 -0.849260 0.396600 -0.906200 1 0 1.000000 
pipe_cap001
0 4.000000 2.926400 14.711800 0.000000 -0.227188 -0.973851 0.456700 -0.968700 1 0 1.000000 
0 -0.000000 5.740300 13.858200 0.000000 -0.352208 -0.935922 0.396600 -0.937500 1 0 1.000000 
0 4.000000 5.740300 13.858200 0.000000 -0.412808 -0.910818 0.456700 -0.937500 1 0 1.000000 
pipe_cap001
0 4.000000 2.926400 14.711800 0.000000 -0.227188 -0.973851 0.456700 -0.968700 1 0 1.000000 
0 -0.000000 2.926400 14.711800 0.000000 -0.162793 -0.986660 0.396600 -0.968700 1 0 1.000000 
0 -0.000000 5.740300 13.858200 0.000000 -0.352208 -0.935922 0.396600 -0.937500 1 0 1.000000 
pipe_cap001
0 4.000000 0.000000 15.000000 0.000000 -0.032799 -0.999462 0.456700 -1.000000 1 0 1.000000 
0 -0.000000 2.926400 14.711800 0.000000 -0.162793 -0.986660 0.396600 -0.968700 1 0 1.000000 
0 4.000000 2.926400 14.711800 0.000000 -0.227188 -0.973851 0.456700 -0.968700 1 0 1.000000 
pipe_cap001
0 4.000000 0.000000 15.000000 0.000000 -0.032799 -0.999462 0.456700 -1.000000 1 0 1.000000 
0 0.000000 0.000000 15.000000 -0.000000 0.032799 -0.999462 0.396600 -1.000000 1 0 1.000000 
0 -0.000000 2.926400 14.711800 0.000000 -0.162793 -0.986660 0.396600 -0.968700 1 0 1.000000 
pipe_cap001
0 1.500000 4.000000 14.386100 0.999997 0.001300 0.002100 0.347400 -0.040700 1 0 1.000000 
0 1.353600 4.353600 -14.278800 0.923877 0.382690 0.000000 0.358200 -0.827700 1 0 1.000000 
0 1.000000 4.500000 14.234400 -0.000600 0.999993 0.003600 0.365900 -0.044800 1 0 1.000000 
pipe_cap001
0 1.500000 4.000000 14.386100 0.999997 0.001300 0.002100 0.347400 -0.040700 1 0 1.000000 
0 1.353600 3.646400 -14.493300 0.788862 -0.614570 0.000000 0.341200 -0.833600 1 0 1.000000 
0 1.353600 4.353600 -14.278800 0.923877 0.382690 0.000000 0.358200 -0.827700 1 0 1.000000 
pipe_cap001
0 1.000000 3.500000 14.537800 0.161901 -0.986805 0.002100 0.331600 -0.036600 1 0 1.000000 
0 1.353600 3.646400 -14.493300 0.788862 -0.614570 0.000000 0.341200 -0.833600 1 0 1.000000 
0 1.500000 4.000000 14.386100 0.999997 0.001300 0.002100 0.347400 -0.040700 1 0 1.000000 
pipe_cap001
0 1.000000 3.500000 14.537800 0.161901 -0.986805 0.002100 0.331600 -0.036600 1 0 1.000000 
0 1.000000 3.500000 -14.537800 0.382690 -0.923877 0.000000 0.331600 -0.834900 1 0 1.000000 
0 1.353600 3.646400 -14.493300 0.788862 -0.614570 0.000000 0.341200 -0.833600 1 0 1.000000 
pipe_cap001
0 0.500000 4.000000 14.386100 -1.000000 -0.000000 0.000000 0.315700 -0.040700 1 0 1.000000 
0 0.500000 4.000000 -14.386100 -0.707107 -0.707107 0.000000 0.313000 -0.830600 1 0 1.000000 
0 1.000000 3.500000 14.537800 0.161901 -0.986805 0.002100 0.331600 -0.036600 1 0 1.000000 
pipe_cap001
0 1.000000 4.500000 14.234400 -0.000600 0.999993 0.003600 0.365900 -0.044800 1 0 1.000000 
0 1.000000 4.500000 -14.234400 -0.707107 0.707107 0.000000 0.365900 -0.826400 1 0 1.000000 
0 0.500000 4.000000 14.386100 -1.000000 -0.000000 0.000000 0.384400 -0.040700 1 0 1.000000 
pipe_cap001
0 1.000000 3.500000 14.537800 -0.707107 -0.707107 0.000000 0.331600 -0.036600 1 0 1.000000 
0 0.500000 4.000000 -14.386100 -1.000000 -0.000000 0.000000 0.313000 -0.830600 1 0 1.000000 
0 1.000000 3.500000 -14.537800 -0.707107 -0.707107 0.000000 0.331600 -0.834900 1 0 1.000000 
pipe_cap001
0 1.000000 -3.500000 14.537800 -0.707107 0.707107 0.000000 0.223800 -0.036600 1 0 1.000000 
0 1.000000 -3.500000 -14.537800 -0.707107 0.707107 0.000000 0.223800 -0.834900 1 0 1.000000 
0 0.500000 -4.000000 14.386100 -1.000000 -0.000000 0.000000 0.242300 -0.040800 1 0 1.000000 
end
