version 1
nodes
  0 "static_prop" -1
end
skeleton
time 0
0 0.000000 0.000000 0.000000 0.000000 0.000000 0.000000
end
triangles
laundry_machines005
0 -15.749401 28.964100 28.699499 -0.707107 -0.000000 0.707107 0.863100 -0.074000 1 0 1.000000 
0 -15.749401 27.045799 28.699499 -0.707107 -0.000000 0.707107 0.868500 -0.074000 1 0 1.000000 
0 -13.857901 27.045799 30.591000 0.176597 0.000000 0.984283 0.858300 -0.045900 1 0 1.000000 
laundry_machines005
0 -13.857901 27.045799 30.591000 0.176597 0.000000 0.984283 0.858300 -0.045900 1 0 1.000000 
0 -11.374601 28.964100 28.890600 0.564996 0.000000 0.825094 0.838100 -0.071100 1 0 1.000000 
0 -13.857901 28.964100 30.591000 0.564996 0.000000 0.825094 0.853000 -0.045900 1 0 1.000000 
laundry_machines005
0 -13.857901 27.045799 30.591000 0.176597 0.000000 0.984283 0.858300 -0.045900 1 0 1.000000 
0 -11.374601 27.045799 28.890600 0.564996 0.000000 0.825094 0.843100 -0.071100 1 0 1.000000 
0 -11.374601 28.964100 28.890600 0.564996 0.000000 0.825094 0.838100 -0.071100 1 0 1.000000 
laundry_machines005
0 -28.207098 -47.267101 -26.382200 0.000000 0.000000 1.000000 0.125000 -0.891600 1 0 1.000000 
0 27.824398 47.214901 -26.382200 0.000000 0.000000 1.000000 0.625000 -0.891600 1 0 1.000000 
0 -28.207102 47.214901 -26.382200 0.000000 0.000000 1.000000 0.875000 -0.891600 1 0 1.000000 
laundry_machines005
0 -28.207098 -47.267101 -26.382200 0.000000 0.000000 1.000000 0.125000 -0.891600 1 0 1.000000 
0 27.824402 -47.267101 -26.382200 0.000000 0.000000 1.000000 0.375000 -0.891600 1 0 1.000000 
0 27.824398 47.214901 -26.382200 0.000000 0.000000 1.000000 0.625000 -0.891600 1 0 1.000000 
laundry_machines005
0 -30.852999 -50.451199 -25.338200 -0.992530 -0.000000 0.122004 0.003400 -0.867800 1 0 1.000000 
0 -25.842802 50.434101 15.423200 -0.992530 -0.000000 0.122004 0.803400 -0.571100 1 0 1.000000 
0 -30.853003 50.434799 -25.338200 -0.992530 -0.000000 0.122004 0.803400 -0.867800 1 0 1.000000 
laundry_machines005
0 -30.852999 -50.451199 -25.338200 -0.992530 -0.000000 0.122004 0.003400 -0.867800 1 0 1.000000 
0 -25.842798 -50.459702 15.423200 -0.992530 -0.000000 0.122004 0.003300 -0.571100 1 0 1.000000 
0 -25.842802 50.434101 15.423200 -0.992530 -0.000000 0.122004 0.803400 -0.571100 1 0 1.000000 
laundry_machines005
0 30.470402 -50.451199 -25.338200 0.992530 0.000000 0.122004 0.003400 -0.873800 1 0 1.000000 
0 25.460197 50.434101 15.423200 0.992530 0.000000 0.122004 0.807300 -0.566300 1 0 1.000000 
0 25.460201 -50.459702 15.423200 0.992530 0.000000 0.122004 0.003300 -0.568700 1 0 1.000000 
laundry_machines005
0 30.470402 -50.451199 -25.338200 0.992530 0.000000 0.122004 0.003400 -0.873800 1 0 1.000000 
0 30.470398 50.434799 -25.338200 0.992530 0.000000 0.122004 0.807300 -0.871400 1 0 1.000000 
0 25.460197 50.434101 15.423200 0.992530 0.000000 0.122004 0.807300 -0.566300 1 0 1.000000 
laundry_machines005
0 -24.686602 25.872099 15.984300 -0.000000 1.000000 0.000000 0.907200 -0.262700 1 0 1.000000 
0 -24.504002 25.872099 17.134300 -0.000000 1.000000 0.000000 0.906700 -0.245600 1 0 1.000000 
0 -12.843201 25.872101 27.431400 -0.000000 1.000000 0.000000 0.855700 -0.092800 1 0 1.000000 
laundry_machines005
0 -24.686602 25.872099 15.984300 -0.000000 1.000000 0.000000 0.907200 -0.262700 1 0 1.000000 
0 -26.060402 25.872099 17.262100 -0.000000 1.000000 0.000000 0.911200 -0.243700 1 0 1.000000 
0 -24.504002 25.872099 17.134300 -0.000000 1.000000 0.000000 0.906700 -0.245600 1 0 1.000000 
laundry_machines005
0 26.294598 50.407501 16.290600 -0.000000 1.000000 0.000000 0.727400 -0.897300 1 0 1.000000 
0 23.221598 50.407501 14.378700 -0.000000 1.000000 0.000000 0.703300 -0.912100 1 0 1.000000 
0 23.221598 50.407501 16.290600 -0.000000 1.000000 0.000000 0.703400 -0.897100 1 0 1.000000 
laundry_machines005
0 26.294598 50.407501 16.290600 -0.000000 1.000000 0.000000 0.727400 -0.897300 1 0 1.000000 
0 26.294598 50.407501 14.378700 -0.000000 1.000000 0.000000 0.727300 -0.912300 1 0 1.000000 
0 23.221598 50.407501 14.378700 -0.000000 1.000000 0.000000 0.703300 -0.912100 1 0 1.000000 
laundry_machines005
0 -26.587402 50.407501 14.380000 -0.000000 1.000000 0.000000 0.595400 -0.911400 1 0 1.000000 
0 -23.514502 50.407501 16.291901 -0.000000 1.000000 0.000000 0.571400 -0.896400 1 0 1.000000 
0 -23.514502 50.407501 14.380000 -0.000000 1.000000 0.000000 0.571400 -0.911400 1 0 1.000000 
laundry_machines005
0 -26.587402 50.407501 14.380000 -0.000000 1.000000 0.000000 0.595400 -0.911400 1 0 1.000000 
0 -26.587402 50.407501 16.291901 -0.000000 1.000000 0.000000 0.595400 -0.896400 1 0 1.000000 
0 -23.514502 50.407501 16.291901 -0.000000 1.000000 0.000000 0.571400 -0.896400 1 0 1.000000 
laundry_machines005
0 26.294601 -50.437698 16.290600 1.000000 0.000000 0.000000 0.004900 -0.886900 1 0 1.000000 
0 26.294598 50.407501 14.378700 1.000000 0.000000 0.000000 0.792700 -0.926600 1 0 1.000000 
0 26.294598 50.407501 16.290600 1.000000 0.000000 0.000000 0.792700 -0.886900 1 0 1.000000 
laundry_machines005
0 26.294601 -50.437698 16.290600 1.000000 0.000000 0.000000 0.004900 -0.886900 1 0 1.000000 
0 26.294601 -50.437698 14.378700 1.000000 0.000000 0.000000 0.004900 -0.926600 1 0 1.000000 
0 26.294598 50.407501 14.378700 1.000000 0.000000 0.000000 0.792700 -0.926600 1 0 1.000000 
laundry_machines005
0 32.141396 51.719501 -26.754200 -0.000100 1.000000 0.000000 0.800400 -0.931200 1 0 1.000000 
0 -32.141403 51.711498 -24.019501 -0.000100 1.000000 0.000000 0.298200 -0.885700 1 0 1.000000 
0 32.141396 51.719501 -24.019501 -0.000100 1.000000 0.000000 0.800400 -0.885700 1 0 1.000000 
laundry_machines005
0 32.141396 51.719501 -26.754200 -0.000100 1.000000 0.000000 0.800400 -0.931200 1 0 1.000000 
0 -32.141403 51.711498 -26.754200 -0.000100 1.000000 0.000000 0.298200 -0.931200 1 0 1.000000 
0 -32.141403 51.711498 -24.019501 -0.000100 1.000000 0.000000 0.298200 -0.885700 1 0 1.000000 
laundry_machines005
0 32.112602 -51.714699 -26.743601 1.000000 0.000000 0.000000 0.002000 -0.932900 1 0 1.000000 
0 32.112595 51.726799 -24.008900 1.000000 0.000000 0.000000 0.810100 -0.889500 1 0 1.000000 
0 32.112602 -51.714699 -24.008900 1.000000 0.000000 0.000000 0.002000 -0.889500 1 0 1.000000 
laundry_machines005
0 32.112602 -51.714699 -26.743601 1.000000 0.000000 0.000000 0.002000 -0.932900 1 0 1.000000 
0 32.112595 51.726799 -26.743601 1.000000 0.000000 0.000000 0.810100 -0.932900 1 0 1.000000 
0 32.112595 51.726799 -24.008900 1.000000 0.000000 0.000000 0.810100 -0.889500 1 0 1.000000 
laundry_machines005
0 -32.132195 -51.726700 -26.743601 0.000100 -1.000000 0.000000 0.300300 -0.930800 1 0 1.000000 
0 32.120605 -51.718700 -24.008900 0.000100 -1.000000 0.000000 0.802300 -0.888200 1 0 1.000000 
0 -32.132195 -51.726700 -24.008900 0.000100 -1.000000 0.000000 0.300300 -0.888200 1 0 1.000000 
laundry_machines005
0 -32.132195 -51.726700 -26.743601 0.000100 -1.000000 0.000000 0.300300 -0.930800 1 0 1.000000 
0 32.120605 -51.718700 -26.743601 0.000100 -1.000000 0.000000 0.802300 -0.930800 1 0 1.000000 
0 32.120605 -51.718700 -24.008900 0.000100 -1.000000 0.000000 0.802300 -0.888200 1 0 1.000000 
laundry_machines005
0 -32.135605 51.726799 -26.743601 -1.000000 -0.000000 0.000000 0.002100 -0.929900 1 0 1.000000 
0 -32.135597 -51.714699 -24.008900 -1.000000 -0.000000 0.000000 0.810300 -0.885900 1 0 1.000000 
0 -32.135605 51.726799 -24.008900 -1.000000 -0.000000 0.000000 0.002100 -0.885900 1 0 1.000000 
laundry_machines005
0 -32.135605 51.726799 -26.743601 -1.000000 -0.000000 0.000000 0.002100 -0.929900 1 0 1.000000 
0 -32.135597 -51.714699 -26.743601 -1.000000 -0.000000 0.000000 0.810300 -0.929900 1 0 1.000000 
0 -32.135597 -51.714699 -24.008900 -1.000000 -0.000000 0.000000 0.810300 -0.885900 1 0 1.000000 
laundry_machines005
0 -25.685501 46.340000 12.520200 -0.990023 -0.000000 0.140903 0.864900 -0.314100 1 0 1.000000 
0 -30.324701 49.985401 -20.076900 -0.990023 -0.000000 0.140903 0.872200 -0.798000 1 0 1.000000 
0 -30.324701 46.340000 -20.076900 -0.990023 -0.000000 0.140903 0.878200 -0.798000 1 0 1.000000 
laundry_machines005
0 -25.685501 46.340000 12.520200 -0.990023 -0.000000 0.140903 0.864900 -0.314100 1 0 1.000000 
0 -25.685501 49.985401 12.520200 -0.990023 -0.000000 0.140903 0.859000 -0.314100 1 0 1.000000 
0 -30.324701 49.985401 -20.076900 -0.990023 -0.000000 0.140903 0.872200 -0.798000 1 0 1.000000 
laundry_machines005
0 25.300602 -46.380001 12.520200 0.990023 0.000000 0.140903 0.364800 -0.314100 1 0 1.000000 
0 29.939901 -50.025398 -20.076900 0.990023 0.000000 0.140903 0.372100 -0.798000 1 0 1.000000 
0 29.939901 -46.380001 -20.076900 0.990023 0.000000 0.140903 0.378100 -0.798000 1 0 1.000000 
laundry_machines005
0 25.300602 -46.380001 12.520200 0.990023 0.000000 0.140903 0.364800 -0.314100 1 0 1.000000 
0 25.300602 -50.025398 12.520200 0.990023 0.000000 0.140903 0.358900 -0.314100 1 0 1.000000 
0 29.939901 -50.025398 -20.076900 0.990023 0.000000 0.140903 0.372100 -0.798000 1 0 1.000000 
laundry_machines005
0 15.366799 27.098301 28.699499 0.981395 0.000800 -0.191999 0.631700 -0.074000 1 0 1.000000 
0 13.641999 29.001900 26.291599 0.813321 0.001000 -0.581815 0.646200 -0.109700 1 0 1.000000 
0 15.366799 29.016701 28.699499 0.812983 0.000000 -0.582288 0.637100 -0.074000 1 0 1.000000 
laundry_machines005
0 15.366799 27.098301 28.699499 0.981395 0.000800 -0.191999 0.631700 -0.074000 1 0 1.000000 
0 13.640199 27.098301 26.282400 0.813691 0.002000 -0.581294 0.640900 -0.109800 1 0 1.000000 
0 13.641999 29.001900 26.291599 0.813321 0.001000 -0.581815 0.646200 -0.109700 1 0 1.000000 
laundry_machines005
0 13.475299 27.098301 30.591000 0.707107 0.000000 0.707107 0.641900 -0.045900 1 0 1.000000 
0 15.366799 27.098301 28.699499 0.981395 0.000800 -0.191999 0.631700 -0.074000 1 0 1.000000 
0 13.475299 29.016701 30.591000 0.707107 0.000000 0.707107 0.647200 -0.045900 1 0 1.000000 
laundry_machines005
0 -24.686598 -25.860003 15.984300 0.000000 -1.000000 0.000000 0.092800 -0.262700 1 0 1.000000 
0 -12.843199 -25.860001 27.431400 0.000000 -1.000000 0.000000 0.144300 -0.092800 1 0 1.000000 
0 -13.810099 -25.860001 28.398300 0.000000 -1.000000 0.000000 0.138500 -0.078400 1 0 1.000000 
laundry_machines005
0 -24.504002 25.872099 17.134300 0.403714 -0.009900 0.914832 -0.093300 -0.245600 1 0 1.000000 
0 -26.060398 -25.860003 17.262100 -0.914856 -0.000000 0.403780 0.088800 -0.243700 1 0 1.000000 
0 -24.686598 -25.860003 15.984300 0.000000 -1.000000 0.000000 0.092800 -0.262700 1 0 1.000000 
laundry_machines005
0 -24.504002 25.872099 17.134300 0.403714 -0.009900 0.914832 -0.093300 -0.245600 1 0 1.000000 
0 -26.060402 25.872099 17.262100 -0.914856 -0.000000 0.403780 -0.088800 -0.243700 1 0 1.000000 
0 -26.060398 -25.860003 17.262100 -0.914856 -0.000000 0.403780 0.088800 -0.243700 1 0 1.000000 
laundry_machines005
0 13.475301 -27.033701 30.591000 -0.176597 -0.000000 0.984283 0.358300 -0.045900 1 0 1.000000 
0 10.991901 -28.952000 28.890600 -0.564996 -0.000000 0.825094 0.338100 -0.071100 1 0 1.000000 
0 13.475301 -28.952000 30.591000 -0.564996 -0.000000 0.825094 0.353000 -0.045900 1 0 1.000000 
laundry_machines005
0 13.475301 -27.033701 30.591000 -0.176597 -0.000000 0.984283 0.358300 -0.045900 1 0 1.000000 
0 10.991901 -27.033701 28.890600 -0.564996 -0.000000 0.825094 0.343100 -0.071100 1 0 1.000000 
0 10.991901 -28.952000 28.890600 -0.564996 -0.000000 0.825094 0.338100 -0.071100 1 0 1.000000 
laundry_machines005
0 15.366801 -28.952000 28.699499 0.707107 0.000000 0.707107 0.363100 -0.074000 1 0 1.000000 
0 15.366801 -27.033701 28.699499 0.707107 0.000000 0.707107 0.368500 -0.074000 1 0 1.000000 
0 13.475301 -27.033701 30.591000 -0.176597 -0.000000 0.984283 0.358300 -0.045900 1 0 1.000000 
laundry_machines005
0 -12.843201 25.872101 27.431400 0.707107 0.000000 0.707107 -0.144300 -0.092800 1 0 1.000000 
0 -13.810099 -25.860001 28.398300 0.707107 0.000000 0.707107 0.138500 -0.078400 1 0 1.000000 
0 -12.843199 -25.860001 27.431400 0.707107 0.000000 0.707107 0.144300 -0.092800 1 0 1.000000 
laundry_machines005
0 -13.857899 -29.004601 30.591000 0.176597 0.000000 0.984283 0.147200 -0.045900 1 0 1.000000 
0 -11.374599 -27.086201 28.890600 0.564996 0.000000 0.825094 0.157100 -0.071100 1 0 1.000000 
0 -13.857899 -27.086201 30.591000 0.564996 0.000000 0.825094 0.141900 -0.045900 1 0 1.000000 
laundry_machines005
0 -13.857899 -29.004601 30.591000 0.176597 0.000000 0.984283 0.147200 -0.045900 1 0 1.000000 
0 -11.374599 -29.004601 28.890600 0.564996 0.000000 0.825094 0.162000 -0.071100 1 0 1.000000 
0 -11.374599 -27.086201 28.890600 0.564996 0.000000 0.825094 0.157100 -0.071100 1 0 1.000000 
laundry_machines005
0 -15.749399 -27.086201 28.699499 -0.707107 -0.000000 0.707107 0.131700 -0.074000 1 0 1.000000 
0 -15.749399 -29.004601 28.699499 -0.707107 -0.000000 0.707107 0.137100 -0.074000 1 0 1.000000 
0 -13.857899 -29.004601 30.591000 0.176597 0.000000 0.984283 0.147200 -0.045900 1 0 1.000000 
laundry_machines005
0 29.339100 -20.879198 -18.400801 0.000000 -1.000000 0.000000 0.026300 -0.403100 1 0 1.000000 
0 30.695700 -20.879198 -18.229500 0.000000 -1.000000 0.000000 0.015700 -0.403100 1 0 1.000000 
0 25.783100 -20.879198 9.748200 0.000000 -1.000000 0.000000 0.025200 -0.181400 1 0 1.000000 
laundry_machines005
0 -26.587399 -50.437698 14.380000 0.000000 -1.000000 0.000000 0.595400 -0.911400 1 0 1.000000 
0 -23.514498 -50.437698 16.291901 0.000000 -1.000000 0.000000 0.571400 -0.896400 1 0 1.000000 
0 -26.587399 -50.437698 16.291901 0.000000 -1.000000 0.000000 0.595400 -0.896400 1 0 1.000000 
laundry_machines005
0 -26.587399 -50.437698 14.380000 0.000000 -1.000000 0.000000 0.595400 -0.911400 1 0 1.000000 
0 -23.514498 -50.437698 14.380000 0.000000 -1.000000 0.000000 0.571400 -0.911400 1 0 1.000000 
0 -23.514498 -50.437698 16.291901 0.000000 -1.000000 0.000000 0.571400 -0.896400 1 0 1.000000 
laundry_machines005
0 -26.587399 -50.437698 14.380000 -1.000000 -0.000000 0.000000 0.019400 -0.929500 1 0 1.000000 
0 -26.587402 50.407501 16.291901 -1.000000 -0.000000 0.000000 0.809100 -0.886200 1 0 1.000000 
0 -26.587402 50.407501 14.380000 -1.000000 -0.000000 0.000000 0.807300 -0.929500 1 0 1.000000 
laundry_machines005
0 -26.587399 -50.437698 14.380000 -1.000000 -0.000000 0.000000 0.019400 -0.929500 1 0 1.000000 
0 -26.587399 -50.437698 16.291901 -1.000000 -0.000000 0.000000 0.021200 -0.886200 1 0 1.000000 
0 -26.587402 50.407501 16.291901 -1.000000 -0.000000 0.000000 0.809100 -0.886200 1 0 1.000000 
laundry_machines005
0 14.737101 -27.954800 29.096600 0.454001 0.000000 0.891001 0.362600 -0.068100 1 0 1.000000 
0 13.381199 27.966900 29.787399 0.454001 0.000000 0.891001 0.644900 -0.057800 1 0 1.000000 
0 12.705101 -27.954800 28.460600 -0.298688 -0.018999 0.954162 0.351200 -0.077500 1 0 1.000000 
laundry_machines005
0 14.737101 -27.954800 29.096600 0.454001 0.000000 0.891001 0.362600 -0.068100 1 0 1.000000 
0 14.060999 27.966900 27.769699 0.947497 0.019000 0.319199 0.641100 -0.087800 1 0 1.000000 
0 13.381199 27.966900 29.787399 0.454001 0.000000 0.891001 0.644900 -0.057800 1 0 1.000000 
laundry_machines005
0 -15.119701 27.966900 29.096600 -0.454001 -0.000000 0.891001 0.862600 -0.068100 1 0 1.000000 
0 -13.763799 -27.954800 29.787399 -0.454001 -0.000000 0.891001 1.144900 -0.057800 1 0 1.000000 
0 -13.087701 27.966900 28.460600 0.298688 0.018999 0.954162 0.851200 -0.077500 1 0 1.000000 
laundry_machines005
0 -15.119701 27.966900 29.096600 -0.454001 -0.000000 0.891001 0.862600 -0.068100 1 0 1.000000 
0 -14.443599 -27.954800 27.769699 -0.947497 -0.019000 0.319199 1.141100 -0.087800 1 0 1.000000 
0 -13.763799 -27.954800 29.787399 -0.454001 -0.000000 0.891001 1.144900 -0.057800 1 0 1.000000 
laundry_machines005
0 -24.686602 25.872099 15.984300 -0.681095 -0.000000 -0.732195 0.907200 -0.262700 1 0 1.000000 
0 -26.060398 -25.860003 17.262100 -0.914856 -0.000000 0.403780 1.088800 -0.243700 1 0 1.000000 
0 -26.060402 25.872099 17.262100 -0.914856 -0.000000 0.403780 0.911200 -0.243700 1 0 1.000000 
laundry_machines005
0 -24.686602 25.872099 15.984300 -0.681095 -0.000000 -0.732195 0.907200 -0.262700 1 0 1.000000 
0 -24.686598 -25.860003 15.984300 -0.006400 -0.999956 -0.006800 1.092800 -0.262700 1 0 1.000000 
0 -26.060398 -25.860003 17.262100 -0.914856 -0.000000 0.403780 1.088800 -0.243700 1 0 1.000000 
laundry_machines005
0 13.475299 29.016701 30.591000 -0.176597 -0.000000 0.984283 0.647200 -0.045900 1 0 1.000000 
0 10.991899 27.098301 28.890600 -0.564996 -0.000000 0.825094 0.657100 -0.071100 1 0 1.000000 
0 13.475299 27.098301 30.591000 -0.564996 -0.000000 0.825094 0.641900 -0.045900 1 0 1.000000 
laundry_machines005
0 13.475299 29.016701 30.591000 -0.176597 -0.000000 0.984283 0.647200 -0.045900 1 0 1.000000 
0 10.991899 29.016701 28.890600 -0.564996 -0.000000 0.825094 0.662000 -0.071100 1 0 1.000000 
0 10.991899 27.098301 28.890600 -0.564996 -0.000000 0.825094 0.657100 -0.071100 1 0 1.000000 
laundry_machines005
0 15.366799 27.098301 28.699499 0.707107 0.000000 0.707107 0.631700 -0.074000 1 0 1.000000 
0 15.366799 29.016701 28.699499 0.707107 0.000000 0.707107 0.637100 -0.074000 1 0 1.000000 
0 13.475299 29.016701 30.591000 -0.176597 -0.000000 0.984283 0.647200 -0.045900 1 0 1.000000 
laundry_machines005
0 29.339100 -20.879198 -18.400801 0.125302 0.000000 -0.992118 0.320200 -0.409400 1 0 1.000000 
0 29.339100 21.508902 -18.400801 0.125302 0.000000 -0.992118 0.012300 -0.409400 1 0 1.000000 
0 30.695700 -20.879198 -18.229500 0.125302 0.000000 -0.992118 0.320200 -0.420000 1 0 1.000000 
laundry_machines005
0 2.979402 -47.766499 30.522900 0.928311 0.000000 0.371804 0.266800 -0.046900 1 0 1.000000 
0 1.714498 46.145401 33.681099 0.928311 0.000000 0.371804 0.739500 -0.000000 1 0 1.000000 
0 1.714502 -46.133301 33.681099 0.928311 0.000000 0.371804 0.260500 -0.000000 1 0 1.000000 
laundry_machines005
0 2.979402 -47.766499 30.522900 0.928311 0.000000 0.371804 0.266800 -0.046900 1 0 1.000000 
0 2.979398 47.778599 30.522900 0.928311 0.000000 0.371804 0.733200 -0.046900 1 0 1.000000 
0 1.714498 46.145401 33.681099 0.928311 0.000000 0.371804 0.739500 -0.000000 1 0 1.000000 
laundry_machines005
0 -3.362098 -47.766499 30.522900 0.000000 -0.888244 0.459371 0.233200 -0.046900 1 0 1.000000 
0 1.714502 -46.133301 33.681099 0.000000 -0.888244 0.459371 0.260500 -0.000000 1 0 1.000000 
0 -2.097198 -46.133301 33.681099 0.000000 -0.888244 0.459371 0.239500 -0.000000 1 0 1.000000 
laundry_machines005
0 -3.362098 -47.766499 30.522900 0.000000 -0.888244 0.459371 0.233200 -0.046900 1 0 1.000000 
0 2.979402 -47.766499 30.522900 0.000000 -0.888244 0.459371 0.266800 -0.046900 1 0 1.000000 
0 1.714502 -46.133301 33.681099 0.000000 -0.888244 0.459371 0.260500 -0.000000 1 0 1.000000 
laundry_machines005
0 -26.587399 -50.437698 14.380000 0.000000 0.000000 -1.000000 0.007400 -0.886400 1 0 1.000000 
0 -23.514502 50.407501 14.380000 0.000000 0.000000 -1.000000 0.795200 -0.862400 1 0 1.000000 
0 -23.514498 -50.437698 14.380000 0.000000 0.000000 -1.000000 0.007400 -0.862400 1 0 1.000000 
laundry_machines005
0 -26.587399 -50.437698 14.380000 0.000000 0.000000 -1.000000 0.007400 -0.886400 1 0 1.000000 
0 -26.587402 50.407501 14.380000 0.000000 0.000000 -1.000000 0.795200 -0.886400 1 0 1.000000 
0 -23.514502 50.407501 14.380000 0.000000 0.000000 -1.000000 0.795200 -0.862400 1 0 1.000000 
laundry_machines005
0 -26.587399 -50.437698 16.291901 0.000000 0.000000 1.000000 0.013300 -0.886400 1 0 1.000000 
0 -23.514502 50.407501 16.291901 0.000000 0.000000 1.000000 0.801200 -0.862400 1 0 1.000000 
0 -26.587402 50.407501 16.291901 0.000000 0.000000 1.000000 0.801200 -0.886400 1 0 1.000000 
laundry_machines005
0 -26.587399 -50.437698 16.291901 0.000000 0.000000 1.000000 0.013300 -0.886400 1 0 1.000000 
0 -23.514498 -50.437698 16.291901 0.000000 0.000000 1.000000 0.013300 -0.862400 1 0 1.000000 
0 -23.514502 50.407501 16.291901 0.000000 0.000000 1.000000 0.801200 -0.862400 1 0 1.000000 
laundry_machines005
0 26.294601 -50.437698 16.290600 0.000000 0.000000 1.000000 0.005500 -0.892400 1 0 1.000000 
0 23.221598 50.407501 16.290600 0.000000 0.000000 1.000000 0.793400 -0.868400 1 0 1.000000 
0 23.221601 -50.437698 16.290600 -0.961058 -0.029299 0.274788 0.005500 -0.868400 1 0 1.000000 
laundry_machines005
0 26.294601 -50.437698 16.290600 0.000000 0.000000 1.000000 0.005500 -0.892400 1 0 1.000000 
0 26.294598 50.407501 16.290600 0.000000 0.000000 1.000000 0.793400 -0.892400 1 0 1.000000 
0 23.221598 50.407501 16.290600 0.000000 0.000000 1.000000 0.793400 -0.868400 1 0 1.000000 
laundry_machines005
0 26.294601 -50.437698 14.378700 -0.274698 -0.008400 -0.961494 0.017300 -0.891200 1 0 1.000000 
0 23.221598 50.407501 14.378700 -0.274698 -0.008400 -0.961494 0.805100 -0.867200 1 0 1.000000 
0 26.294598 50.407501 14.378700 0.000000 0.000000 -1.000000 0.805100 -0.891200 1 0 1.000000 
laundry_machines005
0 26.294601 -50.437698 14.378700 -0.274698 -0.008400 -0.961494 0.017300 -0.891200 1 0 1.000000 
0 23.221601 -50.437698 16.290600 -0.961058 -0.029299 0.274788 0.005500 -0.868400 1 0 1.000000 
0 23.221598 50.407501 14.378700 -0.274698 -0.008400 -0.961494 0.805100 -0.867200 1 0 1.000000 
laundry_machines005
0 -30.073298 -46.380001 -20.147800 -0.992118 -0.000000 0.125302 0.122500 -0.799100 1 0 1.000000 
0 -25.946697 -50.025398 12.518200 -0.992118 -0.000000 0.125302 0.140300 -0.314200 1 0 1.000000 
0 -25.946697 -46.380001 12.518200 -0.992118 -0.000000 0.125302 0.134300 -0.314200 1 0 1.000000 
laundry_machines005
0 -30.073298 -46.380001 -20.147800 -0.992118 -0.000000 0.125302 0.122500 -0.799100 1 0 1.000000 
0 -30.073298 -50.025398 -20.147800 -0.992118 -0.000000 0.125302 0.128600 -0.799100 1 0 1.000000 
0 -25.946697 -50.025398 12.518200 -0.992118 -0.000000 0.125302 0.140300 -0.314200 1 0 1.000000 
laundry_machines005
0 -15.749401 27.045799 28.699499 0.014101 -0.946631 -0.322011 0.868500 -0.074000 1 0 1.000000 
0 -11.374601 27.045799 28.890600 0.014101 -0.946631 -0.322011 0.843100 -0.071100 1 0 1.000000 
0 -13.857901 27.045799 30.591000 0.000000 -1.000000 0.000000 0.858300 -0.045900 1 0 1.000000 
laundry_machines005
0 -15.749401 27.045799 28.699499 0.014101 -0.946631 -0.322011 0.868500 -0.074000 1 0 1.000000 
0 -14.022801 28.964100 26.282400 0.019701 0.892547 -0.450524 0.853900 -0.109800 1 0 1.000000 
0 -11.374601 27.045799 28.890600 0.014101 -0.946631 -0.322011 0.843100 -0.071100 1 0 1.000000 
laundry_machines005
0 -13.857901 28.964100 30.591000 -0.000000 1.000000 0.000000 0.853000 -0.045900 1 0 1.000000 
0 -14.022801 28.964100 26.282400 0.019701 0.892547 -0.450524 0.853900 -0.109800 1 0 1.000000 
0 -15.749401 28.964100 28.699499 -0.000000 1.000000 0.000000 0.863100 -0.074000 1 0 1.000000 
laundry_machines005
0 -13.857901 28.964100 30.591000 -0.000000 1.000000 0.000000 0.853000 -0.045900 1 0 1.000000 
0 -11.374601 28.964100 28.890600 -0.000000 1.000000 0.000000 0.838100 -0.071100 1 0 1.000000 
0 -14.022801 28.964100 26.282400 0.019701 0.892547 -0.450524 0.853900 -0.109800 1 0 1.000000 
laundry_machines005
0 -15.749399 -29.004601 28.699499 0.014101 -0.946631 -0.322011 0.137100 -0.074000 1 0 1.000000 
0 -11.374599 -29.004601 28.890600 0.014101 -0.946631 -0.322011 0.162000 -0.071100 1 0 1.000000 
0 -13.857899 -29.004601 30.591000 0.000000 -1.000000 0.000000 0.147200 -0.045900 1 0 1.000000 
laundry_machines005
0 -15.749399 -29.004601 28.699499 0.014101 -0.946631 -0.322011 0.137100 -0.074000 1 0 1.000000 
0 -14.022799 -27.086201 26.282400 0.019701 0.892547 -0.450524 0.140900 -0.109800 1 0 1.000000 
0 -11.374599 -29.004601 28.890600 0.014101 -0.946631 -0.322011 0.162000 -0.071100 1 0 1.000000 
laundry_machines005
0 -13.857899 -27.086201 30.591000 -0.000000 1.000000 0.000000 0.141900 -0.045900 1 0 1.000000 
0 -14.022799 -27.086201 26.282400 0.019701 0.892547 -0.450524 0.140900 -0.109800 1 0 1.000000 
0 -15.749399 -27.086201 28.699499 -0.000000 1.000000 0.000000 0.131700 -0.074000 1 0 1.000000 
laundry_machines005
0 -13.857899 -27.086201 30.591000 -0.000000 1.000000 0.000000 0.141900 -0.045900 1 0 1.000000 
0 -11.374599 -27.086201 28.890600 -0.000000 1.000000 0.000000 0.157100 -0.071100 1 0 1.000000 
0 -14.022799 -27.086201 26.282400 0.019701 0.892547 -0.450524 0.140900 -0.109800 1 0 1.000000 
laundry_machines005
0 15.366801 -27.033701 28.699499 -0.014101 0.946631 -0.322011 0.368500 -0.074000 1 0 1.000000 
0 10.991901 -27.033701 28.890600 -0.014101 0.946631 -0.322011 0.343100 -0.071100 1 0 1.000000 
0 13.475301 -27.033701 30.591000 -0.000000 1.000000 0.000000 0.358300 -0.045900 1 0 1.000000 
laundry_machines005
0 15.366801 -27.033701 28.699499 -0.014101 0.946631 -0.322011 0.368500 -0.074000 1 0 1.000000 
0 13.640201 -28.952000 26.282400 -0.019701 -0.892547 -0.450524 0.353900 -0.109800 1 0 1.000000 
0 10.991901 -27.033701 28.890600 -0.014101 0.946631 -0.322011 0.343100 -0.071100 1 0 1.000000 
laundry_machines005
0 13.475301 -28.952000 30.591000 0.000000 -1.000000 0.000000 0.353000 -0.045900 1 0 1.000000 
0 13.640201 -28.952000 26.282400 -0.019701 -0.892547 -0.450524 0.353900 -0.109800 1 0 1.000000 
0 15.366801 -28.952000 28.699499 0.000000 -1.000000 0.000000 0.363100 -0.074000 1 0 1.000000 
laundry_machines005
0 13.475301 -28.952000 30.591000 0.000000 -1.000000 0.000000 0.353000 -0.045900 1 0 1.000000 
0 10.991901 -28.952000 28.890600 0.000000 -1.000000 0.000000 0.338100 -0.071100 1 0 1.000000 
0 13.640201 -28.952000 26.282400 -0.019701 -0.892547 -0.450524 0.353900 -0.109800 1 0 1.000000 
laundry_machines005
0 -3.362102 47.778599 30.522900 -0.000000 0.888244 0.459371 0.766800 -0.046900 1 0 1.000000 
0 1.714498 46.145401 33.681099 -0.000000 0.888244 0.459371 0.739500 -0.000000 1 0 1.000000 
0 2.979398 47.778599 30.522900 -0.000000 0.888244 0.459371 0.733200 -0.046900 1 0 1.000000 
laundry_machines005
0 -3.362102 47.778599 30.522900 -0.000000 0.888244 0.459371 0.766800 -0.046900 1 0 1.000000 
0 -2.097202 46.145401 33.681099 -0.000000 0.888244 0.459371 0.760500 -0.000000 1 0 1.000000 
0 1.714498 46.145401 33.681099 -0.000000 0.888244 0.459371 0.739500 -0.000000 1 0 1.000000 
laundry_machines005
0 15.366799 29.016701 28.699499 -0.000100 0.999999 -0.001500 0.637100 -0.074000 1 0 1.000000 
0 10.991899 29.016701 28.890600 -0.000100 0.999995 -0.003000 0.662000 -0.071100 1 0 1.000000 
0 13.475299 29.016701 30.591000 -0.000000 1.000000 0.000000 0.647200 -0.045900 1 0 1.000000 
laundry_machines005
0 15.366799 29.016701 28.699499 -0.000100 0.999999 -0.001500 0.637100 -0.074000 1 0 1.000000 
0 13.641999 29.001900 26.291599 -0.000300 0.999982 -0.006000 0.646200 -0.109700 1 0 1.000000 
0 10.991899 29.016701 28.890600 -0.000100 0.999995 -0.003000 0.662000 -0.071100 1 0 1.000000 
laundry_machines005
0 13.475299 27.098301 30.591000 0.000000 -1.000000 0.000000 0.641900 -0.045900 1 0 1.000000 
0 13.640199 27.098301 26.282400 0.000000 -1.000000 0.000000 0.640900 -0.109800 1 0 1.000000 
0 15.366799 27.098301 28.699499 0.000000 -1.000000 0.000000 0.631700 -0.074000 1 0 1.000000 
laundry_machines005
0 13.475299 27.098301 30.591000 0.000000 -1.000000 0.000000 0.641900 -0.045900 1 0 1.000000 
0 10.991899 27.098301 28.890600 0.000000 -1.000000 0.000000 0.657100 -0.071100 1 0 1.000000 
0 13.640199 27.098301 26.282400 0.000000 -1.000000 0.000000 0.640900 -0.109800 1 0 1.000000 
laundry_machines005
0 29.688498 46.340000 -20.147800 0.972772 -0.196494 0.122897 0.920000 -0.998900 1 0 1.000000 
0 26.502197 51.102501 12.689600 0.972772 -0.196494 0.122897 0.997800 -0.622800 1 0 1.000000 
0 25.561798 46.340000 12.518200 0.968747 -0.196710 0.151107 0.920000 -0.622800 1 0 1.000000 
laundry_machines005
0 29.688498 46.340000 -20.147800 0.972772 -0.196494 0.122897 0.920000 -0.998900 1 0 1.000000 
0 30.628899 51.102501 -19.976400 0.972772 -0.196494 0.122897 0.997800 -0.998900 1 0 1.000000 
0 26.502197 51.102501 12.689600 0.972772 -0.196494 0.122897 0.997800 -0.622800 1 0 1.000000 
laundry_machines005
0 -28.207098 -47.267101 -33.681099 0.000000 -1.000000 0.000000 0.004800 -0.999500 1 0 1.000000 
0 27.824402 -47.267101 -26.382200 0.000000 -1.000000 0.000000 0.442600 -0.942500 1 0 1.000000 
0 -28.207098 -47.267101 -26.382200 0.000000 -1.000000 0.000000 0.004800 -0.942500 1 0 1.000000 
laundry_machines005
0 -28.207098 -47.267101 -33.681099 0.000000 -1.000000 0.000000 0.004800 -0.999500 1 0 1.000000 
0 27.824402 -47.267101 -33.681099 0.000000 -1.000000 0.000000 0.442600 -0.999500 1 0 1.000000 
0 27.824402 -47.267101 -26.382200 0.000000 -1.000000 0.000000 0.442600 -0.942500 1 0 1.000000 
laundry_machines005
0 -28.207098 -47.267101 -33.681099 -1.000000 -0.000000 0.000000 0.708300 -0.994700 1 0 1.000000 
0 -28.207102 47.214901 -26.382200 -1.000000 -0.000000 0.000000 0.007500 -0.937700 1 0 1.000000 
0 -28.207102 47.214901 -33.681099 -1.000000 -0.000000 0.000000 0.007500 -0.994700 1 0 1.000000 
laundry_machines005
0 -28.207098 -47.267101 -33.681099 -1.000000 -0.000000 0.000000 0.708300 -0.994700 1 0 1.000000 
0 -28.207098 -47.267101 -26.382200 -1.000000 -0.000000 0.000000 0.708300 -0.937700 1 0 1.000000 
0 -28.207102 47.214901 -26.382200 -1.000000 -0.000000 0.000000 0.007500 -0.937700 1 0 1.000000 
laundry_machines005
0 -28.207102 47.214901 -33.681099 -0.000000 1.000000 0.000000 0.081800 -0.997100 1 0 1.000000 
0 27.824398 47.214901 -26.382200 -0.000000 1.000000 0.000000 0.519500 -0.940100 1 0 1.000000 
0 27.824398 47.214901 -33.681099 -0.000000 1.000000 0.000000 0.519500 -0.997100 1 0 1.000000 
laundry_machines005
0 -28.207102 47.214901 -33.681099 -0.000000 1.000000 0.000000 0.081800 -0.997100 1 0 1.000000 
0 -28.207102 47.214901 -26.382200 -0.000000 1.000000 0.000000 0.081800 -0.940100 1 0 1.000000 
0 27.824398 47.214901 -26.382200 -0.000000 1.000000 0.000000 0.519500 -0.940100 1 0 1.000000 
laundry_machines005
0 27.824402 -47.267101 -33.681099 1.000000 0.000000 0.000000 0.106200 -0.994700 1 0 1.000000 
0 27.824398 47.214901 -26.382200 1.000000 0.000000 0.000000 0.807000 -0.937700 1 0 1.000000 
0 27.824402 -47.267101 -26.382200 1.000000 0.000000 0.000000 0.106200 -0.937700 1 0 1.000000 
laundry_machines005
0 27.824402 -47.267101 -33.681099 1.000000 0.000000 0.000000 0.106200 -0.994700 1 0 1.000000 
0 27.824398 47.214901 -33.681099 1.000000 0.000000 0.000000 0.807000 -0.994700 1 0 1.000000 
0 27.824398 47.214901 -26.382200 1.000000 0.000000 0.000000 0.807000 -0.937700 1 0 1.000000 
laundry_machines005
0 27.654102 -47.514000 -24.008900 0.000000 0.000000 1.000000 0.036000 -0.854600 1 0 1.000000 
0 32.112595 51.726799 -24.008900 0.000000 0.000000 1.000000 0.811300 -0.889400 1 0 1.000000 
0 27.654099 47.595100 -24.008900 0.000000 0.000000 1.000000 0.779000 -0.854600 1 0 1.000000 
laundry_machines005
0 27.654102 -47.514000 -24.008900 0.000000 0.000000 1.000000 0.036000 -0.854600 1 0 1.000000 
0 32.112602 -51.714699 -24.008900 0.000000 0.000000 1.000000 0.003200 -0.889400 1 0 1.000000 
0 32.112595 51.726799 -24.008900 0.000000 0.000000 1.000000 0.811300 -0.889400 1 0 1.000000 
laundry_machines005
0 -27.677202 46.882099 -26.743601 0.000000 0.000000 -1.000000 0.125000 -0.897000 1 0 1.000000 
0 -32.135597 -51.714699 -26.743601 0.000000 0.000000 -1.000000 0.625000 -0.897000 1 0 1.000000 
0 -32.135605 51.726799 -26.743601 0.000000 0.000000 -1.000000 0.375000 -0.897000 1 0 1.000000 
laundry_machines005
0 -27.677202 46.882099 -26.743601 0.000000 0.000000 -1.000000 0.125000 -0.897000 1 0 1.000000 
0 -27.677198 -46.926998 -26.743601 0.000000 0.000000 -1.000000 0.875000 -0.897000 1 0 1.000000 
0 -32.135597 -51.714699 -26.743601 0.000000 0.000000 -1.000000 0.625000 -0.897000 1 0 1.000000 
laundry_machines005
0 27.654102 -47.514000 -26.743601 0.000000 0.000000 -1.000000 0.125000 -0.897000 1 0 1.000000 
0 32.112595 51.726799 -26.743601 0.000000 0.000000 -1.000000 0.625000 -0.897000 1 0 1.000000 
0 32.112602 -51.714699 -26.743601 0.000000 0.000000 -1.000000 0.375000 -0.897000 1 0 1.000000 
laundry_machines005
0 27.654102 -47.514000 -26.743601 0.000000 0.000000 -1.000000 0.125000 -0.897000 1 0 1.000000 
0 27.654099 47.595100 -26.743601 0.000000 0.000000 -1.000000 0.875000 -0.897000 1 0 1.000000 
0 32.112595 51.726799 -26.743601 0.000000 0.000000 -1.000000 0.625000 -0.897000 1 0 1.000000 
laundry_machines005
0 -27.677202 46.882099 -24.008900 0.000000 0.000000 1.000000 0.041900 -0.886200 1 0 1.000000 
0 -32.135597 -51.714699 -24.008900 0.000000 0.000000 1.000000 0.812200 -0.851400 1 0 1.000000 
0 -27.677198 -46.926998 -24.008900 0.000000 0.000000 1.000000 0.774800 -0.886200 1 0 1.000000 
laundry_machines005
0 -27.677202 46.882099 -24.008900 0.000000 0.000000 1.000000 0.041900 -0.886200 1 0 1.000000 
0 -32.135605 51.726799 -24.008900 0.000000 0.000000 1.000000 0.004100 -0.851400 1 0 1.000000 
0 -32.135597 -51.714699 -24.008900 0.000000 0.000000 1.000000 0.812200 -0.851400 1 0 1.000000 
laundry_machines005
0 27.352198 47.301300 -24.019501 0.000000 0.000000 1.000000 0.649900 -0.853700 1 0 1.000000 
0 -32.141403 51.711498 -24.019501 0.000000 0.000000 1.000000 0.185100 -0.888100 1 0 1.000000 
0 -28.041002 47.301300 -24.019501 0.000000 0.000000 1.000000 0.217100 -0.853700 1 0 1.000000 
laundry_machines005
0 27.352198 47.301300 -24.019501 0.000000 0.000000 1.000000 0.649900 -0.853700 1 0 1.000000 
0 32.141396 51.719501 -24.019501 0.000000 0.000000 1.000000 0.687300 -0.888200 1 0 1.000000 
0 -32.141403 51.711498 -24.019501 0.000000 0.000000 1.000000 0.185100 -0.888100 1 0 1.000000 
laundry_machines005
0 27.352198 47.088699 -26.754200 0.000000 0.000000 -1.000000 0.125000 -0.897000 1 0 1.000000 
0 -32.141403 51.711498 -26.754200 0.000000 0.000000 -1.000000 0.625000 -0.897000 1 0 1.000000 
0 32.141396 51.719501 -26.754200 0.000000 0.000000 -1.000000 0.375000 -0.897000 1 0 1.000000 
laundry_machines005
0 27.352198 47.088699 -26.754200 0.000000 0.000000 -1.000000 0.125000 -0.897000 1 0 1.000000 
0 -28.041002 47.088699 -26.754200 0.000000 0.000000 -1.000000 0.875000 -0.897000 1 0 1.000000 
0 -32.141403 51.711498 -26.754200 0.000000 0.000000 -1.000000 0.625000 -0.897000 1 0 1.000000 
laundry_machines005
0 -2.097198 -46.133301 33.681099 0.000000 0.000000 1.000000 0.239500 -0.000000 1 0 1.000000 
0 1.714498 46.145401 33.681099 0.000000 0.000000 1.000000 0.739500 -0.000000 1 0 1.000000 
0 -2.097202 46.145401 33.681099 0.000000 0.000000 1.000000 0.760500 -0.000000 1 0 1.000000 
laundry_machines005
0 -2.097198 -46.133301 33.681099 0.000000 0.000000 1.000000 0.239500 -0.000000 1 0 1.000000 
0 1.714502 -46.133301 33.681099 0.000000 0.000000 1.000000 0.260500 -0.000000 1 0 1.000000 
0 1.714498 46.145401 33.681099 0.000000 0.000000 1.000000 0.739500 -0.000000 1 0 1.000000 
laundry_machines005
0 -3.362098 -47.766499 30.522900 -0.928311 -0.000000 0.371804 1.233200 -0.046900 1 0 1.000000 
0 -2.097202 46.145401 33.681099 -0.928311 -0.000000 0.371804 0.760500 -0.000000 1 0 1.000000 
0 -3.362102 47.778599 30.522900 -0.928311 -0.000000 0.371804 0.766800 -0.046900 1 0 1.000000 
laundry_machines005
0 -3.362098 -47.766499 30.522900 -0.928311 -0.000000 0.371804 1.233200 -0.046900 1 0 1.000000 
0 -2.097198 -46.133301 33.681099 -0.928311 -0.000000 0.371804 1.239500 -0.000000 1 0 1.000000 
0 -2.097202 46.145401 33.681099 -0.928311 -0.000000 0.371804 0.760500 -0.000000 1 0 1.000000 
laundry_machines005
0 -28.036198 -46.834499 -26.743601 0.000000 0.000000 -1.000000 0.125000 -0.897000 1 0 1.000000 
0 32.120605 -51.718700 -26.743601 0.000000 0.000000 -1.000000 0.625000 -0.897000 1 0 1.000000 
0 -32.132195 -51.726700 -26.743601 0.000000 0.000000 -1.000000 0.375000 -0.897000 1 0 1.000000 
laundry_machines005
0 -28.036198 -46.834499 -26.743601 0.000000 0.000000 -1.000000 0.125000 -0.897000 1 0 1.000000 
0 27.408302 -46.834499 -26.743601 0.000000 0.000000 -1.000000 0.875000 -0.897000 1 0 1.000000 
0 32.120605 -51.718700 -26.743601 0.000000 0.000000 -1.000000 0.625000 -0.897000 1 0 1.000000 
laundry_machines005
0 -28.036198 -47.308498 -24.008900 0.000000 0.000000 1.000000 0.163800 -0.889300 1 0 1.000000 
0 32.120605 -51.718700 -24.008900 0.000000 0.000000 1.000000 0.633800 -0.854800 1 0 1.000000 
0 27.408302 -47.308498 -24.008900 0.000000 0.000000 1.000000 0.597000 -0.889300 1 0 1.000000 
laundry_machines005
0 -28.036198 -47.308498 -24.008900 0.000000 0.000000 1.000000 0.163800 -0.889300 1 0 1.000000 
0 -32.132195 -51.726700 -24.008900 0.000000 0.000000 1.000000 0.131800 -0.854700 1 0 1.000000 
0 32.120605 -51.718700 -24.008900 0.000000 0.000000 1.000000 0.633800 -0.854800 1 0 1.000000 
laundry_machines005
0 -30.073298 -50.025398 -20.147800 0.000000 -1.000000 0.000000 0.128600 -0.799100 1 0 1.000000 
0 -19.944399 -50.025398 11.759900 0.000000 -1.000000 0.000000 0.160300 -0.325400 1 0 1.000000 
0 -25.946697 -50.025398 12.518200 0.000000 -1.000000 0.000000 0.140300 -0.314200 1 0 1.000000 
laundry_machines005
0 -30.073298 -50.025398 -20.147800 0.000000 -1.000000 0.000000 0.128600 -0.799100 1 0 1.000000 
0 -24.070997 -50.025398 -20.906099 0.000000 -1.000000 0.000000 0.146100 -0.810400 1 0 1.000000 
0 -19.944399 -50.025398 11.759900 0.000000 -1.000000 0.000000 0.160300 -0.325400 1 0 1.000000 
laundry_machines005
0 25.300602 -50.025398 12.520200 0.000000 -1.000000 0.000000 0.358900 -0.314100 1 0 1.000000 
0 23.950201 -50.025398 -20.929399 0.000000 -1.000000 0.000000 0.354700 -0.810700 1 0 1.000000 
0 29.939901 -50.025398 -20.076900 0.000000 -1.000000 0.000000 0.372100 -0.798000 1 0 1.000000 
laundry_machines005
0 25.300602 -50.025398 12.520200 0.000000 -1.000000 0.000000 0.358900 -0.314100 1 0 1.000000 
0 19.311003 -50.025398 11.667700 0.000000 -1.000000 0.000000 0.338800 -0.326800 1 0 1.000000 
0 23.950201 -50.025398 -20.929399 0.000000 -1.000000 0.000000 0.354700 -0.810700 1 0 1.000000 
laundry_machines005
0 -25.685501 49.985401 12.520200 -0.000000 1.000000 0.000000 0.859000 -0.314100 1 0 1.000000 
0 -24.335102 49.985401 -20.929399 -0.000000 1.000000 0.000000 0.854800 -0.810700 1 0 1.000000 
0 -30.324701 49.985401 -20.076900 -0.000000 1.000000 0.000000 0.872200 -0.798000 1 0 1.000000 
laundry_machines005
0 -25.685501 49.985401 12.520200 -0.000000 1.000000 0.000000 0.859000 -0.314100 1 0 1.000000 
0 -19.695803 49.985401 11.667700 -0.000000 1.000000 0.000000 0.838900 -0.326800 1 0 1.000000 
0 -24.335102 49.985401 -20.929399 -0.000000 1.000000 0.000000 0.854800 -0.810700 1 0 1.000000 
laundry_machines005
0 25.460201 -50.459702 15.423200 0.704402 0.000000 0.709802 0.003300 -0.568700 1 0 1.000000 
0 10.699198 50.433399 31.716801 0.741097 0.000000 0.671398 0.807300 -0.439000 1 0 1.000000 
0 10.699202 -50.468201 31.716801 0.741052 0.010999 0.671357 0.003200 -0.441400 1 0 1.000000 
laundry_machines005
0 25.460201 -50.459702 15.423200 0.704402 0.000000 0.709802 0.003300 -0.568700 1 0 1.000000 
0 25.460197 50.434101 15.423200 0.704402 0.000000 0.709802 0.807300 -0.566300 1 0 1.000000 
0 10.699198 50.433399 31.716801 0.741097 0.000000 0.671398 0.807300 -0.439000 1 0 1.000000 
laundry_machines005
0 -25.842798 -50.459702 15.423200 -0.704402 -0.000000 0.709802 0.003300 -0.571100 1 0 1.000000 
0 -11.081802 50.433399 30.070000 -0.704402 -0.000000 0.709802 0.803400 -0.456700 1 0 1.000000 
0 -25.842802 50.434101 15.423200 -0.704402 -0.000000 0.709802 0.803400 -0.571100 1 0 1.000000 
laundry_machines005
0 -25.842798 -50.459702 15.423200 -0.704402 -0.000000 0.709802 0.003300 -0.571100 1 0 1.000000 
0 -11.081799 -50.468201 31.716801 -0.741052 0.010999 0.671357 0.003200 -0.443800 1 0 1.000000 
0 -11.081802 50.433399 30.070000 -0.704402 -0.000000 0.709802 0.803400 -0.456700 1 0 1.000000 
laundry_machines005
0 30.628899 51.102501 -19.976400 -0.001300 0.999999 -0.000400 1.000300 -1.001000 1 0 1.000000 
0 19.559498 49.985401 11.759900 -0.081703 0.996635 0.006600 0.917500 -0.621500 1 0 1.000000 
0 26.502197 51.102501 12.689600 -0.156204 0.987528 -0.019701 0.999000 -0.621300 1 0 1.000000 
laundry_machines005
0 30.628899 51.102501 -19.976400 -0.001300 0.999999 -0.000400 1.000300 -1.001000 1 0 1.000000 
0 23.742098 51.084499 -20.815599 -0.002500 0.999996 -0.000900 0.917300 -1.000500 1 0 1.000000 
0 19.559498 49.985401 11.759900 -0.081703 0.996635 0.006600 0.917500 -0.621500 1 0 1.000000 
laundry_machines005
0 24.304003 -25.859999 15.984300 0.724134 -0.013201 0.689533 0.407200 -0.262700 1 0 1.000000 
0 13.427399 25.872101 28.398300 0.725219 0.000000 0.688518 0.638500 -0.078400 1 0 1.000000 
0 12.460501 -25.860001 27.431400 0.661702 -0.026400 0.749302 0.355700 -0.092800 1 0 1.000000 
laundry_machines005
0 24.304003 -25.859999 15.984300 0.724134 -0.013201 0.689533 0.407200 -0.262700 1 0 1.000000 
0 24.303999 25.872103 15.984300 0.752120 0.012000 0.658917 0.592800 -0.262700 1 0 1.000000 
0 13.427399 25.872101 28.398300 0.725219 0.000000 0.688518 0.638500 -0.078400 1 0 1.000000 
laundry_machines005
0 -24.504002 25.872099 17.134300 -0.725219 -0.000000 0.688518 0.906700 -0.245600 1 0 1.000000 
0 -13.810099 -25.860001 28.398300 -0.725219 -0.000000 0.688518 1.138500 -0.078400 1 0 1.000000 
0 -12.843201 25.872101 27.431400 -0.661702 0.026400 0.749302 0.855700 -0.092800 1 0 1.000000 
laundry_machines005
0 -24.504002 25.872099 17.134300 -0.725219 -0.000000 0.688518 0.906700 -0.245600 1 0 1.000000 
0 -24.686598 -25.860003 15.984300 -0.752120 -0.012000 0.658917 1.093300 -0.245600 1 0 1.000000 
0 -13.810099 -25.860001 28.398300 -0.725219 -0.000000 0.688518 1.138500 -0.078400 1 0 1.000000 
laundry_machines005
0 30.695700 -20.879198 -18.229500 0.992118 0.000000 0.125302 0.321200 -0.435000 1 0 1.000000 
0 27.139700 21.508902 9.919500 0.992118 0.000000 0.125302 0.003200 -0.174200 1 0 1.000000 
0 25.783100 -20.879198 9.748200 0.984412 -0.032200 0.172902 0.321200 -0.174200 1 0 1.000000 
laundry_machines005
0 30.695700 -20.879198 -18.229500 0.992118 0.000000 0.125302 0.321200 -0.435000 1 0 1.000000 
0 29.339100 21.508902 -18.400801 0.996480 0.032199 0.077398 0.003200 -0.435000 1 0 1.000000 
0 27.139700 21.508902 9.919500 0.992118 0.000000 0.125302 0.003200 -0.174200 1 0 1.000000 
laundry_machines005
0 -11.081799 -50.468201 31.716801 0.000000 0.000000 1.000000 0.009100 -0.633400 1 0 1.000000 
0 10.699198 50.433399 31.716801 0.000000 0.000000 1.000000 0.797400 -0.463200 1 0 1.000000 
0 -11.081802 50.433399 30.070000 -0.075402 0.016300 0.997020 0.797400 -0.633400 1 0 1.000000 
laundry_machines005
0 -11.081799 -50.468201 31.716801 0.000000 0.000000 1.000000 0.009100 -0.633400 1 0 1.000000 
0 10.699202 -50.468201 31.716801 0.000000 0.000000 1.000000 0.009100 -0.463200 1 0 1.000000 
0 10.699198 50.433399 31.716801 0.000000 0.000000 1.000000 0.797400 -0.463200 1 0 1.000000 
laundry_machines005
0 -25.842802 50.434101 15.423200 -0.000000 1.000000 0.000000 0.364700 -0.573500 1 0 1.000000 
0 -11.081802 50.433399 30.070000 -0.000000 1.000000 0.000000 0.480000 -0.451800 1 0 1.000000 
0 10.699198 50.433399 31.716801 -0.000000 1.000000 0.000000 0.650200 -0.439000 1 0 1.000000 
laundry_machines005
0 -25.842802 50.434101 15.423200 -0.000000 1.000000 0.000000 0.364700 -0.573500 1 0 1.000000 
0 10.699198 50.433399 31.716801 -0.000000 1.000000 0.000000 0.650200 -0.439000 1 0 1.000000 
0 25.460197 50.434101 15.423200 -0.000000 1.000000 0.000000 0.765500 -0.573500 1 0 1.000000 
laundry_machines005
0 30.470398 50.434799 -25.338200 -0.000000 1.000000 0.000000 0.804700 -0.872600 1 0 1.000000 
0 -25.842802 50.434101 15.423200 -0.000000 1.000000 0.000000 0.364700 -0.573500 1 0 1.000000 
0 25.460197 50.434101 15.423200 -0.000000 1.000000 0.000000 0.765500 -0.573500 1 0 1.000000 
laundry_machines005
0 30.470398 50.434799 -25.338200 -0.000000 1.000000 0.000000 0.804700 -0.872600 1 0 1.000000 
0 -30.853003 50.434799 -25.338200 -0.000000 1.000000 0.000000 0.325600 -0.872600 1 0 1.000000 
0 -25.842802 50.434101 15.423200 -0.000000 1.000000 0.000000 0.364700 -0.573500 1 0 1.000000 
laundry_machines005
0 24.303999 25.872103 15.984300 -0.000000 1.000000 0.000000 0.592800 -0.262700 1 0 1.000000 
0 12.460499 25.872101 27.431400 -0.000000 1.000000 0.000000 0.644300 -0.092800 1 0 1.000000 
0 13.427399 25.872101 28.398300 -0.000000 1.000000 0.000000 0.638500 -0.078400 1 0 1.000000 
laundry_machines005
0 24.304003 -25.859999 15.984300 -0.000000 1.000000 0.000000 0.407200 -0.262700 1 0 1.000000 
0 24.303999 25.872103 15.984300 -0.000000 1.000000 0.000000 0.592800 -0.262700 1 0 1.000000 
0 25.677698 25.872103 17.262199 -0.000000 1.000000 0.000000 0.588800 -0.243700 1 0 1.000000 
laundry_machines005
0 24.304003 -25.859999 15.984300 -0.000000 1.000000 0.000000 0.407200 -0.262700 1 0 1.000000 
0 25.677698 25.872103 17.262199 -0.000000 1.000000 0.000000 0.588800 -0.243700 1 0 1.000000 
0 24.303999 25.872103 15.984300 -0.000000 1.000000 0.000000 0.592800 -0.262700 1 0 1.000000 
laundry_machines005
0 24.304003 -25.859999 15.984300 -0.000000 1.000000 0.000000 0.407200 -0.262700 1 0 1.000000 
0 25.677702 -25.859999 17.262199 -0.000000 1.000000 0.000000 0.411200 -0.243700 1 0 1.000000 
0 25.677698 25.872103 17.262199 -0.000000 1.000000 0.000000 0.588800 -0.243700 1 0 1.000000 
laundry_machines005
0 24.304003 -25.859999 15.984300 -0.000000 1.000000 0.000000 0.407200 -0.262700 1 0 1.000000 
0 25.677698 25.872103 17.262199 -0.000000 1.000000 0.000000 0.588800 -0.243700 1 0 1.000000 
0 25.677702 -25.859999 17.262199 -0.000000 1.000000 0.000000 0.411200 -0.243700 1 0 1.000000 
laundry_machines005
0 -30.950800 21.508898 -18.229500 -0.992118 -0.000000 0.125302 0.321200 -0.435000 1 0 1.000000 
0 -27.394699 -20.879202 9.919500 -0.992118 -0.000000 0.125302 0.003200 -0.174200 1 0 1.000000 
0 -26.038099 21.508898 9.748200 -0.984412 0.032200 0.172902 0.321200 -0.174200 1 0 1.000000 
laundry_machines005
0 -30.950800 21.508898 -18.229500 -0.992118 -0.000000 0.125302 0.321200 -0.435000 1 0 1.000000 
0 -29.594200 -20.879202 -18.400801 -0.996480 -0.032199 0.077398 0.003200 -0.435000 1 0 1.000000 
0 -27.394699 -20.879202 9.919500 -0.992118 -0.000000 0.125302 0.003200 -0.174200 1 0 1.000000 
laundry_machines005
0 -25.842798 -50.459702 15.423200 0.000000 -1.000000 -0.000400 0.049000 -0.571100 1 0 1.000000 
0 10.699202 -50.468201 31.716801 0.000000 -1.000000 0.000000 0.334400 -0.440500 1 0 1.000000 
0 -11.081799 -50.468201 31.716801 0.000000 -1.000000 0.000000 0.164300 -0.440500 1 0 1.000000 
laundry_machines005
0 -25.842798 -50.459702 15.423200 0.000000 -1.000000 -0.000400 0.049000 -0.571100 1 0 1.000000 
0 25.460201 -50.459702 15.423200 0.000000 -1.000000 -0.000400 0.449800 -0.571100 1 0 1.000000 
0 10.699202 -50.468201 31.716801 0.000000 -1.000000 0.000000 0.334400 -0.440500 1 0 1.000000 
laundry_machines005
0 30.470402 -50.451199 -25.338200 0.000000 -1.000000 -0.000200 0.486900 -0.863000 1 0 1.000000 
0 25.460201 -50.459702 15.423200 0.000000 -1.000000 -0.000400 0.449800 -0.571100 1 0 1.000000 
0 -25.842798 -50.459702 15.423200 0.000000 -1.000000 -0.000400 0.049000 -0.571100 1 0 1.000000 
laundry_machines005
0 30.470402 -50.451199 -25.338200 0.000000 -1.000000 -0.000200 0.486900 -0.863000 1 0 1.000000 
0 -25.842798 -50.459702 15.423200 0.000000 -1.000000 -0.000400 0.049000 -0.571100 1 0 1.000000 
0 -30.852999 -50.451199 -25.338200 0.000000 -1.000000 -0.000200 0.007800 -0.863000 1 0 1.000000 
laundry_machines005
0 12.460501 -25.860001 27.431400 -0.707107 -0.000000 0.707107 0.355700 -0.092800 1 0 1.000000 
0 13.427399 25.872101 28.398300 -0.707107 -0.000000 0.707107 0.638500 -0.078400 1 0 1.000000 
0 12.460499 25.872101 27.431400 -0.707107 -0.000000 0.707107 0.644300 -0.092800 1 0 1.000000 
laundry_machines005
0 29.688498 46.340000 -20.147800 0.179299 0.000000 -0.983795 0.622500 -0.799100 1 0 1.000000 
0 29.688498 49.985401 -20.147800 0.141801 0.041900 -0.989008 0.628500 -0.799100 1 0 1.000000 
0 30.628899 51.102501 -19.976400 0.159801 0.016800 -0.987006 0.627800 -0.796600 1 0 1.000000 
laundry_machines005
0 29.688498 49.985401 -20.147800 0.141801 0.041900 -0.989008 0.628500 -0.799100 1 0 1.000000 
0 23.742098 51.084499 -20.815599 0.122805 0.062803 -0.990442 0.647600 -0.809000 1 0 1.000000 
0 30.628899 51.102501 -19.976400 0.159801 0.016800 -0.987006 0.627800 -0.796600 1 0 1.000000 
laundry_machines005
0 29.688498 49.985401 -20.147800 0.141801 0.041900 -0.989008 0.628500 -0.799100 1 0 1.000000 
0 23.686197 49.985401 -20.906099 0.125001 0.075101 -0.989310 0.646100 -0.810400 1 0 1.000000 
0 23.742098 51.084499 -20.815599 0.122805 0.062803 -0.990442 0.647600 -0.809000 1 0 1.000000 
laundry_machines005
0 25.783100 -20.879198 9.748200 -0.125302 -0.000000 0.992118 0.312300 -0.178300 1 0 1.000000 
0 27.139700 21.508902 9.919500 -0.125302 -0.000000 0.992118 0.016700 -0.188900 1 0 1.000000 
0 25.783100 21.508902 9.748200 -0.125302 -0.000000 0.992118 0.016700 -0.178300 1 0 1.000000 
laundry_machines005
0 -15.749401 28.964100 28.699499 -0.996591 -0.000000 0.082499 0.863100 -0.074000 1 0 1.000000 
0 -14.022801 28.964100 26.282400 -0.813321 -0.001000 -0.581815 0.853900 -0.109800 1 0 1.000000 
0 -15.749401 27.045799 28.699499 -0.813321 -0.001000 -0.581815 0.868500 -0.074000 1 0 1.000000 
laundry_machines005
0 -13.857901 28.964100 30.591000 -0.707107 -0.000000 0.707107 0.853000 -0.045900 1 0 1.000000 
0 -15.749401 28.964100 28.699499 -0.996591 -0.000000 0.082499 0.863100 -0.074000 1 0 1.000000 
0 -13.857901 27.045799 30.591000 -0.707107 -0.000000 0.707107 0.858300 -0.045900 1 0 1.000000 
laundry_machines005
0 -15.749399 -27.086201 28.699499 -0.996591 -0.000000 0.082499 0.131700 -0.074000 1 0 1.000000 
0 -14.022799 -27.086201 26.282400 -0.813321 -0.001000 -0.581815 0.140900 -0.109800 1 0 1.000000 
0 -15.749399 -29.004601 28.699499 -0.813321 -0.001000 -0.581815 0.137100 -0.074000 1 0 1.000000 
laundry_machines005
0 -13.857899 -27.086201 30.591000 -0.707107 -0.000000 0.707107 0.141900 -0.045900 1 0 1.000000 
0 -15.749399 -27.086201 28.699499 -0.996591 -0.000000 0.082499 0.131700 -0.074000 1 0 1.000000 
0 -13.857899 -29.004601 30.591000 -0.707107 -0.000000 0.707107 0.147200 -0.045900 1 0 1.000000 
laundry_machines005
0 15.366801 -28.952000 28.699499 0.996591 0.000000 0.082499 0.363100 -0.074000 1 0 1.000000 
0 13.640201 -28.952000 26.282400 0.813321 0.001000 -0.581815 0.353900 -0.109800 1 0 1.000000 
0 15.366801 -27.033701 28.699499 0.813321 0.001000 -0.581815 0.368500 -0.074000 1 0 1.000000 
laundry_machines005
0 13.475301 -28.952000 30.591000 0.707107 0.000000 0.707107 0.353000 -0.045900 1 0 1.000000 
0 15.366801 -28.952000 28.699499 0.996591 0.000000 0.082499 0.363100 -0.074000 1 0 1.000000 
0 13.475301 -27.033701 30.591000 0.707107 0.000000 0.707107 0.358300 -0.045900 1 0 1.000000 
laundry_machines005
0 26.294601 -50.437698 16.290600 0.000000 -1.000000 0.000000 0.727400 -0.897300 1 0 1.000000 
0 23.221601 -50.437698 16.290600 0.000000 -1.000000 0.000000 0.703400 -0.897100 1 0 1.000000 
0 26.294601 -50.437698 14.378700 0.000000 -1.000000 0.000000 0.727300 -0.912300 1 0 1.000000 
laundry_machines005
0 29.339100 21.508902 -18.400801 -0.000000 1.000000 0.000000 0.309600 -0.408000 1 0 1.000000 
0 25.783100 21.508902 9.748200 -0.000000 1.000000 0.000000 0.310300 -0.186300 1 0 1.000000 
0 27.139700 21.508902 9.919500 -0.000000 1.000000 0.000000 0.299700 -0.186300 1 0 1.000000 
laundry_machines005
0 23.742098 51.084499 -20.815599 -0.991070 0.044499 -0.125696 0.647600 -0.809000 1 0 1.000000 
0 23.686197 49.985401 -20.906099 -0.990286 0.060699 -0.125098 0.646100 -0.810400 1 0 1.000000 
0 19.559498 49.985401 11.759900 -0.991070 0.044499 -0.125696 0.660200 -0.325400 1 0 1.000000 
laundry_machines005
0 -26.038099 21.508898 9.748200 0.125302 0.000000 0.992118 0.312300 -0.178300 1 0 1.000000 
0 -27.394699 -20.879202 9.919500 0.125302 0.000000 0.992118 0.016700 -0.188900 1 0 1.000000 
0 -26.038099 -20.879202 9.748200 0.125302 0.000000 0.992118 0.016700 -0.178300 1 0 1.000000 
laundry_machines005
0 25.561798 46.340000 12.518200 -0.179299 -0.000000 0.983795 0.634300 -0.314200 1 0 1.000000 
0 26.502197 51.102501 12.689600 -0.154196 -0.011600 0.987972 0.639100 -0.311600 1 0 1.000000 
0 25.561798 49.985401 12.518200 -0.152294 -0.023299 0.988060 0.640200 -0.314200 1 0 1.000000 
laundry_machines005
0 26.502197 51.102501 12.689600 -0.154196 -0.011600 0.987972 0.639100 -0.311600 1 0 1.000000 
0 19.559498 49.985401 11.759900 -0.128997 -0.023199 0.991374 0.660200 -0.325400 1 0 1.000000 
0 25.561798 49.985401 12.518200 -0.152294 -0.023299 0.988060 0.640200 -0.314200 1 0 1.000000 
laundry_machines005
0 -14.443601 27.966900 27.769699 -0.891001 -0.000000 -0.454001 0.858900 -0.087800 1 0 1.000000 
0 -14.443599 -27.954800 27.769699 -0.891001 -0.000000 -0.454001 1.141100 -0.087800 1 0 1.000000 
0 -15.119701 27.966900 29.096600 -0.891001 -0.000000 -0.454001 0.862600 -0.068100 1 0 1.000000 
laundry_machines005
0 -29.594200 -20.879202 -18.400801 0.000000 -1.000000 0.000000 0.309600 -0.408000 1 0 1.000000 
0 -26.038099 -20.879202 9.748200 0.000000 -1.000000 0.000000 0.310300 -0.186300 1 0 1.000000 
0 -27.394699 -20.879202 9.919500 0.000000 -1.000000 0.000000 0.299700 -0.186300 1 0 1.000000 
laundry_machines005
0 -13.763799 -27.954800 29.787399 0.891001 0.000000 0.454001 1.144900 -0.057800 1 0 1.000000 
0 -13.087699 -27.954800 28.460600 0.891001 0.000000 0.454001 1.148800 -0.077500 1 0 1.000000 
0 -13.087701 27.966900 28.460600 0.891001 0.000000 0.454001 0.851200 -0.077500 1 0 1.000000 
laundry_machines005
0 -29.594200 21.508898 -18.400801 -0.000000 1.000000 0.000000 0.026300 -0.403100 1 0 1.000000 
0 -30.950800 21.508898 -18.229500 -0.000000 1.000000 0.000000 0.015700 -0.403100 1 0 1.000000 
0 -26.038099 21.508898 9.748200 -0.000000 1.000000 0.000000 0.025200 -0.181400 1 0 1.000000 
laundry_machines005
0 13.381199 27.966900 29.787399 -0.891001 -0.000000 0.454001 0.644900 -0.057800 1 0 1.000000 
0 12.705099 27.966900 28.460600 -0.891001 -0.000000 0.454001 0.648800 -0.077500 1 0 1.000000 
0 12.705101 -27.954800 28.460600 -0.891001 -0.000000 0.454001 0.351200 -0.077500 1 0 1.000000 
laundry_machines005
0 -29.594200 21.508898 -18.400801 -0.125302 -0.000000 -0.992118 0.320200 -0.409400 1 0 1.000000 
0 -29.594200 -20.879202 -18.400801 -0.125302 -0.000000 -0.992118 0.012300 -0.409400 1 0 1.000000 
0 -30.950800 21.508898 -18.229500 -0.125302 -0.000000 -0.992118 0.320200 -0.420000 1 0 1.000000 
laundry_machines005
0 14.061001 -27.954800 27.769699 0.891001 0.000000 -0.454001 0.358900 -0.087800 1 0 1.000000 
0 14.060999 27.966900 27.769699 0.891001 0.000000 -0.454001 0.641100 -0.087800 1 0 1.000000 
0 14.737101 -27.954800 29.096600 0.891001 0.000000 -0.454001 0.362600 -0.068100 1 0 1.000000 
end
