version 1
nodes
  0 "static_prop" -1
end
skeleton
time 0
0 0.000000 0.000000 0.000000 0.000000 0.000000 0.000000
end
triangles
plasterwall039c
0 -4.358100 13.529800 90.882797 -0.000000 0.892620 -0.450810 0.915300 -0.806800 1 0 1.000000 
0 4.143000 13.529800 90.882797 -0.000000 0.892620 -0.450810 0.981700 -0.806800 1 0 1.000000 
0 -4.237700 12.522400 88.888100 -0.000000 0.892620 -0.450810 0.916200 -0.824100 1 0 1.000000 
plasterwall039c
0 3.014100 10.682500 86.499199 -0.004200 0.808915 -0.587911 0.972900 -0.847600 1 0 1.000000 
0 -2.964200 10.626900 86.465797 0.003200 0.793092 -0.609094 0.926200 -0.848100 1 0 1.000000 
0 3.014100 11.635300 87.810204 0.003200 0.793092 -0.609094 0.972900 -0.835000 1 0 1.000000 
plasterwall039c
0 -2.964200 11.611400 87.747803 0.003200 0.793092 -0.609094 0.926200 -0.835500 1 0 1.000000 
0 3.014100 11.635300 87.810204 0.003200 0.793092 -0.609094 0.972900 -0.835000 1 0 1.000000 
0 -2.964200 10.626900 86.465797 0.003200 0.793092 -0.609094 0.926200 -0.848100 1 0 1.000000 
plasterwall039c
0 -4.237700 12.522400 88.888100 0.003400 0.783093 -0.621895 0.916200 -0.824100 1 0 1.000000 
0 3.014100 11.635300 87.810204 0.003200 0.793092 -0.609094 0.972900 -0.835000 1 0 1.000000 
0 -2.964200 11.611400 87.747803 0.003200 0.793092 -0.609094 0.926200 -0.835500 1 0 1.000000 
plasterwall039c
0 1.554900 7.304300 83.454903 -0.000000 0.900522 -0.434811 0.961500 -0.882200 1 0 1.000000 
0 -1.119000 7.304300 83.454903 -0.000000 0.900522 -0.434811 0.940600 -0.882200 1 0 1.000000 
0 1.554900 7.994300 84.883598 -0.000000 0.900522 -0.434811 0.961500 -0.869900 1 0 1.000000 
plasterwall039c
0 4.378300 9.890200 106.678802 0.203597 0.085799 0.975288 0.056400 -0.825700 1 0 1.000000 
0 -1.813801 12.897400 107.707100 0.203597 0.085799 0.975288 0.034400 -0.874100 1 0 1.000000 
0 -1.813800 10.054900 107.957100 0.203597 0.085799 0.975288 0.056700 -0.874100 1 0 1.000000 
plasterwall039c
0 4.378300 12.692600 106.413902 0.206500 0.092100 0.974102 0.034400 -0.825700 1 0 1.000000 
0 -1.813801 12.897400 107.707100 0.203597 0.085799 0.975288 0.034400 -0.874100 1 0 1.000000 
0 4.378300 9.890200 106.678802 0.203597 0.085799 0.975288 0.056400 -0.825700 1 0 1.000000 
plasterwall039c
0 -4.358100 13.529800 90.882797 -0.000000 0.921874 -0.387489 0.915300 -0.806800 1 0 1.000000 
0 -5.113801 14.654200 93.557602 -0.000000 0.921874 -0.387489 0.909400 -0.784600 1 0 1.000000 
0 4.143000 14.625700 93.489601 -0.000000 0.921874 -0.387489 0.981700 -0.785200 1 0 1.000000 
plasterwall039c
0 4.143000 14.625700 93.489601 -0.000000 0.921874 -0.387489 0.981700 -0.785200 1 0 1.000000 
0 4.143000 13.529800 90.882797 -0.000000 0.921874 -0.387489 0.981700 -0.806800 1 0 1.000000 
0 -4.358100 13.529800 90.882797 -0.000000 0.921874 -0.387489 0.915300 -0.806800 1 0 1.000000 
plasterwall039c
0 -1.813800 10.054900 107.957100 -0.206401 0.085701 0.974707 0.056700 -0.874100 1 0 1.000000 
0 -8.005901 12.692600 106.413902 -0.206401 0.085701 0.974707 0.034400 -0.922400 1 0 1.000000 
0 -8.005900 9.815700 106.685799 -0.203698 0.092099 0.974692 0.057000 -0.922400 1 0 1.000000 
plasterwall039c
0 -1.813801 12.897400 107.707100 -0.206401 0.085701 0.974707 0.034400 -0.874100 1 0 1.000000 
0 -8.005901 12.692600 106.413902 -0.206401 0.085701 0.974707 0.034400 -0.922400 1 0 1.000000 
0 -1.813800 10.054900 107.957100 -0.206401 0.085701 0.974707 0.056700 -0.874100 1 0 1.000000 
plasterwall039c
0 -2.964200 1.872400 93.340698 -0.224209 -0.974539 -0.002200 0.903200 -0.904200 1 0 1.000000 
0 2.514900 0.605400 96.152603 -0.224209 -0.974539 -0.002200 0.946000 -0.884000 1 0 1.000000 
0 -5.485000 2.446600 95.860901 -0.224209 -0.974539 -0.002200 0.883500 -0.884000 1 0 1.000000 
plasterwall039c
0 2.514900 0.605400 96.152603 -0.224209 -0.974539 -0.002200 0.946000 -0.884000 1 0 1.000000 
0 -0.005900 1.179500 98.672798 -0.224209 -0.974539 -0.002200 0.926300 -0.863900 1 0 1.000000 
0 -5.485000 2.446600 95.860901 -0.224209 -0.974539 -0.002200 0.883500 -0.884000 1 0 1.000000 
plasterwall039c
0 -5.485000 2.446600 95.860901 -0.224209 -0.974539 -0.002200 0.883500 -0.884000 1 0 1.000000 
0 -0.005900 1.179500 98.672798 -0.224209 -0.974539 -0.002200 0.926300 -0.863900 1 0 1.000000 
0 -8.005900 3.020800 98.381203 -0.224209 -0.974539 -0.002200 0.863800 -0.863900 1 0 1.000000 
plasterwall039c
0 3.014100 11.613300 89.032097 0.097601 0.661006 -0.744006 0.972900 -0.827200 1 0 1.000000 
0 -4.237700 12.522400 88.888100 0.097601 0.661006 -0.744006 0.916200 -0.824100 1 0 1.000000 
0 4.143000 13.529800 90.882797 0.097601 0.661006 -0.744006 0.981700 -0.806800 1 0 1.000000 
plasterwall039c
0 -2.964200 8.168100 84.988098 0.023100 0.882687 -0.469393 0.926200 -0.868500 1 0 1.000000 
0 1.554900 7.994300 84.883598 0.023100 0.882687 -0.469393 0.961500 -0.869900 1 0 1.000000 
0 -1.119000 7.304300 83.454903 0.023100 0.882687 -0.469393 0.940600 -0.882200 1 0 1.000000 
plasterwall039c
0 4.378300 15.759100 105.136497 0.121793 0.504373 0.854853 0.009200 -0.825700 1 0 1.000000 
0 -2.540001 15.949400 106.009804 0.121793 0.504373 0.854853 0.010100 -0.879700 1 0 1.000000 
0 -1.813801 12.897400 107.707100 0.121793 0.504373 0.854853 0.034400 -0.874100 1 0 1.000000 
plasterwall039c
0 7.994100 4.956601 101.577103 0.430790 -0.828280 0.358291 0.988800 -0.836900 1 0 1.000000 
0 4.238300 2.981900 101.527702 0.430790 -0.828280 0.358291 0.959400 -0.839600 1 0 1.000000 
0 7.994100 3.538700 98.299103 0.430790 -0.828280 0.358291 0.988800 -0.863900 1 0 1.000000 
plasterwall039c
0 -2.513400 7.562900 109.571198 0.188194 0.496185 0.847575 0.077900 -0.879500 1 0 1.000000 
0 4.378300 9.890200 106.678802 0.188194 0.496185 0.847575 0.056400 -0.825700 1 0 1.000000 
0 -1.813800 10.054900 107.957100 0.188194 0.496185 0.847575 0.056700 -0.874100 1 0 1.000000 
plasterwall039c
0 7.994100 4.956601 101.577103 0.551704 -0.546204 0.630305 0.988800 -0.836900 1 0 1.000000 
0 4.378300 4.698900 104.518898 0.551704 -0.546204 0.630305 0.960500 -0.814500 1 0 1.000000 
0 4.238300 2.898100 103.080803 0.551704 -0.546204 0.630305 0.959400 -0.827800 1 0 1.000000 
plasterwall039c
0 -8.005900 4.535299 105.780502 -0.168899 -0.834994 0.523696 0.863800 -0.804900 1 0 1.000000 
0 -1.813800 3.396000 105.960999 -0.168899 -0.834994 0.523696 0.912200 -0.804900 1 0 1.000000 
0 -1.813800 5.084200 108.652603 -0.168899 -0.834994 0.523696 0.912200 -0.782100 1 0 1.000000 
plasterwall039c
0 4.238300 2.898100 103.080803 -0.175298 -0.983088 -0.052999 0.959400 -0.827800 1 0 1.000000 
0 -1.813800 4.070200 101.355301 -0.175298 -0.983088 -0.052999 0.912200 -0.839600 1 0 1.000000 
0 4.238300 2.981900 101.527702 -0.175298 -0.983088 -0.052999 0.959400 -0.839600 1 0 1.000000 
plasterwall039c
0 4.378300 4.698900 104.518898 0.171904 -0.974723 -0.142703 0.960500 -0.814500 1 0 1.000000 
0 -1.813800 3.396000 105.960999 0.171904 -0.974723 -0.142703 0.912200 -0.804900 1 0 1.000000 
0 -1.813800 4.070200 101.355301 0.171904 -0.974723 -0.142703 0.912200 -0.839600 1 0 1.000000 
plasterwall039c
0 -8.005900 4.070199 101.355301 0.000000 -0.943029 0.332710 0.863800 -0.839600 1 0 1.000000 
0 -8.005900 3.020800 98.381203 0.000000 -0.943029 0.332710 0.863800 -0.863900 1 0 1.000000 
0 -1.813800 4.070200 101.355301 0.000000 -0.943029 0.332710 0.912200 -0.839600 1 0 1.000000 
plasterwall039c
0 -1.813800 4.070200 101.355301 -0.148904 -0.721120 0.676619 0.912200 -0.839600 1 0 1.000000 
0 -0.005900 1.179500 98.672798 -0.148904 -0.721120 0.676619 0.926300 -0.863900 1 0 1.000000 
0 4.238300 2.981900 101.527702 -0.148904 -0.721120 0.676619 0.959400 -0.839600 1 0 1.000000 
plasterwall039c
0 2.514900 -0.054300 93.282402 -0.322202 -0.922605 0.212101 0.946000 -0.907000 1 0 1.000000 
0 2.514900 0.605400 96.152603 -0.322202 -0.922605 0.212101 0.946000 -0.884000 1 0 1.000000 
0 -2.964200 1.872400 93.340698 -0.322202 -0.922605 0.212101 0.903200 -0.904200 1 0 1.000000 
plasterwall039c
0 2.515000 1.196300 89.103104 -0.321793 -0.907080 -0.271394 0.946000 -0.937700 1 0 1.000000 
0 2.514900 -0.054300 93.282402 -0.321793 -0.907080 -0.271394 0.946000 -0.907000 1 0 1.000000 
0 -2.964200 1.872400 93.340698 -0.321793 -0.907080 -0.271394 0.903200 -0.904200 1 0 1.000000 
plasterwall039c
0 7.994100 3.403500 95.345901 0.459202 -0.887404 0.040600 0.988800 -0.886800 1 0 1.000000 
0 7.994100 3.538700 98.299103 0.459202 -0.887404 0.040600 0.988800 -0.863900 1 0 1.000000 
0 2.514900 0.605400 96.152603 0.459202 -0.887404 0.040600 0.946000 -0.884000 1 0 1.000000 
plasterwall039c
0 -2.964200 2.611600 87.637604 0.000000 -0.719300 -0.694700 0.021900 -0.876100 1 0 1.000000 
0 7.994100 1.196300 89.103104 0.000000 -0.719300 -0.694700 0.009200 -0.790500 1 0 1.000000 
0 -2.964200 1.196300 89.103104 0.000000 -0.719300 -0.694700 0.009200 -0.876100 1 0 1.000000 
plasterwall039c
0 7.994100 1.701400 92.640900 0.316402 -0.802906 0.505204 0.988800 -0.909800 1 0 1.000000 
0 7.994100 3.403500 95.345901 0.316402 -0.802906 0.505204 0.988800 -0.886800 1 0 1.000000 
0 2.514900 -0.054300 93.282402 0.316402 -0.802906 0.505204 0.946000 -0.907000 1 0 1.000000 
plasterwall039c
0 -2.964200 4.913200 86.156601 0.028500 -0.540902 -0.840603 0.041500 -0.876100 1 0 1.000000 
0 7.994100 4.225201 86.971100 0.028500 -0.540902 -0.840603 0.035200 -0.790500 1 0 1.000000 
0 -2.964200 2.611600 87.637604 0.028500 -0.540902 -0.840603 0.021900 -0.876100 1 0 1.000000 
plasterwall039c
0 7.994100 1.701400 92.640900 0.316610 -0.939028 0.134104 0.988800 -0.909800 1 0 1.000000 
0 2.514900 -0.054300 93.282402 0.316610 -0.939028 0.134104 0.946000 -0.907000 1 0 1.000000 
0 7.994100 1.196300 89.103104 0.316610 -0.939028 0.134104 0.988800 -0.937700 1 0 1.000000 
plasterwall039c
0 7.994100 1.196300 89.103104 0.035002 -0.575230 -0.817242 0.009200 -0.790500 1 0 1.000000 
0 -2.964200 2.611600 87.637604 0.035002 -0.575230 -0.817242 0.021900 -0.876100 1 0 1.000000 
0 7.994100 4.225201 86.971100 0.035002 -0.575230 -0.817242 0.035200 -0.790500 1 0 1.000000 
plasterwall039c
0 2.515000 1.196300 89.103104 0.000000 -0.958019 -0.286706 0.946000 -0.937700 1 0 1.000000 
0 7.994100 1.196300 89.103104 0.000000 -0.958019 -0.286706 0.988800 -0.937700 1 0 1.000000 
0 2.514900 -0.054300 93.282402 0.000000 -0.958019 -0.286706 0.946000 -0.907000 1 0 1.000000 
plasterwall039c
0 -2.964200 4.913200 86.156601 -0.030801 -0.928717 -0.369507 0.041500 -0.876100 1 0 1.000000 
0 1.554900 5.650100 83.927101 -0.030801 -0.928717 -0.369507 0.049900 -0.840800 1 0 1.000000 
0 7.994100 4.225201 86.971100 -0.030801 -0.928717 -0.369507 0.035200 -0.790500 1 0 1.000000 
plasterwall039c
0 -2.964200 1.196300 89.103104 0.000000 -0.987503 0.157600 0.903200 -0.937700 1 0 1.000000 
0 2.515000 1.196300 89.103104 0.000000 -0.987503 0.157600 0.946000 -0.937700 1 0 1.000000 
0 -2.964200 1.872400 93.340698 0.000000 -0.987503 0.157600 0.903200 -0.904200 1 0 1.000000 
plasterwall039c
0 -1.119000 5.650100 83.927101 0.000000 -0.949490 -0.313797 0.049900 -0.861700 1 0 1.000000 
0 1.554900 5.650100 83.927101 0.000000 -0.949490 -0.313797 0.049900 -0.840800 1 0 1.000000 
0 -2.964200 4.913200 86.156601 0.000000 -0.949490 -0.313797 0.041500 -0.876100 1 0 1.000000 
plasterwall039c
0 2.514900 0.605400 96.152603 0.270507 -0.844120 0.462911 0.946000 -0.884000 1 0 1.000000 
0 7.994100 3.538700 98.299103 0.270507 -0.844120 0.462911 0.988800 -0.863900 1 0 1.000000 
0 -0.005900 1.179500 98.672798 0.270507 -0.844120 0.462911 0.926300 -0.863900 1 0 1.000000 
plasterwall039c
0 1.554900 5.650100 83.927101 0.000000 -0.274497 -0.961588 0.049900 -0.840800 1 0 1.000000 
0 -1.119000 5.650100 83.927101 0.000000 -0.274497 -0.961588 0.049900 -0.861700 1 0 1.000000 
0 1.554900 7.304300 83.454903 0.000000 -0.274497 -0.961588 0.063200 -0.840800 1 0 1.000000 
plasterwall039c
0 -1.119000 7.304300 83.454903 0.000000 -0.274497 -0.961588 0.063200 -0.861700 1 0 1.000000 
0 1.554900 7.304300 83.454903 0.000000 -0.274497 -0.961588 0.063200 -0.840800 1 0 1.000000 
0 -1.119000 5.650100 83.927101 0.000000 -0.274497 -0.961588 0.049900 -0.861700 1 0 1.000000 
plasterwall039c
0 1.554900 7.994300 84.883598 -0.000000 0.515113 -0.857122 0.961500 -0.869900 1 0 1.000000 
0 -2.964200 8.168100 84.988098 -0.000000 0.515113 -0.857122 0.926200 -0.868500 1 0 1.000000 
0 3.014100 10.682500 86.499199 -0.000000 0.515113 -0.857122 0.972900 -0.847600 1 0 1.000000 
plasterwall039c
0 -2.964200 10.626900 86.465797 -0.000000 0.515113 -0.857122 0.926200 -0.848100 1 0 1.000000 
0 3.014100 10.682500 86.499199 -0.000000 0.515113 -0.857122 0.972900 -0.847600 1 0 1.000000 
0 -2.964200 8.168100 84.988098 -0.000000 0.515113 -0.857122 0.926200 -0.868500 1 0 1.000000 
plasterwall039c
0 3.014100 11.635300 87.810204 0.124002 0.992120 0.017900 0.972900 -0.835000 1 0 1.000000 
0 -4.237700 12.522400 88.888100 0.124002 0.992120 0.017900 0.916200 -0.824100 1 0 1.000000 
0 3.014100 11.613300 89.032097 0.124002 0.992120 0.017900 0.972900 -0.827200 1 0 1.000000 
plasterwall039c
0 4.238300 2.981900 101.527702 0.286003 -0.943010 0.170102 0.959400 -0.839600 1 0 1.000000 
0 -0.005900 1.179500 98.672798 0.286003 -0.943010 0.170102 0.926300 -0.863900 1 0 1.000000 
0 7.994100 3.538700 98.299103 0.286003 -0.943010 0.170102 0.988800 -0.863900 1 0 1.000000 
plasterwall039c
0 4.143000 14.625700 93.489601 -0.003300 0.676260 -0.736656 0.981700 -0.785200 1 0 1.000000 
0 -5.113801 14.654200 93.557602 -0.003300 0.676260 -0.736656 0.909400 -0.784600 1 0 1.000000 
0 -5.113801 15.586400 94.413300 -0.003300 0.676260 -0.736656 0.909400 -0.775000 1 0 1.000000 
plasterwall039c
0 -1.813800 4.070200 101.355301 -0.191794 -0.729376 0.656678 0.912200 -0.839600 1 0 1.000000 
0 -8.005900 3.020800 98.381203 -0.191794 -0.729376 0.656678 0.863800 -0.863900 1 0 1.000000 
0 -0.005900 1.179500 98.672798 -0.191794 -0.729376 0.656678 0.926300 -0.863900 1 0 1.000000 
plasterwall039c
0 -5.113801 15.586400 94.413300 -0.018401 0.595120 -0.803426 0.909400 -0.775000 1 0 1.000000 
0 5.283199 15.582200 94.171898 -0.018401 0.595120 -0.803426 0.990600 -0.776500 1 0 1.000000 
0 4.143000 14.625700 93.489601 -0.018401 0.595120 -0.803426 0.981700 -0.785200 1 0 1.000000 
plasterwall039c
0 -1.813800 4.070200 101.355301 0.000000 -0.989462 -0.144794 0.912200 -0.839600 1 0 1.000000 
0 -1.813800 3.396000 105.960999 0.000000 -0.989462 -0.144794 0.912200 -0.804900 1 0 1.000000 
0 -8.005900 4.070199 101.355301 0.000000 -0.989462 -0.144794 0.863800 -0.839600 1 0 1.000000 
plasterwall039c
0 7.994100 3.403500 95.345901 0.468780 -0.860863 0.197891 0.988800 -0.886800 1 0 1.000000 
0 2.514900 0.605400 96.152603 0.468780 -0.860863 0.197891 0.946000 -0.884000 1 0 1.000000 
0 2.514900 -0.054300 93.282402 0.468780 -0.860863 0.197891 0.946000 -0.907000 1 0 1.000000 
plasterwall039c
0 4.378300 4.698900 104.518898 0.225202 -0.970109 0.090401 0.960500 -0.814500 1 0 1.000000 
0 4.378300 5.084200 108.652603 0.225202 -0.970109 0.090401 0.960500 -0.782100 1 0 1.000000 
0 -1.813800 3.396000 105.960999 0.225202 -0.970109 0.090401 0.912200 -0.804900 1 0 1.000000 
plasterwall039c
0 4.378300 6.245900 108.552597 0.161506 0.084603 0.983238 0.086800 -0.825700 1 0 1.000000 
0 -2.513400 7.562900 109.571198 0.161506 0.084603 0.983238 0.077900 -0.879500 1 0 1.000000 
0 4.378300 5.084200 108.652603 0.161506 0.084603 0.983238 0.095900 -0.825700 1 0 1.000000 
plasterwall039c
0 4.238300 2.898100 103.080803 -0.325410 -0.574518 0.751024 0.959400 -0.827800 1 0 1.000000 
0 4.378300 4.698900 104.518898 -0.325410 -0.574518 0.751024 0.960500 -0.814500 1 0 1.000000 
0 -1.813800 4.070200 101.355301 -0.325410 -0.574518 0.751024 0.912200 -0.839600 1 0 1.000000 
plasterwall039c
0 -8.005900 5.084199 108.652603 0.000000 -0.141407 0.989951 0.095900 -0.922400 1 0 1.000000 
0 -1.813800 5.084200 108.652603 0.000000 -0.141407 0.989951 0.095900 -0.874100 1 0 1.000000 
0 -8.005900 6.340499 108.832001 0.000000 -0.141407 0.989951 0.086400 -0.922400 1 0 1.000000 
plasterwall039c
0 -1.813800 5.084200 108.652603 0.000000 -0.141407 0.989951 0.095900 -0.874100 1 0 1.000000 
0 4.378300 5.084200 108.652603 0.000000 -0.141407 0.989951 0.095900 -0.825700 1 0 1.000000 
0 -8.005900 6.340499 108.832001 0.000000 -0.141407 0.989951 0.086400 -0.922400 1 0 1.000000 
plasterwall039c
0 7.994100 8.008600 101.802101 0.884699 -0.034300 0.464899 0.066900 -0.780500 1 0 1.000000 
0 4.378300 6.245900 108.552597 0.884699 -0.034300 0.464899 0.086800 -0.825700 1 0 1.000000 
0 7.994100 4.956601 101.577103 0.884699 -0.034300 0.464899 0.090200 -0.780500 1 0 1.000000 
plasterwall039c
0 -1.813800 5.084200 108.652603 0.000000 -0.847188 0.531293 0.912200 -0.782100 1 0 1.000000 
0 -1.813800 3.396000 105.960999 0.000000 -0.847188 0.531293 0.912200 -0.804900 1 0 1.000000 
0 4.378300 5.084200 108.652603 0.000000 -0.847188 0.531293 0.960500 -0.782100 1 0 1.000000 
plasterwall039c
0 7.994100 4.956601 101.577103 0.890053 0.039098 0.454176 0.090200 -0.780500 1 0 1.000000 
0 4.378300 6.245900 108.552597 0.890053 0.039098 0.454176 0.086800 -0.825700 1 0 1.000000 
0 4.378300 5.084200 108.652603 0.890053 0.039098 0.454176 0.095900 -0.825700 1 0 1.000000 
plasterwall039c
0 -8.005900 4.535299 105.780502 -0.182907 -0.977740 0.102804 0.863800 -0.804900 1 0 1.000000 
0 -8.005900 4.070199 101.355301 -0.182907 -0.977740 0.102804 0.863800 -0.839600 1 0 1.000000 
0 -1.813800 3.396000 105.960999 -0.182907 -0.977740 0.102804 0.912200 -0.804900 1 0 1.000000 
plasterwall039c
0 7.994100 4.956601 101.577103 0.144897 -0.985179 0.091798 0.988800 -0.836900 1 0 1.000000 
0 4.378300 5.084200 108.652603 0.144897 -0.985179 0.091798 0.960500 -0.782100 1 0 1.000000 
0 4.378300 4.698900 104.518898 0.144897 -0.985179 0.091798 0.960500 -0.814500 1 0 1.000000 
plasterwall039c
0 -8.005900 5.084199 108.652603 0.000000 -0.982225 0.187705 0.863800 -0.782100 1 0 1.000000 
0 -8.005900 4.535299 105.780502 0.000000 -0.982225 0.187705 0.863800 -0.804900 1 0 1.000000 
0 -1.813800 5.084200 108.652603 0.000000 -0.982225 0.187705 0.912200 -0.782100 1 0 1.000000 
plasterwall039c
0 7.994100 4.956601 101.577103 0.465330 -0.883856 -0.047603 0.988800 -0.836900 1 0 1.000000 
0 4.238300 2.898100 103.080803 0.465330 -0.883856 -0.047603 0.959400 -0.827800 1 0 1.000000 
0 4.238300 2.981900 101.527702 0.465330 -0.883856 -0.047603 0.959400 -0.839600 1 0 1.000000 
plasterwall039c
0 7.994100 14.737000 105.127602 0.110297 0.382191 0.917477 0.019100 -0.780500 1 0 1.000000 
0 4.378300 15.759100 105.136497 0.110297 0.382191 0.917477 0.009200 -0.825700 1 0 1.000000 
0 4.378300 12.692600 106.413902 0.110297 0.382191 0.917477 0.034400 -0.825700 1 0 1.000000 
plasterwall039c
0 7.994100 8.008600 101.802101 0.793101 0.331001 0.511301 0.066900 -0.780500 1 0 1.000000 
0 4.378300 8.054500 107.381599 0.793101 0.331001 0.511301 0.071400 -0.825700 1 0 1.000000 
0 4.378300 6.245900 108.552597 0.793101 0.331001 0.511301 0.086800 -0.825700 1 0 1.000000 
plasterwall039c
0 7.994100 10.253400 101.862198 0.796394 0.056900 0.602095 0.049700 -0.780500 1 0 1.000000 
0 4.378300 12.692600 106.413902 0.796394 0.056900 0.602095 0.034400 -0.825700 1 0 1.000000 
0 4.378300 9.890200 106.678802 0.796394 0.056900 0.602095 0.056400 -0.825700 1 0 1.000000 
plasterwall039c
0 7.994100 10.253400 101.862198 0.839016 -0.014600 0.543910 0.049700 -0.780500 1 0 1.000000 
0 4.378300 8.054500 107.381599 0.839016 -0.014600 0.543910 0.071400 -0.825700 1 0 1.000000 
0 7.994100 8.008600 101.802101 0.839016 -0.014600 0.543910 0.066900 -0.780500 1 0 1.000000 
plasterwall039c
0 7.994100 10.253400 101.862198 0.770313 0.228004 0.595510 0.049700 -0.780500 1 0 1.000000 
0 4.378300 9.890200 106.678802 0.770313 0.228004 0.595510 0.056400 -0.825700 1 0 1.000000 
0 4.378300 8.054500 107.381599 0.770313 0.228004 0.595510 0.071400 -0.825700 1 0 1.000000 
plasterwall039c
0 7.994100 10.253400 101.862198 0.547995 -0.473895 0.689293 0.049700 -0.780500 1 0 1.000000 
0 7.994100 13.247900 103.921204 0.547995 -0.473895 0.689293 0.029100 -0.780500 1 0 1.000000 
0 4.378300 12.692600 106.413902 0.547995 -0.473895 0.689293 0.034400 -0.825700 1 0 1.000000 
plasterwall039c
0 -8.005901 12.692600 106.413902 -0.192711 0.501627 0.843346 0.034400 -0.922400 1 0 1.000000 
0 -1.813801 12.897400 107.707100 -0.192711 0.501627 0.843346 0.034400 -0.874100 1 0 1.000000 
0 -8.005901 13.460400 105.957199 -0.192711 0.501627 0.843346 0.028000 -0.922400 1 0 1.000000 
plasterwall039c
0 7.994100 13.247900 103.921204 0.534508 -0.532008 0.656710 0.029100 -0.780500 1 0 1.000000 
0 7.994100 14.737000 105.127602 0.534508 -0.532008 0.656710 0.019100 -0.780500 1 0 1.000000 
0 4.378300 12.692600 106.413902 0.534508 -0.532008 0.656710 0.034400 -0.825700 1 0 1.000000 
plasterwall039c
0 -2.513400 7.562900 109.571198 -0.029199 -0.417788 0.908075 0.077900 -0.879500 1 0 1.000000 
0 -8.005900 6.340499 108.832001 -0.029199 -0.417788 0.908075 0.086400 -0.922400 1 0 1.000000 
0 4.378300 5.084200 108.652603 -0.029199 -0.417788 0.908075 0.095900 -0.825700 1 0 1.000000 
plasterwall039c
0 7.994100 14.737000 105.127602 0.000000 -0.008700 0.999962 0.019100 -0.780500 1 0 1.000000 
0 7.994100 15.759100 105.136497 0.000000 -0.008700 0.999962 0.011200 -0.780500 1 0 1.000000 
0 4.378300 15.759100 105.136497 0.000000 -0.008700 0.999962 0.009200 -0.825700 1 0 1.000000 
plasterwall039c
0 -8.005900 7.410999 108.612000 -0.104903 0.881224 0.460912 0.077900 -0.922400 1 0 1.000000 
0 -2.513400 7.562900 109.571198 -0.104903 0.881224 0.460912 0.077900 -0.879500 1 0 1.000000 
0 -8.005900 8.054500 107.381599 -0.104903 0.881224 0.460912 0.071400 -0.922400 1 0 1.000000 
plasterwall039c
0 7.994100 14.983900 94.848503 -0.000000 0.362494 -0.931986 0.129700 -0.855400 1 0 1.000000 
0 6.722400 15.598200 95.087402 -0.000000 0.362494 -0.931986 0.139800 -0.854300 1 0 1.000000 
0 7.994100 15.598200 95.087402 -0.000000 0.362494 -0.931986 0.132800 -0.851700 1 0 1.000000 
plasterwall039c
0 4.378300 8.054500 107.381599 0.222206 0.529914 0.818422 0.071400 -0.825700 1 0 1.000000 
0 -2.513400 7.562900 109.571198 0.222206 0.529914 0.818422 0.077900 -0.879500 1 0 1.000000 
0 4.378300 6.245900 108.552597 0.222206 0.529914 0.818422 0.086800 -0.825700 1 0 1.000000 
plasterwall039c
0 7.994100 14.983900 94.848503 0.302705 0.817413 -0.490108 0.129700 -0.855400 1 0 1.000000 
0 5.283199 15.582200 94.171898 0.302705 0.817413 -0.490108 0.148700 -0.863400 1 0 1.000000 
0 6.722400 15.598200 95.087402 0.302705 0.817413 -0.490108 0.139800 -0.854300 1 0 1.000000 
plasterwall039c
0 -8.005900 7.410999 108.612000 -0.173898 0.198298 0.964592 0.077900 -0.922400 1 0 1.000000 
0 -8.005900 6.340499 108.832001 -0.173898 0.198298 0.964592 0.086400 -0.922400 1 0 1.000000 
0 -2.513400 7.562900 109.571198 -0.173898 0.198298 0.964592 0.077900 -0.879500 1 0 1.000000 
plasterwall039c
0 7.994100 14.983900 94.848503 0.292706 0.299106 -0.908217 0.129700 -0.855400 1 0 1.000000 
0 4.143000 14.625700 93.489601 0.292706 0.299106 -0.908217 0.150600 -0.873500 1 0 1.000000 
0 5.283199 15.582200 94.171898 0.292706 0.299106 -0.908217 0.148700 -0.863400 1 0 1.000000 
plasterwall039c
0 -2.513400 7.562900 109.571198 0.261803 0.345104 0.901311 0.077900 -0.879500 1 0 1.000000 
0 4.378300 8.054500 107.381599 0.261803 0.345104 0.901311 0.071400 -0.825700 1 0 1.000000 
0 4.378300 9.890200 106.678802 0.261803 0.345104 0.901311 0.056400 -0.825700 1 0 1.000000 
plasterwall039c
0 7.994100 14.194000 93.992104 0.168410 0.724542 -0.668339 0.126400 -0.863900 1 0 1.000000 
0 4.143000 14.625700 93.489601 0.168410 0.724542 -0.668339 0.150600 -0.873500 1 0 1.000000 
0 7.994100 14.983900 94.848503 0.168410 0.724542 -0.668339 0.129700 -0.855400 1 0 1.000000 
plasterwall039c
0 -8.005900 8.054500 107.381599 -0.257992 0.575182 0.776276 0.071400 -0.922400 1 0 1.000000 
0 -2.513400 7.562900 109.571198 -0.257992 0.575182 0.776276 0.077900 -0.879500 1 0 1.000000 
0 -1.813800 10.054900 107.957100 -0.257992 0.575182 0.776276 0.056700 -0.874100 1 0 1.000000 
plasterwall039c
0 7.994100 14.194000 93.992104 0.152106 0.911133 -0.383014 0.126400 -0.863900 1 0 1.000000 
0 4.143000 13.529800 90.882797 0.152106 0.911133 -0.383014 0.147500 -0.894800 1 0 1.000000 
0 4.143000 14.625700 93.489601 0.152106 0.911133 -0.383014 0.150600 -0.873500 1 0 1.000000 
plasterwall039c
0 -1.813800 10.054900 107.957100 -0.200997 0.359894 0.911085 0.056700 -0.874100 1 0 1.000000 
0 -8.005900 9.815700 106.685799 -0.200997 0.359894 0.911085 0.057000 -0.922400 1 0 1.000000 
0 -8.005900 8.054500 107.381599 -0.200997 0.359894 0.911085 0.071400 -0.922400 1 0 1.000000 
plasterwall039c
0 1.554900 5.650100 83.927101 0.404694 -0.110198 -0.907788 0.126900 -0.973700 1 0 1.000000 
0 7.994100 5.915600 86.765800 0.404694 -0.110198 -0.907788 0.089500 -0.940800 1 0 1.000000 
0 7.994100 4.225201 86.971100 0.404694 -0.110198 -0.907788 0.080200 -0.945100 1 0 1.000000 
plasterwall039c
0 -1.813801 12.897400 107.707100 -0.207500 0.437200 0.875100 0.034400 -0.874100 1 0 1.000000 
0 -2.540001 15.949400 106.009804 -0.207500 0.437200 0.875100 0.010100 -0.879700 1 0 1.000000 
0 -8.005901 13.460400 105.957199 -0.207500 0.437200 0.875100 0.028000 -0.922400 1 0 1.000000 
plasterwall039c
0 1.554900 7.304300 83.454903 0.399094 -0.251696 -0.881687 0.136300 -0.971200 1 0 1.000000 
0 7.994100 5.915600 86.765800 0.399094 -0.251696 -0.881687 0.089500 -0.940800 1 0 1.000000 
0 1.554900 5.650100 83.927101 0.399094 -0.251696 -0.881687 0.126900 -0.973700 1 0 1.000000 
plasterwall039c
0 4.378300 12.692600 106.413902 0.201300 0.376700 0.904199 0.034400 -0.825700 1 0 1.000000 
0 4.378300 15.759100 105.136497 0.201300 0.376700 0.904199 0.009200 -0.825700 1 0 1.000000 
0 -1.813801 12.897400 107.707100 0.201300 0.376700 0.904199 0.034400 -0.874100 1 0 1.000000 
plasterwall039c
0 1.554900 7.994300 84.883598 0.385506 0.830914 -0.401207 0.138500 -0.959200 1 0 1.000000 
0 7.994100 5.915600 86.765800 0.385506 0.830914 -0.401207 0.089500 -0.940800 1 0 1.000000 
0 1.554900 7.304300 83.454903 0.385506 0.830914 -0.401207 0.136300 -0.971200 1 0 1.000000 
plasterwall039c
0 -8.005901 15.949700 106.027397 0.003200 -0.028200 0.999597 0.010100 -0.922400 1 0 1.000000 
0 -8.005901 13.460400 105.957199 0.003200 -0.028200 0.999597 0.028000 -0.922400 1 0 1.000000 
0 -2.540001 15.949400 106.009804 0.003200 -0.028200 0.999597 0.010100 -0.879700 1 0 1.000000 
plasterwall039c
0 3.014100 10.682500 86.499199 0.361116 0.328515 -0.872739 0.143100 -0.936300 1 0 1.000000 
0 7.994100 5.915600 86.765800 0.361116 0.328515 -0.872739 0.089500 -0.940800 1 0 1.000000 
0 1.554900 7.994300 84.883598 0.361116 0.328515 -0.872739 0.138500 -0.959200 1 0 1.000000 
plasterwall039c
0 -2.964200 8.168100 84.988098 -0.752201 0.339401 -0.564801 0.068400 -0.896900 1 0 1.000000 
0 -8.005900 10.339100 93.008202 -0.752201 0.339401 -0.564801 0.075400 -0.832300 1 0 1.000000 
0 -2.964200 10.626900 86.465797 -0.752201 0.339401 -0.564801 0.085600 -0.882400 1 0 1.000000 
plasterwall039c
0 3.014100 10.682500 86.499199 0.627404 0.629904 -0.457803 0.143100 -0.936300 1 0 1.000000 
0 3.014100 11.635300 87.810204 0.627404 0.629904 -0.457803 0.146900 -0.924200 1 0 1.000000 
0 7.994100 5.915600 86.765800 0.627404 0.629904 -0.457803 0.089500 -0.940800 1 0 1.000000 
plasterwall039c
0 -2.964200 8.168100 84.988098 -0.827205 0.112601 -0.550503 0.068400 -0.896900 1 0 1.000000 
0 -8.005900 6.761799 92.276703 -0.827205 0.112601 -0.550503 0.048700 -0.842300 1 0 1.000000 
0 -8.005900 10.339100 93.008202 -0.827205 0.112601 -0.550503 0.075400 -0.832300 1 0 1.000000 
plasterwall039c
0 3.014100 11.635300 87.810204 0.755194 0.655395 0.011800 0.146900 -0.924200 1 0 1.000000 
0 3.014100 11.613300 89.032097 0.755194 0.655395 0.011800 0.145400 -0.916100 1 0 1.000000 
0 7.994100 5.915600 86.765800 0.755194 0.655395 0.011800 0.089500 -0.940800 1 0 1.000000 
plasterwall039c
0 -1.119000 5.650100 83.927101 -0.680018 -0.201305 -0.705019 0.050300 -0.908100 1 0 1.000000 
0 -2.964200 8.168100 84.988098 -0.680018 -0.201305 -0.705019 0.068400 -0.896900 1 0 1.000000 
0 -1.119000 7.304300 83.454903 -0.680018 -0.201305 -0.705019 0.063600 -0.909700 1 0 1.000000 
plasterwall039c
0 3.014100 11.613300 89.032097 0.605385 0.688183 -0.399890 0.145400 -0.916100 1 0 1.000000 
0 7.994100 8.294700 90.860001 0.605385 0.688183 -0.399890 0.097900 -0.905100 1 0 1.000000 
0 7.994100 5.915600 86.765800 0.605385 0.688183 -0.399890 0.089500 -0.940800 1 0 1.000000 
plasterwall039c
0 -2.964200 4.913200 86.156601 -0.707879 -0.238693 -0.664780 0.041900 -0.891800 1 0 1.000000 
0 -2.964200 8.168100 84.988098 -0.707879 -0.238693 -0.664780 0.068400 -0.896900 1 0 1.000000 
0 -1.119000 5.650100 83.927101 -0.707879 -0.238693 -0.664780 0.050300 -0.908100 1 0 1.000000 
plasterwall039c
0 3.014100 11.613300 89.032097 0.574682 0.367588 -0.731177 0.145400 -0.916100 1 0 1.000000 
0 4.143000 13.529800 90.882797 0.574682 0.367588 -0.731177 0.147500 -0.894800 1 0 1.000000 
0 7.994100 10.717200 92.495499 0.574682 0.367588 -0.731177 0.109200 -0.885800 1 0 1.000000 
plasterwall039c
0 -2.964200 4.913200 86.156601 -0.784801 -0.209400 -0.583300 0.041900 -0.891800 1 0 1.000000 
0 -8.005900 6.761799 92.276703 -0.784801 -0.209400 -0.583300 0.048700 -0.842300 1 0 1.000000 
0 -2.964200 8.168100 84.988098 -0.784801 -0.209400 -0.583300 0.068400 -0.896900 1 0 1.000000 
plasterwall039c
0 3.014100 11.613300 89.032097 0.560689 0.463291 -0.686287 0.145400 -0.916100 1 0 1.000000 
0 7.994100 10.717200 92.495499 0.560689 0.463291 -0.686287 0.109200 -0.885800 1 0 1.000000 
0 7.994100 8.294700 90.860001 0.560689 0.463291 -0.686287 0.097900 -0.905100 1 0 1.000000 
plasterwall039c
0 -8.005900 6.761799 92.276703 -0.773187 -0.343194 -0.533291 0.048700 -0.842300 1 0 1.000000 
0 -2.964200 4.913200 86.156601 -0.773187 -0.343194 -0.533291 0.041900 -0.891800 1 0 1.000000 
0 -2.964200 2.611600 87.637604 -0.773187 -0.343194 -0.533291 0.022300 -0.883200 1 0 1.000000 
plasterwall039c
0 4.143000 13.529800 90.882797 0.489001 0.502501 -0.713001 0.147500 -0.894800 1 0 1.000000 
0 7.994100 14.194000 93.992104 0.489001 0.502501 -0.713001 0.126400 -0.863900 1 0 1.000000 
0 7.994100 12.657600 92.909302 0.489001 0.502501 -0.713001 0.119200 -0.876400 1 0 1.000000 
plasterwall039c
0 -8.005900 4.421700 92.982300 -0.745515 -0.192404 -0.638113 0.029700 -0.839700 1 0 1.000000 
0 -8.005900 6.761799 92.276703 -0.745515 -0.192404 -0.638113 0.048700 -0.842300 1 0 1.000000 
0 -2.964200 2.611600 87.637604 -0.745515 -0.192404 -0.638113 0.022300 -0.883200 1 0 1.000000 
plasterwall039c
0 4.143000 13.529800 90.882797 0.489829 0.181811 -0.852650 0.147500 -0.894800 1 0 1.000000 
0 7.994100 12.657600 92.909302 0.489829 0.181811 -0.852650 0.119200 -0.876400 1 0 1.000000 
0 7.994100 10.717200 92.495499 0.489829 0.181811 -0.852650 0.109200 -0.885800 1 0 1.000000 
plasterwall039c
0 -2.964200 1.196300 89.103104 -0.705213 -0.510009 -0.492509 0.009600 -0.873600 1 0 1.000000 
0 -8.005900 4.421700 92.982300 -0.705213 -0.510009 -0.492509 0.029700 -0.839700 1 0 1.000000 
0 -2.964200 2.611600 87.637604 -0.705213 -0.510009 -0.492509 0.022300 -0.883200 1 0 1.000000 
plasterwall039c
0 -5.113801 15.586400 94.413300 -0.659711 0.679512 -0.321006 0.114100 -0.815100 1 0 1.000000 
0 -8.005901 13.569200 96.087196 -0.659711 0.679512 -0.321006 0.096500 -0.804600 1 0 1.000000 
0 -6.380900 15.759000 97.382599 -0.659711 0.679512 -0.321006 0.111800 -0.791900 1 0 1.000000 
plasterwall039c
0 -2.964200 1.872400 93.340698 -0.426495 -0.875490 -0.227197 0.903200 -0.904200 1 0 1.000000 
0 -5.485000 2.446600 95.860901 -0.426495 -0.875490 -0.227197 0.883500 -0.884000 1 0 1.000000 
0 -8.005900 4.421700 92.982300 -0.426495 -0.875490 -0.227197 0.863800 -0.903800 1 0 1.000000 
plasterwall039c
0 -5.485000 2.446600 95.860901 -0.426495 -0.875490 -0.227197 0.883500 -0.884000 1 0 1.000000 
0 -8.005900 3.020800 98.381203 -0.426495 -0.875490 -0.227197 0.863800 -0.863900 1 0 1.000000 
0 -8.005900 4.421700 92.982300 -0.426495 -0.875490 -0.227197 0.863800 -0.903800 1 0 1.000000 
plasterwall039c
0 -2.964200 1.196300 89.103104 -0.454710 -0.879519 0.140303 0.903200 -0.937700 1 0 1.000000 
0 -2.964200 1.872400 93.340698 -0.454710 -0.879519 0.140303 0.903200 -0.904200 1 0 1.000000 
0 -8.005900 4.421700 92.982300 -0.454710 -0.879519 0.140303 0.863800 -0.903800 1 0 1.000000 
plasterwall039c
0 -8.005901 13.569200 96.087196 -0.530084 0.687179 -0.496785 0.096500 -0.804600 1 0 1.000000 
0 -8.005901 15.952600 99.384300 -0.530084 0.687179 -0.496785 0.110900 -0.776300 1 0 1.000000 
0 -6.380900 15.759000 97.382599 -0.530084 0.687179 -0.496785 0.111800 -0.791900 1 0 1.000000 
plasterwall039c
0 -2.964200 11.611400 87.747803 -0.704730 -0.107205 -0.701330 0.091600 -0.871300 1 0 1.000000 
0 -8.005900 10.339100 93.008202 -0.704730 -0.107205 -0.701330 0.075400 -0.832300 1 0 1.000000 
0 -4.237700 12.522400 88.888100 -0.704730 -0.107205 -0.701330 0.097300 -0.861400 1 0 1.000000 
plasterwall039c
0 -5.113801 14.654200 93.557602 -0.668162 0.503171 -0.548068 0.108000 -0.822800 1 0 1.000000 
0 -8.005901 13.569200 96.087196 -0.668162 0.503171 -0.548068 0.096500 -0.804600 1 0 1.000000 
0 -5.113801 15.586400 94.413300 -0.668162 0.503171 -0.548068 0.114100 -0.815100 1 0 1.000000 
plasterwall039c
0 -2.964200 10.626900 86.465797 -0.641202 0.608602 -0.467401 0.085600 -0.882400 1 0 1.000000 
0 -8.005900 10.339100 93.008202 -0.641202 0.608602 -0.467401 0.075400 -0.832300 1 0 1.000000 
0 -2.964200 11.611400 87.747803 -0.641202 0.608602 -0.467401 0.091600 -0.871300 1 0 1.000000 
plasterwall039c
0 -5.113801 14.654200 93.557602 -0.688494 0.236798 -0.685494 0.108000 -0.822800 1 0 1.000000 
0 -8.005901 12.293400 95.646500 -0.688494 0.236798 -0.685494 0.087200 -0.809600 1 0 1.000000 
0 -8.005901 13.569200 96.087196 -0.688494 0.236798 -0.685494 0.096500 -0.804600 1 0 1.000000 
plasterwall039c
0 -4.237700 12.522400 88.888100 -0.775363 0.223689 -0.590572 0.097300 -0.861400 1 0 1.000000 
0 -8.005900 10.339100 93.008202 -0.775363 0.223689 -0.590572 0.075400 -0.832300 1 0 1.000000 
0 -8.005901 11.413100 93.415001 -0.775363 0.223689 -0.590572 0.083200 -0.827900 1 0 1.000000 
plasterwall039c
0 -5.113801 14.654200 93.557602 -0.715595 0.649796 -0.256298 0.108000 -0.822800 1 0 1.000000 
0 -8.005901 11.413100 93.415001 -0.715595 0.649796 -0.256298 0.083200 -0.827900 1 0 1.000000 
0 -8.005901 12.293400 95.646500 -0.715595 0.649796 -0.256298 0.087200 -0.809600 1 0 1.000000 
plasterwall039c
0 -4.358100 13.529800 90.882797 -0.646038 0.664939 -0.374822 0.102600 -0.844800 1 0 1.000000 
0 -4.237700 12.522400 88.888100 -0.646038 0.664939 -0.374822 0.097300 -0.861400 1 0 1.000000 
0 -8.005901 11.413100 93.415001 -0.646038 0.664939 -0.374822 0.083200 -0.827900 1 0 1.000000 
plasterwall039c
0 -5.113801 14.654200 93.557602 -0.659596 0.607996 -0.441897 0.108000 -0.822800 1 0 1.000000 
0 -4.358100 13.529800 90.882797 -0.659596 0.607996 -0.441897 0.102600 -0.844800 1 0 1.000000 
0 -8.005901 11.413100 93.415001 -0.659596 0.607996 -0.441897 0.083200 -0.827900 1 0 1.000000 
Building_Template010a
0 -5.113801 15.586400 94.413300 -0.000000 0.999847 -0.017501 0.460100 -0.544000 1 0 1.000000 
0 6.722400 15.598200 95.087402 -0.000000 0.999847 -0.017501 0.552600 -0.538800 1 0 1.000000 
0 5.283199 15.582200 94.171898 -0.000000 0.999847 -0.017501 0.541300 -0.545900 1 0 1.000000 
Building_Template010a
0 -8.005901 12.293400 95.646500 -1.000000 -0.000000 0.000000 0.525900 -0.508800 1 0 1.000000 
0 -8.005900 4.070199 101.355301 -1.000000 -0.000000 0.000000 0.455500 -0.474800 1 0 1.000000 
0 -8.005901 13.569200 96.087196 -1.000000 -0.000000 0.000000 0.535200 -0.503900 1 0 1.000000 
Building_Template010a
0 -8.005900 4.070199 101.355301 -1.000000 -0.000000 0.000000 0.455500 -0.474800 1 0 1.000000 
0 -8.005901 12.293400 95.646500 -1.000000 -0.000000 0.000000 0.525900 -0.508800 1 0 1.000000 
0 -8.005900 3.020800 98.381203 -1.000000 -0.000000 0.000000 0.451000 -0.499100 1 0 1.000000 
Building_Template010a
0 -8.005900 3.020800 98.381203 -1.000000 -0.000000 0.000000 0.451000 -0.499100 1 0 1.000000 
0 -8.005901 12.293400 95.646500 -1.000000 -0.000000 0.000000 0.525900 -0.508800 1 0 1.000000 
0 -8.005900 4.421700 92.982300 -1.000000 -0.000000 0.000000 0.468500 -0.539000 1 0 1.000000 
Building_Template010a
0 -8.005900 10.339100 93.008202 -1.000000 -0.000000 0.000000 0.514100 -0.531600 1 0 1.000000 
0 -8.005900 4.421700 92.982300 -1.000000 -0.000000 0.000000 0.468500 -0.539000 1 0 1.000000 
0 -8.005901 12.293400 95.646500 -1.000000 -0.000000 0.000000 0.525900 -0.508800 1 0 1.000000 
Building_Template010a
0 -8.005900 6.761799 92.276703 -1.000000 -0.000000 0.000000 0.487400 -0.541600 1 0 1.000000 
0 -8.005900 4.421700 92.982300 -1.000000 -0.000000 0.000000 0.468500 -0.539000 1 0 1.000000 
0 -8.005900 10.339100 93.008202 -1.000000 -0.000000 0.000000 0.514100 -0.531600 1 0 1.000000 
Building_Template010a
0 -8.005901 11.413100 93.415001 -1.000000 -0.000000 0.000000 0.521900 -0.527100 1 0 1.000000 
0 -8.005900 10.339100 93.008202 -1.000000 -0.000000 0.000000 0.514100 -0.531600 1 0 1.000000 
0 -8.005901 12.293400 95.646500 -1.000000 -0.000000 0.000000 0.525900 -0.508800 1 0 1.000000 
Building_Template010a
0 -8.005901 15.949700 106.027397 -1.000000 -0.000000 0.000000 0.540200 -0.424500 1 0 1.000000 
0 -8.005901 15.952600 99.384300 -1.000000 -0.000000 0.000000 0.549600 -0.475500 1 0 1.000000 
0 -8.005901 13.460400 105.957199 -1.000000 -0.000000 0.000000 0.522300 -0.427800 1 0 1.000000 
Building_Template010a
0 -8.005901 13.569200 96.087196 -1.000000 -0.000000 0.000000 0.535200 -0.503900 1 0 1.000000 
0 -8.005901 13.460400 105.957199 -1.000000 -0.000000 0.000000 0.522300 -0.427800 1 0 1.000000 
0 -8.005901 15.952600 99.384300 -1.000000 -0.000000 0.000000 0.549600 -0.475500 1 0 1.000000 
Building_Template010a
0 -8.005901 13.460400 105.957199 -1.000000 -0.000000 0.000000 0.522300 -0.427800 1 0 1.000000 
0 -8.005901 13.569200 96.087196 -1.000000 -0.000000 0.000000 0.535200 -0.503900 1 0 1.000000 
0 -8.005900 9.815700 106.685799 -1.000000 -0.000000 0.000000 0.493300 -0.426700 1 0 1.000000 
Building_Template010a
0 -8.005900 9.815700 106.685799 -1.000000 -0.000000 0.000000 0.493300 -0.426700 1 0 1.000000 
0 -8.005901 13.569200 96.087196 -1.000000 -0.000000 0.000000 0.535200 -0.503900 1 0 1.000000 
0 -8.005900 8.054500 107.381599 -1.000000 -0.000000 0.000000 0.478900 -0.423500 1 0 1.000000 
Building_Template010a
0 -8.005901 13.569200 96.087196 -1.000000 -0.000000 0.000000 0.535200 -0.503900 1 0 1.000000 
0 -8.005900 4.070199 101.355301 -1.000000 -0.000000 0.000000 0.455500 -0.474800 1 0 1.000000 
0 -8.005900 8.054500 107.381599 -1.000000 -0.000000 0.000000 0.478900 -0.423500 1 0 1.000000 
Building_Template010a
0 -8.005900 8.054500 107.381599 -1.000000 -0.000000 0.000000 0.478900 -0.423500 1 0 1.000000 
0 -8.005900 4.070199 101.355301 -1.000000 -0.000000 0.000000 0.455500 -0.474800 1 0 1.000000 
0 -8.005900 7.410999 108.612000 -1.000000 -0.000000 0.000000 0.472400 -0.414800 1 0 1.000000 
Building_Template010a
0 -8.005900 7.410999 108.612000 -1.000000 -0.000000 0.000000 0.472400 -0.414800 1 0 1.000000 
0 -8.005900 4.070199 101.355301 -1.000000 -0.000000 0.000000 0.455500 -0.474800 1 0 1.000000 
0 -8.005900 4.535299 105.780502 -1.000000 -0.000000 0.000000 0.453700 -0.440100 1 0 1.000000 
Building_Template010a
0 -8.005900 7.410999 108.612000 -1.000000 -0.000000 0.000000 0.472400 -0.414800 1 0 1.000000 
0 -8.005900 4.535299 105.780502 -1.000000 -0.000000 0.000000 0.453700 -0.440100 1 0 1.000000 
0 -8.005900 5.084199 108.652603 -1.000000 -0.000000 0.000000 0.454400 -0.417300 1 0 1.000000 
Building_Template010a
0 -8.005900 7.410999 108.612000 -1.000000 -0.000000 0.000000 0.472400 -0.414800 1 0 1.000000 
0 -8.005900 5.084199 108.652603 -1.000000 -0.000000 0.000000 0.454400 -0.417300 1 0 1.000000 
0 -8.005900 6.340499 108.832001 -1.000000 -0.000000 0.000000 0.463900 -0.414400 1 0 1.000000 
Building_Template010a
0 -8.005900 9.815700 106.685799 -1.000000 -0.000000 0.000000 0.493300 -0.426700 1 0 1.000000 
0 -8.005901 12.692600 106.413902 -1.000000 -0.000000 0.000000 0.515900 -0.425300 1 0 1.000000 
0 -8.005901 13.460400 105.957199 -1.000000 -0.000000 0.000000 0.522300 -0.427800 1 0 1.000000 
Building_Template010a
0 -6.380900 15.759000 97.382599 0.043799 0.997182 -0.060899 0.450200 -0.520900 1 0 1.000000 
0 -8.005901 15.952600 99.384300 0.043799 0.997182 -0.060899 0.437500 -0.505200 1 0 1.000000 
0 4.378300 15.759100 105.136497 0.043799 0.997182 -0.060899 0.534300 -0.461000 1 0 1.000000 
Building_Template010a
0 7.994100 15.598200 95.087402 1.000000 0.000000 0.000000 0.552100 -0.509100 1 0 1.000000 
0 7.994100 15.759100 105.136497 1.000000 0.000000 0.000000 0.541100 -0.431400 1 0 1.000000 
0 7.994100 14.737000 105.127602 1.000000 0.000000 0.000000 0.533200 -0.432700 1 0 1.000000 
Building_Template010a
0 7.994100 15.598200 95.087402 1.000000 0.000000 0.000000 0.552100 -0.509100 1 0 1.000000 
0 7.994100 14.737000 105.127602 1.000000 0.000000 0.000000 0.533200 -0.432700 1 0 1.000000 
0 7.994100 13.247900 103.921204 1.000000 0.000000 0.000000 0.523200 -0.443800 1 0 1.000000 
Building_Template010a
0 7.994100 13.247900 103.921204 1.000000 0.000000 0.000000 0.523200 -0.443800 1 0 1.000000 
0 7.994100 14.983900 94.848503 1.000000 0.000000 0.000000 0.547700 -0.511700 1 0 1.000000 
0 7.994100 15.598200 95.087402 1.000000 0.000000 0.000000 0.552100 -0.509100 1 0 1.000000 
Building_Template010a
0 7.994100 13.247900 103.921204 1.000000 0.000000 0.000000 0.523200 -0.443800 1 0 1.000000 
0 7.994100 10.253400 101.862198 1.000000 0.000000 0.000000 0.502600 -0.463400 1 0 1.000000 
0 7.994100 14.983900 94.848503 1.000000 0.000000 0.000000 0.547700 -0.511700 1 0 1.000000 
Building_Template010a
0 7.994100 14.194000 93.992104 1.000000 0.000000 0.000000 0.542600 -0.519300 1 0 1.000000 
0 7.994100 14.983900 94.848503 1.000000 0.000000 0.000000 0.547700 -0.511700 1 0 1.000000 
0 7.994100 10.253400 101.862198 1.000000 0.000000 0.000000 0.502600 -0.463400 1 0 1.000000 
Building_Template010a
0 7.994100 14.194000 93.992104 1.000000 0.000000 0.000000 0.542600 -0.519300 1 0 1.000000 
0 7.994100 10.253400 101.862198 1.000000 0.000000 0.000000 0.502600 -0.463400 1 0 1.000000 
0 7.994100 8.008600 101.802101 1.000000 0.000000 0.000000 0.485400 -0.466600 1 0 1.000000 
Building_Template010a
0 7.994100 14.194000 93.992104 1.000000 0.000000 0.000000 0.542600 -0.519300 1 0 1.000000 
0 7.994100 8.008600 101.802101 1.000000 0.000000 0.000000 0.485400 -0.466600 1 0 1.000000 
0 7.994100 4.956601 101.577103 1.000000 0.000000 0.000000 0.462100 -0.472000 1 0 1.000000 
Building_Template010a
0 7.994100 14.194000 93.992104 1.000000 0.000000 0.000000 0.542600 -0.519300 1 0 1.000000 
0 7.994100 4.956601 101.577103 1.000000 0.000000 0.000000 0.462100 -0.472000 1 0 1.000000 
0 7.994100 3.538700 98.299103 1.000000 0.000000 0.000000 0.455100 -0.499100 1 0 1.000000 
Building_Template010a
0 7.994100 3.538700 98.299103 1.000000 0.000000 0.000000 0.455100 -0.499100 1 0 1.000000 
0 7.994100 10.717200 92.495499 1.000000 0.000000 0.000000 0.517600 -0.535100 1 0 1.000000 
0 7.994100 14.194000 93.992104 1.000000 0.000000 0.000000 0.542600 -0.519300 1 0 1.000000 
Building_Template010a
0 7.994100 3.403500 95.345901 1.000000 0.000000 0.000000 0.457700 -0.522000 1 0 1.000000 
0 7.994100 10.717200 92.495499 1.000000 0.000000 0.000000 0.517600 -0.535100 1 0 1.000000 
0 7.994100 3.538700 98.299103 1.000000 0.000000 0.000000 0.455100 -0.499100 1 0 1.000000 
Building_Template010a
0 7.994100 1.701400 92.640900 1.000000 0.000000 0.000000 0.447900 -0.545000 1 0 1.000000 
0 7.994100 10.717200 92.495499 1.000000 0.000000 0.000000 0.517600 -0.535100 1 0 1.000000 
0 7.994100 3.403500 95.345901 1.000000 0.000000 0.000000 0.457700 -0.522000 1 0 1.000000 
Building_Template010a
0 7.994100 1.701400 92.640900 1.000000 0.000000 0.000000 0.447900 -0.545000 1 0 1.000000 
0 7.994100 1.196300 89.103104 1.000000 0.000000 0.000000 0.448300 -0.572900 1 0 1.000000 
0 7.994100 10.717200 92.495499 1.000000 0.000000 0.000000 0.517600 -0.535100 1 0 1.000000 
Building_Template010a
0 7.994100 10.717200 92.495499 1.000000 0.000000 0.000000 0.517600 -0.535100 1 0 1.000000 
0 7.994100 1.196300 89.103104 1.000000 0.000000 0.000000 0.448300 -0.572900 1 0 1.000000 
0 7.994100 8.294700 90.860001 1.000000 0.000000 0.000000 0.500900 -0.550700 1 0 1.000000 
Building_Template010a
0 7.994100 8.294700 90.860001 1.000000 0.000000 0.000000 0.500900 -0.550700 1 0 1.000000 
0 7.994100 1.196300 89.103104 1.000000 0.000000 0.000000 0.448300 -0.572900 1 0 1.000000 
0 7.994100 5.915600 86.765800 1.000000 0.000000 0.000000 0.487600 -0.585200 1 0 1.000000 
Building_Template010a
0 7.994100 4.225201 86.971100 1.000000 0.000000 0.000000 0.474300 -0.585600 1 0 1.000000 
0 7.994100 5.915600 86.765800 1.000000 0.000000 0.000000 0.487600 -0.585200 1 0 1.000000 
0 7.994100 1.196300 89.103104 1.000000 0.000000 0.000000 0.448300 -0.572900 1 0 1.000000 
Building_Template010a
0 7.994100 12.657600 92.909302 1.000000 0.000000 0.000000 0.532100 -0.529500 1 0 1.000000 
0 7.994100 14.194000 93.992104 1.000000 0.000000 0.000000 0.542600 -0.519300 1 0 1.000000 
0 7.994100 10.717200 92.495499 1.000000 0.000000 0.000000 0.517600 -0.535100 1 0 1.000000 
Building_Template010a
0 4.378300 15.759100 105.136497 -0.000600 0.975993 -0.217799 0.534300 -0.461000 1 0 1.000000 
0 -8.005901 15.949700 106.027397 -0.000600 0.975993 -0.217799 0.437500 -0.454100 1 0 1.000000 
0 -2.540001 15.949400 106.009804 -0.000600 0.975993 -0.217799 0.480200 -0.454300 1 0 1.000000 
Building_Template010a
0 4.378300 15.759100 105.136497 -0.000000 1.000000 0.000000 0.534300 -0.461000 1 0 1.000000 
0 7.994100 15.759100 105.136497 -0.000000 1.000000 0.000000 0.562500 -0.461000 1 0 1.000000 
0 -6.380900 15.759000 97.382599 -0.000000 1.000000 0.000000 0.450200 -0.520900 1 0 1.000000 
Building_Template010a
0 -6.380900 15.759000 97.382599 -0.000000 1.000000 0.000000 0.450200 -0.520900 1 0 1.000000 
0 7.994100 15.759100 105.136497 -0.000000 1.000000 0.000000 0.562500 -0.461000 1 0 1.000000 
0 7.994100 15.598200 95.087402 0.008600 0.999835 -0.016001 0.562500 -0.538800 1 0 1.000000 
Building_Template010a
0 -8.005901 15.952600 99.384300 0.015400 0.999881 0.000400 0.437500 -0.505200 1 0 1.000000 
0 -8.005901 15.949700 106.027397 0.015400 0.999881 0.000400 0.437500 -0.454100 1 0 1.000000 
0 4.378300 15.759100 105.136497 -0.000000 1.000000 0.000000 0.534300 -0.461000 1 0 1.000000 
Building_Template010a
0 7.994100 15.598200 95.087402 -0.000000 0.997554 -0.069897 0.562500 -0.538800 1 0 1.000000 
0 6.722400 15.598200 95.087402 -0.000000 0.997554 -0.069897 0.552600 -0.538800 1 0 1.000000 
0 -6.380900 15.759000 97.382599 -0.000000 0.997554 -0.069897 0.450200 -0.520900 1 0 1.000000 
Building_Template010a
0 -6.380900 15.759000 97.382599 -0.000000 0.997554 -0.069897 0.450200 -0.520900 1 0 1.000000 
0 6.722400 15.598200 95.087402 -0.000000 0.997554 -0.069897 0.552600 -0.538800 1 0 1.000000 
0 -5.113801 15.586400 94.413300 0.002300 0.998366 -0.057098 0.460100 -0.544000 1 0 1.000000 
end
