$cd ".\"
$modelname "props_wasteland/rockcliff01L.mdl"
$model "Body" "rockcliff01L_reference.smd"
$cdmaterials "models/props_wasteland/"
$surfaceprop "boulder"
$eyeposition 0.000 0.000 0.000
$illumposition -9.013 4.943 0.617
$sequence idle "idle" ACT_IDLE  1 fps 5.000000
$staticprop
$origin 0 0 0 270
$texturegroup "skinfamilies"
{
{
"rockcliff02a.vmt"
}
{
"rockcliff02b.vmt"
}
}
