version 1
nodes
  0 "static_prop" -1
end
skeleton
time 0
0 0.000000 0.000000 0.000000 0.000000 0.000000 0.000000
end
triangles
borealis_deckdetail_system02
0 -5.929700 8.215900 7.264700 -0.999677 -0.000000 0.025399 0.628400 -0.365100 1 0 1.000000 
0 -5.944499 -8.017600 6.658800 -0.999677 -0.000000 0.025399 0.374700 -0.374600 1 0 1.000000 
0 -5.929100 -8.214900 7.264700 -0.999677 -0.000000 0.025399 0.371600 -0.365100 1 0 1.000000 
borealis_deckdetail_system02
0 -5.941299 -10.176200 5.982700 -0.810028 0.276110 -0.517318 0.293800 -0.257200 1 0 1.000000 
0 -4.899700 -9.521100 4.762700 -0.445895 0.431896 -0.783992 0.286600 -0.299700 1 0 1.000000 
0 -4.881800 -10.672800 3.865300 -0.470604 0.699806 -0.537404 0.270300 -0.300500 1 0 1.000000 
borealis_deckdetail_system02
0 -4.881800 -10.672800 3.865300 -0.470604 0.699806 -0.537404 0.270300 -0.300500 1 0 1.000000 
0 -5.936200 -11.740800 5.064200 -0.827577 0.458487 -0.323891 0.276700 -0.257400 1 0 1.000000 
0 -5.941299 -10.176200 5.982700 -0.810028 0.276110 -0.517318 0.293800 -0.257200 1 0 1.000000 
borealis_deckdetail_system02
0 -5.928500 -12.521000 3.226000 -0.794195 0.602596 -0.078300 0.255000 -0.257700 1 0 1.000000 
0 -5.936200 -11.740800 5.064200 -0.827577 0.458487 -0.323891 0.276700 -0.257400 1 0 1.000000 
0 -4.861700 -11.188300 2.666100 -0.454304 0.875508 -0.164601 0.254100 -0.301300 1 0 1.000000 
borealis_deckdetail_system02
0 -4.861700 -11.188300 2.666100 -0.454304 0.875508 -0.164601 0.254100 -0.301300 1 0 1.000000 
0 -5.936200 -11.740800 5.064200 -0.827577 0.458487 -0.323891 0.276700 -0.257400 1 0 1.000000 
0 -4.881800 -10.672800 3.865300 -0.470604 0.699806 -0.537404 0.270300 -0.300500 1 0 1.000000 
borealis_deckdetail_system02
0 -4.861700 -11.188300 2.666100 -0.454304 0.875508 -0.164601 0.254100 -0.301300 1 0 1.000000 
0 -4.881800 -10.672800 3.865300 -0.470604 0.699806 -0.537404 0.270300 -0.300500 1 0 1.000000 
0 4.863400 -11.188300 2.666100 0.446393 0.873287 -0.195197 0.254100 -0.698700 1 0 1.000000 
borealis_deckdetail_system02
0 4.883400 -10.672800 3.865300 0.471711 0.684515 -0.555813 0.270300 -0.699500 1 0 1.000000 
0 4.863400 -11.188300 2.666100 0.446393 0.873287 -0.195197 0.254100 -0.698700 1 0 1.000000 
0 -4.881800 -10.672800 3.865300 -0.470604 0.699806 -0.537404 0.270300 -0.300500 1 0 1.000000 
borealis_deckdetail_system02
0 -4.920499 -7.518400 5.459600 -0.367302 0.136001 -0.920105 0.308300 -0.298900 1 0 1.000000 
0 4.901401 -9.521100 4.762700 0.458902 0.395502 -0.795604 0.286600 -0.700200 1 0 1.000000 
0 -4.899700 -9.521100 4.762700 -0.445895 0.431896 -0.783992 0.286600 -0.299700 1 0 1.000000 
borealis_deckdetail_system02
0 4.920400 7.519400 5.459700 0.374100 -0.165500 -0.912501 0.491700 -0.701000 1 0 1.000000 
0 4.921000 -7.518400 5.459600 0.570080 0.129795 -0.811272 0.308300 -0.701000 1 0 1.000000 
0 -4.920499 -7.518400 5.459600 -0.367302 0.136001 -0.920105 0.308300 -0.298900 1 0 1.000000 
borealis_deckdetail_system02
0 4.920400 7.519400 5.459700 0.374100 -0.165500 -0.912501 0.491700 -0.701000 1 0 1.000000 
0 5.944499 8.018600 6.658800 0.771510 -0.061801 -0.633208 0.485600 -0.742900 1 0 1.000000 
0 4.921000 -7.518400 5.459600 0.570080 0.129795 -0.811272 0.308300 -0.701000 1 0 1.000000 
borealis_deckdetail_system02
0 4.920400 7.519400 5.459700 0.374100 -0.165500 -0.912501 0.491700 -0.701000 1 0 1.000000 
0 5.941800 10.176200 5.982700 0.794184 -0.226995 -0.563689 0.506200 -0.742800 1 0 1.000000 
0 5.944499 8.018600 6.658800 0.771510 -0.061801 -0.633208 0.485600 -0.742900 1 0 1.000000 
borealis_deckdetail_system02
0 4.900199 9.521100 4.762700 0.458707 -0.450007 -0.766212 0.513400 -0.700200 1 0 1.000000 
0 5.941800 10.176200 5.982700 0.794184 -0.226995 -0.563689 0.506200 -0.742800 1 0 1.000000 
0 4.920400 7.519400 5.459700 0.374100 -0.165500 -0.912501 0.491700 -0.701000 1 0 1.000000 
borealis_deckdetail_system02
0 5.941800 10.176200 5.982700 0.794184 -0.226995 -0.563689 0.506200 -0.742800 1 0 1.000000 
0 4.900199 9.521100 4.762700 0.458707 -0.450007 -0.766212 0.513400 -0.700200 1 0 1.000000 
0 5.936699 11.740800 5.064200 0.825420 -0.395609 -0.402710 0.523300 -0.742500 1 0 1.000000 
borealis_deckdetail_system02
0 4.882299 10.672800 3.865300 0.470091 -0.740885 -0.479691 0.529700 -0.699500 1 0 1.000000 
0 5.936699 11.740800 5.064200 0.825420 -0.395609 -0.402710 0.523300 -0.742500 1 0 1.000000 
0 4.900199 9.521100 4.762700 0.458707 -0.450007 -0.766212 0.513400 -0.700200 1 0 1.000000 
borealis_deckdetail_system02
0 5.929399 12.522400 3.226000 0.800478 -0.587084 -0.120697 0.545000 -0.742200 1 0 1.000000 
0 5.936699 11.740800 5.064200 0.825420 -0.395609 -0.402710 0.523300 -0.742500 1 0 1.000000 
0 4.882299 10.672800 3.865300 0.470091 -0.740885 -0.479691 0.529700 -0.699500 1 0 1.000000 
borealis_deckdetail_system02
0 4.862500 11.189700 2.666100 0.449523 -0.874446 -0.182410 0.545900 -0.698700 1 0 1.000000 
0 5.929399 12.522400 3.226000 0.800478 -0.587084 -0.120697 0.545000 -0.742200 1 0 1.000000 
0 4.882299 10.672800 3.865300 0.470091 -0.740885 -0.479691 0.529700 -0.699500 1 0 1.000000 
borealis_deckdetail_system02
0 4.863400 11.191600 0.669700 0.382109 -0.908920 0.166904 0.571400 -0.698700 1 0 1.000000 
0 5.929399 12.522400 3.226000 0.800478 -0.587084 -0.120697 0.545000 -0.742200 1 0 1.000000 
0 4.862500 11.189700 2.666100 0.449523 -0.874446 -0.182410 0.545900 -0.698700 1 0 1.000000 
borealis_deckdetail_system02
0 4.863400 11.191600 0.669700 0.382109 -0.908920 0.166904 0.571400 -0.698700 1 0 1.000000 
0 4.862500 11.189700 2.666100 0.449523 -0.874446 -0.182410 0.545900 -0.698700 1 0 1.000000 
0 -4.862600 11.189700 2.666100 -0.451089 -0.874078 -0.180295 0.545900 -0.301200 1 0 1.000000 
borealis_deckdetail_system02
0 4.863400 11.191600 0.669700 0.382109 -0.908920 0.166904 0.571400 -0.698700 1 0 1.000000 
0 -4.862600 11.189700 2.666100 -0.451089 -0.874078 -0.180295 0.545900 -0.301200 1 0 1.000000 
0 -4.861701 11.191600 0.669700 -0.541402 -0.817503 0.196401 0.571400 -0.301300 1 0 1.000000 
borealis_deckdetail_system02
0 4.900199 9.521100 4.762700 0.458707 -0.450007 -0.766212 0.513400 -0.700200 1 0 1.000000 
0 4.920400 7.519400 5.459700 0.374100 -0.165500 -0.912501 0.491700 -0.701000 1 0 1.000000 
0 -4.900900 9.521100 4.762700 -0.445191 -0.377692 -0.811883 0.513400 -0.299700 1 0 1.000000 
borealis_deckdetail_system02
0 4.863400 11.191600 0.669700 0.382109 -0.908920 0.166904 0.571400 -0.698700 1 0 1.000000 
0 5.930200 12.524300 0.109800 0.804351 -0.572265 0.159790 0.581300 -0.742300 1 0 1.000000 
0 5.929399 12.522400 3.226000 0.800478 -0.587084 -0.120697 0.545000 -0.742200 1 0 1.000000 
borealis_deckdetail_system02
0 4.863400 11.191600 0.669700 0.382109 -0.908920 0.166904 0.571400 -0.698700 1 0 1.000000 
0 4.883399 10.676100 -0.529500 0.471711 -0.684515 0.555813 0.587500 -0.699500 1 0 1.000000 
0 5.930200 12.524300 0.109800 0.804351 -0.572265 0.159790 0.581300 -0.742300 1 0 1.000000 
borealis_deckdetail_system02
0 4.883399 10.676100 -0.529500 0.471711 -0.684515 0.555813 0.587500 -0.699500 1 0 1.000000 
0 5.933700 11.743600 -1.728700 0.826136 -0.394817 0.402018 0.604900 -0.742400 1 0 1.000000 
0 5.930200 12.524300 0.109800 0.804351 -0.572265 0.159790 0.581300 -0.742300 1 0 1.000000 
borealis_deckdetail_system02
0 4.901400 9.524400 -1.426900 0.458903 -0.395502 0.795604 0.601000 -0.700200 1 0 1.000000 
0 5.933700 11.743600 -1.728700 0.826136 -0.394817 0.402018 0.604900 -0.742400 1 0 1.000000 
0 4.883399 10.676100 -0.529500 0.471711 -0.684515 0.555813 0.587500 -0.699500 1 0 1.000000 
borealis_deckdetail_system02
0 4.901400 9.524400 -1.426900 0.458903 -0.395502 0.795604 0.601000 -0.700200 1 0 1.000000 
0 5.942900 10.179500 -2.646900 0.794184 -0.226496 0.563889 0.619900 -0.742800 1 0 1.000000 
0 5.933700 11.743600 -1.728700 0.826136 -0.394817 0.402018 0.604900 -0.742400 1 0 1.000000 
borealis_deckdetail_system02
0 4.901400 9.524400 -1.426900 0.458903 -0.395502 0.795604 0.601000 -0.700200 1 0 1.000000 
0 4.921000 7.521700 -2.123800 0.570080 -0.129795 0.811272 0.616000 -0.701000 1 0 1.000000 
0 5.942900 10.179500 -2.646900 0.794184 -0.226496 0.563889 0.619900 -0.742800 1 0 1.000000 
borealis_deckdetail_system02
0 4.921000 7.521700 -2.123800 0.570080 -0.129795 0.811272 0.616000 -0.701000 1 0 1.000000 
0 5.945000 8.020900 -3.323000 0.775938 -0.092904 0.623930 0.637800 -0.742900 1 0 1.000000 
0 5.942900 10.179500 -2.646900 0.794184 -0.226496 0.563889 0.619900 -0.742800 1 0 1.000000 
borealis_deckdetail_system02
0 4.921000 -7.518400 5.459600 0.570080 0.129795 -0.811272 0.384700 -0.577000 1 0 1.000000 
0 4.901401 -9.521100 4.762700 0.458902 0.395502 -0.795604 0.353400 -0.576700 1 0 1.000000 
0 -4.920499 -7.518400 5.459600 -0.367302 0.136001 -0.920105 0.384700 -0.423200 1 0 1.000000 
borealis_deckdetail_system02
0 -4.920499 -7.518400 5.459600 -0.367302 0.136001 -0.920105 0.384700 -0.423200 1 0 1.000000 
0 -4.921101 7.519400 5.459600 -0.432086 -0.146995 -0.889772 0.619700 -0.423200 1 0 1.000000 
0 4.920400 7.519400 5.459700 0.374100 -0.165500 -0.912501 0.619700 -0.577000 1 0 1.000000 
borealis_deckdetail_system02
0 -4.921101 7.519400 5.459600 -0.432086 -0.146995 -0.889772 0.619700 -0.423200 1 0 1.000000 
0 -4.900900 9.521100 4.762700 -0.445191 -0.377692 -0.811883 0.651000 -0.423500 1 0 1.000000 
0 4.920400 7.519400 5.459700 0.374100 -0.165500 -0.912501 0.619700 -0.577000 1 0 1.000000 
borealis_deckdetail_system02
0 -4.881800 -10.672800 3.865300 -0.470604 0.699806 -0.537404 0.335400 -0.423800 1 0 1.000000 
0 -4.899700 -9.521100 4.762700 -0.445895 0.431896 -0.783992 0.353400 -0.423600 1 0 1.000000 
0 4.883400 -10.672800 3.865300 0.471711 0.684515 -0.555813 0.335400 -0.576400 1 0 1.000000 
borealis_deckdetail_system02
0 4.883400 -10.672800 3.865300 0.471711 0.684515 -0.555813 0.335400 -0.576400 1 0 1.000000 
0 -4.899700 -9.521100 4.762700 -0.445895 0.431896 -0.783992 0.353400 -0.423600 1 0 1.000000 
0 4.901401 -9.521100 4.762700 0.458902 0.395502 -0.795604 0.353400 -0.576700 1 0 1.000000 
borealis_deckdetail_system02
0 -4.900900 9.521100 4.762700 -0.445191 -0.377692 -0.811883 0.651000 -0.423500 1 0 1.000000 
0 -4.882901 10.672800 3.865300 -0.468985 -0.637679 -0.611080 0.669000 -0.423800 1 0 1.000000 
0 4.900199 9.521100 4.762700 0.458707 -0.450007 -0.766212 0.651000 -0.576700 1 0 1.000000 
borealis_deckdetail_system02
0 4.882299 10.672800 3.865300 0.470091 -0.740885 -0.479691 0.669000 -0.576400 1 0 1.000000 
0 4.900199 9.521100 4.762700 0.458707 -0.450007 -0.766212 0.651000 -0.576700 1 0 1.000000 
0 -4.882901 10.672800 3.865300 -0.468985 -0.637679 -0.611080 0.669000 -0.423800 1 0 1.000000 
borealis_deckdetail_system02
0 -4.882901 10.672800 3.865300 -0.468985 -0.637679 -0.611080 0.669000 -0.423800 1 0 1.000000 
0 -4.862600 11.189700 2.666100 -0.451089 -0.874078 -0.180295 0.677000 -0.424100 1 0 1.000000 
0 4.882299 10.672800 3.865300 0.470091 -0.740885 -0.479691 0.669000 -0.576400 1 0 1.000000 
borealis_deckdetail_system02
0 4.862500 11.189700 2.666100 0.449523 -0.874446 -0.182410 0.677000 -0.576100 1 0 1.000000 
0 4.882299 10.672800 3.865300 0.470091 -0.740885 -0.479691 0.669000 -0.576400 1 0 1.000000 
0 -4.862600 11.189700 2.666100 -0.451089 -0.874078 -0.180295 0.677000 -0.424100 1 0 1.000000 
borealis_deckdetail_system02
0 5.929100 13.243400 3.452300 -0.000000 0.975366 0.220592 0.588600 -0.592600 1 0 1.000000 
0 5.929100 13.236300 -9.998700 -0.000000 1.000000 -0.000500 0.378500 -0.592600 1 0 1.000000 
0 -5.929700 13.236300 -9.998700 -0.000000 1.000000 -0.000500 0.378500 -0.407300 1 0 1.000000 
borealis_deckdetail_system02
0 -5.929700 13.236300 -9.998700 -0.000000 1.000000 -0.000500 0.378500 -0.407300 1 0 1.000000 
0 -5.929700 13.243400 3.452300 -0.000000 0.975366 0.220592 0.588600 -0.407300 1 0 1.000000 
0 5.929100 13.243400 3.452300 -0.000000 0.975366 0.220592 0.588600 -0.592600 1 0 1.000000 
borealis_deckdetail_system02
0 -5.929700 13.243400 3.452300 -0.000000 0.975366 0.220592 0.588600 -0.407300 1 0 1.000000 
0 -5.929700 12.238300 5.558100 -0.000000 0.810307 0.586005 0.621500 -0.407300 1 0 1.000000 
0 5.929100 13.243400 3.452300 -0.000000 0.975366 0.220592 0.588600 -0.592600 1 0 1.000000 
borealis_deckdetail_system02
0 5.929100 12.238300 5.558100 -0.000000 0.687131 0.726533 0.621500 -0.592600 1 0 1.000000 
0 5.929100 13.243400 3.452300 -0.000000 0.975366 0.220592 0.588600 -0.592600 1 0 1.000000 
0 -5.929700 12.238300 5.558100 -0.000000 0.810307 0.586005 0.621500 -0.407300 1 0 1.000000 
borealis_deckdetail_system02
0 -5.929100 -8.214900 7.264700 0.000000 -0.126397 0.991980 0.317400 -0.257700 1 0 1.000000 
0 -5.928500 -10.541000 6.662100 0.000000 -0.353008 0.935620 0.297200 -0.257700 1 0 1.000000 
0 5.929600 -8.214900 7.264700 0.000000 -0.126397 0.991980 0.317400 -0.742300 1 0 1.000000 
borealis_deckdetail_system02
0 5.930201 -12.238300 5.558100 0.000000 -0.810307 0.586005 0.278700 -0.742300 1 0 1.000000 
0 5.930201 -10.541000 6.662100 0.000000 -0.452286 0.891873 0.297200 -0.742300 1 0 1.000000 
0 -5.928500 -12.238300 5.558100 0.000000 -0.687131 0.726533 0.278700 -0.257700 1 0 1.000000 
borealis_deckdetail_system02
0 -5.928500 -10.541000 6.662100 0.000000 -0.353008 0.935620 0.297200 -0.257700 1 0 1.000000 
0 -5.928500 -12.238300 5.558100 0.000000 -0.687131 0.726533 0.278700 -0.257700 1 0 1.000000 
0 5.930201 -10.541000 6.662100 0.000000 -0.452286 0.891873 0.297200 -0.742300 1 0 1.000000 
borealis_deckdetail_system02
0 5.929100 13.236300 -9.998700 0.000000 0.000000 -1.000000 0.378500 -0.592600 1 0 1.000000 
0 5.929600 -13.235300 -9.998700 0.000000 0.000000 -1.000000 0.378500 -0.592600 1 0 1.000000 
0 -5.929100 -13.235300 -9.998700 0.000000 0.000000 -1.000000 0.378500 -0.407400 1 0 1.000000 
borealis_deckdetail_system02
0 -5.929100 -13.235300 -9.998700 0.000000 0.000000 -1.000000 0.378500 -0.407400 1 0 1.000000 
0 -5.929700 13.236300 -9.998700 0.000000 0.000000 -1.000000 0.378500 -0.407300 1 0 1.000000 
0 5.929100 13.236300 -9.998700 0.000000 0.000000 -1.000000 0.378500 -0.592600 1 0 1.000000 
borealis_deckdetail_system02
0 -5.928500 -13.243400 3.452300 0.000000 -0.975388 0.220497 0.588600 -0.407400 1 0 1.000000 
0 -5.929100 -13.235300 -9.998700 0.000000 -1.000000 -0.000600 0.378500 -0.407400 1 0 1.000000 
0 5.929600 -13.235300 -9.998700 0.000000 -1.000000 -0.000600 0.378500 -0.592600 1 0 1.000000 
borealis_deckdetail_system02
0 5.929600 -13.235300 -9.998700 0.000000 -1.000000 -0.000600 0.378500 -0.592600 1 0 1.000000 
0 5.930201 -13.243400 3.452300 0.000000 -0.975388 0.220497 0.588600 -0.592700 1 0 1.000000 
0 -5.928500 -13.243400 3.452300 0.000000 -0.975388 0.220497 0.588600 -0.407400 1 0 1.000000 
borealis_deckdetail_system02
0 5.930201 -13.243400 3.452300 0.000000 -0.975388 0.220497 0.588600 -0.592700 1 0 1.000000 
0 5.930201 -12.238300 5.558100 0.000000 -0.810307 0.586005 0.621500 -0.592700 1 0 1.000000 
0 -5.928500 -13.243400 3.452300 0.000000 -0.975388 0.220497 0.588600 -0.407400 1 0 1.000000 
borealis_deckdetail_system02
0 -5.928500 -12.238300 5.558100 0.000000 -0.687131 0.726533 0.621500 -0.407400 1 0 1.000000 
0 -5.928500 -13.243400 3.452300 0.000000 -0.975388 0.220497 0.588600 -0.407400 1 0 1.000000 
0 5.930201 -12.238300 5.558100 0.000000 -0.810307 0.586005 0.621500 -0.592700 1 0 1.000000 
borealis_deckdetail_system02
0 5.930201 -10.541000 6.662100 0.000000 -0.452286 0.891873 0.337500 -0.592800 1 0 1.000000 
0 5.929600 -8.214900 7.264700 0.000000 -0.126397 0.991980 0.373900 -0.592800 1 0 1.000000 
0 -5.928500 -10.541000 6.662100 0.000000 -0.353008 0.935620 0.337500 -0.407500 1 0 1.000000 
borealis_deckdetail_system02
0 -5.929700 12.238300 5.558100 -0.000000 0.810307 0.586005 0.693400 -0.407500 1 0 1.000000 
0 -5.929700 10.541000 6.662100 -0.000000 0.452406 0.891812 0.666900 -0.407500 1 0 1.000000 
0 5.929100 12.238300 5.558100 -0.000000 0.687131 0.726533 0.693400 -0.592800 1 0 1.000000 
borealis_deckdetail_system02
0 5.929100 10.541000 6.662100 -0.000000 0.353095 0.935587 0.666900 -0.592800 1 0 1.000000 
0 5.929100 12.238300 5.558100 -0.000000 0.687131 0.726533 0.693400 -0.592800 1 0 1.000000 
0 -5.929700 10.541000 6.662100 -0.000000 0.452406 0.891812 0.666900 -0.407500 1 0 1.000000 
borealis_deckdetail_system02
0 -5.929700 10.541000 6.662100 -0.000000 0.452406 0.891812 0.666900 -0.407500 1 0 1.000000 
0 -5.929700 8.215900 7.264700 -0.000000 0.126397 0.991980 0.630600 -0.407500 1 0 1.000000 
0 5.929100 10.541000 6.662100 -0.000000 0.353095 0.935587 0.666900 -0.592800 1 0 1.000000 
borealis_deckdetail_system02
0 5.929100 8.215900 7.264700 -0.000000 0.126397 0.991980 0.630600 -0.592800 1 0 1.000000 
0 5.929100 10.541000 6.662100 -0.000000 0.353095 0.935587 0.666900 -0.592800 1 0 1.000000 
0 -5.929700 8.215900 7.264700 -0.000000 0.126397 0.991980 0.630600 -0.407500 1 0 1.000000 
borealis_deckdetail_system02
0 5.929600 -8.214900 7.264700 0.000000 -0.126397 0.991980 0.373900 -0.592800 1 0 1.000000 
0 5.929100 8.215900 7.264700 -0.000000 0.126397 0.991980 0.630600 -0.592800 1 0 1.000000 
0 -5.929700 8.215900 7.264700 -0.000000 0.126397 0.991980 0.630600 -0.407500 1 0 1.000000 
borealis_deckdetail_system02
0 -5.929700 8.215900 7.264700 -0.000000 0.126397 0.991980 0.630600 -0.407500 1 0 1.000000 
0 -5.929100 -8.214900 7.264700 0.000000 -0.126397 0.991980 0.373900 -0.407500 1 0 1.000000 
0 5.929600 -8.214900 7.264700 0.000000 -0.126397 0.991980 0.373900 -0.592800 1 0 1.000000 
borealis_deckdetail_system02
0 4.920401 -7.516100 -2.123800 0.374100 0.165500 0.912501 0.184000 -0.701000 1 0 1.000000 
0 5.944500 -8.015300 -3.323000 0.771599 0.061800 0.633099 0.162100 -0.742900 1 0 1.000000 
0 4.921000 7.521700 -2.123800 0.570080 -0.129795 0.811272 -0.184000 -0.701000 1 0 1.000000 
borealis_deckdetail_system02
0 5.944500 -8.015300 -3.323000 0.771599 0.061800 0.633099 0.162100 -0.742900 1 0 1.000000 
0 5.945000 8.020900 -3.323000 0.775938 -0.092904 0.623930 -0.162200 -0.742900 1 0 1.000000 
0 4.921000 7.521700 -2.123800 0.570080 -0.129795 0.811272 -0.184000 -0.701000 1 0 1.000000 
borealis_deckdetail_system02
0 -5.944499 -8.017600 6.658800 -0.999677 -0.000000 0.025399 0.376900 -0.407200 1 0 1.000000 
0 -5.941299 -10.176200 5.982700 -0.999855 -0.004500 0.016399 0.343200 -0.407300 1 0 1.000000 
0 -5.929100 -8.214900 7.264700 -0.999855 -0.004500 0.016399 0.373900 -0.407500 1 0 1.000000 
borealis_deckdetail_system02
0 -5.941299 -10.176200 5.982700 -0.999855 -0.004500 0.016399 0.343200 -0.407300 1 0 1.000000 
0 -5.928500 -10.541000 6.662100 -0.999855 -0.004500 0.016399 0.337500 -0.407500 1 0 1.000000 
0 -5.929100 -8.214900 7.264700 -0.999855 -0.004500 0.016399 0.373900 -0.407500 1 0 1.000000 
borealis_deckdetail_system02
0 -5.936200 -11.740800 5.064200 -0.999857 -0.010900 0.012899 0.318800 -0.407400 1 0 1.000000 
0 -5.928500 -10.541000 6.662100 -0.999855 -0.004500 0.016399 0.337500 -0.407500 1 0 1.000000 
0 -5.941299 -10.176200 5.982700 -0.999855 -0.004500 0.016399 0.343200 -0.407300 1 0 1.000000 
borealis_deckdetail_system02
0 -5.936200 -11.740800 5.064200 -0.999857 -0.010900 0.012899 0.318800 -0.407400 1 0 1.000000 
0 -5.928500 -12.238300 5.558100 -0.999938 -0.006100 0.009300 0.311000 -0.407500 1 0 1.000000 
0 -5.928500 -10.541000 6.662100 -0.999855 -0.004500 0.016399 0.337500 -0.407500 1 0 1.000000 
borealis_deckdetail_system02
0 -5.929700 10.541000 6.662100 -0.999707 0.006100 0.023400 0.666900 -0.407500 1 0 1.000000 
0 -5.933200 11.740800 5.064200 -0.999848 0.012801 0.011801 0.685700 -0.407400 1 0 1.000000 
0 -5.942400 10.176200 5.982700 -0.999863 0.006100 0.015399 0.661200 -0.407300 1 0 1.000000 
borealis_deckdetail_system02
0 -5.942400 10.176200 5.982700 -0.999863 0.006100 0.015399 0.661200 -0.407300 1 0 1.000000 
0 -5.945100 8.018600 6.658800 -0.999707 0.006100 0.023400 0.627500 -0.407200 1 0 1.000000 
0 -5.929700 10.541000 6.662100 -0.999707 0.006100 0.023400 0.666900 -0.407500 1 0 1.000000 
borealis_deckdetail_system02
0 -5.945100 8.018600 6.658800 -0.999707 0.006100 0.023400 0.627500 -0.407200 1 0 1.000000 
0 -5.929700 8.215900 7.264700 -0.999707 0.006100 0.023400 0.630600 -0.407500 1 0 1.000000 
0 -5.929700 10.541000 6.662100 -0.999707 0.006100 0.023400 0.666900 -0.407500 1 0 1.000000 
borealis_deckdetail_system02
0 -5.929700 8.215900 7.264700 -0.999707 0.006100 0.023400 0.630600 -0.407500 1 0 1.000000 
0 -5.945100 8.018600 6.658800 -0.999707 0.006100 0.023400 0.627500 -0.407200 1 0 1.000000 
0 -5.944499 -8.017600 6.658800 -0.999677 -0.000000 0.025399 0.376900 -0.407200 1 0 1.000000 
borealis_deckdetail_system02
0 -4.881801 10.676100 -0.529500 -0.470604 -0.699806 0.537404 0.669000 -0.423800 1 0 1.000000 
0 -4.899701 9.524400 -1.426900 -0.445895 -0.431896 0.783992 0.651000 -0.423600 1 0 1.000000 
0 4.883399 10.676100 -0.529500 0.471711 -0.684515 0.555813 0.669000 -0.576400 1 0 1.000000 
borealis_deckdetail_system02
0 4.883399 10.676100 -0.529500 0.471711 -0.684515 0.555813 0.669000 -0.576400 1 0 1.000000 
0 -4.899701 9.524400 -1.426900 -0.445895 -0.431896 0.783992 0.651000 -0.423600 1 0 1.000000 
0 4.901400 9.524400 -1.426900 0.458903 -0.395502 0.795604 0.651000 -0.576700 1 0 1.000000 
borealis_deckdetail_system02
0 -4.920500 7.521700 -2.123800 -0.367302 -0.136001 0.920105 0.619700 -0.423200 1 0 1.000000 
0 4.901400 9.524400 -1.426900 0.458903 -0.395502 0.795604 0.651000 -0.576700 1 0 1.000000 
0 -4.899701 9.524400 -1.426900 -0.445895 -0.431896 0.783992 0.651000 -0.423600 1 0 1.000000 
borealis_deckdetail_system02
0 4.921000 7.521700 -2.123800 0.570080 -0.129795 0.811272 0.619700 -0.577000 1 0 1.000000 
0 4.901400 9.524400 -1.426900 0.458903 -0.395502 0.795604 0.651000 -0.576700 1 0 1.000000 
0 -4.920500 7.521700 -2.123800 -0.367302 -0.136001 0.920105 0.619700 -0.423200 1 0 1.000000 
borealis_deckdetail_system02
0 4.920401 -7.516100 -2.123800 0.374100 0.165500 0.912501 0.384800 -0.577000 1 0 1.000000 
0 4.921000 7.521700 -2.123800 0.570080 -0.129795 0.811272 0.619700 -0.577000 1 0 1.000000 
0 -4.920500 7.521700 -2.123800 -0.367302 -0.136001 0.920105 0.619700 -0.423200 1 0 1.000000 
borealis_deckdetail_system02
0 4.862501 -11.186400 0.669700 0.358005 0.922313 0.145502 0.327400 -0.576100 1 0 1.000000 
0 -4.861700 -11.188300 2.666100 -0.454304 0.875508 -0.164601 0.327400 -0.424200 1 0 1.000000 
0 4.863400 -11.188300 2.666100 0.446393 0.873287 -0.195197 0.327400 -0.576100 1 0 1.000000 
borealis_deckdetail_system02
0 4.862501 -11.186400 0.669700 0.358005 0.922313 0.145502 0.327400 -0.576100 1 0 1.000000 
0 -4.862599 -11.186400 0.669700 -0.513402 0.833303 0.205001 0.327400 -0.424100 1 0 1.000000 
0 -4.861700 -11.188300 2.666100 -0.454304 0.875508 -0.164601 0.327400 -0.424200 1 0 1.000000 
borealis_deckdetail_system02
0 4.862501 -11.186400 0.669700 0.358005 0.922313 0.145502 0.327400 -0.576100 1 0 1.000000 
0 4.882300 -10.669400 -0.529500 0.470091 0.740885 0.479691 0.335500 -0.576400 1 0 1.000000 
0 -4.862599 -11.186400 0.669700 -0.513402 0.833303 0.205001 0.327400 -0.424100 1 0 1.000000 
borealis_deckdetail_system02
0 -4.882900 -10.669400 -0.529500 -0.468985 0.637679 0.611080 0.335500 -0.423800 1 0 1.000000 
0 -4.862599 -11.186400 0.669700 -0.513402 0.833303 0.205001 0.327400 -0.424100 1 0 1.000000 
0 4.882300 -10.669400 -0.529500 0.470091 0.740885 0.479691 0.335500 -0.576400 1 0 1.000000 
borealis_deckdetail_system02
0 4.882300 -10.669400 -0.529500 0.470091 0.740885 0.479691 0.335500 -0.576400 1 0 1.000000 
0 4.900200 -9.517700 -1.426900 0.458707 0.450007 0.766212 0.353500 -0.576700 1 0 1.000000 
0 -4.882900 -10.669400 -0.529500 -0.468985 0.637679 0.611080 0.335500 -0.423800 1 0 1.000000 
borealis_deckdetail_system02
0 -4.900899 -9.517700 -1.426900 -0.445191 0.377692 0.811883 0.353500 -0.423500 1 0 1.000000 
0 -4.882900 -10.669400 -0.529500 -0.468985 0.637679 0.611080 0.335500 -0.423800 1 0 1.000000 
0 4.900200 -9.517700 -1.426900 0.458707 0.450007 0.766212 0.353500 -0.576700 1 0 1.000000 
borealis_deckdetail_system02
0 4.900200 -9.517700 -1.426900 0.458707 0.450007 0.766212 0.353500 -0.576700 1 0 1.000000 
0 4.920401 -7.516100 -2.123800 0.374100 0.165500 0.912501 0.384800 -0.577000 1 0 1.000000 
0 -4.900899 -9.517700 -1.426900 -0.445191 0.377692 0.811883 0.353500 -0.423500 1 0 1.000000 
borealis_deckdetail_system02
0 -4.921100 -7.516100 -2.123800 -0.432086 0.146995 0.889772 0.384800 -0.423200 1 0 1.000000 
0 -4.900899 -9.517700 -1.426900 -0.445191 0.377692 0.811883 0.353500 -0.423500 1 0 1.000000 
0 4.920401 -7.516100 -2.123800 0.374100 0.165500 0.912501 0.384800 -0.577000 1 0 1.000000 
borealis_deckdetail_system02
0 -4.920500 7.521700 -2.123800 -0.367302 -0.136001 0.920105 0.619700 -0.423200 1 0 1.000000 
0 -4.921100 -7.516100 -2.123800 -0.432086 0.146995 0.889772 0.384800 -0.423200 1 0 1.000000 
0 4.920401 -7.516100 -2.123800 0.374100 0.165500 0.912501 0.384800 -0.577000 1 0 1.000000 
borealis_deckdetail_system02
0 -4.920500 7.521700 -2.123800 -0.367302 -0.136001 0.920105 0.619700 -0.423200 1 0 1.000000 
0 -5.945099 -8.015300 -3.323000 -0.778825 0.094903 0.620020 0.377000 -0.407200 1 0 1.000000 
0 -4.921100 -7.516100 -2.123800 -0.432086 0.146995 0.889772 0.384800 -0.423200 1 0 1.000000 
borealis_deckdetail_system02
0 -5.944500 8.020900 -3.323000 -0.783117 -0.126303 0.608913 0.627500 -0.407200 1 0 1.000000 
0 -5.945099 -8.015300 -3.323000 -0.778825 0.094903 0.620020 0.377000 -0.407200 1 0 1.000000 
0 -4.920500 7.521700 -2.123800 -0.367302 -0.136001 0.920105 0.619700 -0.423200 1 0 1.000000 
borealis_deckdetail_system02
0 -4.899701 9.524400 -1.426900 -0.445895 -0.431896 0.783992 0.651000 -0.423600 1 0 1.000000 
0 -5.944500 8.020900 -3.323000 -0.783117 -0.126303 0.608913 0.627500 -0.407200 1 0 1.000000 
0 -4.920500 7.521700 -2.123800 -0.367302 -0.136001 0.920105 0.619700 -0.423200 1 0 1.000000 
borealis_deckdetail_system02
0 -4.899701 9.524400 -1.426900 -0.445895 -0.431896 0.783992 0.651000 -0.423600 1 0 1.000000 
0 -5.941300 10.179500 -2.646900 -0.810028 -0.276110 0.517318 0.661300 -0.407300 1 0 1.000000 
0 -5.944500 8.020900 -3.323000 -0.783117 -0.126303 0.608913 0.627500 -0.407200 1 0 1.000000 
borealis_deckdetail_system02
0 -5.941300 10.179500 -2.646900 -0.810028 -0.276110 0.517318 0.661300 -0.407300 1 0 1.000000 
0 -4.899701 9.524400 -1.426900 -0.445895 -0.431896 0.783992 0.651000 -0.423600 1 0 1.000000 
0 -4.881801 10.676100 -0.529500 -0.470604 -0.699806 0.537404 0.669000 -0.423800 1 0 1.000000 
borealis_deckdetail_system02
0 -4.881801 10.676100 -0.529500 -0.470604 -0.699806 0.537404 0.669000 -0.423800 1 0 1.000000 
0 -5.936201 11.744100 -1.728300 -0.827577 -0.458487 0.323891 0.685700 -0.407400 1 0 1.000000 
0 -5.941300 10.179500 -2.646900 -0.810028 -0.276110 0.517318 0.661300 -0.407300 1 0 1.000000 
borealis_deckdetail_system02
0 -4.861701 11.191600 0.669700 -0.541402 -0.817503 0.196401 0.677100 -0.424200 1 0 1.000000 
0 -5.936201 11.744100 -1.728300 -0.827577 -0.458487 0.323891 0.685700 -0.407400 1 0 1.000000 
0 -4.881801 10.676100 -0.529500 -0.470604 -0.699806 0.537404 0.669000 -0.423800 1 0 1.000000 
borealis_deckdetail_system02
0 -4.861701 11.191600 0.669700 -0.541402 -0.817503 0.196401 0.677100 -0.424200 1 0 1.000000 
0 -4.881801 10.676100 -0.529500 -0.470604 -0.699806 0.537404 0.669000 -0.423800 1 0 1.000000 
0 4.863400 11.191600 0.669700 0.382109 -0.908920 0.166904 0.677100 -0.576100 1 0 1.000000 
borealis_deckdetail_system02
0 4.883399 10.676100 -0.529500 0.471711 -0.684515 0.555813 0.669000 -0.576400 1 0 1.000000 
0 4.863400 11.191600 0.669700 0.382109 -0.908920 0.166904 0.677100 -0.576100 1 0 1.000000 
0 -4.881801 10.676100 -0.529500 -0.470604 -0.699806 0.537404 0.669000 -0.423800 1 0 1.000000 
borealis_deckdetail_system02
0 -4.862599 -11.186400 0.669700 -0.513402 0.833303 0.205001 0.327400 -0.424100 1 0 1.000000 
0 -5.928500 -12.521000 3.226000 -0.794195 0.602596 -0.078300 0.306600 -0.407500 1 0 1.000000 
0 -4.861700 -11.188300 2.666100 -0.454304 0.875508 -0.164601 0.327400 -0.424200 1 0 1.000000 
borealis_deckdetail_system02
0 -4.862599 -11.186400 0.669700 -0.513402 0.833303 0.205001 0.327400 -0.424100 1 0 1.000000 
0 -5.929399 -12.519100 0.109800 -0.798843 0.589831 0.118106 0.306600 -0.407500 1 0 1.000000 
0 -5.928500 -12.521000 3.226000 -0.794195 0.602596 -0.078300 0.306600 -0.407500 1 0 1.000000 
borealis_deckdetail_system02
0 -4.862599 -11.186400 0.669700 -0.513402 0.833303 0.205001 0.327400 -0.424100 1 0 1.000000 
0 -5.933199 -11.737500 -1.728300 -0.828391 0.457295 0.323496 0.318800 -0.407400 1 0 1.000000 
0 -5.929399 -12.519100 0.109800 -0.798843 0.589831 0.118106 0.306600 -0.407500 1 0 1.000000 
borealis_deckdetail_system02
0 -4.882900 -10.669400 -0.529500 -0.468985 0.637679 0.611080 0.335500 -0.423800 1 0 1.000000 
0 -5.933199 -11.737500 -1.728300 -0.828391 0.457295 0.323496 0.318800 -0.407400 1 0 1.000000 
0 -4.862599 -11.186400 0.669700 -0.513402 0.833303 0.205001 0.327400 -0.424100 1 0 1.000000 
borealis_deckdetail_system02
0 -5.942400 -10.172900 -2.646900 -0.810329 0.275410 0.517219 0.343300 -0.407300 1 0 1.000000 
0 -5.933199 -11.737500 -1.728300 -0.828391 0.457295 0.323496 0.318800 -0.407400 1 0 1.000000 
0 -4.882900 -10.669400 -0.529500 -0.468985 0.637679 0.611080 0.335500 -0.423800 1 0 1.000000 
borealis_deckdetail_system02
0 -4.900899 -9.517700 -1.426900 -0.445191 0.377692 0.811883 0.353500 -0.423500 1 0 1.000000 
0 -5.942400 -10.172900 -2.646900 -0.810329 0.275410 0.517219 0.343300 -0.407300 1 0 1.000000 
0 -4.882900 -10.669400 -0.529500 -0.468985 0.637679 0.611080 0.335500 -0.423800 1 0 1.000000 
borealis_deckdetail_system02
0 -4.900899 -9.517700 -1.426900 -0.445191 0.377692 0.811883 0.353500 -0.423500 1 0 1.000000 
0 -5.945099 -8.015300 -3.323000 -0.778825 0.094903 0.620020 0.377000 -0.407200 1 0 1.000000 
0 -5.942400 -10.172900 -2.646900 -0.810329 0.275410 0.517219 0.343300 -0.407300 1 0 1.000000 
borealis_deckdetail_system02
0 -4.921100 -7.516100 -2.123800 -0.432086 0.146995 0.889772 0.384800 -0.423200 1 0 1.000000 
0 -5.945099 -8.015300 -3.323000 -0.778825 0.094903 0.620020 0.377000 -0.407200 1 0 1.000000 
0 -4.900899 -9.517700 -1.426900 -0.445191 0.377692 0.811883 0.353500 -0.423500 1 0 1.000000 
borealis_deckdetail_system02
0 -5.928501 12.524300 0.109800 -0.794195 -0.602597 0.078300 0.695700 -0.476900 1 0 1.000000 
0 -5.936201 11.744100 -1.728300 -0.827577 -0.458487 0.323891 0.683500 -0.505600 1 0 1.000000 
0 -4.861701 11.191600 0.669700 -0.541402 -0.817503 0.196401 0.674900 -0.468200 1 0 1.000000 
borealis_deckdetail_system02
0 -5.928501 12.524300 0.109800 -0.794195 -0.602597 0.078300 0.695700 -0.476900 1 0 1.000000 
0 -4.861701 11.191600 0.669700 -0.541402 -0.817503 0.196401 0.674900 -0.468200 1 0 1.000000 
0 -4.862600 11.189700 2.666100 -0.451089 -0.874078 -0.180295 0.674800 -0.437000 1 0 1.000000 
borealis_deckdetail_system02
0 -5.928501 12.524300 0.109800 -0.794195 -0.602597 0.078300 0.695700 -0.476900 1 0 1.000000 
0 -4.862600 11.189700 2.666100 -0.451089 -0.874078 -0.180295 0.674800 -0.437000 1 0 1.000000 
0 -5.929400 12.522400 3.226000 -0.798843 -0.589832 -0.118106 0.695700 -0.428200 1 0 1.000000 
borealis_deckdetail_system02
0 -4.862600 11.189700 2.666100 -0.451089 -0.874078 -0.180295 0.674800 -0.437000 1 0 1.000000 
0 -5.933200 11.740800 5.064200 -0.828391 -0.457295 -0.323496 0.683500 -0.399500 1 0 1.000000 
0 -5.929400 12.522400 3.226000 -0.798843 -0.589832 -0.118106 0.695700 -0.428200 1 0 1.000000 
borealis_deckdetail_system02
0 -4.882901 10.672800 3.865300 -0.468985 -0.637679 -0.611080 0.666800 -0.418200 1 0 1.000000 
0 -5.933200 11.740800 5.064200 -0.828391 -0.457295 -0.323496 0.683500 -0.399500 1 0 1.000000 
0 -4.862600 11.189700 2.666100 -0.451089 -0.874078 -0.180295 0.674800 -0.437000 1 0 1.000000 
borealis_deckdetail_system02
0 -5.942400 10.176200 5.982700 -0.810329 -0.275410 -0.517219 0.659000 -0.385200 1 0 1.000000 
0 -5.933200 11.740800 5.064200 -0.828391 -0.457295 -0.323496 0.683500 -0.399500 1 0 1.000000 
0 -4.882901 10.672800 3.865300 -0.468985 -0.637679 -0.611080 0.666800 -0.418200 1 0 1.000000 
borealis_deckdetail_system02
0 -4.900900 9.521100 4.762700 -0.445191 -0.377692 -0.811883 0.648800 -0.404200 1 0 1.000000 
0 -5.942400 10.176200 5.982700 -0.810329 -0.275410 -0.517219 0.659000 -0.385200 1 0 1.000000 
0 -4.882901 10.672800 3.865300 -0.468985 -0.637679 -0.611080 0.666800 -0.418200 1 0 1.000000 
borealis_deckdetail_system02
0 -4.900900 9.521100 4.762700 -0.445191 -0.377692 -0.811883 0.648800 -0.404200 1 0 1.000000 
0 -5.945100 8.018600 6.658800 -0.778825 -0.094903 -0.620020 0.625300 -0.374600 1 0 1.000000 
0 -5.942400 10.176200 5.982700 -0.810329 -0.275410 -0.517219 0.659000 -0.385200 1 0 1.000000 
borealis_deckdetail_system02
0 -4.921101 7.519400 5.459600 -0.432086 -0.146995 -0.889772 0.617500 -0.393300 1 0 1.000000 
0 -5.945100 8.018600 6.658800 -0.778825 -0.094903 -0.620020 0.625300 -0.374600 1 0 1.000000 
0 -4.900900 9.521100 4.762700 -0.445191 -0.377692 -0.811883 0.648800 -0.404200 1 0 1.000000 
borealis_deckdetail_system02
0 -4.920499 -7.518400 5.459600 -0.367302 0.136001 -0.920105 0.382500 -0.393300 1 0 1.000000 
0 -5.945100 8.018600 6.658800 -0.778825 -0.094903 -0.620020 0.625300 -0.374600 1 0 1.000000 
0 -4.921101 7.519400 5.459600 -0.432086 -0.146995 -0.889772 0.617500 -0.393300 1 0 1.000000 
borealis_deckdetail_system02
0 -5.944499 -8.017600 6.658800 -0.783117 0.126303 -0.608913 0.374700 -0.374600 1 0 1.000000 
0 -5.945100 8.018600 6.658800 -0.778825 -0.094903 -0.620020 0.625300 -0.374600 1 0 1.000000 
0 -4.920499 -7.518400 5.459600 -0.367302 0.136001 -0.920105 0.382500 -0.393300 1 0 1.000000 
borealis_deckdetail_system02
0 -4.899700 -9.521100 4.762700 -0.445895 0.431896 -0.783992 0.351200 -0.404200 1 0 1.000000 
0 -5.944499 -8.017600 6.658800 -0.783117 0.126303 -0.608913 0.374700 -0.374600 1 0 1.000000 
0 -4.920499 -7.518400 5.459600 -0.367302 0.136001 -0.920105 0.382500 -0.393300 1 0 1.000000 
borealis_deckdetail_system02
0 -4.899700 -9.521100 4.762700 -0.445895 0.431896 -0.783992 0.351200 -0.404200 1 0 1.000000 
0 -5.941299 -10.176200 5.982700 -0.810028 0.276110 -0.517318 0.341000 -0.385200 1 0 1.000000 
0 -5.944499 -8.017600 6.658800 -0.783117 0.126303 -0.608913 0.374700 -0.374600 1 0 1.000000 
borealis_deckdetail_system02
0 5.936699 11.740800 5.064200 0.999857 0.010900 0.012899 0.683500 -0.399500 1 0 1.000000 
0 5.929100 10.541000 6.662100 0.999855 0.004300 0.016499 0.664700 -0.374500 1 0 1.000000 
0 5.941800 10.176200 5.982700 0.999855 0.004300 0.016499 0.659000 -0.385200 1 0 1.000000 
borealis_deckdetail_system02
0 5.941800 10.176200 5.982700 0.999855 0.004300 0.016499 0.659000 -0.385200 1 0 1.000000 
0 5.929100 10.541000 6.662100 0.999855 0.004300 0.016499 0.664700 -0.374500 1 0 1.000000 
0 5.929100 8.215900 7.264700 0.999855 0.004300 0.016499 0.628400 -0.365100 1 0 1.000000 
borealis_deckdetail_system02
0 5.944499 8.018600 6.658800 0.999675 0.000000 0.025499 0.625300 -0.374600 1 0 1.000000 
0 5.941800 10.176200 5.982700 0.999855 0.004300 0.016499 0.659000 -0.385200 1 0 1.000000 
0 5.929100 8.215900 7.264700 0.999855 0.004300 0.016499 0.628400 -0.365100 1 0 1.000000 
borealis_deckdetail_system02
0 5.929600 -8.214900 7.264700 0.999675 0.000000 0.025499 0.371600 -0.365100 1 0 1.000000 
0 5.944499 8.018600 6.658800 0.999675 0.000000 0.025499 0.625300 -0.374600 1 0 1.000000 
0 5.929100 8.215900 7.264700 0.999855 0.004300 0.016499 0.628400 -0.365100 1 0 1.000000 
borealis_deckdetail_system02
0 5.929600 -8.214900 7.264700 0.999675 0.000000 0.025499 0.371600 -0.365100 1 0 1.000000 
0 5.945100 -8.017600 6.658800 0.999675 0.000000 0.025499 0.374700 -0.374600 1 0 1.000000 
0 5.944499 8.018600 6.658800 0.999675 0.000000 0.025499 0.625300 -0.374600 1 0 1.000000 
borealis_deckdetail_system02
0 5.942901 -10.176200 5.982700 0.999856 -0.004000 0.016499 0.341000 -0.385200 1 0 1.000000 
0 5.945100 -8.017600 6.658800 0.999675 0.000000 0.025499 0.374700 -0.374600 1 0 1.000000 
0 5.929600 -8.214900 7.264700 0.999675 0.000000 0.025499 0.371600 -0.365100 1 0 1.000000 
borealis_deckdetail_system02
0 5.942901 -10.176200 5.982700 0.999856 -0.004000 0.016499 0.341000 -0.385200 1 0 1.000000 
0 5.929600 -8.214900 7.264700 0.999675 0.000000 0.025499 0.371600 -0.365100 1 0 1.000000 
0 5.930201 -10.541000 6.662100 0.999856 -0.004000 0.016499 0.335300 -0.374500 1 0 1.000000 
borealis_deckdetail_system02
0 5.930201 -10.541000 6.662100 0.999856 -0.004000 0.016499 0.335300 -0.374500 1 0 1.000000 
0 5.933701 -11.740200 5.064500 0.999987 -0.002800 0.004300 0.316600 -0.399500 1 0 1.000000 
0 5.942901 -10.176200 5.982700 0.999856 -0.004000 0.016499 0.341000 -0.385200 1 0 1.000000 
borealis_deckdetail_system02
0 5.930201 -12.238300 5.558100 1.000000 0.000000 0.000000 0.308800 -0.391800 1 0 1.000000 
0 5.933701 -11.740200 5.064500 0.999987 -0.002800 0.004300 0.316600 -0.399500 1 0 1.000000 
0 5.930201 -10.541000 6.662100 0.999856 -0.004000 0.016499 0.335300 -0.374500 1 0 1.000000 
borealis_deckdetail_system02
0 5.930201 -12.521000 3.226000 1.000000 0.000000 0.000000 0.304400 -0.428200 1 0 1.000000 
0 5.933701 -11.740200 5.064500 0.999987 -0.002800 0.004300 0.316600 -0.399500 1 0 1.000000 
0 5.930201 -12.238300 5.558100 1.000000 0.000000 0.000000 0.308800 -0.391800 1 0 1.000000 
borealis_deckdetail_system02
0 5.930201 -12.521000 3.226000 1.000000 0.000000 0.000000 0.304400 -0.428200 1 0 1.000000 
0 5.930201 -12.238300 5.558100 1.000000 0.000000 0.000000 0.308800 -0.391800 1 0 1.000000 
0 5.930201 -13.243400 3.452300 1.000000 0.000000 0.000000 0.293100 -0.424700 1 0 1.000000 
borealis_deckdetail_system02
0 5.929300 -12.519100 0.109800 0.999968 -0.008000 0.000600 0.304400 -0.476900 1 0 1.000000 
0 5.930201 -12.521000 3.226000 1.000000 0.000000 0.000000 0.304400 -0.428200 1 0 1.000000 
0 5.930201 -13.243400 3.452300 1.000000 0.000000 0.000000 0.293100 -0.424700 1 0 1.000000 
borealis_deckdetail_system02
0 5.929600 -13.235300 -9.998700 0.999997 0.000000 -0.002200 0.293200 -0.634900 1 0 1.000000 
0 5.929300 -12.519100 0.109800 0.999968 -0.008000 0.000600 0.304400 -0.476900 1 0 1.000000 
0 5.930201 -13.243400 3.452300 1.000000 0.000000 0.000000 0.293100 -0.424700 1 0 1.000000 
borealis_deckdetail_system02
0 5.929600 -13.235300 -9.998700 0.999997 0.000000 -0.002200 0.293200 -0.634900 1 0 1.000000 
0 5.936700 -11.737500 -1.728300 0.999994 -0.003400 -0.000200 0.316600 -0.505600 1 0 1.000000 
0 5.929300 -12.519100 0.109800 0.999968 -0.008000 0.000600 0.304400 -0.476900 1 0 1.000000 
borealis_deckdetail_system02
0 5.929600 -13.235300 -9.998700 0.999997 0.000000 -0.002200 0.293200 -0.634900 1 0 1.000000 
0 5.941801 -10.172900 -2.646900 0.999994 -0.003400 -0.000200 0.341000 -0.520000 1 0 1.000000 
0 5.936700 -11.737500 -1.728300 0.999994 -0.003400 -0.000200 0.316600 -0.505600 1 0 1.000000 
borealis_deckdetail_system02
0 5.941801 -10.172900 -2.646900 0.999994 -0.003400 -0.000200 0.341000 -0.520000 1 0 1.000000 
0 5.929600 -13.235300 -9.998700 0.999997 0.000000 -0.002200 0.293200 -0.634900 1 0 1.000000 
0 5.944500 -8.015300 -3.323000 0.999997 0.000000 -0.002200 0.374800 -0.530600 1 0 1.000000 
borealis_deckdetail_system02
0 5.929600 -13.235300 -9.998700 0.999997 0.000000 -0.002200 0.293200 -0.634900 1 0 1.000000 
0 5.945000 8.020900 -3.323000 0.999997 0.000000 -0.002200 0.625300 -0.530600 1 0 1.000000 
0 5.944500 -8.015300 -3.323000 0.999997 0.000000 -0.002200 0.374800 -0.530600 1 0 1.000000 
borealis_deckdetail_system02
0 5.945000 8.020900 -3.323000 0.999997 0.000000 -0.002200 0.625300 -0.530600 1 0 1.000000 
0 5.929600 -13.235300 -9.998700 0.999997 0.000000 -0.002200 0.293200 -0.634900 1 0 1.000000 
0 5.929100 13.236300 -9.998700 0.999998 0.001400 -0.001300 0.706800 -0.634900 1 0 1.000000 
borealis_deckdetail_system02
0 5.929100 13.236300 -9.998700 0.999998 0.001400 -0.001300 0.706800 -0.634900 1 0 1.000000 
0 5.942900 10.179500 -2.646900 0.999998 0.001400 -0.001300 0.659100 -0.520000 1 0 1.000000 
0 5.945000 8.020900 -3.323000 0.999997 0.000000 -0.002200 0.625300 -0.530600 1 0 1.000000 
borealis_deckdetail_system02
0 5.929100 13.236300 -9.998700 0.999998 0.001400 -0.001300 0.706800 -0.634900 1 0 1.000000 
0 5.933700 11.743600 -1.728700 0.999984 0.005600 0.000500 0.683500 -0.505700 1 0 1.000000 
0 5.942900 10.179500 -2.646900 0.999998 0.001400 -0.001300 0.659100 -0.520000 1 0 1.000000 
borealis_deckdetail_system02
0 5.929100 13.236300 -9.998700 0.999998 0.001400 -0.001300 0.706800 -0.634900 1 0 1.000000 
0 5.930200 12.524300 0.109800 0.999991 0.004100 0.000200 0.695700 -0.476900 1 0 1.000000 
0 5.933700 11.743600 -1.728700 0.999984 0.005600 0.000500 0.683500 -0.505700 1 0 1.000000 
borealis_deckdetail_system02
0 5.929100 13.236300 -9.998700 0.999998 0.001400 -0.001300 0.706800 -0.634900 1 0 1.000000 
0 5.929100 13.243400 3.452300 1.000000 0.000400 0.000200 0.706900 -0.424700 1 0 1.000000 
0 5.930200 12.524300 0.109800 0.999991 0.004100 0.000200 0.695700 -0.476900 1 0 1.000000 
borealis_deckdetail_system02
0 5.930200 12.524300 0.109800 0.999991 0.004100 0.000200 0.695700 -0.476900 1 0 1.000000 
0 5.929100 13.243400 3.452300 1.000000 0.000400 0.000200 0.706900 -0.424700 1 0 1.000000 
0 5.929399 12.522400 3.226000 1.000000 0.000400 0.000200 0.695700 -0.428200 1 0 1.000000 
borealis_deckdetail_system02
0 5.929100 13.243400 3.452300 1.000000 0.000400 0.000200 0.706900 -0.424700 1 0 1.000000 
0 5.929100 12.238300 5.558100 1.000000 0.000400 0.000200 0.691200 -0.391800 1 0 1.000000 
0 5.929399 12.522400 3.226000 1.000000 0.000400 0.000200 0.695700 -0.428200 1 0 1.000000 
borealis_deckdetail_system02
0 5.929399 12.522400 3.226000 1.000000 0.000400 0.000200 0.695700 -0.428200 1 0 1.000000 
0 5.929100 12.238300 5.558100 1.000000 0.000400 0.000200 0.691200 -0.391800 1 0 1.000000 
0 5.936699 11.740800 5.064200 0.999857 0.010900 0.012899 0.683500 -0.399500 1 0 1.000000 
borealis_deckdetail_system02
0 5.936699 11.740800 5.064200 0.999857 0.010900 0.012899 0.683500 -0.399500 1 0 1.000000 
0 5.929100 12.238300 5.558100 1.000000 0.000400 0.000200 0.691200 -0.391800 1 0 1.000000 
0 5.929100 10.541000 6.662100 0.999855 0.004300 0.016499 0.664700 -0.374500 1 0 1.000000 
borealis_deckdetail_system02
0 5.944499 8.018600 6.658800 0.771510 -0.061801 -0.633208 0.625300 -0.374600 1 0 1.000000 
0 5.945100 -8.017600 6.658800 0.775889 0.092899 -0.623991 0.374700 -0.374600 1 0 1.000000 
0 4.921000 -7.518400 5.459600 0.570080 0.129795 -0.811272 0.382500 -0.393300 1 0 1.000000 
borealis_deckdetail_system02
0 4.921000 -7.518400 5.459600 0.570080 0.129795 -0.811272 0.382500 -0.393300 1 0 1.000000 
0 5.945100 -8.017600 6.658800 0.775889 0.092899 -0.623991 0.374700 -0.374600 1 0 1.000000 
0 5.942901 -10.176200 5.982700 0.794184 0.226496 -0.563889 0.341000 -0.385200 1 0 1.000000 
borealis_deckdetail_system02
0 4.901401 -9.521100 4.762700 0.458902 0.395502 -0.795604 0.351200 -0.404200 1 0 1.000000 
0 4.921000 -7.518400 5.459600 0.570080 0.129795 -0.811272 0.382500 -0.393300 1 0 1.000000 
0 5.942901 -10.176200 5.982700 0.794184 0.226496 -0.563889 0.341000 -0.385200 1 0 1.000000 
borealis_deckdetail_system02
0 4.901401 -9.521100 4.762700 0.458902 0.395502 -0.795604 0.351200 -0.404200 1 0 1.000000 
0 5.942901 -10.176200 5.982700 0.794184 0.226496 -0.563889 0.341000 -0.385200 1 0 1.000000 
0 5.933701 -11.740200 5.064500 0.826136 0.394817 -0.402018 0.316600 -0.399500 1 0 1.000000 
borealis_deckdetail_system02
0 4.901401 -9.521100 4.762700 0.458902 0.395502 -0.795604 0.351200 -0.404200 1 0 1.000000 
0 5.933701 -11.740200 5.064500 0.826136 0.394817 -0.402018 0.316600 -0.399500 1 0 1.000000 
0 4.883400 -10.672800 3.865300 0.471711 0.684515 -0.555813 0.333200 -0.418200 1 0 1.000000 
borealis_deckdetail_system02
0 4.883400 -10.672800 3.865300 0.471711 0.684515 -0.555813 0.333200 -0.418200 1 0 1.000000 
0 5.933701 -11.740200 5.064500 0.826136 0.394817 -0.402018 0.316600 -0.399500 1 0 1.000000 
0 5.930201 -12.521000 3.226000 0.804315 0.572311 -0.159803 0.304400 -0.428200 1 0 1.000000 
borealis_deckdetail_system02
0 4.863400 -11.188300 2.666100 0.446393 0.873287 -0.195197 0.325200 -0.437000 1 0 1.000000 
0 4.883400 -10.672800 3.865300 0.471711 0.684515 -0.555813 0.333200 -0.418200 1 0 1.000000 
0 5.930201 -12.521000 3.226000 0.804315 0.572311 -0.159803 0.304400 -0.428200 1 0 1.000000 
borealis_deckdetail_system02
0 5.929300 -12.519100 0.109800 0.800478 0.587084 0.120697 0.304400 -0.476900 1 0 1.000000 
0 4.863400 -11.188300 2.666100 0.446393 0.873287 -0.195197 0.325200 -0.437000 1 0 1.000000 
0 5.930201 -12.521000 3.226000 0.804315 0.572311 -0.159803 0.304400 -0.428200 1 0 1.000000 
borealis_deckdetail_system02
0 5.929300 -12.519100 0.109800 0.800478 0.587084 0.120697 0.304400 -0.476900 1 0 1.000000 
0 4.862501 -11.186400 0.669700 0.358005 0.922313 0.145502 0.325200 -0.468200 1 0 1.000000 
0 4.863400 -11.188300 2.666100 0.446393 0.873287 -0.195197 0.325200 -0.437000 1 0 1.000000 
borealis_deckdetail_system02
0 4.862501 -11.186400 0.669700 0.358005 0.922313 0.145502 0.325200 -0.468200 1 0 1.000000 
0 5.929300 -12.519100 0.109800 0.800478 0.587084 0.120697 0.304400 -0.476900 1 0 1.000000 
0 4.882300 -10.669400 -0.529500 0.470091 0.740885 0.479691 0.333300 -0.486900 1 0 1.000000 
borealis_deckdetail_system02
0 5.929300 -12.519100 0.109800 0.800478 0.587084 0.120697 0.304400 -0.476900 1 0 1.000000 
0 5.936700 -11.737500 -1.728300 0.825420 0.395609 0.402710 0.316600 -0.505600 1 0 1.000000 
0 4.882300 -10.669400 -0.529500 0.470091 0.740885 0.479691 0.333300 -0.486900 1 0 1.000000 
borealis_deckdetail_system02
0 4.882300 -10.669400 -0.529500 0.470091 0.740885 0.479691 0.333300 -0.486900 1 0 1.000000 
0 5.936700 -11.737500 -1.728300 0.825420 0.395609 0.402710 0.316600 -0.505600 1 0 1.000000 
0 4.900200 -9.517700 -1.426900 0.458707 0.450007 0.766212 0.351300 -0.500900 1 0 1.000000 
borealis_deckdetail_system02
0 5.941801 -10.172900 -2.646900 0.794184 0.226995 0.563689 0.341000 -0.520000 1 0 1.000000 
0 4.900200 -9.517700 -1.426900 0.458707 0.450007 0.766212 0.351300 -0.500900 1 0 1.000000 
0 5.936700 -11.737500 -1.728300 0.825420 0.395609 0.402710 0.316600 -0.505600 1 0 1.000000 
borealis_deckdetail_system02
0 4.900200 -9.517700 -1.426900 0.458707 0.450007 0.766212 0.351300 -0.500900 1 0 1.000000 
0 5.941801 -10.172900 -2.646900 0.794184 0.226995 0.563689 0.341000 -0.520000 1 0 1.000000 
0 4.920401 -7.516100 -2.123800 0.374100 0.165500 0.912501 0.382600 -0.511800 1 0 1.000000 
borealis_deckdetail_system02
0 4.920401 -7.516100 -2.123800 0.374100 0.165500 0.912501 0.382600 -0.511800 1 0 1.000000 
0 5.941801 -10.172900 -2.646900 0.794184 0.226995 0.563689 0.341000 -0.520000 1 0 1.000000 
0 5.944500 -8.015300 -3.323000 0.771599 0.061800 0.633099 0.374800 -0.530600 1 0 1.000000 
borealis_deckdetail_system02
0 -5.929700 12.238300 5.558100 -0.999986 0.004800 0.002300 0.691200 -0.391800 1 0 1.000000 
0 -5.933200 11.740800 5.064200 -0.999986 0.004800 0.002300 0.683500 -0.399500 1 0 1.000000 
0 -5.929700 10.541000 6.662100 -0.999987 0.002800 0.004300 0.664700 -0.374500 1 0 1.000000 
borealis_deckdetail_system02
0 -5.933200 11.740800 5.064200 -0.999986 0.004800 0.002300 0.683500 -0.399500 1 0 1.000000 
0 -5.929700 12.238300 5.558100 -0.999986 0.004800 0.002300 0.691200 -0.391800 1 0 1.000000 
0 -5.929700 13.243400 3.452300 -0.999986 0.004800 0.002300 0.706900 -0.424700 1 0 1.000000 
borealis_deckdetail_system02
0 -5.929400 12.522400 3.226000 -0.999998 0.000200 -0.002000 0.695700 -0.428200 1 0 1.000000 
0 -5.933200 11.740800 5.064200 -0.999986 0.004800 0.002300 0.683500 -0.399500 1 0 1.000000 
0 -5.929700 13.243400 3.452300 -0.999986 0.004800 0.002300 0.706900 -0.424700 1 0 1.000000 
borealis_deckdetail_system02
0 -5.928501 12.524300 0.109800 -0.999966 0.008200 0.000700 0.695700 -0.476900 1 0 1.000000 
0 -5.929400 12.522400 3.226000 -0.999998 0.000200 -0.002000 0.695700 -0.428200 1 0 1.000000 
0 -5.929700 13.243400 3.452300 -0.999986 0.004800 0.002300 0.706900 -0.424700 1 0 1.000000 
borealis_deckdetail_system02
0 -5.929700 13.236300 -9.998700 -0.999994 0.003400 -0.000200 0.706800 -0.634900 1 0 1.000000 
0 -5.928501 12.524300 0.109800 -0.999966 0.008200 0.000700 0.695700 -0.476900 1 0 1.000000 
0 -5.929700 13.243400 3.452300 -0.999986 0.004800 0.002300 0.706900 -0.424700 1 0 1.000000 
borealis_deckdetail_system02
0 -5.929700 13.236300 -9.998700 -0.999994 0.003400 -0.000200 0.706800 -0.634900 1 0 1.000000 
0 -5.936201 11.744100 -1.728300 -0.999994 0.003400 -0.000200 0.683500 -0.505600 1 0 1.000000 
0 -5.928501 12.524300 0.109800 -0.999966 0.008200 0.000700 0.695700 -0.476900 1 0 1.000000 
borealis_deckdetail_system02
0 -5.929700 13.236300 -9.998700 -0.999994 0.003400 -0.000200 0.706800 -0.634900 1 0 1.000000 
0 -5.941300 10.179500 -2.646900 -0.999994 0.003400 -0.000200 0.659100 -0.520000 1 0 1.000000 
0 -5.936201 11.744100 -1.728300 -0.999994 0.003400 -0.000200 0.683500 -0.505600 1 0 1.000000 
borealis_deckdetail_system02
0 -5.929700 13.236300 -9.998700 -0.999994 0.003400 -0.000200 0.706800 -0.634900 1 0 1.000000 
0 -5.944500 8.020900 -3.323000 -0.999998 0.001800 -0.000800 0.625300 -0.530600 1 0 1.000000 
0 -5.941300 10.179500 -2.646900 -0.999994 0.003400 -0.000200 0.659100 -0.520000 1 0 1.000000 
borealis_deckdetail_system02
0 -5.929700 13.236300 -9.998700 -0.999994 0.003400 -0.000200 0.706800 -0.634900 1 0 1.000000 
0 -5.945099 -8.015300 -3.323000 -0.999998 -0.001600 -0.001100 0.374800 -0.530600 1 0 1.000000 
0 -5.944500 8.020900 -3.323000 -0.999998 0.001800 -0.000800 0.625300 -0.530600 1 0 1.000000 
borealis_deckdetail_system02
0 -5.929700 13.236300 -9.998700 -0.999994 0.003400 -0.000200 0.706800 -0.634900 1 0 1.000000 
0 -5.929100 -13.235300 -9.998700 -0.999998 -0.001600 -0.001100 0.293200 -0.634900 1 0 1.000000 
0 -5.945099 -8.015300 -3.323000 -0.999998 -0.001600 -0.001100 0.374800 -0.530600 1 0 1.000000 
borealis_deckdetail_system02
0 -5.929100 -13.235300 -9.998700 -0.999998 -0.001600 -0.001100 0.293200 -0.634900 1 0 1.000000 
0 -5.942400 -10.172900 -2.646900 -0.999998 -0.001600 -0.001100 0.341000 -0.520000 1 0 1.000000 
0 -5.945099 -8.015300 -3.323000 -0.999998 -0.001600 -0.001100 0.374800 -0.530600 1 0 1.000000 
borealis_deckdetail_system02
0 -5.929100 -13.235300 -9.998700 -0.999998 -0.001600 -0.001100 0.293200 -0.634900 1 0 1.000000 
0 -5.933199 -11.737500 -1.728300 -0.999984 -0.005600 0.000500 0.316600 -0.505600 1 0 1.000000 
0 -5.942400 -10.172900 -2.646900 -0.999998 -0.001600 -0.001100 0.341000 -0.520000 1 0 1.000000 
borealis_deckdetail_system02
0 -5.929100 -13.235300 -9.998700 -0.999998 -0.001600 -0.001100 0.293200 -0.634900 1 0 1.000000 
0 -5.929399 -12.519100 0.109800 -0.999991 -0.004300 0.000300 0.304400 -0.476900 1 0 1.000000 
0 -5.933199 -11.737500 -1.728300 -0.999984 -0.005600 0.000500 0.316600 -0.505600 1 0 1.000000 
borealis_deckdetail_system02
0 -5.929100 -13.235300 -9.998700 -0.999998 -0.001600 -0.001100 0.293200 -0.634900 1 0 1.000000 
0 -5.928500 -13.243400 3.452300 -1.000000 -0.000000 0.000000 0.293100 -0.424700 1 0 1.000000 
0 -5.929399 -12.519100 0.109800 -0.999991 -0.004300 0.000300 0.304400 -0.476900 1 0 1.000000 
borealis_deckdetail_system02
0 -5.929399 -12.519100 0.109800 -0.999991 -0.004300 0.000300 0.304400 -0.476900 1 0 1.000000 
0 -5.928500 -13.243400 3.452300 -1.000000 -0.000000 0.000000 0.293100 -0.424700 1 0 1.000000 
0 -5.928500 -12.521000 3.226000 -1.000000 -0.000000 0.000000 0.304400 -0.428200 1 0 1.000000 
borealis_deckdetail_system02
0 -5.928500 -13.243400 3.452300 -1.000000 -0.000000 0.000000 0.293100 -0.424700 1 0 1.000000 
0 -5.928500 -12.238300 5.558100 -1.000000 -0.000000 0.000000 0.308800 -0.391800 1 0 1.000000 
0 -5.928500 -12.521000 3.226000 -1.000000 -0.000000 0.000000 0.304400 -0.428200 1 0 1.000000 
borealis_deckdetail_system02
0 -5.928500 -12.521000 3.226000 -1.000000 -0.000000 0.000000 0.304400 -0.428200 1 0 1.000000 
0 -5.928500 -12.238300 5.558100 -1.000000 -0.000000 0.000000 0.308800 -0.391800 1 0 1.000000 
0 -5.936200 -11.740800 5.064200 -0.999905 -0.013700 0.001700 0.316500 -0.399500 1 0 1.000000 
end
