$cd ".\"
$modelname "props_trainstation/BenchOutdoor01a_old.mdl"
$model "Body" "BenchOutdoor01a_reference.smd"
$cdmaterials "models/props_trainstation/"
$surfaceprop "wood"
$eyeposition 0.000 0.000 0.000
$illumposition 0.000 -0.000 0.000
$sequence idle "idle" ACT_IDLE 1 fps 30.000000

$staticprop
$origin 0 0 0 270

$lod 40
{
	replacemodel "BenchOutdoor01a_reference.smd" "BenchOutdoor01a_reference_Lod1.smd"
}

$lod 55
{
	replacemodel "BenchOutdoor01a_reference.smd" "BenchOutdoor01a_reference_Lod2.smd"
}