version 1
nodes
  0 "static_prop" -1
end
skeleton
time 0
0 0.000000 0.000000 0.000000 0.000000 0.000000 0.000000
end
triangles
jvent001
0 5.500000 -16.000000 -17.000000 -0.000000 1.000000 0.000000 0.103400 -0.497900 1 0 1.000000 
0 5.000000 -15.500000 -17.000000 -0.000000 1.000000 0.000000 0.112400 -0.497900 1 0 1.000000 
0 5.250000 -15.750000 -17.000000 -0.000000 1.000000 0.000000 0.107900 -0.497900 1 0 1.000000 
jvent001
0 5.000000 15.497800 -16.000000 -0.996014 -0.000000 -0.089201 0.681900 -0.864000 1 0 1.000000 
0 4.773301 -15.495700 -14.317000 -0.961214 -0.000000 -0.275804 0.103400 -0.832300 1 0 1.000000 
0 4.773300 15.495700 -14.317000 -0.909742 -0.000000 -0.415174 0.681800 -0.832300 1 0 1.000000 
jvent001
0 5.000000 15.497800 -16.000000 -0.996014 -0.000000 -0.089201 0.681900 -0.864000 1 0 1.000000 
0 5.000000 -15.497800 -16.000000 -0.999005 -0.000000 -0.044600 0.103400 -0.864000 1 0 1.000000 
0 4.773301 -15.495700 -14.317000 -0.961214 -0.000000 -0.275804 0.103400 -0.832300 1 0 1.000000 
jvent001
0 21.000000 15.497801 -16.000000 0.706056 0.706056 0.054497 0.158200 -0.130800 1 0 1.000000 
0 20.500000 16.000000 -17.000000 0.707106 0.707106 0.001500 0.330400 -0.373700 1 0 1.000000 
0 20.497801 16.000000 -16.000000 0.701630 0.704430 0.107205 0.330700 -0.130800 1 0 1.000000 
jvent001
0 21.000000 15.497801 -16.000000 0.706056 0.706056 0.054497 0.158200 -0.130800 1 0 1.000000 
0 21.000000 15.500001 -17.000000 0.707106 0.707106 0.001500 0.158600 -0.373700 1 0 1.000000 
0 20.500000 16.000000 -17.000000 0.707106 0.707106 0.001500 0.330400 -0.373700 1 0 1.000000 
jvent001
0 21.000000 -15.499999 -17.000000 0.707106 -0.707106 0.001500 0.330400 -0.373700 1 0 1.000000 
0 20.497801 -15.999999 -16.000000 0.706052 -0.706052 0.054596 0.158200 -0.130800 1 0 1.000000 
0 20.500000 -15.999999 -17.000000 0.707106 -0.707106 0.001500 0.158600 -0.373700 1 0 1.000000 
jvent001
0 21.000000 -15.499999 -17.000000 0.707106 -0.707106 0.001500 0.330400 -0.373700 1 0 1.000000 
0 21.000000 -15.497799 -16.000000 0.701681 -0.704381 0.107197 0.330700 -0.130800 1 0 1.000000 
0 20.497801 -15.999999 -16.000000 0.706052 -0.706052 0.054596 0.158200 -0.130800 1 0 1.000000 
jvent001
0 5.502200 16.000000 -16.000000 -0.706747 0.706747 -0.031902 0.158200 -0.130800 1 0 1.000000 
0 5.000000 15.500000 -17.000000 -0.707106 0.707106 0.001500 0.330400 -0.373700 1 0 1.000000 
0 5.000000 15.497800 -16.000000 -0.708596 0.702696 -0.064100 0.330700 -0.130800 1 0 1.000000 
jvent001
0 5.502200 16.000000 -16.000000 -0.706747 0.706747 -0.031902 0.158200 -0.130800 1 0 1.000000 
0 5.500000 16.000000 -17.000000 -0.707106 0.707106 0.001500 0.158600 -0.373700 1 0 1.000000 
0 5.000000 15.500000 -17.000000 -0.707106 0.707106 0.001500 0.330400 -0.373700 1 0 1.000000 
jvent001
0 5.500000 -16.000000 -17.000000 -0.707106 -0.707106 0.001500 0.330400 -0.373700 1 0 1.000000 
0 5.000000 -15.497800 -16.000000 -0.706782 -0.706782 -0.030299 0.158200 -0.130800 1 0 1.000000 
0 5.000000 -15.500000 -17.000000 -0.707106 -0.707106 0.001500 0.158600 -0.373700 1 0 1.000000 
jvent001
0 5.500000 -16.000000 -17.000000 -0.707106 -0.707106 0.001500 0.330400 -0.373700 1 0 1.000000 
0 5.502201 -16.000000 -16.000000 -0.708297 -0.702998 -0.064100 0.330700 -0.130800 1 0 1.000000 
0 5.000000 -15.497800 -16.000000 -0.706782 -0.706782 -0.030299 0.158200 -0.130800 1 0 1.000000 
jvent001
0 5.500000 -15.500000 -16.000000 0.000000 0.000000 -1.000000 0.756100 -0.116600 1 0 1.000000 
0 20.500000 15.500001 -16.000000 0.000000 0.000000 -1.000000 0.990800 -0.003000 1 0 1.000000 
0 20.500000 -15.499999 -16.000000 0.000000 0.000000 -1.000000 0.756100 -0.003000 1 0 1.000000 
jvent001
0 5.500000 -15.500000 -16.000000 0.000000 0.000000 -1.000000 0.756100 -0.116600 1 0 1.000000 
0 5.500000 15.500000 -16.000000 0.000000 0.000000 -1.000000 0.990800 -0.116600 1 0 1.000000 
0 20.500000 15.500001 -16.000000 0.000000 0.000000 -1.000000 0.990800 -0.003000 1 0 1.000000 
jvent001
0 20.500000 -15.499999 -17.000000 -1.000000 -0.000000 0.000000 0.103400 -0.572400 1 0 1.000000 
0 20.500000 15.500001 -16.000000 -1.000000 -0.000000 0.000000 0.681900 -0.553800 1 0 1.000000 
0 20.500000 15.500001 -17.000000 -1.000000 -0.000000 0.000000 0.681900 -0.572400 1 0 1.000000 
jvent001
0 20.500000 -15.499999 -17.000000 -1.000000 -0.000000 0.000000 0.103400 -0.572400 1 0 1.000000 
0 20.500000 -15.499999 -16.000000 -1.000000 -0.000000 0.000000 0.103400 -0.553800 1 0 1.000000 
0 20.500000 15.500001 -16.000000 -1.000000 -0.000000 0.000000 0.681900 -0.553800 1 0 1.000000 
jvent001
0 20.500000 15.500001 -17.000000 0.000000 -1.000000 0.000000 0.103400 -0.582400 1 0 1.000000 
0 5.500000 15.500000 -16.000000 0.000000 -1.000000 0.000000 0.681900 -0.543800 1 0 1.000000 
0 5.500000 15.500000 -17.000000 0.000000 -1.000000 0.000000 0.681900 -0.582400 1 0 1.000000 
jvent001
0 20.500000 15.500001 -17.000000 0.000000 -1.000000 0.000000 0.103400 -0.582400 1 0 1.000000 
0 20.500000 15.500001 -16.000000 0.000000 -1.000000 0.000000 0.103400 -0.543800 1 0 1.000000 
0 5.500000 15.500000 -16.000000 0.000000 -1.000000 0.000000 0.681900 -0.543800 1 0 1.000000 
jvent001
0 5.500000 15.500000 -17.000000 1.000000 0.000000 0.000000 0.681900 -0.572400 1 0 1.000000 
0 5.500000 -15.500000 -16.000000 1.000000 0.000000 0.000000 0.103400 -0.553800 1 0 1.000000 
0 5.500000 -15.500000 -17.000000 1.000000 0.000000 0.000000 0.103400 -0.572400 1 0 1.000000 
jvent001
0 5.500000 15.500000 -17.000000 1.000000 0.000000 0.000000 0.681900 -0.572400 1 0 1.000000 
0 5.500000 15.500000 -16.000000 1.000000 0.000000 0.000000 0.681900 -0.553800 1 0 1.000000 
0 5.500000 -15.500000 -16.000000 1.000000 0.000000 0.000000 0.103400 -0.553800 1 0 1.000000 
jvent001
0 5.500000 -15.500000 -17.000000 -0.000000 1.000000 0.000000 0.681900 -0.582400 1 0 1.000000 
0 20.500000 -15.499999 -16.000000 -0.000000 1.000000 0.000000 0.103400 -0.543800 1 0 1.000000 
0 20.500000 -15.499999 -17.000000 -0.000000 1.000000 0.000000 0.103400 -0.582400 1 0 1.000000 
jvent001
0 5.500000 -15.500000 -17.000000 -0.000000 1.000000 0.000000 0.681900 -0.582400 1 0 1.000000 
0 5.500000 -15.500000 -16.000000 -0.000000 1.000000 0.000000 0.681900 -0.543800 1 0 1.000000 
0 20.500000 -15.499999 -16.000000 -0.000000 1.000000 0.000000 0.103400 -0.543800 1 0 1.000000 
jvent001
0 5.250000 15.750000 -17.000000 0.000000 0.000000 -1.000000 0.677300 -0.703200 1 0 1.000000 
0 5.000000 -15.500000 -17.000000 0.000000 0.000000 -1.000000 0.112400 -0.707700 1 0 1.000000 
0 5.000000 15.500000 -17.000000 0.000000 0.000000 -1.000000 0.672800 -0.707700 1 0 1.000000 
jvent001
0 5.250000 15.750000 -17.000000 0.000000 0.000000 -1.000000 0.677300 -0.703200 1 0 1.000000 
0 5.250000 -15.750000 -17.000000 0.000000 0.000000 -1.000000 0.107900 -0.703200 1 0 1.000000 
0 5.000000 -15.500000 -17.000000 0.000000 0.000000 -1.000000 0.112400 -0.707700 1 0 1.000000 
jvent001
0 5.250000 -15.750000 -17.000000 0.000000 0.000000 -1.000000 0.107900 -0.703200 1 0 1.000000 
0 20.500000 -15.999999 -17.000000 0.000000 0.000000 -1.000000 0.103400 -0.427500 1 0 1.000000 
0 5.500000 -16.000000 -17.000000 0.000000 0.000000 -1.000000 0.103400 -0.698700 1 0 1.000000 
jvent001
0 5.250000 -15.750000 -17.000000 0.000000 0.000000 -1.000000 0.107900 -0.703200 1 0 1.000000 
0 20.750000 -15.749999 -17.000000 0.000000 0.000000 -1.000000 0.107900 -0.423000 1 0 1.000000 
0 20.500000 -15.999999 -17.000000 0.000000 0.000000 -1.000000 0.103400 -0.427500 1 0 1.000000 
jvent001
0 20.750000 15.750001 -17.000000 0.000000 0.000000 -1.000000 0.677300 -0.423000 1 0 1.000000 
0 20.500000 15.500001 -17.000000 0.000000 0.000000 -1.000000 0.672800 -0.427500 1 0 1.000000 
0 5.500000 15.500000 -17.000000 0.000000 0.000000 -1.000000 0.672800 -0.698700 1 0 1.000000 
jvent001
0 20.750000 -15.749999 -17.000000 0.000000 0.000000 -1.000000 0.107900 -0.423000 1 0 1.000000 
0 20.500000 15.500001 -17.000000 0.000000 0.000000 -1.000000 0.672800 -0.427500 1 0 1.000000 
0 20.750000 15.750001 -17.000000 0.000000 0.000000 -1.000000 0.677300 -0.423000 1 0 1.000000 
jvent001
0 20.750000 -15.749999 -17.000000 0.000000 0.000000 -1.000000 0.107900 -0.423000 1 0 1.000000 
0 20.500000 -15.499999 -17.000000 0.000000 0.000000 -1.000000 0.112400 -0.427500 1 0 1.000000 
0 20.500000 15.500001 -17.000000 0.000000 0.000000 -1.000000 0.672800 -0.427500 1 0 1.000000 
jvent001
0 5.250000 -15.750000 -17.000000 0.000000 0.000000 -1.000000 0.107900 -0.703200 1 0 1.000000 
0 20.500000 -15.499999 -17.000000 0.000000 0.000000 -1.000000 0.112400 -0.427500 1 0 1.000000 
0 20.750000 -15.749999 -17.000000 0.000000 0.000000 -1.000000 0.107900 -0.423000 1 0 1.000000 
jvent001
0 5.250000 -15.750000 -17.000000 0.000000 0.000000 -1.000000 0.107900 -0.703200 1 0 1.000000 
0 5.500000 -15.500000 -17.000000 0.000000 0.000000 -1.000000 0.112400 -0.698700 1 0 1.000000 
0 20.500000 -15.499999 -17.000000 0.000000 0.000000 -1.000000 0.112400 -0.427500 1 0 1.000000 
jvent001
0 5.250000 15.750000 -17.000000 0.000000 0.000000 -1.000000 0.677300 -0.703200 1 0 1.000000 
0 5.500000 -15.500000 -17.000000 0.000000 0.000000 -1.000000 0.112400 -0.698700 1 0 1.000000 
0 5.250000 -15.750000 -17.000000 0.000000 0.000000 -1.000000 0.107900 -0.703200 1 0 1.000000 
jvent001
0 5.250000 15.750000 -17.000000 0.000000 0.000000 -1.000000 0.677300 -0.703200 1 0 1.000000 
0 5.500000 15.500000 -17.000000 0.000000 0.000000 -1.000000 0.672800 -0.698700 1 0 1.000000 
0 5.500000 -15.500000 -17.000000 0.000000 0.000000 -1.000000 0.112400 -0.698700 1 0 1.000000 
jvent001
0 20.750000 15.750001 -17.000000 0.000000 0.000000 -1.000000 0.677300 -0.423000 1 0 1.000000 
0 5.500000 15.500000 -17.000000 0.000000 0.000000 -1.000000 0.672800 -0.698700 1 0 1.000000 
0 5.250000 15.750000 -17.000000 0.000000 0.000000 -1.000000 0.677300 -0.703200 1 0 1.000000 
jvent001
0 20.750000 15.750001 -17.000000 0.000000 0.000000 -1.000000 0.677300 -0.423000 1 0 1.000000 
0 5.250000 15.750000 -17.000000 0.000000 0.000000 -1.000000 0.677300 -0.703200 1 0 1.000000 
0 5.500000 16.000000 -17.000000 0.000000 0.000000 -1.000000 0.681900 -0.698700 1 0 1.000000 
jvent001
0 20.750000 15.750001 -17.000000 0.000000 0.000000 -1.000000 0.677300 -0.423000 1 0 1.000000 
0 5.500000 16.000000 -17.000000 0.000000 0.000000 -1.000000 0.681900 -0.698700 1 0 1.000000 
0 20.500000 16.000000 -17.000000 0.000000 0.000000 -1.000000 0.681900 -0.427500 1 0 1.000000 
jvent001
0 20.750000 -15.749999 -17.000000 0.000000 0.000000 -1.000000 0.107900 -0.423000 1 0 1.000000 
0 21.000000 15.500001 -17.000000 0.000000 0.000000 -1.000000 0.672800 -0.418500 1 0 1.000000 
0 21.000000 -15.499999 -17.000000 0.000000 0.000000 -1.000000 0.112400 -0.418500 1 0 1.000000 
jvent001
0 20.750000 -15.749999 -17.000000 0.000000 0.000000 -1.000000 0.107900 -0.423000 1 0 1.000000 
0 20.750000 15.750001 -17.000000 0.000000 0.000000 -1.000000 0.677300 -0.423000 1 0 1.000000 
0 21.000000 15.500001 -17.000000 0.000000 0.000000 -1.000000 0.672800 -0.418500 1 0 1.000000 
jvent001
0 20.500000 16.000000 -17.000000 -0.000000 1.000000 0.000000 0.681900 -0.497900 1 0 1.000000 
0 21.000000 15.500001 -17.000000 -0.000000 1.000000 0.000000 0.672800 -0.497900 1 0 1.000000 
0 20.750000 15.750001 -17.000000 -0.000000 1.000000 0.000000 0.677300 -0.497900 1 0 1.000000 
jvent001
0 21.000000 -15.499999 -17.000000 1.000000 0.000000 0.000000 0.103400 -0.898700 1 0 1.000000 
0 21.000000 15.497801 -16.000000 0.997206 0.000000 0.074700 0.681800 -0.880000 1 0 1.000000 
0 21.000000 -15.497799 -16.000000 0.988762 0.000000 0.149494 0.103400 -0.880000 1 0 1.000000 
jvent001
0 21.000000 -15.499999 -17.000000 1.000000 0.000000 0.000000 0.103400 -0.898700 1 0 1.000000 
0 21.000000 15.500001 -17.000000 1.000000 0.000000 0.000000 0.681900 -0.898700 1 0 1.000000 
0 21.000000 15.497801 -16.000000 0.997206 0.000000 0.074700 0.681800 -0.880000 1 0 1.000000 
jvent001
0 5.000000 -15.497800 -16.000000 -0.999005 -0.000000 -0.044600 0.103400 -0.880000 1 0 1.000000 
0 5.000000 15.500000 -17.000000 -1.000000 -0.000000 0.000000 0.681900 -0.898700 1 0 1.000000 
0 5.000000 -15.500000 -17.000000 -1.000000 -0.000000 0.000000 0.103400 -0.898700 1 0 1.000000 
jvent001
0 5.000000 -15.497800 -16.000000 -0.999005 -0.000000 -0.044600 0.103400 -0.880000 1 0 1.000000 
0 5.000000 15.497800 -16.000000 -0.996014 -0.000000 -0.089201 0.681800 -0.880000 1 0 1.000000 
0 5.000000 15.500000 -17.000000 -1.000000 -0.000000 0.000000 0.681900 -0.898700 1 0 1.000000 
jvent001
0 -5.000000 15.497800 -16.000000 0.706760 0.706760 -0.031298 0.386700 -0.286800 1 0 1.000000 
0 -5.500000 16.000000 -51.000000 0.707107 0.707107 0.000000 0.401100 -0.993900 1 0 1.000000 
0 -5.502201 16.000000 -16.000000 0.708275 0.702975 -0.064598 0.401100 -0.286800 1 0 1.000000 
jvent001
0 -5.000000 15.497800 -16.000000 0.706760 0.706760 -0.031298 0.386700 -0.286800 1 0 1.000000 
0 -5.000000 15.500000 -51.000000 0.707107 0.707107 0.000000 0.386800 -0.993900 1 0 1.000000 
0 -5.500000 16.000000 -51.000000 0.707107 0.707107 0.000000 0.401100 -0.993900 1 0 1.000000 
jvent001
0 -5.000000 -15.500000 -51.000000 0.707107 -0.707107 0.000000 0.401100 -0.993900 1 0 1.000000 
0 -5.502200 -16.000000 -16.000000 0.706724 -0.706724 -0.032901 0.386700 -0.286800 1 0 1.000000 
0 -5.500000 -16.000000 -51.000000 0.707107 -0.707107 0.000000 0.386800 -0.993900 1 0 1.000000 
jvent001
0 -5.000000 -15.500000 -51.000000 0.707107 -0.707107 0.000000 0.401100 -0.993900 1 0 1.000000 
0 -5.000000 -15.497800 -16.000000 0.708574 -0.702674 -0.064598 0.401100 -0.286800 1 0 1.000000 
0 -5.502200 -16.000000 -16.000000 0.706724 -0.706724 -0.032901 0.386700 -0.286800 1 0 1.000000 
jvent001
0 -20.497801 15.999999 -16.000000 -0.706090 0.706090 0.053599 0.386700 -0.286800 1 0 1.000000 
0 -21.000000 15.499999 -51.000000 -0.707107 0.707107 0.000000 0.401100 -0.993900 1 0 1.000000 
0 -21.000000 15.497799 -16.000000 -0.701711 0.704411 0.106802 0.401100 -0.286800 1 0 1.000000 
jvent001
0 -20.497801 15.999999 -16.000000 -0.706090 0.706090 0.053599 0.386700 -0.286800 1 0 1.000000 
0 -20.500000 15.999999 -51.000000 -0.707107 0.707107 0.000000 0.386800 -0.993900 1 0 1.000000 
0 -21.000000 15.499999 -51.000000 -0.707107 0.707107 0.000000 0.401100 -0.993900 1 0 1.000000 
jvent001
0 -20.500000 -16.000000 -51.000000 -0.707107 -0.707107 0.000000 0.401100 -0.993900 1 0 1.000000 
0 -21.000000 -15.497801 -16.000000 -0.706094 -0.706094 0.053500 0.386700 -0.286800 1 0 1.000000 
0 -21.000000 -15.500001 -51.000000 -0.707107 -0.707107 0.000000 0.386800 -0.993900 1 0 1.000000 
jvent001
0 -20.500000 -16.000000 -51.000000 -0.707107 -0.707107 0.000000 0.401100 -0.993900 1 0 1.000000 
0 -20.497801 -16.000000 -16.000000 -0.701669 -0.704469 0.106695 0.401100 -0.286800 1 0 1.000000 
0 -21.000000 -15.497801 -16.000000 -0.706094 -0.706094 0.053500 0.386700 -0.286800 1 0 1.000000 
jvent001
0 -20.497801 15.999999 -16.000000 -0.000000 1.000000 0.000000 0.545400 -0.286800 1 0 1.000000 
0 -5.500000 16.000000 -51.000000 -0.000000 1.000000 0.000000 0.242400 -0.993900 1 0 1.000000 
0 -20.500000 15.999999 -51.000000 -0.000000 1.000000 0.000000 0.545400 -0.993900 1 0 1.000000 
jvent001
0 -20.497801 15.999999 -16.000000 -0.000000 1.000000 0.000000 0.545400 -0.286800 1 0 1.000000 
0 -5.502201 16.000000 -16.000000 -0.000000 1.000000 0.000000 0.242400 -0.286800 1 0 1.000000 
0 -5.500000 16.000000 -51.000000 -0.000000 1.000000 0.000000 0.242400 -0.993900 1 0 1.000000 
jvent001
0 -20.500000 -16.000000 -51.000000 0.000000 -1.000000 0.000000 0.545400 -0.993900 1 0 1.000000 
0 -5.502200 -16.000000 -16.000000 0.000000 -1.000000 0.000000 0.242400 -0.286800 1 0 1.000000 
0 -20.497801 -16.000000 -16.000000 0.000000 -1.000000 0.000000 0.545400 -0.286800 1 0 1.000000 
jvent001
0 -20.500000 -16.000000 -51.000000 0.000000 -1.000000 0.000000 0.545400 -0.993900 1 0 1.000000 
0 -5.500000 -16.000000 -51.000000 0.000000 -1.000000 0.000000 0.242400 -0.993900 1 0 1.000000 
0 -5.502200 -16.000000 -16.000000 0.000000 -1.000000 0.000000 0.242400 -0.286800 1 0 1.000000 
jvent001
0 -5.000000 -15.500000 -51.000000 1.000000 0.000000 0.000000 0.080800 -0.993900 1 0 1.000000 
0 -5.000000 15.497800 -16.000000 0.999005 0.000000 -0.044600 0.707000 -0.286800 1 0 1.000000 
0 -5.000000 -15.497800 -16.000000 0.996014 0.000000 -0.089201 0.080800 -0.286800 1 0 1.000000 
jvent001
0 -5.000000 -15.500000 -51.000000 1.000000 0.000000 0.000000 0.080800 -0.993900 1 0 1.000000 
0 -5.000000 15.500000 -51.000000 1.000000 0.000000 0.000000 0.707100 -0.993900 1 0 1.000000 
0 -5.000000 15.497800 -16.000000 0.999005 0.000000 -0.044600 0.707000 -0.286800 1 0 1.000000 
jvent001
0 -21.000000 -15.497801 -16.000000 -0.997206 -0.000000 0.074700 0.080800 -0.286800 1 0 1.000000 
0 -21.000000 15.499999 -51.000000 -1.000000 -0.000000 0.000000 0.707100 -0.993900 1 0 1.000000 
0 -21.000000 -15.500001 -51.000000 -1.000000 -0.000000 0.000000 0.080800 -0.993900 1 0 1.000000 
jvent001
0 -21.000000 -15.497801 -16.000000 -0.997206 -0.000000 0.074700 0.080800 -0.286800 1 0 1.000000 
0 -21.000000 15.497799 -16.000000 -0.988762 -0.000000 0.149494 0.707000 -0.286800 1 0 1.000000 
0 -21.000000 15.499999 -51.000000 -1.000000 -0.000000 0.000000 0.707100 -0.993900 1 0 1.000000 
jvent001
0 -18.781401 15.999999 -8.530000 -0.666488 0.705387 0.241295 0.213800 -0.136900 1 0 1.000000 
0 -21.000000 15.497799 -16.000000 -0.701711 0.704411 0.106802 0.274100 -0.373700 1 0 1.000000 
0 -19.247499 15.495699 -8.337400 -0.630884 0.706182 0.321392 0.235200 -0.130800 1 0 1.000000 
jvent001
0 -18.781401 15.999999 -8.530000 -0.666488 0.705387 0.241295 0.213800 -0.136900 1 0 1.000000 
0 -20.497801 15.999999 -16.000000 -0.706090 0.706090 0.053599 0.251900 -0.373700 1 0 1.000000 
0 -21.000000 15.497799 -16.000000 -0.701711 0.704411 0.106802 0.274100 -0.373700 1 0 1.000000 
jvent001
0 -19.247499 -15.495701 -8.337400 -0.666488 -0.705387 0.241296 0.253700 -0.130800 1 0 1.000000 
0 -20.497801 -16.000000 -16.000000 -0.701669 -0.704469 0.106695 0.237100 -0.373700 1 0 1.000000 
0 -18.781401 -16.000000 -8.530000 -0.630803 -0.706204 0.321502 0.275200 -0.136900 1 0 1.000000 
jvent001
0 -19.247499 -15.495701 -8.337400 -0.666488 -0.705387 0.241296 0.253700 -0.130800 1 0 1.000000 
0 -21.000000 -15.497801 -16.000000 -0.706094 -0.706094 0.053500 0.214900 -0.373700 1 0 1.000000 
0 -20.497801 -16.000000 -16.000000 -0.701669 -0.704469 0.106695 0.237100 -0.373700 1 0 1.000000 
jvent001
0 -5.502201 16.000000 -16.000000 0.708275 0.702975 -0.064598 0.299700 -0.373700 1 0 1.000000 
0 -4.773301 15.495700 -14.317000 0.678695 0.707895 -0.195598 0.187500 -0.155800 1 0 1.000000 
0 -5.000000 15.497800 -16.000000 0.706760 0.706760 -0.031298 0.208200 -0.373600 1 0 1.000000 
jvent001
0 -5.502201 16.000000 -16.000000 0.708275 0.702975 -0.064598 0.299700 -0.373700 1 0 1.000000 
0 -5.239501 16.000000 -14.124400 0.643630 0.706233 -0.294914 0.275900 -0.130800 1 0 1.000000 
0 -4.773301 15.495700 -14.317000 0.678695 0.707895 -0.195598 0.187500 -0.155800 1 0 1.000000 
jvent001
0 -5.239500 -16.000000 -14.124400 0.678907 -0.707607 -0.195902 0.213100 -0.130800 1 0 1.000000 
0 -5.000000 -15.497800 -16.000000 0.708574 -0.702674 -0.064598 0.280800 -0.373600 1 0 1.000000 
0 -4.773300 -15.495700 -14.317000 0.644305 -0.706206 -0.293502 0.301500 -0.155800 1 0 1.000000 
jvent001
0 -5.239500 -16.000000 -14.124400 0.678907 -0.707607 -0.195902 0.213100 -0.130800 1 0 1.000000 
0 -5.502200 -16.000000 -16.000000 0.706724 -0.706724 -0.032901 0.189300 -0.373700 1 0 1.000000 
0 -5.000000 -15.497800 -16.000000 0.708574 -0.702674 -0.064598 0.280800 -0.373600 1 0 1.000000 
jvent001
0 -14.349601 15.999999 -1.953400 -0.531487 0.706183 0.467789 0.178600 -0.143300 1 0 1.000000 
0 -19.247499 15.495699 -8.337400 -0.630884 0.706182 0.321392 0.309200 -0.366900 1 0 1.000000 
0 -14.706201 15.495699 -1.596800 -0.465691 0.706286 0.533190 0.197800 -0.130800 1 0 1.000000 
jvent001
0 -14.349601 15.999999 -1.953400 -0.531487 0.706183 0.467789 0.178600 -0.143300 1 0 1.000000 
0 -18.781401 15.999999 -8.530000 -0.666488 0.705387 0.241295 0.287300 -0.373700 1 0 1.000000 
0 -19.247499 15.495699 -8.337400 -0.630884 0.706182 0.321392 0.309200 -0.366900 1 0 1.000000 
jvent001
0 -14.706199 -15.495701 -1.596800 -0.531487 -0.706183 0.467789 0.291200 -0.130800 1 0 1.000000 
0 -18.781401 -16.000000 -8.530000 -0.630803 -0.706204 0.321502 0.201700 -0.373700 1 0 1.000000 
0 -14.349599 -16.000000 -1.953400 -0.465691 -0.706286 0.533190 0.310400 -0.143300 1 0 1.000000 
jvent001
0 -14.706199 -15.495701 -1.596800 -0.531487 -0.706183 0.467789 0.291200 -0.130800 1 0 1.000000 
0 -19.247499 -15.495701 -8.337400 -0.666488 -0.705387 0.241296 0.179800 -0.366900 1 0 1.000000 
0 -18.781401 -16.000000 -8.530000 -0.630803 -0.706204 0.321502 0.201700 -0.373700 1 0 1.000000 
jvent001
0 -5.239501 16.000000 -14.124400 0.643630 0.706233 -0.294914 0.326000 -0.350900 1 0 1.000000 
0 -3.678601 15.495700 -12.622600 0.536809 0.706812 -0.460708 0.160800 -0.173100 1 0 1.000000 
0 -4.773301 15.495700 -14.317000 0.678695 0.707895 -0.195598 0.251600 -0.373700 1 0 1.000000 
jvent001
0 -5.239501 16.000000 -14.124400 0.643630 0.706233 -0.294914 0.326000 -0.350900 1 0 1.000000 
0 -4.035201 16.000000 -12.266000 0.468802 0.706403 -0.530302 0.226200 -0.130800 1 0 1.000000 
0 -3.678601 15.495700 -12.622600 0.536809 0.706812 -0.460708 0.160800 -0.173100 1 0 1.000000 
jvent001
0 -4.035200 -16.000000 -12.266000 0.536894 -0.706692 -0.460795 0.262800 -0.130800 1 0 1.000000 
0 -4.773300 -15.495700 -14.317000 0.644305 -0.706206 -0.293502 0.237400 -0.373700 1 0 1.000000 
0 -3.678599 -15.495700 -12.622600 0.469007 -0.706411 -0.530108 0.328200 -0.173100 1 0 1.000000 
jvent001
0 -4.035200 -16.000000 -12.266000 0.536894 -0.706692 -0.460795 0.262800 -0.130800 1 0 1.000000 
0 -5.239500 -16.000000 -14.124400 0.678907 -0.707607 -0.195902 0.162900 -0.350900 1 0 1.000000 
0 -4.773300 -15.495700 -14.317000 0.644305 -0.706206 -0.293502 0.237400 -0.373700 1 0 1.000000 
jvent001
0 -7.765601 16.000000 2.445900 -0.313612 0.706328 0.634625 0.123000 -0.157900 1 0 1.000000 
0 -14.706201 15.495699 -1.596800 -0.465691 0.706286 0.533190 0.365900 -0.352000 1 0 1.000000 
0 -7.958601 15.495700 2.911800 -0.227005 0.706314 0.670514 0.139100 -0.135500 1 0 1.000000 
jvent001
0 -7.765601 16.000000 2.445900 -0.313612 0.706328 0.634625 0.123000 -0.157900 1 0 1.000000 
0 -14.349601 15.999999 -1.953400 -0.531487 0.706183 0.467789 0.344300 -0.369100 1 0 1.000000 
0 -14.706201 15.495699 -1.596800 -0.465691 0.706286 0.533190 0.365900 -0.352000 1 0 1.000000 
jvent001
0 -7.958600 -15.495700 2.911800 -0.313612 -0.706328 0.634625 0.349800 -0.135500 1 0 1.000000 
0 -14.349599 -16.000000 -1.953400 -0.465691 -0.706286 0.533190 0.144600 -0.369100 1 0 1.000000 
0 -7.765600 -16.000000 2.445900 -0.227005 -0.706314 0.670514 0.365900 -0.157900 1 0 1.000000 
jvent001
0 -7.958600 -15.495700 2.911800 -0.313612 -0.706328 0.634625 0.349800 -0.135500 1 0 1.000000 
0 -14.706199 -15.495701 -1.596800 -0.531487 -0.706183 0.467789 0.123000 -0.352000 1 0 1.000000 
0 -14.349599 -16.000000 -1.953400 -0.465691 -0.706286 0.533190 0.144600 -0.369100 1 0 1.000000 
jvent001
0 -4.035201 16.000000 -12.266000 0.468802 0.706403 -0.530302 0.365900 -0.317900 1 0 1.000000 
0 -1.991201 15.495700 -11.495100 0.313612 0.706328 -0.634625 0.123000 -0.203100 1 0 1.000000 
0 -3.678601 15.495700 -12.622600 0.536809 0.706812 -0.460708 0.299000 -0.371000 1 0 1.000000 
jvent001
0 -4.035201 16.000000 -12.266000 0.468802 0.706403 -0.530302 0.365900 -0.317900 1 0 1.000000 
0 -2.184201 16.000000 -11.029200 0.227005 0.706314 -0.670514 0.173000 -0.133700 1 0 1.000000 
0 -1.991201 15.495700 -11.495100 0.313612 0.706328 -0.634625 0.123000 -0.203100 1 0 1.000000 
jvent001
0 -2.184199 -16.000000 -11.029200 0.313612 -0.706328 -0.634625 0.316000 -0.133700 1 0 1.000000 
0 -3.678599 -15.495700 -12.622600 0.469007 -0.706411 -0.530108 0.190000 -0.371000 1 0 1.000000 
0 -1.991199 -15.495700 -11.495100 0.227005 -0.706314 -0.670514 0.365900 -0.203100 1 0 1.000000 
jvent001
0 -2.184199 -16.000000 -11.029200 0.313612 -0.706328 -0.634625 0.316000 -0.133700 1 0 1.000000 
0 -4.035200 -16.000000 -12.266000 0.536894 -0.706692 -0.460795 0.123000 -0.317900 1 0 1.000000 
0 -3.678599 -15.495700 -12.622600 0.469007 -0.706411 -0.530108 0.190000 -0.371000 1 0 1.000000 
jvent001
0 -0.000001 16.000000 3.990700 -0.046802 0.706332 0.706332 0.123000 -0.230600 1 0 1.000000 
0 -7.958601 15.495700 2.911800 -0.227005 0.706314 0.670514 0.365900 -0.277000 1 0 1.000000 
0 -0.000001 15.495700 4.495000 0.046802 0.706332 0.706332 0.126100 -0.208900 1 0 1.000000 
jvent001
0 -0.000001 16.000000 3.990700 -0.046802 0.706332 0.706332 0.123000 -0.230600 1 0 1.000000 
0 -7.765601 16.000000 2.445900 -0.313612 0.706328 0.634625 0.357100 -0.297100 1 0 1.000000 
0 -7.958601 15.495700 2.911800 -0.227005 0.706314 0.670514 0.365900 -0.277000 1 0 1.000000 
jvent001
0 0.000001 -15.495700 4.495000 -0.046802 -0.706332 0.706332 0.362900 -0.208900 1 0 1.000000 
0 -7.765600 -16.000000 2.445900 -0.227005 -0.706314 0.670514 0.131900 -0.297100 1 0 1.000000 
0 0.000001 -16.000000 3.990700 0.046802 -0.706332 0.706332 0.365900 -0.230600 1 0 1.000000 
jvent001
0 0.000001 -15.495700 4.495000 -0.046802 -0.706332 0.706332 0.362900 -0.208900 1 0 1.000000 
0 -7.958600 -15.495700 2.911800 -0.313612 -0.706328 0.634625 0.123000 -0.277000 1 0 1.000000 
0 -7.765600 -16.000000 2.445900 -0.227005 -0.706314 0.670514 0.131900 -0.297100 1 0 1.000000 
jvent001
0 -2.184201 16.000000 -11.029200 0.227005 0.706314 -0.670514 0.365900 -0.251000 1 0 1.000000 
0 -0.000001 15.495700 -11.099200 0.046802 0.706332 -0.706332 0.123000 -0.261600 1 0 1.000000 
0 -1.991201 15.495700 -11.495100 0.313612 0.706328 -0.634625 0.334700 -0.321700 1 0 1.000000 
jvent001
0 -2.184201 16.000000 -11.029200 0.227005 0.706314 -0.670514 0.365900 -0.251000 1 0 1.000000 
0 -0.000001 16.000000 -10.594800 -0.046802 0.706332 -0.706332 0.133700 -0.185000 1 0 1.000000 
0 -0.000001 15.495700 -11.099200 0.046802 0.706332 -0.706332 0.123000 -0.261600 1 0 1.000000 
jvent001
0 0.000001 -16.000000 -10.594800 0.046802 -0.706332 -0.706332 0.355300 -0.185000 1 0 1.000000 
0 -1.991199 -15.495700 -11.495100 0.227005 -0.706314 -0.670514 0.154200 -0.321700 1 0 1.000000 
0 0.000001 -15.495700 -11.099200 -0.046802 -0.706332 -0.706332 0.365900 -0.261600 1 0 1.000000 
jvent001
0 0.000001 -16.000000 -10.594800 0.046802 -0.706332 -0.706332 0.355300 -0.185000 1 0 1.000000 
0 -2.184199 -16.000000 -11.029200 0.313612 -0.706328 -0.634625 0.123000 -0.251000 1 0 1.000000 
0 -1.991199 -15.495700 -11.495100 0.227005 -0.706314 -0.670514 0.154200 -0.321700 1 0 1.000000 
jvent001
0 7.765600 16.000000 2.445900 0.227005 0.706314 0.670514 0.131900 -0.297100 1 0 1.000000 
0 -0.000001 15.495700 4.495000 0.046802 0.706332 0.706332 0.362900 -0.208900 1 0 1.000000 
0 7.958600 15.495700 2.911800 0.313612 0.706328 0.634625 0.123000 -0.277000 1 0 1.000000 
jvent001
0 7.765600 16.000000 2.445900 0.227005 0.706314 0.670514 0.131900 -0.297100 1 0 1.000000 
0 -0.000001 16.000000 3.990700 -0.046802 0.706332 0.706332 0.365900 -0.230600 1 0 1.000000 
0 -0.000001 15.495700 4.495000 0.046802 0.706332 0.706332 0.362900 -0.208900 1 0 1.000000 
jvent001
0 7.958601 -15.495700 2.911800 0.227005 -0.706314 0.670514 0.365900 -0.277000 1 0 1.000000 
0 0.000001 -16.000000 3.990700 0.046802 -0.706332 0.706332 0.123000 -0.230600 1 0 1.000000 
0 7.765601 -16.000000 2.445900 0.313612 -0.706328 0.634625 0.357100 -0.297100 1 0 1.000000 
jvent001
0 7.958601 -15.495700 2.911800 0.227005 -0.706314 0.670514 0.365900 -0.277000 1 0 1.000000 
0 0.000001 -15.495700 4.495000 -0.046802 -0.706332 0.706332 0.126100 -0.208900 1 0 1.000000 
0 0.000001 -16.000000 3.990700 0.046802 -0.706332 0.706332 0.123000 -0.230600 1 0 1.000000 
jvent001
0 -0.000001 16.000000 -10.594800 -0.046802 0.706332 -0.706332 0.355300 -0.185000 1 0 1.000000 
0 1.991199 15.495700 -11.495100 -0.227005 0.706314 -0.670514 0.154200 -0.321700 1 0 1.000000 
0 -0.000001 15.495700 -11.099200 0.046802 0.706332 -0.706332 0.365900 -0.261600 1 0 1.000000 
jvent001
0 -0.000001 16.000000 -10.594800 -0.046802 0.706332 -0.706332 0.355300 -0.185000 1 0 1.000000 
0 2.184199 16.000000 -11.029200 -0.313612 0.706328 -0.634625 0.123000 -0.251000 1 0 1.000000 
0 1.991199 15.495700 -11.495100 -0.227005 0.706314 -0.670514 0.154200 -0.321700 1 0 1.000000 
jvent001
0 2.184201 -16.000000 -11.029200 -0.227005 -0.706314 -0.670514 0.365900 -0.251000 1 0 1.000000 
0 0.000001 -15.495700 -11.099200 -0.046802 -0.706332 -0.706332 0.123000 -0.261600 1 0 1.000000 
0 1.991201 -15.495700 -11.495100 -0.313612 -0.706328 -0.634625 0.334700 -0.321700 1 0 1.000000 
jvent001
0 2.184201 -16.000000 -11.029200 -0.227005 -0.706314 -0.670514 0.365900 -0.251000 1 0 1.000000 
0 0.000001 -16.000000 -10.594800 0.046802 -0.706332 -0.706332 0.133700 -0.185000 1 0 1.000000 
0 0.000001 -15.495700 -11.099200 -0.046802 -0.706332 -0.706332 0.123000 -0.261600 1 0 1.000000 
jvent001
0 14.349599 16.000000 -1.953400 0.465691 0.706286 0.533190 0.144600 -0.369100 1 0 1.000000 
0 7.958600 15.495700 2.911800 0.313612 0.706328 0.634625 0.349800 -0.135500 1 0 1.000000 
0 14.706199 15.495701 -1.596800 0.531487 0.706183 0.467789 0.123000 -0.352000 1 0 1.000000 
jvent001
0 14.349599 16.000000 -1.953400 0.465691 0.706286 0.533190 0.144600 -0.369100 1 0 1.000000 
0 7.765600 16.000000 2.445900 0.227005 0.706314 0.670514 0.365900 -0.157900 1 0 1.000000 
0 7.958600 15.495700 2.911800 0.313612 0.706328 0.634625 0.349800 -0.135500 1 0 1.000000 
jvent001
0 14.706201 -15.495699 -1.596800 0.465691 -0.706286 0.533190 0.365900 -0.352000 1 0 1.000000 
0 7.765601 -16.000000 2.445900 0.313612 -0.706328 0.634625 0.123000 -0.157900 1 0 1.000000 
0 14.349601 -15.999999 -1.953400 0.531487 -0.706183 0.467789 0.344300 -0.369100 1 0 1.000000 
jvent001
0 14.706201 -15.495699 -1.596800 0.465691 -0.706286 0.533190 0.365900 -0.352000 1 0 1.000000 
0 7.958601 -15.495700 2.911800 0.227005 -0.706314 0.670514 0.139100 -0.135500 1 0 1.000000 
0 7.765601 -16.000000 2.445900 0.313612 -0.706328 0.634625 0.123000 -0.157900 1 0 1.000000 
jvent001
0 2.184199 16.000000 -11.029200 -0.313612 0.706328 -0.634625 0.316000 -0.133700 1 0 1.000000 
0 3.678599 15.495700 -12.622600 -0.469007 0.706411 -0.530108 0.190000 -0.371000 1 0 1.000000 
0 1.991199 15.495700 -11.495100 -0.227005 0.706314 -0.670514 0.365900 -0.203100 1 0 1.000000 
jvent001
0 2.184199 16.000000 -11.029200 -0.313612 0.706328 -0.634625 0.316000 -0.133700 1 0 1.000000 
0 4.035200 16.000000 -12.266000 -0.536894 0.706692 -0.460795 0.123000 -0.317900 1 0 1.000000 
0 3.678599 15.495700 -12.622600 -0.469007 0.706411 -0.530108 0.190000 -0.371000 1 0 1.000000 
jvent001
0 4.035201 -16.000000 -12.266000 -0.468802 -0.706403 -0.530302 0.365900 -0.317900 1 0 1.000000 
0 1.991201 -15.495700 -11.495100 -0.313612 -0.706328 -0.634625 0.123000 -0.203100 1 0 1.000000 
0 3.678601 -15.495700 -12.622600 -0.536809 -0.706812 -0.460708 0.299000 -0.371000 1 0 1.000000 
jvent001
0 4.035201 -16.000000 -12.266000 -0.468802 -0.706403 -0.530302 0.365900 -0.317900 1 0 1.000000 
0 2.184201 -16.000000 -11.029200 -0.227005 -0.706314 -0.670514 0.173000 -0.133700 1 0 1.000000 
0 1.991201 -15.495700 -11.495100 -0.313612 -0.706328 -0.634625 0.123000 -0.203100 1 0 1.000000 
jvent001
0 18.781401 16.000000 -8.530000 0.630803 0.706204 0.321502 0.201700 -0.373700 1 0 1.000000 
0 14.706199 15.495701 -1.596800 0.531487 0.706183 0.467789 0.291200 -0.130800 1 0 1.000000 
0 19.247499 15.495701 -8.337400 0.666488 0.705387 0.241296 0.179800 -0.366900 1 0 1.000000 
jvent001
0 18.781401 16.000000 -8.530000 0.630803 0.706204 0.321502 0.201700 -0.373700 1 0 1.000000 
0 14.349599 16.000000 -1.953400 0.465691 0.706286 0.533190 0.310400 -0.143300 1 0 1.000000 
0 14.706199 15.495701 -1.596800 0.531487 0.706183 0.467789 0.291200 -0.130800 1 0 1.000000 
jvent001
0 19.247499 -15.495699 -8.337400 0.630884 -0.706182 0.321392 0.309200 -0.366900 1 0 1.000000 
0 14.349601 -15.999999 -1.953400 0.531487 -0.706183 0.467789 0.178600 -0.143300 1 0 1.000000 
0 18.781401 -15.999999 -8.530000 0.666488 -0.705387 0.241295 0.287300 -0.373700 1 0 1.000000 
jvent001
0 19.247499 -15.495699 -8.337400 0.630884 -0.706182 0.321392 0.309200 -0.366900 1 0 1.000000 
0 14.706201 -15.495699 -1.596800 0.465691 -0.706286 0.533190 0.197800 -0.130800 1 0 1.000000 
0 14.349601 -15.999999 -1.953400 0.531487 -0.706183 0.467789 0.178600 -0.143300 1 0 1.000000 
jvent001
0 4.035200 16.000000 -12.266000 -0.536894 0.706692 -0.460795 0.262800 -0.130800 1 0 1.000000 
0 4.773300 15.495700 -14.317000 -0.644305 0.706206 -0.293502 0.237400 -0.373700 1 0 1.000000 
0 3.678599 15.495700 -12.622600 -0.469007 0.706411 -0.530108 0.328200 -0.173100 1 0 1.000000 
jvent001
0 4.035200 16.000000 -12.266000 -0.536894 0.706692 -0.460795 0.262800 -0.130800 1 0 1.000000 
0 5.239500 16.000000 -14.124400 -0.678907 0.707607 -0.195902 0.162900 -0.350900 1 0 1.000000 
0 4.773300 15.495700 -14.317000 -0.644305 0.706206 -0.293502 0.237400 -0.373700 1 0 1.000000 
jvent001
0 5.239501 -16.000000 -14.124400 -0.643630 -0.706233 -0.294914 0.326000 -0.350900 1 0 1.000000 
0 3.678601 -15.495700 -12.622600 -0.536809 -0.706812 -0.460708 0.160800 -0.173100 1 0 1.000000 
0 4.773301 -15.495700 -14.317000 -0.678695 -0.707895 -0.195598 0.251600 -0.373700 1 0 1.000000 
jvent001
0 5.239501 -16.000000 -14.124400 -0.643630 -0.706233 -0.294914 0.326000 -0.350900 1 0 1.000000 
0 4.035201 -16.000000 -12.266000 -0.468802 -0.706403 -0.530302 0.226200 -0.130800 1 0 1.000000 
0 3.678601 -15.495700 -12.622600 -0.536809 -0.706812 -0.460708 0.160800 -0.173100 1 0 1.000000 
jvent001
0 20.497801 16.000000 -16.000000 0.701630 0.704430 0.107205 0.237100 -0.373700 1 0 1.000000 
0 19.247499 15.495701 -8.337400 0.666488 0.705387 0.241296 0.253700 -0.130800 1 0 1.000000 
0 21.000000 15.497801 -16.000000 0.706056 0.706056 0.054497 0.214900 -0.373700 1 0 1.000000 
jvent001
0 20.497801 16.000000 -16.000000 0.701630 0.704430 0.107205 0.237100 -0.373700 1 0 1.000000 
0 18.781401 16.000000 -8.530000 0.630803 0.706204 0.321502 0.275200 -0.136900 1 0 1.000000 
0 19.247499 15.495701 -8.337400 0.666488 0.705387 0.241296 0.253700 -0.130800 1 0 1.000000 
jvent001
0 21.000000 -15.497799 -16.000000 0.701681 -0.704381 0.107197 0.274100 -0.373700 1 0 1.000000 
0 18.781401 -15.999999 -8.530000 0.666488 -0.705387 0.241295 0.213800 -0.136900 1 0 1.000000 
0 20.497801 -15.999999 -16.000000 0.706052 -0.706052 0.054596 0.251900 -0.373700 1 0 1.000000 
jvent001
0 21.000000 -15.497799 -16.000000 0.701681 -0.704381 0.107197 0.274100 -0.373700 1 0 1.000000 
0 19.247499 -15.495699 -8.337400 0.630884 -0.706182 0.321392 0.235200 -0.130800 1 0 1.000000 
0 18.781401 -15.999999 -8.530000 0.666488 -0.705387 0.241295 0.213800 -0.136900 1 0 1.000000 
jvent001
0 5.239500 16.000000 -14.124400 -0.678907 0.707607 -0.195902 0.213100 -0.130800 1 0 1.000000 
0 5.000000 15.497800 -16.000000 -0.708596 0.702696 -0.064100 0.280800 -0.373600 1 0 1.000000 
0 4.773300 15.495700 -14.317000 -0.644305 0.706206 -0.293502 0.301500 -0.155800 1 0 1.000000 
jvent001
0 5.239500 16.000000 -14.124400 -0.678907 0.707607 -0.195902 0.213100 -0.130800 1 0 1.000000 
0 5.502200 16.000000 -16.000000 -0.706747 0.706747 -0.031902 0.189300 -0.373700 1 0 1.000000 
0 5.000000 15.497800 -16.000000 -0.708596 0.702696 -0.064100 0.280800 -0.373600 1 0 1.000000 
jvent001
0 5.502201 -16.000000 -16.000000 -0.708297 -0.702998 -0.064100 0.299700 -0.373700 1 0 1.000000 
0 4.773301 -15.495700 -14.317000 -0.678695 -0.707895 -0.195598 0.187500 -0.155800 1 0 1.000000 
0 5.000000 -15.497800 -16.000000 -0.706782 -0.706782 -0.030299 0.208200 -0.373600 1 0 1.000000 
jvent001
0 5.502201 -16.000000 -16.000000 -0.708297 -0.702998 -0.064100 0.299700 -0.373700 1 0 1.000000 
0 5.239501 -16.000000 -14.124400 -0.643630 -0.706233 -0.294914 0.275900 -0.130800 1 0 1.000000 
0 4.773301 -15.495700 -14.317000 -0.678695 -0.707895 -0.195598 0.187500 -0.155800 1 0 1.000000 
jvent001
0 -19.247499 -15.495701 -8.337400 -0.940422 -0.000000 0.340008 0.103400 -0.891000 1 0 1.000000 
0 -21.000000 15.497799 -16.000000 -0.988762 -0.000000 0.149494 0.681900 -0.744500 1 0 1.000000 
0 -21.000000 -15.497801 -16.000000 -0.997206 -0.000000 0.074700 0.103400 -0.744500 1 0 1.000000 
jvent001
0 -19.247499 -15.495701 -8.337400 -0.940422 -0.000000 0.340008 0.103400 -0.891000 1 0 1.000000 
0 -19.247499 15.495699 -8.337400 -0.891204 -0.000000 0.453602 0.681800 -0.891000 1 0 1.000000 
0 -21.000000 15.497799 -16.000000 -0.988762 -0.000000 0.149494 0.681900 -0.744500 1 0 1.000000 
jvent001
0 -4.773301 15.495700 -14.317000 0.961214 0.000000 -0.275804 0.681800 -0.829300 1 0 1.000000 
0 -5.000000 -15.497800 -16.000000 0.996014 0.000000 -0.089201 0.103400 -0.797600 1 0 1.000000 
0 -5.000000 15.497800 -16.000000 0.999005 0.000000 -0.044600 0.681900 -0.797600 1 0 1.000000 
jvent001
0 -4.773301 15.495700 -14.317000 0.961214 0.000000 -0.275804 0.681800 -0.829300 1 0 1.000000 
0 -4.773300 -15.495700 -14.317000 0.909742 0.000000 -0.415174 0.103400 -0.829300 1 0 1.000000 
0 -5.000000 -15.497800 -16.000000 0.996014 0.000000 -0.089201 0.103400 -0.797600 1 0 1.000000 
jvent001
0 -14.706199 -15.495701 -1.596800 -0.750628 -0.000000 0.660725 0.103400 -0.798500 1 0 1.000000 
0 -19.247499 15.495699 -8.337400 -0.891204 -0.000000 0.453602 0.681900 -0.646800 1 0 1.000000 
0 -19.247499 -15.495701 -8.337400 -0.940422 -0.000000 0.340008 0.103400 -0.646800 1 0 1.000000 
jvent001
0 -14.706199 -15.495701 -1.596800 -0.750628 -0.000000 0.660725 0.103400 -0.798500 1 0 1.000000 
0 -14.706201 15.495699 -1.596800 -0.657796 -0.000000 0.753196 0.681900 -0.798500 1 0 1.000000 
0 -19.247499 15.495699 -8.337400 -0.891204 -0.000000 0.453602 0.681900 -0.646800 1 0 1.000000 
jvent001
0 -3.678601 15.495700 -12.622600 0.759136 0.000000 -0.650931 0.681900 -0.740500 1 0 1.000000 
0 -4.773300 -15.495700 -14.317000 0.909742 0.000000 -0.415174 0.103400 -0.702800 1 0 1.000000 
0 -4.773301 15.495700 -14.317000 0.961214 0.000000 -0.275804 0.681900 -0.702800 1 0 1.000000 
jvent001
0 -3.678601 15.495700 -12.622600 0.759136 0.000000 -0.650931 0.681900 -0.740500 1 0 1.000000 
0 -3.678599 -15.495700 -12.622600 0.662587 0.000000 -0.748985 0.103400 -0.740500 1 0 1.000000 
0 -4.773300 -15.495700 -14.317000 0.909742 0.000000 -0.415174 0.103400 -0.702800 1 0 1.000000 
jvent001
0 -7.958600 -15.495700 2.911800 -0.443009 -0.000000 0.896517 0.103400 -0.688500 1 0 1.000000 
0 -14.706201 15.495699 -1.596800 -0.657796 -0.000000 0.753196 0.681900 -0.537100 1 0 1.000000 
0 -14.706199 -15.495701 -1.596800 -0.750628 -0.000000 0.660725 0.103400 -0.537100 1 0 1.000000 
jvent001
0 -7.958600 -15.495700 2.911800 -0.443009 -0.000000 0.896517 0.103400 -0.688500 1 0 1.000000 
0 -7.958601 15.495700 2.911800 -0.320694 -0.000000 0.947183 0.681900 -0.688500 1 0 1.000000 
0 -14.706201 15.495699 -1.596800 -0.657796 -0.000000 0.753196 0.681900 -0.537100 1 0 1.000000 
jvent001
0 -1.991201 15.495700 -11.495100 0.443009 0.000000 -0.896517 0.681900 -0.631700 1 0 1.000000 
0 -3.678599 -15.495700 -12.622600 0.662587 0.000000 -0.748985 0.103400 -0.593900 1 0 1.000000 
0 -3.678601 15.495700 -12.622600 0.759136 0.000000 -0.650931 0.681900 -0.593900 1 0 1.000000 
jvent001
0 -1.991201 15.495700 -11.495100 0.443009 0.000000 -0.896517 0.681900 -0.631700 1 0 1.000000 
0 -1.991199 -15.495700 -11.495100 0.320694 0.000000 -0.947183 0.103400 -0.631700 1 0 1.000000 
0 -3.678599 -15.495700 -12.622600 0.662587 0.000000 -0.748985 0.103400 -0.593900 1 0 1.000000 
jvent001
0 0.000001 -15.495700 4.495000 -0.066200 -0.000000 0.997806 0.103400 -0.647700 1 0 1.000000 
0 -7.958601 15.495700 2.911800 -0.320694 -0.000000 0.947183 0.681900 -0.496300 1 0 1.000000 
0 -7.958600 -15.495700 2.911800 -0.443009 -0.000000 0.896517 0.103400 -0.496300 1 0 1.000000 
jvent001
0 0.000001 -15.495700 4.495000 -0.066200 -0.000000 0.997806 0.103400 -0.647700 1 0 1.000000 
0 -0.000001 15.495700 4.495000 0.066200 0.000000 0.997806 0.681900 -0.647700 1 0 1.000000 
0 -7.958601 15.495700 2.911800 -0.320694 -0.000000 0.947183 0.681900 -0.496300 1 0 1.000000 
jvent001
0 -0.000001 15.495700 -11.099200 0.066101 0.000000 -0.997813 0.681900 -0.590900 1 0 1.000000 
0 -1.991199 -15.495700 -11.495100 0.320694 0.000000 -0.947183 0.103400 -0.553000 1 0 1.000000 
0 -1.991201 15.495700 -11.495100 0.443009 0.000000 -0.896517 0.681900 -0.553000 1 0 1.000000 
jvent001
0 -0.000001 15.495700 -11.099200 0.066101 0.000000 -0.997813 0.681900 -0.590900 1 0 1.000000 
0 0.000001 -15.495700 -11.099200 -0.066101 -0.000000 -0.997813 0.103400 -0.590900 1 0 1.000000 
0 -1.991199 -15.495700 -11.495100 0.320694 0.000000 -0.947183 0.103400 -0.553000 1 0 1.000000 
jvent001
0 7.958601 -15.495700 2.911800 0.320694 0.000000 0.947183 0.103400 -0.605500 1 0 1.000000 
0 -0.000001 15.495700 4.495000 0.066200 0.000000 0.997806 0.681900 -0.454000 1 0 1.000000 
0 0.000001 -15.495700 4.495000 -0.066200 -0.000000 0.997806 0.103400 -0.454000 1 0 1.000000 
jvent001
0 7.958601 -15.495700 2.911800 0.320694 0.000000 0.947183 0.103400 -0.605500 1 0 1.000000 
0 7.958600 15.495700 2.911800 0.443009 0.000000 0.896517 0.681900 -0.605500 1 0 1.000000 
0 -0.000001 15.495700 4.495000 0.066200 0.000000 0.997806 0.681900 -0.454000 1 0 1.000000 
jvent001
0 1.991199 15.495700 -11.495100 -0.320694 -0.000000 -0.947183 0.681900 -0.548700 1 0 1.000000 
0 0.000001 -15.495700 -11.099200 -0.066101 -0.000000 -0.997813 0.103400 -0.510800 1 0 1.000000 
0 -0.000001 15.495700 -11.099200 0.066101 0.000000 -0.997813 0.681900 -0.510800 1 0 1.000000 
jvent001
0 1.991199 15.495700 -11.495100 -0.320694 -0.000000 -0.947183 0.681900 -0.548700 1 0 1.000000 
0 1.991201 -15.495700 -11.495100 -0.443009 -0.000000 -0.896517 0.103400 -0.548700 1 0 1.000000 
0 0.000001 -15.495700 -11.099200 -0.066101 -0.000000 -0.997813 0.103400 -0.510800 1 0 1.000000 
jvent001
0 14.706201 -15.495699 -1.596800 0.657796 0.000000 0.753196 0.103400 -0.724100 1 0 1.000000 
0 7.958600 15.495700 2.911800 0.443009 0.000000 0.896517 0.681900 -0.572600 1 0 1.000000 
0 7.958601 -15.495700 2.911800 0.320694 0.000000 0.947183 0.103400 -0.572600 1 0 1.000000 
jvent001
0 14.706201 -15.495699 -1.596800 0.657796 0.000000 0.753196 0.103400 -0.724100 1 0 1.000000 
0 14.706199 15.495701 -1.596800 0.750628 0.000000 0.660725 0.681900 -0.724100 1 0 1.000000 
0 7.958600 15.495700 2.911800 0.443009 0.000000 0.896517 0.681900 -0.572600 1 0 1.000000 
jvent001
0 3.678599 15.495700 -12.622600 -0.662587 -0.000000 -0.748985 0.681900 -0.667300 1 0 1.000000 
0 1.991201 -15.495700 -11.495100 -0.443009 -0.000000 -0.896517 0.103400 -0.629400 1 0 1.000000 
0 1.991199 15.495700 -11.495100 -0.320694 -0.000000 -0.947183 0.681900 -0.629400 1 0 1.000000 
jvent001
0 3.678599 15.495700 -12.622600 -0.662587 -0.000000 -0.748985 0.681900 -0.667300 1 0 1.000000 
0 3.678601 -15.495700 -12.622600 -0.759136 -0.000000 -0.650931 0.103400 -0.667300 1 0 1.000000 
0 1.991201 -15.495700 -11.495100 -0.443009 -0.000000 -0.896517 0.103400 -0.629400 1 0 1.000000 
jvent001
0 19.247499 -15.495699 -8.337400 0.891204 0.000000 0.453602 0.103400 -0.781200 1 0 1.000000 
0 14.706199 15.495701 -1.596800 0.750628 0.000000 0.660725 0.681900 -0.629500 1 0 1.000000 
0 14.706201 -15.495699 -1.596800 0.657796 0.000000 0.753196 0.103400 -0.629500 1 0 1.000000 
jvent001
0 19.247499 -15.495699 -8.337400 0.891204 0.000000 0.453602 0.103400 -0.781200 1 0 1.000000 
0 19.247499 15.495701 -8.337400 0.940422 0.000000 0.340008 0.681900 -0.781200 1 0 1.000000 
0 14.706199 15.495701 -1.596800 0.750628 0.000000 0.660725 0.681900 -0.629500 1 0 1.000000 
jvent001
0 4.773300 15.495700 -14.317000 -0.909742 -0.000000 -0.415174 0.681900 -0.725200 1 0 1.000000 
0 3.678601 -15.495700 -12.622600 -0.759136 -0.000000 -0.650931 0.103400 -0.687500 1 0 1.000000 
0 3.678599 15.495700 -12.622600 -0.662587 -0.000000 -0.748985 0.681900 -0.687500 1 0 1.000000 
jvent001
0 4.773300 15.495700 -14.317000 -0.909742 -0.000000 -0.415174 0.681900 -0.725200 1 0 1.000000 
0 4.773301 -15.495700 -14.317000 -0.961214 -0.000000 -0.275804 0.103400 -0.725200 1 0 1.000000 
0 3.678601 -15.495700 -12.622600 -0.759136 -0.000000 -0.650931 0.103400 -0.687500 1 0 1.000000 
jvent001
0 21.000000 -15.497799 -16.000000 0.988762 0.000000 0.149494 0.103400 -0.917100 1 0 1.000000 
0 19.247499 15.495701 -8.337400 0.940422 0.000000 0.340008 0.681800 -0.770500 1 0 1.000000 
0 19.247499 -15.495699 -8.337400 0.891204 0.000000 0.453602 0.103400 -0.770500 1 0 1.000000 
jvent001
0 21.000000 -15.497799 -16.000000 0.988762 0.000000 0.149494 0.103400 -0.917100 1 0 1.000000 
0 21.000000 15.497801 -16.000000 0.997206 0.000000 0.074700 0.681900 -0.917100 1 0 1.000000 
0 19.247499 15.495701 -8.337400 0.940422 0.000000 0.340008 0.681800 -0.770500 1 0 1.000000 
jvent001
0 -5.239500 -16.000000 -14.124400 0.000000 -1.000000 0.000000 0.570800 -0.905900 1 0 1.000000 
0 -20.497801 -16.000000 -16.000000 0.000000 -1.000000 0.000000 0.812800 -0.935600 1 0 1.000000 
0 -5.502200 -16.000000 -16.000000 0.000000 -1.000000 0.000000 0.575000 -0.935600 1 0 1.000000 
jvent001
0 -5.239500 -16.000000 -14.124400 0.000000 -1.000000 0.000000 0.570800 -0.905900 1 0 1.000000 
0 -18.781401 -16.000000 -8.530000 0.000000 -1.000000 0.000000 0.785600 -0.817200 1 0 1.000000 
0 -20.497801 -16.000000 -16.000000 0.000000 -1.000000 0.000000 0.812800 -0.935600 1 0 1.000000 
jvent001
0 -4.035200 -16.000000 -12.266000 0.000000 -1.000000 0.000000 0.551700 -0.876400 1 0 1.000000 
0 -18.781401 -16.000000 -8.530000 0.000000 -1.000000 0.000000 0.785600 -0.817200 1 0 1.000000 
0 -5.239500 -16.000000 -14.124400 0.000000 -1.000000 0.000000 0.570800 -0.905900 1 0 1.000000 
jvent001
0 -4.035200 -16.000000 -12.266000 0.000000 -1.000000 0.000000 0.551700 -0.876400 1 0 1.000000 
0 -14.349599 -16.000000 -1.953400 0.000000 -1.000000 0.000000 0.715300 -0.712900 1 0 1.000000 
0 -18.781401 -16.000000 -8.530000 0.000000 -1.000000 0.000000 0.785600 -0.817200 1 0 1.000000 
jvent001
0 -2.184199 -16.000000 -11.029200 0.000000 -1.000000 0.000000 0.522300 -0.856800 1 0 1.000000 
0 -14.349599 -16.000000 -1.953400 0.000000 -1.000000 0.000000 0.715300 -0.712900 1 0 1.000000 
0 -4.035200 -16.000000 -12.266000 0.000000 -1.000000 0.000000 0.551700 -0.876400 1 0 1.000000 
jvent001
0 -2.184199 -16.000000 -11.029200 0.000000 -1.000000 0.000000 0.522300 -0.856800 1 0 1.000000 
0 -7.765600 -16.000000 2.445900 0.000000 -1.000000 0.000000 0.610900 -0.643100 1 0 1.000000 
0 -14.349599 -16.000000 -1.953400 0.000000 -1.000000 0.000000 0.715300 -0.712900 1 0 1.000000 
jvent001
0 0.000001 -16.000000 -10.594800 0.000000 -1.000000 0.000000 0.487700 -0.849900 1 0 1.000000 
0 -7.765600 -16.000000 2.445900 0.000000 -1.000000 0.000000 0.610900 -0.643100 1 0 1.000000 
0 -2.184199 -16.000000 -11.029200 0.000000 -1.000000 0.000000 0.522300 -0.856800 1 0 1.000000 
jvent001
0 0.000001 -16.000000 -10.594800 0.000000 -1.000000 0.000000 0.487700 -0.849900 1 0 1.000000 
0 0.000001 -16.000000 3.990700 0.000000 -1.000000 0.000000 0.487700 -0.618600 1 0 1.000000 
0 -7.765600 -16.000000 2.445900 0.000000 -1.000000 0.000000 0.610900 -0.643100 1 0 1.000000 
jvent001
0 2.184201 -16.000000 -11.029200 0.000000 -1.000000 0.000000 0.453100 -0.856800 1 0 1.000000 
0 0.000001 -16.000000 3.990700 0.000000 -1.000000 0.000000 0.487700 -0.618600 1 0 1.000000 
0 0.000001 -16.000000 -10.594800 0.000000 -1.000000 0.000000 0.487700 -0.849900 1 0 1.000000 
jvent001
0 2.184201 -16.000000 -11.029200 0.000000 -1.000000 0.000000 0.453100 -0.856800 1 0 1.000000 
0 7.765601 -16.000000 2.445900 0.000000 -1.000000 0.000000 0.364500 -0.643100 1 0 1.000000 
0 0.000001 -16.000000 3.990700 0.000000 -1.000000 0.000000 0.487700 -0.618600 1 0 1.000000 
jvent001
0 4.035201 -16.000000 -12.266000 0.000000 -1.000000 0.000000 0.423700 -0.876400 1 0 1.000000 
0 7.765601 -16.000000 2.445900 0.000000 -1.000000 0.000000 0.364500 -0.643100 1 0 1.000000 
0 2.184201 -16.000000 -11.029200 0.000000 -1.000000 0.000000 0.453100 -0.856800 1 0 1.000000 
jvent001
0 4.035201 -16.000000 -12.266000 0.000000 -1.000000 0.000000 0.423700 -0.876400 1 0 1.000000 
0 14.349601 -15.999999 -1.953400 0.000000 -1.000000 0.000000 0.260100 -0.712900 1 0 1.000000 
0 7.765601 -16.000000 2.445900 0.000000 -1.000000 0.000000 0.364500 -0.643100 1 0 1.000000 
jvent001
0 5.239501 -16.000000 -14.124400 0.000000 -1.000000 0.000000 0.404600 -0.905900 1 0 1.000000 
0 14.349601 -15.999999 -1.953400 0.000000 -1.000000 0.000000 0.260100 -0.712900 1 0 1.000000 
0 4.035201 -16.000000 -12.266000 0.000000 -1.000000 0.000000 0.423700 -0.876400 1 0 1.000000 
jvent001
0 5.239501 -16.000000 -14.124400 0.000000 -1.000000 0.000000 0.404600 -0.905900 1 0 1.000000 
0 18.781401 -15.999999 -8.530000 0.000000 -1.000000 0.000000 0.189800 -0.817200 1 0 1.000000 
0 14.349601 -15.999999 -1.953400 0.000000 -1.000000 0.000000 0.260100 -0.712900 1 0 1.000000 
jvent001
0 5.502201 -16.000000 -16.000000 0.000000 -1.000000 0.000000 0.400400 -0.935600 1 0 1.000000 
0 18.781401 -15.999999 -8.530000 0.000000 -1.000000 0.000000 0.189800 -0.817200 1 0 1.000000 
0 5.239501 -16.000000 -14.124400 0.000000 -1.000000 0.000000 0.404600 -0.905900 1 0 1.000000 
jvent001
0 5.502201 -16.000000 -16.000000 0.000000 -1.000000 0.000000 0.400400 -0.935600 1 0 1.000000 
0 20.497801 -15.999999 -16.000000 0.000000 -1.000000 0.000000 0.162600 -0.935600 1 0 1.000000 
0 18.781401 -15.999999 -8.530000 0.000000 -1.000000 0.000000 0.189800 -0.817200 1 0 1.000000 
jvent001
0 5.500000 -16.000000 -17.000000 0.000000 -1.000000 0.000000 0.400500 -0.951500 1 0 1.000000 
0 20.497801 -15.999999 -16.000000 0.000000 -1.000000 0.000000 0.162600 -0.935600 1 0 1.000000 
0 5.502201 -16.000000 -16.000000 0.000000 -1.000000 0.000000 0.400400 -0.935600 1 0 1.000000 
jvent001
0 5.500000 -16.000000 -17.000000 0.000000 -1.000000 0.000000 0.400500 -0.951500 1 0 1.000000 
0 20.500000 -15.999999 -17.000000 0.000000 -1.000000 0.000000 0.162600 -0.951500 1 0 1.000000 
0 20.497801 -15.999999 -16.000000 0.000000 -1.000000 0.000000 0.162600 -0.935600 1 0 1.000000 
jvent001
0 -18.781401 15.999999 -8.530000 -0.000000 1.000000 0.000000 0.785600 -0.817200 1 0 1.000000 
0 -5.502201 16.000000 -16.000000 -0.000000 1.000000 0.000000 0.575000 -0.935600 1 0 1.000000 
0 -20.497801 15.999999 -16.000000 -0.000000 1.000000 0.000000 0.812800 -0.935600 1 0 1.000000 
jvent001
0 -18.781401 15.999999 -8.530000 -0.000000 1.000000 0.000000 0.785600 -0.817200 1 0 1.000000 
0 -5.239501 16.000000 -14.124400 -0.000000 1.000000 0.000000 0.570800 -0.905900 1 0 1.000000 
0 -5.502201 16.000000 -16.000000 -0.000000 1.000000 0.000000 0.575000 -0.935600 1 0 1.000000 
jvent001
0 -14.349601 15.999999 -1.953400 -0.000000 1.000000 0.000000 0.715300 -0.712900 1 0 1.000000 
0 -5.239501 16.000000 -14.124400 -0.000000 1.000000 0.000000 0.570800 -0.905900 1 0 1.000000 
0 -18.781401 15.999999 -8.530000 -0.000000 1.000000 0.000000 0.785600 -0.817200 1 0 1.000000 
jvent001
0 -14.349601 15.999999 -1.953400 -0.000000 1.000000 0.000000 0.715300 -0.712900 1 0 1.000000 
0 -4.035201 16.000000 -12.266000 -0.000000 1.000000 0.000000 0.551700 -0.876400 1 0 1.000000 
0 -5.239501 16.000000 -14.124400 -0.000000 1.000000 0.000000 0.570800 -0.905900 1 0 1.000000 
jvent001
0 -7.765601 16.000000 2.445900 -0.000000 1.000000 0.000000 0.610900 -0.643100 1 0 1.000000 
0 -4.035201 16.000000 -12.266000 -0.000000 1.000000 0.000000 0.551700 -0.876400 1 0 1.000000 
0 -14.349601 15.999999 -1.953400 -0.000000 1.000000 0.000000 0.715300 -0.712900 1 0 1.000000 
jvent001
0 -7.765601 16.000000 2.445900 -0.000000 1.000000 0.000000 0.610900 -0.643100 1 0 1.000000 
0 -2.184201 16.000000 -11.029200 -0.000000 1.000000 0.000000 0.522300 -0.856800 1 0 1.000000 
0 -4.035201 16.000000 -12.266000 -0.000000 1.000000 0.000000 0.551700 -0.876400 1 0 1.000000 
jvent001
0 -0.000001 16.000000 3.990700 -0.000000 1.000000 0.000000 0.487700 -0.618600 1 0 1.000000 
0 -2.184201 16.000000 -11.029200 -0.000000 1.000000 0.000000 0.522300 -0.856800 1 0 1.000000 
0 -7.765601 16.000000 2.445900 -0.000000 1.000000 0.000000 0.610900 -0.643100 1 0 1.000000 
jvent001
0 -0.000001 16.000000 3.990700 -0.000000 1.000000 0.000000 0.487700 -0.618600 1 0 1.000000 
0 -0.000001 16.000000 -10.594800 -0.000000 1.000000 0.000000 0.487700 -0.849900 1 0 1.000000 
0 -2.184201 16.000000 -11.029200 -0.000000 1.000000 0.000000 0.522300 -0.856800 1 0 1.000000 
jvent001
0 7.765600 16.000000 2.445900 -0.000000 1.000000 0.000000 0.364500 -0.643100 1 0 1.000000 
0 -0.000001 16.000000 -10.594800 -0.000000 1.000000 0.000000 0.487700 -0.849900 1 0 1.000000 
0 -0.000001 16.000000 3.990700 -0.000000 1.000000 0.000000 0.487700 -0.618600 1 0 1.000000 
jvent001
0 7.765600 16.000000 2.445900 -0.000000 1.000000 0.000000 0.364500 -0.643100 1 0 1.000000 
0 2.184199 16.000000 -11.029200 -0.000000 1.000000 0.000000 0.453100 -0.856800 1 0 1.000000 
0 -0.000001 16.000000 -10.594800 -0.000000 1.000000 0.000000 0.487700 -0.849900 1 0 1.000000 
jvent001
0 14.349599 16.000000 -1.953400 -0.000000 1.000000 0.000000 0.260100 -0.712900 1 0 1.000000 
0 2.184199 16.000000 -11.029200 -0.000000 1.000000 0.000000 0.453100 -0.856800 1 0 1.000000 
0 7.765600 16.000000 2.445900 -0.000000 1.000000 0.000000 0.364500 -0.643100 1 0 1.000000 
jvent001
0 14.349599 16.000000 -1.953400 -0.000000 1.000000 0.000000 0.260100 -0.712900 1 0 1.000000 
0 4.035200 16.000000 -12.266000 -0.000000 1.000000 0.000000 0.423700 -0.876400 1 0 1.000000 
0 2.184199 16.000000 -11.029200 -0.000000 1.000000 0.000000 0.453100 -0.856800 1 0 1.000000 
jvent001
0 18.781401 16.000000 -8.530000 -0.000000 1.000000 0.000000 0.189800 -0.817200 1 0 1.000000 
0 4.035200 16.000000 -12.266000 -0.000000 1.000000 0.000000 0.423700 -0.876400 1 0 1.000000 
0 14.349599 16.000000 -1.953400 -0.000000 1.000000 0.000000 0.260100 -0.712900 1 0 1.000000 
jvent001
0 18.781401 16.000000 -8.530000 -0.000000 1.000000 0.000000 0.189800 -0.817200 1 0 1.000000 
0 5.239500 16.000000 -14.124400 -0.000000 1.000000 0.000000 0.404600 -0.905900 1 0 1.000000 
0 4.035200 16.000000 -12.266000 -0.000000 1.000000 0.000000 0.423700 -0.876400 1 0 1.000000 
jvent001
0 20.497801 16.000000 -16.000000 -0.000000 1.000000 0.000000 0.162600 -0.935600 1 0 1.000000 
0 5.239500 16.000000 -14.124400 -0.000000 1.000000 0.000000 0.404600 -0.905900 1 0 1.000000 
0 18.781401 16.000000 -8.530000 -0.000000 1.000000 0.000000 0.189800 -0.817200 1 0 1.000000 
jvent001
0 20.497801 16.000000 -16.000000 -0.000000 1.000000 0.000000 0.162600 -0.935600 1 0 1.000000 
0 5.502200 16.000000 -16.000000 -0.000000 1.000000 0.000000 0.400400 -0.935600 1 0 1.000000 
0 5.239500 16.000000 -14.124400 -0.000000 1.000000 0.000000 0.404600 -0.905900 1 0 1.000000 
jvent001
0 5.502200 16.000000 -16.000000 -0.000000 1.000000 0.000000 0.400400 -0.935600 1 0 1.000000 
0 20.497801 16.000000 -16.000000 -0.000000 1.000000 0.000000 0.162600 -0.935600 1 0 1.000000 
0 20.500000 16.000000 -17.000000 -0.000000 1.000000 0.000000 0.162600 -0.951500 1 0 1.000000 
jvent001
0 5.502200 16.000000 -16.000000 -0.000000 1.000000 0.000000 0.400400 -0.935600 1 0 1.000000 
0 20.500000 16.000000 -17.000000 -0.000000 1.000000 0.000000 0.162600 -0.951500 1 0 1.000000 
0 5.500000 16.000000 -17.000000 -0.000000 1.000000 0.000000 0.400500 -0.951500 1 0 1.000000 
jvent001
0 5.000000 15.500000 -17.000000 -0.000000 1.000000 0.000000 0.672800 -0.497900 1 0 1.000000 
0 5.500000 16.000000 -17.000000 -0.000000 1.000000 0.000000 0.681900 -0.497900 1 0 1.000000 
0 5.250000 15.750000 -17.000000 -0.000000 1.000000 0.000000 0.677300 -0.497900 1 0 1.000000 
jvent001
0 20.500000 -15.999999 -17.000000 -0.000000 1.000000 0.000000 0.103400 -0.497900 1 0 1.000000 
0 20.750000 -15.749999 -17.000000 -0.000000 1.000000 0.000000 0.107900 -0.497900 1 0 1.000000 
0 21.000000 -15.499999 -17.000000 -0.000000 1.000000 0.000000 0.112400 -0.497900 1 0 1.000000 
end
