version 1
nodes
  0 "static_prop" -1
end
skeleton
time 0
0 0.000000 0.000000 0.000000 0.000000 0.000000 0.000000
end
triangles
citizen_trap001
0 -6.198800 -3.300800 2.489600 0.599023 0.000000 -0.800731 0.475600 -0.293600 1 0 1.000000 
0 0.330300 0.000000 7.352900 0.604004 -0.021000 -0.796705 0.501400 -0.255600 1 0 1.000000 
0 -0.190500 -1.650400 7.001600 0.604004 -0.021000 -0.796705 0.488500 -0.258300 1 0 1.000000 
citizen_trap001
0 -6.198800 -3.300800 2.489600 0.599023 0.000000 -0.800731 0.475600 -0.293600 1 0 1.000000 
0 -0.190500 1.650400 7.001600 0.601422 -0.001800 -0.798929 0.514300 -0.258300 1 0 1.000000 
0 0.330300 0.000000 7.352900 0.592286 0.015400 -0.805581 0.501400 -0.255600 1 0 1.000000 
citizen_trap001
0 -6.198800 -3.300800 2.489600 0.599023 0.000000 -0.800731 0.475600 -0.293600 1 0 1.000000 
0 -3.261600 2.858600 4.687000 0.599023 0.000000 -0.800731 0.523700 -0.276400 1 0 1.000000 
0 -0.190500 1.650400 7.001600 0.601422 -0.001800 -0.798929 0.514300 -0.258300 1 0 1.000000 
citizen_trap001
0 -6.198800 -3.300800 2.489600 0.599023 0.000000 -0.800731 0.475600 -0.293600 1 0 1.000000 
0 -6.198800 3.300800 2.489600 0.599023 0.000000 -0.800731 0.527200 -0.293600 1 0 1.000000 
0 -3.261600 2.858600 4.687000 0.599023 0.000000 -0.800731 0.523700 -0.276400 1 0 1.000000 
citizen_trap001
0 -6.198800 -3.300800 2.489600 0.599023 0.000000 -0.800731 0.475600 -0.293600 1 0 1.000000 
0 -0.190500 -1.650400 7.001600 0.597192 0.018300 -0.801889 0.488500 -0.258300 1 0 1.000000 
0 -3.261600 -2.858600 4.687000 0.597192 0.018300 -0.801889 0.479100 -0.276400 1 0 1.000000 
citizen_trap001
0 -6.198800 3.300800 2.489600 -0.828417 -0.000000 -0.560112 0.527200 -0.293600 1 0 1.000000 
0 -17.358999 1.650399 18.986200 -0.829284 0.028699 -0.558089 0.514300 -0.164700 1 0 1.000000 
0 -14.061100 3.300799 14.119400 -0.828411 0.003900 -0.560107 0.527200 -0.202700 1 0 1.000000 
citizen_trap001
0 -6.198800 3.300800 2.489600 -0.828417 -0.000000 -0.560112 0.527200 -0.293600 1 0 1.000000 
0 -17.481899 -0.000001 19.083900 -0.829284 0.028699 -0.558089 0.501400 -0.163900 1 0 1.000000 
0 -17.358999 1.650399 18.986200 -0.829284 0.028699 -0.558089 0.514300 -0.164700 1 0 1.000000 
citizen_trap001
0 -6.198800 3.300800 2.489600 -0.828417 -0.000000 -0.560112 0.527200 -0.293600 1 0 1.000000 
0 -17.385599 -1.650401 18.975700 -0.826367 -0.007800 -0.563078 0.488500 -0.164800 1 0 1.000000 
0 -17.481899 -0.000001 19.083900 -0.825856 -0.011199 -0.563770 0.501400 -0.163900 1 0 1.000000 
citizen_trap001
0 -6.198800 3.300800 2.489600 -0.828417 -0.000000 -0.560112 0.527200 -0.293600 1 0 1.000000 
0 -14.061100 -3.300801 14.119400 -0.828417 -0.000000 -0.560112 0.475600 -0.202700 1 0 1.000000 
0 -17.385599 -1.650401 18.975700 -0.826367 -0.007800 -0.563078 0.488500 -0.164800 1 0 1.000000 
citizen_trap001
0 -6.198800 3.300800 2.489600 -0.828417 -0.000000 -0.560112 0.527200 -0.293600 1 0 1.000000 
0 -6.198800 -3.300800 2.489600 -0.828417 -0.000000 -0.560112 0.475600 -0.293600 1 0 1.000000 
0 -14.061100 -3.300801 14.119400 -0.828417 -0.000000 -0.560112 0.475600 -0.202700 1 0 1.000000 
citizen_trap001
0 -2.259400 -0.180500 8.151200 0.768555 0.088995 0.633563 0.500000 -0.249300 1 0 1.000000 
0 17.481899 -0.180499 -15.796900 0.768555 -0.088995 0.633563 0.500000 -0.436400 1 0 1.000000 
0 17.214800 1.111501 -16.017099 0.699889 0.420994 0.576991 0.510100 -0.438100 1 0 1.000000 
citizen_trap001
0 -2.526500 -1.472400 7.931000 0.699889 -0.420994 0.576991 0.489900 -0.251000 1 0 1.000000 
0 17.481899 -0.180499 -15.796900 0.768555 -0.088995 0.633563 0.500000 -0.436400 1 0 1.000000 
0 -2.259400 -0.180500 8.151200 0.768555 0.088995 0.633563 0.500000 -0.249300 1 0 1.000000 
citizen_trap001
0 -2.526500 -1.472400 7.931000 0.699889 -0.420994 0.576991 0.489900 -0.251000 1 0 1.000000 
0 17.214800 -1.472399 -16.017099 0.631270 -0.575072 0.520375 0.489900 -0.438100 1 0 1.000000 
0 17.481899 -0.180499 -15.796900 0.768555 -0.088995 0.633563 0.500000 -0.436400 1 0 1.000000 
citizen_trap001
0 -3.256200 -2.418200 7.329500 0.443707 -0.818113 0.365806 0.482500 -0.255700 1 0 1.000000 
0 17.214800 -1.472399 -16.017099 0.631270 -0.575072 0.520375 0.489900 -0.438100 1 0 1.000000 
0 -2.526500 -1.472400 7.931000 0.699889 -0.420994 0.576991 0.489900 -0.251000 1 0 1.000000 
citizen_trap001
0 -3.256200 -2.418200 7.329500 0.443707 -0.818113 0.365806 0.482500 -0.255700 1 0 1.000000 
0 16.485001 -2.418199 -16.618601 0.324793 -0.907081 0.267794 0.482500 -0.442800 1 0 1.000000 
0 17.214800 -1.472399 -16.017099 0.631270 -0.575072 0.520375 0.489900 -0.438100 1 0 1.000000 
citizen_trap001
0 -4.253200 -2.764400 6.507700 0.068603 -0.996037 0.056602 0.479800 -0.262200 1 0 1.000000 
0 16.485001 -2.418199 -16.618601 0.324793 -0.907081 0.267794 0.482500 -0.442800 1 0 1.000000 
0 -3.256200 -2.418200 7.329500 0.443707 -0.818113 0.365806 0.482500 -0.255700 1 0 1.000000 
citizen_trap001
0 -4.253200 -2.764400 6.507700 0.068603 -0.996037 0.056602 0.479800 -0.262200 1 0 1.000000 
0 15.488200 -2.764399 -17.440399 -0.068603 -0.996037 -0.056602 0.479800 -0.449300 1 0 1.000000 
0 16.485001 -2.418199 -16.618601 0.324793 -0.907081 0.267794 0.482500 -0.442800 1 0 1.000000 
citizen_trap001
0 -5.250000 -2.418200 5.685900 -0.324793 -0.907081 -0.267794 0.482500 -0.268600 1 0 1.000000 
0 15.488200 -2.764399 -17.440399 -0.068603 -0.996037 -0.056602 0.479800 -0.449300 1 0 1.000000 
0 -4.253200 -2.764400 6.507700 0.068603 -0.996037 0.056602 0.479800 -0.262200 1 0 1.000000 
citizen_trap001
0 -5.250000 -2.418200 5.685900 -0.324793 -0.907081 -0.267794 0.482500 -0.268600 1 0 1.000000 
0 14.491300 -2.418199 -18.262199 -0.443707 -0.818113 -0.365806 0.482500 -0.455700 1 0 1.000000 
0 15.488200 -2.764399 -17.440399 -0.068603 -0.996037 -0.056602 0.479800 -0.449300 1 0 1.000000 
citizen_trap001
0 -5.979800 -1.472400 5.084400 -0.631270 -0.575072 -0.520375 0.489900 -0.273300 1 0 1.000000 
0 14.491300 -2.418199 -18.262199 -0.443707 -0.818113 -0.365806 0.482500 -0.455700 1 0 1.000000 
0 -5.250000 -2.418200 5.685900 -0.324793 -0.907081 -0.267794 0.482500 -0.268600 1 0 1.000000 
citizen_trap001
0 -5.979800 -1.472400 5.084400 -0.631270 -0.575072 -0.520375 0.489900 -0.273300 1 0 1.000000 
0 13.761500 -1.472399 -18.863800 -0.699889 -0.420994 -0.576991 0.489900 -0.460400 1 0 1.000000 
0 14.491300 -2.418199 -18.262199 -0.443707 -0.818113 -0.365806 0.482500 -0.455700 1 0 1.000000 
citizen_trap001
0 -6.246900 -0.180500 4.864200 -0.768555 -0.088995 -0.633563 0.500000 -0.275000 1 0 1.000000 
0 13.761500 -1.472399 -18.863800 -0.699889 -0.420994 -0.576991 0.489900 -0.460400 1 0 1.000000 
0 -5.979800 -1.472400 5.084400 -0.631270 -0.575072 -0.520375 0.489900 -0.273300 1 0 1.000000 
citizen_trap001
0 -6.246900 -0.180500 4.864200 -0.768555 -0.088995 -0.633563 0.500000 -0.275000 1 0 1.000000 
0 13.494400 -0.180499 -19.083900 -0.768555 0.088995 -0.633563 0.500000 -0.462100 1 0 1.000000 
0 13.761500 -1.472399 -18.863800 -0.699889 -0.420994 -0.576991 0.489900 -0.460400 1 0 1.000000 
citizen_trap001
0 -5.979800 1.111400 5.084400 -0.699889 0.420994 -0.576991 0.510100 -0.273300 1 0 1.000000 
0 13.494400 -0.180499 -19.083900 -0.768555 0.088995 -0.633563 0.500000 -0.462100 1 0 1.000000 
0 -6.246900 -0.180500 4.864200 -0.768555 -0.088995 -0.633563 0.500000 -0.275000 1 0 1.000000 
citizen_trap001
0 -5.979800 1.111400 5.084400 -0.699889 0.420994 -0.576991 0.510100 -0.273300 1 0 1.000000 
0 13.761500 1.111401 -18.863701 -0.631270 0.575072 -0.520375 0.510100 -0.460400 1 0 1.000000 
0 13.494400 -0.180499 -19.083900 -0.768555 0.088995 -0.633563 0.500000 -0.462100 1 0 1.000000 
citizen_trap001
0 -5.250000 2.057200 5.685900 -0.443707 0.818113 -0.365806 0.517500 -0.268600 1 0 1.000000 
0 13.761500 1.111401 -18.863701 -0.631270 0.575072 -0.520375 0.510100 -0.460400 1 0 1.000000 
0 -5.979800 1.111400 5.084400 -0.699889 0.420994 -0.576991 0.510100 -0.273300 1 0 1.000000 
citizen_trap001
0 -5.250000 2.057200 5.685900 -0.443707 0.818113 -0.365806 0.517500 -0.268600 1 0 1.000000 
0 14.491300 2.057201 -18.262199 -0.324793 0.907081 -0.267794 0.517500 -0.455700 1 0 1.000000 
0 13.761500 1.111401 -18.863701 -0.631270 0.575072 -0.520375 0.510100 -0.460400 1 0 1.000000 
citizen_trap001
0 -4.253200 2.403400 6.507700 -0.068603 0.996037 -0.056602 0.520200 -0.262200 1 0 1.000000 
0 14.491300 2.057201 -18.262199 -0.324793 0.907081 -0.267794 0.517500 -0.455700 1 0 1.000000 
0 -5.250000 2.057200 5.685900 -0.443707 0.818113 -0.365806 0.517500 -0.268600 1 0 1.000000 
citizen_trap001
0 -4.253200 2.403400 6.507700 -0.068603 0.996037 -0.056602 0.520200 -0.262200 1 0 1.000000 
0 15.488200 2.403401 -17.440399 0.068603 0.996037 0.056602 0.520200 -0.449300 1 0 1.000000 
0 14.491300 2.057201 -18.262199 -0.324793 0.907081 -0.267794 0.517500 -0.455700 1 0 1.000000 
citizen_trap001
0 -3.256200 2.057200 7.329500 0.324793 0.907081 0.267794 0.517500 -0.255700 1 0 1.000000 
0 15.488200 2.403401 -17.440399 0.068603 0.996037 0.056602 0.520200 -0.449300 1 0 1.000000 
0 -4.253200 2.403400 6.507700 -0.068603 0.996037 -0.056602 0.520200 -0.262200 1 0 1.000000 
citizen_trap001
0 -3.256200 2.057200 7.329500 0.324793 0.907081 0.267794 0.517500 -0.255700 1 0 1.000000 
0 16.485001 2.057201 -16.618601 0.443707 0.818113 0.365806 0.517500 -0.442800 1 0 1.000000 
0 15.488200 2.403401 -17.440399 0.068603 0.996037 0.056602 0.520200 -0.449300 1 0 1.000000 
citizen_trap001
0 -2.526500 1.111400 7.931000 0.631270 0.575072 0.520375 0.510100 -0.251000 1 0 1.000000 
0 16.485001 2.057201 -16.618601 0.443707 0.818113 0.365806 0.517500 -0.442800 1 0 1.000000 
0 -3.256200 2.057200 7.329500 0.324793 0.907081 0.267794 0.517500 -0.255700 1 0 1.000000 
citizen_trap001
0 -2.526500 1.111400 7.931000 0.631270 0.575072 0.520375 0.510100 -0.251000 1 0 1.000000 
0 17.214800 1.111501 -16.017099 0.699889 0.420994 0.576991 0.510100 -0.438100 1 0 1.000000 
0 16.485001 2.057201 -16.618601 0.443707 0.818113 0.365806 0.517500 -0.442800 1 0 1.000000 
citizen_trap001
0 -2.259400 -0.180500 8.151200 0.768555 0.088995 0.633563 0.500000 -0.249300 1 0 1.000000 
0 17.214800 1.111501 -16.017099 0.699889 0.420994 0.576991 0.510100 -0.438100 1 0 1.000000 
0 -2.526500 1.111400 7.931000 0.631270 0.575072 0.520375 0.510100 -0.251000 1 0 1.000000 
citizen_trap001
0 -14.061100 3.300799 14.119400 0.146499 0.981696 0.121699 0.527200 -0.202700 1 0 1.000000 
0 -3.261600 2.858600 4.687000 0.172093 0.973763 0.148894 0.523700 -0.276400 1 0 1.000000 
0 -6.198800 3.300800 2.489600 0.099299 0.992793 0.067100 0.527200 -0.293600 1 0 1.000000 
citizen_trap001
0 -14.061100 3.300799 14.119400 0.146499 0.981696 0.121699 0.527200 -0.202700 1 0 1.000000 
0 -12.705200 2.858599 15.061000 0.234999 0.944294 0.230399 0.523700 -0.195300 1 0 1.000000 
0 -3.261600 2.858600 4.687000 0.172093 0.973763 0.148894 0.523700 -0.276400 1 0 1.000000 
citizen_trap001
0 -12.705200 2.858599 15.061000 0.234999 0.944294 0.230399 0.523700 -0.195300 1 0 1.000000 
0 -0.190500 1.650400 7.001600 0.415211 0.798922 0.435112 0.514300 -0.258300 1 0 1.000000 
0 -3.261600 2.858600 4.687000 0.172093 0.973763 0.148894 0.523700 -0.276400 1 0 1.000000 
citizen_trap001
0 -12.705200 2.858599 15.061000 0.234999 0.944294 0.230399 0.523700 -0.195300 1 0 1.000000 
0 -10.526400 1.650400 16.564501 0.557309 0.571409 0.602410 0.514300 -0.183600 1 0 1.000000 
0 -0.190500 1.650400 7.001600 0.415211 0.798922 0.435112 0.514300 -0.258300 1 0 1.000000 
citizen_trap001
0 -10.526400 1.650400 16.564501 0.557309 0.571409 0.602410 0.514300 -0.183600 1 0 1.000000 
0 0.330300 0.000000 7.352900 0.673994 0.122599 0.728493 0.501400 -0.255600 1 0 1.000000 
0 -0.190500 1.650400 7.001600 0.415211 0.798922 0.435112 0.514300 -0.258300 1 0 1.000000 
citizen_trap001
0 -10.526400 1.650400 16.564501 0.557309 0.571409 0.602410 0.514300 -0.183600 1 0 1.000000 
0 -10.005600 -0.000000 16.915800 0.673994 -0.122599 0.728493 0.501400 -0.180900 1 0 1.000000 
0 0.330300 0.000000 7.352900 0.673994 0.122599 0.728493 0.501400 -0.255600 1 0 1.000000 
citizen_trap001
0 -10.005600 -0.000000 16.915800 0.673994 -0.122599 0.728493 0.501400 -0.180900 1 0 1.000000 
0 -0.190500 -1.650400 7.001600 0.541809 -0.603010 0.585510 0.488500 -0.258300 1 0 1.000000 
0 0.330300 0.000000 7.352900 0.673994 0.122599 0.728493 0.501400 -0.255600 1 0 1.000000 
citizen_trap001
0 -10.005600 -0.000000 16.915800 0.673994 -0.122599 0.728493 0.501400 -0.180900 1 0 1.000000 
0 -10.526400 -1.650401 16.564501 0.417308 -0.799514 0.432008 0.488500 -0.183600 1 0 1.000000 
0 -0.190500 -1.650400 7.001600 0.541809 -0.603010 0.585510 0.488500 -0.258300 1 0 1.000000 
citizen_trap001
0 -10.526400 -1.650401 16.564501 0.417308 -0.799514 0.432008 0.488500 -0.183600 1 0 1.000000 
0 -3.261600 -2.858600 4.687000 0.203303 -0.959113 0.196903 0.479100 -0.276400 1 0 1.000000 
0 -0.190500 -1.650400 7.001600 0.541809 -0.603010 0.585510 0.488500 -0.258300 1 0 1.000000 
citizen_trap001
0 -10.526400 -1.650401 16.564501 0.417308 -0.799514 0.432008 0.488500 -0.183600 1 0 1.000000 
0 -12.705200 -2.858600 15.061000 0.205898 -0.963588 0.170598 0.479100 -0.195300 1 0 1.000000 
0 -3.261600 -2.858600 4.687000 0.203303 -0.959113 0.196903 0.479100 -0.276400 1 0 1.000000 
citizen_trap001
0 -12.705200 -2.858600 15.061000 0.205898 -0.963588 0.170598 0.479100 -0.195300 1 0 1.000000 
0 -6.198800 -3.300800 2.489600 0.151997 -0.981877 0.113197 0.475600 -0.293600 1 0 1.000000 
0 -3.261600 -2.858600 4.687000 0.203303 -0.959113 0.196903 0.479100 -0.276400 1 0 1.000000 
citizen_trap001
0 -12.705200 -2.858600 15.061000 0.205898 -0.963588 0.170598 0.479100 -0.195300 1 0 1.000000 
0 -14.061100 -3.300801 14.119400 0.214408 -0.965936 0.144905 0.475600 -0.202700 1 0 1.000000 
0 -6.198800 -3.300800 2.489600 0.151997 -0.981877 0.113197 0.475600 -0.293600 1 0 1.000000 
citizen_trap001
0 13.494400 -0.180499 -19.083900 0.636103 0.000000 -0.771604 0.500000 -0.462100 1 0 1.000000 
0 14.491300 -2.418199 -18.262199 0.636103 0.000000 -0.771604 0.482500 -0.455700 1 0 1.000000 
0 13.761500 -1.472399 -18.863800 0.636103 0.000000 -0.771604 0.489900 -0.460400 1 0 1.000000 
citizen_trap001
0 13.494400 -0.180499 -19.083900 0.636103 0.000000 -0.771604 0.500000 -0.462100 1 0 1.000000 
0 15.488200 -2.764399 -17.440399 0.636103 0.000000 -0.771604 0.479800 -0.449300 1 0 1.000000 
0 14.491300 -2.418199 -18.262199 0.636103 0.000000 -0.771604 0.482500 -0.455700 1 0 1.000000 
citizen_trap001
0 13.494400 -0.180499 -19.083900 0.636103 0.000000 -0.771604 0.500000 -0.462100 1 0 1.000000 
0 16.485001 -2.418199 -16.618601 0.636103 0.000000 -0.771604 0.482500 -0.442800 1 0 1.000000 
0 15.488200 -2.764399 -17.440399 0.636103 0.000000 -0.771604 0.479800 -0.449300 1 0 1.000000 
citizen_trap001
0 13.494400 -0.180499 -19.083900 0.636103 0.000000 -0.771604 0.500000 -0.462100 1 0 1.000000 
0 17.214800 -1.472399 -16.017099 0.636103 0.000000 -0.771604 0.489900 -0.438100 1 0 1.000000 
0 16.485001 -2.418199 -16.618601 0.636103 0.000000 -0.771604 0.482500 -0.442800 1 0 1.000000 
citizen_trap001
0 13.494400 -0.180499 -19.083900 0.636103 0.000000 -0.771604 0.500000 -0.462100 1 0 1.000000 
0 17.481899 -0.180499 -15.796900 0.636103 0.000000 -0.771604 0.500000 -0.436400 1 0 1.000000 
0 17.214800 -1.472399 -16.017099 0.636103 0.000000 -0.771604 0.489900 -0.438100 1 0 1.000000 
citizen_trap001
0 13.494400 -0.180499 -19.083900 0.636103 0.000000 -0.771604 0.500000 -0.462100 1 0 1.000000 
0 17.214800 1.111501 -16.017099 0.636103 0.000000 -0.771604 0.510100 -0.438100 1 0 1.000000 
0 17.481899 -0.180499 -15.796900 0.636103 0.000000 -0.771604 0.500000 -0.436400 1 0 1.000000 
citizen_trap001
0 13.494400 -0.180499 -19.083900 0.636103 0.000000 -0.771604 0.500000 -0.462100 1 0 1.000000 
0 16.485001 2.057201 -16.618601 0.636103 0.000000 -0.771604 0.517500 -0.442800 1 0 1.000000 
0 17.214800 1.111501 -16.017099 0.636103 0.000000 -0.771604 0.510100 -0.438100 1 0 1.000000 
citizen_trap001
0 13.494400 -0.180499 -19.083900 0.636103 0.000000 -0.771604 0.500000 -0.462100 1 0 1.000000 
0 15.488200 2.403401 -17.440399 0.636103 0.000000 -0.771604 0.520200 -0.449300 1 0 1.000000 
0 16.485001 2.057201 -16.618601 0.636103 0.000000 -0.771604 0.517500 -0.442800 1 0 1.000000 
citizen_trap001
0 13.494400 -0.180499 -19.083900 0.636103 0.000000 -0.771604 0.500000 -0.462100 1 0 1.000000 
0 14.491300 2.057201 -18.262199 0.636103 0.000000 -0.771604 0.517500 -0.455700 1 0 1.000000 
0 15.488200 2.403401 -17.440399 0.636103 0.000000 -0.771604 0.520200 -0.449300 1 0 1.000000 
citizen_trap001
0 13.494400 -0.180499 -19.083900 0.636103 0.000000 -0.771604 0.500000 -0.462100 1 0 1.000000 
0 13.761500 1.111401 -18.863701 0.636103 0.000000 -0.771604 0.510100 -0.460400 1 0 1.000000 
0 14.491300 2.057201 -18.262199 0.636103 0.000000 -0.771604 0.517500 -0.455700 1 0 1.000000 
citizen_trap001
0 -14.061100 -3.300801 14.119400 0.057002 -0.932740 0.356015 0.475600 -0.202700 1 0 1.000000 
0 -12.705200 -2.858600 15.061000 0.110404 -0.904829 0.411213 0.479100 -0.195300 1 0 1.000000 
0 -17.385599 -1.650401 18.975700 0.211206 -0.707020 0.674919 0.488500 -0.164800 1 0 1.000000 
citizen_trap001
0 -12.705200 -2.858600 15.061000 0.110404 -0.904829 0.411213 0.479100 -0.195300 1 0 1.000000 
0 -10.526400 -1.650401 16.564501 0.279504 -0.438207 0.854314 0.488500 -0.183600 1 0 1.000000 
0 -17.385599 -1.650401 18.975700 0.211206 -0.707020 0.674919 0.488500 -0.164800 1 0 1.000000 
citizen_trap001
0 -17.481899 -0.000001 19.083900 0.295211 -0.096604 0.950536 0.501400 -0.163900 1 0 1.000000 
0 -17.385599 -1.650401 18.975700 0.211206 -0.707020 0.674919 0.488500 -0.164800 1 0 1.000000 
0 -10.526400 -1.650401 16.564501 0.279504 -0.438207 0.854314 0.488500 -0.183600 1 0 1.000000 
citizen_trap001
0 -10.526400 -1.650401 16.564501 0.279504 -0.438207 0.854314 0.488500 -0.183600 1 0 1.000000 
0 -10.005600 -0.000000 16.915800 0.296799 0.016500 0.954797 0.501400 -0.180900 1 0 1.000000 
0 -17.481899 -0.000001 19.083900 0.295211 -0.096604 0.950536 0.501400 -0.163900 1 0 1.000000 
citizen_trap001
0 -17.358999 1.650399 18.986200 0.232705 0.605812 0.760815 0.514300 -0.164700 1 0 1.000000 
0 -17.481899 -0.000001 19.083900 0.295211 -0.096604 0.950536 0.501400 -0.163900 1 0 1.000000 
0 -10.005600 -0.000000 16.915800 0.296799 0.016500 0.954797 0.501400 -0.180900 1 0 1.000000 
citizen_trap001
0 -10.005600 -0.000000 16.915800 0.296799 0.016500 0.954797 0.501400 -0.180900 1 0 1.000000 
0 -10.526400 1.650400 16.564501 0.260303 0.626807 0.734408 0.514300 -0.183600 1 0 1.000000 
0 -17.358999 1.650399 18.986200 0.232705 0.605812 0.760815 0.514300 -0.164700 1 0 1.000000 
citizen_trap001
0 -10.526400 1.650400 16.564501 0.260303 0.626807 0.734408 0.514300 -0.183600 1 0 1.000000 
0 -12.705200 2.858599 15.061000 0.111106 0.905147 0.410321 0.523700 -0.195300 1 0 1.000000 
0 -17.358999 1.650399 18.986200 0.232705 0.605812 0.760815 0.514300 -0.164700 1 0 1.000000 
citizen_trap001
0 -12.705200 2.858599 15.061000 0.111106 0.905147 0.410321 0.523700 -0.195300 1 0 1.000000 
0 -14.061100 3.300799 14.119400 0.057497 0.932951 0.355381 0.527200 -0.202700 1 0 1.000000 
0 -17.358999 1.650399 18.986200 0.232705 0.605812 0.760815 0.514300 -0.164700 1 0 1.000000 
end
