$cd ".\"
$modelname "props_combine/combine_cell001.mdl"
$model "Body" "combine_cell001_reference.smd"
$cdmaterials "models/props_combine/"
$surfaceprop "combine_metal"
$eyeposition 0.000 0.000 0.000
$illumposition 0.000 0.000 0.000
$sequence idle "idle" ACT_IDLE 1 fps 30.000000
$keyvalues
{
	prop_data
	{
		base Metal.Medium
	}
}