version 1
nodes
  0 "static_prop" -1
end
skeleton
time 0
0 0.000000 0.000000 0.000000 0.000000 0.000000 0.000000
end
triangles
combine_pipes001
0 314.134613 -35.297386 3.405300 -0.000000 0.041901 0.999122 0.276700 -0.729100 1 0 1.000000 
0 314.134613 91.738213 3.405300 0.761689 0.008200 0.647891 0.276700 -0.270900 1 0 1.000000 
0 311.921692 -35.297386 3.405300 -0.437783 0.148294 0.886766 0.271000 -0.729100 1 0 1.000000 
combine_pipes001
0 316.608795 -35.297386 0.000000 0.950630 -0.029601 0.308910 0.288200 -0.729100 1 0 1.000000 
0 314.134613 91.738213 3.405300 0.761689 0.008200 0.647891 0.276700 -0.270900 1 0 1.000000 
0 315.924896 -35.297386 2.104600 0.952123 -0.058801 0.300007 0.282400 -0.729100 1 0 1.000000 
combine_pipes001
0 316.608795 -35.297386 0.000000 0.950630 -0.029601 0.308910 0.288200 -0.729100 1 0 1.000000 
0 315.924896 91.738213 -2.104600 0.851589 0.004100 -0.524193 0.293900 -0.270900 1 0 1.000000 
0 314.134613 91.738213 3.405300 0.761689 0.008200 0.647891 0.276700 -0.270900 1 0 1.000000 
combine_pipes001
0 314.134613 -35.297386 -3.405300 0.122599 0.090799 -0.988294 0.299700 -0.729100 1 0 1.000000 
0 315.924896 91.738213 -2.104600 0.851589 0.004100 -0.524193 0.293900 -0.270900 1 0 1.000000 
0 315.924896 -35.297386 -2.104600 0.605006 -0.004400 -0.796208 0.293900 -0.729100 1 0 1.000000 
combine_pipes001
0 314.134613 -35.297386 -3.405300 0.122599 0.090799 -0.988294 0.299700 -0.729100 1 0 1.000000 
0 314.134613 91.738213 -3.405300 -0.119405 0.004000 -0.992837 0.299700 -0.270900 1 0 1.000000 
0 315.924896 91.738213 -2.104600 0.851589 0.004100 -0.524193 0.293900 -0.270900 1 0 1.000000 
combine_pipes001
0 310.131409 -35.297386 -2.104600 -0.889387 0.208197 -0.406994 0.253800 -0.729100 1 0 1.000000 
0 314.134613 91.738213 -3.405300 -0.119405 0.004000 -0.992837 0.242300 -0.270900 1 0 1.000000 
0 314.134613 -35.297386 -3.405300 0.122599 0.090799 -0.988294 0.242300 -0.729100 1 0 1.000000 
combine_pipes001
0 310.131409 -35.297386 -2.104600 -0.889387 0.208197 -0.406994 0.253800 -0.729100 1 0 1.000000 
0 309.447601 91.738213 0.000000 -0.951066 -0.000000 -0.308989 0.259500 -0.270900 1 0 1.000000 
0 314.134613 91.738213 -3.405300 -0.119405 0.004000 -0.992837 0.242300 -0.270900 1 0 1.000000 
combine_pipes001
0 311.921692 -35.297386 3.405300 -0.437783 0.148294 0.886766 0.271000 -0.729100 1 0 1.000000 
0 309.447601 91.738213 0.000000 -0.951066 -0.000000 -0.308989 0.259500 -0.270900 1 0 1.000000 
0 310.131409 -35.297386 -2.104600 -0.889387 0.208197 -0.406994 0.253800 -0.729100 1 0 1.000000 
combine_pipes001
0 315.924896 -35.297386 -2.104600 0.950676 -0.028299 -0.308892 0.293900 -0.729100 1 0 1.000000 
0 315.924896 91.738213 -2.104600 0.951066 0.000000 -0.308989 0.293900 -0.270900 1 0 1.000000 
0 316.608795 -35.297386 0.000000 0.952128 -0.058202 -0.300109 0.288200 -0.729100 1 0 1.000000 
combine_pipes001
0 281.996094 -80.336288 8.283900 -0.173497 0.572291 0.801487 0.668400 -0.488200 1 0 1.000000 
0 293.234985 -70.763885 5.119800 -0.314705 0.510509 0.800213 0.678000 -0.559700 1 0 1.000000 
0 281.996094 -75.981186 5.119800 -0.094998 0.585089 0.805385 0.684800 -0.501300 1 0 1.000000 
combine_pipes001
0 281.996094 -80.336288 8.283900 -0.173497 0.572291 0.801487 0.668400 -0.488200 1 0 1.000000 
0 295.997803 -74.130486 8.283900 -0.373307 0.456508 0.807615 0.654500 -0.560000 1 0 1.000000 
0 293.234985 -70.763885 5.119800 -0.314705 0.510509 0.800213 0.678000 -0.559700 1 0 1.000000 
combine_pipes001
0 295.997803 -74.130486 8.283900 -0.373307 0.456508 0.807615 0.654500 -0.560000 1 0 1.000000 
0 302.193512 -59.644089 4.332100 -0.469589 0.354291 0.808680 0.687600 -0.627300 1 0 1.000000 
0 293.234985 -70.763885 5.119800 -0.314705 0.510509 0.800213 0.678000 -0.559700 1 0 1.000000 
combine_pipes001
0 295.997803 -74.130486 8.283900 -0.373307 0.456508 0.807615 0.654500 -0.560000 1 0 1.000000 
0 305.372711 -61.507488 7.009500 -0.516082 0.302690 0.801273 0.671600 -0.633700 1 0 1.000000 
0 302.193512 -59.644089 4.332100 -0.469589 0.354291 0.808680 0.687600 -0.627300 1 0 1.000000 
combine_pipes001
0 305.372711 -61.507488 7.009500 -0.516082 0.302690 0.801273 0.671600 -0.633700 1 0 1.000000 
0 311.921692 -35.297386 3.405300 -0.585688 0.083898 0.806183 0.636400 -0.818800 1 0 1.000000 
0 302.193512 -59.644089 4.332100 -0.469589 0.354291 0.808680 0.651700 -0.679600 1 0 1.000000 
combine_pipes001
0 315.924896 -35.297386 2.104600 0.587801 -0.002400 0.809002 0.282400 -0.729100 1 0 1.000000 
0 314.134613 91.738213 3.405300 0.000000 0.000000 1.000000 0.276700 -0.270900 1 0 1.000000 
0 314.134613 -35.297386 3.405300 0.605573 -0.006200 0.795765 0.276700 -0.729100 1 0 1.000000 
combine_pipes001
0 311.921692 -35.297386 3.405300 -0.585688 0.083898 0.806183 0.271000 -0.729100 1 0 1.000000 
0 314.134613 91.738213 3.405300 0.000000 0.000000 1.000000 0.276700 -0.270900 1 0 1.000000 
0 309.447601 91.738213 0.000000 -0.587772 0.010199 0.808962 0.259500 -0.270900 1 0 1.000000 
combine_pipes001
0 -316.273895 -74.021515 -2.186000 -0.005700 -0.634006 -0.773307 0.439700 -0.000700 1 0 1.000000 
0 172.709198 -76.654289 -3.537000 -0.131799 -0.581095 -0.803093 0.436500 -0.997200 1 0 1.000000 
0 172.169403 -78.433693 -2.186000 -0.067699 -0.600590 -0.796686 0.439800 -0.996100 1 0 1.000000 
combine_pipes001
0 281.996094 -91.738182 0.000000 0.242794 -0.921578 0.302893 0.594700 -0.453700 1 0 1.000000 
0 302.175812 -81.658287 5.119800 0.366990 -0.883176 0.292092 0.613600 -0.560800 1 0 1.000000 
0 281.996094 -90.074684 5.119800 0.112599 -0.944993 0.307098 0.633600 -0.458800 1 0 1.000000 
combine_pipes001
0 281.996094 -91.738182 0.000000 0.242794 -0.921578 0.302893 0.594700 -0.453700 1 0 1.000000 
0 303.231110 -82.944283 0.000000 0.365410 -0.882225 0.296908 0.594700 -0.560900 1 0 1.000000 
0 302.175812 -81.658287 5.119800 0.366990 -0.883176 0.292092 0.613600 -0.560800 1 0 1.000000 
combine_pipes001
0 302.193512 -59.644089 -4.332100 -0.422504 0.295003 -0.857008 0.688100 -0.679600 1 0 1.000000 
0 314.134613 -35.297386 -3.405300 0.122599 0.090799 -0.988294 0.720500 -0.821300 1 0 1.000000 
0 305.372711 -61.507488 -7.009500 -0.470305 0.353504 -0.808609 0.735300 -0.633700 1 0 1.000000 
combine_pipes001
0 302.193512 -59.644089 -4.332100 -0.422504 0.295003 -0.857008 0.688100 -0.679600 1 0 1.000000 
0 310.131409 -35.297386 -2.104600 -0.889387 0.208197 -0.406994 0.686700 -0.816800 1 0 1.000000 
0 314.134613 -35.297386 -3.405300 0.122599 0.090799 -0.988294 0.720500 -0.821300 1 0 1.000000 
combine_pipes001
0 302.193512 -59.644089 4.332100 -0.853588 0.422694 0.304496 0.651700 -0.679600 1 0 1.000000 
0 310.131409 -35.297386 -2.104600 -0.889387 0.208197 -0.406994 0.686700 -0.816800 1 0 1.000000 
0 300.979095 -58.932388 0.000000 -0.796275 0.520484 0.308290 0.669900 -0.682000 1 0 1.000000 
combine_pipes001
0 302.193512 -59.644089 4.332100 -0.853588 0.422694 0.304496 0.651700 -0.679600 1 0 1.000000 
0 311.921692 -35.297386 3.405300 -0.437783 0.148294 0.886766 0.636400 -0.818800 1 0 1.000000 
0 310.131409 -35.297386 -2.104600 -0.889387 0.208197 -0.406994 0.686700 -0.816800 1 0 1.000000 
combine_pipes001
0 281.996094 -75.981186 -5.119800 -0.172693 0.570877 -0.802668 0.722100 -0.501300 1 0 1.000000 
0 295.997803 -74.130486 -8.283900 -0.314502 0.508603 -0.801505 0.752400 -0.560000 1 0 1.000000 
0 281.996094 -80.336288 -8.283900 -0.091205 0.585334 -0.805646 0.738500 -0.488200 1 0 1.000000 
combine_pipes001
0 281.996094 -75.981186 -5.119800 -0.172693 0.570877 -0.802668 0.722100 -0.501300 1 0 1.000000 
0 293.234985 -70.763885 -5.119800 -0.376085 0.454482 -0.807469 0.728900 -0.559700 1 0 1.000000 
0 295.997803 -74.130486 -8.283900 -0.314502 0.508603 -0.801505 0.752400 -0.560000 1 0 1.000000 
combine_pipes001
0 293.234985 -70.763885 -5.119800 -0.376085 0.454482 -0.807469 0.728900 -0.559700 1 0 1.000000 
0 305.372711 -61.507488 -7.009500 -0.470305 0.353504 -0.808609 0.735300 -0.633700 1 0 1.000000 
0 295.997803 -74.130486 -8.283900 -0.314502 0.508603 -0.801505 0.752400 -0.560000 1 0 1.000000 
combine_pipes001
0 293.234985 -70.763885 -5.119800 -0.376085 0.454482 -0.807469 0.728900 -0.559700 1 0 1.000000 
0 302.193512 -59.644089 -4.332100 -0.422504 0.295003 -0.857008 0.719300 -0.627300 1 0 1.000000 
0 305.372711 -61.507488 -7.009500 -0.470305 0.353504 -0.808609 0.735300 -0.633700 1 0 1.000000 
combine_pipes001
0 281.996094 -85.719482 8.283900 -0.004300 -0.000000 0.999991 0.653000 -0.471900 1 0 1.000000 
0 295.997803 -74.130486 8.283900 0.021500 0.017600 0.999614 0.654500 -0.560000 1 0 1.000000 
0 281.996094 -80.336288 8.283900 -0.008700 -0.000000 0.999962 0.668400 -0.488200 1 0 1.000000 
combine_pipes001
0 281.996094 -85.719482 8.283900 -0.004300 -0.000000 0.999991 0.653000 -0.471900 1 0 1.000000 
0 299.412903 -78.291786 8.283900 0.033700 0.038500 0.998690 0.633200 -0.560400 1 0 1.000000 
0 295.997803 -74.130486 8.283900 0.021500 0.017600 0.999614 0.654500 -0.560000 1 0 1.000000 
combine_pipes001
0 299.412903 -78.291786 8.283900 0.033700 0.038500 0.998690 0.633200 -0.560400 1 0 1.000000 
0 305.372711 -61.507488 7.009500 0.056901 0.078102 0.995320 0.671600 -0.633700 1 0 1.000000 
0 295.997803 -74.130486 8.283900 0.021500 0.017600 0.999614 0.654500 -0.560000 1 0 1.000000 
combine_pipes001
0 299.412903 -78.291786 8.283900 0.033700 0.038500 0.998690 0.633200 -0.560400 1 0 1.000000 
0 309.302612 -63.810783 7.009500 0.035500 0.102401 0.994109 0.654400 -0.641700 1 0 1.000000 
0 305.372711 -61.507488 7.009500 0.056901 0.078102 0.995320 0.671600 -0.633700 1 0 1.000000 
combine_pipes001
0 309.302612 -63.810783 7.009500 0.035500 0.102401 0.994109 0.654400 -0.641700 1 0 1.000000 
0 311.921692 -35.297386 3.405300 -0.437783 0.148294 0.886766 0.636400 -0.818800 1 0 1.000000 
0 305.372711 -61.507488 7.009500 0.056901 0.078102 0.995320 0.671600 -0.633700 1 0 1.000000 
combine_pipes001
0 309.302612 -63.810783 7.009500 0.035500 0.102401 0.994109 0.654400 -0.641700 1 0 1.000000 
0 314.134613 -35.297386 3.405300 -0.000000 0.041901 0.999122 0.619300 -0.821300 1 0 1.000000 
0 311.921692 -35.297386 3.405300 -0.437783 0.148294 0.886766 0.636400 -0.818800 1 0 1.000000 
combine_pipes001
0 281.996094 -74.317688 0.000000 -0.278900 0.911199 -0.303200 0.703400 -0.506300 1 0 1.000000 
0 293.234985 -70.763885 -5.119800 -0.524916 0.795924 -0.301609 0.728900 -0.559700 1 0 1.000000 
0 281.996094 -75.981186 -5.119800 -0.142394 0.941359 -0.305887 0.722100 -0.501300 1 0 1.000000 
combine_pipes001
0 281.996094 -74.317688 0.000000 -0.278900 0.911199 -0.303200 0.703400 -0.506300 1 0 1.000000 
0 292.179688 -69.477982 0.000000 -0.635782 0.707279 -0.309091 0.703400 -0.559600 1 0 1.000000 
0 293.234985 -70.763885 -5.119800 -0.524916 0.795924 -0.301609 0.728900 -0.559700 1 0 1.000000 
combine_pipes001
0 292.179688 -69.477982 0.000000 -0.635782 0.707279 -0.309091 0.703400 -0.559600 1 0 1.000000 
0 302.193512 -59.644089 -4.332100 -0.796472 0.520182 -0.308289 0.719300 -0.627300 1 0 1.000000 
0 293.234985 -70.763885 -5.119800 -0.524916 0.795924 -0.301609 0.728900 -0.559700 1 0 1.000000 
combine_pipes001
0 292.179688 -69.477982 0.000000 -0.635782 0.707279 -0.309091 0.703400 -0.559600 1 0 1.000000 
0 300.979095 -58.932388 0.000000 -0.853514 0.422907 -0.304405 0.703400 -0.624800 1 0 1.000000 
0 302.193512 -59.644089 -4.332100 -0.796472 0.520182 -0.308289 0.719300 -0.627300 1 0 1.000000 
combine_pipes001
0 -314.313812 -70.354515 -3.537000 -0.002300 -0.174492 -0.984656 0.433500 -0.004600 1 0 1.000000 
0 172.709198 -76.654289 -3.537000 -0.032001 -0.107104 -0.993733 0.436500 -0.997200 1 0 1.000000 
0 -316.273895 -74.021515 -2.186000 -0.008900 -0.928191 -0.371997 0.439700 -0.000700 1 0 1.000000 
combine_pipes001
0 -314.313812 -70.354515 -3.537000 -0.002300 -0.174492 -0.984656 0.433500 -0.004600 1 0 1.000000 
0 173.376404 -74.454796 -3.537000 -0.062500 0.009100 -0.998003 0.433300 -0.998500 1 0 1.000000 
0 172.709198 -76.654289 -3.537000 -0.032001 -0.107104 -0.993733 0.436500 -0.997200 1 0 1.000000 
combine_pipes001
0 -316.273895 -74.021515 2.186000 -0.007300 -0.818481 0.574487 0.446900 -0.000700 1 0 1.000000 
0 172.709198 -76.654289 3.537000 -0.068697 -0.600373 0.796764 0.450100 -0.997200 1 0 1.000000 
0 -315.397308 -72.381615 3.537000 -0.005600 -0.634066 0.773259 0.450100 -0.002400 1 0 1.000000 
combine_pipes001
0 -316.273895 -74.021515 2.186000 -0.007300 -0.818481 0.574487 0.446900 -0.000700 1 0 1.000000 
0 172.169403 -78.433693 2.186000 -0.131006 -0.882743 0.451222 0.446800 -0.996100 1 0 1.000000 
0 172.709198 -76.654289 3.537000 -0.068697 -0.600373 0.796764 0.450100 -0.997200 1 0 1.000000 
combine_pipes001
0 -316.273895 -74.021515 -2.186000 -0.008900 -0.928191 -0.371997 0.439700 -0.000700 1 0 1.000000 
0 172.169403 -78.433693 2.186000 -0.131006 -0.882743 0.451222 0.446800 -0.996100 1 0 1.000000 
0 -316.273895 -74.021515 2.186000 -0.007300 -0.818481 0.574487 0.446900 -0.000700 1 0 1.000000 
combine_pipes001
0 -316.273895 -74.021515 -2.186000 -0.008900 -0.928191 -0.371997 0.439700 -0.000700 1 0 1.000000 
0 172.169403 -78.433693 -2.186000 -0.186001 -0.977303 -0.101400 0.439800 -0.996100 1 0 1.000000 
0 172.169403 -78.433693 2.186000 -0.131006 -0.882743 0.451222 0.446800 -0.996100 1 0 1.000000 
combine_pipes001
0 281.996094 -75.981186 5.119800 -0.278992 0.911374 0.302591 0.684800 -0.501300 1 0 1.000000 
0 292.179688 -69.477982 0.000000 -0.525114 0.796021 0.301008 0.703400 -0.559600 1 0 1.000000 
0 281.996094 -74.317688 0.000000 -0.145297 0.940978 0.305693 0.703400 -0.506300 1 0 1.000000 
combine_pipes001
0 281.996094 -75.981186 5.119800 -0.278992 0.911374 0.302591 0.684800 -0.501300 1 0 1.000000 
0 293.234985 -70.763885 5.119800 -0.633719 0.709121 0.309109 0.678000 -0.559700 1 0 1.000000 
0 292.179688 -69.477982 0.000000 -0.525114 0.796021 0.301008 0.703400 -0.559600 1 0 1.000000 
combine_pipes001
0 293.234985 -70.763885 5.119800 -0.633719 0.709121 0.309109 0.678000 -0.559700 1 0 1.000000 
0 300.979095 -58.932388 0.000000 -0.796275 0.520484 0.308290 0.703400 -0.624800 1 0 1.000000 
0 292.179688 -69.477982 0.000000 -0.525114 0.796021 0.301008 0.703400 -0.559600 1 0 1.000000 
combine_pipes001
0 293.234985 -70.763885 5.119800 -0.633719 0.709121 0.309109 0.678000 -0.559700 1 0 1.000000 
0 302.193512 -59.644089 4.332100 -0.853588 0.422694 0.304496 0.687600 -0.627300 1 0 1.000000 
0 300.979095 -58.932388 0.000000 -0.796275 0.520484 0.308290 0.703400 -0.624800 1 0 1.000000 
combine_pipes001
0 281.996094 -85.719482 -8.283900 0.154005 -0.575420 -0.803227 0.536300 -0.471900 1 0 1.000000 
0 302.175812 -81.658287 -5.119800 0.341792 -0.485289 -0.804781 0.575800 -0.560800 1 0 1.000000 
0 281.996094 -90.074684 -5.119800 0.068999 -0.586389 -0.807085 0.555800 -0.458800 1 0 1.000000 
combine_pipes001
0 281.996094 -85.719482 -8.283900 0.154005 -0.575420 -0.803227 0.536300 -0.471900 1 0 1.000000 
0 299.412903 -78.291786 -8.283900 0.436112 -0.387010 -0.812422 0.556100 -0.560400 1 0 1.000000 
0 302.175812 -81.658287 -5.119800 0.341792 -0.485289 -0.804781 0.575800 -0.560800 1 0 1.000000 
combine_pipes001
0 299.412903 -78.291786 -8.283900 0.436112 -0.387010 -0.812422 0.556100 -0.560400 1 0 1.000000 
0 312.481812 -65.674187 -4.332100 0.568396 -0.202699 -0.797395 0.557400 -0.648100 1 0 1.000000 
0 302.175812 -81.658287 -5.119800 0.341792 -0.485289 -0.804781 0.575800 -0.560800 1 0 1.000000 
combine_pipes001
0 299.412903 -78.291786 -8.283900 0.436112 -0.387010 -0.812422 0.556100 -0.560400 1 0 1.000000 
0 309.302612 -63.810783 -7.009500 0.586703 -0.099200 -0.803703 0.534900 -0.641700 1 0 1.000000 
0 312.481812 -65.674187 -4.332100 0.568396 -0.202699 -0.797395 0.557400 -0.648100 1 0 1.000000 
combine_pipes001
0 309.302612 -63.810783 -7.009500 0.586703 -0.099200 -0.803703 0.534900 -0.641700 1 0 1.000000 
0 315.924896 -35.297386 -2.104600 0.605006 -0.004400 -0.796208 0.563100 -0.823400 1 0 1.000000 
0 312.481812 -65.674187 -4.332100 0.568396 -0.202699 -0.797395 0.557400 -0.648100 1 0 1.000000 
combine_pipes001
0 309.302612 -63.810783 -7.009500 0.586703 -0.099200 -0.803703 0.534900 -0.641700 1 0 1.000000 
0 314.134613 -35.297386 -3.405300 0.122599 0.090799 -0.988294 0.545000 -0.821300 1 0 1.000000 
0 315.924896 -35.297386 -2.104600 0.605006 -0.004400 -0.796208 0.563100 -0.823400 1 0 1.000000 
combine_pipes001
0 172.169403 -78.433693 -2.186000 -0.186001 -0.977303 -0.101400 0.574300 -0.042800 1 0 1.000000 
0 212.690598 -90.402992 0.000000 -0.188997 -0.960085 -0.206197 0.591500 -0.174700 1 0 1.000000 
0 172.169403 -78.433693 2.186000 -0.131006 -0.882743 0.451222 0.608700 -0.042800 1 0 1.000000 
combine_pipes001
0 172.169403 -78.433693 -2.186000 -0.186001 -0.977303 -0.101400 0.574300 -0.042800 1 0 1.000000 
0 212.690598 -88.921089 -4.561000 -0.097999 -0.946489 -0.307497 0.580500 -0.174300 1 0 1.000000 
0 212.690598 -90.402992 0.000000 -0.188997 -0.960085 -0.206197 0.591500 -0.174700 1 0 1.000000 
combine_pipes001
0 212.690598 -88.921089 -4.561000 -0.097999 -0.946489 -0.307497 0.580500 -0.174300 1 0 1.000000 
0 281.996094 -91.738182 0.000000 0.111897 -0.945078 -0.307093 0.591500 -0.395000 1 0 1.000000 
0 212.690598 -90.402992 0.000000 -0.188997 -0.960085 -0.206197 0.591500 -0.174700 1 0 1.000000 
combine_pipes001
0 212.690598 -88.921089 -4.561000 -0.097999 -0.946489 -0.307497 0.580500 -0.174300 1 0 1.000000 
0 281.996094 -90.074684 -5.119800 0.242708 -0.921530 -0.303110 0.570900 -0.394500 1 0 1.000000 
0 281.996094 -91.738182 0.000000 0.111897 -0.945078 -0.307093 0.591500 -0.395000 1 0 1.000000 
combine_pipes001
0 172.169403 -78.433693 2.186000 -0.131006 -0.882743 0.451222 0.608700 -0.042800 1 0 1.000000 
0 212.690598 -85.041191 7.379900 -0.135905 -0.575221 0.806629 0.614200 -0.173200 1 0 1.000000 
0 172.709198 -76.654289 3.537000 -0.068697 -0.600373 0.796764 0.624900 -0.044100 1 0 1.000000 
combine_pipes001
0 172.169403 -78.433693 2.186000 -0.131006 -0.882743 0.451222 0.608700 -0.042800 1 0 1.000000 
0 212.690598 -88.921089 4.561000 -0.076396 -0.586066 0.806653 0.602600 -0.174300 1 0 1.000000 
0 212.690598 -85.041191 7.379900 -0.135905 -0.575221 0.806629 0.614200 -0.173200 1 0 1.000000 
combine_pipes001
0 212.690598 -88.921089 4.561000 -0.076396 -0.586066 0.806653 0.602600 -0.174300 1 0 1.000000 
0 281.996094 -85.719482 8.283900 0.070700 -0.586301 0.807002 0.629600 -0.393300 1 0 1.000000 
0 212.690598 -85.041191 7.379900 -0.135905 -0.575221 0.806629 0.614200 -0.173200 1 0 1.000000 
combine_pipes001
0 212.690598 -88.921089 4.561000 -0.076396 -0.586066 0.806653 0.602600 -0.174300 1 0 1.000000 
0 281.996094 -90.074684 5.119800 0.154298 -0.576092 0.802689 0.612200 -0.394500 1 0 1.000000 
0 281.996094 -85.719482 8.283900 0.070700 -0.586301 0.807002 0.629600 -0.393300 1 0 1.000000 
combine_pipes001
0 281.996094 -90.074684 -5.119800 0.242708 -0.921530 -0.303110 0.555800 -0.458800 1 0 1.000000 
0 303.231110 -82.944283 0.000000 0.367001 -0.883103 -0.292301 0.594700 -0.560900 1 0 1.000000 
0 281.996094 -91.738182 0.000000 0.111897 -0.945078 -0.307093 0.594700 -0.453700 1 0 1.000000 
combine_pipes001
0 281.996094 -90.074684 -5.119800 0.242708 -0.921530 -0.303110 0.555800 -0.458800 1 0 1.000000 
0 302.175812 -81.658287 -5.119800 0.367497 -0.881294 -0.297098 0.575800 -0.560800 1 0 1.000000 
0 303.231110 -82.944283 0.000000 0.367001 -0.883103 -0.292301 0.594700 -0.560900 1 0 1.000000 
combine_pipes001
0 173.376404 -74.454796 -3.537000 -0.062500 0.009100 -0.998003 0.543000 -0.045600 1 0 1.000000 
0 212.690598 -85.041191 -7.379900 -0.066802 0.009100 -0.997725 0.568800 -0.173200 1 0 1.000000 
0 172.709198 -76.654289 -3.537000 -0.032001 -0.107104 -0.993733 0.558200 -0.044100 1 0 1.000000 
combine_pipes001
0 173.376404 -74.454796 -3.537000 -0.062500 0.009100 -0.998003 0.543000 -0.045600 1 0 1.000000 
0 212.690598 -80.245491 -7.379900 -0.041198 -0.000000 -0.999151 0.555600 -0.171900 1 0 1.000000 
0 212.690598 -85.041191 -7.379900 -0.066802 0.009100 -0.997725 0.568800 -0.173200 1 0 1.000000 
combine_pipes001
0 212.690598 -80.245491 -7.379900 -0.041198 -0.000000 -0.999151 0.555600 -0.171900 1 0 1.000000 
0 281.996094 -85.719482 -8.283900 -0.008700 -0.000000 -0.999962 0.553500 -0.393300 1 0 1.000000 
0 212.690598 -85.041191 -7.379900 -0.066802 0.009100 -0.997725 0.568800 -0.173200 1 0 1.000000 
combine_pipes001
0 212.690598 -80.245491 -7.379900 -0.041198 -0.000000 -0.999151 0.555600 -0.171900 1 0 1.000000 
0 281.996094 -80.336288 -8.283900 -0.004300 -0.000000 -0.999991 0.538900 -0.391800 1 0 1.000000 
0 281.996094 -85.719482 -8.283900 -0.008700 -0.000000 -0.999962 0.553500 -0.393300 1 0 1.000000 
combine_pipes001
0 172.709198 -76.654289 3.537000 -0.062998 0.009400 0.997969 0.624900 -0.044100 1 0 1.000000 
0 212.690598 -80.245491 7.379900 -0.067299 0.009400 0.997688 0.627500 -0.171900 1 0 1.000000 
0 173.376404 -74.454796 3.537000 0.007000 0.598208 0.801310 0.640100 -0.045600 1 0 1.000000 
combine_pipes001
0 172.709198 -76.654289 3.537000 -0.062998 0.009400 0.997969 0.624900 -0.044100 1 0 1.000000 
0 212.690598 -85.041191 7.379900 -0.040599 -0.000000 0.999175 0.614200 -0.173200 1 0 1.000000 
0 212.690598 -80.245491 7.379900 -0.067299 0.009400 0.997688 0.627500 -0.171900 1 0 1.000000 
combine_pipes001
0 212.690598 -85.041191 7.379900 -0.040599 -0.000000 0.999175 0.614200 -0.173200 1 0 1.000000 
0 281.996094 -80.336288 8.283900 -0.008700 -0.000000 0.999962 0.644100 -0.391800 1 0 1.000000 
0 212.690598 -80.245491 7.379900 -0.067299 0.009400 0.997688 0.627500 -0.171900 1 0 1.000000 
combine_pipes001
0 212.690598 -85.041191 7.379900 -0.040599 -0.000000 0.999175 0.614200 -0.173200 1 0 1.000000 
0 281.996094 -85.719482 8.283900 -0.004300 -0.000000 0.999991 0.629600 -0.393300 1 0 1.000000 
0 281.996094 -80.336288 8.283900 -0.008700 -0.000000 0.999962 0.644100 -0.391800 1 0 1.000000 
combine_pipes001
0 173.376404 -74.454796 3.537000 0.007000 0.598208 0.801310 0.640100 -0.045600 1 0 1.000000 
0 212.690598 -74.883690 0.000000 0.045002 0.950738 0.306712 0.669600 -0.170400 1 0 1.000000 
0 173.916199 -72.675293 -2.186000 0.029199 0.955882 -0.292295 0.684300 -0.046800 1 0 1.000000 
combine_pipes001
0 173.376404 -74.454796 3.537000 0.007000 0.598208 0.801310 0.640100 -0.045600 1 0 1.000000 
0 212.690598 -76.365692 4.561000 0.018600 0.950882 0.308994 0.644800 -0.170800 1 0 1.000000 
0 212.690598 -74.883690 0.000000 0.045002 0.950738 0.306712 0.669600 -0.170400 1 0 1.000000 
combine_pipes001
0 212.690598 -76.365692 4.561000 0.018600 0.950882 0.308994 0.644800 -0.170800 1 0 1.000000 
0 281.996094 -74.317688 0.000000 -0.145297 0.940978 0.305693 0.669600 -0.390200 1 0 1.000000 
0 212.690598 -74.883690 0.000000 0.045002 0.950738 0.306712 0.669600 -0.170400 1 0 1.000000 
combine_pipes001
0 212.690598 -76.365692 4.561000 0.018600 0.950882 0.308994 0.644800 -0.170800 1 0 1.000000 
0 281.996094 -75.981186 5.119800 -0.278992 0.911374 0.302591 0.657200 -0.390600 1 0 1.000000 
0 281.996094 -74.317688 0.000000 -0.145297 0.940978 0.305693 0.669600 -0.390200 1 0 1.000000 
combine_pipes001
0 173.916199 -72.675293 -2.186000 0.029199 0.955882 -0.292295 0.684300 -0.046800 1 0 1.000000 
0 212.690598 -80.245491 -7.379900 0.002500 0.592774 -0.805365 0.711700 -0.171900 1 0 1.000000 
0 173.376404 -74.454796 -3.537000 0.007000 0.613593 -0.789591 0.699100 -0.045600 1 0 1.000000 
combine_pipes001
0 173.916199 -72.675293 -2.186000 0.029199 0.955882 -0.292295 0.684300 -0.046800 1 0 1.000000 
0 212.690598 -76.365692 -4.561000 -0.004400 0.587797 -0.808996 0.694300 -0.170800 1 0 1.000000 
0 212.690598 -80.245491 -7.379900 0.002500 0.592774 -0.805365 0.711700 -0.171900 1 0 1.000000 
combine_pipes001
0 212.690598 -76.365692 -4.561000 -0.004400 0.587797 -0.808996 0.694300 -0.170800 1 0 1.000000 
0 281.996094 -80.336288 -8.283900 -0.091205 0.585334 -0.805646 0.695000 -0.391800 1 0 1.000000 
0 212.690598 -80.245491 -7.379900 0.002500 0.592774 -0.805365 0.711700 -0.171900 1 0 1.000000 
combine_pipes001
0 212.690598 -76.365692 -4.561000 -0.004400 0.587797 -0.808996 0.694300 -0.170800 1 0 1.000000 
0 281.996094 -75.981186 -5.119800 -0.172693 0.570877 -0.802668 0.682000 -0.390600 1 0 1.000000 
0 281.996094 -80.336288 -8.283900 -0.091205 0.585334 -0.805646 0.695000 -0.391800 1 0 1.000000 
combine_pipes001
0 173.916199 -72.675293 -2.186000 0.029199 0.955882 -0.292295 0.684300 -0.046800 1 0 1.000000 
0 212.690598 -74.883690 0.000000 0.018500 0.950884 -0.308995 0.669600 -0.170400 1 0 1.000000 
0 212.690598 -76.365692 -4.561000 0.045102 0.950733 -0.306711 0.694300 -0.170800 1 0 1.000000 
combine_pipes001
0 212.690598 -74.883690 0.000000 0.018500 0.950884 -0.308995 0.669600 -0.170400 1 0 1.000000 
0 281.996094 -75.981186 -5.119800 -0.142394 0.941359 -0.305887 0.682000 -0.390600 1 0 1.000000 
0 212.690598 -76.365692 -4.561000 0.045102 0.950733 -0.306711 0.694300 -0.170800 1 0 1.000000 
combine_pipes001
0 212.690598 -74.883690 0.000000 0.018500 0.950884 -0.308995 0.669600 -0.170400 1 0 1.000000 
0 281.996094 -74.317688 0.000000 -0.278900 0.911199 -0.303200 0.669600 -0.390200 1 0 1.000000 
0 281.996094 -75.981186 -5.119800 -0.142394 0.941359 -0.305887 0.682000 -0.390600 1 0 1.000000 
combine_pipes001
0 300.979095 -58.932388 0.000000 -0.853514 0.422907 -0.304405 0.669900 -0.682000 1 0 1.000000 
0 310.131409 -35.297386 -2.104600 -0.897183 0.320294 -0.304094 0.686700 -0.816800 1 0 1.000000 
0 302.193512 -59.644089 -4.332100 -0.796472 0.520182 -0.308289 0.688100 -0.679600 1 0 1.000000 
combine_pipes001
0 303.231110 -82.944283 0.000000 0.806895 -0.507897 0.301598 0.594700 -0.560900 1 0 1.000000 
0 312.481812 -65.674187 4.332100 0.875980 -0.376191 0.301893 0.631900 -0.648100 1 0 1.000000 
0 302.175812 -81.658287 5.119800 0.809723 -0.507614 0.294408 0.613600 -0.560800 1 0 1.000000 
combine_pipes001
0 303.231110 -82.944283 0.000000 0.806895 -0.507897 0.301598 0.594700 -0.560900 1 0 1.000000 
0 313.696198 -66.385986 0.000000 0.922810 -0.233403 0.306503 0.594700 -0.650600 1 0 1.000000 
0 312.481812 -65.674187 4.332100 0.875980 -0.376191 0.301893 0.631900 -0.648100 1 0 1.000000 
combine_pipes001
0 313.696198 -66.385986 0.000000 0.922810 -0.233403 0.306503 0.594700 -0.650600 1 0 1.000000 
0 315.924896 -35.297386 2.104600 0.952123 -0.058801 0.300007 0.601200 -0.823400 1 0 1.000000 
0 312.481812 -65.674187 4.332100 0.875980 -0.376191 0.301893 0.631900 -0.648100 1 0 1.000000 
combine_pipes001
0 313.696198 -66.385986 0.000000 0.922810 -0.233403 0.306503 0.594700 -0.650600 1 0 1.000000 
0 316.608795 -35.297386 0.000000 0.950630 -0.029601 0.308910 0.582200 -0.824200 1 0 1.000000 
0 315.924896 -35.297386 2.104600 0.952123 -0.058801 0.300007 0.601200 -0.823400 1 0 1.000000 
combine_pipes001
0 172.709198 -76.654289 -3.537000 -0.131799 -0.581095 -0.803093 0.558200 -0.044100 1 0 1.000000 
0 212.690598 -88.921089 -4.561000 -0.135398 -0.575394 -0.806591 0.580500 -0.174300 1 0 1.000000 
0 172.169403 -78.433693 -2.186000 -0.067699 -0.600590 -0.796686 0.574300 -0.042800 1 0 1.000000 
combine_pipes001
0 172.709198 -76.654289 -3.537000 -0.131799 -0.581095 -0.803093 0.558200 -0.044100 1 0 1.000000 
0 212.690598 -85.041191 -7.379900 -0.076903 -0.586025 -0.806635 0.568800 -0.173200 1 0 1.000000 
0 212.690598 -88.921089 -4.561000 -0.135398 -0.575394 -0.806591 0.580500 -0.174300 1 0 1.000000 
combine_pipes001
0 212.690598 -85.041191 -7.379900 -0.076903 -0.586025 -0.806635 0.568800 -0.173200 1 0 1.000000 
0 281.996094 -90.074684 -5.119800 0.068999 -0.586389 -0.807085 0.570900 -0.394500 1 0 1.000000 
0 212.690598 -88.921089 -4.561000 -0.135398 -0.575394 -0.806591 0.580500 -0.174300 1 0 1.000000 
combine_pipes001
0 212.690598 -85.041191 -7.379900 -0.076903 -0.586025 -0.806635 0.568800 -0.173200 1 0 1.000000 
0 281.996094 -85.719482 -8.283900 0.154005 -0.575420 -0.803227 0.553500 -0.393300 1 0 1.000000 
0 281.996094 -90.074684 -5.119800 0.068999 -0.586389 -0.807085 0.570900 -0.394500 1 0 1.000000 
combine_pipes001
0 281.996094 -80.336288 -8.283900 -0.004300 -0.000000 -0.999991 0.738500 -0.488200 1 0 1.000000 
0 299.412903 -78.291786 -8.283900 0.019500 0.016000 -0.999682 0.773700 -0.560400 1 0 1.000000 
0 281.996094 -85.719482 -8.283900 -0.008700 -0.000000 -0.999962 0.753900 -0.471900 1 0 1.000000 
combine_pipes001
0 281.996094 -80.336288 -8.283900 -0.004300 -0.000000 -0.999991 0.738500 -0.488200 1 0 1.000000 
0 295.997803 -74.130486 -8.283900 0.033199 0.039399 -0.998672 0.752400 -0.560000 1 0 1.000000 
0 299.412903 -78.291786 -8.283900 0.019500 0.016000 -0.999682 0.773700 -0.560400 1 0 1.000000 
combine_pipes001
0 295.997803 -74.130486 -8.283900 0.033199 0.039399 -0.998672 0.752400 -0.560000 1 0 1.000000 
0 309.302612 -63.810783 -7.009500 0.055398 0.077397 -0.995460 0.752400 -0.641700 1 0 1.000000 
0 299.412903 -78.291786 -8.283900 0.019500 0.016000 -0.999682 0.773700 -0.560400 1 0 1.000000 
combine_pipes001
0 295.997803 -74.130486 -8.283900 0.033199 0.039399 -0.998672 0.752400 -0.560000 1 0 1.000000 
0 305.372711 -61.507488 -7.009500 0.036001 0.106902 -0.993617 0.735300 -0.633700 1 0 1.000000 
0 309.302612 -63.810783 -7.009500 0.055398 0.077397 -0.995460 0.752400 -0.641700 1 0 1.000000 
combine_pipes001
0 305.372711 -61.507488 -7.009500 0.036001 0.106902 -0.993617 0.735300 -0.633700 1 0 1.000000 
0 314.134613 -35.297386 -3.405300 0.022299 0.083596 -0.996250 0.720500 -0.821300 1 0 1.000000 
0 309.302612 -63.810783 -7.009500 0.055398 0.077397 -0.995460 0.752400 -0.641700 1 0 1.000000 
combine_pipes001
0 302.175812 -81.658287 -5.119800 0.807004 -0.507602 -0.301802 0.575800 -0.560800 1 0 1.000000 
0 313.696198 -66.385986 0.000000 0.875808 -0.376503 -0.302003 0.594700 -0.650600 1 0 1.000000 
0 303.231110 -82.944283 0.000000 0.807800 -0.510500 -0.294700 0.594700 -0.560900 1 0 1.000000 
combine_pipes001
0 302.175812 -81.658287 -5.119800 0.807004 -0.507602 -0.301802 0.575800 -0.560800 1 0 1.000000 
0 312.481812 -65.674187 -4.332100 0.923313 -0.231403 -0.306504 0.557400 -0.648100 1 0 1.000000 
0 313.696198 -66.385986 0.000000 0.875808 -0.376503 -0.302003 0.594700 -0.650600 1 0 1.000000 
combine_pipes001
0 312.481812 -65.674187 -4.332100 0.923313 -0.231403 -0.306504 0.557400 -0.648100 1 0 1.000000 
0 316.608795 -35.297386 0.000000 0.952128 -0.058202 -0.300109 0.582200 -0.824200 1 0 1.000000 
0 313.696198 -66.385986 0.000000 0.875808 -0.376503 -0.302003 0.594700 -0.650600 1 0 1.000000 
combine_pipes001
0 312.481812 -65.674187 -4.332100 0.923313 -0.231403 -0.306504 0.557400 -0.648100 1 0 1.000000 
0 315.924896 -35.297386 -2.104600 0.950676 -0.028299 -0.308892 0.563100 -0.823400 1 0 1.000000 
0 316.608795 -35.297386 0.000000 0.952128 -0.058202 -0.300109 0.582200 -0.824200 1 0 1.000000 
combine_pipes001
0 173.376404 -74.454796 3.537000 0.007000 0.598208 0.801310 0.640100 -0.045600 1 0 1.000000 
0 212.690598 -80.245491 7.379900 -0.004000 0.587798 0.808998 0.627500 -0.171900 1 0 1.000000 
0 212.690598 -76.365692 4.561000 0.002100 0.592887 0.805283 0.644800 -0.170800 1 0 1.000000 
combine_pipes001
0 212.690598 -80.245491 7.379900 -0.004000 0.587798 0.808998 0.627500 -0.171900 1 0 1.000000 
0 281.996094 -75.981186 5.119800 -0.094998 0.585089 0.805385 0.657200 -0.390600 1 0 1.000000 
0 212.690598 -76.365692 4.561000 0.002100 0.592887 0.805283 0.644800 -0.170800 1 0 1.000000 
combine_pipes001
0 212.690598 -80.245491 7.379900 -0.004000 0.587798 0.808998 0.627500 -0.171900 1 0 1.000000 
0 281.996094 -80.336288 8.283900 -0.173497 0.572291 0.801487 0.644100 -0.391800 1 0 1.000000 
0 281.996094 -75.981186 5.119800 -0.094998 0.585089 0.805385 0.657200 -0.390600 1 0 1.000000 
combine_pipes001
0 281.996094 -90.074684 5.119800 0.154298 -0.576092 0.802689 0.633600 -0.458800 1 0 1.000000 
0 299.412903 -78.291786 8.283900 0.344390 -0.484286 0.804277 0.633200 -0.560400 1 0 1.000000 
0 281.996094 -85.719482 8.283900 0.070700 -0.586301 0.807002 0.653000 -0.471900 1 0 1.000000 
combine_pipes001
0 281.996094 -90.074684 5.119800 0.154298 -0.576092 0.802689 0.633600 -0.458800 1 0 1.000000 
0 302.175812 -81.658287 5.119800 0.435203 -0.388903 0.812005 0.613600 -0.560800 1 0 1.000000 
0 299.412903 -78.291786 8.283900 0.344390 -0.484286 0.804277 0.633200 -0.560400 1 0 1.000000 
combine_pipes001
0 302.175812 -81.658287 5.119800 0.435203 -0.388903 0.812005 0.613600 -0.560800 1 0 1.000000 
0 309.302612 -63.810783 7.009500 0.569481 -0.202093 0.796774 0.654400 -0.641700 1 0 1.000000 
0 299.412903 -78.291786 8.283900 0.344390 -0.484286 0.804277 0.633200 -0.560400 1 0 1.000000 
combine_pipes001
0 302.175812 -81.658287 5.119800 0.435203 -0.388903 0.812005 0.613600 -0.560800 1 0 1.000000 
0 312.481812 -65.674187 4.332100 0.585898 -0.103900 0.803697 0.631900 -0.648100 1 0 1.000000 
0 309.302612 -63.810783 7.009500 0.569481 -0.202093 0.796774 0.654400 -0.641700 1 0 1.000000 
combine_pipes001
0 312.481812 -65.674187 4.332100 0.585898 -0.103900 0.803697 0.631900 -0.648100 1 0 1.000000 
0 314.134613 -35.297386 3.405300 0.605573 -0.006200 0.795765 0.619300 -0.821300 1 0 1.000000 
0 309.302612 -63.810783 7.009500 0.569481 -0.202093 0.796774 0.654400 -0.641700 1 0 1.000000 
combine_pipes001
0 312.481812 -65.674187 4.332100 0.585898 -0.103900 0.803697 0.631900 -0.648100 1 0 1.000000 
0 315.924896 -35.297386 2.104600 0.587801 -0.002400 0.809002 0.601200 -0.823400 1 0 1.000000 
0 314.134613 -35.297386 3.405300 0.605573 -0.006200 0.795765 0.619300 -0.821300 1 0 1.000000 
combine_pipes001
0 172.169403 -78.433693 2.186000 -0.255495 -0.919481 0.298794 0.608700 -0.042800 1 0 1.000000 
0 212.690598 -90.402992 0.000000 -0.097801 -0.946508 0.307503 0.591500 -0.174700 1 0 1.000000 
0 212.690598 -88.921089 4.561000 -0.177297 -0.934886 0.307495 0.602600 -0.174300 1 0 1.000000 
combine_pipes001
0 212.690598 -90.402992 0.000000 -0.097801 -0.946508 0.307503 0.591500 -0.174700 1 0 1.000000 
0 281.996094 -90.074684 5.119800 0.112599 -0.944993 0.307098 0.612200 -0.394500 1 0 1.000000 
0 212.690598 -88.921089 4.561000 -0.177297 -0.934886 0.307495 0.602600 -0.174300 1 0 1.000000 
combine_pipes001
0 212.690598 -90.402992 0.000000 -0.097801 -0.946508 0.307503 0.591500 -0.174700 1 0 1.000000 
0 281.996094 -91.738182 0.000000 0.242794 -0.921578 0.302893 0.591500 -0.395000 1 0 1.000000 
0 281.996094 -90.074684 5.119800 0.112599 -0.944993 0.307098 0.612200 -0.394500 1 0 1.000000 
combine_pipes001
0 -313.437286 -68.714615 -2.186000 0.006700 0.818532 -0.574422 0.463800 -0.006400 1 0 1.000000 
0 173.376404 -74.454796 -3.537000 0.007000 0.613593 -0.789591 0.466800 -0.998500 1 0 1.000000 
0 -314.313812 -70.354515 -3.537000 0.005300 0.634116 -0.773220 0.467100 -0.004600 1 0 1.000000 
combine_pipes001
0 -313.437286 -68.714615 -2.186000 0.006700 0.818532 -0.574422 0.463800 -0.006400 1 0 1.000000 
0 173.916199 -72.675293 -2.186000 0.029199 0.955882 -0.292295 0.463500 -0.999600 1 0 1.000000 
0 173.376404 -74.454796 -3.537000 0.007000 0.613593 -0.789591 0.466800 -0.998500 1 0 1.000000 
combine_pipes001
0 -313.437286 -68.714615 2.186000 0.007700 0.880747 0.473525 0.456300 -0.006400 1 0 1.000000 
0 173.916199 -72.675293 -2.186000 0.029199 0.955882 -0.292295 0.463500 -0.999600 1 0 1.000000 
0 -313.437286 -68.714615 -2.186000 0.006700 0.818532 -0.574422 0.463800 -0.006400 1 0 1.000000 
combine_pipes001
0 -313.437286 -68.714615 2.186000 0.007700 0.880747 0.473525 0.456300 -0.006400 1 0 1.000000 
0 173.376404 -74.454796 3.537000 0.007000 0.598208 0.801310 0.453300 -0.998500 1 0 1.000000 
0 173.916199 -72.675293 -2.186000 0.029199 0.955882 -0.292295 0.463500 -0.999600 1 0 1.000000 
combine_pipes001
0 -315.397308 -72.381615 3.537000 0.000700 0.175206 0.984532 0.450100 -0.002400 1 0 1.000000 
0 173.376404 -74.454796 3.537000 0.007000 0.598208 0.801310 0.453300 -0.998500 1 0 1.000000 
0 -313.437286 -68.714615 2.186000 0.007700 0.880747 0.473525 0.456300 -0.006400 1 0 1.000000 
combine_pipes001
0 -315.397308 -72.381615 3.537000 0.000700 0.175206 0.984532 0.450100 -0.002400 1 0 1.000000 
0 172.709198 -76.654289 3.537000 -0.062998 0.009400 0.997969 0.450100 -0.997200 1 0 1.000000 
0 173.376404 -74.454796 3.537000 0.007000 0.598208 0.801310 0.453300 -0.998500 1 0 1.000000 
end
