version 1
nodes
  0 "Base" -1
  1 "Leftright" 0
  2 "Gun" 1
  3 "Barrel" 2
end
skeleton
time 0
  0   -0.235933 0.746246 17.889942 1.570796 0.000000 1.570796
  1   0.332457 15.529396 -0.220379 -0.000000 -0.000000 0.000000
  2   2.006938 17.841654 7.452806 0.000000 -0.000000 0.000000
  3   1.671227 1.473717 3.726596 -0.000000 -0.000000 0.000000
time 1
  0   -0.235933 0.746246 17.889942 1.570796 0.000000 1.570796
  1   0.332457 15.529396 -0.220379 -0.000000 -0.000000 0.000000
  2   2.006938 17.841654 7.452806 -0.349063 -0.000000 0.000000
  3   1.671227 1.473717 3.726596 -0.000000 -0.000000 0.000000
time 2
  0   -0.235933 0.746246 17.889942 1.570796 0.000000 1.570796
  1   0.332457 15.529396 -0.220379 -0.000000 -0.000000 0.000000
  2   2.006938 17.841654 7.452806 0.349063 -0.000000 0.000000
  3   1.671227 1.473717 3.726596 -0.000000 -0.000000 0.000000
end
