version 1
nodes
  0 "static_prop" -1
end
skeleton
time 0
0 0.000000 0.000000 0.000000 0.000000 0.000000 0.000000
end
triangles
prison_objects002
0 -2.914500 1.403700 -0.645100 -0.070698 0.112098 0.991179 0.174000 -0.091800 1 0 1.000000 
0 -3.441900 -5.166500 0.060500 -0.070698 0.112098 0.991179 0.121500 -0.057200 1 0 1.000000 
0 1.896900 -1.801000 0.060500 -0.070698 0.112098 0.991179 0.120300 -0.110900 1 0 1.000000 
prison_objects002
0 2.721699 24.901600 0.264300 -0.174398 -0.065599 0.982488 0.112000 -0.094600 1 0 1.000000 
0 -0.834001 31.064100 0.044300 -0.174398 -0.065599 0.982488 0.173100 -0.068800 1 0 1.000000 
0 -4.682901 27.910601 -0.849400 -0.174398 -0.065599 0.982488 0.148300 -0.028700 1 0 1.000000 
prison_objects002
0 2.721699 24.901600 0.264300 -0.174398 -0.065599 0.982488 0.112000 -0.094600 1 0 1.000000 
0 3.090499 31.958401 0.895400 -0.194491 -0.077296 0.977854 0.176900 -0.107000 1 0 1.000000 
0 -0.834001 31.064100 0.044300 -0.174398 -0.065599 0.982488 0.173100 -0.068800 1 0 1.000000 
prison_objects002
0 2.527399 15.712400 -0.104200 0.026901 -0.056602 0.998034 0.095600 -0.059100 1 0 1.000000 
0 3.341199 19.002199 0.060500 0.026901 -0.056602 0.998034 0.078900 -0.089000 1 0 1.000000 
0 -2.244601 16.349800 0.060500 0.026901 -0.056602 0.998034 0.131400 -0.085400 1 0 1.000000 
prison_objects002
0 2.527399 15.712400 -0.104200 0.026901 -0.056602 0.998034 0.095600 -0.059100 1 0 1.000000 
0 4.828199 17.522800 -0.104200 0.048799 -0.061999 0.996882 0.071700 -0.066300 1 0 1.000000 
0 3.341199 19.002199 0.060500 0.026901 -0.056602 0.998034 0.078900 -0.089000 1 0 1.000000 
prison_objects002
0 -2.787500 -4.268200 0.003200 0.045099 -0.998982 0.000000 0.155600 -0.541900 1 0 1.000000 
0 -0.841100 -4.180300 0.658500 0.045099 -0.998982 0.000000 0.165500 -0.520800 1 0 1.000000 
0 -2.787500 -4.268200 0.658500 0.045099 -0.998982 0.000000 0.165500 -0.541900 1 0 1.000000 
prison_objects002
0 -2.787500 -4.268200 0.003200 0.045099 -0.998982 0.000000 0.155600 -0.541900 1 0 1.000000 
0 -0.841100 -4.180300 0.003200 0.045099 -0.998982 0.000000 0.155600 -0.520800 1 0 1.000000 
0 -0.841100 -4.180300 0.658500 0.045099 -0.998982 0.000000 0.165500 -0.520800 1 0 1.000000 
prison_objects002
0 -2.676500 -6.825200 -0.857000 0.627678 0.778473 0.000000 0.166600 -0.489400 1 0 1.000000 
0 -4.887500 -5.042500 -0.192200 0.627678 0.778473 0.000000 0.159100 -0.521200 1 0 1.000000 
0 -2.676500 -6.825200 -0.192200 0.627678 0.778473 0.000000 0.158800 -0.489400 1 0 1.000000 
prison_objects002
0 -2.676500 -6.825200 -0.857000 0.627678 0.778473 0.000000 0.166600 -0.489400 1 0 1.000000 
0 -4.887500 -5.042500 -0.857000 0.627678 0.778473 0.000000 0.166900 -0.521100 1 0 1.000000 
0 -4.887500 -5.042500 -0.192200 0.627678 0.778473 0.000000 0.159100 -0.521200 1 0 1.000000 
prison_objects002
0 -3.515299 -16.608500 0.072900 -0.623500 0.780700 0.041900 0.164800 -0.516700 1 0 1.000000 
0 -6.786199 -19.273701 1.062300 -0.623500 0.780700 0.041900 0.156700 -0.551200 1 0 1.000000 
0 -3.456899 -16.590200 0.599700 -0.623500 0.780700 0.041900 0.157000 -0.516600 1 0 1.000000 
prison_objects002
0 -3.515299 -16.608500 0.072900 -0.623500 0.780700 0.041900 0.164800 -0.516700 1 0 1.000000 
0 -6.844599 -19.292000 0.535500 -0.623500 0.780700 0.041900 0.164500 -0.551300 1 0 1.000000 
0 -6.786199 -19.273701 1.062300 -0.623500 0.780700 0.041900 0.156700 -0.551200 1 0 1.000000 
prison_objects002
0 -2.982799 -23.399599 0.250500 0.516522 -0.855836 -0.027401 0.164400 -0.563200 1 0 1.000000 
0 2.932701 -19.821600 0.003900 0.516522 -0.855836 -0.027401 0.157000 -0.510600 1 0 1.000000 
0 -2.924399 -23.381300 0.777300 0.516522 -0.855836 -0.027401 0.156500 -0.563200 1 0 1.000000 
prison_objects002
0 -2.982799 -23.399599 0.250500 0.516522 -0.855836 -0.027401 0.164400 -0.563200 1 0 1.000000 
0 2.874301 -19.840000 -0.522800 0.516522 -0.855836 -0.027401 0.164800 -0.510700 1 0 1.000000 
0 2.932701 -19.821600 0.003900 0.516522 -0.855836 -0.027401 0.157000 -0.510600 1 0 1.000000 
prison_objects002
0 -6.844599 -19.292000 0.535500 -0.721008 -0.685108 0.103801 0.158600 -0.487100 1 0 1.000000 
0 -2.924399 -23.381300 0.777300 -0.721008 -0.685108 0.103801 0.166400 -0.533700 1 0 1.000000 
0 -6.786199 -19.273701 1.062300 -0.721008 -0.685108 0.103801 0.166400 -0.487100 1 0 1.000000 
prison_objects002
0 -6.844599 -19.292000 0.535500 -0.721008 -0.685108 0.103801 0.158600 -0.487100 1 0 1.000000 
0 -2.982799 -23.399599 0.250500 -0.721008 -0.685108 0.103801 0.158600 -0.533700 1 0 1.000000 
0 -2.924399 -23.381300 0.777300 -0.721008 -0.685108 0.103801 0.166400 -0.533700 1 0 1.000000 
prison_objects002
0 1.191001 -29.253300 -0.595200 0.754173 -0.656676 0.000000 0.159800 -0.485100 1 0 1.000000 
0 2.912301 -27.276501 -0.206300 0.754173 -0.656676 0.000000 0.154900 -0.506500 1 0 1.000000 
0 1.191001 -29.253300 -0.206300 0.754173 -0.656676 0.000000 0.155100 -0.485100 1 0 1.000000 
prison_objects002
0 1.191001 -29.253300 -0.595200 0.754173 -0.656676 0.000000 0.159800 -0.485100 1 0 1.000000 
0 2.912301 -27.276501 -0.857000 0.754173 -0.656676 0.000000 0.162700 -0.506600 1 0 1.000000 
0 2.912301 -27.276501 -0.206300 0.754173 -0.656676 0.000000 0.154900 -0.506500 1 0 1.000000 
prison_objects002
0 -11.544999 -19.351601 -1.183300 -0.876294 -0.456197 -0.154899 0.149500 -0.474500 1 0 1.000000 
0 -11.154999 -20.385799 -0.344500 -0.876294 -0.456197 -0.154899 0.141300 -0.453200 1 0 1.000000 
0 -11.673499 -19.367399 -0.409900 -0.876294 -0.456197 -0.154899 0.141700 -0.474600 1 0 1.000000 
prison_objects002
0 -11.544999 -19.351601 -1.183300 -0.876294 -0.456197 -0.154899 0.149500 -0.474500 1 0 1.000000 
0 -11.026499 -20.370001 -1.117900 -0.876294 -0.456197 -0.154899 0.149100 -0.453000 1 0 1.000000 
0 -11.154999 -20.385799 -0.344500 -0.876294 -0.456197 -0.154899 0.141300 -0.453200 1 0 1.000000 
prison_objects002
0 -9.306400 -7.514000 -0.857000 -0.536804 -0.843707 0.000000 0.166900 -0.525000 1 0 1.000000 
0 -5.065000 -10.212300 -0.192200 -0.536804 -0.843707 0.000000 0.158600 -0.471300 1 0 1.000000 
0 -9.306400 -7.514000 -0.192200 -0.536804 -0.843707 0.000000 0.159100 -0.525100 1 0 1.000000 
prison_objects002
0 -9.306400 -7.514000 -0.857000 -0.536804 -0.843707 0.000000 0.166900 -0.525000 1 0 1.000000 
0 -5.065000 -10.212300 -0.857000 -0.536804 -0.843707 0.000000 0.166400 -0.471300 1 0 1.000000 
0 -5.065000 -10.212300 -0.192200 -0.536804 -0.843707 0.000000 0.158600 -0.471300 1 0 1.000000 
prison_objects002
0 -8.573800 -1.496300 -0.857000 -0.992677 0.120797 0.000000 0.167400 -0.579600 1 0 1.000000 
0 -9.306400 -7.514000 -0.192200 -0.992677 0.120797 0.000000 0.159100 -0.525100 1 0 1.000000 
0 -8.573800 -1.496300 -0.192200 -0.992677 0.120797 0.000000 0.159600 -0.579700 1 0 1.000000 
prison_objects002
0 -8.573800 -1.496300 -0.857000 -0.992677 0.120797 0.000000 0.167400 -0.579600 1 0 1.000000 
0 -9.306400 -7.514000 -0.857000 -0.992677 0.120797 0.000000 0.166900 -0.525000 1 0 1.000000 
0 -9.306400 -7.514000 -0.192200 -0.992677 0.120797 0.000000 0.159100 -0.525100 1 0 1.000000 
prison_objects002
0 1.170799 12.270100 -0.692300 0.930347 -0.366679 0.000000 0.149600 -0.504100 1 0 1.000000 
0 2.527399 15.712400 -0.104200 0.930347 -0.366679 0.000000 0.155700 -0.537000 1 0 1.000000 
0 1.170799 12.270100 -0.104200 0.930347 -0.366679 0.000000 0.155700 -0.504100 1 0 1.000000 
prison_objects002
0 1.170799 12.270100 -0.692300 0.930347 -0.366679 0.000000 0.149600 -0.504100 1 0 1.000000 
0 2.527399 15.712400 -0.692300 0.930347 -0.366679 0.000000 0.149600 -0.537000 1 0 1.000000 
0 2.527399 15.712400 -0.104200 0.930347 -0.366679 0.000000 0.155700 -0.537000 1 0 1.000000 
prison_objects002
0 0.911399 24.163700 -0.704100 0.353700 -0.934000 0.050400 0.131000 -0.410200 1 0 1.000000 
0 2.721699 24.901600 0.264300 0.353700 -0.934000 0.050400 0.135700 -0.433300 1 0 1.000000 
0 0.722099 24.140499 0.193200 0.353700 -0.934000 0.050400 0.138800 -0.410200 1 0 1.000000 
prison_objects002
0 0.911399 24.163700 -0.704100 0.353700 -0.934000 0.050400 0.131000 -0.410200 1 0 1.000000 
0 2.836299 24.915600 -0.278600 0.353700 -0.934000 0.050400 0.131000 -0.433300 1 0 1.000000 
0 2.721699 24.901600 0.264300 0.353700 -0.934000 0.050400 0.135700 -0.433300 1 0 1.000000 
prison_objects002
0 -6.626201 6.793499 -0.081300 -0.082500 -0.136500 0.987199 0.087600 -0.009700 1 0 1.000000 
0 -0.529100 6.010400 0.320200 -0.082500 -0.136500 0.987199 0.041500 -0.038500 1 0 1.000000 
0 -2.642700 9.981100 0.692500 -0.082500 -0.136500 0.987199 0.078000 -0.054400 1 0 1.000000 
prison_objects002
0 -6.626201 6.793499 -0.081300 -0.082500 -0.136500 0.987199 0.087600 -0.009700 1 0 1.000000 
0 -1.906700 4.267600 0.004400 -0.080100 -0.116100 0.990002 0.041200 -0.018700 1 0 1.000000 
0 -0.529100 6.010400 0.320200 -0.082500 -0.136500 0.987199 0.041500 -0.038500 1 0 1.000000 
prison_objects002
0 4.898900 0.522300 -0.857000 0.699718 0.714419 0.000000 0.133300 -0.475400 1 0 1.000000 
0 2.030600 3.331700 0.060500 0.699718 0.714419 0.000000 0.170100 -0.466800 1 0 1.000000 
0 4.898900 0.522300 0.060500 0.699718 0.714419 0.000000 0.133300 -0.466800 1 0 1.000000 
prison_objects002
0 4.898900 0.522300 -0.857000 0.699718 0.714419 0.000000 0.133300 -0.475400 1 0 1.000000 
0 2.030600 3.331700 -0.857000 0.699718 0.714419 0.000000 0.170100 -0.475400 1 0 1.000000 
0 2.030600 3.331700 0.060500 0.699718 0.714419 0.000000 0.170100 -0.466800 1 0 1.000000 
prison_objects002
0 -10.308899 -31.847900 -0.857000 -0.125302 -0.992118 0.000000 0.159800 -0.559500 1 0 1.000000 
0 -9.249499 -31.981701 0.060500 -0.125302 -0.992118 0.000000 0.166400 -0.551600 1 0 1.000000 
0 -10.308899 -31.847900 0.060500 -0.125302 -0.992118 0.000000 0.159800 -0.551600 1 0 1.000000 
prison_objects002
0 -10.308899 -31.847900 -0.857000 -0.125302 -0.992118 0.000000 0.159800 -0.559500 1 0 1.000000 
0 -9.249499 -31.981701 -0.857000 -0.125302 -0.992118 0.000000 0.166400 -0.559500 1 0 1.000000 
0 -9.249499 -31.981701 0.060500 -0.125302 -0.992118 0.000000 0.166400 -0.551600 1 0 1.000000 
prison_objects002
0 3.145699 30.942400 -0.857000 -0.251793 0.893475 0.371890 0.125100 -0.469600 1 0 1.000000 
0 1.623699 30.131599 0.060500 -0.251793 0.893475 0.371890 0.132900 -0.448600 1 0 1.000000 
0 3.357299 30.620199 0.060500 -0.251793 0.893475 0.371890 0.132900 -0.472500 1 0 1.000000 
prison_objects002
0 3.145699 30.942400 -0.857000 -0.251793 0.893475 0.371890 0.125100 -0.469600 1 0 1.000000 
0 1.290699 30.419701 -0.857000 -0.251793 0.893475 0.371890 0.125100 -0.444000 1 0 1.000000 
0 1.623699 30.131599 0.060500 -0.251793 0.893475 0.371890 0.132900 -0.448600 1 0 1.000000 
prison_objects002
0 -11.355299 -25.146601 -0.857000 -0.988023 -0.154304 0.000000 0.154700 -0.532400 1 0 1.000000 
0 -10.308899 -31.847900 0.060500 -0.988023 -0.154304 0.000000 0.162500 -0.572600 1 0 1.000000 
0 -11.355299 -25.146601 0.060500 -0.988023 -0.154304 0.000000 0.162500 -0.532400 1 0 1.000000 
prison_objects002
0 -11.355299 -25.146601 -0.857000 -0.988023 -0.154304 0.000000 0.154700 -0.532400 1 0 1.000000 
0 -10.308899 -31.847900 -0.857000 -0.988023 -0.154304 0.000000 0.154700 -0.572600 1 0 1.000000 
0 -10.308899 -31.847900 0.060500 -0.988023 -0.154304 0.000000 0.162500 -0.572600 1 0 1.000000 
prison_objects002
0 -0.096201 19.739000 -1.118100 0.912985 0.404893 -0.050199 0.142200 -0.556800 1 0 1.000000 
0 -0.323401 20.396900 0.056400 0.912985 0.404893 -0.050199 0.155300 -0.568800 1 0 1.000000 
0 0.054199 19.508101 -0.243000 0.912985 0.404893 -0.050199 0.155300 -0.556800 1 0 1.000000 
prison_objects002
0 -0.096201 19.739000 -1.118100 0.912985 0.404893 -0.050199 0.142200 -0.556800 1 0 1.000000 
0 -0.473901 20.627800 -0.818600 0.912985 0.404893 -0.050199 0.142200 -0.568800 1 0 1.000000 
0 -0.323401 20.396900 0.056400 0.912985 0.404893 -0.050199 0.155300 -0.568800 1 0 1.000000 
prison_objects002
0 2.007099 22.716499 -0.685000 -0.948845 0.315715 0.004200 0.135700 -0.552300 1 0 1.000000 
0 1.487099 21.153299 -0.635200 -0.948845 0.315715 0.004200 0.147000 -0.570600 1 0 1.000000 
0 1.818699 22.136700 0.329700 -0.948845 0.315715 0.004200 0.150600 -0.552300 1 0 1.000000 
prison_objects002
0 2.007099 22.716499 -0.685000 -0.948845 0.315715 0.004200 0.135700 -0.552300 1 0 1.000000 
0 1.628899 21.589800 -1.399000 -0.948845 0.315715 0.004200 0.135700 -0.570600 1 0 1.000000 
0 1.487099 21.153299 -0.635200 -0.948845 0.315715 0.004200 0.147000 -0.570600 1 0 1.000000 
prison_objects002
0 5.646399 7.259400 -0.958200 0.588207 -0.808710 0.000000 0.135700 -0.552300 1 0 1.000000 
0 6.767700 8.074900 -0.067100 0.588207 -0.808710 0.000000 0.147000 -0.570600 1 0 1.000000 
0 5.646399 7.259400 0.225500 0.588207 -0.808710 0.000000 0.150600 -0.552300 1 0 1.000000 
prison_objects002
0 5.646399 7.259400 -0.958200 0.588207 -0.808710 0.000000 0.135700 -0.552300 1 0 1.000000 
0 6.767700 8.074900 -0.958200 0.588207 -0.808710 0.000000 0.135700 -0.570600 1 0 1.000000 
0 6.767700 8.074900 -0.067100 0.588207 -0.808710 0.000000 0.147000 -0.570600 1 0 1.000000 
prison_objects002
0 3.279799 31.981701 -0.002000 -0.217890 0.975754 -0.020699 0.131000 -0.491600 1 0 1.000000 
0 -0.834001 31.064100 0.044300 -0.217890 0.975754 -0.020699 0.138800 -0.449300 1 0 1.000000 
0 3.090499 31.958401 0.895400 -0.217890 0.975754 -0.020699 0.138800 -0.491600 1 0 1.000000 
prison_objects002
0 3.279799 31.981701 -0.002000 -0.217890 0.975754 -0.020699 0.131000 -0.491600 1 0 1.000000 
0 -0.644701 31.087400 -0.853100 -0.217890 0.975754 -0.020699 0.131000 -0.449300 1 0 1.000000 
0 -0.834001 31.064100 0.044300 -0.217890 0.975754 -0.020699 0.138800 -0.449300 1 0 1.000000 
prison_objects002
0 -0.644701 31.087400 -0.853100 -0.614608 0.781210 -0.109401 0.131000 -0.449300 1 0 1.000000 
0 -4.682901 27.910601 -0.849400 -0.614608 0.781210 -0.109401 0.138800 -0.390400 1 0 1.000000 
0 -0.834001 31.064100 0.044300 -0.614608 0.781210 -0.109401 0.138800 -0.449300 1 0 1.000000 
prison_objects002
0 -0.644701 31.087400 -0.853100 -0.614608 0.781210 -0.109401 0.131000 -0.449300 1 0 1.000000 
0 -4.493601 27.933901 -1.746800 -0.614608 0.781210 -0.109401 0.131000 -0.390400 1 0 1.000000 
0 -4.682901 27.910601 -0.849400 -0.614608 0.781210 -0.109401 0.138800 -0.390400 1 0 1.000000 
prison_objects002
0 3.341199 19.002199 -0.857000 -0.428920 0.903342 0.000000 0.147800 -0.571700 1 0 1.000000 
0 -2.244601 16.349800 0.060500 -0.428920 0.903342 0.000000 0.157500 -0.511900 1 0 1.000000 
0 3.341199 19.002199 0.060500 -0.428920 0.903342 0.000000 0.157500 -0.571700 1 0 1.000000 
prison_objects002
0 3.341199 19.002199 -0.857000 -0.428920 0.903342 0.000000 0.147800 -0.571700 1 0 1.000000 
0 -2.244601 16.349800 -0.857000 -0.428920 0.903342 0.000000 0.147800 -0.511900 1 0 1.000000 
0 -2.244601 16.349800 0.060500 -0.428920 0.903342 0.000000 0.157500 -0.511900 1 0 1.000000 
prison_objects002
0 -2.244601 16.349800 -0.857000 -0.797895 0.602796 0.000000 0.147800 -0.511900 1 0 1.000000 
0 -5.810400 11.629900 0.060500 -0.797895 0.602796 0.000000 0.157500 -0.450200 1 0 1.000000 
0 -2.244601 16.349800 0.060500 -0.797895 0.602796 0.000000 0.157500 -0.511900 1 0 1.000000 
prison_objects002
0 -2.244601 16.349800 -0.857000 -0.797895 0.602796 0.000000 0.147800 -0.511900 1 0 1.000000 
0 -5.810400 11.629900 -0.857000 -0.797895 0.602796 0.000000 0.147800 -0.450200 1 0 1.000000 
0 -5.810400 11.629900 0.060500 -0.797895 0.602796 0.000000 0.157500 -0.450200 1 0 1.000000 
prison_objects002
0 -9.142299 -23.199301 -0.857000 -0.660619 0.750721 0.000000 0.154700 -0.507800 1 0 1.000000 
0 -11.355299 -25.146601 0.060500 -0.660619 0.750721 0.000000 0.162500 -0.532400 1 0 1.000000 
0 -9.142299 -23.199301 0.060500 -0.660619 0.750721 0.000000 0.162500 -0.507800 1 0 1.000000 
prison_objects002
0 -9.142299 -23.199301 -0.857000 -0.660619 0.750721 0.000000 0.154700 -0.507800 1 0 1.000000 
0 -11.355299 -25.146601 -0.857000 -0.660619 0.750721 0.000000 0.154700 -0.532400 1 0 1.000000 
0 -11.355299 -25.146601 0.060500 -0.660619 0.750721 0.000000 0.162500 -0.532400 1 0 1.000000 
prison_objects002
0 -2.855901 19.977699 -0.580500 0.552483 0.824474 0.122496 0.156600 -0.500300 1 0 1.000000 
0 -4.768001 21.025999 0.986700 0.552483 0.824474 0.122496 0.164500 -0.521800 1 0 1.000000 
0 -2.705401 19.746901 0.294600 0.552483 0.824474 0.122496 0.164500 -0.500300 1 0 1.000000 
prison_objects002
0 -2.855901 19.977699 -0.580500 0.552483 0.824474 0.122496 0.156600 -0.500300 1 0 1.000000 
0 -4.918501 21.256901 0.111700 0.552483 0.824474 0.122496 0.156600 -0.521800 1 0 1.000000 
0 -4.768001 21.025999 0.986700 0.552483 0.824474 0.122496 0.164500 -0.521800 1 0 1.000000 
prison_objects002
0 -9.249499 -31.981701 -0.857000 0.944264 -0.329188 0.000000 0.154700 -0.568100 1 0 1.000000 
0 -8.289199 -29.226700 0.060500 0.944264 -0.329188 0.000000 0.162500 -0.544400 1 0 1.000000 
0 -9.249499 -31.981701 0.060500 0.944264 -0.329188 0.000000 0.162500 -0.568100 1 0 1.000000 
prison_objects002
0 -9.249499 -31.981701 -0.857000 0.944264 -0.329188 0.000000 0.154700 -0.568100 1 0 1.000000 
0 -8.289199 -29.226700 -0.857000 0.944264 -0.329188 0.000000 0.154700 -0.544400 1 0 1.000000 
0 -8.289199 -29.226700 0.060500 0.944264 -0.329188 0.000000 0.162500 -0.544400 1 0 1.000000 
prison_objects002
0 -10.131201 21.707800 1.127000 -0.955437 0.200008 0.217108 0.157300 -0.546500 1 0 1.000000 
0 -10.492201 19.503201 1.569400 -0.955437 0.200008 0.217108 0.165100 -0.563200 1 0 1.000000 
0 -9.980700 21.476999 2.002100 -0.955437 0.200008 0.217108 0.165100 -0.546500 1 0 1.000000 
prison_objects002
0 -10.131201 21.707800 1.127000 -0.955437 0.200008 0.217108 0.157300 -0.546500 1 0 1.000000 
0 -10.642701 19.734100 0.694300 -0.955437 0.200008 0.217108 0.157300 -0.563200 1 0 1.000000 
0 -10.492201 19.503201 1.569400 -0.955437 0.200008 0.217108 0.165100 -0.563200 1 0 1.000000 
prison_objects002
0 -10.642701 19.734100 0.694300 -0.706588 -0.704688 -0.064399 0.156600 -0.567200 1 0 1.000000 
0 -7.634001 16.748699 0.351100 -0.706588 -0.704688 -0.064399 0.164500 -0.532600 1 0 1.000000 
0 -10.492201 19.503201 1.569400 -0.706588 -0.704688 -0.064399 0.164500 -0.567200 1 0 1.000000 
prison_objects002
0 -10.642701 19.734100 0.694300 -0.706588 -0.704688 -0.064399 0.156600 -0.567200 1 0 1.000000 
0 -7.784501 16.979601 -0.523900 -0.706588 -0.704688 -0.064399 0.156600 -0.532600 1 0 1.000000 
0 -7.634001 16.748699 0.351100 -0.706588 -0.704688 -0.064399 0.164500 -0.532600 1 0 1.000000 
prison_objects002
0 3.960200 -1.107900 -0.857000 0.866601 -0.499001 0.000000 0.134900 -0.450100 1 0 1.000000 
0 4.898900 0.522300 0.060500 0.866601 -0.499001 0.000000 0.142700 -0.464400 1 0 1.000000 
0 3.960200 -1.107900 0.060500 0.866601 -0.499001 0.000000 0.142700 -0.450100 1 0 1.000000 
prison_objects002
0 3.960200 -1.107900 -0.857000 0.866601 -0.499001 0.000000 0.134900 -0.450100 1 0 1.000000 
0 4.898900 0.522300 -0.857000 0.866601 -0.499001 0.000000 0.134900 -0.464400 1 0 1.000000 
0 4.898900 0.522300 0.060500 0.866601 -0.499001 0.000000 0.142700 -0.464400 1 0 1.000000 
prison_objects002
0 1.986900 -11.816300 -1.100800 0.949091 -0.185898 0.254298 0.164800 -0.511700 1 0 1.000000 
0 2.029201 -9.900300 0.142100 0.949091 -0.185898 0.254298 0.156100 -0.530600 1 0 1.000000 
0 1.707000 -12.002900 -0.192100 0.949091 -0.185898 0.254298 0.157000 -0.511400 1 0 1.000000 
prison_objects002
0 1.986900 -11.816300 -1.100800 0.949091 -0.185898 0.254298 0.164800 -0.511700 1 0 1.000000 
0 2.325201 -9.608700 -0.749800 0.949091 -0.185898 0.254298 0.163900 -0.530900 1 0 1.000000 
0 2.029201 -9.900300 0.142100 0.949091 -0.185898 0.254298 0.156100 -0.530600 1 0 1.000000 
prison_objects002
0 -8.939400 10.158000 -0.787600 -0.799501 -0.581401 -0.150900 0.133000 -0.522200 1 0 1.000000 
0 -6.626201 6.793499 -0.081300 -0.799501 -0.581401 -0.150900 0.140800 -0.487600 1 0 1.000000 
0 -9.024400 10.110300 -0.153400 -0.799501 -0.581401 -0.150900 0.140800 -0.522200 1 0 1.000000 
prison_objects002
0 -8.939400 10.158000 -0.787600 -0.799501 -0.581401 -0.150900 0.133000 -0.522200 1 0 1.000000 
0 -6.504601 6.861700 -0.988100 -0.799501 -0.581401 -0.150900 0.133000 -0.487600 1 0 1.000000 
0 -6.626201 6.793499 -0.081300 -0.799501 -0.581401 -0.150900 0.140800 -0.487600 1 0 1.000000 
prison_objects002
0 -4.535700 15.292100 -1.527800 0.689984 -0.661785 -0.293193 0.157300 -0.568000 1 0 1.000000 
0 0.054199 19.508101 -0.243000 0.689984 -0.661785 -0.293193 0.165100 -0.515500 1 0 1.000000 
0 -4.385201 15.061200 -0.652800 0.689984 -0.661785 -0.293193 0.165100 -0.568000 1 0 1.000000 
prison_objects002
0 -4.535700 15.292100 -1.527800 0.689984 -0.661785 -0.293193 0.157300 -0.568000 1 0 1.000000 
0 -0.096201 19.739000 -1.118100 0.689984 -0.661785 -0.293193 0.157300 -0.515500 1 0 1.000000 
0 0.054199 19.508101 -0.243000 0.689984 -0.661785 -0.293193 0.165100 -0.515500 1 0 1.000000 
prison_objects002
0 -7.784501 16.979601 -0.523900 -0.490588 -0.859678 -0.142396 0.156600 -0.532600 1 0 1.000000 
0 -4.385201 15.061200 -0.652800 -0.490588 -0.859678 -0.142396 0.164500 -0.500400 1 0 1.000000 
0 -7.634001 16.748699 0.351100 -0.490588 -0.859678 -0.142396 0.164500 -0.532600 1 0 1.000000 
prison_objects002
0 -7.784501 16.979601 -0.523900 -0.490588 -0.859678 -0.142396 0.156600 -0.532600 1 0 1.000000 
0 -4.535700 15.292100 -1.527800 -0.490588 -0.859678 -0.142396 0.156600 -0.500400 1 0 1.000000 
0 -4.385201 15.061200 -0.652800 -0.490588 -0.859678 -0.142396 0.164500 -0.500400 1 0 1.000000 
prison_objects002
0 -3.114500 -3.093800 0.259100 -0.894872 0.380988 0.232493 0.162000 -0.574700 1 0 1.000000 
0 -7.538199 -13.080100 -0.401000 -0.894872 0.380988 0.232493 0.158200 -0.482600 1 0 1.000000 
0 -3.151500 -3.695700 1.103000 -0.894852 0.381022 0.232513 0.154200 -0.574300 1 0 1.000000 
prison_objects002
0 -3.114500 -3.093800 0.259100 -0.894872 0.380988 0.232493 0.162000 -0.574700 1 0 1.000000 
0 -7.720500 -12.947400 -1.320100 -0.894872 0.380988 0.232493 0.166000 -0.483000 1 0 1.000000 
0 -7.538199 -13.080100 -0.401000 -0.894872 0.380988 0.232493 0.158200 -0.482600 1 0 1.000000 
prison_objects002
0 2.832700 9.118500 -0.958200 -0.844633 -0.433217 0.314512 0.137200 -0.523200 1 0 1.000000 
0 4.018799 7.665100 0.225500 -0.844633 -0.433217 0.314512 0.153000 -0.549600 1 0 1.000000 
0 3.208699 9.244800 0.225500 -0.844633 -0.433217 0.314512 0.153000 -0.524900 1 0 1.000000 
prison_objects002
0 2.832700 9.118500 -0.958200 -0.844633 -0.433217 0.314512 0.137200 -0.523200 1 0 1.000000 
0 3.642900 7.538800 -0.958200 -0.844633 -0.433217 0.314512 0.137200 -0.547800 1 0 1.000000 
0 4.018799 7.665100 0.225500 -0.844633 -0.433217 0.314512 0.153000 -0.549600 1 0 1.000000 
prison_objects002
0 5.326299 22.679899 -0.089600 0.344691 0.561885 0.751980 0.137200 -0.523200 1 0 1.000000 
0 3.332199 22.606600 0.879200 0.344691 0.561885 0.751980 0.153000 -0.549600 1 0 1.000000 
0 4.921799 21.830200 0.730700 0.344691 0.561885 0.751980 0.153000 -0.524900 1 0 1.000000 
prison_objects002
0 5.326299 22.679899 -0.089600 0.344691 0.561885 0.751980 0.137200 -0.523200 1 0 1.000000 
0 3.736699 23.456301 0.059000 0.344691 0.561885 0.751980 0.137200 -0.547800 1 0 1.000000 
0 3.332199 22.606600 0.879200 0.344691 0.561885 0.751980 0.153000 -0.549600 1 0 1.000000 
prison_objects002
0 -6.504601 6.861700 -0.988100 0.210300 -0.025600 -0.977301 0.087600 -0.009700 1 0 1.000000 
0 -0.529100 6.010400 0.320200 0.210300 -0.025600 -0.977301 0.041500 -0.038500 1 0 1.000000 
0 -1.906700 4.267600 0.004400 0.214807 0.007100 -0.976631 0.041200 -0.018700 1 0 1.000000 
prison_objects002
0 -6.504601 6.861700 -0.988100 0.210300 -0.025600 -0.977301 0.087600 -0.009700 1 0 1.000000 
0 -2.521101 10.049300 -0.214200 0.210300 -0.025600 -0.977301 0.078000 -0.054400 1 0 1.000000 
0 -0.529100 6.010400 0.320200 0.210300 -0.025600 -0.977301 0.041500 -0.038500 1 0 1.000000 
prison_objects002
0 -5.249401 24.232201 -2.002100 -0.454381 -0.882864 -0.118695 0.139400 -0.484500 1 0 1.000000 
0 -2.953801 22.864201 -0.615300 -0.454381 -0.882864 -0.118695 0.146500 -0.465100 1 0 1.000000 
0 -5.438701 24.208900 -1.104700 -0.454381 -0.882864 -0.118695 0.147200 -0.484200 1 0 1.000000 
prison_objects002
0 -5.249401 24.232201 -2.002100 -0.454381 -0.882864 -0.118695 0.139400 -0.484500 1 0 1.000000 
0 -2.764501 22.887501 -1.512700 -0.454381 -0.882864 -0.118695 0.138700 -0.465400 1 0 1.000000 
0 -2.953801 22.864201 -0.615300 -0.454381 -0.882864 -0.118695 0.146500 -0.465100 1 0 1.000000 
prison_objects002
0 -11.156399 -17.380301 -1.078500 -0.967406 0.199001 -0.156601 0.150100 -0.512700 1 0 1.000000 
0 -11.673499 -19.367399 -0.409900 -0.967406 0.199001 -0.156601 0.141700 -0.474600 1 0 1.000000 
0 -11.284899 -17.396099 -0.305100 -0.967406 0.199001 -0.156601 0.142300 -0.512800 1 0 1.000000 
prison_objects002
0 -11.156399 -17.380301 -1.078500 -0.967406 0.199001 -0.156601 0.150100 -0.512700 1 0 1.000000 
0 -11.544999 -19.351601 -1.183300 -0.967406 0.199001 -0.156601 0.149500 -0.474500 1 0 1.000000 
0 -11.673499 -19.367399 -0.409900 -0.967406 0.199001 -0.156601 0.141700 -0.474600 1 0 1.000000 
prison_objects002
0 2.981200 -10.973200 -0.843600 -0.698289 0.713888 0.052499 0.165400 -0.446200 1 0 1.000000 
0 -0.424099 -14.380200 0.186500 -0.698289 0.713888 0.052499 0.157200 -0.486800 1 0 1.000000 
0 3.039600 -10.954900 -0.316900 -0.698289 0.713888 0.052499 0.157600 -0.446200 1 0 1.000000 
prison_objects002
0 2.981200 -10.973200 -0.843600 -0.698289 0.713888 0.052499 0.165400 -0.446200 1 0 1.000000 
0 -0.482499 -14.398600 -0.340300 -0.698289 0.713888 0.052499 0.165000 -0.486800 1 0 1.000000 
0 -0.424099 -14.380200 0.186500 -0.698289 0.713888 0.052499 0.157200 -0.486800 1 0 1.000000 
prison_objects002
0 4.898900 0.522300 0.060500 0.000000 0.000000 1.000000 0.122700 -0.143200 1 0 1.000000 
0 1.896900 -1.801000 0.060500 0.000000 0.000000 1.000000 0.120300 -0.110900 1 0 1.000000 
0 3.960200 -1.107900 0.060500 0.000000 0.000000 1.000000 0.115500 -0.128800 1 0 1.000000 
prison_objects002
0 4.898900 0.522300 0.060500 0.000000 0.000000 1.000000 0.122700 -0.143200 1 0 1.000000 
0 2.030600 3.331700 0.060500 0.000000 0.000000 1.000000 0.156100 -0.136000 1 0 1.000000 
0 1.896900 -1.801000 0.060500 0.000000 0.000000 1.000000 0.120300 -0.110900 1 0 1.000000 
prison_objects002
0 -1.573100 -0.381100 0.658500 0.000000 0.000000 1.000000 0.079300 -0.075200 1 0 1.000000 
0 -2.787500 -4.268200 0.658500 0.000000 0.000000 1.000000 0.115700 -0.085600 1 0 1.000000 
0 -0.841100 -4.180300 0.658500 0.000000 0.000000 1.000000 0.114400 -0.067400 1 0 1.000000 
prison_objects002
0 -1.573100 -0.381100 0.658500 0.000000 0.000000 1.000000 0.079300 -0.075200 1 0 1.000000 
0 -3.710800 -1.302400 0.658500 0.000000 0.000000 1.000000 0.088400 -0.094700 1 0 1.000000 
0 -2.787500 -4.268200 0.658500 0.000000 0.000000 1.000000 0.115700 -0.085600 1 0 1.000000 
prison_objects002
0 -1.573100 -0.381100 0.003200 0.000000 0.000000 -1.000000 0.079300 -0.075200 1 0 1.000000 
0 -0.841100 -4.180300 0.003200 0.000000 0.000000 -1.000000 0.114400 -0.067400 1 0 1.000000 
0 -2.787500 -4.268200 0.003200 0.000000 0.000000 -1.000000 0.115700 -0.085600 1 0 1.000000 
prison_objects002
0 -1.573100 -0.381100 0.003200 0.000000 0.000000 -1.000000 0.079300 -0.075200 1 0 1.000000 
0 0.992100 -3.117300 0.003200 0.000000 0.000000 -1.000000 0.104000 -0.050500 1 0 1.000000 
0 -0.841100 -4.180300 0.003200 0.000000 0.000000 -1.000000 0.114400 -0.067400 1 0 1.000000 
prison_objects002
0 -1.573100 -0.381100 0.003200 0.000000 0.000000 -1.000000 0.079300 -0.075200 1 0 1.000000 
0 0.351600 -1.125800 0.003200 0.000000 0.000000 -1.000000 0.085800 -0.057000 1 0 1.000000 
0 0.992100 -3.117300 0.003200 0.000000 0.000000 -1.000000 0.104000 -0.050500 1 0 1.000000 
prison_objects002
0 -0.473901 20.627800 -0.818600 -0.225795 0.931678 0.284593 0.156600 -0.485900 1 0 1.000000 
0 -2.705401 19.746901 0.294600 -0.225795 0.931678 0.284593 0.164500 -0.500300 1 0 1.000000 
0 -0.323401 20.396900 0.056400 -0.225795 0.931678 0.284593 0.164500 -0.485900 1 0 1.000000 
prison_objects002
0 -0.473901 20.627800 -0.818600 -0.225795 0.931678 0.284593 0.156600 -0.485900 1 0 1.000000 
0 -2.855901 19.977699 -0.580500 -0.225795 0.931678 0.284593 0.156600 -0.500300 1 0 1.000000 
0 -2.705401 19.746901 0.294600 -0.225795 0.931678 0.284593 0.164500 -0.500300 1 0 1.000000 
prison_objects002
0 -4.918501 21.256901 0.111700 0.128604 0.964127 0.232207 0.156600 -0.521800 1 0 1.000000 
0 -9.980700 21.476999 2.002100 0.128604 0.964127 0.232207 0.164500 -0.562400 1 0 1.000000 
0 -4.768001 21.025999 0.986700 0.128604 0.964127 0.232207 0.164500 -0.521800 1 0 1.000000 
prison_objects002
0 -4.918501 21.256901 0.111700 0.128604 0.964127 0.232207 0.156600 -0.521800 1 0 1.000000 
0 -10.131201 21.707800 1.127000 0.128604 0.964127 0.232207 0.156600 -0.562400 1 0 1.000000 
0 -9.980700 21.476999 2.002100 0.128604 0.964127 0.232207 0.164500 -0.562400 1 0 1.000000 
prison_objects002
0 -8.126599 -16.948200 -0.566500 0.163798 0.020100 -0.986289 0.010200 -0.017600 1 0 1.000000 
0 -11.544999 -19.351601 -1.183300 0.163798 0.020100 -0.986289 0.042500 -0.073300 1 0 1.000000 
0 -11.156399 -17.380301 -1.078500 0.163798 0.020100 -0.986289 0.011200 -0.068500 1 0 1.000000 
prison_objects002
0 -8.499999 -19.218201 -0.674800 0.163798 0.020100 -0.986289 0.046400 -0.028300 1 0 1.000000 
0 -11.544999 -19.351601 -1.183300 0.163798 0.020100 -0.986289 0.042500 -0.073300 1 0 1.000000 
0 -8.126599 -16.948200 -0.566500 0.163798 0.020100 -0.986289 0.010200 -0.017600 1 0 1.000000 
prison_objects002
0 -11.026499 -20.370001 -1.117900 0.163798 0.020100 -0.986289 0.060100 -0.072400 1 0 1.000000 
0 -11.544999 -19.351601 -1.183300 0.163798 0.020100 -0.986289 0.042500 -0.073300 1 0 1.000000 
0 -8.499999 -19.218201 -0.674800 0.163798 0.020100 -0.986289 0.046400 -0.028300 1 0 1.000000 
prison_objects002
0 -5.214799 -20.018299 -1.023700 -0.011600 -0.093198 0.995580 0.051900 -0.154600 1 0 1.000000 
0 1.707000 -12.002900 -0.192100 -0.011600 -0.093198 0.995580 0.077300 -0.060500 1 0 1.000000 
0 -7.538199 -13.080100 -0.401000 -0.011600 -0.093198 0.995580 0.012100 -0.100100 1 0 1.000000 
prison_objects002
0 1.628899 21.589800 -1.399000 0.159197 0.489790 -0.857183 0.100500 -0.069900 1 0 1.000000 
0 5.326299 22.679899 -0.089600 0.159197 0.489790 -0.857183 0.114300 -0.017700 1 0 1.000000 
0 4.935499 20.702900 -1.291900 0.159197 0.489790 -0.857183 0.132800 -0.039500 1 0 1.000000 
prison_objects002
0 2.007099 22.716499 -0.685000 0.159197 0.489790 -0.857183 0.089600 -0.055000 1 0 1.000000 
0 5.326299 22.679899 -0.089600 0.159197 0.489790 -0.857183 0.114300 -0.017700 1 0 1.000000 
0 1.628899 21.589800 -1.399000 0.159197 0.489790 -0.857183 0.100500 -0.069900 1 0 1.000000 
prison_objects002
0 3.736699 23.456301 0.059000 0.159197 0.489790 -0.857183 0.093300 -0.028400 1 0 1.000000 
0 5.326299 22.679899 -0.089600 0.159197 0.489790 -0.857183 0.114300 -0.017700 1 0 1.000000 
0 2.007099 22.716499 -0.685000 0.159197 0.489790 -0.857183 0.089600 -0.055000 1 0 1.000000 
prison_objects002
0 -5.214799 -20.018299 -1.023700 0.026401 -0.032501 -0.999123 0.052200 -0.141400 1 0 1.000000 
0 -7.720500 -12.947400 -1.320100 0.026401 -0.032501 -0.999123 0.012100 -0.100100 1 0 1.000000 
0 1.986900 -11.816300 -1.100800 0.026401 -0.032501 -0.999123 0.077300 -0.060500 1 0 1.000000 
prison_objects002
0 6.767700 8.074900 -0.958200 0.000000 0.000000 -1.000000 0.100500 -0.069900 1 0 1.000000 
0 2.832700 9.118500 -0.958200 0.000000 0.000000 -1.000000 0.114300 -0.017700 1 0 1.000000 
0 4.566999 10.699400 -0.958200 0.000000 0.000000 -1.000000 0.132800 -0.039500 1 0 1.000000 
prison_objects002
0 5.646399 7.259400 -0.958200 0.000000 0.000000 -1.000000 0.089600 -0.055000 1 0 1.000000 
0 2.832700 9.118500 -0.958200 0.000000 0.000000 -1.000000 0.114300 -0.017700 1 0 1.000000 
0 6.767700 8.074900 -0.958200 0.000000 0.000000 -1.000000 0.100500 -0.069900 1 0 1.000000 
prison_objects002
0 3.642900 7.538800 -0.958200 0.000000 0.000000 -1.000000 0.093300 -0.028400 1 0 1.000000 
0 2.832700 9.118500 -0.958200 0.000000 0.000000 -1.000000 0.114300 -0.017700 1 0 1.000000 
0 5.646399 7.259400 -0.958200 0.000000 0.000000 -1.000000 0.089600 -0.055000 1 0 1.000000 
prison_objects002
0 2.836299 24.915600 -0.278600 0.206408 0.025301 -0.978139 0.112000 -0.094600 1 0 1.000000 
0 3.279799 31.981701 -0.002000 0.206408 0.025301 -0.978139 0.176900 -0.107000 1 0 1.000000 
0 5.380999 28.012100 0.338500 0.206408 0.025301 -0.978139 0.137800 -0.122300 1 0 1.000000 
prison_objects002
0 2.836299 24.915600 -0.278600 0.206408 0.025301 -0.978139 0.112000 -0.094600 1 0 1.000000 
0 -0.644701 31.087400 -0.853100 0.206408 0.025301 -0.978139 0.173100 -0.068800 1 0 1.000000 
0 3.279799 31.981701 -0.002000 0.206408 0.025301 -0.978139 0.176900 -0.107000 1 0 1.000000 
prison_objects002
0 2.836299 24.915600 -0.278600 0.206408 0.025301 -0.978139 0.112000 -0.094600 1 0 1.000000 
0 -4.493601 27.933901 -1.746800 0.206408 0.025301 -0.978139 0.148300 -0.028700 1 0 1.000000 
0 -0.644701 31.087400 -0.853100 0.206408 0.025301 -0.978139 0.173100 -0.068800 1 0 1.000000 
prison_objects002
0 0.911399 24.163700 -0.704100 0.206408 0.025301 -0.978139 0.107200 -0.075500 1 0 1.000000 
0 -4.493601 27.933901 -1.746800 0.206408 0.025301 -0.978139 0.148300 -0.028700 1 0 1.000000 
0 2.836299 24.915600 -0.278600 0.206408 0.025301 -0.978139 0.112000 -0.094600 1 0 1.000000 
prison_objects002
0 0.911399 24.163700 -0.704100 0.206408 0.025301 -0.978139 0.107200 -0.075500 1 0 1.000000 
0 -5.249401 24.232201 -2.002100 0.206408 0.025301 -0.978139 0.114900 -0.017200 1 0 1.000000 
0 -4.493601 27.933901 -1.746800 0.206408 0.025301 -0.978139 0.148300 -0.028700 1 0 1.000000 
prison_objects002
0 0.911399 24.163700 -0.704100 0.206408 0.025301 -0.978139 0.107200 -0.075500 1 0 1.000000 
0 -2.764501 22.887501 -1.512700 0.206408 0.025301 -0.978139 0.099600 -0.039200 1 0 1.000000 
0 -5.249401 24.232201 -2.002100 0.206408 0.025301 -0.978139 0.114900 -0.017200 1 0 1.000000 
prison_objects002
0 -2.266901 21.298800 -1.448900 0.206408 0.025301 -0.978139 0.084300 -0.042100 1 0 1.000000 
0 -2.764501 22.887501 -1.512700 0.206408 0.025301 -0.978139 0.099600 -0.039200 1 0 1.000000 
0 0.911399 24.163700 -0.704100 0.206408 0.025301 -0.978139 0.107200 -0.075500 1 0 1.000000 
prison_objects002
0 -6.258601 16.869400 0.725900 -0.132499 -0.074300 0.988394 0.141400 -0.081300 1 0 1.000000 
0 -2.642700 9.981100 0.692500 -0.132499 -0.074300 0.988394 0.078000 -0.054400 1 0 1.000000 
0 -3.149801 14.360200 0.953900 -0.132499 -0.074300 0.988394 0.106000 -0.081700 1 0 1.000000 
prison_objects002
0 -6.258601 16.869400 0.725900 -0.132499 -0.074300 0.988394 0.141400 -0.081300 1 0 1.000000 
0 -9.024400 10.110300 -0.153400 -0.132499 -0.074300 0.988394 0.122700 -0.018900 1 0 1.000000 
0 -2.642700 9.981100 0.692500 -0.132499 -0.074300 0.988394 0.078000 -0.054400 1 0 1.000000 
prison_objects002
0 -9.024400 10.110300 -0.153400 -0.132499 -0.074300 0.988394 0.122700 -0.018900 1 0 1.000000 
0 -6.626201 6.793499 -0.081300 -0.132499 -0.074300 0.988394 0.087600 -0.009700 1 0 1.000000 
0 -2.642700 9.981100 0.692500 -0.132499 -0.074300 0.988394 0.078000 -0.054400 1 0 1.000000 
prison_objects002
0 2.527399 15.712400 -0.692300 0.026901 -0.056602 -0.998034 0.095600 -0.059100 1 0 1.000000 
0 -2.244601 16.349800 -0.857000 0.026901 -0.056602 -0.998034 0.131400 -0.085400 1 0 1.000000 
0 3.341199 19.002199 -0.857000 0.026901 -0.056602 -0.998034 0.078900 -0.089000 1 0 1.000000 
prison_objects002
0 1.191001 -29.253300 -0.206300 0.000000 0.000000 1.000000 0.135100 -0.039300 1 0 1.000000 
0 -2.010799 -27.348101 -0.206300 0.000000 0.000000 1.000000 0.108900 -0.075100 1 0 1.000000 
0 -0.649199 -31.040300 -0.206300 0.000000 0.000000 1.000000 0.154200 -0.063200 1 0 1.000000 
prison_objects002
0 1.191001 -29.253300 -0.206300 0.000000 0.000000 1.000000 0.135100 -0.039300 1 0 1.000000 
0 2.912301 -27.276501 -0.206300 0.010800 0.023099 0.999675 0.113600 -0.016600 1 0 1.000000 
0 -2.010799 -27.348101 -0.206300 0.000000 0.000000 1.000000 0.108900 -0.075100 1 0 1.000000 
prison_objects002
0 2.912301 -27.276501 -0.206300 0.010800 0.023099 0.999675 0.113600 -0.016600 1 0 1.000000 
0 -1.723499 -25.106899 -0.206300 0.010800 0.023099 0.999675 0.082600 -0.069200 1 0 1.000000 
0 -2.010799 -27.348101 -0.206300 0.000000 0.000000 1.000000 0.108900 -0.075100 1 0 1.000000 
prison_objects002
0 2.912301 -27.276501 -0.206300 0.010800 0.023099 0.999675 0.113600 -0.016600 1 0 1.000000 
0 0.711901 -22.232000 -0.299200 0.010800 0.023099 0.999675 0.051300 -0.037000 1 0 1.000000 
0 -1.723499 -25.106899 -0.206300 0.010800 0.023099 0.999675 0.082600 -0.069200 1 0 1.000000 
prison_objects002
0 2.912301 -27.276501 -0.857000 0.011300 0.024201 -0.999643 0.113600 -0.016600 1 0 1.000000 
0 -1.723499 -25.106899 -0.857000 0.011300 0.024201 -0.999643 0.082600 -0.069200 1 0 1.000000 
0 2.476701 -23.236799 -0.764000 0.011300 0.024201 -0.999643 0.065200 -0.017200 1 0 1.000000 
prison_objects002
0 2.912301 -27.276501 -0.857000 0.011300 0.024201 -0.999643 0.113600 -0.016600 1 0 1.000000 
0 -2.010799 -27.348101 -0.857000 0.000000 0.000000 -1.000000 0.108900 -0.075100 1 0 1.000000 
0 -1.723499 -25.106899 -0.857000 0.011300 0.024201 -0.999643 0.082600 -0.069200 1 0 1.000000 
prison_objects002
0 5.829799 28.999201 -0.144700 0.059498 -0.017799 0.998070 0.084000 -0.054400 1 0 1.000000 
0 1.692199 26.679399 0.060500 0.059498 -0.017799 0.998070 0.091900 -0.019300 1 0 1.000000 
0 4.625199 22.043501 -0.196700 0.059498 -0.017799 0.998070 0.050900 -0.012300 1 0 1.000000 
prison_objects002
0 5.829799 28.999201 -0.144700 0.059498 -0.017799 0.998070 0.084000 -0.054400 1 0 1.000000 
0 3.357299 30.620199 0.060500 0.064801 -0.027401 0.997522 0.105700 -0.048600 1 0 1.000000 
0 1.692199 26.679399 0.060500 0.059498 -0.017799 0.998070 0.091900 -0.019300 1 0 1.000000 
prison_objects002
0 3.145699 30.942400 -0.857000 0.000000 0.000000 -1.000000 0.108600 -0.049100 1 0 1.000000 
0 1.983099 26.784599 -0.857000 0.000000 0.000000 -1.000000 0.091000 -0.021500 1 0 1.000000 
0 1.290699 30.419701 -0.857000 0.000000 0.000000 -1.000000 0.115000 -0.036000 1 0 1.000000 
prison_objects002
0 5.791199 29.208000 -0.857000 0.000000 0.000000 -1.000000 0.085400 -0.055200 1 0 1.000000 
0 1.983099 26.784599 -0.857000 0.000000 0.000000 -1.000000 0.091000 -0.021500 1 0 1.000000 
0 3.145699 30.942400 -0.857000 0.000000 0.000000 -1.000000 0.108600 -0.049100 1 0 1.000000 
prison_objects002
0 5.791199 29.208000 -0.857000 0.000000 0.000000 -1.000000 0.085400 -0.055200 1 0 1.000000 
0 4.925799 22.197500 -0.857000 0.000000 0.000000 -1.000000 0.050300 -0.014800 1 0 1.000000 
0 1.983099 26.784599 -0.857000 0.000000 0.000000 -1.000000 0.091000 -0.021500 1 0 1.000000 
prison_objects002
0 10.291799 20.812700 -0.857000 0.008700 0.033600 -0.999397 0.015200 -0.038000 1 0 1.000000 
0 4.925799 22.197500 -0.857000 0.000000 0.000000 -1.000000 0.050300 -0.014800 1 0 1.000000 
0 11.673499 26.125700 -0.666500 0.008700 0.033600 -0.999397 0.038200 -0.072700 1 0 1.000000 
prison_objects002
0 11.673499 26.125700 -0.666500 0.008700 0.033600 -0.999397 0.038200 -0.072700 1 0 1.000000 
0 4.925799 22.197500 -0.857000 0.000000 0.000000 -1.000000 0.050300 -0.014800 1 0 1.000000 
0 9.080099 29.554199 -0.568000 0.008000 0.034799 -0.999362 0.070600 -0.075500 1 0 1.000000 
prison_objects002
0 11.673499 26.125700 -0.666500 0.008700 0.033600 -0.999397 0.038200 -0.072700 1 0 1.000000 
0 9.080099 29.554199 -0.568000 0.008000 0.034799 -0.999362 0.070600 -0.075500 1 0 1.000000 
0 11.157299 28.775200 -0.568000 0.015000 0.040099 -0.999083 0.055700 -0.083200 1 0 1.000000 
prison_objects002
0 -6.266701 16.712900 0.124200 -0.917253 0.387080 -0.093895 0.133000 -0.571200 1 0 1.000000 
0 -9.024400 10.110300 -0.153400 -0.917253 0.387080 -0.093895 0.140800 -0.522200 1 0 1.000000 
0 -6.258601 16.869400 0.725900 -0.917800 0.387100 -0.088300 0.140800 -0.571200 1 0 1.000000 
prison_objects002
0 -6.266701 16.712900 0.124200 -0.917253 0.387080 -0.093895 0.133000 -0.571200 1 0 1.000000 
0 -8.939400 10.158000 -0.787600 -0.917253 0.387080 -0.093895 0.133000 -0.522200 1 0 1.000000 
0 -9.024400 10.110300 -0.153400 -0.917253 0.387080 -0.093895 0.140800 -0.522200 1 0 1.000000 
prison_objects002
0 -1.723499 -25.106899 -0.857000 -0.991890 0.127099 0.000000 0.162400 -0.537700 1 0 1.000000 
0 -2.010799 -27.348101 -0.206300 -0.991890 0.127099 0.000000 0.154900 -0.511300 1 0 1.000000 
0 -1.723499 -25.106899 -0.206300 -0.991890 0.127099 0.000000 0.154600 -0.537600 1 0 1.000000 
prison_objects002
0 -1.723499 -25.106899 -0.857000 -0.991890 0.127099 0.000000 0.162400 -0.537700 1 0 1.000000 
0 -2.010799 -27.348101 -0.857000 -0.991890 0.127099 0.000000 0.162700 -0.511400 1 0 1.000000 
0 -2.010799 -27.348101 -0.206300 -0.991890 0.127099 0.000000 0.154900 -0.511300 1 0 1.000000 
prison_objects002
0 -5.810400 11.629900 -0.857000 -0.676783 -0.736182 0.000000 0.158600 -0.573900 1 0 1.000000 
0 -1.794100 7.937600 -0.104200 -0.676783 -0.736182 0.000000 0.165000 -0.528000 1 0 1.000000 
0 -5.810400 11.629900 0.060500 -0.676783 -0.736182 0.000000 0.166400 -0.573900 1 0 1.000000 
prison_objects002
0 -5.810400 11.629900 -0.857000 -0.676783 -0.736182 0.000000 0.158600 -0.573900 1 0 1.000000 
0 -1.794100 7.937600 -0.692300 -0.676783 -0.736182 0.000000 0.160000 -0.528000 1 0 1.000000 
0 -1.794100 7.937600 -0.104200 -0.676783 -0.736182 0.000000 0.165000 -0.528000 1 0 1.000000 
prison_objects002
0 -4.493601 27.933901 -1.746800 -0.957907 0.209101 -0.196701 0.131000 -0.390400 1 0 1.000000 
0 -5.438701 24.208900 -1.104700 -0.957907 0.209101 -0.196701 0.138800 -0.355200 1 0 1.000000 
0 -4.682901 27.910601 -0.849400 -0.957907 0.209101 -0.196701 0.138800 -0.390400 1 0 1.000000 
prison_objects002
0 -4.493601 27.933901 -1.746800 -0.957907 0.209101 -0.196701 0.131000 -0.390400 1 0 1.000000 
0 -5.249401 24.232201 -2.002100 -0.957907 0.209101 -0.196701 0.131000 -0.355200 1 0 1.000000 
0 -5.438701 24.208900 -1.104700 -0.957907 0.209101 -0.196701 0.138800 -0.355200 1 0 1.000000 
prison_objects002
0 -4.946700 4.575000 -0.852400 0.191495 -0.050899 -0.980173 0.119200 -0.085700 1 0 1.000000 
0 -5.649800 0.617800 -0.784200 0.191495 -0.050899 -0.980173 0.152500 -0.091200 1 0 1.000000 
0 -7.406900 1.365100 -1.194200 0.205404 -0.053401 -0.977219 0.145500 -0.109200 1 0 1.000000 
prison_objects002
0 -0.718700 1.049700 0.156800 0.191495 -0.050899 -0.980173 0.146900 -0.041300 1 0 1.000000 
0 -5.649800 0.617800 -0.784200 0.191495 -0.050899 -0.980173 0.152500 -0.091200 1 0 1.000000 
0 -4.946700 4.575000 -0.852400 0.191495 -0.050899 -0.980173 0.119200 -0.085700 1 0 1.000000 
prison_objects002
0 -8.939400 10.158000 -0.787600 0.090199 0.100999 -0.990789 0.122700 -0.018900 1 0 1.000000 
0 -2.521101 10.049300 -0.214200 0.090199 0.100999 -0.990789 0.078000 -0.054400 1 0 1.000000 
0 -6.504601 6.861700 -0.988100 0.090399 0.126898 -0.987788 0.087600 -0.009700 1 0 1.000000 
prison_objects002
0 -6.266701 16.712900 0.124200 0.090199 0.100999 -0.990789 0.141400 -0.081300 1 0 1.000000 
0 -2.521101 10.049300 -0.214200 0.090199 0.100999 -0.990789 0.078000 -0.054400 1 0 1.000000 
0 -8.939400 10.158000 -0.787600 0.090199 0.100999 -0.990789 0.122700 -0.018900 1 0 1.000000 
prison_objects002
0 -2.914500 1.403700 -0.645100 -0.039402 -0.023701 -0.998942 0.174000 -0.091800 1 0 1.000000 
0 3.960200 -1.107900 -0.857000 -0.039402 -0.023701 -0.998942 0.115500 -0.128800 1 0 1.000000 
0 -3.441900 -5.166500 -0.468500 -0.039402 -0.023701 -0.998942 0.121500 -0.057200 1 0 1.000000 
prison_objects002
0 2.030600 3.331700 -0.857000 -0.036600 -0.015900 -0.999203 0.156100 -0.136000 1 0 1.000000 
0 3.960200 -1.107900 -0.857000 -0.039402 -0.023701 -0.998942 0.115500 -0.128800 1 0 1.000000 
0 -2.914500 1.403700 -0.645100 -0.039402 -0.023701 -0.998942 0.174000 -0.091800 1 0 1.000000 
prison_objects002
0 0.446300 -6.373300 -0.245300 0.004100 0.156398 -0.987686 0.048600 -0.026300 1 0 1.000000 
0 -7.720500 -12.947400 -1.320100 0.004100 0.156398 -0.987686 0.012100 -0.100100 1 0 1.000000 
0 -3.114500 -3.093800 0.259100 0.004100 0.156398 -0.987686 0.012500 -0.014300 1 0 1.000000 
prison_objects002
0 2.325201 -9.608700 -0.749800 0.004100 0.156398 -0.987686 0.072500 -0.043500 1 0 1.000000 
0 -7.720500 -12.947400 -1.320100 0.004100 0.156398 -0.987686 0.012100 -0.100100 1 0 1.000000 
0 0.446300 -6.373300 -0.245300 0.004100 0.156398 -0.987686 0.048600 -0.026300 1 0 1.000000 
prison_objects002
0 1.986900 -11.816300 -1.100800 0.004100 0.156398 -0.987686 0.077300 -0.060500 1 0 1.000000 
0 -7.720500 -12.947400 -1.320100 0.004100 0.156398 -0.987686 0.012100 -0.100100 1 0 1.000000 
0 2.325201 -9.608700 -0.749800 0.004100 0.156398 -0.987686 0.072500 -0.043500 1 0 1.000000 
prison_objects002
0 9.080099 29.554199 -0.568000 0.088700 -0.010900 -0.995999 0.070600 -0.075500 1 0 1.000000 
0 4.925799 22.197500 -0.857000 0.088700 -0.010900 -0.995999 0.050300 -0.014800 1 0 1.000000 
0 5.791199 29.208000 -0.857000 0.088700 -0.010900 -0.995999 0.085400 -0.055200 1 0 1.000000 
prison_objects002
0 0.722099 24.140499 0.193200 -0.206408 -0.025301 0.978139 0.107200 -0.075500 1 0 1.000000 
0 -5.438701 24.208900 -1.104700 -0.206408 -0.025301 0.978139 0.114900 -0.017200 1 0 1.000000 
0 -2.953801 22.864201 -0.615300 -0.206408 -0.025301 0.978139 0.099600 -0.039200 1 0 1.000000 
prison_objects002
0 0.722099 24.140499 0.193200 -0.206408 -0.025301 0.978139 0.107200 -0.075500 1 0 1.000000 
0 -4.682901 27.910601 -0.849400 -0.206408 -0.025301 0.978139 0.148300 -0.028700 1 0 1.000000 
0 -5.438701 24.208900 -1.104700 -0.206408 -0.025301 0.978139 0.114900 -0.017200 1 0 1.000000 
prison_objects002
0 1.170799 12.270100 -0.104200 0.025201 -0.017201 0.999534 0.117100 -0.042400 1 0 1.000000 
0 -5.810400 11.629900 0.060500 0.025201 -0.017201 0.999534 0.174400 -0.059100 1 0 1.000000 
0 -1.794100 7.937600 -0.104200 0.025201 -0.017201 0.999534 0.154100 -0.017300 1 0 1.000000 
prison_objects002
0 1.170799 12.270100 -0.104200 0.025201 -0.017201 0.999534 0.117100 -0.042400 1 0 1.000000 
0 -2.244601 16.349800 0.060500 0.025300 -0.019100 0.999497 0.131400 -0.085400 1 0 1.000000 
0 -5.810400 11.629900 0.060500 0.025201 -0.017201 0.999534 0.174400 -0.059100 1 0 1.000000 
prison_objects002
0 1.170799 12.270100 -0.104200 0.025201 -0.017201 0.999534 0.117100 -0.042400 1 0 1.000000 
0 2.527399 15.712400 -0.104200 0.032799 -0.012900 0.999379 0.095600 -0.059100 1 0 1.000000 
0 -2.244601 16.349800 0.060500 0.025300 -0.019100 0.999497 0.131400 -0.085400 1 0 1.000000 
prison_objects002
0 -5.065000 -10.212300 -0.857000 0.000000 0.000000 -1.000000 0.114200 -0.113600 1 0 1.000000 
0 -2.676500 -6.825200 -0.857000 0.000000 0.000000 -1.000000 0.079900 -0.090700 1 0 1.000000 
0 -2.222300 -11.436600 -0.857000 0.000000 0.000000 -1.000000 0.125700 -0.085000 1 0 1.000000 
prison_objects002
0 -9.306400 -7.514000 -0.857000 0.000000 0.000000 -1.000000 0.088500 -0.156600 1 0 1.000000 
0 -2.676500 -6.825200 -0.857000 0.000000 0.000000 -1.000000 0.079900 -0.090700 1 0 1.000000 
0 -5.065000 -10.212300 -0.857000 0.000000 0.000000 -1.000000 0.114200 -0.113600 1 0 1.000000 
prison_objects002
0 -9.306400 -7.514000 -0.857000 0.000000 0.000000 -1.000000 0.088500 -0.156600 1 0 1.000000 
0 -4.887500 -5.042500 -0.857000 0.000000 0.000000 -1.000000 0.062700 -0.113200 1 0 1.000000 
0 -2.676500 -6.825200 -0.857000 0.000000 0.000000 -1.000000 0.079900 -0.090700 1 0 1.000000 
prison_objects002
0 -8.573800 -1.496300 -0.857000 0.000000 0.000000 -1.000000 0.028400 -0.150800 1 0 1.000000 
0 -4.887500 -5.042500 -0.857000 0.000000 0.000000 -1.000000 0.062700 -0.113200 1 0 1.000000 
0 -9.306400 -7.514000 -0.857000 0.000000 0.000000 -1.000000 0.088500 -0.156600 1 0 1.000000 
prison_objects002
0 -8.573800 -1.496300 -0.857000 0.000000 0.000000 -1.000000 0.028400 -0.150800 1 0 1.000000 
0 -7.129900 -1.246600 -0.857000 0.000000 0.000000 -1.000000 0.025500 -0.136500 1 0 1.000000 
0 -4.887500 -5.042500 -0.857000 0.000000 0.000000 -1.000000 0.062700 -0.113200 1 0 1.000000 
prison_objects002
0 9.080099 29.554199 -0.568000 0.134198 -0.030599 0.990482 0.070200 -0.073300 1 0 1.000000 
0 5.829799 28.999201 -0.144700 0.134198 -0.030599 0.990482 0.084000 -0.054400 1 0 1.000000 
0 4.625199 22.043501 -0.196700 0.134198 -0.030599 0.990482 0.050900 -0.012300 1 0 1.000000 
prison_objects002
0 2.874301 -19.840000 -0.522800 -0.110102 -0.034601 -0.993318 0.083100 -0.064400 1 0 1.000000 
0 -0.482499 -14.398600 -0.340300 -0.110102 -0.034601 -0.993318 0.085900 -0.010000 1 0 1.000000 
0 2.981200 -10.973200 -0.843600 -0.110102 -0.034601 -0.993318 0.127000 -0.002900 1 0 1.000000 
prison_objects002
0 -2.982799 -23.399599 0.250500 -0.110102 -0.034601 -0.993318 0.024400 -0.060800 1 0 1.000000 
0 -0.482499 -14.398600 -0.340300 -0.110102 -0.034601 -0.993318 0.085900 -0.010000 1 0 1.000000 
0 2.874301 -19.840000 -0.522800 -0.110102 -0.034601 -0.993318 0.083100 -0.064400 1 0 1.000000 
prison_objects002
0 -6.844599 -19.292000 0.535500 -0.110102 -0.034601 -0.993318 0.017200 -0.013200 1 0 1.000000 
0 -0.482499 -14.398600 -0.340300 -0.110102 -0.034601 -0.993318 0.085900 -0.010000 1 0 1.000000 
0 -2.982799 -23.399599 0.250500 -0.110102 -0.034601 -0.993318 0.024400 -0.060800 1 0 1.000000 
prison_objects002
0 -6.844599 -19.292000 0.535500 -0.110102 -0.034601 -0.993318 0.017200 -0.013200 1 0 1.000000 
0 -3.515299 -16.608500 0.072900 -0.110102 -0.034601 -0.993318 0.053800 -0.010700 1 0 1.000000 
0 -0.482499 -14.398600 -0.340300 -0.110102 -0.034601 -0.993318 0.085900 -0.010000 1 0 1.000000 
prison_objects002
0 -0.482499 -14.398600 -0.340300 -0.110102 -0.034601 -0.993318 0.085900 -0.010000 1 0 1.000000 
0 -3.515299 -16.608500 0.072900 -0.110102 -0.034601 -0.993318 0.053800 -0.010700 1 0 1.000000 
0 -1.723099 -14.272400 -0.207200 -0.110102 -0.034601 -0.993318 0.077800 -0.003100 1 0 1.000000 
prison_objects002
0 3.960200 -1.107900 -0.857000 0.318417 -0.947951 0.000000 0.134900 -0.450100 1 0 1.000000 
0 3.960200 -1.107900 0.060500 0.318417 -0.947951 0.000000 0.142700 -0.450100 1 0 1.000000 
0 1.896900 -1.801000 0.060500 0.318417 -0.947951 0.000000 0.142700 -0.432200 1 0 1.000000 
prison_objects002
0 -6.786199 -19.273701 1.062300 0.110102 0.034601 0.993318 0.017200 -0.013200 1 0 1.000000 
0 -0.424099 -14.380200 0.186500 0.110102 0.034601 0.993318 0.085900 -0.010000 1 0 1.000000 
0 -3.456899 -16.590200 0.599700 0.110102 0.034601 0.993318 0.053800 -0.010700 1 0 1.000000 
prison_objects002
0 -6.786199 -19.273701 1.062300 0.110102 0.034601 0.993318 0.017200 -0.013200 1 0 1.000000 
0 -2.924399 -23.381300 0.777300 0.110102 0.034601 0.993318 0.024400 -0.060800 1 0 1.000000 
0 -0.424099 -14.380200 0.186500 0.110102 0.034601 0.993318 0.085900 -0.010000 1 0 1.000000 
prison_objects002
0 -2.924399 -23.381300 0.777300 0.110102 0.034601 0.993318 0.024400 -0.060800 1 0 1.000000 
0 2.932701 -19.821600 0.003900 0.110102 0.034601 0.993318 0.083100 -0.064400 1 0 1.000000 
0 -0.424099 -14.380200 0.186500 0.110102 0.034601 0.993318 0.085900 -0.010000 1 0 1.000000 
prison_objects002
0 2.932701 -19.821600 0.003900 0.110102 0.034601 0.993318 0.083100 -0.064400 1 0 1.000000 
0 3.039600 -10.954900 -0.316900 0.110102 0.034601 0.993318 0.127000 -0.002900 1 0 1.000000 
0 -0.424099 -14.380200 0.186500 0.110102 0.034601 0.993318 0.085900 -0.010000 1 0 1.000000 
prison_objects002
0 2.932701 -19.821600 0.003900 0.110102 0.034601 0.993318 0.083100 -0.064400 1 0 1.000000 
0 6.775101 -11.838500 -0.700200 0.110102 0.034601 0.993318 0.149000 -0.027300 1 0 1.000000 
0 3.039600 -10.954900 -0.316900 0.110102 0.034601 0.993318 0.127000 -0.002900 1 0 1.000000 
prison_objects002
0 -0.323401 20.396900 0.056400 0.164005 -0.251608 0.953832 0.111000 -0.018500 1 0 1.000000 
0 -2.705401 19.746901 0.294600 0.164005 -0.251608 0.953832 0.126500 -0.032800 1 0 1.000000 
0 0.054199 19.508101 -0.243000 0.164005 -0.251608 0.953832 0.115700 -0.011400 1 0 1.000000 
prison_objects002
0 -2.705401 19.746901 0.294600 0.164005 -0.251608 0.953832 0.126500 -0.032800 1 0 1.000000 
0 -4.385201 15.061200 -0.652800 0.164005 -0.251608 0.953832 0.168300 -0.022100 1 0 1.000000 
0 0.054199 19.508101 -0.243000 0.164005 -0.251608 0.953832 0.115700 -0.011400 1 0 1.000000 
prison_objects002
0 -2.705401 19.746901 0.294600 0.164005 -0.251608 0.953832 0.126500 -0.032800 1 0 1.000000 
0 -4.768001 21.025999 0.986700 0.164005 -0.251608 0.953832 0.126500 -0.054300 1 0 1.000000 
0 -4.385201 15.061200 -0.652800 0.164005 -0.251608 0.953832 0.168300 -0.022100 1 0 1.000000 
prison_objects002
0 -4.768001 21.025999 0.986700 0.164005 -0.251608 0.953832 0.126500 -0.054300 1 0 1.000000 
0 -7.634001 16.748699 0.351100 0.164005 -0.251608 0.953832 0.170700 -0.054300 1 0 1.000000 
0 -4.385201 15.061200 -0.652800 0.164005 -0.251608 0.953832 0.168300 -0.022100 1 0 1.000000 
prison_objects002
0 -4.768001 21.025999 0.986700 0.164005 -0.251608 0.953832 0.126500 -0.054300 1 0 1.000000 
0 -10.492201 19.503201 1.569400 0.164005 -0.251608 0.953832 0.163500 -0.089000 1 0 1.000000 
0 -7.634001 16.748699 0.351100 0.164005 -0.251608 0.953832 0.170700 -0.054300 1 0 1.000000 
prison_objects002
0 -4.768001 21.025999 0.986700 0.164005 -0.251608 0.953832 0.126500 -0.054300 1 0 1.000000 
0 -9.980700 21.476999 2.002100 0.164005 -0.251608 0.953832 0.146800 -0.094900 1 0 1.000000 
0 -10.492201 19.503201 1.569400 0.164005 -0.251608 0.953832 0.163500 -0.089000 1 0 1.000000 
prison_objects002
0 3.534700 -3.554000 -0.857000 0.601215 0.730318 0.324308 0.166700 -0.554900 1 0 1.000000 
0 2.603600 -2.787400 -0.857000 0.601215 0.730318 0.324308 0.167500 -0.569300 1 0 1.000000 
0 3.282000 -3.618900 -0.242300 0.601215 0.730318 0.324308 0.157700 -0.555400 1 0 1.000000 
prison_objects002
0 -4.918501 21.256901 0.111700 -0.164005 0.251608 -0.953832 0.126500 -0.054300 1 0 1.000000 
0 -10.642701 19.734100 0.694300 -0.164005 0.251608 -0.953832 0.163500 -0.089000 1 0 1.000000 
0 -10.131201 21.707800 1.127000 -0.164005 0.251608 -0.953832 0.146800 -0.094900 1 0 1.000000 
prison_objects002
0 -4.918501 21.256901 0.111700 -0.164005 0.251608 -0.953832 0.126500 -0.054300 1 0 1.000000 
0 -7.784501 16.979601 -0.523900 -0.164005 0.251608 -0.953832 0.170700 -0.054300 1 0 1.000000 
0 -10.642701 19.734100 0.694300 -0.164005 0.251608 -0.953832 0.163500 -0.089000 1 0 1.000000 
prison_objects002
0 -4.918501 21.256901 0.111700 -0.164005 0.251608 -0.953832 0.126500 -0.054300 1 0 1.000000 
0 -4.535700 15.292100 -1.527800 -0.164005 0.251608 -0.953832 0.168300 -0.022100 1 0 1.000000 
0 -7.784501 16.979601 -0.523900 -0.164005 0.251608 -0.953832 0.170700 -0.054300 1 0 1.000000 
prison_objects002
0 -2.855901 19.977699 -0.580500 -0.164005 0.251608 -0.953832 0.126500 -0.032800 1 0 1.000000 
0 -4.535700 15.292100 -1.527800 -0.164005 0.251608 -0.953832 0.168300 -0.022100 1 0 1.000000 
0 -4.918501 21.256901 0.111700 -0.164005 0.251608 -0.953832 0.126500 -0.054300 1 0 1.000000 
prison_objects002
0 -2.855901 19.977699 -0.580500 -0.164005 0.251608 -0.953832 0.126500 -0.032800 1 0 1.000000 
0 -0.096201 19.739000 -1.118100 -0.164005 0.251608 -0.953832 0.115700 -0.011400 1 0 1.000000 
0 -4.535700 15.292100 -1.527800 -0.164005 0.251608 -0.953832 0.168300 -0.022100 1 0 1.000000 
prison_objects002
0 -0.473901 20.627800 -0.818600 -0.164005 0.251608 -0.953832 0.111000 -0.018500 1 0 1.000000 
0 -0.096201 19.739000 -1.118100 -0.164005 0.251608 -0.953832 0.115700 -0.011400 1 0 1.000000 
0 -2.855901 19.977699 -0.580500 -0.164005 0.251608 -0.953832 0.126500 -0.032800 1 0 1.000000 
prison_objects002
0 3.633500 -6.631300 -0.857000 0.923348 0.029602 0.382820 0.164400 -0.510800 1 0 1.000000 
0 3.534700 -3.554000 -0.857000 0.923348 0.029602 0.382820 0.166700 -0.554900 1 0 1.000000 
0 3.282000 -3.618900 -0.242300 0.923348 0.029602 0.382820 0.157700 -0.555400 1 0 1.000000 
prison_objects002
0 1.170799 12.270100 -0.692300 0.025201 -0.017201 -0.999534 0.117100 -0.042400 1 0 1.000000 
0 -2.244601 16.349800 -0.857000 0.025300 -0.019100 -0.999497 0.131400 -0.085400 1 0 1.000000 
0 2.527399 15.712400 -0.692300 0.032799 -0.012900 -0.999379 0.095600 -0.059100 1 0 1.000000 
prison_objects002
0 1.170799 12.270100 -0.692300 0.025201 -0.017201 -0.999534 0.117100 -0.042400 1 0 1.000000 
0 -5.810400 11.629900 -0.857000 0.025201 -0.017201 -0.999534 0.174400 -0.059100 1 0 1.000000 
0 -2.244601 16.349800 -0.857000 0.025300 -0.019100 -0.999497 0.131400 -0.085400 1 0 1.000000 
prison_objects002
0 1.170799 12.270100 -0.692300 0.025201 -0.017201 -0.999534 0.117100 -0.042400 1 0 1.000000 
0 -1.794100 7.937600 -0.692300 0.025201 -0.017201 -0.999534 0.154100 -0.017300 1 0 1.000000 
0 -5.810400 11.629900 -0.857000 0.025201 -0.017201 -0.999534 0.174400 -0.059100 1 0 1.000000 
prison_objects002
0 1.170799 12.270100 -0.692300 0.025201 -0.017201 -0.999534 0.117100 -0.042400 1 0 1.000000 
0 1.656999 10.653300 -0.692300 0.000000 0.000000 -1.000000 0.118300 -0.028100 1 0 1.000000 
0 -1.794100 7.937600 -0.692300 0.025201 -0.017201 -0.999534 0.154100 -0.017300 1 0 1.000000 
prison_objects002
0 6.775101 -11.838500 -0.700200 0.224099 0.972797 -0.058700 0.166400 -0.551600 1 0 1.000000 
0 2.981200 -10.973200 -0.843600 0.224099 0.972797 -0.058700 0.158600 -0.520500 1 0 1.000000 
0 3.039600 -10.954900 -0.316900 0.224099 0.972797 -0.058700 0.166400 -0.520500 1 0 1.000000 
prison_objects002
0 -8.573800 -1.496300 -0.192200 0.000000 0.000000 1.000000 0.028400 -0.150800 1 0 1.000000 
0 -9.306400 -7.514000 -0.192200 0.000000 0.000000 1.000000 0.088500 -0.156600 1 0 1.000000 
0 -4.887500 -5.042500 -0.192200 0.000000 0.000000 1.000000 0.062700 -0.113200 1 0 1.000000 
prison_objects002
0 -9.306400 -7.514000 -0.192200 0.000000 0.000000 1.000000 0.088500 -0.156600 1 0 1.000000 
0 -2.676500 -6.825200 -0.192200 0.000000 0.000000 1.000000 0.079900 -0.090700 1 0 1.000000 
0 -4.887500 -5.042500 -0.192200 0.000000 0.000000 1.000000 0.062700 -0.113200 1 0 1.000000 
prison_objects002
0 -9.306400 -7.514000 -0.192200 0.000000 0.000000 1.000000 0.088500 -0.156600 1 0 1.000000 
0 -5.065000 -10.212300 -0.192200 0.000000 0.000000 1.000000 0.114200 -0.113600 1 0 1.000000 
0 -2.676500 -6.825200 -0.192200 0.000000 0.000000 1.000000 0.079900 -0.090700 1 0 1.000000 
prison_objects002
0 1.191001 -29.253300 -0.595200 0.696681 -0.717381 0.000000 0.159300 -0.048800 1 0 1.000000 
0 1.191001 -29.253300 -0.206300 0.696681 -0.717381 0.000000 0.135100 -0.039300 1 0 1.000000 
0 -0.649199 -31.040300 -0.206300 0.696681 -0.717381 0.000000 0.154200 -0.063200 1 0 1.000000 
prison_objects002
0 1.707000 -12.002900 -0.192100 -0.004100 -0.156398 0.987686 0.077300 -0.060500 1 0 1.000000 
0 2.029201 -9.900300 0.142100 -0.004100 -0.156398 0.987686 0.072500 -0.043500 1 0 1.000000 
0 -7.538199 -13.080100 -0.401000 -0.004100 -0.156398 0.987686 0.012100 -0.100100 1 0 1.000000 
prison_objects002
0 2.029201 -9.900300 0.142100 -0.004100 -0.156398 0.987686 0.072500 -0.043500 1 0 1.000000 
0 -3.151500 -3.695700 1.103000 -0.004100 -0.156398 0.987686 0.012500 -0.014300 1 0 1.000000 
0 -7.538199 -13.080100 -0.401000 -0.004100 -0.156398 0.987686 0.012100 -0.100100 1 0 1.000000 
prison_objects002
0 0.169200 -3.925000 -0.857000 0.000000 0.000000 -1.000000 0.015700 -0.158800 1 0 1.000000 
0 3.633500 -6.631300 -0.857000 0.000000 0.000000 -1.000000 0.067500 -0.119800 1 0 1.000000 
0 2.446800 -7.619600 -0.857000 0.000000 0.000000 -1.000000 0.077000 -0.140500 1 0 1.000000 
prison_objects002
0 0.169200 -3.925000 -0.857000 0.000000 0.000000 -1.000000 0.015700 -0.158800 1 0 1.000000 
0 3.534700 -3.554000 -0.857000 0.000000 0.000000 -1.000000 0.023300 -0.109500 1 0 1.000000 
0 3.633500 -6.631300 -0.857000 0.000000 0.000000 -1.000000 0.067500 -0.119800 1 0 1.000000 
prison_objects002
0 2.603600 -2.787400 -0.857000 0.000000 0.000000 -1.000000 0.008800 -0.119800 1 0 1.000000 
0 3.534700 -3.554000 -0.857000 0.000000 0.000000 -1.000000 0.023300 -0.109500 1 0 1.000000 
0 0.169200 -3.925000 -0.857000 0.000000 0.000000 -1.000000 0.015700 -0.158800 1 0 1.000000 
prison_objects002
0 -8.126599 -16.948200 -0.566500 -0.140693 0.990048 -0.003200 0.156600 -0.497300 1 0 1.000000 
0 -11.156399 -17.380301 -1.078500 -0.140693 0.990048 -0.003200 0.156600 -0.559400 1 0 1.000000 
0 -11.284899 -17.396099 -0.305100 -0.140693 0.990048 -0.003200 0.164500 -0.559400 1 0 1.000000 
prison_objects002
0 0.421500 -3.814000 0.060500 0.100904 0.062303 0.992943 0.015100 -0.154800 1 0 1.000000 
0 2.694800 -7.496900 0.060500 0.100904 0.062303 0.992943 0.076200 -0.136500 1 0 1.000000 
0 3.282000 -3.618900 -0.242300 0.100904 0.062303 0.992943 0.023300 -0.113300 1 0 1.000000 
prison_objects002
0 -1.794100 7.937600 -0.692300 0.618382 -0.785877 0.000000 0.149600 -0.449600 1 0 1.000000 
0 1.656999 10.653300 -0.692300 0.618382 -0.785877 0.000000 0.149600 -0.494900 1 0 1.000000 
0 -1.794100 7.937600 -0.104200 0.618382 -0.785877 0.000000 0.155700 -0.449600 1 0 1.000000 
prison_objects002
0 1.191001 -29.253300 -0.595200 0.001900 -0.132904 -0.991127 0.135100 -0.039300 1 0 1.000000 
0 -2.010799 -27.348101 -0.857000 0.001900 -0.132904 -0.991127 0.108900 -0.075100 1 0 1.000000 
0 2.912301 -27.276501 -0.857000 0.001900 -0.132904 -0.991127 0.113600 -0.016600 1 0 1.000000 
prison_objects002
0 -4.356700 16.347500 0.352800 0.210601 0.945407 -0.248702 0.150200 -0.564300 1 0 1.000000 
0 -6.266701 16.712900 0.124200 0.210601 0.945407 -0.248702 0.166900 -0.564300 1 0 1.000000 
0 -6.258601 16.869400 0.725900 0.210601 0.945407 -0.248702 0.166900 -0.556500 1 0 1.000000 
prison_objects002
0 10.291799 20.812700 -0.857000 0.082098 -0.150597 0.985180 0.013600 -0.037000 1 0 1.000000 
0 11.490199 26.219500 -0.130000 0.082098 -0.150597 0.985180 0.039600 -0.072100 1 0 1.000000 
0 4.625199 22.043501 -0.196700 0.082098 -0.150597 0.985180 0.050900 -0.012300 1 0 1.000000 
prison_objects002
0 -1.723099 -14.272400 -0.207200 -0.787841 0.612332 0.066003 0.165000 -0.491600 1 0 1.000000 
0 -3.515299 -16.608500 0.072900 -0.787841 0.612332 0.066003 0.164800 -0.516700 1 0 1.000000 
0 -3.456899 -16.590200 0.599700 -0.787841 0.612332 0.066003 0.157000 -0.516600 1 0 1.000000 
prison_objects002
0 6.767700 8.074900 -0.067100 0.117298 0.109998 0.986986 0.100500 -0.069900 1 0 1.000000 
0 4.476600 10.518000 -0.067100 0.117298 0.109998 0.986986 0.132800 -0.039500 1 0 1.000000 
0 3.208699 9.244800 0.225500 0.117298 0.109998 0.986986 0.116000 -0.022700 1 0 1.000000 
prison_objects002
0 -10.198599 -20.448700 -0.187000 -0.120699 0.039800 0.991891 0.063100 -0.056700 1 0 1.000000 
0 -8.628499 -19.233999 -0.044700 -0.120699 0.039800 0.991891 0.046400 -0.028300 1 0 1.000000 
0 -11.673499 -19.367399 -0.409900 -0.120699 0.039800 0.991891 0.042500 -0.073300 1 0 1.000000 
prison_objects002
0 1.487099 21.153299 -0.635200 -0.181612 -0.619439 0.763749 0.100500 -0.069900 1 0 1.000000 
0 4.753899 20.441999 -0.435100 -0.181612 -0.619439 0.763749 0.132800 -0.039500 1 0 1.000000 
0 4.921799 21.830200 0.730700 -0.181612 -0.619439 0.763749 0.116000 -0.022700 1 0 1.000000 
prison_objects002
0 -8.499999 -19.218201 -0.674800 0.602802 -0.791202 0.103100 0.156600 -0.510500 1 0 1.000000 
0 -8.628499 -19.233999 -0.044700 0.602802 -0.791202 0.103100 0.164500 -0.510500 1 0 1.000000 
0 -10.198599 -20.448700 -0.187000 0.602802 -0.791202 0.103100 0.164500 -0.545100 1 0 1.000000 
prison_objects002
0 -8.499999 -19.218201 -0.674800 0.085900 -0.061600 0.994398 0.023900 -0.010700 1 0 1.000000 
0 -8.126599 -16.948200 -0.566500 0.085900 -0.061600 0.994398 0.010200 -0.017600 1 0 1.000000 
0 -11.673499 -19.367399 -0.409900 0.085900 -0.061600 0.994398 0.042500 -0.073300 1 0 1.000000 
prison_objects002
0 -8.126599 -16.948200 -0.566500 0.085900 -0.061600 0.994398 0.010200 -0.017600 1 0 1.000000 
0 -11.284899 -17.396099 -0.305100 0.092201 -0.071000 0.993206 0.011200 -0.068500 1 0 1.000000 
0 -11.673499 -19.367399 -0.409900 0.085900 -0.061600 0.994398 0.042500 -0.073300 1 0 1.000000 
prison_objects002
0 2.721699 24.901600 0.264300 0.081097 -0.092996 0.992358 0.112000 -0.094600 1 0 1.000000 
0 5.380999 28.012100 0.338500 0.081097 -0.092996 0.992358 0.137800 -0.122300 1 0 1.000000 
0 3.090499 31.958401 0.895400 0.081097 -0.092996 0.992358 0.176900 -0.107000 1 0 1.000000 
prison_objects002
0 6.767700 8.074900 -0.958200 0.750104 0.629004 0.204201 0.137200 -0.568300 1 0 1.000000 
0 4.566999 10.699400 -0.958200 0.750104 0.629004 0.204201 0.137200 -0.520100 1 0 1.000000 
0 4.476600 10.518000 -0.067100 0.750104 0.629004 0.204201 0.149100 -0.521300 1 0 1.000000 
prison_objects002
0 -8.289199 -29.226700 -0.857000 0.000000 0.000000 -1.000000 0.061600 -0.069900 1 0 1.000000 
0 -4.231899 -22.520599 -0.857000 0.000000 0.000000 -1.000000 0.016200 -0.020900 1 0 1.000000 
0 -2.920799 -24.040800 -0.857000 0.000000 0.000000 -1.000000 0.031800 -0.013700 1 0 1.000000 
prison_objects002
0 -8.289199 -29.226700 -0.857000 0.000000 0.000000 -1.000000 0.061600 -0.069900 1 0 1.000000 
0 -9.142299 -23.199301 -0.857000 0.000000 0.000000 -1.000000 0.010300 -0.062700 1 0 1.000000 
0 -4.231899 -22.520599 -0.857000 0.000000 0.000000 -1.000000 0.016200 -0.020900 1 0 1.000000 
prison_objects002
0 -8.289199 -29.226700 -0.857000 0.000000 0.000000 -1.000000 0.061600 -0.069900 1 0 1.000000 
0 -11.355299 -25.146601 -0.857000 0.000000 0.000000 -1.000000 0.021000 -0.085400 1 0 1.000000 
0 -9.142299 -23.199301 -0.857000 0.000000 0.000000 -1.000000 0.010300 -0.062700 1 0 1.000000 
prison_objects002
0 -8.289199 -29.226700 -0.857000 0.000000 0.000000 -1.000000 0.061600 -0.069900 1 0 1.000000 
0 -10.308899 -31.847900 -0.857000 0.000000 0.000000 -1.000000 0.078300 -0.092500 1 0 1.000000 
0 -11.355299 -25.146601 -0.857000 0.000000 0.000000 -1.000000 0.021000 -0.085400 1 0 1.000000 
prison_objects002
0 -9.249499 -31.981701 -0.857000 0.000000 0.000000 -1.000000 0.081900 -0.084200 1 0 1.000000 
0 -10.308899 -31.847900 -0.857000 0.000000 0.000000 -1.000000 0.078300 -0.092500 1 0 1.000000 
0 -8.289199 -29.226700 -0.857000 0.000000 0.000000 -1.000000 0.061600 -0.069900 1 0 1.000000 
prison_objects002
0 4.566999 10.699400 -0.958200 -0.698021 0.712222 0.074202 0.135700 -0.560300 1 0 1.000000 
0 3.208699 9.244800 0.225500 -0.698021 0.712222 0.074202 0.150600 -0.535400 1 0 1.000000 
0 4.476600 10.518000 -0.067100 -0.698021 0.712222 0.074202 0.147000 -0.558200 1 0 1.000000 
prison_objects002
0 -8.289199 -29.226700 0.060500 0.092501 0.079801 0.992510 0.061600 -0.069900 1 0 1.000000 
0 -2.920799 -24.040800 -0.857000 0.092501 0.079801 0.992510 0.031800 -0.013700 1 0 1.000000 
0 -4.231899 -22.520599 -0.857000 0.092501 0.079801 0.992510 0.016200 -0.020900 1 0 1.000000 
prison_objects002
0 1.628899 21.589800 -1.399000 -0.234813 -0.914951 -0.328218 0.137200 -0.568300 1 0 1.000000 
0 4.935499 20.702900 -1.291900 -0.234813 -0.914951 -0.328218 0.137200 -0.520100 1 0 1.000000 
0 4.753899 20.441999 -0.435100 -0.234813 -0.914951 -0.328218 0.149100 -0.521300 1 0 1.000000 
prison_objects002
0 2.874301 -19.840000 -0.522800 0.029400 -0.036500 -0.998901 0.083100 -0.064400 1 0 1.000000 
0 2.981200 -10.973200 -0.843600 0.029400 -0.036500 -0.998901 0.127000 -0.002900 1 0 1.000000 
0 6.775101 -11.838500 -0.700200 0.029400 -0.036500 -0.998901 0.149000 -0.027300 1 0 1.000000 
prison_objects002
0 4.935499 20.702900 -1.291900 0.963986 -0.229497 0.134398 0.135700 -0.560300 1 0 1.000000 
0 4.921799 21.830200 0.730700 0.963986 -0.229497 0.134398 0.150600 -0.535400 1 0 1.000000 
0 4.753899 20.441999 -0.435100 0.963986 -0.229497 0.134398 0.147000 -0.558200 1 0 1.000000 
prison_objects002
0 -6.266701 16.712900 0.124200 0.142297 0.129797 -0.981277 0.141400 -0.081300 1 0 1.000000 
0 -4.356700 16.347500 0.352800 0.142297 0.129797 -0.981277 0.124500 -0.090400 1 0 1.000000 
0 -2.521101 10.049300 -0.214200 0.142297 0.129797 -0.981277 0.078000 -0.054400 1 0 1.000000 
prison_objects002
0 -7.129900 -1.246600 -0.857000 -0.170396 0.985376 0.000000 0.157500 -0.532500 1 0 1.000000 
0 -8.573800 -1.496300 -0.857000 -0.170396 0.985376 0.000000 0.157500 -0.553000 1 0 1.000000 
0 -8.573800 -1.496300 -0.192200 -0.170396 0.985376 0.000000 0.167600 -0.553000 1 0 1.000000 
prison_objects002
0 -9.249499 -31.981701 0.060500 0.000000 0.000000 1.000000 0.081900 -0.084200 1 0 1.000000 
0 -8.289199 -29.226700 0.060500 0.000000 0.000000 1.000000 0.061600 -0.069900 1 0 1.000000 
0 -10.308899 -31.847900 0.060500 0.000000 0.000000 1.000000 0.078300 -0.092500 1 0 1.000000 
prison_objects002
0 -8.289199 -29.226700 0.060500 0.000000 0.000000 1.000000 0.061600 -0.069900 1 0 1.000000 
0 -11.355299 -25.146601 0.060500 0.000000 0.000000 1.000000 0.021000 -0.085400 1 0 1.000000 
0 -10.308899 -31.847900 0.060500 0.000000 0.000000 1.000000 0.078300 -0.092500 1 0 1.000000 
prison_objects002
0 -8.289199 -29.226700 0.060500 0.000000 0.000000 1.000000 0.061600 -0.069900 1 0 1.000000 
0 -9.142299 -23.199301 0.060500 0.000000 0.000000 1.000000 0.010300 -0.062700 1 0 1.000000 
0 -11.355299 -25.146601 0.060500 0.000000 0.000000 1.000000 0.021000 -0.085400 1 0 1.000000 
prison_objects002
0 -3.710800 -1.302400 0.658500 -0.954814 -0.297204 0.000000 0.135400 -0.360800 1 0 1.000000 
0 -2.787500 -4.268200 0.003200 -0.954814 -0.297204 0.000000 0.160500 -0.368600 1 0 1.000000 
0 -2.787500 -4.268200 0.658500 -0.954814 -0.297204 0.000000 0.160500 -0.360800 1 0 1.000000 
prison_objects002
0 -5.209900 4.425400 0.041500 -0.224892 0.005900 0.974366 0.119200 -0.085700 1 0 1.000000 
0 -8.241000 3.490900 -0.652400 -0.224892 0.005900 0.974366 0.124800 -0.116100 1 0 1.000000 
0 -7.613200 1.370500 -0.494700 -0.224892 0.005900 0.974366 0.145500 -0.109200 1 0 1.000000 
prison_objects002
0 -3.441900 -5.166500 -0.468500 0.533312 -0.845919 0.000000 0.138200 -0.378400 1 0 1.000000 
0 1.896900 -1.801000 0.060500 0.533312 -0.845919 0.000000 0.142700 -0.432200 1 0 1.000000 
0 -3.441900 -5.166500 0.060500 0.533312 -0.845919 0.000000 0.142700 -0.378400 1 0 1.000000 
prison_objects002
0 4.018799 7.665100 0.225500 0.000000 0.000000 1.000000 0.095000 -0.033400 1 0 1.000000 
0 5.646399 7.259400 0.225500 0.000000 0.000000 1.000000 0.089600 -0.055000 1 0 1.000000 
0 3.208699 9.244800 0.225500 0.000000 0.000000 1.000000 0.116000 -0.022700 1 0 1.000000 
prison_objects002
0 -2.914500 1.403700 -0.645100 -0.996795 0.080000 0.000000 0.174000 -0.091800 1 0 1.000000 
0 -3.441900 -5.166500 -0.468500 -0.996795 0.080000 0.000000 0.121500 -0.057200 1 0 1.000000 
0 -3.441900 -5.166500 0.060500 -0.996795 0.080000 0.000000 0.140600 -0.045200 1 0 1.000000 
prison_objects002
0 3.332199 22.606600 0.879200 -0.159197 -0.489790 0.857183 0.095000 -0.033400 1 0 1.000000 
0 1.818699 22.136700 0.329700 -0.159197 -0.489790 0.857183 0.089600 -0.055000 1 0 1.000000 
0 4.921799 21.830200 0.730700 -0.159197 -0.489790 0.857183 0.116000 -0.022700 1 0 1.000000 
prison_objects002
0 -6.504601 6.861700 -0.988100 -0.466211 -0.875320 -0.128303 0.133000 -0.487600 1 0 1.000000 
0 -1.906700 4.267600 0.004400 -0.466211 -0.875320 -0.128303 0.140800 -0.453000 1 0 1.000000 
0 -6.626201 6.793499 -0.081300 -0.466211 -0.875320 -0.128303 0.140800 -0.487600 1 0 1.000000 
prison_objects002
0 4.898900 0.522300 -0.857000 0.000000 0.000000 -1.000000 0.122700 -0.143200 1 0 1.000000 
0 3.960200 -1.107900 -0.857000 0.000000 0.000000 -1.000000 0.115500 -0.128800 1 0 1.000000 
0 2.030600 3.331700 -0.857000 0.000000 0.000000 -1.000000 0.156100 -0.136000 1 0 1.000000 
prison_objects002
0 -8.289199 -29.226700 -0.857000 0.694802 -0.719201 0.000000 0.154700 -0.544400 1 0 1.000000 
0 -2.920799 -24.040800 -0.857000 0.694802 -0.719201 0.000000 0.154700 -0.481600 1 0 1.000000 
0 -8.289199 -29.226700 0.060500 0.694802 -0.719201 0.000000 0.162500 -0.544400 1 0 1.000000 
prison_objects002
0 -5.065000 -10.212300 -0.192200 0.175207 -0.123605 0.976741 0.114200 -0.113600 1 0 1.000000 
0 -2.222300 -11.436600 -0.857000 0.175207 -0.123605 0.976741 0.125700 -0.085000 1 0 1.000000 
0 -2.676500 -6.825200 -0.192200 0.175207 -0.123605 0.976741 0.079900 -0.090700 1 0 1.000000 
prison_objects002
0 2.874301 -19.840000 -0.522800 0.894955 -0.438178 -0.083996 0.164800 -0.510700 1 0 1.000000 
0 6.775101 -11.838500 -0.700200 0.894955 -0.438178 -0.083996 0.157700 -0.435400 1 0 1.000000 
0 2.932701 -19.821600 0.003900 0.894955 -0.438178 -0.083996 0.157000 -0.510600 1 0 1.000000 
prison_objects002
0 -1.573100 -0.381100 0.003200 -0.332105 0.103801 -0.937513 0.079300 -0.075200 1 0 1.000000 
0 -2.787500 -4.268200 0.003200 -0.332105 0.103801 -0.937513 0.115700 -0.085600 1 0 1.000000 
0 -3.710800 -1.302400 0.658500 -0.332105 0.103801 -0.937513 0.088400 -0.094700 1 0 1.000000 
prison_objects002
0 1.290699 30.419701 -0.857000 -0.941711 -0.018700 0.335904 0.171500 -0.429100 1 0 1.000000 
0 1.692199 26.679399 0.060500 -0.941711 -0.018700 0.335904 0.161900 -0.480300 1 0 1.000000 
0 1.623699 30.131599 0.060500 -0.941711 -0.018700 0.335904 0.163600 -0.432700 1 0 1.000000 
prison_objects002
0 3.357299 30.620199 0.060500 0.000000 0.000000 1.000000 0.105700 -0.048600 1 0 1.000000 
0 1.623699 30.131599 0.060500 0.000000 0.000000 1.000000 0.111700 -0.036400 1 0 1.000000 
0 1.692199 26.679399 0.060500 0.000000 0.000000 1.000000 0.091900 -0.019300 1 0 1.000000 
prison_objects002
0 0.711901 -22.232000 -0.299200 -0.762999 0.646399 0.000000 0.155500 -0.568900 1 0 1.000000 
0 -1.723499 -25.106899 -0.857000 -0.762999 0.646399 0.000000 0.162400 -0.537700 1 0 1.000000 
0 -1.723499 -25.106899 -0.206300 -0.762999 0.646399 0.000000 0.154600 -0.537600 1 0 1.000000 
prison_objects002
0 1.628899 21.589800 -1.399000 -0.152791 -0.845548 -0.511569 0.137200 -0.568300 1 0 1.000000 
0 4.753899 20.441999 -0.435100 -0.152791 -0.845548 -0.511569 0.149100 -0.521300 1 0 1.000000 
0 1.487099 21.153299 -0.635200 -0.152791 -0.845548 -0.511569 0.149100 -0.568300 1 0 1.000000 
prison_objects002
0 10.291799 20.812700 -0.857000 0.902824 -0.247406 0.351709 0.166900 -0.561500 1 0 1.000000 
0 11.673499 26.125700 -0.666500 0.902824 -0.247406 0.351709 0.167800 -0.488200 1 0 1.000000 
0 11.490199 26.219500 -0.130000 0.902824 -0.247406 0.351709 0.163300 -0.486700 1 0 1.000000 
prison_objects002
0 3.736699 23.456301 0.059000 -0.493603 0.791405 0.360602 0.137200 -0.547800 1 0 1.000000 
0 2.007099 22.716499 -0.685000 -0.493603 0.791405 0.360602 0.137200 -0.568000 1 0 1.000000 
0 1.818699 22.136700 0.329700 -0.493603 0.791405 0.360602 0.153000 -0.568000 1 0 1.000000 
prison_objects002
0 11.673499 26.125700 -0.666500 0.940917 0.172503 0.291405 0.167800 -0.488200 1 0 1.000000 
0 11.157299 28.775200 -0.568000 0.940917 0.172503 0.291405 0.168300 -0.451600 1 0 1.000000 
0 11.490199 26.219500 -0.130000 0.940917 0.172503 0.291405 0.163300 -0.486700 1 0 1.000000 
prison_objects002
0 6.767700 8.074900 -0.958200 0.729394 0.684094 0.000000 0.137200 -0.568300 1 0 1.000000 
0 4.476600 10.518000 -0.067100 0.729394 0.684094 0.000000 0.149100 -0.521300 1 0 1.000000 
0 6.767700 8.074900 -0.067100 0.729394 0.684094 0.000000 0.149100 -0.568300 1 0 1.000000 
prison_objects002
0 -0.841100 -4.180300 0.003200 0.501600 -0.865100 0.000000 0.155600 -0.520800 1 0 1.000000 
0 0.992100 -3.117300 0.003200 0.501600 -0.865100 0.000000 0.155600 -0.501300 1 0 1.000000 
0 -0.841100 -4.180300 0.658500 0.501600 -0.865100 0.000000 0.165500 -0.520800 1 0 1.000000 
prison_objects002
0 3.642900 7.538800 -0.958200 -0.138102 -0.990418 0.000000 0.137200 -0.547800 1 0 1.000000 
0 5.646399 7.259400 -0.958200 -0.138102 -0.990418 0.000000 0.137200 -0.568000 1 0 1.000000 
0 5.646399 7.259400 0.225500 -0.138102 -0.990418 0.000000 0.153000 -0.568000 1 0 1.000000 
prison_objects002
0 -5.065000 -10.212300 -0.857000 -0.395608 -0.918419 0.000000 0.157500 -0.579100 1 0 1.000000 
0 -2.222300 -11.436600 -0.857000 -0.395608 -0.918419 0.000000 0.157500 -0.552700 1 0 1.000000 
0 -5.065000 -10.212300 -0.192200 -0.395608 -0.918419 0.000000 0.167600 -0.579100 1 0 1.000000 
prison_objects002
0 2.527399 15.712400 -0.692300 0.341002 -0.130901 -0.930904 0.095600 -0.059100 1 0 1.000000 
0 3.341199 19.002199 -0.857000 0.341002 -0.130901 -0.930904 0.078900 -0.089000 1 0 1.000000 
0 4.828199 17.522800 -0.104200 0.341002 -0.130901 -0.930904 0.071700 -0.066300 1 0 1.000000 
prison_objects002
0 -7.666400 5.217999 -1.208800 -0.942668 0.329889 0.050498 0.131800 -0.552200 1 0 1.000000 
0 -8.256700 3.550299 -1.334900 -0.942668 0.329889 0.050498 0.146100 -0.552200 1 0 1.000000 
0 -8.241000 3.490900 -0.652400 -0.942668 0.329889 0.050498 0.146100 -0.544400 1 0 1.000000 
prison_objects002
0 -4.946700 4.575000 -0.852400 0.146302 -0.006800 -0.989216 0.119200 -0.085700 1 0 1.000000 
0 -7.406900 1.365100 -1.194200 0.146302 -0.006800 -0.989216 0.145500 -0.109200 1 0 1.000000 
0 -8.256700 3.550299 -1.334900 0.146302 -0.006800 -0.989216 0.124800 -0.116100 1 0 1.000000 
prison_objects002
0 -8.256700 3.550299 -1.334900 -0.958791 -0.284097 -0.002700 0.146100 -0.552200 1 0 1.000000 
0 -7.613200 1.370500 -0.494700 -0.958791 -0.284097 -0.002700 0.164000 -0.544400 1 0 1.000000 
0 -8.241000 3.490900 -0.652400 -0.958791 -0.284097 -0.002700 0.146100 -0.544400 1 0 1.000000 
prison_objects002
0 -5.209900 4.425400 0.041500 -0.317090 0.384688 0.866873 0.119200 -0.085700 1 0 1.000000 
0 -7.666400 5.217999 -1.208800 -0.317090 0.384688 0.866873 0.108100 -0.110600 1 0 1.000000 
0 -8.241000 3.490900 -0.652400 -0.317090 0.384688 0.866873 0.124800 -0.116100 1 0 1.000000 
prison_objects002
0 -7.406900 1.365100 -1.194200 -0.369189 -0.923773 -0.101697 0.143800 -0.525900 1 0 1.000000 
0 -5.649800 0.617800 -0.784200 -0.369189 -0.923773 -0.101697 0.143800 -0.503700 1 0 1.000000 
0 -7.613200 1.370500 -0.494700 -0.369189 -0.923773 -0.101697 0.154200 -0.525900 1 0 1.000000 
prison_objects002
0 11.490199 26.219500 -0.130000 -0.061899 0.085898 0.994379 0.039600 -0.072100 1 0 1.000000 
0 9.080099 29.554199 -0.568000 -0.061899 0.085898 0.994379 0.070200 -0.073300 1 0 1.000000 
0 4.625199 22.043501 -0.196700 -0.061899 0.085898 0.994379 0.050900 -0.012300 1 0 1.000000 
prison_objects002
0 0.351600 -1.125800 0.003200 0.360901 0.932604 0.000000 0.155600 -0.508800 1 0 1.000000 
0 -1.573100 -0.381100 0.003200 0.360901 0.932604 0.000000 0.155600 -0.529800 1 0 1.000000 
0 -1.573100 -0.381100 0.658500 0.360901 0.932604 0.000000 0.165500 -0.529800 1 0 1.000000 
prison_objects002
0 -11.026499 -20.370001 -1.117900 -0.060600 -0.997699 -0.030400 0.156600 -0.564200 1 0 1.000000 
0 -10.198599 -20.448700 -0.187000 -0.060600 -0.997699 -0.030400 0.164500 -0.545100 1 0 1.000000 
0 -11.154999 -20.385799 -0.344500 -0.060600 -0.997699 -0.030400 0.164500 -0.564200 1 0 1.000000 
prison_objects002
0 2.527399 15.712400 -0.692300 0.618382 -0.785877 0.000000 0.149600 -0.537000 1 0 1.000000 
0 4.828199 17.522800 -0.104200 0.618382 -0.785877 0.000000 0.155700 -0.567200 1 0 1.000000 
0 2.527399 15.712400 -0.104200 0.618382 -0.785877 0.000000 0.155700 -0.537000 1 0 1.000000 
prison_objects002
0 -2.266901 21.298800 -1.448900 -0.026701 -0.478927 0.877449 0.084300 -0.042100 1 0 1.000000 
0 0.722099 24.140499 0.193200 -0.026701 -0.478927 0.877449 0.107200 -0.075500 1 0 1.000000 
0 -2.953801 22.864201 -0.615300 -0.026701 -0.478927 0.877449 0.099600 -0.039200 1 0 1.000000 
prison_objects002
0 -0.482499 -14.398600 -0.340300 0.096302 0.994321 -0.045301 0.165000 -0.486800 1 0 1.000000 
0 -1.723099 -14.272400 -0.207200 0.096302 0.994321 -0.045301 0.165000 -0.491600 1 0 1.000000 
0 -0.424099 -14.380200 0.186500 0.096302 0.994321 -0.045301 0.157200 -0.486800 1 0 1.000000 
prison_objects002
0 -2.266901 21.298800 -1.448900 0.649564 -0.751158 0.117593 0.131000 -0.365800 1 0 1.000000 
0 0.911399 24.163700 -0.704100 0.649564 -0.751158 0.117593 0.131000 -0.410200 1 0 1.000000 
0 0.722099 24.140499 0.193200 0.649564 -0.751158 0.117593 0.138800 -0.410200 1 0 1.000000 
prison_objects002
0 -4.231899 -22.520599 -0.857000 -0.136898 0.990585 0.000000 0.154700 -0.478000 1 0 1.000000 
0 -9.142299 -23.199301 -0.857000 -0.136898 0.990585 0.000000 0.154700 -0.507800 1 0 1.000000 
0 -9.142299 -23.199301 0.060500 -0.136898 0.990585 0.000000 0.162500 -0.507800 1 0 1.000000 
prison_objects002
0 2.836299 24.915600 -0.278600 0.750776 -0.645180 0.141696 0.131000 -0.433300 1 0 1.000000 
0 5.380999 28.012100 0.338500 0.750776 -0.645180 0.141696 0.131000 -0.480100 1 0 1.000000 
0 2.721699 24.901600 0.264300 0.750776 -0.645180 0.141696 0.135700 -0.433300 1 0 1.000000 
prison_objects002
0 2.446800 -7.619600 -0.857000 0.638295 -0.766594 -0.070099 0.155700 -0.529400 1 0 1.000000 
0 3.633500 -6.631300 -0.857000 0.638295 -0.766594 -0.070099 0.155700 -0.507800 1 0 1.000000 
0 2.694800 -7.496900 0.060500 0.638295 -0.766594 -0.070099 0.169800 -0.525200 1 0 1.000000 
prison_objects002
0 -2.521101 10.049300 -0.214200 0.984518 0.105602 0.139903 0.133000 -0.509800 1 0 1.000000 
0 -3.149801 14.360200 0.953900 0.984518 0.105602 0.139903 0.140800 -0.548000 1 0 1.000000 
0 -2.642700 9.981100 0.692500 0.984518 0.105602 0.139903 0.140800 -0.509800 1 0 1.000000 
prison_objects002
0 -2.010799 -27.348101 -0.857000 -0.938230 -0.346011 0.000000 0.162700 -0.511400 1 0 1.000000 
0 -0.649199 -31.040300 -0.206300 -0.938230 -0.346011 0.000000 0.155300 -0.465900 1 0 1.000000 
0 -2.010799 -27.348101 -0.206300 -0.938230 -0.346011 0.000000 0.154900 -0.511300 1 0 1.000000 
prison_objects002
0 7.442499 19.803400 -0.380400 0.133999 0.087699 0.987093 0.024000 -0.016800 1 0 1.000000 
0 10.291799 20.812700 -0.857000 0.133999 0.087699 0.987093 0.013600 -0.037000 1 0 1.000000 
0 4.625199 22.043501 -0.196700 0.133999 0.087699 0.987093 0.050900 -0.012300 1 0 1.000000 
prison_objects002
0 2.912301 -27.276501 -0.857000 0.994237 0.107204 0.000000 0.162700 -0.506600 1 0 1.000000 
0 2.476701 -23.236799 -0.764000 0.994237 0.107204 0.000000 0.161200 -0.555000 1 0 1.000000 
0 2.912301 -27.276501 -0.206300 0.994237 0.107204 0.000000 0.154900 -0.506500 1 0 1.000000 
prison_objects002
0 7.442499 19.803400 -0.380400 -0.067802 -0.262910 -0.962435 0.024500 -0.018900 1 0 1.000000 
0 4.925799 22.197500 -0.857000 -0.067802 -0.262910 -0.962435 0.050300 -0.014800 1 0 1.000000 
0 10.291799 20.812700 -0.857000 -0.067802 -0.262910 -0.962435 0.015200 -0.038000 1 0 1.000000 
prison_objects002
0 -10.198599 -20.448700 -0.187000 -0.163798 -0.020100 0.986289 0.063100 -0.056700 1 0 1.000000 
0 -11.673499 -19.367399 -0.409900 -0.163798 -0.020100 0.986289 0.042500 -0.073300 1 0 1.000000 
0 -11.154999 -20.385799 -0.344500 -0.163798 -0.020100 0.986289 0.060100 -0.072400 1 0 1.000000 
prison_objects002
0 -4.887500 -5.042500 -0.857000 0.861002 0.508601 0.000000 0.166900 -0.521100 1 0 1.000000 
0 -7.129900 -1.246600 -0.857000 0.861002 0.508601 0.000000 0.167300 -0.572800 1 0 1.000000 
0 -4.887500 -5.042500 -0.192200 0.861002 0.508601 0.000000 0.159100 -0.521200 1 0 1.000000 
prison_objects002
0 -0.718700 1.049700 0.156800 -0.098097 -0.096697 0.990468 0.146900 -0.041300 1 0 1.000000 
0 -5.209900 4.425400 0.041500 -0.098097 -0.096697 0.990468 0.119200 -0.085700 1 0 1.000000 
0 -7.613200 1.370500 -0.494700 -0.098097 -0.096697 0.990468 0.145500 -0.109200 1 0 1.000000 
prison_objects002
0 -2.222300 -11.436600 -0.857000 0.995186 0.097999 0.000000 0.157500 -0.552700 1 0 1.000000 
0 -2.676500 -6.825200 -0.857000 0.995186 0.097999 0.000000 0.157500 -0.521000 1 0 1.000000 
0 -2.676500 -6.825200 -0.192200 0.995186 0.097999 0.000000 0.167600 -0.521000 1 0 1.000000 
prison_objects002
0 -0.718700 1.049700 0.156800 0.569008 0.767210 0.296004 0.143800 -0.453700 1 0 1.000000 
0 -4.946700 4.575000 -0.852400 0.569008 0.767210 0.296004 0.143800 -0.515200 1 0 1.000000 
0 -5.209900 4.425400 0.041500 0.569008 0.767210 0.296004 0.154200 -0.515200 1 0 1.000000 
prison_objects002
0 -8.628499 -19.233999 -0.044700 -0.045701 0.998832 0.015700 0.046400 -0.028300 1 0 1.000000 
0 -8.499999 -19.218201 -0.674800 -0.045701 0.998832 0.015700 0.023900 -0.010700 1 0 1.000000 
0 -11.673499 -19.367399 -0.409900 -0.045701 0.998832 0.015700 0.042500 -0.073300 1 0 1.000000 
prison_objects002
0 1.656999 10.653300 -0.692300 0.957628 0.288008 0.000000 0.149600 -0.494900 1 0 1.000000 
0 1.170799 12.270100 -0.692300 0.957628 0.288008 0.000000 0.149600 -0.504100 1 0 1.000000 
0 1.170799 12.270100 -0.104200 0.957628 0.288008 0.000000 0.155700 -0.504100 1 0 1.000000 
prison_objects002
0 -11.026499 -20.370001 -1.117900 0.434394 -0.778989 -0.452193 0.156600 -0.564200 1 0 1.000000 
0 -8.499999 -19.218201 -0.674800 0.434394 -0.778989 -0.452193 0.156600 -0.510500 1 0 1.000000 
0 -10.198599 -20.448700 -0.187000 0.434394 -0.778989 -0.452193 0.164500 -0.545100 1 0 1.000000 
prison_objects002
0 3.642900 7.538800 -0.958200 -0.238002 -0.954907 0.177501 0.137200 -0.547800 1 0 1.000000 
0 5.646399 7.259400 0.225500 -0.238002 -0.954907 0.177501 0.153000 -0.568000 1 0 1.000000 
0 4.018799 7.665100 0.225500 -0.238002 -0.954907 0.177501 0.153000 -0.549600 1 0 1.000000 
prison_objects002
0 1.170799 12.270100 -0.104200 0.337089 -0.230693 0.912771 0.117100 -0.042400 1 0 1.000000 
0 -1.794100 7.937600 -0.104200 0.337089 -0.230693 0.912771 0.154100 -0.017300 1 0 1.000000 
0 1.656999 10.653300 -0.692300 0.337089 -0.230693 0.912771 0.118300 -0.028100 1 0 1.000000 
prison_objects002
0 3.736699 23.456301 0.059000 -0.422493 0.725489 0.543291 0.137200 -0.547800 1 0 1.000000 
0 1.818699 22.136700 0.329700 -0.422493 0.725489 0.543291 0.153000 -0.568000 1 0 1.000000 
0 3.332199 22.606600 0.879200 -0.422493 0.725489 0.543291 0.153000 -0.549600 1 0 1.000000 
prison_objects002
0 4.935499 20.702900 -1.291900 0.943020 -0.287906 0.166804 0.135700 -0.560300 1 0 1.000000 
0 5.326299 22.679899 -0.089600 0.943020 -0.287906 0.166804 0.135700 -0.530200 1 0 1.000000 
0 4.921799 21.830200 0.730700 0.943020 -0.287906 0.166804 0.150600 -0.535400 1 0 1.000000 
prison_objects002
0 2.325201 -9.608700 -0.749800 0.816523 0.411012 0.405412 0.163900 -0.530900 1 0 1.000000 
0 0.446300 -6.373300 -0.245300 0.816523 0.411012 0.405412 0.162900 -0.554300 1 0 1.000000 
0 2.029201 -9.900300 0.142100 0.816523 0.411012 0.405412 0.156100 -0.530600 1 0 1.000000 
prison_objects002
0 4.566999 10.699400 -0.958200 -0.667590 0.732389 0.133898 0.135700 -0.560300 1 0 1.000000 
0 2.832700 9.118500 -0.958200 -0.667590 0.732389 0.133898 0.135700 -0.530200 1 0 1.000000 
0 3.208699 9.244800 0.225500 -0.667590 0.732389 0.133898 0.150600 -0.535400 1 0 1.000000 
prison_objects002
0 0.722099 24.140499 0.193200 -0.089801 0.143901 0.985509 0.107200 -0.075500 1 0 1.000000 
0 2.721699 24.901600 0.264300 -0.089801 0.143901 0.985509 0.112000 -0.094600 1 0 1.000000 
0 -4.682901 27.910601 -0.849400 -0.089801 0.143901 0.985509 0.148300 -0.028700 1 0 1.000000 
prison_objects002
0 -5.214799 -20.018299 -1.023700 -0.192602 -0.151502 0.969511 0.051900 -0.154600 1 0 1.000000 
0 -7.538199 -13.080100 -0.401000 -0.192602 -0.151502 0.969511 0.012100 -0.100100 1 0 1.000000 
0 -7.038299 -21.301500 -1.586500 -0.192602 -0.151502 0.969511 0.043400 -0.157100 1 0 1.000000 
prison_objects002
0 -0.529100 6.010400 0.320200 0.878315 0.453308 0.151903 0.140800 -0.470400 1 0 1.000000 
0 -2.521101 10.049300 -0.214200 0.878315 0.453308 0.151903 0.133000 -0.509800 1 0 1.000000 
0 -2.642700 9.981100 0.692500 0.878315 0.453308 0.151903 0.140800 -0.509800 1 0 1.000000 
prison_objects002
0 -5.214799 -20.018299 -1.023700 0.260890 0.052098 -0.963962 0.052200 -0.141400 1 0 1.000000 
0 -7.038299 -21.301500 -1.586500 0.260890 0.052098 -0.963962 0.043400 -0.157100 1 0 1.000000 
0 -7.720500 -12.947400 -1.320100 0.260890 0.052098 -0.963962 0.012100 -0.100100 1 0 1.000000 
prison_objects002
0 0.446300 -6.373300 -0.245300 0.633803 0.616303 0.467402 0.162900 -0.554300 1 0 1.000000 
0 -3.114500 -3.093800 0.259100 0.633803 0.616303 0.467402 0.162100 -0.573100 1 0 1.000000 
0 -3.151500 -3.695700 1.103000 0.633803 0.616303 0.467402 0.154300 -0.572800 1 0 1.000000 
prison_objects002
0 -7.720500 -12.947400 -1.320100 -0.979568 -0.085797 0.181894 0.166000 -0.483000 1 0 1.000000 
0 -7.038299 -21.301500 -1.586500 -0.979568 -0.085797 0.181894 0.160100 -0.415300 1 0 1.000000 
0 -7.538199 -13.080100 -0.401000 -0.979568 -0.085797 0.181894 0.158200 -0.482600 1 0 1.000000 
prison_objects002
0 5.791199 29.208000 -0.857000 0.548279 0.810069 0.207792 0.125100 -0.506100 1 0 1.000000 
0 3.357299 30.620199 0.060500 0.548279 0.810069 0.207792 0.132900 -0.472500 1 0 1.000000 
0 5.829799 28.999201 -0.144700 0.548279 0.810069 0.207792 0.131100 -0.506600 1 0 1.000000 
prison_objects002
0 1.191001 -29.253300 -0.595200 -0.029100 -0.183903 -0.982513 0.135100 -0.039300 1 0 1.000000 
0 -0.649199 -31.040300 -0.206300 -0.029100 -0.183903 -0.982513 0.154600 -0.060400 1 0 1.000000 
0 -2.010799 -27.348101 -0.857000 -0.029100 -0.183903 -0.982513 0.108900 -0.075100 1 0 1.000000 
prison_objects002
0 9.080099 29.554199 -0.568000 -0.125105 0.950235 0.285310 0.127500 -0.551500 1 0 1.000000 
0 5.791199 29.208000 -0.857000 -0.125105 0.950235 0.285310 0.125100 -0.506100 1 0 1.000000 
0 5.829799 28.999201 -0.144700 -0.125105 0.950235 0.285310 0.131100 -0.506600 1 0 1.000000 
prison_objects002
0 3.633500 -6.631300 -0.857000 0.723723 -0.055902 0.687822 0.164400 -0.510800 1 0 1.000000 
0 3.282000 -3.618900 -0.242300 0.723723 -0.055902 0.687822 0.157700 -0.555400 1 0 1.000000 
0 2.694800 -7.496900 0.060500 0.723723 -0.055902 0.687822 0.155400 -0.511300 1 0 1.000000 
prison_objects002
0 4.828199 17.522800 -0.104200 0.705304 0.708905 0.000000 0.165000 -0.550700 1 0 1.000000 
0 3.341199 19.002199 -0.857000 0.705304 0.708905 0.000000 0.158600 -0.574500 1 0 1.000000 
0 3.341199 19.002199 0.060500 0.705304 0.708905 0.000000 0.166400 -0.574500 1 0 1.000000 
prison_objects002
0 2.030600 3.331700 0.060500 -0.142694 0.003700 0.989760 0.156100 -0.136000 1 0 1.000000 
0 -2.914500 1.403700 -0.645100 -0.142694 0.003700 0.989760 0.174000 -0.091800 1 0 1.000000 
0 1.896900 -1.801000 0.060500 -0.142694 0.003700 0.989760 0.120300 -0.110900 1 0 1.000000 
prison_objects002
0 2.030600 3.331700 -0.857000 -0.363291 0.931676 0.000000 0.134900 -0.457200 1 0 1.000000 
0 -2.914500 1.403700 -0.645100 -0.363291 0.931676 0.000000 0.136700 -0.413100 1 0 1.000000 
0 2.030600 3.331700 0.060500 -0.363291 0.931676 0.000000 0.142700 -0.457200 1 0 1.000000 
prison_objects002
0 -0.424099 -14.380200 0.186500 -0.221394 0.464087 0.857676 0.085900 -0.010000 1 0 1.000000 
0 -1.723099 -14.272400 -0.207200 -0.221394 0.464087 0.857676 0.077800 -0.003100 1 0 1.000000 
0 -3.456899 -16.590200 0.599700 -0.221394 0.464087 0.857676 0.053800 -0.010700 1 0 1.000000 
prison_objects002
0 5.791199 29.208000 -0.857000 0.540804 0.824806 0.165001 0.125100 -0.506100 1 0 1.000000 
0 3.145699 30.942400 -0.857000 0.540804 0.824806 0.165001 0.125100 -0.469600 1 0 1.000000 
0 3.357299 30.620199 0.060500 0.540804 0.824806 0.165001 0.132900 -0.472500 1 0 1.000000 
prison_objects002
0 0.446300 -6.373300 -0.245300 0.534585 0.325591 0.779878 0.162900 -0.554300 1 0 1.000000 
0 -3.151500 -3.695700 1.103000 0.534585 0.325591 0.779878 0.154300 -0.572800 1 0 1.000000 
0 2.029201 -9.900300 0.142100 0.534585 0.325591 0.779878 0.156100 -0.530600 1 0 1.000000 
prison_objects002
0 -5.214799 -20.018299 -1.023700 0.748389 -0.656290 0.095899 0.156500 -0.430000 1 0 1.000000 
0 1.986900 -11.816300 -1.100800 0.748389 -0.656290 0.095899 0.164800 -0.511700 1 0 1.000000 
0 1.707000 -12.002900 -0.192100 0.748389 -0.656290 0.095899 0.157000 -0.511400 1 0 1.000000 
prison_objects002
0 -3.441900 -5.166500 -0.468500 0.452319 -0.784233 0.424718 0.138200 -0.378400 1 0 1.000000 
0 3.960200 -1.107900 -0.857000 0.452319 -0.784233 0.424718 0.134900 -0.450100 1 0 1.000000 
0 1.896900 -1.801000 0.060500 0.452319 -0.784233 0.424718 0.142700 -0.432200 1 0 1.000000 
prison_objects002
0 -2.764501 22.887501 -1.512700 -0.931758 -0.300086 -0.204391 0.138700 -0.465400 1 0 1.000000 
0 -2.266901 21.298800 -1.448900 -0.931758 -0.300086 -0.204391 0.138000 -0.446300 1 0 1.000000 
0 -2.953801 22.864201 -0.615300 -0.931758 -0.300086 -0.204391 0.146500 -0.465100 1 0 1.000000 
prison_objects002
0 -8.573800 -1.496300 -0.192200 0.340105 0.353506 0.871414 0.028400 -0.150800 1 0 1.000000 
0 -4.887500 -5.042500 -0.192200 0.340105 0.353506 0.871414 0.062700 -0.113200 1 0 1.000000 
0 -7.129900 -1.246600 -0.857000 0.340105 0.353506 0.871414 0.025500 -0.136500 1 0 1.000000 
prison_objects002
0 2.603600 -2.787400 -0.857000 0.041302 0.615526 0.787033 0.008800 -0.123700 1 0 1.000000 
0 0.421500 -3.814000 0.060500 0.041302 0.615526 0.787033 0.015100 -0.154800 1 0 1.000000 
0 3.282000 -3.618900 -0.242300 0.041302 0.615526 0.787033 0.023300 -0.113300 1 0 1.000000 
prison_objects002
0 2.476701 -23.236799 -0.764000 -0.098802 0.269505 -0.957917 0.065200 -0.017200 1 0 1.000000 
0 -1.723499 -25.106899 -0.857000 -0.098802 0.269505 -0.957917 0.082600 -0.069200 1 0 1.000000 
0 0.711901 -22.232000 -0.299200 -0.098802 0.269505 -0.957917 0.051300 -0.037000 1 0 1.000000 
prison_objects002
0 -4.946700 4.575000 -0.852400 0.136104 0.026801 -0.990332 0.119200 -0.085700 1 0 1.000000 
0 -8.256700 3.550299 -1.334900 0.136104 0.026801 -0.990332 0.124800 -0.116100 1 0 1.000000 
0 -7.666400 5.217999 -1.208800 0.136104 0.026801 -0.990332 0.108100 -0.110600 1 0 1.000000 
prison_objects002
0 2.912301 -27.276501 -0.206300 0.337695 0.164398 0.926787 0.113600 -0.016600 1 0 1.000000 
0 2.476701 -23.236799 -0.764000 0.337695 0.164398 0.926787 0.065200 -0.017200 1 0 1.000000 
0 0.711901 -22.232000 -0.299200 0.337695 0.164398 0.926787 0.051300 -0.037000 1 0 1.000000 
prison_objects002
0 -4.946700 4.575000 -0.852400 0.197391 0.955758 0.218090 0.143800 -0.515200 1 0 1.000000 
0 -7.666400 5.217999 -1.208800 0.197391 0.955758 0.218090 0.143800 -0.544500 1 0 1.000000 
0 -5.209900 4.425400 0.041500 0.197391 0.955758 0.218090 0.154200 -0.515200 1 0 1.000000 
prison_objects002
0 11.490199 26.219500 -0.130000 0.066300 0.176899 0.981993 0.039600 -0.072100 1 0 1.000000 
0 11.157299 28.775200 -0.568000 0.066300 0.176899 0.981993 0.056000 -0.082000 1 0 1.000000 
0 9.080099 29.554199 -0.568000 0.066300 0.176899 0.981993 0.070200 -0.073300 1 0 1.000000 
prison_objects002
0 1.818699 22.136700 0.329700 -0.160006 -0.663324 0.731026 0.089600 -0.055000 1 0 1.000000 
0 1.487099 21.153299 -0.635200 -0.160006 -0.663324 0.731026 0.100500 -0.069900 1 0 1.000000 
0 4.921799 21.830200 0.730700 -0.160006 -0.663324 0.731026 0.116000 -0.022700 1 0 1.000000 
prison_objects002
0 -0.718700 1.049700 0.156800 -0.103300 -0.580198 0.807898 0.146900 -0.041300 1 0 1.000000 
0 -7.613200 1.370500 -0.494700 -0.103300 -0.580198 0.807898 0.145500 -0.109200 1 0 1.000000 
0 -5.649800 0.617800 -0.784200 -0.103300 -0.580198 0.807898 0.156600 -0.046900 1 0 1.000000 
prison_objects002
0 5.646399 7.259400 0.225500 0.134698 0.165397 0.976985 0.089600 -0.055000 1 0 1.000000 
0 6.767700 8.074900 -0.067100 0.134698 0.165397 0.976985 0.100500 -0.069900 1 0 1.000000 
0 3.208699 9.244800 0.225500 0.134698 0.165397 0.976985 0.116000 -0.022700 1 0 1.000000 
prison_objects002
0 -8.256700 3.550299 -1.334900 -0.893939 -0.364416 -0.260911 0.146100 -0.552200 1 0 1.000000 
0 -7.406900 1.365100 -1.194200 -0.893939 -0.364416 -0.260911 0.164000 -0.552200 1 0 1.000000 
0 -7.613200 1.370500 -0.494700 -0.893939 -0.364416 -0.260911 0.164000 -0.544400 1 0 1.000000 
prison_objects002
0 5.380999 28.012100 0.338500 0.860108 0.471904 0.193702 0.140400 -0.513100 1 0 1.000000 
0 3.279799 31.981701 -0.002000 0.860108 0.471904 0.193702 0.142100 -0.562100 1 0 1.000000 
0 3.090499 31.958401 0.895400 0.860108 0.471904 0.193702 0.149900 -0.561800 1 0 1.000000 
prison_objects002
0 -1.573100 -0.381100 0.658500 0.360013 0.115804 0.925732 0.079300 -0.075200 1 0 1.000000 
0 0.992100 -3.117300 0.003200 0.360013 0.115804 0.925732 0.104000 -0.050500 1 0 1.000000 
0 0.351600 -1.125800 0.003200 0.360013 0.115804 0.925732 0.085800 -0.057000 1 0 1.000000 
prison_objects002
0 1.983099 26.784599 -0.857000 -0.750082 -0.481189 -0.453689 0.169800 -0.479200 1 0 1.000000 
0 4.925799 22.197500 -0.857000 -0.750082 -0.481189 -0.453689 0.167600 -0.542400 1 0 1.000000 
0 4.625199 22.043501 -0.196700 -0.750082 -0.481189 -0.453689 0.161900 -0.544300 1 0 1.000000 
prison_objects002
0 -1.573100 -0.381100 0.003200 -0.395813 0.918331 0.000000 0.155600 -0.529800 1 0 1.000000 
0 -3.710800 -1.302400 0.658500 -0.395813 0.918331 0.000000 0.165500 -0.552700 1 0 1.000000 
0 -1.573100 -0.381100 0.658500 -0.395813 0.918331 0.000000 0.165500 -0.529800 1 0 1.000000 
prison_objects002
0 4.925799 22.197500 -0.857000 -0.579914 -0.694417 -0.426010 0.167600 -0.542400 1 0 1.000000 
0 7.442499 19.803400 -0.380400 -0.579914 -0.694417 -0.426010 0.162400 -0.575300 1 0 1.000000 
0 4.625199 22.043501 -0.196700 -0.579914 -0.694417 -0.426010 0.161900 -0.544300 1 0 1.000000 
prison_objects002
0 -8.289199 -29.226700 0.060500 0.180200 0.025500 0.983299 0.061600 -0.069900 1 0 1.000000 
0 -4.231899 -22.520599 -0.857000 0.180200 0.025500 0.983299 0.016200 -0.020900 1 0 1.000000 
0 -9.142299 -23.199301 0.060500 0.180200 0.025500 0.983299 0.010300 -0.062700 1 0 1.000000 
prison_objects002
0 -2.521101 10.049300 -0.214200 0.749513 0.272705 -0.603210 0.133000 -0.509800 1 0 1.000000 
0 -4.356700 16.347500 0.352800 0.749513 0.272705 -0.603210 0.133000 -0.568300 1 0 1.000000 
0 -3.149801 14.360200 0.953900 0.749513 0.272705 -0.603210 0.140800 -0.548000 1 0 1.000000 
prison_objects002
0 1.983099 26.784599 -0.857000 -0.810178 -0.495186 -0.313691 0.169800 -0.479200 1 0 1.000000 
0 4.625199 22.043501 -0.196700 -0.810178 -0.495186 -0.313691 0.161900 -0.544300 1 0 1.000000 
0 1.692199 26.679399 0.060500 -0.810178 -0.495186 -0.313691 0.161900 -0.480300 1 0 1.000000 
prison_objects002
0 -6.258601 16.869400 0.725900 0.286409 0.432514 0.854928 0.141400 -0.081300 1 0 1.000000 
0 -3.149801 14.360200 0.953900 0.286409 0.432514 0.854928 0.106000 -0.081700 1 0 1.000000 
0 -4.356700 16.347500 0.352800 0.286409 0.432514 0.854928 0.124500 -0.090400 1 0 1.000000 
prison_objects002
0 1.290699 30.419701 -0.857000 -0.932036 -0.177507 -0.315912 0.171500 -0.429100 1 0 1.000000 
0 1.983099 26.784599 -0.857000 -0.932036 -0.177507 -0.315912 0.169800 -0.479200 1 0 1.000000 
0 1.692199 26.679399 0.060500 -0.932036 -0.177507 -0.315912 0.161900 -0.480300 1 0 1.000000 
prison_objects002
0 -1.573100 -0.381100 0.658500 0.305611 0.058902 0.950333 0.079300 -0.075200 1 0 1.000000 
0 -0.841100 -4.180300 0.658500 0.305611 0.058902 0.950333 0.114400 -0.067400 1 0 1.000000 
0 0.992100 -3.117300 0.003200 0.305611 0.058902 0.950333 0.104000 -0.050500 1 0 1.000000 
prison_objects002
0 2.603600 -2.787400 -0.857000 -0.423325 0.905952 0.006800 0.155700 -0.507800 1 0 1.000000 
0 0.169200 -3.925000 -0.857000 -0.423325 0.905952 0.006800 0.155700 -0.548600 1 0 1.000000 
0 0.421500 -3.814000 0.060500 -0.423325 0.905952 0.006800 0.169800 -0.544400 1 0 1.000000 
prison_objects002
0 0.169200 -3.925000 -0.857000 -0.815860 -0.502975 0.285286 0.167100 -0.562400 1 0 1.000000 
0 2.446800 -7.619600 -0.857000 -0.815860 -0.502975 0.285286 0.163900 -0.501200 1 0 1.000000 
0 0.421500 -3.814000 0.060500 -0.815860 -0.502975 0.285286 0.153600 -0.563700 1 0 1.000000 
prison_objects002
0 2.446800 -7.619600 -0.857000 -0.815860 -0.502975 0.285286 0.163900 -0.501200 1 0 1.000000 
0 2.694800 -7.496900 0.060500 -0.815004 -0.503102 0.287501 0.150400 -0.502700 1 0 1.000000 
0 0.421500 -3.814000 0.060500 -0.815860 -0.502975 0.285286 0.153600 -0.563700 1 0 1.000000 
end
