version 1
nodes
  0 "static_prop" -1
end
skeleton
time 0
0 0.000000 0.000000 0.000000 0.000000 0.000000 0.000000
end
triangles
Building_Skybridge_Template001a
0 -3.956501 34.481300 34.728600 -1.000000 -0.000000 0.000000 0.764000 -0.232200 1 0 1.000000 
0 -3.956502 36.453300 31.277700 -1.000000 -0.000000 0.000000 0.779400 -0.259200 1 0 1.000000 
0 -3.956501 33.824001 32.592300 -1.000000 -0.000000 0.000000 0.758900 -0.248900 1 0 1.000000 
Building_Skybridge_Template001a
0 -3.956501 34.481300 34.728600 -1.000000 -0.000000 0.000000 0.764000 -0.232200 1 0 1.000000 
0 -3.956501 34.481300 36.207600 -1.000000 -0.000000 0.000000 0.764000 -0.220600 1 0 1.000000 
0 -3.956502 35.960300 37.522202 -1.000000 -0.000000 0.000000 0.775600 -0.210400 1 0 1.000000 
Building_Skybridge_Template001a
0 -3.956501 34.481300 34.728600 -1.000000 -0.000000 0.000000 0.764000 -0.232200 1 0 1.000000 
0 -3.956502 35.960300 37.522202 -1.000000 -0.000000 0.000000 0.775600 -0.210400 1 0 1.000000 
0 -3.956502 36.453300 31.277700 -1.000000 -0.000000 0.000000 0.779400 -0.259200 1 0 1.000000 
Building_Skybridge_Template001a
0 -3.956502 35.960300 37.522202 -1.000000 -0.000000 0.000000 0.775600 -0.210400 1 0 1.000000 
0 -3.956502 37.213402 39.168301 -1.000000 -0.000000 0.000000 0.785400 -0.197500 1 0 1.000000 
0 -3.956502 36.453300 31.277700 -1.000000 -0.000000 0.000000 0.779400 -0.259200 1 0 1.000000 
Building_Skybridge_Template001a
0 -3.956502 45.971500 43.035000 -1.000000 -0.000000 0.000000 0.853800 -0.167300 1 0 1.000000 
0 -3.956502 36.453300 31.277700 -1.000000 -0.000000 0.000000 0.779400 -0.259200 1 0 1.000000 
0 -3.956502 37.213402 39.168301 -1.000000 -0.000000 0.000000 0.785400 -0.197500 1 0 1.000000 
Building_Skybridge_Template001a
0 -3.956502 39.411201 28.977100 -1.000000 -0.000000 0.000000 0.802500 -0.277100 1 0 1.000000 
0 -3.956502 36.453300 31.277700 -1.000000 -0.000000 0.000000 0.779400 -0.259200 1 0 1.000000 
0 -3.956502 45.971500 43.035000 -1.000000 -0.000000 0.000000 0.853800 -0.167300 1 0 1.000000 
Building_Skybridge_Template001a
0 -3.956502 45.971500 43.035000 -1.000000 -0.000000 0.000000 0.853800 -0.167300 1 0 1.000000 
0 -3.956502 46.410999 41.584702 -1.000000 -0.000000 0.000000 0.857200 -0.178600 1 0 1.000000 
0 -3.956502 39.411201 28.977100 -1.000000 -0.000000 0.000000 0.802500 -0.277100 1 0 1.000000 
Building_Skybridge_Template001a
0 -3.956502 47.493401 40.497002 -1.000000 -0.000000 0.000000 0.865700 -0.187100 1 0 1.000000 
0 -3.956502 39.411201 28.977100 -1.000000 -0.000000 0.000000 0.802500 -0.277100 1 0 1.000000 
0 -3.956502 46.410999 41.584702 -1.000000 -0.000000 0.000000 0.857200 -0.178600 1 0 1.000000 
Building_Skybridge_Template001a
0 -3.956502 39.411201 28.977100 -1.000000 -0.000000 0.000000 0.802500 -0.277100 1 0 1.000000 
0 -3.956502 47.493401 40.497002 -1.000000 -0.000000 0.000000 0.865700 -0.187100 1 0 1.000000 
0 -3.956502 49.561798 38.083801 -1.000000 -0.000000 0.000000 0.881800 -0.206000 1 0 1.000000 
Building_Skybridge_Template001a
0 -3.956502 49.561798 38.083801 -1.000000 -0.000000 0.000000 0.881800 -0.206000 1 0 1.000000 
0 -3.956502 42.533401 25.197500 -1.000000 -0.000000 0.000000 0.826900 -0.306700 1 0 1.000000 
0 -3.956502 39.411201 28.977100 -1.000000 -0.000000 0.000000 0.802500 -0.277100 1 0 1.000000 
Building_Skybridge_Template001a
0 -3.956502 52.064098 37.338402 -1.000000 -0.000000 0.000000 0.901400 -0.211800 1 0 1.000000 
0 -3.956502 42.533401 25.197500 -1.000000 -0.000000 0.000000 0.826900 -0.306700 1 0 1.000000 
0 -3.956502 49.561798 38.083801 -1.000000 -0.000000 0.000000 0.881800 -0.206000 1 0 1.000000 
Building_Skybridge_Template001a
0 -3.956502 42.533401 25.197500 -1.000000 -0.000000 0.000000 0.826900 -0.306700 1 0 1.000000 
0 -3.956502 52.064098 37.338402 -1.000000 -0.000000 0.000000 0.901400 -0.211800 1 0 1.000000 
0 -3.956502 42.533401 15.830700 -1.000000 -0.000000 0.000000 0.826900 -0.379800 1 0 1.000000 
Building_Skybridge_Template001a
0 -3.956502 56.796902 33.182598 -1.000000 -0.000000 0.000000 0.938400 -0.244300 1 0 1.000000 
0 -3.956502 42.533401 15.830700 -1.000000 -0.000000 0.000000 0.826900 -0.379800 1 0 1.000000 
0 -3.956502 52.064098 37.338402 -1.000000 -0.000000 0.000000 0.901400 -0.211800 1 0 1.000000 
Building_Skybridge_Template001a
0 -3.956503 58.478600 32.433701 -1.000000 -0.000000 0.000000 0.951500 -0.250100 1 0 1.000000 
0 -3.956502 42.533401 15.830700 -1.000000 -0.000000 0.000000 0.826900 -0.379800 1 0 1.000000 
0 -3.956502 56.796902 33.182598 -1.000000 -0.000000 0.000000 0.938400 -0.244300 1 0 1.000000 
Building_Skybridge_Template001a
0 -3.956502 42.533401 15.830700 -1.000000 -0.000000 0.000000 0.826900 -0.379800 1 0 1.000000 
0 -3.956503 58.478600 32.433701 -1.000000 -0.000000 0.000000 0.951500 -0.250100 1 0 1.000000 
0 -3.956502 44.669701 13.530100 -1.000000 -0.000000 0.000000 0.843600 -0.397800 1 0 1.000000 
Building_Skybridge_Template001a
0 -3.956502 44.669701 13.530100 -1.000000 -0.000000 0.000000 0.843600 -0.397800 1 0 1.000000 
0 -3.956503 58.478600 32.433701 -1.000000 -0.000000 0.000000 0.951500 -0.250100 1 0 1.000000 
0 -3.956502 45.820000 11.558200 -1.000000 -0.000000 0.000000 0.852600 -0.413200 1 0 1.000000 
Building_Skybridge_Template001a
0 -3.956502 45.820000 11.558200 -1.000000 -0.000000 0.000000 0.852600 -0.413200 1 0 1.000000 
0 -3.956503 58.478600 32.433701 -1.000000 -0.000000 0.000000 0.951500 -0.250100 1 0 1.000000 
0 -3.956503 58.458401 15.348100 -1.000000 -0.000000 0.000000 0.951300 -0.383600 1 0 1.000000 
Building_Skybridge_Template001a
0 -3.956502 45.820000 11.558200 -1.000000 -0.000000 0.000000 0.852600 -0.413200 1 0 1.000000 
0 -3.956503 58.458401 15.348100 -1.000000 -0.000000 0.000000 0.951300 -0.383600 1 0 1.000000 
0 -3.956502 55.396500 12.644300 -1.000000 -0.000000 0.000000 0.927400 -0.404700 1 0 1.000000 
Building_Skybridge_Template001a
0 -3.956502 57.146999 13.577800 -1.000000 -0.000000 0.000000 0.941100 -0.397400 1 0 1.000000 
0 -3.956502 55.396500 12.644300 -1.000000 -0.000000 0.000000 0.927400 -0.404700 1 0 1.000000 
0 -3.956503 58.458401 15.348100 -1.000000 -0.000000 0.000000 0.951300 -0.383600 1 0 1.000000 
Building_Skybridge_Template001a
0 -3.956502 52.064098 37.338402 -1.000000 -0.000000 0.000000 0.901400 -0.211800 1 0 1.000000 
0 -3.956502 55.279800 35.283100 -1.000000 -0.000000 0.000000 0.926500 -0.227900 1 0 1.000000 
0 -3.956502 56.796902 33.182598 -1.000000 -0.000000 0.000000 0.938400 -0.244300 1 0 1.000000 
Building_Skybridge_Template001a
0 -3.956502 52.712601 12.294200 -1.000000 -0.000000 0.000000 0.906500 -0.407500 1 0 1.000000 
0 -3.956502 45.820000 11.558200 -1.000000 -0.000000 0.000000 0.852600 -0.413200 1 0 1.000000 
0 -3.956502 55.396500 12.644300 -1.000000 -0.000000 0.000000 0.927400 -0.404700 1 0 1.000000 
Building_Skybridge_Template001a
0 -3.956502 52.712601 12.294200 -1.000000 -0.000000 0.000000 0.906500 -0.407500 1 0 1.000000 
0 -3.956502 48.750099 9.938100 -1.000000 -0.000000 0.000000 0.875500 -0.425900 1 0 1.000000 
0 -3.956502 45.820000 11.558200 -1.000000 -0.000000 0.000000 0.852600 -0.413200 1 0 1.000000 
Building_Skybridge_Template001a
0 -3.956502 37.213402 39.168301 -1.000000 -0.000000 0.000000 0.785400 -0.197500 1 0 1.000000 
0 -3.956502 39.053200 42.992298 -1.000000 -0.000000 0.000000 0.799700 -0.167600 1 0 1.000000 
0 -3.956502 45.971500 43.035000 -1.000000 -0.000000 0.000000 0.853800 -0.167300 1 0 1.000000 
Building_Skybridge_Template001a
0 -3.956502 39.053200 42.992298 -1.000000 -0.000000 0.000000 0.799700 -0.167600 1 0 1.000000 
0 -3.956502 40.725800 45.410000 -1.000000 -0.000000 0.000000 0.812800 -0.148700 1 0 1.000000 
0 -3.956502 45.971500 43.035000 -1.000000 -0.000000 0.000000 0.853800 -0.167300 1 0 1.000000 
Building_Skybridge_Template001a
0 -3.956502 44.499001 44.222500 -1.000000 -0.000000 0.000000 0.842300 -0.158000 1 0 1.000000 
0 -3.956502 45.971500 43.035000 -1.000000 -0.000000 0.000000 0.853800 -0.167300 1 0 1.000000 
0 -3.956502 40.725800 45.410000 -1.000000 -0.000000 0.000000 0.812800 -0.148700 1 0 1.000000 
Building_Skybridge_Template001a
0 -3.956502 43.026402 45.410000 -1.000000 -0.000000 0.000000 0.830800 -0.148700 1 0 1.000000 
0 -3.956502 44.499001 44.222500 -1.000000 -0.000000 0.000000 0.842300 -0.158000 1 0 1.000000 
0 -3.956502 40.725800 45.410000 -1.000000 -0.000000 0.000000 0.812800 -0.148700 1 0 1.000000 
Building_Skybridge_Template001a
0 -3.956503 58.458401 15.348100 -1.000000 -0.000000 0.000000 0.951300 -0.383600 1 0 1.000000 
0 -3.956503 58.478600 32.433701 -1.000000 -0.000000 0.000000 0.951500 -0.250100 1 0 1.000000 
0 -3.956503 60.064400 16.495199 -1.000000 -0.000000 0.000000 0.963900 -0.374600 1 0 1.000000 
Building_Skybridge_Template001a
0 -3.956503 60.064400 16.495199 -1.000000 -0.000000 0.000000 0.963900 -0.374600 1 0 1.000000 
0 -3.956503 58.478600 32.433701 -1.000000 -0.000000 0.000000 0.951500 -0.250100 1 0 1.000000 
0 -3.956503 61.336800 16.842199 -1.000000 -0.000000 0.000000 0.973800 -0.371900 1 0 1.000000 
Building_Skybridge_Template001a
0 -3.956503 61.336800 16.842199 -1.000000 -0.000000 0.000000 0.973800 -0.371900 1 0 1.000000 
0 -3.956503 58.478600 32.433701 -1.000000 -0.000000 0.000000 0.951500 -0.250100 1 0 1.000000 
0 -3.956503 63.300701 18.945801 -1.000000 -0.000000 0.000000 0.989200 -0.355500 1 0 1.000000 
Building_Skybridge_Template001a
0 -3.956503 61.057701 32.443001 -1.000000 -0.000000 0.000000 0.971600 -0.250100 1 0 1.000000 
0 -3.956503 63.300701 18.945801 -1.000000 -0.000000 0.000000 0.989200 -0.355500 1 0 1.000000 
0 -3.956503 58.478600 32.433701 -1.000000 -0.000000 0.000000 0.951500 -0.250100 1 0 1.000000 
Building_Skybridge_Template001a
0 -3.956503 63.300701 18.945801 -1.000000 -0.000000 0.000000 0.989200 -0.355500 1 0 1.000000 
0 -3.956503 61.057701 32.443001 -1.000000 -0.000000 0.000000 0.971600 -0.250100 1 0 1.000000 
0 -3.956503 64.553596 31.277700 -1.000000 -0.000000 0.000000 0.999000 -0.259200 1 0 1.000000 
Building_Skybridge_Template001a
0 -3.956503 64.553596 31.277700 -1.000000 -0.000000 0.000000 0.999000 -0.259200 1 0 1.000000 
0 -3.956503 64.553596 23.984600 -1.000000 -0.000000 0.000000 0.999000 -0.316100 1 0 1.000000 
0 -3.956503 63.300701 18.945801 -1.000000 -0.000000 0.000000 0.989200 -0.355500 1 0 1.000000 
Building_Skybridge_Template001a
0 4.043497 64.553596 14.351800 1.000000 0.000000 0.000000 0.999000 -0.391400 1 0 1.000000 
0 4.043497 64.553596 29.276699 1.000000 0.000000 0.000000 0.999000 -0.274800 1 0 1.000000 
0 4.043498 59.779099 29.898600 1.000000 0.000000 0.000000 0.961700 -0.269900 1 0 1.000000 
Building_Skybridge_Template001a
0 4.043499 33.879902 32.564400 1.000000 0.000000 0.000000 0.759300 -0.249100 1 0 1.000000 
0 4.043499 36.453300 31.277700 1.000000 0.000000 0.000000 0.779400 -0.259200 1 0 1.000000 
0 4.043498 39.409302 32.468800 1.000000 0.000000 0.000000 0.802500 -0.249900 1 0 1.000000 
Building_Skybridge_Template001a
0 4.043498 39.411201 28.977100 1.000000 0.000000 0.000000 0.802500 -0.277100 1 0 1.000000 
0 4.043498 39.409302 32.468800 1.000000 0.000000 0.000000 0.802500 -0.249900 1 0 1.000000 
0 4.043499 36.453300 31.277700 1.000000 0.000000 0.000000 0.779400 -0.259200 1 0 1.000000 
Building_Skybridge_Template001a
0 4.043498 39.411201 28.977100 1.000000 0.000000 0.000000 0.802500 -0.277100 1 0 1.000000 
0 4.043498 42.420200 33.532700 1.000000 0.000000 0.000000 0.826000 -0.241500 1 0 1.000000 
0 4.043498 39.409302 32.468800 1.000000 0.000000 0.000000 0.802500 -0.249900 1 0 1.000000 
Building_Skybridge_Template001a
0 4.043498 45.010700 33.532700 1.000000 0.000000 0.000000 0.846300 -0.241500 1 0 1.000000 
0 4.043498 42.420200 33.532700 1.000000 0.000000 0.000000 0.826000 -0.241500 1 0 1.000000 
0 4.043498 39.411201 28.977100 1.000000 0.000000 0.000000 0.802500 -0.277100 1 0 1.000000 
Building_Skybridge_Template001a
0 4.043498 39.411201 28.977100 1.000000 0.000000 0.000000 0.802500 -0.277100 1 0 1.000000 
0 4.043498 42.533401 25.197500 1.000000 0.000000 0.000000 0.826900 -0.306700 1 0 1.000000 
0 4.043498 45.010700 33.532700 1.000000 0.000000 0.000000 0.846300 -0.241500 1 0 1.000000 
Building_Skybridge_Template001a
0 4.043498 42.533401 25.197500 1.000000 0.000000 0.000000 0.826900 -0.306700 1 0 1.000000 
0 4.043498 48.511501 30.965401 1.000000 0.000000 0.000000 0.873600 -0.261600 1 0 1.000000 
0 4.043498 45.010700 33.532700 1.000000 0.000000 0.000000 0.846300 -0.241500 1 0 1.000000 
Building_Skybridge_Template001a
0 4.043498 42.533401 25.197500 1.000000 0.000000 0.000000 0.826900 -0.306700 1 0 1.000000 
0 4.043498 42.676601 15.783000 1.000000 0.000000 0.000000 0.828000 -0.380200 1 0 1.000000 
0 4.043498 48.511501 30.965401 1.000000 0.000000 0.000000 0.873600 -0.261600 1 0 1.000000 
Building_Skybridge_Template001a
0 4.043498 47.577999 16.261801 1.000000 0.000000 0.000000 0.866300 -0.376500 1 0 1.000000 
0 4.043498 48.511501 30.965401 1.000000 0.000000 0.000000 0.873600 -0.261600 1 0 1.000000 
0 4.043498 42.676601 15.783000 1.000000 0.000000 0.000000 0.828000 -0.380200 1 0 1.000000 
Building_Skybridge_Template001a
0 4.043498 53.179401 30.381901 1.000000 0.000000 0.000000 0.910100 -0.266200 1 0 1.000000 
0 4.043498 48.511501 30.965401 1.000000 0.000000 0.000000 0.873600 -0.261600 1 0 1.000000 
0 4.043498 47.577999 16.261801 1.000000 0.000000 0.000000 0.866300 -0.376500 1 0 1.000000 
Building_Skybridge_Template001a
0 4.043498 47.577999 16.261801 1.000000 0.000000 0.000000 0.866300 -0.376500 1 0 1.000000 
0 4.043498 56.658901 31.060400 1.000000 0.000000 0.000000 0.937300 -0.260900 1 0 1.000000 
0 4.043498 53.179401 30.381901 1.000000 0.000000 0.000000 0.910100 -0.266200 1 0 1.000000 
Building_Skybridge_Template001a
0 4.043498 56.658901 31.060400 1.000000 0.000000 0.000000 0.937300 -0.260900 1 0 1.000000 
0 4.043498 47.577999 16.261801 1.000000 0.000000 0.000000 0.866300 -0.376500 1 0 1.000000 
0 4.043498 50.145302 14.861500 1.000000 0.000000 0.000000 0.886400 -0.387400 1 0 1.000000 
Building_Skybridge_Template001a
0 4.043498 56.658901 31.060400 1.000000 0.000000 0.000000 0.937300 -0.260900 1 0 1.000000 
0 4.043498 50.145302 14.861500 1.000000 0.000000 0.000000 0.886400 -0.387400 1 0 1.000000 
0 4.043498 52.479198 14.161300 1.000000 0.000000 0.000000 0.904600 -0.392900 1 0 1.000000 
Building_Skybridge_Template001a
0 4.043498 56.658901 31.060400 1.000000 0.000000 0.000000 0.937300 -0.260900 1 0 1.000000 
0 4.043498 52.479198 14.161300 1.000000 0.000000 0.000000 0.904600 -0.392900 1 0 1.000000 
0 4.043498 55.279900 14.861500 1.000000 0.000000 0.000000 0.926500 -0.387400 1 0 1.000000 
Building_Skybridge_Template001a
0 4.043498 55.279900 14.861500 1.000000 0.000000 0.000000 0.926500 -0.387400 1 0 1.000000 
0 4.043498 56.913601 14.861500 1.000000 0.000000 0.000000 0.939300 -0.387400 1 0 1.000000 
0 4.043498 56.658901 31.060400 1.000000 0.000000 0.000000 0.937300 -0.260900 1 0 1.000000 
Building_Skybridge_Template001a
0 4.043498 59.779099 29.898600 1.000000 0.000000 0.000000 0.961700 -0.269900 1 0 1.000000 
0 4.043498 56.658901 31.060400 1.000000 0.000000 0.000000 0.937300 -0.260900 1 0 1.000000 
0 4.043498 56.913601 14.861500 1.000000 0.000000 0.000000 0.939300 -0.387400 1 0 1.000000 
Building_Skybridge_Template001a
0 4.043498 59.480900 16.261801 1.000000 0.000000 0.000000 0.959300 -0.376500 1 0 1.000000 
0 4.043498 59.779099 29.898600 1.000000 0.000000 0.000000 0.961700 -0.269900 1 0 1.000000 
0 4.043498 56.913601 14.861500 1.000000 0.000000 0.000000 0.939300 -0.387400 1 0 1.000000 
Building_Skybridge_Template001a
0 4.043498 59.779099 29.898600 1.000000 0.000000 0.000000 0.961700 -0.269900 1 0 1.000000 
0 4.043498 59.480900 16.261801 1.000000 0.000000 0.000000 0.959300 -0.376500 1 0 1.000000 
0 4.043497 61.629398 14.718100 1.000000 0.000000 0.000000 0.976100 -0.388500 1 0 1.000000 
Building_Skybridge_Template001a
0 4.043498 59.779099 29.898600 1.000000 0.000000 0.000000 0.961700 -0.269900 1 0 1.000000 
0 4.043497 61.629398 14.718100 1.000000 0.000000 0.000000 0.976100 -0.388500 1 0 1.000000 
0 4.043497 62.631599 14.161300 1.000000 0.000000 0.000000 0.983900 -0.392900 1 0 1.000000 
Building_Skybridge_Template001a
0 4.043497 64.553596 14.351800 1.000000 0.000000 0.000000 0.999000 -0.391400 1 0 1.000000 
0 4.043498 59.779099 29.898600 1.000000 0.000000 0.000000 0.961700 -0.269900 1 0 1.000000 
0 4.043497 62.631599 14.161300 1.000000 0.000000 0.000000 0.983900 -0.392900 1 0 1.000000 
Building_Skybridge_Template001a
0 4.043497 63.216000 13.311400 1.000000 0.000000 0.000000 0.988500 -0.399500 1 0 1.000000 
0 4.043497 64.553596 14.351800 1.000000 0.000000 0.000000 0.999000 -0.391400 1 0 1.000000 
0 4.043497 62.631599 14.161300 1.000000 0.000000 0.000000 0.983900 -0.392900 1 0 1.000000 
Building_Skybridge_Template001a
0 -3.956502 42.533401 25.197500 0.009300 -0.985330 -0.170405 0.914800 -0.774200 1 0 1.000000 
0 -3.956502 42.533401 15.830700 0.017901 -0.999840 0.000000 0.914800 -0.839100 1 0 1.000000 
0 0.043498 42.605000 15.806900 0.017901 -0.999840 0.000000 0.946000 -0.839500 1 0 1.000000 
Building_Skybridge_Template001a
0 -3.956502 42.533401 25.197500 0.009300 -0.985330 -0.170405 0.914800 -0.774200 1 0 1.000000 
0 0.043498 42.605000 15.806900 0.017901 -0.999840 0.000000 0.946000 -0.839500 1 0 1.000000 
0 4.043498 42.676601 15.783000 0.008900 -0.999931 -0.007600 0.977300 -0.839900 1 0 1.000000 
Building_Skybridge_Template001a
0 -3.956502 42.533401 25.197500 0.009300 -0.985330 -0.170405 0.914800 -0.774200 1 0 1.000000 
0 4.043498 42.676601 15.783000 0.008900 -0.999931 -0.007600 0.977300 -0.839900 1 0 1.000000 
0 4.043498 42.533401 25.197500 0.000000 -0.891873 -0.452286 0.977300 -0.774200 1 0 1.000000 
Building_Skybridge_Template001a
0 -3.956502 39.411201 28.977100 0.000000 -0.722485 -0.691386 0.914800 -0.736700 1 0 1.000000 
0 -3.956502 42.533401 25.197500 0.009300 -0.985330 -0.170405 0.914800 -0.774200 1 0 1.000000 
0 4.043498 42.533401 25.197500 0.000000 -0.891873 -0.452286 0.977300 -0.774200 1 0 1.000000 
Building_Skybridge_Template001a
0 -3.956502 39.411201 28.977100 0.000000 -0.722485 -0.691386 0.914800 -0.736700 1 0 1.000000 
0 4.043498 42.533401 25.197500 0.000000 -0.891873 -0.452286 0.977300 -0.774200 1 0 1.000000 
0 4.043498 39.411201 28.977100 0.000000 -0.669876 -0.742473 0.977300 -0.736700 1 0 1.000000 
Building_Skybridge_Template001a
0 -3.956502 36.453300 31.277700 0.000000 -0.560777 -0.827967 0.914800 -0.710100 1 0 1.000000 
0 -3.956502 39.411201 28.977100 0.000000 -0.722485 -0.691386 0.914800 -0.736700 1 0 1.000000 
0 4.043498 39.411201 28.977100 0.000000 -0.669876 -0.742473 0.977300 -0.736700 1 0 1.000000 
Building_Skybridge_Template001a
0 -3.956502 36.453300 31.277700 0.000000 -0.560777 -0.827967 0.914800 -0.710100 1 0 1.000000 
0 4.043498 39.411201 28.977100 0.000000 -0.669876 -0.742473 0.977300 -0.736700 1 0 1.000000 
0 4.043499 36.453300 31.277700 0.000000 -0.490712 -0.871322 0.977300 -0.710100 1 0 1.000000 
Building_Skybridge_Template001a
0 -3.956501 33.824001 32.592300 0.000000 -0.447214 -0.894427 0.914800 -0.691500 1 0 1.000000 
0 -3.956502 36.453300 31.277700 0.000000 -0.560777 -0.827967 0.914800 -0.710100 1 0 1.000000 
0 4.043499 36.453300 31.277700 0.000000 -0.490712 -0.871322 0.977300 -0.710100 1 0 1.000000 
Building_Skybridge_Template001a
0 4.043499 36.453300 31.277700 0.000000 -0.490712 -0.871322 0.977300 -0.710100 1 0 1.000000 
0 0.043499 33.852001 32.578300 0.000000 -0.447214 -0.894427 0.946000 -0.691700 1 0 1.000000 
0 -3.956501 33.824001 32.592300 0.000000 -0.447214 -0.894427 0.914800 -0.691500 1 0 1.000000 
Building_Skybridge_Template001a
0 4.043499 36.453300 31.277700 0.000000 -0.490712 -0.871322 0.977300 -0.710100 1 0 1.000000 
0 4.043499 33.879902 32.564400 0.000000 -0.447214 -0.894427 0.977300 -0.691900 1 0 1.000000 
0 0.043499 33.852001 32.578300 0.000000 -0.447214 -0.894427 0.946000 -0.691700 1 0 1.000000 
Building_Skybridge_Template001a
0 -3.956503 64.553596 23.984600 -0.000000 1.000000 0.000000 0.910800 -0.293900 1 0 1.000000 
0 4.043497 64.553596 14.351800 -0.000000 1.000000 0.000000 0.973300 -0.369100 1 0 1.000000 
0 -1.823603 64.553596 16.427200 -0.000000 1.000000 0.000000 0.927500 -0.352900 1 0 1.000000 
Building_Skybridge_Template001a
0 4.043497 64.553596 29.276699 -0.000000 1.000000 0.000000 0.973300 -0.252500 1 0 1.000000 
0 4.043497 64.553596 14.351800 -0.000000 1.000000 0.000000 0.973300 -0.369100 1 0 1.000000 
0 -3.956503 64.553596 23.984600 -0.000000 1.000000 0.000000 0.910800 -0.293900 1 0 1.000000 
Building_Skybridge_Template001a
0 -3.956503 64.553596 23.984600 -0.000000 1.000000 0.000000 0.910800 -0.293900 1 0 1.000000 
0 0.901797 64.553596 31.552500 -0.000000 1.000000 0.000000 0.948800 -0.234700 1 0 1.000000 
0 4.043497 64.553596 29.276699 -0.000000 1.000000 0.000000 0.973300 -0.252500 1 0 1.000000 
Building_Skybridge_Template001a
0 -3.956503 64.553596 23.984600 -0.000000 1.000000 0.000000 0.910800 -0.293900 1 0 1.000000 
0 -1.527403 64.553596 31.415100 -0.000000 1.000000 0.000000 0.929800 -0.235800 1 0 1.000000 
0 0.901797 64.553596 31.552500 -0.000000 1.000000 0.000000 0.948800 -0.234700 1 0 1.000000 
Building_Skybridge_Template001a
0 -3.956503 64.553596 23.984600 -0.000000 1.000000 0.000000 0.910800 -0.293900 1 0 1.000000 
0 -3.956503 64.553596 31.277700 -0.000000 1.000000 0.000000 0.910800 -0.236900 1 0 1.000000 
0 -1.527403 64.553596 31.415100 -0.000000 1.000000 0.000000 0.929800 -0.235800 1 0 1.000000 
plasterwall021a
0 0.901798 54.858200 37.029202 0.285202 0.228602 0.930807 0.552700 -0.918200 1 0 1.000000 
0 -0.889702 55.029202 37.536201 0.285202 0.228602 0.930807 0.551600 -0.932200 1 0 1.000000 
0 -0.889702 52.843899 38.072899 0.285202 0.228602 0.930807 0.535200 -0.932200 1 0 1.000000 
plasterwall021a
0 -3.956502 44.669701 13.530100 -0.295497 -0.825191 -0.481395 0.034200 -0.985400 1 0 1.000000 
0 -0.656002 44.102402 12.476500 -0.295497 -0.825191 -0.481395 0.034000 -0.959600 1 0 1.000000 
0 -0.656002 42.952099 14.448500 -0.295497 -0.825191 -0.481395 0.019000 -0.959600 1 0 1.000000 
plasterwall021a
0 -3.956502 44.669701 13.530100 -0.295497 -0.825191 -0.481395 0.034200 -0.985400 1 0 1.000000 
0 -3.956502 45.820000 11.558200 -0.295497 -0.825191 -0.481395 0.049200 -0.985400 1 0 1.000000 
0 -0.656002 44.102402 12.476500 -0.295497 -0.825191 -0.481395 0.034000 -0.959600 1 0 1.000000 
plasterwall021a
0 2.644598 53.933102 9.895000 0.265210 0.182107 -0.946837 0.156400 -0.951800 1 0 1.000000 
0 2.644598 49.763901 9.093200 0.265210 0.182107 -0.946837 0.124100 -0.951800 1 0 1.000000 
0 0.410498 51.848499 8.868300 0.265210 0.182107 -0.946837 0.138300 -0.969200 1 0 1.000000 
plasterwall021a
0 0.410498 51.848499 8.868300 0.265210 0.182107 -0.946837 0.138300 -0.969200 1 0 1.000000 
0 0.410498 53.959999 9.274300 0.265210 0.182107 -0.946837 0.154600 -0.969200 1 0 1.000000 
0 2.644598 53.933102 9.895000 0.265210 0.182107 -0.946837 0.156400 -0.951800 1 0 1.000000 
plasterwall021a
0 -1.823602 49.763901 9.093200 -0.265210 0.182107 -0.946837 0.124100 -0.986700 1 0 1.000000 
0 0.410498 53.959999 9.274300 -0.265210 0.182107 -0.946837 0.154600 -0.969200 1 0 1.000000 
0 0.410498 51.848499 8.868300 -0.265210 0.182107 -0.946837 0.138300 -0.969200 1 0 1.000000 
plasterwall021a
0 -1.823602 49.763901 9.093200 -0.265210 0.182107 -0.946837 0.124100 -0.986700 1 0 1.000000 
0 -1.823602 53.987000 9.905300 -0.265210 0.182107 -0.946837 0.156800 -0.986700 1 0 1.000000 
0 0.410498 53.959999 9.274300 -0.265210 0.182107 -0.946837 0.154600 -0.969200 1 0 1.000000 
plasterwall021a
0 0.901798 34.481300 36.207600 0.000000 -0.664389 0.747387 0.252100 -0.961000 1 0 1.000000 
0 0.901798 35.960300 37.522202 0.000000 -0.664389 0.747387 0.252100 -0.946500 1 0 1.000000 
0 -1.527402 34.481300 36.207600 0.000000 -0.664389 0.747387 0.233100 -0.961000 1 0 1.000000 
plasterwall021a
0 0.901798 35.960300 37.522202 0.000000 -0.664389 0.747387 0.252100 -0.946500 1 0 1.000000 
0 -1.527402 35.960300 37.522202 0.000000 -0.664389 0.747387 0.233100 -0.946500 1 0 1.000000 
0 -1.527402 34.481300 36.207600 0.000000 -0.664389 0.747387 0.233100 -0.961000 1 0 1.000000 
plasterwall021a
0 -1.527402 34.481300 36.207600 0.000000 -0.664389 0.747387 0.233100 -0.961000 1 0 1.000000 
0 -1.527402 35.960300 37.522202 0.000000 -0.664389 0.747387 0.233100 -0.946500 1 0 1.000000 
0 -3.956501 34.481300 36.207600 0.000000 -0.664389 0.747387 0.214200 -0.961000 1 0 1.000000 
plasterwall021a
0 -3.956502 35.960300 37.522202 0.000000 -0.664389 0.747387 0.214200 -0.946500 1 0 1.000000 
0 -3.956501 34.481300 36.207600 0.000000 -0.664389 0.747387 0.214200 -0.961000 1 0 1.000000 
0 -1.527402 35.960300 37.522202 0.000000 -0.664389 0.747387 0.233100 -0.946500 1 0 1.000000 
plasterwall021a
0 -2.681302 54.858200 37.029202 -0.279100 0.508299 0.814699 0.552700 -0.946200 1 0 1.000000 
0 -0.889702 57.158798 36.207600 -0.279100 0.508299 0.814699 0.571100 -0.932200 1 0 1.000000 
0 -2.681302 56.792702 35.863400 -0.260696 0.498292 0.826887 0.570300 -0.946200 1 0 1.000000 
plasterwall021a
0 -0.889702 55.029202 37.536201 -0.279100 0.508299 0.814699 0.551600 -0.932200 1 0 1.000000 
0 -0.889702 57.158798 36.207600 -0.279100 0.508299 0.814699 0.571100 -0.932200 1 0 1.000000 
0 -2.681302 54.858200 37.029202 -0.279100 0.508299 0.814699 0.552700 -0.946200 1 0 1.000000 
plasterwall021a
0 -1.823602 49.763901 9.093200 0.000000 -0.640204 -0.768205 0.085400 -0.968700 1 0 1.000000 
0 0.410498 48.285000 10.325700 0.000000 -0.640204 -0.768205 0.070700 -0.951200 1 0 1.000000 
0 -3.956502 48.750099 9.938100 0.000000 -0.640204 -0.768205 0.075400 -0.985400 1 0 1.000000 
plasterwall021a
0 0.410498 49.763901 9.093200 0.000000 -0.640204 -0.768205 0.085400 -0.951200 1 0 1.000000 
0 0.410498 48.285000 10.325700 0.000000 -0.640204 -0.768205 0.070700 -0.951200 1 0 1.000000 
0 -1.823602 49.763901 9.093200 0.000000 -0.640204 -0.768205 0.085400 -0.968700 1 0 1.000000 
plasterwall021a
0 2.644598 49.763901 9.093200 0.000000 -0.640204 -0.768205 0.085400 -0.933800 1 0 1.000000 
0 0.410498 48.285000 10.325700 0.000000 -0.640204 -0.768205 0.070700 -0.951200 1 0 1.000000 
0 0.410498 49.763901 9.093200 0.000000 -0.640204 -0.768205 0.085400 -0.951200 1 0 1.000000 
plasterwall021a
0 -0.889703 58.637798 34.388901 -0.269412 0.747133 0.607626 0.588800 -0.932200 1 0 1.000000 
0 -2.681302 56.792702 35.863400 -0.269412 0.747133 0.607626 0.570300 -0.946200 1 0 1.000000 
0 -0.889702 57.158798 36.207600 -0.269412 0.747133 0.607626 0.571100 -0.932200 1 0 1.000000 
plasterwall021a
0 -1.527402 43.026402 45.887600 -0.270997 0.489895 0.828591 0.437300 -0.937200 1 0 1.000000 
0 -1.527402 45.264198 44.564701 -0.270997 0.489895 0.828591 0.457600 -0.937200 1 0 1.000000 
0 -3.956502 44.499001 44.222500 -0.270997 0.489895 0.828591 0.454200 -0.956200 1 0 1.000000 
plasterwall021a
0 -1.527403 64.553596 31.415100 -0.556226 0.565526 0.608928 0.639900 -0.937200 1 0 1.000000 
0 -3.956503 61.057701 32.443001 -0.556226 0.565526 0.608928 0.613000 -0.956200 1 0 1.000000 
0 -1.527403 62.805599 33.038502 -0.556226 0.565526 0.608928 0.621500 -0.937200 1 0 1.000000 
plasterwall021a
0 -3.956502 39.053200 42.992298 -0.224887 -0.750057 0.621964 0.214200 -0.897400 1 0 1.000000 
0 -1.527402 38.694599 43.438099 -0.224887 -0.750057 0.621964 0.233100 -0.895700 1 0 1.000000 
0 -1.527402 40.725800 45.887600 -0.224887 -0.750057 0.621964 0.233100 -0.871300 1 0 1.000000 
plasterwall021a
0 4.043497 64.553596 14.351800 0.205697 0.600791 -0.772489 0.246400 -0.940800 1 0 1.000000 
0 4.043497 63.216000 13.311400 0.205697 0.600791 -0.772489 0.233500 -0.940800 1 0 1.000000 
0 1.109997 64.111504 13.226700 0.205697 0.600791 -0.772489 0.239600 -0.963800 1 0 1.000000 
plasterwall021a
0 0.901798 37.213402 39.168301 0.213201 -0.880402 0.423601 0.252100 -0.930600 1 0 1.000000 
0 0.901798 39.053200 42.992298 0.208306 -0.880023 0.426811 0.252100 -0.897400 1 0 1.000000 
0 -1.527402 36.781898 39.494202 0.208306 -0.880023 0.426811 0.233100 -0.929900 1 0 1.000000 
plasterwall021a
0 0.901798 39.053200 42.992298 0.208306 -0.880023 0.426811 0.252100 -0.897400 1 0 1.000000 
0 -1.527402 38.694599 43.438099 0.208306 -0.880023 0.426811 0.233100 -0.895700 1 0 1.000000 
0 -1.527402 36.781898 39.494202 0.208306 -0.880023 0.426811 0.233100 -0.929900 1 0 1.000000 
plasterwall021a
0 -3.956501 34.481300 34.728600 -0.211200 -0.971402 -0.108500 0.214200 -0.971200 1 0 1.000000 
0 0.043499 33.852001 32.578300 -0.211200 -0.971402 -0.108500 0.245400 -0.988400 1 0 1.000000 
0 -1.527401 33.953201 34.728600 -0.211200 -0.971402 -0.108500 0.233100 -0.973200 1 0 1.000000 
plasterwall021a
0 -1.823603 58.473400 13.195600 -0.186506 0.264309 -0.946232 0.199300 -0.986700 1 0 1.000000 
0 0.410497 61.759998 13.673200 -0.186506 0.264309 -0.946232 0.224300 -0.969200 1 0 1.000000 
0 0.410497 58.782398 12.841600 -0.186506 0.264309 -0.946232 0.200400 -0.969200 1 0 1.000000 
plasterwall021a
0 -0.889703 58.637798 34.388901 -0.385015 0.230609 0.893635 0.588800 -0.932200 1 0 1.000000 
0 -1.527403 62.805599 33.038502 -0.385015 0.230609 0.893635 0.621500 -0.937200 1 0 1.000000 
0 -3.956503 61.057701 32.443001 -0.385015 0.230609 0.893635 0.613000 -0.956200 1 0 1.000000 
plasterwall021a
0 0.410498 48.285000 10.325700 0.052198 -0.302687 -0.951659 0.070700 -0.951200 1 0 1.000000 
0 -0.656002 46.806000 10.737500 0.052198 -0.302687 -0.951659 0.059000 -0.959600 1 0 1.000000 
0 -3.956502 48.750099 9.938100 0.052198 -0.302687 -0.951659 0.075400 -0.985400 1 0 1.000000 
plasterwall021a
0 -3.956502 40.725800 45.410000 -0.192903 -0.000000 0.981218 0.424700 -0.956200 1 0 1.000000 
0 -1.527402 40.725800 45.887600 -0.192903 -0.000000 0.981218 0.422600 -0.937200 1 0 1.000000 
0 -3.956502 43.026402 45.410000 -0.192903 -0.000000 0.981218 0.439500 -0.956200 1 0 1.000000 
plasterwall021a
0 -1.527402 40.725800 45.887600 -0.192903 -0.000000 0.981218 0.422600 -0.937200 1 0 1.000000 
0 -1.527402 43.026402 45.887600 -0.192903 -0.000000 0.981218 0.437300 -0.937200 1 0 1.000000 
0 -3.956502 43.026402 45.410000 -0.192903 -0.000000 0.981218 0.439500 -0.956200 1 0 1.000000 
plasterwall021a
0 -1.527402 35.960300 37.522202 -0.210709 -0.902338 0.376016 0.233100 -0.946500 1 0 1.000000 
0 -1.527402 36.781898 39.494202 -0.210709 -0.902338 0.376016 0.233100 -0.929900 1 0 1.000000 
0 -3.956502 37.213402 39.168301 -0.210709 -0.902338 0.376016 0.214200 -0.930600 1 0 1.000000 
plasterwall021a
0 2.644598 44.669701 13.036300 0.224697 -0.459494 -0.859288 0.036000 -0.933800 1 0 1.000000 
0 -0.656002 44.102402 12.476500 0.224697 -0.459494 -0.859288 0.034000 -0.959600 1 0 1.000000 
0 -0.656002 45.820000 11.558200 0.224697 -0.459494 -0.859288 0.049200 -0.959600 1 0 1.000000 
plasterwall021a
0 -1.527401 33.953201 34.728600 0.000000 -0.941760 0.336286 0.233100 -0.973200 1 0 1.000000 
0 -1.527402 34.481300 36.207600 0.000000 -0.941760 0.336286 0.233100 -0.961000 1 0 1.000000 
0 -3.956501 34.481300 36.207600 0.000000 -0.941760 0.336286 0.214200 -0.961000 1 0 1.000000 
plasterwall021a
0 -0.656002 42.952099 14.448500 0.166591 -0.931350 -0.323782 0.019000 -0.959600 1 0 1.000000 
0 2.644598 43.519402 14.514500 0.166591 -0.931350 -0.323782 0.022700 -0.933800 1 0 1.000000 
0 0.043498 42.605000 15.806900 0.166591 -0.931350 -0.323782 0.011800 -0.954100 1 0 1.000000 
plasterwall021a
0 -1.527402 46.220001 43.120399 0.158205 0.823428 0.544919 0.470200 -0.937200 1 0 1.000000 
0 -1.527402 45.264198 44.564701 0.158205 0.823428 0.544919 0.457600 -0.937200 1 0 1.000000 
0 0.901798 45.610199 43.336800 0.158205 0.823428 0.544919 0.465300 -0.918200 1 0 1.000000 
plasterwall021a
0 -3.956502 57.146999 13.577800 -0.298107 0.631116 -0.716118 0.677200 -0.902300 1 0 1.000000 
0 -1.823603 56.230202 11.882100 -0.298107 0.631116 -0.716118 0.663200 -0.907900 1 0 1.000000 
0 -1.823602 53.987000 9.905300 -0.298107 0.631116 -0.716118 0.639900 -0.908400 1 0 1.000000 
plasterwall021a
0 -1.527402 46.220001 43.120399 -0.096305 0.696936 0.710637 0.470200 -0.937200 1 0 1.000000 
0 -0.889702 48.209900 41.255299 -0.096305 0.696936 0.710637 0.491300 -0.932200 1 0 1.000000 
0 -3.956502 45.971500 43.035000 -0.096305 0.696936 0.710637 0.469000 -0.956200 1 0 1.000000 
plasterwall021a
0 -3.956503 61.336800 16.842199 -0.815084 0.503490 -0.286594 0.718700 -0.903800 1 0 1.000000 
0 -1.823603 64.553596 16.427200 -0.815084 0.503490 -0.286594 0.735800 -0.922500 1 0 1.000000 
0 -1.823603 63.074600 13.829000 -0.815084 0.503490 -0.286594 0.713900 -0.930600 1 0 1.000000 
plasterwall021a
0 -0.889702 52.843899 38.072899 0.344009 0.750921 0.563716 0.535200 -0.932200 1 0 1.000000 
0 -0.889702 51.900200 39.329800 0.344009 0.750921 0.563716 0.523500 -0.932200 1 0 1.000000 
0 0.901798 51.448299 38.838501 0.344009 0.750921 0.563716 0.522800 -0.918200 1 0 1.000000 
plasterwall021a
0 2.644597 58.473400 13.858800 0.360684 0.092796 -0.928060 0.201400 -0.951800 1 0 1.000000 
0 2.644597 61.759998 14.187400 0.360684 0.092796 -0.928060 0.225900 -0.951800 1 0 1.000000 
0 4.043497 61.629398 14.718100 0.360684 0.092796 -0.928060 0.226700 -0.940800 1 0 1.000000 
plasterwall021a
0 -0.889702 51.900200 39.329800 -0.364591 0.430689 0.825579 0.523500 -0.932200 1 0 1.000000 
0 -2.681302 49.772900 39.648602 -0.364591 0.430689 0.825579 0.508500 -0.946200 1 0 1.000000 
0 -0.889702 50.063000 40.288399 -0.364591 0.430689 0.825579 0.507400 -0.932200 1 0 1.000000 
plasterwall021a
0 2.644598 49.763901 9.093200 0.970110 0.045801 -0.238303 0.394500 -0.974900 1 0 1.000000 
0 2.644598 53.933102 9.895000 0.970110 0.045801 -0.238303 0.427100 -0.968600 1 0 1.000000 
0 4.043498 50.145302 14.861500 0.970110 0.045801 -0.238303 0.397500 -0.929800 1 0 1.000000 
plasterwall021a
0 -0.889702 48.209900 41.255299 0.364591 0.430689 0.825579 0.491300 -0.932200 1 0 1.000000 
0 0.901798 49.756901 39.656898 0.364591 0.430689 0.825579 0.508300 -0.918200 1 0 1.000000 
0 -0.889702 50.063000 40.288399 0.364591 0.430689 0.825579 0.507400 -0.932200 1 0 1.000000 
plasterwall021a
0 -0.889702 50.063000 40.288399 0.364591 0.430689 0.825579 0.507400 -0.932200 1 0 1.000000 
0 0.901798 49.756901 39.656898 0.364591 0.430689 0.825579 0.508300 -0.918200 1 0 1.000000 
0 0.901798 51.448299 38.838501 0.364682 0.405580 0.838159 0.522800 -0.918200 1 0 1.000000 
plasterwall021a
0 0.901798 51.448299 38.838501 0.338610 0.435213 0.834226 0.522800 -0.918200 1 0 1.000000 
0 -0.889702 51.900200 39.329800 0.338610 0.435213 0.834226 0.523500 -0.932200 1 0 1.000000 
0 -0.889702 50.063000 40.288399 0.364591 0.430689 0.825579 0.507400 -0.932200 1 0 1.000000 
plasterwall021a
0 2.644598 47.046398 12.089100 0.936084 -0.130198 -0.326794 0.373300 -0.951500 1 0 1.000000 
0 4.043498 50.145302 14.861500 0.934365 -0.102396 -0.341287 0.397500 -0.929800 1 0 1.000000 
0 2.644598 44.669701 13.036300 0.936084 -0.130198 -0.326794 0.354700 -0.944100 1 0 1.000000 
plasterwall021a
0 2.644598 53.933102 9.895000 0.934365 -0.102396 -0.341287 0.427100 -0.968600 1 0 1.000000 
0 4.043498 52.479198 14.161300 0.934365 -0.102396 -0.341287 0.415700 -0.935300 1 0 1.000000 
0 4.043498 50.145302 14.861500 0.934365 -0.102396 -0.341287 0.397500 -0.929800 1 0 1.000000 
plasterwall021a
0 4.043498 59.779099 29.898600 0.679095 0.202399 0.705595 0.893700 -0.973800 1 0 1.000000 
0 0.901797 64.553596 31.552500 0.679095 0.202399 0.705595 0.929100 -0.956400 1 0 1.000000 
0 0.901797 58.637798 33.249699 0.679095 0.202399 0.705595 0.881600 -0.948900 1 0 1.000000 
plasterwall021a
0 0.410498 56.682301 11.413300 0.280404 0.539809 -0.793713 0.180900 -0.969200 1 0 1.000000 
0 0.410497 58.782398 12.841600 0.280404 0.539809 -0.793713 0.200400 -0.969200 1 0 1.000000 
0 2.644598 56.203201 11.876900 0.280404 0.539809 -0.793713 0.178900 -0.951800 1 0 1.000000 
plasterwall021a
0 4.043498 56.658901 31.060400 0.847492 0.178498 0.499895 0.868400 -0.967700 1 0 1.000000 
0 0.901798 54.858200 37.029202 0.847492 0.178498 0.499895 0.848700 -0.923200 1 0 1.000000 
0 0.901798 52.557598 37.850899 0.847492 0.178498 0.499895 0.830100 -0.919000 1 0 1.000000 
plasterwall021a
0 -0.656002 46.806000 10.737500 0.000000 -0.639712 -0.768614 0.059000 -0.959600 1 0 1.000000 
0 -0.656002 45.820000 11.558200 0.000000 -0.639712 -0.768614 0.049200 -0.959600 1 0 1.000000 
0 -3.956502 45.820000 11.558200 0.000000 -0.639712 -0.768614 0.049200 -0.985400 1 0 1.000000 
plasterwall021a
0 4.043498 48.511501 30.965401 0.911310 0.295103 0.287103 0.805300 -0.976200 1 0 1.000000 
0 0.901798 49.756901 39.656898 0.911310 0.295103 0.287103 0.806700 -0.907600 1 0 1.000000 
0 0.901798 48.193901 41.263599 0.911310 0.295103 0.287103 0.793000 -0.896700 1 0 1.000000 
plasterwall021a
0 -1.823603 63.074600 13.829000 -0.242693 -0.303291 -0.921474 0.234200 -0.986700 1 0 1.000000 
0 0.410497 63.110001 13.228900 -0.242693 -0.303291 -0.921474 0.232500 -0.969200 1 0 1.000000 
0 0.410497 61.759998 13.673200 -0.242693 -0.303291 -0.921474 0.224300 -0.969200 1 0 1.000000 
plasterwall021a
0 4.043498 42.420200 33.532700 0.915222 -0.363109 0.174704 0.755600 -0.962100 1 0 1.000000 
0 0.901798 39.053200 42.992298 0.915222 -0.363109 0.174704 0.720500 -0.892000 1 0 1.000000 
0 0.901798 37.213402 39.168301 0.915222 -0.363109 0.174704 0.709900 -0.923400 1 0 1.000000 
plasterwall021a
0 0.410498 53.959999 9.274300 -0.278498 0.593396 -0.755195 0.154600 -0.969200 1 0 1.000000 
0 -1.823603 56.230202 11.882100 -0.278498 0.593396 -0.755195 0.179100 -0.986700 1 0 1.000000 
0 0.410498 56.682301 11.413300 -0.278498 0.593396 -0.755195 0.180900 -0.969200 1 0 1.000000 
plasterwall021a
0 4.043498 42.420200 33.532700 0.933084 -0.295795 0.204596 0.755600 -0.962100 1 0 1.000000 
0 0.901798 37.213402 39.168301 0.923375 -0.305492 0.232494 0.709900 -0.923400 1 0 1.000000 
0 0.901798 35.960300 37.522202 0.923375 -0.305492 0.232494 0.701700 -0.937300 1 0 1.000000 
plasterwall021a
0 4.043498 42.420200 33.532700 0.933084 -0.295795 0.204596 0.755600 -0.962100 1 0 1.000000 
0 0.901798 40.725800 45.410000 0.933084 -0.295795 0.204596 0.731200 -0.871600 1 0 1.000000 
0 0.901798 39.053200 42.992298 0.933084 -0.295795 0.204596 0.720500 -0.892000 1 0 1.000000 
plasterwall021a
0 4.043498 39.409302 32.468800 0.888056 -0.305419 0.343622 0.733300 -0.973200 1 0 1.000000 
0 0.901798 35.960300 37.522202 0.888056 -0.305419 0.343622 0.701700 -0.937300 1 0 1.000000 
0 0.901798 34.481300 36.207600 0.888056 -0.305419 0.343622 0.691500 -0.948900 1 0 1.000000 
plasterwall021a
0 2.644598 49.763901 9.093200 0.000000 -0.107303 -0.994226 0.085400 -0.933800 1 0 1.000000 
0 0.410498 49.763901 9.093200 0.000000 -0.107303 -0.994226 0.085400 -0.951200 1 0 1.000000 
0 0.410498 51.848499 8.868300 0.000000 -0.107303 -0.994226 0.100700 -0.951200 1 0 1.000000 
plasterwall021a
0 0.410498 51.848499 8.868300 0.000000 -0.107303 -0.994226 0.100700 -0.951200 1 0 1.000000 
0 0.410498 49.763901 9.093200 0.000000 -0.107303 -0.994226 0.085400 -0.951200 1 0 1.000000 
0 -1.823602 49.763901 9.093200 0.000000 -0.107303 -0.994226 0.085400 -0.968700 1 0 1.000000 
plasterwall021a
0 4.043498 50.145302 14.861500 0.927754 -0.178710 -0.327619 0.397500 -0.929800 1 0 1.000000 
0 4.043498 47.577999 16.261801 0.927754 -0.178710 -0.327619 0.377400 -0.918900 1 0 1.000000 
0 2.644598 43.519402 14.514500 0.927754 -0.178710 -0.327619 0.345700 -0.932500 1 0 1.000000 
plasterwall021a
0 4.043498 39.409302 32.468800 0.843200 -0.537600 0.000000 0.733300 -0.973200 1 0 1.000000 
0 0.901798 34.481300 36.207600 0.843200 -0.537600 0.000000 0.691500 -0.948900 1 0 1.000000 
0 0.901798 34.481300 34.728600 0.843200 -0.537600 0.000000 0.692900 -0.960400 1 0 1.000000 
plasterwall021a
0 4.043498 47.577999 16.261801 0.692909 0.070101 -0.717609 0.377400 -0.918900 1 0 1.000000 
0 4.043498 42.676601 15.783000 0.692909 0.070101 -0.717609 0.339100 -0.922600 1 0 1.000000 
0 2.644598 43.519402 14.514500 0.692909 0.070101 -0.717609 0.345700 -0.932500 1 0 1.000000 
plasterwall021a
0 4.043499 33.879902 32.564400 0.007700 -0.960519 0.278106 0.276700 -0.988400 1 0 1.000000 
0 0.901798 34.481300 34.728600 0.007700 -0.960519 0.278106 0.252100 -0.971200 1 0 1.000000 
0 0.043499 33.852001 32.578300 0.007700 -0.955748 0.294084 0.245400 -0.988400 1 0 1.000000 
plasterwall021a
0 -3.956501 34.481300 34.728600 0.007700 -0.955748 0.294084 0.214200 -0.971200 1 0 1.000000 
0 -3.956501 33.824001 32.592300 0.007700 -0.955748 0.294084 0.214200 -0.988400 1 0 1.000000 
0 0.043499 33.852001 32.578300 0.007700 -0.955748 0.294084 0.245400 -0.988400 1 0 1.000000 
plasterwall021a
0 -3.956502 55.279800 35.283100 -0.707821 0.364611 0.605018 0.901600 -0.929100 1 0 1.000000 
0 -2.681302 54.858200 37.029202 -0.707821 0.364611 0.605018 0.892200 -0.914900 1 0 1.000000 
0 -2.681302 56.792702 35.863400 -0.707821 0.364611 0.605018 0.909700 -0.915800 1 0 1.000000 
plasterwall021a
0 -3.956502 46.410999 41.584702 -0.634998 0.547598 0.544898 0.817700 -0.919600 1 0 1.000000 
0 -2.681302 48.225899 41.246899 -0.634998 0.547598 0.544898 0.831200 -0.910700 1 0 1.000000 
0 -3.956502 47.493401 40.497002 -0.634998 0.547598 0.544898 0.829100 -0.922600 1 0 1.000000 
plasterwall021a
0 -3.956502 52.064098 37.338402 -0.486925 0.580830 0.652334 0.872000 -0.927000 1 0 1.000000 
0 -2.681302 51.448299 38.838501 -0.486925 0.580830 0.652334 0.862100 -0.914900 1 0 1.000000 
0 -2.681302 52.557598 37.850899 -0.486925 0.580830 0.652334 0.873200 -0.917200 1 0 1.000000 
plasterwall021a
0 -3.956502 47.493401 40.497002 -0.633540 0.587437 0.503532 0.829100 -0.922600 1 0 1.000000 
0 -2.681302 48.225899 41.246899 -0.633540 0.587437 0.503532 0.831200 -0.910700 1 0 1.000000 
0 -3.956502 49.561798 38.083801 -0.633540 0.587437 0.503532 0.851900 -0.930400 1 0 1.000000 
plasterwall021a
0 -3.956502 49.561798 38.083801 -0.762000 0.281900 0.583000 0.851900 -0.930400 1 0 1.000000 
0 -2.681302 49.772900 39.648602 -0.762000 0.281900 0.583000 0.847500 -0.915300 1 0 1.000000 
0 -2.681302 51.448299 38.838501 -0.762000 0.281900 0.583000 0.862100 -0.914900 1 0 1.000000 
plasterwall021a
0 -3.956502 49.561798 38.083801 -0.697142 0.515131 0.498630 0.851900 -0.930400 1 0 1.000000 
0 -2.681302 48.225899 41.246899 -0.697142 0.515131 0.498630 0.831200 -0.910700 1 0 1.000000 
0 -2.681302 49.772900 39.648602 -0.697142 0.515131 0.498630 0.847500 -0.915300 1 0 1.000000 
plasterwall021a
0 -3.956502 45.971500 43.035000 -0.789221 0.587715 0.178105 0.809600 -0.912500 1 0 1.000000 
0 -2.681302 48.225899 41.246899 -0.789221 0.587715 0.178105 0.831200 -0.910700 1 0 1.000000 
0 -3.956502 46.410999 41.584702 -0.789221 0.587715 0.178105 0.817700 -0.919600 1 0 1.000000 
plasterwall021a
0 -3.956502 49.561798 38.083801 -0.703409 0.202903 0.681209 0.851900 -0.930400 1 0 1.000000 
0 -2.681302 51.448299 38.838501 -0.703409 0.202903 0.681209 0.862100 -0.914900 1 0 1.000000 
0 -3.956502 52.064098 37.338402 -0.703409 0.202903 0.681209 0.872000 -0.927000 1 0 1.000000 
plasterwall021a
0 0.410498 56.682301 11.413300 -0.272586 0.486176 -0.830259 0.180900 -0.969200 1 0 1.000000 
0 -1.823603 56.230202 11.882100 -0.272586 0.486176 -0.830259 0.179100 -0.986700 1 0 1.000000 
0 -1.823603 58.473400 13.195600 -0.272586 0.486176 -0.830259 0.199300 -0.986700 1 0 1.000000 
plasterwall021a
0 -3.956502 52.064098 37.338402 -0.479906 0.472505 0.739208 0.872000 -0.927000 1 0 1.000000 
0 -2.681302 52.557598 37.850899 -0.479906 0.472505 0.739208 0.873200 -0.917200 1 0 1.000000 
0 -3.956502 55.279800 35.283100 -0.479906 0.472505 0.739208 0.901600 -0.929100 1 0 1.000000 
plasterwall021a
0 0.410498 53.959999 9.274300 -0.199806 0.647820 -0.735123 0.154600 -0.969200 1 0 1.000000 
0 -1.823602 53.987000 9.905300 -0.199806 0.647820 -0.735123 0.156800 -0.986700 1 0 1.000000 
0 -1.823603 56.230202 11.882100 -0.199806 0.647820 -0.735123 0.179100 -0.986700 1 0 1.000000 
plasterwall021a
0 -3.956502 55.279800 35.283100 -0.762411 0.217603 0.609408 0.901600 -0.929100 1 0 1.000000 
0 -2.681302 52.557598 37.850899 -0.762411 0.217603 0.609408 0.873200 -0.917200 1 0 1.000000 
0 -2.681302 54.858200 37.029202 -0.762411 0.217603 0.609408 0.892200 -0.914900 1 0 1.000000 
plasterwall021a
0 2.644598 53.933102 9.895000 0.220306 0.602616 -0.767020 0.156400 -0.951800 1 0 1.000000 
0 0.410498 53.959999 9.274300 0.220306 0.602616 -0.767020 0.154600 -0.969200 1 0 1.000000 
0 0.410498 56.682301 11.413300 0.220306 0.602616 -0.767020 0.180900 -0.969200 1 0 1.000000 
plasterwall021a
0 -3.956502 55.279800 35.283100 -0.775414 0.511909 0.369706 0.901600 -0.929100 1 0 1.000000 
0 -2.681302 56.792702 35.863400 -0.775414 0.511909 0.369706 0.909700 -0.915800 1 0 1.000000 
0 -3.956502 56.796902 33.182598 -0.775414 0.511909 0.369706 0.919500 -0.936800 1 0 1.000000 
plasterwall021a
0 -3.956502 56.796902 33.182598 -0.775414 0.511909 0.369706 0.919500 -0.936800 1 0 1.000000 
0 -2.681302 56.792702 35.863400 -0.775414 0.511909 0.369706 0.909700 -0.915800 1 0 1.000000 
0 -2.681303 58.637798 33.249699 -0.770717 0.520512 0.367508 0.931700 -0.925400 1 0 1.000000 
plasterwall021a
0 -3.956502 56.796902 33.182598 -0.536192 0.343395 0.771089 0.919500 -0.936800 1 0 1.000000 
0 -2.681303 58.637798 33.249699 -0.536192 0.343395 0.771089 0.931700 -0.925400 1 0 1.000000 
0 -3.956503 58.478600 32.433701 -0.536192 0.343395 0.771089 0.933800 -0.936000 1 0 1.000000 
plasterwall021a
0 0.410497 61.759998 13.673200 0.030701 -0.312506 -0.949419 0.224300 -0.969200 1 0 1.000000 
0 0.410497 63.110001 13.228900 0.030701 -0.312506 -0.949419 0.232500 -0.969200 1 0 1.000000 
0 4.043497 63.216000 13.311400 0.030701 -0.312506 -0.949419 0.233500 -0.940800 1 0 1.000000 
plasterwall021a
0 -3.956503 58.478600 32.433701 -0.538696 -0.003000 0.842494 0.933800 -0.936000 1 0 1.000000 
0 -2.681303 58.637798 33.249699 -0.538696 -0.003000 0.842494 0.931700 -0.925400 1 0 1.000000 
0 -3.956503 61.057701 32.443001 -0.538696 -0.003000 0.842494 0.951800 -0.927900 1 0 1.000000 
plasterwall021a
0 2.644597 61.759998 14.187400 0.174995 -0.625582 -0.760278 0.225900 -0.951800 1 0 1.000000 
0 0.410497 61.759998 13.673200 0.174995 -0.625582 -0.760278 0.224300 -0.969200 1 0 1.000000 
0 4.043497 63.216000 13.311400 0.174995 -0.625582 -0.760278 0.233500 -0.940800 1 0 1.000000 
plasterwall021a
0 4.043499 33.879902 32.564400 0.569075 0.014199 0.822163 0.690300 -0.977800 1 0 1.000000 
0 4.043498 39.409302 32.468800 0.569075 0.014199 0.822163 0.733300 -0.973200 1 0 1.000000 
0 0.901798 34.481300 34.728600 0.569075 0.014199 0.822163 0.692900 -0.960400 1 0 1.000000 
plasterwall021a
0 2.644598 49.763901 9.093200 0.118803 -0.735419 -0.667117 0.085400 -0.933800 1 0 1.000000 
0 2.644598 47.046398 12.089100 0.118803 -0.735419 -0.667117 0.055900 -0.933800 1 0 1.000000 
0 0.410498 48.285000 10.325700 0.118803 -0.735419 -0.667117 0.070700 -0.951200 1 0 1.000000 
plasterwall021a
0 4.043498 39.409302 32.468800 0.883133 -0.156306 0.442317 0.733300 -0.973200 1 0 1.000000 
0 4.043498 42.420200 33.532700 0.883133 -0.156306 0.442317 0.755600 -0.962100 1 0 1.000000 
0 0.901798 35.960300 37.522202 0.883133 -0.156306 0.442317 0.701700 -0.937300 1 0 1.000000 
plasterwall021a
0 -0.656002 46.806000 10.737500 0.339805 -0.601609 -0.722910 0.059000 -0.959600 1 0 1.000000 
0 2.644598 47.046398 12.089100 0.339805 -0.601609 -0.722910 0.055900 -0.933800 1 0 1.000000 
0 -0.656002 45.820000 11.558200 0.339805 -0.601609 -0.722910 0.049200 -0.959600 1 0 1.000000 
plasterwall021a
0 4.043498 42.420200 33.532700 0.966759 0.000000 0.255689 0.755600 -0.962100 1 0 1.000000 
0 4.043498 45.010700 33.532700 0.966759 0.000000 0.255689 0.775700 -0.959600 1 0 1.000000 
0 0.901798 40.725800 45.410000 0.966759 0.000000 0.255689 0.731200 -0.871600 1 0 1.000000 
plasterwall021a
0 4.043498 45.010700 33.532700 0.966759 0.000000 0.255689 0.775700 -0.959600 1 0 1.000000 
0 0.901798 43.026402 45.410000 0.966759 0.000000 0.255689 0.749000 -0.869400 1 0 1.000000 
0 0.901798 40.725800 45.410000 0.966759 0.000000 0.255689 0.731200 -0.871600 1 0 1.000000 
plasterwall021a
0 4.043498 45.010700 33.532700 0.931144 0.228211 0.284413 0.775700 -0.959600 1 0 1.000000 
0 0.901798 45.610199 43.336800 0.931144 0.228211 0.284413 0.771000 -0.883100 1 0 1.000000 
0 0.901798 43.026402 45.410000 0.931144 0.228211 0.284413 0.749000 -0.869400 1 0 1.000000 
plasterwall021a
0 4.043498 45.010700 33.532700 0.931144 0.228211 0.284413 0.775700 -0.959600 1 0 1.000000 
0 0.901798 48.193901 41.263599 0.931144 0.228211 0.284413 0.793000 -0.896700 1 0 1.000000 
0 0.901798 45.610199 43.336800 0.931144 0.228211 0.284413 0.771000 -0.883100 1 0 1.000000 
plasterwall021a
0 4.043498 45.010700 33.532700 0.931144 0.228211 0.284413 0.775700 -0.959600 1 0 1.000000 
0 4.043498 48.511501 30.965401 0.932570 0.213493 0.291091 0.805300 -0.976200 1 0 1.000000 
0 0.901798 48.193901 41.263599 0.931144 0.228211 0.284413 0.793000 -0.896700 1 0 1.000000 
plasterwall021a
0 2.644598 56.203201 11.876900 0.398085 0.603278 -0.691074 0.178900 -0.951800 1 0 1.000000 
0 0.410497 58.782398 12.841600 0.398085 0.603278 -0.691074 0.200400 -0.969200 1 0 1.000000 
0 2.644597 58.473400 13.858800 0.398085 0.603278 -0.691074 0.201400 -0.951800 1 0 1.000000 
plasterwall021a
0 4.043498 48.511501 30.965401 0.936161 0.153094 0.316487 0.805300 -0.976200 1 0 1.000000 
0 0.901798 51.448299 38.838501 0.936161 0.153094 0.316487 0.820600 -0.912400 1 0 1.000000 
0 0.901798 49.756901 39.656898 0.936161 0.153094 0.316487 0.806700 -0.907600 1 0 1.000000 
plasterwall021a
0 0.410498 56.682301 11.413300 -0.204404 0.550511 -0.809417 0.180900 -0.969200 1 0 1.000000 
0 -1.823603 58.473400 13.195600 -0.204404 0.550511 -0.809417 0.199300 -0.986700 1 0 1.000000 
0 0.410497 58.782398 12.841600 -0.204404 0.550511 -0.809417 0.200400 -0.969200 1 0 1.000000 
plasterwall021a
0 4.043498 48.511501 30.965401 0.919220 0.048801 0.390708 0.805300 -0.976200 1 0 1.000000 
0 4.043498 53.179401 30.381901 0.919220 0.048801 0.390708 0.842000 -0.976300 1 0 1.000000 
0 0.901798 52.557598 37.850899 0.919220 0.048801 0.390708 0.830100 -0.919000 1 0 1.000000 
plasterwall021a
0 2.644598 53.933102 9.895000 0.284992 0.630382 -0.722079 0.156400 -0.951800 1 0 1.000000 
0 0.410498 56.682301 11.413300 0.284992 0.630382 -0.722079 0.180900 -0.969200 1 0 1.000000 
0 2.644598 56.203201 11.876900 0.284992 0.630382 -0.722079 0.178900 -0.951800 1 0 1.000000 
plasterwall021a
0 4.043498 48.511501 30.965401 0.928142 0.247511 0.278012 0.805300 -0.976200 1 0 1.000000 
0 0.901798 52.557598 37.850899 0.928142 0.247511 0.278012 0.830100 -0.919000 1 0 1.000000 
0 0.901798 51.448299 38.838501 0.928142 0.247511 0.278012 0.820600 -0.912400 1 0 1.000000 
plasterwall021a
0 0.410497 63.110001 13.228900 0.023199 -0.018399 -0.999561 0.232500 -0.969200 1 0 1.000000 
0 1.109997 64.111504 13.226700 0.023199 -0.018399 -0.999561 0.239600 -0.963800 1 0 1.000000 
0 4.043497 63.216000 13.311400 0.023199 -0.018399 -0.999561 0.233500 -0.940800 1 0 1.000000 
plasterwall021a
0 4.043498 53.179401 30.381901 0.921409 -0.074401 0.381404 0.842000 -0.976300 1 0 1.000000 
0 4.043498 56.658901 31.060400 0.921409 -0.074401 0.381404 0.868400 -0.967700 1 0 1.000000 
0 0.901798 52.557598 37.850899 0.921409 -0.074401 0.381404 0.830100 -0.919000 1 0 1.000000 
plasterwall021a
0 -1.823603 63.074600 13.829000 -0.257908 0.178006 -0.949630 0.234200 -0.986700 1 0 1.000000 
0 1.109997 64.111504 13.226700 -0.257908 0.178006 -0.949630 0.239600 -0.963800 1 0 1.000000 
0 0.410497 63.110001 13.228900 -0.257908 0.178006 -0.949630 0.232500 -0.969200 1 0 1.000000 
plasterwall021a
0 4.043498 56.658901 31.060400 0.799573 0.309990 0.514383 0.868400 -0.967700 1 0 1.000000 
0 0.901797 56.792702 35.863400 0.799573 0.309990 0.514383 0.864800 -0.930400 1 0 1.000000 
0 0.901798 54.858200 37.029202 0.799573 0.309990 0.514383 0.848700 -0.923200 1 0 1.000000 
plasterwall021a
0 1.109997 64.111504 13.226700 -0.070699 0.977283 -0.199797 0.239600 -0.963800 1 0 1.000000 
0 -1.823603 64.553596 16.427200 -0.070699 0.977283 -0.199797 0.253000 -0.986700 1 0 1.000000 
0 4.043497 64.553596 14.351800 -0.070699 0.977283 -0.199797 0.246400 -0.940800 1 0 1.000000 
plasterwall021a
0 4.043498 56.658901 31.060400 0.675601 0.602301 0.425201 0.868400 -0.967700 1 0 1.000000 
0 0.901797 58.637798 33.249699 0.675601 0.602301 0.425201 0.881600 -0.948900 1 0 1.000000 
0 0.901797 56.792702 35.863400 0.675601 0.602301 0.425201 0.864800 -0.930400 1 0 1.000000 
plasterwall021a
0 -1.823603 63.074600 13.829000 -0.378385 0.804468 -0.457882 0.234200 -0.986700 1 0 1.000000 
0 -1.823603 64.553596 16.427200 -0.378385 0.804468 -0.457882 0.253000 -0.986700 1 0 1.000000 
0 1.109997 64.111504 13.226700 -0.378385 0.804468 -0.457882 0.239600 -0.963800 1 0 1.000000 
plasterwall021a
0 4.043498 56.658901 31.060400 0.657603 0.262901 0.706003 0.868400 -0.967700 1 0 1.000000 
0 4.043498 59.779099 29.898600 0.657603 0.262901 0.706003 0.893700 -0.973800 1 0 1.000000 
0 0.901797 58.637798 33.249699 0.657603 0.262901 0.706003 0.881600 -0.948900 1 0 1.000000 
plasterwall021a
0 -0.889702 48.209900 41.255299 0.003100 0.716786 0.697286 0.491300 -0.932200 1 0 1.000000 
0 0.901798 48.193901 41.263599 0.003100 0.716786 0.697286 0.491100 -0.918200 1 0 1.000000 
0 0.901798 49.756901 39.656898 0.003100 0.716786 0.697286 0.508300 -0.918200 1 0 1.000000 
plasterwall021a
0 4.043498 59.779099 29.898600 0.583392 0.104899 0.805388 0.893700 -0.973800 1 0 1.000000 
0 4.043497 64.553596 29.276699 0.583392 0.104899 0.805388 0.931300 -0.974000 1 0 1.000000 
0 0.901797 64.553596 31.552500 0.583392 0.104899 0.805388 0.929100 -0.956400 1 0 1.000000 
plasterwall021a
0 -2.681302 48.225899 41.246899 -0.000000 0.462586 0.886574 0.491400 -0.946200 1 0 1.000000 
0 -0.889702 48.209900 41.255299 -0.000000 0.462586 0.886574 0.491300 -0.932200 1 0 1.000000 
0 -0.889702 50.063000 40.288399 -0.000000 0.462586 0.886574 0.507400 -0.932200 1 0 1.000000 
plasterwall021a
0 2.644598 44.669701 13.036300 0.968508 -0.196502 -0.152901 0.354700 -0.944100 1 0 1.000000 
0 4.043498 50.145302 14.861500 0.968508 -0.196502 -0.152901 0.397500 -0.929800 1 0 1.000000 
0 2.644598 43.519402 14.514500 0.968508 -0.196502 -0.152901 0.345700 -0.932500 1 0 1.000000 
plasterwall021a
0 -0.889702 50.063000 40.288399 -0.342700 0.675000 0.653400 0.507400 -0.932200 1 0 1.000000 
0 -2.681302 49.772900 39.648602 -0.342700 0.675000 0.653400 0.508500 -0.946200 1 0 1.000000 
0 -2.681302 48.225899 41.246899 -0.342700 0.675000 0.653400 0.491400 -0.946200 1 0 1.000000 
plasterwall021a
0 2.644598 49.763901 9.093200 0.947801 -0.236200 -0.214200 0.394500 -0.974900 1 0 1.000000 
0 4.043498 50.145302 14.861500 0.947801 -0.236200 -0.214200 0.397500 -0.929800 1 0 1.000000 
0 2.644598 47.046398 12.089100 0.947801 -0.236200 -0.214200 0.373300 -0.951500 1 0 1.000000 
plasterwall021a
0 -0.889702 51.900200 39.329800 -0.335983 0.409979 0.847957 0.523500 -0.932200 1 0 1.000000 
0 -2.681302 51.448299 38.838501 -0.335983 0.409979 0.847957 0.522800 -0.946200 1 0 1.000000 
0 -2.681302 49.772900 39.648602 -0.335983 0.409979 0.847957 0.508500 -0.946200 1 0 1.000000 
plasterwall021a
0 2.644598 53.933102 9.895000 0.954765 0.072097 -0.288489 0.427100 -0.968600 1 0 1.000000 
0 4.043498 55.279900 14.861500 0.954765 0.072097 -0.288489 0.437600 -0.929800 1 0 1.000000 
0 4.043498 52.479198 14.161300 0.954765 0.072097 -0.288489 0.415700 -0.935300 1 0 1.000000 
plasterwall021a
0 -2.681302 51.448299 38.838501 -0.349103 0.623105 0.699905 0.522800 -0.946200 1 0 1.000000 
0 -0.889702 51.900200 39.329800 -0.349103 0.623105 0.699905 0.523500 -0.932200 1 0 1.000000 
0 -2.681302 52.557598 37.850899 -0.349103 0.623105 0.699905 0.534300 -0.946200 1 0 1.000000 
plasterwall021a
0 2.644598 53.933102 9.895000 0.898034 0.289311 -0.331412 0.427100 -0.968600 1 0 1.000000 
0 2.644598 56.203201 11.876900 0.898034 0.289311 -0.331412 0.444800 -0.953100 1 0 1.000000 
0 4.043498 55.279900 14.861500 0.898034 0.289311 -0.331412 0.437600 -0.929800 1 0 1.000000 
plasterwall021a
0 2.644598 56.203201 11.876900 0.898034 0.289311 -0.331412 0.444800 -0.953100 1 0 1.000000 
0 2.644597 58.473400 13.858800 0.898034 0.289311 -0.331412 0.462500 -0.937600 1 0 1.000000 
0 4.043498 55.279900 14.861500 0.898034 0.289311 -0.331412 0.437600 -0.929800 1 0 1.000000 
plasterwall021a
0 2.644597 58.473400 13.858800 0.582581 0.000000 -0.812773 0.462500 -0.937600 1 0 1.000000 
0 4.043498 56.913601 14.861500 0.582581 0.000000 -0.812773 0.450400 -0.929800 1 0 1.000000 
0 4.043498 55.279900 14.861500 0.582581 0.000000 -0.812773 0.437600 -0.929800 1 0 1.000000 
plasterwall021a
0 -0.889702 52.843899 38.072899 -0.198189 0.783855 0.588466 0.535200 -0.932200 1 0 1.000000 
0 -2.681302 52.557598 37.850899 -0.198189 0.783855 0.588466 0.534300 -0.946200 1 0 1.000000 
0 -0.889702 51.900200 39.329800 -0.198189 0.783855 0.588466 0.523500 -0.932200 1 0 1.000000 
plasterwall021a
0 2.644597 58.473400 13.858800 0.758294 0.312198 -0.572296 0.462500 -0.937600 1 0 1.000000 
0 4.043498 59.480900 16.261801 0.758294 0.312198 -0.572296 0.470400 -0.918900 1 0 1.000000 
0 4.043498 56.913601 14.861500 0.758294 0.312198 -0.572296 0.450400 -0.929800 1 0 1.000000 
plasterwall021a
0 0.901798 52.557598 37.850899 0.195005 0.652218 0.732520 0.534300 -0.918200 1 0 1.000000 
0 -0.889702 52.843899 38.072899 0.195005 0.652218 0.732520 0.535200 -0.932200 1 0 1.000000 
0 0.901798 51.448299 38.838501 0.195005 0.652218 0.732520 0.522800 -0.918200 1 0 1.000000 
plasterwall021a
0 2.644597 58.473400 13.858800 0.875887 -0.281496 -0.391894 0.462500 -0.937600 1 0 1.000000 
0 4.043497 61.629398 14.718100 0.875887 -0.281496 -0.391894 0.487200 -0.930900 1 0 1.000000 
0 4.043498 59.480900 16.261801 0.875887 -0.281496 -0.391894 0.470400 -0.918900 1 0 1.000000 
plasterwall021a
0 -2.681302 52.557598 37.850899 -0.286092 0.322291 0.902375 0.534300 -0.946200 1 0 1.000000 
0 -0.889702 55.029202 37.536201 -0.286092 0.322291 0.902375 0.551600 -0.932200 1 0 1.000000 
0 -2.681302 54.858200 37.029202 -0.286092 0.322291 0.902375 0.552700 -0.946200 1 0 1.000000 
plasterwall021a
0 2.644597 61.759998 14.187400 0.275200 -0.466899 -0.840399 0.225900 -0.951800 1 0 1.000000 
0 4.043497 62.631599 14.161300 0.275200 -0.466899 -0.840399 0.232000 -0.940800 1 0 1.000000 
0 4.043497 61.629398 14.718100 0.275200 -0.466899 -0.840399 0.226700 -0.940800 1 0 1.000000 
plasterwall021a
0 -3.956502 45.971500 43.035000 0.001900 0.620784 0.783979 0.469000 -0.956200 1 0 1.000000 
0 -0.889702 48.209900 41.255299 0.001900 0.620784 0.783979 0.491300 -0.932200 1 0 1.000000 
0 -2.681302 48.225899 41.246899 0.001900 0.620784 0.783979 0.491400 -0.946200 1 0 1.000000 
plasterwall021a
0 2.644597 61.759998 14.187400 0.449300 -0.736201 -0.506100 0.225900 -0.951800 1 0 1.000000 
0 4.043497 63.216000 13.311400 0.449300 -0.736201 -0.506100 0.233500 -0.940800 1 0 1.000000 
0 4.043497 62.631599 14.161300 0.449300 -0.736201 -0.506100 0.232000 -0.940800 1 0 1.000000 
plasterwall021a
0 -1.527402 46.220001 43.120399 0.002700 0.683419 0.730021 0.470200 -0.937200 1 0 1.000000 
0 0.901798 48.193901 41.263599 0.002700 0.683419 0.730021 0.491100 -0.918200 1 0 1.000000 
0 -0.889702 48.209900 41.255299 0.002700 0.683419 0.730021 0.491300 -0.932200 1 0 1.000000 
plasterwall021a
0 -3.956503 64.553596 23.984600 -0.649881 0.737578 -0.183395 0.773800 -0.877200 1 0 1.000000 
0 -1.823603 64.553596 16.427200 -0.649881 0.737578 -0.183395 0.735800 -0.922500 1 0 1.000000 
0 -3.956503 63.300701 18.945801 -0.649881 0.737578 -0.183395 0.741000 -0.901100 1 0 1.000000 
plasterwall021a
0 0.901798 45.610199 43.336800 0.291802 0.598604 0.746005 0.465300 -0.918200 1 0 1.000000 
0 -1.527402 45.264198 44.564701 0.291802 0.598604 0.746005 0.457600 -0.937200 1 0 1.000000 
0 0.901798 43.026402 45.410000 0.291802 0.598604 0.746005 0.439500 -0.918200 1 0 1.000000 
plasterwall021a
0 -3.956503 63.300701 18.945801 -0.777226 0.459916 -0.429415 0.741000 -0.901100 1 0 1.000000 
0 -1.823603 64.553596 16.427200 -0.777226 0.459916 -0.429415 0.735800 -0.922500 1 0 1.000000 
0 -3.956503 61.336800 16.842199 -0.777226 0.459916 -0.429415 0.718700 -0.903800 1 0 1.000000 
plasterwall021a
0 -1.527402 46.220001 43.120399 -0.104098 0.829386 0.548891 0.470200 -0.937200 1 0 1.000000 
0 -3.956502 45.971500 43.035000 -0.104098 0.829386 0.548891 0.469000 -0.956200 1 0 1.000000 
0 -1.527402 45.264198 44.564701 -0.104098 0.829386 0.548891 0.457600 -0.937200 1 0 1.000000 
plasterwall021a
0 -3.956503 61.336800 16.842199 -0.844567 0.140894 -0.516580 0.718700 -0.903800 1 0 1.000000 
0 -1.823603 63.074600 13.829000 -0.844567 0.140894 -0.516580 0.713900 -0.930600 1 0 1.000000 
0 -3.956503 60.064400 16.495199 -0.844567 0.140894 -0.516580 0.709300 -0.899500 1 0 1.000000 
plasterwall021a
0 0.901798 48.193901 41.263599 0.087295 0.623468 0.776960 0.491100 -0.918200 1 0 1.000000 
0 -1.527402 46.220001 43.120399 0.087295 0.623468 0.776960 0.470200 -0.937200 1 0 1.000000 
0 0.901798 45.610199 43.336800 0.087295 0.623468 0.776960 0.465300 -0.918200 1 0 1.000000 
plasterwall021a
0 -3.956503 60.064400 16.495199 -0.819674 0.078097 -0.567482 0.709300 -0.899500 1 0 1.000000 
0 -1.823603 63.074600 13.829000 -0.819674 0.078097 -0.567482 0.713900 -0.930600 1 0 1.000000 
0 -1.823603 58.473400 13.195600 -0.819674 0.078097 -0.567482 0.683200 -0.911300 1 0 1.000000 
plasterwall021a
0 -1.527401 33.953201 34.728600 0.200606 -0.922630 0.329411 0.233100 -0.973200 1 0 1.000000 
0 0.901798 34.481300 34.728600 0.200606 -0.922630 0.329411 0.252100 -0.971200 1 0 1.000000 
0 -1.527402 34.481300 36.207600 0.200606 -0.922630 0.329411 0.233100 -0.961000 1 0 1.000000 
plasterwall021a
0 -3.956503 60.064400 16.495199 -0.636504 0.448303 -0.627604 0.709300 -0.899500 1 0 1.000000 
0 -1.823603 58.473400 13.195600 -0.636504 0.448303 -0.627604 0.683200 -0.911300 1 0 1.000000 
0 -3.956503 58.458401 15.348100 -0.636504 0.448303 -0.627604 0.694000 -0.898300 1 0 1.000000 
plasterwall021a
0 -3.956501 34.481300 34.728600 -0.212396 -0.977183 0.000000 0.214200 -0.971200 1 0 1.000000 
0 -1.527401 33.953201 34.728600 -0.212396 -0.977183 0.000000 0.233100 -0.973200 1 0 1.000000 
0 -3.956501 34.481300 36.207600 -0.212396 -0.977183 0.000000 0.214200 -0.961000 1 0 1.000000 
plasterwall021a
0 -3.956503 58.458401 15.348100 -0.518492 0.687090 -0.508992 0.694000 -0.898300 1 0 1.000000 
0 -1.823603 58.473400 13.195600 -0.518492 0.687090 -0.508992 0.683200 -0.911300 1 0 1.000000 
0 -3.956502 57.146999 13.577800 -0.518492 0.687090 -0.508992 0.677200 -0.902300 1 0 1.000000 
plasterwall021a
0 0.901798 34.481300 36.207600 0.000000 -1.000000 0.000000 0.252100 -0.961000 1 0 1.000000 
0 -1.527402 34.481300 36.207600 0.000000 -1.000000 0.000000 0.233100 -0.961000 1 0 1.000000 
0 0.901798 34.481300 34.728600 0.000000 -1.000000 0.000000 0.252100 -0.971200 1 0 1.000000 
plasterwall021a
0 -3.956502 57.146999 13.577800 -0.424514 0.457515 -0.781325 0.677200 -0.902300 1 0 1.000000 
0 -1.823603 58.473400 13.195600 -0.424514 0.457515 -0.781325 0.683200 -0.911300 1 0 1.000000 
0 -1.823603 56.230202 11.882100 -0.424514 0.457515 -0.781325 0.663200 -0.907900 1 0 1.000000 
plasterwall021a
0 -1.527402 35.960300 37.522202 0.000000 -0.923086 0.384594 0.233100 -0.946500 1 0 1.000000 
0 0.901798 35.960300 37.522202 0.000000 -0.923086 0.384594 0.252100 -0.946500 1 0 1.000000 
0 -1.527402 36.781898 39.494202 0.000000 -0.923086 0.384594 0.233100 -0.929900 1 0 1.000000 
plasterwall021a
0 -3.956502 57.146999 13.577800 -0.635020 0.363512 -0.681622 0.677200 -0.902300 1 0 1.000000 
0 -1.823602 53.987000 9.905300 -0.635020 0.363512 -0.681622 0.639900 -0.908400 1 0 1.000000 
0 -3.956502 55.396500 12.644300 -0.635020 0.363512 -0.681622 0.662000 -0.899100 1 0 1.000000 
plasterwall021a
0 -3.956502 35.960300 37.522202 0.000000 -0.795696 0.605697 0.214200 -0.946500 1 0 1.000000 
0 -1.527402 35.960300 37.522202 0.000000 -0.795696 0.605697 0.233100 -0.946500 1 0 1.000000 
0 -3.956502 37.213402 39.168301 0.000000 -0.795696 0.605697 0.214200 -0.930600 1 0 1.000000 
plasterwall021a
0 -3.956502 55.396500 12.644300 -0.765010 0.083301 -0.638608 0.662000 -0.899100 1 0 1.000000 
0 -1.823602 53.987000 9.905300 -0.765010 0.083301 -0.638608 0.639900 -0.908400 1 0 1.000000 
0 -3.956502 52.712601 12.294200 -0.765010 0.083301 -0.638608 0.644200 -0.887700 1 0 1.000000 
plasterwall021a
0 0.901798 37.213402 39.168301 0.217287 -0.776654 0.591265 0.252100 -0.930600 1 0 1.000000 
0 -1.527402 36.781898 39.494202 0.217287 -0.776654 0.591265 0.233100 -0.929900 1 0 1.000000 
0 0.901798 35.960300 37.522202 0.217287 -0.776654 0.591265 0.252100 -0.946500 1 0 1.000000 
plasterwall021a
0 -3.956502 48.750099 9.938100 -0.431818 0.170307 -0.885736 0.608700 -0.882000 1 0 1.000000 
0 -1.823602 53.987000 9.905300 -0.431818 0.170307 -0.885736 0.639900 -0.908400 1 0 1.000000 
0 -1.823602 49.763901 9.093200 -0.431818 0.170307 -0.885736 0.610500 -0.892100 1 0 1.000000 
plasterwall021a
0 0.901798 43.026402 45.410000 0.192903 0.000000 0.981218 0.439500 -0.918200 1 0 1.000000 
0 -1.527402 43.026402 45.887600 0.192903 0.000000 0.981218 0.437300 -0.937200 1 0 1.000000 
0 0.901798 40.725800 45.410000 0.192903 0.000000 0.981218 0.424700 -0.918200 1 0 1.000000 
plasterwall021a
0 -1.527402 40.725800 45.887600 0.192903 0.000000 0.981218 0.422600 -0.937200 1 0 1.000000 
0 0.901798 40.725800 45.410000 0.192903 0.000000 0.981218 0.424700 -0.918200 1 0 1.000000 
0 -1.527402 43.026402 45.887600 0.192903 0.000000 0.981218 0.437300 -0.937200 1 0 1.000000 
plasterwall021a
0 0.901797 64.553596 31.552500 0.362982 0.256988 0.895657 0.639300 -0.918200 1 0 1.000000 
0 -1.527403 62.805599 33.038502 0.362982 0.256988 0.895657 0.621500 -0.937200 1 0 1.000000 
0 0.901797 58.637798 33.249699 0.362982 0.256988 0.895657 0.593900 -0.918200 1 0 1.000000 
plasterwall021a
0 -3.956502 52.712601 12.294200 -0.785220 0.316508 -0.532214 0.644200 -0.887700 1 0 1.000000 
0 -1.823602 53.987000 9.905300 -0.785220 0.316508 -0.532214 0.639900 -0.908400 1 0 1.000000 
0 -3.956502 48.750099 9.938100 -0.785220 0.316508 -0.532214 0.608700 -0.882000 1 0 1.000000 
plasterwall021a
0 -0.889703 58.637798 34.388901 0.505590 0.334993 0.795084 0.588800 -0.932200 1 0 1.000000 
0 0.901797 58.637798 33.249699 0.505590 0.334993 0.795084 0.593900 -0.918200 1 0 1.000000 
0 -1.527403 62.805599 33.038502 0.505590 0.334993 0.795084 0.621500 -0.937200 1 0 1.000000 
plasterwall021a
0 -3.956502 42.533401 15.830700 0.015799 -0.966762 -0.255190 0.011200 -0.985400 1 0 1.000000 
0 -0.656002 42.952099 14.448500 0.015799 -0.966762 -0.255190 0.019000 -0.959600 1 0 1.000000 
0 0.043498 42.605000 15.806900 0.015799 -0.966762 -0.255190 0.011800 -0.954100 1 0 1.000000 
plasterwall021a
0 -2.681303 58.637798 33.249699 -0.536616 -0.001500 0.843825 0.593900 -0.946200 1 0 1.000000 
0 -0.889703 58.637798 34.388901 -0.536616 -0.001500 0.843825 0.588800 -0.932200 1 0 1.000000 
0 -3.956503 61.057701 32.443001 -0.536616 -0.001500 0.843825 0.613000 -0.956200 1 0 1.000000 
plasterwall021a
0 0.043498 42.605000 15.806900 0.011400 -0.826994 -0.562096 0.011800 -0.954100 1 0 1.000000 
0 2.644598 43.519402 14.514500 0.011400 -0.826994 -0.562096 0.022700 -0.933800 1 0 1.000000 
0 4.043498 42.676601 15.783000 0.011400 -0.826994 -0.562096 0.012300 -0.922900 1 0 1.000000 
plasterwall021a
0 -1.527401 33.953201 34.728600 0.208292 -0.957961 0.197292 0.233100 -0.973200 1 0 1.000000 
0 0.043499 33.852001 32.578300 0.208292 -0.957961 0.197292 0.245400 -0.988400 1 0 1.000000 
0 0.901798 34.481300 34.728600 0.208292 -0.957961 0.197292 0.252100 -0.971200 1 0 1.000000 
plasterwall021a
0 -3.956502 42.533401 15.830700 -0.188611 -0.719641 -0.668238 0.011200 -0.985400 1 0 1.000000 
0 -3.956502 44.669701 13.530100 -0.188611 -0.719641 -0.668238 0.034200 -0.985400 1 0 1.000000 
0 -0.656002 42.952099 14.448500 -0.188611 -0.719641 -0.668238 0.019000 -0.959600 1 0 1.000000 
plasterwall021a
0 0.901798 39.053200 42.992298 0.220303 -0.802212 0.554908 0.252100 -0.897400 1 0 1.000000 
0 0.901798 40.725800 45.410000 0.220303 -0.802212 0.554908 0.252100 -0.874600 1 0 1.000000 
0 -1.527402 38.694599 43.438099 0.220303 -0.802212 0.554908 0.233100 -0.895700 1 0 1.000000 
plasterwall021a
0 -0.656002 42.952099 14.448500 0.156599 -0.853096 -0.497698 0.019000 -0.959600 1 0 1.000000 
0 -0.656002 44.102402 12.476500 0.156599 -0.853096 -0.497698 0.034000 -0.959600 1 0 1.000000 
0 2.644598 43.519402 14.514500 0.156599 -0.853096 -0.497698 0.022700 -0.933800 1 0 1.000000 
plasterwall021a
0 -1.527402 40.725800 45.887600 0.124503 -0.763815 0.633313 0.233100 -0.871300 1 0 1.000000 
0 -1.527402 38.694599 43.438099 0.124503 -0.763815 0.633313 0.233100 -0.895700 1 0 1.000000 
0 0.901798 40.725800 45.410000 0.124503 -0.763815 0.633313 0.252100 -0.874600 1 0 1.000000 
plasterwall021a
0 2.644598 47.046398 12.089100 0.275892 -0.355890 -0.892875 0.055900 -0.933800 1 0 1.000000 
0 2.644598 44.669701 13.036300 0.275892 -0.355890 -0.892875 0.036000 -0.933800 1 0 1.000000 
0 -0.656002 45.820000 11.558200 0.275892 -0.355890 -0.892875 0.049200 -0.959600 1 0 1.000000 
plasterwall021a
0 -3.956502 39.053200 42.992298 -0.208001 -0.881404 0.424102 0.214200 -0.897400 1 0 1.000000 
0 -3.956502 37.213402 39.168301 -0.208001 -0.881404 0.424102 0.214200 -0.930600 1 0 1.000000 
0 -1.527402 38.694599 43.438099 -0.208001 -0.881404 0.424102 0.233100 -0.895700 1 0 1.000000 
plasterwall021a
0 -1.527402 36.781898 39.494202 -0.213391 -0.879061 0.426281 0.233100 -0.929900 1 0 1.000000 
0 -1.527402 38.694599 43.438099 -0.208001 -0.881404 0.424102 0.233100 -0.895700 1 0 1.000000 
0 -3.956502 37.213402 39.168301 -0.208001 -0.881404 0.424102 0.214200 -0.930600 1 0 1.000000 
plasterwall021a
0 -3.956502 40.725800 45.410000 -0.111199 -0.817291 0.565394 0.214200 -0.874600 1 0 1.000000 
0 -3.956502 39.053200 42.992298 -0.111199 -0.817291 0.565394 0.214200 -0.897400 1 0 1.000000 
0 -1.527402 40.725800 45.887600 -0.111199 -0.817291 0.565394 0.233100 -0.871300 1 0 1.000000 
plasterwall021a
0 2.644598 44.669701 13.036300 0.233208 -0.767426 -0.597220 0.036000 -0.933800 1 0 1.000000 
0 2.644598 43.519402 14.514500 0.233208 -0.767426 -0.597220 0.022700 -0.933800 1 0 1.000000 
0 -0.656002 44.102402 12.476500 0.233208 -0.767426 -0.597220 0.034000 -0.959600 1 0 1.000000 
plasterwall021a
0 -3.956502 44.499001 44.222500 -0.293800 0.599999 0.744099 0.454200 -0.956200 1 0 1.000000 
0 -1.527402 45.264198 44.564701 -0.293800 0.599999 0.744099 0.457600 -0.937200 1 0 1.000000 
0 -3.956502 45.971500 43.035000 -0.293800 0.599999 0.744099 0.469000 -0.956200 1 0 1.000000 
plasterwall021a
0 -0.656002 45.820000 11.558200 0.000000 -0.471486 -0.881873 0.049200 -0.959600 1 0 1.000000 
0 -0.656002 44.102402 12.476500 0.000000 -0.471486 -0.881873 0.034000 -0.959600 1 0 1.000000 
0 -3.956502 45.820000 11.558200 0.000000 -0.471486 -0.881873 0.049200 -0.985400 1 0 1.000000 
plasterwall021a
0 -1.527402 43.026402 45.887600 0.166904 0.501812 0.848721 0.437300 -0.937200 1 0 1.000000 
0 0.901798 43.026402 45.410000 0.166904 0.501812 0.848721 0.439500 -0.918200 1 0 1.000000 
0 -1.527402 45.264198 44.564701 0.166904 0.501812 0.848721 0.457600 -0.937200 1 0 1.000000 
plasterwall021a
0 0.410498 48.285000 10.325700 0.361695 -0.482894 -0.797490 0.070700 -0.951200 1 0 1.000000 
0 2.644598 47.046398 12.089100 0.361695 -0.482894 -0.797490 0.055900 -0.933800 1 0 1.000000 
0 -0.656002 46.806000 10.737500 0.361695 -0.482894 -0.797490 0.059000 -0.959600 1 0 1.000000 
plasterwall021a
0 -3.956502 43.026402 45.410000 -0.151297 0.620487 0.769484 0.439500 -0.956200 1 0 1.000000 
0 -1.527402 43.026402 45.887600 -0.151297 0.620487 0.769484 0.437300 -0.937200 1 0 1.000000 
0 -3.956502 44.499001 44.222500 -0.151297 0.620487 0.769484 0.454200 -0.956200 1 0 1.000000 
plasterwall021a
0 -3.956502 48.750099 9.938100 -0.072801 -0.482604 -0.872808 0.075400 -0.985400 1 0 1.000000 
0 -0.656002 46.806000 10.737500 -0.072801 -0.482604 -0.872808 0.059000 -0.959600 1 0 1.000000 
0 -3.956502 45.820000 11.558200 -0.072801 -0.482604 -0.872808 0.049200 -0.985400 1 0 1.000000 
plasterwall021a
0 -0.889702 52.843899 38.072899 -0.156495 0.235592 0.959169 0.535200 -0.932200 1 0 1.000000 
0 -0.889702 55.029202 37.536201 -0.156495 0.235592 0.959169 0.551600 -0.932200 1 0 1.000000 
0 -2.681302 52.557598 37.850899 -0.156495 0.235592 0.959169 0.534300 -0.946200 1 0 1.000000 
plasterwall021a
0 -1.823603 58.473400 13.195600 0.011200 0.136301 -0.990604 0.199300 -0.986700 1 0 1.000000 
0 -1.823603 63.074600 13.829000 0.011200 0.136301 -0.990604 0.234200 -0.986700 1 0 1.000000 
0 0.410497 61.759998 13.673200 0.011200 0.136301 -0.990604 0.224300 -0.969200 1 0 1.000000 
plasterwall021a
0 0.901798 54.858200 37.029202 0.280009 0.495517 0.822227 0.552700 -0.918200 1 0 1.000000 
0 0.901797 56.792702 35.863400 0.280009 0.495517 0.822227 0.570300 -0.918200 1 0 1.000000 
0 -0.889702 55.029202 37.536201 0.280009 0.495517 0.822227 0.551600 -0.932200 1 0 1.000000 
plasterwall021a
0 -0.889702 55.029202 37.536201 0.280009 0.495517 0.822227 0.551600 -0.932200 1 0 1.000000 
0 0.901797 56.792702 35.863400 0.280009 0.495517 0.822227 0.570300 -0.918200 1 0 1.000000 
0 -0.889702 57.158798 36.207600 0.261686 0.510874 0.818858 0.571100 -0.932200 1 0 1.000000 
plasterwall021a
0 0.901798 52.557598 37.850899 0.167991 0.331582 0.928349 0.534300 -0.918200 1 0 1.000000 
0 0.901798 54.858200 37.029202 0.167991 0.331582 0.928349 0.552700 -0.918200 1 0 1.000000 
0 -0.889702 52.843899 38.072899 0.167991 0.331582 0.928349 0.535200 -0.932200 1 0 1.000000 
plasterwall021a
0 0.410497 58.782398 12.841600 0.216405 0.262606 -0.940323 0.200400 -0.969200 1 0 1.000000 
0 0.410497 61.759998 13.673200 0.216405 0.262606 -0.940323 0.224300 -0.969200 1 0 1.000000 
0 2.644597 61.759998 14.187400 0.216405 0.262606 -0.940323 0.225900 -0.951800 1 0 1.000000 
plasterwall021a
0 -0.889702 57.158798 36.207600 0.267587 0.787162 0.555673 0.571100 -0.932200 1 0 1.000000 
0 0.901797 56.792702 35.863400 0.267587 0.787162 0.555673 0.570300 -0.918200 1 0 1.000000 
0 0.901797 58.637798 33.249699 0.267587 0.787162 0.555673 0.593900 -0.918200 1 0 1.000000 
plasterwall021a
0 2.644597 61.759998 14.187400 0.423011 0.090202 -0.901623 0.225900 -0.951800 1 0 1.000000 
0 2.644597 58.473400 13.858800 0.423011 0.090202 -0.901623 0.201400 -0.951800 1 0 1.000000 
0 0.410497 58.782398 12.841600 0.423011 0.090202 -0.901623 0.200400 -0.969200 1 0 1.000000 
plasterwall021a
0 -0.889703 58.637798 34.388901 -0.344309 0.767021 0.541415 0.588800 -0.932200 1 0 1.000000 
0 -2.681303 58.637798 33.249699 -0.344309 0.767021 0.541415 0.593900 -0.946200 1 0 1.000000 
0 -2.681302 56.792702 35.863400 -0.344309 0.767021 0.541415 0.570300 -0.946200 1 0 1.000000 
plasterwall021a
0 0.901797 64.553596 31.552500 -0.041401 0.679917 0.732119 0.639300 -0.918200 1 0 1.000000 
0 -1.527403 64.553596 31.415100 -0.041401 0.679917 0.732119 0.639900 -0.937200 1 0 1.000000 
0 -1.527403 62.805599 33.038502 -0.041401 0.679917 0.732119 0.621500 -0.937200 1 0 1.000000 
plasterwall021a
0 0.901797 58.637798 33.249699 0.372398 0.719997 0.585597 0.593900 -0.918200 1 0 1.000000 
0 -0.889703 58.637798 34.388901 0.372398 0.719997 0.585597 0.588800 -0.932200 1 0 1.000000 
0 -0.889702 57.158798 36.207600 0.372398 0.719997 0.585597 0.571100 -0.932200 1 0 1.000000 
plasterwall021a
0 -1.527403 64.553596 31.415100 -0.053601 0.315803 0.947309 0.639900 -0.937200 1 0 1.000000 
0 -3.956503 64.553596 31.277700 -0.053601 0.315803 0.947309 0.640600 -0.956200 1 0 1.000000 
0 -3.956503 61.057701 32.443001 -0.053601 0.315803 0.947309 0.613000 -0.956200 1 0 1.000000 
end
