"VertexLitGeneric"
{
	"$basetexture" "models/props_combine/combine_gate_vehicle01a_old"
	"$surfaceprop" "metal"
	//"$envmap" "Environment Maps/envmapcombine"
	"$envmap" "env_cubemap"
	"$envmaptint" "[ .1 .1 .1]"
	"$basealphaenvmapmask" 1
	//"$envmapmask" "models/props_combine/combine_cell001_mask"
}
