$cd ".\"
$modelname "props_junk/glassjugbottom_chunk01d.mdl"
$model "Body" "glassjugbottom_chunk01d_reference.smd"
$cdmaterials "models/props_junk/old"
$surfaceprop "glass"
$eyeposition 0.000 0.000 0.000
$illumposition 0.832 1.943 1.740
$sequence idle "idle" ACT_IDLE 1 fps 30.000000

$MostlyOpaque
$collisionmodel "glassjugbottom_chunk01d_reference.smd"
{
	$mass 1
	$inertia 1
	$damping 0
	$rotdamping 0
}

$keyvalues
{
	prop_data 
	{
		"base"		"Glass.Small"
		"health"	"0"
	}
}