version 1
nodes
  0 "static_prop" -1
end
skeleton
time 0
0 0.000000 0.000000 0.000000 0.000000 0.000000 0.000000
end
triangles
treebark01
0 -3.615600 2.087500 -0.011500 -0.944868 0.327289 0.010300 0.251900 3.683900 1 0 1.000000 
0 -1.292600 -0.746300 254.714905 -0.944868 -0.327289 0.010300 0.292500 -0.316100 1 0 1.000000 
0 -1.292600 0.746300 254.714905 -0.755903 0.654602 0.010300 0.251900 -0.316100 1 0 1.000000 
treebark01
0 -3.615600 2.087500 -0.011500 -0.944868 0.327289 0.010300 0.251900 3.683900 1 0 1.000000 
0 -3.615600 -2.087500 -0.011500 -0.755903 -0.654603 0.010300 0.292500 3.683900 1 0 1.000000 
0 -1.292600 -0.746300 254.714905 -0.944868 -0.327289 0.010300 0.292500 -0.316100 1 0 1.000000 
treebark01
0 -3.615600 -2.087500 -0.011500 -0.755903 -0.654603 0.010300 0.292500 3.683900 1 0 1.000000 
0 0.000000 -1.492500 254.714905 -0.189004 -0.981922 0.010300 0.333200 -0.316100 1 0 1.000000 
0 -1.292600 -0.746300 254.714905 -0.944868 -0.327289 0.010300 0.292500 -0.316100 1 0 1.000000 
treebark01
0 -3.615600 -2.087500 -0.011500 -0.755903 -0.654603 0.010300 0.292500 3.683900 1 0 1.000000 
0 0.000000 -4.174900 -0.011500 0.189004 -0.981922 0.010300 0.333200 3.683900 1 0 1.000000 
0 0.000000 -1.492500 254.714905 -0.189004 -0.981922 0.010300 0.333200 -0.316100 1 0 1.000000 
treebark01
0 0.000000 -4.174900 -0.011500 0.189004 -0.981922 0.010300 0.333200 3.683900 1 0 1.000000 
0 1.292600 -0.746300 254.714905 0.755903 -0.654602 0.010300 0.373800 -0.316100 1 0 1.000000 
0 0.000000 -1.492500 254.714905 -0.189004 -0.981922 0.010300 0.333200 -0.316100 1 0 1.000000 
treebark01
0 0.000000 -4.174900 -0.011500 0.189004 -0.981922 0.010300 0.333200 3.683900 1 0 1.000000 
0 3.615600 -2.087500 -0.011500 0.944868 -0.327289 0.010300 0.373800 3.683900 1 0 1.000000 
0 1.292600 -0.746300 254.714905 0.755903 -0.654602 0.010300 0.373800 -0.316100 1 0 1.000000 
treebark01
0 3.615600 -2.087500 -0.011500 0.944868 -0.327289 0.010300 0.373800 3.683900 1 0 1.000000 
0 1.292600 0.746300 254.714905 0.944868 0.327289 0.010300 0.414500 -0.316100 1 0 1.000000 
0 1.292600 -0.746300 254.714905 0.755903 -0.654602 0.010300 0.373800 -0.316100 1 0 1.000000 
treebark01
0 3.615600 -2.087500 -0.011500 0.944868 -0.327289 0.010300 0.373800 3.683900 1 0 1.000000 
0 3.615600 2.087500 -0.011500 0.755903 0.654603 0.010300 0.414500 3.683900 1 0 1.000000 
0 1.292600 0.746300 254.714905 0.944868 0.327289 0.010300 0.414500 -0.316100 1 0 1.000000 
treebark01
0 3.615600 2.087500 -0.011500 0.755903 0.654603 0.010300 0.414500 3.683900 1 0 1.000000 
0 -0.000000 1.492500 254.714905 0.189004 0.981922 0.010300 0.455100 -0.316100 1 0 1.000000 
0 1.292600 0.746300 254.714905 0.944868 0.327289 0.010300 0.414500 -0.316100 1 0 1.000000 
treebark01
0 3.615600 2.087500 -0.011500 0.755903 0.654603 0.010300 0.414500 3.683900 1 0 1.000000 
0 -0.000000 4.174900 -0.011500 -0.189004 0.981922 0.010300 0.455100 3.683900 1 0 1.000000 
0 -0.000000 1.492500 254.714905 0.189004 0.981922 0.010300 0.455100 -0.316100 1 0 1.000000 
treebark01
0 -0.000000 4.174900 -0.011500 -0.189004 0.981922 0.010300 0.455100 3.683900 1 0 1.000000 
0 -1.292600 0.746300 254.714905 -0.755903 0.654602 0.010300 0.495800 -0.316100 1 0 1.000000 
0 -0.000000 1.492500 254.714905 0.189004 0.981922 0.010300 0.455100 -0.316100 1 0 1.000000 
treebark01
0 -0.000000 4.174900 -0.011500 -0.189004 0.981922 0.010300 0.455100 3.683900 1 0 1.000000 
0 -3.615600 2.087500 -0.011500 -0.944868 0.327289 0.010300 0.495800 3.683900 1 0 1.000000 
0 -1.292600 0.746300 254.714905 -0.755903 0.654602 0.010300 0.495800 -0.316100 1 0 1.000000 
treepine01
0 -131.054901 0.000794 66.706596 0.000000 -1.000000 0.000000 0.507000 0.001000 1 0 1.000000 
0 -10.774200 0.000800 22.927999 0.000000 -1.000000 0.000000 0.994300 0.001000 1 0 1.000000 
0 -120.110199 0.000795 96.776703 0.000000 -1.000000 0.000000 0.507000 -0.127300 1 0 1.000000 
treepine01
0 0.170400 0.000800 52.998100 0.000000 -1.000000 0.000000 0.994300 -0.127300 1 0 1.000000 
0 -120.110199 0.000795 96.776703 0.000000 -1.000000 0.000000 0.507000 -0.127300 1 0 1.000000 
0 -10.774200 0.000800 22.927999 0.000000 -1.000000 0.000000 0.994300 0.001000 1 0 1.000000 
treepine01
0 29.913300 -0.973199 255.638000 0.336801 -0.221701 -0.915103 0.750100 -0.498100 1 0 1.000000 
0 18.799803 -63.043301 266.582611 0.336801 -0.221701 -0.915103 0.503500 -0.498100 1 0 1.000000 
0 0.300000 2.268600 243.952896 0.336801 -0.221701 -0.915103 0.750100 -0.374800 1 0 1.000000 
treepine01
0 -10.813498 -59.801601 254.897507 0.336801 -0.221701 -0.915103 0.503500 -0.374800 1 0 1.000000 
0 0.300000 2.268600 243.952896 0.336801 -0.221701 -0.915103 0.750100 -0.374800 1 0 1.000000 
0 18.799803 -63.043301 266.582611 0.336801 -0.221701 -0.915103 0.503500 -0.498100 1 0 1.000000 
treepine01
0 0.299900 2.268600 243.952896 -0.336812 -0.104704 -0.935732 0.750100 -0.373100 1 0 1.000000 
0 -10.813498 -59.801498 254.897507 -0.336812 -0.104704 -0.935732 0.503500 -0.373100 1 0 1.000000 
0 -29.313400 9.311399 253.824493 -0.336812 -0.104704 -0.935732 0.750100 -0.249800 1 0 1.000000 
treepine01
0 -40.426796 -52.758701 264.769196 -0.336812 -0.104704 -0.935732 0.503500 -0.249800 1 0 1.000000 
0 -29.313400 9.311399 253.824493 -0.336812 -0.104704 -0.935732 0.750100 -0.249800 1 0 1.000000 
0 -10.813498 -59.801498 254.897507 -0.336812 -0.104704 -0.935732 0.503500 -0.373100 1 0 1.000000 
treepine01
0 0.299900 -0.510000 228.195908 0.984808 -0.171001 0.030200 0.998400 -0.251500 1 0 1.000000 
0 0.299900 2.268400 243.952896 0.984808 -0.171001 0.030200 0.998400 -0.312500 1 0 1.000000 
0 -10.813597 -62.580101 239.140594 0.984808 -0.171001 0.030200 0.752800 -0.251500 1 0 1.000000 
treepine01
0 -10.813597 -59.801701 254.897507 0.984808 -0.171001 0.030200 0.752800 -0.312500 1 0 1.000000 
0 -10.813597 -62.580101 239.140594 0.984808 -0.171001 0.030200 0.752800 -0.251500 1 0 1.000000 
0 0.299900 2.268400 243.952896 0.984808 -0.171001 0.030200 0.998400 -0.312500 1 0 1.000000 
treepine01
0 -29.920200 2.617399 205.453506 -0.340700 0.029800 -0.939700 0.750100 -0.498100 1 0 1.000000 
0 -24.342203 66.373901 205.453506 -0.340700 0.029800 -0.939700 0.503500 -0.498100 1 0 1.000000 
0 0.035600 -0.003300 194.508896 -0.340700 0.029800 -0.939700 0.750100 -0.374800 1 0 1.000000 
treepine01
0 5.613497 63.753101 194.508896 -0.340700 0.029800 -0.939700 0.503500 -0.374800 1 0 1.000000 
0 0.035600 -0.003300 194.508896 -0.340700 0.029800 -0.939700 0.750100 -0.374800 1 0 1.000000 
0 -24.342203 66.373901 205.453506 -0.340700 0.029800 -0.939700 0.503500 -0.498100 1 0 1.000000 
treepine01
0 0.035600 -0.003400 194.508896 0.340700 -0.029800 -0.939700 0.750100 -0.373100 1 0 1.000000 
0 5.613597 63.753101 194.508896 0.340700 -0.029800 -0.939700 0.503500 -0.373100 1 0 1.000000 
0 29.991400 -2.624099 205.453506 0.340700 -0.029800 -0.939700 0.750100 -0.249800 1 0 1.000000 
treepine01
0 35.569298 61.132301 205.453506 0.340700 -0.029800 -0.939700 0.503500 -0.249800 1 0 1.000000 
0 29.991400 -2.624099 205.453506 0.340700 -0.029800 -0.939700 0.750100 -0.249800 1 0 1.000000 
0 5.613597 63.753101 194.508896 0.340700 -0.029800 -0.939700 0.503500 -0.373100 1 0 1.000000 
treepine01
0 0.035600 -0.003200 178.508804 -0.996191 0.087199 0.000000 0.998400 -0.251500 1 0 1.000000 
0 0.035600 -0.003200 194.508804 -0.996191 0.087199 0.000000 0.998400 -0.312500 1 0 1.000000 
0 5.613597 63.753300 178.508896 -0.996191 0.087199 0.000000 0.752800 -0.251500 1 0 1.000000 
treepine01
0 5.613597 63.753300 194.508804 -0.996191 0.087199 0.000000 0.752800 -0.312500 1 0 1.000000 
0 5.613597 63.753300 178.508896 -0.996191 0.087199 0.000000 0.752800 -0.251500 1 0 1.000000 
0 0.035600 -0.003200 194.508804 -0.996191 0.087199 0.000000 0.998400 -0.312500 1 0 1.000000 
treepine01
0 18.171701 -24.361601 164.721207 0.114305 -0.310312 -0.943738 0.750100 -0.498100 1 0 1.000000 
0 -34.296295 -60.586201 170.277893 0.114305 -0.310312 -0.943738 0.503500 -0.498100 1 0 1.000000 
0 0.216300 0.078700 154.509705 0.114305 -0.310312 -0.943738 0.750100 -0.374800 1 0 1.000000 
treepine01
0 -52.251701 -36.145905 160.066406 0.114305 -0.310312 -0.943738 0.503500 -0.374800 1 0 1.000000 
0 0.216300 0.078700 154.509705 0.114305 -0.310312 -0.943738 0.750100 -0.374800 1 0 1.000000 
0 -34.296295 -60.586201 170.277893 0.114305 -0.310312 -0.943738 0.503500 -0.498100 1 0 1.000000 
treepine01
0 0.216300 0.078700 154.509705 -0.273091 0.253192 -0.928070 0.750100 -0.373100 1 0 1.000000 
0 -52.251701 -36.145805 160.066406 -0.273091 0.253192 -0.928070 0.503500 -0.373100 1 0 1.000000 
0 -15.889501 25.184299 166.098999 -0.273091 0.253192 -0.928070 0.750100 -0.249800 1 0 1.000000 
treepine01
0 -68.357498 -11.040303 171.655807 -0.273091 0.253192 -0.928070 0.503500 -0.249800 1 0 1.000000 
0 -15.889501 25.184299 166.098999 -0.273091 0.253192 -0.928070 0.750100 -0.249800 1 0 1.000000 
0 -52.251701 -36.145805 160.066406 -0.273091 0.253192 -0.928070 0.503500 -0.373100 1 0 1.000000 
treepine01
0 -1.135800 -0.407600 138.574295 0.566406 -0.823808 -0.022900 0.998400 -0.251500 1 0 1.000000 
0 0.216200 0.078600 154.509705 0.566406 -0.823808 -0.022900 0.998400 -0.312500 1 0 1.000000 
0 -53.603802 -36.632202 144.131104 0.566406 -0.823808 -0.022900 0.752800 -0.251500 1 0 1.000000 
treepine01
0 -52.251900 -36.145905 160.066406 0.566406 -0.823808 -0.022900 0.752800 -0.312500 1 0 1.000000 
0 -53.603802 -36.632202 144.131104 0.566406 -0.823808 -0.022900 0.752800 -0.251500 1 0 1.000000 
0 0.216200 0.078600 154.509705 0.566406 -0.823808 -0.022900 0.998400 -0.312500 1 0 1.000000 
treepine01
0 28.952900 8.366201 220.216904 0.374892 -0.116798 -0.919681 0.750100 -0.498100 1 0 1.000000 
0 40.901703 -53.214699 232.906097 0.374892 -0.116798 -0.919681 0.503500 -0.498100 1 0 1.000000 
0 -0.105900 0.493300 209.372604 0.374892 -0.116798 -0.919681 0.750100 -0.374800 1 0 1.000000 
treepine01
0 11.842803 -61.087601 222.061707 0.374892 -0.116798 -0.919681 0.503500 -0.374800 1 0 1.000000 
0 -0.105900 0.493300 209.372604 0.374892 -0.116798 -0.919681 0.750100 -0.374800 1 0 1.000000 
0 40.901703 -53.214699 232.906097 0.374892 -0.116798 -0.919681 0.503500 -0.498100 1 0 1.000000 
treepine01
0 -0.106000 0.493300 209.372604 -0.296585 -0.247588 -0.922354 0.750100 -0.373100 1 0 1.000000 
0 11.842803 -61.087601 222.061707 -0.296585 -0.247588 -0.922354 0.503500 -0.373100 1 0 1.000000 
0 -30.076799 -3.135801 219.982803 -0.296585 -0.247588 -0.922354 0.750100 -0.249800 1 0 1.000000 
treepine01
0 -18.128098 -64.716698 232.671906 -0.296585 -0.247588 -0.922354 0.503500 -0.249800 1 0 1.000000 
0 -30.076799 -3.135801 219.982803 -0.296585 -0.247588 -0.922354 0.750100 -0.249800 1 0 1.000000 
0 11.842803 -61.087601 222.061707 -0.296585 -0.247588 -0.922354 0.503500 -0.373100 1 0 1.000000 
treepine01
0 0.560700 -2.608900 193.690399 0.981523 0.191305 0.003900 0.998400 -0.251500 1 0 1.000000 
0 -0.105900 0.493100 209.372604 0.981523 0.191305 0.003900 0.998400 -0.312500 1 0 1.000000 
0 12.509502 -64.189903 206.379501 0.981523 0.191305 0.003900 0.752800 -0.251500 1 0 1.000000 
treepine01
0 11.842803 -61.087799 222.061707 0.981523 0.191305 0.003900 0.752800 -0.312500 1 0 1.000000 
0 12.509502 -64.189903 206.379501 0.981523 0.191305 0.003900 0.752800 -0.251500 1 0 1.000000 
0 -0.105900 0.493100 209.372604 0.981523 0.191305 0.003900 0.998400 -0.312500 1 0 1.000000 
treepine01
0 -8.129501 29.007299 234.812302 0.180093 0.379086 -0.907667 0.750100 -0.498100 1 0 1.000000 
0 52.750500 39.742104 251.376801 0.180093 0.379086 -0.907667 0.503500 -0.498100 1 0 1.000000 
0 -0.118200 -0.114200 224.240601 0.180093 0.379086 -0.907667 0.750100 -0.374800 1 0 1.000000 
treepine01
0 60.761799 10.620703 240.805099 0.180093 0.379086 -0.907667 0.503500 -0.374800 1 0 1.000000 
0 -0.118200 -0.114200 224.240601 0.180093 0.379086 -0.907667 0.750100 -0.374800 1 0 1.000000 
0 52.750500 39.742104 251.376801 0.180093 0.379086 -0.907667 0.503500 -0.498100 1 0 1.000000 
treepine01
0 -0.118200 -0.114200 224.240601 0.298893 -0.294593 -0.907677 0.750100 -0.373100 1 0 1.000000 
0 60.761799 10.620603 240.805099 0.298893 -0.294593 -0.907677 0.503500 -0.373100 1 0 1.000000 
0 2.313802 -30.219400 234.812302 0.298893 -0.294593 -0.907677 0.750100 -0.249800 1 0 1.000000 
treepine01
0 63.193802 -19.484598 251.376801 0.298893 -0.294593 -0.907677 0.503500 -0.249800 1 0 1.000000 
0 2.313802 -30.219400 234.812302 0.298893 -0.294593 -0.907677 0.750100 -0.249800 1 0 1.000000 
0 60.761799 10.620603 240.805099 0.298893 -0.294593 -0.907677 0.503500 -0.373100 1 0 1.000000 
treepine01
0 3.960200 0.604900 208.785797 -0.173603 0.984816 0.000000 0.998400 -0.251500 1 0 1.000000 
0 -0.118000 -0.114200 224.240601 -0.173603 0.984816 0.000000 0.998400 -0.312500 1 0 1.000000 
0 64.840202 11.339703 225.350296 -0.173603 0.984816 0.000000 0.752800 -0.251500 1 0 1.000000 
treepine01
0 60.762001 10.620603 240.805099 -0.173603 0.984816 0.000000 0.752800 -0.312500 1 0 1.000000 
0 64.840202 11.339703 225.350296 -0.173603 0.984816 0.000000 0.752800 -0.251500 1 0 1.000000 
0 -0.118000 -0.114200 224.240601 -0.173603 0.984816 0.000000 0.998400 -0.312500 1 0 1.000000 
treepine01
0 -0.912101 30.378700 145.533905 0.084401 0.319806 -0.943716 0.750100 -0.498100 1 0 1.000000 
0 62.844700 29.957703 151.090698 0.084401 0.319806 -0.943716 0.503500 -0.498100 1 0 1.000000 
0 -0.222400 0.059600 135.322403 0.084401 0.319806 -0.943716 0.750100 -0.374800 1 0 1.000000 
treepine01
0 63.534500 -0.361397 140.879196 0.084401 0.319806 -0.943716 0.503500 -0.374800 1 0 1.000000 
0 -0.222400 0.059600 135.322403 0.084401 0.319806 -0.943716 0.750100 -0.374800 1 0 1.000000 
0 62.844700 29.957703 151.090698 0.084401 0.319806 -0.943716 0.503500 -0.498100 1 0 1.000000 
treepine01
0 -0.222400 0.059600 135.322403 0.078496 -0.364082 -0.928053 0.750100 -0.373100 1 0 1.000000 
0 63.534500 -0.361397 140.879196 0.078496 -0.364082 -0.928053 0.503500 -0.373100 1 0 1.000000 
0 -1.429199 -29.743601 146.911804 0.078496 -0.364082 -0.928053 0.750100 -0.249800 1 0 1.000000 
treepine01
0 62.327702 -30.164598 152.468597 0.078496 -0.364082 -0.928053 0.503500 -0.249800 1 0 1.000000 
0 -1.429199 -29.743601 146.911804 0.078496 -0.364082 -0.928053 0.750100 -0.249800 1 0 1.000000 
0 63.534500 -0.361397 140.879196 0.078496 -0.364082 -0.928053 0.503500 -0.373100 1 0 1.000000 
treepine01
0 1.164200 -0.317500 119.387100 0.008600 0.999701 -0.022900 0.998400 -0.251500 1 0 1.000000 
0 -0.222200 0.059600 135.322403 0.008600 0.999701 -0.022900 0.998400 -0.312500 1 0 1.000000 
0 64.921097 -0.738597 124.943802 0.008600 0.999701 -0.022900 0.752800 -0.251500 1 0 1.000000 
treepine01
0 63.534698 -0.361397 140.879196 0.008600 0.999701 -0.022900 0.752800 -0.312500 1 0 1.000000 
0 64.921097 -0.738597 124.943802 0.008600 0.999701 -0.022900 0.752800 -0.251500 1 0 1.000000 
0 -0.222200 0.059600 135.322403 0.008600 0.999701 -0.022900 0.998400 -0.312500 1 0 1.000000 
treepine01
0 17.148998 26.039900 110.983200 0.005200 0.296203 -0.955111 0.750100 -0.498100 1 0 1.000000 
0 0.441800 -0.001700 102.815598 0.005200 0.296203 -0.955111 0.750100 -0.374800 1 0 1.000000 
0 -37.434605 58.039902 120.607697 0.005200 0.296203 -0.955111 0.503500 -0.498100 1 0 1.000000 
treepine01
0 -54.141701 31.998299 112.440201 0.005200 0.296203 -0.955111 0.503500 -0.374800 1 0 1.000000 
0 -37.434605 58.039902 120.607697 0.005200 0.296203 -0.955111 0.503500 -0.498100 1 0 1.000000 
0 0.441800 -0.001700 102.815598 0.005200 0.296203 -0.955111 0.750100 -0.374800 1 0 1.000000 
treepine01
0 0.441800 -0.001700 102.815598 -0.331605 -0.296204 -0.895713 0.750100 -0.373100 1 0 1.000000 
0 -12.464399 -26.043200 116.204803 -0.331605 -0.296204 -0.895713 0.750100 -0.249800 1 0 1.000000 
0 -54.141800 31.998299 112.440201 -0.331605 -0.296204 -0.895713 0.503500 -0.373100 1 0 1.000000 
treepine01
0 -67.047897 5.956797 125.829399 -0.331605 -0.296204 -0.895713 0.503500 -0.249800 1 0 1.000000 
0 -54.141800 31.998299 112.440201 -0.331605 -0.296204 -0.895713 0.503500 -0.373100 1 0 1.000000 
0 -12.464399 -26.043200 116.204803 -0.331605 -0.296204 -0.895713 0.750100 -0.249800 1 0 1.000000 
treepine01
0 -2.336700 -0.001600 87.058701 -0.492413 -0.866022 0.086802 0.998600 -0.374100 1 0 1.000000 
0 0.441700 -0.001600 102.815598 -0.492413 -0.866022 0.086802 0.998600 -0.313200 1 0 1.000000 
0 -56.920300 31.998398 96.683296 -0.492413 -0.866022 0.086802 0.752600 -0.374100 1 0 1.000000 
treepine01
0 -54.141899 31.998398 112.440201 -0.492413 -0.866022 0.086802 0.752600 -0.313200 1 0 1.000000 
0 -56.920300 31.998398 96.683296 -0.492413 -0.866022 0.086802 0.752600 -0.374100 1 0 1.000000 
0 0.441700 -0.001600 102.815598 -0.492413 -0.866022 0.086802 0.998600 -0.313200 1 0 1.000000 
treepine01
0 -120.312401 -0.000105 96.850098 0.321408 -0.342008 0.883022 0.006900 -0.246100 1 0 1.000000 
0 -0.031700 -0.000100 53.071499 0.321408 -0.342008 0.883022 0.495700 -0.246100 1 0 1.000000 
0 -112.825798 60.140198 117.419296 0.321408 -0.342008 0.883022 0.006900 -0.001700 1 0 1.000000 
treepine01
0 7.454897 60.140202 73.640701 0.321408 -0.342008 0.883022 0.495700 -0.001700 1 0 1.000000 
0 -112.825798 60.140198 117.419296 0.321408 -0.342008 0.883022 0.006900 -0.001700 1 0 1.000000 
0 -0.031700 -0.000100 53.071499 0.321408 -0.342008 0.883022 0.495700 -0.246100 1 0 1.000000 
treepine01
0 -112.826103 -60.140205 117.418404 0.321408 0.342008 0.883022 0.006900 -0.490100 1 0 1.000000 
0 7.454603 -60.140202 73.639801 0.321408 0.342008 0.883022 0.495700 -0.490100 1 0 1.000000 
0 -120.312698 0.000195 96.849197 0.321408 0.342008 0.883022 0.006900 -0.245700 1 0 1.000000 
treepine01
0 -0.032000 0.000100 53.070599 0.321408 0.342008 0.883022 0.495700 -0.245700 1 0 1.000000 
0 -120.312698 0.000195 96.849197 0.321408 0.342008 0.883022 0.006900 -0.245700 1 0 1.000000 
0 7.454603 -60.140202 73.639801 0.321408 0.342008 0.883022 0.495700 -0.490100 1 0 1.000000 
end
