// Created by Crowbar 0.50.0.0
version 1
nodes
  0 "static_prop" -1
end
skeleton
  time 0
    0 0.000000 0.000000 0.000000 0.000000 0.000000 0.000000
end
triangles
  phy
    0 40.041194 43.943402 -15.847399 -0.999255 0.000000 0.038597 0 0
    0 -40.160103 43.943402 17.298100 0.000000 -1.000000 0.000000 0 0
    0 -40.160103 43.943402 -15.847399 0.000000 1.000000 0.000000 0 0
  phy
    0 40.041194 43.943402 -15.847399 -0.999255 0.000000 0.038597 0 0
    0 40.041194 43.943402 17.298100 0.000000 -1.000000 0.000000 0 0
    0 -40.160103 43.943402 17.298100 0.000000 -1.000000 0.000000 0 0
  phy
    0 -40.160103 43.943402 -15.847399 0.000000 1.000000 0.000000 0 0
    0 -40.160103 43.943402 17.298100 0.000000 -1.000000 0.000000 0 0
    0 -40.160103 44.877900 -15.847399 -1.000000 0.000000 0.000000 0 0
  phy
    0 -40.160103 44.877900 -15.847399 -1.000000 0.000000 0.000000 0 0
    0 -40.160103 43.943402 17.298100 0.000000 -1.000000 0.000000 0 0
    0 -40.160103 44.877900 17.298100 -1.000000 0.000000 0.000000 0 0
  phy
    0 40.041194 43.943402 -15.847399 -0.999255 0.000000 0.038597 0 0
    0 -40.160103 43.943402 -15.847399 0.000000 1.000000 0.000000 0 0
    0 40.041194 44.877900 -15.847399 -1.000000 0.000000 0.000000 0 0
  phy
    0 40.041194 44.877900 -15.847399 -1.000000 0.000000 0.000000 0 0
    0 -40.160103 43.943402 -15.847399 0.000000 1.000000 0.000000 0 0
    0 -40.160103 44.877900 -15.847399 -1.000000 0.000000 0.000000 0 0
  phy
    0 40.041194 44.877900 -15.847399 -1.000000 0.000000 0.000000 0 0
    0 40.041194 43.943402 17.298100 0.000000 -1.000000 0.000000 0 0
    0 40.041194 43.943402 -15.847399 -0.999255 0.000000 0.038597 0 0
  phy
    0 40.041194 44.877900 -15.847399 -1.000000 0.000000 0.000000 0 0
    0 40.041194 44.877900 17.298100 -1.000000 0.000000 0.000000 0 0
    0 40.041194 43.943402 17.298100 0.000000 -1.000000 0.000000 0 0
  phy
    0 40.041194 43.943402 17.298100 0.000000 -1.000000 0.000000 0 0
    0 -40.160103 44.877900 17.298100 -1.000000 0.000000 0.000000 0 0
    0 -40.160103 43.943402 17.298100 0.000000 -1.000000 0.000000 0 0
  phy
    0 40.041194 43.943402 17.298100 0.000000 -1.000000 0.000000 0 0
    0 40.041194 44.877900 17.298100 -1.000000 0.000000 0.000000 0 0
    0 -40.160103 44.877900 17.298100 -1.000000 0.000000 0.000000 0 0
  phy
    0 -40.160103 44.877900 17.298100 -1.000000 0.000000 0.000000 0 0
    0 40.041194 44.877900 17.298100 -1.000000 0.000000 0.000000 0 0
    0 -40.160103 44.877900 -15.847399 -1.000000 0.000000 0.000000 0 0
  phy
    0 -40.160103 44.877900 -15.847399 -1.000000 0.000000 0.000000 0 0
    0 40.041194 44.877900 17.298100 -1.000000 0.000000 0.000000 0 0
    0 40.041194 44.877900 -15.847399 -1.000000 0.000000 0.000000 0 0
  phy
    0 0.178902 -44.432203 -10.269000 0.008796 0.996931 0.077791 0 0
    0 0.178798 44.800897 -8.905000 0.007824 -0.996763 0.080009 0 0
    0 0.178902 -44.432203 -8.905000 0.000000 -0.996794 0.080011 0 0
  phy
    0 0.178902 -44.432203 -10.269000 0.008796 0.996931 0.077791 0 0
    0 0.178798 44.800897 -10.269000 -1.000000 0.000000 0.000000 0 0
    0 0.178798 44.800897 -8.905000 0.007824 -0.996763 0.080009 0 0
  phy
    0 0.178902 -44.432203 -10.269000 0.008796 0.996931 0.077791 0 0
    0 0.178902 -44.432203 -8.905000 0.000000 -0.996794 0.080011 0 0
    0 -38.641494 -44.432203 -14.085500 -0.098902 0.980919 -0.167378 0 0
  phy
    0 0.178902 -44.432203 -8.905000 0.000000 -0.996794 0.080011 0 0
    0 -38.641494 -44.432203 -5.088500 0.000000 0.985752 -0.168203 0 0
    0 -38.641494 -44.432203 -14.085500 -0.098902 0.980919 -0.167378 0 0
  phy
    0 -38.641501 44.800897 -14.085500 -0.098902 0.980919 -0.167378 0 0
    0 0.178902 -44.432203 -10.269000 0.008796 0.996931 0.077791 0 0
    0 -38.641494 -44.432203 -14.085500 -0.098902 0.980919 -0.167378 0 0
  phy
    0 0.178798 44.800897 -10.269000 -1.000000 0.000000 0.000000 0 0
    0 0.178902 -44.432203 -10.269000 0.008796 0.996931 0.077791 0 0
    0 -38.641501 44.800897 -14.085500 -0.098902 0.980919 -0.167378 0 0
  phy
    0 -38.641501 44.800897 -5.088500 -0.098902 0.980919 -0.167378 0 0
    0 0.178798 44.800897 -8.905000 0.007824 -0.996763 0.080009 0 0
    0 0.178798 44.800897 -10.269000 -1.000000 0.000000 0.000000 0 0
  phy
    0 -38.641501 44.800897 -5.088500 -0.098902 0.980919 -0.167378 0 0
    0 0.178798 44.800897 -10.269000 -1.000000 0.000000 0.000000 0 0
    0 -38.641501 44.800897 -14.085500 -0.098902 0.980919 -0.167378 0 0
  phy
    0 0.178798 44.800897 -8.905000 0.007824 -0.996763 0.080009 0 0
    0 -38.641501 44.800897 -5.088500 -0.098902 0.980919 -0.167378 0 0
    0 0.178902 -44.432203 -8.905000 0.000000 -0.996794 0.080011 0 0
  phy
    0 0.178902 -44.432203 -8.905000 0.000000 -0.996794 0.080011 0 0
    0 -38.641501 44.800897 -5.088500 -0.098902 0.980919 -0.167378 0 0
    0 -38.641494 -44.432203 -5.088500 0.000000 0.985752 -0.168203 0 0
  phy
    0 -38.641494 -44.432203 -14.085500 -0.098902 0.980919 -0.167378 0 0
    0 -38.641494 -44.432203 -5.088500 0.000000 0.985752 -0.168203 0 0
    0 -38.641501 44.800897 -5.088500 -0.098902 0.980919 -0.167378 0 0
  phy
    0 -38.641501 44.800897 -14.085500 -0.098902 0.980919 -0.167378 0 0
    0 -38.641494 -44.432203 -14.085500 -0.098902 0.980919 -0.167378 0 0
    0 -38.641501 44.800897 -5.088500 -0.098902 0.980919 -0.167378 0 0
  phy
    0 -0.178902 44.800897 -8.905000 0.012958 -0.991781 -0.127289 0 0
    0 -0.178902 44.800897 -10.269000 -0.026915 0.994842 -0.097805 0 0
    0 -0.178798 -44.432203 -8.905000 1.000000 0.000000 0.000000 0 0
  phy
    0 -0.178798 -44.432203 -8.905000 1.000000 0.000000 0.000000 0 0
    0 -0.178902 44.800897 -10.269000 -0.026915 0.994842 -0.097805 0 0
    0 -0.178798 -44.432203 -10.269000 0.015607 0.990953 -0.133297 0 0
  phy
    0 -0.178902 44.800897 -10.269000 -0.026915 0.994842 -0.097805 0 0
    0 -0.178902 44.800897 -8.905000 0.012958 -0.991781 -0.127289 0 0
    0 38.641494 44.800897 -14.085500 0.094250 0.934781 0.342492 0 0
  phy
    0 38.641494 44.800897 -14.085500 0.094250 0.934781 0.342492 0 0
    0 -0.178902 44.800897 -8.905000 0.012958 -0.991781 -0.127289 0 0
    0 38.641494 44.800897 -5.088500 0.351956 0.000000 0.936016 0 0
  phy
    0 -0.178902 44.800897 -8.905000 0.012958 -0.991781 -0.127289 0 0
    0 38.641501 -44.432203 -5.088500 0.094250 0.934781 0.342492 0 0
    0 38.641494 44.800897 -5.088500 0.351956 0.000000 0.936016 0 0
  phy
    0 -0.178798 -44.432203 -8.905000 1.000000 0.000000 0.000000 0 0
    0 38.641501 -44.432203 -5.088500 0.094250 0.934781 0.342492 0 0
    0 -0.178902 44.800897 -8.905000 0.012958 -0.991781 -0.127289 0 0
  phy
    0 -0.178798 -44.432203 -8.905000 1.000000 0.000000 0.000000 0 0
    0 -0.178798 -44.432203 -10.269000 0.015607 0.990953 -0.133297 0 0
    0 38.641501 -44.432203 -5.088500 0.094250 0.934781 0.342492 0 0
  phy
    0 -0.178798 -44.432203 -10.269000 0.015607 0.990953 -0.133297 0 0
    0 38.641501 -44.432203 -14.085500 0.094250 0.934781 0.342492 0 0
    0 38.641501 -44.432203 -5.088500 0.094250 0.934781 0.342492 0 0
  phy
    0 38.641501 -44.432203 -5.088500 0.094250 0.934781 0.342492 0 0
    0 38.641494 44.800897 -14.085500 0.094250 0.934781 0.342492 0 0
    0 38.641494 44.800897 -5.088500 0.351956 0.000000 0.936016 0 0
  phy
    0 -0.178798 -44.432203 -10.269000 0.015607 0.990953 -0.133297 0 0
    0 -0.178902 44.800897 -10.269000 -0.026915 0.994842 -0.097805 0 0
    0 38.641501 -44.432203 -14.085500 0.094250 0.934781 0.342492 0 0
  phy
    0 38.641501 -44.432203 -14.085500 0.094250 0.934781 0.342492 0 0
    0 -0.178902 44.800897 -10.269000 -0.026915 0.994842 -0.097805 0 0
    0 38.641494 44.800897 -14.085500 0.094250 0.934781 0.342492 0 0
  phy
    0 38.641501 -44.432203 -14.085500 0.094250 0.934781 0.342492 0 0
    0 38.641494 44.800897 -14.085500 0.094250 0.934781 0.342492 0 0
    0 38.641501 -44.432203 -5.088500 0.094250 0.934781 0.342492 0 0
  phy
    0 37.205001 42.920399 24.870099 0.998063 0.042887 -0.045056 0 0
    0 37.953300 43.613897 -24.992300 0.993972 0.015453 -0.108539 0 0
    0 40.228597 42.920399 24.870099 0.000000 0.292228 0.956349 0 0
  phy
    0 37.953300 43.613897 -24.992300 0.993972 0.015453 -0.108539 0 0
    0 39.480399 43.613897 -24.992300 0.000000 0.292228 0.956349 0 0
    0 40.228597 42.920399 24.870099 0.000000 0.292228 0.956349 0 0
  phy
    0 39.480399 43.613897 -24.992300 0.000000 0.292228 0.956349 0 0
    0 37.953300 43.613897 -24.992300 0.993972 0.015453 -0.108539 0 0
    0 39.480394 45.029202 -24.992300 -0.994320 0.043510 0.097133 0 0
  phy
    0 39.480394 45.029202 -24.992300 -0.994320 0.043510 0.097133 0 0
    0 37.953300 43.613897 -24.992300 0.993972 0.015453 -0.108539 0 0
    0 37.953295 45.029202 -24.992300 0.998063 0.042887 -0.045056 0 0
  phy
    0 37.953295 45.029202 -24.992300 0.998063 0.042887 -0.045056 0 0
    0 37.953300 43.613897 -24.992300 0.993972 0.015453 -0.108539 0 0
    0 37.205001 42.920399 24.870099 0.998063 0.042887 -0.045056 0 0
  phy
    0 39.480394 45.029202 -24.992300 -0.994320 0.043510 0.097133 0 0
    0 37.953295 45.029202 -24.992300 0.998063 0.042887 -0.045056 0 0
    0 40.228597 45.722700 24.870099 0.000000 0.292228 0.956349 0 0
  phy
    0 40.228597 45.722700 24.870099 0.000000 0.292228 0.956349 0 0
    0 37.953295 45.029202 -24.992300 0.998063 0.042887 -0.045056 0 0
    0 37.204999 45.722700 24.870099 0.998063 0.042887 -0.045056 0 0
  phy
    0 39.480394 45.029202 -24.992300 -0.994320 0.043510 0.097133 0 0
    0 40.228597 45.722700 24.870099 0.000000 0.292228 0.956349 0 0
    0 39.480399 43.613897 -24.992300 0.000000 0.292228 0.956349 0 0
  phy
    0 40.228597 45.722700 24.870099 0.000000 0.292228 0.956349 0 0
    0 37.205001 42.920399 24.870099 0.998063 0.042887 -0.045056 0 0
    0 40.228597 42.920399 24.870099 0.000000 0.292228 0.956349 0 0
  phy
    0 40.228597 45.722700 24.870099 0.000000 0.292228 0.956349 0 0
    0 37.204999 45.722700 24.870099 0.998063 0.042887 -0.045056 0 0
    0 37.205001 42.920399 24.870099 0.998063 0.042887 -0.045056 0 0
  phy
    0 39.480399 43.613897 -24.992300 0.000000 0.292228 0.956349 0 0
    0 40.228597 45.722700 24.870099 0.000000 0.292228 0.956349 0 0
    0 40.228597 42.920399 24.870099 0.000000 0.292228 0.956349 0 0
  phy
    0 37.204999 45.722700 24.870099 0.998063 0.042887 -0.045056 0 0
    0 37.953295 45.029202 -24.992300 0.998063 0.042887 -0.045056 0 0
    0 37.205001 42.920399 24.870099 0.998063 0.042887 -0.045056 0 0
  phy
    0 -39.358505 45.029202 -24.992300 -0.982762 -0.038851 -0.180749 0 0
    0 -37.831406 45.029202 -24.992300 0.998868 -0.041907 0.022503 0 0
    0 -39.358500 43.613897 -24.992300 0.999903 0.013907 0.000000 0 0
  phy
    0 -39.358500 43.613897 -24.992300 0.999903 0.013907 0.000000 0 0
    0 -37.831406 45.029202 -24.992300 0.998868 -0.041907 0.022503 0 0
    0 -37.831401 43.613897 -24.992300 -0.000001 -0.779629 0.626241 0 0
  phy
    0 -37.831406 45.029202 -24.992300 0.998868 -0.041907 0.022503 0 0
    0 -39.358505 45.029202 -24.992300 -0.982762 -0.038851 -0.180749 0 0
    0 -40.106703 45.722700 24.870099 0.000000 1.000000 0.000000 0 0
  phy
    0 -37.831406 45.029202 -24.992300 0.998868 -0.041907 0.022503 0 0
    0 -40.106703 45.722700 24.870099 0.000000 1.000000 0.000000 0 0
    0 -37.083102 45.722700 24.870099 0.000000 1.000000 0.000000 0 0
  phy
    0 -37.831406 45.029202 -24.992300 0.998868 -0.041907 0.022503 0 0
    0 -37.083102 45.722700 24.870099 0.000000 1.000000 0.000000 0 0
    0 -37.831401 43.613897 -24.992300 -0.000001 -0.779629 0.626241 0 0
  phy
    0 -39.358505 45.029202 -24.992300 -0.982762 -0.038851 -0.180749 0 0
    0 -39.358500 43.613897 -24.992300 0.999903 0.013907 0.000000 0 0
    0 -40.106698 42.920399 24.870099 0.000000 1.000000 0.000000 0 0
  phy
    0 -40.106703 45.722700 24.870099 0.000000 1.000000 0.000000 0 0
    0 -39.358505 45.029202 -24.992300 -0.982762 -0.038851 -0.180749 0 0
    0 -40.106698 42.920399 24.870099 0.000000 1.000000 0.000000 0 0
  phy
    0 -40.106698 42.920399 24.870099 0.000000 1.000000 0.000000 0 0
    0 -37.831401 43.613897 -24.992300 -0.000001 -0.779629 0.626241 0 0
    0 -37.083098 42.920399 24.870099 0.000000 1.000000 0.000000 0 0
  phy
    0 -40.106698 42.920399 24.870099 0.000000 1.000000 0.000000 0 0
    0 -39.358500 43.613897 -24.992300 0.999903 0.013907 0.000000 0 0
    0 -37.831401 43.613897 -24.992300 -0.000001 -0.779629 0.626241 0 0
  phy
    0 -37.831401 43.613897 -24.992300 -0.000001 -0.779629 0.626241 0 0
    0 -37.083102 45.722700 24.870099 0.000000 1.000000 0.000000 0 0
    0 -37.083098 42.920399 24.870099 0.000000 1.000000 0.000000 0 0
  phy
    0 -40.106703 45.722700 24.870099 0.000000 1.000000 0.000000 0 0
    0 -40.106698 42.920399 24.870099 0.000000 1.000000 0.000000 0 0
    0 -37.083102 45.722700 24.870099 0.000000 1.000000 0.000000 0 0
  phy
    0 -40.106698 42.920399 24.870099 0.000000 1.000000 0.000000 0 0
    0 -37.083098 42.920399 24.870099 0.000000 1.000000 0.000000 0 0
    0 -37.083102 45.722700 24.870099 0.000000 1.000000 0.000000 0 0
  phy
    0 -37.831397 -45.202098 -24.992300 0.999836 0.018085 0.000000 0 0
    0 -39.358498 -45.202098 -24.992300 -0.994434 -0.015955 -0.104143 0 0
    0 -37.831397 -43.786802 -24.992300 0.000000 -0.850799 0.525491 0 0
  phy
    0 -37.831397 -43.786802 -24.992300 0.000000 -0.850799 0.525491 0 0
    0 -39.358498 -45.202098 -24.992300 -0.994434 -0.015955 -0.104143 0 0
    0 -39.358498 -43.786802 -24.992300 -0.999836 0.018085 0.000000 0 0
  phy
    0 -37.831397 -43.786802 -24.992300 0.000000 -0.850799 0.525491 0 0
    0 -37.083095 -45.895600 13.348200 0.999836 0.018085 0.000000 0 0
    0 -37.831397 -45.202098 -24.992300 0.999836 0.018085 0.000000 0 0
  phy
    0 -37.083095 -45.895600 13.348200 0.999836 0.018085 0.000000 0 0
    0 -39.358498 -45.202098 -24.992300 -0.994434 -0.015955 -0.104143 0 0
    0 -37.831397 -45.202098 -24.992300 0.999836 0.018085 0.000000 0 0
  phy
    0 -37.831397 -43.786802 -24.992300 0.000000 -0.850799 0.525491 0 0
    0 -39.358498 -43.786802 -24.992300 -0.999836 0.018085 0.000000 0 0
    0 -37.083098 -43.093299 13.348200 0.000000 -1.000000 0.000000 0 0
  phy
    0 -37.831397 -43.786802 -24.992300 0.000000 -0.850799 0.525491 0 0
    0 -37.083098 -43.093299 13.348200 0.000000 -1.000000 0.000000 0 0
    0 -37.083095 -45.895600 13.348200 0.999836 0.018085 0.000000 0 0
  phy
    0 -40.106698 -43.093299 13.348200 -0.994434 -0.015955 -0.104143 0 0
    0 -39.358498 -43.786802 -24.992300 -0.999836 0.018085 0.000000 0 0
    0 -39.358498 -45.202098 -24.992300 -0.994434 -0.015955 -0.104143 0 0
  phy
    0 -39.358498 -43.786802 -24.992300 -0.999836 0.018085 0.000000 0 0
    0 -40.106698 -43.093299 13.348200 -0.994434 -0.015955 -0.104143 0 0
    0 -37.083098 -43.093299 13.348200 0.000000 -1.000000 0.000000 0 0
  phy
    0 -37.083098 -43.093299 13.348200 0.000000 -1.000000 0.000000 0 0
    0 -40.106698 -45.895600 13.348200 -0.994434 -0.015955 -0.104143 0 0
    0 -37.083095 -45.895600 13.348200 0.999836 0.018085 0.000000 0 0
  phy
    0 -37.083098 -43.093299 13.348200 0.000000 -1.000000 0.000000 0 0
    0 -40.106698 -43.093299 13.348200 -0.994434 -0.015955 -0.104143 0 0
    0 -40.106698 -45.895600 13.348200 -0.994434 -0.015955 -0.104143 0 0
  phy
    0 -37.083095 -45.895600 13.348200 0.999836 0.018085 0.000000 0 0
    0 -40.106698 -45.895600 13.348200 -0.994434 -0.015955 -0.104143 0 0
    0 -39.358498 -45.202098 -24.992300 -0.994434 -0.015955 -0.104143 0 0
  phy
    0 -40.106698 -43.093299 13.348200 -0.994434 -0.015955 -0.104143 0 0
    0 -39.358498 -45.202098 -24.992300 -0.994434 -0.015955 -0.104143 0 0
    0 -40.106698 -45.895600 13.348200 -0.994434 -0.015955 -0.104143 0 0
  phy
    0 37.953304 -45.202098 -24.992300 -0.999836 -0.018085 0.000000 0 0
    0 37.953304 -43.786802 -24.992300 0.000000 0.801015 -0.598644 0 0
    0 39.480404 -45.202098 -24.992300 0.999836 0.018085 0.000000 0 0
  phy
    0 39.480404 -45.202098 -24.992300 0.999836 0.018085 0.000000 0 0
    0 37.953304 -43.786802 -24.992300 0.000000 0.801015 -0.598644 0 0
    0 39.480404 -43.786802 -24.992300 -0.000002 0.369302 0.929309 0 0
  phy
    0 39.480404 -43.786802 -24.992300 -0.000002 0.369302 0.929309 0 0
    0 37.953304 -43.786802 -24.992300 0.000000 0.801015 -0.598644 0 0
    0 37.205001 -43.093299 13.348200 0.998284 0.019137 -0.055338 0 0
  phy
    0 37.205001 -43.093299 13.348200 0.998284 0.019137 -0.055338 0 0
    0 37.953304 -43.786802 -24.992300 0.000000 0.801015 -0.598644 0 0
    0 37.953304 -45.202098 -24.992300 -0.999836 -0.018085 0.000000 0 0
  phy
    0 39.480404 -43.786802 -24.992300 -0.000002 0.369302 0.929309 0 0
    0 40.228602 -45.895600 13.348200 -0.999836 -0.018085 0.000000 0 0
    0 39.480404 -45.202098 -24.992300 0.999836 0.018085 0.000000 0 0
  phy
    0 40.228602 -45.895600 13.348200 -0.999836 -0.018085 0.000000 0 0
    0 37.953304 -45.202098 -24.992300 -0.999836 -0.018085 0.000000 0 0
    0 39.480404 -45.202098 -24.992300 0.999836 0.018085 0.000000 0 0
  phy
    0 39.480404 -43.786802 -24.992300 -0.000002 0.369302 0.929309 0 0
    0 37.205001 -43.093299 13.348200 0.998284 0.019137 -0.055338 0 0
    0 40.228597 -43.093299 13.348200 0.000000 -1.000000 0.000000 0 0
  phy
    0 39.480404 -43.786802 -24.992300 -0.000002 0.369302 0.929309 0 0
    0 40.228597 -43.093299 13.348200 0.000000 -1.000000 0.000000 0 0
    0 40.228602 -45.895600 13.348200 -0.999836 -0.018085 0.000000 0 0
  phy
    0 37.205001 -43.093299 13.348200 0.998284 0.019137 -0.055338 0 0
    0 37.205006 -45.895600 13.348200 -0.999836 -0.018085 0.000000 0 0
    0 40.228597 -43.093299 13.348200 0.000000 -1.000000 0.000000 0 0
  phy
    0 37.205006 -45.895600 13.348200 -0.999836 -0.018085 0.000000 0 0
    0 40.228602 -45.895600 13.348200 -0.999836 -0.018085 0.000000 0 0
    0 40.228597 -43.093299 13.348200 0.000000 -1.000000 0.000000 0 0
  phy
    0 37.205001 -43.093299 13.348200 0.998284 0.019137 -0.055338 0 0
    0 37.953304 -45.202098 -24.992300 -0.999836 -0.018085 0.000000 0 0
    0 37.205006 -45.895600 13.348200 -0.999836 -0.018085 0.000000 0 0
  phy
    0 40.228602 -45.895600 13.348200 -0.999836 -0.018085 0.000000 0 0
    0 37.205006 -45.895600 13.348200 -0.999836 -0.018085 0.000000 0 0
    0 37.953304 -45.202098 -24.992300 -0.999836 -0.018085 0.000000 0 0
  phy
    0 40.041204 -44.910701 -15.847399 -0.999255 0.000000 0.038597 0 0
    0 -40.160094 -44.910701 4.002400 0.000000 -1.000000 0.000000 0 0
    0 -40.160094 -44.910701 -15.847399 0.000000 1.000000 0.000000 0 0
  phy
    0 40.041204 -44.910701 -15.847399 -0.999255 0.000000 0.038597 0 0
    0 40.041204 -44.910701 4.002400 0.000000 -1.000000 0.000000 0 0
    0 -40.160094 -44.910701 4.002400 0.000000 -1.000000 0.000000 0 0
  phy
    0 -40.160094 -44.910701 -15.847399 0.000000 1.000000 0.000000 0 0
    0 -40.160094 -44.910701 4.002400 0.000000 -1.000000 0.000000 0 0
    0 -40.160094 -43.976199 -15.847399 -1.000000 0.000000 0.000000 0 0
  phy
    0 -40.160094 -43.976199 -15.847399 -1.000000 0.000000 0.000000 0 0
    0 -40.160094 -44.910701 4.002400 0.000000 -1.000000 0.000000 0 0
    0 -40.160094 -43.976199 4.002400 -1.000000 0.000000 0.000000 0 0
  phy
    0 40.041204 -44.910701 -15.847399 -0.999255 0.000000 0.038597 0 0
    0 -40.160094 -44.910701 -15.847399 0.000000 1.000000 0.000000 0 0
    0 40.041204 -43.976199 -15.847399 -1.000000 0.000000 0.000000 0 0
  phy
    0 40.041204 -43.976199 -15.847399 -1.000000 0.000000 0.000000 0 0
    0 -40.160094 -44.910701 -15.847399 0.000000 1.000000 0.000000 0 0
    0 -40.160094 -43.976199 -15.847399 -1.000000 0.000000 0.000000 0 0
  phy
    0 40.041204 -43.976199 -15.847399 -1.000000 0.000000 0.000000 0 0
    0 40.041204 -44.910701 4.002400 0.000000 -1.000000 0.000000 0 0
    0 40.041204 -44.910701 -15.847399 -0.999255 0.000000 0.038597 0 0
  phy
    0 40.041204 -43.976199 -15.847399 -1.000000 0.000000 0.000000 0 0
    0 40.041204 -43.976199 4.002400 -1.000000 0.000000 0.000000 0 0
    0 40.041204 -44.910701 4.002400 0.000000 -1.000000 0.000000 0 0
  phy
    0 40.041204 -44.910701 4.002400 0.000000 -1.000000 0.000000 0 0
    0 -40.160094 -43.976199 4.002400 -1.000000 0.000000 0.000000 0 0
    0 -40.160094 -44.910701 4.002400 0.000000 -1.000000 0.000000 0 0
  phy
    0 40.041204 -44.910701 4.002400 0.000000 -1.000000 0.000000 0 0
    0 40.041204 -43.976199 4.002400 -1.000000 0.000000 0.000000 0 0
    0 -40.160094 -43.976199 4.002400 -1.000000 0.000000 0.000000 0 0
  phy
    0 -40.160094 -43.976199 4.002400 -1.000000 0.000000 0.000000 0 0
    0 40.041204 -43.976199 4.002400 -1.000000 0.000000 0.000000 0 0
    0 -40.160094 -43.976199 -15.847399 -1.000000 0.000000 0.000000 0 0
  phy
    0 -40.160094 -43.976199 -15.847399 -1.000000 0.000000 0.000000 0 0
    0 40.041204 -43.976199 4.002400 -1.000000 0.000000 0.000000 0 0
    0 40.041204 -43.976199 -15.847399 -1.000000 0.000000 0.000000 0 0
end
