version 1
nodes
  0 "static_prop" -1
end
skeleton
time 0
0 0.000000 0.000000 0.000000 0.000000 0.000000 0.000000
end
triangles
vent_set3
0 5.549500 -8.215100 -10.041800 0.204110 0.000000 -0.978948 0.324000 -0.005800 1 0 1.000000 
0 -6.011500 8.215100 -12.452700 0.204110 0.000000 -0.978948 0.452400 -0.096100 1 0 1.000000 
0 5.549500 8.215100 -10.041800 0.204110 0.000000 -0.978948 0.452400 -0.005800 1 0 1.000000 
vent_set3
0 5.549500 -8.215100 -10.041800 0.204110 0.000000 -0.978948 0.324000 -0.005800 1 0 1.000000 
0 -6.011499 -8.215100 -12.452700 0.204110 0.000000 -0.978948 0.324000 -0.096100 1 0 1.000000 
0 -6.011500 8.215100 -12.452700 0.204110 0.000000 -0.978948 0.452400 -0.096100 1 0 1.000000 
vent_set3
0 5.549500 8.215100 -10.041800 1.000000 0.000000 0.000000 0.690400 -0.222200 1 0 1.000000 
0 5.549500 -8.215100 0.980100 0.995087 0.000000 0.098999 0.561400 -0.136800 1 0 1.000000 
0 5.549500 -8.215100 -10.041800 1.000000 0.000000 0.000000 0.560700 -0.222200 1 0 1.000000 
vent_set3
0 5.549500 8.215100 -10.041800 1.000000 0.000000 0.000000 0.690400 -0.222200 1 0 1.000000 
0 4.155200 8.215100 5.511000 0.925708 0.005200 0.378203 0.691100 -0.101200 1 0 1.000000 
0 5.549500 -8.215100 0.980100 0.995087 0.000000 0.098999 0.561400 -0.136800 1 0 1.000000 
vent_set3
0 1.534600 -8.215100 9.204600 0.742000 0.000000 0.670400 0.561400 -0.065800 1 0 1.000000 
0 5.549500 -8.215100 0.980100 0.995087 0.000000 0.098999 0.561400 -0.136800 1 0 1.000000 
0 4.155200 8.215100 5.511000 0.925708 0.005200 0.378203 0.691100 -0.101200 1 0 1.000000 
vent_set3
0 1.534600 -8.215100 9.204600 0.742000 0.000000 0.670400 0.561400 -0.065800 1 0 1.000000 
0 4.155200 8.215100 5.511000 0.925708 0.005200 0.378203 0.691100 -0.101200 1 0 1.000000 
0 1.534600 8.215100 9.204600 0.656938 0.000000 0.753944 0.691100 -0.065800 1 0 1.000000 
vent_set3
0 -1.996000 -8.215100 11.615400 0.451688 0.000000 0.892176 0.561400 -0.035000 1 0 1.000000 
0 1.534600 -8.215100 9.204600 0.742000 0.000000 0.670400 0.561400 -0.065800 1 0 1.000000 
0 1.534600 8.215100 9.204600 0.656938 0.000000 0.753944 0.691100 -0.065800 1 0 1.000000 
vent_set3
0 -1.996000 -8.215100 11.615400 0.451688 0.000000 0.892176 0.561400 -0.035000 1 0 1.000000 
0 1.534600 8.215100 9.204600 0.656938 0.000000 0.753944 0.691100 -0.065800 1 0 1.000000 
0 -1.996000 8.215100 11.615400 0.329696 0.000000 0.944087 0.691100 -0.035000 1 0 1.000000 
vent_set3
0 -6.010900 -8.215100 12.452700 0.204110 0.000000 0.978948 0.561400 -0.012500 1 0 1.000000 
0 -1.996000 -8.215100 11.615400 0.451688 0.000000 0.892176 0.561400 -0.035000 1 0 1.000000 
0 -1.996000 8.215100 11.615400 0.329696 0.000000 0.944087 0.691100 -0.035000 1 0 1.000000 
vent_set3
0 -6.010900 -8.215100 12.452700 0.204110 0.000000 0.978948 0.561400 -0.012500 1 0 1.000000 
0 -1.996000 8.215100 11.615400 0.329696 0.000000 0.944087 0.691100 -0.035000 1 0 1.000000 
0 -6.011001 8.215100 12.452700 0.204110 0.000000 0.978948 0.691100 -0.012500 1 0 1.000000 
vent_set3
0 -6.011499 -8.215100 -12.452700 0.000000 -1.000000 0.000000 0.547800 -0.205600 1 0 1.000000 
0 -1.996000 -8.215100 11.615400 0.000000 -1.000000 0.000000 0.516400 -0.017500 1 0 1.000000 
0 -6.010900 -8.215100 12.452700 0.000000 -1.000000 0.000000 0.547800 -0.011000 1 0 1.000000 
vent_set3
0 -6.011499 -8.215100 -12.452700 0.000000 -1.000000 0.000000 0.547800 -0.205600 1 0 1.000000 
0 1.534600 -8.215100 9.204600 0.000000 -1.000000 0.000000 0.488800 -0.036400 1 0 1.000000 
0 -1.996000 -8.215100 11.615400 0.000000 -1.000000 0.000000 0.516400 -0.017500 1 0 1.000000 
vent_set3
0 -6.011499 -8.215100 -12.452700 0.000000 -1.000000 0.000000 0.547800 -0.205600 1 0 1.000000 
0 5.549500 -8.215100 0.980100 0.000000 -1.000000 0.000000 0.457500 -0.100600 1 0 1.000000 
0 1.534600 -8.215100 9.204600 0.000000 -1.000000 0.000000 0.488800 -0.036400 1 0 1.000000 
vent_set3
0 -6.011499 -8.215100 -12.452700 0.000000 -1.000000 0.000000 0.547800 -0.205600 1 0 1.000000 
0 5.549500 -8.215100 -10.041800 0.000000 -1.000000 0.000000 0.457500 -0.186700 1 0 1.000000 
0 5.549500 -8.215100 0.980100 0.000000 -1.000000 0.000000 0.457500 -0.100600 1 0 1.000000 
vent_set3
0 -6.011500 8.215100 -12.452700 -0.000000 1.000000 0.000000 0.547800 -0.205600 1 0 1.000000 
0 4.155200 8.215100 5.511000 -0.000000 1.000000 0.000000 0.468300 -0.065200 1 0 1.000000 
0 5.549500 8.215100 -10.041800 -0.000000 1.000000 0.000000 0.457500 -0.186700 1 0 1.000000 
vent_set3
0 -6.011500 8.215100 -12.452700 -0.000000 1.000000 0.000000 0.547800 -0.205600 1 0 1.000000 
0 -6.011001 8.215100 12.452700 -0.000000 1.000000 0.000000 0.547800 -0.011000 1 0 1.000000 
0 4.155200 8.215100 5.511000 -0.000000 1.000000 0.000000 0.468300 -0.065200 1 0 1.000000 
vent_set3
0 1.534600 8.215100 9.204600 -0.000000 1.000000 0.000000 0.488800 -0.036400 1 0 1.000000 
0 4.155200 8.215100 5.511000 -0.000000 1.000000 0.000000 0.468300 -0.065200 1 0 1.000000 
0 -6.011001 8.215100 12.452700 -0.000000 1.000000 0.000000 0.547800 -0.011000 1 0 1.000000 
vent_set3
0 -1.996000 8.215100 11.615400 -0.000000 1.000000 0.000000 0.516400 -0.017500 1 0 1.000000 
0 1.534600 8.215100 9.204600 -0.000000 1.000000 0.000000 0.488800 -0.036400 1 0 1.000000 
0 -6.011001 8.215100 12.452700 -0.000000 1.000000 0.000000 0.547800 -0.011000 1 0 1.000000 
end
