version 1
nodes
  0 "static_prop" -1
end
skeleton
time 0
0 0.000000 0.000000 0.000000 0.000000 0.000000 0.000000
end
triangles
borealis_deckdetail_system01
0 -0.999999 -19.003500 -48.933102 -0.413708 -0.026701 0.910018 -0.171900 -0.527300 1 0 1.000000 
0 -19.000000 -19.003500 -20.933100 0.000000 -1.000000 0.000000 0.265600 -0.808500 1 0 1.000000 
0 -19.000000 -19.003500 -61.933102 0.114103 -0.926023 -0.359809 -0.375000 -0.808500 1 0 1.000000 
borealis_deckdetail_system01
0 -19.000000 -15.003501 -20.933100 0.216899 0.976194 0.000000 0.265600 -0.808500 1 0 1.000000 
0 -0.999999 -19.003500 -48.933102 -0.413708 -0.026701 0.910018 -0.171900 -0.527300 1 0 1.000000 
0 -19.000000 -15.003501 -61.933102 -0.170002 0.911712 0.374005 -0.375000 -0.808500 1 0 1.000000 
borealis_deckdetail_system01
0 -19.000000 -15.003501 -61.933102 -0.170002 0.911712 0.374005 -0.375000 -0.808500 1 0 1.000000 
0 -0.999999 -19.003500 -48.933102 -0.413708 -0.026701 0.910018 -0.171900 -0.527300 1 0 1.000000 
0 -0.999999 -15.003500 -48.933102 -0.585487 -0.000000 0.810682 -0.171900 -0.527300 1 0 1.000000 
borealis_deckdetail_system01
0 22.000000 -19.003498 -48.933102 -0.110004 -0.919938 -0.376315 -0.171900 -0.167900 1 0 1.000000 
0 -19.000000 -19.003500 -61.933102 0.114103 -0.926023 -0.359809 -0.375000 -0.808500 1 0 1.000000 
0 4.000000 -15.003500 -58.933102 0.279909 0.377412 -0.882729 -0.328100 -0.449100 1 0 1.000000 
borealis_deckdetail_system01
0 22.000000 -15.003499 -48.933102 -0.000000 0.957088 0.289796 -0.171900 -0.167900 1 0 1.000000 
0 4.000000 -15.003500 -58.933102 0.279909 0.377412 -0.882729 -0.328100 -0.449100 1 0 1.000000 
0 -19.000000 -15.003501 -61.933102 -0.170002 0.911712 0.374005 -0.375000 -0.808500 1 0 1.000000 
borealis_deckdetail_system01
0 13.000001 -15.003499 -48.933102 -0.586609 -0.118102 0.801212 -0.171900 -0.308500 1 0 1.000000 
0 22.000000 -19.003498 -42.933102 -0.586609 -0.118102 0.801212 -0.078100 -0.230400 1 0 1.000000 
0 22.000000 -15.003499 -48.933102 -0.000000 0.957088 0.289796 -0.171900 -0.167900 1 0 1.000000 
borealis_deckdetail_system01
0 22.000000 -19.003498 -48.933102 -0.110004 -0.919938 -0.376315 -0.171900 -0.167900 1 0 1.000000 
0 22.000000 -19.003498 -42.933102 -0.586609 -0.118102 0.801212 -0.078100 -0.167900 1 0 1.000000 
0 13.000001 -15.003499 -48.933102 -0.586609 -0.118102 0.801212 -0.171900 -0.308500 1 0 1.000000 
borealis_deckdetail_system01
0 -19.000000 -19.003500 58.066898 0.000000 -1.000000 0.000000 1.500000 -0.808500 1 0 1.000000 
0 -27.000000 -19.003502 54.066898 0.000000 -1.000000 0.000000 1.437500 -0.933500 1 0 1.000000 
0 -19.000000 -19.003500 -1.933100 0.000000 -1.000000 0.000000 0.562500 -0.808500 1 0 1.000000 
borealis_deckdetail_system01
0 -27.000000 -19.003502 -69.933098 0.105794 -0.988744 -0.105794 -0.500000 -0.933500 1 0 1.000000 
0 -19.000000 -19.003500 -1.933100 0.000000 -1.000000 0.000000 0.562500 -0.808500 1 0 1.000000 
0 -27.000000 -19.003502 54.066898 0.000000 -1.000000 0.000000 1.437500 -0.933500 1 0 1.000000 
borealis_deckdetail_system01
0 -19.000000 -19.003500 -1.933100 0.000000 -1.000000 0.000000 0.562500 -0.808500 1 0 1.000000 
0 -27.000000 -19.003502 -69.933098 0.105794 -0.988744 -0.105794 -0.500000 -0.933500 1 0 1.000000 
0 -19.000000 -19.003500 -20.933100 0.000000 -1.000000 0.000000 0.265600 -0.808500 1 0 1.000000 
borealis_deckdetail_system01
0 -19.000000 -19.003500 -20.933100 0.000000 -1.000000 0.000000 0.265600 -0.808500 1 0 1.000000 
0 -27.000000 -19.003502 -69.933098 0.105794 -0.988744 -0.105794 -0.500000 -0.933500 1 0 1.000000 
0 -19.000000 -19.003500 -61.933102 0.214203 -0.953013 -0.214203 -0.375000 -0.808500 1 0 1.000000 
borealis_deckdetail_system01
0 -27.000000 -19.003502 -69.933098 0.105794 -0.988744 -0.105794 -0.500000 -0.933500 1 0 1.000000 
0 -19.000000 -15.003501 -69.933098 0.408215 -0.816530 -0.408215 -0.500000 -0.808500 1 0 1.000000 
0 -19.000000 -19.003500 -61.933102 0.214203 -0.953013 -0.214203 -0.375000 -0.808500 1 0 1.000000 
borealis_deckdetail_system01
0 -19.000000 15.008799 39.066898 1.000000 0.000000 0.000000 0.531300 -0.648400 1 0 1.000000 
0 -19.000000 19.008801 39.066898 1.000000 0.000000 0.000000 0.468800 -0.648400 1 0 1.000000 
0 -19.000000 19.008900 58.066898 1.000000 0.000000 0.000000 0.468700 -0.351600 1 0 1.000000 
borealis_deckdetail_system01
0 -27.000000 15.008899 58.066898 0.229690 -0.973157 0.014399 0.265500 -0.921900 1 0 1.000000 
0 -19.000000 15.008899 -69.933098 0.229690 -0.973157 0.014399 0.265500 -0.796900 1 0 1.000000 
0 -19.000000 19.008900 58.066898 0.446999 -0.894099 0.027900 0.265500 -0.796900 1 0 1.000000 
borealis_deckdetail_system01
0 -27.000000 15.008899 -69.933098 0.000000 -1.000000 0.000000 0.265500 -0.921900 1 0 1.000000 
0 -19.000000 15.008899 -69.933098 0.229690 -0.973157 0.014399 0.265500 -0.796900 1 0 1.000000 
0 -27.000000 15.008899 58.066898 0.229690 -0.973157 0.014399 0.265500 -0.921900 1 0 1.000000 
borealis_deckdetail_system01
0 -19.000000 -19.003500 -1.933100 1.000000 0.000000 0.000000 0.468800 -0.437500 1 0 1.000000 
0 -19.000000 -15.003501 -20.933100 1.000000 0.000000 0.000000 0.531300 -0.734400 1 0 1.000000 
0 -19.000000 -15.003501 -1.933100 1.000000 0.000000 0.000000 0.531300 -0.437500 1 0 1.000000 
borealis_deckdetail_system01
0 -19.000000 -19.003500 -20.933100 1.000000 0.000000 0.000000 0.468800 -0.734400 1 0 1.000000 
0 -19.000000 -15.003501 -20.933100 1.000000 0.000000 0.000000 0.531300 -0.734400 1 0 1.000000 
0 -19.000000 -19.003500 -1.933100 1.000000 0.000000 0.000000 0.468800 -0.437500 1 0 1.000000 
borealis_deckdetail_system01
0 -19.000000 15.008799 -20.933100 1.000000 0.000000 0.000000 0.531300 -0.734400 1 0 1.000000 
0 -19.000000 19.008801 -1.933100 1.000000 0.000000 0.000000 0.468800 -0.437500 1 0 1.000000 
0 -19.000000 15.008799 -1.933100 1.000000 0.000000 0.000000 0.531300 -0.437500 1 0 1.000000 
borealis_deckdetail_system01
0 -19.000000 15.008799 -20.933100 1.000000 0.000000 0.000000 0.531300 -0.734400 1 0 1.000000 
0 -19.000000 19.008801 -20.933100 1.000000 0.000000 0.000000 0.468800 -0.734400 1 0 1.000000 
0 -19.000000 19.008801 -1.933100 1.000000 0.000000 0.000000 0.468800 -0.437500 1 0 1.000000 
borealis_deckdetail_system01
0 -0.963799 -32.724201 54.066898 0.000000 0.000000 -1.000000 -0.011400 -0.515100 1 0 1.000000 
0 -27.000000 -19.003502 54.066898 0.135098 0.256396 -0.957084 0.203000 -0.921900 1 0 1.000000 
0 -19.000000 -19.003500 58.066898 0.340998 0.646995 -0.681995 0.203000 -0.796900 1 0 1.000000 
borealis_deckdetail_system01
0 -0.963799 -32.724201 54.066898 0.000000 0.000000 -1.000000 -0.011400 -0.515100 1 0 1.000000 
0 -26.999998 -38.120800 58.066898 -0.181205 -0.463213 -0.867524 -0.095700 -0.921900 1 0 1.000000 
0 -27.000000 -19.003502 54.066898 0.135098 0.256396 -0.957084 0.203000 -0.921900 1 0 1.000000 
borealis_deckdetail_system01
0 27.000002 -41.003502 54.066898 0.197404 0.556412 -0.807117 -0.140700 -0.078100 1 0 1.000000 
0 -26.999998 -38.120800 58.066898 -0.181205 -0.463213 -0.867524 -0.095700 -0.921900 1 0 1.000000 
0 -0.963799 -32.724201 54.066898 0.000000 0.000000 -1.000000 -0.011400 -0.515100 1 0 1.000000 
borealis_deckdetail_system01
0 -26.999998 -38.120800 58.066898 -0.181205 -0.463213 -0.867524 -0.095700 -0.921900 1 0 1.000000 
0 27.000002 -41.003502 58.066898 0.225704 0.670112 0.707112 -0.140700 -0.078100 1 0 1.000000 
0 -8.004499 -29.213600 58.066898 0.225704 0.670112 0.707112 0.043500 -0.625100 1 0 1.000000 
borealis_deckdetail_system01
0 27.000002 -41.003502 58.066898 0.225704 0.670112 0.707112 -0.140700 -0.078100 1 0 1.000000 
0 27.000002 -41.003502 54.066898 0.197404 0.556412 -0.807117 -0.078200 -0.078100 1 0 1.000000 
0 -8.004499 -29.213600 58.066898 0.225704 0.670112 0.707112 0.043500 -0.625100 1 0 1.000000 
borealis_deckdetail_system01
0 -1.000001 19.008801 11.066900 -0.413708 0.026701 0.910018 0.765600 -0.527300 1 0 1.000000 
0 -19.000000 15.008799 -1.933100 -0.170002 -0.911712 0.374005 0.562500 -0.808500 1 0 1.000000 
0 -1.000001 15.008800 11.066900 -0.585487 -0.000000 0.810682 0.765600 -0.527300 1 0 1.000000 
borealis_deckdetail_system01
0 -1.000001 19.008801 11.066900 -0.413708 0.026701 0.910018 0.765600 -0.527300 1 0 1.000000 
0 -19.000000 15.008799 39.066898 0.216899 -0.976194 0.000000 1.203100 -0.808500 1 0 1.000000 
0 -19.000000 15.008799 -1.933100 -0.170002 -0.911712 0.374005 0.562500 -0.808500 1 0 1.000000 
borealis_deckdetail_system01
0 -19.000000 19.008801 39.066898 -0.000000 1.000000 0.000000 1.203100 -0.808500 1 0 1.000000 
0 -1.000001 19.008801 11.066900 -0.413708 0.026701 0.910018 0.765600 -0.527300 1 0 1.000000 
0 -19.000000 19.008801 -1.933100 0.114103 0.926023 -0.359809 0.562500 -0.808500 1 0 1.000000 
borealis_deckdetail_system01
0 3.999999 15.008800 1.066900 0.279909 -0.377412 -0.882729 0.609400 -0.449100 1 0 1.000000 
0 22.000000 15.008801 11.066900 0.000000 -0.957088 0.289796 0.765600 -0.167900 1 0 1.000000 
0 -19.000000 15.008799 -1.933100 -0.170002 -0.911712 0.374005 0.562500 -0.808500 1 0 1.000000 
borealis_deckdetail_system01
0 -19.000000 19.008801 -1.933100 0.114103 0.926023 -0.359809 0.562500 -0.808500 1 0 1.000000 
0 22.000000 19.008802 11.066900 -0.110005 0.919938 -0.376315 0.765600 -0.167900 1 0 1.000000 
0 3.999999 15.008800 1.066900 0.279909 -0.377412 -0.882729 0.609400 -0.449100 1 0 1.000000 
borealis_deckdetail_system01
0 22.000000 19.008802 17.066900 -0.586609 0.118102 0.801212 0.859400 -0.167900 1 0 1.000000 
0 22.000000 19.008802 11.066900 -0.110005 0.919938 -0.376315 0.765600 -0.167900 1 0 1.000000 
0 12.999999 15.008801 11.066900 -0.586609 0.118102 0.801212 0.765600 -0.308500 1 0 1.000000 
borealis_deckdetail_system01
0 22.000000 19.008802 17.066900 -0.586609 0.118102 0.801212 0.859400 -0.230400 1 0 1.000000 
0 12.999999 15.008801 11.066900 -0.586609 0.118102 0.801212 0.765600 -0.308500 1 0 1.000000 
0 22.000000 15.008801 11.066900 0.000000 -0.957088 0.289796 0.765600 -0.167900 1 0 1.000000 
borealis_deckdetail_system01
0 -19.000000 15.008799 39.066898 0.841165 0.000000 0.540778 0.265500 -0.796900 1 0 1.000000 
0 -1.000001 19.008801 11.066900 0.841165 0.000000 0.540778 0.203000 -0.515600 1 0 1.000000 
0 -19.000000 19.008801 39.066898 0.841165 0.000000 0.540778 0.203000 -0.796900 1 0 1.000000 
borealis_deckdetail_system01
0 13.000001 -15.003499 11.066900 -0.000000 1.000000 0.000000 0.765600 -0.308500 1 0 1.000000 
0 -19.000000 -15.003501 -1.933100 -0.000000 1.000000 0.000000 0.562500 -0.808500 1 0 1.000000 
0 -0.999999 -15.003500 11.066900 -0.000000 1.000000 0.000000 0.765600 -0.527300 1 0 1.000000 
borealis_deckdetail_system01
0 22.000000 -15.003499 11.066900 -0.000000 1.000000 0.000000 0.765600 -0.167900 1 0 1.000000 
0 -19.000000 -15.003501 -1.933100 -0.000000 1.000000 0.000000 0.562500 -0.808500 1 0 1.000000 
0 13.000001 -15.003499 11.066900 -0.000000 1.000000 0.000000 0.765600 -0.308500 1 0 1.000000 
borealis_deckdetail_system01
0 -19.000000 -15.003501 39.066898 -0.000000 1.000000 0.000000 1.203100 -0.808500 1 0 1.000000 
0 -19.000000 -15.003501 -1.933100 -0.000000 1.000000 0.000000 0.562500 -0.808500 1 0 1.000000 
0 -27.000000 -15.003501 58.066898 -0.000000 1.000000 0.000000 1.500000 -0.933500 1 0 1.000000 
borealis_deckdetail_system01
0 -19.000000 -15.003501 -1.933100 -0.000000 1.000000 0.000000 0.562500 -0.808500 1 0 1.000000 
0 -27.000000 -15.003501 -69.933098 -0.000000 1.000000 0.000000 -0.500000 -0.933500 1 0 1.000000 
0 -27.000000 -15.003501 58.066898 -0.000000 1.000000 0.000000 1.500000 -0.933500 1 0 1.000000 
borealis_deckdetail_system01
0 -19.000000 -15.003501 -20.933100 -0.000000 1.000000 0.000000 0.265600 -0.808500 1 0 1.000000 
0 -27.000000 -15.003501 -69.933098 -0.000000 1.000000 0.000000 -0.500000 -0.933500 1 0 1.000000 
0 -19.000000 -15.003501 -1.933100 -0.000000 1.000000 0.000000 0.562500 -0.808500 1 0 1.000000 
borealis_deckdetail_system01
0 -19.000000 -15.003501 -61.933102 -0.000000 1.000000 0.000000 -0.375000 -0.808500 1 0 1.000000 
0 -27.000000 -15.003501 -69.933098 -0.000000 1.000000 0.000000 -0.500000 -0.933500 1 0 1.000000 
0 -19.000000 -15.003501 -20.933100 -0.000000 1.000000 0.000000 0.265600 -0.808500 1 0 1.000000 
borealis_deckdetail_system01
0 -19.000000 -15.003501 -69.933098 -0.000000 1.000000 0.000000 -0.500000 -0.808500 1 0 1.000000 
0 -27.000000 -15.003501 -69.933098 -0.000000 1.000000 0.000000 -0.500000 -0.933500 1 0 1.000000 
0 -19.000000 -15.003501 -61.933102 -0.000000 1.000000 0.000000 -0.375000 -0.808500 1 0 1.000000 
borealis_deckdetail_system01
0 13.000001 -15.003499 -48.933102 -0.000000 1.000000 0.000000 -0.171900 -0.308500 1 0 1.000000 
0 -19.000000 -15.003501 -61.933102 -0.000000 1.000000 0.000000 -0.375000 -0.808500 1 0 1.000000 
0 -0.999999 -15.003500 -48.933102 -0.000000 1.000000 0.000000 -0.171900 -0.527300 1 0 1.000000 
borealis_deckdetail_system01
0 22.000000 -15.003499 -48.933102 -0.000000 1.000000 0.000000 -0.171900 -0.167900 1 0 1.000000 
0 -19.000000 -15.003501 -61.933102 -0.000000 1.000000 0.000000 -0.375000 -0.808500 1 0 1.000000 
0 13.000001 -15.003499 -48.933102 -0.000000 1.000000 0.000000 -0.171900 -0.308500 1 0 1.000000 
borealis_deckdetail_system01
0 -19.000000 15.008799 -61.933102 0.000000 -1.000000 0.000000 -0.375000 -0.808500 1 0 1.000000 
0 12.999999 15.008801 -48.933102 0.000000 -1.000000 0.000000 -0.171900 -0.308500 1 0 1.000000 
0 -1.000001 15.008800 -48.933102 0.000000 -1.000000 0.000000 -0.171900 -0.527300 1 0 1.000000 
borealis_deckdetail_system01
0 -19.000000 15.008799 -61.933102 0.000000 -1.000000 0.000000 -0.375000 -0.808500 1 0 1.000000 
0 22.000000 15.008801 -48.933102 0.000000 -1.000000 0.000000 -0.171900 -0.167900 1 0 1.000000 
0 12.999999 15.008801 -48.933102 0.000000 -1.000000 0.000000 -0.171900 -0.308500 1 0 1.000000 
borealis_deckdetail_system01
0 -19.000000 15.008799 -1.933100 0.000000 -1.000000 0.000000 0.562500 -0.808500 1 0 1.000000 
0 -19.000000 15.008799 39.066898 0.000000 -1.000000 0.000000 1.203100 -0.808500 1 0 1.000000 
0 -27.000000 15.008899 58.066898 0.000000 -1.000000 0.000000 1.500000 -0.933500 1 0 1.000000 
borealis_deckdetail_system01
0 -27.000000 15.008899 -69.933098 0.000000 -1.000000 0.000000 -0.500000 -0.933500 1 0 1.000000 
0 -19.000000 15.008799 -1.933100 0.000000 -1.000000 0.000000 0.562500 -0.808500 1 0 1.000000 
0 -27.000000 15.008899 58.066898 0.000000 -1.000000 0.000000 1.500000 -0.933500 1 0 1.000000 
borealis_deckdetail_system01
0 -27.000000 15.008899 -69.933098 0.000000 -1.000000 0.000000 -0.500000 -0.933500 1 0 1.000000 
0 -19.000000 15.008799 -20.933100 0.000000 -1.000000 0.000000 0.265600 -0.808500 1 0 1.000000 
0 -19.000000 15.008799 -1.933100 0.000000 -1.000000 0.000000 0.562500 -0.808500 1 0 1.000000 
borealis_deckdetail_system01
0 -27.000000 15.008899 -69.933098 0.000000 -1.000000 0.000000 -0.500000 -0.933500 1 0 1.000000 
0 -19.000000 15.008799 -61.933102 0.000000 -1.000000 0.000000 -0.375000 -0.808500 1 0 1.000000 
0 -19.000000 15.008799 -20.933100 0.000000 -1.000000 0.000000 0.265600 -0.808500 1 0 1.000000 
borealis_deckdetail_system01
0 -27.000000 15.008899 -69.933098 0.000000 -1.000000 0.000000 -0.500000 -0.933500 1 0 1.000000 
0 -19.000000 15.008899 -69.933098 0.000000 -1.000000 0.000000 -0.500000 -0.808500 1 0 1.000000 
0 -19.000000 15.008799 -61.933102 0.000000 -1.000000 0.000000 -0.375000 -0.808500 1 0 1.000000 
borealis_deckdetail_system01
0 -19.000000 15.008799 -1.933100 0.000000 -1.000000 0.000000 0.562500 -0.808500 1 0 1.000000 
0 12.999999 15.008801 11.066900 0.000000 -1.000000 0.000000 0.765600 -0.308500 1 0 1.000000 
0 -1.000001 15.008800 11.066900 0.000000 -1.000000 0.000000 0.765600 -0.527300 1 0 1.000000 
borealis_deckdetail_system01
0 -19.000000 15.008799 -1.933100 0.000000 -1.000000 0.000000 0.562500 -0.808500 1 0 1.000000 
0 22.000000 15.008801 11.066900 0.000000 -1.000000 0.000000 0.765600 -0.167900 1 0 1.000000 
0 12.999999 15.008801 11.066900 0.000000 -1.000000 0.000000 0.765600 -0.308500 1 0 1.000000 
borealis_deckdetail_system01
0 -1.000001 19.008801 -48.933102 -0.413708 0.026701 0.910018 -0.171900 -0.527300 1 0 1.000000 
0 -19.000000 15.008799 -61.933102 -0.170002 -0.911712 0.374005 -0.375000 -0.808500 1 0 1.000000 
0 -1.000001 15.008800 -48.933102 -0.585487 -0.000000 0.810682 -0.171900 -0.527300 1 0 1.000000 
borealis_deckdetail_system01
0 -1.000001 19.008801 -48.933102 -0.413708 0.026701 0.910018 -0.171900 -0.527300 1 0 1.000000 
0 -19.000000 15.008799 -20.933100 0.216899 -0.976194 0.000000 0.265600 -0.808500 1 0 1.000000 
0 -19.000000 15.008799 -61.933102 -0.170002 -0.911712 0.374005 -0.375000 -0.808500 1 0 1.000000 
borealis_deckdetail_system01
0 -19.000000 19.008801 -20.933100 -0.000000 1.000000 0.000000 0.265600 -0.808500 1 0 1.000000 
0 -1.000001 19.008801 -48.933102 -0.413708 0.026701 0.910018 -0.171900 -0.527300 1 0 1.000000 
0 -19.000000 19.008801 -61.933102 0.114103 0.926023 -0.359809 -0.375000 -0.808500 1 0 1.000000 
borealis_deckdetail_system01
0 3.999999 15.008800 -58.933102 0.279909 -0.377412 -0.882729 -0.328100 -0.449100 1 0 1.000000 
0 22.000000 15.008801 -48.933102 0.000000 -0.957088 0.289796 -0.171900 -0.167900 1 0 1.000000 
0 -19.000000 15.008799 -61.933102 -0.170002 -0.911712 0.374005 -0.375000 -0.808500 1 0 1.000000 
borealis_deckdetail_system01
0 -19.000000 19.008801 -61.933102 0.114103 0.926023 -0.359809 -0.375000 -0.808500 1 0 1.000000 
0 22.000000 19.008802 -48.933102 -0.110005 0.919938 -0.376315 -0.171900 -0.167900 1 0 1.000000 
0 3.999999 15.008800 -58.933102 0.279909 -0.377412 -0.882729 -0.328100 -0.449100 1 0 1.000000 
borealis_deckdetail_system01
0 22.000000 19.008802 -42.933102 -0.586609 0.118102 0.801212 -0.078100 -0.167900 1 0 1.000000 
0 22.000000 19.008802 -48.933102 -0.110005 0.919938 -0.376315 -0.171900 -0.167900 1 0 1.000000 
0 12.999999 15.008801 -48.933102 -0.586609 0.118102 0.801212 -0.171900 -0.308500 1 0 1.000000 
borealis_deckdetail_system01
0 22.000000 19.008802 -42.933102 -0.586609 0.118102 0.801212 -0.078100 -0.230400 1 0 1.000000 
0 12.999999 15.008801 -48.933102 -0.586609 0.118102 0.801212 -0.171900 -0.308500 1 0 1.000000 
0 22.000000 15.008801 -48.933102 0.000000 -0.957088 0.289796 -0.171900 -0.167900 1 0 1.000000 
borealis_deckdetail_system01
0 -27.000000 19.008898 54.066898 -0.000000 1.000000 0.000000 1.437500 -0.933500 1 0 1.000000 
0 -19.000000 19.008900 58.066898 -0.000000 1.000000 0.000000 1.500000 -0.808500 1 0 1.000000 
0 -19.000000 19.008801 -1.933100 -0.000000 1.000000 0.000000 0.562500 -0.808500 1 0 1.000000 
borealis_deckdetail_system01
0 -19.000000 19.008801 -1.933100 -0.000000 1.000000 0.000000 0.562500 -0.808500 1 0 1.000000 
0 -27.000000 19.008898 -69.933098 0.105794 0.988744 -0.105794 -0.500000 -0.933500 1 0 1.000000 
0 -27.000000 19.008898 54.066898 -0.000000 1.000000 0.000000 1.437500 -0.933500 1 0 1.000000 
borealis_deckdetail_system01
0 -27.000000 19.008898 -69.933098 0.105794 0.988744 -0.105794 -0.500000 -0.933500 1 0 1.000000 
0 -19.000000 19.008801 -1.933100 -0.000000 1.000000 0.000000 0.562500 -0.808500 1 0 1.000000 
0 -19.000000 19.008801 -20.933100 -0.000000 1.000000 0.000000 0.265600 -0.808500 1 0 1.000000 
borealis_deckdetail_system01
0 -27.000000 19.008898 -69.933098 0.105794 0.988744 -0.105794 -0.500000 -0.933500 1 0 1.000000 
0 -19.000000 19.008801 -20.933100 -0.000000 1.000000 0.000000 0.265600 -0.808500 1 0 1.000000 
0 -19.000000 19.008801 -61.933102 0.214203 0.953013 -0.214203 -0.375000 -0.808500 1 0 1.000000 
borealis_deckdetail_system01
0 -19.000000 15.008899 -69.933098 0.408215 0.816530 -0.408215 -0.500000 -0.808500 1 0 1.000000 
0 -27.000000 19.008898 -69.933098 0.105794 0.988744 -0.105794 -0.500000 -0.933500 1 0 1.000000 
0 -19.000000 19.008801 -61.933102 0.214203 0.953013 -0.214203 -0.375000 -0.808500 1 0 1.000000 
borealis_deckdetail_system01
0 -8.004501 29.219000 58.066898 0.485194 -0.869690 0.090699 1.500000 -0.636700 1 0 1.000000 
0 -0.963801 32.729599 54.066898 0.485194 -0.869690 0.090699 1.437500 -0.526700 1 0 1.000000 
0 26.999998 41.008900 54.066898 0.539399 0.228700 -0.810398 1.437500 -0.089800 1 0 1.000000 
borealis_deckdetail_system01
0 -0.963801 32.729599 54.066898 0.485194 -0.869690 0.090699 1.437500 -0.526700 1 0 1.000000 
0 -8.004501 29.219000 58.066898 0.485194 -0.869690 0.090699 1.500000 -0.636700 1 0 1.000000 
0 -19.000000 19.008900 58.066898 0.595102 -0.640802 0.485002 1.500000 -0.808500 1 0 1.000000 
borealis_deckdetail_system01
0 26.999998 41.008900 58.066898 -0.000000 1.000000 0.000000 1.500000 -0.089800 1 0 1.000000 
0 26.999998 41.008900 54.066898 0.539399 0.228700 -0.810398 1.437500 -0.089800 1 0 1.000000 
0 -27.000002 38.126202 54.066898 -0.103899 0.994588 0.000000 1.437500 -0.933500 1 0 1.000000 
borealis_deckdetail_system01
0 -0.999999 -19.003500 -48.933102 0.841165 0.000000 0.540778 0.203000 -0.515600 1 0 1.000000 
0 -19.000000 -15.003501 -20.933100 0.841165 0.000000 0.540778 0.265500 -0.796900 1 0 1.000000 
0 -19.000000 -19.003500 -20.933100 0.841165 0.000000 0.540778 0.203000 -0.796900 1 0 1.000000 
borealis_deckdetail_system01
0 -8.004499 -29.213600 58.066898 0.485194 0.869690 0.090699 1.500000 -0.636700 1 0 1.000000 
0 -0.963799 -32.724201 54.066898 0.485194 0.869690 0.090699 1.437500 -0.526700 1 0 1.000000 
0 -19.000000 -19.003500 58.066898 0.595102 0.640802 0.485002 1.500000 -0.808500 1 0 1.000000 
borealis_deckdetail_system01
0 -0.963799 -32.724201 54.066898 0.485194 0.869690 0.090699 1.437500 -0.526700 1 0 1.000000 
0 -8.004499 -29.213600 58.066898 0.485194 0.869690 0.090699 1.500000 -0.636700 1 0 1.000000 
0 27.000002 -41.003502 54.066898 0.539399 -0.228699 -0.810398 1.437500 -0.089800 1 0 1.000000 
borealis_deckdetail_system01
0 27.000002 -41.003502 54.066898 0.539399 -0.228699 -0.810398 1.437500 -0.089800 1 0 1.000000 
0 27.000002 -41.003502 58.066898 0.000000 -1.000000 0.000000 1.500000 -0.089800 1 0 1.000000 
0 -26.999998 -38.120800 58.066898 -0.103899 -0.994588 0.000000 1.500000 -0.933500 1 0 1.000000 
borealis_deckdetail_system01
0 -19.000000 -19.003500 39.066898 1.000000 0.000000 0.000000 0.468800 -0.648400 1 0 1.000000 
0 -19.000000 -15.003501 39.066898 1.000000 0.000000 0.000000 0.531300 -0.648400 1 0 1.000000 
0 -19.000000 -19.003500 58.066898 1.000000 0.000000 0.000000 0.468700 -0.351600 1 0 1.000000 
borealis_deckdetail_system01
0 -21.000000 19.008900 -56.915600 -0.256201 -0.886903 0.384401 0.203000 -0.828100 1 0 1.000000 
0 -11.901101 31.723801 -56.915600 -0.515620 0.368914 0.773329 0.004300 -0.686000 1 0 1.000000 
0 -27.000000 19.008898 -60.915600 -0.256201 -0.886903 0.384401 0.203000 -0.921900 1 0 1.000000 
borealis_deckdetail_system01
0 -27.000000 19.008898 -60.915600 -0.256201 -0.886903 0.384401 0.203000 -0.921900 1 0 1.000000 
0 -11.901101 31.723801 -60.915600 0.463221 -0.550124 -0.694831 0.004300 -0.686000 1 0 1.000000 
0 -21.000000 19.008900 -56.915600 -0.256201 -0.886903 0.384401 0.203000 -0.828100 1 0 1.000000 
borealis_deckdetail_system01
0 -21.000000 19.008900 3.096900 0.000000 -0.988411 0.151802 0.203000 -0.828100 1 0 1.000000 
0 -11.901001 31.723801 3.096900 0.000000 0.000000 1.000000 0.004300 -0.686000 1 0 1.000000 
0 -27.000000 19.008898 3.096900 0.000000 -0.988411 0.151802 0.203000 -0.921900 1 0 1.000000 
borealis_deckdetail_system01
0 -27.000000 19.008898 3.096900 0.000000 -0.988411 0.151802 0.203000 -0.921900 1 0 1.000000 
0 -11.901001 31.723801 -0.903100 0.000000 -0.300102 -0.953907 0.004300 -0.686000 1 0 1.000000 
0 -21.000000 19.008900 3.096900 0.000000 -0.988411 0.151802 0.203000 -0.828100 1 0 1.000000 
borealis_deckdetail_system01
0 -27.000000 -15.008901 58.066898 0.000000 -1.000000 0.000000 0.000000 -1.000000 1 0 1.000000 
0 -19.000000 -15.008901 -69.933098 0.000000 -1.000000 0.000000 0.000000 -1.000000 1 0 1.000000 
0 -19.000000 -15.008901 58.066898 0.000000 -1.000000 0.000000 0.000000 -1.000000 1 0 1.000000 
borealis_deckdetail_system01
0 -27.000000 -15.008901 -69.933098 0.000000 -1.000000 0.000000 0.000000 -1.000000 1 0 1.000000 
0 -19.000000 -15.008901 -69.933098 0.000000 -1.000000 0.000000 0.000000 -1.000000 1 0 1.000000 
0 -27.000000 -15.008901 58.066898 0.000000 -1.000000 0.000000 0.000000 -1.000000 1 0 1.000000 
borealis_deckdetail_system01
0 -19.000000 -15.003501 -1.933100 -0.170002 0.911712 0.374005 0.562500 -0.808500 1 0 1.000000 
0 -0.999999 -19.003500 11.066900 -0.413708 -0.026701 0.910018 0.765600 -0.527300 1 0 1.000000 
0 -0.999999 -15.003500 11.066900 -0.585487 -0.000000 0.810682 0.765600 -0.527300 1 0 1.000000 
borealis_deckdetail_system01
0 -19.000000 -15.003501 39.066898 0.216899 0.976194 0.000000 1.203100 -0.808500 1 0 1.000000 
0 -0.999999 -19.003500 11.066900 -0.413708 -0.026701 0.910018 0.765600 -0.527300 1 0 1.000000 
0 -19.000000 -15.003501 -1.933100 -0.170002 0.911712 0.374005 0.562500 -0.808500 1 0 1.000000 
borealis_deckdetail_system01
0 -0.999999 -19.003500 11.066900 -0.413708 -0.026701 0.910018 0.765600 -0.527300 1 0 1.000000 
0 -19.000000 -19.003500 39.066898 0.000000 -1.000000 0.000000 1.203100 -0.808500 1 0 1.000000 
0 -19.000000 -19.003500 -1.933100 0.114103 -0.926023 -0.359809 0.562500 -0.808500 1 0 1.000000 
borealis_deckdetail_system01
0 22.000000 -15.003499 11.066900 -0.000000 0.957088 0.289796 0.765600 -0.167900 1 0 1.000000 
0 4.000000 -15.003500 1.066900 0.279909 0.377412 -0.882729 0.609400 -0.449100 1 0 1.000000 
0 -19.000000 -15.003501 -1.933100 -0.170002 0.911712 0.374005 0.562500 -0.808500 1 0 1.000000 
borealis_deckdetail_system01
0 22.000000 -19.003498 11.066900 -0.110004 -0.919938 -0.376315 0.765600 -0.167900 1 0 1.000000 
0 -19.000000 -19.003500 -1.933100 0.114103 -0.926023 -0.359809 0.562500 -0.808500 1 0 1.000000 
0 4.000000 -15.003500 1.066900 0.279909 0.377412 -0.882729 0.609400 -0.449100 1 0 1.000000 
borealis_deckdetail_system01
0 22.000000 -19.003498 11.066900 -0.110004 -0.919938 -0.376315 0.765600 -0.167900 1 0 1.000000 
0 22.000000 -19.003498 17.066900 -0.586609 -0.118102 0.801212 0.859400 -0.167900 1 0 1.000000 
0 13.000001 -15.003499 11.066900 -0.586609 -0.118102 0.801212 0.765600 -0.308500 1 0 1.000000 
borealis_deckdetail_system01
0 13.000001 -15.003499 11.066900 -0.586609 -0.118102 0.801212 0.765600 -0.308500 1 0 1.000000 
0 22.000000 -19.003498 17.066900 -0.586609 -0.118102 0.801212 0.859400 -0.230400 1 0 1.000000 
0 22.000000 -15.003499 11.066900 -0.000000 0.957088 0.289796 0.765600 -0.167900 1 0 1.000000 
borealis_deckdetail_system01
0 -0.999999 -19.003500 11.066900 0.841165 0.000000 0.540778 0.203000 -0.515600 1 0 1.000000 
0 -19.000000 -15.003501 39.066898 0.841165 0.000000 0.540778 0.265500 -0.796900 1 0 1.000000 
0 -19.000000 -19.003500 39.066898 0.841165 0.000000 0.540778 0.203000 -0.796900 1 0 1.000000 
borealis_deckdetail_system01
0 -27.000000 19.008898 54.066898 0.185891 -0.352782 -0.917054 0.203000 -0.921900 1 0 1.000000 
0 -0.963801 32.729599 54.066898 0.122694 -0.232789 -0.964756 -0.011400 -0.515100 1 0 1.000000 
0 -19.000000 19.008900 58.066898 0.340998 -0.646995 -0.681995 0.203000 -0.796900 1 0 1.000000 
borealis_deckdetail_system01
0 -27.000002 38.126202 54.066898 -0.079301 0.235602 -0.968609 -0.095700 -0.921900 1 0 1.000000 
0 -0.963801 32.729599 54.066898 0.122694 -0.232789 -0.964756 -0.011400 -0.515100 1 0 1.000000 
0 -27.000000 19.008898 54.066898 0.185891 -0.352782 -0.917054 0.203000 -0.921900 1 0 1.000000 
borealis_deckdetail_system01
0 -27.000002 38.126202 54.066898 -0.079301 0.235602 -0.968609 -0.095700 -0.921900 1 0 1.000000 
0 26.999998 41.008900 54.066898 0.225704 -0.670112 -0.707112 -0.140700 -0.078100 1 0 1.000000 
0 -0.963801 32.729599 54.066898 0.122694 -0.232789 -0.964756 -0.011400 -0.515100 1 0 1.000000 
borealis_deckdetail_system01
0 26.999998 41.008900 54.066898 0.225704 -0.670112 -0.707112 -0.140700 -0.078100 1 0 1.000000 
0 26.999998 41.008900 58.066898 0.193391 -0.574174 0.795565 -0.140700 -0.078100 1 0 1.000000 
0 -8.004501 29.219000 58.066898 0.193391 -0.574174 0.795565 0.043500 -0.625100 1 0 1.000000 
borealis_deckdetail_system01
0 26.999998 41.008900 58.066898 0.193391 -0.574174 0.795565 -0.140700 -0.078100 1 0 1.000000 
0 -27.000002 38.126202 54.066898 -0.079301 0.235602 -0.968609 -0.095700 -0.921900 1 0 1.000000 
0 -8.004501 29.219000 58.066898 0.193391 -0.574174 0.795565 0.043500 -0.625100 1 0 1.000000 
borealis_deckdetail_system01
0 -19.000000 15.008799 -20.933100 0.841165 0.000000 0.540778 0.265500 -0.796900 1 0 1.000000 
0 -1.000001 19.008801 -48.933102 0.841165 0.000000 0.540778 0.203000 -0.515600 1 0 1.000000 
0 -19.000000 19.008801 -20.933100 0.841165 0.000000 0.540778 0.203000 -0.796900 1 0 1.000000 
borealis_deckdetail_system01
0 -21.000000 19.008900 -56.915600 0.813192 -0.581995 0.000000 0.531300 -0.827400 1 0 1.000000 
0 -11.901101 31.723801 -60.915600 -0.054900 0.998492 0.000000 0.468800 -0.639300 1 0 1.000000 
0 -11.901101 31.723801 -56.915600 0.453482 -0.891265 0.000000 0.531300 -0.499000 1 0 1.000000 
borealis_deckdetail_system01
0 -11.901101 31.723801 -60.915600 -0.054900 0.998492 0.000000 0.468800 -0.639300 1 0 1.000000 
0 26.909998 41.008900 -60.915600 0.232688 -0.972551 0.000000 0.468800 -0.078800 1 0 1.000000 
0 -11.901101 31.723801 -56.915600 0.453482 -0.891265 0.000000 0.531300 -0.499000 1 0 1.000000 
borealis_deckdetail_system01
0 -11.901101 31.723801 -56.915600 0.453482 -0.891265 0.000000 0.531300 -0.499000 1 0 1.000000 
0 26.909998 41.008900 -60.915600 0.232688 -0.972551 0.000000 0.468800 -0.078800 1 0 1.000000 
0 26.909998 41.008900 -56.915600 -0.165907 0.986141 0.000000 0.531300 -0.078800 1 0 1.000000 
borealis_deckdetail_system01
0 26.909998 41.008900 -60.915600 0.232688 -0.972551 0.000000 0.468800 -0.078800 1 0 1.000000 
0 -11.901101 31.723801 -60.915600 -0.054900 0.998492 0.000000 0.468800 -0.639300 1 0 1.000000 
0 26.909998 41.008900 -56.915600 -0.165907 0.986141 0.000000 0.531300 -0.078800 1 0 1.000000 
borealis_deckdetail_system01
0 26.909998 41.008900 -56.915600 -0.165907 0.986141 0.000000 0.531300 -0.078800 1 0 1.000000 
0 -11.901101 31.723801 -60.915600 -0.054900 0.998492 0.000000 0.468800 -0.639300 1 0 1.000000 
0 -11.901101 31.723801 -56.915600 0.453482 -0.891265 0.000000 0.531300 -0.685300 1 0 1.000000 
borealis_deckdetail_system01
0 -11.901101 31.723801 -56.915600 0.453482 -0.891265 0.000000 0.531300 -0.685300 1 0 1.000000 
0 -11.901101 31.723801 -60.915600 -0.054900 0.998492 0.000000 0.468800 -0.639300 1 0 1.000000 
0 -27.000000 19.008898 -60.915600 -0.644120 0.764924 0.000000 0.468800 -0.921200 1 0 1.000000 
borealis_deckdetail_system01
0 -21.000000 19.008900 3.096900 0.813192 -0.581995 0.000000 0.531300 -0.827400 1 0 1.000000 
0 -11.901001 31.723801 -0.903100 -0.054900 0.998492 0.000000 0.468800 -0.639300 1 0 1.000000 
0 -11.901001 31.723801 3.096900 0.453482 -0.891265 0.000000 0.531300 -0.499000 1 0 1.000000 
borealis_deckdetail_system01
0 -11.901001 31.723801 -0.903100 -0.054900 0.998492 0.000000 0.468800 -0.639300 1 0 1.000000 
0 26.909998 41.008900 -0.903100 0.232688 -0.972551 0.000000 0.468800 -0.078800 1 0 1.000000 
0 -11.901001 31.723801 3.096900 0.453482 -0.891265 0.000000 0.531300 -0.499000 1 0 1.000000 
borealis_deckdetail_system01
0 -11.901001 31.723801 3.096900 0.453482 -0.891265 0.000000 0.531300 -0.499000 1 0 1.000000 
0 26.909998 41.008900 -0.903100 0.232688 -0.972551 0.000000 0.468800 -0.078800 1 0 1.000000 
0 26.909998 41.008900 3.096900 -0.165907 0.986141 0.000000 0.531300 -0.078800 1 0 1.000000 
borealis_deckdetail_system01
0 26.909998 41.008900 -0.903100 0.232688 -0.972551 0.000000 0.468800 -0.078800 1 0 1.000000 
0 -11.901001 31.723801 -0.903100 -0.054900 0.998492 0.000000 0.468800 -0.639300 1 0 1.000000 
0 26.909998 41.008900 3.096900 -0.165907 0.986141 0.000000 0.531300 -0.078800 1 0 1.000000 
borealis_deckdetail_system01
0 26.909998 41.008900 3.096900 -0.165907 0.986141 0.000000 0.531300 -0.078800 1 0 1.000000 
0 -11.901001 31.723801 -0.903100 -0.054900 0.998492 0.000000 0.468800 -0.639300 1 0 1.000000 
0 -11.901001 31.723801 3.096900 0.453482 -0.891265 0.000000 0.531300 -0.685300 1 0 1.000000 
borealis_deckdetail_system01
0 -11.901001 31.723801 3.096900 0.453482 -0.891265 0.000000 0.531300 -0.685300 1 0 1.000000 
0 -11.901001 31.723801 -0.903100 -0.054900 0.998492 0.000000 0.468800 -0.639300 1 0 1.000000 
0 -27.000000 19.008898 3.096900 -0.644120 0.764924 0.000000 0.531300 -0.921200 1 0 1.000000 
borealis_deckdetail_system01
0 -11.900999 -31.718399 -0.903100 -0.054900 -0.998492 0.000000 0.468800 -0.639300 1 0 1.000000 
0 -21.000000 -19.003500 3.096900 0.813192 0.581995 0.000000 0.531300 -0.827400 1 0 1.000000 
0 -11.900999 -31.718399 3.096900 0.453482 0.891265 0.000000 0.531300 -0.499000 1 0 1.000000 
borealis_deckdetail_system01
0 26.910002 -41.003502 -0.903100 0.232688 0.972551 0.000000 0.468800 -0.078800 1 0 1.000000 
0 -11.900999 -31.718399 -0.903100 -0.054900 -0.998492 0.000000 0.468800 -0.639300 1 0 1.000000 
0 -11.900999 -31.718399 3.096900 0.453482 0.891265 0.000000 0.531300 -0.499000 1 0 1.000000 
borealis_deckdetail_system01
0 26.910002 -41.003502 -0.903100 0.232688 0.972551 0.000000 0.468800 -0.078800 1 0 1.000000 
0 -11.900999 -31.718399 3.096900 0.453482 0.891265 0.000000 0.531300 -0.499000 1 0 1.000000 
0 26.910002 -41.003502 3.096900 -0.165907 -0.986141 0.000000 0.531300 -0.078800 1 0 1.000000 
borealis_deckdetail_system01
0 -11.900999 -31.718399 -0.903100 -0.054900 -0.998492 0.000000 0.468800 -0.639300 1 0 1.000000 
0 26.910002 -41.003502 -0.903100 0.232688 0.972551 0.000000 0.468800 -0.078800 1 0 1.000000 
0 26.910002 -41.003502 3.096900 -0.165907 -0.986141 0.000000 0.531300 -0.078800 1 0 1.000000 
borealis_deckdetail_system01
0 -11.900999 -31.718399 -0.903100 -0.054900 -0.998492 0.000000 0.468800 -0.639300 1 0 1.000000 
0 26.910002 -41.003502 3.096900 -0.165907 -0.986141 0.000000 0.531300 -0.078800 1 0 1.000000 
0 -11.900999 -31.718399 3.096900 0.453482 0.891265 0.000000 0.531300 -0.685300 1 0 1.000000 
borealis_deckdetail_system01
0 -11.900999 -31.718399 -0.903100 -0.054900 -0.998492 0.000000 0.468800 -0.639300 1 0 1.000000 
0 -11.900999 -31.718399 3.096900 0.453482 0.891265 0.000000 0.531300 -0.685300 1 0 1.000000 
0 -27.000000 -19.003502 -0.903100 -0.644120 -0.764924 0.000000 0.468800 -0.921200 1 0 1.000000 
borealis_deckdetail_system01
0 -2.992898 -35.972599 -60.915600 -0.053199 -0.998584 0.000000 0.468800 -0.546100 1 0 1.000000 
0 -2.992898 -35.972599 -56.915600 0.292610 0.956232 0.000000 0.531300 -0.546100 1 0 1.000000 
0 -27.000000 -19.003502 -60.915600 -0.644120 -0.764924 0.000000 0.468800 -0.921200 1 0 1.000000 
borealis_deckdetail_system01
0 -2.992898 -35.972599 -60.915600 -0.053199 -0.998584 0.000000 0.468800 -0.546100 1 0 1.000000 
0 26.910002 -41.003502 -56.915600 -0.165907 -0.986141 0.000000 0.531300 -0.078800 1 0 1.000000 
0 -2.992898 -35.972599 -56.915600 0.292610 0.956232 0.000000 0.531300 -0.546100 1 0 1.000000 
borealis_deckdetail_system01
0 -2.992898 -35.972599 -60.915600 -0.053199 -0.998584 0.000000 0.468800 -0.546100 1 0 1.000000 
0 26.910002 -41.003502 -60.915600 0.165907 0.986141 0.000000 0.468800 -0.078800 1 0 1.000000 
0 26.910002 -41.003502 -56.915600 -0.165907 -0.986141 0.000000 0.531300 -0.078800 1 0 1.000000 
borealis_deckdetail_system01
0 26.910002 -41.003502 -60.915600 0.165907 0.986141 0.000000 0.468800 -0.078800 1 0 1.000000 
0 -2.992898 -35.972599 -56.915600 0.292610 0.956232 0.000000 0.531300 -0.546100 1 0 1.000000 
0 26.910002 -41.003502 -56.915600 -0.165907 -0.986141 0.000000 0.531300 -0.078800 1 0 1.000000 
borealis_deckdetail_system01
0 26.910002 -41.003502 -60.915600 0.165907 0.986141 0.000000 0.468800 -0.078800 1 0 1.000000 
0 -2.992898 -35.972599 -60.915600 -0.053199 -0.998584 0.000000 0.468800 -0.639300 1 0 1.000000 
0 -2.992898 -35.972599 -56.915600 0.292610 0.956232 0.000000 0.531300 -0.546100 1 0 1.000000 
borealis_deckdetail_system01
0 -2.992898 -35.972599 -60.915600 -0.053199 -0.998584 0.000000 0.468800 -0.639300 1 0 1.000000 
0 -21.000000 -19.003500 -56.915600 0.630604 0.776105 0.000000 0.531300 -0.827400 1 0 1.000000 
0 -2.992898 -35.972599 -56.915600 0.292610 0.956232 0.000000 0.531300 -0.546100 1 0 1.000000 
borealis_deckdetail_system01
0 26.515099 37.822201 -69.933098 -0.000000 1.000000 0.000000 -0.083300 -0.953500 1 0 1.000000 
0 22.899498 39.909698 -69.933098 -0.000000 1.000000 0.000000 0.416500 -0.953500 1 0 1.000000 
0 26.515099 37.822201 54.294800 -0.000000 1.000000 0.000000 -0.083300 -0.046500 1 0 1.000000 
borealis_deckdetail_system01
0 26.515099 37.822201 54.294800 -0.000000 1.000000 0.000000 -0.083300 -0.046500 1 0 1.000000 
0 22.899498 39.909698 -69.933098 -0.000000 1.000000 0.000000 0.416500 -0.953500 1 0 1.000000 
0 22.899498 39.909698 54.294800 -0.000000 1.000000 0.000000 0.416500 -0.046500 1 0 1.000000 
borealis_deckdetail_system01
0 22.899498 39.909698 54.294800 -0.000000 1.000000 0.000000 0.416500 -0.046500 1 0 1.000000 
0 22.899498 39.909698 -69.933098 -0.000000 1.000000 0.000000 0.416500 -0.953500 1 0 1.000000 
0 26.515099 37.822201 54.294800 -0.000000 1.000000 0.000000 0.916700 -0.046500 1 0 1.000000 
borealis_deckdetail_system01
0 22.899498 39.909698 -69.933098 -0.000000 1.000000 0.000000 0.416500 -0.953500 1 0 1.000000 
0 26.515099 37.822201 -69.933098 -0.000000 1.000000 0.000000 0.916700 -0.953500 1 0 1.000000 
0 26.515099 37.822201 54.294800 -0.000000 1.000000 0.000000 0.916700 -0.046500 1 0 1.000000 
borealis_deckdetail_system01
0 22.000000 19.008802 -42.933102 1.000000 0.000000 0.000000 0.468800 -1.120900 1 0 1.000000 
0 22.000000 15.008801 -48.933102 0.861890 0.000000 -0.507094 0.531300 -1.214600 1 0 1.000000 
0 22.000000 19.008802 -48.933102 0.861890 0.000000 -0.507094 0.468800 -1.214600 1 0 1.000000 
borealis_deckdetail_system01
0 -19.000000 -19.003500 58.066898 0.000000 0.000000 1.000000 0.203000 -0.796900 1 0 1.000000 
0 -19.000000 -15.008901 58.066898 0.000000 0.000000 1.000000 0.265500 -0.796900 1 0 1.000000 
0 -27.000000 -15.003501 58.066898 0.000000 0.000000 1.000000 0.265500 -0.921900 1 0 1.000000 
borealis_deckdetail_system01
0 -27.000000 -15.003501 58.066898 0.000000 0.000000 1.000000 0.265500 -0.921900 1 0 1.000000 
0 -8.004499 -29.213600 58.066898 0.000000 0.000000 1.000000 0.043500 -0.625100 1 0 1.000000 
0 -19.000000 -19.003500 58.066898 0.000000 0.000000 1.000000 0.203000 -0.796900 1 0 1.000000 
borealis_deckdetail_system01
0 -8.004499 -29.213600 58.066898 0.000000 0.000000 1.000000 0.043500 -0.625100 1 0 1.000000 
0 -27.000000 -15.003501 58.066898 0.000000 0.000000 1.000000 0.265500 -0.921900 1 0 1.000000 
0 -26.999998 -38.120800 58.066898 0.000000 0.000000 1.000000 -0.095700 -0.921900 1 0 1.000000 
borealis_deckdetail_system01
0 22.000000 15.008801 -48.933102 0.861890 0.000000 -0.507094 0.265500 -0.156200 1 0 1.000000 
0 3.999999 15.008800 -58.933102 0.252312 0.000000 -0.967646 0.265500 -0.437500 1 0 1.000000 
0 22.000000 19.008802 -48.933102 0.861890 0.000000 -0.507094 0.203000 -0.156200 1 0 1.000000 
borealis_deckdetail_system01
0 -11.900999 -31.718399 -0.903100 0.463220 0.550124 -0.694831 0.004300 -0.686000 1 0 1.000000 
0 -27.000000 -19.003502 -0.903100 -0.256201 0.886903 0.384401 0.203000 -0.921900 1 0 1.000000 
0 -21.000000 -19.003500 3.096900 -0.256201 0.886903 0.384401 0.203000 -0.828100 1 0 1.000000 
borealis_deckdetail_system01
0 -11.900999 -31.718399 3.096900 -0.515620 -0.368914 0.773329 0.004300 -0.686000 1 0 1.000000 
0 -21.000000 -19.003500 3.096900 -0.256201 0.886903 0.384401 0.203000 -0.828100 1 0 1.000000 
0 -27.000000 -19.003502 -0.903100 -0.256201 0.886903 0.384401 0.203000 -0.921900 1 0 1.000000 
borealis_deckdetail_system01
0 -2.992898 -35.972599 -60.915600 0.436372 0.617360 -0.654558 -0.062100 -0.546800 1 0 1.000000 
0 -27.000000 -19.003502 -60.915600 -0.312596 0.826089 0.468894 0.203000 -0.921900 1 0 1.000000 
0 -21.000000 -19.003500 -56.915600 -0.312596 0.826089 0.468894 0.203000 -0.828100 1 0 1.000000 
borealis_deckdetail_system01
0 -2.992898 -35.972599 -56.915600 -0.478018 -0.507319 0.717026 -0.062100 -0.546800 1 0 1.000000 
0 -21.000000 -19.003500 -56.915600 -0.312596 0.826089 0.468894 0.203000 -0.828100 1 0 1.000000 
0 -27.000000 -19.003502 -60.915600 -0.312596 0.826089 0.468894 0.203000 -0.921900 1 0 1.000000 
borealis_deckdetail_system01
0 -19.000000 19.008801 -1.933100 0.256801 0.898705 -0.355502 0.562500 -0.808500 1 0 1.000000 
0 -1.000001 19.008801 11.066900 0.256801 0.898705 -0.355502 0.765600 -0.527300 1 0 1.000000 
0 12.999999 15.008801 11.066900 0.256801 0.898705 -0.355502 0.765600 -0.308500 1 0 1.000000 
borealis_deckdetail_system01
0 22.000000 -15.003499 -48.933102 0.861890 0.000000 -0.507094 0.531300 -1.214600 1 0 1.000000 
0 22.000000 -19.003498 -42.933102 1.000000 0.000000 0.000000 0.468800 -1.120900 1 0 1.000000 
0 22.000000 -19.003498 -48.933102 0.861890 0.000000 -0.507094 0.468800 -1.214600 1 0 1.000000 
borealis_deckdetail_system01
0 -19.000000 19.008801 -61.933102 0.256801 0.898705 -0.355502 -0.375000 -0.808500 1 0 1.000000 
0 -1.000001 19.008801 -48.933102 0.256801 0.898705 -0.355502 -0.171900 -0.527300 1 0 1.000000 
0 12.999999 15.008801 -48.933102 0.256801 0.898705 -0.355502 -0.171900 -0.308500 1 0 1.000000 
borealis_deckdetail_system01
0 4.000000 -15.003500 -58.933102 0.252312 0.000000 -0.967646 0.265500 -0.437500 1 0 1.000000 
0 22.000000 -15.003499 -48.933102 0.861890 0.000000 -0.507094 0.265500 -0.156200 1 0 1.000000 
0 22.000000 -19.003498 -48.933102 0.861890 0.000000 -0.507094 0.203000 -0.156200 1 0 1.000000 
borealis_deckdetail_system01
0 -0.999999 -19.003500 -48.933102 0.256802 -0.898705 -0.355502 -0.171900 -0.527300 1 0 1.000000 
0 -19.000000 -19.003500 -61.933102 0.256802 -0.898705 -0.355502 -0.375000 -0.808500 1 0 1.000000 
0 13.000001 -15.003499 -48.933102 0.256802 -0.898705 -0.355502 -0.171900 -0.308500 1 0 1.000000 
borealis_deckdetail_system01
0 22.000000 -15.003499 11.066900 0.861890 0.000000 -0.507094 0.531300 -0.277100 1 0 1.000000 
0 22.000000 -19.003498 17.066900 1.000000 0.000000 0.000000 0.468800 -0.183400 1 0 1.000000 
0 22.000000 -19.003498 11.066900 0.861890 0.000000 -0.507094 0.468800 -0.277100 1 0 1.000000 
borealis_deckdetail_system01
0 -0.999999 -19.003500 11.066900 0.256802 -0.898705 -0.355502 0.765600 -0.527300 1 0 1.000000 
0 -19.000000 -19.003500 -1.933100 0.256802 -0.898705 -0.355502 0.562500 -0.808500 1 0 1.000000 
0 13.000001 -15.003499 11.066900 0.256802 -0.898705 -0.355502 0.765600 -0.308500 1 0 1.000000 
borealis_deckdetail_system01
0 4.000000 -15.003500 1.066900 0.252312 0.000000 -0.967646 0.265500 -0.437500 1 0 1.000000 
0 22.000000 -15.003499 11.066900 0.861890 0.000000 -0.507094 0.265500 -0.156200 1 0 1.000000 
0 22.000000 -19.003498 11.066900 0.861890 0.000000 -0.507094 0.203000 -0.156200 1 0 1.000000 
borealis_deckdetail_system01
0 4.000000 -15.003500 1.066900 0.252312 0.000000 -0.967646 0.265500 -0.437500 1 0 1.000000 
0 -19.000000 -19.003500 -1.933100 0.129301 0.000000 -0.991605 0.203000 -0.796900 1 0 1.000000 
0 -19.000000 -15.003501 -1.933100 0.129301 0.000000 -0.991605 0.265500 -0.796900 1 0 1.000000 
borealis_deckdetail_system01
0 22.000000 19.008802 17.066900 1.000000 0.000000 0.000000 0.468800 -0.183400 1 0 1.000000 
0 22.000000 15.008801 11.066900 0.861890 0.000000 -0.507094 0.531300 -0.277100 1 0 1.000000 
0 22.000000 19.008802 11.066900 0.861890 0.000000 -0.507094 0.468800 -0.277100 1 0 1.000000 
borealis_deckdetail_system01
0 -27.000000 15.008899 58.066898 -0.126506 0.169108 0.977445 0.265500 -0.921900 1 0 1.000000 
0 -8.004501 29.219000 58.066898 -0.126506 0.169108 0.977445 0.043500 -0.625100 1 0 1.000000 
0 -27.000002 38.126202 54.066898 -0.126506 0.169108 0.977445 -0.095700 -0.921900 1 0 1.000000 
borealis_deckdetail_system01
0 22.000000 15.008801 11.066900 0.861890 0.000000 -0.507094 0.265500 -0.156200 1 0 1.000000 
0 3.999999 15.008800 1.066900 0.252312 0.000000 -0.967646 0.265500 -0.437500 1 0 1.000000 
0 22.000000 19.008802 11.066900 0.861890 0.000000 -0.507094 0.203000 -0.156200 1 0 1.000000 
borealis_deckdetail_system01
0 -19.000000 19.008801 -1.933100 0.129301 0.000000 -0.991605 0.203000 -0.796900 1 0 1.000000 
0 3.999999 15.008800 1.066900 0.252312 0.000000 -0.967646 0.265500 -0.437500 1 0 1.000000 
0 -19.000000 15.008799 -1.933100 0.129301 0.000000 -0.991605 0.265500 -0.796900 1 0 1.000000 
borealis_deckdetail_system01
0 -19.000000 19.008801 -61.933102 0.129301 0.000000 -0.991605 0.000500 -0.851300 1 0 1.000000 
0 3.999999 15.008800 -58.933102 0.252312 0.000000 -0.967646 0.067100 -0.425000 1 0 1.000000 
0 -19.000000 15.008799 -61.933102 0.129301 0.000000 -0.991605 0.067100 -0.851300 1 0 1.000000 
borealis_deckdetail_system01
0 -19.000000 15.008799 39.066898 0.439494 -0.878988 0.184998 1.203100 -0.808500 1 0 1.000000 
0 -19.000000 19.008900 58.066898 0.439494 -0.878988 0.184998 1.500000 -0.808500 1 0 1.000000 
0 -27.000000 15.008899 58.066898 0.439494 -0.878988 0.184998 1.500000 -0.933500 1 0 1.000000 
borealis_deckdetail_system01
0 4.000000 -15.003500 -58.933102 0.252312 0.000000 -0.967646 0.067100 -0.425000 1 0 1.000000 
0 -19.000000 -19.003500 -61.933102 0.129301 0.000000 -0.991605 0.000500 -0.851300 1 0 1.000000 
0 -19.000000 -15.003501 -61.933102 0.129301 0.000000 -0.991605 0.067100 -0.851300 1 0 1.000000 
borealis_deckdetail_system01
0 -19.000000 -19.003500 58.066898 0.439494 0.878988 0.184998 1.500000 -0.808500 1 0 1.000000 
0 -19.000000 -15.003501 39.066898 0.439494 0.878988 0.184998 1.203100 -0.808500 1 0 1.000000 
0 -27.000000 -15.003501 58.066898 0.439494 0.878988 0.184998 1.500000 -0.933500 1 0 1.000000 
borealis_deckdetail_system01
0 13.000001 -15.003499 -48.933102 0.000000 0.000000 1.000000 0.265500 -0.296900 1 0 1.000000 
0 -0.999999 -15.003500 -48.933102 0.000000 0.000000 1.000000 0.265500 -0.515600 1 0 1.000000 
0 -0.999999 -19.003500 -48.933102 0.000000 0.000000 1.000000 0.203000 -0.515600 1 0 1.000000 
borealis_deckdetail_system01
0 -8.004501 29.219000 58.066898 0.000000 0.000000 1.000000 0.043500 -0.625100 1 0 1.000000 
0 -27.000000 15.008899 58.066898 0.000000 0.000000 1.000000 0.265500 -0.921900 1 0 1.000000 
0 -19.000000 19.008900 58.066898 0.000000 0.000000 1.000000 0.203000 -0.796900 1 0 1.000000 
borealis_deckdetail_system01
0 -1.000001 15.008800 -48.933102 0.000000 0.000000 1.000000 0.265500 -0.515600 1 0 1.000000 
0 12.999999 15.008801 -48.933102 0.000000 0.000000 1.000000 0.265500 -0.296900 1 0 1.000000 
0 -1.000001 19.008801 -48.933102 0.000000 0.000000 1.000000 0.203000 -0.515600 1 0 1.000000 
borealis_deckdetail_system01
0 -19.000000 19.008801 -61.933102 -0.249914 0.562331 0.788243 -0.375000 -0.808500 1 0 1.000000 
0 12.999999 15.008801 -48.933102 -0.249914 0.562331 0.788243 -0.171900 -0.308500 1 0 1.000000 
0 22.000000 19.008802 -48.933102 -0.249914 0.562331 0.788243 -0.171900 -0.167900 1 0 1.000000 
borealis_deckdetail_system01
0 -1.000001 15.008800 11.066900 0.000000 0.000000 1.000000 0.265500 -0.515600 1 0 1.000000 
0 12.999999 15.008801 11.066900 0.000000 0.000000 1.000000 0.265500 -0.296900 1 0 1.000000 
0 -1.000001 19.008801 11.066900 0.000000 0.000000 1.000000 0.203000 -0.515600 1 0 1.000000 
borealis_deckdetail_system01
0 -19.000000 19.008801 -1.933100 -0.249914 0.562331 0.788243 0.562500 -0.808500 1 0 1.000000 
0 12.999999 15.008801 11.066900 -0.249914 0.562331 0.788243 0.765600 -0.308500 1 0 1.000000 
0 22.000000 19.008802 11.066900 -0.249914 0.562331 0.788243 0.765600 -0.167900 1 0 1.000000 
borealis_deckdetail_system01
0 13.000001 -15.003499 11.066900 0.000000 0.000000 1.000000 0.265500 -0.296900 1 0 1.000000 
0 -0.999999 -15.003500 11.066900 0.000000 0.000000 1.000000 0.265500 -0.515600 1 0 1.000000 
0 -0.999999 -19.003500 11.066900 0.000000 0.000000 1.000000 0.203000 -0.515600 1 0 1.000000 
borealis_deckdetail_system01
0 13.000001 -15.003499 11.066900 -0.249914 -0.562331 0.788243 0.765600 -0.308500 1 0 1.000000 
0 -19.000000 -19.003500 -1.933100 -0.249914 -0.562331 0.788243 0.562500 -0.808500 1 0 1.000000 
0 22.000000 -19.003498 11.066900 -0.249914 -0.562331 0.788243 0.765600 -0.167900 1 0 1.000000 
borealis_deckdetail_system01
0 22.899502 -39.908100 54.294800 -0.499891 -0.866085 -0.002400 0.583500 -0.046500 1 0 1.000000 
0 26.794802 -38.864300 -69.933098 0.258908 -0.965630 -0.022901 0.999900 -0.953500 1 0 1.000000 
0 26.794802 -38.864300 54.294800 0.499991 0.865785 0.020600 0.999900 -0.046500 1 0 1.000000 
borealis_deckdetail_system01
0 23.663502 -37.056499 -69.933098 -0.325595 0.945484 -0.006900 0.333300 -0.953500 1 0 1.000000 
0 26.794802 -38.864300 -69.933098 0.258908 -0.965630 -0.022901 0.999900 -0.953500 1 0 1.000000 
0 22.899502 -39.908100 54.294800 -0.499891 -0.866085 -0.002400 0.583500 -0.046500 1 0 1.000000 
borealis_deckdetail_system01
0 26.794802 -38.864300 54.294800 0.499991 0.865785 0.020600 -0.000100 -0.046500 1 0 1.000000 
0 23.663502 -37.056499 -69.933098 -0.325595 0.945484 -0.006900 0.333300 -0.953500 1 0 1.000000 
0 22.899502 -39.908100 54.294800 -0.499891 -0.866085 -0.002400 0.583500 -0.046500 1 0 1.000000 
borealis_deckdetail_system01
0 26.794802 -38.864300 -69.933098 0.258908 -0.965630 -0.022901 -0.000100 -0.953500 1 0 1.000000 
0 23.663502 -37.056499 -69.933098 -0.325595 0.945484 -0.006900 0.333300 -0.953500 1 0 1.000000 
0 26.794802 -38.864300 54.294800 0.499991 0.865785 0.020600 -0.000100 -0.046500 1 0 1.000000 
borealis_deckdetail_system01
0 -19.000000 -19.003500 -61.933102 1.000000 0.000000 0.000000 0.468800 -1.375000 1 0 1.000000 
0 -19.000000 -15.003501 -69.933098 1.000000 0.000000 0.000000 0.531200 -1.500000 1 0 1.000000 
0 -19.000000 -15.003501 -61.933102 1.000000 0.000000 0.000000 0.531300 -1.375000 1 0 1.000000 
borealis_deckdetail_system01
0 13.000001 -15.003499 -48.933102 -0.249914 -0.562331 0.788243 -0.171900 -0.308500 1 0 1.000000 
0 -19.000000 -19.003500 -61.933102 -0.249914 -0.562331 0.788243 -0.375000 -0.808500 1 0 1.000000 
0 22.000000 -19.003498 -48.933102 -0.249914 -0.562331 0.788243 -0.171900 -0.167900 1 0 1.000000 
borealis_deckdetail_system01
0 -19.000000 15.008899 -69.933098 1.000000 0.000000 0.000000 0.531200 -1.500000 1 0 1.000000 
0 -19.000000 19.008801 -61.933102 1.000000 0.000000 0.000000 0.468800 -1.375000 1 0 1.000000 
0 -19.000000 15.008799 -61.933102 1.000000 0.000000 0.000000 0.531300 -1.375000 1 0 1.000000 
end
