version 1
nodes
  0 "static_prop" -1
end
skeleton
time 0
0 0.000000 0.000000 0.000000 0.000000 0.000000 0.000000
end
triangles
borealis_vent001
0 -1.967597 -56.287998 -13.813500 0.000100 0.707207 0.707007 0.987500 -0.543600 1 0 1.000000 
0 78.022697 -63.289696 -13.813500 0.000000 0.000000 1.000000 0.232800 -0.456100 1 0 1.000000 
0 78.022697 -56.289696 -13.813500 0.000000 0.000000 1.000000 0.232800 -0.543600 1 0 1.000000 
borealis_vent001
0 -1.967597 -56.287998 -13.813500 0.000100 0.707207 0.707007 0.987500 -0.543600 1 0 1.000000 
0 -1.977297 -63.289700 -13.813500 0.002100 -0.894225 0.447613 0.987500 -0.456100 1 0 1.000000 
0 78.022697 -63.289696 -13.813500 0.000000 0.000000 1.000000 0.232800 -0.456100 1 0 1.000000 
borealis_vent001
0 -9.661197 -56.755501 -17.813601 -0.421796 0.906691 0.000000 0.668500 -0.681300 1 0 1.000000 
0 -12.319798 -58.446400 -17.813601 -0.687800 0.725900 0.000000 0.559500 -0.681300 1 0 1.000000 
0 -12.319798 -58.446400 -13.813600 -0.687800 0.725900 0.000000 0.559500 -0.532600 1 0 1.000000 
borealis_vent001
0 -9.661197 -56.755501 -17.813601 -0.421796 0.906691 0.000000 0.668500 -0.681300 1 0 1.000000 
0 -12.319798 -58.446400 -13.813600 -0.687800 0.725900 0.000000 0.559500 -0.532600 1 0 1.000000 
0 -9.661197 -56.755501 -13.813600 -0.297506 0.954720 0.000000 0.668500 -0.532600 1 0 1.000000 
borealis_vent001
0 -6.955698 -56.288200 -17.813601 -0.085404 0.996346 0.000000 0.770500 -0.681300 1 0 1.000000 
0 -9.661197 -56.755501 -17.813601 -0.421796 0.906691 0.000000 0.668500 -0.681300 1 0 1.000000 
0 -9.661197 -56.755501 -13.813600 -0.297506 0.954720 0.000000 0.668500 -0.532600 1 0 1.000000 
borealis_vent001
0 -6.955698 -56.288200 -17.813601 -0.085404 0.996346 0.000000 0.770500 -0.681300 1 0 1.000000 
0 -9.661197 -56.755501 -13.813600 -0.297506 0.954720 0.000000 0.668500 -0.532600 1 0 1.000000 
0 -6.955698 -56.288200 -13.813600 -0.085404 0.996346 0.000000 0.770500 -0.532600 1 0 1.000000 
borealis_vent001
0 -1.967597 -56.287998 -13.813500 0.000100 0.707207 0.707007 0.987500 -0.543600 1 0 1.000000 
0 -6.955698 -56.288200 -17.813601 -0.085404 0.996346 0.000000 0.770500 -0.681300 1 0 1.000000 
0 -6.955698 -56.288200 -13.813600 -0.085404 0.996346 0.000000 0.770500 -0.532600 1 0 1.000000 
borealis_vent001
0 -1.967597 -56.287998 -13.813500 0.000100 0.707207 0.707007 0.987500 -0.543600 1 0 1.000000 
0 -1.977298 -56.289700 -17.813499 0.000100 0.447094 -0.894487 0.952500 -0.681300 1 0 1.000000 
0 -6.955698 -56.288200 -17.813601 -0.085404 0.996346 0.000000 0.770500 -0.681300 1 0 1.000000 
borealis_vent001
0 -89.977203 80.210289 18.186399 -1.000000 -0.000000 0.000000 0.661400 -0.682900 1 0 1.000000 
0 -89.977203 73.210289 2.186400 -1.000000 -0.000000 0.000000 0.584700 -0.858300 1 0 1.000000 
0 -89.977203 73.210289 18.186399 -1.000000 -0.000000 0.000000 0.584700 -0.682900 1 0 1.000000 
borealis_vent001
0 -89.977203 80.210289 18.186399 -1.000000 -0.000000 0.000000 0.661400 -0.682900 1 0 1.000000 
0 -89.977203 80.210289 2.186400 -1.000000 -0.000000 0.000000 0.661400 -0.858300 1 0 1.000000 
0 -89.977203 73.210289 2.186400 -1.000000 -0.000000 0.000000 0.584700 -0.858300 1 0 1.000000 
borealis_vent001
0 -85.977203 80.210297 18.186399 1.000000 0.000000 0.000000 0.661400 -0.682900 1 0 1.000000 
0 -85.977203 73.210297 2.186400 1.000000 0.000000 0.000000 0.584700 -0.858300 1 0 1.000000 
0 -85.977203 80.210297 2.186400 1.000000 0.000000 0.000000 0.661400 -0.858300 1 0 1.000000 
borealis_vent001
0 -85.977203 80.210297 18.186399 1.000000 0.000000 0.000000 0.661400 -0.682900 1 0 1.000000 
0 -85.977203 73.210297 18.186399 1.000000 0.000000 0.000000 0.584700 -0.682900 1 0 1.000000 
0 -85.977203 73.210297 2.186400 1.000000 0.000000 0.000000 0.584700 -0.858300 1 0 1.000000 
borealis_vent001
0 -85.632202 73.210297 -1.462500 0.004200 0.000000 0.999991 0.408900 -0.584100 1 0 1.000000 
0 -1.977304 80.210297 -1.813600 0.000000 0.000000 1.000000 0.589200 -0.678700 1 0 1.000000 
0 -85.632202 80.210297 -1.462500 0.004200 0.000000 0.999991 0.589200 -0.584100 1 0 1.000000 
borealis_vent001
0 -85.632202 73.210297 -1.462500 0.004200 0.000000 0.999991 0.408900 -0.584100 1 0 1.000000 
0 -1.977303 73.210297 -1.813600 0.000000 0.000000 1.000000 0.408900 -0.678700 1 0 1.000000 
0 -1.977304 80.210297 -1.813600 0.000000 0.000000 1.000000 0.589200 -0.678700 1 0 1.000000 
borealis_vent001
0 -88.965500 80.210289 -4.835800 -0.472274 -0.000000 -0.881452 0.589200 -0.508600 1 0 1.000000 
0 -87.326401 73.210289 -5.714000 -0.335690 -0.000000 -0.941972 0.408900 -0.553100 1 0 1.000000 
0 -88.965500 73.210289 -4.835800 -0.472274 -0.000000 -0.881452 0.408900 -0.508600 1 0 1.000000 
borealis_vent001
0 -88.965500 80.210289 -4.835800 -0.472274 -0.000000 -0.881452 0.589200 -0.508600 1 0 1.000000 
0 -87.326401 80.210289 -5.714000 -0.188206 -0.000000 -0.982130 0.589200 -0.553100 1 0 1.000000 
0 -87.326401 73.210289 -5.714000 -0.335690 -0.000000 -0.941972 0.408900 -0.553100 1 0 1.000000 
borealis_vent001
0 -87.326401 80.210289 -5.714000 -0.188206 -0.000000 -0.982130 0.589200 -0.553100 1 0 1.000000 
0 -1.977303 73.210297 -5.813600 0.000000 0.000000 -1.000000 0.408900 -0.690300 1 0 1.000000 
0 -87.326401 73.210289 -5.714000 -0.335690 -0.000000 -0.941972 0.408900 -0.553100 1 0 1.000000 
borealis_vent001
0 -87.326401 80.210289 -5.714000 -0.188206 -0.000000 -0.982130 0.589200 -0.553100 1 0 1.000000 
0 -1.977304 80.210297 -5.813600 0.000000 0.000000 -1.000000 0.589200 -0.690300 1 0 1.000000 
0 -1.977303 73.210297 -5.813600 0.000000 0.000000 -1.000000 0.408900 -0.690300 1 0 1.000000 
borealis_vent001
0 -7.527597 -64.871803 -13.813600 0.819903 -0.572502 0.000000 0.617400 -0.896500 1 0 1.000000 
0 -6.819197 -63.857201 -17.813601 0.819903 -0.572502 0.000000 0.600700 -0.959400 1 0 1.000000 
0 -6.819197 -63.857201 -13.813600 0.819903 -0.572502 0.000000 0.600700 -0.895800 1 0 1.000000 
borealis_vent001
0 -7.527597 -64.871803 -13.813600 0.819903 -0.572502 0.000000 0.617400 -0.896500 1 0 1.000000 
0 -7.527597 -64.871803 -17.813601 0.819903 -0.572502 0.000000 0.617400 -0.960200 1 0 1.000000 
0 -6.819197 -63.857201 -17.813601 0.819903 -0.572502 0.000000 0.600700 -0.959400 1 0 1.000000 
borealis_vent001
0 -13.455997 -80.555801 5.613600 -0.549381 0.000200 0.835572 0.652300 -0.932700 1 0 1.000000 
0 -11.751296 -77.079498 6.733500 -0.549381 0.000200 0.835572 0.541200 -0.871000 1 0 1.000000 
0 -13.455997 -77.079498 5.612600 -0.549381 0.000200 0.835572 0.541200 -0.932700 1 0 1.000000 
borealis_vent001
0 -13.455997 -80.555801 5.613600 -0.549381 0.000200 0.835572 0.652300 -0.932700 1 0 1.000000 
0 -11.751296 -80.555801 6.734400 -0.549381 0.000200 0.835572 0.652300 -0.871000 1 0 1.000000 
0 -11.751296 -77.079498 6.733500 -0.549381 0.000200 0.835572 0.541200 -0.871000 1 0 1.000000 
borealis_vent001
0 -10.401997 -77.079498 2.312000 0.811735 -0.000300 -0.584025 0.814300 -0.642400 1 0 1.000000 
0 -9.450596 -80.555801 3.636100 0.811735 -0.000300 -0.584025 0.868900 -0.620100 1 0 1.000000 
0 -10.401997 -80.555801 2.314300 0.811606 -0.000400 -0.584204 0.869700 -0.642100 1 0 1.000000 
borealis_vent001
0 -10.401997 -77.079498 2.312000 0.811735 -0.000300 -0.584025 0.814300 -0.642400 1 0 1.000000 
0 -9.450596 -77.079498 3.634900 0.811817 -0.000200 -0.583912 0.813500 -0.620300 1 0 1.000000 
0 -9.450596 -80.555801 3.636100 0.811735 -0.000300 -0.584025 0.868900 -0.620100 1 0 1.000000 
borealis_vent001
0 -6.610397 -80.550598 18.186399 0.000000 0.000000 1.000000 0.652200 -0.620100 1 0 1.000000 
0 -2.512697 -77.078697 18.186399 0.000000 0.000000 1.000000 0.541100 -0.493200 1 0 1.000000 
0 -6.610397 -77.078697 18.186399 0.000000 0.000000 1.000000 0.541100 -0.620100 1 0 1.000000 
borealis_vent001
0 -6.610397 -80.550598 18.186399 0.000000 0.000000 1.000000 0.652200 -0.620100 1 0 1.000000 
0 -2.512697 -80.550598 18.186399 0.000000 0.000000 1.000000 0.652200 -0.493200 1 0 1.000000 
0 -2.512697 -77.078697 18.186399 0.000000 0.000000 1.000000 0.541100 -0.493200 1 0 1.000000 
borealis_vent001
0 -1.977303 73.210297 -5.813600 0.000000 -1.000000 0.000000 0.995800 -0.525000 1 0 1.000000 
0 78.022697 73.210297 -1.813500 0.000000 -1.000000 0.000000 0.224500 -0.475000 1 0 1.000000 
0 -1.977303 73.210297 -1.813600 0.000000 -1.000000 0.000000 0.995800 -0.475000 1 0 1.000000 
borealis_vent001
0 -1.977303 73.210297 -5.813600 0.000000 -1.000000 0.000000 0.995800 -0.525000 1 0 1.000000 
0 78.022697 73.210297 -5.813500 0.000000 -1.000000 0.000000 0.224500 -0.525000 1 0 1.000000 
0 78.022697 73.210297 -1.813500 0.000000 -1.000000 0.000000 0.224500 -0.475000 1 0 1.000000 
borealis_vent001
0 -1.977304 80.210297 -5.813600 -0.000000 1.000000 0.000000 0.995800 -0.525000 1 0 1.000000 
0 78.022697 80.210297 -1.813500 -0.000000 1.000000 0.000000 0.224500 -0.475000 1 0 1.000000 
0 78.022697 80.210297 -5.813500 -0.000000 1.000000 0.000000 0.224500 -0.525000 1 0 1.000000 
borealis_vent001
0 -1.977304 80.210297 -5.813600 -0.000000 1.000000 0.000000 0.995800 -0.525000 1 0 1.000000 
0 -1.977304 80.210297 -1.813600 -0.000000 1.000000 0.000000 0.995800 -0.475000 1 0 1.000000 
0 78.022697 80.210297 -1.813500 -0.000000 1.000000 0.000000 0.224500 -0.475000 1 0 1.000000 
borealis_vent001
0 90.022697 -35.289696 -17.813499 1.000000 0.000000 0.000000 0.225300 -0.525000 1 0 1.000000 
0 90.022697 44.710304 -13.813500 1.000000 0.000000 0.000000 0.995000 -0.475000 1 0 1.000000 
0 90.022697 -35.289696 -13.813500 1.000000 0.000000 0.000000 0.225300 -0.475000 1 0 1.000000 
borealis_vent001
0 90.022697 -35.289696 -17.813499 1.000000 0.000000 0.000000 0.225300 -0.525000 1 0 1.000000 
0 90.022697 44.710304 -17.813499 1.000000 0.000000 0.000000 0.995000 -0.525000 1 0 1.000000 
0 90.022697 44.710304 -13.813500 1.000000 0.000000 0.000000 0.995000 -0.475000 1 0 1.000000 
borealis_vent001
0 83.022697 -35.289696 -17.813499 -1.000000 -0.000000 0.000000 0.225300 -0.525000 1 0 1.000000 
0 83.022697 44.710304 -13.813500 -1.000000 -0.000000 0.000000 0.995000 -0.475000 1 0 1.000000 
0 83.022697 44.710304 -17.813499 -1.000000 -0.000000 0.000000 0.995000 -0.525000 1 0 1.000000 
borealis_vent001
0 83.022697 -35.289696 -17.813499 -1.000000 -0.000000 0.000000 0.225300 -0.525000 1 0 1.000000 
0 83.022697 -35.289696 -13.813500 -1.000000 -0.000000 0.000000 0.225300 -0.475000 1 0 1.000000 
0 83.022697 44.710304 -13.813500 -1.000000 -0.000000 0.000000 0.995000 -0.475000 1 0 1.000000 
borealis_vent001
0 -89.977203 80.210289 18.186399 -0.000000 1.000000 0.000000 0.539400 -0.632900 1 0 1.000000 
0 -85.977203 80.210297 2.186400 -0.000000 1.000000 0.000000 0.480600 -0.868200 1 0 1.000000 
0 -89.977203 80.210289 2.186400 -0.000000 1.000000 0.000000 0.539400 -0.868200 1 0 1.000000 
borealis_vent001
0 -89.977203 80.210289 18.186399 -0.000000 1.000000 0.000000 0.539400 -0.632900 1 0 1.000000 
0 -85.977203 80.210297 18.186399 -0.000000 1.000000 0.000000 0.480600 -0.632900 1 0 1.000000 
0 -85.977203 80.210297 2.186400 -0.000000 1.000000 0.000000 0.480600 -0.868200 1 0 1.000000 
borealis_vent001
0 -89.977203 73.210289 18.186399 0.000000 -1.000000 0.000000 0.539400 -0.632900 1 0 1.000000 
0 -85.977203 73.210297 2.186400 0.000000 -1.000000 0.000000 0.480600 -0.868200 1 0 1.000000 
0 -85.977203 73.210297 18.186399 0.000000 -1.000000 0.000000 0.480600 -0.632900 1 0 1.000000 
borealis_vent001
0 -89.977203 73.210289 18.186399 0.000000 -1.000000 0.000000 0.539400 -0.632900 1 0 1.000000 
0 -89.977203 73.210289 2.186400 0.000000 -1.000000 0.000000 0.539400 -0.868200 1 0 1.000000 
0 -85.977203 73.210297 2.186400 0.000000 -1.000000 0.000000 0.480600 -0.868200 1 0 1.000000 
borealis_vent001
0 -1.977297 -63.289700 -13.813500 0.002100 -0.894225 0.447613 0.902800 -0.532600 1 0 1.000000 
0 -5.602997 -63.300400 -17.813601 0.141701 -0.989909 0.000000 0.770100 -0.681300 1 0 1.000000 
0 -1.967597 -63.294300 -17.813499 0.001200 -0.707506 -0.706706 0.902800 -0.681300 1 0 1.000000 
borealis_vent001
0 -1.977297 -63.289700 -13.813500 0.002100 -0.894225 0.447613 0.902800 -0.532600 1 0 1.000000 
0 -5.602997 -63.300400 -13.813600 0.283309 -0.959029 0.000000 0.770100 -0.532600 1 0 1.000000 
0 -5.602997 -63.300400 -17.813601 0.141701 -0.989909 0.000000 0.770100 -0.681300 1 0 1.000000 
borealis_vent001
0 -5.602997 -63.300400 -13.813600 0.283309 -0.959029 0.000000 0.770100 -0.532600 1 0 1.000000 
0 -6.819197 -63.857201 -17.813601 0.416310 -0.909222 0.000000 0.721800 -0.681300 1 0 1.000000 
0 -5.602997 -63.300400 -17.813601 0.141701 -0.989909 0.000000 0.770100 -0.681300 1 0 1.000000 
borealis_vent001
0 -5.602997 -63.300400 -13.813600 0.283309 -0.959029 0.000000 0.770100 -0.532600 1 0 1.000000 
0 -6.819197 -63.857201 -13.813600 0.416310 -0.909222 0.000000 0.721800 -0.532600 1 0 1.000000 
0 -6.819197 -63.857201 -17.813601 0.416310 -0.909222 0.000000 0.721800 -0.681300 1 0 1.000000 
borealis_vent001
0 82.677299 -35.289696 -18.186501 0.000000 -1.000000 0.000000 0.305300 -0.814200 1 0 1.000000 
0 90.350197 -35.289696 -13.440600 0.000000 -1.000000 0.000000 0.067200 -0.667000 1 0 1.000000 
0 82.677299 -35.289696 -13.440600 0.000000 -1.000000 0.000000 0.305300 -0.667000 1 0 1.000000 
borealis_vent001
0 82.677299 -35.289696 -18.186501 0.000000 -1.000000 0.000000 0.305300 -0.814200 1 0 1.000000 
0 90.350197 -35.289696 -18.186501 0.000000 -1.000000 0.000000 0.067200 -0.814200 1 0 1.000000 
0 90.350197 -35.289696 -13.440600 0.000000 -1.000000 0.000000 0.067200 -0.667000 1 0 1.000000 
borealis_vent001
0 -1.977304 80.555801 -6.186500 -1.000000 -0.000000 0.000000 0.284200 -0.847200 1 0 1.000000 
0 -1.977303 72.882896 -1.440600 -1.000000 -0.000000 0.000000 0.101700 -0.734300 1 0 1.000000 
0 -1.977304 80.555801 -1.440600 -1.000000 -0.000000 0.000000 0.284200 -0.734300 1 0 1.000000 
borealis_vent001
0 -1.977304 80.555801 -6.186500 -1.000000 -0.000000 0.000000 0.284200 -0.847200 1 0 1.000000 
0 -1.977303 72.882896 -6.186500 -1.000000 -0.000000 0.000000 0.101700 -0.847200 1 0 1.000000 
0 -1.977303 72.882896 -1.440600 -1.000000 -0.000000 0.000000 0.101700 -0.734300 1 0 1.000000 
borealis_vent001
0 -85.977898 73.210297 -0.691000 0.000000 -1.000000 0.000000 0.800300 -0.795500 1 0 1.000000 
0 -85.977898 73.210297 2.186400 0.000000 -1.000000 0.000000 0.800300 -0.711200 1 0 1.000000 
0 -89.977898 73.210289 2.186400 0.000000 -1.000000 0.000000 0.917400 -0.711200 1 0 1.000000 
borealis_vent001
0 -89.977898 73.210289 2.186400 0.000000 -1.000000 0.000000 0.917400 -0.711200 1 0 1.000000 
0 -89.919998 73.210289 -3.228100 0.000000 -1.000000 0.000000 0.915700 -0.869700 1 0 1.000000 
0 -85.977898 73.210297 -0.691000 0.000000 -1.000000 0.000000 0.800300 -0.795500 1 0 1.000000 
borealis_vent001
0 -89.919998 73.210289 -3.228100 0.000000 -1.000000 0.000000 0.915700 -0.869700 1 0 1.000000 
0 -85.632202 73.210297 -1.462500 0.000000 -1.000000 0.000000 0.790200 -0.818000 1 0 1.000000 
0 -85.977898 73.210297 -0.691000 0.000000 -1.000000 0.000000 0.800300 -0.795500 1 0 1.000000 
borealis_vent001
0 -89.919998 73.210289 -3.228100 0.000000 -1.000000 0.000000 0.915700 -0.869700 1 0 1.000000 
0 -88.965500 73.210289 -4.835800 0.000000 -1.000000 0.000000 0.887700 -0.916800 1 0 1.000000 
0 -85.632202 73.210297 -1.462500 0.000000 -1.000000 0.000000 0.790200 -0.818000 1 0 1.000000 
borealis_vent001
0 -88.965500 73.210289 -4.835800 0.000000 -1.000000 0.000000 0.887700 -0.916800 1 0 1.000000 
0 -87.326401 73.210289 -5.714000 0.000000 -1.000000 0.000000 0.839800 -0.942500 1 0 1.000000 
0 -85.632202 73.210297 -1.462500 0.000000 -1.000000 0.000000 0.790200 -0.818000 1 0 1.000000 
borealis_vent001
0 -87.326401 73.210289 -5.714000 0.000000 -1.000000 0.000000 0.839800 -0.942500 1 0 1.000000 
0 -1.977303 73.210297 -1.813600 0.000000 -1.000000 0.000000 0.683200 -0.828300 1 0 1.000000 
0 -85.632202 73.210297 -1.462500 0.000000 -1.000000 0.000000 0.790200 -0.818000 1 0 1.000000 
borealis_vent001
0 -87.326401 73.210289 -5.714000 0.000000 -1.000000 0.000000 0.839800 -0.942500 1 0 1.000000 
0 -1.977303 73.210297 -5.813600 0.000000 -1.000000 0.000000 0.683200 -0.945400 1 0 1.000000 
0 -1.977303 73.210297 -1.813600 0.000000 -1.000000 0.000000 0.683200 -0.828300 1 0 1.000000 
borealis_vent001
0 -1.977304 80.210297 -1.813600 0.000000 0.000000 1.000000 0.997300 -0.540300 1 0 1.000000 
0 78.022697 73.210297 -1.813500 0.000000 0.000000 1.000000 0.229700 -0.452800 1 0 1.000000 
0 78.022697 80.210297 -1.813500 0.000000 0.000000 1.000000 0.229700 -0.540300 1 0 1.000000 
borealis_vent001
0 -1.977304 80.210297 -1.813600 0.000000 0.000000 1.000000 0.997300 -0.540300 1 0 1.000000 
0 -1.977303 73.210297 -1.813600 0.000000 0.000000 1.000000 0.997300 -0.452800 1 0 1.000000 
0 78.022697 73.210297 -1.813500 0.000000 0.000000 1.000000 0.229700 -0.452800 1 0 1.000000 
borealis_vent001
0 -1.977304 80.210297 -5.813600 0.000000 0.000000 -1.000000 0.997300 -0.540500 1 0 1.000000 
0 78.022697 73.210297 -5.813500 0.000000 0.000000 -1.000000 0.229700 -0.453000 1 0 1.000000 
0 -1.977303 73.210297 -5.813600 0.000000 0.000000 -1.000000 0.997300 -0.453000 1 0 1.000000 
borealis_vent001
0 -1.977304 80.210297 -5.813600 0.000000 0.000000 -1.000000 0.997300 -0.540500 1 0 1.000000 
0 78.022697 80.210297 -5.813500 0.000000 0.000000 -1.000000 0.229700 -0.540500 1 0 1.000000 
0 78.022697 73.210297 -5.813500 0.000000 0.000000 -1.000000 0.229700 -0.453000 1 0 1.000000 
borealis_vent001
0 83.022697 -35.289696 -13.813500 0.000000 0.000000 1.000000 0.222700 -0.456300 1 0 1.000000 
0 90.022697 44.710304 -13.813500 0.000000 0.000000 1.000000 0.997400 -0.543700 1 0 1.000000 
0 83.022697 44.710304 -13.813500 0.000000 0.000000 1.000000 0.997400 -0.456300 1 0 1.000000 
borealis_vent001
0 83.022697 -35.289696 -13.813500 0.000000 0.000000 1.000000 0.222700 -0.456300 1 0 1.000000 
0 90.022697 -35.289696 -13.813500 0.000000 0.000000 1.000000 0.222700 -0.543700 1 0 1.000000 
0 90.022697 44.710304 -13.813500 0.000000 0.000000 1.000000 0.997400 -0.543700 1 0 1.000000 
borealis_vent001
0 83.022697 -35.289696 -17.813499 0.000000 0.000000 -1.000000 0.222900 -0.456300 1 0 1.000000 
0 90.022697 44.710304 -17.813499 0.000000 0.000000 -1.000000 0.997600 -0.543700 1 0 1.000000 
0 90.022697 -35.289696 -17.813499 0.000000 0.000000 -1.000000 0.222900 -0.543700 1 0 1.000000 
borealis_vent001
0 83.022697 -35.289696 -17.813499 0.000000 0.000000 -1.000000 0.222900 -0.456300 1 0 1.000000 
0 83.022697 44.710304 -17.813499 0.000000 0.000000 -1.000000 0.997600 -0.456300 1 0 1.000000 
0 90.022697 44.710304 -17.813499 0.000000 0.000000 -1.000000 0.997600 -0.543700 1 0 1.000000 
borealis_vent001
0 90.022697 -51.289696 -17.813499 1.000000 0.000000 0.000000 0.624000 -0.974900 1 0 1.000000 
0 90.022697 -35.289696 -17.813499 1.000000 0.000000 0.000000 0.917900 -0.974900 1 0 1.000000 
0 90.022697 -35.289696 -13.813500 1.000000 0.000000 0.000000 0.917900 -0.900700 1 0 1.000000 
borealis_vent001
0 90.022697 -51.289696 -17.813499 1.000000 0.000000 0.000000 0.624000 -0.974900 1 0 1.000000 
0 90.022697 -35.289696 -13.813500 1.000000 0.000000 0.000000 0.917900 -0.900700 1 0 1.000000 
0 90.022697 -51.289696 -13.813500 1.000000 0.000000 0.000000 0.624000 -0.900700 1 0 1.000000 
borealis_vent001
0 90.022697 -55.853397 -17.813499 0.998557 -0.053698 0.000000 0.540100 -0.974900 1 0 1.000000 
0 90.022697 -51.289696 -17.813499 1.000000 0.000000 0.000000 0.624000 -0.974900 1 0 1.000000 
0 90.022697 -51.289696 -13.813500 1.000000 0.000000 0.000000 0.624000 -0.900700 1 0 1.000000 
borealis_vent001
0 90.022697 -55.853397 -17.813499 0.998557 -0.053698 0.000000 0.540100 -0.974900 1 0 1.000000 
0 90.022697 -51.289696 -13.813500 1.000000 0.000000 0.000000 0.624000 -0.900700 1 0 1.000000 
0 89.591103 -58.507298 -13.813500 0.943010 -0.332303 0.017500 0.490300 -0.900700 1 0 1.000000 
borealis_vent001
0 89.591103 -58.507298 -13.813500 0.943010 -0.332303 0.017500 0.490300 -0.900700 1 0 1.000000 
0 89.591103 -58.507298 -17.813499 0.956665 -0.291189 0.000000 0.490300 -0.974900 1 0 1.000000 
0 90.022697 -55.853397 -17.813499 0.998557 -0.053698 0.000000 0.540100 -0.974900 1 0 1.000000 
borealis_vent001
0 89.591103 -58.507298 -13.813500 0.943010 -0.332303 0.017500 0.490300 -0.900700 1 0 1.000000 
0 87.932404 -61.115196 -17.813499 0.713081 -0.701081 0.000000 0.438100 -0.974900 1 0 1.000000 
0 89.591103 -58.507298 -17.813499 0.956665 -0.291189 0.000000 0.490300 -0.974900 1 0 1.000000 
borealis_vent001
0 89.591103 -58.507298 -13.813500 0.943010 -0.332303 0.017500 0.490300 -0.900700 1 0 1.000000 
0 87.932404 -61.115196 -13.813500 0.713081 -0.701081 0.000000 0.438100 -0.900700 1 0 1.000000 
0 87.932404 -61.115196 -17.813499 0.713081 -0.701081 0.000000 0.438100 -0.974900 1 0 1.000000 
borealis_vent001
0 85.419502 -62.773796 -13.813500 0.438311 -0.898823 0.000000 0.871200 -0.541800 1 0 1.000000 
0 87.932404 -61.115196 -17.813499 0.713081 -0.701081 0.000000 0.957800 -0.665400 1 0 1.000000 
0 87.932404 -61.115196 -13.813500 0.713081 -0.701081 0.000000 0.957800 -0.541800 1 0 1.000000 
borealis_vent001
0 85.419502 -62.773796 -13.813500 0.438311 -0.898823 0.000000 0.871200 -0.541800 1 0 1.000000 
0 85.419502 -62.773796 -17.813499 0.316198 -0.948693 0.000000 0.871200 -0.665400 1 0 1.000000 
0 87.932404 -61.115196 -17.813499 0.713081 -0.701081 0.000000 0.957800 -0.665400 1 0 1.000000 
borealis_vent001
0 82.765602 -63.289696 -13.813500 0.095800 -0.995400 0.000000 0.787800 -0.541800 1 0 1.000000 
0 85.419502 -62.773796 -17.813499 0.316198 -0.948693 0.000000 0.871200 -0.665400 1 0 1.000000 
0 85.419502 -62.773796 -13.813500 0.438311 -0.898823 0.000000 0.871200 -0.541800 1 0 1.000000 
borealis_vent001
0 82.765602 -63.289696 -13.813500 0.095800 -0.995400 0.000000 0.787800 -0.541800 1 0 1.000000 
0 82.765602 -63.289696 -17.813499 0.095800 -0.995400 0.000000 0.787800 -0.665400 1 0 1.000000 
0 85.419502 -62.773796 -17.813499 0.316198 -0.948693 0.000000 0.871200 -0.665400 1 0 1.000000 
borealis_vent001
0 82.765602 -63.289696 -13.813500 0.095800 -0.995400 0.000000 0.787800 -0.541800 1 0 1.000000 
0 78.022697 -63.289696 -17.813499 0.000000 -1.000000 0.000000 0.644500 -0.665400 1 0 1.000000 
0 82.765602 -63.289696 -17.813499 0.095800 -0.995400 0.000000 0.787800 -0.665400 1 0 1.000000 
borealis_vent001
0 82.765602 -63.289696 -13.813500 0.095800 -0.995400 0.000000 0.787800 -0.541800 1 0 1.000000 
0 78.022697 -63.289696 -13.813500 0.000000 -1.000000 0.000000 0.644500 -0.541800 1 0 1.000000 
0 78.022697 -63.289696 -17.813499 0.000000 -1.000000 0.000000 0.644500 -0.665400 1 0 1.000000 
borealis_vent001
0 -3.969497 -77.079498 5.180000 0.916906 -0.000100 -0.399103 0.808900 -0.589600 1 0 1.000000 
0 -2.640796 -80.551300 8.233500 0.961388 -0.000100 -0.275197 0.863100 -0.539300 1 0 1.000000 
0 -3.969496 -80.555801 5.181000 0.916906 -0.000100 -0.399103 0.864300 -0.589400 1 0 1.000000 
borealis_vent001
0 -3.969497 -77.079498 5.180000 0.916906 -0.000100 -0.399103 0.808900 -0.589600 1 0 1.000000 
0 -2.640797 -77.079300 8.232600 0.989564 0.000000 -0.144095 0.807800 -0.539600 1 0 1.000000 
0 -2.640796 -80.551300 8.233500 0.961388 -0.000100 -0.275197 0.863100 -0.539300 1 0 1.000000 
borealis_vent001
0 -2.640797 -77.079300 8.232600 0.989564 0.000000 -0.144095 0.807800 -0.539600 1 0 1.000000 
0 -2.512697 -80.550598 18.186399 0.999917 0.000000 -0.012900 0.863000 -0.380800 1 0 1.000000 
0 -2.640796 -80.551300 8.233500 0.961388 -0.000100 -0.275197 0.863100 -0.539300 1 0 1.000000 
borealis_vent001
0 -2.640797 -77.079300 8.232600 0.989564 0.000000 -0.144095 0.807800 -0.539600 1 0 1.000000 
0 -2.512697 -77.078697 18.186399 0.999917 0.000000 -0.012900 0.807700 -0.381000 1 0 1.000000 
0 -2.512697 -80.550598 18.186399 0.999917 0.000000 -0.012900 0.863000 -0.380800 1 0 1.000000 
borealis_vent001
0 -7.602097 -80.555801 6.846000 -0.898627 0.000100 0.438713 0.867300 -0.566900 1 0 1.000000 
0 -6.630397 -77.079300 8.835400 -0.953936 0.000100 0.300011 0.811100 -0.534400 1 0 1.000000 
0 -7.602097 -77.079498 6.845100 -0.898627 0.000100 0.438713 0.812000 -0.567100 1 0 1.000000 
borealis_vent001
0 -7.602097 -80.555801 6.846000 -0.898627 0.000100 0.438713 0.867300 -0.566900 1 0 1.000000 
0 -6.630397 -80.551300 8.836400 -0.988518 -0.000000 0.151103 0.866500 -0.534200 1 0 1.000000 
0 -6.630397 -77.079300 8.835400 -0.953936 0.000100 0.300011 0.811100 -0.534400 1 0 1.000000 
borealis_vent001
0 -6.630397 -80.551300 8.836400 -0.988518 -0.000000 0.151103 0.866500 -0.534200 1 0 1.000000 
0 -6.610397 -77.078697 18.186399 -0.999998 -0.000000 0.002100 0.811100 -0.385600 1 0 1.000000 
0 -6.630397 -77.079300 8.835400 -0.953936 0.000100 0.300011 0.811100 -0.534400 1 0 1.000000 
borealis_vent001
0 -6.630397 -80.551300 8.836400 -0.988518 -0.000000 0.151103 0.866500 -0.534200 1 0 1.000000 
0 -6.610397 -80.550598 18.186399 -0.999998 -0.000000 0.002100 0.866400 -0.385400 1 0 1.000000 
0 -6.610397 -77.078697 18.186399 -0.999998 -0.000000 0.002100 0.811100 -0.385600 1 0 1.000000 
borealis_vent001
0 -1.977297 -63.289700 -17.813499 0.000000 -1.000000 0.000000 0.990400 -0.525000 1 0 1.000000 
0 78.022697 -63.289696 -13.813500 0.000000 -1.000000 0.000000 0.223200 -0.475000 1 0 1.000000 
0 -1.977297 -63.289700 -13.813500 0.000000 -1.000000 0.000000 0.990400 -0.475000 1 0 1.000000 
borealis_vent001
0 -1.977297 -63.289700 -17.813499 0.000000 -1.000000 0.000000 0.990400 -0.525000 1 0 1.000000 
0 78.022697 -63.289696 -17.813499 0.000000 -1.000000 0.000000 0.223200 -0.525000 1 0 1.000000 
0 78.022697 -63.289696 -13.813500 0.000000 -1.000000 0.000000 0.223200 -0.475000 1 0 1.000000 
borealis_vent001
0 -11.751296 -80.555801 6.734400 -0.026901 0.000300 0.999638 0.652300 -0.871000 1 0 1.000000 
0 -7.602097 -77.079498 6.845100 -0.026901 0.000300 0.999638 0.541200 -0.741600 1 0 1.000000 
0 -11.751296 -77.079498 6.733500 -0.026901 0.000300 0.999638 0.541200 -0.871000 1 0 1.000000 
borealis_vent001
0 -11.751296 -80.555801 6.734400 -0.026901 0.000300 0.999638 0.652300 -0.871000 1 0 1.000000 
0 -7.602097 -80.555801 6.846000 -0.026901 0.000300 0.999638 0.652300 -0.741600 1 0 1.000000 
0 -7.602097 -77.079498 6.845100 -0.026901 0.000300 0.999638 0.541200 -0.741600 1 0 1.000000 
borealis_vent001
0 -9.450596 -77.079498 3.634900 0.116499 -0.000400 -0.993191 0.541200 -0.824500 1 0 1.000000 
0 -5.770297 -80.555801 4.067800 0.258409 -0.000300 -0.966035 0.652300 -0.707100 1 0 1.000000 
0 -9.450596 -80.555801 3.636100 0.116499 -0.000400 -0.993191 0.652300 -0.824500 1 0 1.000000 
borealis_vent001
0 -9.450596 -77.079498 3.634900 0.116499 -0.000400 -0.993191 0.541200 -0.824500 1 0 1.000000 
0 -5.770297 -77.079498 4.066600 0.397790 -0.000300 -0.917476 0.541200 -0.707100 1 0 1.000000 
0 -5.770297 -80.555801 4.067800 0.258409 -0.000300 -0.966035 0.652300 -0.707100 1 0 1.000000 
borealis_vent001
0 -5.770297 -77.079498 4.066600 0.397790 -0.000300 -0.917476 0.541200 -0.707100 1 0 1.000000 
0 -3.969496 -80.555801 5.181000 0.525804 -0.000300 -0.850606 0.652300 -0.642500 1 0 1.000000 
0 -5.770297 -80.555801 4.067800 0.258409 -0.000300 -0.966035 0.652300 -0.707100 1 0 1.000000 
borealis_vent001
0 -5.770297 -77.079498 4.066600 0.397790 -0.000300 -0.917476 0.541200 -0.707100 1 0 1.000000 
0 -3.969497 -77.079498 5.180000 0.525876 -0.000200 -0.850561 0.541200 -0.642500 1 0 1.000000 
0 -3.969496 -80.555801 5.181000 0.525804 -0.000300 -0.850606 0.652300 -0.642500 1 0 1.000000 
borealis_vent001
0 -1.977298 -56.289700 -17.813499 -0.000000 0.707007 -0.707207 0.990400 -0.525000 1 0 1.000000 
0 78.022697 -56.289696 -13.813500 -0.000000 1.000000 0.000000 0.223200 -0.475000 1 0 1.000000 
0 78.022697 -56.289696 -17.813499 -0.000000 1.000000 0.000000 0.223200 -0.525000 1 0 1.000000 
borealis_vent001
0 -1.977298 -56.289700 -17.813499 -0.000000 0.707007 -0.707207 0.990400 -0.525000 1 0 1.000000 
0 -1.967597 -56.287998 -13.813500 -0.000000 0.707257 0.706957 0.990400 -0.475000 1 0 1.000000 
0 78.022697 -56.289696 -13.813500 -0.000000 1.000000 0.000000 0.223200 -0.475000 1 0 1.000000 
borealis_vent001
0 -1.977298 -56.289700 -17.813499 0.000100 0.447094 -0.894487 0.987500 -0.543900 1 0 1.000000 
0 78.022697 -63.289696 -17.813499 0.000000 0.000000 -1.000000 0.232800 -0.456400 1 0 1.000000 
0 -1.967597 -63.294300 -17.813499 0.001200 -0.707506 -0.706706 0.987500 -0.456400 1 0 1.000000 
borealis_vent001
0 -1.977298 -56.289700 -17.813499 0.000100 0.447094 -0.894487 0.987500 -0.543900 1 0 1.000000 
0 78.022697 -56.289696 -17.813499 0.000000 0.000000 -1.000000 0.232800 -0.543900 1 0 1.000000 
0 78.022697 -63.289696 -17.813499 0.000000 0.000000 -1.000000 0.232800 -0.456400 1 0 1.000000 
borealis_vent001
0 78.022697 73.210297 -5.813500 0.000000 -1.000000 0.000000 0.905400 -0.949900 1 0 1.000000 
0 81.259499 73.210297 -1.813500 -0.151005 -0.988533 0.000000 0.785300 -0.798700 1 0 1.000000 
0 78.022697 73.210297 -1.813500 0.000000 -1.000000 0.000000 0.905400 -0.798700 1 0 1.000000 
borealis_vent001
0 78.022697 73.210297 -5.813500 0.000000 -1.000000 0.000000 0.905400 -0.949900 1 0 1.000000 
0 81.259499 73.210297 -5.813500 -0.302093 -0.953278 0.000000 0.785300 -0.949900 1 0 1.000000 
0 81.259499 73.210297 -1.813500 -0.151005 -0.988533 0.000000 0.785300 -0.798700 1 0 1.000000 
borealis_vent001
0 81.259499 73.210297 -5.813500 -0.302093 -0.953278 0.000000 0.785300 -0.949900 1 0 1.000000 
0 82.452499 72.621498 -1.813500 -0.442608 -0.896715 0.000000 0.736800 -0.798700 1 0 1.000000 
0 81.259499 73.210297 -1.813500 -0.151005 -0.988533 0.000000 0.785300 -0.798700 1 0 1.000000 
borealis_vent001
0 81.259499 73.210297 -5.813500 -0.302093 -0.953278 0.000000 0.785300 -0.949900 1 0 1.000000 
0 82.452499 72.621498 -5.813500 -0.442608 -0.896715 0.000000 0.736800 -0.949900 1 0 1.000000 
0 82.452499 72.621498 -1.813500 -0.442608 -0.896715 0.000000 0.736800 -0.798700 1 0 1.000000 
borealis_vent001
0 -14.411996 -80.555801 3.307400 -0.960986 0.000100 0.276596 0.873000 -0.630800 1 0 1.000000 
0 -13.455997 -80.555801 5.613600 -0.923791 0.000100 0.382896 0.872200 -0.593000 1 0 1.000000 
0 -13.455997 -77.079498 5.612600 -0.923791 0.000100 0.382896 0.816900 -0.593300 1 0 1.000000 
borealis_vent001
0 -14.411996 -80.555801 3.307400 -0.960986 0.000100 0.276596 0.873000 -0.630800 1 0 1.000000 
0 -13.455997 -77.079498 5.612600 -0.923791 0.000100 0.382896 0.816900 -0.593300 1 0 1.000000 
0 -14.411996 -77.079498 3.306200 -0.986226 0.000100 0.165404 0.817700 -0.631000 1 0 1.000000 
borealis_vent001
0 -14.552796 -80.366997 -15.121400 -1.000000 -0.000000 0.000000 0.870100 -0.924200 1 0 1.000000 
0 -14.411996 -80.555801 3.307400 -0.960986 0.000100 0.276596 0.873000 -0.630800 1 0 1.000000 
0 -14.411996 -77.079498 3.306200 -0.986226 0.000100 0.165404 0.817700 -0.631000 1 0 1.000000 
borealis_vent001
0 -14.552796 -80.366997 -15.121400 -1.000000 -0.000000 0.000000 0.870100 -0.924200 1 0 1.000000 
0 -14.411996 -77.079498 3.306200 -0.986226 0.000100 0.165404 0.817700 -0.631000 1 0 1.000000 
0 -14.552796 -77.022697 -13.326500 -1.000000 -0.000000 0.000000 0.816900 -0.895900 1 0 1.000000 
borealis_vent001
0 -14.552796 -79.196098 -16.881201 -1.000000 -0.000000 0.000000 0.851500 -0.952300 1 0 1.000000 
0 -14.552796 -80.366997 -15.121400 -1.000000 -0.000000 0.000000 0.870100 -0.924200 1 0 1.000000 
0 -14.552796 -77.022697 -13.326500 -1.000000 -0.000000 0.000000 0.816900 -0.895900 1 0 1.000000 
borealis_vent001
0 -14.552796 -77.227898 -17.673201 -1.000000 -0.000000 0.000000 0.820100 -0.965000 1 0 1.000000 
0 -14.552796 -79.196098 -16.881201 -1.000000 -0.000000 0.000000 0.851500 -0.952300 1 0 1.000000 
0 -14.552796 -77.022697 -13.326500 -1.000000 -0.000000 0.000000 0.816900 -0.895900 1 0 1.000000 
borealis_vent001
0 -14.552796 -77.227898 -17.673201 -1.000000 -0.000000 0.000000 0.820100 -0.965000 1 0 1.000000 
0 -14.552796 -77.022697 -13.326500 -1.000000 -0.000000 0.000000 0.816900 -0.895900 1 0 1.000000 
0 -14.552797 -76.193802 -13.776200 -1.000000 -0.000000 0.000000 0.803700 -0.903100 1 0 1.000000 
borealis_vent001
0 -14.552797 -76.193802 -13.776200 -1.000000 -0.000000 0.000000 0.803700 -0.903100 1 0 1.000000 
0 -14.552797 -63.519100 -17.813601 -0.995117 0.098702 0.000000 0.601800 -0.968000 1 0 1.000000 
0 -14.552796 -77.227898 -17.673201 -1.000000 -0.000000 0.000000 0.820100 -0.965000 1 0 1.000000 
borealis_vent001
0 -14.552797 -76.193802 -13.776200 -1.000000 -0.000000 0.000000 0.803700 -0.903100 1 0 1.000000 
0 -14.552797 -63.519100 -13.813600 -0.995117 0.098702 0.000000 0.601800 -0.904400 1 0 1.000000 
0 -14.552797 -63.519100 -17.813601 -0.995117 0.098702 0.000000 0.601800 -0.968000 1 0 1.000000 
borealis_vent001
0 -14.552797 -63.519100 -17.813601 -0.995117 0.098702 0.000000 0.601800 -0.968000 1 0 1.000000 
0 -14.552797 -63.519100 -13.813600 -0.995117 0.098702 0.000000 0.601800 -0.904400 1 0 1.000000 
0 -14.010697 -60.813702 -13.813600 -0.943523 0.331308 0.000000 0.558200 -0.903900 1 0 1.000000 
borealis_vent001
0 -14.552797 -63.519100 -17.813601 -0.995117 0.098702 0.000000 0.601800 -0.968000 1 0 1.000000 
0 -14.010697 -60.813702 -13.813600 -0.943523 0.331308 0.000000 0.558200 -0.903900 1 0 1.000000 
0 -14.010697 -60.813702 -17.813601 -0.886822 0.462111 0.000000 0.558200 -0.967600 1 0 1.000000 
borealis_vent001
0 -14.010697 -60.813702 -17.813601 -0.886822 0.462111 0.000000 0.558200 -0.967600 1 0 1.000000 
0 -14.010697 -60.813702 -13.813600 -0.943523 0.331308 0.000000 0.558200 -0.903900 1 0 1.000000 
0 -12.319798 -58.446400 -13.813600 -0.687800 0.725900 0.000000 0.519100 -0.902200 1 0 1.000000 
borealis_vent001
0 -14.010697 -60.813702 -17.813601 -0.886822 0.462111 0.000000 0.558200 -0.967600 1 0 1.000000 
0 -12.319798 -58.446400 -13.813600 -0.687800 0.725900 0.000000 0.519100 -0.902200 1 0 1.000000 
0 -12.319798 -58.446400 -17.813601 -0.687800 0.725900 0.000000 0.519100 -0.965900 1 0 1.000000 
borealis_vent001
0 81.438698 -56.289696 -17.813499 -0.341615 0.939840 0.000000 0.792600 -0.665400 1 0 1.000000 
0 82.433899 -55.719498 -13.813500 -0.497097 0.867695 0.000000 0.826300 -0.541800 1 0 1.000000 
0 82.433899 -55.719498 -17.813499 -0.497097 0.867695 0.000000 0.826300 -0.665400 1 0 1.000000 
borealis_vent001
0 81.438698 -56.289696 -17.813499 -0.341615 0.939840 0.000000 0.792600 -0.665400 1 0 1.000000 
0 81.438698 -56.289696 -13.813500 -0.170801 0.985305 0.000000 0.792600 -0.541800 1 0 1.000000 
0 82.433899 -55.719498 -13.813500 -0.497097 0.867695 0.000000 0.826300 -0.541800 1 0 1.000000 
borealis_vent001
0 78.022697 -56.289696 -17.813499 -0.000000 1.000000 0.000000 0.689400 -0.665400 1 0 1.000000 
0 81.438698 -56.289696 -13.813500 -0.170801 0.985305 0.000000 0.792600 -0.541800 1 0 1.000000 
0 81.438698 -56.289696 -17.813499 -0.341615 0.939840 0.000000 0.792600 -0.665400 1 0 1.000000 
borealis_vent001
0 78.022697 -56.289696 -17.813499 -0.000000 1.000000 0.000000 0.689400 -0.665400 1 0 1.000000 
0 78.022697 -56.289696 -13.813500 -0.000000 1.000000 0.000000 0.689400 -0.541800 1 0 1.000000 
0 81.438698 -56.289696 -13.813500 -0.170801 0.985305 0.000000 0.792600 -0.541800 1 0 1.000000 
borealis_vent001
0 83.022697 -51.289696 -17.813499 -1.000000 -0.000000 0.000000 0.605900 -0.974900 1 0 1.000000 
0 83.022697 -35.289696 -13.813500 -1.000000 -0.000000 0.000000 0.899800 -0.900700 1 0 1.000000 
0 83.022697 -35.289696 -17.813499 -1.000000 -0.000000 0.000000 0.899800 -0.974900 1 0 1.000000 
borealis_vent001
0 83.022697 -51.289696 -17.813499 -1.000000 -0.000000 0.000000 0.605900 -0.974900 1 0 1.000000 
0 83.022697 -51.289696 -13.813500 -1.000000 -0.000000 0.000000 0.605900 -0.900700 1 0 1.000000 
0 83.022697 -35.289696 -13.813500 -1.000000 -0.000000 0.000000 0.899800 -0.900700 1 0 1.000000 
borealis_vent001
0 83.022697 -51.289696 -17.813499 -1.000000 -0.000000 0.000000 0.605900 -0.974900 1 0 1.000000 
0 83.022697 -54.526497 -13.813500 -0.988533 0.151005 0.000000 0.546400 -0.900700 1 0 1.000000 
0 83.022697 -51.289696 -13.813500 -1.000000 -0.000000 0.000000 0.605900 -0.900700 1 0 1.000000 
borealis_vent001
0 83.022697 -51.289696 -17.813499 -1.000000 -0.000000 0.000000 0.605900 -0.974900 1 0 1.000000 
0 83.022697 -54.526497 -17.813499 -0.953278 0.302093 0.000000 0.546400 -0.974900 1 0 1.000000 
0 83.022697 -54.526497 -13.813500 -0.988533 0.151005 0.000000 0.546400 -0.900700 1 0 1.000000 
borealis_vent001
0 83.022697 -54.526497 -17.813499 -0.953278 0.302093 0.000000 0.546400 -0.974900 1 0 1.000000 
0 82.433899 -55.719498 -13.813500 -0.896715 0.442608 0.000000 0.523000 -0.900700 1 0 1.000000 
0 83.022697 -54.526497 -13.813500 -0.988533 0.151005 0.000000 0.546400 -0.900700 1 0 1.000000 
borealis_vent001
0 83.022697 -54.526497 -17.813499 -0.953278 0.302093 0.000000 0.546400 -0.974900 1 0 1.000000 
0 82.433899 -55.719498 -17.813499 -0.896715 0.442608 0.000000 0.523000 -0.974900 1 0 1.000000 
0 82.433899 -55.719498 -13.813500 -0.896715 0.442608 0.000000 0.523000 -0.900700 1 0 1.000000 
borealis_vent001
0 -85.977898 73.210297 -0.691000 0.960556 0.000000 0.278087 0.655500 -0.657000 1 0 1.000000 
0 -85.632202 73.210297 -1.462500 0.912583 0.000000 0.408892 0.655500 -0.675200 1 0 1.000000 
0 -85.632202 80.210297 -1.462500 0.912583 0.000000 0.408892 0.811800 -0.675200 1 0 1.000000 
borealis_vent001
0 -85.977898 73.210297 -0.691000 0.960556 0.000000 0.278087 0.655500 -0.657000 1 0 1.000000 
0 -85.632202 80.210297 -1.462500 0.912583 0.000000 0.408892 0.811800 -0.675200 1 0 1.000000 
0 -85.977898 80.210297 -0.691000 0.990292 0.000000 0.138999 0.811800 -0.657000 1 0 1.000000 
borealis_vent001
0 -85.977898 80.210297 -0.691000 0.990292 0.000000 0.138999 0.811800 -0.657000 1 0 1.000000 
0 -85.977898 73.210297 2.186400 1.000000 0.000000 0.000000 0.655500 -0.593600 1 0 1.000000 
0 -85.977898 73.210297 -0.691000 0.960556 0.000000 0.278087 0.655500 -0.657000 1 0 1.000000 
borealis_vent001
0 -85.977898 80.210297 -0.691000 0.990292 0.000000 0.138999 0.811800 -0.657000 1 0 1.000000 
0 -85.977898 80.210297 2.186400 1.000000 0.000000 0.000000 0.811800 -0.593600 1 0 1.000000 
0 -85.977898 73.210297 2.186400 1.000000 0.000000 0.000000 0.655500 -0.593600 1 0 1.000000 
borealis_vent001
0 83.022697 -51.289696 -17.813499 0.000000 0.000000 -1.000000 0.851100 -0.766700 1 0 1.000000 
0 83.022697 -35.289696 -17.813499 0.000000 0.000000 -1.000000 0.851100 -0.541300 1 0 1.000000 
0 90.022697 -35.289696 -17.813499 0.000000 0.000000 -1.000000 0.949800 -0.541300 1 0 1.000000 
borealis_vent001
0 83.022697 -51.289696 -17.813499 0.000000 0.000000 -1.000000 0.851100 -0.766700 1 0 1.000000 
0 90.022697 -35.289696 -17.813499 0.000000 0.000000 -1.000000 0.949800 -0.541300 1 0 1.000000 
0 90.022697 -51.289696 -17.813499 0.000000 0.000000 -1.000000 0.949800 -0.766700 1 0 1.000000 
borealis_vent001
0 90.022697 -55.853397 -17.813499 0.000000 0.000000 -1.000000 0.949800 -0.831000 1 0 1.000000 
0 83.022697 -51.289696 -17.813499 0.000000 0.000000 -1.000000 0.851100 -0.766700 1 0 1.000000 
0 90.022697 -51.289696 -17.813499 0.000000 0.000000 -1.000000 0.949800 -0.766700 1 0 1.000000 
borealis_vent001
0 90.022697 -55.853397 -17.813499 0.000000 0.000000 -1.000000 0.949800 -0.831000 1 0 1.000000 
0 83.022697 -54.526497 -17.813499 0.000000 0.000000 -1.000000 0.851100 -0.812300 1 0 1.000000 
0 83.022697 -51.289696 -17.813499 0.000000 0.000000 -1.000000 0.851100 -0.766700 1 0 1.000000 
borealis_vent001
0 90.022697 -55.853397 -17.813499 0.000000 0.000000 -1.000000 0.949800 -0.831000 1 0 1.000000 
0 89.591103 -58.507298 -17.813499 0.000000 0.000000 -1.000000 0.943700 -0.868300 1 0 1.000000 
0 83.022697 -54.526497 -17.813499 0.000000 0.000000 -1.000000 0.851100 -0.812300 1 0 1.000000 
borealis_vent001
0 89.591103 -58.507298 -17.813499 0.000000 0.000000 -1.000000 0.943700 -0.868300 1 0 1.000000 
0 82.433899 -55.719498 -17.813499 0.000000 0.000000 -1.000000 0.842900 -0.829100 1 0 1.000000 
0 83.022697 -54.526497 -17.813499 0.000000 0.000000 -1.000000 0.851100 -0.812300 1 0 1.000000 
borealis_vent001
0 89.591103 -58.507298 -17.813499 0.000000 0.000000 -1.000000 0.943700 -0.868300 1 0 1.000000 
0 87.932404 -61.115196 -17.813499 0.000000 0.000000 -1.000000 0.920300 -0.905100 1 0 1.000000 
0 82.433899 -55.719498 -17.813499 0.000000 0.000000 -1.000000 0.842900 -0.829100 1 0 1.000000 
borealis_vent001
0 85.419502 -62.773796 -17.813499 0.000000 0.000000 -1.000000 0.884900 -0.928400 1 0 1.000000 
0 82.433899 -55.719498 -17.813499 0.000000 0.000000 -1.000000 0.842900 -0.829100 1 0 1.000000 
0 87.932404 -61.115196 -17.813499 0.000000 0.000000 -1.000000 0.920300 -0.905100 1 0 1.000000 
borealis_vent001
0 85.419502 -62.773796 -17.813499 0.000000 0.000000 -1.000000 0.884900 -0.928400 1 0 1.000000 
0 81.438698 -56.289696 -17.813499 0.000000 0.000000 -1.000000 0.828800 -0.837100 1 0 1.000000 
0 82.433899 -55.719498 -17.813499 0.000000 0.000000 -1.000000 0.842900 -0.829100 1 0 1.000000 
borealis_vent001
0 82.765602 -63.289696 -17.813499 0.000000 0.000000 -1.000000 0.847500 -0.935700 1 0 1.000000 
0 81.438698 -56.289696 -17.813499 0.000000 0.000000 -1.000000 0.828800 -0.837100 1 0 1.000000 
0 85.419502 -62.773796 -17.813499 0.000000 0.000000 -1.000000 0.884900 -0.928400 1 0 1.000000 
borealis_vent001
0 82.765602 -63.289696 -17.813499 0.000000 0.000000 -1.000000 0.847500 -0.935700 1 0 1.000000 
0 78.022697 -56.289696 -17.813499 0.000000 0.000000 -1.000000 0.780700 -0.837100 1 0 1.000000 
0 81.438698 -56.289696 -17.813499 0.000000 0.000000 -1.000000 0.828800 -0.837100 1 0 1.000000 
borealis_vent001
0 82.765602 -63.289696 -17.813499 0.000000 0.000000 -1.000000 0.847500 -0.935700 1 0 1.000000 
0 78.022697 -63.289696 -17.813499 0.000000 0.000000 -1.000000 0.780700 -0.935700 1 0 1.000000 
0 78.022697 -56.289696 -17.813499 0.000000 0.000000 -1.000000 0.780700 -0.837100 1 0 1.000000 
borealis_vent001
0 82.586403 80.210297 -5.813500 0.053698 0.998557 0.000000 0.786500 -0.949900 1 0 1.000000 
0 78.022697 80.210297 -5.813500 -0.000000 1.000000 0.000000 0.955800 -0.949900 1 0 1.000000 
0 78.022697 80.210297 -1.813500 -0.000000 1.000000 0.000000 0.955800 -0.798700 1 0 1.000000 
borealis_vent001
0 82.586403 80.210297 -5.813500 0.053698 0.998557 0.000000 0.786500 -0.949900 1 0 1.000000 
0 78.022697 80.210297 -1.813500 -0.000000 1.000000 0.000000 0.955800 -0.798700 1 0 1.000000 
0 85.240303 79.778702 -1.813500 0.332303 0.943010 0.017500 0.684900 -0.798700 1 0 1.000000 
borealis_vent001
0 85.240303 79.778702 -1.813500 0.332303 0.943010 0.017500 0.684900 -0.798700 1 0 1.000000 
0 85.240303 79.778702 -5.813500 0.291189 0.956665 0.000000 0.684900 -0.949900 1 0 1.000000 
0 82.586403 80.210297 -5.813500 0.053698 0.998557 0.000000 0.786500 -0.949900 1 0 1.000000 
borealis_vent001
0 85.240303 79.778702 -1.813500 0.332303 0.943010 0.017500 0.684900 -0.798700 1 0 1.000000 
0 87.848198 78.120010 -5.813500 0.701081 0.713081 0.000000 0.576200 -0.949900 1 0 1.000000 
0 85.240303 79.778702 -5.813500 0.291189 0.956665 0.000000 0.684900 -0.949900 1 0 1.000000 
borealis_vent001
0 85.240303 79.778702 -1.813500 0.332303 0.943010 0.017500 0.684900 -0.798700 1 0 1.000000 
0 87.848198 78.120010 -1.813500 0.701081 0.713081 0.000000 0.576200 -0.798700 1 0 1.000000 
0 87.848198 78.120010 -5.813500 0.701081 0.713081 0.000000 0.576200 -0.949900 1 0 1.000000 
borealis_vent001
0 -7.519897 -79.196098 -16.881201 0.000000 -0.832588 -0.553892 0.678400 -0.965500 1 0 1.000000 
0 -14.552796 -80.366997 -15.121400 -0.006100 -0.950489 -0.310697 0.802800 -0.933000 1 0 1.000000 
0 -14.552796 -79.196098 -16.881201 0.000000 -0.832588 -0.553892 0.802800 -0.965500 1 0 1.000000 
borealis_vent001
0 -7.519897 -79.196098 -16.881201 0.000000 -0.832588 -0.553892 0.678400 -0.965500 1 0 1.000000 
0 -7.519897 -80.366997 -15.121400 0.000000 -0.969676 -0.244394 0.678400 -0.933000 1 0 1.000000 
0 -14.552796 -80.366997 -15.121400 -0.006100 -0.950489 -0.310697 0.802800 -0.933000 1 0 1.000000 
borealis_vent001
0 -7.519897 -80.366997 -15.121400 0.000000 -0.969676 -0.244394 0.678400 -0.933000 1 0 1.000000 
0 -7.519897 -80.555801 -12.745600 0.000000 -0.999651 -0.026399 0.678400 -0.890900 1 0 1.000000 
0 -14.552796 -80.366997 -15.121400 -0.006100 -0.950489 -0.310697 0.802800 -0.933000 1 0 1.000000 
borealis_vent001
0 -7.519897 -80.555801 -12.745600 0.000000 -0.999651 -0.026399 0.678400 -0.890900 1 0 1.000000 
0 -14.411996 -80.555801 3.307400 0.000000 -1.000000 0.000000 0.800300 -0.607500 1 0 1.000000 
0 -14.552796 -80.366997 -15.121400 -0.006100 -0.950489 -0.310697 0.802800 -0.933000 1 0 1.000000 
borealis_vent001
0 -7.519897 -80.555801 -12.745600 0.000000 -0.999651 -0.026399 0.678400 -0.890900 1 0 1.000000 
0 -10.494296 -80.555801 0.680900 0.000000 -1.000000 0.000000 0.731000 -0.653800 1 0 1.000000 
0 -14.411996 -80.555801 3.307400 0.000000 -1.000000 0.000000 0.800300 -0.607500 1 0 1.000000 
borealis_vent001
0 -10.494296 -80.555801 0.680900 0.000000 -1.000000 0.000000 0.731000 -0.653800 1 0 1.000000 
0 -10.401997 -80.555801 2.314300 0.000000 -1.000000 0.000000 0.729400 -0.625000 1 0 1.000000 
0 -14.411996 -80.555801 3.307400 0.000000 -1.000000 0.000000 0.800300 -0.607500 1 0 1.000000 
borealis_vent001
0 -10.401997 -80.555801 2.314300 0.000000 -1.000000 0.000000 0.729400 -0.625000 1 0 1.000000 
0 -13.455997 -80.555801 5.613600 0.000000 -1.000000 0.000000 0.783400 -0.566800 1 0 1.000000 
0 -14.411996 -80.555801 3.307400 0.000000 -1.000000 0.000000 0.800300 -0.607500 1 0 1.000000 
borealis_vent001
0 -10.401997 -80.555801 2.314300 0.000000 -1.000000 0.000000 0.729400 -0.625000 1 0 1.000000 
0 -9.450596 -80.555801 3.636100 0.000000 -1.000000 0.000000 0.712500 -0.601700 1 0 1.000000 
0 -13.455997 -80.555801 5.613600 0.000000 -1.000000 0.000000 0.783400 -0.566800 1 0 1.000000 
borealis_vent001
0 -9.450596 -80.555801 3.636100 0.000000 -1.000000 0.000000 0.712500 -0.601700 1 0 1.000000 
0 -11.751296 -80.555801 6.734400 0.000000 -1.000000 0.000000 0.753200 -0.547000 1 0 1.000000 
0 -13.455997 -80.555801 5.613600 0.000000 -1.000000 0.000000 0.783400 -0.566800 1 0 1.000000 
borealis_vent001
0 -9.450596 -80.555801 3.636100 0.000000 -1.000000 0.000000 0.712500 -0.601700 1 0 1.000000 
0 -5.770297 -80.555801 4.067800 0.000000 -1.000000 0.000000 0.647400 -0.594100 1 0 1.000000 
0 -11.751296 -80.555801 6.734400 0.000000 -1.000000 0.000000 0.753200 -0.547000 1 0 1.000000 
borealis_vent001
0 -5.770297 -80.555801 4.067800 0.000000 -1.000000 0.000000 0.647400 -0.594100 1 0 1.000000 
0 -7.602097 -80.555801 6.846000 0.000300 -1.000000 0.000600 0.679800 -0.545000 1 0 1.000000 
0 -11.751296 -80.555801 6.734400 0.000000 -1.000000 0.000000 0.753200 -0.547000 1 0 1.000000 
borealis_vent001
0 -5.770297 -80.555801 4.067800 0.000000 -1.000000 0.000000 0.647400 -0.594100 1 0 1.000000 
0 -3.969496 -80.555801 5.181000 0.000300 -0.999999 0.001100 0.615500 -0.574400 1 0 1.000000 
0 -7.602097 -80.555801 6.846000 0.000300 -1.000000 0.000600 0.679800 -0.545000 1 0 1.000000 
borealis_vent001
0 -3.969496 -80.555801 5.181000 0.000300 -0.999999 0.001100 0.615500 -0.574400 1 0 1.000000 
0 -6.630397 -80.551300 8.836400 0.000300 -0.999999 0.001100 0.662600 -0.509900 1 0 1.000000 
0 -7.602097 -80.555801 6.846000 0.000300 -1.000000 0.000600 0.679800 -0.545000 1 0 1.000000 
borealis_vent001
0 -3.969496 -80.555801 5.181000 0.000300 -0.999999 0.001100 0.615500 -0.574400 1 0 1.000000 
0 -2.640796 -80.551300 8.233500 0.000100 -1.000000 0.000500 0.592000 -0.520500 1 0 1.000000 
0 -6.630397 -80.551300 8.836400 0.000300 -0.999999 0.001100 0.662600 -0.509900 1 0 1.000000 
borealis_vent001
0 -2.640796 -80.551300 8.233500 0.000100 -1.000000 0.000500 0.592000 -0.520500 1 0 1.000000 
0 -6.610397 -80.550598 18.186399 0.000000 -1.000000 0.000100 0.662300 -0.344800 1 0 1.000000 
0 -6.630397 -80.551300 8.836400 0.000300 -0.999999 0.001100 0.662600 -0.509900 1 0 1.000000 
borealis_vent001
0 -2.640796 -80.551300 8.233500 0.000100 -1.000000 0.000500 0.592000 -0.520500 1 0 1.000000 
0 -2.512697 -80.550598 18.186399 0.000000 -1.000000 0.000100 0.589700 -0.344800 1 0 1.000000 
0 -6.610397 -80.550598 18.186399 0.000000 -1.000000 0.000100 0.662300 -0.344800 1 0 1.000000 
borealis_vent001
0 -14.552796 -77.022697 -13.326500 0.000400 0.999994 0.003500 0.802800 -0.905500 1 0 1.000000 
0 -10.401997 -77.079498 2.312000 -0.000000 1.000000 0.000000 0.729400 -0.629300 1 0 1.000000 
0 -7.519897 -77.022697 -13.326500 -0.000000 0.999993 0.003600 0.678400 -0.905500 1 0 1.000000 
borealis_vent001
0 -14.552796 -77.022697 -13.326500 0.000400 0.999994 0.003500 0.802800 -0.905500 1 0 1.000000 
0 -14.411996 -77.079498 3.306200 -0.000000 1.000000 0.000000 0.800300 -0.611800 1 0 1.000000 
0 -10.401997 -77.079498 2.312000 -0.000000 1.000000 0.000000 0.729400 -0.629300 1 0 1.000000 
borealis_vent001
0 -14.411996 -77.079498 3.306200 -0.000000 1.000000 0.000000 0.800300 -0.611800 1 0 1.000000 
0 -9.450596 -77.079498 3.634900 -0.000000 1.000000 0.000000 0.712500 -0.606000 1 0 1.000000 
0 -10.401997 -77.079498 2.312000 -0.000000 1.000000 0.000000 0.729400 -0.629300 1 0 1.000000 
borealis_vent001
0 -14.411996 -77.079498 3.306200 -0.000000 1.000000 0.000000 0.800300 -0.611800 1 0 1.000000 
0 -13.455997 -77.079498 5.612600 -0.000000 1.000000 0.000000 0.783400 -0.571100 1 0 1.000000 
0 -9.450596 -77.079498 3.634900 -0.000000 1.000000 0.000000 0.712500 -0.606000 1 0 1.000000 
borealis_vent001
0 -13.455997 -77.079498 5.612600 -0.000000 1.000000 0.000000 0.783400 -0.571100 1 0 1.000000 
0 -5.770297 -77.079498 4.066600 -0.000000 1.000000 0.000000 0.647400 -0.598400 1 0 1.000000 
0 -9.450596 -77.079498 3.634900 -0.000000 1.000000 0.000000 0.712500 -0.606000 1 0 1.000000 
borealis_vent001
0 -13.455997 -77.079498 5.612600 -0.000000 1.000000 0.000000 0.783400 -0.571100 1 0 1.000000 
0 -11.751296 -77.079498 6.733500 -0.000000 1.000000 0.000000 0.753200 -0.551300 1 0 1.000000 
0 -5.770297 -77.079498 4.066600 -0.000000 1.000000 0.000000 0.647400 -0.598400 1 0 1.000000 
borealis_vent001
0 -11.751296 -77.079498 6.733500 -0.000000 1.000000 0.000000 0.753200 -0.551300 1 0 1.000000 
0 -3.969497 -77.079498 5.180000 -0.000000 1.000000 0.000000 0.615500 -0.578700 1 0 1.000000 
0 -5.770297 -77.079498 4.066600 -0.000000 1.000000 0.000000 0.647400 -0.598400 1 0 1.000000 
borealis_vent001
0 -11.751296 -77.079498 6.733500 -0.000000 1.000000 0.000000 0.753200 -0.551300 1 0 1.000000 
0 -7.602097 -77.079498 6.845100 -0.000000 1.000000 0.000000 0.679800 -0.549300 1 0 1.000000 
0 -3.969497 -77.079498 5.180000 -0.000000 1.000000 0.000000 0.615500 -0.578700 1 0 1.000000 
borealis_vent001
0 -7.602097 -77.079498 6.845100 -0.000000 1.000000 0.000000 0.679800 -0.549300 1 0 1.000000 
0 -2.640797 -77.079300 8.232600 -0.000000 1.000000 -0.000100 0.592000 -0.524800 1 0 1.000000 
0 -3.969497 -77.079498 5.180000 -0.000000 1.000000 0.000000 0.615500 -0.578700 1 0 1.000000 
borealis_vent001
0 -7.602097 -77.079498 6.845100 -0.000000 1.000000 0.000000 0.679800 -0.549300 1 0 1.000000 
0 -6.630397 -77.079300 8.835400 -0.000000 1.000000 -0.000100 0.662600 -0.514200 1 0 1.000000 
0 -2.640797 -77.079300 8.232600 -0.000000 1.000000 -0.000100 0.592000 -0.524800 1 0 1.000000 
borealis_vent001
0 -6.630397 -77.079300 8.835400 -0.000000 1.000000 -0.000100 0.662600 -0.514200 1 0 1.000000 
0 -2.512697 -77.078697 18.186399 -0.000000 1.000000 -0.000100 0.589700 -0.349100 1 0 1.000000 
0 -2.640797 -77.079300 8.232600 -0.000000 1.000000 -0.000100 0.592000 -0.524800 1 0 1.000000 
borealis_vent001
0 -6.630397 -77.079300 8.835400 -0.000000 1.000000 -0.000100 0.662600 -0.514200 1 0 1.000000 
0 -6.610397 -77.078697 18.186399 -0.000000 1.000000 -0.000100 0.662300 -0.349100 1 0 1.000000 
0 -2.512697 -77.078697 18.186399 -0.000000 1.000000 -0.000100 0.589700 -0.349100 1 0 1.000000 
borealis_vent001
0 -7.519897 -77.227898 -17.673201 0.000000 -0.276900 -0.960899 0.719900 -0.569600 1 0 1.000000 
0 -7.519897 -79.196098 -16.881201 0.000000 -0.373304 -0.927709 0.719900 -0.534900 1 0 1.000000 
0 -14.552796 -79.196098 -16.881201 0.000000 -0.373304 -0.927709 0.840200 -0.534900 1 0 1.000000 
borealis_vent001
0 -7.519897 -77.227898 -17.673201 0.000000 -0.276900 -0.960899 0.719900 -0.569600 1 0 1.000000 
0 -14.552796 -79.196098 -16.881201 0.000000 -0.373304 -0.927709 0.840200 -0.534900 1 0 1.000000 
0 -14.552796 -77.227898 -17.673201 0.000000 -0.176597 -0.984283 0.840200 -0.569600 1 0 1.000000 
borealis_vent001
0 -14.552796 -77.227898 -17.673201 0.000000 -0.176597 -0.984283 0.840200 -0.569600 1 0 1.000000 
0 -7.527597 -64.871803 -17.813601 0.000000 0.000000 -1.000000 0.720000 -0.780400 1 0 1.000000 
0 -7.519897 -77.227898 -17.673201 0.000000 -0.276900 -0.960899 0.719900 -0.569600 1 0 1.000000 
borealis_vent001
0 -14.552796 -77.227898 -17.673201 0.000000 -0.176597 -0.984283 0.840200 -0.569600 1 0 1.000000 
0 -14.552797 -63.519100 -17.813601 0.000000 0.000000 -1.000000 0.840200 -0.803500 1 0 1.000000 
0 -7.527597 -64.871803 -17.813601 0.000000 0.000000 -1.000000 0.720000 -0.780400 1 0 1.000000 
borealis_vent001
0 -7.527597 -64.871803 -17.813601 0.000000 0.000000 -1.000000 0.720000 -0.780400 1 0 1.000000 
0 -14.552797 -63.519100 -17.813601 0.000000 0.000000 -1.000000 0.840200 -0.803500 1 0 1.000000 
0 -14.010697 -60.813702 -17.813601 0.000000 0.000000 -1.000000 0.830900 -0.849600 1 0 1.000000 
borealis_vent001
0 -7.527597 -64.871803 -17.813601 0.000000 0.000000 -1.000000 0.720000 -0.780400 1 0 1.000000 
0 -14.010697 -60.813702 -17.813601 0.000000 0.000000 -1.000000 0.830900 -0.849600 1 0 1.000000 
0 -12.319798 -58.446400 -17.813601 0.000000 0.000000 -1.000000 0.802000 -0.890000 1 0 1.000000 
borealis_vent001
0 -7.527597 -64.871803 -17.813601 0.000000 0.000000 -1.000000 0.720000 -0.780400 1 0 1.000000 
0 -12.319798 -58.446400 -17.813601 0.000000 0.000000 -1.000000 0.802000 -0.890000 1 0 1.000000 
0 -6.819197 -63.857201 -17.813601 0.000000 0.000000 -1.000000 0.707900 -0.797700 1 0 1.000000 
borealis_vent001
0 -5.602997 -63.300400 -17.813601 0.000000 0.000000 -1.000000 0.687100 -0.807200 1 0 1.000000 
0 -6.819197 -63.857201 -17.813601 0.000000 0.000000 -1.000000 0.707900 -0.797700 1 0 1.000000 
0 -12.319798 -58.446400 -17.813601 0.000000 0.000000 -1.000000 0.802000 -0.890000 1 0 1.000000 
borealis_vent001
0 -5.602997 -63.300400 -17.813601 0.000000 0.000000 -1.000000 0.687100 -0.807200 1 0 1.000000 
0 -12.319798 -58.446400 -17.813601 0.000000 0.000000 -1.000000 0.802000 -0.890000 1 0 1.000000 
0 -9.661197 -56.755501 -17.813601 0.000000 0.000000 -1.000000 0.756500 -0.918800 1 0 1.000000 
borealis_vent001
0 -5.602997 -63.300400 -17.813601 0.000000 0.000000 -1.000000 0.687100 -0.807200 1 0 1.000000 
0 -9.661197 -56.755501 -17.813601 0.000000 0.000000 -1.000000 0.756500 -0.918800 1 0 1.000000 
0 -6.955698 -56.288200 -17.813601 0.000000 0.000000 -1.000000 0.710200 -0.926800 1 0 1.000000 
borealis_vent001
0 -5.602997 -63.300400 -17.813601 0.000000 0.000000 -1.000000 0.687100 -0.807200 1 0 1.000000 
0 -6.955698 -56.288200 -17.813601 0.000000 0.000000 -1.000000 0.710200 -0.926800 1 0 1.000000 
0 -1.977298 -56.289700 -17.813499 -0.000000 0.707007 -0.707207 0.624900 -0.926800 1 0 1.000000 
borealis_vent001
0 -5.602997 -63.300400 -17.813601 0.000000 0.000000 -1.000000 0.687100 -0.807200 1 0 1.000000 
0 -1.977298 -56.289700 -17.813499 -0.000000 0.707007 -0.707207 0.624900 -0.926800 1 0 1.000000 
0 -1.967597 -63.294300 -17.813499 0.000000 0.000000 -1.000000 0.624900 -0.807300 1 0 1.000000 
borealis_vent001
0 89.506897 75.607109 -1.813500 0.898823 0.438311 0.000000 0.937200 -0.615400 1 0 1.000000 
0 87.848198 78.120010 -5.813500 0.701081 0.713081 0.000000 0.983300 -0.686600 1 0 1.000000 
0 87.848198 78.120010 -1.813500 0.701081 0.713081 0.000000 0.983300 -0.615400 1 0 1.000000 
borealis_vent001
0 89.506897 75.607109 -1.813500 0.898823 0.438311 0.000000 0.937200 -0.615400 1 0 1.000000 
0 89.506897 75.607109 -5.813500 0.948693 0.316198 0.000000 0.937200 -0.686600 1 0 1.000000 
0 87.848198 78.120010 -5.813500 0.701081 0.713081 0.000000 0.983300 -0.686600 1 0 1.000000 
borealis_vent001
0 90.022697 72.953209 -1.813500 0.995400 0.095800 0.000000 0.889500 -0.615400 1 0 1.000000 
0 89.506897 75.607109 -5.813500 0.948693 0.316198 0.000000 0.937200 -0.686600 1 0 1.000000 
0 89.506897 75.607109 -1.813500 0.898823 0.438311 0.000000 0.937200 -0.615400 1 0 1.000000 
borealis_vent001
0 90.022697 72.953209 -1.813500 0.995400 0.095800 0.000000 0.889500 -0.615400 1 0 1.000000 
0 90.022697 72.953209 -5.813500 0.995400 0.095800 0.000000 0.889500 -0.686600 1 0 1.000000 
0 89.506897 75.607109 -5.813500 0.948693 0.316198 0.000000 0.937200 -0.686600 1 0 1.000000 
borealis_vent001
0 90.022697 72.953209 -1.813500 0.995400 0.095800 0.000000 0.889500 -0.615400 1 0 1.000000 
0 90.022697 68.210304 -5.813500 1.000000 0.000000 0.000000 0.805100 -0.686600 1 0 1.000000 
0 90.022697 72.953209 -5.813500 0.995400 0.095800 0.000000 0.889500 -0.686600 1 0 1.000000 
borealis_vent001
0 90.022697 72.953209 -1.813500 0.995400 0.095800 0.000000 0.889500 -0.615400 1 0 1.000000 
0 90.022697 68.210304 -1.813500 1.000000 0.000000 0.000000 0.805100 -0.615400 1 0 1.000000 
0 90.022697 68.210304 -5.813500 1.000000 0.000000 0.000000 0.805100 -0.686600 1 0 1.000000 
borealis_vent001
0 90.022697 68.210304 -5.813500 1.000000 0.000000 0.000000 0.805100 -0.686600 1 0 1.000000 
0 90.022697 68.210304 -1.813500 1.000000 0.000000 0.000000 0.805100 -0.615400 1 0 1.000000 
0 90.022697 63.020405 -1.871500 1.000000 0.000000 0.000000 0.712800 -0.616400 1 0 1.000000 
borealis_vent001
0 90.022697 63.020405 -1.871500 1.000000 0.000000 0.000000 0.712800 -0.616400 1 0 1.000000 
0 90.022697 64.561409 -6.159200 1.000000 0.000000 0.000000 0.740200 -0.692800 1 0 1.000000 
0 90.022697 68.210304 -5.813500 1.000000 0.000000 0.000000 0.805100 -0.686600 1 0 1.000000 
borealis_vent001
0 90.022697 63.020405 -1.871500 1.000000 0.000000 0.000000 0.712800 -0.616400 1 0 1.000000 
0 90.022697 61.188004 -2.825900 1.000000 0.000000 0.000000 0.680200 -0.633400 1 0 1.000000 
0 90.022697 64.561409 -6.159200 1.000000 0.000000 0.000000 0.740200 -0.692800 1 0 1.000000 
borealis_vent001
0 90.022697 47.859203 -13.467900 1.000000 0.000000 0.000000 0.443100 -0.823000 1 0 1.000000 
0 90.022697 64.561409 -6.159200 1.000000 0.000000 0.000000 0.740200 -0.692800 1 0 1.000000 
0 90.022697 61.188004 -2.825900 1.000000 0.000000 0.000000 0.680200 -0.633400 1 0 1.000000 
borealis_vent001
0 90.022697 47.859203 -13.467900 1.000000 0.000000 0.000000 0.443100 -0.823000 1 0 1.000000 
0 90.022697 51.232605 -16.801201 1.000000 0.000000 0.000000 0.503100 -0.882300 1 0 1.000000 
0 90.022697 64.561409 -6.159200 1.000000 0.000000 0.000000 0.740200 -0.692800 1 0 1.000000 
borealis_vent001
0 90.022697 49.310402 -17.755600 1.000000 0.000000 0.000000 0.468900 -0.899300 1 0 1.000000 
0 90.022697 51.232605 -16.801201 1.000000 0.000000 0.000000 0.503100 -0.882300 1 0 1.000000 
0 90.022697 47.859203 -13.467900 1.000000 0.000000 0.000000 0.443100 -0.823000 1 0 1.000000 
borealis_vent001
0 90.022697 49.310402 -17.755600 1.000000 0.000000 0.000000 0.468900 -0.899300 1 0 1.000000 
0 90.022697 47.859203 -13.467900 1.000000 0.000000 0.000000 0.443100 -0.823000 1 0 1.000000 
0 90.022697 44.210304 -13.813500 1.000000 0.000000 0.000000 0.378200 -0.829100 1 0 1.000000 
borealis_vent001
0 90.022697 44.210304 -13.813500 1.000000 0.000000 0.000000 0.378200 -0.829100 1 0 1.000000 
0 90.022697 44.210304 -17.813499 1.000000 0.000000 0.000000 0.378200 -0.900300 1 0 1.000000 
0 90.022697 49.310402 -17.755600 1.000000 0.000000 0.000000 0.468900 -0.899300 1 0 1.000000 
borealis_vent001
0 -85.977898 80.210297 -0.691000 -0.000000 1.000000 0.000000 0.800300 -0.795500 1 0 1.000000 
0 -89.977898 80.210289 2.186400 -0.000000 1.000000 0.000000 0.917400 -0.711200 1 0 1.000000 
0 -85.977898 80.210297 2.186400 -0.000000 1.000000 0.000000 0.800300 -0.711200 1 0 1.000000 
borealis_vent001
0 -85.977898 80.210297 -0.691000 -0.000000 1.000000 0.000000 0.800300 -0.795500 1 0 1.000000 
0 -89.919998 80.210289 -3.228100 -0.000000 1.000000 0.000000 0.915700 -0.869700 1 0 1.000000 
0 -89.977898 80.210289 2.186400 -0.000000 1.000000 0.000000 0.917400 -0.711200 1 0 1.000000 
borealis_vent001
0 -85.977898 80.210297 -0.691000 -0.000000 1.000000 0.000000 0.800300 -0.795500 1 0 1.000000 
0 -88.965500 80.210289 -4.835800 -0.000000 1.000000 0.000000 0.887700 -0.916800 1 0 1.000000 
0 -89.919998 80.210289 -3.228100 -0.000000 1.000000 0.000000 0.915700 -0.869700 1 0 1.000000 
borealis_vent001
0 -85.977898 80.210297 -0.691000 -0.000000 1.000000 0.000000 0.800300 -0.795500 1 0 1.000000 
0 -85.632202 80.210297 -1.462500 -0.000000 1.000000 0.000000 0.790200 -0.818000 1 0 1.000000 
0 -88.965500 80.210289 -4.835800 -0.000000 1.000000 0.000000 0.887700 -0.916800 1 0 1.000000 
borealis_vent001
0 -85.632202 80.210297 -1.462500 -0.000000 1.000000 0.000000 0.790200 -0.818000 1 0 1.000000 
0 -87.326401 80.210289 -5.714000 -0.000000 1.000000 0.000000 0.839800 -0.942500 1 0 1.000000 
0 -88.965500 80.210289 -4.835800 -0.000000 1.000000 0.000000 0.887700 -0.916800 1 0 1.000000 
borealis_vent001
0 -85.632202 80.210297 -1.462500 -0.000000 1.000000 0.000000 0.790200 -0.818000 1 0 1.000000 
0 -1.977304 80.210297 -1.813600 -0.000000 1.000000 0.000000 0.683200 -0.828300 1 0 1.000000 
0 -87.326401 80.210289 -5.714000 -0.000000 1.000000 0.000000 0.839800 -0.942500 1 0 1.000000 
borealis_vent001
0 -1.977304 80.210297 -1.813600 -0.000000 1.000000 0.000000 0.683200 -0.828300 1 0 1.000000 
0 -1.977304 80.210297 -5.813600 -0.000000 1.000000 0.000000 0.683200 -0.945400 1 0 1.000000 
0 -87.326401 80.210289 -5.714000 -0.000000 1.000000 0.000000 0.839800 -0.942500 1 0 1.000000 
borealis_vent001
0 -89.919998 80.210289 -3.228100 -0.962915 -0.000000 -0.269804 0.811800 -0.699200 1 0 1.000000 
0 -89.977898 73.210289 2.186400 -1.000000 -0.000000 0.000000 0.655500 -0.579600 1 0 1.000000 
0 -89.977898 80.210289 2.186400 -1.000000 -0.000000 0.000000 0.811800 -0.579600 1 0 1.000000 
borealis_vent001
0 -89.919998 80.210289 -3.228100 -0.962915 -0.000000 -0.269804 0.811800 -0.699200 1 0 1.000000 
0 -89.919998 73.210289 -3.228100 -0.981646 -0.000000 -0.190709 0.655500 -0.699200 1 0 1.000000 
0 -89.977898 73.210289 2.186400 -1.000000 -0.000000 0.000000 0.655500 -0.579600 1 0 1.000000 
borealis_vent001
0 -89.919998 80.210289 -3.228100 -0.962915 -0.000000 -0.269804 0.811800 -0.699200 1 0 1.000000 
0 -88.965500 73.210289 -4.835800 -0.859883 -0.000000 -0.510490 0.655500 -0.738000 1 0 1.000000 
0 -89.919998 73.210289 -3.228100 -0.981646 -0.000000 -0.190709 0.655500 -0.699200 1 0 1.000000 
borealis_vent001
0 -89.919998 80.210289 -3.228100 -0.962915 -0.000000 -0.269804 0.811800 -0.699200 1 0 1.000000 
0 -88.965500 80.210289 -4.835800 -0.859883 -0.000000 -0.510490 0.811800 -0.738000 1 0 1.000000 
0 -88.965500 73.210289 -4.835800 -0.859883 -0.000000 -0.510490 0.655500 -0.738000 1 0 1.000000 
borealis_vent001
0 83.022697 71.626297 -5.813500 -0.939840 -0.341615 0.000000 0.871900 -0.686600 1 0 1.000000 
0 82.452499 72.621498 -1.813500 -0.867695 -0.497097 0.000000 0.890100 -0.615400 1 0 1.000000 
0 82.452499 72.621498 -5.813500 -0.867695 -0.497097 0.000000 0.890100 -0.686600 1 0 1.000000 
borealis_vent001
0 83.022697 71.626297 -5.813500 -0.939840 -0.341615 0.000000 0.871900 -0.686600 1 0 1.000000 
0 83.022697 71.626297 -1.813500 -0.985305 -0.170801 0.000000 0.871900 -0.615400 1 0 1.000000 
0 82.452499 72.621498 -1.813500 -0.867695 -0.497097 0.000000 0.890100 -0.615400 1 0 1.000000 
borealis_vent001
0 83.022697 68.210297 -5.813500 -1.000000 -0.000000 0.000000 0.811100 -0.686600 1 0 1.000000 
0 83.022697 71.626297 -1.813500 -0.985305 -0.170801 0.000000 0.871900 -0.615400 1 0 1.000000 
0 83.022697 71.626297 -5.813500 -0.939840 -0.341615 0.000000 0.871900 -0.686600 1 0 1.000000 
borealis_vent001
0 83.022697 68.210297 -5.813500 -1.000000 -0.000000 0.000000 0.811100 -0.686600 1 0 1.000000 
0 83.022697 68.210297 -1.813500 -1.000000 -0.000000 0.000000 0.811100 -0.615400 1 0 1.000000 
0 83.022697 71.626297 -1.813500 -0.985305 -0.170801 0.000000 0.871900 -0.615400 1 0 1.000000 
borealis_vent001
0 83.022697 68.210297 -5.813500 -1.000000 -0.000000 0.000000 0.811100 -0.686600 1 0 1.000000 
0 83.022697 63.020405 -1.871500 -1.000000 -0.000000 0.000000 0.718800 -0.616400 1 0 1.000000 
0 83.022697 68.210297 -1.813500 -1.000000 -0.000000 0.000000 0.811100 -0.615400 1 0 1.000000 
borealis_vent001
0 83.022697 68.210297 -5.813500 -1.000000 -0.000000 0.000000 0.811100 -0.686600 1 0 1.000000 
0 83.022697 65.332901 -5.813500 -1.000000 -0.000000 0.000000 0.759900 -0.686600 1 0 1.000000 
0 83.022697 63.020405 -1.871500 -1.000000 -0.000000 0.000000 0.718800 -0.616400 1 0 1.000000 
borealis_vent001
0 83.022697 65.332901 -5.813500 -1.000000 -0.000000 0.000000 0.759900 -0.686600 1 0 1.000000 
0 83.022697 61.188004 -2.825900 -1.000000 -0.000000 0.000000 0.686200 -0.633400 1 0 1.000000 
0 83.022697 63.020405 -1.871500 -1.000000 -0.000000 0.000000 0.718800 -0.616400 1 0 1.000000 
borealis_vent001
0 83.022697 65.332901 -5.813500 -1.000000 -0.000000 0.000000 0.759900 -0.686600 1 0 1.000000 
0 83.022697 64.561401 -6.159200 -1.000000 -0.000000 0.000000 0.746200 -0.692800 1 0 1.000000 
0 83.022697 61.188004 -2.825900 -1.000000 -0.000000 0.000000 0.686200 -0.633400 1 0 1.000000 
borealis_vent001
0 83.022697 64.561401 -6.159200 -1.000000 -0.000000 0.000000 0.746200 -0.692800 1 0 1.000000 
0 83.022697 48.965103 -12.690900 -1.000000 -0.000000 0.000000 0.468700 -0.809100 1 0 1.000000 
0 83.022697 61.188004 -2.825900 -1.000000 -0.000000 0.000000 0.686200 -0.633400 1 0 1.000000 
borealis_vent001
0 83.022697 51.232605 -16.801201 -1.000000 -0.000000 0.000000 0.509100 -0.882300 1 0 1.000000 
0 83.022697 48.965103 -12.690900 -1.000000 -0.000000 0.000000 0.468700 -0.809100 1 0 1.000000 
0 83.022697 64.561401 -6.159200 -1.000000 -0.000000 0.000000 0.746200 -0.692800 1 0 1.000000 
borealis_vent001
0 83.022697 47.087803 -13.813500 -1.000000 -0.000000 0.000000 0.435300 -0.829100 1 0 1.000000 
0 83.022697 48.965103 -12.690900 -1.000000 -0.000000 0.000000 0.468700 -0.809100 1 0 1.000000 
0 83.022697 51.232605 -16.801201 -1.000000 -0.000000 0.000000 0.509100 -0.882300 1 0 1.000000 
borealis_vent001
0 83.022697 47.087803 -13.813500 -1.000000 -0.000000 0.000000 0.435300 -0.829100 1 0 1.000000 
0 83.022697 51.232605 -16.801201 -1.000000 -0.000000 0.000000 0.509100 -0.882300 1 0 1.000000 
0 83.022697 49.310402 -17.755600 -1.000000 -0.000000 0.000000 0.474900 -0.899300 1 0 1.000000 
borealis_vent001
0 83.022697 44.210304 -13.813500 -1.000000 -0.000000 0.000000 0.384100 -0.829100 1 0 1.000000 
0 83.022697 47.087803 -13.813500 -1.000000 -0.000000 0.000000 0.435300 -0.829100 1 0 1.000000 
0 83.022697 49.310402 -17.755600 -1.000000 -0.000000 0.000000 0.474900 -0.899300 1 0 1.000000 
borealis_vent001
0 83.022697 44.210304 -13.813500 -1.000000 -0.000000 0.000000 0.384100 -0.829100 1 0 1.000000 
0 83.022697 49.310402 -17.755600 -1.000000 -0.000000 0.000000 0.474900 -0.899300 1 0 1.000000 
0 83.022697 44.210304 -17.813499 -1.000000 -0.000000 0.000000 0.384100 -0.900300 1 0 1.000000 
borealis_vent001
0 85.240303 79.778702 -1.813500 0.000000 0.000000 1.000000 0.694200 -0.402100 1 0 1.000000 
0 78.022697 80.210297 -1.813500 0.000000 0.000000 1.000000 0.600300 -0.396600 1 0 1.000000 
0 78.022697 73.210297 -1.813500 0.000000 0.000000 1.000000 0.600300 -0.486100 1 0 1.000000 
borealis_vent001
0 78.022697 73.210297 -1.813500 0.000000 0.000000 1.000000 0.600300 -0.486100 1 0 1.000000 
0 81.259499 73.210297 -1.813500 0.000000 0.000000 1.000000 0.642400 -0.486100 1 0 1.000000 
0 85.240303 79.778702 -1.813500 0.000000 0.000000 1.000000 0.694200 -0.402100 1 0 1.000000 
borealis_vent001
0 81.259499 73.210297 -1.813500 0.000000 0.000000 1.000000 0.642400 -0.486100 1 0 1.000000 
0 87.848198 78.120010 -1.813500 0.000000 0.000000 1.000000 0.728100 -0.423300 1 0 1.000000 
0 85.240303 79.778702 -1.813500 0.000000 0.000000 1.000000 0.694200 -0.402100 1 0 1.000000 
borealis_vent001
0 81.259499 73.210297 -1.813500 0.000000 0.000000 1.000000 0.642400 -0.486100 1 0 1.000000 
0 82.452499 72.621498 -1.813500 0.000000 0.000000 1.000000 0.657900 -0.493600 1 0 1.000000 
0 87.848198 78.120010 -1.813500 0.000000 0.000000 1.000000 0.728100 -0.423300 1 0 1.000000 
borealis_vent001
0 83.022697 71.626297 -1.813500 0.000000 0.000000 1.000000 0.665300 -0.506400 1 0 1.000000 
0 87.848198 78.120010 -1.813500 0.000000 0.000000 1.000000 0.728100 -0.423300 1 0 1.000000 
0 82.452499 72.621498 -1.813500 0.000000 0.000000 1.000000 0.657900 -0.493600 1 0 1.000000 
borealis_vent001
0 83.022697 71.626297 -1.813500 0.000000 0.000000 1.000000 0.665300 -0.506400 1 0 1.000000 
0 89.506897 75.607109 -1.813500 0.000000 0.000000 1.000000 0.749600 -0.455400 1 0 1.000000 
0 87.848198 78.120010 -1.813500 0.000000 0.000000 1.000000 0.728100 -0.423300 1 0 1.000000 
borealis_vent001
0 83.022697 68.210297 -1.813500 0.000000 0.000000 1.000000 0.665300 -0.550100 1 0 1.000000 
0 89.506897 75.607109 -1.813500 0.000000 0.000000 1.000000 0.749600 -0.455400 1 0 1.000000 
0 83.022697 71.626297 -1.813500 0.000000 0.000000 1.000000 0.665300 -0.506400 1 0 1.000000 
borealis_vent001
0 83.022697 68.210297 -1.813500 0.000000 0.000000 1.000000 0.665300 -0.550100 1 0 1.000000 
0 90.022697 72.953209 -1.813500 0.000000 0.000000 1.000000 0.756300 -0.489400 1 0 1.000000 
0 89.506897 75.607109 -1.813500 0.000000 0.000000 1.000000 0.749600 -0.455400 1 0 1.000000 
borealis_vent001
0 83.022697 68.210297 -1.813500 0.000000 0.000000 1.000000 0.665300 -0.550100 1 0 1.000000 
0 90.022697 68.210304 -1.813500 0.000000 0.000000 1.000000 0.756300 -0.550100 1 0 1.000000 
0 90.022697 72.953209 -1.813500 0.000000 0.000000 1.000000 0.756300 -0.489400 1 0 1.000000 
borealis_vent001
0 83.022697 68.210297 -1.813500 0.000000 0.000000 1.000000 0.665300 -0.550100 1 0 1.000000 
0 90.022697 63.020405 -1.871500 0.000000 -0.174396 0.984676 0.756300 -0.616600 1 0 1.000000 
0 90.022697 68.210304 -1.813500 0.000000 0.000000 1.000000 0.756300 -0.550100 1 0 1.000000 
borealis_vent001
0 83.022697 68.210297 -1.813500 0.000000 0.000000 1.000000 0.665300 -0.550100 1 0 1.000000 
0 83.022697 63.020405 -1.871500 0.000000 -0.323598 0.946194 0.665300 -0.616600 1 0 1.000000 
0 90.022697 63.020405 -1.871500 0.000000 -0.174396 0.984676 0.756300 -0.616600 1 0 1.000000 
borealis_vent001
0 83.022697 63.020405 -1.871500 0.000000 -0.323598 0.946194 0.665300 -0.616600 1 0 1.000000 
0 90.022697 61.188004 -2.825900 0.000000 -0.520600 0.853800 0.756300 -0.642200 1 0 1.000000 
0 90.022697 63.020405 -1.871500 0.000000 -0.174396 0.984676 0.756300 -0.616600 1 0 1.000000 
borealis_vent001
0 83.022697 63.020405 -1.871500 0.000000 -0.323598 0.946194 0.665300 -0.616600 1 0 1.000000 
0 83.022697 61.188004 -2.825900 0.000000 -0.577087 0.816682 0.665300 -0.642200 1 0 1.000000 
0 90.022697 61.188004 -2.825900 0.000000 -0.520600 0.853800 0.756300 -0.642200 1 0 1.000000 
borealis_vent001
0 83.022697 61.188004 -2.825900 0.000000 -0.577087 0.816682 0.665300 -0.642200 1 0 1.000000 
0 83.022697 48.965103 -12.690900 0.000000 -0.601535 0.798846 0.665300 -0.821400 1 0 1.000000 
0 90.022697 61.188004 -2.825900 0.000000 -0.520600 0.853800 0.756300 -0.642200 1 0 1.000000 
borealis_vent001
0 83.022697 48.965103 -12.690900 0.000000 -0.601535 0.798846 0.665300 -0.821400 1 0 1.000000 
0 90.022697 47.859203 -13.467900 -0.012499 -0.423383 0.905864 0.756300 -0.837400 1 0 1.000000 
0 90.022697 61.188004 -2.825900 0.000000 -0.520600 0.853800 0.756300 -0.642200 1 0 1.000000 
borealis_vent001
0 90.022697 47.859203 -13.467900 -0.012499 -0.423383 0.905864 0.756300 -0.837400 1 0 1.000000 
0 83.022697 48.965103 -12.690900 0.000000 -0.601535 0.798846 0.665300 -0.821400 1 0 1.000000 
0 83.022697 47.087803 -13.813500 0.000000 -0.138999 0.990292 0.665300 -0.848000 1 0 1.000000 
borealis_vent001
0 90.022697 44.210304 -13.813500 0.000000 0.000000 1.000000 0.756300 -0.884900 1 0 1.000000 
0 90.022697 47.859203 -13.467900 -0.012499 -0.423383 0.905864 0.756300 -0.837400 1 0 1.000000 
0 83.022697 47.087803 -13.813500 0.000000 -0.138999 0.990292 0.665300 -0.848000 1 0 1.000000 
borealis_vent001
0 90.022697 44.210304 -13.813500 0.000000 0.000000 1.000000 0.756300 -0.884900 1 0 1.000000 
0 83.022697 47.087803 -13.813500 0.000000 -0.138999 0.990292 0.665300 -0.848000 1 0 1.000000 
0 83.022697 44.210304 -13.813500 0.000000 0.000000 1.000000 0.665300 -0.884900 1 0 1.000000 
borealis_vent001
0 83.022697 49.310402 -17.755600 -0.000000 0.311514 -0.950242 0.665300 -0.828700 1 0 1.000000 
0 90.022697 44.210304 -17.813499 0.000000 0.000000 -1.000000 0.756300 -0.894100 1 0 1.000000 
0 83.022697 44.210304 -17.813499 0.000000 0.000000 -1.000000 0.665300 -0.894100 1 0 1.000000 
borealis_vent001
0 83.022697 49.310402 -17.755600 -0.000000 0.311514 -0.950242 0.665300 -0.828700 1 0 1.000000 
0 90.022697 49.310402 -17.755600 -0.000000 0.168808 -0.985649 0.756300 -0.828700 1 0 1.000000 
0 90.022697 44.210304 -17.813499 0.000000 0.000000 -1.000000 0.756300 -0.894100 1 0 1.000000 
borealis_vent001
0 83.022697 49.310402 -17.755600 -0.000000 0.311514 -0.950242 0.665300 -0.828700 1 0 1.000000 
0 90.022697 51.232605 -16.801201 -0.000000 0.499699 -0.866199 0.756300 -0.801900 1 0 1.000000 
0 90.022697 49.310402 -17.755600 -0.000000 0.168808 -0.985649 0.756300 -0.828700 1 0 1.000000 
borealis_vent001
0 83.022697 49.310402 -17.755600 -0.000000 0.311514 -0.950242 0.665300 -0.828700 1 0 1.000000 
0 83.022697 51.232605 -16.801201 -0.000000 0.552876 -0.833264 0.665300 -0.801900 1 0 1.000000 
0 90.022697 51.232605 -16.801201 -0.000000 0.499699 -0.866199 0.756300 -0.801900 1 0 1.000000 
borealis_vent001
0 90.022697 51.232605 -16.801201 -0.000000 0.499699 -0.866199 0.756300 -0.801900 1 0 1.000000 
0 83.022697 51.232605 -16.801201 -0.000000 0.552876 -0.833264 0.665300 -0.801900 1 0 1.000000 
0 83.022697 64.561401 -6.159200 -0.000000 0.556176 -0.831064 0.665300 -0.606800 1 0 1.000000 
borealis_vent001
0 90.022697 51.232605 -16.801201 -0.000000 0.499699 -0.866199 0.756300 -0.801900 1 0 1.000000 
0 83.022697 64.561401 -6.159200 -0.000000 0.556176 -0.831064 0.665300 -0.606800 1 0 1.000000 
0 90.022697 64.561409 -6.159200 -0.013300 0.386498 -0.922194 0.756300 -0.606800 1 0 1.000000 
borealis_vent001
0 90.022697 64.561409 -6.159200 -0.013300 0.386498 -0.922194 0.756300 -0.606800 1 0 1.000000 
0 83.022697 64.561401 -6.159200 -0.000000 0.556176 -0.831064 0.665300 -0.606800 1 0 1.000000 
0 83.022697 65.332901 -5.813500 -0.000000 0.138999 -0.990292 0.665300 -0.596100 1 0 1.000000 
borealis_vent001
0 90.022697 68.210304 -5.813500 0.000000 0.000000 -1.000000 0.756300 -0.559300 1 0 1.000000 
0 90.022697 64.561409 -6.159200 -0.013300 0.386498 -0.922194 0.756300 -0.606800 1 0 1.000000 
0 83.022697 65.332901 -5.813500 -0.000000 0.138999 -0.990292 0.665300 -0.596100 1 0 1.000000 
borealis_vent001
0 90.022697 68.210304 -5.813500 0.000000 0.000000 -1.000000 0.756300 -0.559300 1 0 1.000000 
0 83.022697 65.332901 -5.813500 -0.000000 0.138999 -0.990292 0.665300 -0.596100 1 0 1.000000 
0 83.022697 68.210297 -5.813500 0.000000 0.000000 -1.000000 0.665300 -0.559300 1 0 1.000000 
borealis_vent001
0 90.022697 72.953209 -5.813500 0.000000 0.000000 -1.000000 0.756300 -0.498600 1 0 1.000000 
0 90.022697 68.210304 -5.813500 0.000000 0.000000 -1.000000 0.756300 -0.559300 1 0 1.000000 
0 83.022697 68.210297 -5.813500 0.000000 0.000000 -1.000000 0.665300 -0.559300 1 0 1.000000 
borealis_vent001
0 90.022697 72.953209 -5.813500 0.000000 0.000000 -1.000000 0.756300 -0.498600 1 0 1.000000 
0 83.022697 68.210297 -5.813500 0.000000 0.000000 -1.000000 0.665300 -0.559300 1 0 1.000000 
0 83.022697 71.626297 -5.813500 0.000000 0.000000 -1.000000 0.665300 -0.515600 1 0 1.000000 
borealis_vent001
0 90.022697 72.953209 -5.813500 0.000000 0.000000 -1.000000 0.756300 -0.498600 1 0 1.000000 
0 83.022697 71.626297 -5.813500 0.000000 0.000000 -1.000000 0.665300 -0.515600 1 0 1.000000 
0 89.506897 75.607109 -5.813500 0.000000 0.000000 -1.000000 0.749600 -0.464700 1 0 1.000000 
borealis_vent001
0 89.506897 75.607109 -5.813500 0.000000 0.000000 -1.000000 0.749600 -0.464700 1 0 1.000000 
0 83.022697 71.626297 -5.813500 0.000000 0.000000 -1.000000 0.665300 -0.515600 1 0 1.000000 
0 82.452499 72.621498 -5.813500 0.000000 0.000000 -1.000000 0.657900 -0.502900 1 0 1.000000 
borealis_vent001
0 89.506897 75.607109 -5.813500 0.000000 0.000000 -1.000000 0.749600 -0.464700 1 0 1.000000 
0 82.452499 72.621498 -5.813500 0.000000 0.000000 -1.000000 0.657900 -0.502900 1 0 1.000000 
0 87.848198 78.120010 -5.813500 0.000000 0.000000 -1.000000 0.728100 -0.432600 1 0 1.000000 
borealis_vent001
0 85.240303 79.778702 -5.813500 0.000000 0.000000 -1.000000 0.694200 -0.411300 1 0 1.000000 
0 87.848198 78.120010 -5.813500 0.000000 0.000000 -1.000000 0.728100 -0.432600 1 0 1.000000 
0 82.452499 72.621498 -5.813500 0.000000 0.000000 -1.000000 0.657900 -0.502900 1 0 1.000000 
borealis_vent001
0 85.240303 79.778702 -5.813500 0.000000 0.000000 -1.000000 0.694200 -0.411300 1 0 1.000000 
0 82.452499 72.621498 -5.813500 0.000000 0.000000 -1.000000 0.657900 -0.502900 1 0 1.000000 
0 81.259499 73.210297 -5.813500 0.000000 0.000000 -1.000000 0.642400 -0.495400 1 0 1.000000 
borealis_vent001
0 82.586403 80.210297 -5.813500 0.000000 0.000000 -1.000000 0.659700 -0.405800 1 0 1.000000 
0 85.240303 79.778702 -5.813500 0.000000 0.000000 -1.000000 0.694200 -0.411300 1 0 1.000000 
0 81.259499 73.210297 -5.813500 0.000000 0.000000 -1.000000 0.642400 -0.495400 1 0 1.000000 
borealis_vent001
0 82.586403 80.210297 -5.813500 0.000000 0.000000 -1.000000 0.659700 -0.405800 1 0 1.000000 
0 81.259499 73.210297 -5.813500 0.000000 0.000000 -1.000000 0.642400 -0.495400 1 0 1.000000 
0 78.022697 73.210297 -5.813500 0.000000 0.000000 -1.000000 0.600300 -0.495400 1 0 1.000000 
borealis_vent001
0 82.586403 80.210297 -5.813500 0.000000 0.000000 -1.000000 0.659700 -0.405800 1 0 1.000000 
0 78.022697 73.210297 -5.813500 0.000000 0.000000 -1.000000 0.600300 -0.495400 1 0 1.000000 
0 78.022697 80.210297 -5.813500 0.000000 0.000000 -1.000000 0.600300 -0.405800 1 0 1.000000 
borealis_vent001
0 83.022697 -51.289696 -13.813500 0.000000 0.000000 1.000000 0.851100 -0.766400 1 0 1.000000 
0 90.022697 -35.289696 -13.813500 0.000000 0.000000 1.000000 0.949800 -0.541000 1 0 1.000000 
0 83.022697 -35.289696 -13.813500 0.000000 0.000000 1.000000 0.851100 -0.541000 1 0 1.000000 
borealis_vent001
0 83.022697 -51.289696 -13.813500 0.000000 0.000000 1.000000 0.851100 -0.766400 1 0 1.000000 
0 90.022697 -51.289696 -13.813500 0.000000 0.000000 1.000000 0.949800 -0.766400 1 0 1.000000 
0 90.022697 -35.289696 -13.813500 0.000000 0.000000 1.000000 0.949800 -0.541000 1 0 1.000000 
borealis_vent001
0 89.591103 -58.507298 -13.813500 0.000000 0.000000 1.000000 0.943700 -0.868100 1 0 1.000000 
0 90.022697 -51.289696 -13.813500 0.000000 0.000000 1.000000 0.949800 -0.766400 1 0 1.000000 
0 83.022697 -51.289696 -13.813500 0.000000 0.000000 1.000000 0.851100 -0.766400 1 0 1.000000 
borealis_vent001
0 83.022697 -51.289696 -13.813500 0.000000 0.000000 1.000000 0.851100 -0.766400 1 0 1.000000 
0 83.022697 -54.526497 -13.813500 0.000000 0.000000 1.000000 0.851100 -0.812000 1 0 1.000000 
0 89.591103 -58.507298 -13.813500 0.000000 0.000000 1.000000 0.943700 -0.868100 1 0 1.000000 
borealis_vent001
0 83.022697 -54.526497 -13.813500 0.000000 0.000000 1.000000 0.851100 -0.812000 1 0 1.000000 
0 87.932404 -61.115196 -13.813500 0.000000 0.000000 1.000000 0.920300 -0.904800 1 0 1.000000 
0 89.591103 -58.507298 -13.813500 0.000000 0.000000 1.000000 0.943700 -0.868100 1 0 1.000000 
borealis_vent001
0 83.022697 -54.526497 -13.813500 0.000000 0.000000 1.000000 0.851100 -0.812000 1 0 1.000000 
0 82.433899 -55.719498 -13.813500 0.000000 0.000000 1.000000 0.842900 -0.828800 1 0 1.000000 
0 87.932404 -61.115196 -13.813500 0.000000 0.000000 1.000000 0.920300 -0.904800 1 0 1.000000 
borealis_vent001
0 81.438698 -56.289696 -13.813500 0.000000 0.000000 1.000000 0.828800 -0.836900 1 0 1.000000 
0 87.932404 -61.115196 -13.813500 0.000000 0.000000 1.000000 0.920300 -0.904800 1 0 1.000000 
0 82.433899 -55.719498 -13.813500 0.000000 0.000000 1.000000 0.842900 -0.828800 1 0 1.000000 
borealis_vent001
0 81.438698 -56.289696 -13.813500 0.000000 0.000000 1.000000 0.828800 -0.836900 1 0 1.000000 
0 85.419502 -62.773796 -13.813500 0.000000 0.000000 1.000000 0.884900 -0.928200 1 0 1.000000 
0 87.932404 -61.115196 -13.813500 0.000000 0.000000 1.000000 0.920300 -0.904800 1 0 1.000000 
borealis_vent001
0 78.022697 -56.289696 -13.813500 0.000000 0.000000 1.000000 0.780700 -0.836900 1 0 1.000000 
0 85.419502 -62.773796 -13.813500 0.000000 0.000000 1.000000 0.884900 -0.928200 1 0 1.000000 
0 81.438698 -56.289696 -13.813500 0.000000 0.000000 1.000000 0.828800 -0.836900 1 0 1.000000 
borealis_vent001
0 78.022697 -56.289696 -13.813500 0.000000 0.000000 1.000000 0.780700 -0.836900 1 0 1.000000 
0 82.765602 -63.289696 -13.813500 0.000000 0.000000 1.000000 0.847500 -0.935500 1 0 1.000000 
0 85.419502 -62.773796 -13.813500 0.000000 0.000000 1.000000 0.884900 -0.928200 1 0 1.000000 
borealis_vent001
0 78.022697 -56.289696 -13.813500 0.000000 0.000000 1.000000 0.780700 -0.836900 1 0 1.000000 
0 78.022697 -63.289696 -13.813500 0.000000 0.000000 1.000000 0.780700 -0.935500 1 0 1.000000 
0 82.765602 -63.289696 -13.813500 0.000000 0.000000 1.000000 0.847500 -0.935500 1 0 1.000000 
borealis_vent001
0 -1.967597 -63.294300 -13.813500 0.000000 0.000000 1.000000 0.624900 -0.801700 1 0 1.000000 
0 -1.967597 -56.287998 -13.813500 -0.000000 0.707257 0.706957 0.624900 -0.921100 1 0 1.000000 
0 -6.955698 -56.288200 -13.813600 0.000000 0.000000 1.000000 0.710200 -0.921100 1 0 1.000000 
borealis_vent001
0 -6.955698 -56.288200 -13.813600 0.000000 0.000000 1.000000 0.710200 -0.921100 1 0 1.000000 
0 -5.602997 -63.300400 -13.813600 0.000000 0.000000 1.000000 0.687100 -0.801600 1 0 1.000000 
0 -1.967597 -63.294300 -13.813500 0.000000 0.000000 1.000000 0.624900 -0.801700 1 0 1.000000 
borealis_vent001
0 -6.955698 -56.288200 -13.813600 0.000000 0.000000 1.000000 0.710200 -0.921100 1 0 1.000000 
0 -9.661197 -56.755501 -13.813600 0.000000 0.000000 1.000000 0.756500 -0.913100 1 0 1.000000 
0 -5.602997 -63.300400 -13.813600 0.000000 0.000000 1.000000 0.687100 -0.801600 1 0 1.000000 
borealis_vent001
0 -9.661197 -56.755501 -13.813600 0.000000 0.000000 1.000000 0.756500 -0.913100 1 0 1.000000 
0 -6.819197 -63.857201 -13.813600 0.000000 0.000000 1.000000 0.707900 -0.792100 1 0 1.000000 
0 -5.602997 -63.300400 -13.813600 0.000000 0.000000 1.000000 0.687100 -0.801600 1 0 1.000000 
borealis_vent001
0 -9.661197 -56.755501 -13.813600 0.000000 0.000000 1.000000 0.756500 -0.913100 1 0 1.000000 
0 -12.319798 -58.446400 -13.813600 0.000000 0.000000 1.000000 0.802000 -0.884300 1 0 1.000000 
0 -6.819197 -63.857201 -13.813600 0.000000 0.000000 1.000000 0.707900 -0.792100 1 0 1.000000 
borealis_vent001
0 -14.010697 -60.813702 -13.813600 0.000000 0.000000 1.000000 0.830900 -0.844000 1 0 1.000000 
0 -6.819197 -63.857201 -13.813600 0.000000 0.000000 1.000000 0.707900 -0.792100 1 0 1.000000 
0 -12.319798 -58.446400 -13.813600 0.000000 0.000000 1.000000 0.802000 -0.884300 1 0 1.000000 
borealis_vent001
0 -14.010697 -60.813702 -13.813600 0.000000 0.000000 1.000000 0.830900 -0.844000 1 0 1.000000 
0 -7.527597 -64.871803 -13.813600 0.000000 0.000000 1.000000 0.720000 -0.774800 1 0 1.000000 
0 -6.819197 -63.857201 -13.813600 0.000000 0.000000 1.000000 0.707900 -0.792100 1 0 1.000000 
borealis_vent001
0 -14.552797 -63.519100 -13.813600 0.000000 0.000000 1.000000 0.840200 -0.797800 1 0 1.000000 
0 -7.527597 -64.871803 -13.813600 0.000000 0.000000 1.000000 0.720000 -0.774800 1 0 1.000000 
0 -14.010697 -60.813702 -13.813600 0.000000 0.000000 1.000000 0.830900 -0.844000 1 0 1.000000 
borealis_vent001
0 -14.552797 -63.519100 -13.813600 0.000000 0.000000 1.000000 0.840200 -0.797800 1 0 1.000000 
0 -7.519897 -76.193802 -13.776200 -0.000000 0.156301 0.987709 0.719900 -0.581700 1 0 1.000000 
0 -7.527597 -64.871803 -13.813600 0.000000 0.000000 1.000000 0.720000 -0.774800 1 0 1.000000 
borealis_vent001
0 -7.519897 -76.193802 -13.776200 -0.000000 0.156301 0.987709 0.719900 -0.581700 1 0 1.000000 
0 -14.552797 -63.519100 -13.813600 0.000000 0.000000 1.000000 0.840200 -0.797800 1 0 1.000000 
0 -14.552797 -76.193802 -13.776200 -0.000000 0.266509 0.963832 0.840200 -0.581700 1 0 1.000000 
borealis_vent001
0 -14.552797 -76.193802 -13.776200 -0.000000 0.266509 0.963832 0.840200 -0.581700 1 0 1.000000 
0 -7.519897 -77.022697 -13.326500 -0.000000 0.476805 0.879009 0.719900 -0.573000 1 0 1.000000 
0 -7.519897 -76.193802 -13.776200 -0.000000 0.156301 0.987709 0.719900 -0.581700 1 0 1.000000 
borealis_vent001
0 -14.552797 -76.193802 -13.776200 -0.000000 0.266509 0.963832 0.840200 -0.581700 1 0 1.000000 
0 -14.552796 -77.022697 -13.326500 -0.000000 0.476805 0.879009 0.840200 -0.573000 1 0 1.000000 
0 -7.519897 -77.022697 -13.326500 -0.000000 0.476805 0.879009 0.719900 -0.573000 1 0 1.000000 
borealis_vent001
0 -7.519897 -76.193802 -13.776200 1.000000 0.000000 0.000000 0.797800 -0.895200 1 0 1.000000 
0 -7.527597 -64.871803 -17.813601 1.000000 0.000000 0.000000 0.617400 -0.960200 1 0 1.000000 
0 -7.527597 -64.871803 -13.813600 1.000000 0.000000 0.000000 0.617400 -0.896500 1 0 1.000000 
borealis_vent001
0 -7.519897 -77.227898 -17.673201 1.000000 0.000000 0.000000 0.814300 -0.957200 1 0 1.000000 
0 -7.527597 -64.871803 -17.813601 1.000000 0.000000 0.000000 0.617400 -0.960200 1 0 1.000000 
0 -7.519897 -76.193802 -13.776200 1.000000 0.000000 0.000000 0.797800 -0.895200 1 0 1.000000 
borealis_vent001
0 -7.519897 -76.193802 -13.776200 1.000000 0.000000 0.000000 0.797800 -0.895200 1 0 1.000000 
0 -7.519897 -79.196098 -16.881201 1.000000 0.000000 0.000000 0.845600 -0.944500 1 0 1.000000 
0 -7.519897 -77.227898 -17.673201 1.000000 0.000000 0.000000 0.814300 -0.957200 1 0 1.000000 
borealis_vent001
0 -7.519897 -76.193802 -13.776200 1.000000 0.000000 0.000000 0.797800 -0.895200 1 0 1.000000 
0 -7.519897 -77.022697 -13.326500 1.000000 0.000000 0.000000 0.811000 -0.888000 1 0 1.000000 
0 -7.519897 -79.196098 -16.881201 1.000000 0.000000 0.000000 0.845600 -0.944500 1 0 1.000000 
borealis_vent001
0 -7.519897 -77.022697 -13.326500 1.000000 0.000000 0.000000 0.811000 -0.888000 1 0 1.000000 
0 -7.519897 -80.366997 -15.121400 1.000000 0.000000 0.000000 0.864300 -0.916400 1 0 1.000000 
0 -7.519897 -79.196098 -16.881201 1.000000 0.000000 0.000000 0.845600 -0.944500 1 0 1.000000 
borealis_vent001
0 -7.519897 -77.022697 -13.326500 1.000000 0.000000 0.000000 0.811000 -0.888000 1 0 1.000000 
0 -7.519897 -80.555801 -12.745600 0.997368 0.000200 0.072498 0.867300 -0.878600 1 0 1.000000 
0 -7.519897 -80.366997 -15.121400 1.000000 0.000000 0.000000 0.864300 -0.916400 1 0 1.000000 
borealis_vent001
0 -7.519897 -77.022697 -13.326500 1.000000 0.000000 0.000000 0.811000 -0.888000 1 0 1.000000 
0 -10.494296 -80.555801 0.680900 0.991980 0.000200 0.126397 0.869800 -0.668200 1 0 1.000000 
0 -7.519897 -80.555801 -12.745600 0.997368 0.000200 0.072498 0.867300 -0.878600 1 0 1.000000 
borealis_vent001
0 -7.519897 -77.022697 -13.326500 1.000000 0.000000 0.000000 0.811000 -0.888000 1 0 1.000000 
0 -10.401997 -77.079498 2.312000 0.996514 -0.055601 0.062201 0.814300 -0.642400 1 0 1.000000 
0 -10.494296 -80.555801 0.680900 0.991980 0.000200 0.126397 0.869800 -0.668200 1 0 1.000000 
borealis_vent001
0 -10.401997 -77.079498 2.312000 0.996514 -0.055601 0.062201 0.814300 -0.642400 1 0 1.000000 
0 -10.401997 -80.555801 2.314300 0.998408 0.000000 -0.056400 0.869700 -0.642100 1 0 1.000000 
0 -10.494296 -80.555801 0.680900 0.991980 0.000200 0.126397 0.869800 -0.668200 1 0 1.000000 
end
