version 1
nodes
  0 "04" -1
end
skeleton
time 0
0 0.000000 0.000000 0.000000 1.570796 0.000000 0.000000
end
triangles
Oil_Drum001b
0 -7.835700 8.202800 44.381901 -0.997082 -0.066599 -0.037299 0.139700 -0.003700 1 0 1.000000 
0 -7.598000 10.129200 34.595299 -0.997082 -0.066599 -0.037299 0.140100 -0.154200 1 0 1.000000 
0 -7.559500 10.090600 33.635899 -0.997082 -0.066599 -0.037299 0.140100 -0.167900 1 0 1.000000 
Oil_Drum001b
0 -3.197400 14.295400 21.909800 -0.045099 0.071999 -0.996384 0.079600 -0.327200 1 0 1.000000 
0 -8.572000 11.104600 21.922600 -0.045099 0.071999 -0.996384 0.140500 -0.327700 1 0 1.000000 
0 -3.318400 14.575700 21.935499 -0.045099 0.071999 -0.996384 0.079600 -0.327200 1 0 1.000000 
Oil_Drum001b
0 -3.197400 14.295400 21.909800 -0.045099 0.071999 -0.996384 0.079600 -0.327200 1 0 1.000000 
0 -8.452300 10.827200 21.897100 -0.045099 0.071999 -0.996384 0.140500 -0.327700 1 0 1.000000 
0 -8.572000 11.104600 21.922600 -0.045099 0.071999 -0.996384 0.140500 -0.327700 1 0 1.000000 
Oil_Drum001b
0 3.174000 15.893100 20.761999 -0.180306 0.012500 -0.983531 0.020200 -0.332000 1 0 1.000000 
0 -3.318400 14.575700 21.935499 -0.180306 0.012500 -0.983531 0.079600 -0.327200 1 0 1.000000 
0 3.054300 16.170500 20.787500 -0.180306 0.012500 -0.983531 0.020200 -0.332000 1 0 1.000000 
Oil_Drum001b
0 3.174000 15.893100 20.761999 -0.180306 0.012500 -0.983531 0.020200 -0.332000 1 0 1.000000 
0 -3.197400 14.295400 21.909800 -0.180306 0.012500 -0.983531 0.079600 -0.327200 1 0 1.000000 
0 -3.318400 14.575700 21.935499 -0.180306 0.012500 -0.983531 0.079600 -0.327200 1 0 1.000000 
Oil_Drum001b
0 2.762200 14.477600 32.764400 0.269803 -0.591007 0.760209 0.020200 -0.161300 1 0 1.000000 
0 -2.745900 12.845000 33.449902 0.312304 -0.554707 0.771210 0.079300 -0.168000 1 0 1.000000 
0 2.827000 13.984500 32.359402 0.269604 -0.589808 0.761210 0.020200 -0.168100 1 0 1.000000 
Oil_Drum001b
0 -2.975700 13.383300 33.951599 0.318297 -0.569994 0.757492 0.079300 -0.161200 1 0 1.000000 
0 -2.745900 12.845000 33.449902 0.312304 -0.554707 0.771210 0.079300 -0.168000 1 0 1.000000 
0 2.762200 14.477600 32.764400 0.269803 -0.591007 0.760209 0.020200 -0.161300 1 0 1.000000 
Oil_Drum001b
0 -2.975700 13.383300 33.951599 0.318297 -0.569994 0.757492 0.079300 -0.161200 1 0 1.000000 
0 -7.814700 10.291700 34.058399 0.353794 -0.516491 0.779786 0.140100 -0.161000 1 0 1.000000 
0 -2.745900 12.845000 33.449902 0.312304 -0.554707 0.771210 0.079300 -0.168000 1 0 1.000000 
Oil_Drum001b
0 -2.745900 12.845000 33.449902 0.312304 -0.554707 0.771210 0.079300 -0.168000 1 0 1.000000 
0 -7.814700 10.291700 34.058399 0.353794 -0.516491 0.779786 0.140100 -0.161000 1 0 1.000000 
0 -7.439800 9.813200 33.610401 0.341306 -0.485908 0.804614 0.140100 -0.167900 1 0 1.000000 
Oil_Drum001b
0 2.705900 13.903600 33.167702 -0.988808 -0.007600 -0.149001 0.020200 -0.154400 1 0 1.000000 
0 2.762200 14.477600 32.764400 -0.988808 -0.007600 -0.149001 0.020200 -0.161300 1 0 1.000000 
0 2.827000 13.984500 32.359402 -0.988808 -0.007600 -0.149001 0.020200 -0.168100 1 0 1.000000 
Oil_Drum001b
0 3.054300 16.170500 20.787500 0.917340 0.387517 0.091204 0.020200 -0.332000 1 0 1.000000 
0 2.707300 14.261900 32.384899 0.917340 0.387517 0.091204 0.020200 -0.168100 1 0 1.000000 
0 2.827000 13.984500 32.359402 0.917340 0.387517 0.091204 0.020200 -0.168100 1 0 1.000000 
Oil_Drum001b
0 2.827000 13.984500 32.359402 0.917340 0.387517 0.091204 0.020200 -0.168100 1 0 1.000000 
0 3.174000 15.893100 20.761999 0.917340 0.387517 0.091204 0.020200 -0.332000 1 0 1.000000 
0 3.054300 16.170500 20.787500 0.917340 0.387517 0.091204 0.020200 -0.332000 1 0 1.000000 
Oil_Drum001b
0 -8.565600 8.610500 45.380001 -0.914125 -0.382011 -0.135804 0.139700 -0.003700 1 0 1.000000 
0 -7.598000 10.129200 34.595299 -0.914125 -0.382011 -0.135804 0.140100 -0.154200 1 0 1.000000 
0 -7.478300 9.851800 34.569801 -0.914125 -0.382011 -0.135804 0.140100 -0.154200 1 0 1.000000 
Oil_Drum001b
0 -7.478300 9.851800 34.569801 -0.914125 -0.382011 -0.135804 0.140100 -0.154200 1 0 1.000000 
0 -8.445900 8.333200 45.354599 -0.914125 -0.382011 -0.135804 0.139700 -0.003700 1 0 1.000000 
0 -8.565600 8.610500 45.380001 -0.914125 -0.382011 -0.135804 0.139700 -0.003700 1 0 1.000000 
Oil_Drum001b
0 -4.814900 11.325700 44.954800 0.135703 -0.032401 0.990220 0.099400 -0.003900 1 0 1.000000 
0 -8.565600 8.610500 45.380001 0.135703 -0.032401 0.990220 0.139700 -0.003700 1 0 1.000000 
0 -8.445900 8.333200 45.354599 0.135703 -0.032401 0.990220 0.139700 -0.003700 1 0 1.000000 
Oil_Drum001b
0 -8.445900 8.333200 45.354599 0.135703 -0.032401 0.990220 0.139700 -0.003700 1 0 1.000000 
0 -4.695200 11.048300 44.929298 0.135703 -0.032401 0.990220 0.099400 -0.003900 1 0 1.000000 
0 -4.814900 11.325700 44.954800 0.135703 -0.032401 0.990220 0.099400 -0.003900 1 0 1.000000 
Oil_Drum001b
0 2.707300 14.261900 32.384899 0.909840 0.376675 0.174089 0.020200 -0.168100 1 0 1.000000 
0 2.586200 14.181000 33.193100 0.909840 0.376675 0.174089 0.020200 -0.154400 1 0 1.000000 
0 2.705900 13.903600 33.167702 0.909840 0.376675 0.174089 0.020200 -0.154400 1 0 1.000000 
Oil_Drum001b
0 2.705900 13.903600 33.167702 0.909840 0.376675 0.174089 0.020200 -0.154400 1 0 1.000000 
0 2.827000 13.984500 32.359402 0.909840 0.376675 0.174089 0.020200 -0.168100 1 0 1.000000 
0 2.707300 14.261900 32.384899 0.909840 0.376675 0.174089 0.020200 -0.168100 1 0 1.000000 
Oil_Drum001b
0 -7.453500 9.984400 30.992001 -0.914196 -0.400298 0.063300 0.140200 -0.205500 1 0 1.000000 
0 -8.572000 11.104600 21.922600 -0.914196 -0.400298 0.063300 0.140500 -0.327700 1 0 1.000000 
0 -8.452300 10.827200 21.897100 -0.914196 -0.400298 0.063300 0.140500 -0.327700 1 0 1.000000 
Oil_Drum001b
0 -8.452300 10.827200 21.897100 -0.914196 -0.400298 0.063300 0.140500 -0.327700 1 0 1.000000 
0 -7.333800 9.707000 30.966499 -0.914196 -0.400298 0.063300 0.140200 -0.205500 1 0 1.000000 
0 -7.453500 9.984400 30.992001 -0.914196 -0.400298 0.063300 0.140200 -0.205500 1 0 1.000000 
Oil_Drum001b
0 -7.559500 10.090600 33.635899 -0.918663 -0.394484 -0.020999 0.140100 -0.167900 1 0 1.000000 
0 -7.453500 9.984400 30.992001 -0.918663 -0.394484 -0.020999 0.140200 -0.205500 1 0 1.000000 
0 -7.333800 9.707000 30.966499 -0.918663 -0.394484 -0.020999 0.140200 -0.205500 1 0 1.000000 
Oil_Drum001b
0 -7.333800 9.707000 30.966499 -0.918663 -0.394484 -0.020999 0.140200 -0.205500 1 0 1.000000 
0 -7.439800 9.813200 33.610401 -0.918663 -0.394484 -0.020999 0.140100 -0.167900 1 0 1.000000 
0 -7.559500 10.090600 33.635899 -0.918663 -0.394484 -0.020999 0.140100 -0.167900 1 0 1.000000 
Oil_Drum001b
0 2.586200 14.181000 33.193100 0.917315 0.387506 0.091501 0.020200 -0.154400 1 0 1.000000 
0 2.468700 12.299800 42.331902 0.917315 0.387506 0.091501 0.020200 -0.030600 1 0 1.000000 
0 2.588400 12.022500 42.306400 0.917315 0.387506 0.091501 0.020200 -0.030600 1 0 1.000000 
Oil_Drum001b
0 2.588400 12.022500 42.306400 0.917315 0.387506 0.091501 0.020200 -0.030600 1 0 1.000000 
0 2.705900 13.903600 33.167702 0.917315 0.387506 0.091501 0.020200 -0.154400 1 0 1.000000 
0 2.586200 14.181000 33.193100 0.917315 0.387506 0.091501 0.020200 -0.154400 1 0 1.000000 
Oil_Drum001b
0 2.468700 12.299800 42.331902 0.897208 0.364303 0.249602 0.020200 -0.030600 1 0 1.000000 
0 1.609200 13.052500 44.322800 0.897208 0.364303 0.249602 0.029100 -0.004000 1 0 1.000000 
0 1.728900 12.775100 44.297298 0.897208 0.364303 0.249602 0.029100 -0.004000 1 0 1.000000 
Oil_Drum001b
0 1.728900 12.775100 44.297298 0.897208 0.364303 0.249602 0.029100 -0.004000 1 0 1.000000 
0 2.588400 12.022500 42.306400 0.897208 0.364303 0.249602 0.020200 -0.030600 1 0 1.000000 
0 2.468700 12.299800 42.331902 0.897208 0.364303 0.249602 0.020200 -0.030600 1 0 1.000000 
Oil_Drum001b
0 1.609200 13.052500 44.322800 0.103196 -0.046698 0.993564 0.029100 -0.004000 1 0 1.000000 
0 -1.736300 12.659800 44.651901 0.103196 -0.046698 0.993564 0.064100 -0.003900 1 0 1.000000 
0 -1.616600 12.382400 44.626499 0.103196 -0.046698 0.993564 0.064100 -0.003900 1 0 1.000000 
Oil_Drum001b
0 -1.616600 12.382400 44.626499 0.103196 -0.046698 0.993564 0.064100 -0.003900 1 0 1.000000 
0 1.728900 12.775100 44.297298 0.103196 -0.046698 0.993564 0.029100 -0.004000 1 0 1.000000 
0 1.609200 13.052500 44.322800 0.103196 -0.046698 0.993564 0.029100 -0.004000 1 0 1.000000 
Oil_Drum001b
0 -1.736300 12.659800 44.651901 -0.519686 -0.297792 0.800778 0.064100 -0.003900 1 0 1.000000 
0 -2.972100 12.125500 43.651199 -0.519686 -0.297792 0.800778 0.079100 -0.019800 1 0 1.000000 
0 -2.852400 11.848100 43.625702 -0.519686 -0.297792 0.800778 0.079100 -0.019800 1 0 1.000000 
Oil_Drum001b
0 -2.852400 11.848100 43.625702 -0.519686 -0.297792 0.800778 0.079100 -0.019800 1 0 1.000000 
0 -1.616600 12.382400 44.626499 -0.519686 -0.297792 0.800778 0.064100 -0.003900 1 0 1.000000 
0 -1.736300 12.659800 44.651901 -0.519686 -0.297792 0.800778 0.064100 -0.003900 1 0 1.000000 
Oil_Drum001b
0 -2.972100 12.125500 43.651199 0.526601 0.150400 0.836702 0.079100 -0.019800 1 0 1.000000 
0 -4.814900 11.325700 44.954800 0.526601 0.150400 0.836702 0.099400 -0.003900 1 0 1.000000 
0 -4.695200 11.048300 44.929298 0.526601 0.150400 0.836702 0.099400 -0.003900 1 0 1.000000 
Oil_Drum001b
0 -4.695200 11.048300 44.929298 0.526601 0.150400 0.836702 0.099400 -0.003900 1 0 1.000000 
0 -2.852400 11.848100 43.625702 0.526601 0.150400 0.836702 0.079100 -0.019800 1 0 1.000000 
0 -2.972100 12.125500 43.651199 0.526601 0.150400 0.836702 0.079100 -0.019800 1 0 1.000000 
Oil_Drum001b
0 -7.835700 8.202800 44.381901 -0.917342 -0.387418 -0.091604 0.139700 -0.003700 1 0 1.000000 
0 -7.559500 10.090600 33.635899 -0.917342 -0.387418 -0.091604 0.140100 -0.167900 1 0 1.000000 
0 -7.439800 9.813200 33.610401 -0.917342 -0.387418 -0.091604 0.140100 -0.167900 1 0 1.000000 
Oil_Drum001b
0 -7.439800 9.813200 33.610401 -0.917342 -0.387418 -0.091604 0.140100 -0.167900 1 0 1.000000 
0 -7.716000 7.925400 44.356400 -0.917342 -0.387418 -0.091604 0.139700 -0.003700 1 0 1.000000 
0 -7.835700 8.202800 44.381901 -0.917342 -0.387418 -0.091604 0.139700 -0.003700 1 0 1.000000 
Oil_Drum001b
0 -7.716000 7.925400 44.356400 0.916950 0.386679 0.098395 0.139700 -0.003700 1 0 1.000000 
0 -7.478300 9.851800 34.569801 0.916950 0.386679 0.098395 0.140100 -0.154200 1 0 1.000000 
0 -7.598000 10.129200 34.595299 0.916950 0.386679 0.098395 0.140100 -0.154200 1 0 1.000000 
Oil_Drum001b
0 -7.598000 10.129200 34.595299 0.916950 0.386679 0.098395 0.140100 -0.154200 1 0 1.000000 
0 -7.835700 8.202800 44.381901 0.916950 0.386679 0.098395 0.139700 -0.003700 1 0 1.000000 
0 -7.716000 7.925400 44.356400 0.916950 0.386679 0.098395 0.139700 -0.003700 1 0 1.000000 
Oil_Drum001b
0 2.705900 13.903600 33.167702 -0.054900 -0.601604 -0.796905 0.020200 -0.154400 1 0 1.000000 
0 -2.975700 13.383300 33.951599 0.140498 -0.589591 -0.795388 0.079300 -0.161200 1 0 1.000000 
0 2.762200 14.477600 32.764400 -0.060901 -0.569811 -0.819516 0.020200 -0.161300 1 0 1.000000 
Oil_Drum001b
0 -2.798800 12.859300 34.368999 0.130600 -0.590500 -0.796400 0.079300 -0.154400 1 0 1.000000 
0 -2.975700 13.383300 33.951599 0.140498 -0.589591 -0.795388 0.079300 -0.161200 1 0 1.000000 
0 2.705900 13.903600 33.167702 -0.054900 -0.601604 -0.796905 0.020200 -0.154400 1 0 1.000000 
Oil_Drum001b
0 -2.798800 12.859300 34.368999 0.130600 -0.590500 -0.796400 0.079300 -0.154400 1 0 1.000000 
0 -7.478300 9.851800 34.569801 0.330494 -0.554990 -0.763387 0.140100 -0.154200 1 0 1.000000 
0 -2.975700 13.383300 33.951599 0.140498 -0.589591 -0.795388 0.079300 -0.161200 1 0 1.000000 
Oil_Drum001b
0 -2.975700 13.383300 33.951599 0.140498 -0.589591 -0.795388 0.079300 -0.161200 1 0 1.000000 
0 -7.478300 9.851800 34.569801 0.330494 -0.554990 -0.763387 0.140100 -0.154200 1 0 1.000000 
0 -7.814700 10.291700 34.058399 0.354804 -0.580607 -0.732809 0.140100 -0.161000 1 0 1.000000 
Oil_Drum001b
0 1.728900 12.775100 44.297298 -0.805718 -0.578013 -0.129303 0.029100 -0.004000 1 0 1.000000 
0 2.705900 13.903600 33.167702 -0.805718 -0.578013 -0.129303 0.020200 -0.154400 1 0 1.000000 
0 2.588400 12.022500 42.306400 -0.805718 -0.578013 -0.129303 0.020200 -0.030600 1 0 1.000000 
Oil_Drum001b
0 -7.453500 9.984400 30.992001 -0.567124 0.819835 0.079003 0.140200 -0.205500 1 0 1.000000 
0 -3.318400 14.575700 21.935499 -0.464007 0.874213 0.143002 0.079600 -0.327200 1 0 1.000000 
0 -8.572000 11.104600 21.922600 -0.543687 0.822180 0.168596 0.140500 -0.327700 1 0 1.000000 
Oil_Drum001b
0 -7.453500 9.984400 30.992001 -0.567124 0.819835 0.079003 0.140200 -0.205500 1 0 1.000000 
0 -2.866800 13.125300 33.475700 -0.393899 0.914697 0.090400 0.079300 -0.168000 1 0 1.000000 
0 -3.318400 14.575700 21.935499 -0.464007 0.874213 0.143002 0.079600 -0.327200 1 0 1.000000 
Oil_Drum001b
0 -2.866800 13.125300 33.475700 -0.393899 0.914697 0.090400 0.079300 -0.168000 1 0 1.000000 
0 3.054300 16.170500 20.787500 -0.193398 0.970688 0.142698 0.020200 -0.332000 1 0 1.000000 
0 -3.318400 14.575700 21.935499 -0.464007 0.874213 0.143002 0.079600 -0.327200 1 0 1.000000 
Oil_Drum001b
0 -2.866800 13.125300 33.475700 -0.393899 0.914697 0.090400 0.079300 -0.168000 1 0 1.000000 
0 2.707300 14.261900 32.384899 -0.168096 0.973477 0.155196 0.020200 -0.168100 1 0 1.000000 
0 3.054300 16.170500 20.787500 -0.193398 0.970688 0.142698 0.020200 -0.332000 1 0 1.000000 
Oil_Drum001b
0 -7.453500 9.984400 30.992001 -0.567124 0.819835 0.079003 0.140200 -0.205500 1 0 1.000000 
0 -7.559500 10.090600 33.635899 -0.543487 0.837581 -0.055499 0.140100 -0.167900 1 0 1.000000 
0 -2.866800 13.125300 33.475700 -0.393899 0.914697 0.090400 0.079300 -0.168000 1 0 1.000000 
Oil_Drum001b
0 -7.814700 10.291700 34.058399 0.790376 0.612581 0.007100 0.140100 -0.161000 1 0 1.000000 
0 -7.478300 9.851800 34.569801 0.790376 0.612581 0.007100 0.140100 -0.154200 1 0 1.000000 
0 -7.439800 9.813200 33.610401 0.790376 0.612581 0.007100 0.140100 -0.167900 1 0 1.000000 
Oil_Drum001b
0 -1.616600 12.382400 44.626499 0.247512 -0.968245 -0.035202 0.064100 -0.003900 1 0 1.000000 
0 2.705900 13.903600 33.167702 0.219409 -0.973841 -0.059102 0.020200 -0.154400 1 0 1.000000 
0 1.728900 12.775100 44.297298 0.107295 -0.990054 -0.090996 0.029100 -0.004000 1 0 1.000000 
Oil_Drum001b
0 -2.852400 11.848100 43.625702 0.373993 -0.926382 -0.044099 0.079100 -0.019800 1 0 1.000000 
0 2.705900 13.903600 33.167702 0.219409 -0.973841 -0.059102 0.020200 -0.154400 1 0 1.000000 
0 -1.616600 12.382400 44.626499 0.247512 -0.968245 -0.035202 0.064100 -0.003900 1 0 1.000000 
Oil_Drum001b
0 -2.798800 12.859300 34.368999 0.356585 -0.928960 -0.099396 0.079300 -0.154400 1 0 1.000000 
0 2.705900 13.903600 33.167702 0.219409 -0.973841 -0.059102 0.020200 -0.154400 1 0 1.000000 
0 -2.852400 11.848100 43.625702 0.373993 -0.926382 -0.044099 0.079100 -0.019800 1 0 1.000000 
Oil_Drum001b
0 -2.852400 11.848100 43.625702 0.373993 -0.926382 -0.044099 0.079100 -0.019800 1 0 1.000000 
0 -7.478300 9.851800 34.569801 0.507095 -0.860392 -0.050800 0.140100 -0.154200 1 0 1.000000 
0 -2.798800 12.859300 34.368999 0.356585 -0.928960 -0.099396 0.079300 -0.154400 1 0 1.000000 
Oil_Drum001b
0 -4.695200 11.048300 44.929298 0.492083 -0.869971 -0.031699 0.099400 -0.003900 1 0 1.000000 
0 -7.478300 9.851800 34.569801 0.507095 -0.860392 -0.050800 0.140100 -0.154200 1 0 1.000000 
0 -2.852400 11.848100 43.625702 0.373993 -0.926382 -0.044099 0.079100 -0.019800 1 0 1.000000 
Oil_Drum001b
0 -4.695200 11.048300 44.929298 0.492083 -0.869971 -0.031699 0.099400 -0.003900 1 0 1.000000 
0 -8.445900 8.333200 45.354599 0.580604 -0.811806 -0.062200 0.139700 -0.003700 1 0 1.000000 
0 -7.478300 9.851800 34.569801 0.507095 -0.860392 -0.050800 0.140100 -0.154200 1 0 1.000000 
Oil_Drum001b
0 -7.478300 9.851800 34.569801 0.997082 0.066599 0.037299 0.140100 -0.154200 1 0 1.000000 
0 -7.716000 7.925400 44.356400 0.997082 0.066599 0.037299 0.139700 -0.003700 1 0 1.000000 
0 -7.439800 9.813200 33.610401 0.997082 0.066599 0.037299 0.140100 -0.167900 1 0 1.000000 
Oil_Drum001b
0 2.586200 14.181000 33.193100 -0.219196 0.973883 0.059199 0.020200 -0.154400 1 0 1.000000 
0 -1.736300 12.659800 44.651901 -0.247512 0.968245 0.035202 0.064100 -0.003900 1 0 1.000000 
0 1.609200 13.052500 44.322800 -0.107295 0.990054 0.090996 0.029100 -0.004000 1 0 1.000000 
Oil_Drum001b
0 2.586200 14.181000 33.193100 -0.219196 0.973883 0.059199 0.020200 -0.154400 1 0 1.000000 
0 -2.972100 12.125500 43.651199 -0.373991 0.926378 0.044199 0.079100 -0.019800 1 0 1.000000 
0 -1.736300 12.659800 44.651901 -0.247512 0.968245 0.035202 0.064100 -0.003900 1 0 1.000000 
Oil_Drum001b
0 2.586200 14.181000 33.193100 -0.219196 0.973883 0.059199 0.020200 -0.154400 1 0 1.000000 
0 -2.919700 13.139600 34.394798 -0.356483 0.928957 0.099795 0.079300 -0.154400 1 0 1.000000 
0 -2.972100 12.125500 43.651199 -0.373991 0.926378 0.044199 0.079100 -0.019800 1 0 1.000000 
Oil_Drum001b
0 -7.598000 10.129200 34.595299 -0.507210 0.860318 0.050901 0.140100 -0.154200 1 0 1.000000 
0 -2.972100 12.125500 43.651199 -0.373991 0.926378 0.044199 0.079100 -0.019800 1 0 1.000000 
0 -2.919700 13.139600 34.394798 -0.356483 0.928957 0.099795 0.079300 -0.154400 1 0 1.000000 
Oil_Drum001b
0 -7.598000 10.129200 34.595299 -0.507210 0.860318 0.050901 0.140100 -0.154200 1 0 1.000000 
0 -4.814900 11.325700 44.954800 -0.492083 0.869971 0.031699 0.099400 -0.003900 1 0 1.000000 
0 -2.972100 12.125500 43.651199 -0.373991 0.926378 0.044199 0.079100 -0.019800 1 0 1.000000 
Oil_Drum001b
0 -8.565600 8.610500 45.380001 -0.580604 0.811806 0.062200 0.139700 -0.003700 1 0 1.000000 
0 -4.814900 11.325700 44.954800 -0.492083 0.869971 0.031699 0.099400 -0.003900 1 0 1.000000 
0 -7.598000 10.129200 34.595299 -0.507210 0.860318 0.050901 0.140100 -0.154200 1 0 1.000000 
Oil_Drum001b
0 -7.439800 9.813200 33.610401 0.543069 -0.837852 0.055497 0.140100 -0.167900 1 0 1.000000 
0 -7.333800 9.707000 30.966499 0.566666 -0.820152 -0.078995 0.140200 -0.205500 1 0 1.000000 
0 -2.745900 12.845000 33.449902 0.393899 -0.914697 -0.090400 0.079300 -0.168000 1 0 1.000000 
Oil_Drum001b
0 2.827000 13.984500 32.359402 0.168698 -0.973389 -0.155098 0.020200 -0.168100 1 0 1.000000 
0 -2.745900 12.845000 33.449902 0.393899 -0.914697 -0.090400 0.079300 -0.168000 1 0 1.000000 
0 3.174000 15.893100 20.761999 0.193898 -0.970588 -0.142698 0.020200 -0.332000 1 0 1.000000 
Oil_Drum001b
0 3.174000 15.893100 20.761999 0.193898 -0.970588 -0.142698 0.020200 -0.332000 1 0 1.000000 
0 -2.745900 12.845000 33.449902 0.393899 -0.914697 -0.090400 0.079300 -0.168000 1 0 1.000000 
0 -3.197400 14.295400 21.909800 0.463888 -0.874277 -0.142996 0.079600 -0.327200 1 0 1.000000 
Oil_Drum001b
0 -2.745900 12.845000 33.449902 0.393899 -0.914697 -0.090400 0.079300 -0.168000 1 0 1.000000 
0 -7.333800 9.707000 30.966499 0.566666 -0.820152 -0.078995 0.140200 -0.205500 1 0 1.000000 
0 -3.197400 14.295400 21.909800 0.463888 -0.874277 -0.142996 0.079600 -0.327200 1 0 1.000000 
Oil_Drum001b
0 -3.197400 14.295400 21.909800 0.463888 -0.874277 -0.142996 0.079600 -0.327200 1 0 1.000000 
0 -7.333800 9.707000 30.966499 0.566666 -0.820152 -0.078995 0.140200 -0.205500 1 0 1.000000 
0 -8.452300 10.827200 21.897100 0.543200 -0.822501 -0.168600 0.140500 -0.327700 1 0 1.000000 
Oil_Drum001b
0 -3.096600 13.663500 33.977299 -0.139998 0.588492 0.796290 0.079300 -0.161200 1 0 1.000000 
0 2.586200 14.181000 33.193100 0.055401 0.600613 0.797618 0.020200 -0.154400 1 0 1.000000 
0 2.641300 14.757900 32.790100 0.061596 0.567666 0.820951 0.020200 -0.161300 1 0 1.000000 
Oil_Drum001b
0 -3.096600 13.663500 33.977299 -0.139998 0.588492 0.796290 0.079300 -0.161200 1 0 1.000000 
0 -2.919700 13.139600 34.394798 -0.130600 0.590500 0.796400 0.079300 -0.154400 1 0 1.000000 
0 2.586200 14.181000 33.193100 0.055401 0.600613 0.797618 0.020200 -0.154400 1 0 1.000000 
Oil_Drum001b
0 -7.598000 10.129200 34.595299 -0.329998 0.553896 0.764395 0.140100 -0.154200 1 0 1.000000 
0 -2.919700 13.139600 34.394798 -0.130600 0.590500 0.796400 0.079300 -0.154400 1 0 1.000000 
0 -3.096600 13.663500 33.977299 -0.139998 0.588492 0.796290 0.079300 -0.161200 1 0 1.000000 
Oil_Drum001b
0 -7.598000 10.129200 34.595299 -0.329998 0.553896 0.764395 0.140100 -0.154200 1 0 1.000000 
0 -3.096600 13.663500 33.977299 -0.139998 0.588492 0.796290 0.079300 -0.161200 1 0 1.000000 
0 -7.935700 10.572000 34.084099 -0.353512 0.578719 0.734924 0.140100 -0.161000 1 0 1.000000 
Oil_Drum001b
0 2.641300 14.757900 32.790100 0.988759 0.009800 0.149194 0.020200 -0.161300 1 0 1.000000 
0 2.586200 14.181000 33.193100 0.988759 0.009800 0.149194 0.020200 -0.154400 1 0 1.000000 
0 2.707300 14.261900 32.384899 0.988759 0.009800 0.149194 0.020200 -0.168100 1 0 1.000000 
Oil_Drum001b
0 -2.866800 13.125300 33.475700 -0.312014 0.553724 -0.772034 0.079300 -0.168000 1 0 1.000000 
0 2.641300 14.757900 32.790100 -0.269608 0.589918 -0.761123 0.020200 -0.161300 1 0 1.000000 
0 2.707300 14.261900 32.384899 -0.269119 0.587642 -0.763054 0.020200 -0.168100 1 0 1.000000 
Oil_Drum001b
0 -2.866800 13.125300 33.475700 -0.312014 0.553724 -0.772034 0.079300 -0.168000 1 0 1.000000 
0 -3.096600 13.663500 33.977299 -0.318297 0.569994 -0.757492 0.079300 -0.161200 1 0 1.000000 
0 2.641300 14.757900 32.790100 -0.269608 0.589918 -0.761123 0.020200 -0.161300 1 0 1.000000 
Oil_Drum001b
0 -7.935700 10.572000 34.084099 -0.353484 0.515677 -0.780465 0.140100 -0.161000 1 0 1.000000 
0 -3.096600 13.663500 33.977299 -0.318297 0.569994 -0.757492 0.079300 -0.161200 1 0 1.000000 
0 -2.866800 13.125300 33.475700 -0.312014 0.553724 -0.772034 0.079300 -0.168000 1 0 1.000000 
Oil_Drum001b
0 -7.935700 10.572000 34.084099 -0.353484 0.515677 -0.780465 0.140100 -0.161000 1 0 1.000000 
0 -2.866800 13.125300 33.475700 -0.312014 0.553724 -0.772034 0.079300 -0.168000 1 0 1.000000 
0 -7.559500 10.090600 33.635899 -0.340700 0.484200 -0.805900 0.140100 -0.167900 1 0 1.000000 
Oil_Drum001b
0 2.586200 14.181000 33.193100 0.805718 0.578013 0.129303 0.020200 -0.154400 1 0 1.000000 
0 1.609200 13.052500 44.322800 0.805718 0.578013 0.129303 0.029100 -0.004000 1 0 1.000000 
0 2.468700 12.299800 42.331902 0.805718 0.578013 0.129303 0.020200 -0.030600 1 0 1.000000 
Oil_Drum001b
0 -7.598000 10.129200 34.595299 -0.791207 -0.611506 -0.007200 0.140100 -0.154200 1 0 1.000000 
0 -7.935700 10.572000 34.084099 -0.791207 -0.611506 -0.007200 0.140100 -0.161000 1 0 1.000000 
0 -7.559500 10.090600 33.635899 -0.791207 -0.611506 -0.007200 0.140100 -0.167900 1 0 1.000000 
end
