version 1
nodes
  0 "static_prop" -1
end
skeleton
time 0
0 0.000000 0.000000 0.000000 0.000000 0.000000 0.000000
end
triangles
concretedebris_chunk01
0 -0.789300 0.418500 -1.267600 -0.225547 0.370349 -0.901094 0.528700 -0.487200 1 0 1.000000 
0 2.306100 -0.529700 -1.241600 0.608748 -0.312570 -0.729195 0.411600 -0.572200 1 0 1.000000 
0 -0.154400 -1.325900 -1.678600 -0.018130 -0.740675 -0.671619 0.528700 -0.573800 1 0 1.000000 
concretedebris_chunk01
0 -0.789300 0.418500 -1.267600 -0.225547 0.370349 -0.901094 0.528700 -0.487200 1 0 1.000000 
0 0.951400 1.576400 -1.072300 0.439792 0.853562 -0.279310 0.436700 -0.463200 1 0 1.000000 
0 2.306100 -0.529700 -1.241600 0.608748 -0.312570 -0.729195 0.411600 -0.572200 1 0 1.000000 
concretedebris_chunk01
0 -0.789300 0.418500 -1.267600 -0.225547 0.370349 -0.901094 0.528700 -0.487200 1 0 1.000000 
0 -1.180200 1.492400 -0.412000 -0.351909 0.911799 -0.211617 0.528700 -0.426200 1 0 1.000000 
0 0.951400 1.576400 -1.072300 0.439792 0.853562 -0.279310 0.436700 -0.463200 1 0 1.000000 
concretedebris_chunk01
0 -0.789300 0.418500 -1.267600 -0.225547 0.370349 -0.901094 0.528700 -0.487200 1 0 1.000000 
0 -2.107900 0.191400 -0.571200 -0.873616 0.396756 -0.281744 0.588400 -0.467900 1 0 1.000000 
0 -1.180200 1.492400 -0.412000 -0.351909 0.911799 -0.211617 0.528700 -0.426200 1 0 1.000000 
concretedebris_chunk01
0 -0.789300 0.418500 -1.267600 -0.225547 0.370349 -0.901094 0.528700 -0.487200 1 0 1.000000 
0 -1.472300 -1.113700 -1.519300 -0.800411 -0.269847 -0.535279 0.581600 -0.543300 1 0 1.000000 
0 -2.107900 0.191400 -0.571200 -0.873616 0.396756 -0.281744 0.588400 -0.467900 1 0 1.000000 
concretedebris_chunk01
0 -0.789300 0.418500 -1.267600 -0.225547 0.370349 -0.901094 0.528700 -0.487200 1 0 1.000000 
0 -0.154400 -1.325900 -1.678600 -0.018130 -0.740675 -0.671619 0.528700 -0.573800 1 0 1.000000 
0 -1.472300 -1.113700 -1.519300 -0.800411 -0.269847 -0.535279 0.581600 -0.543300 1 0 1.000000 
concretedebris_chunk01
0 0.951400 1.576400 -1.072300 0.439792 0.853562 -0.279310 0.933500 -0.538800 1 0 1.000000 
0 2.038000 -0.964900 0.400800 0.738892 -0.226475 0.634624 0.830600 -0.640700 1 0 1.000000 
0 2.306100 -0.529700 -1.241600 0.608748 -0.312570 -0.729195 0.912900 -0.647900 1 0 1.000000 
concretedebris_chunk01
0 0.951400 1.576400 -1.072300 0.439792 0.853562 -0.279310 0.933500 -0.538800 1 0 1.000000 
0 0.334800 0.738600 1.394300 0.392785 0.559308 0.729996 0.816500 -0.551700 1 0 1.000000 
0 2.038000 -0.964900 0.400800 0.738892 -0.226475 0.634624 0.830600 -0.640700 1 0 1.000000 
concretedebris_chunk01
0 -1.180200 1.492400 -0.412000 -0.351909 0.911799 -0.211617 0.909500 -0.501900 1 0 1.000000 
0 0.334800 0.738600 1.394300 0.392785 0.559308 0.729996 0.816500 -0.551700 1 0 1.000000 
0 0.951400 1.576400 -1.072300 0.439792 0.853562 -0.279310 0.933500 -0.538800 1 0 1.000000 
concretedebris_chunk01
0 -2.107900 0.191400 -0.571200 -0.873616 0.396756 -0.281744 0.902500 -0.446900 1 0 1.000000 
0 -0.983100 0.950900 1.553500 -0.382506 0.562683 0.732855 0.808600 -0.501900 1 0 1.000000 
0 -1.180200 1.492400 -0.412000 -0.351909 0.911799 -0.211617 0.909500 -0.501900 1 0 1.000000 
concretedebris_chunk01
0 -1.180200 1.492400 -0.412000 -0.351909 0.911799 -0.211617 0.909500 -0.501900 1 0 1.000000 
0 -0.983100 0.950900 1.553500 -0.382506 0.562683 0.732855 0.808600 -0.501900 1 0 1.000000 
0 0.334800 0.738600 1.394300 0.392785 0.559308 0.729996 0.816500 -0.551700 1 0 1.000000 
concretedebris_chunk01
0 -2.107900 0.191400 -0.571200 -0.873616 0.396756 -0.281744 0.902500 -0.446900 1 0 1.000000 
0 -1.856300 -0.058800 1.394300 -0.810104 -0.184494 0.556500 0.814500 -0.455100 1 0 1.000000 
0 -0.983100 0.950900 1.553500 -0.382506 0.562683 0.732855 0.808600 -0.501900 1 0 1.000000 
concretedebris_chunk01
0 -0.590700 -0.127300 1.450200 0.094762 -0.414708 0.905007 0.518000 -0.478900 1 0 1.000000 
0 2.038000 -0.964900 0.400800 0.738892 -0.226475 0.634624 0.419100 -0.566200 1 0 1.000000 
0 0.334800 0.738600 1.394300 0.392785 0.559308 0.729996 0.465200 -0.457900 1 0 1.000000 
concretedebris_chunk01
0 -0.590700 -0.127300 1.450200 0.094762 -0.414708 0.905007 0.518000 -0.478900 1 0 1.000000 
0 0.596500 -1.592800 0.230200 0.170270 -0.947327 0.271254 0.490200 -0.572600 1 0 1.000000 
0 2.038000 -0.964900 0.400800 0.738892 -0.226475 0.634624 0.419100 -0.566200 1 0 1.000000 
concretedebris_chunk01
0 -0.590700 -0.127300 1.450200 0.094762 -0.414708 0.905007 0.518000 -0.478900 1 0 1.000000 
0 -1.728900 -1.056200 0.764800 -0.361025 -0.852030 0.379086 0.580900 -0.508900 1 0 1.000000 
0 0.596500 -1.592800 0.230200 0.170270 -0.947327 0.271254 0.490200 -0.572600 1 0 1.000000 
concretedebris_chunk01
0 -0.590700 -0.127300 1.450200 0.094762 -0.414708 0.905007 0.518000 -0.478900 1 0 1.000000 
0 -1.856300 -0.058800 1.394300 -0.810104 -0.184494 0.556500 0.570900 -0.457900 1 0 1.000000 
0 -1.728900 -1.056200 0.764800 -0.361025 -0.852030 0.379086 0.580900 -0.508900 1 0 1.000000 
concretedebris_chunk01
0 -0.590700 -0.127300 1.450200 0.094762 -0.414708 0.905007 0.518000 -0.478900 1 0 1.000000 
0 0.334800 0.738600 1.394300 0.392785 0.559308 0.729996 0.465200 -0.457900 1 0 1.000000 
0 -0.983100 0.950900 1.553500 -0.382506 0.562683 0.732855 0.518000 -0.427400 1 0 1.000000 
concretedebris_chunk01
0 -0.590700 -0.127300 1.450200 0.094762 -0.414708 0.905007 0.518000 -0.478900 1 0 1.000000 
0 -0.983100 0.950900 1.553500 -0.382506 0.562683 0.732855 0.518000 -0.427400 1 0 1.000000 
0 -1.856300 -0.058800 1.394300 -0.810104 -0.184494 0.556500 0.570900 -0.457900 1 0 1.000000 
concretedebris_chunk01
0 2.306100 -0.529700 -1.241600 0.608748 -0.312570 -0.729195 0.916100 -0.564200 1 0 1.000000 
0 2.038000 -0.964900 0.400800 0.738892 -0.226475 0.634624 0.829800 -0.559500 1 0 1.000000 
0 0.596500 -1.592800 0.230200 0.170270 -0.947327 0.271254 0.832900 -0.507900 1 0 1.000000 
concretedebris_chunk01
0 -0.154400 -1.325900 -1.678600 -0.018130 -0.740675 -0.671619 0.930300 -0.510200 1 0 1.000000 
0 0.596500 -1.592800 0.230200 0.170270 -0.947327 0.271254 0.832900 -0.507900 1 0 1.000000 
0 -1.728900 -1.056200 0.764800 -0.361025 -0.852030 0.379086 0.822500 -0.444200 1 0 1.000000 
concretedebris_chunk01
0 2.306100 -0.529700 -1.241600 0.608748 -0.312570 -0.729195 0.916100 -0.564200 1 0 1.000000 
0 0.596500 -1.592800 0.230200 0.170270 -0.947327 0.271254 0.832900 -0.507900 1 0 1.000000 
0 -0.154400 -1.325900 -1.678600 -0.018130 -0.740675 -0.671619 0.930300 -0.510200 1 0 1.000000 
concretedebris_chunk01
0 -1.472300 -1.113700 -1.519300 -0.800411 -0.269847 -0.535279 0.930300 -0.479700 1 0 1.000000 
0 -1.728900 -1.056200 0.764800 -0.361025 -0.852030 0.379086 0.822500 -0.444200 1 0 1.000000 
0 -1.856300 -0.058800 1.394300 -0.810104 -0.184494 0.556500 0.803900 -0.393200 1 0 1.000000 
concretedebris_chunk01
0 -0.154400 -1.325900 -1.678600 -0.018130 -0.740675 -0.671619 0.930300 -0.510200 1 0 1.000000 
0 -1.728900 -1.056200 0.764800 -0.361025 -0.852030 0.379086 0.822500 -0.444200 1 0 1.000000 
0 -1.472300 -1.113700 -1.519300 -0.800411 -0.269847 -0.535279 0.930300 -0.479700 1 0 1.000000 
concretedebris_chunk01
0 -1.472300 -1.113700 -1.519300 -0.800411 -0.269847 -0.535279 0.930300 -0.479700 1 0 1.000000 
0 -1.856300 -0.058800 1.394300 -0.810104 -0.184494 0.556500 0.803900 -0.393200 1 0 1.000000 
0 -2.107900 0.191400 -0.571200 -0.873616 0.396756 -0.281744 0.901800 -0.404300 1 0 1.000000 
end
