version 1
nodes
  0 "static_prop" -1
end
skeleton
time 0
0 0.000000 0.000000 0.000000 0.000000 0.000000 0.000000
end
triangles
valvewheel002
0 4.042600 4.042600 5.241400 -0.720766 -0.481578 0.498577 0.625000 -0.923400 1 0 1.000000 
0 3.176300 4.753600 4.675700 -0.270311 -0.187507 -0.944337 0.656200 -0.943400 1 0 1.000000 
0 5.282000 2.187900 5.241400 -0.720766 -0.481578 0.498577 0.562500 -0.923200 1 0 1.000000 
valvewheel002
0 1.252900 0.407100 3.800000 0.016299 -0.279990 0.959864 0.266700 -0.599700 1 0 1.000000 
0 4.614100 3.638500 5.208100 -0.085297 -0.093397 0.991968 0.396000 -0.867200 1 0 1.000000 
0 0.774300 1.065800 3.800000 -0.079398 -0.057698 0.995172 0.293100 -0.561600 1 0 1.000000 
valvewheel002
0 1.252900 0.407100 3.800000 0.016299 -0.279990 0.959864 0.266700 -0.599700 1 0 1.000000 
0 4.886200 3.263900 4.791900 0.371313 0.239709 -0.897032 0.381000 -0.888900 1 0 1.000000 
0 4.614100 3.638500 5.208100 -0.085297 -0.093397 0.991968 0.396000 -0.867200 1 0 1.000000 
valvewheel002
0 -0.000000 1.317400 3.800000 0.201610 -0.052703 0.978047 0.303200 -0.500000 1 0 1.000000 
0 -1.594200 5.655700 4.791900 -0.113204 0.427216 -0.897034 0.476700 -0.373100 1 0 1.000000 
0 -2.034600 5.512600 5.208100 0.062399 -0.109898 0.991982 0.471000 -0.338100 1 0 1.000000 
valvewheel002
0 -0.000000 1.317400 3.800000 0.201610 -0.052703 0.978047 0.303200 -0.500000 1 0 1.000000 
0 -2.034600 5.512600 5.208100 0.062399 -0.109898 0.991982 0.471000 -0.338100 1 0 1.000000 
0 -0.774300 1.065800 3.800000 0.030299 -0.093397 0.995168 0.293100 -0.438400 1 0 1.000000 
valvewheel002
0 -0.000000 1.317400 3.800000 0.201610 -0.052703 0.978047 0.303200 -0.500000 1 0 1.000000 
0 -0.774300 1.065800 3.800000 0.030299 -0.093397 0.995168 0.293100 -0.438400 1 0 1.000000 
0 1.252900 -0.407100 3.800000 -0.079398 0.057698 0.995172 0.234200 -0.599700 1 0 1.000000 
valvewheel002
0 0.774300 1.065800 3.800000 -0.079398 -0.057698 0.995172 0.293100 -0.561600 1 0 1.000000 
0 -0.000000 1.317400 3.800000 0.201610 -0.052703 0.978047 0.303200 -0.500000 1 0 1.000000 
0 1.252900 -0.407100 3.800000 -0.079398 0.057698 0.995172 0.234200 -0.599700 1 0 1.000000 
valvewheel002
0 1.252900 0.407100 3.800000 0.016299 -0.279990 0.959864 0.266700 -0.599700 1 0 1.000000 
0 0.774300 1.065800 3.800000 -0.079398 -0.057698 0.995172 0.293100 -0.561600 1 0 1.000000 
0 1.252900 -0.407100 3.800000 -0.079398 0.057698 0.995172 0.234200 -0.599700 1 0 1.000000 
valvewheel002
0 -0.774300 1.065800 3.800000 0.030299 -0.093397 0.995168 0.293100 -0.438400 1 0 1.000000 
0 -1.252900 0.407100 3.800000 0.112503 0.175505 0.978029 0.266700 -0.400300 1 0 1.000000 
0 1.252900 -0.407100 3.800000 -0.079398 0.057698 0.995172 0.234200 -0.599700 1 0 1.000000 
valvewheel002
0 -1.252900 0.407100 3.800000 0.112503 0.175505 0.978029 0.266700 -0.400300 1 0 1.000000 
0 -5.871500 0.231500 4.791900 -0.479695 -0.053699 -0.875791 0.259700 -0.032700 1 0 1.000000 
0 -5.871500 -0.231500 5.208100 0.075002 0.036201 0.996526 0.241200 -0.032700 1 0 1.000000 
valvewheel002
0 -1.252900 0.407100 3.800000 0.112503 0.175505 0.978029 0.266700 -0.400300 1 0 1.000000 
0 -5.871500 -0.231500 5.208100 0.075002 0.036201 0.996526 0.241200 -0.032700 1 0 1.000000 
0 -1.252900 -0.407100 3.800000 0.098197 0.000000 0.995167 0.234200 -0.400300 1 0 1.000000 
valvewheel002
0 -1.252900 0.407100 3.800000 0.112503 0.175505 0.978029 0.266700 -0.400300 1 0 1.000000 
0 -1.252900 -0.407100 3.800000 0.098197 0.000000 0.995167 0.234200 -0.400300 1 0 1.000000 
0 1.252900 -0.407100 3.800000 -0.079398 0.057698 0.995172 0.234200 -0.599700 1 0 1.000000 
valvewheel002
0 -1.252900 -0.407100 3.800000 0.098197 0.000000 0.995167 0.234200 -0.400300 1 0 1.000000 
0 -0.774300 -1.065800 3.800000 -0.132105 0.161206 0.978039 0.207800 -0.438400 1 0 1.000000 
0 1.252900 -0.407100 3.800000 -0.079398 0.057698 0.995172 0.234200 -0.599700 1 0 1.000000 
valvewheel002
0 -0.774300 -1.065800 3.800000 -0.132105 0.161206 0.978039 0.207800 -0.438400 1 0 1.000000 
0 0.000000 -1.317400 3.800000 0.030299 0.093397 0.995168 0.197700 -0.500000 1 0 1.000000 
0 1.252900 -0.407100 3.800000 -0.079398 0.057698 0.995172 0.234200 -0.599700 1 0 1.000000 
valvewheel002
0 0.000000 -1.317400 3.800000 0.030299 0.093397 0.995168 0.197700 -0.500000 1 0 1.000000 
0 0.774300 -1.065800 3.800000 -0.261192 -0.102097 0.959872 0.207800 -0.561600 1 0 1.000000 
0 1.252900 -0.407100 3.800000 -0.079398 0.057698 0.995172 0.234200 -0.599700 1 0 1.000000 
valvewheel002
0 0.774300 -1.065800 3.800000 -0.261192 -0.102097 0.959872 0.207800 -0.561600 1 0 1.000000 
0 4.886200 -3.263900 5.208100 -0.082002 0.014800 0.996522 0.119900 -0.888900 1 0 1.000000 
0 1.252900 -0.407100 3.800000 -0.079398 0.057698 0.995172 0.234200 -0.599700 1 0 1.000000 
valvewheel002
0 0.774300 -1.065800 3.800000 -0.261192 -0.102097 0.959872 0.207800 -0.561600 1 0 1.000000 
0 4.614100 -3.638500 4.791900 0.419688 -0.238493 -0.875775 0.104900 -0.867200 1 0 1.000000 
0 4.886200 -3.263900 5.208100 -0.082002 0.014800 0.996522 0.119900 -0.888900 1 0 1.000000 
valvewheel002
0 -0.774300 -1.065800 3.800000 -0.132105 0.161206 0.978039 0.207800 -0.438400 1 0 1.000000 
0 -1.594200 -5.655700 5.208100 -0.011300 0.082602 0.996518 0.024200 -0.373100 1 0 1.000000 
0 0.000000 -1.317400 3.800000 0.030299 0.093397 0.995168 0.197700 -0.500000 1 0 1.000000 
valvewheel002
0 -0.774300 -1.065800 3.800000 -0.132105 0.161206 0.978039 0.207800 -0.438400 1 0 1.000000 
0 -2.034600 -5.512600 4.791900 -0.097199 -0.472797 -0.875794 0.029900 -0.338100 1 0 1.000000 
0 -1.594200 -5.655700 5.208100 -0.011300 0.082602 0.996518 0.024200 -0.373100 1 0 1.000000 
valvewheel002
0 0.774300 -1.065800 3.400000 0.308989 -0.951066 0.000000 0.696300 -0.949400 1 0 1.000000 
0 0.774300 -1.065800 3.800000 0.308989 -0.951066 0.000000 0.696300 -0.922100 1 0 1.000000 
0 0.000000 -1.317400 3.800000 0.308989 -0.951066 0.000000 0.656300 -0.922200 1 0 1.000000 
valvewheel002
0 0.774300 1.065800 3.400000 0.308989 0.951066 0.000000 0.816300 -0.948800 1 0 1.000000 
0 -0.000000 1.317400 3.800000 0.308989 0.951066 0.000000 0.856300 -0.921400 1 0 1.000000 
0 0.774300 1.065800 3.800000 0.308989 0.951066 0.000000 0.816300 -0.921500 1 0 1.000000 
valvewheel002
0 0.774300 1.065800 3.400000 0.308989 0.951066 0.000000 0.816300 -0.948800 1 0 1.000000 
0 -0.000000 1.317400 3.400000 0.308989 0.951066 0.000000 0.856300 -0.948700 1 0 1.000000 
0 -0.000000 1.317400 3.800000 0.308989 0.951066 0.000000 0.856300 -0.921400 1 0 1.000000 
valvewheel002
0 -0.774300 1.065800 3.400000 -0.809004 0.587803 0.000000 0.896300 -0.948800 1 0 1.000000 
0 -1.252900 0.407100 3.800000 -0.809004 0.587803 0.000000 0.936400 -0.921700 1 0 1.000000 
0 -0.774300 1.065800 3.800000 -0.809004 0.587803 0.000000 0.896300 -0.921500 1 0 1.000000 
valvewheel002
0 -0.774300 1.065800 3.400000 -0.809004 0.587803 0.000000 0.896300 -0.948800 1 0 1.000000 
0 -1.252900 0.407100 3.400000 -0.809004 0.587803 0.000000 0.936300 -0.949000 1 0 1.000000 
0 -1.252900 0.407100 3.800000 -0.809004 0.587803 0.000000 0.936400 -0.921700 1 0 1.000000 
valvewheel002
0 -0.340800 -0.110700 -0.500000 -0.587803 -0.809004 0.000000 0.759200 -0.838500 1 0 1.000000 
0 0.000000 -0.358400 4.800000 -0.115698 -0.993284 0.000000 0.808700 -0.161700 1 0 1.000000 
0 -0.340800 -0.110700 4.800000 -0.587803 -0.809004 0.000000 0.761500 -0.161600 1 0 1.000000 
valvewheel002
0 -0.340800 -0.110700 -0.500000 -0.587803 -0.809004 0.000000 0.759200 -0.838500 1 0 1.000000 
0 0.000000 -0.358400 -0.500000 -0.587803 -0.809004 0.000000 0.808700 -0.838600 1 0 1.000000 
0 0.000000 -0.358400 4.800000 -0.115698 -0.993284 0.000000 0.808700 -0.161700 1 0 1.000000 
valvewheel002
0 0.210700 0.289900 -0.500000 0.951066 -0.308989 0.000000 0.901000 -0.838300 1 0 1.000000 
0 0.210700 0.289900 4.800000 0.951066 -0.308989 0.000000 0.899900 -0.161300 1 0 1.000000 
0 0.000000 -0.358400 4.800000 -0.115698 -0.993284 0.000000 0.808700 -0.161700 1 0 1.000000 
valvewheel002
0 0.000000 -0.358400 -0.500000 0.951066 -0.308989 0.000000 0.808700 -0.838600 1 0 1.000000 
0 0.210700 0.289900 -0.500000 0.951066 -0.308989 0.000000 0.901000 -0.838300 1 0 1.000000 
0 0.000000 -0.358400 4.800000 0.951066 -0.308989 0.000000 0.808700 -0.161700 1 0 1.000000 
valvewheel002
0 0.494700 -0.160700 2.700000 0.951066 0.308989 0.000000 0.611200 -0.652800 1 0 1.000000 
0 0.305800 0.420800 4.400000 0.582807 0.802209 0.129601 0.644700 -0.533900 1 0 1.000000 
0 0.000000 -0.520200 4.400000 0.930489 -0.302296 0.206898 0.573400 -0.534200 1 0 1.000000 
valvewheel002
0 0.494700 -0.160700 2.700000 0.951066 0.308989 0.000000 0.611200 -0.652800 1 0 1.000000 
0 -0.305800 0.420800 2.700000 -0.582807 0.802209 -0.129601 0.676900 -0.652600 1 0 1.000000 
0 0.305800 0.420800 4.400000 0.582807 0.802209 0.129601 0.644700 -0.533900 1 0 1.000000 
valvewheel002
0 -0.305800 0.420800 2.700000 -0.582807 0.802209 -0.129601 0.676900 -0.652600 1 0 1.000000 
0 -0.494700 -0.160700 4.400000 -0.951066 0.308989 0.000000 0.711000 -0.534100 1 0 1.000000 
0 0.305800 0.420800 4.400000 0.582807 0.802209 0.129601 0.644700 -0.533900 1 0 1.000000 
valvewheel002
0 -0.305800 0.420800 2.700000 -0.582807 0.802209 -0.129601 0.676900 -0.652600 1 0 1.000000 
0 0.000000 -0.520200 2.700000 -0.930489 -0.302297 -0.206898 0.710600 -0.652800 1 0 1.000000 
0 -0.494700 -0.160700 4.400000 -0.951066 0.308989 0.000000 0.711000 -0.534100 1 0 1.000000 
valvewheel002
0 -5.717200 -0.000000 5.241400 0.979290 0.051900 -0.195698 0.000000 -0.924900 1 0 1.000000 
0 -5.492400 -1.092500 4.958600 0.899798 0.209900 -0.382499 0.031300 -0.934800 1 0 1.000000 
0 -5.607300 -1.115400 4.675700 0.410115 0.042702 -0.911033 0.031300 -0.944800 1 0 1.000000 
valvewheel002
0 -5.717200 -0.000000 5.241400 0.979290 0.051900 -0.195698 0.000000 -0.924900 1 0 1.000000 
0 -4.753600 -3.176300 5.241400 0.900120 0.273106 -0.339407 0.093700 -0.924700 1 0 1.000000 
0 -5.492400 -1.092500 4.958600 0.899798 0.209900 -0.382499 0.031300 -0.934800 1 0 1.000000 
valvewheel002
0 0.774300 -1.065800 3.400000 0.162194 -0.192692 -0.967762 0.237200 -0.471300 1 0 1.000000 
0 -2.034600 -5.512600 4.791900 -0.097199 -0.472797 -0.875794 0.160100 -0.562900 1 0 1.000000 
0 -0.774300 -1.065800 3.400000 -0.133194 -0.213790 -0.967757 0.237200 -0.521800 1 0 1.000000 
valvewheel002
0 0.774300 -1.065800 3.400000 0.162194 -0.192692 -0.967762 0.237200 -0.471300 1 0 1.000000 
0 -1.594200 -5.655700 5.208100 -0.011300 0.082602 0.996518 0.157600 -0.548600 1 0 1.000000 
0 -2.034600 -5.512600 4.791900 -0.097199 -0.472797 -0.875794 0.160100 -0.562900 1 0 1.000000 
valvewheel002
0 -0.774300 -1.065800 3.400000 -0.133194 -0.213790 -0.967757 0.237200 -0.521800 1 0 1.000000 
0 -5.871500 0.231500 4.791900 -0.479695 -0.053699 -0.875791 0.259700 -0.688100 1 0 1.000000 
0 -1.252900 0.407100 3.400000 -0.097098 -0.000000 -0.995275 0.262700 -0.537400 1 0 1.000000 
valvewheel002
0 -0.774300 -1.065800 3.400000 -0.133194 -0.213790 -0.967757 0.237200 -0.521800 1 0 1.000000 
0 -5.871500 -0.231500 5.208100 0.075002 0.036201 0.996526 0.251600 -0.688100 1 0 1.000000 
0 -5.871500 0.231500 4.791900 -0.479695 -0.053699 -0.875791 0.259700 -0.688100 1 0 1.000000 
valvewheel002
0 1.252900 0.407100 3.400000 0.306584 0.099295 -0.946650 0.262700 -0.455700 1 0 1.000000 
0 4.614100 -3.638500 4.791900 0.419688 -0.238493 -0.875775 0.192600 -0.346000 1 0 1.000000 
0 0.774300 -1.065800 3.400000 0.162194 -0.192692 -0.967762 0.237200 -0.471300 1 0 1.000000 
valvewheel002
0 1.252900 0.407100 3.400000 0.306584 0.099295 -0.946650 0.262700 -0.455700 1 0 1.000000 
0 4.886200 -3.263900 5.208100 -0.082002 0.014800 0.996522 0.199100 -0.337100 1 0 1.000000 
0 4.614100 -3.638500 4.791900 0.419688 -0.238493 -0.875775 0.192600 -0.346000 1 0 1.000000 
valvewheel002
0 0.774300 1.065800 3.400000 0.015300 0.128302 -0.991617 0.274100 -0.471300 1 0 1.000000 
0 4.886200 3.263900 4.791900 0.371313 0.239709 -0.897032 0.312200 -0.337100 1 0 1.000000 
0 1.252900 0.407100 3.400000 0.306584 0.099295 -0.946650 0.262700 -0.455700 1 0 1.000000 
valvewheel002
0 0.774300 1.065800 3.400000 0.015300 0.128302 -0.991617 0.274100 -0.471300 1 0 1.000000 
0 4.614100 3.638500 5.208100 -0.085297 -0.093397 0.991968 0.318700 -0.346000 1 0 1.000000 
0 4.886200 3.263900 4.791900 0.371313 0.239709 -0.897032 0.312200 -0.337100 1 0 1.000000 
valvewheel002
0 -0.774300 1.065800 3.400000 -0.209292 0.096696 -0.973060 0.274100 -0.521800 1 0 1.000000 
0 -1.594200 5.655700 4.791900 -0.113204 0.427216 -0.897034 0.353700 -0.548600 1 0 1.000000 
0 -0.000000 1.317400 3.400000 -0.029999 0.092397 -0.995270 0.303200 -0.500000 1 0 1.000000 
valvewheel002
0 -0.774300 1.065800 3.400000 -0.209292 0.096696 -0.973060 0.274100 -0.521800 1 0 1.000000 
0 -2.034600 5.512600 5.208100 0.062399 -0.109898 0.991982 0.351200 -0.562900 1 0 1.000000 
0 -1.594200 5.655700 4.791900 -0.113204 0.427216 -0.897034 0.353700 -0.548600 1 0 1.000000 
valvewheel002
0 1.252900 0.407100 3.400000 0.306584 0.099295 -0.946650 0.266700 -0.599700 1 0 1.000000 
0 0.774300 -1.065800 3.400000 0.162194 -0.192692 -0.967762 0.207800 -0.561600 1 0 1.000000 
0 0.774300 1.065800 3.400000 0.015300 0.128302 -0.991617 0.293100 -0.561600 1 0 1.000000 
valvewheel002
0 0.774300 -1.065800 3.400000 0.162194 -0.192692 -0.967762 0.207800 -0.561600 1 0 1.000000 
0 -0.774300 -1.065800 3.400000 -0.133194 -0.213790 -0.967757 0.207800 -0.438400 1 0 1.000000 
0 0.774300 1.065800 3.400000 0.015300 0.128302 -0.991617 0.293100 -0.561600 1 0 1.000000 
valvewheel002
0 -0.774300 -1.065800 3.400000 -0.133194 -0.213790 -0.967757 0.207800 -0.438400 1 0 1.000000 
0 -1.252900 0.407100 3.400000 -0.097098 -0.000000 -0.995275 0.266700 -0.400300 1 0 1.000000 
0 0.774300 1.065800 3.400000 0.015300 0.128302 -0.991617 0.293100 -0.561600 1 0 1.000000 
valvewheel002
0 -1.252900 0.407100 3.400000 -0.097098 -0.000000 -0.995275 0.266700 -0.400300 1 0 1.000000 
0 -0.774300 1.065800 3.400000 -0.209292 0.096696 -0.973060 0.293100 -0.438400 1 0 1.000000 
0 0.774300 1.065800 3.400000 0.015300 0.128302 -0.991617 0.293100 -0.561600 1 0 1.000000 
valvewheel002
0 -0.774300 1.065800 3.400000 -0.209292 0.096696 -0.973060 0.293100 -0.438400 1 0 1.000000 
0 -0.000000 1.317400 3.400000 -0.029999 0.092397 -0.995270 0.303200 -0.500000 1 0 1.000000 
0 0.774300 1.065800 3.400000 0.015300 0.128302 -0.991617 0.293100 -0.561600 1 0 1.000000 
valvewheel002
0 0.000000 -0.857700 3.000000 0.698060 -0.702360 -0.139292 0.676000 -0.992800 1 0 1.000000 
0 0.815800 -0.265100 4.100000 0.906229 -0.419914 -0.049202 0.750900 -0.884300 1 0 1.000000 
0 0.000000 -0.857700 4.100000 0.587803 -0.809004 0.000000 0.675600 -0.884700 1 0 1.000000 
valvewheel002
0 0.000000 -0.857700 3.000000 0.698060 -0.702360 -0.139292 0.676000 -0.992800 1 0 1.000000 
0 0.815800 0.265100 3.000000 0.986204 -0.149101 -0.071900 0.788500 -0.992500 1 0 1.000000 
0 0.815800 -0.265100 4.100000 0.906229 -0.419914 -0.049202 0.750900 -0.884300 1 0 1.000000 
valvewheel002
0 0.815800 0.265100 3.000000 0.986204 -0.149101 -0.071900 0.788500 -0.992500 1 0 1.000000 
0 0.504200 0.693900 4.100000 0.446107 0.846313 0.291105 0.826200 -0.884400 1 0 1.000000 
0 0.815800 -0.265100 4.100000 0.906229 -0.419914 -0.049202 0.750900 -0.884300 1 0 1.000000 
valvewheel002
0 -0.504200 0.693900 3.000000 -0.297292 0.915076 0.272493 0.901100 -0.993100 1 0 1.000000 
0 -0.815800 0.265100 4.100000 -0.297292 0.915076 0.272493 0.938900 -0.885000 1 0 1.000000 
0 0.504200 0.693900 4.100000 0.446107 0.846313 0.291105 0.826200 -0.884400 1 0 1.000000 
valvewheel002
0 4.042600 4.042600 5.241400 -0.304390 -0.505784 0.807174 0.625000 -0.923400 1 0 1.000000 
0 2.187900 5.282000 4.675700 -0.378482 -0.917157 -0.124794 0.687500 -0.943600 1 0 1.000000 
0 3.176300 4.753600 4.675700 -0.538280 -0.750972 -0.382486 0.656200 -0.943400 1 0 1.000000 
valvewheel002
0 4.042600 4.042600 5.241400 -0.304390 -0.505784 0.807174 0.625000 -0.923400 1 0 1.000000 
0 2.187900 5.282000 5.241400 -0.219200 -0.713299 0.665699 0.687500 -0.923700 1 0 1.000000 
0 2.187900 5.282000 4.675700 -0.378482 -0.917157 -0.124794 0.687500 -0.943600 1 0 1.000000 
valvewheel002
0 2.187900 5.282000 5.241400 -0.219200 -0.713299 0.665699 0.687500 -0.923700 1 0 1.000000 
0 -1.115400 5.607300 4.675700 0.024400 -0.999702 0.000000 0.781200 -0.944100 1 0 1.000000 
0 2.187900 5.282000 4.675700 -0.378482 -0.917157 -0.124794 0.687500 -0.943600 1 0 1.000000 
valvewheel002
0 2.187900 5.282000 5.241400 -0.219200 -0.713299 0.665699 0.687500 -0.923700 1 0 1.000000 
0 -0.000000 5.717200 5.241400 0.047400 -0.481603 0.875106 0.750000 -0.924000 1 0 1.000000 
0 -1.115400 5.607300 4.675700 0.024400 -0.999702 0.000000 0.781200 -0.944100 1 0 1.000000 
valvewheel002
0 -0.000000 5.717200 5.241400 0.047400 -0.481603 0.875106 0.750000 -0.924000 1 0 1.000000 
0 -3.176300 4.753600 4.675700 0.487798 -0.784696 -0.382498 0.843700 -0.944400 1 0 1.000000 
0 -1.115400 5.607300 4.675700 0.024400 -0.999702 0.000000 0.781200 -0.944100 1 0 1.000000 
valvewheel002
0 -2.187900 5.282000 5.241400 0.292413 -0.437519 0.850336 0.812500 -0.924300 1 0 1.000000 
0 -4.042600 4.042600 4.675700 0.643204 -0.743505 -0.183001 0.875000 -0.944500 1 0 1.000000 
0 -3.176300 4.753600 4.675700 0.487798 -0.784696 -0.382498 0.843700 -0.944400 1 0 1.000000 
valvewheel002
0 -2.187900 5.282000 5.241400 0.292413 -0.437519 0.850336 0.812500 -0.924300 1 0 1.000000 
0 -3.176300 4.753600 5.241400 0.346204 -0.389004 0.853709 0.843800 -0.924500 1 0 1.000000 
0 -4.042600 4.042600 4.675700 0.643204 -0.743505 -0.183001 0.875000 -0.944500 1 0 1.000000 
valvewheel002
0 -3.176300 4.753600 5.241400 0.346204 -0.389004 0.853709 0.843800 -0.924500 1 0 1.000000 
0 -5.282000 2.187900 4.675700 0.720766 -0.481577 -0.498577 0.937500 -0.944700 1 0 1.000000 
0 -4.042600 4.042600 4.675700 0.643204 -0.743505 -0.183001 0.875000 -0.944500 1 0 1.000000 
valvewheel002
0 5.492400 -1.092500 4.958600 -0.980058 0.198291 -0.012899 0.468800 -0.933100 1 0 1.000000 
0 5.717200 0.000000 4.675700 -0.999298 0.036400 -0.008800 0.500000 -0.943000 1 0 1.000000 
0 5.282000 -2.187900 4.675700 -0.903876 0.427588 -0.013300 0.437500 -0.943100 1 0 1.000000 
valvewheel002
0 5.492400 -1.092500 4.958600 -0.980058 0.198291 -0.012899 0.468800 -0.933100 1 0 1.000000 
0 5.717200 0.000000 5.241400 -0.525995 -0.048700 0.849092 0.500000 -0.923100 1 0 1.000000 
0 5.717200 0.000000 4.675700 -0.999298 0.036400 -0.008800 0.500000 -0.943000 1 0 1.000000 
valvewheel002
0 5.717200 0.000000 5.241400 -0.525995 -0.048700 0.849092 0.500000 -0.923100 1 0 1.000000 
0 4.753600 3.176300 4.675700 -0.917806 -0.391403 -0.066600 0.593700 -0.943200 1 0 1.000000 
0 5.717200 0.000000 4.675700 -0.999298 0.036400 -0.008800 0.500000 -0.943000 1 0 1.000000 
valvewheel002
0 5.717200 0.000000 5.241400 -0.525995 -0.048700 0.849092 0.500000 -0.923100 1 0 1.000000 
0 5.282000 2.187900 5.241400 -0.426803 -0.228101 0.875105 0.562500 -0.923200 1 0 1.000000 
0 4.753600 3.176300 4.675700 -0.917806 -0.391403 -0.066600 0.593700 -0.943200 1 0 1.000000 
valvewheel002
0 5.282000 2.187900 5.241400 -0.426803 -0.228101 0.875105 0.562500 -0.923200 1 0 1.000000 
0 3.176300 4.753600 4.675700 -0.538280 -0.750972 -0.382486 0.656200 -0.943400 1 0 1.000000 
0 4.753600 3.176300 4.675700 -0.917806 -0.391403 -0.066600 0.593700 -0.943200 1 0 1.000000 
valvewheel002
0 -5.492400 -1.092500 4.958600 0.916518 0.351007 -0.191804 0.031300 -0.934800 1 0 1.000000 
0 -4.753600 -3.176300 4.675700 0.866185 0.482492 -0.130098 0.093800 -0.944600 1 0 1.000000 
0 -5.607300 -1.115400 4.675700 0.855938 0.354516 -0.376417 0.031300 -0.944800 1 0 1.000000 
valvewheel002
0 -5.492400 -1.092500 4.958600 0.916518 0.351007 -0.191804 0.031300 -0.934800 1 0 1.000000 
0 -4.753600 -3.176300 5.241400 0.561591 0.416593 0.714888 0.093700 -0.924700 1 0 1.000000 
0 -4.753600 -3.176300 4.675700 0.866185 0.482492 -0.130098 0.093800 -0.944600 1 0 1.000000 
valvewheel002
0 -4.753600 -3.176300 5.241400 0.561591 0.416593 0.714888 0.093700 -0.924700 1 0 1.000000 
0 -3.176300 -4.753600 4.675700 0.609382 0.792877 0.000000 0.156300 -0.944400 1 0 1.000000 
0 -4.753600 -3.176300 4.675700 0.866185 0.482492 -0.130098 0.093800 -0.944600 1 0 1.000000 
valvewheel002
0 -4.753600 -3.176300 5.241400 0.561591 0.416593 0.714888 0.093700 -0.924700 1 0 1.000000 
0 -3.176300 -4.753600 5.241400 0.350006 0.607310 0.713211 0.156200 -0.924500 1 0 1.000000 
0 -3.176300 -4.753600 4.675700 0.609382 0.792877 0.000000 0.156300 -0.944400 1 0 1.000000 
valvewheel002
0 -3.176300 -4.753600 5.241400 0.350006 0.607310 0.713211 0.156200 -0.924500 1 0 1.000000 
0 -1.115400 -5.607300 4.675700 0.259604 0.965715 0.000000 0.218800 -0.944100 1 0 1.000000 
0 -3.176300 -4.753600 4.675700 0.609382 0.792877 0.000000 0.156300 -0.944400 1 0 1.000000 
valvewheel002
0 -3.176300 -4.753600 5.241400 0.350006 0.607310 0.713211 0.156200 -0.924500 1 0 1.000000 
0 -1.115400 -5.607300 5.241400 0.090995 0.695065 0.713165 0.218700 -0.924200 1 0 1.000000 
0 -1.115400 -5.607300 4.675700 0.259604 0.965715 0.000000 0.218800 -0.944100 1 0 1.000000 
valvewheel002
0 -1.115400 -5.607300 5.241400 0.090995 0.695065 0.713165 0.218700 -0.924200 1 0 1.000000 
0 1.115400 -5.607300 4.675700 -0.129805 0.991539 0.000000 0.281300 -0.943700 1 0 1.000000 
0 -1.115400 -5.607300 4.675700 0.259604 0.965715 0.000000 0.218800 -0.944100 1 0 1.000000 
valvewheel002
0 -1.115400 -5.607300 5.241400 0.090995 0.695065 0.713165 0.218700 -0.924200 1 0 1.000000 
0 1.115400 -5.607300 5.241400 -0.181894 0.676976 0.713175 0.281200 -0.923800 1 0 1.000000 
0 1.115400 -5.607300 4.675700 -0.129805 0.991539 0.000000 0.281300 -0.943700 1 0 1.000000 
valvewheel002
0 1.115400 -5.607300 5.241400 -0.181894 0.676976 0.713175 0.281200 -0.923800 1 0 1.000000 
0 3.176300 -4.753600 4.675700 -0.526795 0.849992 0.000000 0.343800 -0.943400 1 0 1.000000 
0 1.115400 -5.607300 4.675700 -0.129805 0.991539 0.000000 0.281300 -0.943700 1 0 1.000000 
valvewheel002
0 1.115400 -5.607300 5.241400 -0.181894 0.676976 0.713175 0.281200 -0.923800 1 0 1.000000 
0 3.176300 -4.753600 5.241400 -0.323497 0.436196 0.839692 0.343700 -0.923500 1 0 1.000000 
0 3.176300 -4.753600 4.675700 -0.526795 0.849992 0.000000 0.343800 -0.943400 1 0 1.000000 
valvewheel002
0 3.176300 -4.753600 5.241400 -0.323497 0.436196 0.839692 0.343700 -0.923500 1 0 1.000000 
0 5.282000 -2.187900 4.675700 -0.903876 0.427588 -0.013300 0.437500 -0.943100 1 0 1.000000 
0 3.176300 -4.753600 4.675700 -0.526795 0.849992 0.000000 0.343800 -0.943400 1 0 1.000000 
valvewheel002
0 -0.815800 -0.265100 3.000000 -0.906229 -0.419914 0.049202 0.600700 -0.993200 1 0 1.000000 
0 0.000000 -0.857700 4.100000 -0.698060 -0.702360 0.139292 0.675600 -0.884700 1 0 1.000000 
0 -0.815800 0.265100 4.100000 -0.986204 -0.149101 0.071900 0.563100 -0.885000 1 0 1.000000 
valvewheel002
0 -0.815800 -0.265100 3.000000 -0.906229 -0.419914 0.049202 0.600700 -0.993200 1 0 1.000000 
0 0.000000 -0.857700 3.000000 -0.587803 -0.809004 0.000000 0.676000 -0.992800 1 0 1.000000 
0 0.000000 -0.857700 4.100000 -0.698060 -0.702360 0.139292 0.675600 -0.884700 1 0 1.000000 
valvewheel002
0 -6.282800 -0.000000 4.675700 -0.744517 0.063101 -0.664615 0.000000 -0.944900 1 0 1.000000 
0 -6.162100 -1.225700 5.241400 -0.911627 -0.150404 0.382511 0.031200 -0.924900 1 0 1.000000 
0 -6.162100 1.225700 5.241400 -0.953637 0.163906 0.252410 0.000000 -0.925000 1 0 1.000000 
valvewheel002
0 -6.282800 -0.000000 4.675700 -0.744517 0.063101 -0.664615 0.000000 -0.944900 1 0 1.000000 
0 -6.277000 -1.248600 4.958600 -0.899798 -0.209900 0.382499 0.031300 -0.934900 1 0 1.000000 
0 -6.162100 -1.225700 5.241400 -0.911627 -0.150404 0.382511 0.031200 -0.924900 1 0 1.000000 
valvewheel002
0 -6.277000 -1.248600 4.958600 -0.899798 -0.209900 0.382499 0.031300 -0.934900 1 0 1.000000 
0 -5.224000 -3.490600 5.241400 -0.858211 -0.512907 -0.020000 0.093700 -0.924800 1 0 1.000000 
0 -6.162100 -1.225700 5.241400 -0.911627 -0.150404 0.382511 0.031200 -0.924900 1 0 1.000000 
valvewheel002
0 -5.224000 -3.490600 5.241400 -0.858211 -0.512907 -0.020000 0.093700 -0.924800 1 0 1.000000 
0 -3.555700 -5.321400 4.958600 -0.575532 -0.813846 0.080105 0.156300 -0.934500 1 0 1.000000 
0 -4.442600 -4.442600 5.241400 -0.674540 -0.725243 0.137908 0.125000 -0.924700 1 0 1.000000 
valvewheel002
0 -3.555700 -5.321400 4.958600 -0.575532 -0.813846 0.080105 0.156300 -0.934500 1 0 1.000000 
0 -2.404300 -5.804600 5.241400 -0.381388 -0.841573 0.382488 0.187500 -0.924400 1 0 1.000000 
0 -4.442600 -4.442600 5.241400 -0.674540 -0.725243 0.137908 0.125000 -0.924700 1 0 1.000000 
valvewheel002
0 -3.555700 -5.321400 4.958600 -0.575532 -0.813846 0.080105 0.156300 -0.934500 1 0 1.000000 
0 -1.248600 -6.277000 4.958600 -0.150404 -0.911627 0.382511 0.218800 -0.934100 1 0 1.000000 
0 -2.404300 -5.804600 5.241400 -0.381388 -0.841573 0.382488 0.187500 -0.924400 1 0 1.000000 
valvewheel002
0 -1.248600 -6.277000 4.958600 -0.150404 -0.911627 0.382511 0.218800 -0.934100 1 0 1.000000 
0 0.000000 -6.282800 5.241400 0.000000 -0.852396 0.522897 0.250000 -0.924000 1 0 1.000000 
0 -2.404300 -5.804600 5.241400 -0.381388 -0.841573 0.382488 0.187500 -0.924400 1 0 1.000000 
valvewheel002
0 -1.248600 -6.277000 4.958600 -0.150404 -0.911627 0.382511 0.218800 -0.934100 1 0 1.000000 
0 0.000000 -6.400000 4.958600 0.030299 -0.923465 0.382485 0.250000 -0.933900 1 0 1.000000 
0 0.000000 -6.282800 5.241400 0.000000 -0.852396 0.522897 0.250000 -0.924000 1 0 1.000000 
valvewheel002
0 0.000000 -6.400000 4.958600 0.030299 -0.923465 0.382485 0.250000 -0.933900 1 0 1.000000 
0 2.404300 -5.804600 5.241400 0.325389 -0.864769 0.382486 0.312500 -0.923600 1 0 1.000000 
0 0.000000 -6.282800 5.241400 0.000000 -0.852396 0.522897 0.250000 -0.924000 1 0 1.000000 
valvewheel002
0 0.000000 -6.400000 4.958600 0.030299 -0.923465 0.382485 0.250000 -0.933900 1 0 1.000000 
0 2.449200 -5.912800 4.958600 0.381388 -0.841573 0.382488 0.312500 -0.933600 1 0 1.000000 
0 2.404300 -5.804600 5.241400 0.325389 -0.864769 0.382486 0.312500 -0.923600 1 0 1.000000 
valvewheel002
0 2.449200 -5.912800 4.958600 0.381388 -0.841573 0.382488 0.312500 -0.933600 1 0 1.000000 
0 4.442600 -4.442600 5.241400 0.670520 -0.741622 -0.020001 0.375000 -0.923300 1 0 1.000000 
0 2.404300 -5.804600 5.241400 0.325389 -0.864769 0.382486 0.312500 -0.923600 1 0 1.000000 
valvewheel002
0 4.442600 -4.442600 5.241400 0.670520 -0.741622 -0.020001 0.375000 -0.923300 1 0 1.000000 
0 5.912800 -2.449200 4.958600 0.842900 -0.520100 0.137900 0.437500 -0.933000 1 0 1.000000 
0 5.224000 -3.490600 5.241400 0.842900 -0.520100 0.137900 0.406200 -0.923200 1 0 1.000000 
valvewheel002
0 5.912800 -2.449200 4.958600 0.842900 -0.520100 0.137900 0.437500 -0.933000 1 0 1.000000 
0 6.162100 -1.225700 5.241400 0.707054 -0.292881 0.643658 0.468700 -0.923100 1 0 1.000000 
0 5.224000 -3.490600 5.241400 0.842900 -0.520100 0.137900 0.406200 -0.923200 1 0 1.000000 
valvewheel002
0 -4.753600 3.176300 5.241400 0.859737 -0.504621 0.078803 0.906300 -0.924700 1 0 1.000000 
0 -5.282000 2.187900 4.675700 0.671608 -0.269103 -0.690308 0.937500 -0.944700 1 0 1.000000 
0 -3.176300 4.753600 5.241400 0.612957 -0.612957 0.498565 0.843800 -0.924500 1 0 1.000000 
valvewheel002
0 -4.753600 3.176300 5.241400 0.859737 -0.504621 0.078803 0.906300 -0.924700 1 0 1.000000 
0 -5.717200 -0.000000 5.241400 0.979290 0.051900 -0.195698 1.000000 -0.924900 1 0 1.000000 
0 -5.282000 2.187900 4.675700 0.671608 -0.269103 -0.690308 0.937500 -0.944700 1 0 1.000000 
valvewheel002
0 -5.717200 -0.000000 5.241400 0.979290 0.051900 -0.195698 1.000000 -0.924900 1 0 1.000000 
0 -5.607300 -1.115400 4.675700 0.410115 0.042702 -0.911033 1.000000 -0.944800 1 0 1.000000 
0 -5.282000 2.187900 4.675700 0.671608 -0.269103 -0.690308 0.937500 -0.944700 1 0 1.000000 
valvewheel002
0 -0.774300 -1.065800 3.400000 -0.809004 -0.587803 0.000000 0.616300 -0.949400 1 0 1.000000 
0 -0.774300 -1.065800 3.800000 -0.809004 -0.587803 0.000000 0.616300 -0.922100 1 0 1.000000 
0 -1.252900 -0.407100 3.800000 -0.809004 -0.587803 0.000000 0.576300 -0.921900 1 0 1.000000 
valvewheel002
0 4.753600 -3.176300 5.241400 -0.899083 0.430792 -0.077899 0.406200 -0.923300 1 0 1.000000 
0 5.282000 -2.187900 4.675700 -0.448123 0.261913 -0.854744 0.437500 -0.943100 1 0 1.000000 
0 3.176300 -4.753600 5.241400 -0.612957 0.612957 0.498565 0.343700 -0.923500 1 0 1.000000 
valvewheel002
0 4.753600 -3.176300 5.241400 -0.899083 0.430792 -0.077899 0.406200 -0.923300 1 0 1.000000 
0 5.492400 -1.092500 4.958600 -0.895785 0.269595 -0.353394 0.468800 -0.933100 1 0 1.000000 
0 5.282000 -2.187900 4.675700 -0.448123 0.261913 -0.854744 0.437500 -0.943100 1 0 1.000000 
valvewheel002
0 4.753600 -3.176300 5.241400 -0.899083 0.430792 -0.077899 0.406200 -0.923300 1 0 1.000000 
0 5.717200 0.000000 5.241400 -0.900120 0.273106 -0.339407 0.500000 -0.923100 1 0 1.000000 
0 5.492400 -1.092500 4.958600 -0.895785 0.269595 -0.353394 0.468800 -0.933100 1 0 1.000000 
valvewheel002
0 2.449200 5.912800 4.958600 0.325388 0.864769 0.382486 0.687500 -0.933600 1 0 1.000000 
0 1.225700 6.162100 5.241400 0.180205 0.906123 0.382710 0.718800 -0.923800 1 0 1.000000 
0 3.490600 5.224000 5.241400 0.394094 0.561391 0.727688 0.656300 -0.923500 1 0 1.000000 
valvewheel002
0 2.449200 5.912800 4.958600 0.325388 0.864769 0.382486 0.687500 -0.933600 1 0 1.000000 
0 1.225700 6.162100 4.675700 0.108198 0.543991 -0.832086 0.718700 -0.943700 1 0 1.000000 
0 1.225700 6.162100 5.241400 0.180205 0.906123 0.382710 0.718800 -0.923800 1 0 1.000000 
valvewheel002
0 -0.000000 6.400000 4.958600 -0.001600 0.974886 0.222697 0.750000 -0.933900 1 0 1.000000 
0 1.225700 6.162100 5.241400 0.180205 0.906123 0.382710 0.718800 -0.923800 1 0 1.000000 
0 1.225700 6.162100 4.675700 0.108198 0.543991 -0.832086 0.718700 -0.943700 1 0 1.000000 
valvewheel002
0 -0.000000 6.400000 4.958600 -0.001600 0.974886 0.222697 0.750000 -0.933900 1 0 1.000000 
0 -1.225700 6.162100 5.241400 -0.150404 0.911627 0.382511 0.781300 -0.924200 1 0 1.000000 
0 1.225700 6.162100 5.241400 0.180205 0.906123 0.382710 0.718800 -0.923800 1 0 1.000000 
valvewheel002
0 -0.000000 6.400000 4.958600 -0.001600 0.974886 0.222697 0.750000 -0.933900 1 0 1.000000 
0 -2.449200 5.912800 4.958600 -0.373699 0.902097 0.215799 0.812500 -0.934300 1 0 1.000000 
0 -1.225700 6.162100 5.241400 -0.150404 0.911627 0.382511 0.781300 -0.924200 1 0 1.000000 
valvewheel002
0 -2.449200 5.912800 4.958600 -0.373699 0.902097 0.215799 0.812500 -0.934300 1 0 1.000000 
0 -3.490600 5.224000 5.241400 -0.487798 0.784696 0.382498 0.843800 -0.924500 1 0 1.000000 
0 -1.225700 6.162100 5.241400 -0.150404 0.911627 0.382511 0.781300 -0.924200 1 0 1.000000 
valvewheel002
0 -2.449200 5.912800 4.958600 -0.373699 0.902097 0.215799 0.812500 -0.934300 1 0 1.000000 
0 -4.525500 4.525500 4.958600 -0.690444 0.690443 0.215814 0.875000 -0.934600 1 0 1.000000 
0 -3.490600 5.224000 5.241400 -0.487798 0.784696 0.382498 0.843800 -0.924500 1 0 1.000000 
valvewheel002
0 -4.525500 4.525500 4.958600 -0.690444 0.690443 0.215814 0.875000 -0.934600 1 0 1.000000 
0 -5.224000 3.490600 5.241400 -0.750972 0.538280 0.382486 0.906300 -0.924800 1 0 1.000000 
0 -3.490600 5.224000 5.241400 -0.487798 0.784696 0.382498 0.843800 -0.924500 1 0 1.000000 
valvewheel002
0 -4.525500 4.525500 4.958600 -0.690444 0.690443 0.215814 0.875000 -0.934600 1 0 1.000000 
0 -5.912800 2.449200 4.958600 -0.913621 0.368109 0.172604 0.937500 -0.934900 1 0 1.000000 
0 -5.224000 3.490600 5.241400 -0.750972 0.538280 0.382486 0.906300 -0.924800 1 0 1.000000 
valvewheel002
0 -5.912800 2.449200 4.958600 -0.913621 0.368109 0.172604 0.937500 -0.934900 1 0 1.000000 
0 -6.162100 1.225700 5.241400 -0.953637 0.163906 0.252410 0.968800 -0.924900 1 0 1.000000 
0 -5.224000 3.490600 5.241400 -0.750972 0.538280 0.382486 0.906300 -0.924800 1 0 1.000000 
valvewheel002
0 -5.912800 2.449200 4.958600 -0.913621 0.368109 0.172604 0.937500 -0.934900 1 0 1.000000 
0 -6.282800 -0.000000 4.675700 -0.744517 0.063101 -0.664615 1.000000 -0.944900 1 0 1.000000 
0 -6.162100 1.225700 5.241400 -0.953637 0.163906 0.252410 0.968800 -0.924900 1 0 1.000000 
valvewheel002
0 4.525500 4.525500 4.958600 0.480120 0.394016 0.783732 0.625000 -0.933300 1 0 1.000000 
0 3.490600 5.224000 5.241400 0.394094 0.561391 0.727688 0.656300 -0.923500 1 0 1.000000 
0 5.804600 2.404300 5.241400 0.787505 0.326202 0.522903 0.562500 -0.923100 1 0 1.000000 
valvewheel002
0 6.162100 1.225700 4.675700 0.470000 0.093500 -0.877700 0.531200 -0.942900 1 0 1.000000 
0 5.804600 2.404300 5.241400 0.787505 0.326202 0.522903 0.562500 -0.923100 1 0 1.000000 
0 6.282800 0.000000 5.241400 0.959188 0.190798 0.208697 0.500000 -0.923000 1 0 1.000000 
valvewheel002
0 1.252900 0.407100 3.400000 1.000000 0.000000 0.000000 0.776400 -0.949000 1 0 1.000000 
0 1.252900 0.407100 3.800000 1.000000 0.000000 0.000000 0.776300 -0.921700 1 0 1.000000 
0 1.252900 -0.407100 3.800000 1.000000 0.000000 0.000000 0.736300 -0.921900 1 0 1.000000 
valvewheel002
0 3.176300 -4.753600 4.675700 0.000000 0.000000 -1.000000 0.060200 -0.752800 1 0 1.000000 
0 5.804600 -2.404300 4.675700 0.000000 0.000000 -1.000000 0.154200 -0.961900 1 0 1.000000 
0 4.442600 -4.442600 4.675700 0.000000 0.000000 -1.000000 0.072700 -0.853600 1 0 1.000000 
valvewheel002
0 3.176300 -4.753600 4.675700 0.000000 0.000000 -1.000000 0.060200 -0.752800 1 0 1.000000 
0 5.282000 -2.187900 4.675700 -0.448123 0.261913 -0.854744 0.162900 -0.920300 1 0 1.000000 
0 5.804600 -2.404300 4.675700 0.000000 0.000000 -1.000000 0.154200 -0.961900 1 0 1.000000 
valvewheel002
0 6.282800 0.000000 4.675700 0.000000 0.000000 -1.000000 0.250400 -1.000000 1 0 1.000000 
0 5.804600 -2.404300 4.675700 0.000000 0.000000 -1.000000 0.154200 -0.961900 1 0 1.000000 
0 5.282000 -2.187900 4.675700 -0.448123 0.261913 -0.854744 0.162900 -0.920300 1 0 1.000000 
valvewheel002
0 6.282800 0.000000 4.675700 0.000000 0.000000 -1.000000 0.250400 -1.000000 1 0 1.000000 
0 5.282000 -2.187900 4.675700 -0.448123 0.261913 -0.854744 0.162900 -0.920300 1 0 1.000000 
0 5.717200 0.000000 4.675700 0.000000 0.000000 -1.000000 0.250400 -0.955000 1 0 1.000000 
valvewheel002
0 6.162100 1.225700 4.675700 0.470000 0.093500 -0.877700 0.299500 -0.990400 1 0 1.000000 
0 6.282800 0.000000 4.675700 0.000000 0.000000 -1.000000 0.250400 -1.000000 1 0 1.000000 
0 5.717200 0.000000 4.675700 0.000000 0.000000 -1.000000 0.250400 -0.955000 1 0 1.000000 
valvewheel002
0 5.224000 3.490600 4.675700 0.000000 0.000000 -1.000000 0.390100 -0.915700 1 0 1.000000 
0 6.162100 1.225700 4.675700 0.470000 0.093500 -0.877700 0.299500 -0.990400 1 0 1.000000 
0 5.717200 0.000000 4.675700 0.000000 0.000000 -1.000000 0.250400 -0.955000 1 0 1.000000 
valvewheel002
0 5.224000 3.490600 4.675700 0.000000 0.000000 -1.000000 0.390100 -0.915700 1 0 1.000000 
0 5.717200 0.000000 4.675700 0.000000 0.000000 -1.000000 0.250400 -0.955000 1 0 1.000000 
0 4.753600 3.176300 4.675700 0.000000 0.000000 -1.000000 0.377500 -0.878300 1 0 1.000000 
valvewheel002
0 3.490600 5.224000 4.675700 0.000000 0.000000 -1.000000 0.459500 -0.777800 1 0 1.000000 
0 5.224000 3.490600 4.675700 0.000000 0.000000 -1.000000 0.390100 -0.915700 1 0 1.000000 
0 4.753600 3.176300 4.675700 0.000000 0.000000 -1.000000 0.377500 -0.878300 1 0 1.000000 
valvewheel002
0 4.753600 3.176300 4.675700 0.000000 0.000000 -1.000000 0.377500 -0.878300 1 0 1.000000 
0 3.176300 4.753600 4.675700 -0.270311 -0.187507 -0.944337 0.440600 -0.752800 1 0 1.000000 
0 3.490600 5.224000 4.675700 0.000000 0.000000 -1.000000 0.459500 -0.777800 1 0 1.000000 
valvewheel002
0 3.176300 4.753600 4.675700 -0.270311 -0.187507 -0.944337 0.440600 -0.752800 1 0 1.000000 
0 1.225700 6.162100 4.675700 0.108198 0.543991 -0.832086 0.497000 -0.597500 1 0 1.000000 
0 3.490600 5.224000 4.675700 0.000000 0.000000 -1.000000 0.459500 -0.777800 1 0 1.000000 
valvewheel002
0 3.176300 4.753600 4.675700 -0.270311 -0.187507 -0.944337 0.440600 -0.752800 1 0 1.000000 
0 2.187900 5.282000 4.675700 0.000000 0.000000 -1.000000 0.461800 -0.674100 1 0 1.000000 
0 1.225700 6.162100 4.675700 0.108198 0.543991 -0.832086 0.497000 -0.597500 1 0 1.000000 
valvewheel002
0 2.187900 5.282000 4.675700 0.000000 0.000000 -1.000000 0.461800 -0.674100 1 0 1.000000 
0 -0.000000 6.282800 4.675700 0.000000 0.000000 -1.000000 0.501800 -0.500000 1 0 1.000000 
0 1.225700 6.162100 4.675700 0.108198 0.543991 -0.832086 0.497000 -0.597500 1 0 1.000000 
valvewheel002
0 2.187900 5.282000 4.675700 0.000000 0.000000 -1.000000 0.461800 -0.674100 1 0 1.000000 
0 -1.115400 5.607300 4.675700 0.000000 0.000000 -1.000000 0.474800 -0.411200 1 0 1.000000 
0 -0.000000 6.282800 4.675700 0.000000 0.000000 -1.000000 0.501800 -0.500000 1 0 1.000000 
valvewheel002
0 -1.115400 5.607300 4.675700 0.000000 0.000000 -1.000000 0.474800 -0.411200 1 0 1.000000 
0 -3.490600 5.224000 4.675700 0.000000 0.000000 -1.000000 0.459500 -0.222200 1 0 1.000000 
0 -0.000000 6.282800 4.675700 0.000000 0.000000 -1.000000 0.501800 -0.500000 1 0 1.000000 
valvewheel002
0 -1.115400 5.607300 4.675700 0.000000 0.000000 -1.000000 0.474800 -0.411200 1 0 1.000000 
0 -3.176300 4.753600 4.675700 0.095299 -0.319195 -0.942885 0.440600 -0.247200 1 0 1.000000 
0 -3.490600 5.224000 4.675700 0.000000 0.000000 -1.000000 0.459500 -0.222200 1 0 1.000000 
valvewheel002
0 -3.176300 4.753600 4.675700 0.095299 -0.319195 -0.942885 0.440600 -0.247200 1 0 1.000000 
0 -5.224000 3.490600 4.675700 0.000000 0.000000 -1.000000 0.390100 -0.084300 1 0 1.000000 
0 -3.490600 5.224000 4.675700 0.000000 0.000000 -1.000000 0.459500 -0.222200 1 0 1.000000 
valvewheel002
0 -3.176300 4.753600 4.675700 0.095299 -0.319195 -0.942885 0.440600 -0.247200 1 0 1.000000 
0 -4.042600 4.042600 4.675700 0.000000 0.000000 -1.000000 0.412200 -0.178300 1 0 1.000000 
0 -5.224000 3.490600 4.675700 0.000000 0.000000 -1.000000 0.390100 -0.084300 1 0 1.000000 
valvewheel002
0 -4.042600 4.042600 4.675700 0.000000 0.000000 -1.000000 0.412200 -0.178300 1 0 1.000000 
0 -6.162100 1.225700 4.675700 0.000000 0.000000 -1.000000 0.299500 -0.009600 1 0 1.000000 
0 -5.224000 3.490600 4.675700 0.000000 0.000000 -1.000000 0.390100 -0.084300 1 0 1.000000 
valvewheel002
0 -4.042600 4.042600 4.675700 0.000000 0.000000 -1.000000 0.412200 -0.178300 1 0 1.000000 
0 -5.282000 2.187900 4.675700 0.671608 -0.269103 -0.690308 0.338000 -0.079700 1 0 1.000000 
0 -6.162100 1.225700 4.675700 0.000000 0.000000 -1.000000 0.299500 -0.009600 1 0 1.000000 
valvewheel002
0 -5.282000 2.187900 4.675700 0.671608 -0.269103 -0.690308 0.338000 -0.079700 1 0 1.000000 
0 -6.282800 -0.000000 4.675700 -0.744517 0.063101 -0.664615 0.250400 -0.000000 1 0 1.000000 
0 -6.162100 1.225700 4.675700 0.000000 0.000000 -1.000000 0.299500 -0.009600 1 0 1.000000 
valvewheel002
0 -5.282000 2.187900 4.675700 0.671608 -0.269103 -0.690308 0.338000 -0.079700 1 0 1.000000 
0 -5.607300 -1.115400 4.675700 0.410115 0.042702 -0.911033 0.205800 -0.053800 1 0 1.000000 
0 -6.282800 -0.000000 4.675700 -0.744517 0.063101 -0.664615 0.250400 -0.000000 1 0 1.000000 
valvewheel002
0 -5.607300 -1.115400 4.675700 0.410115 0.042702 -0.911033 0.205800 -0.053800 1 0 1.000000 
0 -5.804600 -2.404300 4.675700 0.000000 0.000000 -1.000000 0.154200 -0.038100 1 0 1.000000 
0 -6.282800 -0.000000 4.675700 -0.744517 0.063101 -0.664615 0.250400 -0.000000 1 0 1.000000 
valvewheel002
0 -5.607300 -1.115400 4.675700 0.410115 0.042702 -0.911033 0.205800 -0.053800 1 0 1.000000 
0 -4.442600 -4.442600 4.675700 0.000000 0.000000 -1.000000 0.072700 -0.146400 1 0 1.000000 
0 -5.804600 -2.404300 4.675700 0.000000 0.000000 -1.000000 0.154200 -0.038100 1 0 1.000000 
valvewheel002
0 -5.607300 -1.115400 4.675700 0.410115 0.042702 -0.911033 0.205800 -0.053800 1 0 1.000000 
0 -4.753600 -3.176300 4.675700 0.000000 0.000000 -1.000000 0.123400 -0.121700 1 0 1.000000 
0 -4.442600 -4.442600 4.675700 0.000000 0.000000 -1.000000 0.072700 -0.146400 1 0 1.000000 
valvewheel002
0 -4.753600 -3.176300 4.675700 0.000000 0.000000 -1.000000 0.123400 -0.121700 1 0 1.000000 
0 -2.404300 -5.804600 4.675700 0.000000 0.000000 -1.000000 0.018200 -0.308700 1 0 1.000000 
0 -4.442600 -4.442600 4.675700 0.000000 0.000000 -1.000000 0.072700 -0.146400 1 0 1.000000 
valvewheel002
0 -4.753600 -3.176300 4.675700 0.000000 0.000000 -1.000000 0.123400 -0.121700 1 0 1.000000 
0 -3.176300 -4.753600 4.675700 0.000000 0.000000 -1.000000 0.060200 -0.247200 1 0 1.000000 
0 -2.404300 -5.804600 4.675700 0.000000 0.000000 -1.000000 0.018200 -0.308700 1 0 1.000000 
valvewheel002
0 -3.176300 -4.753600 4.675700 0.000000 0.000000 -1.000000 0.060200 -0.247200 1 0 1.000000 
0 0.000000 -6.282800 4.675700 0.000000 0.000000 -1.000000 -0.000900 -0.500000 1 0 1.000000 
0 -2.404300 -5.804600 4.675700 0.000000 0.000000 -1.000000 0.018200 -0.308700 1 0 1.000000 
valvewheel002
0 -3.176300 -4.753600 4.675700 0.000000 0.000000 -1.000000 0.060200 -0.247200 1 0 1.000000 
0 -1.115400 -5.607300 4.675700 0.000000 0.000000 -1.000000 0.026100 -0.411200 1 0 1.000000 
0 0.000000 -6.282800 4.675700 0.000000 0.000000 -1.000000 -0.000900 -0.500000 1 0 1.000000 
valvewheel002
0 -1.115400 -5.607300 4.675700 0.000000 0.000000 -1.000000 0.026100 -0.411200 1 0 1.000000 
0 2.404300 -5.804600 4.675700 0.000000 0.000000 -1.000000 0.018200 -0.691300 1 0 1.000000 
0 0.000000 -6.282800 4.675700 0.000000 0.000000 -1.000000 -0.000900 -0.500000 1 0 1.000000 
valvewheel002
0 -1.115400 -5.607300 4.675700 0.000000 0.000000 -1.000000 0.026100 -0.411200 1 0 1.000000 
0 1.115400 -5.607300 4.675700 0.000000 0.000000 -1.000000 0.026100 -0.588800 1 0 1.000000 
0 2.404300 -5.804600 4.675700 0.000000 0.000000 -1.000000 0.018200 -0.691300 1 0 1.000000 
valvewheel002
0 1.115400 -5.607300 4.675700 0.000000 0.000000 -1.000000 0.026100 -0.588800 1 0 1.000000 
0 4.442600 -4.442600 4.675700 0.000000 0.000000 -1.000000 0.072700 -0.853600 1 0 1.000000 
0 2.404300 -5.804600 4.675700 0.000000 0.000000 -1.000000 0.018200 -0.691300 1 0 1.000000 
valvewheel002
0 1.115400 -5.607300 4.675700 0.000000 0.000000 -1.000000 0.026100 -0.588800 1 0 1.000000 
0 3.176300 -4.753600 4.675700 0.000000 0.000000 -1.000000 0.060200 -0.752800 1 0 1.000000 
0 4.442600 -4.442600 4.675700 0.000000 0.000000 -1.000000 0.072700 -0.853600 1 0 1.000000 
valvewheel002
0 2.187900 5.282000 5.241400 -0.219200 -0.713299 0.665699 0.461800 -0.674100 1 0 1.000000 
0 4.042600 4.042600 5.241400 -0.304390 -0.505784 0.807174 0.412200 -0.821700 1 0 1.000000 
0 3.490600 5.224000 5.241400 0.248508 0.371811 0.894427 0.459500 -0.777800 1 0 1.000000 
valvewheel002
0 4.042600 4.042600 5.241400 -0.304390 -0.505784 0.807174 0.412200 -0.821700 1 0 1.000000 
0 5.804600 2.404300 5.241400 0.492901 0.254601 0.832002 0.346600 -0.961900 1 0 1.000000 
0 3.490600 5.224000 5.241400 0.248508 0.371811 0.894427 0.459500 -0.777800 1 0 1.000000 
valvewheel002
0 4.042600 4.042600 5.241400 -0.304390 -0.505784 0.807174 0.412200 -0.821700 1 0 1.000000 
0 5.282000 2.187900 5.241400 -0.426803 -0.228101 0.875105 0.338000 -0.920300 1 0 1.000000 
0 5.804600 2.404300 5.241400 0.492901 0.254601 0.832002 0.346600 -0.961900 1 0 1.000000 
valvewheel002
0 5.282000 2.187900 5.241400 -0.426803 -0.228101 0.875105 0.338000 -0.920300 1 0 1.000000 
0 6.282800 0.000000 5.241400 0.552806 0.000000 0.833310 0.250400 -1.000000 1 0 1.000000 
0 5.804600 2.404300 5.241400 0.492901 0.254601 0.832002 0.346600 -0.961900 1 0 1.000000 
valvewheel002
0 5.282000 2.187900 5.241400 -0.426803 -0.228101 0.875105 0.338000 -0.920300 1 0 1.000000 
0 5.717200 0.000000 5.241400 -0.525995 -0.048700 0.849092 0.250400 -0.955000 1 0 1.000000 
0 6.282800 0.000000 5.241400 0.552806 0.000000 0.833310 0.250400 -1.000000 1 0 1.000000 
valvewheel002
0 5.717200 0.000000 5.241400 -0.525995 -0.048700 0.849092 0.250400 -0.955000 1 0 1.000000 
0 6.162100 -1.225700 5.241400 0.889994 -0.121099 0.439597 0.201400 -0.990400 1 0 1.000000 
0 6.282800 0.000000 5.241400 0.552806 0.000000 0.833310 0.250400 -1.000000 1 0 1.000000 
valvewheel002
0 5.717200 0.000000 5.241400 -0.525995 -0.048700 0.849092 0.250400 -0.955000 1 0 1.000000 
0 5.224000 -3.490600 5.241400 0.000000 0.000000 1.000000 0.110800 -0.915700 1 0 1.000000 
0 6.162100 -1.225700 5.241400 0.889994 -0.121099 0.439597 0.201400 -0.990400 1 0 1.000000 
valvewheel002
0 5.717200 0.000000 5.241400 -0.525995 -0.048700 0.849092 0.250400 -0.955000 1 0 1.000000 
0 4.753600 -3.176300 5.241400 0.000000 0.000000 1.000000 0.123400 -0.878300 1 0 1.000000 
0 5.224000 -3.490600 5.241400 0.000000 0.000000 1.000000 0.110800 -0.915700 1 0 1.000000 
valvewheel002
0 4.753600 -3.176300 5.241400 0.000000 0.000000 1.000000 0.123400 -0.878300 1 0 1.000000 
0 4.442600 -4.442600 5.241400 0.534178 -0.461681 0.708170 0.072700 -0.853600 1 0 1.000000 
0 5.224000 -3.490600 5.241400 0.000000 0.000000 1.000000 0.110800 -0.915700 1 0 1.000000 
valvewheel002
0 4.753600 -3.176300 5.241400 0.000000 0.000000 1.000000 0.123400 -0.878300 1 0 1.000000 
0 2.404300 -5.804600 5.241400 0.000000 0.000000 1.000000 0.018200 -0.691300 1 0 1.000000 
0 4.442600 -4.442600 5.241400 0.534178 -0.461681 0.708170 0.072700 -0.853600 1 0 1.000000 
valvewheel002
0 4.753600 -3.176300 5.241400 0.000000 0.000000 1.000000 0.123400 -0.878300 1 0 1.000000 
0 3.176300 -4.753600 5.241400 -0.323497 0.436196 0.839692 0.060200 -0.752800 1 0 1.000000 
0 2.404300 -5.804600 5.241400 0.000000 0.000000 1.000000 0.018200 -0.691300 1 0 1.000000 
valvewheel002
0 3.176300 -4.753600 5.241400 -0.323497 0.436196 0.839692 0.060200 -0.752800 1 0 1.000000 
0 0.000000 -6.282800 5.241400 0.000000 0.000000 1.000000 -0.000900 -0.500000 1 0 1.000000 
0 2.404300 -5.804600 5.241400 0.000000 0.000000 1.000000 0.018200 -0.691300 1 0 1.000000 
valvewheel002
0 3.176300 -4.753600 5.241400 -0.323497 0.436196 0.839692 0.060200 -0.752800 1 0 1.000000 
0 1.115400 -5.607300 5.241400 -0.181894 0.676976 0.713175 0.026100 -0.588800 1 0 1.000000 
0 0.000000 -6.282800 5.241400 0.000000 0.000000 1.000000 -0.000900 -0.500000 1 0 1.000000 
valvewheel002
0 1.115400 -5.607300 5.241400 -0.181894 0.676976 0.713175 0.026100 -0.588800 1 0 1.000000 
0 -2.404300 -5.804600 5.241400 0.000000 0.000000 1.000000 0.018200 -0.308700 1 0 1.000000 
0 0.000000 -6.282800 5.241400 0.000000 0.000000 1.000000 -0.000900 -0.500000 1 0 1.000000 
valvewheel002
0 1.115400 -5.607300 5.241400 -0.181894 0.676976 0.713175 0.026100 -0.588800 1 0 1.000000 
0 -1.115400 -5.607300 5.241400 0.090995 0.695065 0.713165 0.026100 -0.411200 1 0 1.000000 
0 -2.404300 -5.804600 5.241400 0.000000 0.000000 1.000000 0.018200 -0.308700 1 0 1.000000 
valvewheel002
0 -1.115400 -5.607300 5.241400 0.090995 0.695065 0.713165 0.026100 -0.411200 1 0 1.000000 
0 -4.442600 -4.442600 5.241400 0.000000 0.000000 1.000000 0.072700 -0.146400 1 0 1.000000 
0 -2.404300 -5.804600 5.241400 0.000000 0.000000 1.000000 0.018200 -0.308700 1 0 1.000000 
valvewheel002
0 -1.115400 -5.607300 5.241400 0.090995 0.695065 0.713165 0.026100 -0.411200 1 0 1.000000 
0 -3.176300 -4.753600 5.241400 0.350006 0.607310 0.713211 0.060200 -0.247200 1 0 1.000000 
0 -4.442600 -4.442600 5.241400 0.000000 0.000000 1.000000 0.072700 -0.146400 1 0 1.000000 
valvewheel002
0 -3.176300 -4.753600 5.241400 0.350006 0.607310 0.713211 0.060200 -0.247200 1 0 1.000000 
0 -5.224000 -3.490600 5.241400 -0.572182 -0.382288 0.725578 0.110800 -0.084300 1 0 1.000000 
0 -4.442600 -4.442600 5.241400 0.000000 0.000000 1.000000 0.072700 -0.146400 1 0 1.000000 
valvewheel002
0 -3.176300 -4.753600 5.241400 0.350006 0.607310 0.713211 0.060200 -0.247200 1 0 1.000000 
0 -4.753600 -3.176300 5.241400 0.561591 0.416593 0.714888 0.123400 -0.121700 1 0 1.000000 
0 -5.224000 -3.490600 5.241400 -0.572182 -0.382288 0.725578 0.110800 -0.084300 1 0 1.000000 
valvewheel002
0 -4.753600 -3.176300 5.241400 0.561591 0.416593 0.714888 0.123400 -0.121700 1 0 1.000000 
0 -6.162100 -1.225700 5.241400 0.000000 0.000000 1.000000 0.201400 -0.009600 1 0 1.000000 
0 -5.224000 -3.490600 5.241400 -0.572182 -0.382288 0.725578 0.110800 -0.084300 1 0 1.000000 
valvewheel002
0 -4.753600 -3.176300 5.241400 0.561591 0.416593 0.714888 0.123400 -0.121700 1 0 1.000000 
0 -5.717200 -0.000000 5.241400 0.000000 0.000000 1.000000 0.250400 -0.045000 1 0 1.000000 
0 -6.162100 -1.225700 5.241400 0.000000 0.000000 1.000000 0.201400 -0.009600 1 0 1.000000 
valvewheel002
0 -5.717200 -0.000000 5.241400 0.000000 0.000000 1.000000 0.250400 -0.045000 1 0 1.000000 
0 -6.162100 1.225700 5.241400 0.000000 0.000000 1.000000 0.299500 -0.009600 1 0 1.000000 
0 -6.162100 -1.225700 5.241400 0.000000 0.000000 1.000000 0.201400 -0.009600 1 0 1.000000 
valvewheel002
0 -5.717200 -0.000000 5.241400 0.000000 0.000000 1.000000 0.250400 -0.045000 1 0 1.000000 
0 -5.224000 3.490600 5.241400 0.000000 0.000000 1.000000 0.390100 -0.084300 1 0 1.000000 
0 -6.162100 1.225700 5.241400 0.000000 0.000000 1.000000 0.299500 -0.009600 1 0 1.000000 
valvewheel002
0 -5.717200 -0.000000 5.241400 0.000000 0.000000 1.000000 0.250400 -0.045000 1 0 1.000000 
0 -4.753600 3.176300 5.241400 0.000000 0.000000 1.000000 0.377500 -0.121700 1 0 1.000000 
0 -5.224000 3.490600 5.241400 0.000000 0.000000 1.000000 0.390100 -0.084300 1 0 1.000000 
valvewheel002
0 -4.753600 3.176300 5.241400 0.000000 0.000000 1.000000 0.377500 -0.121700 1 0 1.000000 
0 -3.490600 5.224000 5.241400 0.000000 0.000000 1.000000 0.459500 -0.222200 1 0 1.000000 
0 -5.224000 3.490600 5.241400 0.000000 0.000000 1.000000 0.390100 -0.084300 1 0 1.000000 
valvewheel002
0 -4.753600 3.176300 5.241400 0.000000 0.000000 1.000000 0.377500 -0.121700 1 0 1.000000 
0 -3.176300 4.753600 5.241400 0.346204 -0.389004 0.853709 0.440600 -0.247200 1 0 1.000000 
0 -3.490600 5.224000 5.241400 0.000000 0.000000 1.000000 0.459500 -0.222200 1 0 1.000000 
valvewheel002
0 -3.176300 4.753600 5.241400 0.346204 -0.389004 0.853709 0.440600 -0.247200 1 0 1.000000 
0 -1.225700 6.162100 5.241400 0.000000 0.000000 1.000000 0.497000 -0.402500 1 0 1.000000 
0 -3.490600 5.224000 5.241400 0.000000 0.000000 1.000000 0.459500 -0.222200 1 0 1.000000 
valvewheel002
0 -3.176300 4.753600 5.241400 0.346204 -0.389004 0.853709 0.440600 -0.247200 1 0 1.000000 
0 -2.187900 5.282000 5.241400 0.292413 -0.437519 0.850336 0.461800 -0.325900 1 0 1.000000 
0 -1.225700 6.162100 5.241400 0.000000 0.000000 1.000000 0.497000 -0.402500 1 0 1.000000 
valvewheel002
0 -2.187900 5.282000 5.241400 0.292413 -0.437519 0.850336 0.461800 -0.325900 1 0 1.000000 
0 1.225700 6.162100 5.241400 0.000000 0.000000 1.000000 0.497000 -0.597500 1 0 1.000000 
0 -1.225700 6.162100 5.241400 0.000000 0.000000 1.000000 0.497000 -0.402500 1 0 1.000000 
valvewheel002
0 -2.187900 5.282000 5.241400 0.292413 -0.437519 0.850336 0.461800 -0.325900 1 0 1.000000 
0 -0.000000 5.717200 5.241400 0.047400 -0.481603 0.875106 0.479200 -0.500000 1 0 1.000000 
0 1.225700 6.162100 5.241400 0.000000 0.000000 1.000000 0.497000 -0.597500 1 0 1.000000 
valvewheel002
0 -0.000000 5.717200 5.241400 0.047400 -0.481603 0.875106 0.479200 -0.500000 1 0 1.000000 
0 3.490600 5.224000 5.241400 0.248508 0.371811 0.894427 0.459500 -0.777800 1 0 1.000000 
0 1.225700 6.162100 5.241400 0.000000 0.000000 1.000000 0.497000 -0.597500 1 0 1.000000 
valvewheel002
0 -0.000000 5.717200 5.241400 0.047400 -0.481603 0.875106 0.479200 -0.500000 1 0 1.000000 
0 2.187900 5.282000 5.241400 -0.219200 -0.713299 0.665699 0.461800 -0.674100 1 0 1.000000 
0 3.490600 5.224000 5.241400 0.248508 0.371811 0.894427 0.459500 -0.777800 1 0 1.000000 
valvewheel002
0 0.210700 0.289900 4.800000 0.000000 0.000000 1.000000 0.549800 -0.090700 1 0 1.000000 
0 -0.340800 -0.110700 4.800000 0.000000 0.000000 1.000000 0.521900 -0.018600 1 0 1.000000 
0 0.000000 -0.358400 4.800000 0.000000 0.000000 1.000000 0.504600 -0.063200 1 0 1.000000 
valvewheel002
0 -6.282800 -0.000000 4.675700 -0.989795 -0.035900 -0.137899 0.000000 -0.944900 1 0 1.000000 
0 -5.804600 -2.404300 4.675700 -0.883998 -0.393499 -0.252399 0.062500 -0.944800 1 0 1.000000 
0 -6.277000 -1.248600 4.958600 -0.911970 -0.305890 -0.273391 0.031300 -0.934900 1 0 1.000000 
valvewheel002
0 -5.804600 -2.404300 4.675700 -0.883998 -0.393499 -0.252399 0.062500 -0.944800 1 0 1.000000 
0 -5.224000 -3.490600 5.241400 -0.572182 -0.382288 0.725578 0.093700 -0.924800 1 0 1.000000 
0 -6.277000 -1.248600 4.958600 -0.911970 -0.305890 -0.273391 0.031300 -0.934900 1 0 1.000000 
valvewheel002
0 -5.804600 -2.404300 4.675700 -0.883998 -0.393499 -0.252399 0.062500 -0.944800 1 0 1.000000 
0 -4.442600 -4.442600 4.675700 -0.701829 -0.666127 -0.252410 0.125000 -0.944600 1 0 1.000000 
0 -5.224000 -3.490600 5.241400 -0.572182 -0.382288 0.725578 0.093700 -0.924800 1 0 1.000000 
valvewheel002
0 -4.442600 -4.442600 4.675700 -0.701829 -0.666127 -0.252410 0.125000 -0.944600 1 0 1.000000 
0 -3.555700 -5.321400 4.958600 -0.555090 -0.813686 -0.172597 0.156300 -0.934500 1 0 1.000000 
0 -5.224000 -3.490600 5.241400 -0.572182 -0.382288 0.725578 0.093700 -0.924800 1 0 1.000000 
valvewheel002
0 -4.442600 -4.442600 4.675700 -0.701829 -0.666127 -0.252410 0.125000 -0.944600 1 0 1.000000 
0 -2.404300 -5.804600 4.675700 -0.325388 -0.864769 -0.382486 0.187500 -0.944300 1 0 1.000000 
0 -3.555700 -5.321400 4.958600 -0.555090 -0.813686 -0.172597 0.156300 -0.934500 1 0 1.000000 
valvewheel002
0 -2.404300 -5.804600 4.675700 -0.325388 -0.864769 -0.382486 0.187500 -0.944300 1 0 1.000000 
0 -1.248600 -6.277000 4.958600 -0.209899 -0.899798 -0.382499 0.218800 -0.934100 1 0 1.000000 
0 -3.555700 -5.321400 4.958600 -0.555090 -0.813686 -0.172597 0.156300 -0.934500 1 0 1.000000 
valvewheel002
0 -2.404300 -5.804600 4.675700 -0.325388 -0.864769 -0.382486 0.187500 -0.944300 1 0 1.000000 
0 0.000000 -6.282800 4.675700 -0.014900 -0.891085 -0.453592 0.250000 -0.943900 1 0 1.000000 
0 -1.248600 -6.277000 4.958600 -0.209899 -0.899798 -0.382499 0.218800 -0.934100 1 0 1.000000 
valvewheel002
0 0.000000 -6.282800 4.675700 -0.014900 -0.891085 -0.453592 0.250000 -0.943900 1 0 1.000000 
0 0.000000 -6.400000 4.958600 0.091004 -0.920038 -0.381116 0.250000 -0.933900 1 0 1.000000 
0 -1.248600 -6.277000 4.958600 -0.209899 -0.899798 -0.382499 0.218800 -0.934100 1 0 1.000000 
valvewheel002
0 0.000000 -6.282800 4.675700 -0.014900 -0.891085 -0.453592 0.250000 -0.943900 1 0 1.000000 
0 2.404300 -5.804600 4.675700 0.296385 -0.875355 -0.381980 0.312500 -0.943500 1 0 1.000000 
0 0.000000 -6.400000 4.958600 0.091004 -0.920038 -0.381116 0.250000 -0.933900 1 0 1.000000 
valvewheel002
0 2.404300 -5.804600 4.675700 0.296385 -0.875355 -0.381980 0.312500 -0.943500 1 0 1.000000 
0 2.449200 -5.912800 4.958600 0.444808 -0.857116 -0.259805 0.312500 -0.933600 1 0 1.000000 
0 0.000000 -6.400000 4.958600 0.091004 -0.920038 -0.381116 0.250000 -0.933900 1 0 1.000000 
valvewheel002
0 2.404300 -5.804600 4.675700 0.296385 -0.875355 -0.381980 0.312500 -0.943500 1 0 1.000000 
0 4.442600 -4.442600 4.675700 0.693589 -0.693589 -0.194597 0.375000 -0.943200 1 0 1.000000 
0 2.449200 -5.912800 4.958600 0.444808 -0.857116 -0.259805 0.312500 -0.933600 1 0 1.000000 
valvewheel002
0 4.442600 -4.442600 4.675700 0.693589 -0.693589 -0.194597 0.375000 -0.943200 1 0 1.000000 
0 4.442600 -4.442600 5.241400 0.534178 -0.461681 0.708170 0.375000 -0.923300 1 0 1.000000 
0 2.449200 -5.912800 4.958600 0.444808 -0.857116 -0.259805 0.312500 -0.933600 1 0 1.000000 
valvewheel002
0 4.442600 -4.442600 4.675700 0.693589 -0.693589 -0.194597 0.375000 -0.943200 1 0 1.000000 
0 5.912800 -2.449200 4.958600 0.869063 -0.421182 -0.259489 0.437500 -0.933000 1 0 1.000000 
0 4.442600 -4.442600 5.241400 0.534178 -0.461681 0.708170 0.375000 -0.923300 1 0 1.000000 
valvewheel002
0 4.442600 -4.442600 4.675700 0.693589 -0.693589 -0.194597 0.375000 -0.943200 1 0 1.000000 
0 5.804600 -2.404300 4.675700 0.864769 -0.325388 -0.382486 0.437500 -0.943000 1 0 1.000000 
0 5.912800 -2.449200 4.958600 0.869063 -0.421182 -0.259489 0.437500 -0.933000 1 0 1.000000 
valvewheel002
0 5.804600 -2.404300 4.675700 0.864769 -0.325388 -0.382486 0.437500 -0.943000 1 0 1.000000 
0 6.162100 -1.225700 5.241400 0.889994 -0.121099 0.439597 0.468700 -0.923100 1 0 1.000000 
0 5.912800 -2.449200 4.958600 0.869063 -0.421182 -0.259489 0.437500 -0.933000 1 0 1.000000 
valvewheel002
0 5.804600 -2.404300 4.675700 0.864769 -0.325388 -0.382486 0.437500 -0.943000 1 0 1.000000 
0 6.282800 0.000000 4.675700 0.995437 -0.064402 -0.070403 0.500000 -0.942900 1 0 1.000000 
0 6.162100 -1.225700 5.241400 0.889994 -0.121099 0.439597 0.468700 -0.923100 1 0 1.000000 
valvewheel002
0 6.282800 0.000000 4.675700 0.995437 -0.064402 -0.070403 0.500000 -0.942900 1 0 1.000000 
0 6.282800 0.000000 5.241400 0.552806 0.000000 0.833310 0.500000 -0.923000 1 0 1.000000 
0 6.162100 -1.225700 5.241400 0.889994 -0.121099 0.439597 0.468700 -0.923100 1 0 1.000000 
valvewheel002
0 6.282800 0.000000 4.675700 0.995437 -0.064402 -0.070403 0.500000 -0.942900 1 0 1.000000 
0 6.162100 1.225700 4.675700 0.964960 0.239990 -0.106096 0.531200 -0.942900 1 0 1.000000 
0 6.282800 0.000000 5.241400 0.552806 0.000000 0.833310 0.500000 -0.923000 1 0 1.000000 
valvewheel002
0 6.162100 1.225700 4.675700 0.964960 0.239990 -0.106096 0.531200 -0.942900 1 0 1.000000 
0 5.224000 3.490600 4.675700 0.818304 0.516403 -0.252401 0.593700 -0.943100 1 0 1.000000 
0 5.804600 2.404300 5.241400 0.492901 0.254601 0.832002 0.562500 -0.923100 1 0 1.000000 
valvewheel002
0 5.224000 3.490600 4.675700 0.818304 0.516403 -0.252401 0.593700 -0.943100 1 0 1.000000 
0 4.525500 4.525500 4.958600 0.690498 0.688198 -0.222699 0.625000 -0.933300 1 0 1.000000 
0 5.804600 2.404300 5.241400 0.492901 0.254601 0.832002 0.562500 -0.923100 1 0 1.000000 
valvewheel002
0 5.224000 3.490600 4.675700 0.818304 0.516403 -0.252401 0.593700 -0.943100 1 0 1.000000 
0 3.490600 5.224000 4.675700 0.513283 0.768174 -0.382687 0.656200 -0.943400 1 0 1.000000 
0 4.525500 4.525500 4.958600 0.690498 0.688198 -0.222699 0.625000 -0.933300 1 0 1.000000 
valvewheel002
0 4.525500 4.525500 4.958600 0.690498 0.688198 -0.222699 0.625000 -0.933300 1 0 1.000000 
0 3.490600 5.224000 4.675700 0.513283 0.768174 -0.382687 0.656200 -0.943400 1 0 1.000000 
0 3.490600 5.224000 5.241400 0.248508 0.371811 0.894427 0.656300 -0.923500 1 0 1.000000 
valvewheel002
0 3.490600 5.224000 4.675700 0.513283 0.768174 -0.382687 0.656200 -0.943400 1 0 1.000000 
0 2.449200 5.912800 4.958600 0.381388 0.841573 -0.382488 0.687500 -0.933600 1 0 1.000000 
0 3.490600 5.224000 5.241400 0.248508 0.371811 0.894427 0.656300 -0.923500 1 0 1.000000 
valvewheel002
0 3.490600 5.224000 4.675700 0.513283 0.768174 -0.382687 0.656200 -0.943400 1 0 1.000000 
0 1.225700 6.162100 4.675700 0.220897 0.851087 -0.476293 0.718700 -0.943700 1 0 1.000000 
0 2.449200 5.912800 4.958600 0.381388 0.841573 -0.382488 0.687500 -0.933600 1 0 1.000000 
valvewheel002
0 1.225700 6.162100 4.675700 0.220897 0.851087 -0.476293 0.718700 -0.943700 1 0 1.000000 
0 -0.000000 6.282800 4.675700 -0.093798 0.840082 -0.534288 0.750000 -0.943900 1 0 1.000000 
0 -0.000000 6.400000 4.958600 -0.000000 0.923877 -0.382690 0.750000 -0.933900 1 0 1.000000 
valvewheel002
0 -0.000000 6.282800 4.675700 -0.093798 0.840082 -0.534288 0.750000 -0.943900 1 0 1.000000 
0 -2.449200 5.912800 4.958600 -0.325389 0.864769 -0.382486 0.812500 -0.934300 1 0 1.000000 
0 -0.000000 6.400000 4.958600 -0.000000 0.923877 -0.382690 0.750000 -0.933900 1 0 1.000000 
valvewheel002
0 -0.000000 6.282800 4.675700 -0.093798 0.840082 -0.534288 0.750000 -0.943900 1 0 1.000000 
0 -3.490600 5.224000 4.675700 -0.473572 0.708758 -0.522869 0.843700 -0.944400 1 0 1.000000 
0 -2.449200 5.912800 4.958600 -0.325389 0.864769 -0.382486 0.812500 -0.934300 1 0 1.000000 
valvewheel002
0 -3.490600 5.224000 4.675700 -0.473572 0.708758 -0.522869 0.843700 -0.944400 1 0 1.000000 
0 -4.525500 4.525500 4.958600 -0.690444 0.690443 -0.215814 0.875000 -0.934600 1 0 1.000000 
0 -2.449200 5.912800 4.958600 -0.325389 0.864769 -0.382486 0.812500 -0.934300 1 0 1.000000 
valvewheel002
0 -3.490600 5.224000 4.675700 -0.473572 0.708758 -0.522869 0.843700 -0.944400 1 0 1.000000 
0 -5.224000 3.490600 4.675700 -0.784696 0.487798 -0.382498 0.906200 -0.944700 1 0 1.000000 
0 -4.525500 4.525500 4.958600 -0.690444 0.690443 -0.215814 0.875000 -0.934600 1 0 1.000000 
valvewheel002
0 -5.224000 3.490600 4.675700 -0.784696 0.487798 -0.382498 0.906200 -0.944700 1 0 1.000000 
0 -5.912800 2.449200 4.958600 -0.930702 0.356901 -0.080100 0.937500 -0.934900 1 0 1.000000 
0 -4.525500 4.525500 4.958600 -0.690444 0.690443 -0.215814 0.875000 -0.934600 1 0 1.000000 
valvewheel002
0 -5.224000 3.490600 4.675700 -0.784696 0.487798 -0.382498 0.906200 -0.944700 1 0 1.000000 
0 -6.162100 1.225700 4.675700 -0.963777 0.228294 -0.137897 0.968700 -0.944800 1 0 1.000000 
0 -5.912800 2.449200 4.958600 -0.930702 0.356901 -0.080100 0.937500 -0.934900 1 0 1.000000 
valvewheel002
0 -6.162100 1.225700 4.675700 -0.963777 0.228294 -0.137897 0.968700 -0.944800 1 0 1.000000 
0 -6.282800 -0.000000 4.675700 -0.989795 -0.035900 -0.137899 1.000000 -0.944900 1 0 1.000000 
0 -5.912800 2.449200 4.958600 -0.930702 0.356901 -0.080100 0.937500 -0.934900 1 0 1.000000 
valvewheel002
0 -0.815800 -0.265100 3.000000 0.000000 0.000000 -1.000000 0.288500 -0.457300 1 0 1.000000 
0 -0.504200 0.693900 3.000000 0.000000 0.000000 -1.000000 0.274400 -0.542300 1 0 1.000000 
0 0.000000 -0.857700 3.000000 0.000000 0.000000 -1.000000 0.251500 -0.404700 1 0 1.000000 
valvewheel002
0 -0.504200 0.693900 3.000000 0.000000 0.000000 -1.000000 0.274400 -0.542300 1 0 1.000000 
0 0.815800 0.265100 3.000000 0.000000 0.000000 -1.000000 0.214400 -0.504300 1 0 1.000000 
0 0.000000 -0.857700 3.000000 0.000000 0.000000 -1.000000 0.251500 -0.404700 1 0 1.000000 
valvewheel002
0 0.000000 -0.857700 4.100000 0.000000 0.000000 1.000000 0.251500 -0.404300 1 0 1.000000 
0 0.815800 -0.265100 4.100000 0.000000 0.000000 1.000000 0.214400 -0.456900 1 0 1.000000 
0 -0.815800 0.265100 4.100000 0.000000 0.000000 1.000000 0.288500 -0.503800 1 0 1.000000 
valvewheel002
0 0.815800 -0.265100 4.100000 0.000000 0.000000 1.000000 0.214400 -0.456900 1 0 1.000000 
0 0.504200 0.693900 4.100000 0.000000 0.000000 1.000000 0.228600 -0.541900 1 0 1.000000 
0 -0.815800 0.265100 4.100000 0.000000 0.000000 1.000000 0.288500 -0.503800 1 0 1.000000 
valvewheel002
0 0.815800 0.265100 3.000000 0.297292 0.915076 -0.272493 0.788500 -0.992500 1 0 1.000000 
0 -0.504200 0.693900 3.000000 -0.446107 0.846313 -0.291105 0.901100 -0.993100 1 0 1.000000 
0 0.504200 0.693900 4.100000 0.297292 0.915076 -0.272493 0.826200 -0.884400 1 0 1.000000 
valvewheel002
0 -0.504200 0.693900 3.000000 -0.446107 0.846313 -0.291105 0.901100 -0.993100 1 0 1.000000 
0 -0.815800 -0.265100 3.000000 -0.906229 -0.419914 0.049202 0.938800 -0.993200 1 0 1.000000 
0 -0.815800 0.265100 4.100000 -0.986204 -0.149101 0.071900 0.938900 -0.885000 1 0 1.000000 
valvewheel002
0 -2.187900 5.282000 5.241400 0.169097 -0.850184 0.498591 0.812500 -0.924300 1 0 1.000000 
0 -3.176300 4.753600 4.675700 0.095299 -0.319195 -0.942885 0.843700 -0.944400 1 0 1.000000 
0 -0.000000 5.717200 5.241400 0.169097 -0.850184 0.498591 0.750000 -0.924000 1 0 1.000000 
valvewheel002
0 0.000000 -0.520200 2.700000 -0.587803 -0.809004 0.000000 0.573400 -0.652900 1 0 1.000000 
0 0.000000 -0.520200 4.400000 -0.587803 -0.809004 0.000000 0.573400 -0.534200 1 0 1.000000 
0 -0.494700 -0.160700 4.400000 -0.587803 -0.809004 0.000000 0.536000 -0.534100 1 0 1.000000 
valvewheel002
0 1.252900 0.407100 3.400000 0.539991 -0.302095 0.785587 0.140400 -0.709500 1 0 1.000000 
0 4.886200 3.263900 4.791900 0.618100 -0.786100 0.000000 0.385900 -0.635500 1 0 1.000000 
0 1.252900 0.407100 3.800000 0.618100 -0.786100 0.000000 0.140400 -0.688200 1 0 1.000000 
valvewheel002
0 0.305800 0.420800 4.400000 0.000000 0.000000 1.000000 0.566800 -0.712800 1 0 1.000000 
0 -0.494700 -0.160700 4.400000 0.000000 0.000000 1.000000 0.631300 -0.630400 1 0 1.000000 
0 0.000000 -0.520200 4.400000 0.000000 0.000000 1.000000 0.591500 -0.579500 1 0 1.000000 
valvewheel002
0 1.252900 -0.407100 3.800000 -0.001100 0.440922 0.897545 0.396100 -0.531100 1 0 1.000000 
0 4.886200 -3.263900 5.208100 -0.001100 0.440922 0.897545 0.129300 -0.449800 1 0 1.000000 
0 1.252900 0.407100 3.400000 0.539991 -0.302095 0.785587 0.396100 -0.554300 1 0 1.000000 
valvewheel002
0 0.000000 -0.520200 2.700000 0.587803 -0.809004 0.000000 0.573400 -0.652900 1 0 1.000000 
0 0.494700 -0.160700 2.700000 0.587803 -0.809004 0.000000 0.611200 -0.652800 1 0 1.000000 
0 0.000000 -0.520200 4.400000 0.587803 -0.809004 0.000000 0.573400 -0.534200 1 0 1.000000 
valvewheel002
0 -1.252900 0.407100 3.400000 -0.037999 0.999278 0.000000 0.140400 -0.709500 1 0 1.000000 
0 -5.871500 0.231500 4.791900 -0.037999 0.999278 0.000000 0.385900 -0.635500 1 0 1.000000 
0 -1.252900 0.407100 3.800000 -0.037999 0.999278 0.000000 0.140400 -0.688200 1 0 1.000000 
valvewheel002
0 -0.305800 0.420800 2.700000 0.000000 0.000000 -1.000000 0.616100 -0.713800 1 0 1.000000 
0 0.494700 -0.160700 2.700000 0.000000 0.000000 -1.000000 0.551600 -0.631500 1 0 1.000000 
0 0.000000 -0.520200 2.700000 0.000000 0.000000 -1.000000 0.591500 -0.580600 1 0 1.000000 
valvewheel002
0 -0.774300 1.065800 3.800000 -0.962099 -0.272700 0.000000 0.140400 -0.688200 1 0 1.000000 
0 -2.034600 5.512600 5.208100 -0.962099 -0.272700 0.000000 0.385900 -0.613400 1 0 1.000000 
0 -0.774300 1.065800 3.400000 -0.962099 -0.272700 0.000000 0.140400 -0.709500 1 0 1.000000 
valvewheel002
0 0.210700 0.289900 -0.500000 -0.587803 0.809004 0.000000 0.901000 -0.838300 1 0 1.000000 
0 -0.340800 -0.110700 -0.500000 -0.587803 0.809004 0.000000 0.984100 -0.838500 1 0 1.000000 
0 0.210700 0.289900 4.800000 -0.587803 0.809004 0.000000 0.899900 -0.161300 1 0 1.000000 
valvewheel002
0 -0.340800 -0.110700 -0.500000 -0.587803 0.809004 0.000000 0.984100 -0.838500 1 0 1.000000 
0 -0.340800 -0.110700 4.800000 -0.587803 0.809004 0.000000 0.986400 -0.161600 1 0 1.000000 
0 0.210700 0.289900 4.800000 -0.587803 0.809004 0.000000 0.899900 -0.161300 1 0 1.000000 
valvewheel002
0 0.000000 -1.317400 3.800000 0.419017 0.137306 0.897536 0.406600 -0.567400 1 0 1.000000 
0 -1.594200 -5.655700 5.208100 0.419017 0.137306 0.897536 0.109400 -0.476700 1 0 1.000000 
0 0.774300 -1.065800 3.400000 -0.120499 -0.606895 0.785594 0.396100 -0.554300 1 0 1.000000 
valvewheel002
0 0.774300 -1.065800 3.400000 -0.120499 -0.606895 0.785594 0.396100 -0.554300 1 0 1.000000 
0 4.614100 -3.638500 4.791900 -0.556591 -0.830787 0.000000 0.129300 -0.473800 1 0 1.000000 
0 0.774300 -1.065800 3.800000 -0.556591 -0.830787 0.000000 0.396100 -0.531100 1 0 1.000000 
valvewheel002
0 -1.252900 -0.407100 3.800000 0.260105 -0.356106 0.897515 0.140400 -0.688200 1 0 1.000000 
0 -5.871500 -0.231500 5.208100 0.260105 -0.356106 0.897515 0.385900 -0.613400 1 0 1.000000 
0 -0.774300 -1.065800 3.400000 -0.614405 -0.073001 0.785606 0.140400 -0.709500 1 0 1.000000 
valvewheel002
0 -0.000000 1.317400 3.400000 0.938635 0.344913 0.000000 0.140400 -0.709500 1 0 1.000000 
0 -1.594200 5.655700 4.791900 0.938635 0.344913 0.000000 0.385900 -0.635500 1 0 1.000000 
0 -0.000000 1.317400 3.800000 0.938635 0.344913 0.000000 0.140400 -0.688200 1 0 1.000000 
valvewheel002
0 -0.774300 -1.065800 3.400000 -0.614405 -0.073001 0.785606 0.406600 -0.593100 1 0 1.000000 
0 -2.034600 -5.512600 4.791900 -0.962099 0.272700 0.000000 0.109400 -0.503500 1 0 1.000000 
0 -0.774300 -1.065800 3.800000 -0.962099 0.272700 0.000000 0.406600 -0.567400 1 0 1.000000 
valvewheel002
0 0.774300 1.065800 3.800000 -0.556591 0.830787 0.000000 0.140400 -0.688200 1 0 1.000000 
0 4.614100 3.638500 5.208100 -0.556591 0.830787 0.000000 0.385900 -0.613400 1 0 1.000000 
0 0.774300 1.065800 3.400000 -0.556591 0.830787 0.000000 0.140400 -0.709500 1 0 1.000000 
end
