$cd ".\"
$modelname "junk/W_Garb_NewsPaper4.mdl"
$model "Body" "W_Garb_NewsPaper4.smd"
$cdmaterials "models/junk/w_garb_newspaper4/"
$surfaceprop "paper"
$eyeposition 0.000 0.000 0.000
$illumposition -1.785 -7.372 2.096
$sequence idle "idle" ACT_IDLE 1 fps 30.000000
$keyvalues
{
	prop_data
	{
		base	Cardboard.Small
	}
}	