$cd ".\"
$modelname "junk/W_Garb_NewsPaper2.mdl"
$model "Body" "W_Garb_NewsPaper2.smd"
$cdmaterials "models/junk/w_garb_newspaper2/"
$surfaceprop "paper"
$eyeposition 0.000 0.000 0.000
$illumposition 0.000 0.000 1.068
$sequence idle "idle" ACT_IDLE 1 fps 30.000000
$keyvalues
{
	prop_data
	{
		base	Cardboard.Small
	}
}	