version 1
nodes
  0 "static_prop" -1
end
skeleton
time 0
0 0.000000 0.000000 0.000000 0.000000 0.000000 0.000000
end
triangles
metaldoor001a
0 2.550001 -26.883301 26.798201 1.000000 0.000000 0.000000 0.036200 -0.093200 1 0 1.000000 
0 2.550001 -26.883301 29.104500 1.000000 0.000000 0.000000 0.036200 -0.037900 1 0 1.000000 
0 2.550001 -29.700001 27.951401 1.000000 0.000000 0.000000 0.167300 -0.065500 1 0 1.000000 
metaldoor001a
0 2.550001 -26.400000 76.875298 1.000000 0.000000 0.000000 0.013700 -0.065500 1 0 1.000000 
0 2.550001 -29.700001 76.875298 1.000000 0.000000 0.000000 0.167300 -0.065500 1 0 1.000000 
0 2.550001 -28.049999 75.244499 1.000000 0.000000 0.000000 0.090500 -0.104600 1 0 1.000000 
metaldoor001a
0 2.550001 -26.400000 76.875298 1.000000 0.000000 0.000000 0.013700 -0.065500 1 0 1.000000 
0 2.550001 -28.049999 78.506104 1.000000 0.000000 0.000000 0.090500 -0.026500 1 0 1.000000 
0 2.550001 -29.700001 76.875298 1.000000 0.000000 0.000000 0.167300 -0.065500 1 0 1.000000 
metaldoor001a
0 2.549999 26.400000 76.875298 1.000000 0.000000 0.000000 0.013700 -0.065500 1 0 1.000000 
0 2.549999 29.700001 76.875298 1.000000 0.000000 0.000000 0.167300 -0.065500 1 0 1.000000 
0 2.549999 28.049999 78.506104 1.000000 0.000000 0.000000 0.090500 -0.026500 1 0 1.000000 
metaldoor001a
0 2.549999 26.400000 76.875298 1.000000 0.000000 0.000000 0.013700 -0.065500 1 0 1.000000 
0 2.549999 28.049999 75.244499 1.000000 0.000000 0.000000 0.090500 -0.104600 1 0 1.000000 
0 2.549999 29.700001 76.875298 1.000000 0.000000 0.000000 0.167300 -0.065500 1 0 1.000000 
metaldoor001a
0 2.549999 26.400000 52.413300 1.000000 0.000000 0.000000 0.013700 -0.065500 1 0 1.000000 
0 2.549999 29.700001 52.413300 1.000000 0.000000 0.000000 0.167300 -0.065500 1 0 1.000000 
0 2.549999 28.049999 54.044102 1.000000 0.000000 0.000000 0.090500 -0.026500 1 0 1.000000 
metaldoor001a
0 2.549999 26.400000 52.413300 1.000000 0.000000 0.000000 0.013700 -0.065500 1 0 1.000000 
0 2.549999 28.049999 50.782501 1.000000 0.000000 0.000000 0.090500 -0.104600 1 0 1.000000 
0 2.549999 29.700001 52.413300 1.000000 0.000000 0.000000 0.167300 -0.065500 1 0 1.000000 
metaldoor001a
0 2.550000 -7.083300 -1.554500 -0.000000 0.922291 0.386496 0.743700 -0.937700 1 0 1.000000 
0 0.000000 -6.600000 -2.707600 -0.000000 0.922291 0.386496 0.756700 -0.977700 1 0 1.000000 
0 0.000000 -8.250000 -1.076800 -0.185107 0.690825 0.698925 0.730600 -0.977700 1 0 1.000000 
metaldoor001a
0 2.550000 -7.083300 -1.554500 -0.000000 0.922291 0.386496 0.743700 -0.937700 1 0 1.000000 
0 2.550000 -7.083300 -3.860800 0.186202 0.982511 0.000000 0.769800 -0.937700 1 0 1.000000 
0 0.000000 -6.600000 -2.707600 -0.000000 0.922291 0.386496 0.756700 -0.977700 1 0 1.000000 
metaldoor001a
0 2.550000 -7.083300 -1.554500 1.000000 0.000000 0.000000 0.036200 -0.093200 1 0 1.000000 
0 2.550000 -9.416700 -3.860800 1.000000 0.000000 0.000000 0.144800 -0.037900 1 0 1.000000 
0 2.550000 -7.083300 -3.860800 1.000000 0.000000 0.000000 0.144800 -0.093200 1 0 1.000000 
metaldoor001a
0 2.550000 -7.083300 -1.554500 1.000000 0.000000 0.000000 0.036200 -0.093200 1 0 1.000000 
0 2.550000 -9.416700 -1.554500 1.000000 0.000000 0.000000 0.036200 -0.037900 1 0 1.000000 
0 2.550000 -9.416700 -3.860800 1.000000 0.000000 0.000000 0.144800 -0.037900 1 0 1.000000 
metaldoor001a
0 2.550000 -7.083300 108.338097 1.000000 0.000000 0.000000 0.036200 -0.093200 1 0 1.000000 
0 2.550000 -9.416700 110.644402 1.000000 0.000000 0.000000 0.144800 -0.037900 1 0 1.000000 
0 2.550000 -9.416700 108.338097 1.000000 0.000000 0.000000 0.036200 -0.037900 1 0 1.000000 
metaldoor001a
0 2.550000 -7.083300 108.338097 1.000000 0.000000 0.000000 0.036200 -0.093200 1 0 1.000000 
0 2.550000 -7.083300 110.644402 1.000000 0.000000 0.000000 0.144800 -0.093200 1 0 1.000000 
0 2.550000 -9.416700 110.644402 1.000000 0.000000 0.000000 0.144800 -0.037900 1 0 1.000000 
metaldoor001a
0 3.170501 -28.924999 92.639702 -0.402896 -0.031900 0.914690 0.150400 -0.038000 1 0 1.000000 
0 1.250001 -28.049999 91.824303 -0.758590 -0.060099 0.648791 0.031300 -0.093700 1 0 1.000000 
0 2.375001 -29.287500 91.824303 -0.685083 -0.622784 -0.377890 0.175000 -0.066000 1 0 1.000000 
metaldoor001a
0 3.170501 -28.924999 92.639702 -0.402896 -0.031900 0.914690 0.150400 -0.038000 1 0 1.000000 
0 3.170501 -27.174999 91.824303 -0.403110 0.884622 -0.234406 0.031300 -0.038000 1 0 1.000000 
0 1.250001 -28.049999 91.824303 -0.758590 -0.060099 0.648791 0.031300 -0.093700 1 0 1.000000 
metaldoor001a
0 1.250001 -28.049999 91.824303 -0.758590 -0.060099 0.648791 0.090800 -0.105300 1 0 1.000000 
0 3.170501 -27.174999 91.824303 -0.403110 0.884622 -0.234406 0.031300 -0.038000 1 0 1.000000 
0 2.375001 -29.287500 91.824303 -0.685083 -0.622784 -0.377890 0.175000 -0.066000 1 0 1.000000 
metaldoor001a
0 1.250001 -19.736099 -0.155300 0.481000 -0.441400 -0.757499 0.972400 -0.963300 1 0 1.000000 
0 -0.000001 19.657101 0.033100 0.234404 -0.324405 0.916415 0.941400 -0.218700 1 0 1.000000 
0 0.000001 -20.389000 0.375200 0.355812 0.435415 0.826929 0.941400 -0.963300 1 0 1.000000 
metaldoor001a
0 1.250001 -19.736099 -0.155300 0.481000 -0.441400 -0.757499 0.972400 -0.963300 1 0 1.000000 
0 1.249999 20.486200 0.195400 0.997232 0.074102 0.006000 0.972400 -0.218700 1 0 1.000000 
0 -0.000001 19.657101 0.033100 0.234404 -0.324405 0.916415 0.941400 -0.218700 1 0 1.000000 
metaldoor001a
0 1.250001 -19.736099 -0.155300 0.481000 -0.441400 -0.757499 0.972400 -0.963300 1 0 1.000000 
0 -0.000001 19.736099 -0.155300 0.086601 0.344703 -0.934708 0.941400 -0.218700 1 0 1.000000 
0 1.249999 20.486200 0.195400 0.997232 0.074102 0.006000 0.972400 -0.218700 1 0 1.000000 
metaldoor001a
0 1.250001 -19.736099 -0.155300 0.481000 -0.441400 -0.757499 0.972400 -0.963300 1 0 1.000000 
0 0.000001 -18.149700 -0.630900 0.035400 -0.261302 -0.964608 0.941400 -0.963300 1 0 1.000000 
0 -0.000001 19.736099 -0.155300 0.086601 0.344703 -0.934708 0.941400 -0.218700 1 0 1.000000 
metaldoor001a
0 2.375001 -29.287500 94.542297 -0.000000 1.000000 0.000000 0.175000 -0.065800 1 0 1.000000 
0 3.170501 -27.174999 93.726898 -0.000000 1.000000 0.000000 0.031300 -0.038000 1 0 1.000000 
0 1.579501 -27.174999 94.542297 -0.000000 1.000000 0.000000 0.031300 -0.093700 1 0 1.000000 
metaldoor001a
0 3.170501 -27.174999 93.726898 -0.000000 1.000000 0.000000 0.031300 -0.038000 1 0 1.000000 
0 2.375001 -29.287500 94.542297 -0.000000 1.000000 0.000000 0.175000 -0.065800 1 0 1.000000 
0 1.579501 -27.174999 94.542297 -0.000000 1.000000 0.000000 0.090800 -0.105300 1 0 1.000000 
metaldoor001a
0 2.375001 -29.287500 13.002400 0.517789 0.470690 0.714385 0.175000 -0.066000 1 0 1.000000 
0 3.170501 -27.174999 12.187000 -0.000000 1.000000 0.000000 0.090800 -0.026500 1 0 1.000000 
0 1.579501 -27.174999 12.187000 0.517789 0.470690 0.714385 0.031300 -0.093800 1 0 1.000000 
metaldoor001a
0 1.579501 -27.174999 12.187000 0.517789 0.470690 0.714385 0.031300 -0.093800 1 0 1.000000 
0 3.170501 -27.174999 12.187000 -0.000000 1.000000 0.000000 0.031300 -0.038100 1 0 1.000000 
0 2.375001 -29.287500 13.002400 0.517789 0.470690 0.714385 0.175000 -0.066000 1 0 1.000000 
metaldoor001a
0 2.375001 -29.287500 13.002400 0.517789 0.470690 0.714385 0.175000 -0.066000 1 0 1.000000 
0 1.579501 -27.174999 12.187000 0.517789 0.470690 0.714385 0.031300 -0.093800 1 0 1.000000 
0 1.250001 -28.049999 13.002400 0.517789 0.470690 0.714385 0.090800 -0.105200 1 0 1.000000 
metaldoor001a
0 1.249999 24.915501 6.747200 0.883691 0.459895 0.087099 0.956600 -0.963300 1 0 1.000000 
0 -0.000001 24.122000 100.380699 0.352099 -0.909497 -0.220999 0.967800 -0.218700 1 0 1.000000 
0 -0.000001 23.359600 3.036300 0.404311 -0.809822 0.425112 0.967800 -0.963300 1 0 1.000000 
metaldoor001a
0 1.249999 24.915501 6.747200 0.883691 0.459895 0.087099 0.956600 -0.963300 1 0 1.000000 
0 1.249999 23.957701 101.200104 0.958547 -0.217211 0.184409 0.956600 -0.218700 1 0 1.000000 
0 -0.000001 24.122000 100.380699 0.352099 -0.909497 -0.220999 0.967800 -0.218700 1 0 1.000000 
metaldoor001a
0 1.249999 24.915501 6.747200 0.883691 0.459895 0.087099 0.956600 -0.963300 1 0 1.000000 
0 -0.000001 23.957701 101.200104 -0.282491 0.922970 0.261391 0.967800 -0.218700 1 0 1.000000 
0 1.249999 23.957701 101.200104 0.958547 -0.217211 0.184409 0.956600 -0.218700 1 0 1.000000 
metaldoor001a
0 1.249999 24.915501 6.747200 0.883691 0.459895 0.087099 0.956600 -0.963300 1 0 1.000000 
0 -0.000001 23.531099 2.923000 -0.283997 0.850092 -0.443496 0.967800 -0.963300 1 0 1.000000 
0 -0.000001 23.957701 101.200104 -0.282491 0.922970 0.261391 0.967800 -0.218700 1 0 1.000000 
metaldoor001a
0 2.550001 -29.700001 27.951401 0.169203 -0.548109 0.819113 0.782900 -0.937700 1 0 1.000000 
0 0.000001 -28.049999 29.582199 0.169203 -0.548109 0.819113 0.809000 -0.977700 1 0 1.000000 
0 0.000001 -29.700001 27.951401 0.000000 -0.702995 0.711195 0.782900 -0.977700 1 0 1.000000 
metaldoor001a
0 2.550001 -29.700001 27.951401 0.169203 -0.548109 0.819113 0.782900 -0.937700 1 0 1.000000 
0 2.550001 -26.883301 29.104500 0.327590 -0.357989 0.874373 0.809000 -0.937700 1 0 1.000000 
0 0.000001 -28.049999 29.582199 0.169203 -0.548109 0.819113 0.809000 -0.977700 1 0 1.000000 
metaldoor001a
0 2.550001 -29.216700 51.260201 0.000000 -0.922291 -0.386496 0.769800 -0.937700 1 0 1.000000 
0 0.000001 -29.700001 52.413300 -0.072802 -0.996922 -0.029101 0.782900 -0.977700 1 0 1.000000 
0 0.000001 -28.049999 50.782501 -0.185107 -0.690825 -0.698925 0.756700 -0.977700 1 0 1.000000 
metaldoor001a
0 2.550001 -29.216700 51.260201 0.000000 -0.922291 -0.386496 0.769800 -0.937700 1 0 1.000000 
0 2.550001 -29.216700 53.566502 0.000000 -0.922291 0.386496 0.795900 -0.937700 1 0 1.000000 
0 0.000001 -29.700001 52.413300 -0.072802 -0.996922 -0.029101 0.782900 -0.977700 1 0 1.000000 
metaldoor001a
0 2.550001 -29.216700 53.566502 0.000000 -0.922291 0.386496 0.795900 -0.937700 1 0 1.000000 
0 0.000001 -28.049999 54.044102 -0.185107 -0.690825 0.698925 0.809000 -0.977700 1 0 1.000000 
0 0.000001 -29.700001 52.413300 -0.072802 -0.996922 -0.029101 0.782900 -0.977700 1 0 1.000000 
metaldoor001a
0 -0.000001 28.049999 26.320601 0.169203 0.548109 -0.819113 0.756700 -0.977700 1 0 1.000000 
0 2.549999 29.700001 27.951401 0.169203 0.548109 -0.819113 0.782900 -0.937700 1 0 1.000000 
0 2.549999 26.883301 26.798201 0.672948 -0.524637 -0.521437 0.743700 -0.937700 1 0 1.000000 
metaldoor001a
0 -0.000001 28.049999 26.320601 0.169203 0.548109 -0.819113 0.756700 -0.977700 1 0 1.000000 
0 -0.000001 29.700001 27.951401 -0.000000 0.702995 -0.711195 0.782900 -0.977700 1 0 1.000000 
0 2.549999 29.700001 27.951401 0.169203 0.548109 -0.819113 0.782900 -0.937700 1 0 1.000000 
metaldoor001a
0 -0.000001 26.400000 27.951401 0.330001 -0.870601 0.364901 0.730600 -0.977700 1 0 1.000000 
0 2.549999 26.883301 26.798201 0.672948 -0.524637 -0.521437 0.743700 -0.937700 1 0 1.000000 
0 2.549999 28.049999 29.582199 0.330001 -0.870601 0.364901 0.704500 -0.937700 1 0 1.000000 
metaldoor001a
0 2.375001 -26.812500 11.099800 -0.517789 0.470690 -0.714385 0.574900 -0.045000 1 0 1.000000 
0 3.170501 -27.174999 10.284400 -0.517789 0.470690 -0.714385 0.537300 -0.089600 1 0 1.000000 
0 1.250001 -28.049999 11.099800 -0.517789 0.470690 -0.714385 0.649600 -0.045300 1 0 1.000000 
metaldoor001a
0 2.550001 -26.400000 52.413300 0.381524 0.826351 -0.414226 0.730600 -0.937700 1 0 1.000000 
0 0.000001 -28.049999 50.782501 0.169203 0.548109 -0.819113 0.756700 -0.977700 1 0 1.000000 
0 0.000001 -26.400000 52.413300 -0.000000 0.702995 -0.711195 0.730600 -0.977700 1 0 1.000000 
metaldoor001a
0 2.550001 -26.400000 52.413300 0.381524 0.826351 -0.414226 0.730600 -0.937700 1 0 1.000000 
0 2.550001 -29.216700 51.260201 0.327590 0.357989 -0.874373 0.769800 -0.937700 1 0 1.000000 
0 0.000001 -28.049999 50.782501 0.169203 0.548109 -0.819113 0.756700 -0.977700 1 0 1.000000 
metaldoor001a
0 2.550001 -29.216700 53.566502 0.327590 0.357989 0.874373 0.704500 -0.937700 1 0 1.000000 
0 2.550001 -26.400000 52.413300 0.381524 0.826351 -0.414226 0.730600 -0.937700 1 0 1.000000 
0 0.000001 -28.049999 54.044102 0.327590 0.357989 0.874373 0.704500 -0.977700 1 0 1.000000 
metaldoor001a
0 3.750000 -8.357700 -3.570400 0.999296 0.034600 0.014500 0.606600 -0.054300 1 0 1.000000 
0 3.450000 0.299700 -3.545500 0.051597 0.901554 -0.429578 0.393400 -0.074500 1 0 1.000000 
0 3.750000 -8.904500 -2.265600 0.999296 0.034600 0.014500 0.606600 -0.076700 1 0 1.000000 
metaldoor001a
0 2.550000 -7.487800 -2.450000 -0.991411 0.103301 -0.080201 0.606600 -0.076700 1 0 1.000000 
0 3.450000 0.299700 -3.545500 0.051597 0.901554 -0.429578 0.393400 -0.074500 1 0 1.000000 
0 2.550000 -8.357700 -3.570400 -0.991411 0.103301 -0.080201 0.606600 -0.054300 1 0 1.000000 
metaldoor001a
0 3.750000 8.142300 -3.570400 0.999296 0.034600 0.014500 0.606600 -0.054300 1 0 1.000000 
0 3.449999 16.799700 -3.545500 0.051597 0.901554 -0.429578 0.393400 -0.074500 1 0 1.000000 
0 3.750000 7.595500 -2.265600 0.999296 0.034600 0.014500 0.606600 -0.076700 1 0 1.000000 
metaldoor001a
0 2.549999 9.012200 -2.450000 -0.991411 0.103301 -0.080201 0.606600 -0.076700 1 0 1.000000 
0 3.449999 16.799700 -3.545500 0.051597 0.901554 -0.429578 0.393400 -0.074500 1 0 1.000000 
0 2.550000 8.142300 -3.570400 -0.991411 0.103301 -0.080201 0.606600 -0.054300 1 0 1.000000 
metaldoor001a
0 2.550000 -8.463500 108.703598 0.000000 -0.965153 -0.261687 0.422000 -0.080200 1 0 1.000000 
0 3.750000 -8.463500 108.703598 0.000000 -0.965153 -0.261687 0.422000 -0.039800 1 0 1.000000 
0 3.750000 -8.833400 110.067802 0.000000 -0.965153 -0.261687 0.384600 -0.039800 1 0 1.000000 
metaldoor001a
0 -0.000001 26.400000 52.413300 -0.164103 -0.883816 -0.438108 0.730600 -0.977700 1 0 1.000000 
0 2.549999 28.049999 50.782501 -0.169203 -0.548109 -0.819113 0.756700 -0.937700 1 0 1.000000 
0 2.549999 26.400000 52.413300 0.000000 -0.702995 -0.711195 0.730600 -0.937700 1 0 1.000000 
metaldoor001a
0 -0.000001 26.400000 52.413300 -0.164103 -0.883816 -0.438108 0.730600 -0.977700 1 0 1.000000 
0 -0.000001 29.216700 51.260201 -0.327590 -0.357989 -0.874373 0.769800 -0.977700 1 0 1.000000 
0 2.549999 28.049999 50.782501 -0.169203 -0.548109 -0.819113 0.756700 -0.937700 1 0 1.000000 
metaldoor001a
0 -0.000001 28.049999 54.044102 0.000000 -0.702995 0.711195 0.704500 -0.977700 1 0 1.000000 
0 -0.000001 26.400000 52.413300 -0.164103 -0.883816 -0.438108 0.730600 -0.977700 1 0 1.000000 
0 2.549999 28.049999 54.044102 0.000000 -0.702995 0.711195 0.704500 -0.937700 1 0 1.000000 
metaldoor001a
0 -0.000001 26.400000 52.413300 0.000000 -0.702995 0.711195 0.730600 -0.977700 1 0 1.000000 
0 2.549999 26.400000 52.413300 0.000000 -0.702995 0.711195 0.730600 -0.937700 1 0 1.000000 
0 2.549999 28.049999 54.044102 0.000000 -0.702995 0.711195 0.704500 -0.937700 1 0 1.000000 
metaldoor001a
0 -0.000001 29.216700 51.260201 -0.090297 0.973868 -0.208393 0.769800 -0.977700 1 0 1.000000 
0 2.549999 29.700001 52.413300 -0.062997 0.984448 0.163991 0.782900 -0.937700 1 0 1.000000 
0 2.549999 28.049999 50.782501 0.185203 0.690812 -0.698912 0.756700 -0.937700 1 0 1.000000 
metaldoor001a
0 -0.000001 29.216700 51.260201 -0.090297 0.973868 -0.208393 0.769800 -0.977700 1 0 1.000000 
0 -0.000001 28.049999 54.044102 -0.170607 0.813333 0.556222 0.809000 -0.977700 1 0 1.000000 
0 2.549999 29.700001 52.413300 -0.062997 0.984448 0.163991 0.782900 -0.937700 1 0 1.000000 
metaldoor001a
0 -0.000001 28.049999 54.044102 -0.170607 0.813333 0.556222 0.809000 -0.977700 1 0 1.000000 
0 2.549999 28.049999 54.044102 -0.000000 0.702995 0.711195 0.809000 -0.937700 1 0 1.000000 
0 2.549999 29.700001 52.413300 -0.062997 0.984448 0.163991 0.782900 -0.937700 1 0 1.000000 
metaldoor001a
0 2.550000 -9.416700 -1.554500 0.000000 -0.378913 0.925432 0.717600 -0.937700 1 0 1.000000 
0 0.000000 -8.250000 -1.076800 0.000000 -0.378913 0.925432 0.730600 -0.977700 1 0 1.000000 
0 0.000000 -9.900000 -2.707600 -0.185107 -0.690825 0.698925 0.704500 -0.977700 1 0 1.000000 
metaldoor001a
0 2.550000 -9.416700 -1.554500 0.000000 -0.378913 0.925432 0.717600 -0.937700 1 0 1.000000 
0 2.550000 -7.083300 -1.554500 0.184101 0.000000 0.982907 0.743700 -0.937700 1 0 1.000000 
0 0.000000 -8.250000 -1.076800 0.000000 -0.378913 0.925432 0.730600 -0.977700 1 0 1.000000 
metaldoor001a
0 2.550000 -7.083300 -3.860800 -0.000000 0.378913 -0.925432 0.769800 -0.937700 1 0 1.000000 
0 0.000000 -8.250000 -4.338400 -0.077996 -0.000000 -0.996954 0.782900 -0.977700 1 0 1.000000 
0 0.000000 -6.600000 -2.707600 -0.185107 0.690825 -0.698925 0.756700 -0.977700 1 0 1.000000 
metaldoor001a
0 2.550000 -7.083300 -3.860800 -0.000000 0.378913 -0.925432 0.769800 -0.937700 1 0 1.000000 
0 2.550000 -9.416700 -3.860800 0.072100 -0.722403 -0.687703 0.795900 -0.937700 1 0 1.000000 
0 0.000000 -8.250000 -4.338400 -0.077996 -0.000000 -0.996954 0.782900 -0.977700 1 0 1.000000 
metaldoor001a
0 2.550000 -9.416700 -3.860800 0.072100 -0.722403 -0.687703 0.795900 -0.937700 1 0 1.000000 
0 0.000000 -9.900000 -2.707600 0.000000 -0.922291 -0.386496 0.809000 -0.977700 1 0 1.000000 
0 0.000000 -8.250000 -4.338400 -0.077996 -0.000000 -0.996954 0.782900 -0.977700 1 0 1.000000 
metaldoor001a
0 2.550000 -9.416700 -3.860800 0.072100 -0.722403 -0.687703 0.795900 -0.937700 1 0 1.000000 
0 2.550000 -9.416700 -1.554500 0.186202 -0.982511 0.000000 0.809000 -0.937700 1 0 1.000000 
0 0.000000 -9.900000 -2.707600 0.000000 -0.922291 -0.386496 0.809000 -0.977700 1 0 1.000000 
metaldoor001a
0 2.549999 9.416700 108.338097 1.000000 0.000000 0.000000 0.036200 -0.093200 1 0 1.000000 
0 2.550000 7.083300 110.644402 1.000000 0.000000 0.000000 0.144800 -0.037900 1 0 1.000000 
0 2.550000 7.083300 108.338097 1.000000 0.000000 0.000000 0.036200 -0.037900 1 0 1.000000 
metaldoor001a
0 2.549999 9.416700 108.338097 1.000000 0.000000 0.000000 0.036200 -0.093200 1 0 1.000000 
0 2.549999 9.416700 110.644402 1.000000 0.000000 0.000000 0.144800 -0.093200 1 0 1.000000 
0 2.550000 7.083300 110.644402 1.000000 0.000000 0.000000 0.144800 -0.037900 1 0 1.000000 
metaldoor001a
0 2.549999 8.250000 -1.076800 -0.301282 0.393076 0.868747 0.730600 -0.937700 1 0 1.000000 
0 -0.000000 9.900000 -2.707600 -0.312295 0.814888 0.488293 0.756700 -0.977700 1 0 1.000000 
0 -0.000000 6.600000 -2.707600 -0.716100 -0.683400 0.142000 0.704500 -0.977700 1 0 1.000000 
metaldoor001a
0 2.549999 8.250000 -1.076800 -0.301282 0.393076 0.868747 0.730600 -0.937700 1 0 1.000000 
0 2.549999 9.900000 -2.707600 0.164103 0.883816 -0.438108 0.756700 -0.937700 1 0 1.000000 
0 -0.000000 9.900000 -2.707600 -0.312295 0.814888 0.488293 0.756700 -0.977700 1 0 1.000000 
metaldoor001a
0 2.549999 9.900000 -2.707600 0.164103 0.883816 -0.438108 0.756700 -0.937700 1 0 1.000000 
0 -0.000000 8.250000 -4.338400 0.061398 0.159595 -0.985271 0.782900 -0.977700 1 0 1.000000 
0 -0.000000 9.900000 -2.707600 -0.312295 0.814888 0.488293 0.756700 -0.977700 1 0 1.000000 
metaldoor001a
0 2.549999 9.900000 -2.707600 0.164103 0.883816 -0.438108 0.756700 -0.937700 1 0 1.000000 
0 2.550000 7.083300 -3.860800 0.088202 -0.206205 -0.974525 0.795900 -0.937700 1 0 1.000000 
0 -0.000000 8.250000 -4.338400 0.061398 0.159595 -0.985271 0.782900 -0.977700 1 0 1.000000 
metaldoor001a
0 2.550000 7.083300 -3.860800 0.088202 -0.206205 -0.974525 0.795900 -0.937700 1 0 1.000000 
0 -0.000000 6.600000 -2.707600 -0.716100 -0.683400 0.142000 0.809000 -0.977700 1 0 1.000000 
0 -0.000000 8.250000 -4.338400 0.061398 0.159595 -0.985271 0.782900 -0.977700 1 0 1.000000 
metaldoor001a
0 3.750000 -8.463500 108.703598 0.996952 0.075296 0.020399 0.606600 -0.054300 1 0 1.000000 
0 3.150000 -0.047800 106.981400 0.003300 0.959933 -0.280210 0.393400 -0.056600 1 0 1.000000 
0 3.750000 -8.833400 110.067802 0.996952 0.075296 0.020399 0.606600 -0.076700 1 0 1.000000 
metaldoor001a
0 2.550000 -7.453100 109.702301 -0.996483 0.058899 -0.059599 0.606600 -0.076700 1 0 1.000000 
0 3.150000 -0.047800 106.981400 0.003300 0.959933 -0.280210 0.393400 -0.056600 1 0 1.000000 
0 2.550000 -8.463500 108.703598 -0.996483 0.058899 -0.059599 0.606600 -0.054300 1 0 1.000000 
metaldoor001a
0 2.550000 8.036500 108.703598 0.000000 -0.965153 -0.261687 0.422000 -0.080200 1 0 1.000000 
0 3.750000 8.036500 108.703598 0.000000 -0.965153 -0.261687 0.422000 -0.039800 1 0 1.000000 
0 3.750000 7.666600 110.067802 0.000000 -0.965153 -0.261687 0.384600 -0.039800 1 0 1.000000 
metaldoor001a
0 2.550001 -26.883301 29.104500 -0.170604 0.967121 0.188604 0.717600 -0.937700 1 0 1.000000 
0 0.000001 -26.883301 26.798201 -0.202804 0.916617 -0.344506 0.743700 -0.977700 1 0 1.000000 
0 0.000001 -28.049999 29.582199 -0.330001 0.870601 0.364901 0.704500 -0.977700 1 0 1.000000 
metaldoor001a
0 2.550001 -26.883301 29.104500 -0.170604 0.967121 0.188604 0.717600 -0.937700 1 0 1.000000 
0 2.550001 -26.883301 26.798201 -0.000000 0.129805 -0.991539 0.743700 -0.937700 1 0 1.000000 
0 0.000001 -26.883301 26.798201 -0.202804 0.916617 -0.344506 0.743700 -0.977700 1 0 1.000000 
metaldoor001a
0 2.550001 -26.883301 26.798201 -0.000000 0.129805 -0.991539 0.743700 -0.937700 1 0 1.000000 
0 0.000001 -29.700001 27.951401 0.000000 -0.378913 -0.925432 0.782900 -0.977700 1 0 1.000000 
0 0.000001 -26.883301 26.798201 -0.202804 0.916617 -0.344506 0.743700 -0.977700 1 0 1.000000 
metaldoor001a
0 2.550001 -26.883301 26.798201 -0.000000 0.129805 -0.991539 0.743700 -0.937700 1 0 1.000000 
0 2.550001 -29.700001 27.951401 0.000000 -0.378913 -0.925432 0.782900 -0.937700 1 0 1.000000 
0 0.000001 -29.700001 27.951401 0.000000 -0.378913 -0.925432 0.782900 -0.977700 1 0 1.000000 
metaldoor001a
0 1.250001 -24.793800 5.935800 0.649397 -0.724897 -0.229799 0.496600 -0.498000 1 0 1.000000 
0 0.000001 -24.915501 6.747200 -0.095502 -0.969223 -0.226905 0.503400 -0.498000 1 0 1.000000 
0 0.000001 -23.036800 2.264200 -0.122205 -0.742033 -0.659130 0.503400 -0.498000 1 0 1.000000 
metaldoor001a
0 1.250001 -22.479500 1.656500 0.569692 0.631991 0.525393 0.496600 -0.502000 1 0 1.000000 
0 1.250001 -24.793800 5.935800 0.649397 -0.724897 -0.229799 0.496600 -0.498000 1 0 1.000000 
0 0.000001 -23.036800 2.264200 -0.122205 -0.742033 -0.659130 0.503400 -0.498000 1 0 1.000000 
metaldoor001a
0 1.250001 -22.479500 1.656500 0.569692 0.631991 0.525393 0.496600 -0.502000 1 0 1.000000 
0 0.000001 -24.394800 5.199400 0.299793 0.883680 0.359492 0.503400 -0.498000 1 0 1.000000 
0 1.250001 -24.793800 5.935800 0.649397 -0.724897 -0.229799 0.496600 -0.498000 1 0 1.000000 
metaldoor001a
0 1.250001 -22.479500 1.656500 0.569692 0.631991 0.525393 0.496600 -0.502000 1 0 1.000000 
0 0.000001 -20.389000 0.375200 0.355812 0.435415 0.826929 0.503400 -0.502000 1 0 1.000000 
0 0.000001 -24.394800 5.199400 0.299793 0.883680 0.359492 0.503400 -0.498000 1 0 1.000000 
metaldoor001a
0 1.250001 -19.736099 -0.155300 0.481000 -0.441400 -0.757499 0.496600 -0.502000 1 0 1.000000 
0 0.000001 -20.389000 0.375200 0.355812 0.435415 0.826929 0.503400 -0.502000 1 0 1.000000 
0 1.250001 -22.479500 1.656500 0.569692 0.631991 0.525393 0.496600 -0.502000 1 0 1.000000 
metaldoor001a
0 1.250001 -19.736099 -0.155300 0.481000 -0.441400 -0.757499 0.496600 -0.502000 1 0 1.000000 
0 1.250001 -22.479500 1.656500 0.569692 0.631991 0.525393 0.496600 -0.502000 1 0 1.000000 
0 0.000001 -23.036800 2.264200 -0.122205 -0.742033 -0.659130 0.503400 -0.498000 1 0 1.000000 
metaldoor001a
0 1.250001 -19.736099 -0.155300 0.481000 -0.441400 -0.757499 0.496600 -0.502000 1 0 1.000000 
0 0.000001 -23.036800 2.264200 -0.122205 -0.742033 -0.659130 0.503400 -0.498000 1 0 1.000000 
0 0.000001 -18.149700 -0.630900 0.035400 -0.261302 -0.964608 0.503400 -0.502000 1 0 1.000000 
metaldoor001a
0 3.750000 8.036500 108.703598 0.996952 0.075296 0.020399 0.606600 -0.054300 1 0 1.000000 
0 3.149999 16.452200 106.981400 0.003300 0.959933 -0.280210 0.393400 -0.056600 1 0 1.000000 
0 3.750000 7.666600 110.067802 0.996952 0.075296 0.020399 0.606600 -0.076700 1 0 1.000000 
metaldoor001a
0 2.549999 9.046900 109.702301 -0.996483 0.058899 -0.059599 0.606600 -0.076700 1 0 1.000000 
0 3.149999 16.452200 106.981400 0.003300 0.959933 -0.280210 0.393400 -0.056600 1 0 1.000000 
0 2.550000 8.036500 108.703598 -0.996483 0.058899 -0.059599 0.606600 -0.054300 1 0 1.000000 
metaldoor001a
0 3.750001 -28.867901 27.844900 0.000000 -0.604279 0.796773 0.365800 -0.039800 1 0 1.000000 
0 3.750001 -27.734301 28.704700 0.000000 -0.604279 0.796773 0.403300 -0.039800 1 0 1.000000 
0 2.550001 -28.867901 27.844900 0.000000 -0.604279 0.796773 0.365800 -0.080200 1 0 1.000000 
metaldoor001a
0 1.250001 -24.793800 5.935800 0.649397 -0.724897 -0.229799 0.956600 -0.963300 1 0 1.000000 
0 0.000001 -24.915501 98.079498 0.024900 -0.974910 0.221202 0.967800 -0.218700 1 0 1.000000 
0 0.000001 -24.915501 6.747200 -0.095502 -0.969223 -0.226905 0.967800 -0.963300 1 0 1.000000 
metaldoor001a
0 1.250001 -24.793800 5.935800 0.649397 -0.724897 -0.229799 0.956600 -0.963300 1 0 1.000000 
0 1.250001 -24.915501 98.079498 0.850172 -0.526183 0.018399 0.956600 -0.218700 1 0 1.000000 
0 0.000001 -24.915501 98.079498 0.024900 -0.974910 0.221202 0.967800 -0.218700 1 0 1.000000 
metaldoor001a
0 1.250001 -24.793800 5.935800 0.649397 -0.724897 -0.229799 0.956600 -0.963300 1 0 1.000000 
0 0.000001 -23.775900 101.103996 0.327290 0.895972 -0.300191 0.967800 -0.218700 1 0 1.000000 
0 1.250001 -24.915501 98.079498 0.850172 -0.526183 0.018399 0.956600 -0.218700 1 0 1.000000 
metaldoor001a
0 1.250001 -24.793800 5.935800 0.649397 -0.724897 -0.229799 0.956600 -0.963300 1 0 1.000000 
0 0.000001 -24.394800 5.199400 0.299793 0.883680 0.359492 0.967800 -0.963300 1 0 1.000000 
0 0.000001 -23.775900 101.103996 0.327290 0.895972 -0.300191 0.967800 -0.218700 1 0 1.000000 
metaldoor001a
0 -0.000001 23.531099 2.923000 -0.283997 0.850092 -0.443496 0.496600 -0.498000 1 0 1.000000 
0 1.249999 24.915501 6.747200 0.883691 0.459895 0.087099 0.503400 -0.498000 1 0 1.000000 
0 1.249999 23.036800 2.264200 0.986094 0.108599 -0.125799 0.503400 -0.498000 1 0 1.000000 
metaldoor001a
0 1.249999 24.915501 6.747200 0.883691 0.459895 0.087099 0.503400 -0.498000 1 0 1.000000 
0 -0.000001 23.359600 3.036300 0.404311 -0.809822 0.425112 0.496600 -0.498000 1 0 1.000000 
0 1.249999 23.036800 2.264200 0.986094 0.108599 -0.125799 0.503400 -0.498000 1 0 1.000000 
metaldoor001a
0 1.249999 23.036800 2.264200 0.986094 0.108599 -0.125799 0.503400 -0.498000 1 0 1.000000 
0 -0.000001 23.359600 3.036300 0.404311 -0.809822 0.425112 0.496600 -0.498000 1 0 1.000000 
0 -0.000001 19.657101 0.033100 0.234404 -0.324405 0.916415 0.496600 -0.502000 1 0 1.000000 
metaldoor001a
0 1.249999 23.036800 2.264200 0.986094 0.108599 -0.125799 0.503400 -0.498000 1 0 1.000000 
0 -0.000001 19.657101 0.033100 0.234404 -0.324405 0.916415 0.496600 -0.502000 1 0 1.000000 
0 1.249999 20.486200 0.195400 0.997232 0.074102 0.006000 0.503400 -0.502000 1 0 1.000000 
metaldoor001a
0 -0.000001 19.736099 -0.155300 0.086601 0.344703 -0.934708 0.496600 -0.502000 1 0 1.000000 
0 1.249999 23.036800 2.264200 0.986094 0.108599 -0.125799 0.503400 -0.498000 1 0 1.000000 
0 1.249999 20.486200 0.195400 0.997232 0.074102 0.006000 0.503400 -0.502000 1 0 1.000000 
metaldoor001a
0 -0.000001 19.736099 -0.155300 0.086601 0.344703 -0.934708 0.496600 -0.502000 1 0 1.000000 
0 -0.000001 23.531099 2.923000 -0.283997 0.850092 -0.443496 0.496600 -0.498000 1 0 1.000000 
0 1.249999 23.036800 2.264200 0.986094 0.108599 -0.125799 0.503400 -0.498000 1 0 1.000000 
metaldoor001a
0 1.250001 -18.149700 105.457497 0.538699 -0.312499 0.782398 0.983000 -0.963300 1 0 1.000000 
0 -0.000001 18.149700 105.457497 -0.032501 0.129703 0.991020 0.952000 -0.218700 1 0 1.000000 
0 0.000001 -18.149700 105.457497 -0.040402 -0.193109 0.980345 0.952000 -0.963300 1 0 1.000000 
metaldoor001a
0 1.250001 -18.149700 105.457497 0.538699 -0.312499 0.782398 0.983000 -0.963300 1 0 1.000000 
0 1.249999 18.149700 105.457497 0.953467 -0.287690 0.090197 0.983000 -0.218700 1 0 1.000000 
0 -0.000001 18.149700 105.457497 -0.032501 0.129703 0.991020 0.952000 -0.218700 1 0 1.000000 
metaldoor001a
0 1.250001 -18.149700 105.457497 0.538699 -0.312499 0.782398 0.983000 -0.963300 1 0 1.000000 
0 -0.000001 18.894800 105.063103 0.324509 -0.161305 -0.932027 0.952000 -0.218700 1 0 1.000000 
0 1.249999 18.149700 105.457497 0.953467 -0.287690 0.090197 0.983000 -0.218700 1 0 1.000000 
metaldoor001a
0 1.250001 -18.149700 105.457497 0.538699 -0.312499 0.782398 0.983000 -0.963300 1 0 1.000000 
0 0.000001 -20.389000 104.451401 0.329306 0.410307 -0.850415 0.952000 -0.963300 1 0 1.000000 
0 -0.000001 18.894800 105.063103 0.324509 -0.161305 -0.932027 0.952000 -0.218700 1 0 1.000000 
metaldoor001a
0 3.750001 -28.867901 27.844900 0.999290 0.022800 -0.030000 0.606600 -0.076700 1 0 1.000000 
0 3.450001 -26.602900 19.586300 0.034899 0.260790 -0.964764 0.393400 -0.056600 1 0 1.000000 
0 3.750001 -27.734301 28.704700 0.999290 0.022800 -0.030000 0.606600 -0.054300 1 0 1.000000 
metaldoor001a
0 2.550001 -27.232100 28.057800 -0.994421 0.013600 -0.104602 0.606600 -0.054300 1 0 1.000000 
0 3.450001 -26.602900 19.586300 0.034899 0.260790 -0.964764 0.393400 -0.056600 1 0 1.000000 
0 2.550001 -28.867901 27.844900 -0.994421 0.013600 -0.104602 0.606600 -0.076700 1 0 1.000000 
metaldoor001a
0 3.750001 -28.867901 76.768898 0.000000 -0.604279 0.796773 0.365800 -0.039800 1 0 1.000000 
0 3.750001 -27.734301 77.628601 0.000000 -0.604279 0.796773 0.403300 -0.039800 1 0 1.000000 
0 2.550001 -28.867901 76.768898 0.000000 -0.604279 0.796773 0.365800 -0.080200 1 0 1.000000 
metaldoor001a
0 0.000001 -22.479500 103.170097 0.000000 -0.640804 0.767705 0.496600 -0.498000 1 0 1.000000 
0 0.000001 -24.915501 98.079498 0.024900 -0.974910 0.221202 0.496600 -0.502000 1 0 1.000000 
0 1.250001 -22.479500 103.170097 0.188195 -0.803281 -0.565086 0.503400 -0.502000 1 0 1.000000 
metaldoor001a
0 0.000001 -24.915501 98.079498 0.024900 -0.974910 0.221202 0.496600 -0.502000 1 0 1.000000 
0 1.250001 -24.915501 98.079498 0.850172 -0.526183 0.018399 0.503400 -0.502000 1 0 1.000000 
0 1.250001 -22.479500 103.170097 0.188195 -0.803281 -0.565086 0.503400 -0.502000 1 0 1.000000 
metaldoor001a
0 1.250001 -24.915501 98.079498 0.850172 -0.526183 0.018399 0.503400 -0.502000 1 0 1.000000 
0 0.000001 -23.775900 101.103996 0.327290 0.895972 -0.300191 0.496600 -0.502000 1 0 1.000000 
0 1.250001 -22.479500 103.170097 0.188195 -0.803281 -0.565086 0.503400 -0.502000 1 0 1.000000 
metaldoor001a
0 0.000001 -20.389000 104.451401 0.329306 0.410307 -0.850415 0.496600 -0.498000 1 0 1.000000 
0 1.250001 -22.479500 103.170097 0.188195 -0.803281 -0.565086 0.503400 -0.502000 1 0 1.000000 
0 0.000001 -23.775900 101.103996 0.327290 0.895972 -0.300191 0.496600 -0.502000 1 0 1.000000 
metaldoor001a
0 1.250001 -22.479500 103.170097 0.188195 -0.803281 -0.565086 0.503400 -0.502000 1 0 1.000000 
0 0.000001 -20.389000 104.451401 0.329306 0.410307 -0.850415 0.496600 -0.498000 1 0 1.000000 
0 1.250001 -18.149700 105.457497 0.538699 -0.312499 0.782398 0.503400 -0.498000 1 0 1.000000 
metaldoor001a
0 0.000001 -22.479500 103.170097 0.000000 -0.640804 0.767705 0.496600 -0.498000 1 0 1.000000 
0 1.250001 -22.479500 103.170097 0.188195 -0.803281 -0.565086 0.503400 -0.502000 1 0 1.000000 
0 1.250001 -18.149700 105.457497 0.538699 -0.312499 0.782398 0.503400 -0.498000 1 0 1.000000 
metaldoor001a
0 0.000001 -18.149700 105.457497 0.000000 -0.208791 0.977960 0.496600 -0.502000 1 0 1.000000 
0 0.000001 -22.479500 103.170097 0.000000 -0.640804 0.767705 0.496600 -0.498000 1 0 1.000000 
0 1.250001 -18.149700 105.457497 0.538699 -0.312499 0.782398 0.503400 -0.498000 1 0 1.000000 
metaldoor001a
0 3.750001 -28.867901 76.768898 0.999290 0.022800 -0.030000 0.606600 -0.076700 1 0 1.000000 
0 3.450001 -26.602900 68.510300 0.034899 0.260790 -0.964764 0.393400 -0.056600 1 0 1.000000 
0 3.750001 -27.734301 77.628601 0.999290 0.022800 -0.030000 0.606600 -0.054300 1 0 1.000000 
metaldoor001a
0 2.550001 -27.232100 76.981697 -0.994421 0.013600 -0.104602 0.606600 -0.054300 1 0 1.000000 
0 3.450001 -26.602900 68.510300 0.034899 0.260790 -0.964764 0.393400 -0.056600 1 0 1.000000 
0 2.550001 -28.867901 76.768898 -0.994421 0.013600 -0.104602 0.606600 -0.076700 1 0 1.000000 
metaldoor001a
0 3.750001 -28.867901 52.306900 0.000000 -0.604279 0.796773 0.365800 -0.039800 1 0 1.000000 
0 3.750001 -27.734301 53.166698 0.000000 -0.604279 0.796773 0.403300 -0.039800 1 0 1.000000 
0 2.550001 -28.867901 52.306900 0.000000 -0.604279 0.796773 0.365800 -0.080200 1 0 1.000000 
metaldoor001a
0 2.550001 -26.400000 76.875298 -0.000000 0.702995 -0.711195 0.730600 -0.937700 1 0 1.000000 
0 2.550001 -28.049999 75.244499 -0.000000 0.702995 -0.711195 0.756700 -0.937700 1 0 1.000000 
0 0.000001 -26.400000 76.875298 -0.000000 0.702995 -0.711195 0.730600 -0.977700 1 0 1.000000 
metaldoor001a
0 2.550001 -28.049999 75.244499 -0.000000 0.702995 -0.711195 0.756700 -0.937700 1 0 1.000000 
0 0.000001 -28.049999 75.244499 -0.000000 0.702995 -0.711195 0.756700 -0.977700 1 0 1.000000 
0 0.000001 -26.400000 76.875298 -0.000000 0.702995 -0.711195 0.730600 -0.977700 1 0 1.000000 
metaldoor001a
0 2.550001 -28.049999 78.506104 0.000000 0.000000 1.000000 0.704500 -0.937700 1 0 1.000000 
0 2.550001 -26.400000 76.875298 -0.000000 0.702995 0.711195 0.730600 -0.937700 1 0 1.000000 
0 0.000001 -28.049999 78.506104 -0.000000 0.702995 0.711195 0.704500 -0.977700 1 0 1.000000 
metaldoor001a
0 2.550001 -26.400000 76.875298 -0.000000 0.702995 0.711195 0.730600 -0.937700 1 0 1.000000 
0 0.000001 -26.400000 76.875298 -0.000000 0.702995 0.711195 0.730600 -0.977700 1 0 1.000000 
0 0.000001 -28.049999 78.506104 -0.000000 0.702995 0.711195 0.704500 -0.977700 1 0 1.000000 
metaldoor001a
0 2.925001 -27.719999 10.257200 -0.000000 1.000000 0.000000 0.850700 -0.930200 1 0 1.000000 
0 0.000001 -27.719999 13.926500 -0.000000 1.000000 0.000000 0.937300 -0.830200 1 0 1.000000 
0 0.000001 -27.719999 9.360300 -0.000000 1.000000 0.000000 0.937300 -0.954600 1 0 1.000000 
metaldoor001a
0 0.000001 -27.719999 13.926500 -0.000000 1.000000 0.000000 0.937300 -0.830200 1 0 1.000000 
0 2.925001 -27.719999 10.257200 -0.000000 1.000000 0.000000 0.850700 -0.930200 1 0 1.000000 
0 0.000001 -27.719999 9.360300 -0.000000 1.000000 0.000000 0.937300 -0.954600 1 0 1.000000 
metaldoor001a
0 2.925001 -27.719999 10.257200 -0.000000 1.000000 0.000000 0.850700 -0.930200 1 0 1.000000 
0 2.925001 -27.719999 13.029600 -0.000000 1.000000 0.000000 0.850700 -0.854700 1 0 1.000000 
0 0.000001 -27.719999 13.926500 -0.000000 1.000000 0.000000 0.937300 -0.830200 1 0 1.000000 
metaldoor001a
0 0.000001 -27.719999 13.926500 -0.000000 1.000000 0.000000 0.937300 -0.830200 1 0 1.000000 
0 2.925001 -27.719999 13.029600 -0.000000 1.000000 0.000000 0.850700 -0.854700 1 0 1.000000 
0 2.925001 -27.719999 10.257200 -0.000000 1.000000 0.000000 0.850700 -0.930200 1 0 1.000000 
metaldoor001a
0 2.550000 -7.487800 -2.450000 -0.716386 -0.551089 0.427892 0.347100 -0.080200 1 0 1.000000 
0 2.550000 -8.357700 -3.570400 -0.437123 -0.899048 0.025201 0.422000 -0.080200 1 0 1.000000 
0 3.750000 -8.904500 -2.265600 -0.437123 -0.899048 0.025201 0.384600 -0.039800 1 0 1.000000 
metaldoor001a
0 2.550000 -8.357700 -3.570400 -0.437123 -0.899048 0.025201 0.422000 -0.080200 1 0 1.000000 
0 3.750000 -8.357700 -3.570400 0.000000 -0.922291 -0.386496 0.422000 -0.039800 1 0 1.000000 
0 3.750000 -8.904500 -2.265600 -0.437123 -0.899048 0.025201 0.384600 -0.039800 1 0 1.000000 
metaldoor001a
0 -0.000000 9.416700 110.644402 0.000000 -0.378913 0.925432 0.769800 -0.977700 1 0 1.000000 
0 -0.000000 6.600000 109.491203 0.000000 -0.378913 0.925432 0.809000 -0.977700 1 0 1.000000 
0 2.549999 9.416700 110.644402 0.000000 -0.378913 0.925432 0.769800 -0.937700 1 0 1.000000 
metaldoor001a
0 3.750001 -28.867901 52.306900 0.996918 0.047401 -0.062501 0.606600 -0.076700 1 0 1.000000 
0 3.150001 -27.257299 43.963200 -0.004100 0.392395 -0.919788 0.393400 -0.074500 1 0 1.000000 
0 3.750001 -27.734301 53.166698 0.996918 0.047401 -0.062501 0.606600 -0.054300 1 0 1.000000 
metaldoor001a
0 2.550001 -27.232100 52.519699 -0.997505 0.009100 -0.070000 0.606600 -0.054300 1 0 1.000000 
0 3.150001 -27.257299 43.963200 -0.004100 0.392395 -0.919788 0.393400 -0.074500 1 0 1.000000 
0 2.550001 -28.867901 52.306900 -0.997505 0.009100 -0.070000 0.606600 -0.076700 1 0 1.000000 
metaldoor001a
0 2.549999 27.232100 28.057800 0.000000 -0.378913 0.925432 0.422000 -0.080200 1 0 1.000000 
0 3.749999 27.232100 28.057800 0.000000 -0.378913 0.925432 0.422000 -0.039800 1 0 1.000000 
0 3.749999 28.552200 28.598301 0.000000 -0.378913 0.925432 0.384600 -0.039800 1 0 1.000000 
metaldoor001a
0 -0.000000 9.416700 108.338097 0.000000 0.000000 -1.000000 0.743700 -0.977700 1 0 1.000000 
0 2.549999 9.416700 108.338097 0.000000 0.000000 -1.000000 0.743700 -0.937700 1 0 1.000000 
0 2.550000 7.083300 108.338097 0.000000 0.000000 -1.000000 0.717600 -0.937700 1 0 1.000000 
metaldoor001a
0 3.749999 27.232100 28.057800 0.999285 0.014300 -0.034999 0.606600 -0.054300 1 0 1.000000 
0 3.449999 27.257299 19.501200 0.051401 -0.421406 -0.905414 0.393400 -0.074500 1 0 1.000000 
0 3.749999 28.552200 28.598301 0.999285 0.014300 -0.034999 0.606600 -0.076700 1 0 1.000000 
metaldoor001a
0 2.549999 28.365700 27.198000 -0.991359 -0.079297 -0.104496 0.606600 -0.076700 1 0 1.000000 
0 3.449999 27.257299 19.501200 0.051401 -0.421406 -0.905414 0.393400 -0.074500 1 0 1.000000 
0 2.549999 27.232100 28.057800 -0.991359 -0.079297 -0.104496 0.606600 -0.054300 1 0 1.000000 
metaldoor001a
0 2.549999 27.232100 76.981697 0.000000 -0.378913 0.925432 0.422000 -0.080200 1 0 1.000000 
0 3.749999 27.232100 76.981697 0.000000 -0.378913 0.925432 0.422000 -0.039800 1 0 1.000000 
0 3.749999 28.552200 77.522202 0.000000 -0.378913 0.925432 0.384600 -0.039800 1 0 1.000000 
metaldoor001a
0 0.000000 -7.083300 110.644402 0.000000 -0.378913 0.925432 0.769800 -0.977700 1 0 1.000000 
0 0.000000 -9.900000 109.491203 0.000000 -0.378913 0.925432 0.809000 -0.977700 1 0 1.000000 
0 2.550000 -7.083300 110.644402 0.000000 -0.378913 0.925432 0.769800 -0.937700 1 0 1.000000 
metaldoor001a
0 3.749999 27.232100 76.981697 0.996901 0.029800 -0.072800 0.606600 -0.054300 1 0 1.000000 
0 3.149999 26.602900 68.510300 0.003000 -0.147704 -0.989027 0.393400 -0.056600 1 0 1.000000 
0 3.749999 28.552200 77.522202 0.996901 0.029800 -0.072800 0.606600 -0.076700 1 0 1.000000 
metaldoor001a
0 2.549999 28.365700 76.122002 -0.996477 -0.050699 -0.066798 0.606600 -0.076700 1 0 1.000000 
0 3.149999 26.602900 68.510300 0.003000 -0.147704 -0.989027 0.393400 -0.056600 1 0 1.000000 
0 2.549999 27.232100 76.981697 -0.996477 -0.050699 -0.066798 0.606600 -0.054300 1 0 1.000000 
metaldoor001a
0 2.549999 27.232100 52.519699 0.000000 -0.378913 0.925432 0.422000 -0.080200 1 0 1.000000 
0 3.749999 27.232100 52.519699 0.000000 -0.378913 0.925432 0.422000 -0.039800 1 0 1.000000 
0 3.749999 28.552200 53.060200 0.000000 -0.378913 0.925432 0.384600 -0.039800 1 0 1.000000 
metaldoor001a
0 0.000000 -7.083300 108.338097 0.000000 0.000000 -1.000000 0.743700 -0.977700 1 0 1.000000 
0 2.550000 -7.083300 108.338097 0.000000 0.000000 -1.000000 0.743700 -0.937700 1 0 1.000000 
0 2.550000 -9.416700 108.338097 0.000000 0.000000 -1.000000 0.717600 -0.937700 1 0 1.000000 
metaldoor001a
0 3.749999 27.232100 52.519699 0.999285 0.014300 -0.034999 0.606600 -0.054300 1 0 1.000000 
0 3.449999 27.257299 43.963200 0.051401 -0.421406 -0.905414 0.393400 -0.074500 1 0 1.000000 
0 3.749999 28.552200 53.060200 0.999285 0.014300 -0.034999 0.606600 -0.076700 1 0 1.000000 
metaldoor001a
0 2.549999 28.365700 51.660000 -0.991359 -0.079297 -0.104496 0.606600 -0.076700 1 0 1.000000 
0 3.449999 27.257299 43.963200 0.051401 -0.421406 -0.905414 0.393400 -0.074500 1 0 1.000000 
0 2.549999 27.232100 52.519699 -0.991359 -0.079297 -0.104496 0.606600 -0.054300 1 0 1.000000 
metaldoor001a
0 1.250001 -28.049999 13.002400 -0.517789 -0.470690 -0.714385 0.350400 -0.045300 1 0 1.000000 
0 1.579501 -27.174999 12.187000 -0.517789 -0.470690 -0.714385 0.350400 -0.090100 1 0 1.000000 
0 2.375001 -29.287500 13.002400 -0.517789 -0.470690 -0.714385 0.425100 -0.045000 1 0 1.000000 
metaldoor001a
0 1.249999 23.957701 101.200104 0.958547 -0.217211 0.184409 0.496600 -0.502000 1 0 1.000000 
0 -0.000001 21.733700 103.563400 0.000000 -0.617203 -0.786804 0.503400 -0.498000 1 0 1.000000 
0 -0.000001 24.122000 100.380699 0.352099 -0.909497 -0.220999 0.503400 -0.502000 1 0 1.000000 
metaldoor001a
0 -0.000001 21.733700 103.563400 0.000000 -0.617203 -0.786804 0.503400 -0.498000 1 0 1.000000 
0 1.249999 23.957701 101.200104 0.958547 -0.217211 0.184409 0.496600 -0.502000 1 0 1.000000 
0 1.249999 18.149700 105.457497 0.953467 -0.287690 0.090197 0.496600 -0.502000 1 0 1.000000 
metaldoor001a
0 1.249999 18.149700 105.457497 0.953467 -0.287690 0.090197 0.496600 -0.502000 1 0 1.000000 
0 1.249999 23.957701 101.200104 0.958547 -0.217211 0.184409 0.496600 -0.502000 1 0 1.000000 
0 -0.000001 21.198000 104.209503 0.188700 0.567300 0.801600 0.503400 -0.498000 1 0 1.000000 
metaldoor001a
0 1.249999 18.149700 105.457497 0.953467 -0.287690 0.090197 0.496600 -0.502000 1 0 1.000000 
0 -0.000001 21.198000 104.209503 0.188700 0.567300 0.801600 0.503400 -0.498000 1 0 1.000000 
0 -0.000001 18.149700 105.457497 -0.000000 0.177002 0.984210 0.503400 -0.502000 1 0 1.000000 
metaldoor001a
0 1.249999 18.149700 105.457497 0.953467 -0.287690 0.090197 0.496600 -0.502000 1 0 1.000000 
0 -0.000001 18.894800 105.063103 0.324509 -0.161305 -0.932027 0.503400 -0.498000 1 0 1.000000 
0 -0.000001 21.733700 103.563400 0.000000 -0.617203 -0.786804 0.503400 -0.498000 1 0 1.000000 
metaldoor001a
0 1.249999 23.957701 101.200104 0.958547 -0.217211 0.184409 0.496600 -0.502000 1 0 1.000000 
0 -0.000001 23.957701 101.200104 -0.282491 0.922970 0.261391 0.503400 -0.502000 1 0 1.000000 
0 -0.000001 21.198000 104.209503 0.188700 0.567300 0.801600 0.503400 -0.498000 1 0 1.000000 
metaldoor001a
0 -0.000001 26.400000 76.875298 0.000000 -0.702995 -0.711195 0.730600 -0.977700 1 0 1.000000 
0 -0.000001 28.049999 75.244499 0.000000 -0.702995 -0.711195 0.756700 -0.977700 1 0 1.000000 
0 2.549999 26.400000 76.875298 0.000000 -0.702995 -0.711195 0.730600 -0.937700 1 0 1.000000 
metaldoor001a
0 -0.000001 28.049999 75.244499 0.000000 -0.702995 -0.711195 0.756700 -0.977700 1 0 1.000000 
0 2.549999 28.049999 75.244499 0.000000 -0.702995 -0.711195 0.756700 -0.937700 1 0 1.000000 
0 2.549999 26.400000 76.875298 0.000000 -0.702995 -0.711195 0.730600 -0.937700 1 0 1.000000 
metaldoor001a
0 -0.000001 28.049999 78.506104 -0.000000 0.702995 0.711195 0.809000 -0.977700 1 0 1.000000 
0 2.549999 28.049999 78.506104 -0.000000 0.702995 0.711195 0.809000 -0.937700 1 0 1.000000 
0 2.549999 29.700001 76.875298 -0.000000 1.000000 0.000000 0.782900 -0.937700 1 0 1.000000 
metaldoor001a
0 -0.000001 28.049999 75.244499 -0.000000 0.702995 -0.711195 0.756700 -0.977700 1 0 1.000000 
0 -0.000001 29.700001 76.875298 -0.000000 0.702995 -0.711195 0.782900 -0.977700 1 0 1.000000 
0 2.549999 28.049999 75.244499 -0.000000 0.702995 -0.711195 0.756700 -0.937700 1 0 1.000000 
metaldoor001a
0 -0.000001 29.700001 76.875298 -0.000000 0.702995 -0.711195 0.782900 -0.977700 1 0 1.000000 
0 2.549999 29.700001 76.875298 -0.000000 1.000000 0.000000 0.782900 -0.937700 1 0 1.000000 
0 2.549999 28.049999 75.244499 -0.000000 0.702995 -0.711195 0.756700 -0.937700 1 0 1.000000 
metaldoor001a
0 2.550001 -29.700001 76.875298 0.000000 -0.702995 0.711195 0.782900 -0.937700 1 0 1.000000 
0 2.550001 -28.049999 78.506104 0.000000 0.000000 1.000000 0.809000 -0.937700 1 0 1.000000 
0 0.000001 -29.700001 76.875298 0.000000 -0.702995 0.711195 0.782900 -0.977700 1 0 1.000000 
metaldoor001a
0 -0.000001 28.049999 29.582199 0.000000 0.000000 1.000000 0.704500 -0.977700 1 0 1.000000 
0 -0.000001 26.400000 27.951401 0.000000 -0.702995 0.711195 0.730600 -0.977700 1 0 1.000000 
0 2.549999 28.049999 29.582199 0.000000 -0.702995 0.711195 0.704500 -0.937700 1 0 1.000000 
metaldoor001a
0 -0.000001 26.400000 27.951401 -0.185107 -0.690825 -0.698925 0.730600 -0.977700 1 0 1.000000 
0 -0.000001 28.049999 26.320601 -0.185107 -0.690825 -0.698925 0.756700 -0.977700 1 0 1.000000 
0 2.549999 26.883301 26.798201 -0.185107 -0.690825 -0.698925 0.743700 -0.937700 1 0 1.000000 
metaldoor001a
0 -0.000001 28.049999 78.506104 0.000000 0.000000 1.000000 0.704500 -0.977700 1 0 1.000000 
0 -0.000001 26.400000 76.875298 0.000000 -0.702995 0.711195 0.730600 -0.977700 1 0 1.000000 
0 2.549999 28.049999 78.506104 0.000000 -0.702995 0.711195 0.704500 -0.937700 1 0 1.000000 
metaldoor001a
0 -0.000001 26.400000 76.875298 0.000000 -0.702995 0.711195 0.730600 -0.977700 1 0 1.000000 
0 2.549999 26.400000 76.875298 0.000000 -0.702995 0.711195 0.730600 -0.937700 1 0 1.000000 
0 2.549999 28.049999 78.506104 0.000000 -0.702995 0.711195 0.704500 -0.937700 1 0 1.000000 
metaldoor001a
0 2.550001 -28.049999 78.506104 0.000000 -0.702995 0.711195 0.809000 -0.937700 1 0 1.000000 
0 0.000001 -28.049999 78.506104 0.000000 -0.702995 0.711195 0.809000 -0.977700 1 0 1.000000 
0 0.000001 -29.700001 76.875298 0.000000 -1.000000 0.000000 0.782900 -0.977700 1 0 1.000000 
metaldoor001a
0 2.550001 -28.049999 75.244499 0.000000 -0.702995 -0.711195 0.756700 -0.937700 1 0 1.000000 
0 2.550001 -29.700001 76.875298 0.000000 -0.702995 -0.711195 0.782900 -0.937700 1 0 1.000000 
0 0.000001 -28.049999 75.244499 0.000000 -0.702995 -0.711195 0.756700 -0.977700 1 0 1.000000 
metaldoor001a
0 2.550001 -29.700001 76.875298 0.000000 -0.702995 -0.711195 0.782900 -0.937700 1 0 1.000000 
0 0.000001 -29.700001 76.875298 0.000000 -1.000000 0.000000 0.782900 -0.977700 1 0 1.000000 
0 0.000001 -28.049999 75.244499 0.000000 -0.702995 -0.711195 0.756700 -0.977700 1 0 1.000000 
metaldoor001a
0 -0.000000 6.600000 109.491203 -0.166206 -0.723028 0.670526 0.704500 -0.977700 1 0 1.000000 
0 2.550000 7.083300 108.338097 0.186202 -0.982511 0.000000 0.717600 -0.937700 1 0 1.000000 
0 2.550000 7.083300 110.644402 -0.166206 -0.723028 0.670526 0.704500 -0.937700 1 0 1.000000 
metaldoor001a
0 2.925001 -28.379999 91.797096 0.000000 0.000000 1.000000 0.850700 -0.930200 1 0 1.000000 
0 0.000001 -27.719999 95.466400 0.000000 0.000000 1.000000 0.937300 -0.830200 1 0 1.000000 
0 0.000001 -27.719999 90.900200 0.000000 0.000000 1.000000 0.937300 -0.954600 1 0 1.000000 
metaldoor001a
0 0.000001 -27.719999 95.466400 0.000000 0.000000 1.000000 0.937300 -0.830200 1 0 1.000000 
0 2.925001 -28.379999 91.797096 0.000000 0.000000 1.000000 0.850700 -0.930200 1 0 1.000000 
0 0.000001 -27.719999 90.900200 0.000000 0.000000 1.000000 0.937300 -0.954600 1 0 1.000000 
metaldoor001a
0 0.000001 -27.719999 95.466400 0.000000 0.000000 1.000000 0.937300 -0.830200 1 0 1.000000 
0 2.925001 -28.379999 94.569504 -0.000000 1.000000 0.000000 0.850700 -0.854700 1 0 1.000000 
0 2.925001 -28.379999 91.797096 0.000000 0.000000 1.000000 0.850700 -0.930200 1 0 1.000000 
metaldoor001a
0 2.925001 -28.379999 91.797096 0.000000 0.000000 1.000000 0.850700 -0.930200 1 0 1.000000 
0 2.925001 -28.379999 94.569504 -0.000000 1.000000 0.000000 0.850700 -0.854700 1 0 1.000000 
0 0.000001 -27.719999 95.466400 0.000000 0.000000 1.000000 0.937300 -0.830200 1 0 1.000000 
metaldoor001a
0 2.550000 7.083300 -3.860800 0.330001 -0.870601 0.364901 0.704500 -0.937700 1 0 1.000000 
0 2.549999 8.250000 -1.076800 0.330001 -0.870601 0.364901 0.730600 -0.937700 1 0 1.000000 
0 -0.000000 6.600000 -2.707600 0.330001 -0.870601 0.364901 0.704500 -0.977700 1 0 1.000000 
metaldoor001a
0 0.000000 -7.083300 108.338097 -0.000000 1.000000 0.000000 0.743700 -0.977700 1 0 1.000000 
0 0.000000 -7.083300 110.644402 -0.000000 1.000000 0.000000 0.769800 -0.977700 1 0 1.000000 
0 2.550000 -7.083300 108.338097 -0.000000 1.000000 0.000000 0.743700 -0.937700 1 0 1.000000 
metaldoor001a
0 0.000000 -7.083300 110.644402 -0.000000 1.000000 0.000000 0.769800 -0.977700 1 0 1.000000 
0 2.550000 -7.083300 110.644402 -0.000000 1.000000 0.000000 0.769800 -0.937700 1 0 1.000000 
0 2.550000 -7.083300 108.338097 -0.000000 1.000000 0.000000 0.743700 -0.937700 1 0 1.000000 
metaldoor001a
0 0.000000 -9.900000 109.491203 -0.166206 -0.723028 0.670526 0.704500 -0.977700 1 0 1.000000 
0 2.550000 -9.416700 108.338097 0.186202 -0.982511 0.000000 0.717600 -0.937700 1 0 1.000000 
0 2.550000 -9.416700 110.644402 -0.166206 -0.723028 0.670526 0.704500 -0.937700 1 0 1.000000 
metaldoor001a
0 2.550001 -28.867901 76.768898 -0.382099 -0.810198 0.444499 0.621100 -0.050300 1 0 1.000000 
0 3.450001 -26.602900 68.510300 0.900520 -0.075502 -0.428209 0.379000 -0.060400 1 0 1.000000 
0 3.750001 -28.867901 76.768898 0.000000 -0.964387 -0.264496 0.621100 -0.080700 1 0 1.000000 
metaldoor001a
0 3.750001 -27.734301 77.628601 -0.134696 0.645980 0.751377 0.621000 -0.080700 1 0 1.000000 
0 3.450001 -26.602900 68.510300 0.900520 -0.075502 -0.428209 0.379000 -0.060400 1 0 1.000000 
0 2.550001 -27.232100 76.981697 -0.134696 0.645980 0.751377 0.621000 -0.050300 1 0 1.000000 
metaldoor001a
0 2.550001 -28.867901 52.306900 -0.368495 -0.794189 0.483193 0.621100 -0.050300 1 0 1.000000 
0 3.150001 -27.257299 43.963200 0.906311 -0.133402 -0.401005 0.379000 -0.060400 1 0 1.000000 
0 3.750001 -28.867901 52.306900 0.000000 -0.981881 -0.189496 0.621100 -0.080700 1 0 1.000000 
metaldoor001a
0 3.750001 -27.734301 53.166698 -0.109595 0.676368 0.728365 0.621000 -0.080700 1 0 1.000000 
0 3.150001 -27.257299 43.963200 0.906311 -0.133402 -0.401005 0.379000 -0.060400 1 0 1.000000 
0 2.550001 -27.232100 52.519699 -0.109595 0.676368 0.728365 0.621000 -0.050300 1 0 1.000000 
metaldoor001a
0 3.749999 28.552200 28.598301 -0.431596 0.865393 0.254598 0.621100 -0.080700 1 0 1.000000 
0 3.449999 27.257299 19.501200 0.075799 -0.069599 -0.994691 0.379000 -0.070600 1 0 1.000000 
0 2.549999 28.365700 27.198000 -0.431596 0.865393 0.254598 0.621100 -0.050300 1 0 1.000000 
metaldoor001a
0 2.549999 27.232100 28.057800 -0.666399 -0.538199 0.515999 0.621000 -0.050300 1 0 1.000000 
0 3.449999 27.257299 19.501200 0.075799 -0.069599 -0.994691 0.379000 -0.070600 1 0 1.000000 
0 3.749999 27.232100 28.057800 0.000000 -0.999996 -0.002900 0.621000 -0.080700 1 0 1.000000 
metaldoor001a
0 2.550001 -28.867901 27.844900 -0.382099 -0.810198 0.444499 0.621100 -0.050300 1 0 1.000000 
0 3.450001 -26.602900 19.586300 0.900520 -0.075502 -0.428209 0.379000 -0.060400 1 0 1.000000 
0 3.750001 -28.867901 27.844900 0.000000 -0.964387 -0.264496 0.621100 -0.080700 1 0 1.000000 
metaldoor001a
0 3.750001 -27.734301 28.704700 -0.134696 0.645980 0.751377 0.621000 -0.080700 1 0 1.000000 
0 3.450001 -26.602900 19.586300 0.900520 -0.075502 -0.428209 0.379000 -0.060400 1 0 1.000000 
0 2.550001 -27.232100 28.057800 -0.134696 0.645980 0.751377 0.621000 -0.050300 1 0 1.000000 
metaldoor001a
0 3.749999 28.552200 53.060200 -0.431596 0.865393 0.254598 0.621100 -0.080700 1 0 1.000000 
0 3.449999 27.257299 43.963200 0.075799 -0.069599 -0.994691 0.379000 -0.070600 1 0 1.000000 
0 2.549999 28.365700 51.660000 -0.431596 0.865393 0.254598 0.621100 -0.050300 1 0 1.000000 
metaldoor001a
0 2.549999 27.232100 52.519699 -0.666399 -0.538199 0.515999 0.621000 -0.050300 1 0 1.000000 
0 3.449999 27.257299 43.963200 0.075799 -0.069599 -0.994691 0.379000 -0.070600 1 0 1.000000 
0 3.749999 27.232100 52.519699 0.000000 -0.999996 -0.002900 0.621000 -0.080700 1 0 1.000000 
metaldoor001a
0 3.749999 28.552200 77.522202 -0.393212 0.893228 0.218007 0.621100 -0.080700 1 0 1.000000 
0 3.149999 26.602900 68.510300 0.575192 -0.148698 -0.804389 0.379000 -0.070600 1 0 1.000000 
0 2.549999 28.365700 76.122002 -0.393212 0.893228 0.218007 0.621100 -0.050300 1 0 1.000000 
metaldoor001a
0 2.549999 27.232100 76.981697 -0.642288 -0.516290 0.566489 0.621000 -0.050300 1 0 1.000000 
0 3.149999 26.602900 68.510300 0.575192 -0.148698 -0.804389 0.379000 -0.070600 1 0 1.000000 
0 3.749999 27.232100 76.981697 0.000000 -0.997251 0.074096 0.621000 -0.080700 1 0 1.000000 
metaldoor001a
0 3.750000 7.666600 110.067802 -0.392302 -0.098900 0.914504 0.621100 -0.080700 1 0 1.000000 
0 3.149999 16.452200 106.981400 0.579590 0.776287 -0.247896 0.379000 -0.070600 1 0 1.000000 
0 2.549999 9.046900 109.702301 -0.392302 -0.098900 0.914504 0.621100 -0.050300 1 0 1.000000 
metaldoor001a
0 2.550000 8.036500 108.703598 -0.647118 -0.624917 -0.436712 0.621000 -0.050300 1 0 1.000000 
0 3.149999 16.452200 106.981400 0.579590 0.776287 -0.247896 0.379000 -0.070600 1 0 1.000000 
0 3.750000 8.036500 108.703598 0.000000 -0.200499 -0.979694 0.621000 -0.080700 1 0 1.000000 
metaldoor001a
0 3.750000 -8.833400 110.067802 -0.392302 -0.098900 0.914504 0.621100 -0.080700 1 0 1.000000 
0 3.150000 -0.047800 106.981400 0.579590 0.776287 -0.247896 0.379000 -0.070600 1 0 1.000000 
0 2.550000 -7.453100 109.702301 -0.392302 -0.098900 0.914504 0.621100 -0.050300 1 0 1.000000 
metaldoor001a
0 2.550000 -8.463500 108.703598 -0.647118 -0.624917 -0.436712 0.621000 -0.050300 1 0 1.000000 
0 3.150000 -0.047800 106.981400 0.579590 0.776287 -0.247896 0.379000 -0.070600 1 0 1.000000 
0 3.750000 -8.463500 108.703598 0.000000 -0.200499 -0.979694 0.621000 -0.080700 1 0 1.000000 
metaldoor001a
0 3.750000 -8.904500 -2.265600 0.010900 0.138094 0.990359 0.621100 -0.080700 1 0 1.000000 
0 3.450000 0.299700 -3.545500 0.076702 0.994732 -0.068002 0.379000 -0.070600 1 0 1.000000 
0 2.550000 -7.487800 -2.450000 0.010900 0.138094 0.990359 0.621100 -0.050300 1 0 1.000000 
metaldoor001a
0 2.550000 -8.357700 -3.570400 -0.000000 0.002900 -0.999996 0.621000 -0.050300 1 0 1.000000 
0 3.450000 0.299700 -3.545500 0.076702 0.994732 -0.068002 0.379000 -0.070600 1 0 1.000000 
0 3.750000 -8.357700 -3.570400 -0.000000 0.002900 -0.999996 0.621000 -0.080700 1 0 1.000000 
metaldoor001a
0 3.750000 7.595500 -2.265600 0.010900 0.138094 0.990359 0.621100 -0.080700 1 0 1.000000 
0 3.449999 16.799700 -3.545500 0.076702 0.994732 -0.068002 0.379000 -0.070600 1 0 1.000000 
0 2.549999 9.012200 -2.450000 0.010900 0.138094 0.990359 0.621100 -0.050300 1 0 1.000000 
metaldoor001a
0 2.550000 8.142300 -3.570400 -0.000000 0.002900 -0.999996 0.621000 -0.050300 1 0 1.000000 
0 3.449999 16.799700 -3.545500 0.076702 0.994732 -0.068002 0.379000 -0.070600 1 0 1.000000 
0 3.750000 8.142300 -3.570400 -0.000000 0.002900 -0.999996 0.621000 -0.080700 1 0 1.000000 
metaldoor001a
0 0.000000 -9.900000 109.491203 -0.166206 -0.723028 0.670526 0.809000 -0.977700 1 0 1.000000 
0 2.550000 -9.416700 110.644402 -0.166206 -0.723028 0.670526 0.795900 -0.937700 1 0 1.000000 
0 2.550000 -7.083300 110.644402 -0.411994 -0.000000 0.911186 0.769800 -0.937700 1 0 1.000000 
metaldoor001a
0 -0.000000 9.416700 108.338097 -0.000000 1.000000 0.000000 0.743700 -0.977700 1 0 1.000000 
0 -0.000000 9.416700 110.644402 -0.000000 1.000000 0.000000 0.769800 -0.977700 1 0 1.000000 
0 2.549999 9.416700 108.338097 -0.000000 1.000000 0.000000 0.743700 -0.937700 1 0 1.000000 
metaldoor001a
0 -0.000000 9.416700 110.644402 -0.000000 1.000000 0.000000 0.769800 -0.977700 1 0 1.000000 
0 2.549999 9.416700 110.644402 -0.000000 1.000000 0.000000 0.769800 -0.937700 1 0 1.000000 
0 2.549999 9.416700 108.338097 -0.000000 1.000000 0.000000 0.743700 -0.937700 1 0 1.000000 
metaldoor001a
0 3.170501 -28.924999 92.639702 0.746407 -0.281103 -0.603206 0.462600 -0.044800 1 0 1.000000 
0 2.375001 -29.287500 91.824303 0.746407 -0.281103 -0.603206 0.425300 -0.089800 1 0 1.000000 
0 3.170501 -27.174999 91.824303 0.746407 -0.281103 -0.603206 0.537300 -0.089600 1 0 1.000000 
metaldoor001a
0 0.000000 -9.900000 109.491203 -0.327590 -0.357989 -0.874373 0.704500 -0.977700 1 0 1.000000 
0 0.000000 -7.083300 108.338097 -0.327590 -0.357989 -0.874373 0.743700 -0.977700 1 0 1.000000 
0 2.550000 -9.416700 108.338097 -0.327590 -0.357989 -0.874373 0.717600 -0.937700 1 0 1.000000 
metaldoor001a
0 2.549999 9.012200 -2.450000 -0.716386 -0.551089 0.427892 0.347100 -0.080200 1 0 1.000000 
0 2.550000 8.142300 -3.570400 -0.437123 -0.899048 0.025201 0.422000 -0.080200 1 0 1.000000 
0 3.750000 7.595500 -2.265600 -0.437123 -0.899048 0.025201 0.384600 -0.039800 1 0 1.000000 
metaldoor001a
0 2.550000 8.142300 -3.570400 -0.437123 -0.899048 0.025201 0.422000 -0.080200 1 0 1.000000 
0 3.750000 8.142300 -3.570400 0.000000 -0.922291 -0.386496 0.422000 -0.039800 1 0 1.000000 
0 3.750000 7.595500 -2.265600 -0.437123 -0.899048 0.025201 0.384600 -0.039800 1 0 1.000000 
metaldoor001a
0 2.549999 9.046900 109.702301 -0.392302 -0.098900 0.914504 0.347100 -0.080200 1 0 1.000000 
0 2.550000 8.036500 108.703598 -0.647118 -0.624917 -0.436712 0.422000 -0.080200 1 0 1.000000 
0 3.750000 7.666600 110.067802 -0.392302 -0.098900 0.914504 0.384600 -0.039800 1 0 1.000000 
metaldoor001a
0 -0.000000 6.600000 109.491203 -0.166206 -0.723028 0.670526 0.809000 -0.977700 1 0 1.000000 
0 2.550000 7.083300 110.644402 -0.166206 -0.723028 0.670526 0.795900 -0.937700 1 0 1.000000 
0 2.549999 9.416700 110.644402 -0.411994 -0.000000 0.911186 0.769800 -0.937700 1 0 1.000000 
metaldoor001a
0 2.550000 -7.453100 109.702301 -0.392302 -0.098900 0.914504 0.347100 -0.080200 1 0 1.000000 
0 2.550000 -8.463500 108.703598 -0.647118 -0.624917 -0.436712 0.422000 -0.080200 1 0 1.000000 
0 3.750000 -8.833400 110.067802 -0.392302 -0.098900 0.914504 0.384600 -0.039800 1 0 1.000000 
metaldoor001a
0 -0.000000 6.600000 109.491203 -0.327590 -0.357989 -0.874373 0.704500 -0.977700 1 0 1.000000 
0 -0.000000 9.416700 108.338097 -0.327590 -0.357989 -0.874373 0.743700 -0.977700 1 0 1.000000 
0 2.550000 7.083300 108.338097 -0.327590 -0.357989 -0.874373 0.717600 -0.937700 1 0 1.000000 
metaldoor001a
0 2.549999 28.365700 76.122002 -0.393212 0.893228 0.218007 0.347100 -0.080200 1 0 1.000000 
0 2.549999 27.232100 76.981697 -0.642288 -0.516290 0.566489 0.422000 -0.080200 1 0 1.000000 
0 3.749999 28.552200 77.522202 -0.393212 0.893228 0.218007 0.384600 -0.039800 1 0 1.000000 
metaldoor001a
0 3.170501 -27.174999 10.284400 0.789018 -0.456010 -0.411709 0.031300 -0.038100 1 0 1.000000 
0 2.375001 -29.287500 11.099800 0.474406 -0.274204 0.836511 0.175000 -0.066000 1 0 1.000000 
0 1.250001 -28.049999 11.099800 -0.726235 -0.660232 0.191509 0.090800 -0.105300 1 0 1.000000 
metaldoor001a
0 2.375001 -29.287500 11.099800 0.474406 -0.274204 0.836511 0.175000 -0.066000 1 0 1.000000 
0 2.375001 -26.812500 11.099800 0.388397 0.000000 0.921492 0.006700 -0.065800 1 0 1.000000 
0 1.250001 -28.049999 11.099800 -0.726235 -0.660232 0.191509 0.090800 -0.105300 1 0 1.000000 
metaldoor001a
0 2.375001 -29.287500 11.099800 0.474406 -0.274204 0.836511 0.175000 -0.066000 1 0 1.000000 
0 3.170501 -27.174999 10.284400 0.789018 -0.456010 -0.411709 0.090800 -0.026500 1 0 1.000000 
0 2.375001 -26.812500 11.099800 0.388397 0.000000 0.921492 0.006700 -0.065800 1 0 1.000000 
metaldoor001a
0 2.549999 28.365700 27.198000 -0.431596 0.865393 0.254598 0.347100 -0.080200 1 0 1.000000 
0 2.549999 27.232100 28.057800 -0.666399 -0.538199 0.515999 0.422000 -0.080200 1 0 1.000000 
0 3.749999 28.552200 28.598301 -0.431596 0.865393 0.254598 0.384600 -0.039800 1 0 1.000000 
metaldoor001a
0 2.549999 8.250000 -1.076800 1.000000 0.000000 0.000000 0.013700 -0.065500 1 0 1.000000 
0 2.550000 7.083300 -3.860800 1.000000 0.000000 0.000000 0.144800 -0.037900 1 0 1.000000 
0 2.549999 9.900000 -2.707600 1.000000 0.000000 0.000000 0.090500 -0.104600 1 0 1.000000 
metaldoor001a
0 2.549999 28.365700 51.660000 -0.431596 0.865393 0.254598 0.347100 -0.080200 1 0 1.000000 
0 2.549999 27.232100 52.519699 -0.666399 -0.538199 0.515999 0.422000 -0.080200 1 0 1.000000 
0 3.749999 28.552200 53.060200 -0.431596 0.865393 0.254598 0.384600 -0.039800 1 0 1.000000 
metaldoor001a
0 2.549999 26.883301 26.798201 1.000000 0.000000 0.000000 0.036200 -0.093200 1 0 1.000000 
0 2.549999 29.700001 27.951401 1.000000 0.000000 0.000000 0.167300 -0.065500 1 0 1.000000 
0 2.549999 28.049999 29.582199 1.000000 0.000000 0.000000 0.090500 -0.026500 1 0 1.000000 
metaldoor001a
0 -0.000001 29.700001 27.951401 -0.000000 0.702995 0.711195 0.782900 -0.977700 1 0 1.000000 
0 -0.000001 28.049999 29.582199 0.000000 0.000000 1.000000 0.809000 -0.977700 1 0 1.000000 
0 2.549999 29.700001 27.951401 -0.000000 0.702995 0.711195 0.782900 -0.937700 1 0 1.000000 
metaldoor001a
0 -0.000001 28.049999 29.582199 -0.000000 0.702995 0.711195 0.809000 -0.977700 1 0 1.000000 
0 2.549999 28.049999 29.582199 -0.000000 0.702995 0.711195 0.809000 -0.937700 1 0 1.000000 
0 2.549999 29.700001 27.951401 -0.000000 0.702995 0.711195 0.782900 -0.937700 1 0 1.000000 
metaldoor001a
0 -0.000001 29.700001 76.875298 -0.000000 0.702995 0.711195 0.782900 -0.977700 1 0 1.000000 
0 -0.000001 28.049999 78.506104 0.000000 0.000000 1.000000 0.809000 -0.977700 1 0 1.000000 
0 2.549999 29.700001 76.875298 -0.000000 0.702995 0.711195 0.782900 -0.937700 1 0 1.000000 
metaldoor001a
0 2.550001 -26.400000 52.413300 1.000000 0.000000 0.000000 0.013700 -0.065500 1 0 1.000000 
0 2.550001 -29.216700 53.566502 1.000000 0.000000 0.000000 0.144800 -0.037900 1 0 1.000000 
0 2.550001 -29.216700 51.260201 1.000000 0.000000 0.000000 0.144800 -0.093200 1 0 1.000000 
metaldoor001a
0 2.550001 -26.400000 52.413300 -0.000000 0.702995 0.711195 0.730600 -0.937700 1 0 1.000000 
0 0.000001 -26.400000 52.413300 -0.000000 0.702995 0.711195 0.730600 -0.977700 1 0 1.000000 
0 0.000001 -28.049999 54.044102 -0.000000 0.702995 0.711195 0.704500 -0.977700 1 0 1.000000 
metaldoor001a
0 3.750001 -27.734301 53.166698 -0.109595 0.676368 0.728365 0.403300 -0.039800 1 0 1.000000 
0 2.550001 -27.232100 52.519699 -0.109595 0.676368 0.728365 0.422000 -0.080200 1 0 1.000000 
0 2.550001 -28.867901 52.306900 -0.368495 -0.794189 0.483193 0.365800 -0.080200 1 0 1.000000 
metaldoor001a
0 3.750001 -27.734301 77.628601 -0.134696 0.645980 0.751377 0.403300 -0.039800 1 0 1.000000 
0 2.550001 -27.232100 76.981697 -0.134696 0.645980 0.751377 0.422000 -0.080200 1 0 1.000000 
0 2.550001 -28.867901 76.768898 -0.382099 -0.810198 0.444499 0.365800 -0.080200 1 0 1.000000 
metaldoor001a
0 3.750001 -27.734301 28.704700 -0.134696 0.645980 0.751377 0.403300 -0.039800 1 0 1.000000 
0 2.550001 -27.232100 28.057800 -0.134696 0.645980 0.751377 0.422000 -0.080200 1 0 1.000000 
0 2.550001 -28.867901 27.844900 -0.382099 -0.810198 0.444499 0.365800 -0.080200 1 0 1.000000 
end
