version 1
nodes
  0 "static_prop" -1
end
skeleton
time 0
0 0.000000 0.000000 0.000000 0.000000 0.000000 0.000000
end
triangles
prison_yard001
0 12.406997 57.339199 15.947100 0.103298 -0.869179 0.483588 0.501100 -0.210500 1 0 1.000000 
0 39.004097 62.605999 19.731001 0.103298 -0.869179 0.483588 0.471600 -0.033600 1 0 1.000000 
0 19.702497 60.311600 19.731001 0.103298 -0.869179 0.483588 0.471600 -0.210500 1 0 1.000000 
prison_yard001
0 1.207902 -50.392899 15.947100 -0.625995 -0.773594 -0.098399 0.468300 -0.671800 1 0 1.000000 
0 12.113403 -57.361500 19.731001 -0.444795 -0.890590 0.094899 0.497900 -0.771700 1 0 1.000000 
0 -4.482998 -44.980801 19.731001 -0.755290 -0.655391 0.000000 0.468000 -0.614500 1 0 1.000000 
prison_yard001
0 12.113403 -57.361500 19.731001 -0.444795 -0.890590 0.094899 0.497900 -0.771700 1 0 1.000000 
0 1.207902 -50.392899 15.947100 -0.625995 -0.773594 -0.098399 0.468300 -0.671800 1 0 1.000000 
0 19.407701 -60.292999 15.947100 -0.284306 -0.950720 -0.123703 0.468300 -0.833100 1 0 1.000000 
prison_yard001
0 19.407701 -60.292999 15.947100 -0.284306 -0.950720 -0.123703 0.468300 -0.833100 1 0 1.000000 
0 39.069904 -64.190002 19.731001 -0.194404 -0.980921 0.000000 0.497900 -0.986100 1 0 1.000000 
0 12.113403 -57.361500 19.731001 -0.444795 -0.890590 0.094899 0.497900 -0.771700 1 0 1.000000 
prison_yard001
0 39.069904 -64.190002 19.731001 -0.194404 -0.980921 0.000000 0.497900 -0.986100 1 0 1.000000 
0 19.407701 -60.292999 15.947100 -0.284306 -0.950720 -0.123703 0.468300 -0.833100 1 0 1.000000 
0 39.072304 -62.598099 15.947100 -0.107399 -0.916395 -0.385598 0.468300 -0.986100 1 0 1.000000 
prison_yard001
0 -4.482998 -44.980801 19.731001 -0.755290 -0.655391 0.000000 0.468000 -0.614500 1 0 1.000000 
0 -18.931898 -24.690201 15.947100 -0.877693 -0.455797 -0.147999 0.497600 -0.360600 1 0 1.000000 
0 1.207902 -50.392899 15.947100 -0.625995 -0.773594 -0.098399 0.497600 -0.614500 1 0 1.000000 
prison_yard001
0 -18.931898 -24.690201 15.947100 -0.877693 -0.455797 -0.147999 0.497600 -0.360600 1 0 1.000000 
0 -4.482998 -44.980801 19.731001 -0.755290 -0.655391 0.000000 0.468000 -0.614500 1 0 1.000000 
0 -18.931898 -24.690201 19.731001 -0.875897 -0.482498 0.000000 0.468000 -0.360600 1 0 1.000000 
prison_yard001
0 -21.545801 42.981701 6.033400 -0.592103 0.342402 -0.729503 0.960200 -0.629100 1 0 1.000000 
0 -25.239403 43.698299 9.261600 -0.563088 0.386992 -0.730184 0.937200 -0.557000 1 0 1.000000 
0 -22.628101 45.774101 8.222700 -0.592103 0.342402 -0.729503 0.986000 -0.578600 1 0 1.000000 
prison_yard001
0 -21.545801 42.981701 6.033400 -0.592103 0.342402 -0.729503 0.960200 -0.629100 1 0 1.000000 
0 -25.414202 41.720299 8.222700 -0.530109 0.430507 -0.730512 0.910800 -0.578600 1 0 1.000000 
0 -25.239403 43.698299 9.261600 -0.563088 0.386992 -0.730184 0.937200 -0.557000 1 0 1.000000 
prison_yard001
0 -21.545797 -42.981701 6.033400 -0.592103 -0.342402 -0.729503 0.960200 -0.629100 1 0 1.000000 
0 -25.239399 -43.698299 9.261600 -0.563088 -0.386992 -0.730184 0.937200 -0.557000 1 0 1.000000 
0 -25.414198 -41.720299 8.222700 -0.530109 -0.430507 -0.730512 0.910800 -0.578600 1 0 1.000000 
prison_yard001
0 -21.545797 -42.981701 6.033400 -0.592103 -0.342402 -0.729503 0.960200 -0.629100 1 0 1.000000 
0 -22.628098 -45.774101 8.222700 -0.592103 -0.342402 -0.729503 0.986000 -0.578600 1 0 1.000000 
0 -25.239399 -43.698299 9.261600 -0.563088 -0.386992 -0.730184 0.937200 -0.557000 1 0 1.000000 
prison_yard001
0 -36.699799 -0.817802 6.033400 -0.681904 0.053200 -0.729504 0.960200 -0.629100 1 0 1.000000 
0 -40.149700 0.683698 9.261600 -0.683269 -0.000000 -0.730167 0.937200 -0.557000 1 0 1.000000 
0 -39.173401 2.412798 8.222700 -0.680712 -0.054601 -0.730513 0.910800 -0.578600 1 0 1.000000 
prison_yard001
0 -36.699799 -0.817802 6.033400 -0.681904 0.053200 -0.729504 0.960200 -0.629100 1 0 1.000000 
0 -39.173401 -2.506002 8.222700 -0.681904 0.053200 -0.729504 0.986000 -0.578600 1 0 1.000000 
0 -40.149700 0.683698 9.261600 -0.683269 -0.000000 -0.730167 0.937200 -0.557000 1 0 1.000000 
prison_yard001
0 11.790703 -71.112801 6.033400 -0.294086 -0.617571 -0.729465 0.960200 -0.629100 1 0 1.000000 
0 9.152703 -73.795403 9.261600 -0.244890 -0.637873 -0.730169 0.937200 -0.557000 1 0 1.000000 
0 7.888303 -72.264297 8.222700 -0.193009 -0.655031 -0.730535 0.910800 -0.578600 1 0 1.000000 
prison_yard001
0 11.790703 -71.112801 6.033400 -0.294086 -0.617571 -0.729465 0.960200 -0.629100 1 0 1.000000 
0 12.480403 -74.027100 8.222700 -0.294086 -0.617571 -0.729465 0.986000 -0.578600 1 0 1.000000 
0 9.152703 -73.795403 9.261600 -0.244890 -0.637873 -0.730169 0.937200 -0.557000 1 0 1.000000 
prison_yard001
0 11.790697 71.112801 6.033400 -0.294086 0.617571 -0.729465 0.960200 -0.629100 1 0 1.000000 
0 9.152698 73.795403 9.261600 -0.244890 0.637873 -0.730169 0.937200 -0.557000 1 0 1.000000 
0 12.480397 74.027100 8.222700 -0.294086 0.617571 -0.729465 0.986000 -0.578600 1 0 1.000000 
prison_yard001
0 11.790697 71.112801 6.033400 -0.294086 0.617571 -0.729465 0.960200 -0.629100 1 0 1.000000 
0 7.888297 72.264297 8.222700 -0.193009 0.655031 -0.730535 0.910800 -0.578600 1 0 1.000000 
0 9.152698 73.795403 9.261600 -0.244890 0.637873 -0.730169 0.937200 -0.557000 1 0 1.000000 
prison_yard001
0 13.820297 63.673698 18.876200 0.025000 0.595708 0.802811 0.801400 -0.931100 1 0 1.000000 
0 16.113998 57.698399 18.876101 -0.489096 -0.306797 0.816493 0.801400 -1.017200 1 0 1.000000 
0 15.095597 63.532700 17.736099 0.949779 0.312793 -0.009000 0.816800 -0.939000 1 0 1.000000 
prison_yard001
0 12.966897 62.715599 17.736099 -0.901022 -0.364209 -0.235606 0.818300 -0.890700 1 0 1.000000 
0 16.113998 57.698399 18.876101 -0.489096 -0.306797 0.816493 0.801400 -1.017200 1 0 1.000000 
0 13.820297 63.673698 18.876200 0.025000 0.595708 0.802811 0.801400 -0.931100 1 0 1.000000 
prison_yard001
0 16.113998 57.698399 18.876101 -0.489096 -0.306797 0.816493 0.801400 -1.017200 1 0 1.000000 
0 12.966897 62.715599 17.736099 -0.901022 -0.364209 -0.235606 0.818300 -0.890700 1 0 1.000000 
0 16.113897 57.698601 16.595900 0.538012 0.107002 -0.836118 0.832100 -1.017200 1 0 1.000000 
prison_yard001
0 14.201497 62.680599 16.709400 0.170396 -0.443990 -0.879680 0.830600 -0.945400 1 0 1.000000 
0 16.113897 57.698601 16.595900 0.538012 0.107002 -0.836118 0.832100 -1.017200 1 0 1.000000 
0 12.966897 62.715599 17.736099 -0.901022 -0.364209 -0.235606 0.818300 -0.890700 1 0 1.000000 
prison_yard001
0 15.095597 63.532700 17.736099 0.949779 0.312793 -0.009000 0.816800 -0.939000 1 0 1.000000 
0 16.113897 57.698601 16.595900 0.538012 0.107002 -0.836118 0.832100 -1.017200 1 0 1.000000 
0 14.201497 62.680599 16.709400 0.170396 -0.443990 -0.879680 0.830600 -0.945400 1 0 1.000000 
prison_yard001
0 16.113897 57.698601 16.595900 0.538012 0.107002 -0.836118 0.832100 -1.017200 1 0 1.000000 
0 15.095597 63.532700 17.736099 0.949779 0.312793 -0.009000 0.816800 -0.939000 1 0 1.000000 
0 16.113998 57.698399 18.876101 -0.489096 -0.306797 0.816493 0.801400 -1.017200 1 0 1.000000 
prison_yard001
0 14.201497 62.680599 16.709400 0.170396 -0.443990 -0.879680 0.831100 -0.886600 1 0 1.000000 
0 12.420597 69.641502 10.033400 0.904861 -0.287688 -0.313787 0.831200 -0.770500 1 0 1.000000 
0 15.095597 63.532700 17.736099 0.949779 0.312793 -0.009000 0.816800 -0.939000 1 0 1.000000 
prison_yard001
0 12.420597 69.641502 10.033400 0.904861 -0.287688 -0.313787 0.831200 -0.770500 1 0 1.000000 
0 14.201497 62.680599 16.709400 0.170396 -0.443990 -0.879680 0.831100 -0.886600 1 0 1.000000 
0 10.867197 69.045197 10.033400 -0.439502 -0.815804 -0.375902 0.831200 -0.770500 1 0 1.000000 
prison_yard001
0 12.966897 62.715599 17.736099 -0.901022 -0.364209 -0.235606 0.818300 -0.890700 1 0 1.000000 
0 10.867197 69.045197 10.033400 -0.439502 -0.815804 -0.375902 0.831200 -0.770500 1 0 1.000000 
0 14.201497 62.680599 16.709400 0.170396 -0.443990 -0.879680 0.831100 -0.886600 1 0 1.000000 
prison_yard001
0 10.433897 70.285896 11.046900 -0.760822 0.099303 0.641318 0.811800 -0.767300 1 0 1.000000 
0 10.867197 69.045197 10.033400 -0.439502 -0.815804 -0.375902 0.831200 -0.770500 1 0 1.000000 
0 12.966897 62.715599 17.736099 -0.901022 -0.364209 -0.235606 0.818300 -0.890700 1 0 1.000000 
prison_yard001
0 12.966897 62.715599 17.736099 -0.901022 -0.364209 -0.235606 0.818300 -0.890700 1 0 1.000000 
0 13.820297 63.673698 18.876200 0.025000 0.595708 0.802811 0.801400 -0.931100 1 0 1.000000 
0 10.433897 70.285896 11.046900 -0.760822 0.099303 0.641318 0.811800 -0.767300 1 0 1.000000 
prison_yard001
0 10.433897 70.285896 11.046900 -0.760822 0.099303 0.641318 0.811800 -0.767300 1 0 1.000000 
0 13.820297 63.673698 18.876200 0.025000 0.595708 0.802811 0.801400 -0.931100 1 0 1.000000 
0 11.912498 70.853500 11.046900 0.448581 0.606374 0.656572 0.811800 -0.767300 1 0 1.000000 
prison_yard001
0 15.095597 63.532700 17.736099 0.949779 0.312793 -0.009000 0.816800 -0.939000 1 0 1.000000 
0 11.912498 70.853500 11.046900 0.448581 0.606374 0.656572 0.811800 -0.767300 1 0 1.000000 
0 13.820297 63.673698 18.876200 0.025000 0.595708 0.802811 0.801400 -0.931100 1 0 1.000000 
prison_yard001
0 12.420597 69.641502 10.033400 0.904861 -0.287688 -0.313787 0.831200 -0.770500 1 0 1.000000 
0 11.912498 70.853500 11.046900 0.448581 0.606374 0.656572 0.811800 -0.767300 1 0 1.000000 
0 15.095597 63.532700 17.736099 0.949779 0.312793 -0.009000 0.816800 -0.939000 1 0 1.000000 
prison_yard001
0 40.149696 60.148102 15.705500 -1.000000 -0.000000 0.000000 0.539100 -0.942200 1 0 1.000000 
0 40.149696 60.148102 20.085199 -1.000000 -0.000000 0.000000 0.504900 -0.942200 1 0 1.000000 
0 40.149696 69.464798 20.085199 -1.000000 -0.000000 0.000000 0.504900 -0.869400 1 0 1.000000 
prison_yard001
0 40.149696 69.464798 20.085199 -1.000000 -0.000000 0.000000 0.504900 -0.869400 1 0 1.000000 
0 40.149696 69.464798 15.705500 -1.000000 -0.000000 0.000000 0.539100 -0.869400 1 0 1.000000 
0 40.149696 60.148102 15.705500 -1.000000 -0.000000 0.000000 0.539100 -0.942200 1 0 1.000000 
prison_yard001
0 40.149704 -68.769699 15.705500 -1.000000 -0.000000 0.000000 0.540500 -0.852800 1 0 1.000000 
0 40.149704 -68.769699 20.085199 -1.000000 -0.000000 0.000000 0.506200 -0.852800 1 0 1.000000 
0 40.149704 -59.452999 20.085199 -1.000000 -0.000000 0.000000 0.506200 -0.780000 1 0 1.000000 
prison_yard001
0 40.149704 -59.452999 20.085199 -1.000000 -0.000000 0.000000 0.506200 -0.780000 1 0 1.000000 
0 40.149704 -59.452999 15.705500 -1.000000 -0.000000 0.000000 0.540500 -0.780000 1 0 1.000000 
0 40.149704 -68.769699 15.705500 -1.000000 -0.000000 0.000000 0.540500 -0.852800 1 0 1.000000 
prison_yard001
0 11.790697 71.112801 6.033400 0.383899 -0.784198 -0.487499 0.834800 -0.735800 1 0 1.000000 
0 10.867197 69.045197 10.033400 -0.439502 -0.815804 -0.375902 0.857000 -0.716000 1 0 1.000000 
0 7.888297 72.264297 8.222700 -0.838097 -0.494198 0.230999 0.867100 -0.731300 1 0 1.000000 
prison_yard001
0 10.867197 69.045197 10.033400 -0.439502 -0.815804 -0.375902 0.857000 -0.716000 1 0 1.000000 
0 11.790697 71.112801 6.033400 0.383899 -0.784198 -0.487499 0.834800 -0.735800 1 0 1.000000 
0 12.420597 69.641502 10.033400 0.904861 -0.287688 -0.313787 0.810300 -0.716800 1 0 1.000000 
prison_yard001
0 12.480397 74.027100 8.222700 0.884867 0.279090 0.372986 0.818000 -0.731800 1 0 1.000000 
0 12.420597 69.641502 10.033400 0.904861 -0.287688 -0.313787 0.810300 -0.716800 1 0 1.000000 
0 11.790697 71.112801 6.033400 0.383899 -0.784198 -0.487499 0.834800 -0.735800 1 0 1.000000 
prison_yard001
0 10.433897 70.285896 11.046900 -0.760822 0.099303 0.641318 0.873700 -0.714900 1 0 1.000000 
0 7.888297 72.264297 8.222700 -0.838097 -0.494198 0.230999 0.875700 -0.675100 1 0 1.000000 
0 10.867197 69.045197 10.033400 -0.439502 -0.815804 -0.375902 0.857000 -0.716000 1 0 1.000000 
prison_yard001
0 12.420597 69.641502 10.033400 0.904861 -0.287688 -0.313787 0.810300 -0.716800 1 0 1.000000 
0 12.480397 74.027100 8.222700 0.884867 0.279090 0.372986 0.868700 -0.647900 1 0 1.000000 
0 11.912498 70.853500 11.046900 0.448581 0.606374 0.656572 0.826300 -0.714700 1 0 1.000000 
prison_yard001
0 9.152698 73.795403 9.261600 -0.246904 0.421407 0.872614 0.835100 -0.649100 1 0 1.000000 
0 11.912498 70.853500 11.046900 0.448581 0.606374 0.656572 0.826300 -0.714700 1 0 1.000000 
0 12.480397 74.027100 8.222700 0.884867 0.279090 0.372986 0.868700 -0.647900 1 0 1.000000 
prison_yard001
0 11.912498 70.853500 11.046900 0.448581 0.606374 0.656572 0.826300 -0.714700 1 0 1.000000 
0 9.152698 73.795403 9.261600 -0.246904 0.421407 0.872614 0.835100 -0.649100 1 0 1.000000 
0 10.433897 70.285896 11.046900 -0.760822 0.099303 0.641318 0.873700 -0.714900 1 0 1.000000 
prison_yard001
0 7.888297 72.264297 8.222700 -0.838097 -0.494198 0.230999 0.816800 -0.648800 1 0 1.000000 
0 10.433897 70.285896 11.046900 -0.760822 0.099303 0.641318 0.873700 -0.714900 1 0 1.000000 
0 9.152698 73.795403 9.261600 -0.246904 0.421407 0.872614 0.835100 -0.649100 1 0 1.000000 
prison_yard001
0 1.720098 50.609798 19.731001 0.748389 -0.490193 -0.446794 0.467500 -0.024200 1 0 1.000000 
0 -21.324499 18.877001 15.947100 0.748389 -0.490193 -0.446794 0.497000 -0.270500 1 0 1.000000 
0 -4.042302 45.261700 15.947100 0.748389 -0.490193 -0.446794 0.497000 -0.024200 1 0 1.000000 
prison_yard001
0 -21.545801 42.981701 6.033400 0.760585 -0.428792 -0.487491 0.834800 -0.735800 1 0 1.000000 
0 -21.135801 40.754601 10.033400 0.099896 -0.921266 -0.375886 0.857000 -0.716000 1 0 1.000000 
0 -25.414202 41.720299 8.222700 -0.410791 -0.881982 0.230995 0.867100 -0.731300 1 0 1.000000 
prison_yard001
0 -21.135801 40.754601 10.033400 0.099896 -0.921266 -0.375886 0.857000 -0.716000 1 0 1.000000 
0 -21.545801 42.981701 6.033400 0.760585 -0.428792 -0.487491 0.834800 -0.735800 1 0 1.000000 
0 -20.193401 42.125900 10.033400 0.908677 0.275393 -0.313792 0.810300 -0.716800 1 0 1.000000 
prison_yard001
0 -22.628101 45.774101 8.222700 0.571185 0.731181 0.372990 0.818000 -0.731800 1 0 1.000000 
0 -20.193401 42.125900 10.033400 0.908677 0.275393 -0.313792 0.810300 -0.716800 1 0 1.000000 
0 -21.545801 42.981701 6.033400 0.760585 -0.428792 -0.487491 0.834800 -0.735800 1 0 1.000000 
prison_yard001
0 -22.195702 41.531700 11.046900 -0.683235 -0.349118 0.641332 0.873700 -0.714900 1 0 1.000000 
0 -25.414202 41.720299 8.222700 -0.410791 -0.881982 0.230995 0.875700 -0.675100 1 0 1.000000 
0 -21.135801 40.754601 10.033400 0.099896 -0.921266 -0.375886 0.857000 -0.716000 1 0 1.000000 
prison_yard001
0 -25.414202 41.720299 8.222700 -0.410791 -0.881982 0.230995 0.816800 -0.648800 1 0 1.000000 
0 -22.195702 41.531700 11.046900 -0.683235 -0.349118 0.641332 0.873700 -0.714900 1 0 1.000000 
0 -25.239403 43.698299 9.261600 -0.442122 0.207411 0.872644 0.835100 -0.649100 1 0 1.000000 
prison_yard001
0 -21.298601 42.836899 11.046900 0.026300 0.753789 0.656590 0.826300 -0.714700 1 0 1.000000 
0 -25.239403 43.698299 9.261600 -0.442122 0.207411 0.872644 0.835100 -0.649100 1 0 1.000000 
0 -22.195702 41.531700 11.046900 -0.683235 -0.349118 0.641332 0.873700 -0.714900 1 0 1.000000 
prison_yard001
0 -25.239403 43.698299 9.261600 -0.442122 0.207411 0.872644 0.835100 -0.649100 1 0 1.000000 
0 -21.298601 42.836899 11.046900 0.026300 0.753789 0.656590 0.826300 -0.714700 1 0 1.000000 
0 -22.628101 45.774101 8.222700 0.571185 0.731181 0.372990 0.868700 -0.647900 1 0 1.000000 
prison_yard001
0 -20.193401 42.125900 10.033400 0.908677 0.275393 -0.313792 0.810300 -0.716800 1 0 1.000000 
0 -22.628101 45.774101 8.222700 0.571185 0.731181 0.372990 0.868700 -0.647900 1 0 1.000000 
0 -21.298601 42.836899 11.046900 0.026300 0.753789 0.656590 0.826300 -0.714700 1 0 1.000000 
prison_yard001
0 12.113403 -57.361500 19.731001 0.102197 0.872073 -0.478585 0.463300 -0.829500 1 0 1.000000 
0 39.072304 -62.598099 15.947100 0.102197 0.872073 -0.478585 0.492900 -0.648800 1 0 1.000000 
0 19.407701 -60.292999 15.947100 0.102197 0.872073 -0.478585 0.492900 -0.829500 1 0 1.000000 
prison_yard001
0 34.394299 0.027902 -36.748402 -0.717908 -0.696108 0.006400 0.097400 -0.992100 1 0 1.000000 
0 36.676601 0.027902 37.901798 0.131104 -0.528217 0.838927 0.097400 -0.408900 1 0 1.000000 
0 35.535400 1.169102 36.760601 0.132896 0.722779 -0.678180 0.106500 -0.372300 1 0 1.000000 
prison_yard001
0 34.394299 0.027902 -36.748402 -0.717908 -0.696108 0.006400 0.097400 -0.992100 1 0 1.000000 
0 36.676601 0.027902 -36.748402 0.707072 0.706972 -0.015499 0.097400 -0.992100 1 0 1.000000 
0 36.676601 0.027902 37.901798 0.131104 -0.528217 0.838927 0.097400 -0.408900 1 0 1.000000 
prison_yard001
0 35.535400 1.169102 36.760601 0.132896 0.722779 -0.678180 0.106500 -0.372300 1 0 1.000000 
0 36.676601 0.027902 37.901798 0.131104 -0.528217 0.838927 0.097400 -0.408900 1 0 1.000000 
0 36.676601 0.027902 -36.748402 0.707072 0.706972 -0.015499 0.097400 -0.992100 1 0 1.000000 
prison_yard001
0 36.676601 0.027902 -36.748402 0.707072 0.706972 -0.015499 0.097400 -0.992100 1 0 1.000000 
0 34.394299 0.027902 -36.748402 -0.717908 -0.696108 0.006400 0.097400 -0.992100 1 0 1.000000 
0 35.535400 1.169102 36.760601 0.132896 0.722779 -0.678180 0.106500 -0.372300 1 0 1.000000 
prison_yard001
0 28.985901 0.027901 16.888800 0.963638 0.000000 -0.267211 0.097400 -0.558900 1 0 1.000000 
0 29.681900 1.169101 19.867100 -0.180695 0.969275 0.166896 0.106300 -0.550000 1 0 1.000000 
0 29.681900 1.169101 36.760601 0.571610 0.798414 0.189203 0.106500 -0.418100 1 0 1.000000 
prison_yard001
0 28.540701 0.027901 37.901798 -0.801791 0.267297 0.534494 0.097600 -0.427000 1 0 1.000000 
0 29.681900 1.169101 36.760601 0.571610 0.798414 0.189203 0.106500 -0.418100 1 0 1.000000 
0 29.681900 1.169101 19.867100 -0.180695 0.969275 0.166896 0.106300 -0.550000 1 0 1.000000 
prison_yard001
0 29.681900 1.169101 19.867100 -0.180695 0.969275 0.166896 0.106300 -0.550000 1 0 1.000000 
0 28.540701 0.027901 20.346201 -0.740819 -0.242206 0.626516 0.097400 -0.546200 1 0 1.000000 
0 28.540701 0.027901 37.901798 -0.801791 0.267297 0.534494 0.097600 -0.427000 1 0 1.000000 
prison_yard001
0 29.681900 -1.113299 36.760601 0.261290 -0.857867 -0.442483 0.088700 -0.418100 1 0 1.000000 
0 28.540701 0.027901 37.901798 -0.801791 0.267297 0.534494 0.097600 -0.427000 1 0 1.000000 
0 28.540701 0.027901 20.346201 -0.740819 -0.242206 0.626516 0.097400 -0.546200 1 0 1.000000 
prison_yard001
0 28.540701 0.027901 20.346201 -0.740819 -0.242206 0.626516 0.097400 -0.546200 1 0 1.000000 
0 29.681900 -1.113299 19.867100 0.027501 -0.990544 0.134406 0.088500 -0.550000 1 0 1.000000 
0 29.681900 -1.113299 36.760601 0.261290 -0.857867 -0.442483 0.088700 -0.418100 1 0 1.000000 
prison_yard001
0 29.681900 -1.113299 19.867100 0.027501 -0.990544 0.134406 0.088500 -0.550000 1 0 1.000000 
0 28.985901 0.027901 16.888800 0.963638 0.000000 -0.267211 0.097400 -0.558900 1 0 1.000000 
0 29.681900 -1.113299 36.760601 0.261290 -0.857867 -0.442483 0.088700 -0.418100 1 0 1.000000 
prison_yard001
0 28.985901 0.027901 16.888800 0.963638 0.000000 -0.267211 0.097400 -0.558900 1 0 1.000000 
0 29.681900 1.169101 36.760601 0.571610 0.798414 0.189203 0.106500 -0.418100 1 0 1.000000 
0 29.681900 -1.113299 36.760601 0.261290 -0.857867 -0.442483 0.088700 -0.418100 1 0 1.000000 
prison_yard001
0 29.681900 -1.113299 36.760601 0.261290 -0.857867 -0.442483 0.088700 -0.418100 1 0 1.000000 
0 29.681900 1.169101 36.760601 0.571610 0.798414 0.189203 0.106500 -0.418100 1 0 1.000000 
0 35.535400 1.169102 36.760601 0.132896 0.722779 -0.678180 0.106500 -0.372300 1 0 1.000000 
prison_yard001
0 36.676601 0.027902 37.901798 0.131104 -0.528217 0.838927 0.097400 -0.408900 1 0 1.000000 
0 35.535400 1.169102 36.760601 0.132896 0.722779 -0.678180 0.106500 -0.372300 1 0 1.000000 
0 29.681900 1.169101 36.760601 0.571610 0.798414 0.189203 0.106500 -0.418100 1 0 1.000000 
prison_yard001
0 35.535400 1.169102 36.760601 0.132896 0.722779 -0.678180 0.106500 -0.372300 1 0 1.000000 
0 36.676601 0.027902 37.901798 0.131104 -0.528217 0.838927 0.097400 -0.408900 1 0 1.000000 
0 29.681900 -1.113299 36.760601 0.261290 -0.857867 -0.442483 0.088700 -0.418100 1 0 1.000000 
prison_yard001
0 28.540701 0.027901 37.901798 -0.801791 0.267297 0.534494 0.097600 -0.427000 1 0 1.000000 
0 29.681900 -1.113299 36.760601 0.261290 -0.857867 -0.442483 0.088700 -0.418100 1 0 1.000000 
0 36.676601 0.027902 37.901798 0.131104 -0.528217 0.838927 0.097400 -0.408900 1 0 1.000000 
prison_yard001
0 29.681900 1.169101 36.760601 0.571610 0.798414 0.189203 0.106500 -0.418100 1 0 1.000000 
0 28.540701 0.027901 37.901798 -0.801791 0.267297 0.534494 0.097600 -0.427000 1 0 1.000000 
0 36.676601 0.027902 37.901798 0.131104 -0.528217 0.838927 0.097400 -0.408900 1 0 1.000000 
prison_yard001
0 1.207902 -50.392899 15.947100 0.753971 0.476981 0.451682 0.501000 -0.980600 1 0 1.000000 
0 -21.880400 -17.481503 19.731001 0.753971 0.476981 0.451682 0.471400 -0.729500 1 0 1.000000 
0 -4.482998 -44.980801 19.731001 0.753971 0.476981 0.451682 0.471400 -0.980600 1 0 1.000000 
prison_yard001
0 1.720098 50.609798 19.731001 -0.618913 0.780017 0.092302 0.509000 -1.130200 1 0 1.000000 
0 12.406997 57.339199 15.947100 -0.445502 0.890603 -0.091400 0.479400 -1.033700 1 0 1.000000 
0 -4.042302 45.261700 15.947100 -0.730798 0.682398 0.016300 0.479400 -1.130200 1 0 1.000000 
prison_yard001
0 12.406997 57.339199 15.947100 -0.445502 0.890603 -0.091400 0.479400 -1.033700 1 0 1.000000 
0 1.720098 50.609798 19.731001 -0.618913 0.780017 0.092302 0.509000 -1.130200 1 0 1.000000 
0 19.702497 60.311600 19.731001 -0.288886 0.946654 0.142793 0.509000 -0.972200 1 0 1.000000 
prison_yard001
0 19.702497 60.311600 19.731001 -0.288886 0.946654 0.142793 0.509000 -0.972200 1 0 1.000000 
0 39.015995 64.464798 15.947100 -0.190502 0.976611 0.099701 0.479400 -0.819300 1 0 1.000000 
0 12.406997 57.339199 15.947100 -0.445502 0.890603 -0.091400 0.479400 -1.033700 1 0 1.000000 
prison_yard001
0 39.015995 64.464798 15.947100 -0.190502 0.976611 0.099701 0.479400 -0.819300 1 0 1.000000 
0 19.702497 60.311600 19.731001 -0.288886 0.946654 0.142793 0.509000 -0.972200 1 0 1.000000 
0 39.004097 62.605999 19.731001 -0.106099 0.892595 0.438197 0.509000 -0.819300 1 0 1.000000 
prison_yard001
0 -4.042302 45.261700 15.947100 -0.745453 0.666558 0.000000 0.477800 -0.759800 1 0 1.000000 
0 -18.254301 26.033300 19.731001 -0.870114 0.470008 0.148302 0.507300 -0.573200 1 0 1.000000 
0 1.720098 50.609798 19.731001 -0.618913 0.780017 0.092302 0.507300 -0.820600 1 0 1.000000 
prison_yard001
0 -18.254301 26.033300 19.731001 -0.870114 0.470008 0.148302 0.507300 -0.573200 1 0 1.000000 
0 -4.042302 45.261700 15.947100 -0.745453 0.666558 0.000000 0.477800 -0.759800 1 0 1.000000 
0 -18.254301 26.033300 15.947100 -0.867405 0.497603 0.000000 0.477800 -0.573200 1 0 1.000000 
prison_yard001
0 -18.254301 26.033300 15.947100 -0.867405 0.497603 0.000000 0.477800 -0.573200 1 0 1.000000 
0 -21.324499 18.877001 15.947100 -0.958345 0.285613 0.000000 0.476800 -0.516200 1 0 1.000000 
0 -18.254301 26.033300 19.731001 -0.870114 0.470008 0.148302 0.507300 -0.573200 1 0 1.000000 
prison_yard001
0 -21.324499 18.877001 15.947100 -0.958345 0.285613 0.000000 0.476800 -0.516200 1 0 1.000000 
0 -23.959801 3.888699 19.731001 -0.990909 0.089101 0.100801 0.505300 -0.398800 1 0 1.000000 
0 -18.254301 26.033300 19.731001 -0.870114 0.470008 0.148302 0.507300 -0.573200 1 0 1.000000 
prison_yard001
0 -23.959801 3.888699 19.731001 -0.990909 0.089101 0.100801 0.505300 -0.398800 1 0 1.000000 
0 -21.324499 18.877001 15.947100 -0.958345 0.285613 0.000000 0.476800 -0.516200 1 0 1.000000 
0 -24.024200 -4.001201 15.947100 -0.992102 -0.072300 -0.102500 0.475200 -0.337400 1 0 1.000000 
prison_yard001
0 -24.024200 -4.001201 15.947100 -0.992102 -0.072300 -0.102500 0.475200 -0.337400 1 0 1.000000 
0 -21.880400 -17.481503 19.731001 -0.962974 -0.269593 0.000000 0.496700 -0.255800 1 0 1.000000 
0 -23.959801 3.888699 19.731001 -0.990909 0.089101 0.100801 0.505300 -0.398800 1 0 1.000000 
prison_yard001
0 -21.880400 -17.481503 19.731001 -0.962974 -0.269593 0.000000 0.496700 -0.255800 1 0 1.000000 
0 -24.024200 -4.001201 15.947100 -0.992102 -0.072300 -0.102500 0.475200 -0.337400 1 0 1.000000 
0 -18.931898 -24.690201 15.947100 -0.877693 -0.455797 -0.147999 0.466700 -0.199700 1 0 1.000000 
prison_yard001
0 -18.931898 -24.690201 19.731001 -0.875897 -0.482498 0.000000 0.496200 -0.199500 1 0 1.000000 
0 -21.880400 -17.481503 19.731001 -0.962974 -0.269593 0.000000 0.496700 -0.255800 1 0 1.000000 
0 -18.931898 -24.690201 15.947100 -0.877693 -0.455797 -0.147999 0.466700 -0.199700 1 0 1.000000 
prison_yard001
0 -4.042302 45.261700 15.947100 0.000000 0.000000 -1.000000 0.468300 -0.624100 1 0 1.000000 
0 -21.324499 18.877001 15.947100 0.000000 0.000000 -1.000000 0.565700 -0.397800 1 0 1.000000 
0 -18.254301 26.033300 15.947100 0.000000 0.000000 -1.000000 0.532300 -0.448600 1 0 1.000000 
prison_yard001
0 35.474300 -5.951899 -37.861401 -0.335805 -0.005900 -0.941913 0.220300 -0.843000 1 0 1.000000 
0 34.294899 -6.510798 -36.681999 -0.959775 -0.240494 0.144896 0.229600 -0.838700 1 0 1.000000 
0 36.281101 8.141702 -36.681999 -0.619112 0.762515 -0.187804 0.223700 -0.917900 1 0 1.000000 
prison_yard001
0 35.474300 -5.951899 -37.861401 -0.335805 -0.005900 -0.941913 0.220300 -0.843000 1 0 1.000000 
0 36.341599 -8.185398 -36.681999 -0.336197 -0.941792 0.000000 0.229700 -0.825600 1 0 1.000000 
0 34.294899 -6.510798 -36.681999 -0.959775 -0.240494 0.144896 0.229600 -0.838700 1 0 1.000000 
prison_yard001
0 35.474300 -5.951899 -35.502701 0.095396 -0.044198 0.994458 0.238700 -0.843100 1 0 1.000000 
0 34.294899 -6.510798 -36.681999 -0.959775 -0.240494 0.144896 0.229600 -0.838700 1 0 1.000000 
0 36.341599 -8.185398 -36.681999 -0.336197 -0.941792 0.000000 0.229700 -0.825600 1 0 1.000000 
prison_yard001
0 34.294899 -6.510798 -36.681999 -0.959775 -0.240494 0.144896 0.229600 -0.838700 1 0 1.000000 
0 35.474300 -5.951899 -35.502701 0.095396 -0.044198 0.994458 0.238700 -0.843100 1 0 1.000000 
0 36.768101 6.962401 -35.502701 -0.226704 0.032601 0.973418 0.227500 -0.908700 1 0 1.000000 
prison_yard001
0 36.768101 6.962401 -35.502701 -0.226704 0.032601 0.973418 0.227500 -0.908700 1 0 1.000000 
0 36.281101 8.141702 -36.681999 -0.619112 0.762515 -0.187804 0.223700 -0.917900 1 0 1.000000 
0 34.294899 -6.510798 -36.681999 -0.959775 -0.240494 0.144896 0.229600 -0.838700 1 0 1.000000 
prison_yard001
0 36.281101 8.141702 -36.681999 -0.619112 0.762515 -0.187804 0.223700 -0.917900 1 0 1.000000 
0 36.768101 6.962401 -35.502701 -0.226704 0.032601 0.973418 0.227500 -0.908700 1 0 1.000000 
0 39.807800 6.962402 -35.502701 0.461808 0.025400 0.886616 0.251300 -0.908700 1 0 1.000000 
prison_yard001
0 39.807800 6.962402 -35.502701 0.461808 0.025400 0.886616 0.251300 -0.908700 1 0 1.000000 
0 39.807800 6.962402 -37.861401 0.461808 0.025400 -0.886616 0.251300 -0.927100 1 0 1.000000 
0 36.281101 8.141702 -36.681999 -0.619112 0.762515 -0.187804 0.223700 -0.917900 1 0 1.000000 
prison_yard001
0 39.807800 6.962402 -37.861401 0.461808 0.025400 -0.886616 0.251300 -0.927100 1 0 1.000000 
0 39.807800 6.962402 -35.502701 0.461808 0.025400 0.886616 0.251300 -0.908700 1 0 1.000000 
0 37.255100 5.783001 -36.681999 0.735093 -0.636194 0.234298 0.231400 -0.917900 1 0 1.000000 
prison_yard001
0 37.255100 5.783001 -36.681999 0.735093 -0.636194 0.234298 0.231400 -0.917900 1 0 1.000000 
0 36.768101 6.962401 -37.861401 0.116700 0.048200 -0.991997 0.219400 -0.943900 1 0 1.000000 
0 39.807800 6.962402 -37.861401 0.461808 0.025400 -0.886616 0.251300 -0.927100 1 0 1.000000 
prison_yard001
0 36.768101 6.962401 -37.861401 0.116700 0.048200 -0.991997 0.219400 -0.943900 1 0 1.000000 
0 36.281101 8.141702 -36.681999 -0.619112 0.762515 -0.187804 0.223700 -0.917900 1 0 1.000000 
0 39.807800 6.962402 -37.861401 0.461808 0.025400 -0.886616 0.251300 -0.927100 1 0 1.000000 
prison_yard001
0 36.281101 8.141702 -36.681999 -0.619112 0.762515 -0.187804 0.223700 -0.917900 1 0 1.000000 
0 36.768101 6.962401 -37.861401 0.116700 0.048200 -0.991997 0.219400 -0.943900 1 0 1.000000 
0 35.474300 -5.951899 -37.861401 -0.335805 -0.005900 -0.941913 0.220300 -0.843000 1 0 1.000000 
prison_yard001
0 36.768101 6.962401 -35.502701 -0.226704 0.032601 0.973418 0.227500 -0.908700 1 0 1.000000 
0 37.255100 5.783001 -36.681999 0.735093 -0.636194 0.234298 0.231400 -0.917900 1 0 1.000000 
0 39.807800 6.962402 -35.502701 0.461808 0.025400 0.886616 0.251300 -0.908700 1 0 1.000000 
prison_yard001
0 -4.482998 -44.980801 19.731001 0.000000 0.000000 1.000000 0.467700 -0.745000 1 0 1.000000 
0 -21.880400 -17.481503 19.731001 0.000000 0.000000 1.000000 0.563400 -0.947400 1 0 1.000000 
0 -18.931898 -24.690201 19.731001 0.000000 0.000000 1.000000 0.489800 -0.951400 1 0 1.000000 
prison_yard001
0 36.341599 -8.185398 -36.681999 -0.336197 -0.941792 0.000000 0.251200 -0.917900 1 0 1.000000 
0 35.474300 -5.951899 -37.861401 -0.335805 -0.005900 -0.941913 0.244300 -0.951700 1 0 1.000000 
0 39.924900 -7.005998 -37.861401 0.521613 0.235206 -0.820121 0.279100 -0.927100 1 0 1.000000 
prison_yard001
0 39.924900 -7.005998 -37.861401 0.521613 0.235206 -0.820121 0.279100 -0.927100 1 0 1.000000 
0 39.924900 -7.005998 -35.502701 0.521613 0.235206 0.820121 0.279100 -0.908700 1 0 1.000000 
0 36.341599 -8.185398 -36.681999 -0.336197 -0.941792 0.000000 0.251200 -0.917900 1 0 1.000000 
prison_yard001
0 35.474300 -5.951899 -35.502701 0.095396 -0.044198 0.994458 0.225900 -0.951700 1 0 1.000000 
0 36.341599 -8.185398 -36.681999 -0.336197 -0.941792 0.000000 0.251200 -0.917900 1 0 1.000000 
0 39.924900 -7.005998 -35.502701 0.521613 0.235206 0.820121 0.279100 -0.908700 1 0 1.000000 
prison_yard001
0 37.183601 -5.826699 -36.681999 0.733939 0.672136 -0.097805 0.257700 -0.917900 1 0 1.000000 
0 35.474300 -5.951899 -35.502701 0.095396 -0.044198 0.994458 0.225900 -0.951700 1 0 1.000000 
0 39.924900 -7.005998 -35.502701 0.521613 0.235206 0.820121 0.279100 -0.908700 1 0 1.000000 
prison_yard001
0 35.474300 -5.951899 -35.502701 0.095396 -0.044198 0.994458 0.225900 -0.951700 1 0 1.000000 
0 37.183601 -5.826699 -36.681999 0.733939 0.672136 -0.097805 0.257700 -0.917900 1 0 1.000000 
0 37.255100 5.783001 -36.681999 0.735093 -0.636194 0.234298 0.235100 -0.860000 1 0 1.000000 
prison_yard001
0 36.768101 6.962401 -37.861401 0.116700 0.048200 -0.991997 0.244300 -0.850800 1 0 1.000000 
0 37.255100 5.783001 -36.681999 0.735093 -0.636194 0.234298 0.235100 -0.860000 1 0 1.000000 
0 37.183601 -5.826699 -36.681999 0.733939 0.672136 -0.097805 0.257700 -0.917900 1 0 1.000000 
prison_yard001
0 37.183601 -5.826699 -36.681999 0.733939 0.672136 -0.097805 0.257700 -0.917900 1 0 1.000000 
0 35.474300 -5.951899 -37.861401 -0.335805 -0.005900 -0.941913 0.244300 -0.951700 1 0 1.000000 
0 36.768101 6.962401 -37.861401 0.116700 0.048200 -0.991997 0.244300 -0.850800 1 0 1.000000 
prison_yard001
0 35.474300 -5.951899 -37.861401 -0.335805 -0.005900 -0.941913 0.244300 -0.951700 1 0 1.000000 
0 37.183601 -5.826699 -36.681999 0.733939 0.672136 -0.097805 0.257700 -0.917900 1 0 1.000000 
0 39.924900 -7.005998 -37.861401 0.521613 0.235206 -0.820121 0.279100 -0.927100 1 0 1.000000 
prison_yard001
0 39.924900 -7.005998 -35.502701 0.521613 0.235206 0.820121 0.279100 -0.908700 1 0 1.000000 
0 39.924900 -7.005998 -37.861401 0.521613 0.235206 -0.820121 0.279100 -0.927100 1 0 1.000000 
0 37.183601 -5.826699 -36.681999 0.733939 0.672136 -0.097805 0.257700 -0.917900 1 0 1.000000 
prison_yard001
0 37.255100 5.783001 -36.681999 0.735093 -0.636194 0.234298 0.235100 -0.860000 1 0 1.000000 
0 36.768101 6.962401 -35.502701 -0.226704 0.032601 0.973418 0.225900 -0.850800 1 0 1.000000 
0 35.474300 -5.951899 -35.502701 0.095396 -0.044198 0.994458 0.225900 -0.951700 1 0 1.000000 
prison_yard001
0 -23.959801 3.888699 19.731001 0.000000 0.000000 1.000000 0.536800 -0.729600 1 0 1.000000 
0 -19.124300 21.810301 19.731001 0.000000 0.000000 1.000000 0.501600 -0.585000 1 0 1.000000 
0 -18.254301 26.033300 19.731001 0.000000 0.000000 1.000000 0.498300 -0.555100 1 0 1.000000 
prison_yard001
0 -19.124300 21.810301 19.731001 0.000000 0.000000 1.000000 0.501600 -0.585000 1 0 1.000000 
0 1.720098 50.609798 19.731001 0.000000 0.000000 1.000000 0.574000 -0.316800 1 0 1.000000 
0 -18.254301 26.033300 19.731001 0.000000 0.000000 1.000000 0.498300 -0.555100 1 0 1.000000 
prison_yard001
0 -19.540400 -20.607700 15.947100 0.000000 0.000000 -1.000000 0.564100 -0.059400 1 0 1.000000 
0 1.207902 -50.392899 15.947100 0.000000 0.000000 -1.000000 0.459500 -0.323000 1 0 1.000000 
0 -18.931898 -24.690201 15.947100 0.000000 0.000000 -1.000000 0.540100 -0.080900 1 0 1.000000 
prison_yard001
0 -15.659702 38.000500 18.876200 -0.224907 0.358511 0.906028 0.801400 -0.931100 1 0 1.000000 
0 -9.739302 35.314899 17.736000 0.758199 0.651599 -0.023500 0.816800 -1.017200 1 0 1.000000 
0 -14.528802 38.606701 17.736099 0.578099 0.815899 -0.010500 0.816800 -0.939000 1 0 1.000000 
prison_yard001
0 -9.739302 35.314899 17.736000 0.758199 0.651599 -0.023500 0.816800 -1.017200 1 0 1.000000 
0 -15.659702 38.000500 18.876200 -0.224907 0.358511 0.906028 0.801400 -0.931100 1 0 1.000000 
0 -11.030802 33.435699 17.736000 -0.336586 -0.941360 -0.023499 0.816800 -1.017200 1 0 1.000000 
prison_yard001
0 -11.030802 33.435699 17.736000 -0.336586 -0.941360 -0.023499 0.816800 -1.017200 1 0 1.000000 
0 -14.783002 37.397999 16.709400 0.348999 -0.239899 -0.905896 0.830600 -0.945400 1 0 1.000000 
0 -9.739302 35.314899 17.736000 0.758199 0.651599 -0.023500 0.816800 -1.017200 1 0 1.000000 
prison_yard001
0 -14.783002 37.397999 16.709400 0.348999 -0.239899 -0.905896 0.830600 -0.945400 1 0 1.000000 
0 -11.030802 33.435699 17.736000 -0.336586 -0.941360 -0.023499 0.816800 -1.017200 1 0 1.000000 
0 -15.820302 36.727501 17.736099 -0.536290 -0.810486 -0.235596 0.818300 -0.890700 1 0 1.000000 
prison_yard001
0 -15.820302 36.727501 17.736099 -0.536290 -0.810486 -0.235596 0.818300 -0.890700 1 0 1.000000 
0 -11.030802 33.435699 17.736000 -0.336586 -0.941360 -0.023499 0.816800 -1.017200 1 0 1.000000 
0 -15.659702 38.000500 18.876200 -0.224907 0.358511 0.906028 0.801400 -0.931100 1 0 1.000000 
prison_yard001
0 -15.820302 36.727501 17.736099 -0.536290 -0.810486 -0.235596 0.818300 -0.890700 1 0 1.000000 
0 -15.659702 38.000500 18.876200 -0.224907 0.358511 0.906028 0.801400 -0.931100 1 0 1.000000 
0 -22.195702 41.531700 11.046900 -0.683235 -0.349118 0.641332 0.811800 -0.767300 1 0 1.000000 
prison_yard001
0 -22.195702 41.531700 11.046900 -0.683235 -0.349118 0.641332 0.811800 -0.767300 1 0 1.000000 
0 -15.659702 38.000500 18.876200 -0.224907 0.358511 0.906028 0.801400 -0.931100 1 0 1.000000 
0 -21.298601 42.836899 11.046900 0.026300 0.753789 0.656590 0.811800 -0.767300 1 0 1.000000 
prison_yard001
0 -14.528802 38.606701 17.736099 0.578099 0.815899 -0.010500 0.816800 -0.939000 1 0 1.000000 
0 -21.298601 42.836899 11.046900 0.026300 0.753789 0.656590 0.811800 -0.767300 1 0 1.000000 
0 -15.659702 38.000500 18.876200 -0.224907 0.358511 0.906028 0.801400 -0.931100 1 0 1.000000 
prison_yard001
0 -20.193401 42.125900 10.033400 0.908677 0.275393 -0.313792 0.831200 -0.770500 1 0 1.000000 
0 -21.298601 42.836899 11.046900 0.026300 0.753789 0.656590 0.811800 -0.767300 1 0 1.000000 
0 -14.528802 38.606701 17.736099 0.578099 0.815899 -0.010500 0.816800 -0.939000 1 0 1.000000 
prison_yard001
0 -14.783002 37.397999 16.709400 0.348999 -0.239899 -0.905896 0.831100 -0.886600 1 0 1.000000 
0 -20.193401 42.125900 10.033400 0.908677 0.275393 -0.313792 0.831200 -0.770500 1 0 1.000000 
0 -14.528802 38.606701 17.736099 0.578099 0.815899 -0.010500 0.816800 -0.939000 1 0 1.000000 
prison_yard001
0 -20.193401 42.125900 10.033400 0.908677 0.275393 -0.313792 0.831200 -0.770500 1 0 1.000000 
0 -14.783002 37.397999 16.709400 0.348999 -0.239899 -0.905896 0.831100 -0.886600 1 0 1.000000 
0 -21.135801 40.754601 10.033400 0.099896 -0.921266 -0.375886 0.831200 -0.770500 1 0 1.000000 
prison_yard001
0 -15.820302 36.727501 17.736099 -0.536290 -0.810486 -0.235596 0.818300 -0.890700 1 0 1.000000 
0 -21.135801 40.754601 10.033400 0.099896 -0.921266 -0.375886 0.831200 -0.770500 1 0 1.000000 
0 -14.783002 37.397999 16.709400 0.348999 -0.239899 -0.905896 0.831100 -0.886600 1 0 1.000000 
prison_yard001
0 -22.195702 41.531700 11.046900 -0.683235 -0.349118 0.641332 0.811800 -0.767300 1 0 1.000000 
0 -21.135801 40.754601 10.033400 0.099896 -0.921266 -0.375886 0.831200 -0.770500 1 0 1.000000 
0 -15.820302 36.727501 17.736099 -0.536290 -0.810486 -0.235596 0.818300 -0.890700 1 0 1.000000 
prison_yard001
0 -14.528802 38.606701 17.736099 0.578099 0.815899 -0.010500 0.816800 -0.939000 1 0 1.000000 
0 -9.739302 35.314899 17.736000 0.758199 0.651599 -0.023500 0.816800 -1.017200 1 0 1.000000 
0 -14.783002 37.397999 16.709400 0.348999 -0.239899 -0.905896 0.830600 -0.945400 1 0 1.000000 
prison_yard001
0 12.420603 -69.641502 10.033300 0.904861 0.287688 -0.313787 0.831200 -0.770500 1 0 1.000000 
0 15.095603 -63.532799 17.736099 0.949779 -0.312793 -0.009000 0.816800 -0.939000 1 0 1.000000 
0 11.912503 -70.853500 11.046900 0.448581 -0.606374 0.656572 0.811800 -0.767300 1 0 1.000000 
prison_yard001
0 14.201503 -62.680599 16.709400 0.170396 0.443990 -0.879680 0.831100 -0.886600 1 0 1.000000 
0 15.095603 -63.532799 17.736099 0.949779 -0.312793 -0.009000 0.816800 -0.939000 1 0 1.000000 
0 12.420603 -69.641502 10.033300 0.904861 0.287688 -0.313787 0.831200 -0.770500 1 0 1.000000 
prison_yard001
0 12.420603 -69.641502 10.033300 0.904861 0.287688 -0.313787 0.831200 -0.770500 1 0 1.000000 
0 10.867203 -69.045197 10.033300 -0.439502 0.815804 -0.375902 0.831200 -0.770500 1 0 1.000000 
0 14.201503 -62.680599 16.709400 0.170396 0.443990 -0.879680 0.831100 -0.886600 1 0 1.000000 
prison_yard001
0 12.966903 -62.715599 17.736099 -0.901022 0.364209 -0.235606 0.818300 -0.890700 1 0 1.000000 
0 14.201503 -62.680599 16.709400 0.170396 0.443990 -0.879680 0.831100 -0.886600 1 0 1.000000 
0 10.867203 -69.045197 10.033300 -0.439502 0.815804 -0.375902 0.831200 -0.770500 1 0 1.000000 
prison_yard001
0 10.433903 -70.285896 11.046900 -0.760822 -0.099303 0.641318 0.811800 -0.767300 1 0 1.000000 
0 12.966903 -62.715599 17.736099 -0.901022 0.364209 -0.235606 0.818300 -0.890700 1 0 1.000000 
0 10.867203 -69.045197 10.033300 -0.439502 0.815804 -0.375902 0.831200 -0.770500 1 0 1.000000 
prison_yard001
0 12.966903 -62.715599 17.736099 -0.901022 0.364209 -0.235606 0.818300 -0.890700 1 0 1.000000 
0 10.433903 -70.285896 11.046900 -0.760822 -0.099303 0.641318 0.811800 -0.767300 1 0 1.000000 
0 13.820303 -63.673698 18.876200 0.025000 -0.595708 0.802811 0.801400 -0.931100 1 0 1.000000 
prison_yard001
0 10.433903 -70.285896 11.046900 -0.760822 -0.099303 0.641318 0.811800 -0.767300 1 0 1.000000 
0 11.912503 -70.853500 11.046900 0.448581 -0.606374 0.656572 0.811800 -0.767300 1 0 1.000000 
0 13.820303 -63.673698 18.876200 0.025000 -0.595708 0.802811 0.801400 -0.931100 1 0 1.000000 
prison_yard001
0 15.095603 -63.532799 17.736099 0.949779 -0.312793 -0.009000 0.816800 -0.939000 1 0 1.000000 
0 13.820303 -63.673698 18.876200 0.025000 -0.595708 0.802811 0.801400 -0.931100 1 0 1.000000 
0 11.912503 -70.853500 11.046900 0.448581 -0.606374 0.656572 0.811800 -0.767300 1 0 1.000000 
prison_yard001
0 13.820303 -63.673698 18.876200 0.025000 -0.595708 0.802811 0.801400 -0.931100 1 0 1.000000 
0 15.095603 -63.532799 17.736099 0.949779 -0.312793 -0.009000 0.816800 -0.939000 1 0 1.000000 
0 16.114002 -57.698399 18.876101 -0.489096 0.306797 0.816493 0.801400 -1.017200 1 0 1.000000 
prison_yard001
0 16.113901 -57.698601 16.595900 0.538012 -0.107002 -0.836118 0.832100 -1.017200 1 0 1.000000 
0 16.114002 -57.698399 18.876101 -0.489096 0.306797 0.816493 0.801400 -1.017200 1 0 1.000000 
0 15.095603 -63.532799 17.736099 0.949779 -0.312793 -0.009000 0.816800 -0.939000 1 0 1.000000 
prison_yard001
0 16.114002 -57.698399 18.876101 -0.489096 0.306797 0.816493 0.801400 -1.017200 1 0 1.000000 
0 16.113901 -57.698601 16.595900 0.538012 -0.107002 -0.836118 0.832100 -1.017200 1 0 1.000000 
0 12.966903 -62.715599 17.736099 -0.901022 0.364209 -0.235606 0.818300 -0.890700 1 0 1.000000 
prison_yard001
0 14.201503 -62.680599 16.709400 0.170396 0.443990 -0.879680 0.830600 -0.945400 1 0 1.000000 
0 12.966903 -62.715599 17.736099 -0.901022 0.364209 -0.235606 0.818300 -0.890700 1 0 1.000000 
0 16.113901 -57.698601 16.595900 0.538012 -0.107002 -0.836118 0.832100 -1.017200 1 0 1.000000 
prison_yard001
0 15.095603 -63.532799 17.736099 0.949779 -0.312793 -0.009000 0.816800 -0.939000 1 0 1.000000 
0 14.201503 -62.680599 16.709400 0.170396 0.443990 -0.879680 0.830600 -0.945400 1 0 1.000000 
0 16.113901 -57.698601 16.595900 0.538012 -0.107002 -0.836118 0.832100 -1.017200 1 0 1.000000 
prison_yard001
0 12.966903 -62.715599 17.736099 -0.901022 0.364209 -0.235606 0.818300 -0.890700 1 0 1.000000 
0 13.820303 -63.673698 18.876200 0.025000 -0.595708 0.802811 0.801400 -0.931100 1 0 1.000000 
0 16.114002 -57.698399 18.876101 -0.489096 0.306797 0.816493 0.801400 -1.017200 1 0 1.000000 
prison_yard001
0 -24.024200 -4.001201 15.947100 0.000000 0.000000 -1.000000 0.573500 -0.534000 1 0 1.000000 
0 -19.540400 -20.607700 15.947100 0.000000 0.000000 -1.000000 0.536200 -0.663100 1 0 1.000000 
0 -18.931898 -24.690201 15.947100 0.000000 0.000000 -1.000000 0.554900 -0.639000 1 0 1.000000 
prison_yard001
0 -22.195698 -41.531700 11.046900 -0.683235 0.349118 0.641332 0.811800 -0.767300 1 0 1.000000 
0 -15.820298 -36.727501 17.736099 -0.536291 0.810486 -0.235596 0.818300 -0.890700 1 0 1.000000 
0 -21.135798 -40.754601 10.033400 0.099896 0.921266 -0.375886 0.831200 -0.770500 1 0 1.000000 
prison_yard001
0 -15.820298 -36.727501 17.736099 -0.536291 0.810486 -0.235596 0.818300 -0.890700 1 0 1.000000 
0 -14.782998 -37.397999 16.709400 0.348999 0.239899 -0.905896 0.831100 -0.886600 1 0 1.000000 
0 -21.135798 -40.754601 10.033400 0.099896 0.921266 -0.375886 0.831200 -0.770500 1 0 1.000000 
prison_yard001
0 -20.193398 -42.125900 10.033400 0.908677 -0.275393 -0.313792 0.831200 -0.770500 1 0 1.000000 
0 -21.135798 -40.754601 10.033400 0.099896 0.921266 -0.375886 0.831200 -0.770500 1 0 1.000000 
0 -14.782998 -37.397999 16.709400 0.348999 0.239899 -0.905896 0.831100 -0.886600 1 0 1.000000 
prison_yard001
0 -14.782998 -37.397999 16.709400 0.348999 0.239899 -0.905896 0.831100 -0.886600 1 0 1.000000 
0 -14.528798 -38.606701 17.736099 0.578099 -0.815899 -0.010500 0.818300 -0.890700 1 0 1.000000 
0 -20.193398 -42.125900 10.033400 0.908677 -0.275393 -0.313792 0.831200 -0.770500 1 0 1.000000 
prison_yard001
0 -20.193398 -42.125900 10.033400 0.908677 -0.275393 -0.313792 0.831200 -0.770500 1 0 1.000000 
0 -14.528798 -38.606701 17.736099 0.578099 -0.815899 -0.010500 0.818300 -0.890700 1 0 1.000000 
0 -21.298597 -42.837002 11.046900 0.026300 -0.753789 0.656590 0.811800 -0.767300 1 0 1.000000 
prison_yard001
0 -14.528798 -38.606701 17.736099 0.578099 -0.815899 -0.010500 0.818300 -0.890700 1 0 1.000000 
0 -15.659698 -38.000500 18.876301 -0.224907 -0.358511 0.906028 0.801400 -0.931100 1 0 1.000000 
0 -21.298597 -42.837002 11.046900 0.026300 -0.753789 0.656590 0.811800 -0.767300 1 0 1.000000 
prison_yard001
0 -22.195698 -41.531700 11.046900 -0.683235 0.349118 0.641332 0.811800 -0.767300 1 0 1.000000 
0 -21.298597 -42.837002 11.046900 0.026300 -0.753789 0.656590 0.811800 -0.767300 1 0 1.000000 
0 -15.659698 -38.000500 18.876301 -0.224907 -0.358511 0.906028 0.801400 -0.931100 1 0 1.000000 
prison_yard001
0 -15.820298 -36.727501 17.736099 -0.536291 0.810486 -0.235596 0.818300 -0.890700 1 0 1.000000 
0 -22.195698 -41.531700 11.046900 -0.683235 0.349118 0.641332 0.811800 -0.767300 1 0 1.000000 
0 -15.659698 -38.000500 18.876301 -0.224907 -0.358511 0.906028 0.801400 -0.931100 1 0 1.000000 
prison_yard001
0 -15.820298 -36.727501 17.736099 -0.536291 0.810486 -0.235596 0.818300 -0.890700 1 0 1.000000 
0 -15.659698 -38.000500 18.876301 -0.224907 -0.358511 0.906028 0.801400 -0.931100 1 0 1.000000 
0 -11.030798 -33.435799 17.736000 -0.336586 0.941360 -0.023499 0.816800 -1.017200 1 0 1.000000 
prison_yard001
0 -14.782998 -37.397999 16.709400 0.348999 0.239899 -0.905896 0.830600 -0.945400 1 0 1.000000 
0 -15.820298 -36.727501 17.736099 -0.536291 0.810486 -0.235596 0.818300 -0.890700 1 0 1.000000 
0 -11.030798 -33.435799 17.736000 -0.336586 0.941360 -0.023499 0.816800 -1.017200 1 0 1.000000 
prison_yard001
0 -11.030798 -33.435799 17.736000 -0.336586 0.941360 -0.023499 0.816800 -1.017200 1 0 1.000000 
0 -9.739298 -35.314899 17.736000 0.758199 -0.651599 -0.023500 0.816800 -1.017200 1 0 1.000000 
0 -14.782998 -37.397999 16.709400 0.348999 0.239899 -0.905896 0.830600 -0.945400 1 0 1.000000 
prison_yard001
0 -14.528798 -38.606701 17.736099 0.578099 -0.815899 -0.010500 0.818300 -0.890700 1 0 1.000000 
0 -14.782998 -37.397999 16.709400 0.348999 0.239899 -0.905896 0.830600 -0.945400 1 0 1.000000 
0 -9.739298 -35.314899 17.736000 0.758199 -0.651599 -0.023500 0.816800 -1.017200 1 0 1.000000 
prison_yard001
0 -15.659698 -38.000500 18.876301 -0.224907 -0.358511 0.906028 0.801400 -0.931100 1 0 1.000000 
0 -14.528798 -38.606701 17.736099 0.578099 -0.815899 -0.010500 0.818300 -0.890700 1 0 1.000000 
0 -9.739298 -35.314899 17.736000 0.758199 -0.651599 -0.023500 0.816800 -1.017200 1 0 1.000000 
prison_yard001
0 -9.739298 -35.314899 17.736000 0.758199 -0.651599 -0.023500 0.816800 -1.017200 1 0 1.000000 
0 -11.030798 -33.435799 17.736000 -0.336586 0.941360 -0.023499 0.816800 -1.017200 1 0 1.000000 
0 -15.659698 -38.000500 18.876301 -0.224907 -0.358511 0.906028 0.801400 -0.931100 1 0 1.000000 
prison_yard001
0 31.750999 -4.202699 -39.126598 0.622776 0.459882 -0.632976 0.803600 -0.844800 1 0 1.000000 
0 32.897202 -2.467199 -36.737801 0.622776 0.459882 -0.632976 0.812500 -0.821300 1 0 1.000000 
0 32.897202 -5.754999 -39.126598 0.622776 0.459882 -0.632976 0.812500 -0.844800 1 0 1.000000 
prison_yard001
0 12.420603 -69.641502 10.033300 0.904861 0.287688 -0.313787 0.810300 -0.716800 1 0 1.000000 
0 11.912503 -70.853500 11.046900 0.448581 -0.606374 0.656572 0.826300 -0.714700 1 0 1.000000 
0 12.480403 -74.027100 8.222700 0.884867 -0.279090 0.372986 0.868700 -0.647900 1 0 1.000000 
prison_yard001
0 9.152703 -73.795403 9.261600 -0.246904 -0.421407 0.872614 0.835100 -0.649100 1 0 1.000000 
0 12.480403 -74.027100 8.222700 0.884867 -0.279090 0.372986 0.868700 -0.647900 1 0 1.000000 
0 11.912503 -70.853500 11.046900 0.448581 -0.606374 0.656572 0.826300 -0.714700 1 0 1.000000 
prison_yard001
0 11.912503 -70.853500 11.046900 0.448581 -0.606374 0.656572 0.826300 -0.714700 1 0 1.000000 
0 10.433903 -70.285896 11.046900 -0.760822 -0.099303 0.641318 0.873700 -0.714900 1 0 1.000000 
0 9.152703 -73.795403 9.261600 -0.246904 -0.421407 0.872614 0.835100 -0.649100 1 0 1.000000 
prison_yard001
0 7.888303 -72.264297 8.222700 -0.838097 0.494198 0.230999 0.816800 -0.648800 1 0 1.000000 
0 9.152703 -73.795403 9.261600 -0.246904 -0.421407 0.872614 0.835100 -0.649100 1 0 1.000000 
0 10.433903 -70.285896 11.046900 -0.760822 -0.099303 0.641318 0.873700 -0.714900 1 0 1.000000 
prison_yard001
0 10.433903 -70.285896 11.046900 -0.760822 -0.099303 0.641318 0.873700 -0.714900 1 0 1.000000 
0 10.867203 -69.045197 10.033300 -0.439502 0.815804 -0.375902 0.857000 -0.716000 1 0 1.000000 
0 7.888303 -72.264297 8.222700 -0.838097 0.494198 0.230999 0.875700 -0.675100 1 0 1.000000 
prison_yard001
0 12.480403 -74.027100 8.222700 0.884867 -0.279090 0.372986 0.818000 -0.731800 1 0 1.000000 
0 11.790703 -71.112801 6.033400 0.383899 0.784198 -0.487499 0.834800 -0.735800 1 0 1.000000 
0 12.420603 -69.641502 10.033300 0.904861 0.287688 -0.313787 0.810300 -0.716800 1 0 1.000000 
prison_yard001
0 10.867203 -69.045197 10.033300 -0.439502 0.815804 -0.375902 0.857000 -0.716000 1 0 1.000000 
0 12.420603 -69.641502 10.033300 0.904861 0.287688 -0.313787 0.810300 -0.716800 1 0 1.000000 
0 11.790703 -71.112801 6.033400 0.383899 0.784198 -0.487499 0.834800 -0.735800 1 0 1.000000 
prison_yard001
0 11.790703 -71.112801 6.033400 0.383899 0.784198 -0.487499 0.834800 -0.735800 1 0 1.000000 
0 7.888303 -72.264297 8.222700 -0.838097 0.494198 0.230999 0.867100 -0.731300 1 0 1.000000 
0 10.867203 -69.045197 10.033300 -0.439502 0.815804 -0.375902 0.857000 -0.716000 1 0 1.000000 
prison_yard001
0 -39.173401 2.412798 8.222700 0.161006 0.959537 0.231009 0.816800 -0.648800 1 0 1.000000 
0 -40.149700 0.683698 9.261600 -0.481905 0.079501 0.872609 0.835100 -0.649100 1 0 1.000000 
0 -36.414101 0.745298 11.046900 -0.365399 0.674699 0.641299 0.873700 -0.714900 1 0 1.000000 
prison_yard001
0 -36.414101 -0.838502 11.046900 -0.405297 -0.636095 0.656595 0.826300 -0.714700 1 0 1.000000 
0 -36.414101 0.745298 11.046900 -0.365399 0.674699 0.641299 0.873700 -0.714900 1 0 1.000000 
0 -40.149700 0.683698 9.261600 -0.481905 0.079501 0.872609 0.835100 -0.649100 1 0 1.000000 
prison_yard001
0 -40.149700 0.683698 9.261600 -0.481905 0.079501 0.872609 0.835100 -0.649100 1 0 1.000000 
0 -39.173401 -2.506002 8.222700 0.056600 -0.926103 0.373001 0.868700 -0.647900 1 0 1.000000 
0 -36.414101 -0.838502 11.046900 -0.405297 -0.636095 0.656595 0.826300 -0.714700 1 0 1.000000 
prison_yard001
0 -35.100498 -0.878602 10.033300 0.592908 -0.741610 -0.313804 0.810300 -0.716800 1 0 1.000000 
0 -36.414101 -0.838502 11.046900 -0.405297 -0.636095 0.656595 0.826300 -0.714700 1 0 1.000000 
0 -39.173401 -2.506002 8.222700 0.056600 -0.926103 0.373001 0.868700 -0.647900 1 0 1.000000 
prison_yard001
0 -36.414101 0.745298 11.046900 -0.365399 0.674699 0.641299 0.873700 -0.714900 1 0 1.000000 
0 -35.100498 0.785298 10.033300 0.604092 0.702691 -0.375895 0.857000 -0.716000 1 0 1.000000 
0 -39.173401 2.412798 8.222700 0.161006 0.959537 0.231009 0.875700 -0.675100 1 0 1.000000 
prison_yard001
0 -39.173401 -2.506002 8.222700 0.056600 -0.926103 0.373001 0.818000 -0.731800 1 0 1.000000 
0 -36.699799 -0.817802 6.033400 0.869689 -0.077399 -0.487494 0.834800 -0.735800 1 0 1.000000 
0 -35.100498 -0.878602 10.033300 0.592908 -0.741610 -0.313804 0.810300 -0.716800 1 0 1.000000 
prison_yard001
0 -35.100498 0.785298 10.033300 0.604092 0.702691 -0.375895 0.857000 -0.716000 1 0 1.000000 
0 -35.100498 -0.878602 10.033300 0.592908 -0.741610 -0.313804 0.810300 -0.716800 1 0 1.000000 
0 -36.699799 -0.817802 6.033400 0.869689 -0.077399 -0.487494 0.834800 -0.735800 1 0 1.000000 
prison_yard001
0 -36.699799 -0.817802 6.033400 0.869689 -0.077399 -0.487494 0.834800 -0.735800 1 0 1.000000 
0 -39.173401 2.412798 8.222700 0.161006 0.959537 0.231009 0.867100 -0.731300 1 0 1.000000 
0 -35.100498 0.785298 10.033300 0.604092 0.702691 -0.375895 0.857000 -0.716000 1 0 1.000000 
prison_yard001
0 -25.414198 -41.720299 8.222700 -0.410791 0.881982 0.230995 0.816800 -0.648800 1 0 1.000000 
0 -25.239399 -43.698299 9.261600 -0.442122 -0.207411 0.872644 0.835100 -0.649100 1 0 1.000000 
0 -22.195698 -41.531700 11.046900 -0.683235 0.349118 0.641332 0.873700 -0.714900 1 0 1.000000 
prison_yard001
0 -21.298597 -42.837002 11.046900 0.026300 -0.753789 0.656590 0.826300 -0.714700 1 0 1.000000 
0 -22.195698 -41.531700 11.046900 -0.683235 0.349118 0.641332 0.873700 -0.714900 1 0 1.000000 
0 -25.239399 -43.698299 9.261600 -0.442122 -0.207411 0.872644 0.835100 -0.649100 1 0 1.000000 
prison_yard001
0 -25.239399 -43.698299 9.261600 -0.442122 -0.207411 0.872644 0.835100 -0.649100 1 0 1.000000 
0 -22.628098 -45.774101 8.222700 0.571185 -0.731181 0.372990 0.868700 -0.647900 1 0 1.000000 
0 -21.298597 -42.837002 11.046900 0.026300 -0.753789 0.656590 0.826300 -0.714700 1 0 1.000000 
prison_yard001
0 -20.193398 -42.125900 10.033400 0.908677 -0.275393 -0.313792 0.810300 -0.716800 1 0 1.000000 
0 -21.298597 -42.837002 11.046900 0.026300 -0.753789 0.656590 0.826300 -0.714700 1 0 1.000000 
0 -22.628098 -45.774101 8.222700 0.571185 -0.731181 0.372990 0.868700 -0.647900 1 0 1.000000 
prison_yard001
0 -22.195698 -41.531700 11.046900 -0.683235 0.349118 0.641332 0.873700 -0.714900 1 0 1.000000 
0 -21.135798 -40.754601 10.033400 0.099896 0.921266 -0.375886 0.857000 -0.716000 1 0 1.000000 
0 -25.414198 -41.720299 8.222700 -0.410791 0.881982 0.230995 0.875700 -0.675100 1 0 1.000000 
prison_yard001
0 -22.628098 -45.774101 8.222700 0.571185 -0.731181 0.372990 0.818000 -0.731800 1 0 1.000000 
0 -21.545797 -42.981701 6.033400 0.760585 0.428792 -0.487491 0.834800 -0.735800 1 0 1.000000 
0 -20.193398 -42.125900 10.033400 0.908677 -0.275393 -0.313792 0.810300 -0.716800 1 0 1.000000 
prison_yard001
0 -21.135798 -40.754601 10.033400 0.099896 0.921266 -0.375886 0.857000 -0.716000 1 0 1.000000 
0 -20.193398 -42.125900 10.033400 0.908677 -0.275393 -0.313792 0.810300 -0.716800 1 0 1.000000 
0 -21.545797 -42.981701 6.033400 0.760585 0.428792 -0.487491 0.834800 -0.735800 1 0 1.000000 
prison_yard001
0 -21.545797 -42.981701 6.033400 0.760585 0.428792 -0.487491 0.834800 -0.735800 1 0 1.000000 
0 -25.414198 -41.720299 8.222700 -0.410791 0.881982 0.230995 0.867100 -0.731300 1 0 1.000000 
0 -21.135798 -40.754601 10.033400 0.099896 0.921266 -0.375886 0.857000 -0.716000 1 0 1.000000 
prison_yard001
0 -24.024200 -4.001201 15.947100 0.854224 -0.230506 0.466013 0.495000 -0.506500 1 0 1.000000 
0 -19.124300 21.810301 19.731001 0.854224 -0.230506 0.466013 0.465400 -0.333200 1 0 1.000000 
0 -23.959801 3.888699 19.731001 0.854224 -0.230506 0.466013 0.465400 -0.506500 1 0 1.000000 
prison_yard001
0 31.750999 -4.202699 -39.126598 -0.622776 -0.459882 -0.632976 0.915500 -0.514800 1 0 1.000000 
0 32.897202 -5.754999 -39.126598 -0.622776 -0.459882 -0.632976 0.921700 -0.496200 1 0 1.000000 
0 31.750999 -7.490599 -36.737801 -0.622776 -0.459882 -0.632976 0.957300 -0.485000 1 0 1.000000 
prison_yard001
0 -21.324499 18.877001 15.947100 0.809999 -0.586199 -0.016500 0.497000 -0.270500 1 0 1.000000 
0 1.720098 50.609798 19.731001 0.809999 -0.586199 -0.016500 0.467500 -0.024200 1 0 1.000000 
0 -19.124300 21.810301 19.731001 0.807827 -0.589420 0.000000 0.467500 -0.270500 1 0 1.000000 
prison_yard001
0 31.750999 5.167701 -39.012600 0.622776 0.459882 -0.632976 0.803600 -0.843700 1 0 1.000000 
0 32.897202 6.903202 -36.623798 0.622776 0.459882 -0.632976 0.812500 -0.820500 1 0 1.000000 
0 32.897202 3.615402 -39.012600 0.622776 0.459882 -0.632976 0.812500 -0.843700 1 0 1.000000 
prison_yard001
0 -23.959801 3.888699 19.731001 0.842367 0.227391 -0.488581 0.465400 -0.506500 1 0 1.000000 
0 -19.540400 -20.607700 15.947100 0.842367 0.227391 -0.488581 0.495000 -0.667500 1 0 1.000000 
0 -24.024200 -4.001201 15.947100 0.842367 0.227391 -0.488581 0.495000 -0.506500 1 0 1.000000 
prison_yard001
0 31.750999 5.167701 -39.012600 -0.622776 -0.459882 -0.632976 0.957000 -0.544600 1 0 1.000000 
0 32.897202 3.615402 -39.012600 -0.622776 -0.459882 -0.632976 0.937500 -0.544600 1 0 1.000000 
0 31.750999 1.879801 -36.623798 -0.622776 -0.459882 -0.632976 0.915700 -0.514600 1 0 1.000000 
prison_yard001
0 -21.880400 -17.481503 19.731001 0.820037 0.571226 0.035202 0.471400 -0.729500 1 0 1.000000 
0 1.207902 -50.392899 15.947100 0.820037 0.571226 0.035202 0.501000 -0.980600 1 0 1.000000 
0 -19.540400 -20.607700 15.947100 0.818296 0.574797 0.000000 0.501000 -0.729500 1 0 1.000000 
prison_yard001
0 30.463301 1.437501 21.193501 0.525580 -0.303489 0.794770 0.286100 -0.967000 1 0 1.000000 
0 28.818399 -1.411599 21.193501 0.525580 -0.303489 0.794770 0.263900 -0.979900 1 0 1.000000 
0 31.285700 0.013001 20.105700 0.525580 -0.303489 0.794770 0.275000 -0.960600 1 0 1.000000 
prison_yard001
0 19.407701 -60.292999 15.947100 0.527986 0.707681 0.469487 0.492900 -0.829500 1 0 1.000000 
0 -4.482998 -44.980801 19.731001 0.527986 0.707681 0.469487 0.463300 -0.985500 1 0 1.000000 
0 12.113403 -57.361500 19.731001 0.527986 0.707681 0.469487 0.463300 -0.829500 1 0 1.000000 
prison_yard001
0 30.463301 1.437501 21.193501 -0.525580 0.303489 -0.794770 0.286100 -0.967000 1 0 1.000000 
0 31.285700 0.013001 20.105700 -0.525580 0.303489 -0.794770 0.275000 -0.960600 1 0 1.000000 
0 28.818399 -1.411599 21.193501 -0.525580 0.303489 -0.794770 0.263900 -0.967000 1 0 1.000000 
prison_yard001
0 -19.124300 21.810301 19.731001 0.892977 -0.105397 -0.437589 0.465400 -0.333200 1 0 1.000000 
0 -24.024200 -4.001201 15.947100 0.892977 -0.105397 -0.437589 0.495000 -0.506500 1 0 1.000000 
0 -21.324499 18.877001 15.947100 0.892977 -0.105397 -0.437589 0.495000 -0.333200 1 0 1.000000 
prison_yard001
0 26.350901 1.437501 18.950300 -0.794770 -0.303489 0.525580 0.292100 -0.899400 1 0 1.000000 
0 26.350901 -1.411599 17.305401 -0.794770 -0.303489 0.525580 0.269800 -0.912200 1 0 1.000000 
0 27.438700 0.013001 19.772800 -0.794770 -0.303489 0.525580 0.280900 -0.892900 1 0 1.000000 
prison_yard001
0 19.702497 60.311600 19.731001 0.527693 -0.718691 -0.452794 0.471600 -0.210500 1 0 1.000000 
0 -4.042302 45.261700 15.947100 0.527693 -0.718691 -0.452794 0.501100 -0.364600 1 0 1.000000 
0 12.406997 57.339199 15.947100 0.527693 -0.718691 -0.452794 0.501100 -0.210500 1 0 1.000000 
prison_yard001
0 26.350901 1.437501 18.950300 0.794770 0.303489 -0.525580 0.292100 -0.899400 1 0 1.000000 
0 27.438700 0.013001 19.772800 0.794770 0.303489 -0.525580 0.280900 -0.892900 1 0 1.000000 
0 26.350901 -1.411599 17.305401 0.794770 0.303489 -0.525580 0.269800 -0.899400 1 0 1.000000 
prison_yard001
0 -4.482998 -44.980801 19.731001 0.420804 0.773707 -0.473604 0.463300 -0.985500 1 0 1.000000 
0 19.407701 -60.292999 15.947100 0.420804 0.773707 -0.473604 0.492900 -0.829500 1 0 1.000000 
0 1.207902 -50.392899 15.947100 0.420804 0.773707 -0.473604 0.492900 -0.985500 1 0 1.000000 
prison_yard001
0 32.897202 3.615402 -39.012600 1.000000 0.000000 0.000000 0.552600 -0.754100 1 0 1.000000 
0 32.897202 6.903202 -36.623798 1.000000 0.000000 0.000000 0.578300 -0.735400 1 0 1.000000 
0 32.897202 5.167701 -34.235100 1.000000 0.000000 0.000000 0.564700 -0.716700 1 0 1.000000 
prison_yard001
0 -19.540400 -20.607700 15.947100 0.877399 0.085400 0.472099 0.495000 -0.667500 1 0 1.000000 
0 -23.959801 3.888699 19.731001 0.877399 0.085400 0.472099 0.465400 -0.506500 1 0 1.000000 
0 -21.880400 -17.481503 19.731001 0.877399 0.085400 0.472099 0.465400 -0.667500 1 0 1.000000 
prison_yard001
0 31.750999 5.167701 -39.012600 -0.925852 0.305717 0.222113 0.957000 -0.544600 1 0 1.000000 
0 32.897202 5.167701 -34.235100 -0.925852 0.305717 0.222113 0.937500 -0.484600 1 0 1.000000 
0 32.897202 6.903202 -36.623798 -0.925852 0.305717 0.222113 0.972800 -0.496000 1 0 1.000000 
prison_yard001
0 -4.042302 45.261700 15.947100 0.421097 -0.780595 0.461897 0.501100 -0.364600 1 0 1.000000 
0 19.702497 60.311600 19.731001 0.421097 -0.780595 0.461897 0.471600 -0.210500 1 0 1.000000 
0 1.720098 50.609798 19.731001 0.421097 -0.780595 0.461897 0.471600 -0.364600 1 0 1.000000 
prison_yard001
0 31.750999 -4.202699 -39.126598 -1.000000 -0.000000 0.000000 0.915500 -0.514800 1 0 1.000000 
0 31.750999 -7.490599 -36.737801 -1.000000 -0.000000 0.000000 0.957300 -0.485000 1 0 1.000000 
0 31.750999 -5.754999 -34.348999 -1.000000 -0.000000 0.000000 0.978900 -0.515400 1 0 1.000000 
prison_yard001
0 39.004097 62.605999 19.731001 0.233793 -0.872973 -0.428087 0.471600 -0.033600 1 0 1.000000 
0 12.406997 57.339199 15.947100 0.233793 -0.872973 -0.428087 0.501100 -0.210500 1 0 1.000000 
0 39.015995 64.464798 15.947100 0.233793 -0.872973 -0.428087 0.501100 -0.033600 1 0 1.000000 
prison_yard001
0 32.897202 -5.754999 -39.126598 0.925852 -0.305717 0.222113 0.479400 -0.755000 1 0 1.000000 
0 31.750999 -5.754999 -34.348999 0.925852 -0.305717 0.222113 0.491500 -0.717600 1 0 1.000000 
0 31.750999 -7.490599 -36.737801 0.925852 -0.305717 0.222113 0.469600 -0.724800 1 0 1.000000 
prison_yard001
0 32.897202 -5.754999 -39.126598 0.958734 -0.167106 0.230008 0.479400 -0.755000 1 0 1.000000 
0 32.897202 -2.467199 -36.737801 0.958734 -0.167106 0.230008 0.505100 -0.736300 1 0 1.000000 
0 31.750999 -5.754999 -34.348999 0.958734 -0.167106 0.230008 0.491500 -0.717600 1 0 1.000000 
prison_yard001
0 -29.027500 -0.046601 18.876200 -0.547203 -0.236801 0.802804 0.801400 -0.931100 1 0 1.000000 
0 -28.438801 -1.186701 17.736099 0.048399 -0.998787 -0.009000 0.816800 -0.939000 1 0 1.000000 
0 -22.627100 -0.046601 18.876101 0.111196 0.566579 0.816470 0.801400 -1.017200 1 0 1.000000 
prison_yard001
0 -36.414101 0.745298 11.046900 -0.365399 0.674699 0.641299 0.811800 -0.767300 1 0 1.000000 
0 -28.438900 1.093499 17.736099 0.017100 0.971700 -0.235600 0.816800 -0.939000 1 0 1.000000 
0 -35.100498 0.785298 10.033300 0.604092 0.702691 -0.375895 0.831200 -0.770500 1 0 1.000000 
prison_yard001
0 -28.438900 1.093499 17.736099 0.017100 0.971700 -0.235600 0.816800 -0.939000 1 0 1.000000 
0 -27.963699 -0.046601 16.709400 0.475584 0.000000 -0.879670 0.831100 -0.886600 1 0 1.000000 
0 -35.100498 0.785298 10.033300 0.604092 0.702691 -0.375895 0.831200 -0.770500 1 0 1.000000 
prison_yard001
0 -35.100498 -0.878602 10.033300 0.592908 -0.741610 -0.313804 0.831200 -0.770500 1 0 1.000000 
0 -35.100498 0.785298 10.033300 0.604092 0.702691 -0.375895 0.831200 -0.770500 1 0 1.000000 
0 -27.963699 -0.046601 16.709400 0.475584 0.000000 -0.879670 0.831100 -0.886600 1 0 1.000000 
prison_yard001
0 -27.963699 -0.046601 16.709400 0.475584 0.000000 -0.879670 0.831100 -0.886600 1 0 1.000000 
0 -28.438801 -1.186701 17.736099 0.048399 -0.998787 -0.009000 0.816800 -0.939000 1 0 1.000000 
0 -35.100498 -0.878602 10.033300 0.592908 -0.741610 -0.313804 0.831200 -0.770500 1 0 1.000000 
prison_yard001
0 -35.100498 -0.878602 10.033300 0.592908 -0.741610 -0.313804 0.831200 -0.770500 1 0 1.000000 
0 -28.438801 -1.186701 17.736099 0.048399 -0.998787 -0.009000 0.816800 -0.939000 1 0 1.000000 
0 -36.414101 -0.838502 11.046900 -0.405297 -0.636095 0.656595 0.811800 -0.767300 1 0 1.000000 
prison_yard001
0 -28.438801 -1.186701 17.736099 0.048399 -0.998787 -0.009000 0.816800 -0.939000 1 0 1.000000 
0 -29.027500 -0.046601 18.876200 -0.547203 -0.236801 0.802804 0.801400 -0.931100 1 0 1.000000 
0 -36.414101 -0.838502 11.046900 -0.405297 -0.636095 0.656595 0.811800 -0.767300 1 0 1.000000 
prison_yard001
0 -36.414101 0.745298 11.046900 -0.365399 0.674699 0.641299 0.811800 -0.767300 1 0 1.000000 
0 -36.414101 -0.838502 11.046900 -0.405297 -0.636095 0.656595 0.811800 -0.767300 1 0 1.000000 
0 -29.027500 -0.046601 18.876200 -0.547203 -0.236801 0.802804 0.801400 -0.931100 1 0 1.000000 
prison_yard001
0 -28.438900 1.093499 17.736099 0.017100 0.971700 -0.235600 0.816800 -0.939000 1 0 1.000000 
0 -36.414101 0.745298 11.046900 -0.365399 0.674699 0.641299 0.811800 -0.767300 1 0 1.000000 
0 -29.027500 -0.046601 18.876200 -0.547203 -0.236801 0.802804 0.801400 -0.931100 1 0 1.000000 
prison_yard001
0 -28.438900 1.093499 17.736099 0.017100 0.971700 -0.235600 0.816800 -0.939000 1 0 1.000000 
0 -29.027500 -0.046601 18.876200 -0.547203 -0.236801 0.802804 0.801400 -0.931100 1 0 1.000000 
0 -22.627100 -0.046601 18.876101 0.111196 0.566579 0.816470 0.801400 -1.017200 1 0 1.000000 
prison_yard001
0 -22.627100 -0.046601 18.876101 0.111196 0.566579 0.816470 0.801400 -1.017200 1 0 1.000000 
0 -22.627300 -0.046601 16.595900 0.089604 -0.547126 -0.832240 0.832100 -1.017200 1 0 1.000000 
0 -28.438900 1.093499 17.736099 0.017100 0.971700 -0.235600 0.816800 -0.939000 1 0 1.000000 
prison_yard001
0 -22.627300 -0.046601 16.595900 0.089604 -0.547126 -0.832240 0.832100 -1.017200 1 0 1.000000 
0 -22.627100 -0.046601 18.876101 0.111196 0.566579 0.816470 0.801400 -1.017200 1 0 1.000000 
0 -28.438801 -1.186701 17.736099 0.048399 -0.998787 -0.009000 0.816800 -0.939000 1 0 1.000000 
prison_yard001
0 -28.438801 -1.186701 17.736099 0.048399 -0.998787 -0.009000 0.816800 -0.939000 1 0 1.000000 
0 -27.963699 -0.046601 16.709400 0.475584 0.000000 -0.879670 0.830600 -0.945400 1 0 1.000000 
0 -22.627300 -0.046601 16.595900 0.089604 -0.547126 -0.832240 0.832100 -1.017200 1 0 1.000000 
prison_yard001
0 -27.963699 -0.046601 16.709400 0.475584 0.000000 -0.879670 0.830600 -0.945400 1 0 1.000000 
0 -28.438900 1.093499 17.736099 0.017100 0.971700 -0.235600 0.816800 -0.939000 1 0 1.000000 
0 -22.627300 -0.046601 16.595900 0.089604 -0.547126 -0.832240 0.832100 -1.017200 1 0 1.000000 
prison_yard001
0 31.750999 -4.202699 -39.126598 -0.901596 0.411398 0.133699 0.915500 -0.514800 1 0 1.000000 
0 31.750999 -5.754999 -34.348999 -0.901596 0.411398 0.133699 0.978900 -0.515400 1 0 1.000000 
0 32.897202 -2.467199 -36.737801 -0.901596 0.411398 0.133699 0.956700 -0.545300 1 0 1.000000 
prison_yard001
0 32.897202 3.615402 -39.012600 0.901596 -0.411398 0.133699 0.552600 -0.754100 1 0 1.000000 
0 32.897202 5.167701 -34.235100 0.901596 -0.411398 0.133699 0.564700 -0.716700 1 0 1.000000 
0 31.750999 1.879801 -36.623798 0.901596 -0.411398 0.133699 0.542800 -0.723900 1 0 1.000000 
prison_yard001
0 28.540701 0.027901 20.346201 -0.740819 -0.242206 0.626516 0.162500 -0.331200 1 0 1.000000 
0 29.681900 1.169101 19.867100 -0.180695 0.969275 0.166896 0.171400 -0.327400 1 0 1.000000 
0 -23.666300 0.027899 19.171200 -0.045802 -0.000000 0.998950 0.162500 -0.729800 1 0 1.000000 
prison_yard001
0 -23.666300 0.027899 16.888800 -0.059701 -0.000000 -0.998216 0.162500 -0.729800 1 0 1.000000 
0 -23.666300 0.027899 19.171200 -0.045802 -0.000000 0.998950 0.162500 -0.729800 1 0 1.000000 
0 29.681900 1.169101 19.867100 -0.180695 0.969275 0.166896 0.171400 -0.327400 1 0 1.000000 
prison_yard001
0 29.681900 1.169101 19.867100 -0.180695 0.969275 0.166896 0.171400 -0.327400 1 0 1.000000 
0 28.985901 0.027901 16.888800 0.963638 0.000000 -0.267211 0.162500 -0.318500 1 0 1.000000 
0 -23.666300 0.027899 16.888800 -0.059701 -0.000000 -0.998216 0.162500 -0.729800 1 0 1.000000 
prison_yard001
0 28.985901 0.027901 16.888800 0.963638 0.000000 -0.267211 0.162500 -0.318500 1 0 1.000000 
0 29.681900 -1.113299 19.867100 0.040502 -0.975749 0.215111 0.153600 -0.327400 1 0 1.000000 
0 -23.666300 0.027899 16.888800 -0.059701 -0.000000 -0.998216 0.162500 -0.729800 1 0 1.000000 
prison_yard001
0 -23.666300 0.027899 19.171200 -0.045802 -0.000000 0.998950 0.162500 -0.729800 1 0 1.000000 
0 -23.666300 0.027899 16.888800 -0.059701 -0.000000 -0.998216 0.162500 -0.729800 1 0 1.000000 
0 29.681900 -1.113299 19.867100 0.040502 -0.975749 0.215111 0.153600 -0.327400 1 0 1.000000 
prison_yard001
0 29.681900 -1.113299 19.867100 0.040502 -0.975749 0.215111 0.153600 -0.327400 1 0 1.000000 
0 28.540701 0.027901 20.346201 -0.740819 -0.242206 0.626516 0.162500 -0.331200 1 0 1.000000 
0 -23.666300 0.027899 19.171200 -0.045802 -0.000000 0.998950 0.162500 -0.729800 1 0 1.000000 
prison_yard001
0 31.750999 5.167701 -39.012600 -0.958734 0.167106 0.230008 0.957000 -0.544600 1 0 1.000000 
0 31.750999 1.879801 -36.623798 -0.958734 0.167106 0.230008 0.915700 -0.514600 1 0 1.000000 
0 32.897202 5.167701 -34.235100 -0.958734 0.167106 0.230008 0.937500 -0.484600 1 0 1.000000 
prison_yard001
0 39.072304 -62.598099 15.947100 0.227406 0.897522 0.377809 0.492900 -0.648800 1 0 1.000000 
0 12.113403 -57.361500 19.731001 0.227406 0.897522 0.377809 0.463300 -0.829500 1 0 1.000000 
0 39.069904 -64.190002 19.731001 0.227406 0.897522 0.377809 0.463300 -0.648800 1 0 1.000000 
end
